100
251 70
215 249
96 40
65 123
210 107
219 155
257 191
158 36
41 16
77 249
126 294
253 61
238 64
294 260
127 198
16 101
167 42
263 70
173 298
283 255
7 48
229 23
97 257
283 280
235 16
260 36
49 224
63 161
224 242
2 216
92 294
199 59
247 101
153 268
239 58
257 76
45 215
179 233
132 155
44 107
100 127
181 104
264 260
115 72
290 9
225 75
166 10
170 33
54 156
158 104
252 185
133 107
22 230
170 261
100 132
113 267
221 212
151 179
228 56
293 34
155 26
23 255
247 57
217 161
110 175
101 104
253 126
159 75
290 235
136 290
294 208
179 167
30 41
47 252
79 238
240 19
62 138
154 47
11 252
280 30
32 283
297 290
132 290
105 79
153 232
106 63
195 280
76 59
106 62
225 134
65 164
96 290
299 77
61 33
289 258
154 299
299 58
257 3
26 182
94 61
0 1
0 6
0 7
0 10
0 12
0 15
0 17
0 20
0 21
0 22
0 24
0 25
0 31
0 32
0 34
0 35
0 37
0 38
0 39
0 43
0 46
0 50
0 51
0 52
0 53
0 54
0 56
0 59
0 61
0 62
0 64
0 65
0 66
0 69
0 70
0 71
0 74
0 75
0 82
0 85
0 88
0 90
0 91
0 92
0 94
0 96
0 99
1 5
1 8
1 9
1 12
1 18
1 21
1 23
1 26
1 27
1 28
1 29
1 30
1 34
1 36
1 40
1 41
1 42
1 43
1 46
1 48
1 50
1 51
1 53
1 54
1 55
1 56
1 58
1 59
1 60
1 62
1 64
1 65
1 68
1 70
1 71
1 74
1 77
1 79
1 82
1 83
1 84
1 86
1 87
1 88
1 89
1 90
1 91
1 93
1 94
1 96
2 5
2 6
2 7
2 8
2 11
2 12
2 17
2 18
2 19
2 21
2 23
2 26
2 28
2 30
2 31
2 32
2 38
2 40
2 41
2 44
2 45
2 48
2 51
2 52
2 53
2 55
2 56
2 57
2 58
2 59
2 60
2 61
2 64
2 65
2 67
2 68
2 71
2 75
2 77
2 83
2 84
2 86
2 90
2 91
2 92
2 97
3 4
3 6
3 9
3 14
3 16
3 18
3 19
3 20
3 21
3 22
3 23
3 26
3 32
3 37
3 38
3 40
3 41
3 43
3 44
3 46
3 49
3 58
3 59
3 60
3 61
3 64
3 66
3 68
3 70
3 71
3 72
3 73
3 76
3 77
3 79
3 80
3 81
3 82
3 86
3 87
3 94
3 95
3 96
3 99
4 6
4 7
4 10
4 11
4 12
4 14
4 18
4 19
4 20
4 21
4 22
4 23
4 24
4 26
4 27
4 33
4 35
4 37
4 39
4 43
4 46
4 47
4 50
4 51
4 52
4 53
4 54
4 58
4 59
4 63
4 65
4 66
4 67
4 68
4 69
4 70
4 71
4 74
4 75
4 78
4 80
4 81
4 83
4 84
4 89
4 90
4 91
4 94
4 99
5 8
5 10
5 11
5 12
5 13
5 14
5 15
5 16
5 18
5 21
5 23
5 24
5 25
5 27
5 28
5 30
5 31
5 33
5 36
5 37
5 38
5 43
5 44
5 46
5 48
5 49
5 51
5 52
5 54
5 59
5 60
5 61
5 62
5 63
5 64
5 67
5 69
5 71
5 72
5 75
5 78
5 84
5 86
5 87
5 88
5 90
5 91
5 92
5 93
5 95
5 96
5 97
5 99
6 7
6 8
6 12
6 13
6 16
6 17
6 20
6 23
6 24
6 26
6 27
6 35
6 37
6 38
6 40
6 41
6 42
6 43
6 45
6 46
6 48
6 49
6 58
6 59
6 60
6 66
6 67
6 68
6 69
6 71
6 72
6 74
6 75
6 76
6 77
6 78
6 80
6 81
6 82
6 84
6 86
6 88
6 89
6 90
6 91
6 95
6 96
6 97
7 8
7 13
7 17
7 19
7 22
7 24
7 25
7 26
7 30
7 32
7 33
7 36
7 40
7 41
7 43
7 45
7 47
7 49
7 50
7 51
7 52
7 53
7 57
7 59
7 61
7 62
7 63
7 64
7 66
7 69
7 70
7 72
7 73
7 74
7 75
7 76
7 78
7 81
7 82
7 83
7 84
7 87
7 89
7 90
7 91
7 92
7 93
7 94
7 95
7 97
7 98
8 10
8 12
8 14
8 18
8 21
8 22
8 23
8 25
8 27
8 28
8 30
8 31
8 32
8 34
8 35
8 36
8 37
8 40
8 43
8 44
8 45
8 47
8 48
8 50
8 55
8 58
8 59
8 60
8 62
8 67
8 72
8 75
8 77
8 78
8 79
8 80
8 83
8 84
8 86
8 87
8 88
8 89
8 91
8 95
9 11
9 12
9 16
9 17
9 18
9 19
9 22
9 25
9 27
9 31
9 32
9 36
9 38
9 40
9 41
9 42
9 43
9 44
9 48
9 52
9 55
9 56
9 57
9 61
9 62
9 63
9 66
9 68
9 70
9 71
9 72
9 74
9 77
9 78
9 80
9 82
9 86
9 91
9 92
9 95
9 96
9 97
9 99
10 12
10 15
10 21
10 23
10 25
10 29
10 31
10 32
10 34
10 36
10 37
10 38
10 39
10 40
10 41
10 43
10 44
10 45
10 46
10 47
10 48
10 52
10 54
10 58
10 60
10 65
10 69
10 70
10 73
10 74
10 75
10 76
10 77
10 81
10 83
10 85
10 87
10 89
10 90
10 92
10 94
10 95
10 96
10 97
10 98
10 99
11 12
11 14
11 15
11 16
11 20
11 21
11 25
11 29
11 33
11 34
11 36
11 37
11 38
11 39
11 42
11 44
11 48
11 49
11 50
11 51
11 52
11 58
11 59
11 62
11 63
11 64
11 66
11 67
11 69
11 74
11 76
11 77
11 79
11 80
11 84
11 85
11 86
11 87
11 91
11 92
11 93
11 95
11 96
11 97
11 98
11 99
12 15
12 17
12 18
12 19
12 22
12 23
12 25
12 26
12 30
12 31
12 33
12 36
12 37
12 38
12 41
12 48
12 49
12 50
12 51
12 52
12 53
12 54
12 55
12 56
12 58
12 59
12 60
12 64
12 68
12 70
12 71
12 72
12 73
12 75
12 76
12 78
12 80
12 81
12 83
12 84
12 85
12 86
12 87
12 89
12 95
12 96
12 99
13 14
13 16
13 17
13 19
13 25
13 28
13 29
13 33
13 35
13 37
13 45
13 48
13 49
13 51
13 52
13 53
13 55
13 58
13 59
13 61
13 62
13 63
13 66
13 67
13 68
13 69
13 71
13 72
13 76
13 79
13 81
13 83
13 84
13 86
13 88
13 90
13 91
13 94
13 95
13 96
13 97
13 99
14 15
14 16
14 18
14 19
14 22
14 25
14 26
14 29
14 32
14 36
14 38
14 39
14 42
14 43
14 44
14 46
14 48
14 49
14 52
14 54
14 55
14 57
14 58
14 59
14 61
14 66
14 67
14 68
14 69
14 71
14 76
14 79
14 80
14 81
14 82
14 84
14 85
14 87
14 89
14 90
14 94
14 95
14 98
15 16
15 17
15 21
15 22
15 23
15 24
15 25
15 29
15 32
15 35
15 38
15 41
15 42
15 43
15 45
15 48
15 51
15 52
15 53
15 54
15 55
15 58
15 63
15 65
15 68
15 69
15 72
15 76
15 78
15 79
15 80
15 85
15 86
15 88
15 91
15 93
15 97
15 98
15 99
16 19
16 20
16 21
16 22
16 23
16 26
16 27
16 28
16 37
16 38
16 39
16 44
16 45
16 47
16 49
16 51
16 53
16 54
16 59
16 62
16 64
16 66
16 67
16 71
16 76
16 77
16 78
16 79
16 81
16 83
16 85
16 86
16 87
16 91
16 92
16 94
16 95
16 99
17 18
17 21
17 22
17 23
17 26
17 28
17 30
17 31
17 33
17 37
17 39
17 43
17 45
17 47
17 48
17 49
17 51
17 52
17 53
17 54
17 59
17 60
17 64
17 65
17 68
17 73
17 77
17 79
17 82
17 84
17 86
17 90
17 93
17 95
17 97
17 99
18 19
18 20
18 23
18 26
18 27
18 29
18 32
18 33
18 36
18 37
18 42
18 43
18 44
18 45
18 46
18 48
18 52
18 54
18 60
18 61
18 62
18 63
18 65
18 67
18 69
18 70
18 71
18 74
18 76
18 77
18 79
18 83
18 85
18 87
18 88
18 89
18 91
18 96
18 97
18 98
19 24
19 25
19 27
19 28
19 34
19 36
19 37
19 39
19 42
19 44
19 47
19 48
19 51
19 52
19 53
19 57
19 58
19 59
19 61
19 62
19 64
19 65
19 66
19 68
19 75
19 80
19 81
19 85
19 86
19 88
19 89
19 90
19 95
19 96
19 97
19 98
19 99
20 21
20 22
20 23
20 24
20 25
20 26
20 27
20 28
20 32
20 34
20 38
20 41
20 49
20 50
20 52
20 54
20 55
20 58
20 60
20 61
20 62
20 64
20 65
20 66
20 67
20 71
20 72
20 75
20 76
20 78
20 80
20 81
20 83
20 85
20 86
20 87
20 89
20 90
20 94
20 96
20 97
21 22
21 23
21 25
21 28
21 31
21 33
21 35
21 38
21 39
21 40
21 42
21 44
21 48
21 54
21 56
21 57
21 62
21 63
21 64
21 65
21 67
21 68
21 71
21 73
21 76
21 79
21 83
21 84
21 85
21 88
21 89
21 92
21 96
21 99
22 23
22 24
22 25
22 29
22 30
22 32
22 33
22 35
22 38
22 40
22 41
22 45
22 48
22 52
22 58
22 59
22 60
22 62
22 67
22 70
22 74
22 75
22 76
22 77
22 78
22 79
22 83
22 85
22 87
22 88
22 92
22 94
22 96
22 99
23 24
23 25
23 30
23 31
23 32
23 36
23 37
23 38
23 40
23 44
23 47
23 49
23 51
23 54
23 56
23 57
23 61
23 62
23 63
23 64
23 65
23 67
23 70
23 71
23 72
23 73
23 77
23 78
23 80
23 85
23 87
23 90
23 94
23 95
23 96
23 98
23 99
24 26
24 27
24 30
24 38
24 45
24 47
24 51
24 52
24 53
24 55
24 58
24 59
24 61
24 62
24 63
24 65
24 66
24 67
24 69
24 70
24 71
24 72
24 74
24 77
24 78
24 80
24 81
24 85
24 86
24 87
24 89
24 91
24 93
24 94
24 95
24 96
24 99
25 26
25 27
25 28
25 29
25 30
25 31
25 38
25 39
25 40
25 42
25 45
25 47
25 48
25 51
25 56
25 57
25 58
25 61
25 62
25 64
25 66
25 68
25 71
25 73
25 74
25 76
25 77
25 78
25 79
25 80
25 81
25 83
25 88
25 91
25 92
25 94
25 95
25 97
25 98
25 99
26 27
26 28
26 30
26 37
26 38
26 41
26 42
26 43
26 44
26 45
26 48
26 49
26 52
26 54
26 56
26 57
26 58
26 59
26 63
26 66
26 67
26 69
26 70
26 71
26 76
26 79
26 83
26 86
26 87
26 91
26 92
26 93
26 94
26 99
27 28
27 29
27 30
27 32
27 33
27 34
27 39
27 40
27 44
27 48
27 50
27 52
27 54
27 57
27 58
27 62
27 66
27 67
27 68
27 74
27 76
27 82
27 85
27 86
27 87
27 89
27 90
27 91
27 93
27 94
27 96
27 99
28 29
28 30
28 32
28 35
28 36
28 37
28 42
28 46
28 47
28 48
28 49
28 50
28 52
28 53
28 56
28 58
28 59
28 63
28 64
28 66
28 68
28 70
28 71
28 72
28 74
28 75
28 76
28 77
28 78
28 80
28 82
28 83
28 84
28 86
28 87
28 89
28 90
28 92
28 94
28 95
28 97
29 31
29 34
29 36
29 37
29 40
29 41
29 43
29 45
29 46
29 47
29 52
29 54
29 55
29 57
29 58
29 59
29 60
29 61
29 62
29 64
29 65
29 67
29 69
29 73
29 75
29 76
29 77
29 79
29 80
29 81
29 82
29 84
29 85
29 86
29 90
29 91
29 92
29 94
30 31
30 32
30 34
30 35
30 37
30 39
30 42
30 43
30 47
30 57
30 58
30 60
30 64
30 67
30 68
30 70
30 71
30 73
30 75
30 76
30 78
30 79
30 80
30 82
30 84
30 88
30 89
30 91
30 92
30 94
30 95
30 98
31 32
31 33
31 34
31 35
31 36
31 37
31 39
31 41
31 47
31 48
31 51
31 53
31 54
31 55
31 57
31 59
31 61
31 64
31 65
31 69
31 71
31 72
31 74
31 75
31 79
31 80
31 82
31 84
31 85
31 86
31 92
31 93
31 94
32 33
32 35
32 40
32 41
32 45
32 46
32 47
32 50
32 51
32 54
32 56
32 61
32 63
32 64
32 66
32 67
32 68
32 69
32 74
32 76
32 78
32 79
32 81
32 84
32 86
32 89
32 91
32 92
32 93
32 95
32 97
32 99
33 37
33 38
33 39
33 40
33 41
33 42
33 43
33 44
33 45
33 46
33 47
33 50
33 57
33 61
33 62
33 63
33 68
33 69
33 70
33 71
33 72
33 74
33 76
33 77
33 78
33 80
33 83
33 87
33 88
33 89
33 92
33 93
33 94
33 95
33 96
33 99
34 35
34 37
34 38
34 40
34 43
34 45
34 48
34 51
34 53
34 55
34 56
34 57
34 58
34 59
34 61
34 62
34 63
34 68
34 71
34 73
34 77
34 78
34 79
34 80
34 81
34 82
34 83
34 88
34 90
34 93
34 94
34 95
34 96
34 98
35 37
35 38
35 39
35 40
35 41
35 43
35 44
35 45
35 46
35 47
35 49
35 54
35 55
35 57
35 61
35 62
35 63
35 65
35 66
35 67
35 69
35 70
35 72
35 74
35 77
35 79
35 82
35 83
35 86
35 87
35 88
35 89
35 90
35 94
35 96
35 99
36 37
36 38
36 40
36 42
36 43
36 45
36 46
36 47
36 49
36 50
36 51
36 52
36 53
36 54
36 56
36 57
36 58
36 59
36 60
36 61
36 62
36 64
36 66
36 67
36 70
36 73
36 75
36 77
36 78
36 79
36 84
36 85
36 88
36 89
36 90
36 91
36 93
36 95
36 96
36 98
36 99
37 38
37 39
37 43
37 44
37 45
37 47
37 50
37 52
37 53
37 59
37 60
37 62
37 64
37 69
37 70
37 71
37 73
37 79
37 82
37 83
37 84
37 86
37 87
37 88
37 90
37 94
37 95
37 97
37 98
37 99
38 43
38 46
38 51
38 52
38 56
38 57
38 59
38 60
38 61
38 62
38 63
38 66
38 70
38 73
38 75
38 77
38 79
38 80
38 81
38 82
38 83
38 84
38 90
38 91
38 93
38 94
38 95
38 97
38 99
39 42
39 45
39 46
39 47
39 48
39 49
39 50
39 52
39 53
39 54
39 57
39 60
39 66
39 67
39 69
39 71
39 72
39 74
39 77
39 78
39 80
39 81
39 83
39 84
39 89
39 90
39 91
39 92
39 93
39 95
39 97
39 99
40 42
40 43
40 44
40 45
40 46
40 47
40 49
40 52
40 54
40 55
40 56
40 57
40 58
40 60
40 61
40 62
40 68
40 69
40 72
40 73
40 74
40 75
40 76
40 78
40 79
40 80
40 85
40 86
40 88
40 92
40 94
40 96
40 98
41 42
41 43
41 45
41 49
41 50
41 54
41 55
41 56
41 60
41 61
41 62
41 63
41 65
41 67
41 68
41 73
41 74
41 77
41 80
41 81
41 83
41 84
41 86
41 87
41 89
41 91
41 92
41 95
41 96
41 99
42 44
42 46
42 48
42 49
42 51
42 52
42 53
42 56
42 57
42 59
42 60
42 62
42 63
42 65
42 66
42 68
42 69
42 70
42 71
42 72
42 74
42 75
42 76
42 77
42 79
42 83
42 84
42 85
42 90
42 92
42 96
42 97
42 98
42 99
43 45
43 46
43 47
43 50
43 52
43 53
43 54
43 55
43 57
43 59
43 60
43 62
43 63
43 64
43 66
43 67
43 70
43 71
43 72
43 74
43 78
43 82
43 83
43 87
43 88
43 89
43 90
43 94
43 95
43 99
44 97
44 76
44 77
44 86
44 72
44 92
44 90
44 94
44 75
44 78
44 82
44 47
44 48
44 49
44 51
44 53
44 56
44 57
44 58
44 85
45 46
45 48
45 49
45 52
45 56
45 57
45 60
45 61
45 63
45 64
45 65
45 66
45 67
45 68
45 70
45 72
45 73
45 76
45 77
45 79
45 80
45 82
45 84
45 86
45 87
45 88
45 89
45 90
45 91
45 92
45 93
45 94
45 97
45 98
46 72
46 96
46 75
46 79
46 67
46 84
46 85
46 86
46 87
46 88
46 91
46 94
46 95
46 98
46 92
46 99
46 83
46 82
46 55
46 58
46 74
46 63
47 65
47 69
47 96
47 87
47 76
47 84
47 71
47 95
47 93
47 90
47 99
47 83
47 88
47 53
47 89
47 57
47 58
47 59
47 60
48 50
48 52
48 53
48 55
48 56
48 59
48 60
48 61
48 62
48 63
48 64
48 68
48 70
48 71
48 72
48 73
48 76
48 77
48 78
48 80
48 81
48 82
48 83
48 86
48 88
48 92
48 93
48 97
48 98
49 76
49 74
49 77
49 75
49 67
49 85
49 91
49 90
49 69
49 96
49 80
49 98
49 93
49 50
49 51
49 53
49 54
49 55
49 56
49 61
49 62
50 54
50 56
50 57
50 58
50 60
50 61
50 63
50 66
50 68
50 69
50 70
50 71
50 72
50 73
50 74
50 76
50 77
50 80
50 84
50 86
50 88
50 90
50 92
50 95
50 97
50 98
51 52
51 53
51 54
51 57
51 58
51 62
51 70
51 71
51 72
51 79
51 83
51 84
51 85
51 86
51 87
51 88
51 90
51 92
51 93
51 94
51 96
52 53
52 55
52 56
52 57
52 59
52 60
52 61
52 62
52 65
52 68
52 69
52 71
52 72
52 73
52 74
52 76
52 77
52 78
52 79
52 80
52 81
52 82
52 83
52 85
52 86
52 87
52 89
52 90
52 91
52 92
52 94
52 95
52 96
52 97
52 98
52 99
53 56
53 59
53 61
53 63
53 64
53 66
53 68
53 71
53 72
53 74
53 76
53 77
53 79
53 80
53 81
53 83
53 84
53 85
53 87
53 90
53 91
53 92
53 93
53 95
54 57
54 58
54 60
54 62
54 64
54 67
54 68
54 70
54 71
54 74
54 76
54 77
54 79
54 81
54 86
54 87
54 88
54 95
54 96
54 98
54 99
55 56
55 58
55 59
55 60
55 61
55 62
55 63
55 66
55 67
55 68
55 73
55 74
55 75
55 77
55 78
55 81
55 82
55 84
55 85
55 87
55 88
55 90
55 91
55 93
55 95
55 96
55 97
55 98
56 68
56 74
56 77
56 78
56 79
56 80
56 92
56 82
56 84
56 88
56 90
56 99
56 93
56 63
57 58
57 61
57 62
57 63
57 66
57 67
57 68
57 73
57 74
57 75
57 76
57 77
57 79
57 89
57 90
57 91
57 93
57 94
57 97
57 98
57 99
58 59
58 67
58 68
58 69
58 71
58 72
58 73
58 82
58 83
58 87
58 88
58 89
58 91
58 92
58 93
58 96
58 99
59 60
59 62
59 63
59 64
59 66
59 68
59 70
59 72
59 74
59 76
59 77
59 82
59 84
59 87
59 88
59 93
59 94
59 95
59 96
59 99
60 66
60 69
60 70
60 72
60 73
60 76
60 77
60 80
60 86
60 88
60 89
60 90
60 93
60 94
60 95
60 96
60 97
60 98
61 64
61 67
61 68
61 71
61 74
61 76
61 77
61 78
61 79
61 84
61 90
61 91
61 92
61 94
61 95
61 96
61 97
61 99
62 64
62 66
62 68
62 69
62 71
62 75
62 77
62 79
62 80
62 83
62 88
62 90
62 96
62 98
63 65
63 66
63 68
63 70
63 71
63 72
63 74
63 75
63 77
63 88
63 89
63 93
63 94
63 97
63 98
63 99
64 67
64 68
64 69
64 71
64 74
64 75
64 76
64 78
64 79
64 81
64 83
64 84
64 85
64 87
64 88
64 89
64 90
64 91
64 93
64 96
64 99
65 67
65 70
65 71
65 72
65 75
65 76
65 77
65 86
65 89
65 90
65 79
65 92
65 88
65 82
65 93
65 91
65 83
65 94
65 84
65 87
66 69
66 71
66 73
66 74
66 75
66 76
66 77
66 78
66 81
66 85
66 93
66 94
66 97
66 98
67 68
67 69
67 70
67 71
67 73
67 78
67 79
67 82
67 83
67 87
67 93
67 94
67 95
67 97
67 98
68 69
68 73
68 77
68 82
68 83
68 84
68 85
68 86
68 87
68 88
68 93
68 94
68 96
68 98
68 99
69 70
69 74
69 75
69 76
69 77
69 80
69 81
69 83
69 85
69 88
69 90
69 91
69 93
69 96
69 98
70 71
70 74
70 75
70 76
70 77
70 78
70 81
70 82
70 83
70 84
70 85
70 90
70 91
70 92
70 93
71 72
71 73
71 74
71 75
71 80
71 82
71 83
71 86
71 87
71 90
71 91
71 93
71 94
71 98
72 74
72 77
72 80
72 99
72 85
72 91
72 90
72 96
72 92
73 87
73 80
73 82
73 88
73 90
73 96
73 93
73 74
73 85
74 76
74 77
74 79
74 84
74 85
74 90
74 92
74 94
74 99
75 82
75 83
75 84
75 85
75 86
75 88
75 89
75 90
75 93
75 94
75 95
75 98
76 78
76 84
76 85
76 86
76 87
76 90
76 91
76 94
76 96
76 98
76 99
77 78
77 83
77 84
77 85
77 87
77 88
77 91
77 95
77 96
77 98
77 99
78 79
78 80
78 82
78 84
78 85
78 87
78 91
78 92
78 93
78 94
78 95
78 96
78 99
79 80
79 81
79 82
79 83
79 91
79 92
79 94
79 98
80 84
80 86
80 89
80 90
80 93
80 94
80 95
80 96
80 98
80 99
81 96
81 88
81 89
81 91
81 92
81 97
81 99
81 84
82 85
82 86
82 89
82 90
82 92
82 93
82 96
82 97
82 99
83 85
83 90
83 92
83 93
83 94
83 95
83 97
84 86
84 94
84 96
84 97
84 98
84 99
85 88
85 91
85 93
85 94
85 95
85 96
85 97
85 98
85 99
86 87
86 88
86 91
86 93
86 95
86 96
86 97
86 98
86 99
87 89
87 90
87 95
87 99
88 90
88 93
88 97
88 98
89 92
89 90
89 93
89 95
89 98
89 99
90 92
90 94
90 96
90 97
90 98
91 92
91 96
91 97
91 98
91 99
92 93
92 94
92 95
92 96
92 99
93 94
93 97
93 98
94 95
94 96
94 98
94 99
95 96
95 99
96 99
97 98
97 99
