graph {
		0 -- 3
		0 -- 5
		0 -- 6
		0 -- 7
		0 -- 10
		0 -- 11
		0 -- 12
		0 -- 14
		0 -- 15
		0 -- 17
		0 -- 19
		0 -- 21
		0 -- 22
		0 -- 23
		0 -- 28
		0 -- 34
		0 -- 36
		0 -- 37
		0 -- 38
		0 -- 39
		0 -- 41
		0 -- 43
		0 -- 45
		0 -- 46
		0 -- 51
		0 -- 52
		0 -- 55
		0 -- 56
		0 -- 58
		0 -- 61
		0 -- 63
		0 -- 66
		0 -- 69
		0 -- 70
		0 -- 72
		0 -- 73
		0 -- 75
		0 -- 76
		0 -- 79
		0 -- 84
		0 -- 86
		0 -- 87
		0 -- 88
		0 -- 89
		0 -- 90
		0 -- 92
		0 -- 96
		0 -- 97
		1 -- 65
		1 -- 2
		1 -- 67
		1 -- 4
		1 -- 69
		1 -- 97
		1 -- 9
		1 -- 86
		1 -- 12
		1 -- 13
		1 -- 14
		1 -- 15
		1 -- 16
		1 -- 17
		1 -- 83
		1 -- 66
		1 -- 22
		1 -- 89
		1 -- 90
		1 -- 28
		1 -- 93
		1 -- 95
		1 -- 96
		1 -- 33
		1 -- 34
		1 -- 35
		1 -- 38
		1 -- 81
		1 -- 42
		1 -- 45
		1 -- 47
		1 -- 48
		1 -- 49
		1 -- 50
		1 -- 51
		1 -- 52
		1 -- 76
		1 -- 55
		1 -- 56
		1 -- 60
		1 -- 62
		2 -- 4
		2 -- 6
		2 -- 9
		2 -- 10
		2 -- 11
		2 -- 16
		2 -- 17
		2 -- 19
		2 -- 20
		2 -- 21
		2 -- 22
		2 -- 30
		2 -- 31
		2 -- 33
		2 -- 35
		2 -- 36
		2 -- 38
		2 -- 39
		2 -- 42
		2 -- 44
		2 -- 45
		2 -- 47
		2 -- 48
		2 -- 49
		2 -- 51
		2 -- 53
		2 -- 56
		2 -- 58
		2 -- 61
		2 -- 64
		2 -- 65
		2 -- 67
		2 -- 70
		2 -- 72
		2 -- 73
		2 -- 74
		2 -- 79
		2 -- 80
		2 -- 83
		2 -- 85
		2 -- 90
		2 -- 91
		2 -- 92
		2 -- 93
		2 -- 94
		2 -- 97
		2 -- 99
		3 -- 7
		3 -- 9
		3 -- 10
		3 -- 11
		3 -- 13
		3 -- 14
		3 -- 15
		3 -- 18
		3 -- 20
		3 -- 21
		3 -- 22
		3 -- 23
		3 -- 26
		3 -- 28
		3 -- 35
		3 -- 36
		3 -- 37
		3 -- 38
		3 -- 40
		3 -- 42
		3 -- 47
		3 -- 48
		3 -- 50
		3 -- 51
		3 -- 53
		3 -- 56
		3 -- 57
		3 -- 59
		3 -- 61
		3 -- 62
		3 -- 70
		3 -- 71
		3 -- 72
		3 -- 73
		3 -- 74
		3 -- 75
		3 -- 77
		3 -- 78
		3 -- 79
		3 -- 81
		3 -- 84
		3 -- 85
		3 -- 88
		3 -- 91
		3 -- 92
		3 -- 93
		3 -- 95
		3 -- 96
		3 -- 97
		4 -- 6
		4 -- 7
		4 -- 10
		4 -- 11
		4 -- 13
		4 -- 16
		4 -- 17
		4 -- 18
		4 -- 19
		4 -- 23
		4 -- 25
		4 -- 26
		4 -- 27
		4 -- 28
		4 -- 30
		4 -- 33
		4 -- 34
		4 -- 36
		4 -- 38
		4 -- 39
		4 -- 40
		4 -- 41
		4 -- 42
		4 -- 45
		4 -- 46
		4 -- 47
		4 -- 49
		4 -- 50
		4 -- 52
		4 -- 56
		4 -- 60
		4 -- 61
		4 -- 62
		4 -- 64
		4 -- 65
		4 -- 71
		4 -- 73
		4 -- 74
		4 -- 75
		4 -- 77
		4 -- 79
		4 -- 83
		4 -- 84
		4 -- 85
		4 -- 86
		4 -- 88
		4 -- 97
		4 -- 98
		4 -- 99
		5 -- 10
		5 -- 14
		5 -- 15
		5 -- 16
		5 -- 18
		5 -- 21
		5 -- 22
		5 -- 28
		5 -- 30
		5 -- 33
		5 -- 34
		5 -- 36
		5 -- 37
		5 -- 40
		5 -- 42
		5 -- 43
		5 -- 47
		5 -- 49
		5 -- 50
		5 -- 51
		5 -- 52
		5 -- 53
		5 -- 54
		5 -- 56
		5 -- 57
		5 -- 58
		5 -- 59
		5 -- 60
		5 -- 62
		5 -- 63
		5 -- 65
		5 -- 70
		5 -- 71
		5 -- 74
		5 -- 75
		5 -- 78
		5 -- 79
		5 -- 80
		5 -- 86
		5 -- 91
		5 -- 93
		5 -- 95
		5 -- 97
		6 -- 9
		6 -- 10
		6 -- 12
		6 -- 13
		6 -- 16
		6 -- 17
		6 -- 18
		6 -- 19
		6 -- 21
		6 -- 23
		6 -- 24
		6 -- 25
		6 -- 26
		6 -- 27
		6 -- 29
		6 -- 30
		6 -- 32
		6 -- 33
		6 -- 34
		6 -- 36
		6 -- 37
		6 -- 38
		6 -- 39
		6 -- 41
		6 -- 42
		6 -- 46
		6 -- 47
		6 -- 48
		6 -- 49
		6 -- 50
		6 -- 52
		6 -- 54
		6 -- 55
		6 -- 56
		6 -- 58
		6 -- 61
		6 -- 62
		6 -- 64
		6 -- 67
		6 -- 69
		6 -- 70
		6 -- 72
		6 -- 76
		6 -- 77
		6 -- 79
		6 -- 80
		6 -- 82
		6 -- 86
		6 -- 87
		6 -- 89
		6 -- 90
		6 -- 91
		6 -- 92
		6 -- 93
		6 -- 95
		6 -- 96
		6 -- 98
		7 -- 8
		7 -- 9
		7 -- 10
		7 -- 13
		7 -- 14
		7 -- 15
		7 -- 16
		7 -- 17
		7 -- 19
		7 -- 23
		7 -- 24
		7 -- 26
		7 -- 34
		7 -- 35
		7 -- 37
		7 -- 38
		7 -- 41
		7 -- 42
		7 -- 44
		7 -- 50
		7 -- 51
		7 -- 52
		7 -- 53
		7 -- 55
		7 -- 57
		7 -- 58
		7 -- 60
		7 -- 61
		7 -- 63
		7 -- 64
		7 -- 68
		7 -- 70
		7 -- 72
		7 -- 74
		7 -- 75
		7 -- 76
		7 -- 77
		7 -- 78
		7 -- 80
		7 -- 81
		7 -- 82
		7 -- 83
		7 -- 84
		7 -- 86
		7 -- 88
		7 -- 89
		7 -- 90
		7 -- 92
		7 -- 93
		7 -- 96
		7 -- 97
		7 -- 98
		7 -- 99
		8 -- 9
		8 -- 11
		8 -- 13
		8 -- 15
		8 -- 16
		8 -- 17
		8 -- 20
		8 -- 21
		8 -- 22
		8 -- 23
		8 -- 24
		8 -- 25
		8 -- 27
		8 -- 32
		8 -- 34
		8 -- 37
		8 -- 40
		8 -- 41
		8 -- 42
		8 -- 45
		8 -- 46
		8 -- 50
		8 -- 55
		8 -- 56
		8 -- 57
		8 -- 61
		8 -- 62
		8 -- 67
		8 -- 70
		8 -- 72
		8 -- 75
		8 -- 76
		8 -- 79
		8 -- 80
		8 -- 81
		8 -- 82
		8 -- 84
		8 -- 85
		8 -- 86
		8 -- 87
		8 -- 90
		8 -- 92
		8 -- 94
		8 -- 96
		8 -- 97
		8 -- 98
		8 -- 99
		9 -- 11
		9 -- 12
		9 -- 14
		9 -- 15
		9 -- 17
		9 -- 18
		9 -- 20
		9 -- 23
		9 -- 25
		9 -- 28
		9 -- 33
		9 -- 39
		9 -- 41
		9 -- 42
		9 -- 43
		9 -- 46
		9 -- 47
		9 -- 49
		9 -- 51
		9 -- 53
		9 -- 55
		9 -- 56
		9 -- 58
		9 -- 59
		9 -- 62
		9 -- 63
		9 -- 64
		9 -- 65
		9 -- 73
		9 -- 74
		9 -- 76
		9 -- 78
		9 -- 79
		9 -- 80
		9 -- 81
		9 -- 85
		9 -- 86
		9 -- 87
		9 -- 90
		9 -- 91
		9 -- 96
		9 -- 98
		9 -- 99
		10 -- 13
		10 -- 14
		10 -- 15
		10 -- 16
		10 -- 17
		10 -- 18
		10 -- 19
		10 -- 21
		10 -- 26
		10 -- 27
		10 -- 28
		10 -- 29
		10 -- 32
		10 -- 35
		10 -- 36
		10 -- 39
		10 -- 43
		10 -- 45
		10 -- 48
		10 -- 49
		10 -- 50
		10 -- 51
		10 -- 52
		10 -- 53
		10 -- 55
		10 -- 56
		10 -- 57
		10 -- 60
		10 -- 61
		10 -- 62
		10 -- 64
		10 -- 65
		10 -- 67
		10 -- 69
		10 -- 70
		10 -- 71
		10 -- 73
		10 -- 77
		10 -- 79
		10 -- 80
		10 -- 81
		10 -- 83
		10 -- 84
		10 -- 85
		10 -- 86
		10 -- 87
		10 -- 88
		10 -- 89
		10 -- 94
		10 -- 96
		10 -- 98
		10 -- 99
		11 -- 12
		11 -- 15
		11 -- 17
		11 -- 19
		11 -- 20
		11 -- 21
		11 -- 24
		11 -- 25
		11 -- 26
		11 -- 27
		11 -- 28
		11 -- 31
		11 -- 32
		11 -- 34
		11 -- 37
		11 -- 38
		11 -- 39
		11 -- 41
		11 -- 42
		11 -- 43
		11 -- 45
		11 -- 46
		11 -- 48
		11 -- 51
		11 -- 54
		11 -- 58
		11 -- 60
		11 -- 61
		11 -- 63
		11 -- 65
		11 -- 71
		11 -- 74
		11 -- 75
		11 -- 76
		11 -- 79
		11 -- 81
		11 -- 82
		11 -- 83
		11 -- 85
		11 -- 86
		11 -- 88
		11 -- 89
		11 -- 90
		11 -- 93
		11 -- 94
		11 -- 98
		12 -- 15
		12 -- 16
		12 -- 17
		12 -- 19
		12 -- 22
		12 -- 27
		12 -- 29
		12 -- 30
		12 -- 31
		12 -- 33
		12 -- 34
		12 -- 36
		12 -- 37
		12 -- 40
		12 -- 41
		12 -- 43
		12 -- 44
		12 -- 45
		12 -- 50
		12 -- 51
		12 -- 57
		12 -- 63
		12 -- 64
		12 -- 65
		12 -- 66
		12 -- 67
		12 -- 70
		12 -- 71
		12 -- 72
		12 -- 77
		12 -- 79
		12 -- 80
		12 -- 81
		12 -- 82
		12 -- 83
		12 -- 85
		12 -- 87
		12 -- 92
		12 -- 93
		12 -- 94
		12 -- 95
		13 -- 15
		13 -- 18
		13 -- 19
		13 -- 21
		13 -- 23
		13 -- 24
		13 -- 25
		13 -- 27
		13 -- 29
		13 -- 31
		13 -- 33
		13 -- 34
		13 -- 41
		13 -- 42
		13 -- 43
		13 -- 45
		13 -- 46
		13 -- 49
		13 -- 50
		13 -- 53
		13 -- 54
		13 -- 56
		13 -- 57
		13 -- 58
		13 -- 60
		13 -- 64
		13 -- 65
		13 -- 66
		13 -- 67
		13 -- 68
		13 -- 69
		13 -- 71
		13 -- 72
		13 -- 73
		13 -- 74
		13 -- 76
		13 -- 79
		13 -- 80
		13 -- 83
		13 -- 85
		13 -- 87
		13 -- 88
		13 -- 89
		13 -- 94
		13 -- 96
		13 -- 99
		14 -- 16
		14 -- 18
		14 -- 21
		14 -- 22
		14 -- 23
		14 -- 26
		14 -- 27
		14 -- 28
		14 -- 31
		14 -- 33
		14 -- 34
		14 -- 35
		14 -- 38
		14 -- 40
		14 -- 41
		14 -- 42
		14 -- 46
		14 -- 48
		14 -- 50
		14 -- 51
		14 -- 53
		14 -- 54
		14 -- 56
		14 -- 59
		14 -- 60
		14 -- 63
		14 -- 64
		14 -- 66
		14 -- 67
		14 -- 69
		14 -- 70
		14 -- 71
		14 -- 72
		14 -- 73
		14 -- 77
		14 -- 78
		14 -- 79
		14 -- 80
		14 -- 81
		14 -- 82
		14 -- 83
		14 -- 85
		14 -- 86
		14 -- 89
		14 -- 91
		14 -- 93
		14 -- 95
		14 -- 96
		15 -- 17
		15 -- 20
		15 -- 21
		15 -- 24
		15 -- 25
		15 -- 27
		15 -- 28
		15 -- 30
		15 -- 33
		15 -- 35
		15 -- 36
		15 -- 39
		15 -- 40
		15 -- 42
		15 -- 43
		15 -- 44
		15 -- 46
		15 -- 47
		15 -- 50
		15 -- 51
		15 -- 53
		15 -- 54
		15 -- 55
		15 -- 56
		15 -- 60
		15 -- 62
		15 -- 67
		15 -- 69
		15 -- 70
		15 -- 71
		15 -- 72
		15 -- 77
		15 -- 79
		15 -- 82
		15 -- 83
		15 -- 85
		15 -- 87
		15 -- 89
		15 -- 91
		15 -- 92
		15 -- 96
		15 -- 97
		15 -- 99
		16 -- 17
		16 -- 18
		16 -- 21
		16 -- 29
		16 -- 33
		16 -- 35
		16 -- 36
		16 -- 37
		16 -- 38
		16 -- 39
		16 -- 41
		16 -- 42
		16 -- 44
		16 -- 45
		16 -- 46
		16 -- 49
		16 -- 51
		16 -- 52
		16 -- 53
		16 -- 54
		16 -- 55
		16 -- 58
		16 -- 59
		16 -- 60
		16 -- 61
		16 -- 64
		16 -- 65
		16 -- 66
		16 -- 67
		16 -- 68
		16 -- 74
		16 -- 75
		16 -- 77
		16 -- 78
		16 -- 81
		16 -- 82
		16 -- 83
		16 -- 84
		16 -- 85
		16 -- 87
		16 -- 89
		16 -- 93
		16 -- 95
		17 -- 19
		17 -- 22
		17 -- 23
		17 -- 25
		17 -- 26
		17 -- 29
		17 -- 31
		17 -- 33
		17 -- 34
		17 -- 36
		17 -- 39
		17 -- 41
		17 -- 42
		17 -- 45
		17 -- 51
		17 -- 52
		17 -- 53
		17 -- 55
		17 -- 56
		17 -- 58
		17 -- 62
		17 -- 63
		17 -- 65
		17 -- 66
		17 -- 69
		17 -- 72
		17 -- 73
		17 -- 79
		17 -- 81
		17 -- 82
		17 -- 86
		17 -- 87
		17 -- 88
		17 -- 91
		17 -- 92
		17 -- 93
		17 -- 95
		17 -- 96
		17 -- 98
		17 -- 99
		18 -- 19
		18 -- 20
		18 -- 21
		18 -- 22
		18 -- 23
		18 -- 24
		18 -- 26
		18 -- 27
		18 -- 28
		18 -- 31
		18 -- 32
		18 -- 37
		18 -- 40
		18 -- 43
		18 -- 44
		18 -- 45
		18 -- 47
		18 -- 50
		18 -- 51
		18 -- 54
		18 -- 55
		18 -- 57
		18 -- 58
		18 -- 62
		18 -- 64
		18 -- 65
		18 -- 66
		18 -- 68
		18 -- 70
		18 -- 72
		18 -- 75
		18 -- 76
		18 -- 78
		18 -- 81
		18 -- 82
		18 -- 84
		18 -- 88
		18 -- 92
		18 -- 93
		18 -- 99
		19 -- 20
		19 -- 21
		19 -- 22
		19 -- 26
		19 -- 27
		19 -- 28
		19 -- 29
		19 -- 30
		19 -- 31
		19 -- 34
		19 -- 38
		19 -- 46
		19 -- 47
		19 -- 49
		19 -- 50
		19 -- 51
		19 -- 52
		19 -- 55
		19 -- 56
		19 -- 59
		19 -- 63
		19 -- 64
		19 -- 65
		19 -- 67
		19 -- 71
		19 -- 75
		19 -- 76
		19 -- 78
		19 -- 85
		19 -- 86
		19 -- 87
		19 -- 88
		19 -- 90
		19 -- 91
		19 -- 92
		19 -- 93
		19 -- 95
		19 -- 98
		20 -- 64
		20 -- 86
		20 -- 70
		20 -- 66
		20 -- 77
		20 -- 80
		20 -- 84
		20 -- 21
		20 -- 73
		20 -- 23
		20 -- 90
		20 -- 27
		20 -- 28
		20 -- 94
		20 -- 36
		20 -- 37
		20 -- 43
		20 -- 78
		20 -- 82
		20 -- 72
		20 -- 83
		20 -- 52
		20 -- 54
		20 -- 55
		20 -- 87
		20 -- 60
		20 -- 62
		21 -- 23
		21 -- 24
		21 -- 29
		21 -- 30
		21 -- 33
		21 -- 34
		21 -- 35
		21 -- 37
		21 -- 42
		21 -- 45
		21 -- 46
		21 -- 47
		21 -- 48
		21 -- 51
		21 -- 52
		21 -- 55
		21 -- 56
		21 -- 61
		21 -- 64
		21 -- 65
		21 -- 68
		21 -- 70
		21 -- 72
		21 -- 80
		21 -- 85
		21 -- 88
		21 -- 89
		21 -- 91
		21 -- 92
		21 -- 95
		21 -- 97
		21 -- 98
		21 -- 99
		22 -- 23
		22 -- 25
		22 -- 26
		22 -- 27
		22 -- 30
		22 -- 32
		22 -- 37
		22 -- 38
		22 -- 39
		22 -- 40
		22 -- 41
		22 -- 43
		22 -- 44
		22 -- 46
		22 -- 48
		22 -- 50
		22 -- 51
		22 -- 52
		22 -- 58
		22 -- 59
		22 -- 62
		22 -- 65
		22 -- 67
		22 -- 68
		22 -- 69
		22 -- 70
		22 -- 71
		22 -- 72
		22 -- 74
		22 -- 75
		22 -- 76
		22 -- 80
		22 -- 83
		22 -- 85
		22 -- 87
		22 -- 88
		22 -- 89
		22 -- 91
		22 -- 96
		22 -- 98
		22 -- 99
		23 -- 24
		23 -- 25
		23 -- 26
		23 -- 28
		23 -- 29
		23 -- 30
		23 -- 35
		23 -- 36
		23 -- 37
		23 -- 39
		23 -- 40
		23 -- 41
		23 -- 43
		23 -- 45
		23 -- 49
		23 -- 54
		23 -- 58
		23 -- 67
		23 -- 68
		23 -- 69
		23 -- 70
		23 -- 71
		23 -- 74
		23 -- 75
		23 -- 78
		23 -- 83
		23 -- 85
		23 -- 86
		23 -- 90
		23 -- 93
		23 -- 95
		23 -- 97
		23 -- 98
		24 -- 25
		24 -- 27
		24 -- 28
		24 -- 31
		24 -- 34
		24 -- 35
		24 -- 36
		24 -- 37
		24 -- 39
		24 -- 41
		24 -- 46
		24 -- 47
		24 -- 48
		24 -- 51
		24 -- 52
		24 -- 55
		24 -- 56
		24 -- 57
		24 -- 59
		24 -- 60
		24 -- 61
		24 -- 62
		24 -- 63
		24 -- 66
		24 -- 71
		24 -- 72
		24 -- 73
		24 -- 74
		24 -- 76
		24 -- 78
		24 -- 80
		24 -- 84
		24 -- 85
		24 -- 87
		24 -- 89
		24 -- 90
		24 -- 91
		24 -- 92
		24 -- 94
		24 -- 95
		24 -- 98
		25 -- 28
		25 -- 29
		25 -- 33
		25 -- 34
		25 -- 36
		25 -- 37
		25 -- 38
		25 -- 42
		25 -- 48
		25 -- 50
		25 -- 52
		25 -- 55
		25 -- 59
		25 -- 60
		25 -- 61
		25 -- 62
		25 -- 64
		25 -- 66
		25 -- 67
		25 -- 68
		25 -- 69
		25 -- 72
		25 -- 75
		25 -- 76
		25 -- 77
		25 -- 78
		25 -- 84
		25 -- 87
		25 -- 91
		25 -- 94
		25 -- 95
		25 -- 97
		25 -- 98
		26 -- 65
		26 -- 69
		26 -- 72
		26 -- 96
		26 -- 77
		26 -- 79
		26 -- 98
		26 -- 85
		26 -- 89
		26 -- 90
		26 -- 27
		26 -- 28
		26 -- 29
		26 -- 31
		26 -- 95
		26 -- 33
		26 -- 34
		26 -- 87
		26 -- 70
		26 -- 41
		26 -- 42
		26 -- 43
		26 -- 45
		26 -- 48
		26 -- 50
		26 -- 83
		26 -- 58
		26 -- 59
		26 -- 61
		27 -- 28
		27 -- 31
		27 -- 33
		27 -- 34
		27 -- 36
		27 -- 37
		27 -- 41
		27 -- 43
		27 -- 44
		27 -- 46
		27 -- 47
		27 -- 51
		27 -- 53
		27 -- 55
		27 -- 56
		27 -- 57
		27 -- 58
		27 -- 62
		27 -- 63
		27 -- 69
		27 -- 70
		27 -- 71
		27 -- 73
		27 -- 75
		27 -- 76
		27 -- 78
		27 -- 84
		27 -- 85
		27 -- 90
		27 -- 91
		27 -- 94
		28 -- 30
		28 -- 31
		28 -- 36
		28 -- 37
		28 -- 39
		28 -- 40
		28 -- 41
		28 -- 43
		28 -- 44
		28 -- 47
		28 -- 49
		28 -- 51
		28 -- 52
		28 -- 53
		28 -- 60
		28 -- 61
		28 -- 64
		28 -- 65
		28 -- 68
		28 -- 69
		28 -- 70
		28 -- 74
		28 -- 75
		28 -- 77
		28 -- 78
		28 -- 81
		28 -- 84
		28 -- 88
		28 -- 89
		28 -- 90
		28 -- 91
		28 -- 95
		28 -- 99
		29 -- 32
		29 -- 35
		29 -- 37
		29 -- 38
		29 -- 40
		29 -- 41
		29 -- 43
		29 -- 44
		29 -- 45
		29 -- 47
		29 -- 50
		29 -- 51
		29 -- 52
		29 -- 53
		29 -- 54
		29 -- 56
		29 -- 60
		29 -- 61
		29 -- 62
		29 -- 63
		29 -- 64
		29 -- 65
		29 -- 69
		29 -- 71
		29 -- 72
		29 -- 73
		29 -- 74
		29 -- 75
		29 -- 78
		29 -- 79
		29 -- 81
		29 -- 82
		29 -- 84
		29 -- 87
		29 -- 88
		29 -- 93
		29 -- 94
		29 -- 95
		29 -- 96
		29 -- 97
		29 -- 98
		29 -- 99
		30 -- 64
		30 -- 65
		30 -- 67
		30 -- 71
		30 -- 96
		30 -- 80
		30 -- 84
		30 -- 88
		30 -- 79
		30 -- 93
		30 -- 94
		30 -- 69
		30 -- 32
		30 -- 35
		30 -- 38
		30 -- 40
		30 -- 92
		30 -- 42
		30 -- 47
		30 -- 49
		30 -- 52
		30 -- 53
		30 -- 55
		30 -- 56
		30 -- 58
		30 -- 59
		30 -- 61
		30 -- 62
		30 -- 63
		31 -- 33
		31 -- 35
		31 -- 36
		31 -- 43
		31 -- 44
		31 -- 47
		31 -- 48
		31 -- 49
		31 -- 50
		31 -- 55
		31 -- 57
		31 -- 58
		31 -- 60
		31 -- 62
		31 -- 64
		31 -- 67
		31 -- 70
		31 -- 71
		31 -- 73
		31 -- 74
		31 -- 75
		31 -- 76
		31 -- 78
		31 -- 79
		31 -- 83
		31 -- 85
		31 -- 87
		31 -- 91
		31 -- 92
		31 -- 94
		31 -- 96
		31 -- 98
		32 -- 33
		32 -- 34
		32 -- 35
		32 -- 36
		32 -- 38
		32 -- 39
		32 -- 40
		32 -- 46
		32 -- 49
		32 -- 50
		32 -- 51
		32 -- 54
		32 -- 57
		32 -- 58
		32 -- 59
		32 -- 61
		32 -- 63
		32 -- 65
		32 -- 66
		32 -- 67
		32 -- 68
		32 -- 69
		32 -- 71
		32 -- 72
		32 -- 73
		32 -- 74
		32 -- 75
		32 -- 76
		32 -- 77
		32 -- 78
		32 -- 79
		32 -- 80
		32 -- 84
		32 -- 85
		32 -- 87
		32 -- 90
		32 -- 93
		32 -- 97
		32 -- 99
		33 -- 34
		33 -- 35
		33 -- 37
		33 -- 39
		33 -- 40
		33 -- 42
		33 -- 43
		33 -- 44
		33 -- 45
		33 -- 46
		33 -- 48
		33 -- 49
		33 -- 52
		33 -- 53
		33 -- 55
		33 -- 56
		33 -- 57
		33 -- 58
		33 -- 60
		33 -- 61
		33 -- 64
		33 -- 65
		33 -- 66
		33 -- 68
		33 -- 70
		33 -- 72
		33 -- 73
		33 -- 75
		33 -- 78
		33 -- 79
		33 -- 80
		33 -- 83
		33 -- 87
		33 -- 88
		33 -- 90
		33 -- 91
		33 -- 93
		33 -- 96
		33 -- 98
		34 -- 39
		34 -- 41
		34 -- 43
		34 -- 44
		34 -- 45
		34 -- 48
		34 -- 51
		34 -- 52
		34 -- 53
		34 -- 54
		34 -- 62
		34 -- 64
		34 -- 66
		34 -- 70
		34 -- 75
		34 -- 76
		34 -- 77
		34 -- 82
		34 -- 85
		34 -- 86
		34 -- 88
		34 -- 89
		34 -- 90
		34 -- 92
		34 -- 97
		34 -- 98
		34 -- 99
		35 -- 36
		35 -- 38
		35 -- 41
		35 -- 43
		35 -- 44
		35 -- 49
		35 -- 50
		35 -- 53
		35 -- 54
		35 -- 56
		35 -- 58
		35 -- 62
		35 -- 68
		35 -- 72
		35 -- 73
		35 -- 75
		35 -- 76
		35 -- 77
		35 -- 81
		35 -- 82
		35 -- 83
		35 -- 86
		35 -- 87
		35 -- 90
		35 -- 93
		35 -- 94
		35 -- 96
		35 -- 99
		36 -- 37
		36 -- 38
		36 -- 39
		36 -- 40
		36 -- 41
		36 -- 42
		36 -- 44
		36 -- 46
		36 -- 49
		36 -- 53
		36 -- 54
		36 -- 58
		36 -- 59
		36 -- 60
		36 -- 62
		36 -- 64
		36 -- 65
		36 -- 68
		36 -- 69
		36 -- 70
		36 -- 72
		36 -- 73
		36 -- 76
		36 -- 79
		36 -- 80
		36 -- 84
		36 -- 85
		36 -- 86
		36 -- 87
		36 -- 91
		36 -- 93
		36 -- 94
		36 -- 95
		36 -- 97
		37 -- 38
		37 -- 39
		37 -- 45
		37 -- 46
		37 -- 48
		37 -- 49
		37 -- 50
		37 -- 52
		37 -- 54
		37 -- 58
		37 -- 60
		37 -- 61
		37 -- 62
		37 -- 73
		37 -- 76
		37 -- 78
		37 -- 81
		37 -- 82
		37 -- 88
		37 -- 89
		37 -- 90
		37 -- 97
		37 -- 98
		37 -- 99
		38 -- 39
		38 -- 40
		38 -- 41
		38 -- 42
		38 -- 43
		38 -- 46
		38 -- 47
		38 -- 57
		38 -- 58
		38 -- 59
		38 -- 69
		38 -- 72
		38 -- 73
		38 -- 74
		38 -- 76
		38 -- 78
		38 -- 81
		38 -- 85
		38 -- 86
		38 -- 88
		38 -- 90
		38 -- 91
		38 -- 92
		38 -- 93
		38 -- 94
		38 -- 95
		38 -- 96
		39 -- 67
		39 -- 69
		39 -- 78
		39 -- 75
		39 -- 84
		39 -- 85
		39 -- 68
		39 -- 95
		39 -- 81
		39 -- 40
		39 -- 42
		39 -- 80
		39 -- 48
		39 -- 49
		39 -- 53
		39 -- 89
		39 -- 73
		39 -- 56
		39 -- 58
		39 -- 60
		39 -- 63
		40 -- 41
		40 -- 42
		40 -- 43
		40 -- 44
		40 -- 45
		40 -- 47
		40 -- 49
		40 -- 56
		40 -- 58
		40 -- 61
		40 -- 63
		40 -- 64
		40 -- 66
		40 -- 67
		40 -- 69
		40 -- 70
		40 -- 71
		40 -- 74
		40 -- 75
		40 -- 77
		40 -- 78
		40 -- 79
		40 -- 80
		40 -- 82
		40 -- 88
		40 -- 93
		40 -- 94
		40 -- 95
		41 -- 43
		41 -- 45
		41 -- 49
		41 -- 50
		41 -- 52
		41 -- 54
		41 -- 56
		41 -- 57
		41 -- 58
		41 -- 59
		41 -- 61
		41 -- 63
		41 -- 64
		41 -- 65
		41 -- 68
		41 -- 72
		41 -- 75
		41 -- 76
		41 -- 77
		41 -- 78
		41 -- 79
		41 -- 80
		41 -- 81
		41 -- 82
		41 -- 83
		41 -- 84
		41 -- 86
		41 -- 88
		41 -- 90
		41 -- 91
		41 -- 92
		42 -- 45
		42 -- 46
		42 -- 48
		42 -- 50
		42 -- 52
		42 -- 53
		42 -- 54
		42 -- 55
		42 -- 59
		42 -- 60
		42 -- 62
		42 -- 64
		42 -- 69
		42 -- 71
		42 -- 73
		42 -- 76
		42 -- 78
		42 -- 79
		42 -- 80
		42 -- 81
		42 -- 82
		42 -- 86
		42 -- 87
		42 -- 89
		42 -- 94
		42 -- 95
		42 -- 97
		42 -- 98
		42 -- 99
		43 -- 45
		43 -- 47
		43 -- 51
		43 -- 57
		43 -- 58
		43 -- 60
		43 -- 61
		43 -- 63
		43 -- 66
		43 -- 67
		43 -- 69
		43 -- 70
		43 -- 74
		43 -- 75
		43 -- 77
		43 -- 78
		43 -- 79
		43 -- 80
		43 -- 81
		43 -- 84
		43 -- 86
		43 -- 93
		43 -- 94
		43 -- 95
		43 -- 97
		44 -- 46
		44 -- 52
		44 -- 53
		44 -- 54
		44 -- 55
		44 -- 59
		44 -- 60
		44 -- 61
		44 -- 62
		44 -- 63
		44 -- 64
		44 -- 65
		44 -- 66
		44 -- 67
		44 -- 68
		44 -- 69
		44 -- 70
		44 -- 72
		44 -- 73
		44 -- 74
		44 -- 78
		44 -- 81
		44 -- 82
		44 -- 83
		44 -- 84
		44 -- 85
		44 -- 89
		44 -- 90
		44 -- 91
		44 -- 92
		44 -- 94
		44 -- 96
		44 -- 97
		44 -- 99
		45 -- 47
		45 -- 48
		45 -- 52
		45 -- 58
		45 -- 61
		45 -- 64
		45 -- 66
		45 -- 67
		45 -- 71
		45 -- 74
		45 -- 75
		45 -- 77
		45 -- 78
		45 -- 79
		45 -- 84
		45 -- 85
		45 -- 86
		45 -- 87
		45 -- 88
		45 -- 89
		45 -- 90
		45 -- 91
		45 -- 92
		45 -- 93
		45 -- 95
		45 -- 97
		45 -- 98
		46 -- 66
		46 -- 69
		46 -- 76
		46 -- 81
		46 -- 89
		46 -- 72
		46 -- 95
		46 -- 98
		46 -- 91
		46 -- 80
		46 -- 73
		46 -- 49
		46 -- 50
		46 -- 51
		46 -- 52
		46 -- 55
		46 -- 56
		46 -- 88
		46 -- 58
		46 -- 61
		46 -- 85
		47 -- 49
		47 -- 50
		47 -- 52
		47 -- 53
		47 -- 55
		47 -- 56
		47 -- 57
		47 -- 61
		47 -- 62
		47 -- 64
		47 -- 65
		47 -- 66
		47 -- 68
		47 -- 70
		47 -- 73
		47 -- 77
		47 -- 78
		47 -- 81
		47 -- 84
		47 -- 86
		47 -- 87
		47 -- 88
		47 -- 89
		47 -- 90
		47 -- 91
		47 -- 93
		47 -- 94
		47 -- 95
		47 -- 99
		48 -- 64
		48 -- 68
		48 -- 65
		48 -- 72
		48 -- 77
		48 -- 80
		48 -- 81
		48 -- 84
		48 -- 89
		48 -- 91
		48 -- 93
		48 -- 99
		48 -- 70
		48 -- 78
		48 -- 49
		48 -- 52
		48 -- 54
		48 -- 57
		48 -- 58
		48 -- 60
		48 -- 74
		48 -- 62
		49 -- 50
		49 -- 53
		49 -- 55
		49 -- 58
		49 -- 59
		49 -- 62
		49 -- 63
		49 -- 64
		49 -- 65
		49 -- 68
		49 -- 69
		49 -- 72
		49 -- 74
		49 -- 75
		49 -- 78
		49 -- 82
		49 -- 84
		49 -- 85
		49 -- 86
		49 -- 87
		49 -- 89
		49 -- 90
		49 -- 92
		49 -- 93
		49 -- 95
		49 -- 96
		50 -- 73
		50 -- 98
		50 -- 87
		50 -- 92
		50 -- 94
		50 -- 97
		50 -- 67
		50 -- 77
		50 -- 96
		50 -- 71
		50 -- 83
		50 -- 53
		50 -- 72
		50 -- 57
		50 -- 60
		51 -- 52
		51 -- 55
		51 -- 56
		51 -- 57
		51 -- 61
		51 -- 62
		51 -- 64
		51 -- 65
		51 -- 66
		51 -- 73
		51 -- 74
		51 -- 76
		51 -- 82
		51 -- 83
		51 -- 87
		51 -- 89
		51 -- 90
		51 -- 93
		51 -- 94
		51 -- 95
		51 -- 96
		51 -- 97
		51 -- 98
		51 -- 99
		52 -- 53
		52 -- 58
		52 -- 60
		52 -- 62
		52 -- 63
		52 -- 64
		52 -- 65
		52 -- 68
		52 -- 71
		52 -- 72
		52 -- 73
		52 -- 75
		52 -- 76
		52 -- 82
		52 -- 83
		52 -- 85
		52 -- 86
		52 -- 88
		52 -- 89
		52 -- 91
		52 -- 93
		52 -- 95
		52 -- 97
		53 -- 66
		53 -- 70
		53 -- 76
		53 -- 83
		53 -- 78
		53 -- 86
		53 -- 69
		53 -- 96
		53 -- 97
		53 -- 93
		53 -- 56
		53 -- 95
		53 -- 60
		53 -- 85
		53 -- 63
		54 -- 57
		54 -- 58
		54 -- 59
		54 -- 61
		54 -- 62
		54 -- 65
		54 -- 66
		54 -- 71
		54 -- 73
		54 -- 74
		54 -- 75
		54 -- 77
		54 -- 78
		54 -- 79
		54 -- 80
		54 -- 81
		54 -- 82
		54 -- 83
		54 -- 84
		54 -- 85
		54 -- 87
		54 -- 88
		54 -- 89
		54 -- 92
		54 -- 94
		54 -- 95
		54 -- 97
		54 -- 98
		54 -- 99
		55 -- 56
		55 -- 60
		55 -- 61
		55 -- 62
		55 -- 64
		55 -- 65
		55 -- 67
		55 -- 68
		55 -- 70
		55 -- 71
		55 -- 74
		55 -- 77
		55 -- 79
		55 -- 81
		55 -- 82
		55 -- 83
		55 -- 87
		55 -- 89
		55 -- 91
		55 -- 93
		55 -- 94
		55 -- 98
		55 -- 99
		56 -- 57
		56 -- 58
		56 -- 59
		56 -- 60
		56 -- 61
		56 -- 62
		56 -- 63
		56 -- 65
		56 -- 66
		56 -- 68
		56 -- 72
		56 -- 78
		56 -- 80
		56 -- 82
		56 -- 84
		56 -- 85
		56 -- 87
		56 -- 89
		56 -- 91
		56 -- 93
		56 -- 95
		56 -- 97
		56 -- 98
		57 -- 68
		57 -- 70
		57 -- 75
		57 -- 77
		57 -- 88
		57 -- 99
		57 -- 84
		57 -- 85
		57 -- 86
		57 -- 90
		57 -- 91
		57 -- 97
		57 -- 82
		57 -- 72
		57 -- 58
		57 -- 59
		57 -- 60
		57 -- 61
		58 -- 59
		58 -- 61
		58 -- 63
		58 -- 65
		58 -- 66
		58 -- 67
		58 -- 68
		58 -- 71
		58 -- 72
		58 -- 73
		58 -- 74
		58 -- 76
		58 -- 77
		58 -- 81
		58 -- 83
		58 -- 85
		58 -- 87
		58 -- 90
		58 -- 92
		58 -- 94
		58 -- 96
		58 -- 98
		58 -- 99
		59 -- 61
		59 -- 62
		59 -- 63
		59 -- 64
		59 -- 67
		59 -- 68
		59 -- 70
		59 -- 72
		59 -- 73
		59 -- 74
		59 -- 75
		59 -- 76
		59 -- 78
		59 -- 79
		59 -- 80
		59 -- 84
		59 -- 85
		59 -- 86
		59 -- 87
		59 -- 88
		59 -- 89
		59 -- 93
		59 -- 94
		59 -- 96
		60 -- 61
		60 -- 64
		60 -- 66
		60 -- 68
		60 -- 69
		60 -- 71
		60 -- 72
		60 -- 73
		60 -- 74
		60 -- 75
		60 -- 79
		60 -- 80
		60 -- 81
		60 -- 83
		60 -- 84
		60 -- 86
		60 -- 90
		60 -- 91
		60 -- 93
		60 -- 98
		61 -- 62
		61 -- 63
		61 -- 65
		61 -- 67
		61 -- 69
		61 -- 71
		61 -- 72
		61 -- 73
		61 -- 75
		61 -- 76
		61 -- 79
		61 -- 81
		61 -- 82
		61 -- 83
		61 -- 85
		61 -- 88
		61 -- 90
		61 -- 94
		61 -- 95
		61 -- 98
		62 -- 64
		62 -- 66
		62 -- 68
		62 -- 70
		62 -- 72
		62 -- 73
		62 -- 74
		62 -- 75
		62 -- 76
		62 -- 77
		62 -- 79
		62 -- 80
		62 -- 81
		62 -- 82
		62 -- 83
		62 -- 84
		62 -- 86
		62 -- 88
		62 -- 90
		62 -- 95
		62 -- 96
		62 -- 97
		62 -- 99
		63 -- 64
		63 -- 67
		63 -- 70
		63 -- 74
		63 -- 79
		63 -- 80
		63 -- 75
		63 -- 78
		63 -- 92
		63 -- 69
		63 -- 97
		63 -- 98
		63 -- 65
		63 -- 93
		63 -- 83
		63 -- 73
		63 -- 88
		64 -- 66
		64 -- 68
		64 -- 69
		64 -- 70
		64 -- 71
		64 -- 73
		64 -- 74
		64 -- 76
		64 -- 78
		64 -- 83
		64 -- 85
		64 -- 86
		64 -- 88
		64 -- 89
		64 -- 90
		64 -- 91
		64 -- 92
		64 -- 93
		64 -- 94
		64 -- 95
		64 -- 97
		65 -- 66
		65 -- 67
		65 -- 73
		65 -- 76
		65 -- 77
		65 -- 81
		65 -- 83
		65 -- 84
		65 -- 86
		65 -- 87
		65 -- 88
		65 -- 89
		65 -- 90
		65 -- 91
		65 -- 92
		65 -- 93
		65 -- 97
		66 -- 67
		66 -- 68
		66 -- 69
		66 -- 71
		66 -- 73
		66 -- 74
		66 -- 75
		66 -- 76
		66 -- 78
		66 -- 79
		66 -- 81
		66 -- 83
		66 -- 84
		66 -- 85
		66 -- 88
		66 -- 93
		66 -- 95
		66 -- 96
		66 -- 97
		66 -- 98
		67 -- 69
		67 -- 70
		67 -- 78
		67 -- 81
		67 -- 85
		67 -- 87
		67 -- 88
		67 -- 89
		67 -- 90
		67 -- 91
		67 -- 93
		67 -- 94
		67 -- 97
		67 -- 99
		68 -- 69
		68 -- 74
		68 -- 76
		68 -- 77
		68 -- 78
		68 -- 79
		68 -- 80
		68 -- 81
		68 -- 82
		68 -- 85
		68 -- 86
		68 -- 87
		68 -- 88
		68 -- 90
		68 -- 92
		68 -- 94
		68 -- 95
		68 -- 97
		68 -- 99
		69 -- 70
		69 -- 71
		69 -- 73
		69 -- 74
		69 -- 75
		69 -- 76
		69 -- 80
		69 -- 81
		69 -- 83
		69 -- 88
		69 -- 93
		69 -- 95
		69 -- 96
		70 -- 73
		70 -- 75
		70 -- 76
		70 -- 79
		70 -- 81
		70 -- 82
		70 -- 84
		70 -- 87
		70 -- 88
		70 -- 89
		70 -- 90
		70 -- 91
		70 -- 92
		70 -- 93
		70 -- 94
		70 -- 96
		70 -- 97
		70 -- 98
		70 -- 99
		71 -- 96
		71 -- 72
		71 -- 73
		71 -- 81
		71 -- 75
		71 -- 90
		71 -- 78
		71 -- 86
		71 -- 99
		71 -- 82
		71 -- 92
		71 -- 85
		72 -- 73
		72 -- 80
		72 -- 81
		72 -- 83
		72 -- 85
		72 -- 86
		72 -- 88
		72 -- 92
		72 -- 95
		72 -- 98
		73 -- 77
		73 -- 79
		73 -- 80
		73 -- 81
		73 -- 85
		73 -- 91
		73 -- 92
		73 -- 93
		73 -- 95
		73 -- 96
		73 -- 97
		74 -- 84
		74 -- 91
		74 -- 97
		74 -- 98
		74 -- 99
		74 -- 85
		74 -- 92
		74 -- 95
		75 -- 76
		75 -- 79
		75 -- 80
		75 -- 81
		75 -- 82
		75 -- 83
		75 -- 84
		75 -- 86
		75 -- 93
		75 -- 95
		75 -- 98
		76 -- 77
		76 -- 78
		76 -- 79
		76 -- 80
		76 -- 81
		76 -- 82
		76 -- 83
		76 -- 84
		76 -- 86
		76 -- 91
		76 -- 94
		76 -- 95
		77 -- 92
		77 -- 83
		77 -- 89
		77 -- 88
		77 -- 91
		77 -- 90
		77 -- 95
		77 -- 84
		77 -- 99
		78 -- 79
		78 -- 82
		78 -- 86
		78 -- 87
		78 -- 88
		78 -- 91
		78 -- 93
		78 -- 95
		78 -- 96
		79 -- 80
		79 -- 81
		79 -- 85
		79 -- 86
		79 -- 90
		79 -- 93
		79 -- 94
		79 -- 95
		79 -- 96
		79 -- 97
		80 -- 81
		80 -- 82
		80 -- 83
		80 -- 84
		80 -- 86
		80 -- 88
		80 -- 89
		80 -- 90
		80 -- 93
		80 -- 94
		80 -- 97
		81 -- 82
		81 -- 84
		81 -- 89
		81 -- 90
		81 -- 91
		81 -- 94
		81 -- 96
		82 -- 86
		82 -- 89
		82 -- 90
		82 -- 91
		82 -- 93
		82 -- 95
		82 -- 96
		82 -- 97
		83 -- 86
		83 -- 87
		83 -- 88
		83 -- 93
		83 -- 96
		83 -- 97
		84 -- 88
		84 -- 89
		84 -- 90
		84 -- 91
		84 -- 95
		84 -- 97
		84 -- 98
		84 -- 99
		85 -- 88
		85 -- 89
		85 -- 90
		85 -- 91
		85 -- 93
		85 -- 96
		85 -- 97
		86 -- 88
		86 -- 90
		86 -- 91
		86 -- 93
		86 -- 96
		86 -- 97
		87 -- 88
		87 -- 89
		87 -- 93
		87 -- 95
		87 -- 96
		87 -- 99
		88 -- 91
		88 -- 92
		88 -- 93
		88 -- 99
		89 -- 90
		89 -- 91
		89 -- 93
		89 -- 96
		89 -- 99
		90 -- 93
		90 -- 95
		90 -- 96
		90 -- 97
		90 -- 98
		91 -- 93
		91 -- 98
		92 -- 98
		92 -- 94
		93 -- 95
		93 -- 99
		94 -- 99
		94 -- 96
		95 -- 98
		96 -- 98
		96 -- 99
		97 -- 98
}