100
260 125
148 25
257 99
163 141
52 281
165 3
229 126
28 46
81 6
51 291
268 243
30 137
158 129
159 154
230 183
22 10
70 95
94 268
51 143
147 35
190 41
60 295
67 195
219 70
157 51
175 144
24 134
121 114
149 65
19 35
275 175
174 166
13 95
158 229
208 101
238 26
35 21
22 190
227 231
127 100
249 177
172 211
28 72
99 138
205 163
224 149
200 220
20 147
212 78
289 165
155 235
92 225
79 265
220 238
106 105
215 99
229 191
100 31
144 91
32 226
170 111
288 151
77 267
274 185
240 63
201 170
17 208
253 99
141 250
125 242
255 127
236 162
262 98
66 211
190 132
11 54
157 225
99 174
269 267
31 56
225 139
166 207
31 23
201 154
104 130
109 176
276 50
239 49
300 90
125 119
233 122
69 53
55 140
120 141
107 72
29 50
101 171
38 235
235 30
205 113
0 65
0 3
0 4
0 6
0 71
0 72
0 9
0 10
0 75
0 12
0 13
0 77
0 80
0 18
0 67
0 85
0 23
0 68
0 79
0 28
0 29
0 95
0 33
0 35
0 36
0 39
0 40
0 92
0 97
0 82
0 74
0 54
0 73
0 59
0 61
0 62
0 63
1 2
1 3
1 4
1 8
1 12
1 13
1 14
1 16
1 17
1 19
1 20
1 21
1 24
1 25
1 27
1 28
1 29
1 30
1 31
1 33
1 35
1 37
1 39
1 40
1 41
1 42
1 43
1 44
1 49
1 54
1 55
1 56
1 57
1 58
1 60
1 61
1 63
1 65
1 68
1 69
1 70
1 72
1 73
1 75
1 76
1 77
1 78
1 79
1 83
1 84
1 86
1 87
1 89
1 91
1 93
1 96
1 97
2 5
2 6
2 8
2 9
2 10
2 11
2 15
2 16
2 17
2 18
2 20
2 21
2 22
2 24
2 30
2 31
2 32
2 34
2 35
2 36
2 39
2 40
2 48
2 51
2 53
2 55
2 57
2 59
2 60
2 61
2 62
2 64
2 66
2 67
2 71
2 74
2 75
2 78
2 80
2 81
2 84
2 85
2 86
2 91
2 92
2 94
2 97
2 98
3 5
3 6
3 7
3 8
3 9
3 10
3 13
3 17
3 18
3 21
3 22
3 23
3 25
3 33
3 36
3 38
3 40
3 41
3 43
3 44
3 45
3 46
3 48
3 52
3 53
3 57
3 58
3 59
3 60
3 62
3 64
3 66
3 71
3 74
3 77
3 79
3 82
3 87
3 88
3 90
3 93
3 94
3 95
3 97
3 99
4 7
4 11
4 12
4 13
4 14
4 15
4 17
4 18
4 20
4 22
4 24
4 25
4 27
4 28
4 29
4 30
4 31
4 33
4 35
4 38
4 42
4 43
4 45
4 50
4 51
4 53
4 60
4 66
4 67
4 68
4 69
4 72
4 73
4 74
4 75
4 76
4 78
4 79
4 81
4 82
4 83
4 84
4 86
4 89
4 92
5 64
5 96
5 68
5 71
5 8
5 76
5 74
5 11
5 12
5 13
5 14
5 79
5 16
5 88
5 18
5 83
5 84
5 78
5 24
5 89
5 26
5 27
5 90
5 31
5 32
5 33
5 35
5 75
5 37
5 38
5 39
5 40
5 41
5 42
5 91
5 51
5 54
5 55
5 57
6 7
6 8
6 10
6 11
6 12
6 13
6 17
6 19
6 24
6 26
6 27
6 28
6 29
6 31
6 32
6 34
6 35
6 37
6 38
6 41
6 43
6 44
6 47
6 48
6 49
6 51
6 54
6 55
6 56
6 57
6 58
6 61
6 65
6 69
6 76
6 77
6 78
6 82
6 84
6 86
6 87
6 89
6 90
6 91
6 93
6 97
6 98
7 71
7 8
7 9
7 10
7 75
7 12
7 13
7 79
7 16
7 17
7 67
7 97
7 22
7 89
7 24
7 25
7 27
7 28
7 29
7 30
7 80
7 70
7 91
7 37
7 39
7 92
7 44
7 45
7 93
7 47
7 48
7 76
7 53
7 56
7 57
7 59
7 60
7 94
7 62
8 9
8 12
8 13
8 16
8 17
8 19
8 21
8 22
8 28
8 30
8 31
8 33
8 34
8 35
8 37
8 39
8 40
8 41
8 42
8 44
8 45
8 46
8 47
8 48
8 50
8 52
8 55
8 61
8 64
8 66
8 67
8 68
8 71
8 77
8 78
8 79
8 81
8 84
8 86
8 88
8 89
8 91
8 92
8 97
8 98
8 99
9 11
9 14
9 15
9 17
9 19
9 20
9 26
9 27
9 28
9 29
9 32
9 33
9 35
9 37
9 39
9 40
9 41
9 46
9 47
9 48
9 49
9 50
9 51
9 52
9 53
9 55
9 56
9 58
9 59
9 60
9 64
9 67
9 71
9 72
9 73
9 74
9 75
9 76
9 78
9 79
9 80
9 82
9 86
9 88
9 89
9 92
9 97
9 98
9 99
10 11
10 12
10 15
10 16
10 17
10 19
10 21
10 22
10 23
10 24
10 27
10 30
10 31
10 32
10 36
10 37
10 38
10 40
10 41
10 44
10 45
10 46
10 47
10 48
10 51
10 52
10 54
10 55
10 56
10 59
10 61
10 63
10 65
10 66
10 67
10 69
10 72
10 73
10 74
10 75
10 76
10 77
10 80
10 82
10 86
10 89
10 90
10 91
10 92
10 93
10 94
10 95
10 96
10 99
11 12
11 14
11 15
11 16
11 19
11 20
11 22
11 26
11 27
11 28
11 30
11 34
11 35
11 37
11 38
11 40
11 42
11 43
11 44
11 45
11 49
11 50
11 54
11 55
11 56
11 60
11 66
11 68
11 71
11 73
11 74
11 81
11 83
11 84
11 86
11 87
11 88
11 89
11 90
11 91
11 92
11 94
11 97
11 99
12 15
12 20
12 22
12 23
12 24
12 26
12 27
12 28
12 30
12 31
12 32
12 33
12 34
12 36
12 39
12 41
12 43
12 46
12 47
12 49
12 53
12 54
12 56
12 62
12 64
12 66
12 67
12 70
12 71
12 73
12 74
12 75
12 78
12 79
12 80
12 82
12 84
12 87
12 89
12 92
12 96
12 97
12 98
12 99
13 14
13 15
13 17
13 19
13 20
13 21
13 24
13 25
13 27
13 28
13 32
13 38
13 39
13 40
13 42
13 43
13 47
13 52
13 53
13 54
13 55
13 56
13 59
13 60
13 61
13 63
13 68
13 69
13 70
13 71
13 75
13 78
13 79
13 81
13 82
13 83
13 87
13 88
13 90
13 91
13 92
13 93
13 95
13 96
14 19
14 20
14 23
14 25
14 30
14 31
14 32
14 33
14 34
14 35
14 37
14 39
14 41
14 42
14 43
14 44
14 48
14 50
14 56
14 58
14 59
14 60
14 64
14 65
14 68
14 70
14 72
14 75
14 76
14 81
14 84
14 85
14 86
14 87
14 89
14 90
14 91
14 92
14 95
14 99
15 67
15 69
15 70
15 78
15 77
15 17
15 18
15 83
15 20
15 21
15 73
15 26
15 79
15 92
15 94
15 95
15 34
15 99
15 36
15 39
15 40
15 66
15 45
15 47
15 76
15 49
15 50
15 82
15 55
15 84
15 59
15 60
15 62
15 63
16 64
16 68
16 70
16 66
16 77
16 80
16 17
16 82
16 19
16 20
16 85
16 23
16 25
16 90
16 27
16 28
16 94
16 95
16 32
16 33
16 98
16 99
16 37
16 65
16 97
16 40
16 42
16 43
16 46
16 48
16 72
16 50
16 52
16 56
16 87
16 63
17 64
17 75
17 18
17 20
17 85
17 23
17 24
17 25
17 26
17 79
17 28
17 31
17 97
17 98
17 91
17 36
17 65
17 40
17 41
17 42
17 47
17 52
17 54
17 55
17 84
17 58
17 95
17 60
17 62
17 63
18 65
18 68
18 72
18 87
18 78
18 82
18 20
18 85
18 86
18 23
18 25
18 79
18 29
18 94
18 31
18 97
18 34
18 99
18 81
18 42
18 43
18 93
18 47
18 48
18 50
18 51
18 52
18 53
18 89
18 55
18 57
18 58
18 62
18 63
19 21
19 23
19 24
19 25
19 26
19 28
19 31
19 32
19 33
19 34
19 36
19 37
19 38
19 39
19 41
19 42
19 44
19 45
19 46
19 49
19 50
19 53
19 55
19 57
19 58
19 62
19 64
19 67
19 73
19 75
19 77
19 79
19 80
19 82
19 83
19 89
19 91
19 93
19 94
19 95
19 96
19 97
19 99
20 21
20 22
20 24
20 25
20 26
20 27
20 29
20 34
20 35
20 36
20 38
20 40
20 41
20 42
20 43
20 44
20 48
20 51
20 54
20 55
20 57
20 58
20 59
20 61
20 62
20 63
20 64
20 65
20 69
20 71
20 74
20 75
20 76
20 78
20 80
20 82
20 84
20 86
20 87
20 88
20 90
20 91
20 94
20 97
20 98
20 99
21 25
21 26
21 27
21 28
21 29
21 30
21 31
21 33
21 38
21 42
21 43
21 44
21 45
21 46
21 47
21 48
21 52
21 53
21 55
21 56
21 58
21 59
21 61
21 62
21 65
21 66
21 68
21 69
21 70
21 71
21 77
21 79
21 80
21 82
21 85
21 86
21 87
21 88
21 89
21 93
21 96
21 98
21 99
22 23
22 25
22 26
22 28
22 29
22 30
22 34
22 37
22 43
22 45
22 47
22 51
22 52
22 53
22 55
22 57
22 59
22 65
22 66
22 67
22 68
22 69
22 71
22 72
22 73
22 77
22 79
22 84
22 85
22 86
22 87
22 88
22 89
22 94
22 95
22 96
23 24
23 28
23 30
23 32
23 34
23 38
23 39
23 40
23 41
23 43
23 44
23 46
23 48
23 49
23 50
23 52
23 56
23 58
23 59
23 61
23 62
23 63
23 65
23 66
23 67
23 75
23 76
23 77
23 78
23 85
23 86
23 87
23 90
23 96
23 97
23 98
24 25
24 27
24 31
24 33
24 35
24 36
24 37
24 40
24 41
24 44
24 45
24 46
24 47
24 48
24 49
24 50
24 52
24 54
24 56
24 60
24 61
24 66
24 68
24 75
24 76
24 77
24 78
24 82
24 84
24 86
24 87
24 88
24 90
24 91
24 92
24 93
24 94
24 95
24 96
24 97
24 98
25 27
25 28
25 29
25 30
25 38
25 40
25 41
25 44
25 48
25 49
25 50
25 51
25 56
25 57
25 59
25 60
25 61
25 63
25 65
25 67
25 68
25 71
25 72
25 73
25 74
25 75
25 81
25 83
25 84
25 86
25 87
25 89
25 90
25 91
25 92
25 93
25 95
25 97
26 28
26 29
26 32
26 33
26 39
26 41
26 43
26 44
26 46
26 47
26 49
26 53
26 57
26 59
26 60
26 61
26 62
26 65
26 66
26 67
26 68
26 71
26 72
26 73
26 74
26 75
26 76
26 78
26 79
26 80
26 81
26 82
26 86
26 88
26 90
26 95
26 96
27 29
27 32
27 33
27 35
27 36
27 38
27 41
27 46
27 47
27 49
27 50
27 52
27 53
27 55
27 56
27 61
27 63
27 64
27 65
27 68
27 69
27 71
27 72
27 73
27 76
27 77
27 81
27 83
27 84
27 85
27 87
27 88
27 89
27 92
27 93
27 94
27 97
27 98
28 38
28 40
28 42
28 47
28 50
28 52
28 54
28 60
28 63
28 64
28 67
28 68
28 69
28 71
28 72
28 73
28 74
28 76
28 77
28 78
28 79
28 81
28 83
28 84
28 85
28 86
28 88
28 89
28 90
28 91
28 93
28 97
28 98
28 99
29 31
29 34
29 35
29 37
29 39
29 40
29 42
29 44
29 45
29 49
29 52
29 53
29 57
29 58
29 59
29 60
29 61
29 62
29 64
29 65
29 66
29 67
29 71
29 73
29 74
29 77
29 78
29 79
29 80
29 83
29 84
29 85
29 86
29 87
29 89
29 90
29 92
29 93
29 94
29 96
29 98
29 99
30 68
30 67
30 86
30 76
30 77
30 79
30 75
30 84
30 71
30 94
30 31
30 33
30 99
30 82
30 38
30 39
30 97
30 43
30 44
30 45
30 46
30 49
30 53
30 89
30 72
30 87
30 61
30 62
31 32
31 33
31 34
31 37
31 39
31 41
31 43
31 44
31 46
31 47
31 48
31 49
31 50
31 53
31 56
31 61
31 62
31 63
31 65
31 66
31 74
31 76
31 77
31 79
31 82
31 83
31 84
31 85
31 86
31 87
31 89
31 90
31 92
31 96
32 34
32 35
32 36
32 39
32 43
32 44
32 45
32 47
32 49
32 52
32 55
32 57
32 63
32 65
32 68
32 70
32 73
32 74
32 77
32 78
32 81
32 83
32 84
32 85
32 86
32 88
32 89
32 91
32 92
32 94
32 95
32 96
32 97
32 98
33 34
33 38
33 39
33 42
33 44
33 46
33 47
33 51
33 54
33 55
33 56
33 58
33 59
33 61
33 64
33 66
33 68
33 69
33 71
33 74
33 75
33 77
33 79
33 81
33 84
33 90
33 91
33 99
34 35
34 36
34 38
34 40
34 42
34 46
34 49
34 51
34 52
34 53
34 54
34 55
34 57
34 58
34 60
34 61
34 62
34 66
34 67
34 69
34 70
34 72
34 73
34 78
34 79
34 80
34 82
34 84
34 87
34 90
34 91
34 92
34 97
34 99
35 36
35 39
35 40
35 42
35 43
35 44
35 47
35 48
35 51
35 52
35 53
35 54
35 56
35 57
35 58
35 59
35 60
35 63
35 64
35 65
35 66
35 69
35 70
35 71
35 72
35 75
35 76
35 77
35 79
35 80
35 82
35 85
35 86
35 88
35 89
35 91
35 93
35 94
35 96
35 98
35 99
36 39
36 40
36 41
36 42
36 44
36 45
36 49
36 52
36 53
36 54
36 55
36 58
36 60
36 61
36 62
36 66
36 70
36 73
36 74
36 75
36 79
36 80
36 82
36 84
36 86
36 87
36 92
36 93
36 94
36 95
36 97
36 99
37 38
37 40
37 41
37 42
37 43
37 44
37 45
37 50
37 52
37 53
37 54
37 55
37 59
37 62
37 65
37 66
37 67
37 68
37 71
37 73
37 75
37 78
37 80
37 82
37 84
37 86
37 88
37 91
37 95
38 39
38 40
38 44
38 48
38 49
38 51
38 53
38 54
38 55
38 57
38 61
38 62
38 63
38 64
38 67
38 69
38 72
38 73
38 74
38 75
38 76
38 77
38 78
38 79
38 84
38 86
38 87
38 88
38 89
38 90
38 92
38 93
38 94
38 95
38 97
39 40
39 44
39 47
39 48
39 50
39 51
39 53
39 57
39 59
39 60
39 61
39 63
39 67
39 70
39 71
39 72
39 74
39 76
39 77
39 79
39 83
39 86
39 90
39 92
39 93
39 94
39 95
39 97
39 98
39 99
40 44
40 46
40 49
40 50
40 51
40 52
40 54
40 55
40 60
40 63
40 64
40 66
40 67
40 68
40 71
40 74
40 75
40 77
40 79
40 81
40 82
40 83
40 84
40 85
40 86
40 88
40 89
40 90
40 91
40 92
40 94
40 99
41 43
41 45
41 47
41 51
41 54
41 56
41 59
41 60
41 63
41 65
41 71
41 73
41 74
41 76
41 77
41 78
41 81
41 83
41 84
41 85
41 86
41 93
41 95
41 96
42 44
42 46
42 47
42 48
42 49
42 50
42 51
42 53
42 54
42 55
42 56
42 57
42 59
42 60
42 62
42 63
42 67
42 68
42 69
42 70
42 72
42 74
42 79
42 90
42 91
42 93
42 95
42 96
42 97
43 45
43 46
43 47
43 50
43 52
43 53
43 61
43 62
43 63
43 65
43 66
43 67
43 69
43 71
43 72
43 74
43 75
43 77
43 82
43 83
43 84
43 85
43 86
43 87
43 89
43 90
43 91
43 92
43 93
43 95
43 97
43 98
44 45
44 48
44 49
44 50
44 51
44 53
44 54
44 56
44 57
44 59
44 63
44 66
44 67
44 68
44 69
44 72
44 74
44 75
44 78
44 79
44 81
44 82
44 83
44 84
44 86
44 89
44 91
44 93
44 96
44 97
44 98
45 46
45 48
45 50
45 53
45 54
45 56
45 57
45 58
45 60
45 62
45 63
45 64
45 69
45 70
45 71
45 77
45 78
45 79
45 80
45 81
45 86
45 89
45 91
45 92
45 95
45 98
45 99
46 64
46 65
46 68
46 69
46 70
46 77
46 78
46 79
46 81
46 86
46 89
46 92
46 90
46 96
46 98
46 47
46 48
46 49
46 88
46 94
46 54
46 57
46 59
47 48
47 50
47 52
47 57
47 61
47 63
47 65
47 66
47 67
47 69
47 70
47 72
47 77
47 79
47 80
47 81
47 85
47 86
47 87
47 88
47 91
47 93
47 96
47 97
48 50
48 51
48 54
48 56
48 57
48 63
48 65
48 67
48 68
48 69
48 73
48 75
48 76
48 78
48 79
48 85
48 88
48 89
48 90
48 92
48 95
48 97
48 98
49 51
49 54
49 55
49 56
49 59
49 60
49 61
49 62
49 63
49 64
49 67
49 68
49 69
49 70
49 71
49 74
49 76
49 78
49 80
49 82
49 83
49 84
49 86
49 87
49 89
49 90
49 91
49 93
49 94
49 97
50 51
50 57
50 58
50 61
50 62
50 64
50 66
50 68
50 70
50 73
50 75
50 76
50 77
50 78
50 80
50 81
50 85
50 86
50 87
50 88
50 89
50 90
50 91
50 93
50 95
50 97
51 52
51 54
51 56
51 57
51 58
51 59
51 60
51 62
51 64
51 67
51 69
51 70
51 76
51 78
51 79
51 81
51 84
51 90
51 91
51 94
51 95
51 96
52 55
52 56
52 57
52 58
52 59
52 61
52 65
52 66
52 69
52 70
52 73
52 76
52 77
52 78
52 81
52 82
52 83
52 84
52 86
52 89
52 95
52 96
52 98
52 99
53 54
53 55
53 57
53 58
53 59
53 60
53 66
53 68
53 71
53 72
53 75
53 77
53 82
53 83
53 86
53 91
53 92
53 93
53 94
53 96
54 56
54 58
54 60
54 61
54 63
54 65
54 66
54 69
54 70
54 74
54 76
54 80
54 81
54 82
54 83
54 84
54 88
54 90
54 91
54 92
54 93
54 95
54 97
55 57
55 59
55 61
55 62
55 64
55 66
55 67
55 70
55 72
55 78
55 82
55 83
55 85
55 86
55 91
55 92
55 93
55 95
55 99
56 57
56 59
56 66
56 67
56 68
56 70
56 72
56 75
56 78
56 79
56 80
56 84
56 85
56 86
56 87
56 89
56 90
56 91
56 93
56 95
56 96
57 58
57 59
57 60
57 61
57 65
57 69
57 76
57 77
57 79
57 80
57 84
57 85
57 86
57 87
57 88
57 90
57 92
57 93
57 94
57 96
57 99
58 64
58 83
58 65
58 74
58 98
58 86
58 88
58 89
58 90
58 91
58 92
58 84
58 97
58 96
58 73
58 59
58 60
59 62
59 64
59 66
59 67
59 68
59 72
59 73
59 76
59 78
59 81
59 83
59 85
59 87
59 88
59 92
59 95
59 99
60 62
60 66
60 67
60 69
60 70
60 71
60 74
60 76
60 77
60 81
60 82
60 83
60 84
60 86
60 87
60 88
60 89
60 90
60 91
60 92
60 93
60 96
60 97
60 98
60 99
61 66
61 98
61 65
61 73
61 89
61 81
61 84
61 99
61 85
61 72
61 95
61 62
61 63
62 64
62 67
62 68
62 69
62 71
62 74
62 75
62 78
62 79
62 82
62 84
62 85
62 87
62 88
62 91
62 92
62 93
62 95
62 98
63 66
63 67
63 68
63 69
63 71
63 73
63 74
63 75
63 76
63 77
63 80
63 82
63 84
63 86
63 87
63 92
63 94
63 95
63 97
64 65
64 67
64 69
64 70
64 75
64 77
64 78
64 79
64 81
64 82
64 83
64 84
64 85
64 86
64 91
64 94
64 96
64 97
64 98
65 66
65 67
65 69
65 70
65 72
65 73
65 74
65 77
65 79
65 80
65 82
65 83
65 87
65 88
65 91
65 95
65 97
66 69
66 72
66 75
66 76
66 77
66 78
66 81
66 85
66 89
66 90
66 92
66 95
66 96
66 97
66 98
66 99
67 71
67 72
67 73
67 75
67 78
67 82
67 85
67 89
67 93
67 94
67 95
67 98
68 69
68 70
68 71
68 73
68 74
68 75
68 76
68 79
68 81
68 85
68 88
68 89
68 91
68 94
68 95
68 96
68 98
69 70
69 71
69 74
69 78
69 79
69 80
69 81
69 82
69 83
69 84
69 88
69 91
69 92
69 93
69 96
69 97
69 99
70 75
70 78
70 80
70 81
70 84
70 85
70 86
70 90
70 92
70 93
70 94
70 95
70 96
70 97
70 99
71 72
71 73
71 74
71 76
71 77
71 80
71 83
71 84
71 85
71 87
71 88
71 89
71 90
71 91
71 94
71 96
71 99
72 75
72 76
72 77
72 83
72 97
72 89
72 73
72 95
72 80
72 82
72 91
73 75
73 76
73 79
73 80
73 81
73 82
73 83
73 85
73 86
73 87
73 88
73 91
73 92
73 93
73 94
73 95
73 97
73 98
74 75
74 78
74 80
74 81
74 83
74 84
74 85
74 86
74 92
74 93
74 99
75 77
75 80
75 84
75 85
75 88
75 90
75 92
75 93
75 96
75 99
76 78
76 82
76 84
76 85
76 86
76 90
76 93
76 94
76 95
76 97
76 98
76 99
77 78
77 79
77 80
77 81
77 82
77 83
77 84
77 87
77 88
77 90
77 91
77 92
77 93
77 96
78 80
78 82
78 85
78 87
78 88
78 91
78 92
78 95
78 98
79 83
79 87
79 88
79 90
79 93
79 95
79 96
79 97
79 98
80 81
80 91
80 94
80 96
80 93
80 99
81 99
81 84
81 86
81 90
81 91
81 82
81 93
81 85
82 86
82 87
82 91
82 92
82 97
82 99
83 84
83 86
83 88
83 89
83 92
83 93
83 94
83 96
83 97
83 98
83 99
84 88
84 90
84 92
84 94
84 95
84 97
84 98
84 99
85 86
85 89
85 90
85 91
85 93
85 94
85 95
85 96
85 98
86 91
87 88
87 89
87 92
87 94
87 96
87 99
88 90
88 92
88 94
88 95
88 99
89 91
89 95
89 96
90 94
90 95
90 96
90 97
90 99
91 92
91 93
91 94
91 95
91 97
91 99
92 94
92 95
92 99
93 95
93 96
93 99
94 95
94 97
95 97
95 98
96 97
96 98
96 99
97 98
98 99
