graph {
		0 -- 1
		0 -- 3
		0 -- 5
		0 -- 7
		0 -- 8
		0 -- 9
		0 -- 10
		0 -- 11
		0 -- 14
		0 -- 15
		0 -- 16
		0 -- 17
		0 -- 18
		0 -- 24
		0 -- 25
		0 -- 26
		0 -- 27
		0 -- 28
		0 -- 29
		0 -- 30
		0 -- 31
		0 -- 35
		0 -- 36
		0 -- 37
		0 -- 39
		0 -- 40
		0 -- 41
		0 -- 42
		0 -- 43
		0 -- 44
		0 -- 45
		0 -- 46
		0 -- 47
		0 -- 48
		0 -- 50
		0 -- 56
		0 -- 57
		0 -- 61
		0 -- 64
		0 -- 66
		0 -- 68
		0 -- 70
		0 -- 72
		0 -- 73
		0 -- 74
		0 -- 77
		0 -- 78
		0 -- 79
		0 -- 81
		0 -- 84
		0 -- 87
		0 -- 88
		0 -- 89
		0 -- 90
		0 -- 91
		0 -- 93
		0 -- 94
		0 -- 95
		0 -- 96
		0 -- 97
		0 -- 99
		1 -- 2
		1 -- 4
		1 -- 7
		1 -- 10
		1 -- 12
		1 -- 13
		1 -- 16
		1 -- 19
		1 -- 21
		1 -- 23
		1 -- 24
		1 -- 25
		1 -- 28
		1 -- 29
		1 -- 32
		1 -- 33
		1 -- 34
		1 -- 35
		1 -- 36
		1 -- 37
		1 -- 39
		1 -- 40
		1 -- 41
		1 -- 43
		1 -- 46
		1 -- 47
		1 -- 49
		1 -- 50
		1 -- 51
		1 -- 54
		1 -- 55
		1 -- 56
		1 -- 57
		1 -- 60
		1 -- 63
		1 -- 66
		1 -- 67
		1 -- 69
		1 -- 71
		1 -- 72
		1 -- 74
		1 -- 76
		1 -- 77
		1 -- 79
		1 -- 81
		1 -- 82
		1 -- 84
		1 -- 86
		1 -- 89
		1 -- 94
		2 -- 66
		2 -- 3
		2 -- 68
		2 -- 5
		2 -- 7
		2 -- 72
		2 -- 9
		2 -- 10
		2 -- 12
		2 -- 15
		2 -- 80
		2 -- 18
		2 -- 67
		2 -- 84
		2 -- 21
		2 -- 89
		2 -- 25
		2 -- 26
		2 -- 79
		2 -- 28
		2 -- 29
		2 -- 94
		2 -- 69
		2 -- 32
		2 -- 33
		2 -- 97
		2 -- 91
		2 -- 38
		2 -- 39
		2 -- 41
		2 -- 42
		2 -- 65
		2 -- 47
		2 -- 49
		2 -- 52
		2 -- 57
		2 -- 58
		2 -- 60
		2 -- 62
		2 -- 63
		3 -- 5
		3 -- 10
		3 -- 11
		3 -- 12
		3 -- 14
		3 -- 15
		3 -- 17
		3 -- 18
		3 -- 19
		3 -- 20
		3 -- 21
		3 -- 22
		3 -- 23
		3 -- 24
		3 -- 25
		3 -- 32
		3 -- 34
		3 -- 39
		3 -- 46
		3 -- 50
		3 -- 51
		3 -- 52
		3 -- 53
		3 -- 56
		3 -- 61
		3 -- 62
		3 -- 63
		3 -- 66
		3 -- 67
		3 -- 73
		3 -- 75
		3 -- 76
		3 -- 77
		3 -- 78
		3 -- 80
		3 -- 81
		3 -- 82
		3 -- 84
		3 -- 85
		3 -- 86
		3 -- 87
		3 -- 91
		3 -- 96
		3 -- 99
		4 -- 6
		4 -- 7
		4 -- 9
		4 -- 11
		4 -- 12
		4 -- 15
		4 -- 16
		4 -- 17
		4 -- 18
		4 -- 19
		4 -- 22
		4 -- 23
		4 -- 24
		4 -- 25
		4 -- 27
		4 -- 30
		4 -- 33
		4 -- 35
		4 -- 36
		4 -- 37
		4 -- 39
		4 -- 41
		4 -- 42
		4 -- 45
		4 -- 46
		4 -- 47
		4 -- 49
		4 -- 50
		4 -- 54
		4 -- 59
		4 -- 60
		4 -- 61
		4 -- 62
		4 -- 66
		4 -- 67
		4 -- 69
		4 -- 71
		4 -- 72
		4 -- 74
		4 -- 77
		4 -- 79
		4 -- 80
		4 -- 83
		4 -- 85
		4 -- 89
		4 -- 93
		4 -- 94
		4 -- 98
		5 -- 6
		5 -- 10
		5 -- 13
		5 -- 17
		5 -- 18
		5 -- 19
		5 -- 21
		5 -- 23
		5 -- 25
		5 -- 32
		5 -- 33
		5 -- 36
		5 -- 37
		5 -- 40
		5 -- 44
		5 -- 45
		5 -- 46
		5 -- 49
		5 -- 50
		5 -- 52
		5 -- 53
		5 -- 55
		5 -- 59
		5 -- 60
		5 -- 63
		5 -- 67
		5 -- 68
		5 -- 70
		5 -- 72
		5 -- 74
		5 -- 76
		5 -- 77
		5 -- 78
		5 -- 81
		5 -- 82
		5 -- 86
		5 -- 87
		5 -- 88
		5 -- 89
		5 -- 90
		5 -- 92
		5 -- 94
		5 -- 98
		5 -- 99
		6 -- 11
		6 -- 13
		6 -- 14
		6 -- 15
		6 -- 16
		6 -- 18
		6 -- 20
		6 -- 25
		6 -- 26
		6 -- 28
		6 -- 30
		6 -- 31
		6 -- 32
		6 -- 34
		6 -- 35
		6 -- 36
		6 -- 37
		6 -- 38
		6 -- 40
		6 -- 41
		6 -- 42
		6 -- 45
		6 -- 46
		6 -- 47
		6 -- 49
		6 -- 52
		6 -- 54
		6 -- 55
		6 -- 56
		6 -- 57
		6 -- 59
		6 -- 60
		6 -- 62
		6 -- 63
		6 -- 66
		6 -- 67
		6 -- 68
		6 -- 69
		6 -- 70
		6 -- 71
		6 -- 72
		6 -- 73
		6 -- 74
		6 -- 75
		6 -- 76
		6 -- 78
		6 -- 82
		6 -- 83
		6 -- 84
		6 -- 85
		6 -- 88
		6 -- 89
		6 -- 91
		6 -- 92
		6 -- 95
		6 -- 96
		7 -- 8
		7 -- 11
		7 -- 16
		7 -- 17
		7 -- 18
		7 -- 19
		7 -- 20
		7 -- 23
		7 -- 26
		7 -- 28
		7 -- 29
		7 -- 31
		7 -- 32
		7 -- 33
		7 -- 37
		7 -- 39
		7 -- 41
		7 -- 42
		7 -- 47
		7 -- 49
		7 -- 51
		7 -- 53
		7 -- 54
		7 -- 55
		7 -- 56
		7 -- 59
		7 -- 60
		7 -- 62
		7 -- 65
		7 -- 71
		7 -- 72
		7 -- 73
		7 -- 77
		7 -- 79
		7 -- 81
		7 -- 82
		7 -- 86
		7 -- 89
		7 -- 91
		7 -- 92
		7 -- 95
		7 -- 96
		7 -- 97
		7 -- 99
		8 -- 10
		8 -- 11
		8 -- 12
		8 -- 14
		8 -- 16
		8 -- 19
		8 -- 20
		8 -- 22
		8 -- 25
		8 -- 26
		8 -- 28
		8 -- 29
		8 -- 30
		8 -- 32
		8 -- 33
		8 -- 36
		8 -- 37
		8 -- 45
		8 -- 48
		8 -- 49
		8 -- 50
		8 -- 51
		8 -- 53
		8 -- 54
		8 -- 57
		8 -- 58
		8 -- 59
		8 -- 61
		8 -- 62
		8 -- 64
		8 -- 65
		8 -- 67
		8 -- 69
		8 -- 70
		8 -- 72
		8 -- 73
		8 -- 75
		8 -- 76
		8 -- 77
		8 -- 78
		8 -- 79
		8 -- 80
		8 -- 82
		8 -- 84
		8 -- 85
		8 -- 86
		8 -- 87
		8 -- 89
		8 -- 91
		8 -- 93
		8 -- 97
		9 -- 13
		9 -- 14
		9 -- 22
		9 -- 24
		9 -- 25
		9 -- 26
		9 -- 28
		9 -- 29
		9 -- 30
		9 -- 31
		9 -- 32
		9 -- 34
		9 -- 35
		9 -- 37
		9 -- 38
		9 -- 39
		9 -- 42
		9 -- 45
		9 -- 46
		9 -- 47
		9 -- 52
		9 -- 55
		9 -- 58
		9 -- 59
		9 -- 60
		9 -- 63
		9 -- 64
		9 -- 65
		9 -- 67
		9 -- 68
		9 -- 70
		9 -- 71
		9 -- 72
		9 -- 75
		9 -- 78
		9 -- 79
		9 -- 80
		9 -- 82
		9 -- 89
		9 -- 93
		9 -- 94
		10 -- 11
		10 -- 16
		10 -- 17
		10 -- 19
		10 -- 20
		10 -- 21
		10 -- 24
		10 -- 25
		10 -- 26
		10 -- 28
		10 -- 30
		10 -- 31
		10 -- 32
		10 -- 33
		10 -- 35
		10 -- 36
		10 -- 38
		10 -- 40
		10 -- 43
		10 -- 44
		10 -- 46
		10 -- 47
		10 -- 49
		10 -- 51
		10 -- 54
		10 -- 56
		10 -- 58
		10 -- 64
		10 -- 67
		10 -- 70
		10 -- 71
		10 -- 72
		10 -- 74
		10 -- 76
		10 -- 79
		10 -- 81
		10 -- 82
		10 -- 83
		10 -- 84
		10 -- 85
		10 -- 87
		10 -- 89
		10 -- 90
		10 -- 92
		10 -- 94
		10 -- 95
		10 -- 96
		10 -- 97
		10 -- 98
		11 -- 12
		11 -- 14
		11 -- 15
		11 -- 16
		11 -- 23
		11 -- 25
		11 -- 26
		11 -- 27
		11 -- 30
		11 -- 32
		11 -- 34
		11 -- 35
		11 -- 36
		11 -- 37
		11 -- 40
		11 -- 41
		11 -- 42
		11 -- 43
		11 -- 45
		11 -- 46
		11 -- 49
		11 -- 52
		11 -- 55
		11 -- 57
		11 -- 58
		11 -- 60
		11 -- 62
		11 -- 63
		11 -- 66
		11 -- 69
		11 -- 70
		11 -- 71
		11 -- 72
		11 -- 73
		11 -- 76
		11 -- 78
		11 -- 79
		11 -- 83
		11 -- 84
		11 -- 85
		11 -- 93
		11 -- 94
		11 -- 97
		11 -- 98
		11 -- 99
		12 -- 15
		12 -- 18
		12 -- 19
		12 -- 20
		12 -- 23
		12 -- 24
		12 -- 26
		12 -- 27
		12 -- 36
		12 -- 37
		12 -- 38
		12 -- 40
		12 -- 41
		12 -- 44
		12 -- 45
		12 -- 49
		12 -- 51
		12 -- 53
		12 -- 55
		12 -- 56
		12 -- 57
		12 -- 61
		12 -- 62
		12 -- 63
		12 -- 64
		12 -- 65
		12 -- 66
		12 -- 67
		12 -- 68
		12 -- 70
		12 -- 72
		12 -- 75
		12 -- 77
		12 -- 82
		12 -- 84
		12 -- 86
		12 -- 87
		12 -- 88
		12 -- 91
		12 -- 92
		13 -- 14
		13 -- 17
		13 -- 19
		13 -- 21
		13 -- 22
		13 -- 26
		13 -- 28
		13 -- 31
		13 -- 33
		13 -- 34
		13 -- 35
		13 -- 36
		13 -- 39
		13 -- 44
		13 -- 46
		13 -- 47
		13 -- 50
		13 -- 54
		13 -- 56
		13 -- 58
		13 -- 59
		13 -- 60
		13 -- 62
		13 -- 63
		13 -- 64
		13 -- 65
		13 -- 68
		13 -- 69
		13 -- 71
		13 -- 73
		13 -- 75
		13 -- 81
		13 -- 82
		13 -- 83
		13 -- 84
		13 -- 89
		13 -- 91
		13 -- 92
		13 -- 93
		13 -- 95
		13 -- 99
		14 -- 16
		14 -- 17
		14 -- 18
		14 -- 21
		14 -- 22
		14 -- 23
		14 -- 26
		14 -- 29
		14 -- 30
		14 -- 38
		14 -- 39
		14 -- 40
		14 -- 42
		14 -- 43
		14 -- 45
		14 -- 48
		14 -- 50
		14 -- 52
		14 -- 55
		14 -- 57
		14 -- 58
		14 -- 60
		14 -- 63
		14 -- 64
		14 -- 65
		14 -- 66
		14 -- 67
		14 -- 68
		14 -- 69
		14 -- 70
		14 -- 73
		14 -- 76
		14 -- 78
		14 -- 79
		14 -- 82
		14 -- 83
		14 -- 84
		14 -- 85
		14 -- 86
		14 -- 90
		14 -- 95
		14 -- 97
		14 -- 99
		15 -- 23
		15 -- 24
		15 -- 25
		15 -- 27
		15 -- 32
		15 -- 34
		15 -- 36
		15 -- 39
		15 -- 42
		15 -- 43
		15 -- 44
		15 -- 46
		15 -- 48
		15 -- 54
		15 -- 56
		15 -- 57
		15 -- 58
		15 -- 60
		15 -- 61
		15 -- 62
		15 -- 64
		15 -- 66
		15 -- 68
		15 -- 70
		15 -- 73
		15 -- 75
		15 -- 79
		15 -- 80
		15 -- 82
		15 -- 84
		15 -- 85
		15 -- 92
		15 -- 95
		15 -- 96
		15 -- 97
		15 -- 98
		15 -- 99
		16 -- 17
		16 -- 21
		16 -- 23
		16 -- 24
		16 -- 25
		16 -- 28
		16 -- 30
		16 -- 32
		16 -- 33
		16 -- 34
		16 -- 39
		16 -- 40
		16 -- 41
		16 -- 43
		16 -- 44
		16 -- 45
		16 -- 47
		16 -- 49
		16 -- 51
		16 -- 56
		16 -- 57
		16 -- 58
		16 -- 59
		16 -- 60
		16 -- 63
		16 -- 64
		16 -- 66
		16 -- 68
		16 -- 70
		16 -- 71
		16 -- 72
		16 -- 74
		16 -- 82
		16 -- 84
		16 -- 85
		16 -- 86
		16 -- 88
		16 -- 89
		16 -- 92
		16 -- 93
		16 -- 94
		16 -- 95
		16 -- 97
		17 -- 20
		17 -- 21
		17 -- 22
		17 -- 23
		17 -- 25
		17 -- 27
		17 -- 28
		17 -- 29
		17 -- 30
		17 -- 34
		17 -- 36
		17 -- 39
		17 -- 42
		17 -- 43
		17 -- 46
		17 -- 49
		17 -- 52
		17 -- 55
		17 -- 60
		17 -- 62
		17 -- 63
		17 -- 68
		17 -- 69
		17 -- 73
		17 -- 74
		17 -- 75
		17 -- 81
		17 -- 83
		17 -- 84
		17 -- 85
		17 -- 88
		17 -- 93
		17 -- 95
		17 -- 96
		17 -- 98
		18 -- 20
		18 -- 24
		18 -- 26
		18 -- 27
		18 -- 28
		18 -- 29
		18 -- 32
		18 -- 33
		18 -- 34
		18 -- 35
		18 -- 37
		18 -- 38
		18 -- 39
		18 -- 41
		18 -- 42
		18 -- 44
		18 -- 46
		18 -- 47
		18 -- 48
		18 -- 49
		18 -- 54
		18 -- 55
		18 -- 56
		18 -- 58
		18 -- 60
		18 -- 62
		18 -- 63
		18 -- 65
		18 -- 66
		18 -- 69
		18 -- 70
		18 -- 73
		18 -- 74
		18 -- 75
		18 -- 76
		18 -- 80
		18 -- 81
		18 -- 82
		18 -- 83
		18 -- 85
		18 -- 88
		18 -- 90
		18 -- 91
		18 -- 95
		18 -- 96
		18 -- 98
		18 -- 99
		19 -- 20
		19 -- 22
		19 -- 24
		19 -- 26
		19 -- 27
		19 -- 28
		19 -- 29
		19 -- 30
		19 -- 31
		19 -- 32
		19 -- 33
		19 -- 36
		19 -- 41
		19 -- 42
		19 -- 43
		19 -- 44
		19 -- 45
		19 -- 46
		19 -- 47
		19 -- 51
		19 -- 52
		19 -- 53
		19 -- 55
		19 -- 57
		19 -- 59
		19 -- 60
		19 -- 62
		19 -- 64
		19 -- 65
		19 -- 69
		19 -- 72
		19 -- 73
		19 -- 74
		19 -- 75
		19 -- 76
		19 -- 79
		19 -- 86
		19 -- 87
		19 -- 88
		19 -- 92
		19 -- 94
		19 -- 95
		19 -- 96
		19 -- 97
		19 -- 98
		20 -- 22
		20 -- 23
		20 -- 25
		20 -- 28
		20 -- 29
		20 -- 30
		20 -- 31
		20 -- 33
		20 -- 34
		20 -- 36
		20 -- 38
		20 -- 41
		20 -- 42
		20 -- 43
		20 -- 44
		20 -- 46
		20 -- 48
		20 -- 50
		20 -- 52
		20 -- 53
		20 -- 54
		20 -- 59
		20 -- 61
		20 -- 63
		20 -- 65
		20 -- 67
		20 -- 68
		20 -- 70
		20 -- 71
		20 -- 73
		20 -- 74
		20 -- 77
		20 -- 79
		20 -- 80
		20 -- 82
		20 -- 84
		20 -- 87
		20 -- 90
		20 -- 91
		20 -- 92
		20 -- 93
		20 -- 98
		21 -- 23
		21 -- 24
		21 -- 25
		21 -- 27
		21 -- 30
		21 -- 31
		21 -- 32
		21 -- 33
		21 -- 39
		21 -- 40
		21 -- 42
		21 -- 43
		21 -- 45
		21 -- 46
		21 -- 47
		21 -- 51
		21 -- 54
		21 -- 55
		21 -- 56
		21 -- 57
		21 -- 58
		21 -- 59
		21 -- 60
		21 -- 61
		21 -- 62
		21 -- 63
		21 -- 64
		21 -- 66
		21 -- 68
		21 -- 69
		21 -- 73
		21 -- 77
		21 -- 85
		21 -- 86
		21 -- 87
		21 -- 89
		21 -- 91
		21 -- 92
		21 -- 97
		21 -- 98
		22 -- 23
		22 -- 27
		22 -- 28
		22 -- 34
		22 -- 36
		22 -- 37
		22 -- 41
		22 -- 43
		22 -- 44
		22 -- 47
		22 -- 48
		22 -- 51
		22 -- 53
		22 -- 54
		22 -- 55
		22 -- 59
		22 -- 61
		22 -- 63
		22 -- 65
		22 -- 66
		22 -- 69
		22 -- 70
		22 -- 71
		22 -- 72
		22 -- 76
		22 -- 78
		22 -- 79
		22 -- 80
		22 -- 82
		22 -- 85
		22 -- 87
		22 -- 88
		22 -- 89
		22 -- 91
		22 -- 93
		22 -- 94
		22 -- 95
		22 -- 96
		22 -- 99
		23 -- 25
		23 -- 26
		23 -- 28
		23 -- 29
		23 -- 36
		23 -- 38
		23 -- 39
		23 -- 40
		23 -- 46
		23 -- 47
		23 -- 50
		23 -- 51
		23 -- 55
		23 -- 57
		23 -- 59
		23 -- 62
		23 -- 64
		23 -- 66
		23 -- 67
		23 -- 70
		23 -- 71
		23 -- 74
		23 -- 78
		23 -- 80
		23 -- 81
		23 -- 82
		23 -- 85
		23 -- 87
		23 -- 89
		23 -- 92
		23 -- 94
		23 -- 96
		23 -- 98
		23 -- 99
		24 -- 28
		24 -- 29
		24 -- 31
		24 -- 34
		24 -- 36
		24 -- 38
		24 -- 40
		24 -- 41
		24 -- 43
		24 -- 45
		24 -- 47
		24 -- 48
		24 -- 49
		24 -- 55
		24 -- 58
		24 -- 59
		24 -- 62
		24 -- 64
		24 -- 65
		24 -- 66
		24 -- 67
		24 -- 68
		24 -- 70
		24 -- 71
		24 -- 74
		24 -- 76
		24 -- 77
		24 -- 80
		24 -- 84
		24 -- 85
		24 -- 86
		24 -- 91
		24 -- 92
		24 -- 95
		24 -- 98
		24 -- 99
		25 -- 26
		25 -- 27
		25 -- 28
		25 -- 29
		25 -- 30
		25 -- 31
		25 -- 32
		25 -- 34
		25 -- 35
		25 -- 41
		25 -- 42
		25 -- 45
		25 -- 46
		25 -- 47
		25 -- 48
		25 -- 50
		25 -- 51
		25 -- 54
		25 -- 55
		25 -- 57
		25 -- 58
		25 -- 60
		25 -- 61
		25 -- 62
		25 -- 63
		25 -- 64
		25 -- 65
		25 -- 68
		25 -- 69
		25 -- 71
		25 -- 72
		25 -- 78
		25 -- 80
		25 -- 82
		25 -- 83
		25 -- 87
		25 -- 89
		25 -- 91
		25 -- 94
		25 -- 95
		25 -- 96
		25 -- 98
		26 -- 27
		26 -- 29
		26 -- 33
		26 -- 34
		26 -- 35
		26 -- 37
		26 -- 38
		26 -- 41
		26 -- 42
		26 -- 43
		26 -- 46
		26 -- 47
		26 -- 48
		26 -- 49
		26 -- 51
		26 -- 56
		26 -- 57
		26 -- 58
		26 -- 59
		26 -- 60
		26 -- 64
		26 -- 65
		26 -- 67
		26 -- 69
		26 -- 71
		26 -- 72
		26 -- 75
		26 -- 78
		26 -- 79
		26 -- 80
		26 -- 81
		26 -- 82
		26 -- 83
		26 -- 87
		26 -- 88
		26 -- 89
		26 -- 92
		26 -- 93
		26 -- 95
		27 -- 28
		27 -- 29
		27 -- 30
		27 -- 31
		27 -- 32
		27 -- 34
		27 -- 35
		27 -- 36
		27 -- 40
		27 -- 41
		27 -- 44
		27 -- 45
		27 -- 51
		27 -- 52
		27 -- 58
		27 -- 59
		27 -- 60
		27 -- 63
		27 -- 65
		27 -- 67
		27 -- 68
		27 -- 73
		27 -- 75
		27 -- 76
		27 -- 82
		27 -- 83
		27 -- 84
		27 -- 85
		27 -- 86
		27 -- 95
		27 -- 97
		27 -- 98
		28 -- 29
		28 -- 32
		28 -- 33
		28 -- 34
		28 -- 40
		28 -- 42
		28 -- 45
		28 -- 46
		28 -- 48
		28 -- 50
		28 -- 53
		28 -- 54
		28 -- 56
		28 -- 57
		28 -- 58
		28 -- 59
		28 -- 60
		28 -- 62
		28 -- 63
		28 -- 64
		28 -- 67
		28 -- 68
		28 -- 69
		28 -- 70
		28 -- 72
		28 -- 73
		28 -- 74
		28 -- 75
		28 -- 81
		28 -- 83
		28 -- 84
		28 -- 86
		28 -- 87
		28 -- 88
		28 -- 90
		28 -- 91
		28 -- 93
		28 -- 96
		28 -- 99
		29 -- 30
		29 -- 32
		29 -- 35
		29 -- 38
		29 -- 39
		29 -- 41
		29 -- 42
		29 -- 43
		29 -- 46
		29 -- 47
		29 -- 49
		29 -- 50
		29 -- 51
		29 -- 52
		29 -- 53
		29 -- 56
		29 -- 58
		29 -- 59
		29 -- 60
		29 -- 61
		29 -- 63
		29 -- 68
		29 -- 69
		29 -- 70
		29 -- 71
		29 -- 72
		29 -- 73
		29 -- 76
		29 -- 77
		29 -- 79
		29 -- 81
		29 -- 82
		29 -- 83
		29 -- 93
		30 -- 31
		30 -- 32
		30 -- 35
		30 -- 36
		30 -- 37
		30 -- 39
		30 -- 40
		30 -- 41
		30 -- 43
		30 -- 46
		30 -- 50
		30 -- 51
		30 -- 53
		30 -- 55
		30 -- 56
		30 -- 59
		30 -- 62
		30 -- 64
		30 -- 65
		30 -- 66
		30 -- 72
		30 -- 74
		30 -- 77
		30 -- 80
		30 -- 81
		30 -- 82
		30 -- 91
		30 -- 92
		30 -- 95
		30 -- 98
		31 -- 34
		31 -- 35
		31 -- 36
		31 -- 37
		31 -- 39
		31 -- 40
		31 -- 41
		31 -- 44
		31 -- 45
		31 -- 46
		31 -- 48
		31 -- 51
		31 -- 53
		31 -- 55
		31 -- 61
		31 -- 62
		31 -- 64
		31 -- 66
		31 -- 68
		31 -- 69
		31 -- 74
		31 -- 75
		31 -- 77
		31 -- 81
		31 -- 86
		31 -- 87
		31 -- 88
		31 -- 92
		31 -- 93
		31 -- 97
		31 -- 98
		32 -- 33
		32 -- 34
		32 -- 35
		32 -- 36
		32 -- 37
		32 -- 38
		32 -- 39
		32 -- 42
		32 -- 44
		32 -- 47
		32 -- 50
		32 -- 53
		32 -- 57
		32 -- 61
		32 -- 62
		32 -- 65
		32 -- 67
		32 -- 69
		32 -- 71
		32 -- 72
		32 -- 73
		32 -- 74
		32 -- 78
		32 -- 81
		32 -- 84
		32 -- 86
		32 -- 87
		32 -- 88
		32 -- 89
		32 -- 90
		32 -- 92
		32 -- 93
		32 -- 94
		32 -- 96
		32 -- 98
		33 -- 34
		33 -- 35
		33 -- 36
		33 -- 37
		33 -- 38
		33 -- 39
		33 -- 41
		33 -- 44
		33 -- 46
		33 -- 48
		33 -- 49
		33 -- 51
		33 -- 54
		33 -- 57
		33 -- 58
		33 -- 60
		33 -- 65
		33 -- 66
		33 -- 67
		33 -- 71
		33 -- 72
		33 -- 74
		33 -- 75
		33 -- 76
		33 -- 78
		33 -- 79
		33 -- 81
		33 -- 82
		33 -- 83
		33 -- 84
		33 -- 86
		33 -- 87
		33 -- 89
		33 -- 90
		33 -- 91
		33 -- 95
		33 -- 96
		33 -- 98
		34 -- 35
		34 -- 36
		34 -- 37
		34 -- 41
		34 -- 42
		34 -- 43
		34 -- 47
		34 -- 48
		34 -- 50
		34 -- 51
		34 -- 52
		34 -- 53
		34 -- 54
		34 -- 55
		34 -- 56
		34 -- 57
		34 -- 58
		34 -- 65
		34 -- 75
		34 -- 76
		34 -- 77
		34 -- 78
		34 -- 79
		34 -- 82
		34 -- 83
		34 -- 85
		34 -- 88
		34 -- 89
		34 -- 90
		34 -- 93
		34 -- 94
		34 -- 95
		34 -- 97
		34 -- 98
		34 -- 99
		35 -- 74
		35 -- 69
		35 -- 65
		35 -- 64
		35 -- 78
		35 -- 80
		35 -- 98
		35 -- 83
		35 -- 90
		35 -- 92
		35 -- 95
		35 -- 39
		35 -- 40
		35 -- 41
		35 -- 42
		35 -- 45
		35 -- 72
		35 -- 52
		35 -- 94
		35 -- 54
		35 -- 59
		35 -- 60
		35 -- 61
		35 -- 62
		35 -- 63
		36 -- 38
		36 -- 39
		36 -- 40
		36 -- 43
		36 -- 44
		36 -- 49
		36 -- 53
		36 -- 56
		36 -- 57
		36 -- 62
		36 -- 64
		36 -- 66
		36 -- 71
		36 -- 72
		36 -- 75
		36 -- 77
		36 -- 79
		36 -- 81
		36 -- 82
		36 -- 83
		36 -- 85
		36 -- 87
		36 -- 88
		36 -- 90
		36 -- 91
		36 -- 92
		36 -- 94
		36 -- 97
		37 -- 40
		37 -- 41
		37 -- 42
		37 -- 43
		37 -- 49
		37 -- 50
		37 -- 51
		37 -- 52
		37 -- 53
		37 -- 55
		37 -- 57
		37 -- 58
		37 -- 61
		37 -- 62
		37 -- 65
		37 -- 70
		37 -- 75
		37 -- 77
		37 -- 78
		37 -- 79
		37 -- 80
		37 -- 85
		37 -- 86
		37 -- 89
		37 -- 90
		37 -- 91
		37 -- 92
		37 -- 93
		37 -- 96
		37 -- 97
		37 -- 98
		37 -- 99
		38 -- 41
		38 -- 42
		38 -- 44
		38 -- 45
		38 -- 46
		38 -- 47
		38 -- 48
		38 -- 51
		38 -- 53
		38 -- 55
		38 -- 56
		38 -- 60
		38 -- 61
		38 -- 62
		38 -- 67
		38 -- 70
		38 -- 71
		38 -- 72
		38 -- 73
		38 -- 75
		38 -- 76
		38 -- 78
		38 -- 79
		38 -- 81
		38 -- 83
		38 -- 85
		38 -- 88
		38 -- 90
		38 -- 98
		39 -- 41
		39 -- 44
		39 -- 46
		39 -- 48
		39 -- 49
		39 -- 52
		39 -- 56
		39 -- 58
		39 -- 61
		39 -- 62
		39 -- 63
		39 -- 64
		39 -- 65
		39 -- 68
		39 -- 71
		39 -- 74
		39 -- 78
		39 -- 80
		39 -- 82
		39 -- 87
		39 -- 88
		39 -- 89
		39 -- 90
		39 -- 92
		39 -- 93
		39 -- 94
		39 -- 95
		39 -- 96
		39 -- 98
		40 -- 46
		40 -- 47
		40 -- 49
		40 -- 50
		40 -- 55
		40 -- 56
		40 -- 57
		40 -- 58
		40 -- 60
		40 -- 62
		40 -- 63
		40 -- 66
		40 -- 67
		40 -- 68
		40 -- 69
		40 -- 73
		40 -- 75
		40 -- 76
		40 -- 77
		40 -- 79
		40 -- 81
		40 -- 82
		40 -- 83
		40 -- 85
		40 -- 86
		40 -- 87
		40 -- 91
		40 -- 92
		40 -- 93
		40 -- 95
		40 -- 96
		41 -- 43
		41 -- 44
		41 -- 47
		41 -- 49
		41 -- 50
		41 -- 53
		41 -- 54
		41 -- 55
		41 -- 56
		41 -- 57
		41 -- 58
		41 -- 60
		41 -- 62
		41 -- 64
		41 -- 70
		41 -- 71
		41 -- 72
		41 -- 76
		41 -- 78
		41 -- 79
		41 -- 80
		41 -- 85
		41 -- 86
		41 -- 88
		41 -- 93
		41 -- 94
		41 -- 95
		41 -- 96
		41 -- 99
		42 -- 43
		42 -- 46
		42 -- 47
		42 -- 49
		42 -- 51
		42 -- 56
		42 -- 58
		42 -- 59
		42 -- 60
		42 -- 62
		42 -- 63
		42 -- 64
		42 -- 65
		42 -- 66
		42 -- 67
		42 -- 69
		42 -- 70
		42 -- 71
		42 -- 74
		42 -- 76
		42 -- 81
		42 -- 82
		42 -- 83
		42 -- 84
		42 -- 88
		42 -- 90
		42 -- 91
		42 -- 92
		42 -- 93
		42 -- 98
		43 -- 47
		43 -- 48
		43 -- 49
		43 -- 53
		43 -- 56
		43 -- 60
		43 -- 61
		43 -- 62
		43 -- 63
		43 -- 64
		43 -- 67
		43 -- 68
		43 -- 71
		43 -- 72
		43 -- 76
		43 -- 77
		43 -- 79
		43 -- 80
		43 -- 81
		43 -- 83
		43 -- 84
		43 -- 87
		43 -- 88
		43 -- 89
		43 -- 91
		43 -- 92
		43 -- 95
		43 -- 98
		43 -- 99
		44 -- 48
		44 -- 49
		44 -- 52
		44 -- 54
		44 -- 55
		44 -- 56
		44 -- 57
		44 -- 60
		44 -- 61
		44 -- 64
		44 -- 65
		44 -- 67
		44 -- 68
		44 -- 69
		44 -- 71
		44 -- 74
		44 -- 75
		44 -- 76
		44 -- 78
		44 -- 81
		44 -- 84
		44 -- 86
		44 -- 89
		44 -- 90
		44 -- 92
		44 -- 94
		44 -- 95
		44 -- 97
		44 -- 99
		45 -- 46
		45 -- 47
		45 -- 48
		45 -- 51
		45 -- 54
		45 -- 55
		45 -- 57
		45 -- 59
		45 -- 60
		45 -- 61
		45 -- 63
		45 -- 64
		45 -- 71
		45 -- 72
		45 -- 73
		45 -- 74
		45 -- 76
		45 -- 78
		45 -- 80
		45 -- 81
		45 -- 85
		45 -- 88
		45 -- 89
		45 -- 96
		45 -- 98
		46 -- 48
		46 -- 49
		46 -- 50
		46 -- 52
		46 -- 53
		46 -- 54
		46 -- 55
		46 -- 57
		46 -- 59
		46 -- 61
		46 -- 64
		46 -- 67
		46 -- 68
		46 -- 69
		46 -- 70
		46 -- 75
		46 -- 76
		46 -- 78
		46 -- 82
		46 -- 84
		46 -- 86
		46 -- 91
		46 -- 92
		46 -- 93
		47 -- 49
		47 -- 53
		47 -- 54
		47 -- 56
		47 -- 57
		47 -- 60
		47 -- 61
		47 -- 62
		47 -- 64
		47 -- 67
		47 -- 70
		47 -- 72
		47 -- 74
		47 -- 76
		47 -- 77
		47 -- 78
		47 -- 79
		47 -- 81
		47 -- 86
		47 -- 87
		47 -- 88
		47 -- 96
		47 -- 97
		47 -- 99
		48 -- 49
		48 -- 50
		48 -- 52
		48 -- 53
		48 -- 54
		48 -- 55
		48 -- 57
		48 -- 58
		48 -- 59
		48 -- 60
		48 -- 61
		48 -- 62
		48 -- 67
		48 -- 69
		48 -- 70
		48 -- 72
		48 -- 73
		48 -- 74
		48 -- 78
		48 -- 79
		48 -- 81
		48 -- 83
		48 -- 84
		48 -- 86
		48 -- 88
		48 -- 89
		48 -- 90
		48 -- 91
		48 -- 93
		48 -- 94
		48 -- 95
		48 -- 96
		48 -- 99
		49 -- 64
		49 -- 71
		49 -- 99
		49 -- 85
		49 -- 87
		49 -- 75
		49 -- 92
		49 -- 81
		49 -- 98
		49 -- 91
		49 -- 65
		49 -- 72
		49 -- 53
		49 -- 59
		49 -- 62
		50 -- 51
		50 -- 57
		50 -- 58
		50 -- 59
		50 -- 60
		50 -- 62
		50 -- 65
		50 -- 66
		50 -- 67
		50 -- 72
		50 -- 73
		50 -- 75
		50 -- 77
		50 -- 79
		50 -- 81
		50 -- 82
		50 -- 84
		50 -- 85
		50 -- 87
		50 -- 88
		50 -- 91
		50 -- 93
		50 -- 94
		50 -- 95
		50 -- 96
		50 -- 97
		50 -- 98
		50 -- 99
		51 -- 53
		51 -- 61
		51 -- 62
		51 -- 64
		51 -- 68
		51 -- 71
		51 -- 73
		51 -- 75
		51 -- 76
		51 -- 84
		51 -- 85
		51 -- 88
		51 -- 89
		51 -- 90
		51 -- 92
		51 -- 93
		51 -- 94
		51 -- 95
		51 -- 96
		51 -- 98
		52 -- 56
		52 -- 58
		52 -- 60
		52 -- 63
		52 -- 64
		52 -- 65
		52 -- 69
		52 -- 70
		52 -- 73
		52 -- 74
		52 -- 79
		52 -- 80
		52 -- 81
		52 -- 82
		52 -- 83
		52 -- 85
		52 -- 89
		52 -- 90
		52 -- 91
		52 -- 92
		52 -- 93
		52 -- 94
		52 -- 95
		52 -- 96
		52 -- 97
		53 -- 54
		53 -- 55
		53 -- 59
		53 -- 60
		53 -- 61
		53 -- 62
		53 -- 64
		53 -- 66
		53 -- 68
		53 -- 69
		53 -- 71
		53 -- 72
		53 -- 73
		53 -- 74
		53 -- 77
		53 -- 80
		53 -- 83
		53 -- 85
		53 -- 86
		53 -- 87
		53 -- 89
		53 -- 90
		53 -- 92
		53 -- 95
		53 -- 97
		53 -- 98
		54 -- 59
		54 -- 60
		54 -- 61
		54 -- 62
		54 -- 63
		54 -- 65
		54 -- 66
		54 -- 68
		54 -- 69
		54 -- 75
		54 -- 77
		54 -- 78
		54 -- 82
		54 -- 83
		54 -- 84
		54 -- 86
		54 -- 87
		54 -- 89
		54 -- 92
		54 -- 94
		54 -- 96
		54 -- 98
		54 -- 99
		55 -- 56
		55 -- 59
		55 -- 62
		55 -- 64
		55 -- 65
		55 -- 67
		55 -- 68
		55 -- 76
		55 -- 78
		55 -- 79
		55 -- 84
		55 -- 85
		55 -- 86
		55 -- 87
		55 -- 88
		55 -- 89
		55 -- 90
		55 -- 91
		55 -- 93
		55 -- 95
		55 -- 97
		55 -- 99
		56 -- 57
		56 -- 58
		56 -- 61
		56 -- 63
		56 -- 65
		56 -- 69
		56 -- 70
		56 -- 72
		56 -- 73
		56 -- 76
		56 -- 77
		56 -- 78
		56 -- 81
		56 -- 82
		56 -- 83
		56 -- 85
		56 -- 87
		56 -- 88
		56 -- 89
		56 -- 91
		56 -- 92
		56 -- 93
		56 -- 94
		56 -- 95
		56 -- 99
		57 -- 59
		57 -- 62
		57 -- 64
		57 -- 65
		57 -- 66
		57 -- 69
		57 -- 70
		57 -- 71
		57 -- 73
		57 -- 74
		57 -- 77
		57 -- 79
		57 -- 80
		57 -- 82
		57 -- 84
		57 -- 86
		57 -- 93
		57 -- 94
		58 -- 59
		58 -- 60
		58 -- 61
		58 -- 64
		58 -- 66
		58 -- 68
		58 -- 70
		58 -- 71
		58 -- 73
		58 -- 76
		58 -- 78
		58 -- 79
		58 -- 80
		58 -- 81
		58 -- 82
		58 -- 83
		58 -- 86
		58 -- 91
		58 -- 92
		58 -- 94
		58 -- 97
		58 -- 98
		59 -- 60
		59 -- 61
		59 -- 62
		59 -- 65
		59 -- 67
		59 -- 68
		59 -- 69
		59 -- 70
		59 -- 72
		59 -- 73
		59 -- 74
		59 -- 75
		59 -- 76
		59 -- 77
		59 -- 79
		59 -- 80
		59 -- 84
		59 -- 86
		59 -- 88
		59 -- 89
		59 -- 90
		59 -- 91
		59 -- 92
		59 -- 94
		59 -- 96
		59 -- 97
		59 -- 98
		60 -- 61
		60 -- 64
		60 -- 66
		60 -- 67
		60 -- 68
		60 -- 72
		60 -- 73
		60 -- 74
		60 -- 80
		60 -- 83
		60 -- 85
		60 -- 86
		60 -- 87
		60 -- 89
		60 -- 90
		60 -- 92
		60 -- 93
		60 -- 94
		60 -- 95
		60 -- 96
		61 -- 63
		61 -- 64
		61 -- 65
		61 -- 66
		61 -- 67
		61 -- 68
		61 -- 69
		61 -- 71
		61 -- 72
		61 -- 76
		61 -- 77
		61 -- 80
		61 -- 86
		61 -- 90
		61 -- 91
		61 -- 92
		61 -- 95
		61 -- 98
		62 -- 63
		62 -- 64
		62 -- 65
		62 -- 67
		62 -- 70
		62 -- 75
		62 -- 76
		62 -- 77
		62 -- 80
		62 -- 82
		62 -- 84
		62 -- 86
		62 -- 90
		62 -- 91
		62 -- 92
		62 -- 93
		62 -- 94
		62 -- 95
		62 -- 96
		62 -- 97
		62 -- 98
		62 -- 99
		63 -- 68
		63 -- 72
		63 -- 74
		63 -- 76
		63 -- 79
		63 -- 80
		63 -- 81
		63 -- 82
		63 -- 83
		63 -- 84
		63 -- 86
		63 -- 94
		63 -- 95
		63 -- 97
		63 -- 99
		64 -- 68
		64 -- 72
		64 -- 75
		64 -- 76
		64 -- 79
		64 -- 80
		64 -- 88
		64 -- 89
		64 -- 90
		64 -- 92
		64 -- 93
		64 -- 94
		64 -- 95
		64 -- 97
		64 -- 99
		65 -- 67
		65 -- 68
		65 -- 69
		65 -- 70
		65 -- 71
		65 -- 72
		65 -- 73
		65 -- 75
		65 -- 76
		65 -- 78
		65 -- 83
		65 -- 85
		65 -- 86
		65 -- 89
		65 -- 91
		65 -- 93
		65 -- 95
		66 -- 67
		66 -- 69
		66 -- 70
		66 -- 72
		66 -- 73
		66 -- 74
		66 -- 76
		66 -- 77
		66 -- 85
		66 -- 86
		66 -- 88
		66 -- 89
		66 -- 91
		66 -- 92
		66 -- 94
		66 -- 95
		66 -- 96
		66 -- 97
		67 -- 69
		67 -- 70
		67 -- 71
		67 -- 73
		67 -- 74
		67 -- 76
		67 -- 77
		67 -- 78
		67 -- 79
		67 -- 80
		67 -- 81
		67 -- 82
		67 -- 83
		67 -- 84
		67 -- 86
		67 -- 88
		67 -- 89
		67 -- 91
		67 -- 94
		67 -- 96
		67 -- 97
		67 -- 99
		68 -- 69
		68 -- 71
		68 -- 72
		68 -- 73
		68 -- 74
		68 -- 76
		68 -- 77
		68 -- 83
		68 -- 84
		68 -- 88
		68 -- 89
		68 -- 90
		68 -- 91
		68 -- 95
		68 -- 97
		69 -- 71
		69 -- 72
		69 -- 74
		69 -- 77
		69 -- 78
		69 -- 81
		69 -- 82
		69 -- 83
		69 -- 84
		69 -- 86
		69 -- 92
		69 -- 93
		69 -- 97
		70 -- 71
		70 -- 72
		70 -- 73
		70 -- 74
		70 -- 76
		70 -- 79
		70 -- 81
		70 -- 82
		70 -- 83
		70 -- 84
		70 -- 85
		70 -- 87
		70 -- 88
		70 -- 89
		70 -- 91
		70 -- 93
		70 -- 94
		70 -- 95
		70 -- 96
		71 -- 75
		71 -- 76
		71 -- 79
		71 -- 80
		71 -- 81
		71 -- 86
		71 -- 87
		71 -- 88
		71 -- 90
		71 -- 92
		71 -- 94
		71 -- 95
		71 -- 96
		72 -- 73
		72 -- 75
		72 -- 76
		72 -- 78
		72 -- 79
		72 -- 81
		72 -- 83
		72 -- 88
		72 -- 89
		72 -- 91
		72 -- 92
		72 -- 98
		72 -- 99
		73 -- 74
		73 -- 77
		73 -- 78
		73 -- 79
		73 -- 80
		73 -- 81
		73 -- 84
		73 -- 85
		73 -- 87
		73 -- 90
		73 -- 91
		73 -- 92
		73 -- 94
		73 -- 95
		73 -- 98
		73 -- 99
		74 -- 79
		74 -- 80
		74 -- 81
		74 -- 82
		74 -- 86
		74 -- 87
		74 -- 88
		74 -- 90
		74 -- 92
		74 -- 94
		74 -- 95
		74 -- 97
		74 -- 98
		75 -- 77
		75 -- 78
		75 -- 80
		75 -- 81
		75 -- 82
		75 -- 83
		75 -- 84
		75 -- 86
		75 -- 89
		75 -- 90
		75 -- 92
		75 -- 95
		75 -- 97
		76 -- 77
		76 -- 78
		76 -- 82
		76 -- 83
		76 -- 85
		76 -- 88
		76 -- 89
		76 -- 91
		76 -- 94
		76 -- 95
		76 -- 98
		76 -- 99
		77 -- 78
		77 -- 82
		77 -- 84
		77 -- 85
		77 -- 88
		77 -- 92
		77 -- 93
		77 -- 95
		77 -- 96
		77 -- 99
		78 -- 79
		78 -- 82
		78 -- 83
		78 -- 84
		78 -- 93
		78 -- 95
		78 -- 97
		78 -- 99
		79 -- 81
		79 -- 83
		79 -- 84
		79 -- 85
		79 -- 86
		79 -- 87
		79 -- 88
		79 -- 90
		79 -- 94
		79 -- 98
		79 -- 99
		80 -- 82
		80 -- 84
		80 -- 85
		80 -- 87
		80 -- 89
		80 -- 90
		80 -- 92
		80 -- 93
		80 -- 95
		80 -- 96
		80 -- 97
		80 -- 98
		81 -- 83
		81 -- 87
		81 -- 90
		81 -- 91
		81 -- 92
		81 -- 93
		81 -- 94
		81 -- 97
		81 -- 98
		82 -- 85
		82 -- 86
		82 -- 87
		82 -- 89
		82 -- 90
		82 -- 91
		82 -- 93
		82 -- 95
		82 -- 96
		82 -- 99
		83 -- 87
		83 -- 88
		83 -- 89
		83 -- 92
		83 -- 93
		83 -- 94
		83 -- 95
		83 -- 96
		83 -- 97
		83 -- 99
		84 -- 85
		84 -- 86
		84 -- 87
		84 -- 90
		84 -- 91
		84 -- 93
		84 -- 96
		84 -- 98
		85 -- 87
		85 -- 88
		85 -- 91
		85 -- 95
		85 -- 96
		86 -- 87
		86 -- 88
		86 -- 91
		87 -- 88
		87 -- 90
		87 -- 91
		87 -- 92
		87 -- 93
		87 -- 96
		87 -- 97
		87 -- 98
		87 -- 99
		88 -- 89
		88 -- 90
		88 -- 91
		88 -- 92
		88 -- 97
		88 -- 99
		89 -- 92
		89 -- 94
		89 -- 95
		89 -- 96
		89 -- 97
		89 -- 98
		90 -- 97
		90 -- 93
		90 -- 92
		91 -- 92
		91 -- 93
		91 -- 94
		91 -- 95
		91 -- 97
		91 -- 99
		92 -- 93
		92 -- 95
		92 -- 96
		92 -- 98
		92 -- 99
		93 -- 96
		93 -- 97
		93 -- 99
		94 -- 96
		94 -- 97
		94 -- 99
		95 -- 97
		95 -- 98
		96 -- 99
		97 -- 99
		98 -- 99
}