100
266 95
5 238
165 43
48 116
291 206
35 96
126 84
123 195
171 99
211 298
85 203
269 15
21 278
41 192
232 65
93 109
57 138
146 276
119 100
77 86
222 130
36 31
48 136
281 45
178 54
131 49
255 190
51 122
290 92
274 224
27 297
94 157
39 270
253 49
295 145
56 248
106 135
12 39
16 21
231 158
257 263
296 78
54 16
98 259
103 167
107 182
123 235
288 154
99 176
30 119
295 147
89 108
173 269
74 192
48 208
145 292
280 120
4 37
24 295
252 22
35 66
17 118
128 99
59 11
123 59
10 107
72 127
79 300
199 288
11 135
175 106
222 84
189 40
3 221
271 139
187 293
135 99
273 103
99 157
204 23
104 136
206 64
150 103
220 242
136 260
13 57
21 38
295 108
143 68
214 262
253 245
205 141
260 11
298 285
130 276
36 106
19 170
125 293
178 216
80 93
0 1
0 66
0 68
0 69
0 6
0 65
0 9
0 74
0 11
0 12
0 13
0 14
0 79
0 17
0 18
0 19
0 20
0 22
0 23
0 86
0 26
0 91
0 28
0 90
0 94
0 31
0 39
0 41
0 42
0 71
0 44
0 93
0 47
0 83
0 52
0 53
0 89
0 55
0 81
0 84
0 58
0 59
0 60
1 3
1 7
1 10
1 16
1 17
1 18
1 19
1 20
1 23
1 24
1 30
1 32
1 37
1 38
1 40
1 41
1 42
1 48
1 51
1 52
1 61
1 62
1 63
1 64
1 65
1 68
1 70
1 71
1 75
1 76
1 77
1 79
1 81
1 82
1 83
1 85
1 86
1 87
1 88
1 89
1 90
1 91
1 94
1 96
1 98
2 11
2 14
2 15
2 17
2 18
2 19
2 20
2 22
2 25
2 26
2 27
2 29
2 31
2 32
2 33
2 34
2 35
2 37
2 38
2 40
2 41
2 45
2 47
2 48
2 49
2 51
2 53
2 54
2 56
2 57
2 58
2 61
2 67
2 68
2 70
2 71
2 75
2 76
2 77
2 78
2 80
2 81
2 82
2 84
2 85
2 87
2 88
2 92
2 93
2 94
2 95
2 97
2 99
3 64
3 66
3 67
3 68
3 5
3 70
3 71
3 72
3 76
3 74
3 87
3 12
3 77
3 14
3 15
3 16
3 82
3 19
3 84
3 85
3 86
3 23
3 24
3 25
3 27
3 94
3 95
3 32
3 98
3 35
3 37
3 39
3 41
3 43
3 45
3 96
3 47
3 49
3 51
3 52
3 55
3 57
4 8
4 11
4 12
4 13
4 14
4 22
4 23
4 24
4 27
4 29
4 30
4 32
4 34
4 36
4 37
4 38
4 39
4 40
4 42
4 43
4 44
4 46
4 48
4 49
4 50
4 53
4 54
4 56
4 57
4 58
4 59
4 60
4 62
4 64
4 65
4 66
4 67
4 68
4 69
4 70
4 73
4 75
4 76
4 79
4 80
4 86
4 89
4 90
4 91
4 92
4 93
4 99
5 66
5 68
5 98
5 6
5 71
5 80
5 11
5 76
5 13
5 77
5 15
5 16
5 81
5 75
5 19
5 20
5 78
5 86
5 87
5 27
5 92
5 29
5 94
5 95
5 33
5 34
5 35
5 36
5 97
5 40
5 42
5 43
5 48
5 51
5 83
5 84
5 59
5 60
5 61
5 62
5 85
6 64
6 83
6 68
6 7
6 9
6 76
6 13
6 77
6 15
6 80
6 81
6 18
6 19
6 84
6 78
6 87
6 24
6 90
6 91
6 92
6 29
6 30
6 69
6 96
6 35
6 39
6 40
6 43
6 44
6 45
6 93
6 48
6 99
6 50
6 51
6 53
6 56
6 95
6 85
6 63
7 64
7 75
7 71
7 8
7 9
7 11
7 12
7 77
7 15
7 80
7 17
7 18
7 83
7 20
7 21
7 22
7 87
7 24
7 26
7 27
7 92
7 95
7 96
7 33
7 34
7 36
7 45
7 47
7 48
7 50
7 52
7 54
7 73
7 84
7 61
7 85
7 63
8 65
8 69
8 81
8 96
8 11
8 76
8 78
8 15
8 17
8 82
8 83
8 84
8 85
8 22
8 23
8 68
8 71
8 27
8 86
8 94
8 31
8 32
8 33
8 34
8 36
8 38
8 39
8 95
8 43
8 47
8 89
8 51
8 53
8 54
8 55
8 59
8 61
8 62
9 10
9 15
9 20
9 23
9 24
9 26
9 28
9 34
9 40
9 43
9 44
9 45
9 46
9 47
9 51
9 54
9 60
9 61
9 62
9 63
9 64
9 65
9 66
9 67
9 69
9 71
9 72
9 73
9 74
9 80
9 81
9 82
9 86
9 87
9 91
9 93
9 94
9 95
9 97
9 98
9 99
10 11
10 12
10 14
10 18
10 20
10 22
10 23
10 28
10 30
10 33
10 34
10 35
10 38
10 41
10 42
10 43
10 45
10 46
10 47
10 48
10 54
10 55
10 56
10 57
10 58
10 59
10 60
10 61
10 64
10 65
10 68
10 70
10 72
10 73
10 77
10 78
10 79
10 82
10 83
10 86
10 88
10 89
10 90
10 91
10 93
10 98
10 99
11 14
11 18
11 20
11 23
11 27
11 28
11 29
11 30
11 31
11 33
11 36
11 37
11 39
11 41
11 43
11 44
11 46
11 47
11 49
11 52
11 53
11 54
11 55
11 57
11 58
11 60
11 62
11 63
11 64
11 66
11 67
11 68
11 72
11 73
11 74
11 75
11 83
11 85
11 86
11 87
11 88
11 92
11 93
11 95
11 96
11 99
12 13
12 16
12 18
12 20
12 21
12 24
12 25
12 29
12 30
12 33
12 38
12 41
12 44
12 45
12 46
12 48
12 49
12 50
12 53
12 57
12 61
12 62
12 65
12 66
12 67
12 69
12 70
12 72
12 74
12 76
12 77
12 79
12 80
12 81
12 86
12 88
12 90
12 91
12 93
12 94
12 95
12 97
12 98
12 99
13 14
13 17
13 18
13 21
13 22
13 24
13 28
13 29
13 31
13 33
13 34
13 36
13 37
13 41
13 44
13 45
13 47
13 49
13 53
13 55
13 58
13 59
13 64
13 65
13 70
13 71
13 72
13 73
13 74
13 76
13 77
13 81
13 82
13 86
13 87
13 90
13 92
13 96
13 97
13 99
14 15
14 18
14 19
14 21
14 25
14 26
14 28
14 29
14 30
14 32
14 33
14 34
14 36
14 39
14 40
14 44
14 45
14 46
14 47
14 48
14 49
14 52
14 54
14 56
14 57
14 58
14 60
14 62
14 63
14 69
14 70
14 71
14 72
14 73
14 75
14 76
14 81
14 82
14 83
14 85
14 86
14 88
14 94
14 96
15 16
15 17
15 18
15 22
15 23
15 24
15 27
15 29
15 30
15 31
15 34
15 39
15 40
15 41
15 42
15 43
15 44
15 45
15 46
15 47
15 48
15 50
15 51
15 54
15 55
15 57
15 60
15 65
15 66
15 68
15 69
15 74
15 76
15 78
15 79
15 80
15 81
15 82
15 84
15 86
15 88
15 89
15 90
15 91
15 92
15 93
16 66
16 70
16 65
16 73
16 87
16 98
16 78
16 80
16 81
16 82
16 67
16 85
16 22
16 23
16 88
16 89
16 28
16 30
16 31
16 34
16 37
16 39
16 41
16 71
16 44
16 45
16 47
16 48
16 50
16 69
16 53
16 54
16 55
16 56
16 60
16 61
17 67
17 70
17 73
17 75
17 76
17 77
17 82
17 83
17 84
17 78
17 23
17 88
17 89
17 90
17 27
17 93
17 95
17 32
17 35
17 36
17 37
17 39
17 40
17 43
17 45
17 47
17 99
17 91
17 55
17 87
17 59
17 62
17 63
18 19
18 23
18 24
18 28
18 30
18 31
18 33
18 35
18 36
18 37
18 38
18 39
18 41
18 44
18 45
18 46
18 47
18 50
18 55
18 56
18 57
18 58
18 59
18 60
18 65
18 67
18 68
18 69
18 72
18 74
18 78
18 79
18 80
18 81
18 82
18 83
18 84
18 85
18 86
18 87
18 88
18 89
18 90
18 91
18 92
18 99
19 20
19 23
19 30
19 32
19 35
19 36
19 39
19 40
19 41
19 46
19 48
19 50
19 51
19 52
19 53
19 54
19 56
19 58
19 59
19 62
19 63
19 65
19 67
19 69
19 70
19 73
19 75
19 76
19 79
19 80
19 85
19 86
19 90
19 93
19 95
19 99
20 22
20 27
20 29
20 30
20 33
20 34
20 36
20 39
20 41
20 44
20 45
20 49
20 50
20 51
20 53
20 56
20 57
20 59
20 61
20 65
20 66
20 69
20 71
20 72
20 73
20 77
20 78
20 80
20 82
20 83
20 84
20 87
20 88
20 91
20 93
20 95
20 96
20 97
20 98
21 23
21 24
21 25
21 26
21 28
21 29
21 31
21 34
21 37
21 38
21 39
21 41
21 42
21 43
21 44
21 45
21 46
21 50
21 51
21 52
21 54
21 57
21 59
21 61
21 62
21 64
21 66
21 67
21 68
21 70
21 71
21 72
21 74
21 76
21 77
21 78
21 81
21 83
21 87
21 88
21 90
21 91
21 92
21 94
21 96
21 97
21 99
22 65
22 67
22 68
22 91
22 89
22 81
22 82
22 66
22 23
22 24
22 25
22 26
22 79
22 29
22 30
22 96
22 80
22 35
22 36
22 97
22 40
22 44
22 48
22 72
22 50
22 51
22 52
22 54
22 55
22 57
22 59
22 62
23 25
23 27
23 31
23 32
23 36
23 40
23 41
23 49
23 51
23 54
23 56
23 58
23 63
23 65
23 66
23 69
23 70
23 72
23 73
23 75
23 77
23 78
23 79
23 80
23 82
23 83
23 84
23 86
23 87
23 89
23 93
23 94
24 25
24 27
24 28
24 30
24 31
24 32
24 33
24 36
24 37
24 42
24 44
24 49
24 51
24 52
24 53
24 54
24 55
24 61
24 65
24 66
24 68
24 72
24 73
24 74
24 75
24 76
24 79
24 81
24 84
24 90
24 91
24 93
24 95
24 98
25 27
25 33
25 34
25 35
25 36
25 38
25 40
25 45
25 50
25 54
25 57
25 59
25 60
25 61
25 62
25 63
25 64
25 65
25 68
25 69
25 72
25 73
25 75
25 76
25 77
25 79
25 81
25 82
25 83
25 85
25 86
25 88
25 89
25 90
25 92
25 94
25 96
26 64
26 67
26 70
26 72
26 74
26 75
26 77
26 79
26 84
26 87
26 89
26 27
26 95
26 32
26 33
26 91
26 38
26 97
26 42
26 43
26 44
26 96
26 52
26 55
26 56
26 57
26 58
26 59
26 60
27 28
27 30
27 32
27 33
27 36
27 40
27 44
27 45
27 46
27 47
27 50
27 54
27 56
27 58
27 60
27 62
27 65
27 67
27 70
27 73
27 75
27 76
27 77
27 79
27 81
27 83
27 84
27 86
27 88
27 89
27 90
27 91
27 92
27 95
27 97
28 33
28 34
28 35
28 36
28 37
28 38
28 39
28 40
28 43
28 45
28 46
28 48
28 49
28 50
28 51
28 52
28 54
28 56
28 58
28 61
28 67
28 69
28 70
28 74
28 80
28 81
28 83
28 84
28 85
28 87
28 88
28 89
28 90
28 91
28 92
28 95
28 96
28 97
29 32
29 33
29 35
29 40
29 41
29 42
29 43
29 44
29 47
29 48
29 49
29 50
29 55
29 61
29 63
29 67
29 68
29 70
29 73
29 74
29 75
29 76
29 78
29 79
29 80
29 82
29 87
29 89
29 90
29 96
29 97
29 98
29 99
30 31
30 35
30 38
30 40
30 41
30 42
30 44
30 47
30 49
30 51
30 52
30 54
30 55
30 56
30 57
30 58
30 60
30 61
30 62
30 66
30 67
30 69
30 70
30 71
30 72
30 74
30 76
30 78
30 79
30 80
30 82
30 84
30 85
30 88
30 89
30 90
30 91
30 93
30 94
30 95
30 96
30 99
31 32
31 33
31 35
31 36
31 37
31 38
31 43
31 45
31 46
31 48
31 49
31 52
31 54
31 56
31 57
31 58
31 59
31 61
31 62
31 68
31 69
31 75
31 79
31 80
31 82
31 84
31 86
31 87
31 88
31 91
31 92
31 95
31 96
31 98
31 99
32 34
32 35
32 38
32 39
32 41
32 43
32 48
32 52
32 53
32 56
32 57
32 62
32 64
32 65
32 69
32 70
32 73
32 75
32 77
32 81
32 83
32 84
32 85
32 86
32 89
32 90
32 93
32 95
32 96
32 98
33 34
33 35
33 42
33 48
33 51
33 52
33 53
33 56
33 57
33 58
33 60
33 62
33 63
33 64
33 66
33 68
33 70
33 71
33 73
33 75
33 76
33 78
33 83
33 87
33 88
33 89
33 92
33 95
33 96
33 97
34 35
34 36
34 37
34 38
34 39
34 41
34 43
34 44
34 46
34 47
34 50
34 51
34 53
34 56
34 59
34 60
34 64
34 69
34 70
34 74
34 75
34 76
34 77
34 79
34 87
34 89
34 94
34 95
34 97
34 98
35 36
35 37
35 38
35 40
35 42
35 43
35 45
35 47
35 50
35 51
35 53
35 54
35 56
35 57
35 61
35 62
35 67
35 68
35 71
35 73
35 74
35 75
35 78
35 83
35 84
35 87
35 89
35 90
35 91
35 92
35 93
35 94
35 97
35 98
36 38
36 40
36 42
36 43
36 45
36 48
36 49
36 51
36 52
36 53
36 59
36 62
36 64
36 66
36 67
36 69
36 70
36 71
36 75
36 76
36 78
36 81
36 85
36 90
36 93
36 95
36 98
37 38
37 41
37 42
37 43
37 45
37 47
37 48
37 49
37 50
37 52
37 54
37 55
37 56
37 57
37 58
37 61
37 62
37 64
37 65
37 67
37 69
37 72
37 73
37 75
37 79
37 82
37 85
37 87
37 90
37 92
37 93
37 95
37 96
37 98
38 39
38 40
38 41
38 42
38 44
38 46
38 47
38 48
38 53
38 54
38 55
38 58
38 60
38 61
38 62
38 64
38 67
38 69
38 71
38 72
38 73
38 75
38 77
38 78
38 83
38 84
38 86
38 87
38 88
38 91
38 94
38 95
38 96
38 97
38 98
39 42
39 43
39 45
39 46
39 47
39 50
39 51
39 53
39 56
39 57
39 60
39 61
39 64
39 65
39 74
39 75
39 76
39 77
39 79
39 81
39 82
39 86
39 92
39 93
39 95
39 98
40 41
40 42
40 46
40 48
40 55
40 57
40 58
40 63
40 64
40 65
40 68
40 75
40 77
40 80
40 81
40 82
40 84
40 85
40 86
40 87
40 88
40 89
40 91
40 92
40 93
40 96
40 97
40 99
41 44
41 46
41 48
41 50
41 52
41 53
41 54
41 56
41 58
41 59
41 60
41 62
41 63
41 69
41 70
41 71
41 72
41 73
41 75
41 77
41 78
41 80
41 81
41 82
41 87
41 93
41 94
41 95
41 96
41 97
41 99
42 46
42 47
42 48
42 49
42 51
42 52
42 53
42 54
42 57
42 59
42 61
42 63
42 65
42 66
42 67
42 70
42 75
42 77
42 78
42 79
42 80
42 81
42 82
42 84
42 87
42 90
42 91
42 95
42 97
43 44
43 45
43 46
43 47
43 48
43 49
43 52
43 54
43 55
43 57
43 61
43 63
43 64
43 68
43 70
43 73
43 76
43 78
43 79
43 80
43 81
43 84
43 85
43 86
43 90
43 96
43 97
43 98
43 99
44 45
44 46
44 49
44 50
44 51
44 52
44 54
44 55
44 56
44 57
44 58
44 60
44 61
44 62
44 66
44 70
44 72
44 73
44 77
44 81
44 82
44 87
44 88
44 89
44 93
44 94
44 95
44 98
45 50
45 52
45 53
45 54
45 55
45 57
45 61
45 62
45 63
45 64
45 66
45 70
45 71
45 74
45 75
45 77
45 81
45 84
45 88
45 89
45 93
45 94
45 95
45 96
45 97
45 98
45 99
46 53
46 55
46 56
46 57
46 59
46 60
46 64
46 65
46 66
46 70
46 71
46 72
46 73
46 75
46 77
46 80
46 84
46 87
46 90
46 92
46 95
46 96
46 97
46 98
47 50
47 54
47 56
47 57
47 58
47 61
47 62
47 63
47 64
47 66
47 70
47 71
47 72
47 77
47 78
47 79
47 82
47 83
47 84
47 85
47 86
47 87
47 89
47 93
47 94
47 96
47 97
48 50
48 53
48 55
48 57
48 60
48 70
48 72
48 73
48 76
48 77
48 79
48 81
48 86
48 88
48 89
48 90
48 93
48 94
48 97
48 99
49 52
49 54
49 55
49 58
49 60
49 61
49 64
49 65
49 67
49 70
49 71
49 75
49 76
49 78
49 79
49 81
49 83
49 84
49 86
49 87
49 88
49 89
49 90
49 91
49 92
49 93
49 94
49 96
49 97
49 98
50 86
50 73
50 74
50 77
50 78
50 87
50 88
50 94
50 82
50 71
50 76
50 85
50 57
50 58
50 59
50 60
50 61
50 62
50 63
51 52
51 53
51 55
51 56
51 57
51 63
51 69
51 71
51 75
51 76
51 77
51 78
51 80
51 81
51 83
51 85
51 86
51 87
51 88
51 93
51 94
51 96
51 97
51 99
52 53
52 54
52 55
52 64
52 68
52 70
52 71
52 72
52 73
52 75
52 77
52 78
52 79
52 80
52 82
52 83
52 86
52 87
52 90
52 91
52 92
52 94
52 95
52 98
52 99
53 55
53 58
53 63
53 65
53 66
53 67
53 68
53 69
53 71
53 72
53 73
53 74
53 75
53 76
53 77
53 78
53 82
53 83
53 85
53 88
53 89
53 90
53 91
53 93
53 94
53 98
54 55
54 56
54 60
54 62
54 65
54 66
54 70
54 71
54 75
54 76
54 82
54 84
54 87
54 88
54 89
54 91
54 92
54 94
54 95
54 98
54 99
55 57
55 58
55 60
55 65
55 67
55 68
55 71
55 72
55 73
55 75
55 77
55 79
55 80
55 82
55 85
55 87
55 88
55 89
55 90
55 96
55 97
55 99
56 61
56 62
56 64
56 66
56 71
56 72
56 73
56 75
56 76
56 78
56 80
56 82
56 84
56 86
56 90
56 93
56 94
56 95
56 96
56 98
56 99
57 58
57 62
57 64
57 65
57 66
57 69
57 70
57 73
57 74
57 76
57 77
57 79
57 83
57 84
57 87
57 88
57 90
57 91
57 94
57 95
57 96
57 98
57 99
58 59
58 60
58 61
58 63
58 64
58 65
58 66
58 67
58 69
58 70
58 76
58 78
58 80
58 81
58 83
58 87
58 88
58 90
58 91
58 94
58 96
59 64
59 67
59 68
59 65
59 73
59 78
59 77
59 88
59 96
59 99
59 82
59 74
59 95
59 60
59 61
59 62
60 62
60 63
60 64
60 66
60 73
60 74
60 75
60 76
60 79
60 85
60 86
60 87
60 88
60 89
60 90
60 91
60 92
60 95
61 62
61 63
61 64
61 68
61 69
61 71
61 73
61 75
61 76
61 78
61 79
61 80
61 84
61 85
61 86
61 88
61 90
61 91
61 93
61 94
61 95
61 97
61 98
61 99
62 64
62 65
62 66
62 67
62 68
62 70
62 71
62 72
62 73
62 75
62 79
62 81
62 83
62 85
62 86
62 87
62 88
62 89
62 91
62 92
62 96
62 97
63 64
63 66
63 67
63 68
63 69
63 72
63 74
63 76
63 79
63 81
63 82
63 83
63 84
63 85
63 88
63 89
63 90
63 93
63 94
63 95
63 97
63 98
63 99
64 65
64 67
64 68
64 72
64 73
64 77
64 79
64 80
64 81
64 82
64 84
64 85
64 86
64 94
64 95
64 97
65 69
65 70
65 73
65 74
65 75
65 80
65 82
65 83
65 88
65 90
65 91
65 94
65 95
65 96
65 97
65 98
66 67
66 68
66 69
66 70
66 71
66 73
66 75
66 76
66 79
66 80
66 81
66 83
66 84
66 86
66 87
66 88
66 89
66 90
66 91
66 93
66 94
66 96
66 98
66 99
67 71
67 72
67 74
67 76
67 79
67 80
67 82
67 83
67 85
67 86
67 88
67 89
67 90
67 92
67 95
67 96
67 98
68 71
68 73
68 76
68 78
68 80
68 82
68 83
68 85
68 86
68 89
68 91
68 94
68 97
68 98
69 70
69 71
69 73
69 74
69 76
69 77
69 78
69 79
69 80
69 81
69 85
69 88
69 91
69 95
69 97
69 98
69 99
70 71
70 72
70 73
70 77
70 78
70 79
70 80
70 81
70 82
70 85
70 93
70 95
70 96
70 97
70 98
71 72
71 73
71 75
71 78
71 79
71 80
71 82
71 84
71 88
71 90
71 92
71 94
71 95
71 96
71 97
71 98
71 99
72 73
72 83
72 85
72 88
72 93
72 94
72 95
72 96
72 97
72 98
72 99
73 75
73 76
73 77
73 78
73 79
73 80
73 83
73 84
73 85
73 87
73 89
73 93
73 95
73 97
74 79
74 77
74 86
74 89
74 75
74 97
74 82
74 83
74 85
75 76
75 80
75 81
75 85
75 87
75 90
75 93
75 96
75 97
76 81
76 83
76 86
76 87
76 88
76 89
76 92
76 93
76 94
76 95
76 96
76 97
76 99
77 78
77 79
77 80
77 82
77 84
77 87
77 88
77 90
77 92
77 94
77 95
77 96
78 79
78 80
78 82
78 86
78 89
78 90
78 92
78 93
78 97
79 80
79 81
79 82
79 83
79 86
79 87
79 88
79 91
79 93
79 94
79 95
79 98
79 99
80 81
80 82
80 83
80 85
80 87
80 88
80 89
80 90
80 92
80 95
80 96
80 97
80 98
81 83
81 86
81 88
81 89
81 90
81 93
81 95
81 97
81 98
82 84
82 86
82 87
82 88
82 97
82 98
82 99
83 86
83 88
83 89
83 91
83 93
83 94
83 96
83 99
84 85
84 86
84 88
84 89
84 91
84 95
84 96
85 92
85 94
85 95
85 97
86 87
86 88
86 89
86 91
86 92
86 96
86 97
86 99
87 89
87 92
87 93
87 94
87 96
87 99
88 89
88 90
88 93
88 95
88 96
89 91
89 93
89 99
90 91
90 95
91 92
91 93
92 99
92 93
92 94
92 96
92 97
92 95
93 99
94 95
94 96
94 97
94 99
97 98
97 99
