graph {
		0 -- 1
		0 -- 4
		0 -- 7
		0 -- 8
		0 -- 9
		0 -- 11
		0 -- 13
		0 -- 17
		0 -- 18
		0 -- 20
		0 -- 21
		0 -- 22
		0 -- 23
		0 -- 26
		0 -- 28
		0 -- 31
		0 -- 34
		0 -- 39
		0 -- 41
		0 -- 42
		0 -- 45
		0 -- 48
		0 -- 52
		0 -- 53
		0 -- 56
		0 -- 64
		0 -- 65
		0 -- 66
		0 -- 67
		0 -- 68
		0 -- 72
		0 -- 74
		0 -- 75
		0 -- 76
		0 -- 78
		0 -- 80
		0 -- 82
		0 -- 84
		0 -- 85
		0 -- 87
		0 -- 88
		0 -- 90
		0 -- 91
		0 -- 93
		0 -- 98
		0 -- 99
		1 -- 8
		1 -- 9
		1 -- 14
		1 -- 16
		1 -- 20
		1 -- 21
		1 -- 24
		1 -- 25
		1 -- 26
		1 -- 29
		1 -- 30
		1 -- 34
		1 -- 37
		1 -- 43
		1 -- 44
		1 -- 45
		1 -- 46
		1 -- 51
		1 -- 54
		1 -- 58
		1 -- 59
		1 -- 62
		1 -- 64
		1 -- 66
		1 -- 69
		1 -- 71
		1 -- 73
		1 -- 76
		1 -- 78
		1 -- 79
		1 -- 80
		1 -- 81
		1 -- 83
		1 -- 84
		1 -- 85
		1 -- 88
		1 -- 89
		1 -- 90
		1 -- 92
		1 -- 93
		1 -- 95
		1 -- 96
		1 -- 97
		1 -- 99
		2 -- 4
		2 -- 6
		2 -- 8
		2 -- 10
		2 -- 14
		2 -- 16
		2 -- 17
		2 -- 20
		2 -- 21
		2 -- 23
		2 -- 24
		2 -- 25
		2 -- 26
		2 -- 28
		2 -- 29
		2 -- 30
		2 -- 34
		2 -- 35
		2 -- 37
		2 -- 38
		2 -- 39
		2 -- 41
		2 -- 44
		2 -- 45
		2 -- 48
		2 -- 49
		2 -- 50
		2 -- 51
		2 -- 52
		2 -- 54
		2 -- 55
		2 -- 56
		2 -- 57
		2 -- 59
		2 -- 64
		2 -- 67
		2 -- 68
		2 -- 72
		2 -- 76
		2 -- 78
		2 -- 79
		2 -- 80
		2 -- 82
		2 -- 87
		2 -- 92
		2 -- 94
		2 -- 98
		2 -- 99
		3 -- 7
		3 -- 9
		3 -- 10
		3 -- 11
		3 -- 12
		3 -- 14
		3 -- 15
		3 -- 16
		3 -- 23
		3 -- 25
		3 -- 26
		3 -- 27
		3 -- 28
		3 -- 29
		3 -- 30
		3 -- 32
		3 -- 33
		3 -- 37
		3 -- 41
		3 -- 42
		3 -- 43
		3 -- 45
		3 -- 48
		3 -- 49
		3 -- 53
		3 -- 54
		3 -- 55
		3 -- 58
		3 -- 60
		3 -- 61
		3 -- 62
		3 -- 63
		3 -- 64
		3 -- 65
		3 -- 66
		3 -- 69
		3 -- 72
		3 -- 73
		3 -- 74
		3 -- 78
		3 -- 80
		3 -- 84
		3 -- 86
		3 -- 91
		3 -- 93
		3 -- 96
		3 -- 97
		3 -- 98
		3 -- 99
		4 -- 8
		4 -- 9
		4 -- 11
		4 -- 13
		4 -- 16
		4 -- 20
		4 -- 22
		4 -- 23
		4 -- 24
		4 -- 25
		4 -- 27
		4 -- 29
		4 -- 30
		4 -- 31
		4 -- 32
		4 -- 34
		4 -- 35
		4 -- 36
		4 -- 37
		4 -- 39
		4 -- 40
		4 -- 41
		4 -- 42
		4 -- 43
		4 -- 44
		4 -- 46
		4 -- 47
		4 -- 49
		4 -- 54
		4 -- 56
		4 -- 59
		4 -- 62
		4 -- 69
		4 -- 71
		4 -- 72
		4 -- 74
		4 -- 75
		4 -- 77
		4 -- 79
		4 -- 80
		4 -- 82
		4 -- 83
		4 -- 89
		4 -- 91
		4 -- 92
		4 -- 93
		4 -- 94
		4 -- 95
		4 -- 98
		4 -- 99
		5 -- 7
		5 -- 9
		5 -- 10
		5 -- 13
		5 -- 14
		5 -- 16
		5 -- 19
		5 -- 22
		5 -- 23
		5 -- 25
		5 -- 26
		5 -- 27
		5 -- 29
		5 -- 38
		5 -- 39
		5 -- 41
		5 -- 42
		5 -- 45
		5 -- 46
		5 -- 47
		5 -- 48
		5 -- 50
		5 -- 51
		5 -- 52
		5 -- 53
		5 -- 54
		5 -- 55
		5 -- 56
		5 -- 60
		5 -- 62
		5 -- 64
		5 -- 65
		5 -- 66
		5 -- 67
		5 -- 68
		5 -- 70
		5 -- 74
		5 -- 78
		5 -- 79
		5 -- 80
		5 -- 83
		5 -- 86
		5 -- 87
		5 -- 91
		5 -- 96
		5 -- 99
		6 -- 7
		6 -- 14
		6 -- 15
		6 -- 16
		6 -- 18
		6 -- 20
		6 -- 24
		6 -- 25
		6 -- 27
		6 -- 31
		6 -- 32
		6 -- 33
		6 -- 35
		6 -- 37
		6 -- 38
		6 -- 42
		6 -- 43
		6 -- 44
		6 -- 46
		6 -- 48
		6 -- 50
		6 -- 51
		6 -- 52
		6 -- 53
		6 -- 56
		6 -- 58
		6 -- 59
		6 -- 62
		6 -- 63
		6 -- 64
		6 -- 67
		6 -- 70
		6 -- 71
		6 -- 75
		6 -- 79
		6 -- 80
		6 -- 83
		6 -- 84
		6 -- 85
		6 -- 86
		6 -- 91
		6 -- 92
		6 -- 93
		6 -- 94
		6 -- 95
		6 -- 97
		6 -- 98
		7 -- 10
		7 -- 11
		7 -- 13
		7 -- 15
		7 -- 16
		7 -- 18
		7 -- 20
		7 -- 23
		7 -- 27
		7 -- 29
		7 -- 30
		7 -- 35
		7 -- 36
		7 -- 38
		7 -- 39
		7 -- 40
		7 -- 43
		7 -- 44
		7 -- 46
		7 -- 50
		7 -- 52
		7 -- 54
		7 -- 56
		7 -- 57
		7 -- 59
		7 -- 61
		7 -- 62
		7 -- 63
		7 -- 64
		7 -- 65
		7 -- 66
		7 -- 69
		7 -- 72
		7 -- 73
		7 -- 74
		7 -- 75
		7 -- 80
		7 -- 81
		7 -- 83
		7 -- 85
		7 -- 87
		7 -- 91
		7 -- 94
		7 -- 95
		7 -- 98
		7 -- 99
		8 -- 9
		8 -- 10
		8 -- 12
		8 -- 15
		8 -- 18
		8 -- 19
		8 -- 22
		8 -- 26
		8 -- 27
		8 -- 28
		8 -- 29
		8 -- 30
		8 -- 31
		8 -- 33
		8 -- 34
		8 -- 35
		8 -- 36
		8 -- 37
		8 -- 38
		8 -- 42
		8 -- 43
		8 -- 45
		8 -- 47
		8 -- 49
		8 -- 50
		8 -- 52
		8 -- 54
		8 -- 56
		8 -- 57
		8 -- 59
		8 -- 60
		8 -- 62
		8 -- 63
		8 -- 72
		8 -- 73
		8 -- 74
		8 -- 80
		8 -- 89
		8 -- 94
		8 -- 97
		8 -- 98
		9 -- 10
		9 -- 14
		9 -- 18
		9 -- 19
		9 -- 21
		9 -- 22
		9 -- 25
		9 -- 27
		9 -- 29
		9 -- 30
		9 -- 32
		9 -- 36
		9 -- 38
		9 -- 40
		9 -- 42
		9 -- 43
		9 -- 44
		9 -- 46
		9 -- 47
		9 -- 48
		9 -- 50
		9 -- 51
		9 -- 53
		9 -- 54
		9 -- 55
		9 -- 61
		9 -- 62
		9 -- 63
		9 -- 65
		9 -- 66
		9 -- 68
		9 -- 69
		9 -- 70
		9 -- 71
		9 -- 72
		9 -- 73
		9 -- 75
		9 -- 80
		9 -- 86
		9 -- 87
		9 -- 88
		9 -- 91
		9 -- 92
		9 -- 98
		10 -- 11
		10 -- 14
		10 -- 15
		10 -- 16
		10 -- 17
		10 -- 19
		10 -- 21
		10 -- 22
		10 -- 23
		10 -- 25
		10 -- 30
		10 -- 31
		10 -- 33
		10 -- 34
		10 -- 35
		10 -- 40
		10 -- 41
		10 -- 43
		10 -- 45
		10 -- 46
		10 -- 47
		10 -- 49
		10 -- 52
		10 -- 54
		10 -- 58
		10 -- 59
		10 -- 60
		10 -- 61
		10 -- 62
		10 -- 64
		10 -- 68
		10 -- 70
		10 -- 71
		10 -- 72
		10 -- 77
		10 -- 80
		10 -- 81
		10 -- 82
		10 -- 86
		10 -- 88
		10 -- 89
		10 -- 90
		10 -- 91
		10 -- 92
		10 -- 96
		11 -- 12
		11 -- 14
		11 -- 15
		11 -- 16
		11 -- 20
		11 -- 24
		11 -- 28
		11 -- 29
		11 -- 30
		11 -- 33
		11 -- 34
		11 -- 36
		11 -- 37
		11 -- 38
		11 -- 40
		11 -- 42
		11 -- 44
		11 -- 45
		11 -- 50
		11 -- 53
		11 -- 54
		11 -- 59
		11 -- 60
		11 -- 63
		11 -- 64
		11 -- 66
		11 -- 67
		11 -- 70
		11 -- 74
		11 -- 75
		11 -- 76
		11 -- 82
		11 -- 84
		11 -- 85
		11 -- 87
		11 -- 88
		11 -- 92
		11 -- 94
		11 -- 95
		11 -- 96
		12 -- 64
		12 -- 68
		12 -- 69
		12 -- 71
		12 -- 74
		12 -- 76
		12 -- 14
		12 -- 90
		12 -- 16
		12 -- 17
		12 -- 82
		12 -- 19
		12 -- 84
		12 -- 93
		12 -- 22
		12 -- 23
		12 -- 88
		12 -- 26
		12 -- 27
		12 -- 29
		12 -- 95
		12 -- 96
		12 -- 33
		12 -- 67
		12 -- 35
		12 -- 37
		12 -- 81
		12 -- 97
		12 -- 44
		12 -- 45
		12 -- 46
		12 -- 47
		12 -- 48
		12 -- 49
		12 -- 51
		12 -- 54
		12 -- 87
		12 -- 59
		12 -- 61
		13 -- 16
		13 -- 20
		13 -- 24
		13 -- 27
		13 -- 28
		13 -- 30
		13 -- 31
		13 -- 32
		13 -- 33
		13 -- 34
		13 -- 36
		13 -- 37
		13 -- 40
		13 -- 47
		13 -- 49
		13 -- 50
		13 -- 51
		13 -- 52
		13 -- 53
		13 -- 54
		13 -- 55
		13 -- 56
		13 -- 58
		13 -- 59
		13 -- 60
		13 -- 61
		13 -- 64
		13 -- 66
		13 -- 67
		13 -- 69
		13 -- 71
		13 -- 72
		13 -- 74
		13 -- 75
		13 -- 78
		13 -- 79
		13 -- 82
		13 -- 83
		13 -- 88
		13 -- 98
		13 -- 99
		14 -- 16
		14 -- 17
		14 -- 18
		14 -- 23
		14 -- 25
		14 -- 28
		14 -- 32
		14 -- 36
		14 -- 37
		14 -- 38
		14 -- 39
		14 -- 42
		14 -- 43
		14 -- 45
		14 -- 48
		14 -- 49
		14 -- 52
		14 -- 55
		14 -- 57
		14 -- 59
		14 -- 60
		14 -- 61
		14 -- 62
		14 -- 64
		14 -- 67
		14 -- 68
		14 -- 71
		14 -- 75
		14 -- 78
		14 -- 80
		14 -- 81
		14 -- 82
		14 -- 83
		14 -- 84
		14 -- 87
		14 -- 90
		14 -- 91
		14 -- 94
		14 -- 95
		14 -- 97
		14 -- 98
		14 -- 99
		15 -- 16
		15 -- 17
		15 -- 20
		15 -- 22
		15 -- 24
		15 -- 26
		15 -- 27
		15 -- 28
		15 -- 30
		15 -- 31
		15 -- 38
		15 -- 41
		15 -- 42
		15 -- 43
		15 -- 45
		15 -- 47
		15 -- 48
		15 -- 50
		15 -- 51
		15 -- 52
		15 -- 54
		15 -- 55
		15 -- 58
		15 -- 60
		15 -- 62
		15 -- 65
		15 -- 66
		15 -- 67
		15 -- 70
		15 -- 71
		15 -- 73
		15 -- 74
		15 -- 76
		15 -- 77
		15 -- 78
		15 -- 80
		15 -- 81
		15 -- 82
		15 -- 83
		15 -- 85
		15 -- 88
		15 -- 91
		15 -- 92
		15 -- 93
		15 -- 95
		15 -- 99
		16 -- 19
		16 -- 20
		16 -- 22
		16 -- 24
		16 -- 28
		16 -- 29
		16 -- 30
		16 -- 31
		16 -- 33
		16 -- 36
		16 -- 38
		16 -- 39
		16 -- 41
		16 -- 44
		16 -- 45
		16 -- 46
		16 -- 47
		16 -- 49
		16 -- 50
		16 -- 52
		16 -- 53
		16 -- 57
		16 -- 58
		16 -- 59
		16 -- 60
		16 -- 62
		16 -- 65
		16 -- 66
		16 -- 67
		16 -- 68
		16 -- 69
		16 -- 71
		16 -- 74
		16 -- 76
		16 -- 78
		16 -- 79
		16 -- 81
		16 -- 82
		16 -- 84
		16 -- 85
		16 -- 88
		16 -- 89
		16 -- 91
		16 -- 93
		16 -- 94
		16 -- 95
		16 -- 96
		17 -- 21
		17 -- 23
		17 -- 26
		17 -- 27
		17 -- 28
		17 -- 29
		17 -- 30
		17 -- 31
		17 -- 32
		17 -- 34
		17 -- 38
		17 -- 39
		17 -- 41
		17 -- 42
		17 -- 45
		17 -- 51
		17 -- 52
		17 -- 57
		17 -- 58
		17 -- 59
		17 -- 65
		17 -- 66
		17 -- 69
		17 -- 70
		17 -- 71
		17 -- 73
		17 -- 77
		17 -- 79
		17 -- 80
		17 -- 81
		17 -- 83
		17 -- 86
		17 -- 87
		17 -- 89
		17 -- 92
		17 -- 93
		17 -- 98
		17 -- 99
		18 -- 19
		18 -- 20
		18 -- 22
		18 -- 24
		18 -- 25
		18 -- 26
		18 -- 29
		18 -- 30
		18 -- 32
		18 -- 38
		18 -- 40
		18 -- 41
		18 -- 42
		18 -- 45
		18 -- 46
		18 -- 48
		18 -- 49
		18 -- 52
		18 -- 54
		18 -- 57
		18 -- 58
		18 -- 60
		18 -- 61
		18 -- 64
		18 -- 66
		18 -- 67
		18 -- 68
		18 -- 70
		18 -- 71
		18 -- 76
		18 -- 78
		18 -- 79
		18 -- 82
		18 -- 88
		18 -- 90
		18 -- 91
		18 -- 95
		18 -- 97
		18 -- 99
		19 -- 21
		19 -- 22
		19 -- 23
		19 -- 24
		19 -- 27
		19 -- 28
		19 -- 31
		19 -- 33
		19 -- 35
		19 -- 37
		19 -- 39
		19 -- 40
		19 -- 43
		19 -- 54
		19 -- 56
		19 -- 57
		19 -- 59
		19 -- 60
		19 -- 61
		19 -- 62
		19 -- 63
		19 -- 65
		19 -- 67
		19 -- 70
		19 -- 74
		19 -- 75
		19 -- 79
		19 -- 81
		19 -- 82
		19 -- 83
		19 -- 84
		19 -- 91
		19 -- 92
		19 -- 93
		19 -- 94
		19 -- 95
		19 -- 96
		19 -- 98
		20 -- 22
		20 -- 23
		20 -- 24
		20 -- 25
		20 -- 27
		20 -- 28
		20 -- 33
		20 -- 37
		20 -- 39
		20 -- 43
		20 -- 44
		20 -- 47
		20 -- 49
		20 -- 50
		20 -- 51
		20 -- 52
		20 -- 55
		20 -- 56
		20 -- 60
		20 -- 61
		20 -- 63
		20 -- 64
		20 -- 65
		20 -- 66
		20 -- 67
		20 -- 72
		20 -- 75
		20 -- 76
		20 -- 78
		20 -- 82
		20 -- 83
		20 -- 84
		20 -- 86
		20 -- 87
		20 -- 92
		20 -- 94
		20 -- 96
		20 -- 97
		20 -- 98
		21 -- 22
		21 -- 24
		21 -- 25
		21 -- 26
		21 -- 28
		21 -- 33
		21 -- 34
		21 -- 35
		21 -- 37
		21 -- 40
		21 -- 41
		21 -- 42
		21 -- 43
		21 -- 48
		21 -- 50
		21 -- 51
		21 -- 53
		21 -- 55
		21 -- 57
		21 -- 59
		21 -- 60
		21 -- 61
		21 -- 63
		21 -- 65
		21 -- 67
		21 -- 69
		21 -- 71
		21 -- 73
		21 -- 75
		21 -- 76
		21 -- 77
		21 -- 78
		21 -- 79
		21 -- 80
		21 -- 81
		21 -- 82
		21 -- 84
		21 -- 86
		21 -- 89
		21 -- 92
		21 -- 96
		21 -- 99
		22 -- 24
		22 -- 25
		22 -- 26
		22 -- 28
		22 -- 29
		22 -- 31
		22 -- 32
		22 -- 34
		22 -- 36
		22 -- 40
		22 -- 41
		22 -- 42
		22 -- 43
		22 -- 44
		22 -- 48
		22 -- 49
		22 -- 52
		22 -- 56
		22 -- 57
		22 -- 59
		22 -- 61
		22 -- 62
		22 -- 63
		22 -- 66
		22 -- 68
		22 -- 73
		22 -- 74
		22 -- 75
		22 -- 76
		22 -- 78
		22 -- 79
		22 -- 81
		22 -- 82
		22 -- 83
		22 -- 84
		22 -- 85
		22 -- 89
		22 -- 93
		22 -- 95
		22 -- 96
		22 -- 99
		23 -- 26
		23 -- 27
		23 -- 28
		23 -- 30
		23 -- 34
		23 -- 37
		23 -- 41
		23 -- 43
		23 -- 44
		23 -- 45
		23 -- 46
		23 -- 47
		23 -- 48
		23 -- 49
		23 -- 50
		23 -- 54
		23 -- 55
		23 -- 58
		23 -- 60
		23 -- 63
		23 -- 64
		23 -- 66
		23 -- 70
		23 -- 75
		23 -- 76
		23 -- 81
		23 -- 82
		23 -- 83
		23 -- 85
		23 -- 86
		23 -- 87
		23 -- 89
		23 -- 90
		23 -- 92
		23 -- 94
		23 -- 96
		23 -- 98
		23 -- 99
		24 -- 26
		24 -- 30
		24 -- 31
		24 -- 34
		24 -- 35
		24 -- 36
		24 -- 38
		24 -- 39
		24 -- 40
		24 -- 44
		24 -- 45
		24 -- 47
		24 -- 48
		24 -- 49
		24 -- 54
		24 -- 55
		24 -- 57
		24 -- 58
		24 -- 61
		24 -- 62
		24 -- 63
		24 -- 64
		24 -- 66
		24 -- 68
		24 -- 70
		24 -- 74
		24 -- 75
		24 -- 76
		24 -- 79
		24 -- 80
		24 -- 81
		24 -- 85
		24 -- 88
		24 -- 90
		24 -- 92
		24 -- 93
		24 -- 95
		24 -- 97
		24 -- 99
		25 -- 26
		25 -- 27
		25 -- 30
		25 -- 32
		25 -- 33
		25 -- 34
		25 -- 40
		25 -- 41
		25 -- 44
		25 -- 45
		25 -- 46
		25 -- 47
		25 -- 48
		25 -- 49
		25 -- 52
		25 -- 54
		25 -- 57
		25 -- 58
		25 -- 59
		25 -- 61
		25 -- 62
		25 -- 64
		25 -- 66
		25 -- 67
		25 -- 68
		25 -- 69
		25 -- 70
		25 -- 71
		25 -- 74
		25 -- 77
		25 -- 78
		25 -- 79
		25 -- 80
		25 -- 81
		25 -- 82
		25 -- 83
		25 -- 85
		25 -- 89
		25 -- 90
		25 -- 91
		25 -- 92
		25 -- 94
		25 -- 96
		25 -- 98
		25 -- 99
		26 -- 29
		26 -- 31
		26 -- 35
		26 -- 40
		26 -- 41
		26 -- 42
		26 -- 43
		26 -- 46
		26 -- 47
		26 -- 48
		26 -- 49
		26 -- 51
		26 -- 53
		26 -- 54
		26 -- 55
		26 -- 60
		26 -- 61
		26 -- 65
		26 -- 69
		26 -- 70
		26 -- 75
		26 -- 76
		26 -- 77
		26 -- 86
		26 -- 87
		26 -- 89
		26 -- 93
		26 -- 95
		26 -- 98
		26 -- 99
		27 -- 28
		27 -- 29
		27 -- 31
		27 -- 34
		27 -- 35
		27 -- 38
		27 -- 40
		27 -- 41
		27 -- 44
		27 -- 48
		27 -- 49
		27 -- 53
		27 -- 55
		27 -- 56
		27 -- 57
		27 -- 61
		27 -- 62
		27 -- 64
		27 -- 68
		27 -- 69
		27 -- 71
		27 -- 74
		27 -- 75
		27 -- 77
		27 -- 79
		27 -- 80
		27 -- 81
		27 -- 82
		27 -- 85
		27 -- 87
		27 -- 88
		27 -- 89
		27 -- 90
		27 -- 92
		27 -- 93
		27 -- 95
		28 -- 29
		28 -- 30
		28 -- 31
		28 -- 34
		28 -- 35
		28 -- 37
		28 -- 41
		28 -- 42
		28 -- 44
		28 -- 45
		28 -- 47
		28 -- 49
		28 -- 54
		28 -- 55
		28 -- 56
		28 -- 57
		28 -- 58
		28 -- 59
		28 -- 60
		28 -- 61
		28 -- 65
		28 -- 66
		28 -- 68
		28 -- 69
		28 -- 70
		28 -- 71
		28 -- 75
		28 -- 76
		28 -- 77
		28 -- 82
		28 -- 83
		28 -- 84
		28 -- 85
		28 -- 86
		28 -- 87
		28 -- 88
		28 -- 89
		28 -- 91
		28 -- 95
		28 -- 96
		29 -- 32
		29 -- 34
		29 -- 35
		29 -- 36
		29 -- 37
		29 -- 38
		29 -- 39
		29 -- 41
		29 -- 46
		29 -- 47
		29 -- 48
		29 -- 49
		29 -- 52
		29 -- 54
		29 -- 56
		29 -- 62
		29 -- 63
		29 -- 65
		29 -- 66
		29 -- 67
		29 -- 74
		29 -- 75
		29 -- 78
		29 -- 80
		29 -- 82
		29 -- 84
		29 -- 86
		29 -- 87
		29 -- 91
		29 -- 93
		29 -- 96
		29 -- 97
		30 -- 31
		30 -- 32
		30 -- 33
		30 -- 34
		30 -- 35
		30 -- 40
		30 -- 42
		30 -- 43
		30 -- 44
		30 -- 46
		30 -- 47
		30 -- 49
		30 -- 51
		30 -- 54
		30 -- 56
		30 -- 60
		30 -- 61
		30 -- 62
		30 -- 65
		30 -- 67
		30 -- 69
		30 -- 70
		30 -- 71
		30 -- 73
		30 -- 74
		30 -- 76
		30 -- 77
		30 -- 79
		30 -- 80
		30 -- 81
		30 -- 83
		30 -- 90
		30 -- 93
		30 -- 94
		30 -- 95
		30 -- 99
		31 -- 32
		31 -- 33
		31 -- 36
		31 -- 39
		31 -- 40
		31 -- 44
		31 -- 45
		31 -- 46
		31 -- 48
		31 -- 54
		31 -- 56
		31 -- 57
		31 -- 58
		31 -- 59
		31 -- 61
		31 -- 64
		31 -- 66
		31 -- 69
		31 -- 73
		31 -- 78
		31 -- 83
		31 -- 84
		31 -- 86
		31 -- 87
		31 -- 89
		31 -- 91
		31 -- 93
		31 -- 94
		31 -- 95
		31 -- 97
		32 -- 34
		32 -- 35
		32 -- 37
		32 -- 38
		32 -- 39
		32 -- 41
		32 -- 42
		32 -- 43
		32 -- 46
		32 -- 47
		32 -- 48
		32 -- 49
		32 -- 50
		32 -- 53
		32 -- 55
		32 -- 56
		32 -- 61
		32 -- 62
		32 -- 63
		32 -- 65
		32 -- 67
		32 -- 71
		32 -- 72
		32 -- 73
		32 -- 76
		32 -- 78
		32 -- 79
		32 -- 80
		32 -- 81
		32 -- 85
		32 -- 90
		32 -- 93
		32 -- 95
		32 -- 96
		32 -- 97
		32 -- 98
		32 -- 99
		33 -- 36
		33 -- 40
		33 -- 42
		33 -- 43
		33 -- 47
		33 -- 50
		33 -- 52
		33 -- 53
		33 -- 54
		33 -- 55
		33 -- 57
		33 -- 59
		33 -- 61
		33 -- 62
		33 -- 63
		33 -- 66
		33 -- 67
		33 -- 72
		33 -- 73
		33 -- 75
		33 -- 76
		33 -- 77
		33 -- 78
		33 -- 81
		33 -- 83
		33 -- 86
		33 -- 87
		33 -- 88
		33 -- 89
		33 -- 90
		33 -- 97
		33 -- 99
		34 -- 35
		34 -- 36
		34 -- 37
		34 -- 38
		34 -- 39
		34 -- 40
		34 -- 41
		34 -- 42
		34 -- 45
		34 -- 46
		34 -- 47
		34 -- 49
		34 -- 51
		34 -- 52
		34 -- 53
		34 -- 55
		34 -- 56
		34 -- 57
		34 -- 60
		34 -- 61
		34 -- 62
		34 -- 64
		34 -- 71
		34 -- 72
		34 -- 73
		34 -- 74
		34 -- 80
		34 -- 81
		34 -- 82
		34 -- 83
		34 -- 86
		34 -- 87
		34 -- 89
		34 -- 92
		34 -- 94
		34 -- 96
		35 -- 36
		35 -- 42
		35 -- 43
		35 -- 44
		35 -- 49
		35 -- 50
		35 -- 52
		35 -- 53
		35 -- 54
		35 -- 58
		35 -- 59
		35 -- 61
		35 -- 62
		35 -- 63
		35 -- 69
		35 -- 70
		35 -- 71
		35 -- 72
		35 -- 75
		35 -- 77
		35 -- 78
		35 -- 81
		35 -- 82
		35 -- 84
		35 -- 90
		35 -- 93
		35 -- 95
		35 -- 98
		35 -- 99
		36 -- 44
		36 -- 45
		36 -- 53
		36 -- 55
		36 -- 56
		36 -- 57
		36 -- 58
		36 -- 60
		36 -- 62
		36 -- 67
		36 -- 70
		36 -- 72
		36 -- 73
		36 -- 74
		36 -- 78
		36 -- 80
		36 -- 81
		36 -- 82
		36 -- 83
		36 -- 84
		36 -- 85
		36 -- 86
		36 -- 87
		36 -- 88
		36 -- 89
		36 -- 90
		36 -- 91
		36 -- 93
		36 -- 95
		36 -- 96
		36 -- 98
		37 -- 39
		37 -- 40
		37 -- 41
		37 -- 42
		37 -- 45
		37 -- 46
		37 -- 47
		37 -- 48
		37 -- 49
		37 -- 51
		37 -- 52
		37 -- 53
		37 -- 54
		37 -- 55
		37 -- 56
		37 -- 57
		37 -- 58
		37 -- 59
		37 -- 60
		37 -- 64
		37 -- 67
		37 -- 68
		37 -- 70
		37 -- 73
		37 -- 76
		37 -- 77
		37 -- 81
		37 -- 82
		37 -- 84
		37 -- 88
		37 -- 89
		37 -- 92
		37 -- 94
		37 -- 95
		37 -- 96
		37 -- 97
		37 -- 98
		38 -- 39
		38 -- 41
		38 -- 47
		38 -- 49
		38 -- 52
		38 -- 53
		38 -- 54
		38 -- 57
		38 -- 59
		38 -- 60
		38 -- 61
		38 -- 66
		38 -- 67
		38 -- 68
		38 -- 70
		38 -- 72
		38 -- 73
		38 -- 82
		38 -- 84
		38 -- 85
		38 -- 87
		38 -- 88
		38 -- 89
		38 -- 90
		38 -- 91
		38 -- 92
		38 -- 95
		38 -- 97
		39 -- 41
		39 -- 42
		39 -- 45
		39 -- 46
		39 -- 47
		39 -- 48
		39 -- 49
		39 -- 50
		39 -- 51
		39 -- 52
		39 -- 53
		39 -- 54
		39 -- 57
		39 -- 59
		39 -- 60
		39 -- 64
		39 -- 67
		39 -- 69
		39 -- 70
		39 -- 71
		39 -- 74
		39 -- 76
		39 -- 78
		39 -- 79
		39 -- 80
		39 -- 82
		39 -- 83
		39 -- 84
		39 -- 85
		39 -- 86
		39 -- 87
		39 -- 90
		39 -- 92
		39 -- 93
		39 -- 99
		40 -- 41
		40 -- 42
		40 -- 43
		40 -- 46
		40 -- 47
		40 -- 49
		40 -- 50
		40 -- 51
		40 -- 52
		40 -- 55
		40 -- 60
		40 -- 63
		40 -- 64
		40 -- 66
		40 -- 68
		40 -- 70
		40 -- 72
		40 -- 73
		40 -- 74
		40 -- 75
		40 -- 77
		40 -- 78
		40 -- 80
		40 -- 84
		40 -- 86
		40 -- 87
		40 -- 88
		40 -- 92
		40 -- 96
		40 -- 99
		41 -- 42
		41 -- 44
		41 -- 45
		41 -- 47
		41 -- 48
		41 -- 55
		41 -- 56
		41 -- 58
		41 -- 59
		41 -- 60
		41 -- 61
		41 -- 62
		41 -- 65
		41 -- 70
		41 -- 71
		41 -- 74
		41 -- 75
		41 -- 77
		41 -- 80
		41 -- 84
		41 -- 86
		41 -- 88
		41 -- 90
		41 -- 91
		41 -- 92
		41 -- 93
		41 -- 94
		42 -- 44
		42 -- 45
		42 -- 46
		42 -- 47
		42 -- 49
		42 -- 50
		42 -- 52
		42 -- 53
		42 -- 55
		42 -- 56
		42 -- 58
		42 -- 59
		42 -- 60
		42 -- 61
		42 -- 65
		42 -- 67
		42 -- 70
		42 -- 71
		42 -- 75
		42 -- 76
		42 -- 77
		42 -- 81
		42 -- 82
		42 -- 87
		42 -- 88
		42 -- 89
		42 -- 90
		42 -- 91
		42 -- 96
		42 -- 98
		43 -- 44
		43 -- 45
		43 -- 46
		43 -- 48
		43 -- 51
		43 -- 52
		43 -- 54
		43 -- 56
		43 -- 57
		43 -- 59
		43 -- 61
		43 -- 63
		43 -- 65
		43 -- 67
		43 -- 68
		43 -- 69
		43 -- 71
		43 -- 72
		43 -- 74
		43 -- 75
		43 -- 78
		43 -- 80
		43 -- 85
		43 -- 86
		43 -- 87
		43 -- 88
		43 -- 91
		43 -- 92
		43 -- 93
		43 -- 94
		43 -- 95
		43 -- 96
		43 -- 99
		44 -- 47
		44 -- 48
		44 -- 49
		44 -- 51
		44 -- 53
		44 -- 54
		44 -- 56
		44 -- 57
		44 -- 58
		44 -- 60
		44 -- 61
		44 -- 62
		44 -- 64
		44 -- 65
		44 -- 66
		44 -- 69
		44 -- 72
		44 -- 76
		44 -- 78
		44 -- 79
		44 -- 81
		44 -- 83
		44 -- 85
		44 -- 88
		44 -- 90
		44 -- 91
		44 -- 92
		44 -- 93
		44 -- 96
		44 -- 97
		44 -- 99
		45 -- 46
		45 -- 47
		45 -- 48
		45 -- 49
		45 -- 50
		45 -- 51
		45 -- 52
		45 -- 57
		45 -- 58
		45 -- 60
		45 -- 61
		45 -- 64
		45 -- 66
		45 -- 68
		45 -- 69
		45 -- 70
		45 -- 73
		45 -- 74
		45 -- 75
		45 -- 78
		45 -- 80
		45 -- 81
		45 -- 85
		45 -- 88
		45 -- 92
		45 -- 95
		45 -- 96
		45 -- 97
		45 -- 99
		46 -- 50
		46 -- 51
		46 -- 54
		46 -- 56
		46 -- 57
		46 -- 58
		46 -- 60
		46 -- 63
		46 -- 65
		46 -- 66
		46 -- 68
		46 -- 69
		46 -- 70
		46 -- 71
		46 -- 72
		46 -- 74
		46 -- 76
		46 -- 77
		46 -- 80
		46 -- 83
		46 -- 85
		46 -- 88
		46 -- 89
		46 -- 90
		46 -- 91
		46 -- 92
		46 -- 97
		46 -- 98
		47 -- 48
		47 -- 51
		47 -- 53
		47 -- 59
		47 -- 60
		47 -- 61
		47 -- 62
		47 -- 64
		47 -- 66
		47 -- 70
		47 -- 71
		47 -- 74
		47 -- 75
		47 -- 77
		47 -- 79
		47 -- 80
		47 -- 82
		47 -- 83
		47 -- 85
		47 -- 86
		47 -- 87
		47 -- 88
		47 -- 89
		47 -- 92
		47 -- 95
		47 -- 96
		47 -- 97
		47 -- 98
		48 -- 51
		48 -- 55
		48 -- 57
		48 -- 59
		48 -- 62
		48 -- 64
		48 -- 65
		48 -- 66
		48 -- 67
		48 -- 70
		48 -- 72
		48 -- 76
		48 -- 77
		48 -- 80
		48 -- 81
		48 -- 84
		48 -- 89
		48 -- 94
		48 -- 99
		49 -- 52
		49 -- 54
		49 -- 55
		49 -- 57
		49 -- 62
		49 -- 65
		49 -- 68
		49 -- 69
		49 -- 70
		49 -- 71
		49 -- 72
		49 -- 76
		49 -- 77
		49 -- 79
		49 -- 80
		49 -- 82
		49 -- 83
		49 -- 84
		49 -- 85
		49 -- 86
		49 -- 87
		49 -- 89
		49 -- 90
		49 -- 91
		49 -- 92
		49 -- 94
		49 -- 96
		49 -- 97
		49 -- 98
		49 -- 99
		50 -- 51
		50 -- 53
		50 -- 54
		50 -- 57
		50 -- 60
		50 -- 62
		50 -- 64
		50 -- 65
		50 -- 66
		50 -- 67
		50 -- 68
		50 -- 75
		50 -- 76
		50 -- 78
		50 -- 79
		50 -- 80
		50 -- 81
		50 -- 82
		50 -- 85
		50 -- 87
		50 -- 89
		50 -- 91
		50 -- 93
		50 -- 94
		50 -- 97
		50 -- 98
		50 -- 99
		51 -- 54
		51 -- 56
		51 -- 58
		51 -- 59
		51 -- 60
		51 -- 62
		51 -- 64
		51 -- 67
		51 -- 70
		51 -- 73
		51 -- 76
		51 -- 78
		51 -- 81
		51 -- 82
		51 -- 86
		51 -- 87
		51 -- 88
		51 -- 89
		51 -- 90
		51 -- 91
		51 -- 92
		51 -- 93
		51 -- 94
		51 -- 95
		51 -- 98
		51 -- 99
		52 -- 53
		52 -- 55
		52 -- 58
		52 -- 59
		52 -- 63
		52 -- 64
		52 -- 65
		52 -- 68
		52 -- 69
		52 -- 72
		52 -- 73
		52 -- 74
		52 -- 77
		52 -- 78
		52 -- 79
		52 -- 80
		52 -- 82
		52 -- 83
		52 -- 86
		52 -- 89
		52 -- 91
		52 -- 93
		52 -- 94
		52 -- 95
		52 -- 99
		53 -- 54
		53 -- 55
		53 -- 56
		53 -- 57
		53 -- 61
		53 -- 62
		53 -- 63
		53 -- 65
		53 -- 70
		53 -- 71
		53 -- 74
		53 -- 75
		53 -- 76
		53 -- 79
		53 -- 80
		53 -- 89
		53 -- 90
		53 -- 93
		53 -- 95
		53 -- 96
		53 -- 98
		54 -- 55
		54 -- 58
		54 -- 60
		54 -- 67
		54 -- 68
		54 -- 69
		54 -- 73
		54 -- 74
		54 -- 75
		54 -- 78
		54 -- 79
		54 -- 81
		54 -- 84
		54 -- 89
		54 -- 92
		54 -- 95
		54 -- 98
		54 -- 99
		55 -- 56
		55 -- 59
		55 -- 60
		55 -- 62
		55 -- 64
		55 -- 65
		55 -- 67
		55 -- 68
		55 -- 72
		55 -- 75
		55 -- 76
		55 -- 83
		55 -- 86
		55 -- 88
		55 -- 89
		55 -- 90
		55 -- 91
		55 -- 94
		55 -- 95
		55 -- 98
		56 -- 57
		56 -- 58
		56 -- 59
		56 -- 61
		56 -- 62
		56 -- 64
		56 -- 65
		56 -- 67
		56 -- 68
		56 -- 70
		56 -- 71
		56 -- 73
		56 -- 76
		56 -- 77
		56 -- 80
		56 -- 83
		56 -- 88
		56 -- 89
		56 -- 92
		56 -- 93
		56 -- 95
		56 -- 97
		57 -- 62
		57 -- 64
		57 -- 67
		57 -- 68
		57 -- 69
		57 -- 71
		57 -- 73
		57 -- 75
		57 -- 77
		57 -- 78
		57 -- 79
		57 -- 80
		57 -- 82
		57 -- 83
		57 -- 86
		57 -- 87
		57 -- 89
		57 -- 90
		57 -- 91
		57 -- 93
		57 -- 96
		58 -- 64
		58 -- 65
		58 -- 77
		58 -- 67
		58 -- 84
		58 -- 85
		58 -- 86
		58 -- 90
		58 -- 79
		58 -- 93
		58 -- 94
		58 -- 96
		58 -- 99
		58 -- 91
		58 -- 59
		58 -- 61
		58 -- 62
		59 -- 61
		59 -- 65
		59 -- 67
		59 -- 68
		59 -- 69
		59 -- 71
		59 -- 72
		59 -- 77
		59 -- 79
		59 -- 80
		59 -- 83
		59 -- 84
		59 -- 85
		59 -- 87
		59 -- 88
		59 -- 91
		59 -- 94
		59 -- 95
		59 -- 99
		60 -- 61
		60 -- 63
		60 -- 67
		60 -- 69
		60 -- 70
		60 -- 71
		60 -- 73
		60 -- 75
		60 -- 76
		60 -- 78
		60 -- 79
		60 -- 81
		60 -- 82
		60 -- 85
		60 -- 86
		60 -- 88
		60 -- 89
		60 -- 91
		60 -- 93
		60 -- 95
		60 -- 96
		60 -- 97
		60 -- 98
		61 -- 62
		61 -- 63
		61 -- 66
		61 -- 67
		61 -- 68
		61 -- 70
		61 -- 72
		61 -- 73
		61 -- 77
		61 -- 80
		61 -- 81
		61 -- 82
		61 -- 87
		61 -- 88
		61 -- 90
		61 -- 91
		61 -- 92
		61 -- 97
		61 -- 98
		62 -- 63
		62 -- 64
		62 -- 67
		62 -- 68
		62 -- 69
		62 -- 71
		62 -- 73
		62 -- 75
		62 -- 76
		62 -- 78
		62 -- 82
		62 -- 83
		62 -- 84
		62 -- 86
		62 -- 88
		62 -- 91
		62 -- 92
		62 -- 96
		62 -- 97
		62 -- 98
		62 -- 99
		63 -- 64
		63 -- 65
		63 -- 97
		63 -- 74
		63 -- 76
		63 -- 98
		63 -- 88
		63 -- 82
		63 -- 89
		63 -- 71
		63 -- 92
		63 -- 94
		63 -- 95
		63 -- 67
		63 -- 90
		63 -- 96
		63 -- 99
		63 -- 72
		64 -- 65
		64 -- 66
		64 -- 67
		64 -- 68
		64 -- 69
		64 -- 70
		64 -- 71
		64 -- 74
		64 -- 75
		64 -- 77
		64 -- 78
		64 -- 80
		64 -- 81
		64 -- 82
		64 -- 83
		64 -- 85
		64 -- 87
		64 -- 89
		64 -- 94
		64 -- 98
		64 -- 99
		65 -- 67
		65 -- 68
		65 -- 70
		65 -- 73
		65 -- 78
		65 -- 80
		65 -- 81
		65 -- 82
		65 -- 85
		65 -- 86
		65 -- 87
		65 -- 89
		65 -- 91
		65 -- 95
		65 -- 98
		65 -- 99
		66 -- 67
		66 -- 76
		66 -- 78
		66 -- 80
		66 -- 81
		66 -- 82
		66 -- 86
		66 -- 87
		66 -- 88
		66 -- 90
		66 -- 92
		66 -- 93
		66 -- 94
		66 -- 97
		66 -- 98
		66 -- 99
		67 -- 68
		67 -- 69
		67 -- 70
		67 -- 72
		67 -- 74
		67 -- 78
		67 -- 80
		67 -- 82
		67 -- 83
		67 -- 88
		67 -- 91
		67 -- 92
		67 -- 93
		67 -- 94
		67 -- 96
		67 -- 97
		68 -- 70
		68 -- 72
		68 -- 73
		68 -- 76
		68 -- 77
		68 -- 78
		68 -- 81
		68 -- 83
		68 -- 84
		68 -- 85
		68 -- 86
		68 -- 88
		68 -- 90
		68 -- 95
		68 -- 97
		68 -- 98
		69 -- 70
		69 -- 72
		69 -- 73
		69 -- 77
		69 -- 80
		69 -- 83
		69 -- 85
		69 -- 91
		69 -- 92
		69 -- 93
		69 -- 95
		69 -- 98
		69 -- 99
		70 -- 78
		70 -- 79
		70 -- 81
		70 -- 86
		70 -- 88
		70 -- 93
		70 -- 96
		70 -- 97
		70 -- 98
		70 -- 99
		71 -- 72
		71 -- 73
		71 -- 75
		71 -- 77
		71 -- 81
		71 -- 86
		71 -- 87
		71 -- 88
		71 -- 89
		71 -- 92
		71 -- 93
		71 -- 95
		71 -- 98
		72 -- 96
		72 -- 99
		72 -- 77
		72 -- 81
		72 -- 85
		72 -- 87
		72 -- 92
		72 -- 93
		72 -- 95
		72 -- 83
		72 -- 89
		72 -- 84
		73 -- 75
		73 -- 80
		73 -- 87
		73 -- 89
		73 -- 90
		73 -- 91
		73 -- 86
		73 -- 96
		73 -- 95
		74 -- 75
		74 -- 76
		74 -- 77
		74 -- 78
		74 -- 79
		74 -- 80
		74 -- 81
		74 -- 82
		74 -- 83
		74 -- 86
		74 -- 88
		74 -- 89
		74 -- 90
		74 -- 93
		74 -- 94
		74 -- 95
		74 -- 96
		74 -- 97
		74 -- 98
		75 -- 76
		75 -- 79
		75 -- 80
		75 -- 84
		75 -- 86
		75 -- 87
		75 -- 88
		75 -- 92
		75 -- 94
		75 -- 99
		76 -- 79
		76 -- 80
		76 -- 81
		76 -- 82
		76 -- 84
		76 -- 85
		76 -- 88
		76 -- 92
		76 -- 93
		76 -- 95
		76 -- 96
		76 -- 97
		76 -- 98
		76 -- 99
		77 -- 80
		77 -- 82
		77 -- 83
		77 -- 86
		77 -- 87
		77 -- 88
		77 -- 91
		77 -- 92
		77 -- 93
		77 -- 95
		77 -- 97
		77 -- 98
		77 -- 99
		78 -- 79
		78 -- 80
		78 -- 81
		78 -- 83
		78 -- 84
		78 -- 86
		78 -- 89
		78 -- 90
		78 -- 91
		78 -- 94
		78 -- 95
		78 -- 96
		78 -- 98
		79 -- 81
		79 -- 83
		79 -- 84
		79 -- 85
		79 -- 86
		79 -- 87
		79 -- 88
		79 -- 90
		79 -- 91
		79 -- 93
		79 -- 94
		79 -- 96
		80 -- 82
		80 -- 83
		80 -- 84
		80 -- 85
		80 -- 87
		80 -- 88
		80 -- 89
		80 -- 90
		80 -- 92
		80 -- 94
		80 -- 95
		80 -- 96
		80 -- 97
		80 -- 98
		81 -- 86
		81 -- 88
		81 -- 89
		81 -- 90
		81 -- 91
		81 -- 92
		81 -- 97
		81 -- 98
		82 -- 83
		82 -- 84
		82 -- 85
		82 -- 86
		82 -- 87
		82 -- 89
		82 -- 91
		82 -- 92
		82 -- 93
		82 -- 94
		82 -- 96
		82 -- 97
		82 -- 99
		83 -- 84
		83 -- 87
		83 -- 88
		83 -- 92
		83 -- 93
		83 -- 94
		83 -- 95
		83 -- 98
		84 -- 92
		84 -- 87
		84 -- 89
		84 -- 90
		84 -- 99
		85 -- 87
		85 -- 89
		85 -- 91
		85 -- 92
		85 -- 93
		85 -- 94
		85 -- 95
		85 -- 96
		85 -- 97
		85 -- 98
		86 -- 87
		86 -- 90
		86 -- 91
		86 -- 92
		86 -- 93
		86 -- 96
		86 -- 99
		87 -- 88
		87 -- 89
		87 -- 92
		87 -- 94
		87 -- 96
		88 -- 90
		88 -- 91
		88 -- 92
		88 -- 96
		88 -- 97
		89 -- 92
		89 -- 93
		89 -- 94
		89 -- 95
		89 -- 96
		89 -- 98
		90 -- 91
		90 -- 92
		90 -- 94
		90 -- 95
		90 -- 96
		90 -- 97
		90 -- 99
		91 -- 92
		91 -- 95
		91 -- 97
		92 -- 93
		92 -- 94
		92 -- 95
		92 -- 96
		92 -- 97
		92 -- 99
		93 -- 98
		94 -- 96
		94 -- 98
		96 -- 97
		96 -- 99
		98 -- 99
}