graph {
		0 -- 1
		0 -- 3
		0 -- 4
		0 -- 8
		0 -- 9
		0 -- 10
		0 -- 15
		0 -- 18
		0 -- 19
		0 -- 21
		0 -- 24
		0 -- 25
		0 -- 27
		0 -- 28
		0 -- 29
		0 -- 30
		0 -- 33
		0 -- 34
		0 -- 38
		0 -- 41
		0 -- 42
		0 -- 43
		0 -- 44
		0 -- 46
		0 -- 49
		0 -- 50
		0 -- 51
		0 -- 52
		0 -- 53
		0 -- 57
		0 -- 62
		0 -- 63
		0 -- 64
		0 -- 65
		0 -- 66
		0 -- 76
		0 -- 82
		0 -- 84
		0 -- 85
		0 -- 86
		0 -- 87
		0 -- 88
		0 -- 89
		0 -- 94
		1 -- 4
		1 -- 6
		1 -- 7
		1 -- 8
		1 -- 15
		1 -- 17
		1 -- 18
		1 -- 23
		1 -- 24
		1 -- 25
		1 -- 27
		1 -- 29
		1 -- 32
		1 -- 33
		1 -- 38
		1 -- 40
		1 -- 41
		1 -- 43
		1 -- 45
		1 -- 46
		1 -- 49
		1 -- 51
		1 -- 52
		1 -- 55
		1 -- 56
		1 -- 57
		1 -- 59
		1 -- 61
		1 -- 62
		1 -- 65
		1 -- 66
		1 -- 67
		1 -- 70
		1 -- 73
		1 -- 74
		1 -- 75
		1 -- 76
		1 -- 78
		1 -- 79
		1 -- 80
		1 -- 82
		1 -- 83
		1 -- 84
		1 -- 85
		1 -- 88
		2 -- 3
		2 -- 5
		2 -- 7
		2 -- 8
		2 -- 9
		2 -- 10
		2 -- 21
		2 -- 22
		2 -- 23
		2 -- 26
		2 -- 28
		2 -- 29
		2 -- 30
		2 -- 32
		2 -- 34
		2 -- 39
		2 -- 41
		2 -- 42
		2 -- 44
		2 -- 46
		2 -- 47
		2 -- 48
		2 -- 49
		2 -- 50
		2 -- 53
		2 -- 55
		2 -- 60
		2 -- 61
		2 -- 62
		2 -- 65
		2 -- 71
		2 -- 73
		2 -- 76
		2 -- 77
		2 -- 78
		2 -- 82
		2 -- 85
		2 -- 86
		2 -- 87
		2 -- 88
		2 -- 90
		2 -- 91
		2 -- 92
		2 -- 93
		2 -- 94
		2 -- 96
		2 -- 97
		2 -- 98
		2 -- 99
		3 -- 6
		3 -- 8
		3 -- 9
		3 -- 10
		3 -- 12
		3 -- 13
		3 -- 14
		3 -- 15
		3 -- 16
		3 -- 22
		3 -- 23
		3 -- 28
		3 -- 30
		3 -- 33
		3 -- 35
		3 -- 36
		3 -- 37
		3 -- 38
		3 -- 40
		3 -- 42
		3 -- 44
		3 -- 45
		3 -- 46
		3 -- 51
		3 -- 53
		3 -- 56
		3 -- 58
		3 -- 60
		3 -- 62
		3 -- 64
		3 -- 66
		3 -- 67
		3 -- 70
		3 -- 71
		3 -- 76
		3 -- 80
		3 -- 81
		3 -- 84
		3 -- 86
		3 -- 90
		3 -- 92
		3 -- 99
		4 -- 7
		4 -- 8
		4 -- 9
		4 -- 12
		4 -- 17
		4 -- 21
		4 -- 22
		4 -- 24
		4 -- 25
		4 -- 28
		4 -- 30
		4 -- 31
		4 -- 32
		4 -- 36
		4 -- 37
		4 -- 40
		4 -- 42
		4 -- 45
		4 -- 46
		4 -- 47
		4 -- 48
		4 -- 50
		4 -- 51
		4 -- 53
		4 -- 54
		4 -- 58
		4 -- 60
		4 -- 67
		4 -- 68
		4 -- 69
		4 -- 71
		4 -- 72
		4 -- 74
		4 -- 77
		4 -- 78
		4 -- 79
		4 -- 81
		4 -- 82
		4 -- 85
		4 -- 86
		4 -- 88
		4 -- 91
		4 -- 94
		4 -- 95
		4 -- 97
		4 -- 98
		5 -- 6
		5 -- 9
		5 -- 11
		5 -- 13
		5 -- 18
		5 -- 20
		5 -- 21
		5 -- 22
		5 -- 24
		5 -- 27
		5 -- 28
		5 -- 30
		5 -- 31
		5 -- 35
		5 -- 38
		5 -- 41
		5 -- 42
		5 -- 44
		5 -- 45
		5 -- 46
		5 -- 47
		5 -- 51
		5 -- 52
		5 -- 53
		5 -- 54
		5 -- 56
		5 -- 57
		5 -- 61
		5 -- 62
		5 -- 63
		5 -- 67
		5 -- 70
		5 -- 72
		5 -- 73
		5 -- 76
		5 -- 77
		5 -- 78
		5 -- 79
		5 -- 81
		5 -- 82
		5 -- 83
		5 -- 86
		5 -- 88
		5 -- 89
		5 -- 95
		6 -- 9
		6 -- 10
		6 -- 12
		6 -- 16
		6 -- 17
		6 -- 20
		6 -- 22
		6 -- 23
		6 -- 25
		6 -- 26
		6 -- 29
		6 -- 30
		6 -- 33
		6 -- 35
		6 -- 37
		6 -- 40
		6 -- 41
		6 -- 42
		6 -- 43
		6 -- 46
		6 -- 48
		6 -- 50
		6 -- 54
		6 -- 55
		6 -- 56
		6 -- 58
		6 -- 60
		6 -- 62
		6 -- 63
		6 -- 65
		6 -- 66
		6 -- 68
		6 -- 70
		6 -- 71
		6 -- 73
		6 -- 74
		6 -- 76
		6 -- 79
		6 -- 83
		6 -- 86
		6 -- 88
		6 -- 90
		6 -- 95
		7 -- 9
		7 -- 10
		7 -- 11
		7 -- 14
		7 -- 15
		7 -- 16
		7 -- 17
		7 -- 21
		7 -- 22
		7 -- 24
		7 -- 25
		7 -- 27
		7 -- 29
		7 -- 30
		7 -- 31
		7 -- 34
		7 -- 35
		7 -- 37
		7 -- 38
		7 -- 39
		7 -- 41
		7 -- 47
		7 -- 49
		7 -- 50
		7 -- 51
		7 -- 53
		7 -- 55
		7 -- 58
		7 -- 59
		7 -- 61
		7 -- 62
		7 -- 66
		7 -- 68
		7 -- 70
		7 -- 73
		7 -- 75
		7 -- 79
		7 -- 81
		7 -- 84
		7 -- 86
		7 -- 87
		7 -- 89
		7 -- 91
		7 -- 92
		7 -- 93
		7 -- 96
		7 -- 97
		7 -- 98
		8 -- 11
		8 -- 13
		8 -- 14
		8 -- 19
		8 -- 20
		8 -- 21
		8 -- 23
		8 -- 24
		8 -- 25
		8 -- 30
		8 -- 31
		8 -- 32
		8 -- 35
		8 -- 36
		8 -- 37
		8 -- 38
		8 -- 41
		8 -- 42
		8 -- 43
		8 -- 44
		8 -- 46
		8 -- 55
		8 -- 56
		8 -- 57
		8 -- 58
		8 -- 60
		8 -- 61
		8 -- 63
		8 -- 64
		8 -- 66
		8 -- 67
		8 -- 70
		8 -- 73
		8 -- 74
		8 -- 75
		8 -- 76
		8 -- 77
		8 -- 78
		8 -- 79
		8 -- 80
		8 -- 81
		8 -- 82
		8 -- 83
		8 -- 84
		8 -- 85
		8 -- 86
		8 -- 88
		8 -- 90
		8 -- 93
		8 -- 94
		8 -- 95
		8 -- 98
		8 -- 99
		9 -- 10
		9 -- 12
		9 -- 13
		9 -- 14
		9 -- 15
		9 -- 19
		9 -- 25
		9 -- 26
		9 -- 27
		9 -- 31
		9 -- 32
		9 -- 35
		9 -- 36
		9 -- 38
		9 -- 40
		9 -- 42
		9 -- 48
		9 -- 50
		9 -- 51
		9 -- 52
		9 -- 53
		9 -- 56
		9 -- 57
		9 -- 59
		9 -- 61
		9 -- 62
		9 -- 64
		9 -- 65
		9 -- 66
		9 -- 68
		9 -- 72
		9 -- 76
		9 -- 77
		9 -- 78
		9 -- 85
		9 -- 86
		9 -- 88
		9 -- 93
		9 -- 94
		9 -- 95
		9 -- 96
		9 -- 98
		10 -- 11
		10 -- 14
		10 -- 19
		10 -- 20
		10 -- 23
		10 -- 30
		10 -- 31
		10 -- 32
		10 -- 34
		10 -- 36
		10 -- 38
		10 -- 39
		10 -- 40
		10 -- 42
		10 -- 44
		10 -- 45
		10 -- 46
		10 -- 49
		10 -- 50
		10 -- 51
		10 -- 52
		10 -- 53
		10 -- 56
		10 -- 60
		10 -- 61
		10 -- 62
		10 -- 64
		10 -- 66
		10 -- 68
		10 -- 69
		10 -- 71
		10 -- 72
		10 -- 73
		10 -- 76
		10 -- 77
		10 -- 79
		10 -- 80
		10 -- 82
		10 -- 84
		10 -- 85
		10 -- 87
		10 -- 88
		10 -- 92
		10 -- 93
		10 -- 95
		10 -- 97
		11 -- 64
		11 -- 65
		11 -- 88
		11 -- 68
		11 -- 70
		11 -- 73
		11 -- 75
		11 -- 12
		11 -- 77
		11 -- 15
		11 -- 80
		11 -- 17
		11 -- 19
		11 -- 90
		11 -- 22
		11 -- 87
		11 -- 24
		11 -- 26
		11 -- 79
		11 -- 28
		11 -- 29
		11 -- 30
		11 -- 69
		11 -- 32
		11 -- 34
		11 -- 35
		11 -- 36
		11 -- 37
		11 -- 81
		11 -- 92
		11 -- 42
		11 -- 93
		11 -- 50
		11 -- 83
		11 -- 52
		11 -- 53
		11 -- 56
		11 -- 57
		11 -- 58
		12 -- 13
		12 -- 14
		12 -- 17
		12 -- 18
		12 -- 19
		12 -- 22
		12 -- 26
		12 -- 27
		12 -- 28
		12 -- 29
		12 -- 30
		12 -- 35
		12 -- 36
		12 -- 37
		12 -- 38
		12 -- 39
		12 -- 41
		12 -- 43
		12 -- 44
		12 -- 45
		12 -- 49
		12 -- 52
		12 -- 53
		12 -- 54
		12 -- 55
		12 -- 58
		12 -- 59
		12 -- 60
		12 -- 62
		12 -- 63
		12 -- 64
		12 -- 65
		12 -- 66
		12 -- 77
		12 -- 78
		12 -- 79
		12 -- 80
		12 -- 81
		12 -- 83
		12 -- 84
		12 -- 85
		12 -- 86
		12 -- 87
		12 -- 91
		12 -- 92
		12 -- 95
		12 -- 96
		13 -- 14
		13 -- 15
		13 -- 17
		13 -- 20
		13 -- 26
		13 -- 27
		13 -- 29
		13 -- 30
		13 -- 31
		13 -- 32
		13 -- 33
		13 -- 34
		13 -- 36
		13 -- 37
		13 -- 38
		13 -- 39
		13 -- 44
		13 -- 46
		13 -- 47
		13 -- 48
		13 -- 49
		13 -- 51
		13 -- 52
		13 -- 53
		13 -- 57
		13 -- 58
		13 -- 59
		13 -- 60
		13 -- 61
		13 -- 64
		13 -- 66
		13 -- 67
		13 -- 70
		13 -- 71
		13 -- 72
		13 -- 74
		13 -- 78
		13 -- 80
		13 -- 82
		13 -- 84
		13 -- 85
		13 -- 87
		13 -- 88
		13 -- 89
		13 -- 91
		14 -- 15
		14 -- 16
		14 -- 20
		14 -- 22
		14 -- 23
		14 -- 25
		14 -- 26
		14 -- 27
		14 -- 28
		14 -- 30
		14 -- 32
		14 -- 34
		14 -- 35
		14 -- 38
		14 -- 43
		14 -- 44
		14 -- 47
		14 -- 48
		14 -- 50
		14 -- 51
		14 -- 52
		14 -- 54
		14 -- 55
		14 -- 56
		14 -- 58
		14 -- 59
		14 -- 61
		14 -- 68
		14 -- 70
		14 -- 72
		14 -- 74
		14 -- 75
		14 -- 76
		14 -- 77
		14 -- 79
		14 -- 82
		14 -- 83
		14 -- 84
		14 -- 85
		14 -- 88
		14 -- 89
		14 -- 93
		14 -- 94
		14 -- 95
		14 -- 96
		14 -- 97
		14 -- 98
		14 -- 99
		15 -- 16
		15 -- 17
		15 -- 18
		15 -- 21
		15 -- 24
		15 -- 25
		15 -- 28
		15 -- 30
		15 -- 31
		15 -- 36
		15 -- 37
		15 -- 41
		15 -- 43
		15 -- 45
		15 -- 47
		15 -- 48
		15 -- 49
		15 -- 53
		15 -- 56
		15 -- 57
		15 -- 58
		15 -- 61
		15 -- 62
		15 -- 63
		15 -- 64
		15 -- 65
		15 -- 66
		15 -- 68
		15 -- 69
		15 -- 70
		15 -- 72
		15 -- 74
		15 -- 76
		15 -- 79
		15 -- 80
		15 -- 83
		15 -- 86
		15 -- 87
		15 -- 88
		15 -- 90
		15 -- 91
		15 -- 92
		15 -- 93
		15 -- 94
		15 -- 95
		15 -- 96
		15 -- 97
		16 -- 17
		16 -- 21
		16 -- 22
		16 -- 23
		16 -- 25
		16 -- 26
		16 -- 27
		16 -- 28
		16 -- 30
		16 -- 32
		16 -- 33
		16 -- 34
		16 -- 35
		16 -- 37
		16 -- 38
		16 -- 39
		16 -- 40
		16 -- 43
		16 -- 46
		16 -- 50
		16 -- 52
		16 -- 56
		16 -- 57
		16 -- 61
		16 -- 65
		16 -- 67
		16 -- 72
		16 -- 74
		16 -- 77
		16 -- 78
		16 -- 81
		16 -- 82
		16 -- 83
		16 -- 84
		16 -- 85
		16 -- 86
		16 -- 87
		16 -- 88
		16 -- 89
		16 -- 92
		16 -- 93
		16 -- 95
		16 -- 96
		16 -- 97
		16 -- 98
		17 -- 18
		17 -- 20
		17 -- 24
		17 -- 28
		17 -- 31
		17 -- 32
		17 -- 34
		17 -- 36
		17 -- 39
		17 -- 41
		17 -- 42
		17 -- 43
		17 -- 44
		17 -- 45
		17 -- 49
		17 -- 50
		17 -- 52
		17 -- 53
		17 -- 56
		17 -- 57
		17 -- 59
		17 -- 60
		17 -- 63
		17 -- 65
		17 -- 67
		17 -- 68
		17 -- 70
		17 -- 71
		17 -- 74
		17 -- 77
		17 -- 78
		17 -- 79
		17 -- 81
		17 -- 82
		17 -- 83
		17 -- 85
		17 -- 86
		17 -- 88
		17 -- 91
		17 -- 94
		17 -- 96
		17 -- 99
		18 -- 66
		18 -- 67
		18 -- 68
		18 -- 71
		18 -- 64
		18 -- 77
		18 -- 19
		18 -- 84
		18 -- 86
		18 -- 23
		18 -- 88
		18 -- 89
		18 -- 26
		18 -- 79
		18 -- 29
		18 -- 69
		18 -- 31
		18 -- 33
		18 -- 35
		18 -- 36
		18 -- 37
		18 -- 38
		18 -- 39
		18 -- 41
		18 -- 43
		18 -- 44
		18 -- 46
		18 -- 47
		18 -- 48
		18 -- 72
		18 -- 83
		18 -- 99
		18 -- 55
		18 -- 56
		18 -- 60
		18 -- 61
		18 -- 62
		19 -- 75
		19 -- 69
		19 -- 77
		19 -- 79
		19 -- 83
		19 -- 84
		19 -- 85
		19 -- 22
		19 -- 23
		19 -- 88
		19 -- 27
		19 -- 86
		19 -- 93
		19 -- 31
		19 -- 96
		19 -- 97
		19 -- 99
		19 -- 36
		19 -- 38
		19 -- 39
		19 -- 40
		19 -- 41
		19 -- 82
		19 -- 50
		19 -- 51
		19 -- 74
		19 -- 53
		19 -- 55
		19 -- 56
		19 -- 57
		19 -- 58
		19 -- 95
		19 -- 61
		19 -- 62
		20 -- 21
		20 -- 22
		20 -- 25
		20 -- 26
		20 -- 28
		20 -- 29
		20 -- 31
		20 -- 32
		20 -- 35
		20 -- 37
		20 -- 38
		20 -- 40
		20 -- 42
		20 -- 46
		20 -- 47
		20 -- 48
		20 -- 49
		20 -- 50
		20 -- 51
		20 -- 52
		20 -- 53
		20 -- 57
		20 -- 59
		20 -- 61
		20 -- 62
		20 -- 63
		20 -- 64
		20 -- 66
		20 -- 67
		20 -- 68
		20 -- 69
		20 -- 71
		20 -- 78
		20 -- 79
		20 -- 82
		20 -- 83
		20 -- 84
		20 -- 86
		20 -- 87
		20 -- 89
		20 -- 92
		20 -- 94
		20 -- 95
		20 -- 98
		21 -- 22
		21 -- 23
		21 -- 26
		21 -- 27
		21 -- 29
		21 -- 30
		21 -- 31
		21 -- 33
		21 -- 37
		21 -- 38
		21 -- 39
		21 -- 41
		21 -- 42
		21 -- 44
		21 -- 45
		21 -- 47
		21 -- 48
		21 -- 51
		21 -- 52
		21 -- 53
		21 -- 55
		21 -- 56
		21 -- 57
		21 -- 59
		21 -- 60
		21 -- 62
		21 -- 63
		21 -- 64
		21 -- 69
		21 -- 71
		21 -- 72
		21 -- 73
		21 -- 75
		21 -- 76
		21 -- 84
		21 -- 87
		21 -- 89
		21 -- 92
		21 -- 94
		21 -- 95
		21 -- 98
		22 -- 25
		22 -- 27
		22 -- 29
		22 -- 32
		22 -- 33
		22 -- 34
		22 -- 36
		22 -- 38
		22 -- 39
		22 -- 40
		22 -- 42
		22 -- 45
		22 -- 47
		22 -- 49
		22 -- 54
		22 -- 56
		22 -- 57
		22 -- 59
		22 -- 63
		22 -- 64
		22 -- 65
		22 -- 68
		22 -- 70
		22 -- 71
		22 -- 73
		22 -- 76
		22 -- 77
		22 -- 78
		22 -- 79
		22 -- 84
		22 -- 85
		22 -- 90
		22 -- 92
		22 -- 95
		22 -- 97
		22 -- 98
		23 -- 25
		23 -- 28
		23 -- 30
		23 -- 32
		23 -- 34
		23 -- 35
		23 -- 37
		23 -- 40
		23 -- 42
		23 -- 43
		23 -- 44
		23 -- 45
		23 -- 47
		23 -- 49
		23 -- 50
		23 -- 53
		23 -- 54
		23 -- 56
		23 -- 60
		23 -- 62
		23 -- 63
		23 -- 64
		23 -- 65
		23 -- 66
		23 -- 70
		23 -- 72
		23 -- 73
		23 -- 75
		23 -- 76
		23 -- 79
		23 -- 81
		23 -- 82
		23 -- 83
		23 -- 84
		23 -- 85
		23 -- 88
		23 -- 98
		24 -- 25
		24 -- 28
		24 -- 29
		24 -- 31
		24 -- 33
		24 -- 34
		24 -- 42
		24 -- 43
		24 -- 44
		24 -- 45
		24 -- 46
		24 -- 47
		24 -- 48
		24 -- 49
		24 -- 50
		24 -- 53
		24 -- 54
		24 -- 55
		24 -- 57
		24 -- 59
		24 -- 61
		24 -- 65
		24 -- 68
		24 -- 70
		24 -- 71
		24 -- 73
		24 -- 76
		24 -- 77
		24 -- 79
		24 -- 85
		24 -- 90
		24 -- 92
		24 -- 93
		24 -- 94
		24 -- 95
		24 -- 96
		24 -- 97
		24 -- 99
		25 -- 26
		25 -- 28
		25 -- 30
		25 -- 31
		25 -- 35
		25 -- 36
		25 -- 39
		25 -- 43
		25 -- 46
		25 -- 50
		25 -- 51
		25 -- 52
		25 -- 53
		25 -- 54
		25 -- 56
		25 -- 59
		25 -- 60
		25 -- 61
		25 -- 62
		25 -- 65
		25 -- 66
		25 -- 67
		25 -- 70
		25 -- 73
		25 -- 74
		25 -- 75
		25 -- 76
		25 -- 78
		25 -- 84
		25 -- 85
		25 -- 90
		25 -- 92
		25 -- 93
		25 -- 94
		25 -- 95
		25 -- 96
		26 -- 27
		26 -- 28
		26 -- 32
		26 -- 33
		26 -- 36
		26 -- 39
		26 -- 43
		26 -- 44
		26 -- 45
		26 -- 46
		26 -- 47
		26 -- 50
		26 -- 52
		26 -- 54
		26 -- 55
		26 -- 56
		26 -- 57
		26 -- 58
		26 -- 64
		26 -- 65
		26 -- 68
		26 -- 69
		26 -- 70
		26 -- 71
		26 -- 77
		26 -- 79
		26 -- 83
		26 -- 88
		26 -- 92
		26 -- 94
		26 -- 97
		26 -- 98
		26 -- 99
		27 -- 28
		27 -- 30
		27 -- 31
		27 -- 35
		27 -- 37
		27 -- 38
		27 -- 39
		27 -- 40
		27 -- 41
		27 -- 42
		27 -- 45
		27 -- 46
		27 -- 49
		27 -- 52
		27 -- 53
		27 -- 54
		27 -- 60
		27 -- 61
		27 -- 65
		27 -- 70
		27 -- 74
		27 -- 76
		27 -- 78
		27 -- 80
		27 -- 81
		27 -- 82
		27 -- 84
		27 -- 85
		27 -- 87
		27 -- 90
		27 -- 91
		27 -- 92
		27 -- 93
		27 -- 94
		27 -- 97
		27 -- 99
		28 -- 29
		28 -- 30
		28 -- 34
		28 -- 35
		28 -- 36
		28 -- 39
		28 -- 41
		28 -- 44
		28 -- 49
		28 -- 51
		28 -- 53
		28 -- 54
		28 -- 55
		28 -- 56
		28 -- 57
		28 -- 58
		28 -- 61
		28 -- 62
		28 -- 64
		28 -- 69
		28 -- 71
		28 -- 73
		28 -- 74
		28 -- 76
		28 -- 77
		28 -- 78
		28 -- 79
		28 -- 82
		28 -- 85
		28 -- 87
		28 -- 88
		28 -- 89
		28 -- 91
		28 -- 94
		28 -- 95
		28 -- 96
		28 -- 98
		29 -- 30
		29 -- 32
		29 -- 40
		29 -- 41
		29 -- 42
		29 -- 44
		29 -- 47
		29 -- 49
		29 -- 50
		29 -- 57
		29 -- 58
		29 -- 59
		29 -- 61
		29 -- 63
		29 -- 68
		29 -- 70
		29 -- 71
		29 -- 72
		29 -- 75
		29 -- 76
		29 -- 78
		29 -- 79
		29 -- 82
		29 -- 83
		29 -- 84
		29 -- 85
		29 -- 86
		29 -- 88
		29 -- 90
		29 -- 95
		29 -- 96
		30 -- 33
		30 -- 34
		30 -- 36
		30 -- 37
		30 -- 38
		30 -- 40
		30 -- 41
		30 -- 42
		30 -- 44
		30 -- 48
		30 -- 50
		30 -- 51
		30 -- 52
		30 -- 53
		30 -- 55
		30 -- 57
		30 -- 58
		30 -- 62
		30 -- 63
		30 -- 64
		30 -- 65
		30 -- 67
		30 -- 68
		30 -- 70
		30 -- 74
		30 -- 76
		30 -- 78
		30 -- 80
		30 -- 82
		30 -- 85
		30 -- 86
		30 -- 89
		30 -- 90
		30 -- 92
		30 -- 93
		30 -- 94
		30 -- 99
		31 -- 32
		31 -- 35
		31 -- 36
		31 -- 37
		31 -- 41
		31 -- 42
		31 -- 43
		31 -- 47
		31 -- 48
		31 -- 51
		31 -- 54
		31 -- 56
		31 -- 57
		31 -- 60
		31 -- 61
		31 -- 62
		31 -- 65
		31 -- 67
		31 -- 70
		31 -- 71
		31 -- 73
		31 -- 74
		31 -- 76
		31 -- 80
		31 -- 82
		31 -- 83
		31 -- 85
		31 -- 86
		31 -- 87
		31 -- 88
		31 -- 89
		31 -- 90
		31 -- 92
		31 -- 94
		31 -- 95
		31 -- 96
		31 -- 97
		32 -- 33
		32 -- 34
		32 -- 38
		32 -- 39
		32 -- 41
		32 -- 44
		32 -- 50
		32 -- 52
		32 -- 55
		32 -- 57
		32 -- 58
		32 -- 59
		32 -- 60
		32 -- 62
		32 -- 63
		32 -- 66
		32 -- 68
		32 -- 70
		32 -- 71
		32 -- 74
		32 -- 81
		32 -- 83
		32 -- 86
		32 -- 87
		32 -- 88
		32 -- 92
		32 -- 93
		32 -- 98
		32 -- 99
		33 -- 34
		33 -- 35
		33 -- 36
		33 -- 39
		33 -- 42
		33 -- 43
		33 -- 44
		33 -- 46
		33 -- 47
		33 -- 51
		33 -- 52
		33 -- 54
		33 -- 55
		33 -- 57
		33 -- 58
		33 -- 60
		33 -- 62
		33 -- 65
		33 -- 67
		33 -- 71
		33 -- 76
		33 -- 79
		33 -- 82
		33 -- 83
		33 -- 84
		33 -- 85
		33 -- 88
		33 -- 90
		33 -- 91
		33 -- 92
		33 -- 93
		33 -- 95
		33 -- 99
		34 -- 35
		34 -- 40
		34 -- 41
		34 -- 44
		34 -- 46
		34 -- 48
		34 -- 49
		34 -- 51
		34 -- 54
		34 -- 57
		34 -- 58
		34 -- 61
		34 -- 62
		34 -- 64
		34 -- 65
		34 -- 66
		34 -- 68
		34 -- 70
		34 -- 71
		34 -- 72
		34 -- 74
		34 -- 75
		34 -- 76
		34 -- 79
		34 -- 82
		34 -- 90
		34 -- 91
		34 -- 93
		34 -- 94
		34 -- 96
		34 -- 97
		34 -- 99
		35 -- 39
		35 -- 40
		35 -- 41
		35 -- 42
		35 -- 43
		35 -- 49
		35 -- 54
		35 -- 56
		35 -- 57
		35 -- 63
		35 -- 65
		35 -- 67
		35 -- 70
		35 -- 72
		35 -- 76
		35 -- 78
		35 -- 79
		35 -- 81
		35 -- 82
		35 -- 83
		35 -- 84
		35 -- 85
		35 -- 87
		35 -- 88
		35 -- 89
		35 -- 90
		35 -- 95
		35 -- 96
		35 -- 97
		35 -- 98
		36 -- 38
		36 -- 40
		36 -- 41
		36 -- 44
		36 -- 46
		36 -- 47
		36 -- 48
		36 -- 52
		36 -- 53
		36 -- 55
		36 -- 56
		36 -- 59
		36 -- 60
		36 -- 62
		36 -- 63
		36 -- 64
		36 -- 65
		36 -- 68
		36 -- 71
		36 -- 74
		36 -- 75
		36 -- 79
		36 -- 80
		36 -- 82
		36 -- 83
		36 -- 84
		36 -- 85
		36 -- 86
		36 -- 87
		36 -- 88
		36 -- 89
		36 -- 92
		36 -- 97
		36 -- 98
		36 -- 99
		37 -- 39
		37 -- 40
		37 -- 41
		37 -- 42
		37 -- 43
		37 -- 44
		37 -- 45
		37 -- 47
		37 -- 51
		37 -- 55
		37 -- 58
		37 -- 64
		37 -- 66
		37 -- 68
		37 -- 72
		37 -- 74
		37 -- 75
		37 -- 76
		37 -- 77
		37 -- 78
		37 -- 80
		37 -- 83
		37 -- 84
		37 -- 85
		37 -- 86
		37 -- 87
		37 -- 88
		37 -- 92
		37 -- 95
		37 -- 98
		38 -- 40
		38 -- 41
		38 -- 45
		38 -- 47
		38 -- 48
		38 -- 50
		38 -- 52
		38 -- 54
		38 -- 57
		38 -- 59
		38 -- 62
		38 -- 63
		38 -- 64
		38 -- 65
		38 -- 68
		38 -- 70
		38 -- 71
		38 -- 72
		38 -- 73
		38 -- 74
		38 -- 75
		38 -- 76
		38 -- 77
		38 -- 79
		38 -- 80
		38 -- 84
		38 -- 88
		38 -- 90
		38 -- 93
		38 -- 94
		38 -- 99
		39 -- 40
		39 -- 44
		39 -- 47
		39 -- 48
		39 -- 49
		39 -- 50
		39 -- 55
		39 -- 60
		39 -- 61
		39 -- 64
		39 -- 66
		39 -- 70
		39 -- 72
		39 -- 75
		39 -- 76
		39 -- 77
		39 -- 79
		39 -- 81
		39 -- 82
		39 -- 84
		39 -- 90
		39 -- 91
		39 -- 92
		39 -- 93
		39 -- 94
		39 -- 95
		39 -- 96
		39 -- 97
		39 -- 98
		39 -- 99
		40 -- 41
		40 -- 42
		40 -- 43
		40 -- 47
		40 -- 49
		40 -- 51
		40 -- 54
		40 -- 60
		40 -- 62
		40 -- 63
		40 -- 64
		40 -- 65
		40 -- 66
		40 -- 67
		40 -- 71
		40 -- 73
		40 -- 76
		40 -- 77
		40 -- 80
		40 -- 81
		40 -- 82
		40 -- 83
		40 -- 85
		40 -- 86
		40 -- 87
		40 -- 90
		40 -- 91
		40 -- 93
		40 -- 98
		40 -- 99
		41 -- 42
		41 -- 43
		41 -- 45
		41 -- 47
		41 -- 48
		41 -- 50
		41 -- 51
		41 -- 53
		41 -- 55
		41 -- 58
		41 -- 63
		41 -- 65
		41 -- 68
		41 -- 72
		41 -- 73
		41 -- 74
		41 -- 79
		41 -- 80
		41 -- 82
		41 -- 85
		41 -- 88
		41 -- 89
		41 -- 90
		41 -- 94
		41 -- 95
		41 -- 98
		41 -- 99
		42 -- 44
		42 -- 45
		42 -- 48
		42 -- 49
		42 -- 54
		42 -- 55
		42 -- 56
		42 -- 57
		42 -- 63
		42 -- 64
		42 -- 65
		42 -- 66
		42 -- 67
		42 -- 69
		42 -- 70
		42 -- 72
		42 -- 74
		42 -- 76
		42 -- 81
		42 -- 83
		42 -- 84
		42 -- 85
		42 -- 86
		42 -- 89
		42 -- 90
		42 -- 91
		42 -- 92
		42 -- 95
		42 -- 98
		43 -- 47
		43 -- 48
		43 -- 49
		43 -- 52
		43 -- 54
		43 -- 56
		43 -- 58
		43 -- 59
		43 -- 60
		43 -- 61
		43 -- 63
		43 -- 64
		43 -- 66
		43 -- 67
		43 -- 72
		43 -- 73
		43 -- 81
		43 -- 82
		43 -- 83
		43 -- 85
		43 -- 86
		43 -- 87
		43 -- 88
		43 -- 91
		43 -- 92
		43 -- 93
		43 -- 94
		43 -- 98
		44 -- 46
		44 -- 49
		44 -- 50
		44 -- 53
		44 -- 55
		44 -- 56
		44 -- 58
		44 -- 59
		44 -- 60
		44 -- 61
		44 -- 63
		44 -- 67
		44 -- 68
		44 -- 69
		44 -- 70
		44 -- 71
		44 -- 72
		44 -- 75
		44 -- 76
		44 -- 78
		44 -- 81
		44 -- 82
		44 -- 86
		44 -- 90
		44 -- 91
		44 -- 96
		44 -- 97
		45 -- 46
		45 -- 47
		45 -- 49
		45 -- 53
		45 -- 56
		45 -- 57
		45 -- 58
		45 -- 59
		45 -- 60
		45 -- 62
		45 -- 64
		45 -- 65
		45 -- 67
		45 -- 69
		45 -- 70
		45 -- 72
		45 -- 73
		45 -- 74
		45 -- 77
		45 -- 83
		45 -- 84
		45 -- 85
		45 -- 87
		45 -- 88
		45 -- 89
		45 -- 90
		45 -- 91
		45 -- 94
		45 -- 95
		46 -- 48
		46 -- 49
		46 -- 50
		46 -- 54
		46 -- 55
		46 -- 58
		46 -- 59
		46 -- 60
		46 -- 61
		46 -- 62
		46 -- 63
		46 -- 64
		46 -- 66
		46 -- 71
		46 -- 72
		46 -- 78
		46 -- 81
		46 -- 84
		46 -- 87
		46 -- 89
		46 -- 90
		46 -- 92
		46 -- 93
		46 -- 94
		46 -- 96
		46 -- 98
		47 -- 48
		47 -- 49
		47 -- 51
		47 -- 57
		47 -- 58
		47 -- 61
		47 -- 65
		47 -- 68
		47 -- 71
		47 -- 74
		47 -- 75
		47 -- 77
		47 -- 78
		47 -- 79
		47 -- 80
		47 -- 81
		47 -- 83
		47 -- 85
		47 -- 87
		47 -- 88
		47 -- 89
		47 -- 91
		47 -- 93
		47 -- 94
		47 -- 95
		47 -- 96
		48 -- 50
		48 -- 51
		48 -- 52
		48 -- 53
		48 -- 54
		48 -- 55
		48 -- 59
		48 -- 60
		48 -- 63
		48 -- 64
		48 -- 66
		48 -- 67
		48 -- 68
		48 -- 69
		48 -- 70
		48 -- 71
		48 -- 72
		48 -- 73
		48 -- 74
		48 -- 76
		48 -- 78
		48 -- 79
		48 -- 81
		48 -- 90
		48 -- 91
		48 -- 92
		48 -- 94
		49 -- 50
		49 -- 55
		49 -- 56
		49 -- 61
		49 -- 68
		49 -- 69
		49 -- 71
		49 -- 73
		49 -- 76
		49 -- 77
		49 -- 78
		49 -- 80
		49 -- 84
		49 -- 85
		49 -- 86
		49 -- 90
		49 -- 92
		49 -- 93
		49 -- 94
		49 -- 95
		49 -- 96
		49 -- 98
		49 -- 99
		50 -- 51
		50 -- 52
		50 -- 54
		50 -- 55
		50 -- 59
		50 -- 60
		50 -- 61
		50 -- 62
		50 -- 67
		50 -- 68
		50 -- 72
		50 -- 74
		50 -- 77
		50 -- 78
		50 -- 79
		50 -- 80
		50 -- 81
		50 -- 83
		50 -- 85
		50 -- 87
		50 -- 88
		50 -- 91
		50 -- 92
		50 -- 94
		50 -- 96
		50 -- 97
		50 -- 98
		51 -- 55
		51 -- 58
		51 -- 59
		51 -- 60
		51 -- 62
		51 -- 63
		51 -- 66
		51 -- 68
		51 -- 70
		51 -- 71
		51 -- 76
		51 -- 78
		51 -- 79
		51 -- 85
		51 -- 87
		51 -- 88
		51 -- 90
		51 -- 92
		51 -- 94
		51 -- 95
		51 -- 98
		52 -- 53
		52 -- 54
		52 -- 57
		52 -- 58
		52 -- 61
		52 -- 62
		52 -- 63
		52 -- 64
		52 -- 65
		52 -- 67
		52 -- 68
		52 -- 69
		52 -- 72
		52 -- 73
		52 -- 74
		52 -- 79
		52 -- 82
		52 -- 87
		52 -- 89
		52 -- 90
		52 -- 92
		52 -- 94
		52 -- 96
		52 -- 97
		53 -- 55
		53 -- 56
		53 -- 59
		53 -- 61
		53 -- 63
		53 -- 64
		53 -- 73
		53 -- 75
		53 -- 76
		53 -- 77
		53 -- 78
		53 -- 80
		53 -- 82
		53 -- 83
		53 -- 86
		53 -- 87
		53 -- 88
		53 -- 92
		53 -- 94
		53 -- 95
		53 -- 97
		53 -- 98
		54 -- 57
		54 -- 59
		54 -- 61
		54 -- 62
		54 -- 63
		54 -- 66
		54 -- 68
		54 -- 70
		54 -- 71
		54 -- 72
		54 -- 73
		54 -- 74
		54 -- 79
		54 -- 81
		54 -- 82
		54 -- 84
		54 -- 88
		54 -- 89
		54 -- 92
		54 -- 96
		54 -- 97
		54 -- 98
		55 -- 57
		55 -- 58
		55 -- 61
		55 -- 64
		55 -- 65
		55 -- 66
		55 -- 67
		55 -- 69
		55 -- 72
		55 -- 76
		55 -- 78
		55 -- 83
		55 -- 85
		55 -- 88
		55 -- 90
		55 -- 95
		55 -- 96
		55 -- 99
		56 -- 57
		56 -- 58
		56 -- 59
		56 -- 63
		56 -- 64
		56 -- 65
		56 -- 69
		56 -- 71
		56 -- 73
		56 -- 75
		56 -- 76
		56 -- 79
		56 -- 82
		56 -- 84
		56 -- 85
		56 -- 93
		56 -- 94
		56 -- 95
		56 -- 97
		57 -- 59
		57 -- 61
		57 -- 63
		57 -- 64
		57 -- 67
		57 -- 70
		57 -- 72
		57 -- 74
		57 -- 75
		57 -- 76
		57 -- 79
		57 -- 80
		57 -- 81
		57 -- 87
		57 -- 91
		57 -- 92
		57 -- 93
		57 -- 94
		57 -- 95
		57 -- 96
		58 -- 62
		58 -- 63
		58 -- 64
		58 -- 65
		58 -- 66
		58 -- 70
		58 -- 71
		58 -- 74
		58 -- 77
		58 -- 80
		58 -- 81
		58 -- 87
		58 -- 89
		58 -- 90
		58 -- 91
		58 -- 99
		59 -- 60
		59 -- 61
		59 -- 62
		59 -- 63
		59 -- 64
		59 -- 65
		59 -- 66
		59 -- 67
		59 -- 68
		59 -- 71
		59 -- 73
		59 -- 76
		59 -- 77
		59 -- 78
		59 -- 79
		59 -- 81
		59 -- 82
		59 -- 84
		59 -- 85
		59 -- 86
		59 -- 89
		59 -- 92
		59 -- 94
		59 -- 96
		59 -- 97
		59 -- 98
		59 -- 99
		60 -- 61
		60 -- 62
		60 -- 64
		60 -- 66
		60 -- 67
		60 -- 69
		60 -- 70
		60 -- 72
		60 -- 73
		60 -- 79
		60 -- 81
		60 -- 82
		60 -- 83
		60 -- 85
		60 -- 87
		60 -- 88
		60 -- 89
		60 -- 92
		60 -- 93
		60 -- 95
		60 -- 96
		60 -- 98
		60 -- 99
		61 -- 62
		61 -- 63
		61 -- 65
		61 -- 66
		61 -- 70
		61 -- 71
		61 -- 72
		61 -- 73
		61 -- 75
		61 -- 83
		61 -- 85
		61 -- 88
		61 -- 89
		61 -- 90
		61 -- 92
		61 -- 94
		61 -- 97
		61 -- 98
		62 -- 66
		62 -- 69
		62 -- 70
		62 -- 71
		62 -- 72
		62 -- 74
		62 -- 75
		62 -- 78
		62 -- 80
		62 -- 82
		62 -- 84
		62 -- 86
		62 -- 88
		62 -- 92
		62 -- 93
		62 -- 94
		62 -- 96
		62 -- 97
		62 -- 98
		62 -- 99
		63 -- 65
		63 -- 66
		63 -- 68
		63 -- 73
		63 -- 74
		63 -- 75
		63 -- 76
		63 -- 77
		63 -- 79
		63 -- 80
		63 -- 81
		63 -- 82
		63 -- 83
		63 -- 84
		63 -- 86
		63 -- 88
		63 -- 90
		63 -- 91
		63 -- 97
		63 -- 99
		64 -- 65
		64 -- 68
		64 -- 70
		64 -- 71
		64 -- 72
		64 -- 73
		64 -- 78
		64 -- 79
		64 -- 82
		64 -- 84
		64 -- 85
		64 -- 86
		64 -- 88
		64 -- 89
		64 -- 90
		64 -- 91
		64 -- 94
		64 -- 95
		64 -- 97
		64 -- 98
		65 -- 67
		65 -- 68
		65 -- 70
		65 -- 71
		65 -- 72
		65 -- 73
		65 -- 75
		65 -- 76
		65 -- 78
		65 -- 81
		65 -- 87
		65 -- 89
		65 -- 90
		65 -- 92
		65 -- 97
		65 -- 99
		66 -- 68
		66 -- 69
		66 -- 71
		66 -- 72
		66 -- 76
		66 -- 78
		66 -- 79
		66 -- 81
		66 -- 85
		66 -- 86
		66 -- 89
		66 -- 90
		66 -- 91
		66 -- 95
		66 -- 96
		66 -- 97
		66 -- 98
		66 -- 99
		67 -- 68
		67 -- 73
		67 -- 77
		67 -- 83
		67 -- 87
		67 -- 88
		67 -- 71
		67 -- 79
		67 -- 90
		67 -- 95
		67 -- 98
		67 -- 82
		67 -- 96
		67 -- 94
		68 -- 71
		68 -- 72
		68 -- 74
		68 -- 77
		68 -- 80
		68 -- 82
		68 -- 85
		68 -- 88
		68 -- 90
		68 -- 91
		68 -- 92
		68 -- 93
		68 -- 94
		68 -- 97
		69 -- 75
		69 -- 70
		69 -- 71
		69 -- 72
		69 -- 73
		69 -- 77
		69 -- 87
		69 -- 90
		69 -- 95
		69 -- 82
		69 -- 83
		69 -- 85
		70 -- 71
		70 -- 72
		70 -- 75
		70 -- 76
		70 -- 77
		70 -- 81
		70 -- 82
		70 -- 91
		70 -- 92
		70 -- 93
		70 -- 97
		71 -- 72
		71 -- 76
		71 -- 77
		71 -- 87
		71 -- 88
		71 -- 90
		71 -- 91
		71 -- 93
		71 -- 94
		71 -- 95
		71 -- 96
		71 -- 98
		71 -- 99
		72 -- 73
		72 -- 76
		72 -- 78
		72 -- 80
		72 -- 81
		72 -- 82
		72 -- 84
		72 -- 85
		72 -- 88
		72 -- 91
		72 -- 92
		72 -- 94
		72 -- 98
		72 -- 99
		73 -- 74
		73 -- 75
		73 -- 78
		73 -- 82
		73 -- 84
		73 -- 85
		73 -- 92
		73 -- 93
		73 -- 96
		73 -- 98
		73 -- 99
		74 -- 79
		74 -- 76
		74 -- 86
		74 -- 87
		74 -- 91
		74 -- 99
		74 -- 94
		75 -- 77
		75 -- 79
		75 -- 80
		75 -- 84
		75 -- 86
		75 -- 88
		75 -- 90
		75 -- 91
		75 -- 95
		75 -- 83
		75 -- 85
		75 -- 87
		76 -- 78
		76 -- 79
		76 -- 82
		76 -- 83
		76 -- 89
		76 -- 90
		76 -- 91
		76 -- 93
		76 -- 94
		76 -- 97
		76 -- 99
		77 -- 81
		77 -- 82
		77 -- 84
		77 -- 86
		77 -- 88
		77 -- 89
		77 -- 90
		77 -- 92
		77 -- 93
		77 -- 95
		77 -- 96
		77 -- 98
		78 -- 81
		78 -- 82
		78 -- 84
		78 -- 85
		78 -- 86
		78 -- 88
		78 -- 89
		78 -- 90
		78 -- 92
		78 -- 93
		78 -- 95
		78 -- 98
		79 -- 81
		79 -- 82
		79 -- 83
		79 -- 84
		79 -- 85
		79 -- 87
		79 -- 89
		79 -- 90
		79 -- 92
		79 -- 97
		79 -- 99
		80 -- 81
		80 -- 83
		80 -- 85
		80 -- 86
		80 -- 88
		80 -- 90
		80 -- 92
		80 -- 96
		80 -- 97
		80 -- 99
		80 -- 82
		81 -- 82
		81 -- 83
		81 -- 97
		81 -- 89
		81 -- 90
		81 -- 92
		81 -- 94
		82 -- 83
		82 -- 84
		82 -- 85
		82 -- 86
		82 -- 88
		82 -- 89
		82 -- 90
		82 -- 92
		82 -- 94
		82 -- 95
		82 -- 96
		82 -- 98
		83 -- 84
		83 -- 85
		83 -- 86
		83 -- 89
		83 -- 91
		83 -- 93
		83 -- 96
		83 -- 97
		83 -- 98
		84 -- 86
		84 -- 91
		84 -- 96
		84 -- 98
		84 -- 99
		85 -- 86
		85 -- 89
		85 -- 90
		85 -- 92
		85 -- 94
		85 -- 97
		86 -- 88
		86 -- 90
		86 -- 92
		86 -- 93
		86 -- 95
		86 -- 96
		87 -- 96
		87 -- 99
		87 -- 94
		87 -- 92
		87 -- 95
		87 -- 91
		88 -- 91
		88 -- 92
		88 -- 93
		88 -- 94
		88 -- 95
		88 -- 96
		88 -- 99
		89 -- 92
		89 -- 90
		89 -- 93
		89 -- 96
		89 -- 98
		89 -- 99
		89 -- 91
		90 -- 92
		90 -- 93
		90 -- 95
		91 -- 98
		91 -- 94
		91 -- 95
		91 -- 97
		91 -- 99
		92 -- 96
		92 -- 97
		92 -- 98
		92 -- 99
		93 -- 95
		93 -- 97
		94 -- 95
		94 -- 96
		94 -- 97
		94 -- 98
		95 -- 96
		95 -- 99
		96 -- 97
		96 -- 98
		96 -- 99
		98 -- 99
}