graph {
		0 -- 2
		0 -- 5
		0 -- 7
		0 -- 10
		0 -- 11
		0 -- 14
		0 -- 18
		0 -- 19
		0 -- 24
		0 -- 25
		0 -- 26
		0 -- 27
		0 -- 28
		0 -- 29
		0 -- 31
		0 -- 32
		0 -- 34
		0 -- 37
		0 -- 38
		0 -- 41
		0 -- 42
		0 -- 43
		0 -- 45
		0 -- 47
		0 -- 48
		0 -- 50
		0 -- 51
		0 -- 52
		0 -- 53
		0 -- 55
		0 -- 58
		0 -- 61
		0 -- 64
		0 -- 67
		0 -- 71
		0 -- 72
		0 -- 73
		0 -- 75
		0 -- 78
		0 -- 85
		0 -- 86
		0 -- 89
		0 -- 90
		0 -- 93
		0 -- 94
		0 -- 97
		0 -- 98
		1 -- 2
		1 -- 3
		1 -- 4
		1 -- 6
		1 -- 10
		1 -- 15
		1 -- 19
		1 -- 20
		1 -- 25
		1 -- 28
		1 -- 29
		1 -- 33
		1 -- 34
		1 -- 35
		1 -- 36
		1 -- 37
		1 -- 38
		1 -- 39
		1 -- 42
		1 -- 45
		1 -- 46
		1 -- 47
		1 -- 48
		1 -- 49
		1 -- 50
		1 -- 51
		1 -- 52
		1 -- 54
		1 -- 56
		1 -- 58
		1 -- 61
		1 -- 63
		1 -- 65
		1 -- 66
		1 -- 67
		1 -- 68
		1 -- 69
		1 -- 71
		1 -- 72
		1 -- 73
		1 -- 74
		1 -- 76
		1 -- 79
		1 -- 80
		1 -- 82
		1 -- 83
		1 -- 84
		1 -- 85
		1 -- 86
		1 -- 87
		1 -- 92
		1 -- 93
		1 -- 94
		1 -- 95
		1 -- 96
		2 -- 3
		2 -- 5
		2 -- 6
		2 -- 10
		2 -- 12
		2 -- 13
		2 -- 16
		2 -- 17
		2 -- 18
		2 -- 21
		2 -- 22
		2 -- 25
		2 -- 26
		2 -- 30
		2 -- 31
		2 -- 32
		2 -- 33
		2 -- 34
		2 -- 35
		2 -- 39
		2 -- 42
		2 -- 43
		2 -- 44
		2 -- 47
		2 -- 48
		2 -- 49
		2 -- 50
		2 -- 51
		2 -- 55
		2 -- 63
		2 -- 64
		2 -- 65
		2 -- 67
		2 -- 68
		2 -- 71
		2 -- 72
		2 -- 76
		2 -- 77
		2 -- 78
		2 -- 79
		2 -- 81
		2 -- 83
		2 -- 84
		2 -- 85
		2 -- 86
		2 -- 87
		2 -- 88
		2 -- 91
		2 -- 96
		3 -- 4
		3 -- 6
		3 -- 7
		3 -- 8
		3 -- 9
		3 -- 10
		3 -- 11
		3 -- 12
		3 -- 13
		3 -- 15
		3 -- 18
		3 -- 19
		3 -- 20
		3 -- 21
		3 -- 22
		3 -- 23
		3 -- 24
		3 -- 25
		3 -- 28
		3 -- 31
		3 -- 32
		3 -- 34
		3 -- 35
		3 -- 36
		3 -- 40
		3 -- 45
		3 -- 46
		3 -- 47
		3 -- 50
		3 -- 52
		3 -- 53
		3 -- 54
		3 -- 57
		3 -- 63
		3 -- 66
		3 -- 67
		3 -- 68
		3 -- 69
		3 -- 70
		3 -- 74
		3 -- 76
		3 -- 77
		3 -- 78
		3 -- 80
		3 -- 81
		3 -- 86
		3 -- 88
		3 -- 90
		3 -- 92
		3 -- 93
		3 -- 94
		4 -- 5
		4 -- 6
		4 -- 7
		4 -- 8
		4 -- 10
		4 -- 15
		4 -- 16
		4 -- 17
		4 -- 20
		4 -- 21
		4 -- 24
		4 -- 25
		4 -- 28
		4 -- 30
		4 -- 33
		4 -- 35
		4 -- 36
		4 -- 38
		4 -- 40
		4 -- 42
		4 -- 43
		4 -- 44
		4 -- 45
		4 -- 47
		4 -- 52
		4 -- 55
		4 -- 56
		4 -- 59
		4 -- 60
		4 -- 61
		4 -- 62
		4 -- 63
		4 -- 65
		4 -- 68
		4 -- 70
		4 -- 71
		4 -- 73
		4 -- 74
		4 -- 77
		4 -- 82
		4 -- 84
		4 -- 94
		4 -- 96
		4 -- 97
		5 -- 7
		5 -- 8
		5 -- 9
		5 -- 11
		5 -- 13
		5 -- 15
		5 -- 17
		5 -- 20
		5 -- 21
		5 -- 22
		5 -- 25
		5 -- 28
		5 -- 31
		5 -- 35
		5 -- 37
		5 -- 38
		5 -- 39
		5 -- 40
		5 -- 41
		5 -- 42
		5 -- 51
		5 -- 53
		5 -- 56
		5 -- 58
		5 -- 61
		5 -- 62
		5 -- 63
		5 -- 65
		5 -- 69
		5 -- 70
		5 -- 76
		5 -- 77
		5 -- 78
		5 -- 79
		5 -- 82
		5 -- 84
		5 -- 86
		5 -- 87
		5 -- 88
		5 -- 89
		5 -- 93
		5 -- 95
		6 -- 7
		6 -- 8
		6 -- 9
		6 -- 10
		6 -- 13
		6 -- 18
		6 -- 21
		6 -- 24
		6 -- 25
		6 -- 28
		6 -- 35
		6 -- 37
		6 -- 38
		6 -- 40
		6 -- 41
		6 -- 45
		6 -- 47
		6 -- 54
		6 -- 55
		6 -- 57
		6 -- 58
		6 -- 59
		6 -- 60
		6 -- 62
		6 -- 63
		6 -- 66
		6 -- 69
		6 -- 71
		6 -- 72
		6 -- 74
		6 -- 75
		6 -- 76
		6 -- 78
		6 -- 79
		6 -- 81
		6 -- 82
		6 -- 85
		6 -- 88
		6 -- 89
		6 -- 92
		6 -- 94
		7 -- 9
		7 -- 10
		7 -- 11
		7 -- 14
		7 -- 16
		7 -- 17
		7 -- 20
		7 -- 21
		7 -- 22
		7 -- 23
		7 -- 24
		7 -- 25
		7 -- 26
		7 -- 30
		7 -- 32
		7 -- 34
		7 -- 35
		7 -- 36
		7 -- 38
		7 -- 39
		7 -- 40
		7 -- 41
		7 -- 43
		7 -- 48
		7 -- 49
		7 -- 51
		7 -- 52
		7 -- 53
		7 -- 55
		7 -- 56
		7 -- 58
		7 -- 61
		7 -- 67
		7 -- 68
		7 -- 69
		7 -- 74
		7 -- 75
		7 -- 76
		7 -- 77
		7 -- 78
		7 -- 80
		7 -- 81
		7 -- 82
		7 -- 83
		7 -- 84
		7 -- 85
		7 -- 86
		7 -- 87
		7 -- 90
		7 -- 91
		7 -- 92
		7 -- 98
		7 -- 99
		8 -- 9
		8 -- 15
		8 -- 16
		8 -- 17
		8 -- 18
		8 -- 21
		8 -- 22
		8 -- 23
		8 -- 30
		8 -- 32
		8 -- 33
		8 -- 34
		8 -- 35
		8 -- 39
		8 -- 42
		8 -- 44
		8 -- 45
		8 -- 46
		8 -- 47
		8 -- 51
		8 -- 53
		8 -- 54
		8 -- 58
		8 -- 59
		8 -- 61
		8 -- 62
		8 -- 63
		8 -- 66
		8 -- 68
		8 -- 70
		8 -- 71
		8 -- 74
		8 -- 80
		8 -- 81
		8 -- 82
		8 -- 83
		8 -- 88
		8 -- 91
		8 -- 92
		8 -- 96
		8 -- 97
		9 -- 10
		9 -- 11
		9 -- 14
		9 -- 16
		9 -- 21
		9 -- 23
		9 -- 24
		9 -- 25
		9 -- 26
		9 -- 27
		9 -- 29
		9 -- 35
		9 -- 37
		9 -- 38
		9 -- 39
		9 -- 40
		9 -- 41
		9 -- 45
		9 -- 47
		9 -- 48
		9 -- 52
		9 -- 53
		9 -- 54
		9 -- 56
		9 -- 57
		9 -- 58
		9 -- 61
		9 -- 62
		9 -- 69
		9 -- 72
		9 -- 74
		9 -- 76
		9 -- 79
		9 -- 83
		9 -- 84
		9 -- 86
		9 -- 87
		9 -- 89
		9 -- 90
		9 -- 92
		9 -- 94
		9 -- 95
		9 -- 99
		10 -- 12
		10 -- 14
		10 -- 17
		10 -- 23
		10 -- 24
		10 -- 26
		10 -- 27
		10 -- 30
		10 -- 31
		10 -- 33
		10 -- 35
		10 -- 36
		10 -- 37
		10 -- 38
		10 -- 41
		10 -- 45
		10 -- 46
		10 -- 47
		10 -- 48
		10 -- 53
		10 -- 56
		10 -- 58
		10 -- 59
		10 -- 61
		10 -- 64
		10 -- 65
		10 -- 66
		10 -- 70
		10 -- 72
		10 -- 74
		10 -- 76
		10 -- 79
		10 -- 80
		10 -- 82
		10 -- 83
		10 -- 85
		10 -- 86
		10 -- 90
		10 -- 93
		10 -- 95
		10 -- 96
		10 -- 97
		10 -- 98
		10 -- 99
		11 -- 12
		11 -- 13
		11 -- 21
		11 -- 22
		11 -- 25
		11 -- 32
		11 -- 33
		11 -- 35
		11 -- 37
		11 -- 38
		11 -- 39
		11 -- 40
		11 -- 42
		11 -- 44
		11 -- 49
		11 -- 51
		11 -- 52
		11 -- 54
		11 -- 55
		11 -- 57
		11 -- 58
		11 -- 59
		11 -- 61
		11 -- 69
		11 -- 70
		11 -- 71
		11 -- 74
		11 -- 75
		11 -- 76
		11 -- 77
		11 -- 79
		11 -- 80
		11 -- 83
		11 -- 84
		11 -- 86
		11 -- 87
		11 -- 88
		11 -- 95
		11 -- 98
		11 -- 99
		12 -- 14
		12 -- 16
		12 -- 17
		12 -- 19
		12 -- 20
		12 -- 25
		12 -- 28
		12 -- 29
		12 -- 30
		12 -- 33
		12 -- 35
		12 -- 37
		12 -- 39
		12 -- 40
		12 -- 41
		12 -- 42
		12 -- 43
		12 -- 44
		12 -- 47
		12 -- 50
		12 -- 53
		12 -- 54
		12 -- 55
		12 -- 57
		12 -- 59
		12 -- 60
		12 -- 61
		12 -- 62
		12 -- 63
		12 -- 68
		12 -- 69
		12 -- 70
		12 -- 72
		12 -- 75
		12 -- 77
		12 -- 78
		12 -- 80
		12 -- 81
		12 -- 82
		12 -- 83
		12 -- 84
		12 -- 86
		12 -- 88
		12 -- 92
		12 -- 94
		12 -- 97
		12 -- 99
		13 -- 14
		13 -- 16
		13 -- 18
		13 -- 19
		13 -- 20
		13 -- 22
		13 -- 23
		13 -- 26
		13 -- 33
		13 -- 37
		13 -- 41
		13 -- 42
		13 -- 43
		13 -- 44
		13 -- 49
		13 -- 52
		13 -- 53
		13 -- 54
		13 -- 55
		13 -- 56
		13 -- 57
		13 -- 58
		13 -- 59
		13 -- 60
		13 -- 61
		13 -- 63
		13 -- 64
		13 -- 66
		13 -- 67
		13 -- 68
		13 -- 72
		13 -- 74
		13 -- 75
		13 -- 76
		13 -- 78
		13 -- 81
		13 -- 82
		13 -- 84
		13 -- 85
		13 -- 86
		13 -- 87
		13 -- 88
		13 -- 89
		13 -- 90
		13 -- 95
		13 -- 97
		13 -- 98
		13 -- 99
		14 -- 16
		14 -- 18
		14 -- 20
		14 -- 21
		14 -- 22
		14 -- 23
		14 -- 24
		14 -- 26
		14 -- 28
		14 -- 31
		14 -- 32
		14 -- 34
		14 -- 35
		14 -- 38
		14 -- 39
		14 -- 40
		14 -- 41
		14 -- 43
		14 -- 47
		14 -- 51
		14 -- 54
		14 -- 55
		14 -- 58
		14 -- 59
		14 -- 62
		14 -- 63
		14 -- 64
		14 -- 67
		14 -- 71
		14 -- 72
		14 -- 73
		14 -- 75
		14 -- 80
		14 -- 81
		14 -- 82
		14 -- 84
		14 -- 92
		14 -- 96
		14 -- 98
		14 -- 99
		15 -- 16
		15 -- 17
		15 -- 18
		15 -- 22
		15 -- 25
		15 -- 26
		15 -- 28
		15 -- 29
		15 -- 31
		15 -- 34
		15 -- 39
		15 -- 40
		15 -- 41
		15 -- 43
		15 -- 48
		15 -- 49
		15 -- 50
		15 -- 52
		15 -- 54
		15 -- 55
		15 -- 56
		15 -- 58
		15 -- 60
		15 -- 65
		15 -- 66
		15 -- 67
		15 -- 68
		15 -- 71
		15 -- 73
		15 -- 75
		15 -- 76
		15 -- 78
		15 -- 80
		15 -- 81
		15 -- 82
		15 -- 85
		15 -- 86
		15 -- 87
		15 -- 88
		15 -- 89
		15 -- 92
		15 -- 94
		15 -- 95
		15 -- 96
		16 -- 17
		16 -- 21
		16 -- 24
		16 -- 25
		16 -- 26
		16 -- 27
		16 -- 29
		16 -- 31
		16 -- 32
		16 -- 33
		16 -- 34
		16 -- 36
		16 -- 39
		16 -- 40
		16 -- 42
		16 -- 46
		16 -- 48
		16 -- 50
		16 -- 52
		16 -- 53
		16 -- 55
		16 -- 61
		16 -- 64
		16 -- 65
		16 -- 67
		16 -- 68
		16 -- 79
		16 -- 81
		16 -- 82
		16 -- 83
		16 -- 88
		16 -- 94
		16 -- 97
		16 -- 98
		16 -- 99
		17 -- 18
		17 -- 19
		17 -- 23
		17 -- 24
		17 -- 26
		17 -- 27
		17 -- 28
		17 -- 30
		17 -- 32
		17 -- 33
		17 -- 34
		17 -- 36
		17 -- 39
		17 -- 41
		17 -- 43
		17 -- 44
		17 -- 45
		17 -- 46
		17 -- 47
		17 -- 48
		17 -- 49
		17 -- 52
		17 -- 57
		17 -- 59
		17 -- 60
		17 -- 61
		17 -- 62
		17 -- 63
		17 -- 65
		17 -- 68
		17 -- 69
		17 -- 72
		17 -- 73
		17 -- 75
		17 -- 77
		17 -- 80
		17 -- 84
		17 -- 85
		17 -- 88
		17 -- 91
		17 -- 92
		17 -- 94
		17 -- 97
		17 -- 99
		18 -- 20
		18 -- 22
		18 -- 23
		18 -- 27
		18 -- 29
		18 -- 30
		18 -- 31
		18 -- 34
		18 -- 37
		18 -- 39
		18 -- 42
		18 -- 45
		18 -- 46
		18 -- 47
		18 -- 48
		18 -- 52
		18 -- 53
		18 -- 54
		18 -- 55
		18 -- 61
		18 -- 65
		18 -- 67
		18 -- 69
		18 -- 70
		18 -- 72
		18 -- 75
		18 -- 76
		18 -- 77
		18 -- 78
		18 -- 80
		18 -- 81
		18 -- 83
		18 -- 84
		18 -- 87
		18 -- 89
		18 -- 92
		18 -- 93
		18 -- 94
		18 -- 97
		19 -- 21
		19 -- 22
		19 -- 23
		19 -- 24
		19 -- 25
		19 -- 26
		19 -- 28
		19 -- 29
		19 -- 30
		19 -- 33
		19 -- 34
		19 -- 36
		19 -- 40
		19 -- 41
		19 -- 43
		19 -- 45
		19 -- 52
		19 -- 53
		19 -- 58
		19 -- 60
		19 -- 62
		19 -- 63
		19 -- 65
		19 -- 66
		19 -- 67
		19 -- 68
		19 -- 69
		19 -- 70
		19 -- 71
		19 -- 72
		19 -- 74
		19 -- 75
		19 -- 78
		19 -- 79
		19 -- 81
		19 -- 86
		19 -- 95
		19 -- 98
		19 -- 99
		20 -- 21
		20 -- 22
		20 -- 24
		20 -- 28
		20 -- 31
		20 -- 36
		20 -- 37
		20 -- 38
		20 -- 39
		20 -- 40
		20 -- 43
		20 -- 46
		20 -- 47
		20 -- 48
		20 -- 49
		20 -- 50
		20 -- 51
		20 -- 55
		20 -- 57
		20 -- 59
		20 -- 60
		20 -- 62
		20 -- 64
		20 -- 65
		20 -- 66
		20 -- 67
		20 -- 68
		20 -- 69
		20 -- 70
		20 -- 71
		20 -- 72
		20 -- 73
		20 -- 74
		20 -- 76
		20 -- 82
		20 -- 84
		20 -- 85
		20 -- 89
		20 -- 90
		20 -- 93
		20 -- 95
		20 -- 96
		20 -- 97
		20 -- 98
		21 -- 22
		21 -- 26
		21 -- 28
		21 -- 29
		21 -- 31
		21 -- 34
		21 -- 35
		21 -- 36
		21 -- 37
		21 -- 39
		21 -- 40
		21 -- 43
		21 -- 46
		21 -- 48
		21 -- 52
		21 -- 54
		21 -- 55
		21 -- 56
		21 -- 58
		21 -- 63
		21 -- 66
		21 -- 72
		21 -- 73
		21 -- 74
		21 -- 75
		21 -- 77
		21 -- 80
		21 -- 81
		21 -- 82
		21 -- 83
		21 -- 85
		21 -- 86
		21 -- 87
		21 -- 90
		21 -- 95
		21 -- 96
		21 -- 97
		21 -- 98
		21 -- 99
		22 -- 23
		22 -- 27
		22 -- 30
		22 -- 33
		22 -- 34
		22 -- 39
		22 -- 41
		22 -- 42
		22 -- 43
		22 -- 45
		22 -- 48
		22 -- 53
		22 -- 55
		22 -- 57
		22 -- 58
		22 -- 65
		22 -- 66
		22 -- 67
		22 -- 68
		22 -- 70
		22 -- 71
		22 -- 75
		22 -- 76
		22 -- 77
		22 -- 80
		22 -- 85
		22 -- 88
		22 -- 90
		22 -- 92
		22 -- 93
		22 -- 94
		22 -- 96
		22 -- 97
		22 -- 99
		23 -- 24
		23 -- 25
		23 -- 29
		23 -- 38
		23 -- 40
		23 -- 42
		23 -- 43
		23 -- 45
		23 -- 47
		23 -- 48
		23 -- 49
		23 -- 51
		23 -- 53
		23 -- 54
		23 -- 57
		23 -- 60
		23 -- 61
		23 -- 63
		23 -- 64
		23 -- 66
		23 -- 67
		23 -- 68
		23 -- 69
		23 -- 71
		23 -- 72
		23 -- 74
		23 -- 75
		23 -- 76
		23 -- 77
		23 -- 78
		23 -- 80
		23 -- 81
		23 -- 84
		23 -- 87
		23 -- 95
		23 -- 97
		23 -- 98
		24 -- 29
		24 -- 32
		24 -- 34
		24 -- 35
		24 -- 36
		24 -- 37
		24 -- 39
		24 -- 40
		24 -- 42
		24 -- 44
		24 -- 45
		24 -- 47
		24 -- 48
		24 -- 49
		24 -- 50
		24 -- 55
		24 -- 58
		24 -- 61
		24 -- 62
		24 -- 63
		24 -- 64
		24 -- 67
		24 -- 68
		24 -- 69
		24 -- 70
		24 -- 72
		24 -- 73
		24 -- 74
		24 -- 75
		24 -- 79
		24 -- 81
		24 -- 82
		24 -- 85
		24 -- 91
		24 -- 93
		24 -- 94
		24 -- 95
		24 -- 96
		24 -- 99
		25 -- 27
		25 -- 28
		25 -- 29
		25 -- 30
		25 -- 36
		25 -- 37
		25 -- 38
		25 -- 41
		25 -- 43
		25 -- 45
		25 -- 46
		25 -- 49
		25 -- 55
		25 -- 56
		25 -- 58
		25 -- 59
		25 -- 65
		25 -- 66
		25 -- 70
		25 -- 71
		25 -- 75
		25 -- 76
		25 -- 78
		25 -- 80
		25 -- 81
		25 -- 83
		25 -- 85
		25 -- 87
		25 -- 88
		25 -- 89
		25 -- 90
		25 -- 91
		25 -- 95
		25 -- 97
		26 -- 67
		26 -- 66
		26 -- 69
		26 -- 78
		26 -- 86
		26 -- 87
		26 -- 91
		26 -- 28
		26 -- 29
		26 -- 94
		26 -- 33
		26 -- 35
		26 -- 77
		26 -- 37
		26 -- 80
		26 -- 40
		26 -- 42
		26 -- 43
		26 -- 44
		26 -- 46
		26 -- 93
		26 -- 48
		26 -- 49
		26 -- 53
		26 -- 54
		26 -- 73
		26 -- 56
		26 -- 57
		26 -- 60
		26 -- 62
		26 -- 63
		27 -- 31
		27 -- 32
		27 -- 35
		27 -- 37
		27 -- 39
		27 -- 40
		27 -- 43
		27 -- 46
		27 -- 47
		27 -- 51
		27 -- 53
		27 -- 55
		27 -- 57
		27 -- 58
		27 -- 59
		27 -- 60
		27 -- 62
		27 -- 63
		27 -- 65
		27 -- 70
		27 -- 71
		27 -- 72
		27 -- 73
		27 -- 74
		27 -- 76
		27 -- 78
		27 -- 81
		27 -- 82
		27 -- 86
		27 -- 88
		27 -- 89
		27 -- 90
		27 -- 91
		27 -- 92
		27 -- 93
		27 -- 94
		27 -- 95
		27 -- 96
		28 -- 31
		28 -- 33
		28 -- 35
		28 -- 36
		28 -- 43
		28 -- 45
		28 -- 46
		28 -- 47
		28 -- 48
		28 -- 49
		28 -- 54
		28 -- 55
		28 -- 56
		28 -- 57
		28 -- 60
		28 -- 62
		28 -- 63
		28 -- 64
		28 -- 66
		28 -- 67
		28 -- 68
		28 -- 70
		28 -- 77
		28 -- 79
		28 -- 80
		28 -- 82
		28 -- 83
		28 -- 84
		28 -- 85
		28 -- 87
		28 -- 88
		28 -- 90
		28 -- 91
		28 -- 92
		28 -- 95
		28 -- 96
		28 -- 97
		28 -- 99
		29 -- 32
		29 -- 33
		29 -- 36
		29 -- 39
		29 -- 40
		29 -- 41
		29 -- 43
		29 -- 44
		29 -- 45
		29 -- 47
		29 -- 49
		29 -- 51
		29 -- 52
		29 -- 53
		29 -- 55
		29 -- 63
		29 -- 65
		29 -- 69
		29 -- 71
		29 -- 72
		29 -- 73
		29 -- 75
		29 -- 77
		29 -- 79
		29 -- 81
		29 -- 82
		29 -- 84
		29 -- 89
		29 -- 90
		29 -- 91
		29 -- 92
		29 -- 93
		29 -- 94
		29 -- 96
		29 -- 97
		29 -- 98
		29 -- 99
		30 -- 64
		30 -- 65
		30 -- 69
		30 -- 68
		30 -- 76
		30 -- 66
		30 -- 78
		30 -- 80
		30 -- 96
		30 -- 87
		30 -- 90
		30 -- 86
		30 -- 32
		30 -- 33
		30 -- 35
		30 -- 36
		30 -- 39
		30 -- 40
		30 -- 92
		30 -- 43
		30 -- 44
		30 -- 46
		30 -- 47
		30 -- 49
		30 -- 50
		30 -- 83
		30 -- 89
		30 -- 56
		30 -- 60
		30 -- 74
		30 -- 62
		30 -- 63
		31 -- 34
		31 -- 36
		31 -- 37
		31 -- 38
		31 -- 44
		31 -- 45
		31 -- 46
		31 -- 47
		31 -- 48
		31 -- 52
		31 -- 53
		31 -- 54
		31 -- 55
		31 -- 60
		31 -- 61
		31 -- 65
		31 -- 70
		31 -- 71
		31 -- 72
		31 -- 73
		31 -- 75
		31 -- 76
		31 -- 77
		31 -- 78
		31 -- 82
		31 -- 83
		31 -- 85
		31 -- 87
		31 -- 90
		31 -- 91
		31 -- 94
		31 -- 95
		31 -- 97
		31 -- 98
		32 -- 35
		32 -- 36
		32 -- 37
		32 -- 42
		32 -- 43
		32 -- 44
		32 -- 54
		32 -- 59
		32 -- 60
		32 -- 61
		32 -- 63
		32 -- 65
		32 -- 67
		32 -- 69
		32 -- 70
		32 -- 71
		32 -- 73
		32 -- 74
		32 -- 76
		32 -- 78
		32 -- 80
		32 -- 81
		32 -- 83
		32 -- 84
		32 -- 85
		32 -- 86
		32 -- 88
		32 -- 90
		32 -- 91
		32 -- 96
		32 -- 98
		32 -- 99
		33 -- 64
		33 -- 86
		33 -- 70
		33 -- 65
		33 -- 79
		33 -- 90
		33 -- 66
		33 -- 87
		33 -- 95
		33 -- 96
		33 -- 81
		33 -- 41
		33 -- 43
		33 -- 44
		33 -- 93
		33 -- 47
		33 -- 48
		33 -- 49
		33 -- 83
		33 -- 52
		33 -- 94
		33 -- 55
		33 -- 56
		33 -- 57
		33 -- 58
		33 -- 61
		33 -- 62
		34 -- 36
		34 -- 37
		34 -- 38
		34 -- 40
		34 -- 41
		34 -- 44
		34 -- 46
		34 -- 47
		34 -- 48
		34 -- 51
		34 -- 52
		34 -- 53
		34 -- 55
		34 -- 60
		34 -- 61
		34 -- 64
		34 -- 69
		34 -- 72
		34 -- 74
		34 -- 76
		34 -- 79
		34 -- 80
		34 -- 81
		34 -- 82
		34 -- 85
		34 -- 91
		34 -- 94
		34 -- 95
		34 -- 97
		35 -- 36
		35 -- 37
		35 -- 39
		35 -- 41
		35 -- 42
		35 -- 44
		35 -- 46
		35 -- 47
		35 -- 49
		35 -- 54
		35 -- 55
		35 -- 60
		35 -- 61
		35 -- 62
		35 -- 66
		35 -- 70
		35 -- 76
		35 -- 77
		35 -- 78
		35 -- 79
		35 -- 80
		35 -- 81
		35 -- 83
		35 -- 86
		35 -- 87
		35 -- 88
		35 -- 91
		35 -- 92
		35 -- 93
		35 -- 94
		35 -- 95
		35 -- 96
		35 -- 99
		36 -- 37
		36 -- 41
		36 -- 44
		36 -- 45
		36 -- 47
		36 -- 49
		36 -- 50
		36 -- 51
		36 -- 53
		36 -- 54
		36 -- 55
		36 -- 57
		36 -- 58
		36 -- 59
		36 -- 60
		36 -- 61
		36 -- 62
		36 -- 65
		36 -- 68
		36 -- 70
		36 -- 71
		36 -- 76
		36 -- 77
		36 -- 80
		36 -- 82
		36 -- 85
		36 -- 87
		36 -- 88
		36 -- 89
		36 -- 90
		36 -- 93
		36 -- 94
		36 -- 95
		36 -- 96
		36 -- 98
		36 -- 99
		37 -- 39
		37 -- 40
		37 -- 42
		37 -- 44
		37 -- 50
		37 -- 51
		37 -- 52
		37 -- 53
		37 -- 54
		37 -- 55
		37 -- 57
		37 -- 59
		37 -- 60
		37 -- 63
		37 -- 64
		37 -- 65
		37 -- 67
		37 -- 71
		37 -- 74
		37 -- 75
		37 -- 77
		37 -- 79
		37 -- 82
		37 -- 83
		37 -- 84
		37 -- 85
		37 -- 86
		37 -- 87
		37 -- 89
		37 -- 90
		37 -- 95
		37 -- 96
		37 -- 97
		37 -- 98
		38 -- 39
		38 -- 40
		38 -- 41
		38 -- 43
		38 -- 49
		38 -- 51
		38 -- 52
		38 -- 53
		38 -- 54
		38 -- 55
		38 -- 59
		38 -- 61
		38 -- 62
		38 -- 65
		38 -- 66
		38 -- 70
		38 -- 72
		38 -- 74
		38 -- 75
		38 -- 76
		38 -- 77
		38 -- 78
		38 -- 79
		38 -- 81
		38 -- 82
		38 -- 83
		38 -- 84
		38 -- 85
		38 -- 86
		38 -- 87
		38 -- 88
		38 -- 90
		38 -- 92
		38 -- 94
		38 -- 95
		38 -- 96
		38 -- 97
		38 -- 98
		39 -- 42
		39 -- 44
		39 -- 45
		39 -- 46
		39 -- 48
		39 -- 49
		39 -- 51
		39 -- 54
		39 -- 56
		39 -- 59
		39 -- 60
		39 -- 61
		39 -- 62
		39 -- 64
		39 -- 65
		39 -- 67
		39 -- 69
		39 -- 70
		39 -- 72
		39 -- 74
		39 -- 75
		39 -- 76
		39 -- 78
		39 -- 79
		39 -- 80
		39 -- 81
		39 -- 82
		39 -- 83
		39 -- 86
		39 -- 87
		39 -- 89
		39 -- 90
		39 -- 96
		39 -- 99
		40 -- 41
		40 -- 42
		40 -- 47
		40 -- 49
		40 -- 50
		40 -- 51
		40 -- 52
		40 -- 57
		40 -- 58
		40 -- 60
		40 -- 62
		40 -- 63
		40 -- 65
		40 -- 71
		40 -- 73
		40 -- 76
		40 -- 77
		40 -- 80
		40 -- 81
		40 -- 83
		40 -- 85
		40 -- 86
		40 -- 87
		40 -- 90
		40 -- 91
		40 -- 92
		40 -- 94
		40 -- 97
		40 -- 99
		41 -- 42
		41 -- 43
		41 -- 45
		41 -- 47
		41 -- 48
		41 -- 49
		41 -- 50
		41 -- 53
		41 -- 54
		41 -- 55
		41 -- 56
		41 -- 58
		41 -- 61
		41 -- 62
		41 -- 64
		41 -- 65
		41 -- 67
		41 -- 68
		41 -- 69
		41 -- 70
		41 -- 71
		41 -- 73
		41 -- 74
		41 -- 75
		41 -- 77
		41 -- 79
		41 -- 80
		41 -- 81
		41 -- 82
		41 -- 85
		41 -- 88
		41 -- 89
		41 -- 91
		41 -- 92
		41 -- 93
		41 -- 94
		41 -- 96
		41 -- 97
		42 -- 75
		42 -- 70
		42 -- 96
		42 -- 74
		42 -- 79
		42 -- 99
		42 -- 84
		42 -- 89
		42 -- 92
		42 -- 90
		42 -- 80
		42 -- 98
		42 -- 44
		42 -- 93
		42 -- 47
		42 -- 50
		42 -- 51
		42 -- 53
		42 -- 57
		42 -- 87
		42 -- 59
		42 -- 61
		43 -- 45
		43 -- 48
		43 -- 50
		43 -- 52
		43 -- 53
		43 -- 55
		43 -- 59
		43 -- 62
		43 -- 65
		43 -- 67
		43 -- 69
		43 -- 70
		43 -- 71
		43 -- 73
		43 -- 81
		43 -- 82
		43 -- 84
		43 -- 88
		43 -- 90
		43 -- 91
		43 -- 92
		43 -- 93
		43 -- 95
		43 -- 97
		43 -- 99
		44 -- 45
		44 -- 47
		44 -- 48
		44 -- 49
		44 -- 51
		44 -- 53
		44 -- 54
		44 -- 55
		44 -- 60
		44 -- 61
		44 -- 62
		44 -- 65
		44 -- 66
		44 -- 68
		44 -- 70
		44 -- 71
		44 -- 73
		44 -- 74
		44 -- 77
		44 -- 78
		44 -- 81
		44 -- 83
		44 -- 84
		44 -- 90
		44 -- 95
		44 -- 99
		45 -- 47
		45 -- 54
		45 -- 56
		45 -- 57
		45 -- 58
		45 -- 59
		45 -- 60
		45 -- 61
		45 -- 62
		45 -- 64
		45 -- 66
		45 -- 67
		45 -- 68
		45 -- 69
		45 -- 71
		45 -- 72
		45 -- 75
		45 -- 76
		45 -- 78
		45 -- 79
		45 -- 80
		45 -- 82
		45 -- 83
		45 -- 84
		45 -- 87
		45 -- 89
		45 -- 90
		45 -- 93
		45 -- 95
		45 -- 97
		45 -- 98
		45 -- 99
		46 -- 48
		46 -- 50
		46 -- 52
		46 -- 54
		46 -- 55
		46 -- 59
		46 -- 60
		46 -- 61
		46 -- 66
		46 -- 67
		46 -- 68
		46 -- 69
		46 -- 72
		46 -- 73
		46 -- 76
		46 -- 81
		46 -- 83
		46 -- 84
		46 -- 86
		46 -- 87
		46 -- 91
		46 -- 92
		46 -- 94
		46 -- 95
		46 -- 98
		46 -- 99
		47 -- 49
		47 -- 50
		47 -- 51
		47 -- 53
		47 -- 55
		47 -- 56
		47 -- 58
		47 -- 61
		47 -- 62
		47 -- 65
		47 -- 66
		47 -- 69
		47 -- 72
		47 -- 74
		47 -- 79
		47 -- 81
		47 -- 85
		47 -- 87
		47 -- 89
		47 -- 90
		47 -- 92
		47 -- 93
		47 -- 95
		47 -- 96
		47 -- 97
		48 -- 50
		48 -- 51
		48 -- 52
		48 -- 54
		48 -- 55
		48 -- 59
		48 -- 61
		48 -- 63
		48 -- 67
		48 -- 68
		48 -- 69
		48 -- 71
		48 -- 77
		48 -- 79
		48 -- 80
		48 -- 81
		48 -- 82
		48 -- 89
		48 -- 90
		48 -- 92
		48 -- 93
		48 -- 95
		48 -- 97
		48 -- 98
		49 -- 55
		49 -- 58
		49 -- 59
		49 -- 62
		49 -- 63
		49 -- 65
		49 -- 66
		49 -- 67
		49 -- 69
		49 -- 70
		49 -- 73
		49 -- 75
		49 -- 79
		49 -- 81
		49 -- 83
		49 -- 84
		49 -- 86
		49 -- 88
		49 -- 89
		49 -- 92
		49 -- 93
		49 -- 94
		50 -- 70
		50 -- 97
		50 -- 72
		50 -- 74
		50 -- 75
		50 -- 82
		50 -- 67
		50 -- 85
		50 -- 86
		50 -- 87
		50 -- 89
		50 -- 79
		50 -- 92
		50 -- 80
		50 -- 91
		50 -- 51
		50 -- 94
		50 -- 57
		50 -- 58
		50 -- 60
		50 -- 61
		51 -- 52
		51 -- 53
		51 -- 55
		51 -- 58
		51 -- 60
		51 -- 62
		51 -- 66
		51 -- 68
		51 -- 70
		51 -- 71
		51 -- 72
		51 -- 73
		51 -- 74
		51 -- 75
		51 -- 76
		51 -- 78
		51 -- 79
		51 -- 80
		51 -- 81
		51 -- 83
		51 -- 84
		51 -- 87
		51 -- 91
		51 -- 93
		51 -- 96
		51 -- 98
		51 -- 99
		52 -- 54
		52 -- 55
		52 -- 57
		52 -- 59
		52 -- 60
		52 -- 62
		52 -- 63
		52 -- 65
		52 -- 67
		52 -- 70
		52 -- 73
		52 -- 75
		52 -- 76
		52 -- 78
		52 -- 82
		52 -- 83
		52 -- 85
		52 -- 89
		52 -- 90
		52 -- 93
		52 -- 95
		52 -- 96
		52 -- 97
		52 -- 99
		53 -- 54
		53 -- 56
		53 -- 58
		53 -- 59
		53 -- 60
		53 -- 62
		53 -- 63
		53 -- 66
		53 -- 68
		53 -- 70
		53 -- 73
		53 -- 76
		53 -- 77
		53 -- 78
		53 -- 80
		53 -- 81
		53 -- 85
		53 -- 86
		53 -- 92
		53 -- 94
		53 -- 95
		53 -- 97
		53 -- 98
		54 -- 55
		54 -- 56
		54 -- 57
		54 -- 59
		54 -- 62
		54 -- 64
		54 -- 65
		54 -- 67
		54 -- 71
		54 -- 72
		54 -- 74
		54 -- 75
		54 -- 79
		54 -- 82
		54 -- 83
		54 -- 84
		54 -- 85
		54 -- 90
		54 -- 92
		54 -- 93
		54 -- 95
		54 -- 96
		54 -- 98
		55 -- 56
		55 -- 57
		55 -- 58
		55 -- 59
		55 -- 60
		55 -- 61
		55 -- 62
		55 -- 64
		55 -- 65
		55 -- 67
		55 -- 69
		55 -- 70
		55 -- 71
		55 -- 75
		55 -- 77
		55 -- 78
		55 -- 79
		55 -- 80
		55 -- 81
		55 -- 82
		55 -- 83
		55 -- 89
		55 -- 91
		55 -- 96
		56 -- 57
		56 -- 58
		56 -- 59
		56 -- 60
		56 -- 62
		56 -- 65
		56 -- 66
		56 -- 67
		56 -- 70
		56 -- 71
		56 -- 72
		56 -- 74
		56 -- 77
		56 -- 79
		56 -- 80
		56 -- 83
		56 -- 84
		56 -- 86
		56 -- 89
		56 -- 90
		56 -- 91
		56 -- 94
		56 -- 95
		56 -- 96
		56 -- 99
		57 -- 65
		57 -- 86
		57 -- 69
		57 -- 71
		57 -- 72
		57 -- 74
		57 -- 80
		57 -- 75
		57 -- 99
		57 -- 93
		57 -- 96
		57 -- 91
		57 -- 82
		57 -- 59
		57 -- 60
		57 -- 61
		57 -- 62
		58 -- 59
		58 -- 61
		58 -- 63
		58 -- 64
		58 -- 65
		58 -- 68
		58 -- 69
		58 -- 71
		58 -- 72
		58 -- 73
		58 -- 74
		58 -- 76
		58 -- 77
		58 -- 89
		58 -- 91
		58 -- 93
		58 -- 96
		58 -- 98
		59 -- 61
		59 -- 63
		59 -- 64
		59 -- 65
		59 -- 67
		59 -- 69
		59 -- 71
		59 -- 72
		59 -- 73
		59 -- 76
		59 -- 77
		59 -- 78
		59 -- 81
		59 -- 83
		59 -- 86
		59 -- 87
		59 -- 88
		59 -- 89
		59 -- 91
		59 -- 92
		59 -- 95
		60 -- 62
		60 -- 63
		60 -- 64
		60 -- 66
		60 -- 67
		60 -- 69
		60 -- 70
		60 -- 72
		60 -- 73
		60 -- 75
		60 -- 76
		60 -- 77
		60 -- 78
		60 -- 80
		60 -- 81
		60 -- 86
		60 -- 88
		60 -- 89
		60 -- 90
		60 -- 92
		60 -- 93
		60 -- 95
		60 -- 96
		60 -- 97
		60 -- 98
		60 -- 99
		61 -- 64
		61 -- 65
		61 -- 68
		61 -- 69
		61 -- 71
		61 -- 72
		61 -- 75
		61 -- 76
		61 -- 79
		61 -- 82
		61 -- 83
		61 -- 85
		61 -- 88
		61 -- 89
		61 -- 91
		61 -- 93
		61 -- 94
		61 -- 97
		62 -- 63
		62 -- 64
		62 -- 71
		62 -- 72
		62 -- 73
		62 -- 75
		62 -- 76
		62 -- 77
		62 -- 83
		62 -- 90
		62 -- 91
		62 -- 92
		62 -- 95
		62 -- 96
		62 -- 98
		63 -- 64
		63 -- 68
		63 -- 70
		63 -- 71
		63 -- 72
		63 -- 73
		63 -- 74
		63 -- 75
		63 -- 76
		63 -- 77
		63 -- 79
		63 -- 80
		63 -- 81
		63 -- 82
		63 -- 83
		63 -- 84
		63 -- 85
		63 -- 86
		63 -- 87
		63 -- 91
		63 -- 92
		63 -- 93
		63 -- 95
		63 -- 98
		63 -- 99
		64 -- 68
		64 -- 69
		64 -- 70
		64 -- 72
		64 -- 73
		64 -- 75
		64 -- 77
		64 -- 88
		64 -- 82
		64 -- 78
		64 -- 92
		64 -- 79
		64 -- 85
		64 -- 91
		64 -- 74
		64 -- 84
		65 -- 66
		65 -- 69
		65 -- 71
		65 -- 72
		65 -- 74
		65 -- 75
		65 -- 76
		65 -- 77
		65 -- 79
		65 -- 80
		65 -- 82
		65 -- 83
		65 -- 84
		65 -- 86
		65 -- 88
		65 -- 90
		65 -- 91
		65 -- 93
		65 -- 95
		65 -- 96
		65 -- 98
		66 -- 68
		66 -- 69
		66 -- 71
		66 -- 72
		66 -- 78
		66 -- 79
		66 -- 80
		66 -- 81
		66 -- 82
		66 -- 83
		66 -- 84
		66 -- 86
		66 -- 87
		66 -- 89
		66 -- 92
		66 -- 93
		66 -- 95
		66 -- 96
		66 -- 97
		67 -- 69
		67 -- 71
		67 -- 74
		67 -- 76
		67 -- 77
		67 -- 78
		67 -- 79
		67 -- 80
		67 -- 88
		67 -- 94
		67 -- 95
		67 -- 96
		67 -- 98
		68 -- 69
		68 -- 72
		68 -- 73
		68 -- 74
		68 -- 75
		68 -- 76
		68 -- 77
		68 -- 79
		68 -- 84
		68 -- 85
		68 -- 86
		68 -- 87
		68 -- 88
		68 -- 91
		68 -- 92
		68 -- 93
		68 -- 95
		68 -- 98
		69 -- 71
		69 -- 72
		69 -- 74
		69 -- 76
		69 -- 78
		69 -- 80
		69 -- 82
		69 -- 84
		69 -- 85
		69 -- 88
		69 -- 89
		69 -- 91
		69 -- 92
		69 -- 94
		69 -- 95
		69 -- 96
		69 -- 98
		70 -- 71
		70 -- 72
		70 -- 73
		70 -- 74
		70 -- 76
		70 -- 77
		70 -- 79
		70 -- 87
		70 -- 88
		70 -- 89
		70 -- 91
		70 -- 92
		70 -- 95
		70 -- 96
		70 -- 97
		70 -- 99
		71 -- 73
		71 -- 74
		71 -- 78
		71 -- 80
		71 -- 82
		71 -- 83
		71 -- 84
		71 -- 90
		71 -- 91
		71 -- 93
		71 -- 95
		71 -- 97
		71 -- 99
		72 -- 75
		72 -- 78
		72 -- 84
		72 -- 85
		72 -- 86
		72 -- 88
		72 -- 92
		72 -- 93
		73 -- 74
		73 -- 75
		73 -- 76
		73 -- 78
		73 -- 80
		73 -- 81
		73 -- 83
		73 -- 84
		73 -- 85
		73 -- 86
		73 -- 91
		73 -- 92
		73 -- 93
		73 -- 94
		73 -- 96
		73 -- 97
		73 -- 98
		74 -- 76
		74 -- 78
		74 -- 79
		74 -- 82
		74 -- 83
		74 -- 84
		74 -- 85
		74 -- 86
		74 -- 91
		74 -- 92
		74 -- 95
		74 -- 96
		74 -- 97
		75 -- 76
		75 -- 78
		75 -- 79
		75 -- 80
		75 -- 86
		75 -- 87
		75 -- 88
		75 -- 91
		75 -- 93
		75 -- 94
		75 -- 96
		75 -- 97
		75 -- 98
		76 -- 77
		76 -- 78
		76 -- 79
		76 -- 80
		76 -- 88
		76 -- 91
		76 -- 93
		76 -- 94
		76 -- 95
		76 -- 96
		76 -- 98
		77 -- 78
		77 -- 79
		77 -- 81
		77 -- 82
		77 -- 83
		77 -- 85
		77 -- 86
		77 -- 87
		77 -- 88
		77 -- 89
		77 -- 90
		77 -- 92
		77 -- 93
		77 -- 94
		77 -- 95
		77 -- 96
		77 -- 97
		77 -- 98
		77 -- 99
		78 -- 79
		78 -- 80
		78 -- 81
		78 -- 82
		78 -- 83
		78 -- 86
		78 -- 88
		78 -- 90
		78 -- 92
		78 -- 94
		78 -- 95
		79 -- 82
		79 -- 83
		79 -- 84
		79 -- 87
		79 -- 90
		79 -- 93
		79 -- 95
		79 -- 96
		80 -- 81
		80 -- 82
		80 -- 84
		80 -- 85
		80 -- 86
		80 -- 88
		80 -- 89
		80 -- 90
		80 -- 91
		80 -- 95
		80 -- 96
		80 -- 97
		80 -- 99
		81 -- 82
		81 -- 87
		81 -- 89
		81 -- 91
		81 -- 94
		81 -- 95
		81 -- 96
		81 -- 97
		82 -- 85
		82 -- 86
		82 -- 90
		82 -- 91
		82 -- 92
		82 -- 94
		82 -- 95
		83 -- 85
		83 -- 87
		83 -- 92
		83 -- 98
		84 -- 86
		84 -- 94
		84 -- 90
		85 -- 86
		85 -- 88
		85 -- 91
		85 -- 92
		85 -- 96
		85 -- 98
		85 -- 99
		86 -- 87
		86 -- 88
		86 -- 89
		86 -- 93
		86 -- 95
		86 -- 97
		87 -- 88
		87 -- 93
		87 -- 94
		87 -- 98
		87 -- 99
		88 -- 89
		88 -- 90
		88 -- 92
		88 -- 95
		88 -- 96
		88 -- 98
		88 -- 99
		89 -- 99
		89 -- 92
		89 -- 96
		89 -- 91
		89 -- 93
		90 -- 93
		90 -- 95
		90 -- 98
		91 -- 92
		91 -- 93
		91 -- 94
		91 -- 95
		91 -- 97
		91 -- 98
		91 -- 99
		92 -- 93
		92 -- 94
		92 -- 96
		92 -- 99
		93 -- 95
		93 -- 96
		94 -- 95
		94 -- 96
		94 -- 97
		95 -- 96
		95 -- 97
		96 -- 97
		96 -- 99
		97 -- 98
		97 -- 99
}