50
107 146
223 196
187 281
228 298
280 99
154 65
8 297
272 111
141 14
172 228
70 45
135 33
256 166
157 193
123 267
186 161
156 261
268 130
131 212
230 172
1 131
168 94
115 218
62 25
235 82
184 297
82 2
118 285
182 171
260 150
60 132
21 206
259 293
233 186
7 283
171 109
189 177
266 18
68 253
251 229
128 197
30 29
161 248
217 176
70 6
288 9
297 189
38 226
152 40
297 33
0 2
0 35
0 38
0 6
0 23
0 25
0 41
0 43
0 28
0 44
0 15
1 48
1 35
1 6
1 38
1 7
1 45
1 16
1 3
1 20
1 24
1 25
1 30
2 25
2 8
2 41
2 45
2 30
2 47
3 48
3 34
3 21
3 7
3 26
3 44
3 37
4 32
4 24
4 21
4 8
4 41
4 44
5 48
5 33
5 35
5 6
5 8
5 11
5 12
5 43
5 14
5 31
6 33
6 32
6 7
6 40
6 9
6 42
6 46
6 16
6 17
6 19
6 20
6 22
6 24
6 26
6 29
7 48
7 33
7 9
7 14
8 32
8 33
8 43
8 42
8 9
8 10
8 11
8 16
8 18
8 19
8 21
8 29
8 37
9 32
9 17
9 19
9 43
9 29
10 35
10 37
10 38
10 39
10 11
10 12
10 15
10 17
10 25
10 26
10 31
11 33
11 36
11 38
11 41
11 14
11 47
11 17
11 19
11 46
11 26
11 27
11 29
12 40
12 28
12 13
12 31
13 17
13 33
13 23
13 46
13 25
13 27
13 30
13 47
14 43
14 38
14 41
14 15
14 48
14 19
14 25
14 27
14 37
14 31
15 33
15 34
15 36
15 49
15 38
15 32
15 43
15 45
15 17
16 48
16 40
16 20
16 37
16 33
16 26
16 39
16 29
17 43
17 39
17 40
17 44
17 22
17 24
17 26
18 32
18 20
18 21
18 38
18 39
18 25
18 45
19 33
19 34
19 20
19 46
19 22
19 23
19 25
19 26
19 30
20 36
20 38
20 33
20 40
20 39
20 47
20 21
20 25
20 29
20 31
21 32
21 33
21 38
21 39
21 42
21 47
21 48
21 22
21 28
21 30
22 27
22 28
23 33
23 41
23 26
23 27
24 49
24 40
24 36
24 26
24 47
25 38
25 40
25 44
25 26
25 29
25 42
26 33
26 48
26 41
26 27
27 33
27 36
27 46
28 32
28 49
28 44
28 38
28 37
29 34
29 44
30 39
30 42
30 45
30 31
31 39
31 43
31 42
32 34
32 39
32 44
32 36
33 48
34 48
34 35
34 39
35 48
38 47
39 40
39 41
39 46
39 42
40 46
41 43
41 42
41 47
42 46
43 49
43 44
43 45
44 49
44 45
45 46
46 48
47 48
