graph {
	graph [bb="0,0,248.36,345.11",
		outputorder=edgesfirst,
		overlap=prism,
		size="50,50!",
		start=3066
	];
	node [label="\N"];
	0	[height=0.5,
		pos="125.72,47.554",
		width=0.75];
	1	[height=0.5,
		pos="27,18",
		width=0.75];
	0 -- 1	[pos="101.07,40.173 85.988,35.659 66.767,29.905 51.685,25.39"];
	2	[height=0.5,
		pos="53.636,209.32",
		width=0.75];
	0 -- 2	[pos="118.01,64.866 104.21,95.839 75.433,160.41 61.514,191.64"];
	4	[height=0.5,
		pos="221.36,120.89",
		width=0.75];
	0 -- 4	[pos="143.71,61.348 160.81,74.458 186.38,94.065 203.45,107.15"];
	6	[height=0.5,
		pos="68.068,123.25",
		width=0.75];
	0 -- 6	[pos="113.5,63.608 103.78,76.368 90.241,94.14 80.476,106.96"];
	1 -- 6	[pos="33.967,35.855 41.564,55.327 53.647,86.294 61.204,105.66"];
	3	[height=0.5,
		pos="130.07,125.14",
		width=0.75];
	1 -- 3	[pos="41.768,33.35 61.362,53.717 95.753,89.464 115.33,109.82"];
	2 -- 6	[pos="56.697,191.07 59.163,176.36 62.61,155.8 65.061,141.18"];
	2 -- 3	[pos="67.656,193.88 81.362,178.79 102.12,155.92 115.88,140.77"];
	5	[height=0.5,
		pos="94.673,327.11",
		width=0.75];
	2 -- 5	[pos="59.78,226.96 67.516,249.16 80.731,287.09 88.487,309.36"];
	7	[height=0.5,
		pos="160.95,228.77",
		width=0.75];
	2 -- 7	[pos="79.889,214.08 96.518,217.09 117.95,220.98 134.6,223.99"];
	4 -- 6	[pos="194.31,121.3 166.37,121.73 123.04,122.4 95.108,122.84"];
	4 -- 7	[pos="211.66,138.22 200.32,158.47 181.68,191.76 170.43,211.84"];
	6 -- 7	[pos="81.773,138.82 99.334,158.77 129.6,193.16 147.19,213.14"];
	3 -- 4	[pos="157.46,123.86 169.12,123.32 182.68,122.69 194.31,122.15"];
	3 -- 7	[pos="135.45,143.19 141.12,162.21 149.99,191.98 155.63,210.93"];
	5 -- 7	[pos="105.92,310.43 118.18,292.24 137.68,263.3 149.87,245.21"];
}
