graph {
	graph [bb="0,0,303.87,247.03",
		outputorder=edgesfirst,
		overlap=prism,
		size="50,50!",
		start=9867
	];
	node [label="\N"];
	0	[height=0.5,
		pos="111.75,163.14",
		width=0.75];
	2	[height=0.5,
		pos="104.58,53.202",
		width=0.75];
	0 -- 2	[pos="110.57,144.98 109.24,124.61 107.1,91.762 105.77,71.382"];
	3	[height=0.5,
		pos="27,229.03",
		width=0.75];
	0 -- 3	[pos="93.778,177.11 79.298,188.37 59.052,204.11 44.657,215.3"];
	4	[height=0.5,
		pos="242.57,121.44",
		width=0.75];
	0 -- 4	[pos="136.36,155.29 159.75,147.84 194.72,136.69 218.07,129.24"];
	5	[height=0.5,
		pos="180.56,118.21",
		width=0.75];
	0 -- 5	[pos="131.29,150.38 140.66,144.26 151.87,136.95 161.22,130.84"];
	2 -- 5	[pos="121.44,67.629 134.03,78.402 151.17,93.059 163.75,103.82"];
	4 -- 5	[pos="215.55,120.03 212.94,119.89 210.29,119.76 207.68,119.62"];
	6	[height=0.5,
		pos="276.87,199.23",
		width=0.75];
	4 -- 6	[pos="250.35,139.09 256,151.91 263.62,169.17 269.23,181.91"];
	5 -- 6	[pos="197.34,132.32 214.91,147.1 242.34,170.19 259.96,185.01"];
	1	[height=0.5,
		pos="207.97,18",
		width=0.75];
	1 -- 2	[pos="183.73,26.253 167.14,31.903 145.23,39.362 128.67,45"];
	1 -- 4	[pos="213.99,36.017 220.35,55.002 230.29,84.718 236.61,103.62"];
	1 -- 5	[pos="203.07,35.915 198.08,54.156 190.39,82.265 185.42,100.45"];
}
