graph {
	graph [bb="0,0,209.34,279.61",
		outputorder=edgesfirst,
		overlap=prism,
		size="50,50!",
		start=5914
	];
	node [label="\N"];
	0	[height=0.5,
		pos="89.006,99.186",
		width=0.75];
	1	[height=0.5,
		pos="27,142.96",
		width=0.75];
	0 -- 1	[pos="70.402,112.32 62.554,117.86 53.437,124.3 45.591,129.84"];
	4	[height=0.5,
		pos="93.197,18",
		width=0.75];
	0 -- 4	[pos="89.936,81.168 90.626,67.807 91.563,49.663 92.255,36.248"];
	5	[height=0.5,
		pos="99.312,182.29",
		width=0.75];
	0 -- 5	[pos="91.242,117.22 92.971,131.16 95.353,150.36 97.08,164.29"];
	1 -- 5	[pos="48.305,154.55 57.637,159.63 68.567,165.57 77.91,170.65"];
	2	[height=0.5,
		pos="65.353,261.61",
		width=0.75];
	2 -- 5	[pos="72.89,244 78.517,230.86 86.174,212.98 91.797,199.84"];
	3	[height=0.5,
		pos="182.34,204.5",
		width=0.75];
	3 -- 5	[pos="156.97,197.72 146.67,194.96 134.8,191.79 124.52,189.03"];
}
