graph {
	graph [bb="0,0,662.48,558.24",
		outputorder=edgesfirst,
		overlap=prism,
		size="50,50!",
		start=261
	];
	node [label="\N"];
	0	[height=0.5,
		pos="524.48,354.07",
		width=0.75];
	16	[height=0.5,
		pos="635.48,415.76",
		width=0.75];
	0 -- 16	[pos="545.36,365.67 565.2,376.7 594.88,393.19 614.69,404.2"];
	1	[height=0.5,
		pos="370.18,240.64",
		width=0.75];
	0 -- 1	[pos="506.18,340.61 476.48,318.78 418.14,275.9 388.46,254.08"];
	18	[height=0.5,
		pos="341.06,353.8",
		width=0.75];
	0 -- 18	[pos="497.42,354.03 462.74,353.98 402.97,353.89 368.24,353.84"];
	4	[height=0.5,
		pos="439.12,540.24",
		width=0.75];
	0 -- 4	[pos="516.45,371.58 500.14,407.15 463.31,487.49 447.07,522.91"];
	8	[height=0.5,
		pos="480.71,496.24",
		width=0.75];
	0 -- 8	[pos="519.03,371.78 510.64,399.03 494.66,450.92 486.24,478.3"];
	12	[height=0.5,
		pos="226.41,319.9",
		width=0.75];
	0 -- 12	[pos="497.77,351 441.18,344.52 309.8,329.46 253.18,322.97"];
	14	[height=0.5,
		pos="421.08,310.94",
		width=0.75];
	0 -- 14	[pos="501.53,344.5 484.52,337.4 461.41,327.76 444.32,320.64"];
	15	[height=0.5,
		pos="534.31,136.24",
		width=0.75];
	0 -- 15	[pos="525.3,335.87 527.16,294.76 531.65,195.14 533.5,154.23"];
	1 -- 12	[pos="349.27,252.17 322.02,267.19 274.61,293.33 247.34,308.36"];
	17	[height=0.5,
		pos="325.76,454.57",
		width=0.75];
	1 -- 17	[pos="366.46,258.51 358.1,298.78 337.87,396.24 329.49,436.6"];
	2	[height=0.5,
		pos="198.96,216.07",
		width=0.75];
	1 -- 2	[pos="343.42,236.8 311.26,232.19 257.6,224.49 225.52,219.88"];
	7	[height=0.5,
		pos="281.27,259.42",
		width=0.75];
	1 -- 7	[pos="343.98,246.17 332.41,248.62 318.83,251.49 307.28,253.93"];
	10	[height=0.5,
		pos="220.18,406.44",
		width=0.75];
	1 -- 10	[pos="356.06,256.24 327.48,287.84 263.01,359.1 234.36,390.76"];
	11	[height=0.5,
		pos="547.68,284.53",
		width=0.75];
	1 -- 11	[pos="395.61,246.93 429.35,255.27 488.57,269.92 522.29,278.25"];
	4 -- 18	[pos="430.07,523.04 411.39,487.52 368.75,406.45 350.09,370.97"];
	4 -- 14	[pos="437.71,522.25 434.34,479.49 425.9,372.16 422.51,329.17"];
	4 -- 17	[pos="421.16,526.67 399.93,510.63 364.83,484.1 343.64,468.08"];
	5	[height=0.5,
		pos="432.36,390.42",
		width=0.75];
	4 -- 5	[pos="438.31,522.17 437.01,493.37 434.48,437.4 433.18,408.56"];
	8 -- 16	[pos="502.23,485.05 531.8,469.67 584.67,442.18 614.14,426.85"];
	8 -- 18	[pos="465.77,480.99 438.89,453.58 382.7,396.27 355.9,368.94"];
	8 -- 17	[pos="455.47,489.45 426.66,481.7 379.8,469.1 350.99,461.35"];
	8 -- 11	[pos="486.31,478.55 498.91,438.7 529.42,342.26 542.05,302.31"];
	13	[height=0.5,
		pos="211.7,491.96",
		width=0.75];
	8 -- 13	[pos="453.69,495.81 402.12,494.99 290.26,493.21 238.71,492.39"];
	12 -- 18	[pos="251.29,327.26 270.52,332.94 297.02,340.78 316.24,346.46"];
	12 -- 17	[pos="238.4,336.15 257.49,362.03 294.61,412.35 313.73,438.27"];
	19	[height=0.5,
		pos="356.58,153.4",
		width=0.75];
	12 -- 19	[pos="238.89,303.94 263.71,272.19 319,201.46 343.94,169.56"];
	12 -- 13	[pos="224.87,337.99 222.04,371.04 216.08,440.8 213.25,473.86"];
	14 -- 16	[pos="443.21,321.77 484.4,341.9 572.36,384.9 613.46,404.99"];
	14 -- 19	[pos="413.93,293.48 401.53,263.2 376.18,201.27 363.76,170.94"];
	2 -- 18	[pos="214.44,231.07 241.77,257.57 298.28,312.34 325.6,338.82"];
	2 -- 14	[pos="221.89,225.87 264.57,244.09 355.69,283.01 398.27,301.2"];
	2 -- 17	[pos="208.08,233.22 231.47,277.23 293.42,393.74 316.72,437.57"];
	2 -- 7	[pos="220.16,227.24 232.35,233.66 247.63,241.7 259.86,248.15"];
	2 -- 19	[pos="222.22,206.82 252.02,194.97 303.38,174.55 333.22,162.68"];
	3	[height=0.5,
		pos="231.31,18",
		width=0.75];
	2 -- 3	[pos="201.89,198.14 208.03,160.53 222.21,73.733 228.36,36.029"];
	6	[height=0.5,
		pos="27,351.68",
		width=0.75];
	2 -- 6	[pos="181.52,229.82 148.57,255.81 77.475,311.87 44.481,337.89"];
	7 -- 14	[pos="304.99,268.16 330.69,277.64 371.49,292.67 397.24,302.16"];
	7 -- 15	[pos="303.28,248.71 351.14,225.41 464.19,170.37 512.17,147.02"];
	7 -- 10	[pos="274.02,276.86 262.26,305.16 239.17,360.74 227.42,389.02"];
	7 -- 13	[pos="275.93,277.28 262.98,320.57 230.03,430.69 217.06,474.04"];
	10 -- 14	[pos="242.45,395.85 281.17,377.45 360.44,339.77 399.02,321.43"];
	10 -- 17	[pos="242.57,416.65 260.49,424.81 285.49,436.21 303.4,444.38"];
	10 -- 13	[pos="218.38,424.58 216.94,439.09 214.94,459.34 213.5,473.85"];
	11 -- 16	[pos="558.8,301.15 575.68,326.39 607.61,374.11 624.45,399.27"];
	11 -- 17	[pos="529.89,298.16 488.34,330 385.26,408.98 343.63,440.88"];
	11 -- 19	[pos="528.65,271.48 492.02,246.34 412.09,191.49 375.52,166.4"];
	3 -- 19	[pos="245.68,33.532 269.84,59.649 318.32,112.05 342.37,138.05"];
	9	[height=0.5,
		pos="408.34,42.008",
		width=0.75];
	3 -- 9	[pos="257.81,21.594 291.19,26.12 348.19,33.852 381.65,38.39"];
	6 -- 13	[pos="45.046,365.39 80.448,392.27 158.61,451.64 193.85,478.41"];
	9 -- 18	[pos="404.43,60.12 392.54,115.23 356.89,280.47 344.98,335.64"];
	9 -- 15	[pos="426.39,55.51 450.33,73.424 492.36,104.86 516.29,122.77"];
	5 -- 18	[pos="408.85,380.99 395.22,375.53 378.11,368.66 364.49,363.2"];
	5 -- 8	[pos="440.34,407.9 449.3,427.5 463.75,459.12 472.71,478.74"];
	5 -- 17	[pos="412.31,402.49 393.37,413.89 365.11,430.89 346.08,442.34"];
	5 -- 7	[pos="415.61,375.9 386.57,350.72 327.19,299.23 298.09,274.01"];
	5 -- 10	[pos="405.48,392.45 364.78,395.52 287.94,401.32 247.17,404.4"];
	5 -- 11	[pos="448.39,375.7 470.42,355.47 509.82,319.29 531.78,299.13"];
	5 -- 19	[pos="426.66,372.61 412.58,328.57 376.27,215.01 362.24,171.1"];
	13 -- 18	[pos="226.04,476.65 250.91,450.09 301.75,395.79 326.66,369.18"];
}
