graph {
	graph [bb="0,0,613,538.45",
		outputorder=edgesfirst,
		overlap=prism,
		size="50,50!",
		start=3640
	];
	node [label="\N"];
	0	[height=0.5,
		pos="401,512.67",
		width=0.75];
	17	[height=0.5,
		pos="329.64,256.29",
		width=0.75];
	0 -- 17	[pos="395.98,494.64 382.88,447.57 347.75,321.35 334.65,274.3"];
	2	[height=0.5,
		pos="586,323.28",
		width=0.75];
	0 -- 2	[pos="415.83,497.49 450.47,462.03 536.4,374.06 571.11,338.53"];
	4	[height=0.5,
		pos="349.38,313.98",
		width=0.75];
	0 -- 4	[pos="396.33,494.69 386.5,456.86 363.79,369.45 354.01,331.78"];
	7	[height=0.5,
		pos="292.94,378.09",
		width=0.75];
	0 -- 7	[pos="388.18,496.7 367.38,470.8 326.53,419.93 305.74,394.04"];
	24	[height=0.5,
		pos="192.83,324.49",
		width=0.75];
	0 -- 24	[pos="384.67,497.9 345.75,462.73 247.93,374.3 209.09,339.19"];
	20	[height=0.5,
		pos="492.25,313.93",
		width=0.75];
	0 -- 20	[pos="408.94,495.38 426.2,457.79 466.96,369 484.26,331.32"];
	11	[height=0.5,
		pos="190.4,520.45",
		width=0.75];
	0 -- 11	[pos="373.9,513.67 333.46,515.16 257.77,517.96 217.39,519.45"];
	17 -- 24	[pos="307.96,267.1 282.49,279.8 240.48,300.74 214.86,313.51"];
	17 -- 20	[pos="353.63,264.8 384.37,275.7 437.36,294.48 468.15,305.39"];
	22	[height=0.5,
		pos="355.96,183.25",
		width=0.75];
	17 -- 22	[pos="336.01,238.61 340.15,227.13 345.52,212.22 349.64,200.77"];
	21	[height=0.5,
		pos="269.58,100.02",
		width=0.75];
	17 -- 21	[pos="322.86,238.67 311.33,208.66 288,147.95 276.42,117.82"];
	19	[height=0.5,
		pos="207.56,86.025",
		width=0.75];
	17 -- 19	[pos="317.93,239.97 294.6,207.42 242.53,134.81 219.23,102.3"];
	18	[height=0.5,
		pos="130.82,368.13",
		width=0.75];
	17 -- 18	[pos="308.73,268.05 270.55,289.53 189.94,334.87 151.74,356.36"];
	2 -- 4	[pos="558.86,322.21 513.34,320.42 422.13,316.84 376.57,315.05"];
	2 -- 22	[pos="565.99,311.1 522.48,284.61 419.7,222.05 376.09,195.5"];
	12	[height=0.5,
		pos="449.53,432.68",
		width=0.75];
	2 -- 12	[pos="568.72,337.13 542.61,358.06 493.38,397.52 467.1,418.59"];
	23	[height=0.5,
		pos="542.45,102.03",
		width=0.75];
	2 -- 23	[pos="582.44,305.17 574.25,263.58 554.18,161.61 546,120.08"];
	13	[height=0.5,
		pos="427.51,193.46",
		width=0.75];
	2 -- 13	[pos="568.74,309.14 538.25,284.17 475.23,232.54 444.76,207.58"];
	4 -- 17	[pos="343.35,296.36 340.94,289.34 338.18,281.26 335.77,274.21"];
	4 -- 7	[pos="335.43,329.83 326.68,339.77 315.45,352.53 306.73,362.43"];
	6	[height=0.5,
		pos="122.22,92.802",
		width=0.75];
	4 -- 6	[pos="334.12,299.13 292.84,258.93 179.26,148.34 137.71,107.88"];
	10	[height=0.5,
		pos="246.57,273.44",
		width=0.75];
	4 -- 10	[pos="326.05,304.78 309.34,298.2 286.93,289.36 270.16,282.75"];
	4 -- 12	[pos="362.89,329.99 382.11,352.77 417.13,394.28 436.23,416.92"];
	4 -- 21	[pos="342.85,296.47 327.89,256.35 291.25,158.13 276.2,117.77"];
	15	[height=0.5,
		pos="333.93,78.04",
		width=0.75];
	4 -- 15	[pos="348.19,295.86 345.32,251.94 338,140.21 335.12,96.224"];
	8	[height=0.5,
		pos="386.34,428.03",
		width=0.75];
	4 -- 8	[pos="355.16,331.8 362.1,353.23 373.68,388.96 380.61,410.33"];
	4 -- 18	[pos="323.88,320.3 281.77,330.73 198.17,351.44 156.16,361.85"];
	7 -- 17	[pos="298.27,360.38 305.23,337.29 317.33,297.13 324.29,274.03"];
	7 -- 10	[pos="285.28,360.81 276.69,341.42 262.83,310.15 254.24,290.75"];
	7 -- 12	[pos="317.06,386.5 346.49,396.76 395.94,414 425.37,424.26"];
	7 -- 21	[pos="291.4,359.85 287.17,309.46 275.35,168.8 271.11,118.34"];
	7 -- 13	[pos="304.88,361.71 330.42,326.67 390.08,244.81 415.6,209.81"];
	7 -- 19	[pos="287.72,360.26 272.48,308.12 228.11,156.31 212.81,103.99"];
	7 -- 8	[pos="314.13,389.42 329.42,397.6 349.96,408.58 365.23,416.74"];
	7 -- 18	[pos="265.8,376.43 235.79,374.58 187.72,371.63 157.78,369.78"];
	9	[height=0.5,
		pos="508.89,243.21",
		width=0.75];
	7 -- 9	[pos="312.87,365.65 354.01,339.95 447.91,281.3 489.01,255.63"];
	20 -- 22	[pos="476.61,298.94 450.32,273.73 397.58,223.15 371.41,198.06"];
	11 -- 24	[pos="190.62,502.36 191.08,465.03 192.14,379.83 192.61,342.53"];
	11 -- 12	[pos="214.77,512.19 264.29,495.42 376.1,457.55 425.4,440.85"];
	16	[height=0.5,
		pos="244.96,424.94",
		width=0.75];
	11 -- 16	[pos="200.15,503.37 210.08,485.99 225.39,459.2 235.29,441.86"];
	11 -- 18	[pos="183.56,502.97 172.13,473.75 149.26,415.27 137.76,385.87"];
	1	[height=0.5,
		pos="197.42,201.63",
		width=0.75];
	1 -- 17	[pos="220.45,211.15 244.57,221.12 282.24,236.7 306.42,246.7"];
	1 -- 7	[pos="206.75,218.87 225.06,252.69 265.48,327.37 283.71,361.04"];
	1 -- 11	[pos="197.02,219.68 195.79,275.67 192.04,445.94 190.8,502.19"];
	1 -- 22	[pos="224.31,198.51 253.55,195.12 300.01,189.73 329.2,186.35"];
	5	[height=0.5,
		pos="392.23,18",
		width=0.75];
	1 -- 5	[pos="213.03,186.91 249.51,152.53 340,67.239 376.55,32.787"];
	1 -- 6	[pos="186,185.1 171.86,164.65 147.93,130.01 133.74,109.49"];
	1 -- 10	[pos="208.82,218.29 216.76,229.89 227.3,245.3 235.23,256.88"];
	1 -- 12	[pos="213.57,216.43 259.11,258.17 388.13,376.42 433.51,418"];
	1 -- 21	[pos="209.01,185.3 222.48,166.34 244.56,135.25 258.01,116.31"];
	14	[height=0.5,
		pos="115.78,214.78",
		width=0.75];
	1 -- 14	[pos="171.14,205.86 161.91,207.35 151.54,209.02 142.29,210.51"];
	1 -- 15	[pos="213.61,186.97 239.89,163.18 291.49,116.46 317.75,92.683"];
	22 -- 24	[pos="339.42,197.57 308.15,224.64 240.71,283.03 209.41,310.14"];
	5 -- 17	[pos="387.53,35.911 375.9,80.18 345.91,194.35 334.31,238.5"];
	5 -- 20	[pos="398.19,35.626 415.94,88.135 468.32,243.15 486.19,296.02"];
	5 -- 22	[pos="388.28,35.999 381.31,67.786 366.88,133.5 359.9,165.27"];
	5 -- 6	[pos="366.83,25.037 315.24,39.33 198.73,71.607 147.35,85.838"];
	5 -- 21	[pos="373.07,30.816 350.16,46.135 312.04,71.627 289.01,87.026"];
	5 -- 15	[pos="377.52,33.151 368.75,42.183 357.64,53.617 348.84,62.685"];
	5 -- 13	[pos="395.88,36.116 402.66,69.825 417.13,141.8 423.89,175.44"];
	6 -- 10	[pos="133.69,109.47 157.44,143.97 211.73,222.83 235.3,257.07"];
	6 -- 21	[pos="149.24,94.127 175.75,95.425 215.94,97.395 242.47,98.695"];
	6 -- 14	[pos="121.27,110.8 120.05,133.86 117.95,173.61 116.73,196.7"];
	6 -- 15	[pos="149.46,90.902 190.11,88.068 266.2,82.762 306.79,79.932"];
	6 -- 18	[pos="122.78,110.87 124.34,160.75 128.7,300.03 130.26,350"];
	10 -- 24	[pos="231.03,288.21 223.96,294.92 215.61,302.85 208.53,309.58"];
	10 -- 11	[pos="242.44,291.61 232.03,337.39 204.8,457.13 194.46,502.59"];
	10 -- 22	[pos="263.66,259.35 284.09,242.5 318.09,214.47 338.63,197.54"];
	10 -- 15	[pos="254.32,256.1 270.9,219.02 309.63,132.39 326.19,95.341"];
	10 -- 13	[pos="269.12,263.47 303.89,248.1 370.2,218.79 404.96,203.43"];
	10 -- 16	[pos="246.38,291.72 246.07,320.83 245.47,377.44 245.16,406.6"];
	10 -- 18	[pos="229.49,287.41 207.61,305.32 169.89,336.17 147.97,354.1"];
	12 -- 17	[pos="438.25,416.08 415.34,382.38 363.61,306.27 340.8,272.71"];
	12 -- 13	[pos="447.87,414.7 443.79,370.36 433.29,256.2 429.19,211.65"];
	12 -- 16	[pos="422.36,431.65 383.24,430.17 311.43,427.45 272.24,425.97"];
	21 -- 24	[pos="263.55,117.64 249.24,159.5 213.32,264.56 198.93,306.65"];
	14 -- 17	[pos="142,219.87 183.16,227.86 262.45,243.25 303.53,251.23"];
	14 -- 22	[pos="142.4,211.28 188.57,205.22 282.97,192.83 329.22,186.76"];
	14 -- 21	[pos="134.03,201.16 163.62,179.08 221.77,135.69 251.35,113.62"];
	14 -- 15	[pos="135.52,202.4 176.95,176.43 272.54,116.51 314.07,90.486"];
	14 -- 16	[pos="126.13,231.62 150.32,270.97 210.32,368.58 234.56,408.01"];
	14 -- 19	[pos="127.4,198.47 144.96,173.84 178.07,127.4 195.74,102.61"];
	14 -- 18	[pos="117.56,232.97 120.46,262.48 126.15,320.46 129.04,349.96"];
	15 -- 24	[pos="324.23,94.98 298.45,140 228.45,262.28 202.6,307.44"];
	15 -- 20	[pos="345.06,94.627 374.13,137.94 452.07,254.07 481.12,297.36"];
	15 -- 22	[pos="337.66,95.887 341.72,115.23 348.14,145.93 352.2,165.31"];
	15 -- 21	[pos="309.6,86.351 304.47,88.101 299.07,89.949 293.94,91.7"];
	15 -- 23	[pos="360.76,81.127 400.8,85.734 475.74,94.356 515.72,98.956"];
	15 -- 19	[pos="306.82,79.753 285.5,81.1 255.93,82.968 234.62,84.315"];
	13 -- 17	[pos="407.71,206.17 390.73,217.07 366.39,232.7 349.41,243.6"];
	13 -- 24	[pos="406.69,205.09 362.15,229.95 258.1,288.05 213.61,312.89"];
	13 -- 21	[pos="407.19,181.43 376.86,163.49 320.1,129.91 289.82,112"];
	13 -- 15	[pos="414.5,177.41 396.62,155.36 364.65,115.93 346.83,93.952"];
	13 -- 23	[pos="444.97,179.57 466.57,162.39 503.15,133.29 524.83,116.05"];
	13 -- 16	[pos="414.68,209.73 381.08,252.34 290.85,366.75 257.54,408.99"];
	13 -- 19	[pos="405.62,182.76 363.46,162.17 271.46,117.23 229.37,96.676"];
	3	[height=0.5,
		pos="27,281.16",
		width=0.75];
	3 -- 4	[pos="53.932,283.9 114.61,290.08 261.47,305.03 322.3,311.23"];
	3 -- 24	[pos="52.186,287.74 83.446,295.91 136.44,309.76 167.68,317.92"];
	3 -- 6	[pos="35.787,263.78 53.972,227.8 95.539,145.57 113.59,109.87"];
	3 -- 14	[pos="45.395,267.4 60.733,255.94 82.465,239.69 97.711,228.29"];
	3 -- 16	[pos="46.343,293.92 87.705,321.2 184.34,384.95 225.66,412.21"];
	3 -- 19	[pos="41.471,265.52 75.363,228.89 159.56,137.9 193.27,101.47"];
	16 -- 22	[pos="252.94,407.56 273.42,362.96 327.65,244.89 348.05,200.47"];
	16 -- 18	[pos="223.22,414.12 202.92,404.01 172.76,389 152.48,378.91"];
	19 -- 24	[pos="206.43,104.34 203.68,148.84 196.68,262.22 193.95,306.44"];
	19 -- 23	[pos="234.68,87.322 297.43,90.321 452.07,97.712 515.07,100.72"];
	8 -- 17	[pos="380.49,410.29 369.59,377.3 346.33,306.85 335.46,273.93"];
	8 -- 24	[pos="365.26,416.75 328.14,396.89 251.49,355.88 214.18,335.92"];
	8 -- 20	[pos="400.62,412.64 420.84,390.86 457.58,351.28 477.85,329.44"];
	8 -- 10	[pos="372.17,412.35 345.38,382.72 287.6,318.82 260.78,289.16"];
	8 -- 14	[pos="368.59,414.03 319.45,375.3 182.04,267 133.24,228.54"];
	8 -- 23	[pos="394.73,410.5 421.9,353.76 507.25,175.54 534.2,119.25"];
	18 -- 20	[pos="157.4,364.14 224.24,354.12 398.75,327.95 465.63,317.92"];
	18 -- 22	[pos="148.12,353.93 190.13,319.43 297.16,231.53 338.92,197.24"];
	9 -- 17	[pos="481.67,245.2 447.78,247.67 390.26,251.87 356.53,254.33"];
	9 -- 20	[pos="504.69,261.05 502.19,271.69 499.02,285.16 496.5,295.84"];
	9 -- 10	[pos="481.81,246.33 431.41,252.14 323.8,264.54 273.51,270.34"];
	9 -- 12	[pos="503.31,261.03 491.96,297.24 466.35,378.99 455.05,415.04"];
	9 -- 21	[pos="488.49,231 443.28,203.95 335.09,139.22 289.93,112.2"];
	9 -- 23	[pos="513.14,225.33 519.56,198.32 531.67,147.4 538.13,120.21"];
	9 -- 13	[pos="488.78,230.91 476.26,223.26 460.21,213.45 447.68,205.79"];
	9 -- 16	[pos="489.91,256.28 441.21,289.81 312.28,378.59 263.77,411.99"];
}
