graph {
	graph [bb="0,0,305.33,125.66",
		outputorder=edgesfirst,
		overlap=prism,
		size="50,50!",
		start=123
	];
	node [label="\N"];
	0	[height=0.5,
		pos="27,62.873",
		width=0.75];
	2	[height=0.5,
		pos="90.255,18.787",
		width=0.75];
	0 -- 2	[pos="45.979,49.646 53.984,44.066 63.285,37.584 71.29,32.005"];
	3	[height=0.5,
		pos="122.15,62.795",
		width=0.75];
	0 -- 3	[pos="54.012,62.851 66.868,62.84 82.206,62.827 95.071,62.817"];
	5	[height=0.5,
		pos="90.259,106.8",
		width=0.75];
	0 -- 5	[pos="45.98,76.052 53.986,81.612 63.288,88.07 71.293,93.629"];
	2 -- 3	[pos="102.13,35.174 104.82,38.888 107.68,42.832 110.37,46.541"];
	2 -- 5	[pos="90.256,37.023 90.256,52.128 90.257,73.488 90.258,88.586"];
	4	[height=0.5,
		pos="201.12,33.767",
		width=0.75];
	2 -- 4	[pos="116.81,22.375 134.23,24.729 156.94,27.797 174.39,30.156"];
	3 -- 5	[pos="110.28,79.18 107.58,82.894 104.73,86.837 102.04,90.546"];
	3 -- 4	[pos="145.84,54.085 155.84,50.411 167.45,46.143 177.44,42.47"];
	1	[height=0.5,
		pos="201.11,91.872",
		width=0.75];
	1 -- 3	[pos="177.42,83.148 167.42,79.468 155.82,75.192 145.82,71.513"];
	1 -- 5	[pos="174.56,95.448 157.14,97.794 134.43,100.85 116.98,103.2"];
	1 -- 4	[pos="201.11,73.806 201.11,66.877 201.11,58.969 201.11,52.022"];
	6	[height=0.5,
		pos="278.33,107.66",
		width=0.75];
	1 -- 6	[pos="227.25,97.217 235.39,98.88 244.36,100.71 252.47,102.37"];
	7	[height=0.5,
		pos="278.32,18",
		width=0.75];
	1 -- 7	[pos="216.73,76.923 230.13,64.107 249.33,45.737 262.72,32.927"];
	4 -- 6	[pos="216.74,48.72 230.14,61.54 249.34,79.914 262.73,92.727"];
	4 -- 7	[pos="227.26,28.429 235.39,26.767 244.36,24.937 252.47,23.279"];
}
graph {
	graph [bb="0,0,305.61,125.7",
		outputorder=edgesfirst,
		overlap=prism,
		size="50,50!",
		start=123
	];
	node [label="\N"];
	0	[height=0.5,
		pos="278.61,62.855",
		width=0.75];
	2	[height=0.5,
		pos="215.23,18.835",
		width=0.75];
	0 -- 2	[pos="259.59,49.648 251.57,44.076 242.25,37.604 234.23,32.033"];
	3	[height=0.5,
		pos="183.34,62.84",
		width=0.75];
	0 -- 3	[pos="251.56,62.851 238.69,62.849 223.33,62.846 210.45,62.844"];
	5	[height=0.5,
		pos="215.21,106.93",
		width=0.75];
	0 -- 5	[pos="259.59,76.08 251.56,81.658 242.24,88.139 234.22,93.717"];
	2 -- 3	[pos="203.35,35.221 200.66,38.935 197.8,42.878 195.12,46.587"];
	2 -- 5	[pos="215.22,37.089 215.22,52.209 215.22,73.588 215.21,88.702"];
	4	[height=0.5,
		pos="104.34,33.792",
		width=0.75];
	2 -- 4	[pos="188.67,22.418 171.24,24.769 148.53,27.832 131.07,30.187"];
	3 -- 5	[pos="195.21,79.258 197.9,82.98 200.75,86.931 203.44,90.647"];
	3 -- 4	[pos="159.64,54.125 149.64,50.448 138.02,46.177 128.02,42.501"];
	1	[height=0.5,
		pos="104.27,91.884",
		width=0.75];
	1 -- 3	[pos="128,83.17 138,79.494 149.63,75.223 159.63,71.548"];
	1 -- 5	[pos="130.85,95.489 148.28,97.854 171,100.94 188.47,103.3"];
	1 -- 4	[pos="104.29,73.822 104.3,66.894 104.31,58.989 104.32,52.044"];
	6	[height=0.5,
		pos="27.069,18",
		width=0.75];
	1 -- 6	[pos="88.651,76.933 75.256,64.114 56.058,45.742 42.67,32.929"];
	7	[height=0.5,
		pos="27,107.7",
		width=0.75];
	1 -- 7	[pos="78.113,97.24 69.969,98.907 60.997,100.74 52.872,102.41"];
	4 -- 6	[pos="78.179,28.446 70.035,26.781 61.063,24.948 52.94,23.287"];
	4 -- 7	[pos="88.688,48.749 75.27,61.572 56.039,79.951 42.627,92.768"];
}
