graph {
		0 -- 20
		0 -- 23
		0 -- 27
		0 -- 30
		0 -- 31
		0 -- 6
		0 -- 33
		0 -- 36
		0 -- 37
		0 -- 38
		0 -- 39
		0 -- 40
		0 -- 41
		0 -- 43
		0 -- 45
		0 -- 47
		0 -- 17
		0 -- 48
		0 -- 51
		1 -- 2
		1 -- 3
		1 -- 53
		1 -- 54
		1 -- 55
		1 -- 56
		1 -- 60
		1 -- 64
		1 -- 66
		1 -- 67
		1 -- 12
		1 -- 71
		1 -- 75
		1 -- 76
		1 -- 16
		1 -- 79
		1 -- 18
		1 -- 82
		2 -- 84
		2 -- 4
		2 -- 85
		2 -- 87
		2 -- 7
		2 -- 88
		2 -- 89
		2 -- 93
		2 -- 97
		2 -- 101
		2 -- 13
		2 -- 104
		2 -- 15
		2 -- 16
		2 -- 105
		2 -- 106
		2 -- 110
		3 -- 113
		3 -- 115
		3 -- 117
		3 -- 121
		3 -- 8
		3 -- 125
		3 -- 129
		3 -- 132
		3 -- 12
		3 -- 135
		3 -- 138
		3 -- 140
		3 -- 16
		3 -- 143
		3 -- 145
		3 -- 149
		4 -- 153
		4 -- 154
		4 -- 158
		4 -- 159
		4 -- 9
		4 -- 162
		4 -- 166
		4 -- 170
		4 -- 172
		4 -- 176
		4 -- 177
		4 -- 179
		4 -- 183
		4 -- 185
		4 -- 187
		5 -- 188
		5 -- 189
		5 -- 192
		5 -- 193
		5 -- 197
		5 -- 201
		5 -- 204
		5 -- 208
		5 -- 14
		5 -- 210
		5 -- 212
		5 -- 215
		5 -- 18
		5 -- 217
		6 -- 219
		6 -- 222
		6 -- 225
		6 -- 229
		6 -- 232
		6 -- 12
		6 -- 234
		6 -- 14
		6 -- 236
		6 -- 238
		6 -- 17
		6 -- 242
		6 -- 246
		7 -- 247
		7 -- 248
		7 -- 250
		7 -- 11
		7 -- 253
		7 -- 257
		7 -- 260
		7 -- 263
		7 -- 264
		7 -- 265
		7 -- 267
		7 -- 19
		8 -- 269
		8 -- 273
		8 -- 277
		8 -- 278
		8 -- 279
		8 -- 282
		8 -- 15
		8 -- 284
		8 -- 287
		8 -- 291
		8 -- 292
		9 -- 10
		9 -- 11
		9 -- 294
		9 -- 296
		9 -- 298
		9 -- 302
		9 -- 304
		9 -- 307
		9 -- 18
		9 -- 311
		10 -- 313
		10 -- 314
		10 -- 316
		10 -- 317
		10 -- 320
		10 -- 323
		10 -- 325
		10 -- 326
		10 -- 329
		11 -- 332
		11 -- 13
		11 -- 333
		11 -- 335
		11 -- 338
		11 -- 339
		11 -- 340
		11 -- 19
		12 -- 13
		12 -- 14
		12 -- 343
		12 -- 344
		12 -- 17
		12 -- 348
		12 -- 349
		13 -- 352
		13 -- 15
		13 -- 356
		13 -- 359
		13 -- 18
		13 -- 363
		14 -- 365
		14 -- 367
		14 -- 370
		14 -- 374
		14 -- 378
		15 -- 16
		15 -- 380
		15 -- 382
		15 -- 384
		16 -- 385
		16 -- 18
		16 -- 386
		17 -- 388
		17 -- 19
		18 -- 389
		20 -- 21
		21 -- 22
		1 -- 22
		23 -- 24
		24 -- 25
		25 -- 26
		2 -- 26
		27 -- 28
		28 -- 29
		3 -- 29
		4 -- 30
		31 -- 32
		5 -- 32
		33 -- 34
		34 -- 35
		7 -- 35
		8 -- 36
		9 -- 37
		10 -- 38
		11 -- 39
		12 -- 40
		41 -- 42
		13 -- 42
		43 -- 44
		14 -- 44
		45 -- 46
		15 -- 46
		16 -- 47
		48 -- 49
		49 -- 50
		18 -- 50
		51 -- 52
		19 -- 52
		4 -- 53
		5 -- 54
		6 -- 55
		56 -- 57
		57 -- 58
		58 -- 59
		7 -- 59
		60 -- 61
		61 -- 62
		62 -- 63
		8 -- 63
		64 -- 65
		9 -- 65
		10 -- 66
		67 -- 68
		68 -- 69
		69 -- 70
		11 -- 70
		71 -- 72
		72 -- 73
		73 -- 74
		13 -- 74
		14 -- 75
		76 -- 77
		77 -- 78
		15 -- 78
		79 -- 80
		80 -- 81
		17 -- 81
		82 -- 83
		19 -- 83
		3 -- 84
		85 -- 86
		5 -- 86
		6 -- 87
		8 -- 88
		89 -- 90
		90 -- 91
		91 -- 92
		9 -- 92
		93 -- 94
		94 -- 95
		95 -- 96
		10 -- 96
		97 -- 98
		98 -- 99
		99 -- 100
		11 -- 100
		101 -- 102
		102 -- 103
		12 -- 103
		14 -- 104
		17 -- 105
		106 -- 107
		107 -- 108
		108 -- 109
		18 -- 109
		110 -- 111
		111 -- 112
		19 -- 112
		113 -- 114
		4 -- 114
		115 -- 116
		5 -- 116
		117 -- 118
		118 -- 119
		119 -- 120
		6 -- 120
		121 -- 122
		122 -- 123
		123 -- 124
		7 -- 124
		125 -- 126
		126 -- 127
		127 -- 128
		9 -- 128
		129 -- 130
		130 -- 131
		10 -- 131
		132 -- 133
		133 -- 134
		11 -- 134
		135 -- 136
		136 -- 137
		13 -- 137
		138 -- 139
		14 -- 139
		140 -- 141
		141 -- 142
		15 -- 142
		143 -- 144
		17 -- 144
		145 -- 146
		146 -- 147
		147 -- 148
		18 -- 148
		149 -- 150
		150 -- 151
		151 -- 152
		19 -- 152
		5 -- 153
		154 -- 155
		155 -- 156
		156 -- 157
		6 -- 157
		7 -- 158
		159 -- 160
		160 -- 161
		8 -- 161
		162 -- 163
		163 -- 164
		164 -- 165
		10 -- 165
		166 -- 167
		167 -- 168
		168 -- 169
		11 -- 169
		170 -- 171
		12 -- 171
		172 -- 173
		173 -- 174
		174 -- 175
		13 -- 175
		14 -- 176
		177 -- 178
		15 -- 178
		179 -- 180
		180 -- 181
		181 -- 182
		16 -- 182
		183 -- 184
		17 -- 184
		185 -- 186
		18 -- 186
		19 -- 187
		6 -- 188
		189 -- 190
		190 -- 191
		7 -- 191
		8 -- 192
		193 -- 194
		194 -- 195
		195 -- 196
		9 -- 196
		197 -- 198
		198 -- 199
		199 -- 200
		10 -- 200
		201 -- 202
		202 -- 203
		11 -- 203
		204 -- 205
		205 -- 206
		206 -- 207
		12 -- 207
		208 -- 209
		13 -- 209
		210 -- 211
		15 -- 211
		212 -- 213
		213 -- 214
		16 -- 214
		215 -- 216
		17 -- 216
		217 -- 218
		19 -- 218
		219 -- 220
		220 -- 221
		7 -- 221
		222 -- 223
		223 -- 224
		8 -- 224
		225 -- 226
		226 -- 227
		227 -- 228
		9 -- 228
		229 -- 230
		230 -- 231
		10 -- 231
		232 -- 233
		11 -- 233
		234 -- 235
		13 -- 235
		236 -- 237
		15 -- 237
		238 -- 239
		239 -- 240
		240 -- 241
		16 -- 241
		242 -- 243
		243 -- 244
		244 -- 245
		18 -- 245
		19 -- 246
		8 -- 247
		248 -- 249
		9 -- 249
		250 -- 251
		251 -- 252
		10 -- 252
		253 -- 254
		254 -- 255
		255 -- 256
		12 -- 256
		257 -- 258
		258 -- 259
		13 -- 259
		260 -- 261
		261 -- 262
		14 -- 262
		15 -- 263
		16 -- 264
		265 -- 266
		17 -- 266
		267 -- 268
		18 -- 268
		269 -- 270
		270 -- 271
		271 -- 272
		9 -- 272
		273 -- 274
		274 -- 275
		275 -- 276
		10 -- 276
		11 -- 277
		12 -- 278
		279 -- 280
		280 -- 281
		13 -- 281
		282 -- 283
		14 -- 283
		284 -- 285
		285 -- 286
		16 -- 286
		287 -- 288
		288 -- 289
		289 -- 290
		17 -- 290
		18 -- 291
		292 -- 293
		19 -- 293
		294 -- 295
		12 -- 295
		296 -- 297
		13 -- 297
		298 -- 299
		299 -- 300
		300 -- 301
		14 -- 301
		302 -- 303
		15 -- 303
		304 -- 305
		305 -- 306
		16 -- 306
		307 -- 308
		308 -- 309
		309 -- 310
		17 -- 310
		311 -- 312
		19 -- 312
		11 -- 313
		314 -- 315
		12 -- 315
		13 -- 316
		317 -- 318
		318 -- 319
		14 -- 319
		320 -- 321
		321 -- 322
		15 -- 322
		323 -- 324
		16 -- 324
		17 -- 325
		326 -- 327
		327 -- 328
		18 -- 328
		329 -- 330
		330 -- 331
		19 -- 331
		12 -- 332
		333 -- 334
		14 -- 334
		335 -- 336
		336 -- 337
		15 -- 337
		16 -- 338
		17 -- 339
		340 -- 341
		341 -- 342
		18 -- 342
		15 -- 343
		344 -- 345
		345 -- 346
		346 -- 347
		16 -- 347
		18 -- 348
		349 -- 350
		350 -- 351
		19 -- 351
		352 -- 353
		353 -- 354
		354 -- 355
		14 -- 355
		356 -- 357
		357 -- 358
		16 -- 358
		359 -- 360
		360 -- 361
		361 -- 362
		17 -- 362
		363 -- 364
		19 -- 364
		365 -- 366
		15 -- 366
		367 -- 368
		368 -- 369
		16 -- 369
		370 -- 371
		371 -- 372
		372 -- 373
		17 -- 373
		374 -- 375
		375 -- 376
		376 -- 377
		18 -- 377
		378 -- 379
		19 -- 379
		380 -- 381
		17 -- 381
		382 -- 383
		18 -- 383
		19 -- 384
		17 -- 385
		386 -- 387
		19 -- 387
		18 -- 388
		389 -- 390
		390 -- 391
		19 -- 391
}