graph {
	graph [bb="0,0,690.25,597.22",
		outputorder=edgesfirst,
		overlap=prism,
		size="50,50!",
		start=7780
	];
	node [label="\N"];
	0	[height=0.5,
		pos="27,416.02",
		width=0.75];
	1	[height=0.5,
		pos="125.15,432.34",
		width=0.75];
	0 -- 1	[pos="53.301,420.39 67.383,422.73 84.679,425.61 98.772,427.95"];
	10	[height=0.5,
		pos="50.989,314.16",
		width=0.75];
	0 -- 10	[pos="31.289,397.81 35.655,379.27 42.384,350.69 46.737,332.21"];
	2	[height=0.5,
		pos="222.41,488.67",
		width=0.75];
	1 -- 2	[pos="145.77,444.29 162.28,453.85 185.31,467.19 201.81,476.74"];
	11	[height=0.5,
		pos="133.21,318.37",
		width=0.75];
	1 -- 11	[pos="126.42,414.28 127.93,393.07 130.4,358.06 131.91,336.72"];
	13	[height=0.5,
		pos="152.7,267.93",
		width=0.75];
	10 -- 13	[pos="73.31,304.01 90.151,296.36 113.17,285.9 130.08,278.21"];
	10 -- 11	[pos="77.912,315.54 86.998,316 97.138,316.52 106.23,316.99"];
	3	[height=0.5,
		pos="355.52,434.25",
		width=0.75];
	2 -- 3	[pos="245.59,479.19 269.88,469.27 307.8,453.76 332.16,443.8"];
	37	[height=0.5,
		pos="308.53,558.7",
		width=0.75];
	2 -- 37	[pos="239.83,502.84 254.77,514.99 276.19,532.41 291.12,544.55"];
	16	[height=0.5,
		pos="200.27,388.84",
		width=0.75];
	13 -- 16	[pos="159.62,285.51 168.63,308.44 184.32,348.31 193.34,371.24"];
	14	[height=0.5,
		pos="244.6,161.53",
		width=0.75];
	13 -- 14	[pos="166.26,252.23 183.63,232.11 213.58,197.44 230.98,177.29"];
	4	[height=0.5,
		pos="434.2,324.51",
		width=0.75];
	3 -- 4	[pos="367.47,417.58 382.35,396.84 407.59,361.63 422.39,340.98"];
	24	[height=0.5,
		pos="432.6,513.13",
		width=0.75];
	3 -- 24	[pos="370.39,449.46 384.04,463.43 404.15,484.02 417.79,497.97"];
	20	[height=0.5,
		pos="284.46,513.98",
		width=0.75];
	16 -- 20	[pos="211.45,405.46 227.55,429.39 257.1,473.32 273.23,497.29"];
	17	[height=0.5,
		pos="248.99,319.94",
		width=0.75];
	16 -- 17	[pos="211.81,372.51 219.47,361.69 229.48,347.53 237.19,336.63"];
	5	[height=0.5,
		pos="448.78,219.48",
		width=0.75];
	4 -- 5	[pos="436.74,306.22 439.42,286.94 443.61,256.76 446.27,237.56"];
	31	[height=0.5,
		pos="541.19,303.02",
		width=0.75];
	4 -- 31	[pos="460.1,319.31 476.79,315.96 498.43,311.61 515.16,308.25"];
	23	[height=0.5,
		pos="421.84,579.22",
		width=0.75];
	20 -- 23	[pos="306.53,524.46 332.17,536.64 374.21,556.6 399.82,568.76"];
	21	[height=0.5,
		pos="293.47,427.25",
		width=0.75];
	20 -- 21	[pos="286.33,496.01 287.86,481.22 290.03,460.35 291.58,445.49"];
	6	[height=0.5,
		pos="430.15,108.18",
		width=0.75];
	5 -- 6	[pos="445.71,201.1 442.23,180.35 436.62,146.82 433.17,126.21"];
	40	[height=0.5,
		pos="569.56,228.97",
		width=0.75];
	5 -- 40	[pos="475.89,221.61 495.78,223.17 522.67,225.28 542.54,226.84"];
	26	[height=0.5,
		pos="564.41,553.21",
		width=0.75];
	23 -- 26	[pos="447.99,574.45 473.55,569.79 512.27,562.72 537.94,558.04"];
	23 -- 24	[pos="424.78,561.16 426.3,551.84 428.15,540.49 429.67,531.17"];
	7	[height=0.5,
		pos="362.7,33.323",
		width=0.75];
	6 -- 7	[pos="416.18,92.667 404.6,79.821 388.23,61.654 376.66,48.813"];
	32	[height=0.5,
		pos="510.82,184.95",
		width=0.75];
	6 -- 32	[pos="445.71,122.98 459.99,136.58 481.05,156.61 495.32,170.19"];
	28	[height=0.5,
		pos="661.42,456.64",
		width=0.75];
	26 -- 28	[pos="579.57,538.12 597.79,519.98 628.19,489.72 646.37,471.62"];
	27	[height=0.5,
		pos="591.9,457.61",
		width=0.75];
	26 -- 27	[pos="569.58,535.23 574.49,518.13 581.84,492.57 586.75,475.51"];
	8	[height=0.5,
		pos="253.09,62.082",
		width=0.75];
	7 -- 8	[pos="337.55,39.921 319.85,44.564 296.25,50.757 278.5,55.415"];
	42	[height=0.5,
		pos="471.1,18",
		width=0.75];
	7 -- 42	[pos="389.22,29.574 406.02,27.2 427.66,24.14 444.48,21.763"];
	30	[height=0.5,
		pos="591.73,412.31",
		width=0.75];
	28 -- 30	[pos="641.64,444.05 632.14,438.01 620.8,430.79 611.33,424.77"];
	29	[height=0.5,
		pos="663.25,346.85",
		width=0.75];
	28 -- 29	[pos="661.73,438.51 662.07,418.17 662.61,385.36 662.95,365.01"];
	9	[height=0.5,
		pos="144.07,79.057",
		width=0.75];
	8 -- 9	[pos="226.7,66.191 209.68,68.841 187.63,72.273 170.59,74.927"];
	8 -- 14	[pos="251.53,80.322 250,98.265 247.67,125.5 246.15,143.4"];
	35	[height=0.5,
		pos="502.38,523.67",
		width=0.75];
	30 -- 35	[pos="578.93,428.26 561.94,449.43 532.13,486.59 515.15,507.75"];
	30 -- 31	[pos="583.61,394.75 574.18,374.35 558.71,340.91 549.29,320.54"];
	12	[height=0.5,
		pos="101.9,195.11",
		width=0.75];
	9 -- 12	[pos="137.66,96.683 129.74,118.5 116.32,155.43 108.37,177.32"];
	36	[height=0.5,
		pos="370.57,529.93",
		width=0.75];
	35 -- 36	[pos="475.38,524.96 452.64,526.04 420.26,527.57 397.52,528.65"];
	11 -- 17	[pos="160.36,318.74 178.8,318.99 203.12,319.32 221.61,319.57"];
	11 -- 12	[pos="128.66,300.45 122.72,277.08 112.4,236.44 106.46,213.06"];
	17 -- 21	[pos="256.34,337.66 264.63,357.66 278.03,389.99 286.26,409.86"];
	18	[height=0.5,
		pos="330.86,212.56",
		width=0.75];
	17 -- 18	[pos="261.42,303.63 276.9,283.33 303.17,248.87 318.58,228.67"];
	21 -- 36	[pos="305.86,443.74 320.33,463.02 344.12,494.7 358.47,513.81"];
	22	[height=0.5,
		pos="359.11,363.8",
		width=0.75];
	21 -- 22	[pos="309.03,412.21 319.49,402.1 333.23,388.82 343.67,378.73"];
	15	[height=0.5,
		pos="182.56,188.5",
		width=0.75];
	12 -- 15	[pos="128.76,192.91 137.37,192.2 146.92,191.42 155.54,190.71"];
	36 -- 37	[pos="348.17,540.32 342.62,542.89 336.66,545.65 331.1,548.23"];
	14 -- 15	[pos="221.85,171.42 216.45,173.76 210.7,176.26 205.31,178.61"];
	14 -- 18	[pos="265.04,173.62 278.79,181.75 296.84,192.43 310.56,200.55"];
	19	[height=0.5,
		pos="290.84,259.51",
		width=0.75];
	15 -- 19	[pos="201.92,201.19 221.5,214.04 251.62,233.79 271.28,246.68"];
	38	[height=0.5,
		pos="426.02,462.87",
		width=0.75];
	37 -- 38	[pos="325.86,544.56 348.08,526.44 386.36,495.21 408.61,477.06"];
	24 -- 38	[pos="430.23,494.99 429.62,490.37 428.97,485.42 428.37,480.82"];
	25	[height=0.5,
		pos="488.06,431.47",
		width=0.75];
	24 -- 25	[pos="443.83,496.61 453.45,482.44 467.24,462.14 476.86,447.97"];
	18 -- 19	[pos="317.31,228.45 313.14,233.35 308.54,238.74 304.37,243.63"];
	33	[height=0.5,
		pos="448.77,175.32",
		width=0.75];
	18 -- 33	[pos="355.29,204.84 375.39,198.49 403.76,189.53 423.96,183.15"];
	19 -- 22	[pos="301.81,276.27 314.55,295.73 335.44,327.64 348.17,347.09"];
	39	[height=0.5,
		pos="537.11,355.88",
		width=0.75];
	38 -- 39	[pos="441.47,447.99 462.57,427.67 500.21,391.41 521.44,370.97"];
	31 -- 39	[pos="539.78,321.21 539.37,326.59 538.92,332.47 538.5,337.83"];
	31 -- 32	[pos="536.58,285.09 530.87,262.9 521.21,225.32 515.48,203.05"];
	22 -- 25	[pos="380.41,374.98 404.3,387.52 442.83,407.74 466.74,420.28"];
	39 -- 40	[pos="541.69,337.97 547.87,313.78 558.83,270.93 565,246.79"];
	25 -- 27	[pos="513.46,437.87 529.55,441.92 550.29,447.13 566.4,451.19"];
	41	[height=0.5,
		pos="561.55,111.93",
		width=0.75];
	40 -- 41	[pos="568.32,210.94 566.82,189.01 564.31,152.2 562.8,130.17"];
	32 -- 41	[pos="522.34,168.38 530.64,156.43 541.8,140.37 550.09,128.43"];
	32 -- 33	[pos="484.51,180.87 481.47,180.39 478.37,179.91 475.32,179.44"];
	27 -- 29	[pos="602.74,440.78 616.23,419.85 639.12,384.31 652.55,363.47"];
	41 -- 42	[pos="546.62,96.42 529.76,78.912 502.5,50.61 485.76,33.222"];
	34	[height=0.5,
		pos="631.56,223.04",
		width=0.75];
	29 -- 34	[pos="658.65,328.85 652.64,305.37 642.19,264.55 636.18,241.06"];
	43	[height=0.5,
		pos="526.14,67.192",
		width=0.75];
	42 -- 43	[pos="487.32,32.493 494.42,38.841 502.74,46.277 509.85,52.632"];
	33 -- 34	[pos="474.18,181.95 509.11,191.07 571.55,207.37 606.36,216.46"];
	33 -- 43	[pos="460.52,158.9 475.06,138.57 499.68,104.16 514.27,83.769"];
	44	[height=0.5,
		pos="652.31,111.65",
		width=0.75];
	34 -- 44	[pos="634.89,205.14 638.74,184.48 645.04,150.67 648.91,129.87"];
	43 -- 44	[pos="550.17,75.659 572.62,83.569 605.95,95.313 628.37,103.21"];
}
