graph {
	graph [bb="0,0,2058.2,1579.9",
		outputorder=edgesfirst,
		overlap=prism,
		size="50,50!",
		start=7007
	];
	node [label="\N"];
	0	[height=0.5,
		pos="680.64,485.82",
		width=0.75];
	1	[height=0.5,
		pos="691.75,339.23",
		width=0.75];
	0 -- 1	[pos="682.03,467.55 684.17,439.31 688.26,385.37 690.39,357.27"];
	100	[height=0.5,
		pos="944.22,790.27",
		width=0.75];
	0 -- 100	[pos="694.44,501.76 739.99,554.37 885.21,722.11 930.56,774.49"];
	2	[height=0.5,
		pos="879.31,223.01",
		width=0.75];
	1 -- 2	[pos="711.83,326.8 747.93,304.43 823.39,257.66 859.38,235.36"];
	292	[height=0.5,
		pos="604.45,515.3",
		width=0.75];
	1 -- 292	[pos="683.22,356.44 666.53,390.1 629.73,464.31 613.01,498.02"];
	104	[height=0.5,
		pos="884.64,679.89",
		width=0.75];
	100 -- 104	[pos="934.91,773.02 923.72,752.29 905.05,717.7 893.88,697.02"];
	101	[height=0.5,
		pos="1065.1,885.86",
		width=0.75];
	100 -- 101	[pos="961.8,804.17 984.71,822.29 1024.6,853.81 1047.5,871.94"];
	3	[height=0.5,
		pos="580.29,205.48",
		width=0.75];
	2 -- 3	[pos="852.25,221.43 795.46,218.1 664.42,210.41 607.5,207.08"];
	213	[height=0.5,
		pos="1194,172.7",
		width=0.75];
	2 -- 213	[pos="905.6,218.81 964.83,209.34 1108.2,186.42 1167.5,176.93"];
	107	[height=0.5,
		pos="684.01,887.69",
		width=0.75];
	104 -- 107	[pos="869.88,695.17 832.78,733.6 735.91,833.94 698.79,872.39"];
	105	[height=0.5,
		pos="1063.4,403.01",
		width=0.75];
	104 -- 105	[pos="895.55,662.99 927.54,613.44 1020.8,468.96 1052.6,419.69"];
	4	[height=0.5,
		pos="350.63,499.22",
		width=0.75];
	3 -- 4	[pos="567.61,221.69 527.46,273.05 403.36,431.78 363.26,483.06"];
	189	[height=0.5,
		pos="843.27,107.43",
		width=0.75];
	3 -- 189	[pos="604.09,196.61 654.03,177.99 769.27,135.02 819.34,116.35"];
	110	[height=0.5,
		pos="757.72,1020.6",
		width=0.75];
	107 -- 110	[pos="693.5,904.79 707.65,930.3 734.14,978.05 748.27,1003.5"];
	108	[height=0.5,
		pos="604.1,755.96",
		width=0.75];
	107 -- 108	[pos="673.73,870.74 658.39,845.45 629.67,798.11 614.35,772.85"];
	5	[height=0.5,
		pos="337.24,910.47",
		width=0.75];
	4 -- 5	[pos="350.04,517.43 347.82,585.36 340.07,823.66 337.84,892.01"];
	414	[height=0.5,
		pos="391.59,455.13",
		width=0.75];
	4 -- 414	[pos="364.95,483.8 368.92,479.53 373.23,474.9 377.2,470.62"];
	113	[height=0.5,
		pos="983.33,1040.7",
		width=0.75];
	110 -- 113	[pos="784.48,1022.9 827.79,1026.8 912.74,1034.4 956.25,1038.3"];
	111	[height=0.5,
		pos="619.31,993.23",
		width=0.75];
	110 -- 111	[pos="731.68,1015.4 706.94,1010.5 669.93,1003.2 645.22,998.35"];
	6	[height=0.5,
		pos="388.28,954.5",
		width=0.75];
	5 -- 6	[pos="353.95,924.89 359.65,929.8 366.02,935.3 371.7,940.2"];
	335	[height=0.5,
		pos="345.99,1062.9",
		width=0.75];
	5 -- 335	[pos="338.28,928.56 339.97,957.9 343.27,1015.5 344.96,1044.9"];
	116	[height=0.5,
		pos="995.67,1117.3",
		width=0.75];
	113 -- 116	[pos="986.25,1058.8 988.22,1071 990.8,1087.1 992.76,1099.3"];
	114	[height=0.5,
		pos="1137.2,858.63",
		width=0.75];
	113 -- 114	[pos="996.72,1024.8 1025.8,990.42 1094.6,909.08 1123.7,874.56"];
	7	[height=0.5,
		pos="89.096,881.98",
		width=0.75];
	6 -- 7	[pos="362.77,948.32 306.25,934.62 171,901.83 114.54,888.15"];
	6 -- 111	[pos="414.78,958.94 459.34,966.41 548.76,981.4 593.11,988.84"];
	118	[height=0.5,
		pos="879.55,1128.7",
		width=0.75];
	116 -- 118	[pos="968.73,1119.9 949.97,1121.8 925.06,1124.2 906.33,1126.1"];
	117	[height=0.5,
		pos="1128.5,1174.7",
		width=0.75];
	116 -- 117	[pos="1018.5,1127.1 1042.8,1137.6 1081.1,1154.2 1105.5,1164.7"];
	8	[height=0.5,
		pos="68.789,786.28",
		width=0.75];
	7 -- 8	[pos="85.276,863.98 81.646,846.87 76.217,821.28 72.592,804.2"];
	417	[height=0.5,
		pos="122.36,836.89",
		width=0.75];
	7 -- 417	[pos="101.11,865.7 104.08,861.67 107.28,857.34 110.26,853.3"];
	122	[height=0.5,
		pos="1017.7,1248.6",
		width=0.75];
	118 -- 122	[pos="896.21,1143.2 922.77,1166.2 974.39,1211 1001,1234.1"];
	119	[height=0.5,
		pos="941,939.35",
		width=0.75];
	118 -- 119	[pos="885.33,1110.9 897.07,1074.7 923.59,993.01 935.28,956.98"];
	9	[height=0.5,
		pos="167.5,669.66",
		width=0.75];
	8 -- 9	[pos="82.102,770.55 100.94,748.29 135.19,707.83 154.08,685.51"];
	418	[height=0.5,
		pos="108.66,740.51",
		width=0.75];
	8 -- 418	[pos="82.51,770.53 86.564,765.87 91,760.78 95.047,756.13"];
	124	[height=0.5,
		pos="1059.1,1191.9",
		width=0.75];
	122 -- 124	[pos="1029.7,1232.2 1035.1,1224.7 1041.5,1215.9 1047,1208.5"];
	123	[height=0.5,
		pos="1079.8,1235.9",
		width=0.75];
	122 -- 123	[pos="1043.7,1243.3 1047,1242.6 1050.4,1241.9 1053.7,1241.3"];
	10	[height=0.5,
		pos="138.15,482.33",
		width=0.75];
	9 -- 10	[pos="164.68,651.7 159.07,615.89 146.56,536 140.95,500.24"];
	324	[height=0.5,
		pos="351.45,795.97",
		width=0.75];
	9 -- 324	[pos="186.49,682.7 221.83,706.97 297.3,758.78 332.56,783"];
	128	[height=0.5,
		pos="889.89,1330.7",
		width=0.75];
	124 -- 128	[pos="1041.9,1206 1009.5,1232.6 939.55,1289.9 907.09,1316.6"];
	125	[height=0.5,
		pos="1141.6,1065.7",
		width=0.75];
	124 -- 125	[pos="1070,1175.1 1085.8,1151 1114.8,1106.7 1130.6,1082.6"];
	11	[height=0.5,
		pos="421.5,313.81",
		width=0.75];
	10 -- 11	[pos="158.53,470.21 210.81,439.12 349.23,356.79 401.31,325.82"];
	156	[height=0.5,
		pos="143.76,437.19",
		width=0.75];
	10 -- 156	[pos="140.4,464.23 140.76,461.29 141.14,458.24 141.51,455.3"];
	130	[height=0.5,
		pos="679.61,1410.4",
		width=0.75];
	128 -- 130	[pos="866.18,1339.7 825.68,1355 743.67,1386.1 703.23,1401.4"];
	129	[height=0.5,
		pos="752.17,1390.9",
		width=0.75];
	128 -- 129	[pos="867.15,1340.6 841.63,1351.8 800.48,1369.7 774.95,1380.9"];
	12	[height=0.5,
		pos="547.78,337.29",
		width=0.75];
	11 -- 12	[pos="447.67,318.67 469.34,322.7 499.98,328.4 521.65,332.43"];
	302	[height=0.5,
		pos="288.61,457.55",
		width=0.75];
	11 -- 302	[pos="407.28,329.19 381.83,356.71 328.79,414.09 303.13,441.84"];
	132	[height=0.5,
		pos="625.09,1203.2",
		width=0.75];
	130 -- 132	[pos="674.87,1392.4 664.53,1353.1 640.07,1260.2 629.78,1221.1"];
	131	[height=0.5,
		pos="562.78,1316.8",
		width=0.75];
	130 -- 131	[pos="662.12,1396.4 640.09,1378.7 602.47,1348.6 580.39,1330.9"];
	13	[height=0.5,
		pos="673.51,427.78",
		width=0.75];
	12 -- 13	[pos="566.33,350.64 590.1,367.75 631.07,397.24 654.88,414.37"];
	185	[height=0.5,
		pos="881.65,360.12",
		width=0.75];
	12 -- 185	[pos="574.82,339.14 637.38,343.42 791.55,353.96 854.36,358.25"];
	135	[height=0.5,
		pos="706.43,1203.2",
		width=0.75];
	132 -- 135	[pos="652.18,1203.2 660.86,1203.2 670.49,1203.2 679.19,1203.2"];
	133	[height=0.5,
		pos="553.56,1031.1",
		width=0.75];
	132 -- 133	[pos="617.84,1185.8 604.13,1152.8 574.56,1081.6 560.83,1048.6"];
	14	[height=0.5,
		pos="841.36,439.75",
		width=0.75];
	13 -- 14	[pos="700.48,429.7 731.8,431.94 783.16,435.6 814.46,437.83"];
	144	[height=0.5,
		pos="712.25,674.27",
		width=0.75];
	13 -- 144	[pos="676.36,445.9 683.52,491.49 702.23,610.51 709.39,656.12"];
	138	[height=0.5,
		pos="571.37,1100.7",
		width=0.75];
	135 -- 138	[pos="688.5,1189.6 662.67,1170 615.25,1134 589.38,1114.3"];
	136	[height=0.5,
		pos="1057.2,1292.6",
		width=0.75];
	135 -- 136	[pos="731.66,1209.6 796.22,1226.1 966.88,1269.6 1031.7,1286.1"];
	15	[height=0.5,
		pos="587.39,603.34",
		width=0.75];
	14 -- 15	[pos="821.85,452.32 774.58,482.77 654.3,560.24 606.96,590.73"];
	222	[height=0.5,
		pos="1180.1,464.03",
		width=0.75];
	14 -- 222	[pos="868.23,441.68 931.61,446.22 1089.9,457.56 1153.3,462.1"];
	140	[height=0.5,
		pos="521.37,846.76",
		width=0.75];
	138 -- 140	[pos="567.86,1082.8 558.7,1036.3 534.17,911.8 524.94,864.93"];
	139	[height=0.5,
		pos="683.92,1084.2",
		width=0.75];
	138 -- 139	[pos="597.76,1096.8 615.69,1094.2 639.33,1090.7 657.31,1088.1"];
	16	[height=0.5,
		pos="797.42,839.59",
		width=0.75];
	15 -- 16	[pos="601.17,618.84 639.22,661.64 745.47,781.15 783.59,824.03"];
	305	[height=0.5,
		pos="382,694.43",
		width=0.75];
	15 -- 305	[pos="564.62,613.43 525.04,630.99 443.99,666.94 404.55,684.43"];
	143	[height=0.5,
		pos="506.97,696.79",
		width=0.75];
	140 -- 143	[pos="519.63,828.67 516.86,799.85 511.48,743.81 508.71,714.95"];
	141	[height=0.5,
		pos="655.7,606.71",
		width=0.75];
	140 -- 141	[pos="530.81,829.88 555.42,785.91 621.29,668.2 646.09,623.9"];
	17	[height=0.5,
		pos="878.98,924.4",
		width=0.75];
	16 -- 17	[pos="812,854.75 826.76,870.09 849.44,893.69 864.25,909.09"];
	145	[height=0.5,
		pos="1013.1,816.86",
		width=0.75];
	16 -- 145	[pos="824.3,836.76 865.75,832.39 944.8,824.06 986.25,819.69"];
	149	[height=0.5,
		pos="453.45,741.15",
		width=0.75];
	143 -- 149	[pos="490.03,710.83 483.79,716.01 476.71,721.87 470.46,727.06"];
	143 -- 144	[pos="533.81,693.85 573.15,689.53 646.06,681.53 685.4,677.22"];
	18	[height=0.5,
		pos="903.35,1040.7",
		width=0.75];
	17 -- 18	[pos="882.74,942.32 887.3,964.11 894.97,1000.7 899.55,1022.6"];
	17 -- 108	[pos="858.77,912.02 807.94,880.87 675.21,799.54 624.35,768.37"];
	152	[height=0.5,
		pos="325.93,551.09",
		width=0.75];
	149 -- 152	[pos="442.35,724.62 418.24,688.68 361.26,603.76 337.09,567.73"];
	150	[height=0.5,
		pos="625.53,931.74",
		width=0.75];
	149 -- 150	[pos="467.53,756.75 499.88,792.58 579.19,880.42 611.5,916.19"];
	19	[height=0.5,
		pos="762.91,1159.2",
		width=0.75];
	18 -- 19	[pos="886.41,1055 859.42,1077.8 806.94,1122 779.91,1144.8"];
	232	[height=0.5,
		pos="1127.1,921.67",
		width=0.75];
	18 -- 232	[pos="924.8,1029.3 967.57,1006.5 1063,955.77 1105.7,933.05"];
	155	[height=0.5,
		pos="206.15,439.48",
		width=0.75];
	152 -- 155	[pos="309.78,536.04 286.79,514.62 244.9,475.58 222.05,454.29"];
	153	[height=0.5,
		pos="485.29,320.89",
		width=0.75];
	152 -- 153	[pos="337.39,534.54 366.79,492.06 444.64,379.6 473.93,337.3"];
	20	[height=0.5,
		pos="809.08,1262.8",
		width=0.75];
	19 -- 20	[pos="770.75,1176.8 779.29,1195.9 792.87,1226.4 801.36,1245.5"];
	330	[height=0.5,
		pos="622.64,1247.3",
		width=0.75];
	19 -- 330	[pos="743.11,1171.6 716.38,1188.4 669.02,1218.1 642.34,1234.9"];
	158	[height=0.5,
		pos="317.54,366.64",
		width=0.75];
	155 -- 158	[pos="225.56,426.79 245.88,413.5 277.61,392.75 297.99,379.42"];
	155 -- 156	[pos="178.97,438.48 176.34,438.39 173.67,438.29 171.05,438.19"];
	21	[height=0.5,
		pos="955.67,1225.2",
		width=0.75];
	20 -- 21	[pos="834.28,1256.4 861.13,1249.5 903.39,1238.6 930.31,1231.7"];
	430	[height=0.5,
		pos="686.85,1247.3",
		width=0.75];
	20 -- 430	[pos="782.25,1259.4 761.88,1256.8 733.98,1253.3 713.61,1250.7"];
	161	[height=0.5,
		pos="135.92,575.61",
		width=0.75];
	158 -- 161	[pos="303.89,382.34 270.15,421.17 183.13,521.29 149.49,560.01"];
	159	[height=0.5,
		pos="575.03,285.81",
		width=0.75];
	158 -- 159	[pos="342.23,358.89 391.45,343.44 501.26,308.97 550.42,293.54"];
	22	[height=0.5,
		pos="1060.4,1139.6",
		width=0.75];
	21 -- 22	[pos="972.96,1211.1 992.37,1195.2 1023.7,1169.6 1043.1,1153.7"];
	431	[height=0.5,
		pos="932.64,1172.8",
		width=0.75];
	21 -- 431	[pos="948,1207.7 945.54,1202.1 942.81,1195.9 940.35,1190.3"];
	164	[height=0.5,
		pos="132.58,391.67",
		width=0.75];
	161 -- 164	[pos="135.59,557.3 134.95,522.04 133.55,445.11 132.91,409.91"];
	162	[height=0.5,
		pos="275.19,884.02",
		width=0.75];
	161 -- 162	[pos="143.81,593.08 168.32,647.36 243,812.73 267.39,866.75"];
	23	[height=0.5,
		pos="1207.7,1221.7",
		width=0.75];
	22 -- 23	[pos="1081.2,1151.1 1109.1,1166.7 1158.4,1194.2 1186.5,1209.9"];
	22 -- 101	[pos="1060.7,1121.3 1061.6,1074.5 1063.9,950.57 1064.7,903.94"];
	166	[height=0.5,
		pos="431.35,179.09",
		width=0.75];
	164 -- 166	[pos="151.27,378.37 204.93,340.2 359.02,230.56 412.67,192.39"];
	165	[height=0.5,
		pos="191.95,339.18",
		width=0.75];
	164 -- 165	[pos="149.12,377.05 157.36,369.77 167.28,360.99 175.5,353.72"];
	24	[height=0.5,
		pos="1401.3,1342.8",
		width=0.75];
	23 -- 24	[pos="1227.7,1234.2 1264.9,1257.5 1344.3,1307.1 1381.4,1330.3"];
	358	[height=0.5,
		pos="1141.8,1220.7",
		width=0.75];
	23 -- 358	[pos="1180.5,1221.3 1176.7,1221.2 1172.8,1221.2 1168.9,1221.1"];
	168	[height=0.5,
		pos="576.7,91.957",
		width=0.75];
	166 -- 168	[pos="451.56,166.98 479.17,150.42 528.42,120.9 556.19,104.25"];
	167	[height=0.5,
		pos="481.17,127.93",
		width=0.75];
	166 -- 167	[pos="446.3,163.74 452.6,157.27 459.93,149.74 466.23,143.27"];
	25	[height=0.5,
		pos="1244.1,1508.5",
		width=0.75];
	24 -- 25	[pos="1386.8,1358.1 1356.8,1389.6 1288.5,1461.7 1258.6,1493.3"];
	251	[height=0.5,
		pos="1570,1205.9",
		width=0.75];
	24 -- 251	[pos="1418.7,1328.6 1451.1,1302.4 1520,1246.5 1552.4,1220.1"];
	170	[height=0.5,
		pos="650.23,91.903",
		width=0.75];
	168 -- 170	[pos="604.08,91.937 610.28,91.933 616.87,91.928 623.07,91.923"];
	169	[height=0.5,
		pos="606.21,47.888",
		width=0.75];
	168 -- 169	[pos="587.86,75.297 590.21,71.787 592.69,68.083 595.04,64.573"];
	26	[height=0.5,
		pos="906.74,1439.7",
		width=0.75];
	25 -- 26	[pos="1218.2,1503.2 1155.4,1490.4 995.62,1457.8 932.74,1445"];
	435	[height=0.5,
		pos="1141.2,1355.2",
		width=0.75];
	25 -- 435	[pos="1232.9,1491.8 1213.1,1462.3 1172.2,1401.4 1152.4,1371.9"];
	172	[height=0.5,
		pos="727.02,179.97",
		width=0.75];
	170 -- 172	[pos="663.96,107.65 677.94,123.68 699.48,148.38 713.41,164.36"];
	171	[height=0.5,
		pos="743.14,38.322",
		width=0.75];
	170 -- 171	[pos="670.85,80.012 686.24,71.132 707.19,59.051 722.58,50.18"];
	27	[height=0.5,
		pos="687.51,1356.3",
		width=0.75];
	26 -- 27	[pos="883.27,1430.7 841.19,1414.7 753.34,1381.3 711.13,1365.3"];
	436	[height=0.5,
		pos="840.1,1396.3",
		width=0.75];
	26 -- 436	[pos="887.1,1426.9 878.5,1421.3 868.43,1414.7 859.82,1409.1"];
	175	[height=0.5,
		pos="815.83,328.05",
		width=0.75];
	172 -- 175	[pos="737.21,196.95 754.34,225.52 788.71,282.83 805.77,311.26"];
	173	[height=0.5,
		pos="848.6,267.02",
		width=0.75];
	172 -- 173	[pos="745.49,193.19 768.34,209.55 807.03,237.26 829.96,253.68"];
	28	[height=0.5,
		pos="509.32,1133.1",
		width=0.75];
	27 -- 28	[pos="674.69,1340.2 641.82,1299.1 554.77,1190.1 522.02,1149"];
	342	[height=0.5,
		pos="810.65,1341",
		width=0.75];
	27 -- 342	[pos="714.23,1353 734.88,1350.4 763.34,1346.9 783.98,1344.3"];
	180	[height=0.5,
		pos="917.09,492.23",
		width=0.75];
	175 -- 180	[pos="826.29,345 845.69,376.46 887.07,443.55 906.54,475.12"];
	176	[height=0.5,
		pos="903.7,404.15",
		width=0.75];
	175 -- 176	[pos="832.36,342.37 847.97,355.88 871.27,376.06 886.95,389.64"];
	29	[height=0.5,
		pos="745.92,1064.6",
		width=0.75];
	28 -- 29	[pos="534.19,1125.9 579.64,1112.8 675.57,1085 721.03,1071.8"];
	28 -- 162	[pos="494.67,1117.6 452.53,1072.7 331.3,943.72 289.53,899.28"];
	184	[height=0.5,
		pos="877.89,316.11",
		width=0.75];
	180 -- 184	[pos="913.12,474.37 905.6,440.62 889.4,367.8 881.88,334.01"];
	181	[height=0.5,
		pos="1006.4,762.27",
		width=0.75];
	180 -- 181	[pos="922.95,509.95 939.12,558.88 984.27,695.48 1000.5,744.49"];
	30	[height=0.5,
		pos="1003.1,928.27",
		width=0.75];
	29 -- 30	[pos="767.41,1053.2 815.93,1027.5 933.53,965.13 981.82,939.53"];
	439	[height=0.5,
		pos="682.26,999.04",
		width=0.75];
	29 -- 439	[pos="731.16,1049.4 720.87,1038.8 707.22,1024.7 696.95,1014.2"];
	188	[height=0.5,
		pos="1012.6,176.28",
		width=0.75];
	184 -- 188	[pos="892.57,300.88 918.48,273.98 972.04,218.37 997.94,191.49"];
	184 -- 185	[pos="879.44,334.26 879.66,336.82 879.89,339.45 880.11,342"];
	31	[height=0.5,
		pos="1100.7,639.91",
		width=0.75];
	30 -- 31	[pos="1009,910.66 1026.4,859.18 1077.2,709.3 1094.7,657.65"];
	284	[height=0.5,
		pos="1178.2,967.16",
		width=0.75];
	30 -- 284	[pos="1028.9,934.01 1062.1,941.38 1119.4,954.11 1152.6,961.47"];
	191	[height=0.5,
		pos="1388.1,190.16",
		width=0.75];
	188 -- 191	[pos="1039.6,177.28 1108.8,179.84 1291.9,186.6 1361.1,189.16"];
	188 -- 189	[pos="989.41,166.85 957.07,153.7 898.78,130 866.45,116.85"];
	32	[height=0.5,
		pos="1248.4,383.78",
		width=0.75];
	31 -- 32	[pos="1110.4,623.1 1137.1,576.69 1211.8,447.13 1238.7,400.65"];
	182	[height=0.5,
		pos="1056.1,498.46",
		width=0.75];
	31 -- 182	[pos="1095.1,622.28 1086.6,595.17 1070.3,543.55 1061.7,516.31"];
	194	[height=0.5,
		pos="1573,378.93",
		width=0.75];
	191 -- 194	[pos="1402.9,205.29 1437.5,240.63 1523.4,328.31 1558.1,363.73"];
	192	[height=0.5,
		pos="1501.8,214.87",
		width=0.75];
	191 -- 192	[pos="1413.9,195.76 1432.5,199.81 1457.5,205.24 1476.1,209.28"];
	33	[height=0.5,
		pos="1531.5,275.24",
		width=0.75];
	32 -- 33	[pos="1272,374.71 1325.3,354.28 1454.3,304.84 1507.8,284.36"];
	32 -- 105	[pos="1221.5,386.57 1186.4,390.22 1125.4,396.56 1090.3,400.21"];
	198	[height=0.5,
		pos="1541.1,323.49",
		width=0.75];
	194 -- 198	[pos="1563.2,362 1559.3,355.12 1554.7,347.19 1550.8,340.32"];
	195	[height=0.5,
		pos="1583.8,637.96",
		width=0.75];
	194 -- 195	[pos="1573.8,397.15 1575.7,444.71 1581.1,572.23 1583,619.77"];
	34	[height=0.5,
		pos="1563.9,198.66",
		width=0.75];
	33 -- 34	[pos="1538.9,257.86 1544.1,245.42 1551.2,228.72 1556.4,216.23"];
	383	[height=0.5,
		pos="1775,489.57",
		width=0.75];
	33 -- 383	[pos="1547.9,289.64 1592.1,328.59 1713.8,435.75 1758.4,474.96"];
	201	[height=0.5,
		pos="1671,590.58",
		width=0.75];
	198 -- 201	[pos="1549.6,341.02 1573.2,389.53 1639.1,525.17 1662.6,573.34"];
	199	[height=0.5,
		pos="1282.3,250.01",
		width=0.75];
	198 -- 199	[pos="1515.8,316.31 1466.2,302.23 1356.7,271.13 1307.3,257.11"];
	35	[height=0.5,
		pos="1490.7,413.44",
		width=0.75];
	34 -- 35	[pos="1557.9,216.24 1544.2,256.51 1510.6,355.11 1496.8,395.62"];
	444	[height=0.5,
		pos="1697.2,275.13",
		width=0.75];
	34 -- 444	[pos="1584.4,210.44 1609.4,224.77 1651.3,248.82 1676.4,263.21"];
	204	[height=0.5,
		pos="1735.8,321.47",
		width=0.75];
	201 -- 204	[pos="1675.3,572.51 1687.1,523.48 1719.7,388.4 1731.5,339.46"];
	202	[height=0.5,
		pos="1474.9,785.3",
		width=0.75];
	201 -- 202	[pos="1655.9,605.54 1619.4,641.78 1526.5,734 1490,770.29"];
	36	[height=0.5,
		pos="1731.1,709.65",
		width=0.75];
	35 -- 36	[pos="1503.7,429.36 1545.4,480.79 1676.3,642.1 1718.1,693.65"];
	177	[height=0.5,
		pos="1149.2,349.61",
		width=0.75];
	35 -- 177	[pos="1464.5,408.53 1400.9,396.65 1239.2,366.42 1175.6,354.53"];
	206	[height=0.5,
		pos="1793,365.5",
		width=0.75];
	204 -- 206	[pos="1753.6,335.16 1760.4,340.41 1768.2,346.4 1775.1,351.67"];
	205	[height=0.5,
		pos="1598.8,279.25",
		width=0.75];
	204 -- 205	[pos="1711,313.82 1686.1,306.17 1648.2,294.47 1623.4,286.84"];
	37	[height=0.5,
		pos="1814.7,1014.8",
		width=0.75];
	36 -- 37	[pos="1735.9,727.38 1750.7,781.32 1795.1,943.06 1809.9,997.06"];
	207	[height=0.5,
		pos="1792,577.61",
		width=0.75];
	36 -- 207	[pos="1739,692.39 1750.7,667.08 1772.4,620.18 1784,594.88"];
	212	[height=0.5,
		pos="1499.2,159.64",
		width=0.75];
	206 -- 212	[pos="1774.2,352.31 1721.1,315.13 1570.7,209.77 1517.8,172.72"];
	206 -- 207	[pos="1793,383.59 1792.8,423.66 1792.3,519.54 1792.1,559.57"];
	38	[height=0.5,
		pos="1688.4,1211.4",
		width=0.75];
	37 -- 38	[pos="1804,1031.6 1780.1,1068.7 1723,1157.6 1699.1,1194.7"];
	447	[height=0.5,
		pos="1888.9,1071.1",
		width=0.75];
	37 -- 447	[pos="1832.7,1028.5 1844.3,1037.3 1859.3,1048.6 1870.9,1057.4"];
	215	[height=0.5,
		pos="1751.1,180.97",
		width=0.75];
	212 -- 215	[pos="1526.1,161.92 1574.5,166.01 1675.4,174.56 1723.9,178.67"];
	212 -- 213	[pos="1472.1,160.79 1414.2,163.27 1278.9,169.07 1221,171.54"];
	39	[height=0.5,
		pos="1500.6,1277.3",
		width=0.75];
	38 -- 39	[pos="1664.2,1219.9 1628.2,1232.5 1560.7,1256.2 1524.7,1268.8"];
	362	[height=0.5,
		pos="1591,1391",
		width=0.75];
	38 -- 362	[pos="1679,1228.6 1660.4,1262.9 1618.9,1339.5 1600.3,1373.8"];
	218	[height=0.5,
		pos="1787.1,445.53",
		width=0.75];
	215 -- 218	[pos="1753.6,199.15 1760.2,247.6 1778.1,379.38 1784.7,427.57"];
	216	[height=0.5,
		pos="1835.6,242.2",
		width=0.75];
	215 -- 216	[pos="1769.4,194.26 1783.6,204.53 1803.1,218.68 1817.3,228.94"];
	40	[height=0.5,
		pos="1290.9,1303.7",
		width=0.75];
	39 -- 40	[pos="1474.1,1280.6 1433.8,1285.7 1357.9,1295.2 1317.6,1300.3"];
	371	[height=0.5,
		pos="1454,1430.8",
		width=0.75];
	39 -- 371	[pos="1495.2,1295.2 1486.2,1324.8 1468.4,1383.5 1459.4,1413"];
	221	[height=0.5,
		pos="1453.9,521.09",
		width=0.75];
	218 -- 221	[pos="1761.5,451.33 1699.5,465.4 1541.7,501.18 1479.5,515.27"];
	219	[height=0.5,
		pos="1708.8,665.64",
		width=0.75];
	218 -- 219	[pos="1780.8,463.17 1766.2,504.38 1729.8,606.62 1715.1,647.91"];
	41	[height=0.5,
		pos="1443.2,1188.3",
		width=0.75];
	40 -- 41	[pos="1309,1290 1338.3,1267.8 1395.8,1224.1 1425.1,1201.9"];
	40 -- 136	[pos="1263.6,1302.4 1218.6,1300.2 1129.2,1296 1084.3,1293.9"];
	227	[height=0.5,
		pos="1457,609.14",
		width=0.75];
	221 -- 227	[pos="1454.5,539.34 1455,554.45 1455.8,575.82 1456.3,590.92"];
	221 -- 222	[pos="1427.6,515.62 1375.3,504.71 1258.6,480.38 1206.3,469.48"];
	42	[height=0.5,
		pos="1517.8,940.32",
		width=0.75];
	41 -- 42	[pos="1448.5,1170.4 1462.3,1124.7 1498.7,1003.6 1512.5,957.99"];
	451	[height=0.5,
		pos="1633.7,1167.4",
		width=0.75];
	41 -- 451	[pos="1470.1,1185.3 1506.4,1181.3 1570.7,1174.3 1607,1170.3"];
	231	[height=0.5,
		pos="1252.8,876.58",
		width=0.75];
	227 -- 231	[pos="1444.5,625.47 1408,673.32 1301.5,812.88 1265.1,860.47"];
	228	[height=0.5,
		pos="1551.4,457.46",
		width=0.75];
	227 -- 228	[pos="1467.5,592.33 1485.6,563.17 1522.7,503.56 1540.9,474.35"];
	43	[height=0.5,
		pos="1430.5,736.32",
		width=0.75];
	42 -- 43	[pos="1510.3,922.92 1493.8,884.38 1454.4,792.17 1437.9,753.67"];
	208	[height=0.5,
		pos="1735.9,811.58",
		width=0.75];
	42 -- 208	[pos="1538.3,928.21 1580,903.61 1674.1,848.06 1715.6,823.56"];
	236	[height=0.5,
		pos="1203.6,1027.6",
		width=0.75];
	231 -- 236	[pos="1247.1,894.2 1237.7,923.16 1219,980.48 1209.5,1009.7"];
	231 -- 232	[pos="1228.9,885.17 1206.5,893.19 1173.3,905.1 1150.9,913.11"];
	44	[height=0.5,
		pos="1673.9,840.76",
		width=0.75];
	43 -- 44	[pos="1453.4,746.15 1499.8,766.05 1604.4,810.94 1650.9,830.88"];
	395	[height=0.5,
		pos="1225.1,553.59",
		width=0.75];
	43 -- 395	[pos="1414,721.68 1375.5,687.38 1279.7,602.17 1241.4,568.05"];
	242	[height=0.5,
		pos="1363.9,1149.9",
		width=0.75];
	236 -- 242	[pos="1221.7,1041.4 1252.5,1064.9 1314.8,1112.4 1345.7,1136"];
	237	[height=0.5,
		pos="1054.2,973.5",
		width=0.75];
	236 -- 237	[pos="1179.6,1018.9 1151.7,1008.8 1106,992.27 1078.1,982.18"];
	45	[height=0.5,
		pos="1685.6,1057.8",
		width=0.75];
	44 -- 45	[pos="1674.9,858.89 1677.1,899.75 1682.4,998.64 1684.6,1039.6"];
	44 -- 219	[pos="1677.5,822.68 1684.2,789.03 1698.5,717.19 1705.2,683.62"];
	244	[height=0.5,
		pos="1529.9,1030.3",
		width=0.75];
	242 -- 244	[pos="1382.3,1136.7 1414.2,1113.7 1479.4,1066.6 1511.4,1043.6"];
	243	[height=0.5,
		pos="1467.8,1073.8",
		width=0.75];
	242 -- 243	[pos="1382.5,1136.3 1401.4,1122.5 1430.5,1101.1 1449.4,1087.3"];
	46	[height=0.5,
		pos="1579.8,942.21",
		width=0.75];
	45 -- 46	[pos="1671.4,1042.2 1651.2,1020.2 1614.5,980.06 1594.2,957.92"];
	346	[height=0.5,
		pos="1500.2,1233.3",
		width=0.75];
	45 -- 346	[pos="1669.8,1072.8 1634.8,1105.9 1551,1185.2 1516,1218.3"];
	247	[height=0.5,
		pos="1831.5,1121.6",
		width=0.75];
	244 -- 247	[pos="1554.5,1037.7 1611.2,1054.9 1750.3,1097 1806.9,1114.2"];
	245	[height=0.5,
		pos="1394.7,868.41",
		width=0.75];
	244 -- 245	[pos="1516.7,1014.5 1490.9,983.59 1434.2,915.63 1408.2,884.53"];
	47	[height=0.5,
		pos="1791,753.69",
		width=0.75];
	46 -- 47	[pos="1596.1,927.73 1635.4,892.64 1735.4,803.36 1774.7,768.22"];
	238	[height=0.5,
		pos="1347.3,1014.5",
		width=0.75];
	46 -- 238	[pos="1554.9,949.95 1510.2,963.86 1416.6,992.95 1372,1006.8"];
	250	[height=0.5,
		pos="1774.7,1204.3",
		width=0.75];
	247 -- 250	[pos="1820,1138.4 1810.1,1152.8 1795.9,1173.5 1786,1187.9"];
	248	[height=0.5,
		pos="1968.8,1033.6",
		width=0.75];
	247 -- 248	[pos="1851.2,1109 1877.3,1092.3 1923.1,1062.9 1949.2,1046.2"];
	48	[height=0.5,
		pos="1909.5,365.49",
		width=0.75];
	47 -- 48	[pos="1796.4,736 1816.2,671.33 1884.3,448.12 1904.1,383.28"];
	384	[height=0.5,
		pos="1828.5,628.55",
		width=0.75];
	47 -- 384	[pos="1796.3,736.03 1803.4,712.31 1815.9,670.4 1823.1,646.53"];
	253	[height=0.5,
		pos="1965.4,1203.3",
		width=0.75];
	250 -- 253	[pos="1802.1,1204.2 1838.3,1204 1901.9,1203.6 1938.2,1203.4"];
	250 -- 251	[pos="1747.6,1204.5 1708.4,1204.8 1636.5,1205.4 1597.3,1205.7"];
	49	[height=0.5,
		pos="1760,233.42",
		width=0.75];
	48 -- 49	[pos="1893.2,351.1 1864.6,325.83 1805.6,273.73 1776.7,248.19"];
	48 -- 216	[pos="1899.4,348.6 1885.3,325.13 1859.9,282.86 1845.8,259.28"];
	255	[height=0.5,
		pos="1902.5,992.73",
		width=0.75];
	253 -- 255	[pos="1960.1,1185.3 1948.2,1145.5 1919.7,1050.4 1907.9,1010.6"];
	254	[height=0.5,
		pos="1990.3,1099.7",
		width=0.75];
	253 -- 254	[pos="1969.8,1185.2 1974.3,1166.2 1981.5,1136.5 1986.1,1117.5"];
	50	[height=0.5,
		pos="1971.6,401.96",
		width=0.75];
	49 -- 50	[pos="1777.7,247.5 1817.6,279.31 1914.4,356.39 1954.1,388.04"];
	49 -- 192	[pos="1732.9,231.47 1683.3,227.91 1578.6,220.38 1529,216.82"];
	258	[height=0.5,
		pos="2017.3,803.7",
		width=0.75];
	255 -- 258	[pos="1912.7,975.96 1934.5,940.08 1985.4,856.28 2007.2,820.44"];
	256	[height=0.5,
		pos="1710.1,947.64",
		width=0.75];
	255 -- 256	[pos="1877,986.74 1840.1,978.12 1772.6,962.29 1735.7,953.66"];
	51	[height=0.5,
		pos="1895.3,691.66",
		width=0.75];
	50 -- 51	[pos="1966.8,420.08 1953.1,472.23 1913.6,622.24 1900,673.91"];
	460	[height=0.5,
		pos="1992.3,504.25",
		width=0.75];
	50 -- 460	[pos="1975.3,420.25 1979.1,438.87 1984.9,467.56 1988.7,486.12"];
	260	[height=0.5,
		pos="1902.3,629.92",
		width=0.75];
	258 -- 260	[pos="2006.3,787.04 1984.3,753.82 1935.3,679.71 1913.3,646.53"];
	259	[height=0.5,
		pos="2012,755.82",
		width=0.75];
	258 -- 259	[pos="2015.3,785.6 2014.9,781.78 2014.4,777.76 2014,773.95"];
	52	[height=0.5,
		pos="1900.4,886.85",
		width=0.75];
	51 -- 52	[pos="1895.8,709.67 1896.8,746.76 1899,831.31 1899.9,868.6"];
	461	[height=0.5,
		pos="1967.3,648.09",
		width=0.75];
	51 -- 461	[pos="1915.4,679.52 1925.3,673.53 1937.2,666.32 1947.1,660.31"];
	263	[height=0.5,
		pos="1997.1,460.21",
		width=0.75];
	260 -- 263	[pos="1911.8,613.03 1929.9,580.58 1969.4,509.88 1987.5,477.29"];
	261	[height=0.5,
		pos="1815.3,680.19",
		width=0.75];
	260 -- 261	[pos="1881.7,641.83 1867.9,649.85 1849.6,660.37 1835.8,668.36"];
	53	[height=0.5,
		pos="1764.8,1064.7",
		width=0.75];
	52 -- 53	[pos="1888.1,902.95 1862.4,936.71 1803,1014.6 1777.2,1048.5"];
	52 -- 248	[pos="1908.5,904.27 1921.7,932.51 1947.6,988 1960.7,1016.2"];
	265	[height=0.5,
		pos="1765.8,277.46",
		width=0.75];
	263 -- 265	[pos="1979.3,446.17 1936.2,412.07 1826.2,325.19 1783.3,291.3"];
	264	[height=0.5,
		pos="1886.1,319.91",
		width=0.75];
	263 -- 264	[pos="1984.4,444.12 1963.1,417.2 1920.5,363.33 1899,336.25"];
	54	[height=0.5,
		pos="1404.7,1100.2",
		width=0.75];
	53 -- 54	[pos="1738,1067.3 1671.4,1073.9 1498.5,1090.9 1431.6,1097.5"];
	463	[height=0.5,
		pos="1836.2,931.87",
		width=0.75];
	53 -- 463	[pos="1774,1047.6 1787.7,1022.1 1813.4,974.35 1827,948.89"];
	267	[height=0.5,
		pos="1491.8,367.54",
		width=0.75];
	265 -- 267	[pos="1741.5,285.46 1689.5,302.55 1568,342.48 1516,359.56"];
	266	[height=0.5,
		pos="1689.1,198.83",
		width=0.75];
	265 -- 266	[pos="1751,262.3 1737.4,248.38 1717.4,227.85 1703.8,213.94"];
	55	[height=0.5,
		pos="1456.8,896.28",
		width=0.75];
	54 -- 55	[pos="1409.3,1082.1 1419.2,1043.3 1442.4,952.55 1452.3,914.05"];
	54 -- 125	[pos="1378,1096.7 1327.6,1090.1 1218.8,1075.9 1168.4,1069.2"];
	271	[height=0.5,
		pos="1332.9,588.2",
		width=0.75];
	267 -- 271	[pos="1479.8,384.12 1450.3,425.12 1374.2,530.85 1344.8,571.73"];
	268	[height=0.5,
		pos="1283,295.73",
		width=0.75];
	267 -- 268	[pos="1467.4,359.16 1427.2,345.32 1347.3,317.85 1307.2,304.05"];
	56	[height=0.5,
		pos="1435.5,940.45",
		width=0.75];
	55 -- 56	[pos="1448.5,913.49 1447,916.68 1445.4,920.02 1443.8,923.22"];
	55 -- 195	[pos="1465.3,878.93 1488.5,831.87 1552.2,702.21 1575.3,655.24"];
	274	[height=0.5,
		pos="1629.1,781.78",
		width=0.75];
	271 -- 274	[pos="1352.3,600.9 1406,635.98 1555.9,733.9 1609.6,769.04"];
	272	[height=0.5,
		pos="1132.3,749.23",
		width=0.75];
	271 -- 272	[pos="1315.5,602.21 1277.4,632.74 1187.5,704.97 1149.6,735.37"];
	57	[height=0.5,
		pos="1773.8,967.57",
		width=0.75];
	56 -- 57	[pos="1462.3,942.6 1525.6,947.68 1683.7,960.35 1747,965.42"];
	102	[height=0.5,
		pos="1201.8,810.6",
		width=0.75];
	56 -- 102	[pos="1414.4,928.7 1369.9,903.98 1267,846.85 1222.7,822.24"];
	277	[height=0.5,
		pos="1753.3,903.44",
		width=0.75];
	274 -- 277	[pos="1644.4,796.7 1668.2,820.05 1714,864.98 1737.9,888.4"];
	275	[height=0.5,
		pos="1646.8,693.01",
		width=0.75];
	274 -- 275	[pos="1632.7,763.82 1635.8,748.42 1640.1,726.34 1643.2,710.95"];
	58	[height=0.5,
		pos="1966.2,1159.2",
		width=0.75];
	57 -- 58	[pos="1788.9,982.61 1824.9,1018.4 1915.3,1108.5 1951.2,1144.3"];
	467	[height=0.5,
		pos="1857.6,841.73",
		width=0.75];
	57 -- 467	[pos="1784.9,950.86 1800.9,926.79 1830.4,882.62 1846.4,858.51"];
	280	[height=0.5,
		pos="1497.7,986.15",
		width=0.75];
	277 -- 280	[pos="1728.8,911.37 1679.9,927.18 1570.9,962.45 1522.2,978.24"];
	278	[height=0.5,
		pos="1915.1,775.2",
		width=0.75];
	277 -- 278	[pos="1770.9,889.47 1802,864.8 1866.4,813.81 1897.5,789.15"];
	59	[height=0.5,
		pos="1956.8,1279.9",
		width=0.75];
	58 -- 59	[pos="1964.8,1177.3 1963,1200.1 1960,1238.9 1958.2,1261.7"];
	468	[height=0.5,
		pos="2031.2,1042.3",
		width=0.75];
	58 -- 468	[pos="1975.7,1142.2 1988,1120.1 2009.4,1081.5 2021.7,1059.3"];
	283	[height=0.5,
		pos="1275.6,818.01",
		width=0.75];
	280 -- 283	[pos="1479.6,972.39 1437.8,940.78 1335.5,863.29 1293.8,831.72"];
	281	[height=0.5,
		pos="1516.2,1117.8",
		width=0.75];
	280 -- 281	[pos="1500.3,1004.2 1503.8,1029.3 1510.1,1074.4 1513.6,1099.6"];
	60	[height=0.5,
		pos="1904.9,1377.7",
		width=0.75];
	59 -- 60	[pos="1947.8,1297 1938.3,1314.8 1923.5,1342.7 1914,1360.6"];
	469	[height=0.5,
		pos="2027.5,1222.9",
		width=0.75];
	59 -- 469	[pos="1974.3,1265.8 1985.2,1257 1999.3,1245.7 2010.2,1236.9"];
	288	[height=0.5,
		pos="994.07,497.59",
		width=0.75];
	283 -- 288	[pos="1261.7,802.12 1213.6,747.44 1055.5,567.44 1007.8,513.2"];
	283 -- 284	[pos="1264.8,834.54 1246.1,863.21 1207.8,921.84 1189.1,950.56"];
	61	[height=0.5,
		pos="1734.9,1437.5",
		width=0.75];
	60 -- 61	[pos="1880.9,1386.2 1848.6,1397.5 1791.4,1417.6 1759,1429"];
	470	[height=0.5,
		pos="1963.6,1329.5",
		width=0.75];
	60 -- 470	[pos="1922.2,1363.5 1929.8,1357.3 1938.6,1350 1946.2,1343.8"];
	291	[height=0.5,
		pos="601.38,427.25",
		width=0.75];
	288 -- 291	[pos="967.69,492.87 896.16,480.05 699.04,444.74 627.64,431.95"];
	289	[height=0.5,
		pos="1013.8,324.53",
		width=0.75];
	288 -- 289	[pos="996.15,479.4 999.95,446.07 1008,375.62 1011.8,342.48"];
	62	[height=0.5,
		pos="1609.5,1445.6",
		width=0.75];
	61 -- 62	[pos="1708,1439.2 1687,1440.6 1657.9,1442.5 1636.8,1443.8"];
	471	[height=0.5,
		pos="1809.2,1386.5",
		width=0.75];
	61 -- 471	[pos="1754,1424.4 1765.2,1416.7 1779.2,1407.1 1790.3,1399.4"];
	294	[height=0.5,
		pos="425.94,589.48",
		width=0.75];
	291 -- 294	[pos="585.5,441.93 552.18,472.74 475.31,543.83 441.91,574.72"];
	291 -- 292	[pos="602.02,445.49 602.54,460.6 603.29,481.97 603.81,497.08"];
	63	[height=0.5,
		pos="1566.2,1302.9",
		width=0.75];
	62 -- 63	[pos="1604.1,1427.8 1595.8,1400.5 1580,1348.4 1571.7,1320.9"];
	363	[height=0.5,
		pos="1483,1517.9",
		width=0.75];
	62 -- 363	[pos="1588.9,1457.4 1565.4,1470.8 1527.1,1492.7 1503.6,1506.1"];
	299	[height=0.5,
		pos="263.91,538.06",
		width=0.75];
	294 -- 299	[pos="401.33,581.67 370.79,571.98 319.01,555.55 288.48,545.86"];
	295	[height=0.5,
		pos="570.74,694.44",
		width=0.75];
	294 -- 295	[pos="444.28,602.78 471.98,622.85 524.21,660.71 552.09,680.92"];
	64	[height=0.5,
		pos="1379.8,1210.7",
		width=0.75];
	63 -- 64	[pos="1544.5,1292.2 1508.6,1274.5 1437.6,1239.3 1401.7,1221.6"];
	347	[height=0.5,
		pos="1468.7,1321.3",
		width=0.75];
	63 -- 347	[pos="1540.1,1307.9 1526.1,1310.5 1508.9,1313.7 1494.9,1316.4"];
	301	[height=0.5,
		pos="202.15,582.11",
		width=0.75];
	299 -- 301	[pos="245.38,551.28 237.56,556.86 228.48,563.33 220.66,568.91"];
	300	[height=0.5,
		pos="327.96,629.92",
		width=0.75];
	299 -- 300	[pos="275.36,554.48 286.95,571.1 304.76,596.65 316.39,613.33"];
	65	[height=0.5,
		pos="1695.9,1150.9",
		width=0.75];
	64 -- 65	[pos="1405.9,1205.8 1465.4,1194.5 1610.2,1167.1 1669.7,1155.9"];
	239	[height=0.5,
		pos="1342.6,1077.1",
		width=0.75];
	64 -- 239	[pos="1374.8,1193 1367.7,1167.4 1354.7,1120.5 1347.6,1094.9"];
	304	[height=0.5,
		pos="327.63,746.64",
		width=0.75];
	301 -- 304	[pos="214.41,598.19 238.33,629.56 291.02,698.64 315.13,730.25"];
	301 -- 302	[pos="213.63,565.57 230.16,541.75 260.51,498.02 277.08,474.16"];
	66	[height=0.5,
		pos="1826.9,1059",
		width=0.75];
	65 -- 66	[pos="1714.6,1137.7 1739.5,1120.3 1783.2,1089.6 1808.1,1072.2"];
	350	[height=0.5,
		pos="1571.7,1161.8",
		width=0.75];
	65 -- 350	[pos="1668.9,1153.3 1648.1,1155.1 1619.4,1157.6 1598.6,1159.5"];
	307	[height=0.5,
		pos="450.77,973.07",
		width=0.75];
	304 -- 307	[pos="336.88,763.66 359.71,805.62 418.48,913.68 441.41,955.85"];
	304 -- 305	[pos="343.06,731.82 350.35,724.82 359.03,716.49 366.34,709.47"];
	67	[height=0.5,
		pos="1549.7,823.67",
		width=0.75];
	66 -- 67	[pos="1809.9,1044.7 1760.3,1002.5 1615.7,879.73 1566.4,837.85"];
	476	[height=0.5,
		pos="1742.1,1013.6",
		width=0.75];
	66 -- 476	[pos="1805.5,1047.6 1792.5,1040.6 1776.1,1031.8 1763.2,1024.9"];
	310	[height=0.5,
		pos="250.64,1066.5",
		width=0.75];
	307 -- 310	[pos="428.59,983.42 390.12,1001.4 311.46,1038.1 272.92,1056.1"];
	308	[height=0.5,
		pos="745.17,976.55",
		width=0.75];
	307 -- 308	[pos="477.94,973.39 534.03,974.05 662.04,975.57 718.07,976.23"];
	68	[height=0.5,
		pos="1339.7,778.78",
		width=0.75];
	67 -- 68	[pos="1523.9,818.17 1483.6,809.55 1406.1,792.97 1365.7,784.33"];
	209	[height=0.5,
		pos="1491.9,653.15",
		width=0.75];
	67 -- 209	[pos="1543.7,806.06 1532.6,773.39 1509,703.71 1497.9,670.92"];
	312	[height=0.5,
		pos="101.37,1044.8",
		width=0.75];
	310 -- 312	[pos="223.95,1062.6 196.78,1058.7 154.91,1052.6 127.83,1048.6"];
	311	[height=0.5,
		pos="343.02,1156.5",
		width=0.75];
	310 -- 311	[pos="265.9,1081.3 283.01,1098 310.62,1124.9 327.75,1141.6"];
	69	[height=0.5,
		pos="1196.5,707.83",
		width=0.75];
	68 -- 69	[pos="1318,768 1291.1,754.67 1245.5,732.09 1218.5,718.71"];
	68 -- 245	[pos="1350.1,795.63 1359.9,811.66 1374.6,835.63 1384.4,851.63"];
	314	[height=0.5,
		pos="27,920.38",
		width=0.75];
	312 -- 314	[pos="91.341,1028 77.147,1004.3 51.346,961.11 37.109,937.29"];
	313	[height=0.5,
		pos="164.73,1103.4",
		width=0.75];
	312 -- 313	[pos="117.36,1059.6 126.89,1068.4 138.96,1079.5 148.53,1088.4"];
	70	[height=0.5,
		pos="759.85,630.23",
		width=0.75];
	69 -- 70	[pos="1170.2,703.15 1092.3,689.31 863.54,648.65 785.95,634.86"];
	196	[height=0.5,
		pos="1395,632.16",
		width=0.75];
	69 -- 196	[pos="1220.1,698.85 1258.3,684.29 1333.3,655.68 1371.4,641.12"];
	316	[height=0.5,
		pos="151.14,912.72",
		width=0.75];
	314 -- 316	[pos="53.936,918.72 74.615,917.44 103.05,915.69 123.82,914.4"];
	315	[height=0.5,
		pos="61.947,1000.8",
		width=0.75];
	314 -- 315	[pos="34.583,937.82 40.445,951.31 48.521,969.88 54.379,983.35"];
	71	[height=0.5,
		pos="573.77,471.26",
		width=0.75];
	70 -- 71	[pos="743.01,615.84 707.58,585.57 625.72,515.64 590.44,485.5"];
	325	[height=0.5,
		pos="541.29,801.09",
		width=0.75];
	70 -- 325	[pos="741.97,644.21 700.78,676.41 599.64,755.47 558.81,787.39"];
	319	[height=0.5,
		pos="401.69,905",
		width=0.75];
	316 -- 319	[pos="178.43,911.88 226.62,910.39 326.26,907.32 374.43,905.84"];
	317	[height=0.5,
		pos="112.72,956.74",
		width=0.75];
	316 -- 317	[pos="137.27,928.61 133.74,932.65 129.96,936.99 126.44,941.02"];
	72	[height=0.5,
		pos="637.54,249.52",
		width=0.75];
	71 -- 72	[pos="578.88,453.49 590.82,411.97 620.44,308.98 632.41,267.38"];
	326	[height=0.5,
		pos="444.04,678.79",
		width=0.75];
	71 -- 326	[pos="563.37,487.89 539.08,526.75 478.82,623.14 454.48,662.08"];
	323	[height=0.5,
		pos="329.48,998.52",
		width=0.75];
	319 -- 323	[pos="389.11,921.29 375.86,938.46 355.12,965.32 341.92,982.42"];
	320	[height=0.5,
		pos="603.32,806.15",
		width=0.75];
	319 -- 320	[pos="423.65,894.23 462.44,875.22 542.62,835.91 581.38,816.9"];
	73	[height=0.5,
		pos="974.71,220.29",
		width=0.75];
	72 -- 73	[pos="664.56,247.18 727.69,241.7 884.3,228.13 947.56,222.64"];
	72 -- 159	[pos="617.07,261.4 610.24,265.37 602.62,269.8 595.76,273.78"];
	329	[height=0.5,
		pos="447.31,1172.4",
		width=0.75];
	323 -- 329	[pos="340.78,1015.2 363.3,1048.4 413.55,1122.6 436.05,1155.8"];
	323 -- 324	[pos="331.43,980.54 335.59,942.2 345.29,852.76 349.48,814.19"];
	74	[height=0.5,
		pos="1037.8,263.65",
		width=0.75];
	73 -- 74	[pos="993.64,233.3 1001.6,238.79 1010.9,245.16 1018.9,250.65"];
	73 -- 199	[pos="1001.5,222.87 1059.6,228.5 1197,241.78 1255.4,247.41"];
	332	[height=0.5,
		pos="304.9,1291",
		width=0.75];
	329 -- 332	[pos="430.41,1186.5 403.15,1209.2 349.74,1253.7 322.21,1276.6"];
	329 -- 330	[pos="470.23,1182.2 503.83,1196.6 566.11,1223.1 599.71,1237.5"];
	75	[height=0.5,
		pos="1186.3,396.39",
		width=0.75];
	74 -- 75	[pos="1054,278.11 1082.5,303.64 1141.6,356.43 1170.2,381.95"];
	186	[height=0.5,
		pos="913.69,272.09",
		width=0.75];
	74 -- 186	[pos="1010.9,265.48 990.05,266.9 961.37,268.84 940.57,270.26"];
	334	[height=0.5,
		pos="385.56,1290.2",
		width=0.75];
	332 -- 334	[pos="332.21,1290.7 340.71,1290.7 350.07,1290.6 358.56,1290.5"];
	333	[height=0.5,
		pos="337.79,1246.2",
		width=0.75];
	332 -- 333	[pos="316.77,1274.8 319.72,1270.8 322.87,1266.5 325.82,1262.5"];
	76	[height=0.5,
		pos="1260.5,670.89",
		width=0.75];
	75 -- 76	[pos="1191.2,414.4 1204.7,464.26 1242.4,603.66 1255.7,653.17"];
	229	[height=0.5,
		pos="1428.7,427.91",
		width=0.75];
	75 -- 229	[pos="1213.2,399.88 1259.9,405.96 1355.5,418.4 1402.1,424.45"];
	337	[height=0.5,
		pos="550.32,1363.6",
		width=0.75];
	334 -- 337	[pos="408.13,1300.2 439.59,1314.3 496.31,1339.5 527.77,1353.5"];
	334 -- 335	[pos="382.39,1272 374.96,1229.3 356.51,1123.3 349.12,1080.9"];
	77	[height=0.5,
		pos="1322.6,668.64",
		width=0.75];
	76 -- 77	[pos="1287.6,669.91 1290.2,669.82 1292.8,669.72 1295.4,669.62"];
	120	[height=0.5,
		pos="1190.8,902.66",
		width=0.75];
	76 -- 120	[pos="1255.2,688.69 1242.2,731.84 1209.2,841.59 1196.2,884.8"];
	339	[height=0.5,
		pos="782.2,1451.1",
		width=0.75];
	337 -- 339	[pos="573.83,1372.4 618.27,1389.2 714.14,1425.4 758.63,1442.2"];
	338	[height=0.5,
		pos="617.21,1387",
		width=0.75];
	337 -- 338	[pos="574.47,1372 580.46,1374.1 586.88,1376.4 592.87,1378.5"];
	78	[height=0.5,
		pos="1621.9,432.04",
		width=0.75];
	77 -- 78	[pos="1340.4,654.55 1393.6,612.47 1551.1,488.04 1604.2,446.06"];
	77 -- 114	[pos="1307.7,683.87 1273,719.44 1186.9,807.69 1152.1,843.33"];
	341	[height=0.5,
		pos="1041.3,1340.7",
		width=0.75];
	339 -- 341	[pos="805.2,1441.3 854.37,1420.3 969.24,1371.4 1018.4,1350.5"];
	340	[height=0.5,
		pos="844.5,1454",
		width=0.75];
	339 -- 340	[pos="809.35,1452.4 811.97,1452.5 814.63,1452.6 817.26,1452.7"];
	79	[height=0.5,
		pos="1549.7,110.46",
		width=0.75];
	78 -- 79	[pos="1617.9,413.83 1605.1,357.23 1566.4,184.8 1553.7,128.47"];
	78 -- 275	[pos="1623.7,450.39 1628.3,498.42 1640.5,627.41 1645.1,675.03"];
	345	[height=0.5,
		pos="1416.6,1386.8",
		width=0.75];
	341 -- 345	[pos="1068,1344 1137,1352.4 1320.7,1375 1389.8,1383.5"];
	341 -- 342	[pos="1013.9,1340.7 969.55,1340.8 882.34,1340.9 837.98,1341"];
	80	[height=0.5,
		pos="1399.6,18",
		width=0.75];
	79 -- 80	[pos="1529.8,98.185 1501.1,80.5 1448.4,48.043 1419.6,30.329"];
	489	[height=0.5,
		pos="1627,234.68",
		width=0.75];
	79 -- 489	[pos="1560.1,127.22 1574.9,150.92 1601.7,194.02 1616.5,217.8"];
	349	[height=0.5,
		pos="1526.4,1365.3",
		width=0.75];
	345 -- 349	[pos="1442.6,1381.7 1460,1378.3 1482.8,1373.9 1500.2,1370.5"];
	345 -- 346	[pos="1425.9,1369.8 1441.9,1340.3 1474.8,1279.9 1490.9,1250.3"];
	81	[height=0.5,
		pos="1202.7,84.637",
		width=0.75];
	80 -- 81	[pos="1375.5,26.171 1337.7,38.96 1264.9,63.569 1227,76.399"];
	490	[height=0.5,
		pos="1442.3,67.229",
		width=0.75];
	80 -- 490	[pos="1413.4,33.847 1418.2,39.469 1423.7,45.792 1428.6,51.411"];
	353	[height=0.5,
		pos="1547.4,1516.5",
		width=0.75];
	349 -- 353	[pos="1528.9,1383.3 1532.9,1412.2 1540.8,1468.9 1544.8,1498.1"];
	349 -- 350	[pos="1530.4,1347.3 1539,1308.7 1559.1,1218.4 1567.7,1179.9"];
	82	[height=0.5,
		pos="905.31,90.974",
		width=0.75];
	81 -- 82	[pos="1175.5,85.216 1118.9,86.423 988.8,89.195 932.32,90.398"];
	178	[height=0.5,
		pos="1128.5,217.56",
		width=0.75];
	81 -- 178	[pos="1193.1,101.74 1178.9,127.26 1152.2,175.03 1138,200.52"];
	355	[height=0.5,
		pos="1432.1,1561.9",
		width=0.75];
	353 -- 355	[pos="1524,1525.7 1504,1533.6 1475.4,1544.9 1455.4,1552.7"];
	354	[height=0.5,
		pos="1524.6,1444.2",
		width=0.75];
	353 -- 354	[pos="1541.7,1498.7 1538.2,1487.5 1533.7,1473.1 1530.2,1461.9"];
	83	[height=0.5,
		pos="674.79,295.22",
		width=0.75];
	82 -- 83	[pos="888.73,105.66 846.2,143.35 733.58,243.13 691.21,280.67"];
	492	[height=0.5,
		pos="949.97,134.98",
		width=0.75];
	82 -- 492	[pos="920.68,106.12 925.22,110.59 930.19,115.49 934.72,119.96"];
	357	[height=0.5,
		pos="1324.6,1422.7",
		width=0.75];
	355 -- 357	[pos="1419.5,1545.7 1398.8,1518.8 1357.7,1465.6 1337.1,1438.8"];
	356	[height=0.5,
		pos="1363.5,1518.9",
		width=0.75];
	355 -- 356	[pos="1412.3,1549.5 1403.2,1543.8 1392.6,1537.1 1383.6,1531.4"];
	84	[height=0.5,
		pos="821.95,636.52",
		width=0.75];
	83 -- 84	[pos="682.29,312.62 707.53,371.16 789.24,560.67 814.47,619.16"];
	83 -- 153	[pos="648.04,298.85 611.92,303.74 547.95,312.4 511.9,317.29"];
	361	[height=0.5,
		pos="1420.5,1474.8",
		width=0.75];
	357 -- 361	[pos="1345.9,1434.3 1361.8,1442.9 1383.4,1454.7 1399.3,1463.3"];
	357 -- 358	[pos="1310.6,1407.2 1276.6,1369.6 1190,1273.9 1155.9,1236.3"];
	85	[height=0.5,
		pos="859.46,876.77",
		width=0.75];
	84 -- 85	[pos="824.77,654.58 831.74,699.21 849.71,814.33 856.66,858.83"];
	234	[height=0.5,
		pos="1068.4,772.81",
		width=0.75];
	84 -- 234	[pos="842.97,648.14 889.54,673.89 1001,735.5 1047.5,761.22"];
	365	[height=0.5,
		pos="1015.3,1384.7",
		width=0.75];
	361 -- 365	[pos="1394.9,1469.1 1322,1452.9 1114.2,1406.7 1041.1,1390.5"];
	361 -- 362	[pos="1442.5,1464.1 1475.2,1448 1536.5,1417.8 1569.2,1401.7"];
	86	[height=0.5,
		pos="665.32,842.9",
		width=0.75];
	85 -- 86	[pos="833.28,872.21 796.23,865.74 728.88,853.99 691.71,847.51"];
	374	[height=0.5,
		pos="983.33,983.35",
		width=0.75];
	85 -- 374	[pos="876.17,891.15 899.81,911.49 942.78,948.46 966.5,968.86"];
	368	[height=0.5,
		pos="1055.7,1430.9",
		width=0.75];
	365 -- 368	[pos="1029,1400.4 1033.2,1405.2 1037.8,1410.5 1042,1415.3"];
	366	[height=0.5,
		pos="871.09,1281.6",
		width=0.75];
	365 -- 366	[pos="996.77,1371.4 969.07,1351.7 917.23,1314.6 889.58,1294.9"];
	87	[height=0.5,
		pos="744.11,495.91",
		width=0.75];
	86 -- 87	[pos="669.45,824.74 683.06,764.77 726.47,573.6 740.02,513.9"];
	86 -- 133	[pos="655.21,859.93 633.93,895.76 584.76,978.54 563.57,1014.2"];
	370	[height=0.5,
		pos="1184.8,1265.8",
		width=0.75];
	368 -- 370	[pos="1068.3,1414.8 1093.1,1383.1 1147.7,1313.2 1172.4,1281.7"];
	369	[height=0.5,
		pos="1130.9,1399.5",
		width=0.75];
	368 -- 369	[pos="1078.6,1421.4 1087.9,1417.5 1098.5,1413.1 1107.8,1409.2"];
	88	[height=0.5,
		pos="819.49,497.84",
		width=0.75];
	87 -- 88	[pos="771.32,496.61 778.15,496.78 785.49,496.97 792.32,497.15"];
	87 -- 173	[pos="752.13,478.33 771.63,435.62 821.31,326.8 840.69,284.35"];
	373	[height=0.5,
		pos="1128.3,1109.9",
		width=0.75];
	370 -- 373	[pos="1178.5,1248.2 1167.6,1218.2 1145.7,1157.7 1134.8,1127.7"];
	370 -- 371	[pos="1205.1,1278.2 1255.1,1308.8 1384,1387.9 1433.9,1418.5"];
	89	[height=0.5,
		pos="390.19,634.48",
		width=0.75];
	88 -- 89	[pos="794.87,505.68 719.15,529.78 490.3,602.62 414.71,626.68"];
	210	[height=0.5,
		pos="1242.8,440.42",
		width=0.75];
	88 -- 210	[pos="845.97,494.25 922,483.94 1140.3,454.32 1216.4,444.01"];
	376	[height=0.5,
		pos="1240.3,946.66",
		width=0.75];
	373 -- 376	[pos="1139.7,1093.4 1161.1,1062.1 1207.4,994.58 1228.9,963.26"];
	373 -- 374	[pos="1111.7,1095.4 1083.7,1071 1027.6,1022 999.77,997.69"];
	90	[height=0.5,
		pos="213.18,876.9",
		width=0.75];
	89 -- 90	[pos="378.3,650.77 346.05,694.93 257.2,816.61 225.02,860.69"];
	499	[height=0.5,
		pos="449.99,544.96",
		width=0.75];
	89 -- 499	[pos="401.44,617.64 412.2,601.54 428.32,577.4 438.99,561.42"];
	379	[height=0.5,
		pos="1365.9,824.38",
		width=0.75];
	376 -- 379	[pos="1255.7,931.67 1279.8,908.2 1326.2,863.04 1350.3,839.5"];
	377	[height=0.5,
		pos="1194.4,763.41",
		width=0.75];
	376 -- 377	[pos="1235.8,928.76 1227,893.73 1207.7,816.48 1198.9,781.39"];
	91	[height=0.5,
		pos="300.74,1110.9",
		width=0.75];
	90 -- 91	[pos="219.76,894.49 236.03,937.97 277.98,1050.1 294.21,1093.5"];
	500	[height=0.5,
		pos="265.59,765.8",
		width=0.75];
	90 -- 500	[pos="221.37,859.54 231.21,838.67 247.64,803.86 257.46,783.04"];
	382	[height=0.5,
		pos="1537.9,563.39",
		width=0.75];
	379 -- 382	[pos="1376.9,807.66 1408,760.52 1496,626.95 1527,579.98"];
	380	[height=0.5,
		pos="1421.5,984.87",
		width=0.75];
	379 -- 380	[pos="1372,842.17 1382.7,873.02 1404.6,936.1 1415.3,967"];
	92	[height=0.5,
		pos="448.18,1276.2",
		width=0.75];
	91 -- 92	[pos="314.61,1126.5 342.71,1158 406.08,1229 434.24,1260.6"];
	91 -- 317	[pos="283.39,1096.7 247.48,1067.3 165.4,999.94 129.76,970.71"];
	386	[height=0.5,
		pos="1352.9,387.72",
		width=0.75];
	382 -- 386	[pos="1522.2,548.41 1487.2,515.22 1403.6,435.81 1368.6,402.66"];
	382 -- 383	[pos="1562.4,555.77 1607.8,541.63 1704.7,511.46 1750.3,497.26"];
	93	[height=0.5,
		pos="635.45,1291.3",
		width=0.75];
	92 -- 93	[pos="475.01,1278.4 510.51,1281.3 572.74,1286.3 608.36,1289.1"];
	502	[height=0.5,
		pos="385.29,1202.2",
		width=0.75];
	92 -- 502	[pos="434.84,1260.5 424.17,1248 409.28,1230.4 398.61,1217.8"];
	388	[height=0.5,
		pos="1000.8,393.85",
		width=0.75];
	386 -- 388	[pos="1325.9,388.19 1260.3,389.33 1093.6,392.23 1027.9,393.37"];
	387	[height=0.5,
		pos="1650.8,476.09",
		width=0.75];
	386 -- 387	[pos="1377.8,395.1 1433.9,411.73 1569.6,451.99 1625.8,468.66"];
	94	[height=0.5,
		pos="766.7,1108.6",
		width=0.75];
	93 -- 94	[pos="647.33,1274.8 672.32,1240 730.06,1159.6 754.94,1125"];
	343	[height=0.5,
		pos="741.49,1291.3",
		width=0.75];
	93 -- 343	[pos="662.48,1291.3 678.31,1291.3 698.25,1291.3 714.14,1291.3"];
	393	[height=0.5,
		pos="1075.9,314.99",
		width=0.75];
	388 -- 393	[pos="1015.3,378.64 1028.5,364.77 1047.9,344.36 1061.2,330.41"];
	389	[height=0.5,
		pos="821.88,592.11",
		width=0.75];
	388 -- 389	[pos="986.73,409.4 953.29,446.47 869.23,539.63 835.85,576.62"];
	95	[height=0.5,
		pos="921.36,1084.7",
		width=0.75];
	94 -- 95	[pos="793.29,1104.5 821.7,1100.1 866.48,1093.2 894.86,1088.8"];
	126	[height=0.5,
		pos="829.8,1078.2",
		width=0.75];
	94 -- 126	[pos="788.77,1098 794.88,1095 801.52,1091.8 807.64,1088.9"];
	399	[height=0.5,
		pos="1178.2,261.57",
		width=0.75];
	393 -- 399	[pos="1097.6,303.66 1115.1,294.53 1139.5,281.77 1156.9,272.7"];
	394	[height=0.5,
		pos="1038.4,452.57",
		width=0.75];
	393 -- 394	[pos="1071,332.97 1063.8,359.34 1050.5,408.21 1043.3,434.58"];
	96	[height=0.5,
		pos="951.11,834.31",
		width=0.75];
	95 -- 96	[pos="923.5,1066.7 928.98,1020.6 943.45,898.77 948.95,852.49"];
	359	[height=0.5,
		pos="994.67,1167.8",
		width=0.75];
	95 -- 359	[pos="935.15,1100.3 948.26,1115.2 967.86,1137.4 980.95,1152.2"];
	402	[height=0.5,
		pos="1264.7,45.618",
		width=0.75];
	399 -- 402	[pos="1185.3,243.89 1201.6,203.3 1241.4,103.77 1257.6,63.232"];
	400	[height=0.5,
		pos="1389.2,521.08",
		width=0.75];
	399 -- 400	[pos="1191.1,277.41 1228.8,323.74 1338.5,458.63 1376.3,505.11"];
	97	[height=0.5,
		pos="524.41,614.8",
		width=0.75];
	96 -- 97	[pos="929.66,823.27 856.74,785.76 618.89,663.4 545.9,625.85"];
	225	[height=0.5,
		pos="1079.7,550.64",
		width=0.75];
	96 -- 225	[pos="958.96,816.99 981.92,766.35 1048.7,618.9 1071.8,568.09"];
	404	[height=0.5,
		pos="1065.4,57.068",
		width=0.75];
	402 -- 404	[pos="1237.4,47.186 1199.2,49.379 1130.3,53.337 1092.3,55.519"];
	403	[height=0.5,
		pos="1326.7,58.064",
		width=0.75];
	402 -- 403	[pos="1290.6,50.824 1293.9,51.49 1297.3,52.173 1300.7,52.839"];
	98	[height=0.5,
		pos="474.15,366.78",
		width=0.75];
	97 -- 98	[pos="520.71,596.56 511.39,550.58 487.03,430.35 477.78,384.71"];
	507	[height=0.5,
		pos="511.99,515.27",
		width=0.75];
	97 -- 507	[pos="522.13,596.54 519.89,578.58 516.49,551.33 514.25,533.41"];
	407	[height=0.5,
		pos="800.08,222.99",
		width=0.75];
	404 -- 407	[pos="1045.4,69.54 996.14,100.36 869.03,179.87 819.89,210.6"];
	405	[height=0.5,
		pos="1121.6,173.52",
		width=0.75];
	404 -- 405	[pos="1073.7,74.251 1084.3,96.269 1102.6,134.22 1113.2,156.27"];
	99	[height=0.5,
		pos="564.59,382.95",
		width=0.75];
	98 -- 99	[pos="500.31,371.46 512.31,373.6 526.5,376.14 538.49,378.28"];
	508	[height=0.5,
		pos="512.81,276.75",
		width=0.75];
	98 -- 508	[pos="481.6,349.42 488.41,333.58 498.41,310.28 505.25,294.37"];
	410	[height=0.5,
		pos="701.36,135.94",
		width=0.75];
	407 -- 410	[pos="783.78,208.62 765.49,192.49 735.99,166.48 717.69,150.34"];
	408	[height=0.5,
		pos="725.7,383.51",
		width=0.75];
	407 -- 408	[pos="791.98,240.48 777.67,271.36 748.09,335.19 733.79,366.05"];
	103	[height=0.5,
		pos="935.83,587.07",
		width=0.75];
	99 -- 103	[pos="585.62,394.51 650.81,430.35 849.08,539.37 914.58,575.39"];
	411	[height=0.5,
		pos="785.07,283.98",
		width=0.75];
	410 -- 411	[pos="710.96,152.92 727.03,181.33 759.16,238.16 775.32,266.74"];
	101 -- 102	[pos="1086.1,874.27 1111.9,860.08 1155.3,836.22 1180.9,822.09"];
	101 -- 181	[pos="1056.9,868.68 1045.8,845.2 1025.9,803.32 1014.6,779.71"];
	102 -- 103	[pos="1184.8,796.28 1136.7,755.91 1000.6,641.5 952.73,601.28"];
	146	[height=0.5,
		pos="1134.5,692.44",
		width=0.75];
	102 -- 146	[pos="1192.2,793.67 1179.4,771.21 1156.9,731.78 1144.1,709.34"];
	292 -- 295	[pos="601.03,533.46 594.55,567.88 580.56,642.24 574.11,676.49"];
	293	[height=0.5,
		pos="756.1,540.02",
		width=0.75];
	292 -- 293	[pos="630.87,519.6 658.62,524.13 702,531.2 729.73,535.72"];
	295 -- 320	[pos="575.97,712.38 582.05,733.23 592.02,767.42 598.1,788.24"];
	296	[height=0.5,
		pos="750.68,883.66",
		width=0.75];
	295 -- 296	[pos="585.46,709.92 619.29,745.49 702.22,832.71 736,868.23"];
	320 -- 389	[pos="618.69,791.1 658.82,751.8 766.42,646.42 806.53,607.14"];
	321	[height=0.5,
		pos="561.11,946.59",
		width=0.75];
	320 -- 321	[pos="597.97,823.93 589.9,850.8 574.67,901.46 566.54,928.5"];
	389 -- 411	[pos="819.69,573.76 813.14,518.95 793.78,356.91 787.25,302.23"];
	390	[height=0.5,
		pos="998.39,543",
		width=0.75];
	389 -- 390	[pos="847.17,585.07 880.82,575.71 939.95,559.26 973.44,549.94"];
	106	[height=0.5,
		pos="870,548.1",
		width=0.75];
	103 -- 106	[pos="915.37,574.96 907.36,570.22 898.21,564.8 890.23,560.08"];
	412	[height=0.5,
		pos="912.47,179",
		width=0.75];
	411 -- 412	[pos="802.25,269.82 826.57,249.79 870.77,213.37 895.15,193.27"];
	105 -- 106	[pos="1045.2,416.66 1008.2,444.39 924.8,506.99 888.01,534.59"];
	442	[height=0.5,
		pos="1311.4,431.74",
		width=0.75];
	105 -- 442	[pos="1090.4,406.14 1138.2,411.68 1237.2,423.15 1284.8,428.66"];
	213 -- 412	[pos="1167,173.31 1113.3,174.51 993.74,177.18 939.8,178.39"];
	214	[height=0.5,
		pos="1361.8,102.09",
		width=0.75];
	213 -- 214	[pos="1217,163.03 1249,149.55 1306.8,125.24 1338.8,111.76"];
	109	[height=0.5,
		pos="666.21,727.36",
		width=0.75];
	106 -- 109	[pos="853.67,562.47 815.51,596.03 720.86,679.29 682.62,712.93"];
	413	[height=0.5,
		pos="646.67,179.98",
		width=0.75];
	412 -- 413	[pos="885.03,179.1 833.96,179.29 724.92,179.69 673.96,179.88"];
	108 -- 109	[pos="626.53,745.64 632.09,743.08 638.05,740.33 643.61,737.77"];
	108 -- 141	[pos="610.23,738.26 620.16,709.53 639.66,653.11 649.59,624.4"];
	189 -- 413	[pos="819.56,116.18 781.77,130.13 708.31,157.23 670.47,171.2"];
	190	[height=0.5,
		pos="1140.6,81.615",
		width=0.75];
	189 -- 190	[pos="870.19,105.09 926.66,100.19 1057,88.878 1113.6,83.965"];
	112	[height=0.5,
		pos="807.21,964.9",
		width=0.75];
	109 -- 112	[pos="676.35,744.45 702.37,788.27 771.25,904.32 797.16,947.97"];
	413 -- 414	[pos="632.22,195.56 587.33,243.99 450.55,391.53 405.87,439.72"];
	111 -- 112	[pos="645.83,989.23 681.64,983.83 745.08,974.27 780.82,968.88"];
	111 -- 119	[pos="645.63,988.82 706.11,978.69 854.37,953.86 914.76,943.74"];
	115	[height=0.5,
		pos="1045.4,1021.9",
		width=0.75];
	112 -- 115	[pos="832.69,971 878.41,981.93 973.85,1004.8 1019.7,1015.7"];
	415	[height=0.5,
		pos="391.39,751.95",
		width=0.75];
	414 -- 415	[pos="391.57,473.25 391.54,526.24 391.44,680.52 391.41,733.69"];
	335 -- 415	[pos="348.63,1044.9 356.65,989.9 380.72,825.09 388.75,770.06"];
	336	[height=0.5,
		pos="447.61,1333.9",
		width=0.75];
	335 -- 336	[pos="352.66,1080.7 371.12,1129.9 422.72,1267.5 441.05,1316.4"];
	114 -- 115	[pos="1127.5,875.79 1109.8,907.22 1072.5,973.66 1054.9,1004.9"];
	147	[height=0.5,
		pos="1052.7,703.82",
		width=0.75];
	114 -- 147	[pos="1127.8,841.47 1111.6,811.71 1078.4,750.87 1062.1,721.05"];
	115 -- 117	[pos="1054.6,1038.8 1070.5,1068.2 1103.2,1128.2 1119.2,1157.6"];
	416	[height=0.5,
		pos="457.1,860.52",
		width=0.75];
	415 -- 416	[pos="401.66,768.92 414,789.31 434.59,823.33 446.9,843.68"];
	119 -- 296	[pos="916.12,932.07 879.65,921.39 812.04,901.62 775.57,890.94"];
	119 -- 120	[pos="967.73,935.42 1015.8,928.36 1116.3,913.6 1164.3,906.56"];
	296 -- 416	[pos="723.85,881.55 668.08,877.15 540.18,867.07 484.19,862.66"];
	297	[height=0.5,
		pos="868,831.83",
		width=0.75];
	296 -- 297	[pos="773.3,873.67 794.08,864.49 824.7,850.96 845.45,841.8"];
	121	[height=0.5,
		pos="1223.5,1079",
		width=0.75];
	117 -- 121	[pos="1143.8,1159.3 1161.6,1141.3 1190.9,1111.8 1208.6,1094"];
	416 -- 417	[pos="429.99,858.61 367.11,854.17 211.93,843.21 149.26,838.79"];
	120 -- 121	[pos="1194.1,920.54 1200.4,954.34 1213.9,1027.3 1220.2,1061.1"];
	120 -- 202	[pos="1214,893.06 1267.4,871 1398.4,816.9 1451.7,794.87"];
	121 -- 123	[pos="1209.2,1094.6 1181.7,1124.7 1121.5,1190.3 1094,1220.4"];
	417 -- 418	[pos="119.78,818.76 117.33,801.53 113.67,775.76 111.22,758.56"];
	127	[height=0.5,
		pos="864.19,1195.8",
		width=0.75];
	123 -- 127	[pos="1053.4,1231 1011.9,1223.3 931.92,1208.4 890.51,1200.7"];
	419	[height=0.5,
		pos="201.12,717.86",
		width=0.75];
	418 -- 419	[pos="134.41,734.2 147.24,731.06 162.7,727.27 175.5,724.13"];
	125 -- 126	[pos="1114.5,1066.8 1055.5,1069.2 916.2,1074.7 857.09,1077.1"];
	233	[height=0.5,
		pos="1116.2,997.81",
		width=0.75];
	125 -- 233	[pos="1135.1,1048.2 1131.3,1038.2 1126.6,1025.6 1122.8,1015.5"];
	324 -- 419	[pos="329.91,784.78 301.34,769.93 251.18,743.87 222.62,729.03"];
	324 -- 325	[pos="378.65,796.7 414.74,797.67 478.08,799.38 514.14,800.36"];
	126 -- 127	[pos="835.02,1096 841.49,1118.1 852.43,1155.6 858.92,1177.8"];
	126 -- 150	[pos="811.31,1064.9 772.52,1037.1 683.01,972.94 644.13,945.07"];
	127 -- 129	[pos="854.45,1212.8 833.26,1249.7 783.21,1336.8 761.97,1373.8"];
	420	[height=0.5,
		pos="139.89,526.37",
		width=0.75];
	419 -- 420	[pos="195.47,700.19 183.8,663.71 157.18,580.44 145.52,543.99"];
	156 -- 420	[pos="142.97,455.24 142.3,470.71 141.34,492.88 140.67,508.35"];
	157	[height=0.5,
		pos="268.63,413.55",
		width=0.75];
	156 -- 157	[pos="169.93,432.24 191.25,428.2 221.18,422.53 242.49,418.5"];
	129 -- 131	[pos="728.57,1381.6 692.08,1367.4 622.39,1340.1 586.08,1325.9"];
	421	[height=0.5,
		pos="419.05,410.96",
		width=0.75];
	420 -- 421	[pos="163.21,516.72 215.89,494.95 343.56,442.17 395.99,420.5"];
	302 -- 421	[pos="312.53,449.01 335.92,440.65 371.35,428 394.83,419.61"];
	303	[height=0.5,
		pos="264.45,632.98",
		width=0.75];
	302 -- 303	[pos="286.11,475.66 281.47,509.37 271.56,581.33 266.93,614.96"];
	134	[height=0.5,
		pos="562.97,1179",
		width=0.75];
	131 -- 134	[pos="562.8,1298.8 562.84,1272.4 562.91,1223.4 562.95,1197"];
	422	[height=0.5,
		pos="737.12,441.61",
		width=0.75];
	421 -- 422	[pos="445.89,413.55 505.8,419.32 649.85,433.2 710.01,438.99"];
	185 -- 390	[pos="892.43,377 914.72,411.92 965.69,491.76 987.82,526.43"];
	185 -- 186	[pos="888.14,342.3 893.7,327.03 901.66,305.14 907.22,289.87"];
	133 -- 134	[pos="554.71,1049.2 556.52,1077.6 560,1132.2 561.81,1160.7"];
	327	[height=0.5,
		pos="546.47,898.96",
		width=0.75];
	133 -- 327	[pos="552.59,1013 551.24,987.82 548.81,942.52 547.45,917.25"];
	390 -- 394	[pos="1006.1,525.56 1013.2,509.55 1023.6,485.95 1030.7,469.95"];
	391	[height=0.5,
		pos="1244.8,610.26",
		width=0.75];
	390 -- 391	[pos="1023.8,549.95 1071.2,562.87 1172.3,590.46 1219.5,603.36"];
	394 -- 422	[pos="1011.4,451.58 954.17,449.5 821.39,444.67 764.17,442.59"];
	394 -- 395	[pos="1059.4,463.96 1095.4,483.41 1168.2,522.81 1204.2,542.24"];
	137	[height=0.5,
		pos="801.48,1203.7",
		width=0.75];
	134 -- 137	[pos="589.87,1181.8 635.8,1186.6 728.82,1196.2 774.68,1200.9"];
	423	[height=0.5,
		pos="687.79,562.65",
		width=0.75];
	422 -- 423	[pos="729.95,459.21 720.59,482.16 704.33,522.07 694.97,545.03"];
	144 -- 423	[pos="708.32,656.34 703.75,635.51 696.27,601.35 691.71,580.54"];
	144 -- 145	[pos="734.37,684.76 790.02,711.12 935.3,779.97 990.98,806.36"];
	136 -- 137	[pos="1033.1,1284.2 984.38,1267.3 874.49,1229.1 825.66,1212.1"];
	450	[height=0.5,
		pos="1371.6,1298.8",
		width=0.75];
	136 -- 450	[pos="1084.3,1293.1 1143.7,1294.3 1285,1297.1 1344.5,1298.2"];
	137 -- 139	[pos="786.59,1188.6 764.1,1165.7 721.7,1122.6 699.06,1099.6"];
	424	[height=0.5,
		pos="820.6,699.55",
		width=0.75];
	423 -- 424	[pos="702.51,577.83 728.04,604.14 780.24,657.95 805.82,684.31"];
	222 -- 377	[pos="1181,482.31 1183.6,535.88 1191,692.11 1193.6,745.37"];
	223	[height=0.5,
		pos="1292.5,339.75",
		width=0.75];
	222 -- 223	[pos="1194.1,448.54 1215.7,424.72 1256.7,379.36 1278.3,355.43"];
	377 -- 424	[pos="1168.1,758.92 1099.5,747.2 915.46,715.76 846.86,704.04"];
	378	[height=0.5,
		pos="1285.3,990.68",
		width=0.75];
	377 -- 378	[pos="1201.4,780.87 1218.3,823.17 1261.3,930.8 1278.3,973.17"];
	142	[height=0.5,
		pos="727.33,839.63",
		width=0.75];
	139 -- 142	[pos="687.12,1066.2 695.14,1021 716.1,902.9 724.14,857.64"];
	425	[height=0.5,
		pos="479.24,786.08",
		width=0.75];
	424 -- 425	[pos="795.22,705.98 732.03,722 568.16,763.54 504.78,779.6"];
	141 -- 142	[pos="661.2,624.6 674.54,667.96 708.46,778.26 721.81,821.67"];
	141 -- 176	[pos="673.14,592.47 718.79,555.19 841.36,455.07 886.61,418.11"];
	305 -- 425	[pos="397.62,709.16 415.66,726.16 445.17,753.97 463.33,771.08"];
	306	[height=0.5,
		pos="336.53,839.98",
		width=0.75];
	305 -- 306	[pos="376.42,712.28 367.7,740.21 350.9,793.96 342.15,821.99"];
	148	[height=0.5,
		pos="825.05,751.12",
		width=0.75];
	142 -- 148	[pos="743.47,825.01 761.57,808.61 790.77,782.16 808.89,765.76"];
	426	[height=0.5,
		pos="618.83,886.92",
		width=0.75];
	425 -- 426	[pos="497.77,799.47 524.47,818.76 573.47,854.15 600.22,873.47"];
	145 -- 237	[pos="1017.8,834.82 1025.8,865.04 1041.7,925.66 1049.5,955.74"];
	145 -- 146	[pos="1028,801.6 1051.3,777.72 1096.1,731.77 1119.5,707.82"];
	237 -- 308	[pos="1027,973.77 968.57,974.34 831.3,975.7 772.59,976.28"];
	237 -- 238	[pos="1080.7,977.21 1136.4,985 1264.8,1003 1320.6,1010.8"];
	146 -- 147	[pos="1107.7,696.16 1098.6,697.43 1088.4,698.85 1079.2,700.12"];
	146 -- 400	[pos="1153.7,679.56 1201,647.72 1323,565.62 1370.2,533.87"];
	308 -- 426	[pos="726.53,963.32 702.64,946.38 661.47,917.17 637.55,900.2"];
	309	[height=0.5,
		pos="463.12,1023.7",
		width=0.75];
	308 -- 309	[pos="718.89,980.95 665.14,989.94 543.21,1010.3 489.43,1019.3"];
	147 -- 148	[pos="1026.6,709.24 982.65,718.37 894.56,736.68 850.85,745.76"];
	397	[height=0.5,
		pos="1242.2,500.18",
		width=0.75];
	147 -- 397	[pos="1066.9,688.51 1102,650.77 1192.5,553.59 1227.8,515.66"];
	151	[height=0.5,
		pos="520.89,741.38",
		width=0.75];
	148 -- 151	[pos="798.06,750.26 740.48,748.41 606.16,744.11 548.26,742.26"];
	427	[height=0.5,
		pos="650.04,683.36",
		width=0.75];
	426 -- 427	[pos="621.6,868.86 627.52,830.23 641.36,739.98 647.28,701.38"];
	176 -- 408	[pos="877.05,401.06 843.5,397.17 786.17,390.52 752.53,386.62"];
	176 -- 177	[pos="929.52,398.42 976.67,387.94 1076.2,365.83 1123.4,355.35"];
	150 -- 151	[pos="616.06,914.51 596.14,878.27 550.1,794.52 530.26,758.43"];
	150 -- 321	[pos="599.7,937.69 595.5,938.66 591.15,939.66 586.95,940.63"];
	408 -- 427	[pos="721.19,401.37 707.74,454.7 667.95,612.39 654.52,665.6"];
	409	[height=0.5,
		pos="789.13,178.97",
		width=0.75];
	408 -- 409	[pos="731.22,365.72 743.21,327.04 771.55,235.65 783.58,196.87"];
	154	[height=0.5,
		pos="387.96,543.27",
		width=0.75];
	151 -- 154	[pos="509.78,724.83 484.76,687.54 424.2,597.29 399.12,559.91"];
	428	[height=0.5,
		pos="816.95,920.88",
		width=0.75];
	427 -- 428	[pos="661.51,699.69 692.01,743.08 774.81,860.92 805.39,904.44"];
	232 -- 272	[pos="1127.6,903.54 1128.6,870.42 1130.8,800.5 1131.8,767.37"];
	232 -- 233	[pos="1124.5,939.71 1122.8,951.76 1120.5,967.56 1118.8,979.63"];
	272 -- 297	[pos="1107.5,757 1057,772.79 942.9,808.43 892.61,824.14"];
	273	[height=0.5,
		pos="1287.3,544.18",
		width=0.75];
	272 -- 273	[pos="1144.5,733.14 1173.4,694.9 1246,598.93 1275,560.48"];
	297 -- 428	[pos="858.16,849 849.06,864.87 835.62,888.31 826.59,904.07"];
	298	[height=0.5,
		pos="588.03,647.34",
		width=0.75];
	297 -- 298	[pos="848.76,819.15 797.61,785.45 658.71,693.92 607.41,660.11"];
	153 -- 154	[pos="477.65,338.34 459.46,379.91 413.72,484.41 395.56,525.9"];
	493	[height=0.5,
		pos="753.81,329.41",
		width=0.75];
	153 -- 493	[pos="512.27,321.75 563.6,323.37 674.82,326.9 726.45,328.54"];
	154 -- 157	[pos="373.8,527.88 350.83,502.91 305.72,453.87 282.77,428.92"];
	429	[height=0.5,
		pos="697.38,1130.4",
		width=0.75];
	428 -- 429	[pos="807.16,938.03 784.69,977.42 729.58,1074 707.14,1113.3"];
	330 -- 366	[pos="649.23,1251 696.92,1257.6 796.49,1271.3 844.31,1277.9"];
	331	[height=0.5,
		pos="483.54,1217.4",
		width=0.75];
	330 -- 331	[pos="596.8,1241.7 571.97,1236.4 534.65,1228.4 509.71,1223.1"];
	366 -- 429	[pos="854.43,1267.1 821.23,1238.2 747.15,1173.8 713.99,1144.9"];
	367	[height=0.5,
		pos="950.85,1395.5",
		width=0.75];
	366 -- 367	[pos="882.52,1298 897.59,1319.5 923.99,1357.2 939.18,1378.9"];
	160	[height=0.5,
		pos="357.06,320.02",
		width=0.75];
	157 -- 160	[pos="283.23,398.1 299.62,380.77 326.04,352.82 342.43,335.48"];
	429 -- 430	[pos="695.76,1148.4 693.79,1170.3 690.48,1207.1 688.5,1229.1"];
	159 -- 160	[pos="548.74,289.94 506.84,296.51 425.4,309.29 383.44,315.88"];
	482	[height=0.5,
		pos="636.17,383.24",
		width=0.75];
	159 -- 482	[pos="585.68,302.78 596.9,320.66 614.47,348.66 625.64,366.46"];
	163	[height=0.5,
		pos="201.89,532.98",
		width=0.75];
	160 -- 163	[pos="345.14,336.37 316.26,376.01 242.77,476.87 213.85,516.57"];
	430 -- 431	[pos="711.77,1239.7 759,1225.4 861.02,1194.5 908.02,1180.2"];
	162 -- 163	[pos="271.46,866.13 258.88,805.91 218.18,611 205.62,550.83"];
	438	[height=0.5,
		pos="489.07,1084.8",
		width=0.75];
	162 -- 438	[pos="290.92,898.79 330.47,935.92 433.74,1032.9 473.32,1070"];
	163 -- 165	[pos="200.95,514.75 199.05,477.72 194.77,394.09 192.88,357.22"];
	432	[height=0.5,
		pos="1078.1,1065.9",
		width=0.75];
	431 -- 432	[pos="951.06,1159.2 979.04,1138.7 1031.9,1099.8 1059.8,1079.3"];
	181 -- 432	[pos="1010.6,780.35 1023.4,834.36 1061.1,994.02 1073.8,1047.9"];
	181 -- 182	[pos="1009.8,744.14 1018.9,695.83 1043.7,564.42 1052.7,516.37"];
	165 -- 167	[pos="210.49,325.64 262.72,287.49 410.74,179.37 462.79,141.35"];
	433	[height=0.5,
		pos="1192.7,1176.6",
		width=0.75];
	432 -- 433	[pos="1093.5,1080.8 1115.4,1102 1155.2,1140.4 1177.1,1161.6"];
	358 -- 433	[pos="1158.5,1206.3 1164.2,1201.4 1170.5,1195.9 1176.2,1191"];
	358 -- 359	[pos="1117.9,1212.1 1090.5,1202.2 1046,1186.2 1018.6,1176.4"];
	167 -- 169	[pos="500.71,115.42 524.06,100.47 562.92,75.597 586.4,60.571"];
	434	[height=0.5,
		pos="1334.6,1254.8",
		width=0.75];
	433 -- 434	[pos="1213.7,1188.2 1240.5,1202.9 1286.7,1228.4 1313.6,1243.2"];
	251 -- 281	[pos="1559.6,1188.9 1550.1,1173.3 1536,1150.3 1526.5,1134.7"];
	252	[height=0.5,
		pos="1853.4,1175",
		width=0.75];
	251 -- 252	[pos="1596.7,1203 1650.7,1197.1 1772.5,1183.8 1826.6,1177.9"];
	281 -- 434	[pos="1498.1,1131.5 1463.3,1157.7 1387.3,1215 1352.6,1241.2"];
	282	[height=0.5,
		pos="1646.6,945.51",
		width=0.75];
	281 -- 282	[pos="1528.4,1101.6 1553.3,1068.8 1609.3,994.71 1634.2,961.8"];
	169 -- 171	[pos="633.27,45.998 657.27,44.321 692.15,41.884 716.14,40.208"];
	434 -- 435	[pos="1313.2,1265.9 1276,1285.2 1200,1324.7 1162.7,1344"];
	174	[height=0.5,
		pos="852.86,46.942",
		width=0.75];
	171 -- 174	[pos="769.98,40.43 786.98,41.766 808.89,43.487 825.92,44.825"];
	435 -- 436	[pos="1114.8,1358.8 1057.8,1366.6 924.03,1384.8 866.82,1392.6"];
	173 -- 174	[pos="848.95,249.01 849.75,207.74 851.7,106.71 852.51,65.201"];
	269	[height=0.5,
		pos="1087.2,359.01",
		width=0.75];
	173 -- 269	[pos="872.35,276.18 918.09,293.81 1017.9,332.29 1063.6,349.89"];
	179	[height=0.5,
		pos="1078.6,124.58",
		width=0.75];
	174 -- 179	[pos="877.02,55.25 920.35,70.154 1010.8,101.27 1054.3,116.21"];
	437	[height=0.5,
		pos="625.12,1335.4",
		width=0.75];
	436 -- 437	[pos="815.02,1389.2 773.59,1377.5 691.36,1354.2 650.04,1342.5"];
	177 -- 178	[pos="1146.4,331.52 1142.5,306.38 1135.3,261.1 1131.4,235.85"];
	177 -- 268	[pos="1172.5,340.22 1196.9,330.39 1235,315.04 1259.5,305.19"];
	342 -- 437	[pos="783.67,1340.2 748.49,1339.1 687.32,1337.3 652.13,1336.2"];
	342 -- 343	[pos="792.11,1327.7 782.19,1320.6 770,1311.8 760.07,1304.7"];
	178 -- 179	[pos="1119.4,200.5 1110.4,183.83 1096.9,158.58 1087.9,141.84"];
	224	[height=0.5,
		pos="1167.3,305.59",
		width=0.75];
	178 -- 224	[pos="1136.2,234.95 1143,250.38 1152.9,272.81 1159.7,288.24"];
	183	[height=0.5,
		pos="975.74,273.65",
		width=0.75];
	179 -- 183	[pos="1067.2,141.1 1047.4,169.75 1007,228.34 987.19,257.05"];
	437 -- 438	[pos="615.77,1318.2 590.85,1272.3 523.09,1147.5 498.3,1101.8"];
	182 -- 183	[pos="1049.8,480.82 1034.8,438.79 997.01,333.15 982.02,291.21"];
	441	[height=0.5,
		pos="1162.7,595.99",
		width=0.75];
	182 -- 441	[pos="1072.3,513.27 1092.5,531.71 1126.7,563 1146.7,581.35"];
	187	[height=0.5,
		pos="1016.5,132.24",
		width=0.75];
	183 -- 187	[pos="980.91,255.74 988.76,228.54 1003.6,177.12 1011.4,150.01"];
	438 -- 439	[pos="511.61,1074.8 548.73,1058.3 622.34,1025.6 659.57,1009.1"];
	186 -- 187	[pos="925.69,255.77 945.51,228.82 984.86,175.33 1004.6,148.46"];
	186 -- 289	[pos="934.93,283.21 951.81,292.05 975.32,304.36 992.28,313.24"];
	187 -- 190	[pos="1039.6,122.84 1061.7,113.8 1095,100.22 1117.3,91.141"];
	440	[height=0.5,
		pos="1001.8,878.69",
		width=0.75];
	439 -- 440	[pos="706.02,990.09 765.18,967.81 918.57,910.04 977.9,887.7"];
	284 -- 440	[pos="1156.6,956.32 1122.7,939.34 1057.6,906.67 1023.6,889.63"];
	285	[height=0.5,
		pos="1409.3,1029.8",
		width=0.75];
	284 -- 285	[pos="1203.4,973.98 1247.9,986.03 1339.8,1010.9 1384.2,1023"];
	193	[height=0.5,
		pos="1334.5,146.12",
		width=0.75];
	190 -- 193	[pos="1164.8,89.654 1202.1,102.05 1273.1,125.68 1310.4,138.08"];
	440 -- 441	[pos="1011.4,861.86 1039.9,811.69 1124.2,663.61 1153,613.09"];
	192 -- 193	[pos="1478.6,205.31 1446.6,192.17 1389.5,168.69 1357.6,155.6"];
	192 -- 223	[pos="1481.4,227.07 1441.2,251 1352.6,303.85 1312.7,327.68"];
	197	[height=0.5,
		pos="1428.5,374.52",
		width=0.75];
	193 -- 197	[pos="1341.8,163.66 1359.2,206.17 1403.7,314.34 1421.2,356.91"];
	441 -- 442	[pos="1176.7,580.53 1205,549.23 1268.9,478.64 1297.3,447.27"];
	195 -- 196	[pos="1556.7,637.13 1520.8,636.03 1457.8,634.09 1422,632.99"];
	465	[height=0.5,
		pos="1728.9,767.54",
		width=0.75];
	195 -- 465	[pos="1600.2,652.58 1628,677.46 1684.4,727.8 1712.4,752.79"];
	196 -- 197	[pos="1397.3,614.04 1403.5,566.74 1420,439.9 1426.1,392.61"];
	240	[height=0.5,
		pos="1314.9,868.41",
		width=0.75];
	196 -- 240	[pos="1388.9,649.92 1374.1,693.81 1335.7,807 1320.8,850.77"];
	200	[height=0.5,
		pos="1469.2,291.86",
		width=0.75];
	197 -- 200	[pos="1436.9,357.39 1443.9,343.21 1453.8,323.15 1460.8,308.97"];
	443	[height=0.5,
		pos="1603.8,334.56",
		width=0.75];
	442 -- 443	[pos="1335.8,423.62 1390.9,405.33 1524.1,361.05 1579.2,342.72"];
	199 -- 200	[pos="1307.9,255.74 1343.5,263.71 1407.6,278.06 1443.3,286.06"];
	396	[height=0.5,
		pos="1109.8,447.03",
		width=0.75];
	199 -- 396	[pos="1268.4,265.8 1236.1,302.78 1155.6,394.66 1123.4,431.44"];
	383 -- 443	[pos="1758.9,474.99 1726.2,445.44 1652.7,378.82 1620,349.21"];
	383 -- 384	[pos="1781.8,507.17 1792,533.91 1811.5,584.44 1821.8,611.09"];
	203	[height=0.5,
		pos="1600,523.85",
		width=0.75];
	200 -- 203	[pos="1478.8,308.92 1503,351.82 1566.1,463.84 1590.3,506.77"];
	443 -- 444	[pos="1623.6,321.95 1639.5,311.87 1661.6,297.79 1677.4,287.71"];
	202 -- 203	[pos="1483.1,768.15 1505.7,720.77 1569,588.52 1591.7,541.07"];
	202 -- 256	[pos="1493.7,798.31 1537.8,828.71 1647,904.11 1691.1,934.57"];
	203 -- 205	[pos="1599.9,505.47 1599.7,460.03 1599.1,342.83 1598.9,297.52"];
	445	[height=0.5,
		pos="1712.9,489.52",
		width=0.75];
	444 -- 445	[pos="1698.5,293.41 1701.5,333.91 1708.6,430.83 1711.6,471.29"];
	268 -- 445	[pos="1305.5,305.87 1379.7,339.32 1616.1,445.88 1690.4,479.36"];
	268 -- 269	[pos="1258.6,303.61 1221,315.77 1149.2,338.96 1111.6,351.12"];
	211	[height=0.5,
		pos="1377.7,250.3",
		width=0.75];
	205 -- 211	[pos="1572.1,275.76 1529.6,270.2 1447,259.38 1404.5,253.8"];
	446	[height=0.5,
		pos="1815.5,797.72",
		width=0.75];
	445 -- 446	[pos="1718.9,507.42 1737,561.89 1791.3,725.23 1809.5,779.77"];
	207 -- 208	[pos="1787.7,595.58 1777.3,639.13 1750.7,749.93 1740.2,793.55"];
	207 -- 261	[pos="1796.1,595.48 1800.3,614.19 1807,643.42 1811.2,662.18"];
	208 -- 209	[pos="1716.4,798.88 1670.7,769.22 1557.3,695.63 1511.5,665.91"];
	452	[height=0.5,
		pos="1599.3,898.2",
		width=0.75];
	208 -- 452	[pos="1716.4,823.99 1690.5,840.36 1645.3,869.03 1619.3,885.53"];
	261 -- 278	[pos="1830.9,695.04 1849.5,712.78 1880.5,742.31 1899.3,760.15"];
	262	[height=0.5,
		pos="1873,576.31",
		width=0.75];
	261 -- 262	[pos="1824.9,663.04 1835.6,643.79 1852.8,612.75 1863.5,593.49"];
	278 -- 446	[pos="1889.4,781 1874.7,784.34 1856.2,788.52 1841.4,791.87"];
	279	[height=0.5,
		pos="1786.2,856.23",
		width=0.75];
	278 -- 279	[pos="1895.2,787.68 1870.9,802.96 1830,828.65 1805.8,843.87"];
	209 -- 210	[pos="1475.2,638.86 1429.8,600.11 1304.8,493.33 1259.5,454.64"];
	477	[height=0.5,
		pos="1464.1,833.92",
		width=0.75];
	209 -- 477	[pos="1489.1,671.14 1483.8,705.79 1472.1,781.41 1466.8,816"];
	210 -- 211	[pos="1254.6,423.88 1280.1,387.83 1340.6,302.55 1366.1,266.67"];
	498	[height=0.5,
		pos="914.49,448.18",
		width=0.75];
	210 -- 498	[pos="1215.7,441.06 1153.9,442.52 1003.5,446.08 941.67,447.54"];
	211 -- 214	[pos="1375.7,232.13 1372.7,203.68 1366.8,148.95 1363.8,120.41"];
	446 -- 447	[pos="1820.3,815.66 1833.6,865.2 1870.8,1003.5 1884.1,1053.1"];
	217	[height=0.5,
		pos="1572.9,154.61",
		width=0.75];
	214 -- 217	[pos="1387.3,108.43 1427.8,118.52 1506.7,138.15 1547.4,148.26"];
	448	[height=0.5,
		pos="1703.7,1264.8",
		width=0.75];
	447 -- 448	[pos="1874.4,1086.3 1839.9,1122.4 1753.1,1213.1 1718.4,1249.4"];
	216 -- 217	[pos="1811.3,234.12 1761.3,217.43 1647.1,179.35 1597.1,162.68"];
	458	[height=0.5,
		pos="1887.1,492.59",
		width=0.75];
	216 -- 458	[pos="1839.3,260.21 1848.8,306.41 1873.9,428.72 1883.4,474.74"];
	362 -- 448	[pos="1604.8,1375.5 1626.5,1351.3 1668.1,1304.7 1689.7,1280.4"];
	362 -- 363	[pos="1577.6,1406.8 1556.9,1431.1 1517.4,1477.4 1496.6,1501.9"];
	220	[height=0.5,
		pos="1635.8,387.94",
		width=0.75];
	217 -- 220	[pos="1577.8,172.53 1589.5,215.97 1619.2,326.47 1631,369.96"];
	449	[height=0.5,
		pos="1619.5,1347",
		width=0.75];
	448 -- 449	[pos="1688.2,1279.9 1673,1294.7 1650,1317.2 1634.8,1332"];
	219 -- 220	[pos="1704.1,647.84 1691,597.81 1653.8,456.24 1640.5,405.95"];
	454	[height=0.5,
		pos="1611.8,854.19",
		width=0.75];
	219 -- 454	[pos="1700,682.7 1681.6,718.51 1639.1,801.13 1620.7,837.02"];
	371 -- 449	[pos="1475.6,1419.9 1507.3,1403.8 1566.1,1374 1597.8,1357.9"];
	372	[height=0.5,
		pos="1269.8,1257.5",
		width=0.75];
	371 -- 372	[pos="1438.3,1416 1403.5,1383.3 1320.2,1304.9 1285.4,1272.2"];
	226	[height=0.5,
		pos="1368.3,475.77",
		width=0.75];
	220 -- 226	[pos="1611.1,396.05 1560,412.82 1443.2,451.17 1392.5,467.81"];
	449 -- 450	[pos="1593.4,1341.9 1545.8,1332.6 1445.3,1313.1 1397.7,1303.8"];
	223 -- 224	[pos="1267.4,332.92 1245.7,327 1214.5,318.48 1192.7,312.53"];
	223 -- 228	[pos="1315,349.99 1363.9,372.25 1479.6,424.84 1528.7,447.16"];
	224 -- 225	[pos="1161,323.22 1144.9,368.32 1102.2,487.56 1086,532.85"];
	491	[height=0.5,
		pos="1206.4,128.68",
		width=0.75];
	224 -- 491	[pos="1171.3,287.66 1178.8,253.75 1194.9,180.61 1202.4,146.66"];
	225 -- 226	[pos="1105,544.06 1159.8,529.86 1288.5,496.47 1343.1,482.31"];
	506	[height=0.5,
		pos="887.1,746.22",
		width=0.75];
	225 -- 506	[pos="1064.6,565.99 1028.6,602.55 938.07,694.46 902.14,730.95"];
	230	[height=0.5,
		pos="1417.3,565.1",
		width=0.75];
	226 -- 230	[pos="1377.8,493 1386.4,508.81 1399.2,532.13 1407.9,547.93"];
	450 -- 451	[pos="1393.5,1287.8 1443,1263 1562.9,1202.9 1612.1,1178.2"];
	228 -- 229	[pos="1525.9,451.34 1505,446.3 1475.5,439.19 1454.5,434.13"];
	459	[height=0.5,
		pos="1849.2,409.53",
		width=0.75];
	228 -- 459	[pos="1577.8,453.21 1634.3,444.11 1766.3,422.86 1822.8,413.77"];
	229 -- 230	[pos="1427.2,446.13 1425,472.37 1421,520.53 1418.9,546.81"];
	485	[height=0.5,
		pos="1527.5,501.51",
		width=0.75];
	229 -- 485	[pos="1446.8,441.41 1464.5,454.6 1491.3,474.59 1509.1,487.84"];
	235	[height=0.5,
		pos="1296.5,728.36",
		width=0.75];
	230 -- 235	[pos="1405.3,581.35 1382.1,612.65 1331.6,680.94 1308.4,712.18"];
	451 -- 452	[pos="1631.4,1149.3 1625.2,1100.3 1607.9,965.14 1601.6,916.2"];
	233 -- 234	[pos="1112.4,979.78 1103.4,937.65 1081.3,833.15 1072.3,790.93"];
	233 -- 380	[pos="1143.3,996.66 1201.3,994.21 1336.6,988.47 1394.5,986.02"];
	234 -- 235	[pos="1094.6,767.72 1138.5,759.16 1226.4,742.03 1270.3,733.47"];
	494	[height=0.5,
		pos="884.02,632.35",
		width=0.75];
	234 -- 494	[pos="1050.4,759.09 1015.1,732.17 937.03,672.72 901.84,645.92"];
	241	[height=0.5,
		pos="1373.3,913.76",
		width=0.75];
	235 -- 241	[pos="1303.7,745.81 1318.3,781.14 1351.3,860.82 1366,896.23"];
	453	[height=0.5,
		pos="1407.7,780.34",
		width=0.75];
	452 -- 453	[pos="1579.2,885.81 1542.3,863.11 1464.3,815.14 1427.6,792.57"];
	238 -- 239	[pos="1345.9,1032.6 1345.3,1040.9 1344.6,1050.6 1344,1058.8"];
	456	[height=0.5,
		pos="1572.6,986.24",
		width=0.75];
	238 -- 456	[pos="1374,1011.2 1417.4,1005.7 1502.6,995.02 1545.9,989.59"];
	239 -- 240	[pos="1340.2,1059 1334.9,1019.4 1322.5,925.78 1317.3,886.38"];
	239 -- 285	[pos="1361.2,1063.9 1370.4,1057.4 1381.6,1049.4 1390.9,1042.9"];
	240 -- 241	[pos="1332.7,882.26 1339.9,887.89 1348.3,894.37 1355.5,899.99"];
	479	[height=0.5,
		pos="1075.2,819.38",
		width=0.75];
	240 -- 479	[pos="1288.8,863.07 1242.6,853.64 1147.3,834.14 1101.2,824.72"];
	395 -- 453	[pos="1238,569.53 1271.5,611.17 1361.4,722.8 1394.9,764.42"];
	395 -- 396	[pos="1209.1,538.77 1187.1,518.42 1147.7,482.02 1125.7,461.72"];
	241 -- 243	[pos="1383.2,930.58 1401.3,961.23 1439.5,1025.9 1457.7,1056.7"];
	453 -- 454	[pos="1431.5,788.96 1470.7,803.15 1548.5,831.28 1587.9,845.51"];
	246	[height=0.5,
		pos="1674.1,991.82",
		width=0.75];
	243 -- 246	[pos="1491.1,1064.5 1530.7,1048.8 1610.9,1017 1650.6,1001.2"];
	455	[height=0.5,
		pos="1579.7,1075.2",
		width=0.75];
	454 -- 455	[pos="1609.2,872.27 1603.2,913.81 1588.4,1015.7 1582.4,1057.1"];
	245 -- 246	[pos="1417.6,878.51 1470.1,901.71 1598.9,958.58 1651.4,981.75"];
	245 -- 391	[pos="1384.9,851.47 1357.7,804.7 1281.9,674.11 1254.7,627.26"];
	346 -- 455	[pos="1508.9,1216 1524.2,1185.6 1555.8,1122.8 1571.1,1092.4"];
	346 -- 347	[pos="1493.8,1251.1 1488.4,1266.3 1480.5,1288.2 1475,1303.5"];
	249	[height=0.5,
		pos="1917.7,1115.2",
		width=0.75];
	246 -- 249	[pos="1695.8,1002.8 1742,1026.2 1849.9,1080.9 1896.1,1104.3"];
	455 -- 456	[pos="1578.3,1057.2 1577.1,1041.8 1575.3,1019.9 1574.1,1004.5"];
	248 -- 249	[pos="1958.2,1050.5 1949.4,1064.5 1937,1084.3 1928.3,1098.3"];
	462	[height=0.5,
		pos="1955.3,828.86",
		width=0.75];
	248 -- 462	[pos="1967.6,1015.4 1965.1,976.59 1959,885.81 1956.5,846.99"];
	249 -- 252	[pos="1901.8,1130 1892,1139.1 1879.4,1150.8 1869.6,1160"];
	457	[height=0.5,
		pos="1853,746.98",
		width=0.75];
	456 -- 457	[pos="1589.3,971.99 1639.1,929.53 1786,804.2 1836.1,761.46"];
	384 -- 457	[pos="1832.2,646.54 1836.8,668.79 1844.6,706.48 1849.3,728.82"];
	385	[height=0.5,
		pos="1665.3,737.73",
		width=0.75];
	384 -- 385	[pos="1809.1,641.5 1777.6,662.57 1715.7,704.02 1684.4,724.96"];
	252 -- 254	[pos="1874.5,1163.4 1900.3,1149.2 1943.7,1125.3 1969.5,1111.2"];
	457 -- 458	[pos="1855.5,728.68 1861.8,681.74 1878.4,557.47 1884.7,510.72"];
	257	[height=0.5,
		pos="1902,945.84",
		width=0.75];
	254 -- 257	[pos="1980.6,1082.6 1963.6,1053.1 1928.8,992.6 1911.8,962.97"];
	458 -- 459	[pos="1879,474.97 1872.6,460.78 1863.5,440.94 1857.1,426.83"];
	256 -- 257	[pos="1737.2,947.39 1773.6,947.05 1838.2,946.44 1874.7,946.1"];
	351	[height=0.5,
		pos="1600.9,1030.3",
		width=0.75];
	256 -- 351	[pos="1692.1,961.3 1671.8,976.62 1639.2,1001.3 1618.9,1016.7"];
	257 -- 259	[pos="1911.7,928.98 1932.6,892.92 1981.4,808.67 2002.3,772.64"];
	459 -- 460	[pos="1868.5,422.3 1895.8,440.38 1945.5,473.24 1972.9,491.38"];
	259 -- 262	[pos="1999.4,739.57 1973,705.39 1911.8,626.42 1885.5,592.39"];
	460 -- 461	[pos="1989.2,522.18 1984.4,549.74 1975.3,602.24 1970.5,629.94"];
	262 -- 264	[pos="1874,558.28 1876.4,511.2 1882.8,384.98 1885.2,337.92"];
	461 -- 462	[pos="1966.1,666.09 1963.8,700.65 1958.8,775.96 1956.5,810.67"];
	264 -- 266	[pos="1866.1,307.64 1828.4,284.43 1746.9,234.37 1709.1,211.14"];
	462 -- 463	[pos="1938.7,843.18 1916.1,862.75 1875.7,897.65 1853,917.33"];
	270	[height=0.5,
		pos="1345.1,294.33",
		width=0.75];
	266 -- 270	[pos="1664.1,205.77 1600.7,223.37 1434.3,269.57 1370.5,287.28"];
	464	[height=0.5,
		pos="1682.9,888.37",
		width=0.75];
	463 -- 464	[pos="1811.2,924.78 1782.7,916.69 1736.3,903.54 1707.8,895.45"];
	269 -- 270	[pos="1112.9,352.57 1162.3,340.17 1270.2,313.12 1319.5,300.74"];
	497	[height=0.5,
		pos="932.05,536.32",
		width=0.75];
	269 -- 497	[pos="1073.5,374.74 1044,408.39 975.21,487 945.79,520.62"];
	380 -- 464	[pos="1445.2,976.14 1494.8,957.81 1609.3,915.52 1659.1,897.15"];
	381	[height=0.5,
		pos="1519,880.61",
		width=0.75];
	380 -- 381	[pos="1435.9,969.49 1454.4,949.78 1486.1,915.8 1504.6,896.06"];
	270 -- 273	[pos="1340.9,312.3 1330.3,358.4 1302.1,480.46 1291.5,526.37"];
	464 -- 465	[pos="1689.6,870.8 1698.3,847.89 1713.5,808.05 1722.2,785.13"];
	276	[height=0.5,
		pos="1600.9,737.04",
		width=0.75];
	273 -- 276	[pos="1307.4,556.54 1364.1,591.37 1524.6,690.08 1581,724.79"];
	466	[height=0.5,
		pos="1741.3,621.62",
		width=0.75];
	465 -- 466	[pos="1730.5,749.36 1732.9,721.4 1737.4,668.14 1739.8,640.04"];
	275 -- 276	[pos="1631.2,707.92 1626.5,712.51 1621.2,717.56 1616.4,722.15"];
	286	[height=0.5,
		pos="1494.5,697.18",
		width=0.75];
	275 -- 286	[pos="1619.5,693.76 1591.8,694.52 1549.1,695.69 1521.5,696.44"];
	400 -- 466	[pos="1414.3,528.23 1479,546.71 1651.3,595.93 1716.2,614.44"];
	401	[height=0.5,
		pos="1439.8,234.17",
		width=0.75];
	400 -- 401	[pos="1392.4,503.13 1401.5,451.61 1427.6,303.63 1436.6,252.11"];
	276 -- 279	[pos="1620.4,749.57 1656,772.46 1731.1,820.79 1766.7,843.69"];
	466 -- 467	[pos="1750.4,638.9 1772.2,680.04 1826.8,783.48 1848.5,824.54"];
	279 -- 282	[pos="1766.4,868.83 1739.8,885.85 1692.7,915.99 1666.2,932.97"];
	467 -- 468	[pos="1871.2,857.47 1903.6,894.96 1985.2,989.2 2017.6,1026.6"];
	287	[height=0.5,
		pos="1384.6,692.3",
		width=0.75];
	282 -- 287	[pos="1631,930.43 1584.4,885.39 1446.6,752.23 1400.1,707.3"];
	468 -- 469	[pos="2030.8,1060.6 2030.1,1095.3 2028.6,1170.3 2027.9,1204.8"];
	285 -- 286	[pos="1413.9,1011.9 1428.7,954.14 1475.1,773.03 1489.9,715.15"];
	474	[height=0.5,
		pos="1444.8,1144.2",
		width=0.75];
	285 -- 474	[pos="1414.9,1047.7 1421.5,1069.2 1432.7,1105 1439.3,1126.5"];
	286 -- 287	[pos="1467.4,695.98 1450.5,695.23 1428.8,694.26 1411.8,693.51"];
	488	[height=0.5,
		pos="1753.4,533.59",
		width=0.75];
	286 -- 488	[pos="1514.4,684.62 1562.6,654.17 1685.2,576.69 1733.4,546.2"];
	290	[height=0.5,
		pos="1118.1,491.07",
		width=0.75];
	287 -- 290	[pos="1366.7,678.78 1318.3,642.21 1185.1,541.6 1136.3,504.79"];
	469 -- 470	[pos="2017.2,1240 2005.2,1260 1985.5,1292.9 1973.6,1312.8"];
	289 -- 290	[pos="1024.4,341.42 1044.4,373.34 1087.5,442.19 1107.5,474.14"];
	289 -- 405	[pos="1025.6,308.08 1046.3,279.04 1089.1,218.98 1109.9,189.95"];
	290 -- 293	[pos="1091.5,494.67 1024.6,503.72 849.76,527.36 782.76,536.42"];
	470 -- 471	[pos="1939.8,1338.3 1910.8,1349 1862,1367 1833,1377.7"];
	293 -- 298	[pos="736.49,552.54 704.19,573.17 640.16,614.06 607.77,634.74"];
	472	[height=0.5,
		pos="1669.8,1391",
		width=0.75];
	471 -- 472	[pos="1782,1387.4 1757.4,1388.2 1721.5,1389.3 1696.9,1390.1"];
	363 -- 472	[pos="1501.9,1505 1537.7,1480.7 1615,1428.2 1650.8,1403.9"];
	364	[height=0.5,
		pos="1307,1469",
		width=0.75];
	363 -- 364	[pos="1457.8,1510.9 1424.3,1501.6 1365.6,1485.3 1332.2,1476"];
	298 -- 300	[pos="560.69,645.51 510.61,642.16 404.74,635.06 354.93,631.72"];
	473	[height=0.5,
		pos="1641.4,1255.4",
		width=0.75];
	472 -- 473	[pos="1666,1373 1660.6,1347.1 1650.6,1299.5 1645.2,1273.5"];
	347 -- 473	[pos="1492.3,1312.3 1525.3,1299.7 1584.8,1277 1617.7,1264.4"];
	348	[height=0.5,
		pos="1339.2,1351.1",
		width=0.75];
	347 -- 348	[pos="1443.1,1327.2 1420.5,1332.4 1387.8,1339.9 1365.2,1345.1"];
	300 -- 303	[pos="301.03,631.21 297.92,631.36 294.74,631.52 291.63,631.67"];
	473 -- 474	[pos="1620.7,1243.7 1583,1222.4 1503.2,1177.3 1465.5,1155.9"];
	303 -- 306	[pos="270.6,650.63 284.21,689.73 316.79,783.31 330.4,822.38"];
	475	[height=0.5,
		pos="1702.8,1104.1",
		width=0.75];
	474 -- 475	[pos="1471.4,1140.1 1521,1132.4 1626.8,1115.9 1676.3,1108.2"];
	350 -- 475	[pos="1594.2,1151.9 1618.2,1141.3 1656,1124.7 1680.1,1114.1"];
	350 -- 351	[pos="1575.7,1143.8 1581.3,1118.8 1591.3,1073.7 1596.8,1048.5"];
	306 -- 309	[pos="347.98,856.61 372.09,891.6 427.78,972.44 451.78,1007.3"];
	475 -- 476	[pos="1710.4,1086.7 1717.3,1070.6 1727.6,1047 1734.6,1031"];
	309 -- 311	[pos="449.11,1039.2 426.09,1064.7 380.52,1115 357.32,1140.7"];
	476 -- 477	[pos="1722.6,1001 1671.5,968 1534.6,879.53 1483.6,846.54"];
	311 -- 313	[pos="318.23,1149.1 284.27,1139 223.61,1120.9 189.6,1110.8"];
	478	[height=0.5,
		pos="1263.8,773.42",
		width=0.75];
	477 -- 478	[pos="1439.1,826.38 1400.5,814.72 1326.9,792.46 1288.5,780.86"];
	391 -- 478	[pos="1246.9,628.35 1250.6,659.71 1258,723.84 1261.7,755.25"];
	392	[height=0.5,
		pos="1463.1,473.91",
		width=0.75];
	391 -- 392	[pos="1264.6,597.92 1306,572.03 1401.7,512.28 1443.2,486.32"];
	313 -- 315	[pos="149.56,1088.2 130.13,1068.8 96.638,1035.4 77.175,1016"];
	478 -- 479	[pos="1238.4,779.62 1202.4,788.39 1136.9,804.34 1100.8,813.14"];
	318	[height=0.5,
		pos="205.4,1018.7",
		width=0.75];
	315 -- 318	[pos="88.594,1004.1 114.2,1007.3 152.69,1012.1 178.41,1015.3"];
	480	[height=0.5,
		pos="769.5,795.58",
		width=0.75];
	479 -- 480	[pos="1048.3,817.29 990.47,812.79 854.7,802.21 796.62,797.69"];
	325 -- 480	[pos="568.36,800.43 612.28,799.37 698.56,797.29 742.46,796.23"];
	325 -- 326	[pos="528.57,785.1 509.94,761.66 475.39,718.22 456.75,694.78"];
	317 -- 318	[pos="131.93,969.57 147.83,980.19 170.33,995.22 186.23,1005.8"];
	501	[height=0.5,
		pos="267.46,1022.4",
		width=0.75];
	317 -- 501	[pos="135.55,966.43 164.81,978.85 215.23,1000.3 244.54,1012.7"];
	322	[height=0.5,
		pos="391.5,1017.4",
		width=0.75];
	318 -- 322	[pos="232.47,1018.5 267.75,1018.2 329.11,1017.8 364.41,1017.6"];
	481	[height=0.5,
		pos="565.1,559.32",
		width=0.75];
	480 -- 481	[pos="755.77,779.71 718.53,736.67 615.93,618.08 578.76,575.12"];
	326 -- 481	[pos="459.37,663.66 482.66,640.68 526.68,597.24 549.89,574.33"];
	326 -- 327	[pos="452.07,696.07 471.22,737.22 519.36,840.68 538.47,881.76"];
	321 -- 322	[pos="537.88,956.29 505.4,969.85 446.78,994.34 414.45,1007.8"];
	504	[height=0.5,
		pos="633.39,1128.2",
		width=0.75];
	321 -- 504	[pos="568.04,964.01 581.82,998.64 612.52,1075.8 626.37,1110.6"];
	328	[height=0.5,
		pos="427.03,1068.6",
		width=0.75];
	322 -- 328	[pos="402.94,1033.9 407,1039.7 411.56,1046.3 415.61,1052.1"];
	481 -- 482	[pos="572.17,541.79 585.79,508.04 615.52,434.39 629.13,400.7"];
	327 -- 328	[pos="534.8,915.53 511.91,948.04 461.36,1019.8 438.57,1052.2"];
	496	[height=0.5,
		pos="707.48,771.39",
		width=0.75];
	327 -- 496	[pos="564.01,885.06 594.98,860.52 659.01,809.8 689.96,785.27"];
	328 -- 331	[pos="433.73,1086.2 444.61,1114.9 465.97,1171.2 476.84,1199.8"];
	483	[height=0.5,
		pos="949.87,317.69",
		width=0.75];
	482 -- 483	[pos="662.11,377.82 721.12,365.49 864.86,335.46 923.9,323.12"];
	396 -- 483	[pos="1092.4,432.95 1061.6,408.07 998.01,356.63 967.26,331.76"];
	396 -- 397	[pos="1133.2,456.41 1157.2,466.07 1194.5,481.03 1218.6,490.72"];
	331 -- 333	[pos="457.48,1222.6 431.12,1227.8 390.57,1235.8 364.11,1241"];
	484	[height=0.5,
		pos="1220.2,217.56",
		width=0.75];
	483 -- 484	[pos="973.86,308.81 1025.2,289.81 1145,245.41 1196.3,226.43"];
	405 -- 484	[pos="1144.5,183.74 1160.4,190.85 1181.6,200.3 1197.5,207.4"];
	406	[height=0.5,
		pos="1149.5,37.568",
		width=0.75];
	405 -- 406	[pos="1125.3,155.47 1130.6,129.46 1140.4,81.741 1145.7,55.696"];
	333 -- 336	[pos="355.43,1260.3 375.93,1276.6 409.53,1303.5 430.01,1319.8"];
	484 -- 485	[pos="1236.3,232.43 1289.4,281.49 1458.7,437.94 1511.6,486.79"];
	336 -- 338	[pos="472.27,1341.6 504.43,1351.7 560.35,1369.2 592.52,1379.3"];
	486	[height=0.5,
		pos="1538.9,745.75",
		width=0.75];
	485 -- 486	[pos="1528.3,519.86 1530.5,565.24 1535.9,682.26 1538,727.51"];
	351 -- 486	[pos="1596.9,1012.1 1585.7,960.7 1554,815.05 1542.8,763.83"];
	352	[height=0.5,
		pos="1435.2,1259.9",
		width=0.75];
	351 -- 352	[pos="1589,1046.8 1558.4,1089.2 1477.4,1201.3 1447,1243.5"];
	338 -- 340	[pos="641.97,1394.3 685.69,1407.2 776.08,1433.8 819.78,1446.7"];
	487	[height=0.5,
		pos="1521.8,607.94",
		width=0.75];
	486 -- 487	[pos="1536.6,727.73 1533.4,701.32 1527.3,652.38 1524,625.96"];
	397 -- 487	[pos="1266,509.37 1319,529.78 1445.9,578.69 1498.4,598.93"];
	398	[height=0.5,
		pos="1366.5,343.71",
		width=0.75];
	397 -- 398	[pos="1255,484.02 1278.8,454.04 1329.6,390.11 1353.5,360.01"];
	344	[height=0.5,
		pos="987,1296.6",
		width=0.75];
	340 -- 344	[pos="858.69,1438.4 886,1408.2 945.61,1342.4 972.88,1312.2"];
	487 -- 488	[pos="1546.1,600.13 1590.6,585.85 1684.5,555.7 1729,541.41"];
	343 -- 344	[pos="768.7,1291.9 815.89,1292.9 912.39,1295 959.67,1296"];
	503	[height=0.5,
		pos="555.25,1230.2",
		width=0.75];
	343 -- 503	[pos="717.14,1283.3 681.45,1271.6 615.3,1249.9 579.61,1238.2"];
	344 -- 348	[pos="1013.5,1300.7 1078.7,1310.8 1246.8,1336.8 1312.4,1347"];
	488 -- 489	[pos="1746,516.23 1723.7,463.4 1656.7,304.99 1634.4,252.09"];
	348 -- 352	[pos="1355.1,1336 1372.9,1319 1401.9,1291.6 1419.6,1274.7"];
	489 -- 490	[pos="1610.9,220.12 1576,188.45 1493.5,113.63 1458.4,81.882"];
	352 -- 354	[pos="1443.6,1277.2 1460.7,1312.5 1499.3,1392 1516.3,1427.1"];
	490 -- 491	[pos="1417,73.805 1371.7,85.6 1277.2,110.23 1231.8,122.05"];
	354 -- 356	[pos="1502.2,1454.6 1471.4,1468.9 1416.4,1494.4 1385.8,1508.6"];
	491 -- 492	[pos="1179,129.35 1129.6,130.56 1026.4,133.1 977.21,134.31"];
	360	[height=0.5,
		pos="1157.4,1310.4",
		width=0.75];
	356 -- 360	[pos="1348.4,1503.5 1310.2,1464.9 1210.2,1363.8 1172.3,1325.5"];
	492 -- 493	[pos="934.58,150.24 897.91,186.58 805.73,277.95 769.13,314.22"];
	359 -- 360	[pos="1011.2,1182.2 1042.4,1209.6 1109.6,1268.5 1140.9,1295.9"];
	505	[height=0.5,
		pos="820.96,1027.2",
		width=0.75];
	359 -- 505	[pos="977.38,1153.8 944.08,1126.8 871.42,1068 838.18,1041.1"];
	360 -- 364	[pos="1172,1325.9 1200.7,1356.3 1264,1423.4 1292.6,1453.7"];
	493 -- 494	[pos="761.37,347 784.39,400.55 853.39,561.1 876.44,614.71"];
	364 -- 367	[pos="1281.1,1463.7 1215.3,1450.1 1042.3,1414.4 976.66,1400.9"];
	495	[height=0.5,
		pos="921.54,880.36",
		width=0.75];
	494 -- 495	[pos="886.78,650.59 893.73,696.57 911.92,816.79 918.83,862.43"];
	374 -- 495	[pos="973.13,966.34 961.68,947.26 943.21,916.49 931.76,897.39"];
	375	[height=0.5,
		pos="1192.7,1125",
		width=0.75];
	374 -- 375	[pos="1002.3,996.17 1042.1,1023.1 1133.8,1085.1 1173.7,1112.1"];
	367 -- 369	[pos="978.19,1396.1 1012.2,1396.9 1070,1398.2 1103.9,1398.9"];
	495 -- 496	[pos="899.84,869.32 858.81,848.43 770.31,803.38 729.24,782.47"];
	369 -- 372	[pos="1145.7,1384.3 1172.5,1357 1228.3,1299.8 1255,1272.6"];
	496 -- 497	[pos="722.22,755.97 762.91,713.38 876.51,594.46 917.26,551.8"];
	372 -- 375	[pos="1259.8,1240.4 1245.1,1215 1217.4,1167.4 1202.6,1142"];
	497 -- 498	[pos="928.41,518.06 925.38,502.83 921.08,481.26 918.06,466.12"];
	375 -- 378	[pos="1204.1,1108.5 1221.8,1082.7 1256,1033.1 1273.8,1007.3"];
	498 -- 499	[pos="888.52,453.59 807.03,470.57 557.01,522.67 475.77,539.59"];
	378 -- 381	[pos="1307.7,980.13 1352.4,959.09 1452,912.15 1496.7,891.13"];
	499 -- 500	[pos="436.73,560.85 402.7,601.59 312.62,709.47 278.73,750.06"];
	381 -- 385	[pos="1534.4,865.59 1562.4,838.22 1621.5,780.52 1649.7,752.98"];
	500 -- 501	[pos="265.72,783.85 266.07,830.97 266.99,957.31 267.33,1004.4"];
	385 -- 387	[pos="1664.3,719.33 1661.6,671.18 1654.5,541.86 1651.8,494.12"];
	501 -- 502	[pos="278.34,1039 300.78,1073.3 352.02,1151.4 374.45,1185.6"];
	387 -- 392	[pos="1623.5,475.77 1587.8,475.36 1525.7,474.64 1490.1,474.23"];
	502 -- 503	[pos="411.85,1206.5 443.78,1211.8 497.04,1220.6 528.88,1225.9"];
	392 -- 398	[pos="1451.1,457.69 1432.6,432.74 1397.3,385.22 1378.7,360.14"];
	503 -- 504	[pos="567.81,1213.8 582.39,1194.8 606.3,1163.6 620.86,1144.6"];
	398 -- 401	[pos="1377.6,327.08 1391.4,306.49 1414.7,271.62 1428.6,250.96"];
	504 -- 505	[pos="654.54,1116.8 690.66,1097.4 763.81,1058 799.88,1038.5"];
	401 -- 403	[pos="1429.2,217.6 1407.6,184.04 1359,108.35 1337.4,74.716"];
	505 -- 506	[pos="825.19,1009.2 837.14,958.42 870.99,814.63 882.9,764.07"];
	403 -- 406	[pos="1299.8,54.951 1266.4,51.088 1209.7,44.538 1176.3,40.677"];
	506 -- 507	[pos="867.2,733.97 802.22,693.96 596.75,567.46 531.85,527.5"];
	406 -- 409	[pos="1126.1,46.737 1060.9,72.318 877.56,144.27 812.44,169.82"];
	507 -- 508	[pos="512.06,496.95 512.21,452.44 512.6,339.04 512.75,294.81"];
	509	[height=0.5,
		pos="637.6,135.97",
		width=0.75];
	409 -- 509	[pos="764.11,171.87 736.03,163.9 690.75,151.05 662.66,143.08"];
	508 -- 509	[pos="526.64,261.15 550.63,234.09 599.68,178.75 623.71,151.64"];
}
