graph {
	graph [bb="0,0,798.4,707.85",
		outputorder=edgesfirst,
		overlap=prism,
		size="50,50!",
		start=6394
	];
	node [label="\N"];
	0	[height=0.5,
		pos="366.45,274.64",
		width=0.75];
	37	[height=0.5,
		pos="517.15,266.28",
		width=0.75];
	0 -- 37	[pos="393.4,273.15 420.74,271.63 462.84,269.3 490.19,267.78"];
	2	[height=0.5,
		pos="391.87,406.13",
		width=0.75];
	0 -- 2	[pos="369.94,292.65 374.78,317.69 383.49,362.77 388.35,387.92"];
	25	[height=0.5,
		pos="430.5,312.61",
		width=0.75];
	0 -- 25	[pos="386.72,286.66 394.19,291.09 402.66,296.11 410.15,300.55"];
	3	[height=0.5,
		pos="381.56,450.34",
		width=0.75];
	0 -- 3	[pos="368.01,292.78 370.91,326.54 377.11,398.62 380,432.3"];
	4	[height=0.5,
		pos="361.05,230.63",
		width=0.75];
	0 -- 4	[pos="364.22,256.48 363.91,253.93 363.59,251.3 363.27,248.74"];
	5	[height=0.5,
		pos="340.49,186.58",
		width=0.75];
	0 -- 5	[pos="361.2,256.82 356.69,241.54 350.24,219.64 345.73,204.37"];
	18	[height=0.5,
		pos="238.17,177.34",
		width=0.75];
	0 -- 18	[pos="348.62,261.11 324.25,242.62 280.78,209.65 256.27,191.06"];
	62	[height=0.5,
		pos="423.05,213",
		width=0.75];
	0 -- 62	[pos="380.74,259.09 389.25,249.81 400.03,238.07 408.58,228.77"];
	9	[height=0.5,
		pos="216.39,232.2",
		width=0.75];
	0 -- 9	[pos="341.34,267.54 313.63,259.7 269.32,247.17 241.59,239.33"];
	34	[height=0.5,
		pos="313.71,388.82",
		width=0.75];
	0 -- 34	[pos="358.44,291.98 348.53,313.44 331.74,349.78 321.79,371.31"];
	12	[height=0.5,
		pos="485.39,169.92",
		width=0.75];
	0 -- 12	[pos="382.99,260.08 405.71,240.07 446.34,204.3 468.99,184.36"];
	20	[height=0.5,
		pos="485.09,222.24",
		width=0.75];
	0 -- 20	[pos="389.05,264.66 410.16,255.34 441.49,241.49 462.58,232.18"];
	39	[height=0.5,
		pos="417.82,147.86",
		width=0.75];
	0 -- 39	[pos="373.6,257.01 383.41,232.79 400.96,189.48 410.74,165.34"];
	49	[height=0.5,
		pos="455.09,268.58",
		width=0.75];
	0 -- 49	[pos="393.53,272.79 404.53,272.04 417.2,271.17 428.18,270.42"];
	64	[height=0.5,
		pos="461.8,399.13",
		width=0.75];
	0 -- 64	[pos="378.92,290.91 397.19,314.77 431.06,358.99 449.33,382.85"];
	28	[height=0.5,
		pos="292.59,121.15",
		width=0.75];
	0 -- 28	[pos="358.12,257.33 343.94,227.85 315.24,168.22 301,138.63"];
	71	[height=0.5,
		pos="354.73,142.56",
		width=0.75];
	0 -- 71	[pos="364.85,256.55 362.62,231.4 358.6,186.11 356.35,160.85"];
	54	[height=0.5,
		pos="278.42,221.38",
		width=0.75];
	0 -- 54	[pos="346.04,262.29 331.71,253.62 312.66,242.09 298.43,233.48"];
	35	[height=0.5,
		pos="362.92,98.538",
		width=0.75];
	0 -- 35	[pos="366.09,256.46 365.41,222.62 363.96,150.38 363.29,116.62"];
	57	[height=0.5,
		pos="492.54,335.53",
		width=0.75];
	0 -- 57	[pos="388.42,285.25 411.42,296.35 447.34,313.7 470.41,324.84"];
	77	[height=0.5,
		pos="243.24,321.33",
		width=0.75];
	0 -- 77	[pos="342.7,283.64 320.88,291.91 288.72,304.1 266.92,312.36"];
	37 -- 62	[pos="496.27,254.46 480.67,245.63 459.46,233.62 443.88,224.79"];
	1	[height=0.5,
		pos="251.71,386.22",
		width=0.75];
	67	[height=0.5,
		pos="319.52,432.83",
		width=0.75];
	1 -- 67	[pos="270.6,399.2 279.84,405.56 290.96,413.2 300.26,419.59"];
	1 -- 2	[pos="278.4,390.01 303.34,393.55 340.37,398.82 365.28,402.36"];
	1 -- 3	[pos="273.44,396.95 297.41,408.79 335.75,427.72 359.75,439.57"];
	8	[height=0.5,
		pos="310.56,476.91",
		width=0.75];
	1 -- 8	[pos="262.5,402.85 273.12,419.22 289.24,444.05 299.83,460.38"];
	1 -- 4	[pos="263.2,369.86 284.14,340.06 328.3,277.22 349.38,247.23"];
	36	[height=0.5,
		pos="305.33,318.77",
		width=0.75];
	1 -- 36	[pos="264.41,370.23 272.84,359.64 283.86,345.77 292.34,335.11"];
	10	[height=0.5,
		pos="222.92,518.3",
		width=0.75];
	1 -- 10	[pos="247.82,404.03 242.33,429.24 232.35,475.07 226.84,500.35"];
	1 -- 9	[pos="247.58,368.25 240.78,338.57 227.27,279.66 220.48,250.06"];
	1 -- 34	[pos="278.72,387.35 281.33,387.46 283.98,387.57 286.59,387.68"];
	41	[height=0.5,
		pos="162.03,467.04",
		width=0.75];
	1 -- 41	[pos="235.26,401.04 219.08,415.62 194.52,437.76 178.38,452.31"];
	43	[height=0.5,
		pos="160.89,511.16",
		width=0.75];
	1 -- 43	[pos="239.83,402.55 222.43,426.5 190.17,470.87 172.77,494.82"];
	52	[height=0.5,
		pos="226.28,430.25",
		width=0.75];
	1 -- 52	[pos="241.95,403.12 240.04,406.41 238.05,409.87 236.14,413.18"];
	23	[height=0.5,
		pos="110.75,285.98",
		width=0.75];
	1 -- 23	[pos="232.99,372.91 206.03,353.73 156.55,318.55 129.54,299.35"];
	50	[height=0.5,
		pos="135.23,241.97",
		width=0.75];
	1 -- 50	[pos="238.8,370.23 216.41,342.5 170.63,285.81 148.2,258.03"];
	73	[height=0.5,
		pos="197.27,276.27",
		width=0.75];
	1 -- 73	[pos="243.2,369.04 233.03,348.5 216.11,314.33 205.89,293.69"];
	29	[height=0.5,
		pos="247.49,474.29",
		width=0.75];
	1 -- 29	[pos="250.83,404.47 250.11,419.58 249.08,440.96 248.36,456.07"];
	44	[height=0.5,
		pos="278.42,274.75",
		width=0.75];
	1 -- 44	[pos="256,368.31 260.98,347.51 269.16,313.4 274.14,292.62"];
	53	[height=0.5,
		pos="99.981,430.7",
		width=0.75];
	1 -- 53	[pos="226.65,393.56 198.45,401.83 152.93,415.18 124.82,423.42"];
	74	[height=0.5,
		pos="375.74,356.65",
		width=0.75];
	1 -- 74	[pos="277.41,380.09 298.69,375.02 328.79,367.84 350.07,362.77"];
	58	[height=0.5,
		pos="87.799,386.66",
		width=0.75];
	1 -- 58	[pos="224.64,386.29 194.27,386.37 145.29,386.5 114.9,386.59"];
	1 -- 77	[pos="249.35,368.14 248.17,359.14 246.76,348.3 245.58,339.31"];
	65	[height=0.5,
		pos="78.607,342.64",
		width=0.75];
	1 -- 65	[pos="226.16,379.79 193.34,371.53 136.71,357.27 103.97,349.03"];
	79	[height=0.5,
		pos="149.68,330.03",
		width=0.75];
	1 -- 79	[pos="230.57,374.57 213.06,364.93 188.3,351.29 170.79,341.66"];
	2 -- 25	[pos="399.14,388.54 406.05,371.82 416.37,346.82 423.27,330.13"];
	2 -- 3	[pos="387.68,424.11 387.03,426.89 386.36,429.75 385.72,432.52"];
	2 -- 4	[pos="388.69,388.01 382.77,354.29 370.12,282.29 364.21,248.65"];
	7	[height=0.5,
		pos="285.34,541.8",
		width=0.75];
	2 -- 7	[pos="379.23,422.23 358.73,448.34 318.45,499.63 297.96,525.72"];
	17	[height=0.5,
		pos="505.63,445.66",
		width=0.75];
	2 -- 17	[pos="416,414.52 435.3,421.22 462.25,430.58 481.54,437.29"];
	2 -- 52	[pos="365.27,410.01 334.37,414.51 283.69,421.89 252.82,426.38"];
	22	[height=0.5,
		pos="562.07,401.65",
		width=0.75];
	2 -- 22	[pos="419.22,405.41 451.07,404.58 503.37,403.2 535.07,402.36"];
	26	[height=0.5,
		pos="443.57,487.01",
		width=0.75];
	2 -- 26	[pos="402.59,422.89 411.46,436.77 424.01,456.4 432.88,470.27"];
	46	[height=0.5,
		pos="554.64,357.62",
		width=0.75];
	2 -- 46	[pos="416.6,398.77 447.28,389.62 499.29,374.12 529.95,364.97"];
	2 -- 64	[pos="418.71,403.44 423.95,402.92 429.44,402.37 434.69,401.84"];
	2 -- 29	[pos="369.63,416.64 342.58,429.41 297.17,450.84 270,463.67"];
	2 -- 74	[pos="386.05,388.27 384.57,383.73 382.98,378.86 381.5,374.33"];
	2 -- 57	[pos="410.81,392.85 428.81,380.23 455.72,361.35 473.69,348.75"];
	25 -- 49	[pos="439.94,295.72 441.78,292.42 443.71,288.96 445.56,285.65"];
	25 -- 46	[pos="454.44,321.29 476.42,329.26 508.82,341.01 530.78,348.97"];
	25 -- 57	[pos="454.31,321.41 459.09,323.17 464.12,325.03 468.9,326.79"];
	3 -- 67	[pos="356.68,443.32 352.64,442.18 348.45,441 344.4,439.85"];
	3 -- 8	[pos="357.91,459.19 350.33,462.03 341.93,465.17 334.34,468.01"];
	3 -- 7	[pos="365.67,465.44 347.73,482.49 318.74,510.05 300.93,526.98"];
	3 -- 10	[pos="358.83,460.08 328.76,472.96 276.04,495.55 245.87,508.47"];
	3 -- 17	[pos="408.78,449.31 429.47,448.53 457.79,447.46 478.47,446.68"];
	3 -- 34	[pos="365.48,435.76 354.82,426.09 340.87,413.45 330.14,403.72"];
	19	[height=0.5,
		pos="392.45,628.5",
		width=0.75];
	3 -- 19	[pos="382.66,468.4 384.75,502.55 389.25,576.21 391.34,610.39"];
	13	[height=0.5,
		pos="526.36,533.77",
		width=0.75];
	3 -- 13	[pos="402,462.12 429.44,477.93 477.93,505.86 505.55,521.78"];
	42	[height=0.5,
		pos="416.96,531.05",
		width=0.75];
	3 -- 42	[pos="389.24,467.85 395.18,481.39 403.36,500.04 409.29,513.57"];
	3 -- 22	[pos="406.65,443.57 441.05,434.29 502.46,417.73 536.89,408.44"];
	24	[height=0.5,
		pos="464.51,621.39",
		width=0.75];
	3 -- 24	[pos="389.97,467.68 405.91,500.55 440.34,571.55 456.2,604.26"];
	3 -- 26	[pos="401.86,462.35 408.65,466.36 416.21,470.83 423.01,474.85"];
	31	[height=0.5,
		pos="420.06,575.08",
		width=0.75];
	3 -- 31	[pos="387.07,468.21 394.39,491.92 407.24,533.54 414.55,557.24"];
	3 -- 64	[pos="401.39,437.68 413.83,429.74 429.8,419.55 442.19,411.64"];
	38	[height=0.5,
		pos="526.81,577.82",
		width=0.75];
	3 -- 38	[pos="397.94,464.72 425.83,489.2 482.26,538.72 510.27,563.3"];
	47	[height=0.5,
		pos="551.6,489.72",
		width=0.75];
	3 -- 47	[pos="407.38,456.32 439.53,463.77 494.09,476.4 526.09,483.81"];
	40	[height=0.5,
		pos="358.01,584.35",
		width=0.75];
	3 -- 40	[pos="378.38,468.41 373.89,493.99 365.72,540.48 361.21,566.13"];
	48	[height=0.5,
		pos="296.01,588.42",
		width=0.75];
	3 -- 48	[pos="371.24,466.99 354.79,493.53 322.83,545.13 306.36,571.7"];
	8 -- 67	[pos="314.2,458.98 314.75,456.31 315.31,453.56 315.85,450.89"];
	8 -- 10	[pos="288.45,487.36 275.16,493.63 258.31,501.59 245.03,507.86"];
	4 -- 25	[pos="374.44,246.43 386.74,260.95 404.86,282.35 417.15,296.85"];
	4 -- 5	[pos="352.92,213.22 351.48,210.14 349.99,206.94 348.55,203.86"];
	4 -- 36	[pos="350.3,247.62 340.38,263.33 325.71,286.53 315.85,302.12"];
	6	[height=0.5,
		pos="547.14,221.66",
		width=0.75];
	4 -- 6	[pos="388.11,229.32 423.39,227.62 484.75,224.66 520.05,222.96"];
	4 -- 62	[pos="385.91,223.56 389.95,222.41 394.14,221.22 398.18,220.07"];
	4 -- 9	[pos="333.84,230.92 307.97,231.2 269.3,231.63 243.47,231.91"];
	4 -- 12	[pos="382.99,219.91 405.58,208.88 440.58,191.79 463.24,180.73"];
	4 -- 20	[pos="387.96,228.81 408.77,227.4 437.43,225.46 458.22,224.06"];
	32	[height=0.5,
		pos="230.13,93.196",
		width=0.75];
	4 -- 32	[pos="346.53,215.39 321.37,188.98 269.91,134.96 244.7,108.5"];
	4 -- 49	[pos="384.29,240.01 398.76,245.85 417.31,253.33 431.79,259.18"];
	4 -- 46	[pos="380.32,243.27 417.33,267.54 497.98,320.45 535.16,344.84"];
	4 -- 73	[pos="335.81,237.66 304.95,246.26 253.02,260.73 222.26,269.31"];
	4 -- 44	[pos="339.77,241.99 327.43,248.58 311.95,256.85 299.63,263.43"];
	4 -- 74	[pos="363.15,248.68 365.94,272.64 370.85,314.69 373.64,338.63"];
	5 -- 18	[pos="313.6,184.15 298.69,182.8 280.18,181.13 265.23,179.78"];
	5 -- 62	[pos="365.26,194.51 375.8,197.88 388.07,201.81 398.58,205.17"];
	5 -- 9	[pos="316.56,195.38 294.58,203.46 262.19,215.36 240.24,223.43"];
	5 -- 32	[pos="323.72,172.4 302.98,154.84 267.86,125.13 247.05,107.51"];
	5 -- 71	[pos="346.2,168.93 347.13,166.06 348.09,163.08 349.02,160.21"];
	18 -- 32	[pos="236.43,159.08 235.08,144.97 233.22,125.52 231.87,111.42"];
	18 -- 28	[pos="253.04,161.98 260.72,154.05 270.06,144.41 277.74,136.48"];
	18 -- 71	[pos="262.89,169.96 282.67,164.06 310.28,155.82 330.05,149.92"];
	18 -- 35	[pos="257.94,164.85 281.3,150.1 319.93,125.69 343.25,110.97"];
	36 -- 73	[pos="281.89,309.55 263.76,302.42 238.79,292.6 220.67,285.47"];
	36 -- 44	[pos="295.01,301.88 292.93,298.48 290.75,294.92 288.68,291.53"];
	6 -- 12	[pos="530.27,207.52 521.55,200.22 510.95,191.34 502.24,184.04"];
	6 -- 20	[pos="520.1,221.91 517.49,221.94 514.84,221.96 512.23,221.99"];
	15	[height=0.5,
		pos="573.28,133.52",
		width=0.75];
	6 -- 15	[pos="552.43,203.82 556.97,188.53 563.47,166.62 568,151.33"];
	68	[height=0.5,
		pos="609.2,178.07",
		width=0.75];
	6 -- 68	[pos="565.76,208.58 573.61,203.06 582.74,196.66 590.59,191.14"];
	30	[height=0.5,
		pos="505.77,67.082",
		width=0.75];
	6 -- 30	[pos="542.4,203.93 534.46,174.27 518.58,114.92 510.59,85.083"];
	21	[height=0.5,
		pos="575.13,89.177",
		width=0.75];
	6 -- 21	[pos="550.92,203.79 556.26,178.51 565.97,132.54 571.33,107.18"];
	45	[height=0.5,
		pos="638.63,125.78",
		width=0.75];
	6 -- 45	[pos="561.84,206.25 578.91,188.36 606.91,159.02 623.96,141.15"];
	72	[height=0.5,
		pos="726.09,260.42",
		width=0.75];
	6 -- 72	[pos="573.16,227.29 607.19,234.66 666.43,247.5 700.33,254.84"];
	56	[height=0.5,
		pos="671.23,170.59",
		width=0.75];
	6 -- 56	[pos="570.19,212.17 592.34,203.06 625.64,189.35 647.89,180.2"];
	78	[height=0.5,
		pos="664.04,222.11",
		width=0.75];
	6 -- 78	[pos="574.25,221.76 593,221.84 617.86,221.93 636.67,222.01"];
	7 -- 10	[pos="261.74,532.92 256.77,531.04 251.52,529.07 246.55,527.2"];
	7 -- 19	[pos="302.55,555.73 322.53,571.91 355.31,598.44 375.28,614.61"];
	14	[height=0.5,
		pos="200.65,571.98",
		width=0.75];
	7 -- 14	[pos="261.3,550.37 249.85,554.45 236.2,559.31 224.75,563.39"];
	11	[height=0.5,
		pos="227.9,616.03",
		width=0.75];
	7 -- 11	[pos="272.87,557.91 263.24,570.36 249.96,587.51 240.34,599.96"];
	27	[height=0.5,
		pos="248.05,660.88",
		width=0.75];
	7 -- 27	[pos="279.75,559.63 272.72,582.08 260.72,620.43 253.67,642.93"];
	55	[height=0.5,
		pos="310.09,667.27",
		width=0.75];
	7 -- 55	[pos="288.88,559.77 293.59,583.63 301.85,625.49 306.55,649.32"];
	7 -- 26	[pos="309.37,533.48 339.2,523.15 389.76,505.64 419.58,495.32"];
	7 -- 31	[pos="310.68,548.06 334.61,553.97 370.33,562.79 394.37,568.73"];
	7 -- 29	[pos="275.79,524.76 270.09,514.61 262.88,501.75 257.17,491.56"];
	51	[height=0.5,
		pos="430.39,689.85",
		width=0.75];
	7 -- 51	[pos="300.31,557.08 328.11,585.45 387.38,645.95 415.28,674.42"];
	10 -- 14	[pos="215.63,535.88 213.14,541.87 210.37,548.57 207.88,554.55"];
	10 -- 11	[pos="223.86,536.69 224.75,554.16 226.08,580.29 226.96,597.73"];
	10 -- 43	[pos="196.26,515.23 193.37,514.9 190.43,514.56 187.54,514.23"];
	69	[height=0.5,
		pos="137.42,590.85",
		width=0.75];
	10 -- 69	[pos="206.03,532.64 191.04,545.35 169.26,563.84 154.28,576.54"];
	10 -- 53	[pos="204.25,505 181.14,488.53 142.02,460.65 118.83,444.13"];
	76	[height=0.5,
		pos="98.848,544.02",
		width=0.75];
	10 -- 76	[pos="196.91,523.7 175.74,528.08 145.99,534.25 124.82,538.64"];
	9 -- 18	[pos="223.4,214.54 225.89,208.28 228.69,201.23 231.17,194.97"];
	59	[height=0.5,
		pos="140.12,152.51",
		width=0.75];
	9 -- 59	[pos="201.68,216.84 188.18,202.72 168.27,181.92 154.78,167.82"];
	9 -- 32	[pos="218.18,214.03 220.82,187.39 225.7,138.02 228.33,111.37"];
	9 -- 23	[pos="194.75,243.22 176.52,252.5 150.57,265.71 132.35,274.98"];
	9 -- 50	[pos="189.81,235.4 180.85,236.48 170.84,237.68 161.87,238.76"];
	9 -- 73	[pos="208.83,249.62 207.54,252.6 206.19,255.7 204.89,258.69"];
	9 -- 54	[pos="242.7,227.61 245.87,227.06 249.1,226.49 252.27,225.94"];
	9 -- 77	[pos="221.82,250.24 226.51,265.81 233.24,288.16 237.9,303.63"];
	61	[height=0.5,
		pos="121.98,197.3",
		width=0.75];
	9 -- 61	[pos="192.56,223.4 178.25,218.1 160.1,211.39 145.79,206.1"];
	59 -- 61	[pos="133.06,169.95 131.74,173.19 130.37,176.58 129.06,179.83"];
	63	[height=0.5,
		pos="27,222.35",
		width=0.75];
	59 -- 63	[pos="120.16,164.83 99.61,177.52 67.762,197.18 47.145,209.91"];
	70	[height=0.5,
		pos="609.69,565",
		width=0.75];
	17 -- 70	[pos="519.23,461.26 539.18,484.13 576.14,526.52 596.08,549.4"];
	17 -- 22	[pos="523.18,431.97 529.91,426.73 537.59,420.74 544.34,415.48"];
	17 -- 26	[pos="486.34,458.51 478.94,463.44 470.49,469.07 463.07,474.02"];
	34 -- 54	[pos="309.93,370.9 303.16,338.75 289.02,271.65 282.22,239.42"];
	34 -- 77	[pos="298.07,373.84 286.39,362.66 270.5,347.44 258.83,336.27"];
	34 -- 79	[pos="289.86,380.27 258.76,369.12 204.67,349.74 173.56,338.59"];
	41 -- 43	[pos="161.56,485.24 161.5,487.8 161.43,490.44 161.36,493"];
	41 -- 52	[pos="182.72,455.19 190.05,450.99 198.3,446.27 205.64,442.07"];
	41 -- 58	[pos="147.72,451.54 134.58,437.31 115.2,416.33 102.07,402.11"];
	19 -- 31	[pos="401.34,611.3 404.49,605.2 408.03,598.34 411.19,592.24"];
	19 -- 38	[pos="416.16,619.56 440.57,610.35 478.4,596.08 502.89,586.85"];
	19 -- 40	[pos="379.82,612.31 376.83,608.47 373.63,604.38 370.64,600.54"];
	19 -- 51	[pos="402.82,645.27 408.17,653.92 414.68,664.45 420.03,673.11"];
	14 -- 41	[pos="194.1,554.18 186.96,534.76 175.59,503.89 168.49,484.58"];
	14 -- 27	[pos="209.79,589.12 218.18,604.87 230.55,628.07 238.94,643.8"];
	75	[height=0.5,
		pos="143.89,688.26",
		width=0.75];
	14 -- 75	[pos="192.28,589.14 181.54,611.12 163.05,649.02 152.3,671.03"];
	14 -- 43	[pos="189.79,555.36 184.18,546.78 177.35,536.34 171.74,527.76"];
	14 -- 69	[pos="175.66,579.44 171.24,580.76 166.64,582.13 162.23,583.44"];
	14 -- 55	[pos="217.27,586.45 237.96,604.47 273.08,635.04 293.67,652.97"];
	14 -- 29	[pos="209.02,554.52 217.55,536.74 230.69,509.33 239.19,491.61"];
	14 -- 76	[pos="175.49,565.07 159.82,560.77 139.75,555.25 124.08,550.95"];
	11 -- 14	[pos="217.6,599.38 215.43,595.87 213.14,592.17 210.97,588.66"];
	11 -- 27	[pos="235.75,633.5 237.2,636.75 238.73,640.14 240.19,643.39"];
	11 -- 75	[pos="211.3,630.3 196.57,642.96 175.17,661.37 160.45,674.02"];
	11 -- 69	[pos="202.69,609.02 190.15,605.52 175.02,601.31 162.49,597.82"];
	27 -- 75	[pos="222.84,667.51 206.58,671.78 185.51,677.32 169.23,681.6"];
	27 -- 55	[pos="275.08,663.67 277.83,663.95 280.61,664.23 283.35,664.52"];
	12 -- 37	[pos="491.21,187.59 496.91,204.87 505.53,231.04 511.25,248.39"];
	12 -- 62	[pos="466.35,183.08 458.61,188.42 449.7,194.58 441.98,199.92"];
	12 -- 20	[pos="485.28,187.92 485.25,193.13 485.22,198.81 485.19,204.02"];
	12 -- 15	[pos="508.48,160.36 521.4,155.01 537.45,148.36 550.34,143.02"];
	12 -- 30	[pos="488.94,152 492.66,133.25 498.46,103.95 502.19,85.134"];
	12 -- 21	[pos="501.85,155.11 518.04,140.54 542.62,118.43 558.78,103.89"];
	60	[height=0.5,
		pos="382.27,18",
		width=0.75];
	12 -- 60	[pos="474.15,153.37 454.32,124.15 413.31,63.735 393.49,34.527"];
	33	[height=0.5,
		pos="436.59,62.069",
		width=0.75];
	12 -- 33	[pos="477.55,152.59 468.44,132.46 453.51,99.461 444.41,79.354"];
	20 -- 68	[pos="509.02,213.72 530.99,205.9 563.39,194.38 585.34,186.56"];
	20 -- 33	[pos="479.71,204.49 470.39,173.7 451.33,110.75 441.99,79.901"];
	13 -- 42	[pos="499.31,533.1 482.48,532.68 460.91,532.14 444.07,531.72"];
	13 -- 70	[pos="550.01,542.64 561.27,546.86 574.71,551.89 585.97,556.11"];
	13 -- 22	[pos="531.17,515.95 537.99,490.74 550.38,444.9 557.21,419.61"];
	13 -- 26	[pos="505.47,521.97 492.92,514.88 477.01,505.89 464.46,498.8"];
	42 -- 48	[pos="394.77,541.57 372.95,551.92 339.83,567.63 318.05,577.96"];
	15 -- 20	[pos="558.32,148.57 542.1,164.89 516.37,190.77 500.12,207.12"];
	15 -- 68	[pos="586.25,149.61 589.54,153.69 593.08,158.08 596.37,162.16"];
	15 -- 30	[pos="557.97,118.45 546.92,107.57 532.07,92.959 521.03,82.099"];
	15 -- 21	[pos="574.04,115.49 574.15,112.8 574.26,110.03 574.38,107.34"];
	15 -- 60	[pos="553.2,121.38 516.52,99.192 439.07,52.351 402.37,30.155"];
	15 -- 33	[pos="551.93,122.36 526.4,109.01 483.91,86.806 458.25,73.391"];
	15 -- 45	[pos="600.24,130.33 604.04,129.88 607.94,129.42 611.73,128.97"];
	68 -- 72	[pos="627.98,191.3 649.79,206.67 685.56,231.87 707.36,247.22"];
	68 -- 78	[pos="626.55,192.01 632.95,197.15 640.2,202.97 646.61,208.12"];
	16	[height=0.5,
		pos="727.56,63.337",
		width=0.75];
	66	[height=0.5,
		pos="771.4,151.03",
		width=0.75];
	16 -- 66	[pos="736.22,80.661 743.91,96.034 755.08,118.38 762.76,133.74"];
	16 -- 45	[pos="708.7,76.579 693.61,87.176 672.55,101.96 657.46,112.56"];
	16 -- 56	[pos="718.51,80.569 708,100.58 690.76,133.4 680.26,153.4"];
	66 -- 72	[pos="764.12,168.6 755.66,189.02 741.8,222.49 733.35,242.89"];
	43 -- 53	[pos="148.57,494.88 138,480.92 122.85,460.91 112.29,446.96"];
	43 -- 58	[pos="151.04,494.37 137.08,470.61 111.73,427.41 97.734,403.58"];
	43 -- 76	[pos="139.54,522.47 133.23,525.81 126.33,529.47 120.03,532.8"];
	69 -- 75	[pos="138.64,609.17 139.79,626.59 141.52,652.63 142.68,670.02"];
	22 -- 70	[pos="567.25,419.45 576.41,450.87 595.35,515.83 604.51,547.23"];
	22 -- 26	[pos="543.55,414.99 521.29,431.02 484.16,457.77 461.96,473.76"];
	22 -- 64	[pos="534.93,400.97 520.66,400.61 503.22,400.17 488.95,399.81"];
	21 -- 30	[pos="550.48,81.325 543.94,79.241 536.88,76.991 530.34,74.909"];
	39 -- 71	[pos="390.7,145.58 387.76,145.34 384.77,145.08 381.83,144.84"];
	23 -- 59	[pos="114.71,267.98 120.32,242.5 130.51,196.2 136.13,170.65"];
	23 -- 50	[pos="120.14,269.09 121.98,265.79 123.9,262.33 125.74,259.03"];
	23 -- 73	[pos="137.65,282.96 148.07,281.79 159.97,280.46 170.38,279.29"];
	23 -- 61	[pos="113.02,268.03 114.96,252.75 117.72,230.89 119.67,215.52"];
	23 -- 63	[pos="92.574,272.17 78.431,261.43 58.909,246.6 44.848,235.91"];
	50 -- 59	[pos="136.22,223.86 137.07,208.34 138.29,186.1 139.14,170.58"];
	50 -- 61	[pos="129.92,224.06 129.05,221.14 128.16,218.13 127.29,215.21"];
	50 -- 63	[pos="109.03,237.22 92.141,234.16 70.252,230.19 53.334,227.12"];
	24 -- 42	[pos="455.56,604.4 447.12,588.35 434.51,564.4 426.02,548.27"];
	24 -- 26	[pos="461.68,603.27 457.69,577.62 450.43,531 446.42,505.27"];
	24 -- 48	[pos="438.55,616.31 406.88,610.12 353.67,599.7 322,593.5"];
	26 -- 42	[pos="433.36,503.91 431.31,507.31 429.15,510.87 427.1,514.26"];
	26 -- 70	[pos="465.98,497.53 497.77,512.45 555.63,539.62 587.38,554.53"];
	26 -- 31	[pos="438.82,504.83 434.73,520.11 428.89,542.01 424.81,557.28"];
	31 -- 38	[pos="447.27,575.78 463.33,576.19 483.59,576.71 499.65,577.12"];
	31 -- 47	[pos="439.47,562.48 464.34,546.35 507.2,518.53 532.11,502.37"];
	31 -- 51	[pos="421.69,593.26 423.63,614.75 426.83,650.29 428.76,671.75"];
	49 -- 57	[pos="464.54,285.48 470.18,295.55 477.31,308.3 482.96,318.41"];
	46 -- 57	[pos="530.81,349.14 526.16,347.48 521.28,345.75 516.62,344.09"];
	28 -- 35	[pos="317.19,113.24 324,111.05 331.4,108.67 338.22,106.48"];
	29 -- 41	[pos="220.45,472 210.38,471.14 198.95,470.17 188.9,469.32"];
	29 -- 43	[pos="224.28,484.17 211.76,489.51 196.35,496.06 183.86,501.38"];
	29 -- 52	[pos="239.23,457.14 237.69,453.95 236.09,450.62 234.55,447.43"];
	38 -- 47	[pos="531.83,559.99 536.13,544.71 542.3,522.8 546.59,507.52"];
	38 -- 40	[pos="499.69,578.87 468.19,580.09 416.53,582.08 385.06,583.3"];
	38 -- 51	[pos="513,593.87 494.56,615.29 462.13,652.97 443.87,674.19"];
	33 -- 60	[pos="419.41,48.125 413.06,42.981 405.88,37.154 399.53,32.004"];
	54 -- 77	[pos="272.13,239.25 265.73,257.44 255.86,285.48 249.47,303.62"];
	54 -- 79	[pos="261.59,235.58 236.92,256.4 191.19,294.99 166.52,315.82"];
	35 -- 39	[pos="379.1,113.07 386.18,119.44 394.48,126.89 401.57,133.26"];
	35 -- 71	[pos="359.59,116.44 359.1,119.11 358.58,121.86 358.09,124.53"];
	40 -- 51	[pos="369.32,600.83 382.84,620.54 405.33,653.32 418.92,673.13"];
	53 -- 58	[pos="95.026,412.79 94.262,410.02 93.473,407.17 92.71,404.41"];
	53 -- 76	[pos="99.799,448.91 99.587,470.05 99.241,504.73 99.029,525.86"];
	53 -- 65	[pos="95.655,412.88 91.947,397.6 86.632,375.71 82.926,360.43"];
	45 -- 68	[pos="628.99,142.9 625.7,148.74 622.03,155.26 618.75,161.09"];
	45 -- 66	[pos="664.86,130.77 688.13,135.19 721.96,141.63 745.22,146.05"];
	45 -- 72	[pos="649.53,142.56 666.38,168.5 698.56,218.04 715.33,243.85"];
	45 -- 56	[pos="650.58,142.21 653.42,146.11 656.44,150.26 659.28,154.16"];
	45 -- 78	[pos="643.41,143.9 647.95,161.12 654.74,186.88 659.28,204.07"];
	72 -- 78	[pos="706.11,248.09 699.03,243.71 691.06,238.79 683.97,234.42"];
	58 -- 65	[pos="84.06,368.76 83.503,366.09 82.929,363.34 82.372,360.67"];
	77 -- 79	[pos="216.43,323.83 203.9,324.99 189.02,326.37 176.5,327.54"];
	56 -- 66	[pos="697.29,165.5 712.13,162.6 730.66,158.98 745.47,156.09"];
	56 -- 72	[pos="681.55,187.49 691.36,203.55 706.03,227.56 715.82,243.6"];
	61 -- 73	[pos="136.5,212.52 149.74,226.42 169.23,246.86 182.54,260.82"];
	61 -- 63	[pos="96.526,204.01 82.789,207.63 65.891,212.09 52.194,215.71"];
}
