graph {
	graph [bb="0,0,692.47,676.96",
		outputorder=edgesfirst,
		overlap=prism,
		size="50,50!",
		start=6548
	];
	node [label="\N"];
	0	[height=0.5,
		pos="204.37,160.48",
		width=0.75];
	1	[height=0.5,
		pos="292.66,131.74",
		width=0.75];
	0 -- 1	[pos="228.96,152.48 241.21,148.49 255.97,143.68 268.2,139.7"];
	3	[height=0.5,
		pos="273.71,303.74",
		width=0.75];
	0 -- 3	[pos="212.73,177.76 226.06,205.3 251.97,258.82 265.32,286.4"];
	2	[height=0.5,
		pos="352.34,284.99",
		width=0.75];
	0 -- 2	[pos="221.34,174.77 249.89,198.78 307.15,246.97 335.56,270.87"];
	16	[height=0.5,
		pos="393.2,33.14",
		width=0.75];
	0 -- 16	[pos="223.51,147.57 259.71,123.17 337.78,70.519 374.01,46.085"];
	7	[height=0.5,
		pos="27,236.02",
		width=0.75];
	0 -- 7	[pos="181.54,170.2 147.58,184.67 84.093,211.71 50.018,226.22"];
	18	[height=0.5,
		pos="186.74,48.409",
		width=0.75];
	0 -- 18	[pos="201.54,142.48 198.25,121.56 192.85,87.266 189.57,66.371"];
	10	[height=0.5,
		pos="138.83,239.23",
		width=0.75];
	0 -- 10	[pos="191.11,176.42 179.73,190.08 163.44,209.66 152.07,223.31"];
	11	[height=0.5,
		pos="169.63,329.96",
		width=0.75];
	0 -- 11	[pos="200.65,178.62 193.97,211.24 179.99,279.43 173.32,311.95"];
	20	[height=0.5,
		pos="68.929,124.8",
		width=0.75];
	0 -- 20	[pos="179.21,153.86 155.04,147.49 118.69,137.91 94.412,131.51"];
	23	[height=0.5,
		pos="291.11,18",
		width=0.75];
	0 -- 23	[pos="214.66,143.58 231.35,116.16 264.15,62.29 280.83,34.882"];
	1 -- 3	[pos="290.67,149.82 287.03,182.85 279.35,252.59 275.71,285.64"];
	1 -- 2	[pos="299.51,149.32 310.96,178.72 333.87,237.56 345.39,267.14"];
	1 -- 16	[pos="307.93,116.76 326.83,98.229 358.83,66.852 377.79,48.255"];
	12	[height=0.5,
		pos="389.05,110.57",
		width=0.75];
	1 -- 12	[pos="318.49,126.06 332.32,123.03 349.31,119.3 363.15,116.26"];
	1 -- 18	[pos="275.17,117.98 255.54,102.54 223.89,77.636 204.26,62.189"];
	1 -- 23	[pos="292.41,113.71 292.13,92.542 291.65,57.611 291.36,36.314"];
	25	[height=0.5,
		pos="447.82,353.02",
		width=0.75];
	3 -- 25	[pos="298.66,310.8 331.76,320.17 389.85,336.61 422.92,345.97"];
	3 -- 7	[pos="248.7,296.87 201.41,283.89 99.418,255.9 52.08,242.9"];
	4	[height=0.5,
		pos="459.13,499.93",
		width=0.75];
	3 -- 4	[pos="288.26,319.13 322.92,355.81 410.05,448 444.65,484.6"];
	19	[height=0.5,
		pos="263.59,478.09",
		width=0.75];
	3 -- 19	[pos="272.67,321.74 270.73,355.15 266.59,426.39 264.65,459.93"];
	6	[height=0.5,
		pos="427.45,204.09",
		width=0.75];
	3 -- 6	[pos="293.18,291.12 322.59,272.05 378.05,236.11 407.65,216.92"];
	5	[height=0.5,
		pos="516.64,293.13",
		width=0.75];
	3 -- 5	[pos="301.11,302.54 347.89,300.5 442.64,296.36 489.35,294.32"];
	3 -- 12	[pos="283.75,286.93 305.56,250.4 357.09,164.09 378.96,127.47"];
	8	[height=0.5,
		pos="501.98,181.32",
		width=0.75];
	3 -- 8	[pos="294.78,292.44 338.15,269.18 437.02,216.15 480.63,192.76"];
	3 -- 18	[pos="267.6,285.78 251.59,238.79 208.6,112.59 192.74,66.004"];
	3 -- 10	[pos="251.74,293.23 226.66,281.23 185.87,261.72 160.79,249.73"];
	3 -- 11	[pos="248.25,310.15 232.12,314.22 211.34,319.45 195.19,323.52"];
	14	[height=0.5,
		pos="174.49,445.55",
		width=0.75];
	3 -- 14	[pos="262.14,320.28 243.02,347.61 205.06,401.86 185.99,429.11"];
	3 -- 20	[pos="257.3,289.4 218.96,255.89 123.84,172.78 85.419,139.21"];
	22	[height=0.5,
		pos="80.025,485.86",
		width=0.75];
	3 -- 22	[pos="257.86,318.64 221.45,352.88 132.18,436.82 95.823,471"];
	29	[height=0.5,
		pos="291.04,568.69",
		width=0.75];
	3 -- 29	[pos="274.91,321.95 278.08,370.47 286.71,502.44 289.86,550.7"];
	2 -- 3	[pos="326.59,291.13 317.82,293.22 308.01,295.56 299.25,297.65"];
	2 -- 16	[pos="355.28,266.87 362.82,220.41 382.78,97.375 390.29,51.088"];
	2 -- 25	[pos="371.2,298.43 388.05,310.43 412.59,327.91 429.32,339.84"];
	2 -- 19	[pos="344.31,302.46 327.41,339.23 288.37,424.19 271.54,460.79"];
	2 -- 6	[pos="366.82,269.39 380.12,255.06 399.72,233.95 413.01,219.64"];
	2 -- 5	[pos="379.47,286.33 409.91,287.84 459.01,290.27 489.47,291.78"];
	2 -- 12	[pos="356.13,266.98 363.18,233.47 378.24,161.91 385.28,128.48"];
	2 -- 8	[pos="371.29,271.86 400.08,251.92 454.49,214.22 483.18,194.34"];
	13	[height=0.5,
		pos="560.49,100.88",
		width=0.75];
	2 -- 13	[pos="368.67,270.54 407.58,236.12 505.4,149.61 544.23,115.26"];
	9	[height=0.5,
		pos="578.03,380",
		width=0.75];
	2 -- 9	[pos="375.22,294.62 418.48,312.83 511.78,352.11 555.08,370.34"];
	24	[height=0.5,
		pos="397.12,533.92",
		width=0.75];
	2 -- 24	[pos="355.56,302.89 363.8,348.71 385.59,469.84 393.87,515.84"];
	2 -- 10	[pos="326.58,279.47 285.55,270.67 205.77,253.57 164.67,244.77"];
	15	[height=0.5,
		pos="73.191,346.37",
		width=0.75];
	2 -- 15	[pos="326.58,290.65 273.4,302.35 152.02,329.04 98.89,340.72"];
	2 -- 11	[pos="326.93,291.24 292.13,299.81 229.96,315.11 195.11,323.69"];
	2 -- 14	[pos="336.24,299.52 302.47,330.01 224.53,400.37 190.68,430.94"];
	28	[height=0.5,
		pos="398.68,443.36",
		width=0.75];
	2 -- 28	[pos="357.57,302.85 366.47,333.26 384.47,394.78 393.4,425.32"];
	17	[height=0.5,
		pos="552.92,459.72",
		width=0.75];
	2 -- 17	[pos="368.75,299.29 406.37,332.05 498.45,412.26 536.28,445.22"];
	2 -- 23	[pos="348.23,267.05 337.07,218.42 306.34,84.401 295.2,35.854"];
	16 -- 23	[pos="366.65,29.201 351.52,26.959 332.64,24.158 317.53,21.919"];
	7 -- 20	[pos="33.737,218.15 41.607,197.27 54.544,162.96 62.347,142.26"];
	4 -- 25	[pos="457.74,481.91 455.57,453.72 451.4,399.47 449.22,371.18"];
	4 -- 19	[pos="432.35,496.94 395.01,492.77 327.7,485.25 290.36,481.08"];
	4 -- 5	[pos="464.13,481.94 475.04,442.73 500.83,349.96 511.69,310.93"];
	4 -- 9	[pos="474.19,484.74 497.06,461.67 540.29,418.06 563.09,395.07"];
	21	[height=0.5,
		pos="665.47,547.13",
		width=0.75];
	4 -- 21	[pos="484.84,505.81 524.49,514.88 600.11,532.17 639.75,541.24"];
	4 -- 24	[pos="438.13,511.43 431.67,514.98 424.55,518.88 418.09,522.42"];
	4 -- 28	[pos="443.25,485.06 434.43,476.81 423.5,466.58 414.67,458.32"];
	4 -- 17	[pos="482.31,489.99 496.85,483.75 515.52,475.75 530.01,469.54"];
	27	[height=0.5,
		pos="561.27,658.96",
		width=0.75];
	4 -- 27	[pos="469.86,516.64 489.43,547.11 530.68,611.33 550.37,641.99"];
	4 -- 29	[pos="436.11,509.34 404.1,522.44 346.47,546.02 314.32,559.17"];
	19 -- 24	[pos="286.55,487.69 311,497.92 349.51,514.01 374.02,524.26"];
	19 -- 28	[pos="289,471.56 313.15,465.35 349.27,456.06 373.39,449.86"];
	26	[height=0.5,
		pos="114.66,652.51",
		width=0.75];
	19 -- 26	[pos="250.11,493.88 221.83,527 156.57,603.44 128.22,636.64"];
	19 -- 22	[pos="236.51,479.24 201.8,480.71 141.98,483.24 107.22,484.71"];
	19 -- 29	[pos="269.02,495.99 273.83,511.88 280.82,534.96 285.63,550.83"];
	6 -- 25	[pos="429.9,222.05 433.82,250.68 441.43,306.32 445.36,334.99"];
	6 -- 12	[pos="420.22,186.5 413.36,169.78 403.09,144.77 396.24,128.08"];
	6 -- 8	[pos="452.26,196.51 460.31,194.05 469.23,191.32 477.27,188.87"];
	5 -- 25	[pos="499.98,307.63 489.16,317.04 475.12,329.26 464.33,338.65"];
	5 -- 6	[pos="501.51,278.02 485.11,261.65 459.08,235.67 442.65,219.27"];
	5 -- 8	[pos="514.29,275.16 511.57,254.42 507.12,220.49 504.38,199.61"];
	12 -- 13	[pos="416.22,109.03 448.32,107.22 501.4,104.22 533.45,102.41"];
	12 -- 18	[pos="364.24,102.95 325.31,90.983 250.3,67.936 211.44,55.996"];
	8 -- 12	[pos="482.05,168.83 461.41,155.9 429.35,135.81 408.78,122.93"];
	8 -- 13	[pos="513.82,165.04 523.97,151.08 538.52,131.08 548.66,117.13"];
	9 -- 21	[pos="587.05,397.26 603.81,429.28 639.54,497.57 656.36,529.71"];
	9 -- 24	[pos="561.33,394.2 526.87,423.53 448.2,490.46 413.78,519.75"];
	9 -- 28	[pos="553.84,388.55 519.51,400.67 457.04,422.74 422.77,434.85"];
	9 -- 17	[pos="572.46,397.69 568.3,410.9 562.64,428.88 558.48,442.07"];
	21 -- 27	[pos="650.98,562.68 631.07,584.04 595.48,622.24 575.63,643.54"];
	18 -- 20	[pos="167.29,61.023 145.46,75.178 110.25,98.006 88.412,112.17"];
	24 -- 28	[pos="397.44,515.59 397.71,499.88 398.1,477.36 398.37,461.66"];
	10 -- 15	[pos="128.57,255.97 116.31,275.98 95.913,309.28 83.591,329.4"];
	10 -- 11	[pos="144.91,257.15 150.35,273.16 158.26,296.48 163.66,312.38"];
	11 -- 15	[pos="143.28,334.44 129.67,336.76 113.11,339.58 99.511,341.89"];
	14 -- 19	[pos="198.37,454.27 211.15,458.94 226.85,464.68 239.65,469.35"];
	14 -- 26	[pos="169.28,463.56 157.94,502.8 131.11,595.63 119.81,634.7"];
	14 -- 22	[pos="151.62,455.31 136.88,461.6 117.77,469.75 103.01,476.05"];
	28 -- 29	[pos="385.05,459.23 364.34,483.34 325.2,528.92 304.56,552.95"];
	17 -- 25	[pos="537.87,444.43 517.89,424.15 482.82,388.55 462.85,368.28"];
	17 -- 21	[pos="570.76,473.57 591.83,489.93 626.68,517 647.72,533.34"];
	17 -- 24	[pos="530.93,470.19 501.32,484.29 448.93,509.24 419.25,523.38"];
	17 -- 27	[pos="553.68,477.75 555.26,515.59 558.92,602.9 560.51,640.82"];
	22 -- 26	[pos="83.732,503.69 90.381,535.69 104.26,602.47 110.93,634.55"];
}
