graph {
	graph [bb="0,0,264.52,245.89",
		outputorder=edgesfirst,
		overlap=prism,
		size="50,50!",
		start=6034
	];
	node [label="\N"];
	0	[height=0.5,
		pos="237.52,207.63",
		width=0.75];
	1	[height=0.5,
		pos="228.93,144.65",
		width=0.75];
	0 -- 1	[pos="235.03,189.41 233.88,180.98 232.52,171 231.38,162.61"];
	4	[height=0.5,
		pos="173.54,213.58",
		width=0.75];
	0 -- 4	[pos="210.75,210.12 207.33,210.44 203.82,210.76 200.4,211.08"];
	5	[height=0.5,
		pos="166.92,151.38",
		width=0.75];
	0 -- 5	[pos="220.07,193.72 209.29,185.13 195.49,174.15 184.66,165.52"];
	2	[height=0.5,
		pos="222.58,81.547",
		width=0.75];
	1 -- 2	[pos="227.09,126.4 226.24,117.96 225.24,107.95 224.39,99.541"];
	1 -- 4	[pos="216.08,160.64 207.13,171.78 195.25,186.57 186.31,197.68"];
	1 -- 5	[pos="202.27,147.55 199.51,147.85 196.71,148.15 193.95,148.45"];
	6	[height=0.5,
		pos="160.39,87.671",
		width=0.75];
	1 -- 6	[pos="211.99,130.57 201.52,121.87 188.13,110.73 177.61,101.99"];
	3	[height=0.5,
		pos="217.72,18",
		width=0.75];
	2 -- 3	[pos="221.2,63.507 220.55,54.994 219.77,44.852 219.12,36.306"];
	2 -- 5	[pos="209.67,97.744 200.68,109.03 188.74,124.01 179.76,135.27"];
	2 -- 6	[pos="195.85,84.179 192.95,84.465 190,84.755 187.1,85.04"];
	7	[height=0.5,
		pos="154.09,25.532",
		width=0.75];
	2 -- 7	[pos="205.3,67.412 194.99,58.985 181.95,48.317 171.6,39.857"];
	3 -- 6	[pos="204.71,33.809 195.46,45.051 183.07,60.105 173.75,71.44"];
	3 -- 7	[pos="191.1,21.151 187.7,21.554 184.21,21.966 180.8,22.37"];
	4 -- 5	[pos="171.62,195.59 170.75,187.41 169.73,177.75 168.85,169.55"];
	8	[height=0.5,
		pos="110.12,220.07",
		width=0.75];
	4 -- 8	[pos="146.64,216.33 143.4,216.67 140.09,217 136.85,217.34"];
	9	[height=0.5,
		pos="103.46,157.93",
		width=0.75];
	4 -- 9	[pos="155.85,199.54 145.15,191.04 131.56,180.24 120.9,171.78"];
	5 -- 6	[pos="165.07,133.3 164.19,124.76 163.15,114.59 162.27,106.02"];
	5 -- 8	[pos="153.75,167.31 144.57,178.41 132.38,193.15 123.22,204.23"];
	5 -- 9	[pos="140.01,154.16 136.77,154.49 133.45,154.83 130.21,155.17"];
	10	[height=0.5,
		pos="96.882,94.229",
		width=0.75];
	5 -- 10	[pos="149.61,137.25 138.75,128.4 124.81,117.02 114,108.19"];
	6 -- 7	[pos="158.57,69.697 157.74,61.525 156.76,51.873 155.93,43.68"];
	6 -- 9	[pos="147.47,103.61 138.16,115.11 125.63,130.57 116.33,142.05"];
	6 -- 10	[pos="133.46,90.452 130.21,90.787 126.9,91.13 123.65,91.464"];
	11	[height=0.5,
		pos="90.712,32.022",
		width=0.75];
	6 -- 11	[pos="142.81,73.628 132.17,65.128 118.65,54.332 108.05,45.868"];
	7 -- 10	[pos="140.82,41.465 131.58,52.563 119.3,67.303 110.08,78.383"];
	7 -- 11	[pos="127.21,28.284 123.97,28.616 120.66,28.955 117.43,29.286"];
	8 -- 9	[pos="108.19,202.1 107.32,193.92 106.28,184.27 105.41,176.08"];
	12	[height=0.5,
		pos="46.647,227.89",
		width=0.75];
	8 -- 12	[pos="83.202,223.39 79.958,223.78 76.646,224.19 73.404,224.59"];
	13	[height=0.5,
		pos="41.35,164.15",
		width=0.75];
	8 -- 13	[pos="92.766,205.96 82.421,197.55 69.324,186.9 58.937,178.45"];
	9 -- 10	[pos="101.59,139.85 100.71,131.31 99.663,121.15 98.778,112.58"];
	9 -- 12	[pos="90.57,173.8 81.403,185.09 69.126,200.21 59.883,211.59"];
	9 -- 13	[pos="76.761,160.6 73.999,160.88 71.19,161.16 68.424,161.44"];
	14	[height=0.5,
		pos="34.813,100.8",
		width=0.75];
	9 -- 14	[pos="86.493,143.81 76.011,135.09 62.598,123.92 52.064,115.16"];
	10 -- 11	[pos="95.097,76.237 94.286,68.055 93.328,58.393 92.514,50.19"];
	10 -- 13	[pos="84.002,110.45 75.031,121.74 63.116,136.75 54.16,148.02"];
	10 -- 14	[pos="70.199,97.055 67.439,97.348 64.632,97.645 61.868,97.938"];
	15	[height=0.5,
		pos="27,37.315",
		width=0.75];
	10 -- 15	[pos="79.608,80.161 68.937,71.47 55.284,60.35 44.561,51.617"];
	11 -- 14	[pos="77.747,47.975 68.717,59.087 56.723,73.844 47.708,84.937"];
	11 -- 15	[pos="63.692,34.267 60.437,34.537 57.112,34.813 53.858,35.084"];
	12 -- 13	[pos="45.143,209.79 44.434,201.26 43.588,191.08 42.876,182.51"];
	13 -- 14	[pos="39.494,146.17 38.618,137.68 37.575,127.57 36.696,119.05"];
	14 -- 15	[pos="32.595,82.78 31.548,74.274 30.301,64.142 29.251,55.604"];
}
