graph {
	graph [bb="0,0,591.52,640.54",
		outputorder=edgesfirst,
		overlap=prism,
		size="50,50!",
		start=2436
	];
	node [label="\N"];
	0	[height=0.5,
		pos="344.93,152.95",
		width=0.75];
	1	[height=0.5,
		pos="405.43,200.18",
		width=0.75];
	0 -- 1	[pos="362.75,166.86 370.56,172.96 379.7,180.1 387.52,186.2"];
	3	[height=0.5,
		pos="318.92,256.72",
		width=0.75];
	0 -- 3	[pos="340.4,171.03 335.62,190.07 328.15,219.88 323.4,238.85"];
	2	[height=0.5,
		pos="258.65,300.75",
		width=0.75];
	0 -- 2	[pos="335.03,169.9 318.48,198.26 285.35,255.01 268.7,283.54"];
	16	[height=0.5,
		pos="486.38,204.85",
		width=0.75];
	0 -- 16	[pos="368.61,161.64 394.72,171.22 436.49,186.54 462.63,196.13"];
	7	[height=0.5,
		pos="324.42,18",
		width=0.75];
	0 -- 7	[pos="342.21,135.03 338.28,109.22 331.08,61.847 327.15,35.995"];
	18	[height=0.5,
		pos="471.74,109.2",
		width=0.75];
	0 -- 18	[pos="369.08,144.62 391.64,136.83 425.14,125.27 447.68,117.5"];
	10	[height=0.5,
		pos="186.94,223.85",
		width=0.75];
	0 -- 10	[pos="322.29,163.11 292.26,176.59 239.54,200.24 209.53,213.71"];
	11	[height=0.5,
		pos="145.82,145.17",
		width=0.75];
	0 -- 11	[pos="317.66,151.88 279.64,150.4 211.09,147.72 173.07,146.23"];
	20	[height=0.5,
		pos="422.24,43.981",
		width=0.75];
	0 -- 20	[pos="356.67,136.4 371.29,115.8 396.09,80.836 410.64,60.33"];
	23	[height=0.5,
		pos="449.9,283.67",
		width=0.75];
	0 -- 23	[pos="357.8,168.98 377.95,194.07 416.71,242.34 436.93,267.51"];
	1 -- 3	[pos="385.8,213.01 371.64,222.26 352.61,234.7 338.47,243.94"];
	1 -- 2	[pos="386.54,213.12 358.51,232.32 306.18,268.18 277.93,287.54"];
	1 -- 16	[pos="432.38,201.73 441.03,202.23 450.61,202.78 459.27,203.28"];
	12	[height=0.5,
		pos="282.88,120.16",
		width=0.75];
	1 -- 12	[pos="386.01,187.5 363.06,172.51 325.11,147.73 302.21,132.78"];
	1 -- 18	[pos="417.28,183.91 429.28,167.45 447.72,142.14 459.76,125.63"];
	1 -- 23	[pos="414.64,217.48 422.33,231.9 433.21,252.34 440.85,266.68"];
	25	[height=0.5,
		pos="159.41,355.54",
		width=0.75];
	3 -- 25	[pos="299.04,269.04 268.39,288.02 209.94,324.24 179.28,343.23"];
	3 -- 7	[pos="319.34,238.38 320.37,193.84 322.98,80.342 324,36.071"];
	4	[height=0.5,
		pos="233.61,438.45",
		width=0.75];
	3 -- 4	[pos="310.74,274.14 294.43,308.88 258.05,386.38 241.76,421.08"];
	19	[height=0.5,
		pos="376.43,404.34",
		width=0.75];
	3 -- 19	[pos="325.74,274.23 336.81,302.64 358.56,358.45 369.62,386.85"];
	6	[height=0.5,
		pos="124.93,210.15",
		width=0.75];
	3 -- 6	[pos="293.16,250.53 255.95,241.6 187.58,225.19 150.49,216.28"];
	5	[height=0.5,
		pos="123.7,300.09",
		width=0.75];
	3 -- 5	[pos="293,262.48 255.55,270.8 186.75,286.08 149.42,294.37"];
	3 -- 12	[pos="314.21,238.87 307.3,212.69 294.5,164.19 287.59,138.01"];
	8	[height=0.5,
		pos="207.87,150.63",
		width=0.75];
	3 -- 8	[pos="303.01,241.52 281.78,221.24 244.42,185.55 223.39,165.46"];
	3 -- 18	[pos="334.41,241.76 363.7,213.49 426.88,152.5 456.2,124.19"];
	3 -- 10	[pos="293.47,250.38 270.1,244.56 235.65,235.98 212.31,230.17"];
	3 -- 11	[pos="299.4,244.14 266.06,222.66 198.55,179.15 165.27,157.7"];
	14	[height=0.5,
		pos="448.74,366.19",
		width=0.75];
	3 -- 14	[pos="335.89,271.03 360.77,292.01 406.88,330.89 431.77,351.87"];
	3 -- 20	[pos="327.37,239.31 346.8,199.32 394.42,101.27 413.81,61.332"];
	22	[height=0.5,
		pos="533.91,334.7",
		width=0.75];
	3 -- 22	[pos="342.75,265.36 384.07,280.35 468.57,311 509.97,326.01"];
	29	[height=0.5,
		pos="404.89,471.47",
		width=0.75];
	3 -- 29	[pos="325.95,274.29 342.11,314.66 381.74,413.64 397.87,453.95"];
	2 -- 3	[pos="277.06,287.3 284.54,281.84 293.16,275.54 300.62,270.09"];
	2 -- 16	[pos="281.74,291.02 325.39,272.64 419.54,233 463.23,214.6"];
	2 -- 25	[pos="237.6,312.37 220.76,321.67 197.26,334.64 180.42,343.94"];
	2 -- 19	[pos="275.03,315.15 297.4,334.83 337.31,369.93 359.82,389.72"];
	2 -- 6	[pos="239.49,287.77 214.07,270.54 169.46,240.31 144.05,223.1"];
	2 -- 5	[pos="231.34,300.61 207.93,300.5 174.37,300.33 150.97,300.22"];
	2 -- 12	[pos="261.06,282.77 265.69,248.24 275.79,173.01 280.44,138.33"];
	2 -- 8	[pos="252.62,282.94 242.85,254.04 223.65,197.29 213.88,168.41"];
	13	[height=0.5,
		pos="158.05,60.313",
		width=0.75];
	2 -- 13	[pos="251.25,283.07 232.6,238.5 183.84,121.94 165.32,77.694"];
	9	[height=0.5,
		pos="116.81,439.66",
		width=0.75];
	2 -- 9	[pos="243.2,315.88 215.92,342.6 159.51,397.84 132.24,424.55"];
	24	[height=0.5,
		pos="253.94,503.54",
		width=0.75];
	2 -- 24	[pos="258.22,319.1 257.33,357.71 255.25,446.93 254.36,485.37"];
	2 -- 10	[pos="244.14,285.19 231.7,271.85 213.86,252.72 201.43,239.39"];
	15	[height=0.5,
		pos="27,238.55",
		width=0.75];
	2 -- 15	[pos="233.42,293.97 188.86,282.01 96.738,257.27 52.2,245.32"];
	2 -- 11	[pos="246.79,284.39 225.17,254.59 179.61,191.76 157.86,161.77"];
	2 -- 14	[pos="282.72,309.04 319.19,321.59 388.04,345.29 424.56,357.86"];
	28	[height=0.5,
		pos="315.99,501.51",
		width=0.75];
	2 -- 28	[pos="263.74,318.56 274.62,356.66 300.04,445.67 310.91,483.73"];
	17	[height=0.5,
		pos="144.55,487.38",
		width=0.75];
	2 -- 17	[pos="248.32,317.64 226.6,353.17 176.4,435.28 154.77,470.66"];
	2 -- 23	[pos="285.65,298.34 322.1,295.08 386.66,289.32 423.04,286.07"];
	16 -- 23	[pos="478.29,222.34 472.24,235.4 464.02,253.18 457.98,266.23"];
	7 -- 20	[pos="349.61,24.691 364.21,28.57 382.54,33.438 397.13,37.313"];
	4 -- 25	[pos="219.65,422.86 206.38,408.03 186.55,385.87 173.3,371.07"];
	4 -- 19	[pos="259.14,432.35 284.98,426.18 324.71,416.69 350.64,410.5"];
	4 -- 5	[pos="220.78,422.31 199.61,395.65 157.56,342.72 136.44,316.13"];
	4 -- 9	[pos="206.52,438.73 187.78,438.93 162.95,439.18 144.16,439.38"];
	21	[height=0.5,
		pos="165.32,622.54",
		width=0.75];
	4 -- 21	[pos="227.06,456.1 214.01,491.29 184.89,569.8 171.85,604.94"];
	4 -- 24	[pos="239.16,456.24 242.03,465.42 245.52,476.6 248.39,485.78"];
	4 -- 28	[pos="251.48,452.13 265.3,462.71 284.34,477.28 298.15,487.85"];
	4 -- 17	[pos="212.5,450.05 198.31,457.85 179.67,468.09 165.51,475.87"];
	27	[height=0.5,
		pos="56.258,573.43",
		width=0.75];
	4 -- 27	[pos="215.63,452.14 181.63,478.01 108.32,533.81 74.287,559.71"];
	4 -- 29	[pos="259.62,443.46 291.91,449.69 346.64,460.24 378.91,466.46"];
	19 -- 24	[pos="359.14,418.34 335.8,437.25 294.44,470.74 271.14,489.61"];
	19 -- 28	[pos="365.91,421.26 354.81,439.1 337.44,467.02 326.4,484.78"];
	26	[height=0.5,
		pos="564.52,496.63",
		width=0.75];
	19 -- 26	[pos="398.38,415.11 434.62,432.89 506.57,468.19 542.72,485.93"];
	19 -- 22	[pos="399,394.36 428.93,381.12 481.47,357.88 511.39,344.66"];
	19 -- 29	[pos="383.91,421.98 388.06,431.77 393.2,443.91 397.36,453.72"];
	6 -- 25	[pos="129.16,227.98 135.77,255.88 148.51,309.57 155.14,337.57"];
	6 -- 12	[pos="145.58,198.38 175.85,181.14 231.95,149.17 262.23,131.92"];
	6 -- 8	[pos="143.34,196.94 156.98,187.14 175.52,173.84 189.22,164"];
	5 -- 25	[pos="134.41,316.72 138.93,323.74 144.18,331.9 148.7,338.92"];
	5 -- 6	[pos="123.95,281.88 124.16,266.28 124.47,243.92 124.68,228.32"];
	5 -- 8	[pos="133.19,283.23 149.35,254.53 182.05,196.47 198.28,167.65"];
	12 -- 13	[pos="260.85,109.59 238.17,98.723 203.03,81.876 180.28,70.97"];
	12 -- 18	[pos="309.94,118.58 345.84,116.5 408.85,112.84 444.73,110.76"];
	8 -- 12	[pos="231.19,141.15 240.22,137.48 250.54,133.29 259.57,129.62"];
	8 -- 13	[pos="198.5,133.64 189.59,117.49 176.27,93.345 167.38,77.224"];
	9 -- 21	[pos="121.55,457.53 130.82,492.49 151.27,569.58 160.56,604.6"];
	9 -- 24	[pos="139.15,450.07 164.65,461.95 206.12,481.26 231.61,493.14"];
	9 -- 28	[pos="141.63,447.37 180.01,459.29 253.29,482.04 291.48,493.9"];
	9 -- 17	[pos="126.67,456.62 129.29,461.12 132.11,465.98 134.73,470.48"];
	21 -- 27	[pos="142.73,612.36 124.01,603.94 97.538,592.02 78.828,583.59"];
	18 -- 20	[pos="459.5,93.075 451.94,83.117 442.27,70.376 434.68,60.369"];
	24 -- 28	[pos="280.97,502.66 283.59,502.57 286.24,502.48 288.85,502.4"];
	10 -- 15	[pos="160.17,226.31 130.64,229.02 83.415,233.37 53.857,236.08"];
	10 -- 11	[pos="178.01,206.78 171.12,193.58 161.61,175.4 154.72,162.21"];
	11 -- 15	[pos="128.28,158.95 105.82,176.6 67.102,207.03 44.604,224.71"];
	14 -- 19	[pos="427.44,377.43 418.11,382.35 407.18,388.12 397.84,393.05"];
	14 -- 26	[pos="462.71,381.92 484.96,406.99 528.22,455.73 550.51,480.84"];
	14 -- 22	[pos="472.46,357.42 484.18,353.08 498.28,347.87 510.01,343.53"];
	28 -- 29	[pos="340.28,493.3 352.82,489.06 368.08,483.91 380.62,479.67"];
	17 -- 25	[pos="146.59,469.33 149.42,444.22 154.51,399.02 157.35,373.8"];
	17 -- 21	[pos="147.31,505.33 151.28,531.18 158.58,578.63 162.55,604.52"];
	17 -- 24	[pos="171.03,491.29 188.1,493.82 210.23,497.08 227.33,499.61"];
	17 -- 27	[pos="129.17,502.37 113.07,518.07 87.91,542.58 71.758,558.32"];
	22 -- 26	[pos="537.3,352.64 543.18,383.77 555.22,447.42 561.11,478.6"];
}
