graph {
	graph [bb="0,0,1034.3,760.12",
		outputorder=edgesfirst,
		overlap=prism,
		size="50,50!",
		start=1028
	];
	node [label="\N"];
	0	[height=0.5,
		pos="540.19,429.16",
		width=0.75];
	37	[height=0.5,
		pos="697.16,467.31",
		width=0.75];
	0 -- 37	[pos="565.76,435.37 594.95,442.47 642.41,454.01 671.6,461.1"];
	2	[height=0.5,
		pos="443.79,324.93",
		width=0.75];
	0 -- 2	[pos="525.97,413.78 507.74,394.07 476.33,360.11 458.07,340.37"];
	25	[height=0.5,
		pos="573.03,329.12",
		width=0.75];
	0 -- 25	[pos="546.06,411.27 552.04,393.07 561.25,365.01 567.21,346.85"];
	3	[height=0.5,
		pos="399.63,280.89",
		width=0.75];
	0 -- 3	[pos="525.68,413.85 498.74,385.44 441.31,324.86 414.28,296.34"];
	4	[height=0.5,
		pos="597.8,385.14",
		width=0.75];
	0 -- 4	[pos="558.1,415.47 564.97,410.22 572.81,404.23 579.7,398.97"];
	5	[height=0.5,
		pos="589.83,478.38",
		width=0.75];
	0 -- 5	[pos="555.35,444.2 561.51,450.3 568.61,457.34 574.76,463.44"];
	18	[height=0.5,
		pos="563.76,563.07",
		width=0.75];
	0 -- 18	[pos="543.37,447.22 547.87,472.78 556.05,519.23 560.56,544.87"];
	62	[height=0.5,
		pos="659.85,394.83",
		width=0.75];
	0 -- 62	[pos="565.28,421.96 585.7,416.1 614.38,407.88 634.8,402.02"];
	9	[height=0.5,
		pos="500.08,540.02",
		width=0.75];
	0 -- 9	[pos="533.75,446.97 526.26,467.66 513.99,501.59 506.51,522.26"];
	34	[height=0.5,
		pos="425.51,404.84",
		width=0.75];
	0 -- 34	[pos="514.45,423.7 495.7,419.72 470.38,414.35 451.55,410.36"];
	12	[height=0.5,
		pos="721.86,423.29",
		width=0.75];
	0 -- 12	[pos="567.39,428.28 601.74,427.17 660.48,425.27 694.77,424.17"];
	20	[height=0.5,
		pos="713.98,350.8",
		width=0.75];
	0 -- 20	[pos="562.91,418.91 596.31,403.86 658.29,375.91 691.53,360.92"];
	39	[height=0.5,
		pos="625.83,596.6",
		width=0.75];
	0 -- 39	[pos="549.03,446.45 565.45,478.53 600.44,546.95 616.91,579.15"];
	49	[height=0.5,
		pos="652.72,306.77",
		width=0.75];
	0 -- 49	[pos="554.44,413.66 576.09,390.12 617.01,345.61 638.59,322.14"];
	64	[height=0.5,
		pos="506.8,283.38",
		width=0.75];
	0 -- 64	[pos="536.1,411.28 529.69,383.3 517.36,329.47 510.93,301.4"];
	28	[height=0.5,
		pos="561.74,622.32",
		width=0.75];
	0 -- 28	[pos="542.22,447.33 546.34,484.24 555.63,567.59 559.73,604.34"];
	71	[height=0.5,
		pos="692.86,522.06",
		width=0.75];
	0 -- 71	[pos="560.15,441.3 589.41,459.11 643.64,492.1 672.9,509.91"];
	54	[height=0.5,
		pos="490.68,585.3",
		width=0.75];
	0 -- 54	[pos="534.51,447.07 524.96,477.19 505.8,537.62 496.3,567.6"];
	35	[height=0.5,
		pos="628.82,522.4",
		width=0.75];
	0 -- 35	[pos="554.83,444.55 571.25,461.83 597.73,489.69 614.16,506.98"];
	57	[height=0.5,
		pos="568.85,284.73",
		width=0.75];
	0 -- 57	[pos="543.76,411.16 549.25,383.48 559.71,330.77 565.23,302.96"];
	77	[height=0.5,
		pos="374.48,494.88",
		width=0.75];
	0 -- 77	[pos="516.8,438.44 485.22,450.96 429.27,473.15 397.75,485.65"];
	37 -- 62	[pos="688.31,450.14 682.37,438.58 674.56,423.41 668.63,411.89"];
	1	[height=0.5,
		pos="363.46,447.85",
		width=0.75];
	67	[height=0.5,
		pos="381.72,336.78",
		width=0.75];
	1 -- 67	[pos="366.48,429.51 369.88,408.81 375.38,375.34 378.76,354.78"];
	1 -- 2	[pos="374.3,431.27 389.63,407.81 417.49,365.17 432.87,341.64"];
	1 -- 3	[pos="367.33,429.98 374.28,397.93 388.77,331.02 395.73,298.88"];
	8	[height=0.5,
		pos="319.35,342",
		width=0.75];
	1 -- 8	[pos="356.18,430.37 348,410.76 334.82,379.13 326.64,359.51"];
	1 -- 4	[pos="388.54,441.14 433.52,429.1 527.43,403.97 572.54,391.9"];
	36	[height=0.5,
		pos="478.17,451.48",
		width=0.75];
	1 -- 36	[pos="390.65,448.71 408.93,449.29 432.93,450.05 451.18,450.63"];
	10	[height=0.5,
		pos="218.43,365.72",
		width=0.75];
	1 -- 10	[pos="342.68,436.08 315.11,420.47 266.72,393.07 239.17,377.47"];
	1 -- 9	[pos="382.46,460.67 408.41,478.18 454.7,509.41 480.8,527.02"];
	1 -- 34	[pos="382.41,434.71 390.11,429.37 398.98,423.22 406.67,417.89"];
	41	[height=0.5,
		pos="239.37,456.37",
		width=0.75];
	1 -- 41	[pos="336.54,449.7 315.72,451.13 287.04,453.1 266.24,454.52"];
	43	[height=0.5,
		pos="187.42,411.62",
		width=0.75];
	1 -- 43	[pos="337.49,442.5 304.2,435.65 246.84,423.85 213.5,416.98"];
	52	[height=0.5,
		pos="301.42,437.38",
		width=0.75];
	1 -- 52	[pos="337.15,443.41 334.11,442.9 331.01,442.38 327.97,441.86"];
	23	[height=0.5,
		pos="422.36,609.94",
		width=0.75];
	1 -- 23	[pos="369.88,465.51 381.21,496.69 404.63,561.14 415.95,592.31"];
	50	[height=0.5,
		pos="360.31,608.44",
		width=0.75];
	1 -- 50	[pos="363.11,465.96 362.5,496.8 361.27,559.18 360.67,590.15"];
	73	[height=0.5,
		pos="432.09,539.54",
		width=0.75];
	1 -- 73	[pos="375.73,464.24 388.22,480.93 407.47,506.65 419.92,523.29"];
	29	[height=0.5,
		pos="280.5,386.03",
		width=0.75];
	1 -- 29	[pos="345.05,434.13 331.21,423.81 312.34,409.75 298.57,399.5"];
	44	[height=0.5,
		pos="477.75,495.51",
		width=0.75];
	1 -- 44	[pos="386.59,457.5 406.42,465.76 434.84,477.61 454.66,485.88"];
	53	[height=0.5,
		pos="232.32,500.41",
		width=0.75];
	1 -- 53	[pos="340.32,457.13 316.49,466.67 279.57,481.47 255.67,491.05"];
	74	[height=0.5,
		pos="502.23,368.94",
		width=0.75];
	1 -- 74	[pos="384.24,436.04 410.4,421.16 455.08,395.75 481.31,380.84"];
	58	[height=0.5,
		pos="261.44,544.54",
		width=0.75];
	1 -- 58	[pos="347.52,462.96 328.35,481.12 296.38,511.42 277.27,529.54"];
	1 -- 77	[pos="367.69,465.9 368.54,469.53 369.43,473.34 370.28,476.96"];
	65	[height=0.5,
		pos="296.99,588.78",
		width=0.75];
	1 -- 65	[pos="355.31,465.13 342.55,492.18 318,544.22 305.2,571.36"];
	79	[height=0.5,
		pos="359.04,554.48",
		width=0.75];
	1 -- 79	[pos="362.71,465.94 361.9,485.55 360.61,516.66 359.79,536.31"];
	2 -- 25	[pos="470.88,325.81 492.94,326.53 523.93,327.53 545.97,328.25"];
	2 -- 3	[pos="428.35,309.53 423.97,305.16 419.21,300.42 414.84,296.06"];
	2 -- 4	[pos="467.18,334.08 496.21,345.43 545.42,364.66 574.44,376.01"];
	7	[height=0.5,
		pos="289.19,286.6",
		width=0.75];
	2 -- 7	[pos="418.26,318.6 389.53,311.48 343.14,299.98 314.5,292.88"];
	17	[height=0.5,
		pos="519.08,191.89",
		width=0.75];
	2 -- 17	[pos="453.33,308.08 467.73,282.63 494.89,234.64 509.38,209.02"];
	2 -- 52	[pos="426.33,338.72 399.01,360.3 346.43,401.83 319.02,423.48"];
	22	[height=0.5,
		pos="457.02,216.85",
		width=0.75];
	2 -- 22	[pos="446.03,306.6 448.48,286.6 452.38,254.8 454.81,234.92"];
	26	[height=0.5,
		pos="394.97,217.8",
		width=0.75];
	2 -- 26	[pos="435.73,307.24 426.63,287.27 411.92,254.99 402.88,235.16"];
	46	[height=0.5,
		pos="590.35,240.58",
		width=0.75];
	2 -- 46	[pos="464.48,313.03 492.41,296.95 541.89,268.47 569.77,252.43"];
	2 -- 64	[pos="463.04,312.24 470.71,307.18 479.53,301.36 487.23,296.28"];
	2 -- 29	[pos="420.05,333.82 389.09,345.4 335.24,365.54 304.27,377.13"];
	2 -- 74	[pos="461.96,338.62 469.06,343.97 477.19,350.08 484.27,355.42"];
	2 -- 57	[pos="468.2,317.09 490.23,310 522.48,299.63 544.5,292.56"];
	25 -- 49	[pos="598.25,322.05 607.64,319.42 618.29,316.43 627.67,313.8"];
	25 -- 46	[pos="576.54,311.21 579.54,295.85 583.85,273.83 586.85,258.47"];
	25 -- 57	[pos="571.33,311.07 571.08,308.38 570.82,305.61 570.56,302.91"];
	3 -- 67	[pos="393.96,298.58 391.87,305.1 389.5,312.49 387.41,319.02"];
	3 -- 8	[pos="381.81,294.45 368.6,304.51 350.66,318.17 337.39,328.27"];
	3 -- 7	[pos="372.61,282.29 355.5,283.17 333.44,284.31 316.31,285.2"];
	3 -- 10	[pos="377.41,291.29 342.54,307.62 275.36,339.07 240.55,355.37"];
	3 -- 17	[pos="417.77,267.37 440.22,250.65 478.24,222.32 500.77,205.54"];
	3 -- 34	[pos="403.39,298.91 408.3,322.41 416.83,363.28 421.74,386.79"];
	19	[height=0.5,
		pos="256.08,198.46",
		width=0.75];
	3 -- 19	[pos="379.06,269.08 351.77,253.41 303.88,225.91 276.61,210.25"];
	13	[height=0.5,
		pos="456.27,103.07",
		width=0.75];
	3 -- 13	[pos="405.27,263.19 416.13,229.11 439.82,154.73 450.65,120.7"];
	42	[height=0.5,
		pos="394.21,102.81",
		width=0.75];
	3 -- 42	[pos="399.08,262.84 398.04,228.7 395.8,155.08 394.76,120.91"];
	3 -- 22	[pos="413.52,265.39 422.41,255.47 433.92,242.64 442.86,232.66"];
	24	[height=0.5,
		pos="460.42,147.5",
		width=0.75];
	3 -- 24	[pos="407.58,263.45 419.23,237.89 440.82,190.51 452.47,164.94"];
	3 -- 26	[pos="398.28,262.64 397.66,254.2 396.92,244.2 396.3,235.79"];
	31	[height=0.5,
		pos="313.22,154.34",
		width=0.75];
	3 -- 31	[pos="388.33,264.35 371.77,240.09 341.08,195.14 324.52,170.89"];
	3 -- 64	[pos="426.67,281.52 442.92,281.9 463.52,282.38 479.76,282.75"];
	38	[height=0.5,
		pos="319.96,241.12",
		width=0.75];
	3 -- 38	[pos="377.86,270.02 366.62,264.41 352.94,257.58 341.71,251.97"];
	47	[height=0.5,
		pos="375.22,147.06",
		width=0.75];
	3 -- 47	[pos="396.34,262.84 391.68,237.3 383.21,190.87 378.54,165.25"];
	40	[height=0.5,
		pos="255.79,242.56",
		width=0.75];
	3 -- 40	[pos="374.25,274.13 347.95,267.12 307.12,256.24 280.92,249.26"];
	48	[height=0.5,
		pos="522.48,137.39",
		width=0.75];
	3 -- 48	[pos="413.25,264.99 436.86,237.4 485.15,181 508.8,153.37"];
	8 -- 67	[pos="346.16,339.76 349.07,339.52 352.02,339.27 354.93,339.02"];
	8 -- 10	[pos="293.88,347.99 278.7,351.56 259.48,356.08 244.24,359.66"];
	4 -- 25	[pos="590.1,367.72 587.14,361.04 583.77,353.42 580.81,346.72"];
	4 -- 5	[pos="596.26,403.12 594.86,419.52 592.79,443.66 591.39,460.14"];
	4 -- 36	[pos="576.96,396.7 555.13,408.8 521.05,427.7 499.17,439.84"];
	6	[height=0.5,
		pos="776.04,307.36",
		width=0.75];
	4 -- 6	[pos="620.73,375.13 654.96,360.19 719.01,332.24 753.19,317.33"];
	4 -- 62	[pos="624.11,389.25 627.15,389.73 630.25,390.21 633.29,390.69"];
	4 -- 9	[pos="587.15,402.01 568.36,431.8 529.5,493.4 510.71,523.17"];
	4 -- 12	[pos="622.6,392.77 644.24,399.42 675.47,409.03 697.09,415.68"];
	4 -- 20	[pos="622.72,377.77 642.32,371.98 669.5,363.95 689.1,358.16"];
	32	[height=0.5,
		pos="687.93,589.45",
		width=0.75];
	4 -- 32	[pos="605.48,402.56 622.51,441.16 663.25,533.52 680.26,572.07"];
	4 -- 49	[pos="609.44,368.52 618.83,355.13 631.95,336.41 641.28,323.1"];
	4 -- 46	[pos="596.87,367.12 595.44,339.42 592.73,286.66 591.29,258.83"];
	4 -- 73	[pos="581.91,399.94 550.31,429.38 479.92,494.97 448.17,524.56"];
	4 -- 44	[pos="581.61,400.02 558.57,421.21 516.58,459.81 493.69,480.86"];
	4 -- 74	[pos="571.43,380.67 558.06,378.4 541.87,375.66 528.51,373.4"];
	5 -- 18	[pos="584.3,496.34 579.85,510.81 573.62,531.04 569.19,545.42"];
	5 -- 62	[pos="603,462.67 615.44,447.83 634,425.68 646.5,410.76"];
	5 -- 9	[pos="570.79,491.46 555.56,501.92 534.31,516.51 519.08,526.97"];
	5 -- 32	[pos="603.88,494.3 622.64,515.53 655.64,552.89 674.22,573.92"];
	5 -- 71	[pos="612.69,488.08 629.77,495.31 653,505.16 670.06,512.39"];
	18 -- 32	[pos="589.49,568.53 610.66,573.03 640.53,579.38 661.81,583.9"];
	18 -- 28	[pos="563.15,581.17 562.9,588.38 562.61,596.68 562.37,603.92"];
	18 -- 71	[pos="588.35,555.26 611.32,547.96 645.42,537.13 668.37,529.84"];
	18 -- 35	[pos="583.64,550.64 591.71,545.6 601.01,539.78 609.07,534.74"];
	36 -- 73	[pos="469.06,468.88 460.93,484.42 449.09,507.05 441.02,522.48"];
	36 -- 44	[pos="478,469.64 477.97,472.2 477.95,474.83 477.92,477.39"];
	6 -- 12	[pos="767.93,324.71 757.71,346.57 740.26,383.91 730.02,405.82"];
	6 -- 20	[pos="757.08,320.63 749.38,326.02 740.51,332.23 732.82,337.61"];
	15	[height=0.5,
		pos="815.61,366.64",
		width=0.75];
	6 -- 15	[pos="787.06,323.87 792.46,331.96 798.94,341.68 804.37,349.81"];
	68	[height=0.5,
		pos="795.75,255.79",
		width=0.75];
	6 -- 68	[pos="782.71,289.9 784.72,284.64 786.93,278.86 788.95,273.58"];
	30	[height=0.5,
		pos="821.64,458.38",
		width=0.75];
	6 -- 30	[pos="781.45,325.27 790.22,354.34 807.47,411.43 816.24,440.48"];
	21	[height=0.5,
		pos="845.94,414.26",
		width=0.75];
	6 -- 21	[pos="786.96,324.06 800.09,344.14 821.99,377.64 835.09,397.67"];
	45	[height=0.5,
		pos="867.8,263.85",
		width=0.75];
	6 -- 45	[pos="798.25,296.83 812.68,289.99 831.4,281.11 845.79,274.29"];
	72	[height=0.5,
		pos="840.78,205.01",
		width=0.75];
	6 -- 72	[pos="786.73,290.46 798.79,271.38 818.3,240.54 830.29,221.59"];
	56	[height=0.5,
		pos="894.28,309.7",
		width=0.75];
	6 -- 56	[pos="803.16,307.89 822.39,308.27 848.08,308.78 867.28,309.16"];
	78	[height=0.5,
		pos="777.33,169.99",
		width=0.75];
	6 -- 78	[pos="776.21,289.12 776.46,262.84 776.91,214.62 777.16,188.3"];
	7 -- 10	[pos="275.21,302.23 262.81,316.1 244.78,336.26 232.38,350.12"];
	7 -- 19	[pos="282.49,268.76 276.71,253.37 268.4,231.26 262.66,215.97"];
	14	[height=0.5,
		pos="156.28,338.02",
		width=0.75];
	7 -- 14	[pos="265.73,295.68 241.59,305.02 204.17,319.49 179.95,328.87"];
	11	[height=0.5,
		pos="147.62,292.38",
		width=0.75];
	7 -- 11	[pos="262.23,287.7 237.2,288.72 200.11,290.24 174.96,291.27"];
	27	[height=0.5,
		pos="153.43,196.17",
		width=0.75];
	7 -- 27	[pos="270.03,273.83 244.3,256.7 198.84,226.41 172.94,209.16"];
	55	[height=0.5,
		pos="138.42,240.21",
		width=0.75];
	7 -- 55	[pos="264.63,279.04 236.6,270.42 191,256.39 162.97,247.76"];
	7 -- 26	[pos="308.59,273.98 327.56,261.64 356.28,242.96 375.33,230.57"];
	7 -- 31	[pos="292.48,268.49 297.08,243.16 305.39,197.44 309.97,172.23"];
	7 -- 29	[pos="287.6,304.84 286.03,322.78 283.65,350.01 282.08,367.91"];
	51	[height=0.5,
		pos="217.93,114.18",
		width=0.75];
	7 -- 51	[pos="281.96,269.12 268.31,236.07 238.85,164.79 225.17,131.71"];
	10 -- 14	[pos="195.64,355.57 190.24,353.16 184.47,350.59 179.07,348.18"];
	10 -- 11	[pos="203.76,350.53 191.61,337.94 174.42,320.14 162.27,307.56"];
	10 -- 43	[pos="207.24,382.29 204.46,386.4 201.49,390.8 198.7,394.92"];
	69	[height=0.5,
		pos="99.747,383",
		width=0.75];
	10 -- 69	[pos="191.8,369.6 172.25,372.45 145.82,376.29 126.29,379.14"];
	10 -- 53	[pos="220.31,383.89 222.96,409.59 227.77,456.32 230.43,482.1"];
	76	[height=0.5,
		pos="118.81,444.18",
		width=0.75];
	10 -- 76	[pos="200.62,379.75 182.49,394.03 154.54,416.04 136.46,430.28"];
	9 -- 18	[pos="524.16,548.74 529.23,550.57 534.58,552.51 539.65,554.34"];
	59	[height=0.5,
		pos="435.51,708.51",
		width=0.75];
	9 -- 59	[pos="493.29,557.74 480.86,590.18 454.57,658.77 442.21,691.04"];
	9 -- 32	[pos="525.41,546.69 561.37,556.15 626.8,573.37 662.7,582.81"];
	9 -- 23	[pos="483.97,554.51 470.64,566.51 451.77,583.48 438.44,595.47"];
	9 -- 50	[pos="478.24,550.71 452.13,563.49 408.69,584.75 382.45,597.6"];
	9 -- 73	[pos="472.82,539.83 468.38,539.8 463.79,539.77 459.36,539.74"];
	9 -- 54	[pos="496.36,557.92 495.73,560.98 495.07,564.17 494.43,567.24"];
	9 -- 77	[pos="476.16,531.43 453.81,523.39 420.63,511.47 398.31,503.45"];
	61	[height=0.5,
		pos="497.58,682.96",
		width=0.75];
	9 -- 61	[pos="499.76,558.13 499.28,585.47 498.38,637.03 497.9,664.55"];
	59 -- 61	[pos="458.62,699 463.72,696.89 469.13,694.67 474.24,692.56"];
	63	[height=0.5,
		pos="342.5,742.12",
		width=0.75];
	59 -- 63	[pos="411.56,717.17 397.67,722.18 380.24,728.48 366.37,733.5"];
	70	[height=0.5,
		pos="446.66,18",
		width=0.75];
	17 -- 70	[pos="511.74,174.26 497.82,140.85 467.76,68.669 453.91,35.419"];
	17 -- 22	[pos="495.62,201.33 490.68,203.32 485.46,205.41 480.52,207.4"];
	17 -- 26	[pos="493.06,197.32 471.88,201.74 442.12,207.95 420.95,212.37"];
	34 -- 54	[pos="431.87,422.47 444.33,456.97 471.81,533.04 484.29,567.6"];
	34 -- 77	[pos="415.91,421.77 406.78,437.87 393.14,461.95 384.03,478.02"];
	34 -- 79	[pos="417.75,422.29 404.94,451.13 379.52,508.37 366.74,537.14"];
	41 -- 43	[pos="222.65,441.96 216.71,436.85 210.04,431.1 204.11,425.99"];
	41 -- 52	[pos="264.25,448.75 268.29,447.52 272.48,446.23 276.53,445"];
	41 -- 58	[pos="243.83,474.21 247.66,489.51 253.15,511.43 256.98,526.72"];
	19 -- 31	[pos="273.85,184.74 280.66,179.48 288.44,173.48 295.27,168.2"];
	19 -- 38	[pos="275.25,211.26 283.33,216.66 292.73,222.93 300.81,228.33"];
	19 -- 40	[pos="255.96,216.65 255.94,219.21 255.93,221.85 255.91,224.41"];
	19 -- 51	[pos="248.18,181 241.63,166.53 232.37,146.08 225.83,131.62"];
	14 -- 41	[pos="167.83,354.48 183.71,377.09 212.09,417.52 227.91,440.05"];
	14 -- 27	[pos="155.91,319.77 155.37,292.53 154.34,241.55 153.8,214.35"];
	75	[height=0.5,
		pos="27,298.43",
		width=0.75];
	14 -- 75	[pos="131.66,330.48 108.8,323.48 74.937,313.11 51.969,306.08"];
	14 -- 43	[pos="163.66,355.46 168.59,367.11 175.05,382.37 179.99,394.05"];
	14 -- 69	[pos="138.7,352.01 131.83,357.48 123.97,363.73 117.12,369.18"];
	14 -- 55	[pos="153,320.08 149.8,302.55 144.95,275.98 141.74,258.37"];
	14 -- 29	[pos="179.64,347.05 201.71,355.58 234.64,368.31 256.82,376.88"];
	14 -- 76	[pos="150.09,355.55 143.15,375.22 131.95,406.95 125,426.63"];
	11 -- 14	[pos="151.04,310.42 151.65,313.61 152.28,316.93 152.88,320.12"];
	11 -- 27	[pos="148.71,274.29 149.75,257.08 151.31,231.36 152.34,214.18"];
	11 -- 75	[pos="120.55,293.74 100.68,294.74 73.822,296.08 53.978,297.08"];
	11 -- 69	[pos="138.61,309.43 130.11,325.53 117.42,349.55 108.87,365.72"];
	27 -- 75	[pos="136.12,210.17 112.04,229.65 68.693,264.71 44.512,284.27"];
	27 -- 55	[pos="147.42,213.83 146.44,216.7 145.42,219.67 144.44,222.55"];
	12 -- 37	[pos="712.38,440.19 710.53,443.48 708.59,446.94 706.73,450.25"];
	12 -- 62	[pos="699.47,413.02 693.92,410.47 687.97,407.74 682.41,405.19"];
	12 -- 20	[pos="719.87,405 718.67,393.93 717.14,379.86 715.94,368.84"];
	12 -- 15	[pos="742.2,411 757.93,401.5 779.59,388.41 795.3,378.91"];
	12 -- 30	[pos="745.76,431.7 761.44,437.21 781.88,444.4 797.59,449.92"];
	12 -- 21	[pos="748.78,421.33 769.59,419.82 798.27,417.73 819.07,416.22"];
	60	[height=0.5,
		pos="842.96,510.3",
		width=0.75];
	12 -- 60	[pos="740.25,436.51 763.01,452.86 801.55,480.55 824.39,496.96"];
	33	[height=0.5,
		pos="780.95,515.02",
		width=0.75];
	12 -- 33	[pos="732.7,440.12 743.36,456.67 759.54,481.79 770.18,498.3"];
	20 -- 68	[pos="727.48,335.11 742.63,317.51 767.07,289.12 782.23,271.5"];
	20 -- 33	[pos="721.15,368.37 734.04,399.98 760.98,466.05 773.83,497.57"];
	13 -- 42	[pos="429.23,102.95 426.62,102.94 423.97,102.93 421.35,102.92"];
	13 -- 70	[pos="454.23,85.027 452.6,70.591 450.32,50.444 448.69,36.015"];
	13 -- 22	[pos="456.39,121.1 456.53,142.28 456.76,177.22 456.9,198.53"];
	13 -- 26	[pos="446.96,120.49 435.37,142.18 415.7,178.99 404.16,200.58"];
	42 -- 48	[pos="419.25,109.56 441.7,115.61 474.5,124.46 497.07,130.54"];
	15 -- 20	[pos="789.17,362.52 774.12,360.18 755.32,357.25 740.28,354.9"];
	15 -- 68	[pos="812.33,348.34 808.63,327.68 802.64,294.28 798.97,273.75"];
	15 -- 30	[pos="816.8,384.77 817.86,400.85 819.4,424.22 820.45,440.29"];
	15 -- 21	[pos="826.22,383.3 829.15,387.91 832.34,392.92 835.28,397.54"];
	15 -- 60	[pos="819.02,384.55 824.26,412.08 834.24,464.51 839.51,492.17"];
	15 -- 33	[pos="811.43,384.54 804.76,413.06 791.81,468.5 785.14,497.06"];
	15 -- 45	[pos="824.46,349.21 834.12,330.19 849.47,299.95 859.08,281.03"];
	68 -- 72	[pos="809.5,240.28 814.99,234.09 821.29,226.98 826.8,220.77"];
	68 -- 78	[pos="791.84,237.59 788.7,222.93 784.3,202.44 781.17,187.86"];
	16	[height=0.5,
		pos="1007.3,286.45",
		width=0.75];
	66	[height=0.5,
		pos="966.72,192.97",
		width=0.75];
	16 -- 66	[pos="999.69,268.87 992.43,252.15 981.57,227.16 974.32,210.48"];
	16 -- 45	[pos="981.09,282.2 956.3,278.18 919.31,272.19 894.4,268.16"];
	16 -- 56	[pos="981.4,291.78 963.01,295.56 938.45,300.61 920.1,304.39"];
	66 -- 72	[pos="939.7,195.55 918.45,197.58 888.99,200.4 867.75,202.43"];
	43 -- 53	[pos="196.08,428.74 204.03,444.46 215.74,467.63 223.69,483.34"];
	43 -- 58	[pos="196.95,428.72 211.16,454.24 237.76,502.02 251.95,527.5"];
	43 -- 76	[pos="165.33,422.1 157.5,425.82 148.68,430 140.85,433.72"];
	69 -- 75	[pos="86.064,367.09 73.058,351.97 53.607,329.36 40.622,314.27"];
	22 -- 70	[pos="456.09,198.85 454.12,161.09 449.57,73.953 447.6,36.1"];
	22 -- 26	[pos="429.98,217.26 427.37,217.3 424.72,217.34 422.11,217.38"];
	22 -- 64	[pos="469.33,233.3 477.04,243.61 486.95,256.85 494.64,267.13"];
	21 -- 30	[pos="836.61,431.19 834.79,434.5 832.89,437.96 831.06,441.27"];
	39 -- 71	[pos="639.72,581.15 651.15,568.44 667.27,550.51 678.76,537.74"];
	23 -- 59	[pos="424.77,628.02 427.14,645.81 430.74,672.8 433.11,690.55"];
	23 -- 50	[pos="395.32,609.29 392.71,609.22 390.06,609.16 387.44,609.09"];
	23 -- 73	[pos="424.86,591.81 426.3,581.38 428.11,568.32 429.56,557.86"];
	23 -- 61	[pos="437.94,625.07 450.94,637.69 469.35,655.56 482.27,668.1"];
	23 -- 63	[pos="412.24,626.68 396.97,651.97 368.16,699.65 352.78,725.1"];
	50 -- 59	[pos="372.72,624.96 386.74,643.61 409.4,673.77 423.32,692.29"];
	50 -- 61	[pos="381.45,619.92 407.32,633.96 450.85,657.59 476.63,671.58"];
	50 -- 63	[pos="357.9,626.47 354.5,651.98 348.33,698.36 344.92,723.95"];
	24 -- 42	[pos="441.27,134.57 432.56,128.69 422.28,121.75 413.55,115.86"];
	24 -- 26	[pos="445.89,163.1 435.05,174.75 420.29,190.6 409.45,202.24"];
	24 -- 48	[pos="486.74,143.21 489.78,142.72 492.88,142.21 495.92,141.72"];
	26 -- 42	[pos="394.85,199.57 394.7,178.04 394.47,142.44 394.33,120.94"];
	26 -- 70	[pos="399.65,199.71 409.49,161.67 432.23,73.775 442.03,35.898"];
	26 -- 31	[pos="377.23,204.03 363.52,193.38 344.63,178.72 330.92,168.08"];
	31 -- 38	[pos="314.62,172.32 315.77,187.11 317.39,207.99 318.55,222.86"];
	31 -- 47	[pos="339.88,151.21 342.76,150.87 345.7,150.53 348.59,150.19"];
	31 -- 51	[pos="290.15,144.62 275.17,138.31 255.72,130.11 240.79,123.81"];
	49 -- 57	[pos="627.56,300.16 616.94,297.37 604.61,294.13 594,291.34"];
	46 -- 57	[pos="581.98,257.78 580.42,260.97 578.79,264.31 577.24,267.51"];
	28 -- 35	[pos="572.81,605.82 585.24,587.3 605.29,557.44 617.72,538.92"];
	29 -- 41	[pos="270.54,403.05 264.08,414.11 255.68,428.47 249.23,439.5"];
	29 -- 43	[pos="255.06,393.02 241.82,396.66 225.69,401.09 212.5,404.72"];
	29 -- 52	[pos="287.58,403.41 289.71,408.65 292.06,414.4 294.2,419.66"];
	38 -- 47	[pos="329.84,224.3 339.84,207.29 355.21,181.12 365.24,164.05"];
	38 -- 40	[pos="292.75,241.73 289.47,241.8 286.12,241.88 282.84,241.95"];
	38 -- 51	[pos="307.04,225.04 287.41,200.62 250.31,154.47 230.75,130.13"];
	33 -- 60	[pos="807.97,512.96 810.58,512.76 813.23,512.56 815.84,512.36"];
	54 -- 77	[pos="473.03,571.57 451.19,554.58 414.21,525.8 392.29,508.75"];
	54 -- 79	[pos="464.99,579.29 441.79,573.86 407.84,565.91 384.67,560.49"];
	35 -- 39	[pos="628.08,540.74 627.62,552.24 627.02,567 626.56,578.46"];
	35 -- 71	[pos="655.98,522.25 659.11,522.24 662.31,522.22 665.45,522.2"];
	40 -- 51	[pos="250.53,224.71 243.29,200.18 230.36,156.33 223.15,131.88"];
	53 -- 58	[pos="243.32,517.09 245.64,520.61 248.09,524.32 250.41,527.83"];
	53 -- 76	[pos="210.43,489.57 190.33,479.61 160.7,464.94 140.62,454.99"];
	53 -- 65	[pos="244.18,516.62 255.77,532.46 273.34,556.46 284.98,572.37"];
	45 -- 68	[pos="840.97,260.85 835.05,260.19 828.77,259.48 822.84,258.82"];
	45 -- 66	[pos="886.41,250.52 904.09,237.85 930.54,218.9 948.2,206.24"];
	45 -- 72	[pos="859.84,246.51 856.35,238.92 852.27,230.03 848.78,222.42"];
	45 -- 56	[pos="877.51,280.66 879.81,284.65 882.27,288.9 884.57,292.89"];
	45 -- 78	[pos="852.86,248.35 836,230.86 808.74,202.57 791.99,185.2"];
	72 -- 78	[pos="819.65,193.35 812.73,189.53 805.05,185.29 798.15,181.48"];
	58 -- 65	[pos="274.27,560.51 277.45,564.47 280.87,568.72 284.05,572.68"];
	77 -- 79	[pos="369.84,512.77 367.89,520.31 365.62,529.07 363.67,536.62"];
	56 -- 66	[pos="904.66,292.97 918.43,270.78 942.6,231.84 956.36,209.66"];
	56 -- 72	[pos="885.45,292.41 875.53,273.01 859.54,241.73 849.63,222.32"];
	61 -- 73	[pos="489.68,665.66 477.09,638.09 452.62,584.51 440.01,556.9"];
	61 -- 63	[pos="474.02,691.94 444.79,703.09 395.23,722 366.02,733.15"];
}
