graph {
	graph [bb="0,0,1087.4,950.32",
		outputorder=edgesfirst,
		overlap=prism,
		size="50,50!",
		start=7971
	];
	node [label="\N"];
	0	[height=0.5,
		pos="539.94,597.32",
		width=0.75];
	20	[height=0.5,
		pos="589.04,842.47",
		width=0.75];
	0 -- 20	[pos="543.55,615.34 552.63,660.68 576.33,779.05 585.42,824.41"];
	2	[height=0.5,
		pos="477.88,582.69",
		width=0.75];
	0 -- 2	[pos="514.34,591.28 510.73,590.43 507.03,589.56 503.42,588.71"];
	22	[height=0.5,
		pos="651.11,817.38",
		width=0.75];
	0 -- 22	[pos="548.66,614.59 569.44,655.72 621.68,759.14 642.42,800.2"];
	24	[height=0.5,
		pos="229.1,574.73",
		width=0.75];
	0 -- 24	[pos="512.9,595.35 454.11,591.08 315.23,580.99 256.3,576.71"];
	25	[height=0.5,
		pos="656.56,297.14",
		width=0.75];
	0 -- 25	[pos="546.71,579.88 567.32,526.83 629.13,367.74 649.76,314.62"];
	6	[height=0.5,
		pos="499.28,384.78",
		width=0.75];
	0 -- 6	[pos="536.47,579.2 528.79,539.04 510.41,442.97 502.73,402.85"];
	7	[height=0.5,
		pos="437.24,417.17",
		width=0.75];
	0 -- 7	[pos="530.28,580.37 510.7,546.04 466.57,468.61 446.95,434.21"];
	26	[height=0.5,
		pos="743.27,764.21",
		width=0.75];
	0 -- 26	[pos="557.27,611.55 595.69,643.08 687.6,718.52 725.98,750.02"];
	9	[height=0.5,
		pos="556.18,485.13",
		width=0.75];
	0 -- 9	[pos="542.55,579.29 545.58,558.36 550.55,524.03 553.57,503.11"];
	27	[height=0.5,
		pos="473.1,736.43",
		width=0.75];
	0 -- 27	[pos="531.61,614.66 518.8,641.31 494.41,692.09 481.54,718.88"];
	28	[height=0.5,
		pos="362.67,888.81",
		width=0.75];
	0 -- 28	[pos="529.64,614.25 498.31,665.77 404.36,820.25 373,871.83"];
	12	[height=0.5,
		pos="634.69,486.97",
		width=0.75];
	0 -- 12	[pos="553.51,581.51 571.53,560.53 603.14,523.71 621.14,502.75"];
	13	[height=0.5,
		pos="668.07,586.48",
		width=0.75];
	0 -- 13	[pos="566.8,595.05 588.67,593.2 619.39,590.6 641.25,588.75"];
	30	[height=0.5,
		pos="493.11,692.22",
		width=0.75];
	0 -- 30	[pos="531.35,614.72 522.9,631.85 510.07,657.84 501.64,674.92"];
	31	[height=0.5,
		pos="415.4,605.62",
		width=0.75];
	0 -- 31	[pos="512.91,599.12 492.03,600.51 463.25,602.43 442.37,603.82"];
	16	[height=0.5,
		pos="583.86,531.2",
		width=0.75];
	0 -- 16	[pos="551.02,580.64 557.63,570.69 565.99,558.1 572.63,548.11"];
	32	[height=0.5,
		pos="199.37,655.48",
		width=0.75];
	0 -- 32	[pos="513.78,601.79 450.39,612.61 289.1,640.15 225.62,650.99"];
	34	[height=0.5,
		pos="833.04,465.69",
		width=0.75];
	0 -- 34	[pos="562.45,587.21 617.01,562.71 755.81,500.37 810.45,475.83"];
	19	[height=0.5,
		pos="596.56,438.94",
		width=0.75];
	0 -- 19	[pos="546.21,579.76 557.1,549.32 579.35,487.07 590.25,456.57"];
	21	[height=0.5,
		pos="805.3,799.63",
		width=0.75];
	20 -- 21	[pos="615.12,837.3 656.69,829.07 737.5,813.06 779.12,804.82"];
	2 -- 6	[pos="479.86,564.42 483.93,526.72 493.24,440.66 497.31,403"];
	2 -- 9	[pos="490.81,566.58 505.32,548.5 528.71,519.35 543.23,501.27"];
	2 -- 12	[pos="498.06,570.37 528.17,551.99 584.53,517.59 614.59,499.24"];
	2 -- 19	[pos="491.04,566.76 513.85,539.12 560.49,482.62 583.35,454.94"];
	3	[height=0.5,
		pos="601.48,661.02",
		width=0.75];
	2 -- 3	[pos="497.47,595.1 520.48,609.68 558.44,633.74 581.58,648.41"];
	8	[height=0.5,
		pos="663.54,631.68",
		width=0.75];
	2 -- 8	[pos="503.31,589.4 538.86,598.78 603.04,615.72 638.42,625.05"];
	15	[height=0.5,
		pos="534.45,437.21",
		width=0.75];
	2 -- 15	[pos="484.71,565.14 495.58,537.18 516.72,482.82 527.6,454.82"];
	46	[height=0.5,
		pos="188.64,699.5",
		width=0.75];
	2 -- 46	[pos="454.7,592.05 400.55,613.92 266.2,668.18 211.94,690.09"];
	48	[height=0.5,
		pos="436.51,291.28",
		width=0.75];
	2 -- 48	[pos="475.3,564.46 467.87,512.13 446.53,361.82 439.1,309.5"];
	49	[height=0.5,
		pos="226.33,441.03",
		width=0.75];
	2 -- 49	[pos="456.87,570.86 409.4,544.12 294.35,479.34 247.11,452.73"];
	50	[height=0.5,
		pos="486.7,848.85",
		width=0.75];
	2 -- 50	[pos="478.49,600.98 480.1,649.72 484.5,782.29 486.1,830.78"];
	52	[height=0.5,
		pos="262.19,699.35",
		width=0.75];
	2 -- 52	[pos="456.81,594.09 415.57,616.39 324.65,665.57 283.35,687.91"];
	53	[height=0.5,
		pos="681.22,773.37",
		width=0.75];
	2 -- 53	[pos="493.84,597.65 531.85,633.3 627.41,722.9 665.34,758.48"];
	14	[height=0.5,
		pos="472.22,479.95",
		width=0.75];
	2 -- 14	[pos="476.87,564.32 475.84,545.62 474.25,516.8 473.22,498.16"];
	55	[height=0.5,
		pos="305.76,785.74",
		width=0.75];
	2 -- 55	[pos="464.38,598.62 432.2,636.58 351.32,732 319.21,769.88"];
	17	[height=0.5,
		pos="337.32,462.87",
		width=0.75];
	2 -- 17	[pos="461.21,568.47 434.16,545.41 381.02,500.11 353.98,477.06"];
	57	[height=0.5,
		pos="857.41,554.49",
		width=0.75];
	2 -- 57	[pos="504.87,580.68 574.73,575.49 760.86,561.66 830.56,556.48"];
	23	[height=0.5,
		pos="769.01,905.45",
		width=0.75];
	22 -- 23	[pos="669.27,830.95 691.49,847.55 728.88,875.47 751.02,892.01"];
	6 -- 7	[pos="477.93,395.93 471.76,399.15 465.02,402.66 458.84,405.89"];
	6 -- 9	[pos="508.93,401.8 519.39,420.26 536,449.54 546.48,468.03"];
	36	[height=0.5,
		pos="696.88,433.6",
		width=0.75];
	6 -- 36	[pos="524.71,391.06 562.65,400.43 633.66,417.98 671.55,427.34"];
	6 -- 17	[pos="477.1,395.47 446.08,410.43 390.1,437.42 359.24,452.3"];
	10	[height=0.5,
		pos="498.66,538.41",
		width=0.75];
	6 -- 10	[pos="499.2,403 499.08,432.57 498.85,490.66 498.73,520.21"];
	75	[height=0.5,
		pos="174.76,331.6",
		width=0.75];
	6 -- 75	[pos="472.99,380.47 412.18,370.51 262.33,345.95 201.28,335.95"];
	103	[height=0.5,
		pos="760.05,448.94",
		width=0.75];
	6 -- 103	[pos="524.76,391.05 574.61,403.31 684.53,430.36 734.47,442.64"];
	104	[height=0.5,
		pos="163.73,436.62",
		width=0.75];
	6 -- 104	[pos="472.95,388.85 410.38,398.51 253.31,422.78 190.4,432.49"];
	105	[height=0.5,
		pos="594.62,200.86",
		width=0.75];
	6 -- 105	[pos="508.25,367.47 526.46,332.33 567.6,252.97 585.74,217.98"];
	106	[height=0.5,
		pos="742.68,362.31",
		width=0.75];
	6 -- 106	[pos="526.25,382.29 573.04,377.97 668.71,369.14 715.58,364.81"];
	107	[height=0.5,
		pos="419.56,191.26",
		width=0.75];
	6 -- 107	[pos="492.06,367.26 476.92,330.51 441.99,245.71 426.81,208.88"];
	108	[height=0.5,
		pos="501.14,198.39",
		width=0.75];
	6 -- 108	[pos="499.46,366.57 499.82,330.84 500.61,251.97 500.96,216.4"];
	109	[height=0.5,
		pos="532.48,242.41",
		width=0.75];
	6 -- 109	[pos="503.48,366.75 509.87,339.36 521.94,287.6 528.31,260.3"];
	110	[height=0.5,
		pos="525,26.586",
		width=0.75];
	6 -- 110	[pos="500.59,366.52 505,305.08 519.29,106.19 523.7,44.804"];
	112	[height=0.5,
		pos="371.14,67.233",
		width=0.75];
	6 -- 112	[pos="492.2,367.25 469.8,311.73 400.56,140.15 378.19,84.704"];
	63	[height=0.5,
		pos="792.2,255.75",
		width=0.75];
	6 -- 63	[pos="522.26,374.65 577.02,350.53 714.67,289.9 769.32,265.83"];
	7 -- 12	[pos="461.45,425.73 499.45,439.16 572.66,465.04 610.59,478.45"];
	7 -- 19	[pos="463.91,420.81 493.41,424.84 540.65,431.3 570.07,435.32"];
	37	[height=0.5,
		pos="529.05,340.73",
		width=0.75];
	7 -- 37	[pos="454.51,402.79 471.03,389.04 495.78,368.43 512.17,354.79"];
	7 -- 49	[pos="410.53,420.19 370.07,424.77 293.69,433.41 253.16,438"];
	64	[height=0.5,
		pos="415.25,654.48",
		width=0.75];
	7 -- 64	[pos="435.55,435.4 431.46,479.57 421.04,591.95 416.94,636.19"];
	7 -- 10	[pos="445.91,434.29 457.55,457.26 478.12,497.86 489.83,520.99"];
	11	[height=0.5,
		pos="288.21,638.26",
		width=0.75];
	7 -- 11	[pos="426.04,433.79 398.35,474.86 326.95,580.79 299.34,621.75"];
	89	[height=0.5,
		pos="380.83,122.63",
		width=0.75];
	7 -- 89	[pos="433.8,399.19 423.73,346.61 394.4,193.51 384.3,140.75"];
	114	[height=0.5,
		pos="696.79,494.58",
		width=0.75];
	7 -- 114	[pos="462.13,424.59 511.74,439.39 622.43,472.4 671.98,487.18"];
	115	[height=0.5,
		pos="292.2,332.27",
		width=0.75];
	7 -- 115	[pos="416.77,405.19 389.12,389.01 340.16,360.34 312.57,344.19"];
	116	[height=0.5,
		pos="592.5,344.17",
		width=0.75];
	7 -- 116	[pos="459.49,406.71 489,392.83 540.8,368.48 570.29,354.61"];
	117	[height=0.5,
		pos="208.64,220.87",
		width=0.75];
	7 -- 117	[pos="420.43,402.74 378.16,366.43 267.77,271.65 225.47,235.32"];
	119	[height=0.5,
		pos="343.89,288.24",
		width=0.75];
	7 -- 119	[pos="425.42,400.84 407.56,376.18 373.89,329.67 355.91,304.84"];
	120	[height=0.5,
		pos="213.46,161.84",
		width=0.75];
	7 -- 120	[pos="423.58,401.58 383.63,356 267.31,223.29 227.23,177.55"];
	122	[height=0.5,
		pos="114.8,375.67",
		width=0.75];
	7 -- 122	[pos="410.58,413.74 349.93,405.93 202.18,386.92 141.49,379.11"];
	123	[height=0.5,
		pos="436.29,71.686",
		width=0.75];
	7 -- 123	[pos="437.19,399.08 437.03,339.52 436.51,149.92 436.34,90.012"];
	77	[height=0.5,
		pos="146.58,241.57",
		width=0.75];
	7 -- 77	[pos="416.8,404.82 363.31,372.5 219.65,285.71 166.61,253.67"];
	9 -- 12	[pos="583.2,485.77 591.09,485.95 599.72,486.15 607.62,486.34"];
	9 -- 16	[pos="566.33,502.03 568.74,506.03 571.3,510.31 573.71,514.31"];
	9 -- 15	[pos="548.33,467.83 546.39,463.54 544.3,458.94 542.36,454.64"];
	9 -- 14	[pos="529.15,483.47 519.56,482.87 508.78,482.21 499.19,481.62"];
	9 -- 10	[pos="540.15,499.98 532.18,507.36 522.56,516.27 514.59,523.65"];
	9 -- 115	[pos="535.46,473.14 486.12,444.56 362.06,372.73 312.81,344.21"];
	135	[height=0.5,
		pos="250.25,530.69",
		width=0.75];
	9 -- 135	[pos="529.56,489.1 471.71,497.71 335.02,518.07 277.02,526.71"];
	136	[height=0.5,
		pos="808.07,510.35",
		width=0.75];
	9 -- 136	[pos="583.13,487.83 631.62,492.69 732.97,502.83 781.31,507.67"];
	137	[height=0.5,
		pos="230.43,287.49",
		width=0.75];
	9 -- 137	[pos="535.8,472.77 477.3,437.28 309.29,335.33 250.8,299.84"];
	139	[height=0.5,
		pos="657.8,239.06",
		width=0.75];
	9 -- 139	[pos="563.49,467.44 582.24,422.03 631.88,301.82 650.55,256.6"];
	140	[height=0.5,
		pos="630.53,151.01",
		width=0.75];
	9 -- 140	[pos="560.17,467.17 573.08,409.15 613.57,227.2 626.51,169.06"];
	66	[height=0.5,
		pos="746.86,720.21",
		width=0.75];
	9 -- 66	[pos="569.28,501.29 604.2,544.34 699.18,661.43 733.91,704.25"];
	29	[height=0.5,
		pos="114.36,784.27",
		width=0.75];
	28 -- 29	[pos="339.76,879.16 292.45,859.24 184.48,813.79 137.22,793.89"];
	12 -- 13	[pos="640.66,504.76 646.73,522.87 656.1,550.78 662.16,568.84"];
	12 -- 16	[pos="618.05,501.45 612.37,506.39 606.03,511.91 600.37,516.84"];
	12 -- 19	[pos="621.99,470.97 617.92,465.84 613.41,460.16 609.33,455.02"];
	40	[height=0.5,
		pos="794.44,554.75",
		width=0.75];
	12 -- 40	[pos="657.58,496.68 687.95,509.56 741.25,532.18 771.59,545.06"];
	12 -- 15	[pos="612.94,476.17 596.13,467.82 572.96,456.32 556.16,447.98"];
	18	[height=0.5,
		pos="649.5,389.24",
		width=0.75];
	12 -- 18	[pos="637.41,469.04 640.06,451.52 644.08,424.98 646.75,407.39"];
	12 -- 14	[pos="607.5,485.79 577.41,484.49 529.24,482.41 499.23,481.12"];
	80	[height=0.5,
		pos="357.12,374.74",
		width=0.75];
	12 -- 80	[pos="611.5,477.59 559.25,456.47 432.81,405.34 380.44,384.17"];
	12 -- 105	[pos="632.12,468.63 624.88,416.96 604.38,270.53 597.16,219.04"];
	161	[height=0.5,
		pos="353.18,636.51",
		width=0.75];
	12 -- 161	[pos="613.53,498.21 561.36,525.92 427.01,597.29 374.58,625.14"];
	68	[height=0.5,
		pos="921.37,553.75",
		width=0.75];
	12 -- 68	[pos="660.38,492.95 714.81,505.63 841.17,535.06 895.63,547.75"];
	127	[height=0.5,
		pos="928.27,597.78",
		width=0.75];
	12 -- 127	[pos="658.22,495.85 713.19,516.6 849.55,568.06 904.63,588.85"];
	145	[height=0.5,
		pos="936.19,455.73",
		width=0.75];
	12 -- 145	[pos="661.45,484.19 718.66,478.27 852.34,464.42 909.5,458.49"];
	150	[height=0.5,
		pos="525.84,780.83",
		width=0.75];
	12 -- 150	[pos="628.21,504.47 608.89,556.61 551.87,710.55 532.42,763.05"];
	13 -- 16	[pos="648.54,573.66 634.94,564.73 616.87,552.87 603.29,543.95"];
	13 -- 19	[pos="659.73,569.27 646.02,540.99 618.89,485 605.07,456.5"];
	13 -- 15	[pos="654.03,570.79 628.3,542.04 573.9,481.28 548.31,452.69"];
	81	[height=0.5,
		pos="477.44,648.19",
		width=0.75];
	13 -- 81	[pos="643.54,594.42 606.94,606.27 538.42,628.45 501.87,640.28"];
	94	[height=0.5,
		pos="805.88,333.85",
		width=0.75];
	13 -- 94	[pos="677.33,569.51 702.37,523.6 771.27,397.29 796.48,351.08"];
	13 -- 106	[pos="673.93,568.89 687.84,527.09 722.76,422.16 736.75,380.13"];
	13 -- 116	[pos="662.52,568.66 648.54,523.85 612.05,406.85 598.06,362.01"];
	128	[height=0.5,
		pos="809.13,728.77",
		width=0.75];
	13 -- 128	[pos="683.17,601.71 710.32,629.09 767.07,686.34 794.14,713.65"];
	13 -- 136	[pos="689.03,575.08 715.42,560.73 760.51,536.21 786.97,521.83"];
	146	[height=0.5,
		pos="725.58,630.68",
		width=0.75];
	13 -- 146	[pos="685.95,600.22 692.81,605.49 700.64,611.51 707.51,616.79"];
	163	[height=0.5,
		pos="996.57,586.79",
		width=0.75];
	13 -- 163	[pos="695.24,586.5 757.03,586.56 907.55,586.71 969.38,586.77"];
	165	[height=0.5,
		pos="548.74,886.5",
		width=0.75];
	13 -- 165	[pos="661.14,603.91 640.05,656.93 576.81,815.93 555.69,869.02"];
	167	[height=0.5,
		pos="998.35,425.6",
		width=0.75];
	13 -- 167	[pos="690,575.8 749.93,546.61 916.03,465.7 976.21,436.39"];
	54	[height=0.5,
		pos="929.39,730.88",
		width=0.75];
	13 -- 54	[pos="689.02,598.05 737.94,625.09 859.32,692.16 908.34,719.25"];
	152	[height=0.5,
		pos="710.83,861.41",
		width=0.75];
	13 -- 152	[pos="670.88,604.52 678.63,654.33 700.25,793.41 708.01,843.3"];
	16 -- 19	[pos="586.37,512.98 588.6,496.8 591.83,473.29 594.05,457.13"];
	42	[height=0.5,
		pos="803.19,618.82",
		width=0.75];
	16 -- 42	[pos="607.33,540.58 649.55,557.44 737.8,592.7 779.89,609.51"];
	16 -- 18	[pos="591.91,513.8 604.51,486.55 628.75,434.13 641.39,406.79"];
	16 -- 109	[pos="580.65,513.14 571.42,461.28 544.92,312.33 535.69,260.47"];
	131	[height=0.5,
		pos="866.22,639.27",
		width=0.75];
	16 -- 131	[pos="607.45,540.23 660.6,560.57 789.22,609.8 842.5,630.19"];
	169	[height=0.5,
		pos="275.27,486.66",
		width=0.75];
	16 -- 169	[pos="557.28,527.37 498.95,518.95 360.27,498.93 301.89,490.5"];
	56	[height=0.5,
		pos="291.25,586.12",
		width=0.75];
	16 -- 56	[pos="557.64,536.13 502.09,546.55 373.11,570.76 317.52,581.19"];
	98	[height=0.5,
		pos="854.23,288.94",
		width=0.75];
	16 -- 98	[pos="600.37,516.41 648.75,473.06 789.83,346.64 837.94,303.54"];
	121	[height=0.5,
		pos="558.17,154.21",
		width=0.75];
	16 -- 121	[pos="582.62,513.02 578.27,449.19 563.73,235.76 559.4,172.21"];
	157	[height=0.5,
		pos="462.75,804.08",
		width=0.75];
	16 -- 157	[pos="576.1,548.69 554.23,597.97 492.24,737.63 470.45,786.74"];
	33	[height=0.5,
		pos="92.837,425.64",
		width=0.75];
	32 -- 33	[pos="191.37,638.2 171.62,595.61 120.78,485.92 100.94,443.12"];
	102	[height=0.5,
		pos="590.25,106.99",
		width=0.75];
	19 -- 102	[pos="596.21,420.62 595.11,362.58 591.7,183.21 590.59,125.25"];
	134	[height=0.5,
		pos="873.14,509.71",
		width=0.75];
	19 -- 134	[pos="622.08,445.47 674.77,458.95 795.04,489.73 847.67,503.2"];
	148	[height=0.5,
		pos="409.94,523.93",
		width=0.75];
	19 -- 148	[pos="574.05,449.19 538.08,465.57 468.07,497.46 432.24,513.77"];
	160	[height=0.5,
		pos="188.2,513.83",
		width=0.75];
	19 -- 160	[pos="570.39,443.74 496.72,457.25 288.14,495.5 214.41,509.02"];
	173	[height=0.5,
		pos="730.19,216.1",
		width=0.75];
	19 -- 173	[pos="606.6,422.19 631.37,380.89 695.15,274.54 720.03,233.04"];
	45	[height=0.5,
		pos="888.83,345.11",
		width=0.75];
	19 -- 45	[pos="620.97,431.1 675.99,413.44 809.13,370.7 864.28,352.99"];
	88	[height=0.5,
		pos="301.98,244.21",
		width=0.75];
	19 -- 88	[pos="577.23,426.16 523.85,390.88 374.84,292.37 321.38,257.03"];
	113	[height=0.5,
		pos="592.28,62.975",
		width=0.75];
	19 -- 113	[pos="596.35,420.8 595.63,357.29 593.22,145.28 592.49,81.367"];
	141	[height=0.5,
		pos="768.18,157.01",
		width=0.75];
	19 -- 141	[pos="606.78,422.15 637.3,372 727.56,223.74 758.01,173.71"];
	172	[height=0.5,
		pos="353.93,187.52",
		width=0.75];
	19 -- 172	[pos="581.75,423.59 538.33,378.6 411.72,247.4 368.55,202.67"];
	1	[height=0.5,
		pos="605.58,576.76",
		width=0.75];
	1 -- 2	[pos="578.5,578.01 556.83,579.02 526.58,580.43 504.92,581.43"];
	1 -- 9	[pos="596.28,559.52 587.45,543.14 574.24,518.65 565.43,502.29"];
	1 -- 13	[pos="632.08,580.88 635.27,581.38 638.54,581.88 641.73,582.38"];
	1 -- 3	[pos="604.69,595.04 604,609.17 603.05,628.65 602.37,642.77"];
	4	[height=0.5,
		pos="399.47,478.93",
		width=0.75];
	1 -- 4	[pos="583.52,566.29 543.95,547.51 461.36,508.3 421.68,489.47"];
	35	[height=0.5,
		pos="743.81,299.78",
		width=0.75];
	1 -- 35	[pos="614.22,559.43 639.05,509.69 710.34,366.83 735.16,317.1"];
	1 -- 36	[pos="616.23,560.05 633.82,532.47 668.75,477.71 686.3,450.19"];
	1 -- 37	[pos="599.82,559.02 585.61,515.17 548.94,402.08 534.77,358.36"];
	1 -- 8	[pos="621.42,591.76 629.59,599.52 639.55,608.94 647.72,616.69"];
	38	[height=0.5,
		pos="611,744.63",
		width=0.75];
	1 -- 38	[pos="606.17,595.04 607.21,627.42 609.38,694.44 610.42,726.62"];
	39	[height=0.5,
		pos="400.64,773.73",
		width=0.75];
	1 -- 39	[pos="590.17,591.56 552.19,628.07 454.39,722.07 416.23,758.76"];
	1 -- 40	[pos="632.23,573.65 668.13,569.47 731.63,562.07 767.61,557.87"];
	41	[height=0.5,
		pos="539.46,647.82",
		width=0.75];
	1 -- 41	[pos="591.23,592.17 580.14,604.09 564.86,620.52 553.78,632.43"];
	1 -- 15	[pos="596.85,559.64 583.2,532.86 556.94,481.33 543.24,454.46"];
	1 -- 42	[pos="631.41,582.25 669.28,590.32 739.47,605.26 777.35,613.32"];
	43	[height=0.5,
		pos="353.33,589.37",
		width=0.75];
	1 -- 43	[pos="578.58,578.11 530.16,580.53 429.07,585.58 380.52,588.01"];
	1 -- 18	[pos="609.79,558.78 618.18,522.93 636.92,442.97 645.3,407.17"];
	44	[height=0.5,
		pos="1006.9,470.19",
		width=0.75];
	1 -- 44	[pos="630.68,570.09 702.75,550.95 909.74,495.99 981.8,476.85"];
	1 -- 21	[pos="619.62,592.43 656.29,633.35 754.62,743.07 791.27,783.98"];
	3 -- 13	[pos="615.6,645.21 626.98,632.48 642.89,614.67 654.2,602.01"];
	3 -- 16	[pos="599.03,642.97 595.68,618.31 589.71,574.32 586.35,549.52"];
	3 -- 19	[pos="601.08,642.85 600.15,601.1 597.88,498.74 596.96,457.05"];
	3 -- 8	[pos="623.54,650.6 629.25,647.89 635.41,644.98 641.14,642.27"];
	59	[height=0.5,
		pos="399.98,729.43",
		width=0.75];
	3 -- 59	[pos="577.18,669.27 538.34,682.46 462.75,708.12 424.06,721.26"];
	60	[height=0.5,
		pos="928.25,642.68",
		width=0.75];
	3 -- 60	[pos="628.5,659.5 689.97,656.05 839.7,647.65 901.2,644.2"];
	62	[height=0.5,
		pos="930.1,686.84",
		width=0.75];
	3 -- 62	[pos="628.37,663.13 690,667.97 840.86,679.83 902.84,684.7"];
	3 -- 64	[pos="574.4,660.07 539.09,658.83 477.68,656.67 442.36,655.43"];
	65	[height=0.5,
		pos="693.74,905.47",
		width=0.75];
	3 -- 65	[pos="608.12,678.6 625.1,723.6 669.99,842.54 687.04,887.72"];
	3 -- 10	[pos="588.25,645.24 568.51,621.7 531.55,577.64 511.84,554.13"];
	3 -- 11	[pos="574.5,659.06 515.28,654.76 374.5,644.53 315.24,640.22"];
	67	[height=0.5,
		pos="791.33,853.17",
		width=0.75];
	3 -- 67	[pos="616.38,676.1 651.78,711.93 740.64,801.87 776.24,837.9"];
	69	[height=0.5,
		pos="588.92,789.4",
		width=0.75];
	3 -- 69	[pos="599.71,679.14 597.32,703.61 593.08,746.95 590.69,771.37"];
	70	[height=0.5,
		pos="677.18,702.63",
		width=0.75];
	3 -- 70	[pos="622.57,672.61 633.07,678.38 645.72,685.34 656.2,691.1"];
	71	[height=0.5,
		pos="458.64,926.8",
		width=0.75];
	3 -- 71	[pos="592.33,678.05 566.59,725.94 493.77,861.43 467.9,909.56"];
	73	[height=0.5,
		pos="867.32,773.42",
		width=0.75];
	3 -- 73	[pos="624.61,670.8 675.01,692.11 794.25,742.53 844.43,763.74"];
	3 -- 23	[pos="612.73,677.44 643.18,721.86 726.94,844.07 757.59,888.78"];
	4 -- 24	[pos="378.58,490.68 345.8,509.11 282.63,544.63 249.9,563.04"];
	4 -- 9	[pos="426.77,480.01 455.53,481.15 500.55,482.93 529.19,484.07"];
	4 -- 16	[pos="424.34,485.98 459.53,495.96 523.5,514.09 558.8,524.1"];
	4 -- 59	[pos="399.51,496.94 399.6,543.05 399.85,664.94 399.94,711.24"];
	4 -- 10	[pos="420.03,491.25 437.16,501.53 461.44,516.09 478.47,526.31"];
	4 -- 11	[pos="387.99,495.38 366.67,525.91 321.2,591.01 299.8,621.66"];
	5	[height=0.5,
		pos="533.74,296.71",
		width=0.75];
	4 -- 5	[pos="411.39,462.76 436.81,428.27 496.1,347.8 521.66,313.11"];
	4 -- 75	[pos="379.93,466.11 337.32,438.18 236.52,372.09 194.1,344.29"];
	76	[height=0.5,
		pos="43.074,381.62",
		width=0.75];
	4 -- 76	[pos="374.41,472.09 308.98,454.22 133.51,406.31 68.107,388.45"];
	78	[height=0.5,
		pos="176.39,743.77",
		width=0.75];
	4 -- 78	[pos="386.19,494.7 346.6,541.7 229.75,680.43 189.89,727.75"];
	4 -- 80	[pos="392.29,461.26 384.46,441.98 371.99,411.33 364.2,392.16"];
	4 -- 81	[pos="407.52,496.41 422.46,528.84 454.32,598 469.31,630.55"];
	82	[height=0.5,
		pos="286.32,376.31",
		width=0.75];
	4 -- 82	[pos="383.26,464.23 361.75,444.72 324,410.48 302.5,390.98"];
	83	[height=0.5,
		pos="97.499,285.59",
		width=0.75];
	4 -- 83	[pos="379.66,466.24 324.81,431.13 171.46,332.94 116.99,298.07"];
	85	[height=0.5,
		pos="30.487,455.5",
		width=0.75];
	4 -- 85	[pos="372.34,477.21 304.11,472.87 125.94,461.56 57.659,457.23"];
	86	[height=0.5,
		pos="439.13,235.39",
		width=0.75];
	4 -- 86	[pos="402.39,461.02 409.72,415.98 428.87,298.39 436.21,253.32"];
	87	[height=0.5,
		pos="89.172,329.81",
		width=0.75];
	4 -- 87	[pos="377.16,468.2 319.91,440.69 168.32,367.84 111.29,340.44"];
	47	[height=0.5,
		pos="91.743,592.08",
		width=0.75];
	4 -- 47	[pos="375.58,487.71 318.11,508.85 172.65,562.33 115.41,583.38"];
	8 -- 26	[pos="673.64,648.47 688.89,673.82 717.65,721.63 733,747.15"];
	8 -- 9	[pos="651.64,615.44 631,587.27 588.81,529.67 568.13,501.45"];
	8 -- 10	[pos="642.66,619.87 610.94,601.93 550.99,568.01 519.37,550.13"];
	90	[height=0.5,
		pos="873.95,421.68",
		width=0.75];
	8 -- 90	[pos="678.67,616.58 717.4,577.93 819.79,475.74 858.67,436.92"];
	8 -- 103	[pos="672.62,614.49 691.06,579.57 732.7,500.72 751.06,465.95"];
	8 -- 114	[pos="667.89,613.76 674.26,587.48 686.07,538.79 692.44,512.51"];
	125	[height=0.5,
		pos="424.7,882.78",
		width=0.75];
	8 -- 125	[pos="648.96,647.01 606.32,691.84 482.18,822.35 439.4,867.33"];
	126	[height=0.5,
		pos="893.05,817.48",
		width=0.75];
	8 -- 126	[pos="680.79,645.65 723.32,680.08 832.86,768.75 875.6,803.36"];
	8 -- 128	[pos="682.87,644.58 710.72,663.14 761.83,697.22 789.72,715.82"];
	129	[height=0.5,
		pos="742.15,674.97",
		width=0.75];
	8 -- 129	[pos="684.61,643.28 695.98,649.55 709.96,657.25 721.3,663.49"];
	130	[height=0.5,
		pos="730.96,584.15",
		width=0.75];
	8 -- 130	[pos="682.32,618.44 691.67,611.85 702.94,603.9 712.28,597.32"];
	8 -- 131	[pos="690.88,632.71 729.67,634.16 800.26,636.8 838.99,638.25"];
	132	[height=0.5,
		pos="337.73,689.5",
		width=0.75];
	8 -- 132	[pos="637.43,636.32 576.42,647.14 425.09,674 363.96,684.85"];
	133	[height=0.5,
		pos="985.18,514.29",
		width=0.75];
	8 -- 133	[pos="687.45,622.96 747,601.22 901.4,544.87 961.11,523.07"];
	8 -- 134	[pos="684.02,619.77 724.09,596.45 812.44,545.03 852.58,521.68"];
	79	[height=0.5,
		pos="567.61,932.32",
		width=0.75];
	8 -- 79	[pos="657.83,649.59 640.77,703.06 590.31,861.16 573.29,914.51"];
	15 -- 31	[pos="522.82,453.66 500.12,485.78 450.14,556.49 427.26,588.85"];
	15 -- 16	[pos="543.51,454.45 552.43,471.41 565.96,497.15 574.86,514.07"];
	15 -- 19	[pos="561.51,437.96 564.13,438.03 566.78,438.11 569.4,438.18"];
	15 -- 18	[pos="557.46,427.62 577.52,419.25 606.48,407.18 626.54,398.82"];
	15 -- 17	[pos="507.87,440.67 470.24,445.56 401.85,454.47 364.12,459.38"];
	15 -- 70	[pos="543.6,454.21 569.31,502.04 642.07,637.35 667.92,685.42"];
	96	[height=0.5,
		pos="528.22,94.253",
		width=0.75];
	15 -- 96	[pos="534.12,418.77 533.03,359.08 529.62,171.59 528.55,112.37"];
	15 -- 108	[pos="531.95,419.26 525.77,375 509.88,261.03 503.67,216.55"];
	15 -- 119	[pos="516.87,423.46 480.56,395.08 397.7,330.3 361.43,301.95"];
	15 -- 130	[pos="552.59,450.77 590.02,478.76 675.47,542.66 712.87,570.62"];
	147	[height=0.5,
		pos="347.74,535.34",
		width=0.75];
	15 -- 147	[pos="513.03,448.46 477.11,467.34 405.14,505.17 369.19,524.06"];
	84	[height=0.5,
		pos="275.96,200.2",
		width=0.75];
	15 -- 84	[pos="518.28,422.38 471.86,379.82 338.53,257.57 292.12,215.02"];
	155	[height=0.5,
		pos="224.28,392.58",
		width=0.75];
	15 -- 155	[pos="508.01,433.4 449.55,424.99 309.9,404.9 251.1,396.44"];
	18 -- 34	[pos="672.75,398.93 708.05,413.63 774.79,441.43 809.98,456.08"];
	18 -- 86	[pos="631.2,375.86 591.41,346.76 497.42,278.02 457.54,248.85"];
	101	[height=0.5,
		pos="704.22,118.66",
		width=0.75];
	18 -- 101	[pos="653.18,371.07 663.14,321.78 690.61,185.96 700.56,136.76"];
	18 -- 133	[pos="673.11,398.04 734.74,421 900,482.55 961.6,505.5"];
	18 -- 139	[pos="650.5,371.13 652.1,342.26 655.2,286.15 656.79,257.24"];
	159	[height=0.5,
		pos="375.2,418.83",
		width=0.75];
	18 -- 159	[pos="622.7,392.14 570.26,397.79 454.63,410.27 402.11,415.93"];
	18 -- 167	[pos="676.3,392.04 741.23,398.81 906.43,416.02 971.46,422.8"];
	168	[height=0.5,
		pos="668.15,195.03",
		width=0.75];
	18 -- 168	[pos="651.26,370.97 654.82,333.86 662.86,250.06 666.41,213.11"];
	170	[height=0.5,
		pos="377.12,244.2",
		width=0.75];
	18 -- 170	[pos="628.13,377.86 577.21,350.75 449.21,282.59 398.39,255.53"];
	18 -- 173	[pos="657.53,372.01 672.96,338.91 706.58,266.77 722.07,233.52"];
	58	[height=0.5,
		pos="951.04,318.77",
		width=0.75];
	18 -- 58	[pos="675.21,383.24 732.18,369.92 868.48,338.06 925.39,324.76"];
	74	[height=0.5,
		pos="1060.4,414.66",
		width=0.75];
	18 -- 74	[pos="676.46,390.91 750.92,395.52 958.77,408.37 1033.3,412.98"];
	111	[height=0.5,
		pos="831.64,113.48",
		width=0.75];
	18 -- 111	[pos="660.62,372.41 693.21,323.06 788.26,179.16 820.67,130.1"];
	124	[height=0.5,
		pos="713.4,72.251",
		width=0.75];
	18 -- 124	[pos="653.12,371.29 664.34,315.63 698.47,146.33 709.75,90.399"];
	44 -- 45	[pos="992.42,454.85 969.76,430.85 926.16,384.66 903.43,360.58"];
	46 -- 47	[pos="174.35,683.65 155.92,663.22 124.09,627.93 105.78,607.65"];
	51	[height=0.5,
		pos="352.26,831.32",
		width=0.75];
	50 -- 51	[pos="460.14,845.38 436.57,842.31 402.32,837.85 378.77,834.78"];
	53 -- 54	[pos="707.78,768.82 755.55,760.65 855.4,743.55 903.02,735.39"];
	14 -- 30	[pos="474,498.05 477.95,538.15 487.39,634.11 491.33,674.17"];
	14 -- 16	[pos="494.54,490.2 514.01,499.14 542.12,512.04 561.58,520.97"];
	14 -- 19	[pos="496.49,471.95 518.4,464.72 550.46,454.14 572.35,446.92"];
	14 -- 41	[pos="479.29,497.6 492.23,529.92 519.61,598.26 532.48,630.41"];
	14 -- 15	[pos="491.23,466.89 498.95,461.59 507.85,455.48 515.56,450.18"];
	14 -- 17	[pos="445.57,476.58 421.92,473.58 387.55,469.23 363.92,466.24"];
	14 -- 69	[pos="478.83,497.48 499.32,551.81 561.65,717.09 582.24,771.69"];
	14 -- 82	[pos="451.25,468.26 415.46,448.31 342.95,407.88 307.21,387.95"];
	95	[height=0.5,
		pos="466.15,116.01",
		width=0.75];
	14 -- 95	[pos="471.92,461.9 470.88,399.94 467.49,196.3 466.45,134.17"];
	14 -- 107	[pos="468.92,461.89 459.47,410.05 432.31,261.15 422.85,209.31"];
	14 -- 129	[pos="490.77,493.36 540.2,529.07 674.65,626.21 723.82,661.73"];
	153	[height=0.5,
		pos="153.79,557.84",
		width=0.75];
	14 -- 153	[pos="446.7,486.19 387.08,500.78 239.18,536.95 179.43,551.57"];
	14 -- 168	[pos="483.6,463.4 518.23,413.04 622.06,262.04 656.73,211.62"];
	118	[height=0.5,
		pos="291.17,154.52",
		width=0.75];
	14 -- 118	[pos="462.74,462.91 431.53,406.81 332.17,228.21 300.77,171.78"];
	164	[height=0.5,
		pos="811.94,377.88",
		width=0.75];
	14 -- 164	[pos="496.92,472.53 559.53,453.72 723.87,404.34 786.87,385.42"];
	55 -- 56	[pos="304.45,767.67 301.69,729.76 295.34,642.29 292.57,604.29"];
	17 -- 43	[pos="339.62,480.99 342.66,505.04 348,547.25 351.04,571.28"];
	17 -- 85	[pos="310.09,462.21 251.87,460.82 115.83,457.55 57.656,456.15"];
	17 -- 122	[pos="313.93,453.7 271.19,436.95 180.97,401.6 138.21,384.85"];
	17 -- 132	[pos="337.36,481.03 337.43,523.47 337.62,628.73 337.69,671.25"];
	158	[height=0.5,
		pos="105.72,636.1",
		width=0.75];
	17 -- 158	[pos="319.15,476.46 275.86,508.84 167.02,590.25 123.81,622.57"];
	17 -- 169	[pos="313.86,471.86 308.92,473.76 303.71,475.75 298.76,477.65"];
	17 -- 170	[pos="340.58,444.97 348.04,403.97 366.31,303.58 373.82,262.34"];
	171	[height=0.5,
		pos="67.427,239.06",
		width=0.75];
	17 -- 171	[pos="320.03,448.53 271.28,408.1 133.15,293.56 84.577,253.28"];
	17 -- 33	[pos="310.69,458.81 263.67,451.65 166.44,436.85 119.43,429.69"];
	72	[height=0.5,
		pos="102.5,726.96",
		width=0.75];
	17 -- 72	[pos="323.34,478.6 281.57,525.57 158.08,664.45 116.42,711.31"];
	100	[height=0.5,
		pos="129.75,197.52",
		width=0.75];
	17 -- 100	[pos="324.65,446.67 287.51,399.18 179.19,260.72 142.26,213.51"];
	138	[height=0.5,
		pos="27,337.57",
		width=0.75];
	17 -- 138	[pos="314,453.45 256.35,430.17 107.66,370.14 50.172,346.93"];
	162	[height=0.5,
		pos="97.967,513.75",
		width=0.75];
	17 -- 162	[pos="311.25,468.41 265.21,478.2 170.03,498.43 124.01,508.22"];
	166	[height=0.5,
		pos="43.701,638.94",
		width=0.75];
	17 -- 166	[pos="317.14,474.97 263.5,507.13 117.83,594.49 64.024,626.75"];
	57 -- 58	[pos="864.45,536.77 881.84,492.98 926.7,380.04 944.04,336.37"];
	61	[height=0.5,
		pos="846.38,187.09",
		width=0.75];
	60 -- 61	[pos="924.99,624.54 911.85,551.39 862.81,278.52 849.64,205.28"];
	62 -- 63	[pos="924.44,669.13 902.09,599.26 820.13,343.07 797.83,273.36"];
	65 -- 66	[pos="698.84,887.71 708.99,852.3 731.64,773.29 741.78,737.92"];
	10 -- 27	[pos="496.3,556.69 491.42,594.51 480.26,680.95 475.42,718.49"];
	10 -- 16	[pos="525.62,536.13 535.56,535.29 546.83,534.34 556.79,533.49"];
	10 -- 38	[pos="508.04,555.64 529.24,594.55 580.62,688.87 601.72,727.6"];
	10 -- 18	[pos="513.95,523.29 542.86,494.7 605.22,433.03 634.17,404.41"];
	10 -- 14	[pos="490.72,520.87 487.38,513.47 483.49,504.88 480.14,497.48"];
	10 -- 17	[pos="476.22,527.91 445.4,513.47 390.29,487.67 359.57,473.28"];
	91	[height=0.5,
		pos="595.77,252.88",
		width=0.75];
	10 -- 91	[pos="504.73,520.55 522.17,469.27 572.26,322.01 589.7,270.74"];
	142	[height=0.5,
		pos="243.71,743.52",
		width=0.75];
	10 -- 142	[pos="481.13,552.51 434.45,590.07 307.46,692.23 261.02,729.6"];
	144	[height=0.5,
		pos="804.21,676.17",
		width=0.75];
	10 -- 144	[pos="521.13,548.54 577.63,574.02 725.17,640.54 781.71,666.03"];
	10 -- 146	[pos="522.09,547.94 565.68,565.66 658.78,603.52 702.28,621.2"];
	10 -- 147	[pos="471.33,537.86 443.97,537.3 402.14,536.45 374.86,535.89"];
	10 -- 148	[pos="472.04,534.07 460.71,532.22 447.53,530.07 436.23,528.22"];
	10 -- 51	[pos="489.94,555.86 463.9,607.95 386.91,761.99 360.94,813.97"];
	11 -- 39	[pos="301.33,654.06 322.88,680.03 365.54,731.44 387.26,757.61"];
	11 -- 52	[pos="280.82,655.6 277.34,663.79 273.19,673.54 269.69,681.75"];
	11 -- 104	[pos="277.81,621.41 254.32,583.36 197.39,491.14 174.01,453.27"];
	11 -- 125	[pos="297.81,655.45 322.87,700.35 390.07,820.73 415.12,865.6"];
	11 -- 135	[pos="281.94,620.5 274.91,600.57 263.57,568.42 256.53,548.48"];
	149	[height=0.5,
		pos="238.6,859.23",
		width=0.75];
	11 -- 149	[pos="284.15,656.34 274.83,697.88 251.96,799.73 242.65,841.21"];
	151	[height=0.5,
		pos="300.64,901.17",
		width=0.75];
	11 -- 151	[pos="289.07,656.33 291.34,704.36 297.5,834.8 299.78,882.97"];
	11 -- 153	[pos="268.09,626.22 242.75,611.06 199.46,585.16 174.05,569.96"];
	154	[height=0.5,
		pos="40.708,682.94",
		width=0.75];
	11 -- 154	[pos="261.72,643.04 214.09,651.64 114.5,669.62 67.005,678.19"];
	156	[height=0.5,
		pos="176.54,816.91",
		width=0.75];
	11 -- 156	[pos="277.71,655.07 256.37,689.2 208.19,766.29 186.94,800.28"];
	11 -- 158	[pos="260.89,637.93 226.39,637.53 167.38,636.83 132.93,636.42"];
	11 -- 159	[pos="295.18,620.67 311.47,579.59 351.87,477.67 368.19,436.5"];
	11 -- 160	[pos="275.34,622.25 256.14,598.35 220.2,553.64 201.02,529.78"];
	11 -- 29	[pos="271.23,652.52 237.9,680.51 164.33,742.3 131.16,770.16"];
	93	[height=0.5,
		pos="101.71,469.71",
		width=0.75];
	11 -- 93	[pos="271.99,623.6 236.63,591.64 152.97,516.03 117.77,484.22"];
	143	[height=0.5,
		pos="40.478,767.85",
		width=0.75];
	11 -- 143	[pos="266.66,649.53 219.69,674.1 108.57,732.23 61.803,756.7"];
	67 -- 68	[pos="798.88,835.78 821.86,782.86 890.78,624.17 913.8,571.19"];
	71 -- 72	[pos="437.96,915.19 375.01,879.87 186.27,773.96 123.25,738.6"];
	73 -- 74	[pos="876.63,756.11 909.32,695.37 1018.6,492.26 1051.2,431.79"];
	5 -- 25	[pos="561,296.81 581.35,296.88 609.04,296.97 629.38,297.04"];
	5 -- 6	[pos="526.77,314.53 520.75,329.91 512.1,352 506.12,367.28"];
	5 -- 9	[pos="535.89,314.78 540.18,350.8 549.75,431.15 554.03,467.12"];
	5 -- 12	[pos="542.88,313.93 562.1,350.15 606.51,433.86 625.65,469.92"];
	5 -- 35	[pos="560.77,297.11 601,297.7 676.19,298.79 716.55,299.38"];
	5 -- 48	[pos="506.66,295.2 493.17,294.45 476.92,293.54 463.45,292.78"];
	5 -- 89	[pos="519.9,280.96 490.79,247.81 423.51,171.23 394.52,138.22"];
	5 -- 90	[pos="557.4,305.4 619.63,328.26 787.44,389.9 850,412.88"];
	5 -- 91	[pos="552.35,283.56 560.2,278.02 569.32,271.57 577.17,266.02"];
	92	[height=0.5,
		pos="229.95,109.93",
		width=0.75];
	5 -- 92	[pos="513.81,284.46 458.76,250.61 305.09,156.13 249.95,122.23"];
	5 -- 94	[pos="560.33,300.34 612.36,307.44 727.07,323.1 779.18,330.21"];
	5 -- 95	[pos="527.14,279.06 514.22,244.51 485.72,168.34 472.78,133.74"];
	5 -- 96	[pos="533.24,278.39 532.19,239.84 529.76,150.77 528.71,112.39"];
	97	[height=0.5,
		pos="631.83,18",
		width=0.75];
	5 -- 97	[pos="540.03,278.85 557.74,228.51 607.94,85.869 625.59,35.71"];
	99	[height=0.5,
		pos="355.68,23.19",
		width=0.75];
	5 -- 99	[pos="522.87,280.02 491.08,231.18 398.53,89.012 366.63,40.017"];
	5 -- 101	[pos="548.28,281.53 580.4,247.98 657.16,167.81 689.48,134.06"];
	5 -- 102	[pos="539.06,278.86 549.85,242.61 574.24,160.75 584.99,124.65"];
	5 -- 61	[pos="557.76,288.29 615.95,267.89 764,215.97 822.28,195.54"];
	76 -- 77	[pos="55.15,365.28 75.095,338.29 114.69,284.72 134.58,257.8"];
	78 -- 79	[pos="198.55,754.45 267.4,787.64 477.17,888.74 545.7,921.76"];
	83 -- 84	[pos="119.74,274.95 154.12,258.5 219.78,227.08 254,210.71"];
	87 -- 88	[pos="112.35,320.49 153.29,304.02 237.92,269.98 278.83,253.52"];
	92 -- 93	[pos="223.59,127.77 201.71,189.16 129.67,391.27 107.96,452.18"];
	97 -- 98	[pos="645.07,34.137 684.63,82.326 801.58,224.81 841.05,272.89"];
	99 -- 100	[pos="337.95,36.869 295.82,69.378 190.07,150.98 147.71,183.67"];
	110 -- 111	[pos="550.1,33.697 607.74,50.032 749.07,90.083 806.63,106.4"];
	112 -- 113	[pos="398.25,66.711 440.81,65.892 522.81,64.313 565.29,63.495"];
	117 -- 118	[pos="226.14,206.8 240.15,195.54 259.69,179.82 273.69,168.57"];
	120 -- 121	[pos="240.51,161.24 304.79,159.82 466.14,156.25 530.77,154.82"];
	123 -- 124	[pos="463.37,71.741 516.35,71.849 633.15,72.088 686.22,72.196"];
	126 -- 127	[pos="895.93,799.5 902.55,758.2 918.79,656.94 925.4,615.7"];
	137 -- 138	[pos="205.07,293.73 165.99,303.35 91.44,321.71 52.352,331.33"];
	140 -- 141	[pos="657.72,152.19 681.86,153.24 716.93,154.77 741.04,155.82"];
	142 -- 143	[pos="216.73,746.75 177.75,751.42 106.12,759.99 67.254,764.65"];
	144 -- 145	[pos="814.35,659.24 838.92,618.21 901.42,513.81 926.02,472.72"];
	149 -- 150	[pos="263.59,852.41 317.91,837.59 446.25,802.56 500.7,787.69"];
	151 -- 152	[pos="327.55,898.56 401.97,891.35 609.87,871.19 684.08,864"];
	154 -- 155	[pos="51.371,666.07 83.817,614.75 181.11,460.87 213.59,409.49"];
	156 -- 157	[pos="203.73,815.69 258.43,813.24 381.2,807.73 435.75,805.29"];
	161 -- 162	[pos="330.98,625.83 282.59,602.56 168.11,547.49 119.94,524.32"];
	163 -- 164	[pos="982.69,571.09 948.39,532.28 859.93,432.19 825.73,393.48"];
	165 -- 166	[pos="526.71,875.7 443.46,834.89 148.52,690.32 65.558,649.65"];
	171 -- 172	[pos="93.612,234.35 148.04,224.56 272.86,202.11 327.5,192.28"];
}
