graph {
	graph [bb="0,0,1562.3,1252",
		outputorder=edgesfirst,
		overlap=prism,
		size="50,50!",
		start=2435
	];
	node [label="\N"];
	0	[height=0.5,
		pos="656.15,567.28",
		width=0.75];
	42	[height=0.5,
		pos="471.93,523.23",
		width=0.75];
	0 -- 42	[pos="630.53,561.15 595.43,552.76 532.76,537.77 497.62,529.37"];
	1	[height=0.5,
		pos="682.46,616.85",
		width=0.75];
	0 -- 1	[pos="665.2,584.34 667.82,589.27 670.67,594.65 673.3,599.59"];
	2	[height=0.5,
		pos="958.89,614.69",
		width=0.75];
	0 -- 2	[pos="682.48,571.4 739.74,580.37 875,601.56 932.4,610.54"];
	153	[height=0.5,
		pos="825.9,558.56",
		width=0.75];
	0 -- 153	[pos="683.42,565.88 715.19,564.25 767.35,561.56 798.97,559.94"];
	3	[height=0.5,
		pos="763.81,761.45",
		width=0.75];
	0 -- 3	[pos="665.51,584.17 685.87,620.89 733.97,707.65 754.38,744.46"];
	6	[height=0.5,
		pos="681.53,673.4",
		width=0.75];
	0 -- 6	[pos="660.45,585.28 665.12,604.8 672.53,635.76 677.21,655.31"];
	4	[height=0.5,
		pos="859.95,454.2",
		width=0.75];
	0 -- 4	[pos="677.19,555.6 716.34,533.88 799.95,487.49 839.02,465.82"];
	5	[height=0.5,
		pos="896.88,627.68",
		width=0.75];
	0 -- 5	[pos="681.45,573.63 727.69,585.23 825.3,609.72 871.55,621.32"];
	7	[height=0.5,
		pos="944.45,493",
		width=0.75];
	0 -- 7	[pos="681.48,560.75 736.03,546.7 864.09,513.7 918.86,499.59"];
	201	[height=0.5,
		pos="471.74,435.17",
		width=0.75];
	0 -- 201	[pos="637.45,553.89 602.01,528.5 525.48,473.67 490.21,448.4"];
	12	[height=0.5,
		pos="495.45,664.12",
		width=0.75];
	0 -- 12	[pos="635.79,579.54 604.88,598.17 546.45,633.38 515.63,651.95"];
	19	[height=0.5,
		pos="838.66,378.57",
		width=0.75];
	0 -- 19	[pos="671.08,551.84 705.48,516.27 789.93,428.95 824.03,393.69"];
	229	[height=0.5,
		pos="729.05,516.31",
		width=0.75];
	0 -- 229	[pos="674.92,554.15 685.8,546.54 699.46,536.99 710.34,529.39"];
	11	[height=0.5,
		pos="523.35,708.15",
		width=0.75];
	0 -- 11	[pos="641.68,582.62 616.14,609.72 563.33,665.74 537.8,692.83"];
	113	[height=0.5,
		pos="557.48,655.28",
		width=0.75];
	0 -- 113	[pos="639.85,581.81 621.57,598.12 592.09,624.41 573.8,640.73"];
	255	[height=0.5,
		pos="757.8,577.67",
		width=0.75];
	0 -- 255	[pos="682.85,570.01 697.68,571.52 716.06,573.4 730.92,574.92"];
	138	[height=0.5,
		pos="471.4,567.25",
		width=0.75];
	0 -- 138	[pos="628.89,567.27 593.86,567.27 533.41,567.26 498.47,567.25"];
	13	[height=0.5,
		pos="728.38,338.7",
		width=0.75];
	0 -- 13	[pos="661.81,549.34 675.32,506.61 709.26,399.2 722.74,356.56"];
	120	[height=0.5,
		pos="767.02,467.11",
		width=0.75];
	0 -- 120	[pos="672.51,552.5 693.59,533.45 730.01,500.55 750.95,481.63"];
	152	[height=0.5,
		pos="664.25,473.46",
		width=0.75];
	0 -- 152	[pos="657.71,549.19 659.14,532.58 661.26,508.09 662.69,491.49"];
	17	[height=0.5,
		pos="399.62,332.16",
		width=0.75];
	0 -- 17	[pos="640.1,552.57 594.03,510.35 461.72,389.08 415.66,346.86"];
	144	[height=0.5,
		pos="787.78,422.58",
		width=0.75];
	0 -- 144	[pos="670.23,551.79 695.44,524.09 747.98,466.33 773.4,438.4"];
	39	[height=0.5,
		pos="640.4,717.44",
		width=0.75];
	0 -- 39	[pos="654.25,585.39 651.22,614.25 645.33,670.36 642.3,699.26"];
	29	[height=0.5,
		pos="743.55,662.78",
		width=0.75];
	0 -- 29	[pos="670.58,583.05 686.87,600.85 713.2,629.63 729.38,647.31"];
	31	[height=0.5,
		pos="519.62,611.27",
		width=0.75];
	0 -- 31	[pos="631.74,575.14 607.04,583.1 569.06,595.34 544.27,603.33"];
	32	[height=0.5,
		pos="547.09,567.24",
		width=0.75];
	0 -- 32	[pos="628.91,567.27 612.25,567.26 591.02,567.26 574.36,567.25"];
	54	[height=0.5,
		pos="477.89,479.21",
		width=0.75];
	0 -- 54	[pos="634.29,556.48 599.98,539.53 533.89,506.88 499.64,489.96"];
	36	[height=0.5,
		pos="805.6,646.59",
		width=0.75];
	0 -- 36	[pos="677.56,578.64 705.97,593.72 755.83,620.18 784.22,635.25"];
	38	[height=0.5,
		pos="553.4,307.92",
		width=0.75];
	0 -- 38	[pos="649.24,549.86 630.57,502.72 579.2,373.05 560.41,325.6"];
	155	[height=0.5,
		pos="560.22,411.85",
		width=0.75];
	0 -- 155	[pos="645.7,550.35 627.24,520.45 589.1,458.64 570.65,428.76"];
	237	[height=0.5,
		pos="888.35,542.27",
		width=0.75];
	0 -- 237	[pos="683.24,564.36 727.98,559.54 816.8,549.98 861.43,545.17"];
	283	[height=0.5,
		pos="619.49,667.38",
		width=0.75];
	0 -- 283	[pos="649.59,585.17 642.92,603.39 632.64,631.47 625.99,649.64"];
	146	[height=0.5,
		pos="585.56,468.05",
		width=0.75];
	0 -- 146	[pos="644.49,550.89 631.41,532.51 610.32,502.86 597.23,484.46"];
	49	[height=0.5,
		pos="405.88,563.66",
		width=0.75];
	0 -- 49	[pos="628.89,566.89 580.74,566.19 481.22,564.75 433.1,564.05"];
	106	[height=0.5,
		pos="562.06,366.72",
		width=0.75];
	0 -- 106	[pos="647.96,549.83 630.12,511.81 587.92,421.84 570.16,383.98"];
	140	[height=0.5,
		pos="604.31,523.2",
		width=0.75];
	0 -- 140	[pos="639.46,553.09 633.66,548.16 627.15,542.62 621.32,537.67"];
	86	[height=0.5,
		pos="539.61,523.23",
		width=0.75];
	0 -- 86	[pos="632.56,558.36 612.34,550.72 583.36,539.77 563.15,532.13"];
	242	[height=0.5,
		pos="457.61,613.25",
		width=0.75];
	0 -- 242	[pos="630.6,573.2 592.58,582 521.51,598.45 483.37,607.28"];
	95	[height=0.5,
		pos="400.39,391.68",
		width=0.75];
	0 -- 95	[pos="636.92,554.08 589.41,521.46 466.87,437.32 419.48,404.79"];
	104	[height=0.5,
		pos="829.09,498.25",
		width=0.75];
	0 -- 104	[pos="679.47,557.97 712.57,544.76 772.81,520.71 805.86,507.52"];
	193	[height=0.5,
		pos="647.6,402.94",
		width=0.75];
	0 -- 193	[pos="655.2,549.06 653.56,517.48 650.2,452.88 648.55,421.24"];
	262	[height=0.5,
		pos="833.85,602.59",
		width=0.75];
	0 -- 262	[pos="682.37,572.49 716.06,579.18 774.21,590.74 807.81,597.41"];
	161	[height=0.5,
		pos="478.11,391.15",
		width=0.75];
	0 -- 161	[pos="640.97,552.26 607.33,518.99 526.85,439.37 493.25,406.13"];
	176	[height=0.5,
		pos="743.54,717.42",
		width=0.75];
	0 -- 176	[pos="666,584.21 682.79,613.05 716.74,671.37 733.59,700.32"];
	42 -- 146	[pos="493.84,512.59 513.96,502.82 543.62,488.42 563.72,478.66"];
	42 -- 86	[pos="499.06,523.23 503.48,523.23 508.05,523.23 512.46,523.23"];
	158	[height=0.5,
		pos="339.16,523.62",
		width=0.75];
	42 -- 158	[pos="444.74,523.31 421.83,523.38 389.21,523.47 366.31,523.54"];
	195	[height=0.5,
		pos="323.38,471.88",
		width=0.75];
	42 -- 195	[pos="447.73,514.86 420.1,505.31 375.18,489.79 347.56,480.24"];
	1 -- 42	[pos="659.93,606.83 619.51,588.86 535.14,551.34 494.61,533.31"];
	10	[height=0.5,
		pos="689.16,761.44",
		width=0.75];
	1 -- 10	[pos="683.29,634.87 684.58,662.58 687.02,715.35 688.31,743.19"];
	1 -- 3	[pos="691.95,633.72 707.54,661.43 738.41,716.31 754.12,744.24"];
	1 -- 6	[pos="682.16,635.05 682.05,641.51 681.94,648.78 681.83,655.23"];
	1 -- 5	[pos="709.61,618.22 750.86,620.3 828.83,624.24 869.95,626.32"];
	167	[height=0.5,
		pos="597.27,772.68",
		width=0.75];
	1 -- 167	[pos="673.18,633.82 656.79,663.8 622.92,725.77 606.54,755.73"];
	1 -- 229	[pos="690.57,599.34 699.12,580.88 712.51,552 721.03,533.62"];
	37	[height=0.5,
		pos="805.6,702.59",
		width=0.75];
	1 -- 37	[pos="701.16,629.87 724.31,645.99 763.5,673.27 786.72,689.45"];
	1 -- 255	[pos="703.85,605.73 714.03,600.43 726.17,594.11 736.36,588.82"];
	23	[height=0.5,
		pos="390.68,471.9",
		width=0.75];
	1 -- 23	[pos="660.53,605.95 606.32,579.03 466.52,509.58 412.47,482.73"];
	269	[height=0.5,
		pos="335.46,427.84",
		width=0.75];
	1 -- 269	[pos="661.53,605.45 599.7,571.77 418.28,472.95 356.41,439.25"];
	137	[height=0.5,
		pos="395.6,611.92",
		width=0.75];
	1 -- 137	[pos="655.21,616.38 600.39,615.44 477.33,613.33 422.66,612.39"];
	1 -- 32	[pos="658.57,608.09 633.98,599.08 595.87,585.11 571.2,576.07"];
	1 -- 146	[pos="671.53,600.07 652.92,571.49 615.28,513.69 596.6,485"];
	1 -- 86	[pos="663.19,604.22 635.93,586.35 586.37,553.87 559.02,535.95"];
	1 -- 158	[pos="657.21,609.99 593.73,592.75 427.97,547.74 364.44,530.49"];
	1 -- 195	[pos="659.17,607.45 594.21,581.22 411.5,507.46 346.61,481.26"];
	233	[height=0.5,
		pos="726.99,849.49",
		width=0.75];
	1 -- 233	[pos="685.88,634.72 694.17,678.02 715.26,788.19 723.56,831.56"];
	10 -- 37	[pos="710.79,750.51 731.57,740.01 762.82,724.21 783.69,713.66"];
	10 -- 255	[pos="695.74,743.82 708.86,708.69 738.13,630.32 751.24,595.23"];
	2 -- 153	[pos="936.03,605.04 911.67,594.76 873.32,578.57 848.91,568.27"];
	2 -- 3	[pos="940.89,628.24 903.72,656.2 818.89,720.01 781.77,747.94"];
	66	[height=0.5,
		pos="1213.1,779.64",
		width=0.75];
	2 -- 66	[pos="978.42,627.36 1025.7,658.07 1146.1,736.18 1193.5,766.93"];
	2 -- 4	[pos="948.49,597.82 929.54,567.08 889.58,502.26 870.51,471.33"];
	79	[height=0.5,
		pos="993.81,667.02",
		width=0.75];
	2 -- 79	[pos="969.94,631.25 974.02,637.36 978.64,644.28 982.72,650.39"];
	2 -- 7	[pos="956.76,596.74 954.03,573.73 949.32,534.07 946.59,511.03"];
	198	[height=0.5,
		pos="1103.7,695.5",
		width=0.75];
	2 -- 198	[pos="979.65,626.27 1007.2,641.63 1055.5,668.59 1083,683.94"];
	9	[height=0.5,
		pos="1221.3,647.59",
		width=0.75];
	2 -- 9	[pos="985.49,618.03 1035.8,624.33 1144.3,637.93 1194.6,644.24"];
	157	[height=0.5,
		pos="1142.1,522.68",
		width=0.75];
	2 -- 157	[pos="980.62,603.78 1015.9,586.07 1085.1,551.28 1120.4,533.58"];
	2 -- 13	[pos="945.5,598.66 904.67,549.77 782.02,402.93 741.52,354.43"];
	15	[height=0.5,
		pos="901.82,404.35",
		width=0.75];
	2 -- 15	[pos="954.03,596.76 943.24,557.02 917.44,461.94 906.67,422.24"];
	2 -- 120	[pos="941.18,601.07 904.72,573.03 821.62,509.11 784.96,480.91"];
	20	[height=0.5,
		pos="942.72,767.38",
		width=0.75];
	2 -- 20	[pos="956.97,632.81 953.86,662.19 947.74,719.92 944.63,749.28"];
	57	[height=0.5,
		pos="867.63,671.69",
		width=0.75];
	2 -- 57	[pos="939.09,627.06 923.78,636.62 902.69,649.79 887.39,659.35"];
	71	[height=0.5,
		pos="1224.2,563.67",
		width=0.75];
	2 -- 71	[pos="985.31,609.61 1036.2,599.84 1147.2,578.49 1197.9,568.73"];
	46	[height=0.5,
		pos="1284.4,647.94",
		width=0.75];
	2 -- 46	[pos="985.81,617.44 1047,623.7 1196.2,638.93 1257.5,645.19"];
	27	[height=0.5,
		pos="1058.5,815.07",
		width=0.75];
	2 -- 27	[pos="967.55,632.12 986.43,670.12 1031.1,760 1049.9,797.82"];
	33	[height=0.5,
		pos="1153.4,478.65",
		width=0.75];
	2 -- 33	[pos="977.54,601.65 1014.6,575.71 1097.2,517.92 1134.5,491.85"];
	2 -- 237	[pos="943.93,599.33 931.96,587.04 915.25,569.89 903.29,557.61"];
	53	[height=0.5,
		pos="1080,548.06",
		width=0.75];
	2 -- 53	[pos="979.99,603.09 1002.2,590.86 1037,571.72 1059.2,559.54"];
	210	[height=0.5,
		pos="868.82,715.73",
		width=0.75];
	2 -- 210	[pos="944.82,630.48 927.9,649.46 899.67,681.12 882.8,700.06"];
	126	[height=0.5,
		pos="930.87,723.34",
		width=0.75];
	2 -- 126	[pos="954.27,632.63 949.07,652.76 940.7,685.23 935.51,705.37"];
	72	[height=0.5,
		pos="955.94,537.02",
		width=0.75];
	2 -- 72	[pos="958.21,596.68 957.73,584.22 957.11,567.7 956.63,555.21"];
	88	[height=0.5,
		pos="1142.8,739.53",
		width=0.75];
	2 -- 88	[pos="977.88,627.58 1013.1,651.5 1088.3,702.51 1123.7,726.52"];
	217	[height=0.5,
		pos="1150.1,607.43",
		width=0.75];
	2 -- 217	[pos="985.88,613.67 1022.2,612.29 1086.5,609.85 1122.9,608.46"];
	2 -- 262	[pos="932.07,612.1 910.97,610.05 881.72,607.22 860.63,605.18"];
	177	[height=0.5,
		pos="1127,651.47",
		width=0.75];
	2 -- 177	[pos="984.78,620.36 1016.4,627.27 1069.4,638.88 1101,645.8"];
	197	[height=0.5,
		pos="1085.8,597.66",
		width=0.75];
	2 -- 197	[pos="985.5,611.12 1007.2,608.21 1037.6,604.13 1059.2,601.22"];
	215	[height=0.5,
		pos="1192,691.59",
		width=0.75];
	2 -- 215	[pos="983.4,622.78 1028.2,637.55 1122.7,668.73 1167.5,683.5"];
	273	[height=0.5,
		pos="1205.9,735.61",
		width=0.75];
	2 -- 273	[pos="980.81,625.42 1027.7,648.37 1137.2,701.98 1184,724.91"];
	153 -- 262	[pos="829.13,576.46 829.61,579.13 830.11,581.88 830.59,584.55"];
	3 -- 10	[pos="736.43,761.45 729.86,761.45 722.84,761.45 716.28,761.44"];
	47	[height=0.5,
		pos="1005.1,901.36",
		width=0.75];
	3 -- 47	[pos="784.38,773.38 829.96,799.81 939.02,863.05 984.56,889.46"];
	3 -- 6	[pos="749.47,746.11 734.47,730.05 711.03,704.97 695.98,688.86"];
	3 -- 5	[pos="778.81,746.37 804.37,720.67 856.07,668.71 881.73,642.91"];
	204	[height=0.5,
		pos="876.14,778.07",
		width=0.75];
	3 -- 204	[pos="790.43,765.39 808.33,768.04 831.84,771.52 849.71,774.16"];
	3 -- 12	[pos="739.99,752.81 689.06,734.34 570.09,691.19 519.21,672.74"];
	3 -- 167	[pos="736.68,763.28 705.71,765.37 655.35,768.76 624.39,770.85"];
	3 -- 37	[pos="775.45,745.06 781.25,736.89 788.23,727.05 794.02,718.9"];
	3 -- 11	[pos="738.07,755.75 691.91,745.52 595.55,724.16 549.26,713.9"];
	35	[height=0.5,
		pos="809.34,805.9",
		width=0.75];
	3 -- 35	[pos="779.22,776.5 783.97,781.13 789.2,786.23 793.94,790.87"];
	151	[height=0.5,
		pos="579.93,860.73",
		width=0.75];
	3 -- 151	[pos="742.71,772.84 707.34,791.94 636.46,830.21 601.06,849.32"];
	21	[height=0.5,
		pos="610.88,974.37",
		width=0.75];
	3 -- 21	[pos="752.06,777.81 723.59,817.44 651.17,918.27 622.66,957.96"];
	16	[height=0.5,
		pos="549.09,926.01",
		width=0.75];
	3 -- 16	[pos="745.87,775.2 705.35,806.25 607.15,881.51 566.83,912.41"];
	3 -- 20	[pos="790.98,762.35 824.7,763.47 881.87,765.36 915.58,766.48"];
	3 -- 57	[pos="780.49,747.03 799.86,730.28 831.63,702.81 850.99,686.08"];
	123	[height=0.5,
		pos="535.03,752.16",
		width=0.75];
	3 -- 123	[pos="736.66,760.35 692.63,758.56 606.15,755.05 562.14,753.26"];
	40	[height=0.5,
		pos="642.69,903.78",
		width=0.75];
	3 -- 40	[pos="750.38,777.23 727.1,804.59 679.5,860.53 656.17,887.93"];
	84	[height=0.5,
		pos="706.25,944.45",
		width=0.75];
	3 -- 84	[pos="758.18,779.33 747.15,814.41 722.79,891.85 711.81,926.77"];
	111	[height=0.5,
		pos="631.26,816.72",
		width=0.75];
	3 -- 111	[pos="740.72,771.08 716.54,781.16 678.78,796.9 654.53,807.01"];
	3 -- 27	[pos="789.95,766.21 845.87,776.38 976.5,800.15 1032.4,810.32"];
	98	[height=0.5,
		pos="1005.4,755.45",
		width=0.75];
	3 -- 98	[pos="791.05,760.78 837.56,759.62 931.78,757.28 978.22,756.12"];
	3 -- 29	[pos="760.09,743.35 756.43,725.55 750.89,698.53 747.24,680.77"];
	68	[height=0.5,
		pos="788.79,893.53",
		width=0.75];
	3 -- 68	[pos="767.23,779.54 772.01,804.83 780.65,850.48 785.41,875.66"];
	3 -- 36	[pos="770.34,743.5 778.19,721.93 791.28,685.93 799.11,664.41"];
	78	[height=0.5,
		pos="869.85,1015.2",
		width=0.75];
	3 -- 78	[pos="771.09,778.9 790.47,825.26 843.08,951.17 862.51,997.68"];
	3 -- 283	[pos="744.34,748.76 716.8,730.81 666.73,698.17 639.11,680.16"];
	170	[height=0.5,
		pos="850.79,849.96",
		width=0.75];
	3 -- 170	[pos="778.96,776.87 794.92,793.12 819.92,818.54 835.82,834.72"];
	45	[height=0.5,
		pos="989.66,856.14",
		width=0.75];
	3 -- 45	[pos="786.7,771.05 829.99,789.2 923.37,828.35 966.7,846.52"];
	166	[height=0.5,
		pos="937.67,908.6",
		width=0.75];
	3 -- 166	[pos="780.79,775.83 814.12,804.03 887.7,866.31 920.87,894.38"];
	80	[height=0.5,
		pos="680.48,993.27",
		width=0.75];
	3 -- 80	[pos="757.41,779.26 741.86,822.52 702.24,932.73 686.79,975.73"];
	3 -- 210	[pos="786.59,751.53 804.21,743.86 828.48,733.3 846.08,725.63"];
	59	[height=0.5,
		pos="996.47,952.63",
		width=0.75];
	3 -- 59	[pos="780.91,775.51 823.94,810.87 936.28,903.18 979.34,938.56"];
	69	[height=0.5,
		pos="912.83,864.57",
		width=0.75];
	3 -- 69	[pos="782.68,774.51 811.19,794.24 864.94,831.43 893.64,851.29"];
	65	[height=0.5,
		pos="970.07,1067",
		width=0.75];
	3 -- 65	[pos="774.9,777.88 810.71,830.93 923.03,997.31 958.93,1050.5"];
	3 -- 126	[pos="789.54,755.58 820.94,748.42 873.7,736.38 905.11,729.22"];
	116	[height=0.5,
		pos="866.6,931.15",
		width=0.75];
	3 -- 116	[pos="774.04,778.34 793.74,810.87 836.74,881.86 856.41,914.33"];
	188	[height=0.5,
		pos="702.63,805.46",
		width=0.75];
	3 -- 188	[pos="745.45,774.65 737.85,780.12 729.04,786.46 721.4,791.96"];
	134	[height=0.5,
		pos="742.49,1007.9",
		width=0.75];
	3 -- 134	[pos="762.24,779.57 758.3,825.14 748,944.13 744.06,989.73"];
	125	[height=0.5,
		pos="725.04,893.51",
		width=0.75];
	3 -- 125	[pos="758.58,779.26 751.18,804.47 737.73,850.28 730.31,875.56"];
	294	[height=0.5,
		pos="804.54,971.06",
		width=0.75];
	3 -- 294	[pos="767.28,779.32 774.96,818.82 793.3,913.2 801.02,952.93"];
	3 -- 233	[pos="756.53,778.84 750.08,794.28 740.7,816.71 734.25,832.13"];
	3 -- 176	[pos="755.8,744.05 754.38,740.97 752.91,737.77 751.49,734.7"];
	200	[height=0.5,
		pos="1032.3,1041.2",
		width=0.75];
	3 -- 200	[pos="778.62,776.89 825.56,825.81 970.63,977 1017.5,1025.8"];
	275	[height=0.5,
		pos="928.86,964.51",
		width=0.75];
	3 -- 275	[pos="776.76,777.39 807.61,815.34 885.18,910.77 915.97,948.65"];
	169	[height=0.5,
		pos="1084.6,940.36",
		width=0.75];
	47 -- 169	[pos="1027.2,912.22 1038.4,917.67 1051.8,924.26 1062.9,929.68"];
	149	[height=0.5,
		pos="1113.4,1057.7",
		width=0.75];
	47 -- 149	[pos="1016.5,917.79 1037.2,947.74 1081,1010.9 1101.8,1041"];
	241	[height=0.5,
		pos="1070.5,1107.7",
		width=0.75];
	47 -- 241	[pos="1010.8,919.31 1023.2,958.44 1052.5,1051 1064.9,1090"];
	47 -- 200	[pos="1008.6,919.36 1013.8,946.22 1023.6,996.49 1028.8,1023.3"];
	47 -- 275	[pos="987.78,915.69 975.22,926.1 958.31,940.11 945.83,950.46"];
	131	[height=0.5,
		pos="1253.2,858.48",
		width=0.75];
	66 -- 131	[pos="1221.8,796.75 1228.5,809.97 1237.8,828.19 1244.5,841.41"];
	247	[height=0.5,
		pos="1354.3,900.01",
		width=0.75];
	66 -- 247	[pos="1229.8,793.92 1257,817.09 1310.4,862.59 1337.6,885.74"];
	66 -- 126	[pos="1187,774.44 1133.3,763.72 1010.6,739.24 956.86,728.52"];
	100	[height=0.5,
		pos="1280.8,902.79",
		width=0.75];
	66 -- 100	[pos="1222.5,796.76 1235.4,820.29 1258.5,862.36 1271.4,885.82"];
	133	[height=0.5,
		pos="1270.8,952.93",
		width=0.75];
	66 -- 133	[pos="1219,797.53 1230.1,830.83 1253.8,901.92 1264.8,935.14"];
	299	[height=0.5,
		pos="1338.4,947.01",
		width=0.75];
	66 -- 299	[pos="1225.3,795.99 1249.3,828.07 1302.4,898.9 1326.3,930.83"];
	297	[height=0.5,
		pos="1146.7,964.22",
		width=0.75];
	66 -- 297	[pos="1206.7,797.34 1194,832.62 1165.7,911.34 1153,946.57"];
	6 -- 167	[pos="668,689.35 652.27,707.88 626.49,738.26 610.78,756.77"];
	6 -- 35	[pos="696.2,688.6 720.72,714.02 769.79,764.89 794.46,790.47"];
	6 -- 137	[pos="655.65,667.84 601.35,656.16 476.06,629.22 421.63,617.52"];
	6 -- 29	[pos="707.83,668.9 710.87,668.38 713.97,667.85 717.01,667.33"];
	6 -- 32	[pos="663.96,659.52 638.19,639.18 590.44,601.47 564.67,581.12"];
	6 -- 68	[pos="689.95,690.67 710,731.82 760.4,835.26 780.41,876.33"];
	6 -- 283	[pos="654.5,670.78 651.76,670.51 648.97,670.24 646.23,669.97"];
	6 -- 140	[pos="672.67,656.17 657.78,627.2 627.89,569.07 613.06,540.23"];
	6 -- 233	[pos="686.14,691.25 694.85,725 713.65,797.8 722.37,831.59"];
	4 -- 79	[pos="870.46,470.9 895.48,510.69 958.39,610.69 983.36,650.4"];
	4 -- 15	[pos="873.2,438.43 878.09,432.61 883.62,426.02 888.51,420.19"];
	18	[height=0.5,
		pos="1034.8,343.19",
		width=0.75];
	4 -- 18	[pos="879.67,441.68 913.34,420.31 981.55,377.01 1015.2,355.66"];
	261	[height=0.5,
		pos="1032.1,252",
		width=0.75];
	4 -- 261	[pos="873.46,438.34 905.65,400.54 986.55,305.52 1018.7,267.79"];
	4 -- 152	[pos="833.15,456.84 795.78,460.52 728.41,467.15 691.04,470.82"];
	194	[height=0.5,
		pos="910.77,330.58",
		width=0.75];
	4 -- 194	[pos="867.13,436.75 876.81,413.19 893.97,371.45 903.63,347.94"];
	94	[height=0.5,
		pos="1034.8,391.04",
		width=0.75];
	4 -- 94	[pos="883.9,445.55 917.29,433.49 977.49,411.75 1010.9,399.69"];
	4 -- 36	[pos="854.94,471.96 844.58,508.61 820.95,592.26 810.6,628.88"];
	4 -- 38	[pos="837.91,443.68 781.48,416.76 632.31,345.58 575.66,318.54"];
	58	[height=0.5,
		pos="972.79,360.66",
		width=0.75];
	4 -- 58	[pos="877.09,440 898.42,422.31 934.63,392.3 955.86,374.7"];
	224	[height=0.5,
		pos="804.04,333.96",
		width=0.75];
	4 -- 224	[pos="851.94,436.98 841.31,414.12 822.66,374 812.04,351.15"];
	4 -- 72	[pos="876.67,468.63 894.29,483.83 921.87,507.62 939.41,522.76"];
	213	[height=0.5,
		pos="925.59,249.96",
		width=0.75];
	4 -- 213	[pos="865.66,436.44 878.08,397.81 907.41,306.55 919.85,267.83"];
	196	[height=0.5,
		pos="1151.4,902.01",
		width=0.75];
	79 -- 196	[pos="1004.9,683.54 1033.8,726.69 1111.4,842.38 1140.3,885.51"];
	79 -- 88	[pos="1015.8,677.72 1044,691.43 1092.5,715.05 1120.7,728.78"];
	5 -- 204	[pos="894.38,645.82 890.39,674.73 882.64,730.92 878.65,759.86"];
	5 -- 7	[pos="903.1,610.07 912.22,584.26 929.11,536.42 938.23,510.61"];
	5 -- 19	[pos="892.7,609.76 881.98,563.91 853.65,442.69 842.89,396.65"];
	8	[height=0.5,
		pos="930.85,448.98",
		width=0.75];
	5 -- 8	[pos="900.33,609.56 906.85,575.22 920.95,501.05 927.45,466.88"];
	5 -- 229	[pos="877.63,614.9 845.34,593.48 780.65,550.55 748.33,529.11"];
	5 -- 9	[pos="923.98,629.34 985.04,633.09 1132.8,642.16 1194,645.92"];
	44	[height=0.5,
		pos="1082.9,476.71",
		width=0.75];
	5 -- 44	[pos="914.05,613.75 949.38,585.06 1029.9,519.67 1065.5,490.83"];
	5 -- 37	[pos="879.71,641.77 863.39,655.16 838.99,675.19 822.69,688.56"];
	5 -- 255	[pos="872.97,619.08 847.5,609.92 807.4,595.5 781.86,586.32"];
	22	[height=0.5,
		pos="967.07,404.97",
		width=0.75];
	5 -- 22	[pos="902.51,609.83 915.68,568.03 948.41,464.17 961.51,422.59"];
	5 -- 27	[pos="910.38,643.33 940.79,678.61 1014.4,763.97 1044.9,799.33"];
	5 -- 98	[pos="910.19,643.35 931.01,667.87 971.07,715.05 991.95,739.66"];
	253	[height=0.5,
		pos="1120.5,783.99",
		width=0.75];
	5 -- 253	[pos="915.56,640.74 957.66,670.16 1059.5,741.37 1101.7,770.86"];
	127	[height=0.5,
		pos="1023.6,592.09",
		width=0.75];
	5 -- 127	[pos="921.92,620.65 944.14,614.41 976.43,605.34 998.63,599.11"];
	230	[height=0.5,
		pos="1018,518.15",
		width=0.75];
	5 -- 230	[pos="912.96,613.13 936.12,592.19 978.63,553.74 1001.8,532.75"];
	109	[height=0.5,
		pos="1064.9,641.69",
		width=0.75];
	5 -- 109	[pos="923.88,629.93 955.24,632.54 1006.7,636.83 1038,639.44"];
	238	[height=0.5,
		pos="1012,450.01",
		width=0.75];
	5 -- 238	[pos="907.71,610.96 929.7,577.02 979.37,500.35 1001.3,466.55"];
	204 -- 253	[pos="903.22,778.73 950.2,779.86 1046.2,782.19 1093.3,783.33"];
	7 -- 19	[pos="930.18,477.57 909.99,455.73 873.29,416.03 853.04,394.12"];
	7 -- 9	[pos="965.25,504.62 1016.6,533.27 1148.7,607.04 1200.2,635.83"];
	7 -- 157	[pos="971.1,497 1008.9,502.68 1077.8,513.02 1115.5,518.69"];
	7 -- 144	[pos="922,482.91 892.22,469.52 839.95,446.03 810.19,432.65"];
	25	[height=0.5,
		pos="1258.7,495.04",
		width=0.75];
	7 -- 25	[pos="971.51,493.17 1030.9,493.56 1172.2,494.48 1231.6,494.86"];
	30	[height=0.5,
		pos="1283.2,339.62",
		width=0.75];
	7 -- 30	[pos="966.94,482.82 1028.4,454.98 1198.8,377.85 1260.5,349.9"];
	7 -- 33	[pos="971.33,491.15 1011.3,488.4 1086.1,483.27 1126.3,480.51"];
	96	[height=0.5,
		pos="1220.9,339.31",
		width=0.75];
	7 -- 96	[pos="965.23,481.45 1016.5,452.97 1148.4,379.62 1199.9,351"];
	263	[height=0.5,
		pos="1096.8,368.39",
		width=0.75];
	7 -- 263	[pos="961.63,478.95 990.9,455.01 1050.1,406.61 1079.5,382.58"];
	7 -- 237	[pos="927.92,507.52 920.68,513.88 912.2,521.32 904.95,527.69"];
	212	[height=0.5,
		pos="1245.7,451.01",
		width=0.75];
	7 -- 212	[pos="970.92,489.31 1027.9,481.36 1161.8,462.71 1219,454.73"];
	7 -- 53	[pos="967.76,502.47 992.59,512.55 1031.7,528.43 1056.6,538.54"];
	101	[height=0.5,
		pos="1272.1,384.2",
		width=0.75];
	7 -- 101	[pos="968.8,484.91 1029.5,464.77 1186.7,412.54 1247.6,392.34"];
	7 -- 104	[pos="917.4,494.23 899.02,495.07 874.79,496.17 856.37,497.01"];
	277	[height=0.5,
		pos="1096.8,312.96",
		width=0.75];
	7 -- 277	[pos="957.97,477.02 986.96,442.77 1054.8,362.63 1083.6,328.65"];
	132	[height=0.5,
		pos="1208.5,406.99",
		width=0.75];
	7 -- 132	[pos="968.82,485.06 1019.1,468.68 1134,431.28 1184.2,414.91"];
	145	[height=0.5,
		pos="1146.5,412.41",
		width=0.75];
	7 -- 145	[pos="967.63,483.75 1006.5,468.25 1084.4,437.19 1123.3,421.67"];
	7 -- 197	[pos="962.64,506.47 989.78,526.56 1040.6,564.17 1067.7,584.24"];
	257	[height=0.5,
		pos="1158.9,328.65",
		width=0.75];
	7 -- 257	[pos="962.36,479.27 1002.7,448.33 1100.4,373.46 1140.8,342.45"];
	12 -- 151	[pos="502.94,681.56 518.98,718.88 556.43,806.05 572.45,843.32"];
	12 -- 138	[pos="491.04,646.35 486.72,628.98 480.19,602.67 475.86,585.23"];
	12 -- 16	[pos="499.13,682.12 508.93,729.96 535.55,859.89 545.38,907.88"];
	28	[height=0.5,
		pos="356.17,751.53",
		width=0.75];
	12 -- 28	[pos="475.79,676.46 449.39,693.02 402.75,722.29 376.18,738.97"];
	181	[height=0.5,
		pos="281.4,839.62",
		width=0.75];
	12 -- 181	[pos="478.29,678.18 438.21,711.04 338.8,792.56 298.64,825.48"];
	12 -- 283	[pos="522.67,664.83 543.35,665.38 571.67,666.12 592.33,666.66"];
	12 -- 49	[pos="481.45,648.42 464.62,629.55 436.56,598.07 419.77,579.25"];
	67	[height=0.5,
		pos="209.47,557.73",
		width=0.75];
	12 -- 67	[pos="471.56,655.23 417.59,635.15 286.8,586.5 233.09,566.52"];
	64	[height=0.5,
		pos="149.81,622.99",
		width=0.75];
	12 -- 64	[pos="468.61,660.92 404.22,653.26 241.48,633.9 176.86,626.21"];
	136	[height=0.5,
		pos="271.51,567.79",
		width=0.75];
	12 -- 136	[pos="472.74,654.35 429.82,635.89 337.24,596.06 294.27,577.58"];
	185	[height=0.5,
		pos="211.84,611.82",
		width=0.75];
	12 -- 185	[pos="469.27,659.29 415.25,649.33 291.92,626.59 237.95,616.63"];
	118	[height=0.5,
		pos="142.68,577.81",
		width=0.75];
	12 -- 118	[pos="470.08,657.91 405.15,642.03 233.49,600.03 168.3,584.08"];
	73	[height=0.5,
		pos="147.45,531.7",
		width=0.75];
	12 -- 73	[pos="471.8,655.12 408.31,630.96 234.65,564.88 171.13,540.71"];
	218	[height=0.5,
		pos="166.67,667.03",
		width=0.75];
	12 -- 218	[pos="468.26,664.36 406.42,664.9 255.77,666.24 193.89,666.79"];
	288	[height=0.5,
		pos="274.13,515.88",
		width=0.75];
	12 -- 288	[pos="476.19,651.22 434.23,623.12 334.96,556.62 293.18,528.64"];
	216	[height=0.5,
		pos="210.02,513.73",
		width=0.75];
	12 -- 216	[pos="473.99,652.81 420.97,624.88 284.21,552.82 231.33,524.96"];
	286	[height=0.5,
		pos="169.85,711.03",
		width=0.75];
	12 -- 286	[pos="468.8,667.96 407.6,676.78 257.53,698.4 196.41,707.21"];
	19 -- 229	[pos="825.87,394.64 804.75,421.18 762.82,473.87 741.76,500.34"];
	19 -- 144	[pos="822,392.98 816.32,397.89 809.98,403.38 804.31,408.29"];
	19 -- 22	[pos="864.65,383.91 886.93,388.49 918.86,395.05 941.12,399.63"];
	150	[height=0.5,
		pos="1009.9,206.2",
		width=0.75];
	19 -- 150	[pos="853.86,363.27 886.45,330.48 962.69,253.75 995.02,221.21"];
	52	[height=0.5,
		pos="884.65,139.7",
		width=0.75];
	19 -- 52	[pos="842.12,360.61 850.64,316.35 872.59,202.35 881.15,157.86"];
	251	[height=0.5,
		pos="627.65,175.82",
		width=0.75];
	19 -- 251	[pos="823.15,363.66 784.12,326.16 682.24,228.27 643.19,190.75"];
	248	[height=0.5,
		pos="986.21,299.18",
		width=0.75];
	19 -- 248	[pos="859.8,367.19 887.85,352.1 937.08,325.62 965.11,310.53"];
	245	[height=0.5,
		pos="747.47,167.7",
		width=0.75];
	19 -- 245	[pos="831.04,360.95 813.84,321.16 772.13,224.72 755,185.12"];
	19 -- 193	[pos="812.1,381.96 775.7,386.6 710.69,394.89 674.25,399.54"];
	164	[height=0.5,
		pos="822.56,113.21",
		width=0.75];
	19 -- 164	[pos="837.56,360.33 834.61,311.73 826.59,179.56 823.66,131.22"];
	171	[height=0.5,
		pos="863.56,286.55",
		width=0.75];
	19 -- 171	[pos="843.46,360.82 847.84,344.63 854.28,320.82 858.69,304.55"];
	276	[height=0.5,
		pos="946.68,174.87",
		width=0.75];
	19 -- 276	[pos="847.69,361.55 868.02,323.21 917.23,230.41 937.61,191.98"];
	270	[height=0.5,
		pos="588.04,263.89",
		width=0.75];
	19 -- 270	[pos="815.98,368.19 768.26,346.35 658,295.9 610.49,274.16"];
	198 -- 215	[pos="1130.7,694.31 1141.6,693.83 1154.1,693.27 1164.9,692.79"];
	198 -- 273	[pos="1127.2,704.7 1143.8,711.22 1166,719.94 1182.6,726.45"];
	167 -- 233	[pos="617.54,784.68 641.77,799.03 682.08,822.9 706.43,837.32"];
	8 -- 19	[pos="913.07,435.4 896.85,423.01 873,404.79 856.7,392.34"];
	8 -- 229	[pos="906.51,457.1 867.72,470.04 792.32,495.2 753.48,508.16"];
	8 -- 22	[pos="943.92,433.09 947.17,429.15 950.64,424.92 953.89,420.98"];
	8 -- 150	[pos="936.66,431.12 951.29,386.23 989.48,269 1004.1,224.07"];
	8 -- 230	[pos="948.48,462.97 963.6,474.98 985.26,492.18 1000.4,504.17"];
	8 -- 248	[pos="937.42,431.2 948.07,402.38 969,345.74 979.65,316.93"];
	9 -- 66	[pos="1220.1,665.67 1218.6,690.82 1215.8,736.09 1214.2,761.35"];
	14	[height=0.5,
		pos="1336.1,692",
		width=0.75];
	9 -- 14	[pos="1244.8,656.68 1264.6,664.35 1292.8,675.26 1312.6,682.92"];
	43	[height=0.5,
		pos="1473.3,624.41",
		width=0.75];
	9 -- 43	[pos="1248.2,645.11 1296.7,640.65 1398.2,631.32 1446.5,626.87"];
	9 -- 25	[pos="1225.6,629.79 1232.8,600.55 1247,542.67 1254.3,513.2"];
	9 -- 27	[pos="1206.5,662.75 1175.7,694.47 1104.6,767.57 1073.5,799.58"];
	9 -- 98	[pos="1199.4,658.52 1157.9,679.25 1068.3,724.02 1027,744.65"];
	9 -- 131	[pos="1224,665.57 1230,705.41 1244.4,800.75 1250.4,840.55"];
	81	[height=0.5,
		pos="1278.7,736.07",
		width=0.75];
	9 -- 81	[pos="1232.1,664.23 1242.3,680.05 1257.7,703.71 1267.9,719.5"];
	50	[height=0.5,
		pos="1320.8,525.92",
		width=0.75];
	9 -- 50	[pos="1234.3,631.68 1253.3,608.36 1288.7,565.15 1307.8,541.83"];
	190	[height=0.5,
		pos="1341.6,569.95",
		width=0.75];
	9 -- 190	[pos="1240.9,634.94 1263.3,620.5 1299.7,597.02 1322,582.59"];
	77	[height=0.5,
		pos="1349.2,613.95",
		width=0.75];
	9 -- 77	[pos="1246.5,640.94 1269,635.05 1301.6,626.48 1324,620.58"];
	228	[height=0.5,
		pos="1294.7,810.57",
		width=0.75];
	9 -- 228	[pos="1229.1,665.03 1243.3,696.4 1272.8,761.98 1286.9,793.26"];
	82	[height=0.5,
		pos="1342,742.32",
		width=0.75];
	9 -- 82	[pos="1238.8,661.36 1261.7,679.32 1301.6,710.56 1324.5,728.53"];
	281	[height=0.5,
		pos="1411.3,640.31",
		width=0.75];
	9 -- 281	[pos="1248.5,646.55 1284.6,645.16 1348,642.73 1384.1,641.35"];
	121	[height=0.5,
		pos="1411.3,582.73",
		width=0.75];
	9 -- 121	[pos="1245.3,639.37 1281.8,626.93 1350.6,603.44 1387.1,590.98"];
	227	[height=0.5,
		pos="1356.7,786.35",
		width=0.75];
	9 -- 227	[pos="1236,662.7 1262.1,689.39 1316,744.58 1342,771.25"];
	221	[height=0.5,
		pos="1350.7,481.45",
		width=0.75];
	9 -- 221	[pos="1233.9,631.36 1258.7,599.51 1313.5,529.21 1338.2,497.51"];
	9 -- 273	[pos="1218.1,665.83 1215.4,681.03 1211.7,702.58 1209,717.7"];
	265	[height=0.5,
		pos="1398.2,698.28",
		width=0.75];
	9 -- 265	[pos="1246.2,654.74 1280,664.4 1339.7,681.52 1373.4,691.16"];
	55	[height=0.5,
		pos="1310.7,289.95",
		width=0.75];
	44 -- 55	[pos="1100,462.67 1142.2,428.06 1251,338.93 1293.4,304.15"];
	44 -- 127	[pos="1073.9,494.23 1062.7,516.05 1043.7,553.07 1032.5,574.78"];
	44 -- 109	[pos="1080.9,494.68 1077.5,526.33 1070.4,591.67 1066.9,623.49"];
	44 -- 238	[pos="1059.3,467.82 1051.7,464.97 1043.3,461.81 1035.7,458.95"];
	162	[height=0.5,
		pos="1186,210.19",
		width=0.75];
	44 -- 162	[pos="1089.6,459.22 1108.3,410.93 1160.5,276.11 1179.2,227.74"];
	37 -- 204	[pos="820.22,718.23 832.4,731.27 849.67,749.75 861.78,762.71"];
	37 -- 255	[pos="798.85,684.96 789.74,661.15 773.61,618.97 764.51,595.21"];
	37 -- 253	[pos="830.84,709.12 889.8,724.36 1036.1,762.17 1095.1,777.44"];
	11 -- 113	[pos="534.15,691.42 538.14,685.25 542.65,678.26 546.64,672.08"];
	11 -- 21	[pos="529.23,726.03 545.18,774.53 589.11,908.16 605.02,956.57"];
	11 -- 16	[pos="525.5,726.35 530.36,767.46 542.13,867.1 546.96,908.01"];
	93	[height=0.5,
		pos="382.14,931.18",
		width=0.75];
	11 -- 93	[pos="512.74,724.92 486.51,766.35 418.85,873.21 392.69,914.53"];
	249	[height=0.5,
		pos="231.97,704.34",
		width=0.75];
	11 -- 249	[pos="496.2,707.8 440.68,707.07 314.71,705.43 259.15,704.7"];
	108	[height=0.5,
		pos="416.39,858.79",
		width=0.75];
	11 -- 108	[pos="511.7,724.56 491.13,753.54 448.59,813.44 428.02,842.4"];
	159	[height=0.5,
		pos="212.4,799.08",
		width=0.75];
	11 -- 159	[pos="498.43,715.44 440.21,732.47 295.78,774.7 237.44,791.76"];
	24	[height=0.5,
		pos="294.01,743.69",
		width=0.75];
	11 -- 24	[pos="497.05,712.23 452.92,719.07 364.52,732.76 320.37,739.6"];
	11 -- 123	[pos="528.1,726.05 528.84,728.81 529.59,731.66 530.32,734.42"];
	11 -- 40	[pos="533.53,724.83 556.02,761.7 609.75,849.78 632.37,886.86"];
	11 -- 39	[pos="550.21,710.28 569.1,711.78 594.3,713.78 613.26,715.29"];
	11 -- 84	[pos="535.93,724.39 569.42,767.67 660.52,885.37 693.83,928.41"];
	11 -- 111	[pos="538.36,723.25 558.86,743.87 595.42,780.66 616.04,801.4"];
	11 -- 28	[pos="497.96,714.74 466.45,722.92 413.03,736.78 381.53,744.95"];
	11 -- 31	[pos="522.65,689.93 521.98,672.61 520.98,646.71 520.32,629.41"];
	173	[height=0.5,
		pos="354.2,882.01",
		width=0.75];
	11 -- 173	[pos="508.64,723.28 476.65,756.16 401.07,833.84 369,866.8"];
	70	[height=0.5,
		pos="507.07,860.47",
		width=0.75];
	11 -- 70	[pos="521.42,726.22 518.29,755.54 512.13,813.12 509,842.42"];
	115	[height=0.5,
		pos="447.19,904.51",
		width=0.75];
	11 -- 115	[pos="516.46,725.92 501.96,763.31 468.45,849.69 454.02,886.92"];
	63	[height=0.5,
		pos="291.65,654.04",
		width=0.75];
	11 -- 63	[pos="497.67,702.16 453.13,691.75 362.06,670.49 317.45,660.07"];
	11 -- 242	[pos="511.9,691.62 499.83,674.2 480.94,646.94 468.93,629.59"];
	211	[height=0.5,
		pos="459.47,783.87",
		width=0.75];
	11 -- 211	[pos="510.12,723.84 499.23,736.75 483.85,754.97 472.91,767.94"];
	220	[height=0.5,
		pos="465.27,948.51",
		width=0.75];
	11 -- 220	[pos="518.99,726.22 508.2,770.87 480.37,886.03 469.61,930.56"];
	156	[height=0.5,
		pos="527.39,973.58",
		width=0.75];
	11 -- 156	[pos="523.63,726.4 524.37,775 526.38,907.21 527.12,955.56"];
	11 -- 188	[pos="544.62,719.7 579.22,738.47 647.27,775.41 681.67,794.08"];
	128	[height=0.5,
		pos="427.99,672.5",
		width=0.75];
	11 -- 128	[pos="499.78,699.34 485.11,693.85 466.3,686.82 451.62,681.33"];
	11 -- 125	[pos="539.52,723.01 577.38,757.8 671.42,844.23 709.08,878.84"];
	287	[height=0.5,
		pos="300.13,699.68",
		width=0.75];
	11 -- 287	[pos="495.98,707.11 453.02,705.48 370.26,702.34 327.38,700.71"];
	239	[height=0.5,
		pos="419.31,723.62",
		width=0.75];
	11 -- 239	[pos="496.83,712.09 481.18,714.42 461.43,717.36 445.79,719.68"];
	186	[height=0.5,
		pos="362.18,655.94",
		width=0.75];
	11 -- 186	[pos="498.88,700.22 468.49,690.38 416.99,673.69 386.63,663.86"];
	274	[height=0.5,
		pos="319.38,795.57",
		width=0.75];
	11 -- 274	[pos="500.35,718.01 461.07,734.84 381.52,768.94 342.29,785.75"];
	292	[height=0.5,
		pos="333.55,568.15",
		width=0.75];
	11 -- 292	[pos="505.15,694.73 468.87,667.97 387.93,608.26 351.69,581.53"];
	271	[height=0.5,
		pos="211.67,755.04",
		width=0.75];
	11 -- 271	[pos="496.78,712.15 437.89,721.01 297,742.21 238.18,751.06"];
	272	[height=0.5,
		pos="291.8,886.15",
		width=0.75];
	11 -- 272	[pos="505.57,721.82 462.47,754.96 352.81,839.25 309.64,872.44"];
	35 -- 68	[pos="805.09,824.05 801.53,839.19 796.5,860.64 792.97,875.69"];
	138 -- 283	[pos="490.46,580.13 518.89,599.36 572.11,635.34 600.51,654.54"];
	138 -- 288	[pos="446.01,560.64 408.13,550.77 337.24,532.31 299.42,522.47"];
	157 -- 177	[pos="1139.9,540.86 1137.1,565.4 1132,608.88 1129.1,633.38"];
	157 -- 197	[pos="1129.9,538.95 1120.4,551.52 1107.4,568.85 1098,581.42"];
	21 -- 108	[pos="590.43,962.22 552.98,939.96 473.8,892.91 436.56,870.78"];
	74	[height=0.5,
		pos="585.67,1082.9",
		width=0.75];
	21 -- 74	[pos="606.72,992.29 602.05,1012.4 594.51,1044.8 589.84,1065"];
	51	[height=0.5,
		pos="370.34,1024.7",
		width=0.75];
	21 -- 51	[pos="584.68,979.86 538.29,989.57 442.25,1009.7 396.14,1019.3"];
	219	[height=0.5,
		pos="494.38,1017.6",
		width=0.75];
	21 -- 219	[pos="587.02,983.23 566.92,990.69 538.3,1001.3 518.2,1008.8"];
	21 -- 80	[pos="636.01,981.2 642.24,982.89 648.92,984.7 655.16,986.4"];
	295	[height=0.5,
		pos="880.58,1115",
		width=0.75];
	21 -- 295	[pos="632.49,985.64 683.12,1012 808.88,1077.6 859.24,1103.9"];
	117	[height=0.5,
		pos="942.69,1111",
		width=0.75];
	21 -- 117	[pos="633.95,983.87 694.65,1008.9 858.31,1076.3 919.34,1101.4"];
	105	[height=0.5,
		pos="556.39,1038.9",
		width=0.75];
	21 -- 105	[pos="597.41,990.31 588.96,1000.3 578.12,1013.1 569.7,1023.1"];
	21 -- 220	[pos="584.51,969.69 558.12,965 517.76,957.83 491.45,953.16"];
	21 -- 134	[pos="636.25,980.83 659.56,986.76 693.91,995.51 717.19,1001.4"];
	13 -- 15	[pos="752.13,347.69 785.25,360.23 844.96,382.83 878.07,395.36"];
	13 -- 120	[pos="733.75,356.56 741.13,381.09 754.33,424.96 761.69,449.41"];
	13 -- 17	[pos="701.2,338.16 639.35,336.93 488.71,333.93 426.83,332.7"];
	34	[height=0.5,
		pos="427.13,244.04",
		width=0.75];
	13 -- 34	[pos="703.73,330.96 647.1,313.16 508.25,269.53 451.7,251.76"];
	91	[height=0.5,
		pos="491.36,302.61",
		width=0.75];
	13 -- 91	[pos="701.65,334.63 656.01,327.68 563.56,313.61 517.99,306.67"];
	85	[height=0.5,
		pos="518.34,204.97",
		width=0.75];
	13 -- 85	[pos="708.62,326.12 668.48,300.57 577.85,242.86 537.89,217.42"];
	13 -- 38	[pos="702.18,334.09 669.2,328.29 612.85,318.38 579.77,312.56"];
	48	[height=0.5,
		pos="387.48,288.12",
		width=0.75];
	13 -- 48	[pos="701.91,334.78 638.4,325.35 477.9,301.54 414.16,292.08"];
	13 -- 106	[pos="702.02,343.14 670.88,348.39 619.38,357.06 588.29,362.3"];
	129	[height=0.5,
		pos="739.48,291.05",
		width=0.75];
	13 -- 129	[pos="732.58,320.69 733.46,316.89 734.39,312.89 735.28,309.09"];
	62	[height=0.5,
		pos="521.03,249.07",
		width=0.75];
	13 -- 62	[pos="705.4,328.77 665.43,311.49 583.61,276.12 543.8,258.91"];
	189	[height=0.5,
		pos="817.11,204.56",
		width=0.75];
	13 -- 189	[pos="739.44,321.99 756.53,296.14 789.18,246.78 806.19,221.07"];
	83	[height=0.5,
		pos="687.35,234.23",
		width=0.75];
	13 -- 83	[pos="721.42,320.98 713.83,301.65 701.76,270.92 694.21,251.69"];
	165	[height=0.5,
		pos="461.67,346.65",
		width=0.75];
	13 -- 165	[pos="701.34,339.51 650.22,341.03 539.96,344.32 488.78,345.84"];
	103	[height=0.5,
		pos="685.34,129.44",
		width=0.75];
	13 -- 103	[pos="724.71,320.86 716.6,281.43 697.22,187.2 689.06,147.54"];
	214	[height=0.5,
		pos="760.49,120.91",
		width=0.75];
	13 -- 214	[pos="731.06,320.51 737.12,279.41 751.81,179.8 757.84,138.9"];
	223	[height=0.5,
		pos="884.6,205.92",
		width=0.75];
	13 -- 223	[pos="745.1,324.49 775.01,299.07 837.37,246.07 867.53,220.43"];
	142	[height=0.5,
		pos="565.58,160.91",
		width=0.75];
	13 -- 142	[pos="714.22,323.24 683.43,289.61 610.69,210.18 579.83,176.47"];
	119	[height=0.5,
		pos="585.12,219.86",
		width=0.75];
	13 -- 119	[pos="711.38,324.6 683.81,301.73 629.65,256.8 602.1,233.94"];
	122	[height=0.5,
		pos="615.44,308.14",
		width=0.75];
	13 -- 122	[pos="703.31,331.92 684.73,326.89 659.49,320.06 640.83,315.01"];
	222	[height=0.5,
		pos="801.53,261.28",
		width=0.75];
	13 -- 222	[pos="742.83,323.41 755.65,309.83 774.29,290.11 787.11,276.54"];
	192	[height=0.5,
		pos="677.44,278.61",
		width=0.75];
	13 -- 192	[pos="715,322.91 707.57,314.15 698.36,303.28 690.91,294.5"];
	15 -- 18	[pos="924.08,394.11 948.63,382.82 987.9,364.76 1012.5,353.46"];
	15 -- 194	[pos="904.03,386.11 905.42,374.68 907.2,360 908.58,348.6"];
	15 -- 94	[pos="928.73,401.66 951.81,399.35 984.88,396.04 1007.9,393.73"];
	15 -- 58	[pos="921.97,391.95 931.64,385.99 943.19,378.88 952.84,372.95"];
	15 -- 129	[pos="882.88,391.13 851.6,369.3 789.5,325.96 758.3,304.19"];
	15 -- 224	[pos="883.43,391.11 866.06,378.6 840.13,359.94 822.68,347.38"];
	15 -- 72	[pos="909,421.97 919.36,447.34 938.36,493.92 948.72,519.33"];
	15 -- 213	[pos="904.59,386.34 909.15,356.75 918.17,298.16 922.76,268.33"];
	14 -- 43	[pos="1357.9,681.29 1383.4,668.71 1425.5,647.95 1451.2,635.29"];
	14 -- 46	[pos="1319.5,677.82 1313.7,672.89 1307.2,667.35 1301.4,662.4"];
	14 -- 81	[pos="1318.3,705.7 1311.4,710.96 1303.6,716.96 1296.7,722.23"];
	114	[height=0.5,
		pos="1535.3,662.83",
		width=0.75];
	14 -- 114	[pos="1362.6,688.13 1400.7,682.55 1470.6,672.31 1508.7,666.72"];
	14 -- 227	[pos="1340.1,710.19 1343.8,727.01 1349.2,751.84 1352.8,768.53"];
	147	[height=0.5,
		pos="1460.4,708.13",
		width=0.75];
	14 -- 147	[pos="1362.8,695.46 1383.8,698.18 1412.8,701.95 1433.8,704.67"];
	284	[height=0.5,
		pos="1361.7,853.55",
		width=0.75];
	14 -- 284	[pos="1339,709.9 1343.9,740.96 1353.9,804.45 1358.8,835.56"];
	182	[height=0.5,
		pos="1481.3,802.36",
		width=0.75];
	14 -- 182	[pos="1354.2,705.75 1382.2,727.02 1435.6,767.62 1463.4,788.78"];
	14 -- 215	[pos="1309,691.92 1283.4,691.85 1245.2,691.74 1219.5,691.67"];
	14 -- 273	[pos="1311.9,700.1 1288.7,707.88 1253.8,719.59 1230.4,727.41"];
	18 -- 194	[pos="1007.9,340.45 987.09,338.34 958.43,335.42 937.63,333.31"];
	18 -- 213	[pos="1017.8,328.62 997.23,311.11 963.01,281.89 942.54,264.42"];
	43 -- 46	[pos="1446.6,627.73 1410.7,632.2 1347.2,640.12 1311.2,644.6"];
	141	[height=0.5,
		pos="1486.4,478.32",
		width=0.75];
	43 -- 141	[pos="1474.9,606.2 1477.5,578.05 1482.3,524.31 1484.8,496.3"];
	43 -- 81	[pos="1452.5,636.36 1415,657.85 1336.7,702.78 1299.4,724.21"];
	43 -- 50	[pos="1453.7,611.73 1424.4,592.82 1369.6,557.42 1340.3,538.54"];
	252	[height=0.5,
		pos="1333.9,431.52",
		width=0.75];
	43 -- 252	[pos="1461.4,607.96 1435.1,571.52 1372,484.33 1345.7,447.93"];
	43 -- 190	[pos="1450.1,614.8 1426,604.84 1388.6,589.38 1364.6,579.46"];
	60	[height=0.5,
		pos="1412.7,463.85",
		width=0.75];
	43 -- 60	[pos="1466.7,606.92 1455.1,576.03 1431,512.18 1419.3,481.31"];
	43 -- 77	[pos="1446.4,622.14 1425.6,620.38 1396.9,617.97 1376.1,616.22"];
	43 -- 114	[pos="1493.3,636.78 1500.3,641.16 1508.3,646.1 1515.4,650.49"];
	43 -- 82	[pos="1457.2,638.86 1432,661.5 1383.5,705.04 1358.3,727.74"];
	43 -- 281	[pos="1448.1,630.88 1444.3,631.84 1440.4,632.83 1436.7,633.8"];
	43 -- 121	[pos="1454,611.45 1446.5,606.38 1437.8,600.59 1430.3,595.53"];
	293	[height=0.5,
		pos="1523.2,735.82",
		width=0.75];
	43 -- 293	[pos="1481.1,641.81 1490.5,662.75 1506.1,697.66 1515.4,718.53"];
	43 -- 227	[pos="1461.5,640.83 1439.1,671.86 1391,738.82 1368.6,769.89"];
	172	[height=0.5,
		pos="1419.2,799.27",
		width=0.75];
	43 -- 172	[pos="1467.8,642.14 1457.4,675.65 1435,747.94 1424.7,781.5"];
	43 -- 147	[pos="1470.5,642.57 1468.3,656.62 1465.4,675.96 1463.2,690"];
	168	[height=0.5,
		pos="1515.2,544.58",
		width=0.75];
	43 -- 168	[pos="1482.4,607.08 1489.5,593.6 1499.3,574.99 1506.3,561.59"];
	148	[height=0.5,
		pos="1424.3,512.12",
		width=0.75];
	43 -- 148	[pos="1465.6,606.86 1456.4,585.77 1441.1,550.58 1431.9,529.54"];
	260	[height=0.5,
		pos="1426,752.59",
		width=0.75];
	43 -- 260	[pos="1466.8,641.96 1457.8,666.37 1441.6,710.32 1432.5,734.83"];
	43 -- 182	[pos="1474.1,642.45 1475.6,676.56 1478.9,750.12 1480.5,784.27"];
	43 -- 221	[pos="1459.7,608.56 1436.1,581.08 1387.9,524.9 1364.3,497.37"];
	43 -- 265	[pos="1458.1,639.36 1445.1,652.17 1426.4,670.54 1413.4,683.35"];
	290	[height=0.5,
		pos="1535.3,598.46",
		width=0.75];
	43 -- 290	[pos="1496.4,614.74 1501.6,612.55 1507.2,610.23 1512.4,608.04"];
	16 -- 151	[pos="557.35,908.51 561.78,899.15 567.21,887.64 571.64,878.27"];
	16 -- 21	[pos="566.63,939.74 574.91,946.22 584.77,953.93 593.08,960.44"];
	16 -- 93	[pos="521.9,926.85 490.85,927.81 440.36,929.38 409.32,930.34"];
	16 -- 74	[pos="553.29,944 560.34,974.27 574.5,1035 581.52,1065.1"];
	16 -- 28	[pos="532.97,911.43 496.66,878.59 408.78,799.11 372.38,766.19"];
	16 -- 181	[pos="524.39,918.03 473.39,901.58 356.99,864.01 306.04,847.57"];
	16 -- 173	[pos="523.21,920.16 485.83,911.73 417.14,896.22 379.88,887.81"];
	16 -- 51	[pos="528.24,937.53 493.88,956.5 425.78,994.12 391.34,1013.1"];
	16 -- 219	[pos="539.06,942.81 529.25,959.24 514.39,984.12 504.54,1000.6"];
	16 -- 80	[pos="570.79,937.11 595.13,949.58 634.4,969.68 658.75,982.15"];
	163	[height=0.5,
		pos="232.75,931.16",
		width=0.75];
	16 -- 163	[pos="521.85,926.45 462.05,927.42 319.88,929.74 260.04,930.71"];
	76	[height=0.5,
		pos="579.22,1126.9",
		width=0.75];
	16 -- 76	[pos="551.82,944.19 557.55,982.44 570.81,1070.8 576.52,1108.9"];
	102	[height=0.5,
		pos="433.98,1068.2",
		width=0.75];
	16 -- 102	[pos="536.11,942.04 514,969.36 469.29,1024.6 447.09,1052"];
	296	[height=0.5,
		pos="378.24,979.08",
		width=0.75];
	16 -- 296	[pos="524.61,933.61 492.23,943.67 435.45,961.31 402.95,971.4"];
	16 -- 105	[pos="550.26,944.14 551.63,965.2 553.86,999.74 555.22,1020.8"];
	16 -- 220	[pos="523.94,932.76 513.33,935.61 501.01,938.92 490.4,941.76"];
	231	[height=0.5,
		pos="254.14,987.49",
		width=0.75];
	16 -- 231	[pos="523.17,931.41 467.37,943.04 336.35,970.35 280.32,982.04"];
	226	[height=0.5,
		pos="316.19,952.39",
		width=0.75];
	16 -- 226	[pos="522.37,929.03 477.57,934.11 387.79,944.28 342.96,949.36"];
	180	[height=0.5,
		pos="432.34,1023.1",
		width=0.75];
	16 -- 180	[pos="531.86,940.33 509.66,958.79 471.31,990.69 449.26,1009"];
	254	[height=0.5,
		pos="669.84,1097.4",
		width=0.75];
	16 -- 254	[pos="560.67,942.44 583.75,975.21 635.24,1048.3 658.29,1081"];
	264	[height=0.5,
		pos="202.05,887.13",
		width=0.75];
	16 -- 264	[pos="522.44,923.02 457.84,915.78 293.49,897.37 228.8,890.12"];
	240	[height=0.5,
		pos="171.37,843.1",
		width=0.75];
	16 -- 240	[pos="523.42,920.37 454.52,905.25 266.02,863.87 197.07,848.74"];
	16 -- 272	[pos="522.52,921.89 473.09,914.24 367.54,897.89 318.22,890.25"];
	93 -- 173	[pos="372.53,914.26 369.75,909.37 366.71,904.03 363.93,899.13"];
	93 -- 296	[pos="380.67,949.29 380.36,953.11 380.03,957.13 379.72,960.95"];
	93 -- 272	[pos="360.27,920.28 346.07,913.2 327.63,904.01 313.47,896.95"];
	152 -- 161	[pos="641.42,463.37 605.6,447.53 536.58,417.01 500.83,401.2"];
	17 -- 201	[pos="411.21,348.71 424.67,367.93 446.74,399.45 460.18,418.66"];
	17 -- 34	[pos="405.19,314.32 409.96,299.04 416.8,277.13 421.57,261.85"];
	41	[height=0.5,
		pos="234.13,325.46",
		width=0.75];
	17 -- 41	[pos="372.66,331.06 341.98,329.82 292.14,327.8 261.35,326.56"];
	17 -- 48	[pos="394.68,314.25 393.92,311.48 393.13,308.63 392.37,305.87"];
	56	[height=0.5,
		pos="337.61,365.81",
		width=0.75];
	17 -- 56	[pos="378.63,343.55 372.16,347.06 365.04,350.92 358.58,354.43"];
	17 -- 106	[pos="425.36,337.63 455.68,344.08 505.78,354.74 536.17,361.21"];
	17 -- 95	[pos="399.85,350.34 399.95,357.72 400.06,366.23 400.15,373.61"];
	203	[height=0.5,
		pos="213.56,369.47",
		width=0.75];
	17 -- 203	[pos="373.75,337.34 338.3,344.45 275,357.14 239.51,364.26"];
	110	[height=0.5,
		pos="212.44,460.45",
		width=0.75];
	17 -- 110	[pos="380.64,345.16 344.76,369.75 267.38,422.79 231.47,447.41"];
	135	[height=0.5,
		pos="205.34,416.41",
		width=0.75];
	17 -- 135	[pos="376.95,341.99 339.62,358.18 265.6,390.28 228.16,406.52"];
	34 -- 85	[pos="450.15,234.18 463.97,228.26 481.5,220.75 495.33,214.83"];
	34 -- 38	[pos="448.84,255.02 471.97,266.72 508.37,285.14 531.55,296.87"];
	34 -- 41	[pos="404.23,253.7 367.09,269.37 294.12,300.15 257,315.81"];
	139	[height=0.5,
		pos="503.51,125.23",
		width=0.75];
	34 -- 139	[pos="437.91,227.27 452.47,204.63 478.26,164.52 492.79,141.92"];
	34 -- 48	[pos="412.82,259.96 409.09,264.1 405.08,268.56 401.37,272.67"];
	34 -- 56	[pos="415.24,260.21 398.12,283.5 366.7,326.25 349.55,349.57"];
	61	[height=0.5,
		pos="611.04,98.791",
		width=0.75];
	34 -- 61	[pos="444.77,230.11 479.92,202.35 558.35,140.4 593.46,112.68"];
	75	[height=0.5,
		pos="325.43,257.23",
		width=0.75];
	34 -- 75	[pos="400.41,247.51 385.46,249.44 366.9,251.85 351.98,253.78"];
	184	[height=0.5,
		pos="296.15,317.33",
		width=0.75];
	34 -- 184	[pos="406.38,255.65 382,269.3 341.77,291.8 317.24,305.53"];
	92	[height=0.5,
		pos="673.14,64.848",
		width=0.75];
	34 -- 92	[pos="445.62,230.57 491.33,197.28 609.19,111.43 654.77,78.229"];
	34 -- 142	[pos="447.26,231.95 473.51,216.19 519.16,188.78 545.42,173.01"];
	34 -- 119	[pos="453.58,239.99 482.74,235.53 529.39,228.39 558.59,223.92"];
	112	[height=0.5,
		pos="354.51,213.19",
		width=0.75];
	34 -- 112	[pos="404.15,234.28 395.59,230.64 385.89,226.52 377.34,222.88"];
	206	[height=0.5,
		pos="546.17,81.182",
		width=0.75];
	34 -- 206	[pos="438.98,227.83 461.68,196.77 511.08,129.19 534.02,97.813"];
	175	[height=0.5,
		pos="749.77,56.073",
		width=0.75];
	34 -- 175	[pos="447.81,232 506.08,198.05 671.21,101.85 729.27,68.017"];
	154	[height=0.5,
		pos="354.76,152.54",
		width=0.75];
	34 -- 154	[pos="414.53,228.1 401.33,211.41 380.71,185.34 367.47,168.6"];
	178	[height=0.5,
		pos="292.46,196.51",
		width=0.75];
	34 -- 178	[pos="403.06,235.54 378.54,226.89 340.76,213.56 316.33,204.93"];
	183	[height=0.5,
		pos="418.3,126.82",
		width=0.75];
	34 -- 183	[pos="425.77,225.98 424.12,204.02 421.34,167.15 419.68,145.09"];
	249 -- 292	[pos="244.02,688.19 263.57,661.97 301.97,610.48 321.51,584.29"];
	249 -- 271	[pos="224.98,721.79 222.96,726.83 220.76,732.34 218.74,737.39"];
	91 -- 223	[pos="516.86,296.34 588,278.85 788.09,229.65 859.16,212.18"];
	91 -- 122	[pos="518.59,303.83 539.28,304.75 567.6,306.01 588.27,306.93"];
	91 -- 192	[pos="518.02,299.17 553.39,294.61 615.48,286.6 650.83,282.04"];
	20 -- 79	[pos="951.62,749.89 960.99,731.48 975.68,702.64 985.02,684.3"];
	20 -- 57	[pos="929.98,751.14 916.09,733.44 894,705.29 880.18,687.68"];
	20 -- 36	[pos="926.18,752.81 899.82,729.59 848.59,684.46 822.2,661.21"];
	20 -- 45	[pos="951.77,784.49 960.08,800.21 972.33,823.38 980.64,839.08"];
	256	[height=0.5,
		pos="1191.1,823.66",
		width=0.75];
	20 -- 256	[pos="968.36,773.19 1016,783.97 1117.5,806.97 1165.2,817.8"];
	20 -- 59	[pos="947.87,785.14 958.14,820.55 981.07,899.56 991.33,934.92"];
	20 -- 69	[pos="937.23,785.2 931.84,802.74 923.66,829.36 918.28,846.85"];
	20 -- 196	[pos="962.35,780.04 1002.2,805.77 1092.3,863.86 1132,889.48"];
	20 -- 88	[pos="969.29,763.68 1007.6,758.35 1077.8,748.58 1116.1,743.24"];
	199	[height=0.5,
		pos="1067.1,894.79",
		width=0.75];
	20 -- 199	[pos="957.47,782.49 981.41,807.01 1028.4,855.18 1052.4,879.69"];
	266	[height=0.5,
		pos="1129.1,857.87",
		width=0.75];
	20 -- 266	[pos="964.83,778.11 1000.7,795.53 1071.2,829.74 1107,847.14"];
	194 -- 213	[pos="914.06,312.69 916.5,299.42 919.81,281.4 922.26,268.08"];
	108 -- 220	[pos="425.81,876.09 434.52,892.08 447.39,915.69 456.04,931.57"];
	22 -- 44	[pos="986.97,417.3 1008.2,430.44 1041.6,451.13 1062.8,464.3"];
	22 -- 150	[pos="970.95,386.98 979.09,349.23 997.88,262.13 1006,224.29"];
	22 -- 55	[pos="991.23,396.88 1054.3,375.76 1223.5,319.14 1286.6,298.03"];
	22 -- 127	[pos="972.49,422.91 983.3,458.68 1007.4,538.48 1018.2,574.2"];
	22 -- 230	[pos="975.02,422.65 984.59,443.91 1000.5,479.38 1010.1,500.59"];
	22 -- 52	[pos="961.53,387.15 946.52,338.83 905.15,205.67 890.16,157.44"];
	22 -- 248	[pos="970.31,387.02 973.83,367.57 979.42,336.7 982.94,317.22"];
	22 -- 109	[pos="974.26,422.37 992.36,466.15 1039.6,580.45 1057.7,624.25"];
	22 -- 238	[pos="982.02,419.97 986.82,424.78 992.13,430.11 996.94,434.92"];
	22 -- 162	[pos="983.52,390.33 1024.2,354.14 1129.1,260.82 1169.7,224.74"];
	22 -- 171	[pos="953.11,389 933.24,366.27 897.04,324.85 877.3,302.27"];
	22 -- 276	[pos="965.47,386.91 961.66,343.9 952.08,235.77 948.27,192.84"];
	57 -- 210	[pos="868.12,689.86 868.19,692.42 868.26,695.05 868.33,697.61"];
	74 -- 80	[pos="601.33,1068.1 618.9,1051.5 647.23,1024.7 664.8,1008.1"];
	187	[height=0.5,
		pos="755.99,1188.8",
		width=0.75];
	74 -- 187	[pos="605.54,1095.3 638.28,1115.6 703.17,1155.9 735.99,1176.3"];
	74 -- 76	[pos="583.01,1101.1 582.63,1103.6 582.25,1106.2 581.87,1108.8"];
	74 -- 102	[pos="558.9,1080.3 531.26,1077.6 488.38,1073.5 460.74,1070.8"];
	74 -- 295	[pos="612.36,1085.8 668.37,1091.9 797.6,1106 853.74,1112.1"];
	289	[height=0.5,
		pos="680.83,1185",
		width=0.75];
	74 -- 289	[pos="600.12,1098.4 618.11,1117.7 648.64,1150.5 666.55,1169.7"];
	74 -- 254	[pos="611.84,1087.4 621.97,1089.2 633.55,1091.2 643.68,1092.9"];
	267	[height=0.5,
		pos="838.17,1202.9",
		width=0.75];
	74 -- 267	[pos="608.08,1093.5 656.12,1116.4 768.51,1169.8 816.17,1192.4"];
	159 -- 287	[pos="226.11,783.55 242.5,764.99 269.76,734.09 286.23,715.43"];
	159 -- 186	[pos="227.87,784.3 256.57,756.87 317.77,698.38 346.58,670.85"];
	159 -- 274	[pos="239.4,798.2 255.61,797.66 276.18,796.99 292.39,796.46"];
	150 -- 248	[pos="1005.4,224.12 1001.2,240.59 994.97,264.86 990.77,281.31"];
	150 -- 164	[pos="988.08,195.35 951.98,177.43 880.3,141.86 844.29,123.99"];
	23 -- 42	[pos="410.35,484.33 423.03,492.34 439.46,502.72 452.16,510.74"];
	23 -- 269	[pos="373.21,457.96 366.76,452.82 359.46,446.99 353.01,441.84"];
	23 -- 146	[pos="417.78,471.37 454.91,470.63 521.21,469.32 558.38,468.59"];
	23 -- 158	[pos="375.5,487.14 368.86,493.82 361.07,501.63 354.41,508.32"];
	23 -- 195	[pos="363.31,471.89 359.09,471.89 354.73,471.89 350.51,471.89"];
	24 -- 123	[pos="321.19,744.64 367.61,746.28 461.61,749.58 507.95,751.21"];
	24 -- 186	[pos="306.52,727.59 318.82,711.76 337.49,687.73 349.76,671.93"];
	123 -- 188	[pos="559.4,759.91 591.18,770.02 646.44,787.59 678.23,797.7"];
	123 -- 128	[pos="516.87,738.65 497.19,724 465.95,700.75 446.23,686.08"];
	123 -- 125	[pos="553.25,765.72 589.57,792.73 670.6,853.01 706.88,880"];
	123 -- 287	[pos="509,746.35 463.72,736.23 371.03,715.52 325.93,705.44"];
	123 -- 239	[pos="509.64,745.9 490.34,741.14 463.93,734.62 444.65,729.87"];
	123 -- 186	[pos="514.18,740.56 480.96,722.06 416.38,686.11 383.11,667.58"];
	123 -- 274	[pos="509.02,757.4 467.57,765.74 386.99,781.96 345.48,790.32"];
	40 -- 84	[pos="662.45,916.43 670.18,921.37 679.01,927.02 686.72,931.95"];
	40 -- 78	[pos="664.47,914.47 707.78,935.72 804.28,983.07 847.8,1004.4"];
	40 -- 70	[pos="618.13,895.94 593.55,888.09 555.96,876.08 531.44,868.25"];
	40 -- 115	[pos="615.51,903.88 578.26,904.02 511.75,904.27 474.46,904.41"];
	40 -- 211	[pos="623.08,890.95 587.82,867.87 514.1,819.62 478.93,796.61"];
	143	[height=0.5,
		pos="618.45,1033.2",
		width=0.75];
	40 -- 143	[pos="639.32,921.77 634.71,946.35 626.5,990.18 621.87,1014.9"];
	40 -- 156	[pos="622.61,915.94 601.57,928.67 568.72,948.56 547.63,961.33"];
	235	[height=0.5,
		pos="701.07,1053.3",
		width=0.75];
	40 -- 235	[pos="649.5,921.22 660.69,949.88 682.84,1006.6 694.12,1035.5"];
	25 -- 71	[pos="1250,512.36 1244.8,522.84 1238.1,536.16 1232.8,546.6"];
	25 -- 46	[pos="1261.8,513.18 1266.7,542.61 1276.4,600.41 1281.4,629.83"];
	25 -- 30	[pos="1261.6,476.91 1266.3,446.96 1275.7,387.51 1280.4,357.64"];
	25 -- 33	[pos="1232.4,490.94 1216.3,488.44 1195.8,485.25 1179.7,482.74"];
	25 -- 96	[pos="1254.4,477.17 1247.1,447.3 1232.6,387.51 1225.3,357.45"];
	25 -- 50	[pos="1280.4,505.84 1286.4,508.83 1293,512.08 1299,515.07"];
	25 -- 252	[pos="1275.8,480.63 1288.2,470.16 1304.8,456.06 1317.1,445.66"];
	25 -- 60	[pos="1284.9,489.75 1313.3,483.99 1358.4,474.85 1386.8,469.11"];
	97	[height=0.5,
		pos="1345.4,334.53",
		width=0.75];
	25 -- 97	[pos="1268,477.86 1284.7,446.97 1319.6,382.39 1336.2,351.58"];
	90	[height=0.5,
		pos="1392.3,380.11",
		width=0.75];
	25 -- 90	[pos="1275.4,480.72 1301,458.69 1349.7,416.74 1375.5,394.61"];
	25 -- 132	[pos="1249,478.06 1240.2,462.47 1227.1,439.49 1218.2,423.92"];
	25 -- 148	[pos="1285.7,497.82 1316.6,501.01 1366.9,506.19 1397.6,509.37"];
	71 -- 97	[pos="1233.4,546.45 1255.9,503.88 1313.9,394.09 1336.4,351.64"];
	71 -- 90	[pos="1238.6,548.02 1270.3,513.34 1346.3,430.36 1378,395.72"];
	71 -- 217	[pos="1204,575.63 1193.5,581.8 1180.8,589.32 1170.3,595.49"];
	26	[height=0.5,
		pos="763.16,1069.8",
		width=0.75];
	26 -- 39	[pos="756.91,1051.9 735.85,991.41 667.68,795.76 646.64,735.36"];
	26 -- 78	[pos="784.75,1058.8 803.26,1049.3 829.79,1035.7 848.3,1026.3"];
	191	[height=0.5,
		pos="1006.2,1122.7",
		width=0.75];
	26 -- 191	[pos="789.17,1075.5 835.94,1085.7 933.71,1106.9 980.35,1117.1"];
	26 -- 143	[pos="737.62,1063.3 711.17,1056.6 670.09,1046.2 643.73,1039.6"];
	207	[height=0.5,
		pos="878.88,1064.9",
		width=0.75];
	26 -- 207	[pos="790.29,1068.7 808.87,1067.9 833.39,1066.8 851.92,1066"];
	26 -- 116	[pos="775.23,1053.6 795.06,1027.1 834.31,974.45 854.29,947.66"];
	39 -- 113	[pos="622.41,703.95 608.5,693.53 589.34,679.16 575.44,668.74"];
	39 -- 170	[pos="660.19,729.91 700.29,755.16 790.72,812.12 830.9,837.43"];
	39 -- 70	[pos="626.13,732.75 600.6,760.13 547.38,817.22 521.64,844.84"];
	39 -- 211	[pos="616.74,726.12 582.07,738.86 517.8,762.45 483.13,775.18"];
	39 -- 143	[pos="639.12,735.78 635.23,791.71 623.56,959.68 619.7,1015.2"];
	39 -- 207	[pos="651.9,734.2 692.28,793.03 827.3,989.72 867.5,1048.3"];
	39 -- 116	[pos="656.3,732.47 697.94,771.8 809.74,877.43 851.01,916.43"];
	39 -- 176	[pos="667.5,717.43 682.54,717.43 701.19,717.43 716.26,717.43"];
	46 -- 71	[pos="1272.5,631.29 1261.9,616.42 1246.4,594.77 1235.9,580"];
	46 -- 252	[pos="1288.5,629.86 1297.9,589.02 1320.5,490.04 1329.8,449.4"];
	46 -- 60	[pos="1295.8,631.61 1320.1,596.76 1376.8,515.46 1401.2,480.41"];
	46 -- 172	[pos="1298.3,663.57 1324.1,692.57 1379.2,754.4 1405.1,783.51"];
	46 -- 147	[pos="1308.5,656.19 1342.1,667.68 1402.7,688.4 1436.3,699.89"];
	46 -- 284	[pos="1291,665.47 1305.6,704.32 1340.5,797.26 1355.1,836.06"];
	46 -- 148	[pos="1299.9,632.89 1326.8,606.78 1381.8,553.4 1408.7,527.24"];
	46 -- 260	[pos="1302.6,661.41 1329.8,681.5 1380.7,719.11 1407.8,739.17"];
	46 -- 215	[pos="1262.1,658.51 1247.5,665.37 1228.7,674.28 1214.2,681.12"];
	84 -- 111	[pos="696.29,927.49 681.95,903.06 655.63,858.22 641.26,833.75"];
	84 -- 156	[pos="679.86,948.75 646.04,954.26 587.76,963.75 553.89,969.27"];
	84 -- 235	[pos="705.37,962.91 704.41,983.05 702.89,1015.1 701.94,1035.1"];
	282	[height=0.5,
		pos="818.53,1117.2",
		width=0.75];
	84 -- 282	[pos="717.01,961.02 738.42,993.95 786.12,1067.3 807.63,1100.4"];
	111 -- 123	[pos="611.79,803.65 594.98,792.38 570.85,776.19 554.15,764.99"];
	111 -- 156	[pos="620.34,833.21 600.45,863.26 558.5,926.61 538.48,956.84"];
	111 -- 128	[pos="612.5,803.41 573.78,775.93 485.39,713.22 446.7,685.77"];
	111 -- 125	[pos="648.46,830.8 665.38,844.66 691.07,865.69 707.95,879.51"];
	111 -- 239	[pos="608.58,806.75 567.89,788.88 482.95,751.57 442.15,733.65"];
	27 -- 66	[pos="1084.3,809.14 1113,802.58 1158.8,792.07 1187.4,785.53"];
	27 -- 98	[pos="1044.5,799.4 1036.8,790.71 1027.2,779.93 1019.4,771.22"];
	27 -- 131	[pos="1084.3,820.83 1121.7,829.16 1190.3,844.46 1227.5,852.76"];
	27 -- 126	[pos="1039.9,801.73 1015.7,784.34 973.65,754.09 949.45,736.69"];
	89	[height=0.5,
		pos="1208.7,946.32",
		width=0.75];
	27 -- 89	[pos="1075.1,829.61 1104,854.84 1163.1,906.43 1192,931.7"];
	27 -- 100	[pos="1081.8,824.29 1124.5,841.14 1214.7,876.71 1257.4,893.56"];
	234	[height=0.5,
		pos="1094.6,1009.8",
		width=0.75];
	27 -- 234	[pos="1061.8,833.03 1068.7,870.12 1084.4,954.78 1091.3,991.83"];
	27 -- 133	[pos="1078,827.79 1118.5,854.05 1210.8,914 1251.2,940.24"];
	202	[height=0.5,
		pos="1159,1010.6",
		width=0.75];
	27 -- 202	[pos="1067.4,832.42 1086.5,869.63 1131.3,956.69 1150.2,993.61"];
	27 -- 297	[pos="1068.4,831.89 1085.4,860.53 1119.6,918.47 1136.6,947.23"];
	28 -- 181	[pos="342.8,767.28 329.28,783.21 308.48,807.72 294.9,823.71"];
	28 -- 49	[pos="360.94,733.52 370.44,697.61 391.64,617.48 401.12,581.62"];
	28 -- 67	[pos="343.92,735.34 316.3,698.86 249.47,610.58 221.79,574.01"];
	28 -- 63	[pos="345.23,734.99 333.36,717.07 314.53,688.62 302.65,670.66"];
	99	[height=0.5,
		pos="96.745,744.67",
		width=0.75];
	28 -- 99	[pos="328.9,750.81 279.07,749.49 173.88,746.71 124.04,745.39"];
	28 -- 185	[pos="340.73,736.58 312.95,709.69 254.88,653.48 227.18,626.66"];
	124	[height=0.5,
		pos="80.571,559.24",
		width=0.75];
	28 -- 124	[pos="337.23,738.32 286.76,703.1 149.49,607.33 99.283,572.3"];
	28 -- 286	[pos="330.26,745.9 294.67,738.16 231.02,724.33 195.54,716.62"];
	28 -- 271	[pos="328.99,752.19 303.16,752.82 264.52,753.76 238.73,754.39"];
	28 -- 272	[pos="347.89,768.86 335.53,794.71 312.39,843.09 300.05,868.9"];
	29 -- 35	[pos="751.48,680.05 764.13,707.55 788.72,761.03 801.38,788.57"];
	29 -- 283	[pos="716.32,663.79 695.64,664.56 667.32,665.61 646.65,666.37"];
	30 -- 96	[pos="1256.1,339.48 1253.4,339.47 1250.8,339.46 1248.2,339.45"];
	30 -- 212	[pos="1277.2,357.51 1270.2,378.3 1258.7,412.39 1251.7,433.15"];
	30 -- 101	[pos="1278.8,357.49 1278,360.4 1277.3,363.41 1276.5,366.32"];
	208	[height=0.5,
		pos="1407.4,291.17",
		width=0.75];
	30 -- 208	[pos="1306.6,330.51 1328.7,321.9 1361.6,309.06 1383.8,300.41"];
	30 -- 277	[pos="1256.5,335.8 1221.1,330.73 1158.9,321.84 1123.5,316.77"];
	30 -- 132	[pos="1267,354.24 1254.5,365.54 1237.2,381.11 1224.7,392.4"];
	174	[height=0.5,
		pos="1244.3,160.56",
		width=0.75];
	30 -- 174	[pos="1279.3,321.8 1271.9,287.56 1255.7,212.96 1248.2,178.58"];
	232	[height=0.5,
		pos="1369.6,203.01",
		width=0.75];
	30 -- 232	[pos="1293.8,322.87 1310.4,296.65 1342.3,246.2 1358.9,219.9"];
	225	[height=0.5,
		pos="1164.2,127.74",
		width=0.75];
	30 -- 225	[pos="1273.7,322.64 1251.4,282.97 1196.1,184.56 1173.7,144.8"];
	298	[height=0.5,
		pos="1470.2,335.35",
		width=0.75];
	30 -- 298	[pos="1310.4,339 1345.9,338.19 1407.5,336.78 1443,335.97"];
	30 -- 257	[pos="1256.2,337.24 1235.4,335.4 1206.6,332.86 1185.8,331.02"];
	31 -- 113	[pos="533.29,627.16 536.76,631.2 540.49,635.53 543.96,639.56"];
	32 -- 137	[pos="522.08,574.62 493.92,582.92 448.47,596.33 420.4,604.61"];
	32 -- 54	[pos="534.4,551.09 521.91,535.21 502.96,511.1 490.5,495.25"];
	32 -- 146	[pos="553.97,549.51 560.97,531.45 571.76,503.63 578.74,485.63"];
	32 -- 140	[pos="564.88,553.55 571.7,548.3 579.49,542.3 586.33,537.04"];
	32 -- 86	[pos="544.05,549.34 543.59,546.67 543.13,543.92 542.67,541.25"];
	54 -- 140	[pos="501.96,487.59 524.46,495.42 557.85,507.04 580.32,514.86"];
	33 -- 71	[pos="1166.7,494.64 1179.4,509.84 1198.3,532.57 1211,547.75"];
	33 -- 96	[pos="1161.8,461.28 1174.8,434.43 1199.7,383.17 1212.6,356.46"];
	33 -- 263	[pos="1144.6,461.42 1133.9,440.7 1116.2,406.15 1105.6,385.49"];
	33 -- 53	[pos="1137.8,493.37 1125.5,505.07 1108.3,521.37 1095.8,533.12"];
	33 -- 97	[pos="1171.5,465.09 1208.1,437.62 1290.6,375.68 1327.3,348.16"];
	33 -- 217	[pos="1152.9,496.82 1152.3,521.37 1151.2,564.85 1150.5,589.35"];
	33 -- 101	[pos="1170.9,464.71 1193.3,446.85 1232,416.08 1254.5,398.19"];
	33 -- 277	[pos="1147.3,460.91 1136.5,429.03 1113.7,362.36 1102.8,330.57"];
	33 -- 145	[pos="1151.5,460.55 1150.5,451.2 1149.4,439.83 1148.4,430.49"];
	33 -- 177	[pos="1150.6,496.81 1145.5,530.09 1134.8,600.45 1129.7,633.54"];
	96 -- 97	[pos="1247.9,338.27 1268.8,337.47 1297.6,336.37 1318.4,335.57"];
	179	[height=0.5,
		pos="1288.1,205.01",
		width=0.75];
	96 -- 179	[pos="1229.5,322.03 1242.4,296.24 1266.6,247.98 1279.5,222.23"];
	96 -- 101	[pos="1237.4,353.76 1243.2,358.89 1249.8,364.65 1255.6,369.78"];
	96 -- 174	[pos="1223.3,321.19 1227.8,286.93 1237.4,213.03 1241.9,178.73"];
	209	[height=0.5,
		pos="1377,247.07",
		width=0.75];
	96 -- 209	[pos="1241.3,327.25 1271.2,309.57 1326.7,276.81 1356.6,259.13"];
	96 -- 225	[pos="1216.1,321.27 1205.3,281.3 1179.7,185.66 1169,145.74"];
	85 -- 103	[pos="540.86,194.79 572.82,180.33 630.99,154.02 662.91,139.59"];
	85 -- 119	[pos="543.97,210.69 548.97,211.8 554.22,212.97 559.23,214.09"];
	85 -- 175	[pos="538.07,192.28 581.79,164.15 686.41,96.837 730.09,68.736"];
	68 -- 167	[pos="769.01,881.05 732.22,857.83 653.65,808.26 616.94,785.09"];
	36 -- 47	[pos="818.38,662.91 854.41,708.93 956.5,839.32 992.4,885.17"];
	36 -- 79	[pos="832.56,649.52 868.34,653.4 931.14,660.22 966.9,664.1"];
	36 -- 152	[pos="792.55,630.61 765.63,597.63 704.16,522.35 677.26,489.4"];
	130	[height=0.5,
		pos="1032.6,996.67",
		width=0.75];
	36 -- 130	[pos="816.54,663.47 854.97,722.75 983.47,920.94 1021.7,979.95"];
	36 -- 45	[pos="819.43,662.34 853.63,701.27 941.82,801.67 975.92,840.49"];
	36 -- 256	[pos="827.99,656.87 896.13,688.17 1100.4,782.01 1168.7,813.35"];
	36 -- 169	[pos="820.21,661.97 868.43,712.73 1022.2,874.59 1070.2,925.13"];
	36 -- 199	[pos="821.17,661.37 867.57,705.41 1004.6,835.42 1051.3,879.77"];
	36 -- 266	[pos="825.35,659.49 883.24,697.29 1052.1,807.54 1109.6,845.14"];
	131 -- 297	[pos="1237.9,873.63 1217.7,893.73 1182.1,929.01 1161.9,949.1"];
	38 -- 152	[pos="564.43,324.4 585.57,355.96 631.57,424.66 652.93,456.55"];
	38 -- 91	[pos="526.37,305.61 523.75,305.38 521.1,305.16 518.49,304.93"];
	38 -- 155	[pos="554.59,326.02 555.83,344.98 557.77,374.59 559.02,393.61"];
	38 -- 56	[pos="528.22,314.67 486.75,325.8 404.54,347.85 362.96,359.01"];
	38 -- 129	[pos="580.46,305.47 615.84,302.26 677.45,296.67 712.69,293.48"];
	38 -- 62	[pos="544.04,290.9 539.78,283.16 534.75,274.02 530.48,266.26"];
	38 -- 75	[pos="527.69,302.2 483.79,292.44 394.88,272.67 351.05,262.92"];
	38 -- 224	[pos="580.22,310.7 628.34,315.7 728.78,326.14 777.03,331.15"];
	38 -- 184	[pos="526.36,308.91 476.95,310.71 372.64,314.53 323.21,316.34"];
	38 -- 95	[pos="532.44,319.39 503.31,335.34 450.84,364.06 421.58,380.08"];
	38 -- 112	[pos="531.35,297.42 493.12,279.21 414.95,241.97 376.65,223.73"];
	38 -- 122	[pos="580.43,308.01 583.04,308.02 585.69,308.03 588.31,308.04"];
	38 -- 161	[pos="539.24,323.57 525.78,338.46 505.65,360.71 492.2,375.57"];
	278	[height=0.5,
		pos="275.58,378.96",
		width=0.75];
	38 -- 278	[pos="527.76,314.47 474.83,328.01 354.03,358.9 301.15,372.42"];
	38 -- 192	[pos="579.1,301.84 600.39,296.81 630.5,289.7 651.78,284.67"];
	155 -- 161	[pos="534.69,405.42 524.8,402.92 513.51,400.08 503.62,397.59"];
	41 -- 48	[pos="259.79,319.21 288.19,312.29 333.66,301.22 361.98,294.33"];
	41 -- 106	[pos="260.68,328.8 322.13,336.53 473.56,355.58 535.25,363.34"];
	139 -- 154	[pos="477.26,130.05 450.15,135.03 408.1,142.75 381,147.72"];
	139 -- 178	[pos="479.3,133.41 438.7,147.12 357.34,174.59 316.71,188.31"];
	205	[height=0.5,
		pos="230.28,190.01",
		width=0.75];
	139 -- 205	[pos="477.81,131.32 425.73,143.67 308.3,171.51 256.11,183.88"];
	237 -- 262	[pos="874.31,557.81 866.24,566.74 856.13,577.94 848.03,586.9"];
	130 -- 199	[pos="1038.6,978.92 1044.9,960.34 1054.7,931.31 1061,912.67"];
	78 -- 84	[pos="847.11,1005.4 815.94,991.91 760.27,967.83 729.07,954.33"];
	78 -- 191	[pos="887.4,1029.1 913.57,1049.7 962.56,1088.3 988.69,1108.9"];
	78 -- 143	[pos="842.95,1017.2 794.69,1020.6 693.94,1027.8 645.54,1031.2"];
	78 -- 207	[pos="873.11,1033.2 873.92,1037.6 874.79,1042.4 875.6,1046.8"];
	78 -- 116	[pos="869.15,997 868.6,982.89 867.85,963.46 867.3,949.36"];
	250	[height=0.5,
		pos="988.51,1166.8",
		width=0.75];
	78 -- 250	[pos="882.55,1031.5 905.39,1060.6 953.13,1121.6 975.91,1150.7"];
	48 -- 85	[pos="407.07,275.67 431.74,260 473.88,233.22 498.61,217.51"];
	48 -- 61	[pos="404.28,273.89 445.71,238.8 552.41,148.45 594.04,113.19"];
	48 -- 106	[pos="409.94,298.24 443.46,313.33 506.2,341.57 539.68,356.64"];
	48 -- 103	[pos="408.9,276.71 463.86,247.43 609.37,169.91 664.11,140.75"];
	212 -- 277	[pos="1229.8,436.23 1201.1,409.66 1141.2,354.12 1112.7,327.63"];
	107	[height=0.5,
		pos="136.84,429.46",
		width=0.75];
	56 -- 107	[pos="312.99,373.62 274.35,385.87 199.91,409.46 161.34,421.69"];
	56 -- 95	[pos="360.63,375.3 366.09,377.55 371.91,379.95 377.37,382.2"];
	56 -- 110	[pos="319.68,379.37 295.88,397.36 254.12,428.94 230.34,446.91"];
	236	[height=0.5,
		pos="84.929,491.15",
		width=0.75];
	56 -- 236	[pos="315.63,376.72 267.72,400.48 154.38,456.7 106.68,480.36"];
	170 -- 176	[pos="837.86,833.98 817.24,808.5 777.17,758.98 756.53,733.46"];
	70 -- 115	[pos="488.78,873.92 481.35,879.39 472.79,885.68 465.37,891.14"];
	70 -- 211	[pos="496.5,843.47 488.56,830.69 477.73,813.27 469.84,800.56"];
	70 -- 143	[pos="517.75,877.03 538.98,909.95 586.3,983.3 607.64,1016.4"];
	115 -- 156	[pos="463.81,918.82 477.57,930.68 497.04,947.44 510.8,959.29"];
	115 -- 235	[pos="467.54,916.43 515.08,944.29 633,1013.4 680.63,1041.3"];
	191 -- 250	[pos="999.19,1140.1 997.99,1143.1 996.75,1146.2 995.56,1149.2"];
	141 -- 168	[pos="1494,495.73 1498.2,505.39 1503.4,517.38 1507.6,527.06"];
	141 -- 148	[pos="1465.4,489.77 1458.9,493.29 1451.8,497.17 1445.3,500.69"];
	81 -- 121	[pos="1292.4,720.24 1317.8,690.85 1372,628.2 1397.5,598.7"];
	81 -- 227	[pos="1298.4,748.76 1310.3,756.44 1325.4,766.19 1337.3,773.84"];
	81 -- 273	[pos="1251.6,735.9 1245.6,735.86 1239.3,735.82 1233.3,735.79"];
	50 -- 252	[pos="1323.3,507.72 1325.6,491 1329,466.36 1331.3,449.67"];
	50 -- 190	[pos="1329,543.32 1330.5,546.39 1332,549.6 1333.4,552.67"];
	50 -- 60	[pos="1339.8,513.05 1355.6,502.4 1377.9,487.34 1393.7,476.69"];
	55 -- 238	[pos="1289.2,301.47 1234.1,331 1088.2,409.19 1033.3,438.61"];
	55 -- 162	[pos="1291.2,277.49 1267.9,262.59 1229.2,237.8 1205.8,222.83"];
	230 -- 248	[pos="1015.4,500.23 1009.4,459.17 994.84,358.65 988.84,317.35"];
	230 -- 238	[pos="1016.4,499.89 1015.5,490.11 1014.5,478.11 1013.6,468.32"];
	45 -- 47	[pos="995.67,873.75 996.78,877.03 997.95,880.45 999.06,883.72"];
	45 -- 130	[pos="995.1,873.94 1003.3,900.97 1018.9,952.07 1027.2,979.01"];
	45 -- 169	[pos="1006.2,870.81 1023.6,886.27 1050.9,910.46 1068.3,925.85"];
	45 -- 69	[pos="962.79,859.09 955.26,859.92 947.08,860.81 939.56,861.64"];
	45 -- 65	[pos="987.99,874.12 984.3,913.85 975.48,1008.8 971.77,1048.8"];
	45 -- 149	[pos="1000,872.98 1023.3,910.92 1079.7,1002.7 1103,1040.8"];
	45 -- 199	[pos="1011.6,867.11 1022.2,872.38 1034.8,878.67 1045.3,883.92"];
	45 -- 294	[pos="969.85,868.44 934.31,890.5 860.13,936.55 824.49,958.67"];
	166 -- 294	[pos="915.39,919.06 890.81,930.59 851.5,949.03 826.9,960.57"];
	166 -- 200	[pos="949.27,924.87 967.43,950.32 1002.4,999.31 1020.6,1024.8"];
	256 -- 266	[pos="1170.1,835.24 1163.7,838.81 1156.6,842.73 1150.1,846.3"];
	61 -- 85	[pos="597.36,114.46 579.83,134.53 549.62,169.13 532.07,189.24"];
	49 -- 138	[pos="432.9,565.14 436.71,565.35 440.63,565.56 444.43,565.77"];
	49 -- 67	[pos="378.57,562.83 341.04,561.7 273.95,559.68 236.55,558.55"];
	49 -- 63	[pos="388.03,577.78 366.57,594.76 330.78,623.08 309.37,640.02"];
	49 -- 242	[pos="421.4,578.54 427.94,584.81 435.55,592.1 442.1,598.38"];
	49 -- 64	[pos="379.91,569.67 330.71,581.07 224.42,605.7 175.46,617.04"];
	49 -- 136	[pos="378.68,564.49 355.37,565.21 321.96,566.24 298.66,566.95"];
	49 -- 185	[pos="380.51,569.95 343.32,579.18 274.4,596.29 237.21,605.52"];
	49 -- 124	[pos="378.7,563.29 317.47,562.46 169.28,560.45 107.9,559.61"];
	49 -- 288	[pos="382.02,555.01 358.29,546.4 322.08,533.27 298.25,524.63"];
	49 -- 216	[pos="380.27,557.13 342.63,547.54 272.78,529.73 235.32,520.18"];
	243	[height=0.5,
		pos="147.97,485.21",
		width=0.75];
	49 -- 243	[pos="381.15,556.14 331.85,541.14 221.86,507.69 172.63,492.71"];
	67 -- 185	[pos="210.26,575.74 210.51,581.52 210.79,587.92 211.05,593.7"];
	67 -- 118	[pos="184.6,565.21 178.96,566.9 172.98,568.7 167.35,570.4"];
	67 -- 73	[pos="186.37,548.04 181.14,545.84 175.58,543.51 170.36,541.32"];
	67 -- 218	[pos="202.59,575.29 194.61,595.69 181.51,629.13 173.53,649.51"];
	67 -- 286	[pos="204.85,575.62 197.21,605.16 182.06,663.8 174.45,693.26"];
	259	[height=0.5,
		pos="27,604.45",
		width=0.75];
	67 -- 259	[pos="184.1,564.23 149.33,573.13 87.253,589.03 52.449,597.94"];
	51 -- 74	[pos="395.46,1031.5 436.84,1042.7 518.88,1064.9 560.38,1076.1"];
	51 -- 219	[pos="397.25,1023.2 417.92,1022 446.33,1020.4 467.09,1019.2"];
	51 -- 163	[pos="351.21,1011.7 324.92,993.85 277.92,961.88 251.72,944.06"];
	51 -- 102	[pos="389.43,1037.8 397.49,1043.3 406.85,1049.7 414.9,1055.2"];
	51 -- 105	[pos="397.39,1026.8 432.67,1029.5 494.01,1034.1 529.3,1036.8"];
	160	[height=0.5,
		pos="461.5,1183.8",
		width=0.75];
	51 -- 160	[pos="380.09,1041.8 397.64,1072.4 434.32,1136.4 451.81,1166.9"];
	285	[height=0.5,
		pos="336.99,1106.3",
		width=0.75];
	51 -- 285	[pos="363.1,1042.4 357.47,1056.2 349.7,1075.2 344.1,1088.9"];
	279	[height=0.5,
		pos="308.32,1062.2",
		width=0.75];
	51 -- 279	[pos="350.03,1037 343.11,1041.2 335.37,1045.9 328.46,1050.1"];
	51 -- 231	[pos="345.98,1016.9 326.28,1010.6 298.66,1001.8 278.87,995.42"];
	51 -- 226	[pos="358.05,1008.3 349.19,996.48 337.28,980.57 328.43,968.74"];
	51 -- 180	[pos="397.35,1024 399.96,1024 402.61,1023.9 405.22,1023.8"];
	244	[height=0.5,
		pos="404.32,1138.9",
		width=0.75];
	51 -- 244	[pos="375.65,1042.6 382.03,1064 392.68,1099.8 399.05,1121.2"];
	51 -- 264	[pos="353.28,1010.8 321.02,984.41 251.45,927.52 219.16,901.11"];
	51 -- 240	[pos="354.39,1010.2 317.14,976.17 224.72,891.8 187.39,857.72"];
	190 -- 221	[pos="1343.5,551.61 1345.1,536.32 1347.3,514.66 1348.8,499.46"];
	52 -- 150	[pos="905.9,150.98 928.94,163.21 965.5,182.61 988.59,194.86"];
	52 -- 251	[pos="858.11,143.43 808.87,150.35 703.86,165.11 654.43,172.06"];
	52 -- 248	[pos="895.32,156.47 914.78,187.02 955.79,251.42 975.37,282.16"];
	52 -- 245	[pos="858.52,145.03 834.11,150.01 797.87,157.41 773.5,162.39"];
	52 -- 164	[pos="861.88,129.99 856.48,127.68 850.72,125.23 845.33,122.92"];
	52 -- 171	[pos="882.06,157.71 878.01,185.89 870.22,240.12 866.16,268.39"];
	258	[height=0.5,
		pos="881.97,18",
		width=0.75];
	52 -- 258	[pos="884.25,121.48 883.74,98.538 882.88,59.346 882.37,36.344"];
	251 -- 258	[pos="647.61,163.44 695.15,133.94 814.66,59.771 862.1,30.327"];
	53 -- 157	[pos="1103.1,538.61 1108.2,536.52 1113.6,534.31 1118.7,532.22"];
	53 -- 145	[pos="1088.5,530.88 1101.2,504.93 1125.2,456 1138,429.88"];
	53 -- 177	[pos="1088,565.61 1096.7,584.74 1110.5,615.16 1119.1,634.19"];
	80 -- 295	[pos="700.77,1005.6 739.22,1029 822.27,1079.5 860.54,1102.8"];
	80 -- 117	[pos="703.29,1003.5 753.01,1025.8 870.63,1078.7 920.12,1100.9"];
	80 -- 134	[pos="706.06,999.3 709.67,1000.1 713.37,1001 716.97,1001.9"];
	245 -- 251	[pos="720.58,169.52 700.98,170.85 674.54,172.64 654.87,173.98"];
	245 -- 270	[pos="727.28,179.88 696.61,198.38 638.64,233.36 608.07,251.81"];
	109 -- 127	[pos="1051.6,625.72 1046.9,620.06 1041.6,613.69 1036.9,608.03"];
	86 -- 137	[pos="519.58,535.56 492.07,552.5 442.88,582.8 415.45,599.69"];
	86 -- 146	[pos="552.9,507.27 558.94,500.01 566.08,491.44 572.14,484.17"];
	107 -- 236	[pos="123.47,445.35 115.78,454.49 106.15,465.94 98.432,475.1"];
	59 -- 69	[pos="981.9,937.29 966.64,921.23 942.81,896.14 927.51,880.03"];
	58 -- 261	[pos="982.06,343.69 993.14,323.39 1011.6,289.62 1022.7,269.22"];
	58 -- 129	[pos="947.83,353.21 902.92,339.82 809.05,311.81 764.27,298.45"];
	58 -- 224	[pos="946.43,356.49 914.82,351.49 862.15,343.16 830.5,338.15"];
	58 -- 213	[pos="965.21,342.88 956.35,322.1 941.79,287.94 933,267.34"];
	129 -- 224	[pos="758.85,303.93 767.02,309.36 776.52,315.66 784.69,321.09"];
	129 -- 213	[pos="765.36,285.34 800.92,277.49 864.49,263.45 899.94,255.62"];
	69 -- 199	[pos="939,869.69 967.46,875.27 1012.7,884.12 1041.1,889.69"];
	69 -- 294	[pos="897.32,879.83 876.73,900.07 840.6,935.6 820.03,955.83"];
	60 -- 141	[pos="1438.9,468.99 1445.9,470.36 1453.4,471.83 1460.3,473.2"];
	60 -- 252	[pos="1389.5,454.32 1379.2,450.11 1367.2,445.18 1356.9,440.98"];
	60 -- 168	[pos="1430.6,477.91 1449.4,492.73 1478.9,515.92 1497.6,530.68"];
	60 -- 148	[pos="1417.1,481.82 1418,485.9 1419.1,490.22 1420,494.29"];
	62 -- 139	[pos="518.48,231.06 515.16,207.58 509.38,166.75 506.06,143.26"];
	62 -- 189	[pos="547.56,245.08 603.77,236.63 734.28,217.01 790.53,208.56"];
	62 -- 214	[pos="542.28,237.7 587.72,213.37 693.89,156.55 739.29,132.26"];
	87	[height=0.5,
		pos="811.95,33.297",
		width=0.75];
	62 -- 87	[pos="539.23,235.57 591.47,196.82 741.52,85.533 793.75,46.789"];
	62 -- 92	[pos="534.26,233.04 563.1,198.11 631.33,115.48 660.04,80.706"];
	62 -- 112	[pos="495.01,243.46 463.73,236.72 411.55,225.48 380.35,218.75"];
	62 -- 122	[pos="541.05,261.6 557.07,271.62 579.43,285.61 595.45,295.63"];
	189 -- 214	[pos="805.93,188.03 796,173.37 781.57,152.06 771.66,137.4"];
	63 -- 249	[pos="274.71,668.32 266.57,675.18 256.86,683.37 248.74,690.2"];
	63 -- 99	[pos="269.29,664.44 231.8,681.87 156.66,716.81 119.14,734.26"];
	63 -- 242	[pos="317.22,647.76 348.4,640.09 400.81,627.21 432.01,619.54"];
	63 -- 124	[pos="269.06,643.9 228.43,625.65 143.51,587.51 103,569.32"];
	63 -- 243	[pos="278.13,638.16 250.75,605.98 189,533.42 161.56,501.18"];
	63 -- 292	[pos="300.13,636.66 307.4,621.76 317.82,600.4 325.08,585.5"];
	63 -- 271	[pos="278.8,670.27 263.87,689.12 239.4,720.03 224.49,738.86"];
	99 -- 124	[pos="95.165,726.55 92.073,691.1 85.255,612.94 82.158,577.43"];
	75 -- 184	[pos="316.96,274.61 313.04,282.65 308.4,292.18 304.5,300.19"];
	75 -- 112	[pos="336.43,240.58 338.74,237.07 341.19,233.37 343.5,229.86"];
	242 -- 243	[pos="434.59,603.73 377.26,580.03 228.63,518.56 171.15,494.79"];
	242 -- 292	[pos="433.69,604.55 411.72,596.57 379.34,584.79 357.39,576.82"];
	224 -- 261	[pos="828.02,325.34 871.82,309.6 964.3,276.37 1008.1,260.62"];
	64 -- 67	[pos="163.94,607.52 173.32,597.27 185.58,583.86 195.02,573.54"];
	64 -- 185	[pos="176.11,618.25 179.28,617.68 182.52,617.1 185.69,616.53"];
	64 -- 73	[pos="149.34,604.95 148.93,589.05 148.33,566 147.92,550.01"];
	64 -- 216	[pos="159.21,605.92 170.52,585.39 189.39,551.15 200.67,530.68"];
	64 -- 259	[pos="123.46,619.01 102.88,615.91 74.401,611.61 53.725,608.49"];
	65 -- 166	[pos="966.42,1049.1 960.19,1018.7 947.61,957.18 941.36,926.64"];
	65 -- 149	[pos="997.03,1065.2 1022.5,1063.6 1060.5,1061.1 1086.1,1059.5"];
	65 -- 241	[pos="993.37,1076.4 1009.6,1083 1031.1,1091.8 1047.3,1098.3"];
	65 -- 294	[pos="949.44,1055 917.64,1036.6 856.98,1001.4 825.17,983.01"];
	65 -- 200	[pos="993.23,1057.4 998.48,1055.2 1004.1,1052.9 1009.3,1050.8"];
	268	[height=0.5,
		pos="1051.2,1177.3",
		width=0.75];
	65 -- 268	[pos="982.04,1083.3 997.38,1104.1 1023.8,1140.1 1039.2,1161"];
	136 -- 138	[pos="298.88,567.71 337.16,567.61 406.25,567.42 444.35,567.32"];
	136 -- 288	[pos="272.42,549.63 272.68,544.6 272.95,539.15 273.21,534.11"];
	149 -- 241	[pos="1099.8,1073.5 1094.8,1079.4 1089.2,1086 1084.1,1091.8"];
	149 -- 268	[pos="1104.5,1074.9 1092.7,1097.6 1071.9,1137.5 1060.1,1160.2"];
	185 -- 286	[pos="204.34,629.56 196.69,647.62 184.91,675.45 177.29,693.45"];
	291	[height=0.5,
		pos="1293.3,1032.8",
		width=0.75];
	247 -- 291	[pos="1346.3,917.37 1334.6,942.81 1313,989.98 1301.3,1015.4"];
	247 -- 299	[pos="1348.3,917.77 1347,921.52 1345.7,925.47 1344.4,929.21"];
	118 -- 218	[pos="147.54,595.87 151.73,611.45 157.74,633.82 161.91,649.31"];
	118 -- 259	[pos="117.01,583.73 97.837,588.14 71.755,594.15 52.602,598.56"];
	72 -- 94	[pos="965.14,519.99 980.26,492.01 1010.2,436.62 1025.4,408.42"];
	73 -- 118	[pos="145.59,549.66 145.25,553 144.89,556.49 144.54,559.83"];
	73 -- 218	[pos="150,549.67 153.68,575.56 160.43,623.06 164.11,648.98"];
	73 -- 259	[pos="127.29,543.88 105.05,557.31 69.487,578.79 47.226,592.24"];
	187 -- 289	[pos="728.86,1187.4 722.04,1187.1 714.73,1186.7 707.92,1186.4"];
	163 -- 231	[pos="239.4,948.67 241.95,955.39 244.86,963.06 247.42,969.79"];
	163 -- 226	[pos="258.24,937.64 268.59,940.28 280.53,943.31 290.86,945.94"];
	163 -- 240	[pos="221.21,914.6 210.23,898.85 193.82,875.31 182.86,859.59"];
	76 -- 187	[pos="603.43,1135.4 637.28,1147.2 698.38,1168.6 732.08,1180.4"];
	76 -- 102	[pos="555.88,1117.5 528.78,1106.5 484.34,1088.6 457.26,1077.6"];
	76 -- 180	[pos="560.61,1113.8 532.52,1093.9 479.54,1056.4 451.25,1036.5"];
	76 -- 289	[pos="599.78,1138.7 617.41,1148.7 642.67,1163.2 660.29,1173.3"];
	76 -- 254	[pos="603.5,1119 616.5,1114.8 632.47,1109.6 645.48,1105.3"];
	76 -- 267	[pos="604.05,1134.2 653.54,1148.7 763.98,1181.1 813.41,1195.6"];
	102 -- 187	[pos="457.66,1077.1 517.21,1099.4 672.69,1157.6 732.28,1179.9"];
	246	[height=0.5,
		pos="613.08,1196.3",
		width=0.75];
	102 -- 246	[pos="452.47,1081.4 486.79,1106 559.97,1158.3 594.42,1182.9"];
	102 -- 160	[pos="438.28,1086.3 443.45,1108 452.07,1144.2 457.23,1165.9"];
	102 -- 285	[pos="410.5,1077.4 395.37,1083.4 375.75,1091.1 360.59,1097"];
	102 -- 279	[pos="407.03,1066.9 385.97,1065.9 356.83,1064.6 335.67,1063.5"];
	102 -- 231	[pos="411.57,1058.2 377.01,1042.7 311.11,1013.1 276.55,997.55"];
	102 -- 180	[pos="433.32,1050.1 433.22,1047.2 433.11,1044.1 433,1041.2"];
	102 -- 244	[pos="426.65,1085.7 422.12,1096.5 416.33,1110.3 411.78,1121.1"];
	280	[height=0.5,
		pos="513.74,1234",
		width=0.75];
	102 -- 280	[pos="442.37,1085.7 457.73,1117.6 490.19,1185.1 505.47,1216.8"];
	184 -- 278	[pos="290.2,335.15 287.44,343.4 284.18,353.17 281.44,361.39"];
	77 -- 81	[pos="1339.4,630.93 1325.9,654.26 1301.8,695.98 1288.4,719.24"];
	77 -- 228	[pos="1344.3,631.75 1333.9,669.09 1310,755.25 1299.7,792.68"];
	77 -- 82	[pos="1348.2,632.07 1346.8,656.54 1344.4,699.88 1343.1,724.29"];
	77 -- 121	[pos="1370.9,603.03 1376.9,600.01 1383.4,596.72 1389.5,593.69"];
	228 -- 265	[pos="1309.1,794.96 1328.9,773.51 1364.3,735.15 1384,713.76"];
	117 -- 134	[pos="921.27,1100 882.84,1080.2 802.6,1038.8 764.06,1019"];
	114 -- 293	[pos="1532.3,680.88 1530.4,692.1 1528,706.5 1526.2,717.73"];
	114 -- 172	[pos="1521.8,678.75 1499.4,705.04 1454.9,757.23 1432.6,783.46"];
	114 -- 147	[pos="1515.2,674.97 1504.5,681.47 1491.3,689.45 1480.5,695.96"];
	114 -- 182	[pos="1528.5,680.5 1518.1,707.34 1498.4,758.08 1488.1,784.83"];
	82 -- 228	[pos="1330.6,758.84 1323.1,769.57 1313.5,783.5 1306.1,794.2"];
	82 -- 281	[pos="1353.5,725.48 1366.4,706.46 1387.2,675.73 1400,656.84"];
	82 -- 121	[pos="1349.6,724.94 1362.9,694.24 1390.4,630.77 1403.7,600.09"];
	82 -- 265	[pos="1359.8,728.39 1366.4,723.25 1373.8,717.42 1380.4,712.28"];
	281 -- 290	[pos="1435.5,632.14 1457.3,624.77 1489.3,613.97 1511.2,606.61"];
	143 -- 207	[pos="645.34,1036.4 695.38,1042.5 802.22,1055.5 852.14,1061.6"];
	121 -- 228	[pos="1402.5,599.85 1380.9,642.08 1325.3,750.82 1303.6,793.25"];
	121 -- 281	[pos="1411.3,600.95 1411.3,607.67 1411.3,615.28 1411.3,622.01"];
	121 -- 290	[pos="1437.9,586.1 1458.8,588.75 1487.8,592.43 1508.8,595.09"];
	83 -- 189	[pos="712.99,228.37 735.74,223.17 768.8,215.61 791.53,210.41"];
	83 -- 165	[pos="665.71,245.01 622.69,266.45 526.82,314.2 483.58,335.74"];
	83 -- 122	[pos="672.45,249.55 660.11,262.23 642.66,280.17 630.32,292.84"];
	83 -- 222	[pos="712.97,240.3 731.78,244.76 757.21,250.78 775.99,255.23"];
	165 -- 222	[pos="486.94,340.3 549.86,324.5 713,283.52 776.1,267.67"];
	103 -- 119	[pos="669.24,143.97 650.54,160.84 619.87,188.51 601.18,205.37"];
	103 -- 175	[pos="699.01,113.88 709.94,101.43 725.2,84.056 736.13,71.611"];
	87 -- 214	[pos="802.02,50.189 792.91,65.703 779.48,88.57 770.38,104.07"];
	87 -- 92	[pos="786.16,39.158 761.23,44.825 723.67,53.362 698.78,59.019"];
	87 -- 142	[pos="790.51,44.399 743.92,68.533 633.85,125.55 587.14,149.74"];
	92 -- 139	[pos="649.19,73.371 616.87,84.879 559.6,105.26 527.33,116.75"];
	92 -- 142	[pos="656.8,79.438 636.59,97.493 602.36,128.06 582.07,146.18"];
	88 -- 196	[pos="1143.8,757.54 1145.4,788.77 1148.8,852.63 1150.4,883.92"];
	89 -- 131	[pos="1217.5,928.96 1225.3,913.57 1236.6,891.19 1244.4,875.8"];
	89 -- 100	[pos="1228.8,934.19 1238.7,928.21 1250.6,921 1260.6,915"];
	89 -- 234	[pos="1187.8,957.95 1167.2,969.4 1135.9,986.77 1115.4,998.2"];
	89 -- 202	[pos="1196.2,962.55 1188.6,972.38 1178.9,984.86 1171.4,994.64"];
	90 -- 97	[pos="1377,365.18 1371.8,360.2 1366.1,354.64 1361,349.64"];
	95 -- 201	[pos="420.64,404.03 430.37,409.95 441.98,417.03 451.68,422.94"];
	95 -- 155	[pos="427.14,395.06 456.73,398.79 504.12,404.77 533.64,408.5"];
	95 -- 107	[pos="373.67,395.51 323.02,402.77 213.63,418.45 163.24,425.68"];
	95 -- 203	[pos="373.62,388.5 338.1,384.27 275.77,376.86 240.27,372.64"];
	95 -- 110	[pos="376.58,400.39 340.53,413.58 272.46,438.49 236.34,451.7"];
	95 -- 236	[pos="375.9,399.4 317.12,417.94 168.6,464.77 109.62,483.37"];
	95 -- 135	[pos="373.67,395.07 336.43,399.79 269.28,408.31 232.04,413.03"];
	95 -- 161	[pos="427.57,391.5 435.19,391.44 443.46,391.39 451.07,391.34"];
	100 -- 131	[pos="1270.3,886.04 1268.1,882.51 1265.8,878.79 1263.6,875.26"];
	100 -- 247	[pos="1307.7,901.77 1314.1,901.53 1321,901.27 1327.4,901.03"];
	100 -- 234	[pos="1260.1,914.65 1224.3,935.21 1151.2,977.25 1115.3,997.85"];
	100 -- 133	[pos="1277.2,920.89 1276.2,925.49 1275.3,930.43 1274.3,935.02"];
	100 -- 202	[pos="1264.3,917.34 1241.1,937.92 1198.9,975.34 1175.6,995.99"];
	100 -- 291	[pos="1282.5,920.87 1284.9,945.57 1289.1,989.62 1291.5,1014.5"];
	100 -- 297	[pos="1258.3,913.08 1233.6,924.41 1194,942.55 1169.2,953.9"];
	179 -- 208	[pos="1306.5,218.29 1328.8,234.43 1366.4,261.53 1388.8,277.74"];
	179 -- 209	[pos="1310.5,215.63 1324.1,222.05 1341.4,230.21 1354.9,236.6"];
	179 -- 225	[pos="1268.2,192.6 1245,178.18 1207.1,154.53 1184,140.13"];
	142 -- 214	[pos="591.46,155.6 628.74,147.95 697.16,133.91 734.5,126.24"];
	101 -- 179	[pos="1273.7,366.03 1276.8,331.69 1283.4,257.61 1286.5,223.23"];
	101 -- 208	[pos="1290.9,371.26 1316.6,353.59 1362.5,322.07 1388.3,304.3"];
	101 -- 277	[pos="1248.8,374.74 1215.2,361.08 1153.4,335.97 1119.9,322.35"];
	101 -- 209	[pos="1284.5,367.93 1304.7,341.54 1344.4,289.69 1364.6,263.32"];
	101 -- 257	[pos="1250.2,373.49 1230.2,363.65 1200.6,349.15 1180.6,339.32"];
	208 -- 232	[pos="1400,273.76 1393.3,258.3 1383.7,235.84 1377,220.39"];
	208 -- 298	[pos="1426.3,304.43 1434.2,310.02 1443.5,316.52 1451.4,322.11"];
	246 -- 280	[pos="589.53,1205.2 573.81,1211.2 553.21,1219 537.45,1225"];
	133 -- 247	[pos="1290.6,940.39 1303.9,931.95 1321.4,920.88 1334.7,912.46"];
	133 -- 234	[pos="1246.3,960.83 1212.7,971.66 1152.8,990.99 1119.2,1001.8"];
	133 -- 202	[pos="1249.2,964.06 1229.4,974.28 1200.3,989.35 1180.5,999.56"];
	133 -- 291	[pos="1275.8,970.65 1279.5,983.8 1284.5,1001.6 1288.2,1014.8"];
	133 -- 299	[pos="1297.9,950.55 1302.3,950.17 1306.9,949.77 1311.3,949.38"];
	104 -- 144	[pos="819.72,481.08 812.96,468.69 803.87,452.05 797.12,439.68"];
	104 -- 237	[pos="847.19,511.7 854.41,517.06 862.7,523.22 869.95,528.6"];
	105 -- 219	[pos="532.24,1030.6 527.75,1029.1 523.06,1027.4 518.57,1025.9"];
	119 -- 175	[pos="600.32,204.75 631.68,173.54 703.28,102.32 734.62,71.152"];
	110 -- 236	[pos="186.94,466.59 164.7,471.94 132.61,479.67 110.38,485.02"];
	110 -- 135	[pos="209.55,442.54 209.12,439.87 208.68,437.12 208.25,434.45"];
	112 -- 139	[pos="374.92,201.14 403.29,184.39 454.38,154.23 482.87,137.41"];
	112 -- 184	[pos="344.87,230.38 333.99,249.79 316.41,281.17 305.6,300.45"];
	112 -- 206	[pos="373.59,200.05 410.33,174.74 490.5,119.53 527.17,94.269"];
	112 -- 178	[pos="329.27,206.4 325.51,205.39 321.64,204.35 317.88,203.34"];
	112 -- 205	[pos="328.47,208.33 307.26,204.37 277.48,198.81 256.28,194.86"];
	112 -- 183	[pos="366.51,196.94 377.91,181.5 394.97,158.41 406.35,142.99"];
	112 -- 278	[pos="346.21,230.61 331.01,262.53 298.88,330.02 283.76,361.77"];
	162 -- 238	[pos="1174,226.67 1142.2,270.59 1055.5,390.04 1023.8,433.73"];
	156 -- 235	[pos="549.74,983.84 583.09,999.14 645.51,1027.8 678.81,1043.1"];
	156 -- 282	[pos="549.27,984.38 603.36,1011.1 742.86,1079.9 796.79,1106.5"];
	116 -- 170	[pos="863.09,913.14 860.47,899.68 856.91,881.37 854.29,867.93"];
	116 -- 191	[pos="878.5,947.48 904.87,983.67 967.96,1070.2 994.3,1106.4"];
	116 -- 250	[pos="875.56,948.48 898.16,992.17 957.26,1106.4 979.7,1149.8"];
	116 -- 176	[pos="856.74,914.02 833.64,873.91 776.26,774.24 753.28,734.33"];
	172 -- 293	[pos="1439.2,787.04 1457.6,775.8 1484.8,759.24 1503.2,748.02"];
	122 -- 189	[pos="637.02,297.05 675.84,277.12 756.98,235.44 795.68,215.56"];
	122 -- 165	[pos="590.05,314.5 561.56,321.63 515.61,333.14 487.1,340.28"];
	122 -- 222	[pos="640.93,301.72 676.46,292.77 740.52,276.64 776.05,267.69"];
	122 -- 192	[pos="637.48,297.64 643.18,294.92 649.34,291.99 655.06,289.27"];
	128 -- 287	[pos="402.11,678 379.93,682.71 348.14,689.47 325.97,694.18"];
	128 -- 239	[pos="424.9,690.66 424.08,695.49 423.2,700.69 422.38,705.51"];
	125 -- 188	[pos="720.51,875.69 716.62,860.41 711.05,838.52 707.16,823.25"];
	218 -- 259	[pos="144.23,656.97 118.32,645.37 75.931,626.38 49.849,614.69"];
	132 -- 212	[pos="1222,422.88 1225.4,426.92 1229,431.26 1232.5,435.29"];
	135 -- 203	[pos="208.49,398.4 209.12,394.78 209.79,390.97 210.42,387.36"];
	202 -- 234	[pos="1131.7,1010.3 1128.4,1010.2 1125,1010.2 1121.7,1010.1"];
	199 -- 256	[pos="1087.6,883.04 1110.6,869.86 1147.6,848.61 1170.6,835.42"];
	199 -- 266	[pos="1087.4,882.7 1094.3,878.58 1102.1,873.97 1109,869.86"];
	145 -- 263	[pos="1130.2,398 1124.8,393.18 1118.8,387.81 1113.3,382.99"];
	154 -- 178	[pos="336.07,165.73 328.18,171.3 319.02,177.76 311.14,183.32"];
	154 -- 205	[pos="329.87,160.03 308.16,166.57 276.82,176 255.12,182.53"];
	147 -- 172	[pos="1452.5,725.7 1445.1,741.84 1434.4,765.63 1427.1,781.75"];
	147 -- 284	[pos="1449.3,724.53 1430.3,752.46 1391.9,808.95 1372.9,836.99"];
	147 -- 182	[pos="1464.4,726.3 1468.1,742.98 1473.6,767.58 1477.3,784.24"];
	193 -- 229	[pos="659.27,419.18 674.66,440.61 701.62,478.13 717.13,499.73"];
	148 -- 168	[pos="1448.2,520.65 1461.5,525.38 1477.9,531.25 1491.2,535.99"];
	148 -- 260	[pos="1424.4,530.19 1424.7,574.76 1425.5,689.52 1425.8,734.3"];
	241 -- 268	[pos="1065.5,1125.7 1062.7,1136 1059.1,1148.9 1056.2,1159.2"];
	164 -- 251	[pos="797.88,121.14 760.39,133.18 689.51,155.95 652.14,167.96"];
	164 -- 258	[pos="833.18,96.187 844,78.858 860.66,52.15 871.44,34.874"];
	178 -- 205	[pos="265.73,193.71 262.83,193.41 259.88,193.1 256.98,192.8"];
	178 -- 183	[pos="313.24,185 336.55,172.09 374.16,151.26 397.49,138.34"];
	235 -- 282	[pos="722.07,1064.7 743.32,1076.3 775.99,1094.1 797.32,1105.7"];
	158 -- 269	[pos="338.47,505.61 337.81,488.59 336.83,463.2 336.17,446.1"];
	158 -- 195	[pos="333.73,505.82 332.12,500.55 330.37,494.8 328.76,489.55"];
	186 -- 274	[pos="356.76,673.62 348.57,700.33 333.13,750.7 324.89,777.59"];
	274 -- 287	[pos="315.76,777.53 312.32,760.39 307.17,734.75 303.74,717.63"];
	160 -- 285	[pos="441.5,1171.4 418.26,1156.9 380.16,1133.2 356.94,1118.7"];
	160 -- 244	[pos="444.03,1170.1 437.07,1164.6 429.07,1158.3 422.08,1152.8"];
	160 -- 280	[pos="476.89,1198.6 483.63,1205.1 491.53,1212.7 498.28,1219.2"];
	226 -- 264	[pos="295.52,940.57 274.84,928.74 243.2,910.65 222.57,898.86"];
	226 -- 240	[pos="298.14,938.77 270.39,917.82 217.53,877.94 189.64,856.89"];
	171 -- 245	[pos="848.38,271.01 826.01,248.11 784.44,205.55 762.28,182.86"];
	171 -- 276	[pos="875.82,270.07 891.63,248.83 918.94,212.14 934.63,191.05"];
	171 -- 270	[pos="836.64,284.33 783.96,280 667.83,270.45 615.07,266.11"];
	174 -- 179	[pos="1259.1,175.61 1263.6,180.15 1268.5,185.13 1273,189.68"];
	174 -- 208	[pos="1261.7,174.54 1293.1,199.68 1358.8,252.23 1390.1,277.3"];
	174 -- 232	[pos="1268.4,168.75 1290.6,176.26 1323.3,187.34 1345.5,194.85"];
	174 -- 225	[pos="1221.1,151.07 1210.5,146.72 1197.9,141.57 1187.3,137.21"];
	232 -- 298	[pos="1381.9,219.24 1401.2,244.64 1438.4,293.51 1457.8,318.99"];
	183 -- 206	[pos="442.35,118.24 465.21,110.08 499.4,97.875 522.23,89.728"];
	209 -- 225	[pos="1356.2,235.41 1315.5,212.6 1225.8,162.3 1185,139.45"];
	180 -- 279	[pos="407.84,1030.8 386.1,1037.7 354.5,1047.7 332.77,1054.5"];
	180 -- 231	[pos="406.43,1017.9 372.64,1011.2 313.88,999.43 280.08,992.67"];
	180 -- 244	[pos="428.02,1040.9 422.77,1062.6 413.96,1099 408.69,1120.8"];
	182 -- 293	[pos="1491.8,785.57 1498.1,775.56 1506.1,762.89 1512.5,752.84"];
	182 -- 227	[pos="1454.6,798.92 1433.5,796.22 1404.4,792.48 1383.4,789.78"];
	244 -- 246	[pos="429.5,1145.8 469.63,1156.8 547.63,1178.3 587.81,1189.3"];
	244 -- 285	[pos="382.28,1128.2 374.76,1124.6 366.36,1120.5 358.86,1116.9"];
	244 -- 279	[pos="386.72,1124.8 369.39,1111 343.1,1090 325.82,1076.2"];
	244 -- 280	[pos="420.94,1153.3 441.51,1171.2 476.33,1201.5 496.96,1219.4"];
	192 -- 223	[pos="701.61,270.13 741.53,256.12 820.77,228.32 860.59,214.35"];
	254 -- 267	[pos="689.81,1109.9 722.29,1130.3 786.19,1170.3 818.48,1190.5"];
	215 -- 273	[pos="1197.6,709.24 1198.5,712.11 1199.5,715.09 1200.4,717.96"];
	200 -- 241	[pos="1042.1,1058.4 1047.9,1068.4 1055.1,1080.9 1060.8,1090.9"];
	200 -- 275	[pos="1013.8,1027.5 994.96,1013.6 965.96,992.04 947.19,978.11"];
	200 -- 268	[pos="1034.8,1059.3 1038.4,1085.3 1045,1133.1 1048.7,1159.2"];
	243 -- 292	[pos="170.73,495.38 206.44,511.34 275.25,542.09 310.9,558.03"];
	257 -- 277	[pos="1133.3,322.18 1129.7,321.26 1126,320.33 1122.4,319.42"];
	272 -- 296	[pos="306.07,901.5 322.09,918.72 347.92,946.48 363.95,963.71"];
}
