graph {
	graph [bb="0,0,1298.6,1276.8",
		outputorder=edgesfirst,
		overlap=prism,
		size="50,50!",
		start=9660
	];
	node [label="\N"];
	0	[height=0.5,
		pos="639.1,902.02",
		width=0.75];
	50	[height=0.5,
		pos="372.39,905.75",
		width=0.75];
	0 -- 50	[pos="612.05,902.4 560.94,903.11 450.68,904.66 399.5,905.37"];
	81	[height=0.5,
		pos="781.96,1062.7",
		width=0.75];
	0 -- 81	[pos="653.05,917.72 680.44,948.51 740.9,1016.5 768.15,1047.2"];
	85	[height=0.5,
		pos="844.63,1035",
		width=0.75];
	0 -- 85	[pos="658.8,914.77 698.09,940.19 785.75,996.9 824.98,1022.3"];
	88	[height=0.5,
		pos="907.37,1019.9",
		width=0.75];
	0 -- 88	[pos="661.97,912.07 712.65,934.35 833.92,987.65 884.55,1009.9"];
	104	[height=0.5,
		pos="487.46,906.16",
		width=0.75];
	0 -- 104	[pos="611.99,902.76 584.47,903.51 542.11,904.67 514.59,905.42"];
	108	[height=0.5,
		pos="832.55,894",
		width=0.75];
	0 -- 108	[pos="666.4,900.88 703.27,899.36 768.59,896.65 805.38,895.12"];
	112	[height=0.5,
		pos="558.22,1000.7",
		width=0.75];
	0 -- 112	[pos="626.1,917.88 611.01,936.3 586.26,966.52 571.19,984.93"];
	114	[height=0.5,
		pos="427.81,950.3",
		width=0.75];
	0 -- 114	[pos="613.19,907.94 572.53,917.23 494.19,935.13 453.6,944.41"];
	119	[height=0.5,
		pos="664.85,790.12",
		width=0.75];
	0 -- 119	[pos="643.23,884.04 648.04,863.16 655.92,828.91 660.72,808.05"];
	128	[height=0.5,
		pos="517.83,1046.1",
		width=0.75];
	0 -- 128	[pos="625.66,917.99 602.35,945.68 554.68,1002.3 531.33,1030.1"];
	129	[height=0.5,
		pos="332.76,768.5",
		width=0.75];
	0 -- 129	[pos="616.07,891.98 559.16,867.18 412.38,803.21 355.63,778.47"];
	135	[height=0.5,
		pos="555.28,732.35",
		width=0.75];
	0 -- 135	[pos="630.6,884.81 614.53,852.3 579.88,782.15 563.8,749.6"];
	150	[height=0.5,
		pos="705.79,834.14",
		width=0.75];
	0 -- 150	[pos="653.9,886.95 664.8,875.86 679.57,860.82 690.57,849.63"];
	153	[height=0.5,
		pos="493.25,721.21",
		width=0.75];
	0 -- 153	[pos="626.15,885.97 598.48,851.66 533.81,771.5 506.16,737.22"];
	188	[height=0.5,
		pos="771.45,1111.2",
		width=0.75];
	0 -- 188	[pos="649.7,918.78 674.49,957.94 735.96,1055.1 760.8,1094.3"];
	190	[height=0.5,
		pos="709.4,1076.2",
		width=0.75];
	0 -- 190	[pos="646.22,919.68 659.73,953.16 688.92,1025.5 702.36,1058.8"];
	204	[height=0.5,
		pos="814.99,803.58",
		width=0.75];
	0 -- 204	[pos="659.96,890.34 693.82,871.39 760.32,834.18 794.15,815.24"];
	245	[height=0.5,
		pos="431.2,725.12",
		width=0.75];
	0 -- 245	[pos="622.43,887.84 583.51,854.72 486.94,772.55 447.94,739.36"];
	246	[height=0.5,
		pos="491.98,1001.7",
		width=0.75];
	0 -- 246	[pos="619.86,915.04 591.67,934.14 539.42,969.53 511.22,988.62"];
	1	[height=0.5,
		pos="727.32,778.34",
		width=0.75];
	51	[height=0.5,
		pos="689.36,693.1",
		width=0.75];
	1 -- 51	[pos="719.46,760.68 712.9,745.95 703.61,725.08 697.09,710.44"];
	62	[height=0.5,
		pos="680.73,648.69",
		width=0.75];
	1 -- 62	[pos="720.94,760.58 712.02,735.75 695.91,690.94 687.03,666.23"];
	72	[height=0.5,
		pos="879.14,729.27",
		width=0.75];
	1 -- 72	[pos="751.71,770.45 780.05,761.3 826.5,746.28 854.81,737.14"];
	74	[height=0.5,
		pos="931.41,884.29",
		width=0.75];
	1 -- 74	[pos="748.78,789.48 787.97,809.83 870.72,852.78 909.93,873.14"];
	76	[height=0.5,
		pos="782.59,1018.5",
		width=0.75];
	1 -- 76	[pos="731.48,796.39 741.74,841 768.22,956.05 778.46,1000.5"];
	77	[height=0.5,
		pos="620.74,967.55",
		width=0.75];
	1 -- 77	[pos="717.68,795.46 697.38,831.49 650.49,914.73 630.29,950.6"];
	80	[height=0.5,
		pos="940.97,775.99",
		width=0.75];
	1 -- 80	[pos="754.38,778.04 795.36,777.59 872.74,776.74 913.79,776.28"];
	84	[height=0.5,
		pos="763.17,897.47",
		width=0.75];
	1 -- 84	[pos="732.69,796.17 739.45,818.63 750.99,856.99 757.77,879.51"];
	87	[height=0.5,
		pos="915.85,929.58",
		width=0.75];
	1 -- 87	[pos="744.72,792.3 780.64,821.11 862.61,886.87 898.49,915.65"];
	90	[height=0.5,
		pos="643.78,857.98",
		width=0.75];
	1 -- 90	[pos="711.61,793.32 696.67,807.56 674.33,828.85 659.42,843.07"];
	96	[height=0.5,
		pos="508.91,776.37",
		width=0.75];
	1 -- 96	[pos="700.1,778.09 658.13,777.72 578.09,776.99 536.13,776.62"];
	102	[height=0.5,
		pos="1009.2,796.23",
		width=0.75];
	1 -- 102	[pos="754.35,780.05 808.23,783.47 928.44,791.1 982.25,794.52"];
	117	[height=0.5,
		pos="742.26,974.45",
		width=0.75];
	1 -- 117	[pos="728.7,796.44 731.55,833.8 738.04,919.07 740.89,956.4"];
	1 -- 119	[pos="701.19,783.27 697.84,783.9 694.42,784.54 691.08,785.17"];
	139	[height=0.5,
		pos="877.02,803.95",
		width=0.75];
	1 -- 139	[pos="753.74,782.86 781.1,787.54 823.6,794.81 850.86,799.48"];
	1 -- 150	[pos="720.51,795.99 718,802.51 715.15,809.89 712.63,816.41"];
	151	[height=0.5,
		pos="906.67,975.28",
		width=0.75];
	1 -- 151	[pos="741.39,793.79 774.84,830.52 858.79,922.7 892.42,959.62"];
	164	[height=0.5,
		pos="494.45,670.31",
		width=0.75];
	1 -- 164	[pos="704.99,767.98 660.48,747.33 561.17,701.26 516.71,680.64"];
	167	[height=0.5,
		pos="817.16,655.24",
		width=0.75];
	1 -- 167	[pos="739.25,761.99 756.43,738.45 787.97,695.23 805.18,671.65"];
	173	[height=0.5,
		pos="581.72,827.13",
		width=0.75];
	1 -- 173	[pos="702.95,786.51 676.07,795.51 633.08,809.92 606.17,818.94"];
	177	[height=0.5,
		pos="941.15,709.91",
		width=0.75];
	1 -- 177	[pos="751.85,770.49 792.99,757.32 875.41,730.95 916.58,717.77"];
	178	[height=0.5,
		pos="679.33,603.17",
		width=0.75];
	1 -- 178	[pos="722.46,760.58 713.26,727 693.41,654.58 684.21,620.97"];
	181	[height=0.5,
		pos="618.24,701.18",
		width=0.75];
	1 -- 181	[pos="708.32,764.9 688.3,750.74 656.96,728.57 637.02,714.46"];
	191	[height=0.5,
		pos="855.89,849.98",
		width=0.75];
	1 -- 191	[pos="748.26,790.01 772.17,803.33 811.05,825 834.96,838.32"];
	200	[height=0.5,
		pos="823.24,942.88",
		width=0.75];
	1 -- 200	[pos="737.23,795.33 755.61,826.86 794.8,894.09 813.25,925.73"];
	223	[height=0.5,
		pos="519.68,820.48",
		width=0.75];
	1 -- 223	[pos="701.44,783.59 661.54,791.69 585.45,807.13 545.56,815.23"];
	226	[height=0.5,
		pos="844.62,987.63",
		width=0.75];
	1 -- 226	[pos="736.92,795.47 758.97,834.81 813.03,931.27 835.05,970.56"];
	227	[height=0.5,
		pos="817.11,702.64",
		width=0.75];
	1 -- 227	[pos="744.21,764.1 760.26,750.57 784.27,730.33 800.3,716.81"];
	232	[height=0.5,
		pos="950.07,840.26",
		width=0.75];
	1 -- 232	[pos="752.44,785.32 795.33,797.25 882.21,821.4 925.04,833.31"];
	235	[height=0.5,
		pos="576.68,912.69",
		width=0.75];
	1 -- 235	[pos="710.91,792.97 681.94,818.81 622.03,872.24 593.07,898.07"];
	242	[height=0.5,
		pos="744.26,646.26",
		width=0.75];
	1 -- 242	[pos="729.64,760.25 732.87,735.1 738.67,689.81 741.91,664.55"];
	249	[height=0.5,
		pos="701.11,930.42",
		width=0.75];
	1 -- 249	[pos="724.21,796.38 719.17,825.65 709.26,883.14 704.22,912.4"];
	2	[height=0.5,
		pos="308.86,538.98",
		width=0.75];
	52	[height=0.5,
		pos="459.66,406.35",
		width=0.75];
	2 -- 52	[pos="325.28,524.54 354.29,499.02 414.26,446.28 443.26,420.78"];
	61	[height=0.5,
		pos="407.58,450.38",
		width=0.75];
	2 -- 61	[pos="325.16,524.35 343.45,507.94 372.95,481.46 391.25,465.03"];
	63	[height=0.5,
		pos="265.52,727.21",
		width=0.75];
	2 -- 63	[pos="304.7,557.03 296.42,593.01 277.93,673.28 269.66,709.22"];
	93	[height=0.5,
		pos="193.06,510.2",
		width=0.75];
	2 -- 93	[pos="283.45,532.67 264.14,527.87 237.71,521.3 218.41,516.5"];
	103	[height=0.5,
		pos="343.94,424.44",
		width=0.75];
	2 -- 103	[pos="314.34,521.09 320.93,499.57 331.92,463.68 338.49,442.22"];
	118	[height=0.5,
		pos="252.46,426.14",
		width=0.75];
	2 -- 118	[pos="300.29,521.84 289.69,500.63 271.74,464.72 261.11,443.44"];
	122	[height=0.5,
		pos="105.35,566.81",
		width=0.75];
	2 -- 122	[pos="282.25,542.62 243.25,547.95 170.97,557.84 131.96,563.17"];
	144	[height=0.5,
		pos="184.9,554.27",
		width=0.75];
	2 -- 144	[pos="282.27,542.26 261.49,544.83 232.75,548.37 211.88,550.95"];
	152	[height=0.5,
		pos="255.1,494.95",
		width=0.75];
	2 -- 152	[pos="291.55,524.81 285.41,519.78 278.51,514.12 272.37,509.1"];
	2 -- 164	[pos="327.67,552.3 363.34,577.53 440.37,632.04 475.86,657.15"];
	179	[height=0.5,
		pos="123.79,610.86",
		width=0.75];
	2 -- 179	[pos="285.42,548.09 249.92,561.87 182.89,587.91 147.33,601.72"];
	193	[height=0.5,
		pos="374.86,626.45",
		width=0.75];
	2 -- 193	[pos="321.27,555.44 333.15,571.17 350.95,594.76 362.73,610.37"];
	208	[height=0.5,
		pos="201.92,699.24",
		width=0.75];
	2 -- 208	[pos="297.82,555.53 277.32,586.24 233.63,651.72 213.06,682.54"];
	3	[height=0.5,
		pos="588.5,582.49",
		width=0.75];
	53	[height=0.5,
		pos="747.8,558.23",
		width=0.75];
	3 -- 53	[pos="615.16,578.43 644.66,573.94 691.89,566.74 721.31,562.26"];
	54	[height=0.5,
		pos="389.59,681.06",
		width=0.75];
	3 -- 54	[pos="566.45,593.41 528.11,612.41 449.62,651.31 411.43,670.24"];
	3 -- 62	[pos="607.16,595.88 623.16,607.37 646.1,623.83 662.09,635.31"];
	73	[height=0.5,
		pos="372.8,582.44",
		width=0.75];
	3 -- 73	[pos="561.18,582.48 519.69,582.47 441.26,582.45 399.9,582.45"];
	78	[height=0.5,
		pos="755.05,690.28",
		width=0.75];
	3 -- 78	[pos="607.93,595.06 639.94,615.78 703.39,656.84 735.48,677.61"];
	98	[height=0.5,
		pos="476.08,609.23",
		width=0.75];
	3 -- 98	[pos="562.99,588.55 544.72,592.9 520.21,598.73 501.88,603.09"];
	99	[height=0.5,
		pos="609.01,403.02",
		width=0.75];
	3 -- 99	[pos="590.58,564.29 594.52,529.8 603.04,455.31 606.96,421"];
	101	[height=0.5,
		pos="508.88,497.66",
		width=0.75];
	3 -- 101	[pos="573.89,566.93 559.53,551.62 537.72,528.39 523.39,513.12"];
	105	[height=0.5,
		pos="446.91,769.13",
		width=0.75];
	3 -- 105	[pos="576.18,598.72 549.33,634.11 485.82,717.83 459.09,753.07"];
	3 -- 135	[pos="584.49,600.56 578.1,629.37 565.69,685.36 559.3,714.21"];
	137	[height=0.5,
		pos="327.49,670.5",
		width=0.75];
	3 -- 137	[pos="563.94,590.77 514.07,607.58 401.44,645.56 351.79,662.3"];
	3 -- 153	[pos="577.2,598.94 558.86,625.64 522.85,678.09 504.53,704.78"];
	155	[height=0.5,
		pos="567.37,447.04",
		width=0.75];
	3 -- 155	[pos="585.69,564.5 581.65,538.6 574.24,491.05 570.19,465.1"];
	166	[height=0.5,
		pos="520.03,563.41",
		width=0.75];
	3 -- 166	[pos="563.39,575.49 557.44,573.83 551.08,572.06 545.13,570.4"];
	171	[height=0.5,
		pos="382.41,494.38",
		width=0.75];
	3 -- 171	[pos="565.66,572.72 526.04,555.78 445.04,521.16 405.36,504.19"];
	217	[height=0.5,
		pos="721.16,469.66",
		width=0.75];
	3 -- 217	[pos="605.3,568.2 630.82,546.49 679.05,505.47 704.49,483.83"];
	243	[height=0.5,
		pos="809.82,575.39",
		width=0.75];
	3 -- 243	[pos="615.64,581.62 658.23,580.25 740.29,577.62 782.8,576.25"];
	4	[height=0.5,
		pos="556.5,626.53",
		width=0.75];
	4 -- 51	[pos="578.14,637.38 602.85,649.75 643.03,669.88 667.73,682.26"];
	55	[height=0.5,
		pos="395.64,813.14",
		width=0.75];
	4 -- 55	[pos="542.78,642.44 512.39,677.7 439.68,762.05 409.32,797.27"];
	68	[height=0.5,
		pos="446.75,516.06",
		width=0.75];
	4 -- 68	[pos="541.24,611.17 520.27,590.07 482.78,552.33 461.88,531.29"];
	89	[height=0.5,
		pos="762.63,513.74",
		width=0.75];
	4 -- 89	[pos="577.39,615.1 616.9,593.48 702.12,546.85 741.67,525.21"];
	4 -- 98	[pos="530.61,620.96 521.43,618.99 511.1,616.76 501.92,614.79"];
	141	[height=0.5,
		pos="626.8,491.09",
		width=0.75];
	4 -- 141	[pos="565.4,609.38 578.92,583.33 604.49,534.07 617.97,508.1"];
	154	[height=0.5,
		pos="333.6,812.55",
		width=0.75];
	4 -- 154	[pos="539.38,640.82 497.78,675.53 391.81,763.97 350.47,798.47"];
	156	[height=0.5,
		pos="754.8,734.3",
		width=0.75];
	4 -- 156	[pos="577.72,638.07 615.88,658.81 695.67,702.17 733.73,722.85"];
	4 -- 166	[pos="546.72,609.62 541.49,600.56 535.06,589.44 529.83,580.37"];
	170	[height=0.5,
		pos="688.81,514.21",
		width=0.75];
	4 -- 170	[pos="573.25,612.31 598.56,590.82 646.29,550.3 671.77,528.67"];
	174	[height=0.5,
		pos="457.67,826.2",
		width=0.75];
	4 -- 174	[pos="547.9,643.9 529.16,681.76 484.83,771.32 466.18,809.01"];
	176	[height=0.5,
		pos="384.23,538.42",
		width=0.75];
	4 -- 176	[pos="535.03,615.55 501.93,598.62 438.8,566.33 405.7,549.4"];
	4 -- 181	[pos="569.59,642.36 580.07,655.03 594.69,672.71 605.17,685.37"];
	182	[height=0.5,
		pos="263.91,655.24",
		width=0.75];
	4 -- 182	[pos="529.76,629.16 474.17,634.61 346.71,647.12 290.91,652.59"];
	189	[height=0.5,
		pos="656.75,746.09",
		width=0.75];
	4 -- 189	[pos="570.02,642.66 589.26,665.6 624.32,707.42 643.44,730.22"];
	4 -- 193	[pos="529.3,626.52 494.96,626.51 436.23,626.48 401.95,626.46"];
	195	[height=0.5,
		pos="618.99,536",
		width=0.75];
	4 -- 195	[pos="567.96,609.93 579.23,593.59 596.35,568.8 607.6,552.5"];
	231	[height=0.5,
		pos="327.56,724.09",
		width=0.75];
	4 -- 231	[pos="533.71,636.24 489.94,654.9 394.56,695.54 350.6,714.27"];
	241	[height=0.5,
		pos="745.17,602.25",
		width=0.75];
	4 -- 241	[pos="583.13,623.11 618.99,618.49 682.43,610.33 718.37,605.7"];
	5	[height=0.5,
		pos="923.29,665.3",
		width=0.75];
	56	[height=0.5,
		pos="1144.2,934.04",
		width=0.75];
	5 -- 56	[pos="936.45,681.31 975.75,729.11 1091.9,870.43 1131.2,918.12"];
	65	[height=0.5,
		pos="933.84,532.19",
		width=0.75];
	5 -- 65	[pos="924.73,647.07 926.76,621.58 930.4,575.57 932.42,550.2"];
	5 -- 72	[pos="911.92,681.78 905.38,691.25 897.19,703.13 890.63,712.63"];
	95	[height=0.5,
		pos="1207.5,745.33",
		width=0.75];
	5 -- 95	[pos="948.51,672.41 1002.4,687.59 1128.5,723.07 1182.4,738.24"];
	113	[height=0.5,
		pos="1158.1,613.24",
		width=0.75];
	5 -- 113	[pos="949.31,659.53 994.56,649.5 1087.2,628.95 1132.3,618.96"];
	132	[height=0.5,
		pos="1207.6,658.18",
		width=0.75];
	5 -- 132	[pos="950.29,664.63 1004.5,663.27 1125.9,660.22 1180.3,658.86"];
	157	[height=0.5,
		pos="1119.9,476.09",
		width=0.75];
	5 -- 157	[pos="938.72,650.46 975.38,615.17 1067.4,526.61 1104.3,491.13"];
	158	[height=0.5,
		pos="1137.7,833.4",
		width=0.75];
	5 -- 158	[pos="940.84,679.06 981.05,710.58 1079.5,787.75 1120,819.45"];
	165	[height=0.5,
		pos="964.63,576.53",
		width=0.75];
	5 -- 165	[pos="931.46,647.76 938.75,632.1 949.37,609.29 956.62,593.73"];
	203	[height=0.5,
		pos="1024.9,631.43",
		width=0.75];
	5 -- 203	[pos="947.63,657.19 963.61,651.86 984.42,644.93 1000.4,639.59"];
	5 -- 204	[pos="910.65,681.44 889.79,708.08 848.36,760.97 827.55,787.55"];
	219	[height=0.5,
		pos="825.3,500.42",
		width=0.75];
	5 -- 219	[pos="913.17,648.28 894.39,616.68 854.35,549.31 835.51,517.6"];
	5 -- 227	[pos="899.19,673.78 881.82,679.89 858.46,688.1 841.11,694.2"];
	5 -- 243	[pos="905.56,651.25 884.24,634.36 848.68,606.19 827.42,589.34"];
	248	[height=0.5,
		pos="995.86,500.85",
		width=0.75];
	5 -- 248	[pos="930.92,648.01 944.86,616.43 974.28,549.75 988.23,518.15"];
	6	[height=0.5,
		pos="395.59,859.8",
		width=0.75];
	57	[height=0.5,
		pos="618.56,656.11",
		width=0.75];
	6 -- 57	[pos="411.63,845.15 452.67,807.66 561.16,708.54 602.37,670.9"];
	60	[height=0.5,
		pos="151.06,769.87",
		width=0.75];
	6 -- 60	[pos="371.7,851.01 324.95,833.82 221.88,795.91 175.05,778.69"];
	6 -- 63	[pos="380.67,844.59 355.71,819.15 305.77,768.25 280.66,742.65"];
	6 -- 104	[pos="417.36,870.79 432.01,878.18 451.23,887.88 465.84,895.25"];
	125	[height=0.5,
		pos="245.57,884.58",
		width=0.75];
	6 -- 125	[pos="369.12,864.17 341.7,868.7 299.11,875.74 271.78,880.25"];
	159	[height=0.5,
		pos="146.65,849.42",
		width=0.75];
	6 -- 159	[pos="368.48,858.67 320.59,856.67 221.59,852.54 173.73,850.55"];
	6 -- 173	[pos="421.87,855.19 457.34,848.96 520.18,837.93 555.58,831.72"];
	175	[height=0.5,
		pos="376.18,1071.3",
		width=0.75];
	6 -- 175	[pos="393.94,877.83 390.27,917.79 381.5,1013.4 377.83,1053.3"];
	183	[height=0.5,
		pos="304.89,936.65",
		width=0.75];
	6 -- 183	[pos="378.53,874.26 362.32,888 338.07,908.54 321.88,922.26"];
	202	[height=0.5,
		pos="512.11,1090.1",
		width=0.75];
	6 -- 202	[pos="404.35,877.11 426,919.9 481.82,1030.3 503.41,1072.9"];
	210	[height=0.5,
		pos="637.74,1079.1",
		width=0.75];
	6 -- 210	[pos="411.86,874.53 455.97,914.48 577.52,1024.6 621.55,1064.4"];
	7	[height=0.5,
		pos="649.27,267.64",
		width=0.75];
	58	[height=0.5,
		pos="716.05,66.207",
		width=0.75];
	7 -- 58	[pos="655.19,249.76 667.87,211.54 697.47,122.23 710.13,84.043"];
	59	[height=0.5,
		pos="514.56,258.6",
		width=0.75];
	7 -- 59	[pos="622.33,265.83 598.84,264.25 564.93,261.98 541.45,260.4"];
	82	[height=0.5,
		pos="903.77,263.32",
		width=0.75];
	7 -- 82	[pos="676.5,267.17 725.49,266.34 827.89,264.61 876.73,263.78"];
	7 -- 99	[pos="644,285.34 636.29,311.28 621.99,359.37 614.28,385.31"];
	133	[height=0.5,
		pos="773.5,267.52",
		width=0.75];
	7 -- 133	[pos="676.53,267.61 697.24,267.59 725.6,267.56 746.3,267.54"];
	146	[height=0.5,
		pos="782.28,135.42",
		width=0.75];
	7 -- 146	[pos="664.53,252.47 690.18,226.96 741.66,175.79 767.2,150.41"];
	147	[height=0.5,
		pos="831.81,223.48",
		width=0.75];
	7 -- 147	[pos="674.65,261.5 709.42,253.08 771.53,238.06 806.35,229.64"];
	160	[height=0.5,
		pos="677.17,154.25",
		width=0.75];
	7 -- 160	[pos="653.69,249.67 658.91,228.44 667.56,193.33 672.77,172.14"];
	169	[height=0.5,
		pos="965.82,245.56",
		width=0.75];
	7 -- 169	[pos="676.26,265.75 736.06,261.58 879.16,251.6 938.9,247.44"];
	198	[height=0.5,
		pos="775.16,179.44",
		width=0.75];
	7 -- 198	[pos="668.11,254.43 691.85,237.81 732.39,209.4 756.18,192.73"];
	213	[height=0.5,
		pos="551.89,128.94",
		width=0.75];
	7 -- 213	[pos="637.71,251.18 618.97,224.49 582.16,172.05 563.43,145.37"];
	234	[height=0.5,
		pos="842.41,378.83",
		width=0.75];
	7 -- 234	[pos="669.94,279.54 707.11,300.94 784.83,345.67 821.89,367.01"];
	239	[height=0.5,
		pos="640.05,86.505",
		width=0.75];
	7 -- 239	[pos="648.35,249.61 646.59,214.98 642.75,139.51 640.98,104.73"];
	8	[height=0.5,
		pos="553.34,358.99",
		width=0.75];
	8 -- 61	[pos="533.38,371.51 505.46,389.01 455.08,420.6 427.3,438.02"];
	115	[height=0.5,
		pos="482.72,141.96",
		width=0.75];
	8 -- 115	[pos="547.56,341.23 534.28,300.43 501.74,200.4 488.48,159.66"];
	8 -- 160	[pos="563.47,342.24 586.75,303.75 643.83,209.39 667.07,170.95"];
	161	[height=0.5,
		pos="156.18,291.83",
		width=0.75];
	8 -- 161	[pos="526.97,354.54 454.81,342.33 254.68,308.49 182.53,296.29"];
	162	[height=0.5,
		pos="871.84,562.4",
		width=0.75];
	8 -- 162	[pos="573.26,371.72 630.6,408.33 795.52,513.65 852.33,549.94"];
	212	[height=0.5,
		pos="874.65,422.88",
		width=0.75];
	8 -- 212	[pos="579.36,364.17 639.57,376.14 787.94,405.64 848.39,417.66"];
	9	[height=0.5,
		pos="523.04,956.73",
		width=0.75];
	9 -- 55	[pos="509.16,941.09 484.66,913.47 434,856.37 409.5,828.76"];
	64	[height=0.5,
		pos="662.64,1205.1",
		width=0.75];
	9 -- 64	[pos="532.64,973.8 558.2,1019.3 627.73,1143 653.16,1188.2"];
	9 -- 105	[pos="515.88,939.08 501.33,903.23 468.48,822.29 453.99,786.6"];
	9 -- 117	[pos="549.92,958.9 592,962.3 672.95,968.85 715.16,972.26"];
	126	[height=0.5,
		pos="844.46,1214.7",
		width=0.75];
	9 -- 126	[pos="540.32,970.6 596.13,1015.4 771.16,1155.9 827.1,1200.8"];
	163	[height=0.5,
		pos="365.66,987.47",
		width=0.75];
	9 -- 163	[pos="497.05,961.8 467.89,967.5 420.86,976.69 391.68,982.38"];
	9 -- 174	[pos="514.36,939.39 501.86,914.43 478.91,868.61 466.39,843.6"];
	197	[height=0.5,
		pos="824.83,1155.2",
		width=0.75];
	9 -- 197	[pos="542.38,969.44 596.76,1005.2 750.6,1106.4 805.26,1142.3"];
	218	[height=0.5,
		pos="374.82,1115.3",
		width=0.75];
	9 -- 218	[pos="508.56,972.22 480.15,1002.6 417.43,1069.7 389.15,1100"];
	221	[height=0.5,
		pos="600.6,1192.3",
		width=0.75];
	9 -- 221	[pos="528.87,974.43 543.28,1018.2 580.44,1131.1 594.81,1174.7"];
	236	[height=0.5,
		pos="301.3,980.86",
		width=0.75];
	9 -- 236	[pos="496.29,959.64 453.67,964.28 370.82,973.29 328.14,977.94"];
	9 -- 249	[pos="549.7,952.79 583.37,947.81 640.95,939.31 674.56,934.34"];
	10	[height=0.5,
		pos="887.41,485.97",
		width=0.75];
	10 -- 65	[pos="902.61,501.1 907.8,506.26 913.59,512.03 918.76,517.18"];
	10 -- 82	[pos="888.75,467.75 891.82,425.89 899.36,323.28 902.43,281.48"];
	10 -- 89	[pos="861.55,491.72 840.14,496.49 809.85,503.23 788.45,508"];
	91	[height=0.5,
		pos="1161.9,428.45",
		width=0.75];
	10 -- 91	[pos="913.23,480.56 965.54,469.6 1083.5,444.87 1135.9,433.89"];
	116	[height=0.5,
		pos="987.86,298.77",
		width=0.75];
	10 -- 116	[pos="896.68,468.69 915.86,432.94 959.72,351.22 978.76,315.74"];
	121	[height=0.5,
		pos="1053.7,252.36",
		width=0.75];
	10 -- 121	[pos="899.1,469.54 929.64,426.65 1011.5,311.64 1042,268.77"];
	134	[height=0.5,
		pos="1041.2,350.5",
		width=0.75];
	10 -- 134	[pos="903.87,471.47 933.47,445.4 995.35,390.89 1024.9,364.89"];
	10 -- 165	[pos="900.86,501.74 914.95,518.26 936.95,544.07 951.08,560.63"];
	168	[height=0.5,
		pos="1095.8,573.81",
		width=0.75];
	10 -- 168	[pos="910.5,495.71 950.66,512.64 1032.9,547.3 1072.9,564.17"];
	10 -- 169	[pos="893.17,468.29 907.67,423.83 945.54,307.75 960.05,263.26"];
	10 -- 170	[pos="860.62,489.78 822.61,495.18 753.43,505.02 715.48,510.42"];
	192	[height=0.5,
		pos="1102.2,523.35",
		width=0.75];
	10 -- 192	[pos="913.74,490.55 955.07,497.75 1034.7,511.61 1075.9,518.79"];
	205	[height=0.5,
		pos="1057.9,475.93",
		width=0.75];
	10 -- 205	[pos="914.42,484.38 946.25,482.51 998.83,479.41 1030.7,477.53"];
	10 -- 217	[pos="860.33,483.31 829.32,480.27 778.84,475.32 747.95,472.29"];
	11	[height=0.5,
		pos="184.2,449.59",
		width=0.75];
	66	[height=0.5,
		pos="42.782,477.43",
		width=0.75];
	11 -- 66	[pos="158.26,454.69 132.9,459.69 94.498,467.25 69.034,472.27"];
	83	[height=0.5,
		pos="274.45,369.29",
		width=0.75];
	11 -- 83	[pos="200.75,434.86 217.03,420.37 241.75,398.38 258,383.92"];
	11 -- 144	[pos="184.32,467.82 184.45,487.04 184.65,517.11 184.78,536.25"];
	145	[height=0.5,
		pos="94.153,288.51",
		width=0.75];
	11 -- 145	[pos="174.73,432.65 157.48,401.8 121.12,336.74 103.76,305.7"];
	11 -- 171	[pos="210.11,455.44 248.2,464.05 318.89,480.03 356.81,488.59"];
	196	[height=0.5,
		pos="144.99,654.93",
		width=0.75];
	11 -- 196	[pos="180.79,467.45 173.37,506.29 155.86,598.03 148.43,636.96"];
	12	[height=0.5,
		pos="169.69,355.86",
		width=0.75];
	67	[height=0.5,
		pos="188.81,400.35",
		width=0.75];
	12 -- 67	[pos="177.14,373.19 178.52,376.41 179.97,379.78 181.35,383"];
	71	[height=0.5,
		pos="68.289,522.79",
		width=0.75];
	12 -- 71	[pos="159.41,372.79 139.97,404.78 98.052,473.79 78.597,505.82"];
	12 -- 93	[pos="172.41,373.87 176.89,403.45 185.76,462.02 190.28,491.83"];
	142	[height=0.5,
		pos="65.834,243.16",
		width=0.75];
	12 -- 142	[pos="155.25,340.19 135.4,318.66 99.928,280.16 80.152,258.7"];
	12 -- 161	[pos="165.92,338.03 164.08,329.29 161.87,318.8 160.01,310.02"];
	172	[height=0.5,
		pos="230.84,232.33",
		width=0.75];
	12 -- 172	[pos="178.19,338.69 189.81,315.22 210.53,273.36 222.22,249.76"];
	229	[height=0.5,
		pos="130.57,503.92",
		width=0.75];
	12 -- 229	[pos="164.97,373.72 157.45,402.18 142.83,457.5 135.3,486"];
	13	[height=0.5,
		pos="397.58,379.49",
		width=0.75];
	13 -- 59	[pos="412.4,364.18 434.9,340.93 477.43,296.97 499.86,273.79"];
	13 -- 68	[pos="403.91,397.07 413.35,423.29 431.02,472.37 440.45,498.55"];
	13 -- 101	[pos="412.13,394.94 433.46,417.59 473,459.56 494.33,482.21"];
	120	[height=0.5,
		pos="404.3,335.45",
		width=0.75];
	13 -- 120	[pos="400.31,361.58 400.72,358.91 401.14,356.16 401.55,353.49"];
	13 -- 152	[pos="380.4,393.42 353.01,415.61 299.77,458.75 272.35,480.97"];
	13 -- 176	[pos="396.05,397.72 393.48,428.38 388.31,489.89 385.74,520.4"];
	187	[height=0.5,
		pos="107.66,399.8",
		width=0.75];
	13 -- 187	[pos="370.57,381.39 315.33,385.26 189.99,394.04 134.72,397.91"];
	14	[height=0.5,
		pos="939.75,620.81",
		width=0.75];
	14 -- 53	[pos="915.44,612.88 878.61,600.88 809.1,578.22 772.21,566.19"];
	69	[height=0.5,
		pos="950.5,390.89",
		width=0.75];
	14 -- 69	[pos="940.59,602.77 942.6,559.9 947.63,452.28 949.65,409.17"];
	127	[height=0.5,
		pos="1028.2,394.54",
		width=0.75];
	14 -- 127	[pos="946.69,603.06 963.23,560.76 1004.8,454.43 1021.3,412.22"];
	14 -- 177	[pos="940.03,638.84 940.27,654.3 940.62,676.46 940.87,691.91"];
	186	[height=0.5,
		pos="1178.7,789.35",
		width=0.75];
	14 -- 186	[pos="958.5,634.04 1003.2,665.54 1115.5,744.74 1160.1,776.19"];
	201	[height=0.5,
		pos="1164.3,554.14",
		width=0.75];
	14 -- 201	[pos="964.64,613.42 1007.8,600.61 1096.1,574.4 1139.3,561.56"];
	211	[height=0.5,
		pos="1145.5,709.83",
		width=0.75];
	14 -- 211	[pos="962.55,630.68 1002.1,647.79 1083,682.78 1122.6,699.92"];
	233	[height=0.5,
		pos="1099.7,431.93",
		width=0.75];
	14 -- 233	[pos="953.11,605.03 983.23,569.48 1056.1,483.43 1086.3,447.79"];
	15	[height=0.5,
		pos="526.05,403.04",
		width=0.75];
	70	[height=0.5,
		pos="640.23,219.82",
		width=0.75];
	15 -- 70	[pos="536.59,386.13 558.34,351.23 607.99,271.56 629.72,236.69"];
	15 -- 83	[pos="499.13,399.43 450.7,392.93 349.47,379.35 301.18,372.87"];
	15 -- 103	[pos="499.18,406.2 464.65,410.26 405.06,417.26 370.62,421.31"];
	110	[height=0.5,
		pos="711.48,280.59",
		width=0.75];
	15 -- 110	[pos="545.55,390.17 581.25,366.59 656.73,316.74 692.24,293.29"];
	140	[height=0.5,
		pos="616.75,321.9",
		width=0.75];
	15 -- 140	[pos="542.27,388.53 558.68,373.86 583.91,351.28 600.37,336.55"];
	148	[height=0.5,
		pos="342.27,322.94",
		width=0.75];
	15 -- 148	[pos="503.15,393.06 467.74,377.62 400.12,348.15 364.88,332.79"];
	15 -- 178	[pos="538.34,419.08 567.04,456.55 638.23,549.5 666.98,587.05"];
	180	[height=0.5,
		pos="577.02,215.9",
		width=0.75];
	15 -- 180	[pos="530.94,385.1 540.68,349.32 562.42,269.51 572.15,233.79"];
	207	[height=0.5,
		pos="468.48,302.61",
		width=0.75];
	15 -- 207	[pos="516.29,386 505.7,367.53 488.9,338.23 478.29,319.73"];
	220	[height=0.5,
		pos="317.2,468.64",
		width=0.75];
	15 -- 220	[pos="501.28,410.82 461.08,423.45 382.12,448.25 341.94,460.87"];
	16	[height=0.5,
		pos="120.98,699.19",
		width=0.75];
	16 -- 60	[pos="128.42,716.66 133.01,727.45 138.88,741.26 143.5,752.11"];
	16 -- 71	[pos="115.64,681.3 105.51,647.41 83.642,574.19 73.567,540.46"];
	16 -- 179	[pos="121.56,680.89 122.04,665.73 122.72,644.29 123.2,629.14"];
	16 -- 182	[pos="145.55,691.63 171.73,683.58 212.94,670.91 239.18,662.84"];
	17	[height=0.5,
		pos="429.93,1027.2",
		width=0.75];
	75	[height=0.5,
		pos="405.82,1159.4",
		width=0.75];
	17 -- 75	[pos="426.63,1045.3 422.01,1070.6 413.68,1116.3 409.08,1141.5"];
	17 -- 77	[pos="454.49,1019.6 491.12,1008.1 559.7,986.65 596.28,975.21"];
	86	[height=0.5,
		pos="162.45,913.06",
		width=0.75];
	17 -- 86	[pos="407.13,1017.5 356.59,995.94 235.68,944.32 185.2,922.77"];
	17 -- 112	[pos="455.89,1021.9 478.15,1017.3 510.05,1010.7 532.3,1006.1"];
	130	[height=0.5,
		pos="223.53,957.1",
		width=0.75];
	17 -- 130	[pos="405.85,1019.1 366.19,1005.6 287.55,978.86 247.78,965.34"];
	17 -- 154	[pos="422.05,1009.7 403.94,969.32 359.54,870.36 341.46,830.06"];
	17 -- 183	[pos="411.48,1013.9 387.84,996.75 347.1,967.23 323.42,950.08"];
	194	[height=0.5,
		pos="312.12,1096.2",
		width=0.75];
	17 -- 194	[pos="409.41,1039.3 387.92,1051.8 354.36,1071.5 332.8,1084.1"];
	17 -- 218	[pos="419.31,1044.2 409.49,1059.9 394.98,1083.1 385.23,1098.7"];
	225	[height=0.5,
		pos="476.31,1178.2",
		width=0.75];
	17 -- 225	[pos="435.43,1045.2 444.36,1074.2 461.89,1131.3 470.81,1160.3"];
	247	[height=0.5,
		pos="538.55,1179.4",
		width=0.75];
	17 -- 247	[pos="441.56,1043.5 462.35,1072.7 505.71,1133.4 526.68,1162.8"];
	18	[height=0.5,
		pos="720.34,1161.1",
		width=0.75];
	18 -- 75	[pos="693.25,1160.9 633.79,1160.6 492.45,1159.8 432.95,1159.5"];
	18 -- 76	[pos="727.97,1143.6 739.92,1116.2 762.9,1063.6 774.89,1036.1"];
	18 -- 175	[pos="695.03,1154.5 631.38,1137.9 465.21,1094.5 401.52,1077.9"];
	184	[height=0.5,
		pos="793.69,1258.8",
		width=0.75];
	18 -- 184	[pos="732.45,1177.2 746.04,1195.3 767.96,1224.5 781.56,1242.6"];
	222	[height=0.5,
		pos="907.5,1251.2",
		width=0.75];
	18 -- 222	[pos="742.54,1171.8 778.56,1189.1 849.32,1223.2 885.33,1240.5"];
	230	[height=0.5,
		pos="552.74,1236.3",
		width=0.75];
	18 -- 230	[pos="697.73,1171.2 665.66,1185.6 607.28,1211.8 575.25,1226.2"];
	18 -- 247	[pos="693.51,1163.8 659.14,1167.2 599.91,1173.2 565.48,1176.7"];
	19	[height=0.5,
		pos="1018.3,871.55",
		width=0.75];
	19 -- 78	[pos="999.38,858.51 950.93,825.15 822.82,736.94 774.17,703.44"];
	79	[height=0.5,
		pos="1030.7,1063.1",
		width=0.75];
	19 -- 79	[pos="1019.5,889.57 1021.8,926.09 1027.2,1008.4 1029.5,1045"];
	19 -- 87	[pos="997.58,883.29 979.8,893.36 954.32,907.79 936.55,917.85"];
	109	[height=0.5,
		pos="1172.5,978.11",
		width=0.75];
	19 -- 109	[pos="1037.2,884.62 1066.8,905.07 1123.7,944.42 1153.4,964.94"];
	124	[height=0.5,
		pos="904.26,1108.6",
		width=0.75];
	19 -- 124	[pos="1009.9,888.98 988.84,932.81 933.77,1047.2 912.66,1091.1"];
	19 -- 156	[pos="996.75,860.32 947.21,834.52 825.76,771.26 776.29,745.49"];
	185	[height=0.5,
		pos="1204.4,859.85",
		width=0.75];
	19 -- 185	[pos="1045.4,869.85 1080.7,867.63 1142,863.77 1177.3,861.55"];
	19 -- 211	[pos="1031,855.45 1055.4,824.45 1108.5,756.81 1132.9,725.86"];
	20	[height=0.5,
		pos="969.91,994.95",
		width=0.75];
	20 -- 81	[pos="946.11,1003.5 910.05,1016.5 841.98,1041.1 805.87,1054.1"];
	106	[height=0.5,
		pos="966.41,1136.1",
		width=0.75];
	20 -- 106	[pos="969.46,1013.1 968.79,1040.2 967.53,1091 966.86,1118"];
	20 -- 186	[pos="985.27,979.83 1023.9,941.81 1124.7,842.54 1163.3,804.49"];
	20 -- 189	[pos="952.18,980.86 897.06,937.06 729.14,803.62 674.29,760.03"];
	21	[height=0.5,
		pos="906.64,1064.4",
		width=0.75];
	21 -- 79	[pos="933.86,1064.1 954.55,1063.9 982.87,1063.6 1003.5,1063.4"];
	21 -- 84	[pos="893.14,1048.7 865.8,1016.8 804.14,945.12 776.74,913.25"];
	94	[height=0.5,
		pos="444.41,1086.6",
		width=0.75];
	21 -- 94	[pos="879.45,1065.7 797.49,1069.6 553.47,1081.4 471.56,1085.3"];
	21 -- 158	[pos="921.8,1049.2 963.68,1007.4 1080.6,890.52 1122.5,848.61"];
	21 -- 190	[pos="879.63,1066 841.96,1068.3 774.06,1072.3 736.4,1074.6"];
	21 -- 200	[pos="895.39,1048 879.47,1024.8 850.54,982.64 834.58,959.39"];
	22	[height=0.5,
		pos="1080.4,898.02",
		width=0.75];
	22 -- 85	[pos="1059.9,909.94 1015.3,935.85 909.95,997.05 865.26,1023"];
	92	[height=0.5,
		pos="1092.7,1063.3",
		width=0.75];
	22 -- 92	[pos="1081.7,916.02 1084.1,947.73 1089,1013.2 1091.4,1045"];
	22 -- 95	[pos="1093.5,882.26 1117.9,853 1169.8,790.61 1194.3,761.24"];
	22 -- 168	[pos="1081.2,879.66 1084,822.6 1092.2,648.76 1094.9,591.97"];
	22 -- 191	[pos="1054.6,892.51 1011.4,883.27 924.9,864.75 881.68,855.5"];
	23	[height=0.5,
		pos="270.71,787.75",
		width=0.75];
	23 -- 50	[pos="284.42,803.66 303.94,826.31 339.5,867.58 358.89,890.09"];
	23 -- 86	[pos="257.22,803.37 236.47,827.38 196.96,873.12 176.11,897.25"];
	23 -- 96	[pos="298.03,786.44 343.98,784.25 436.17,779.85 481.9,777.66"];
	23 -- 159	[pos="248.81,798.63 226.14,809.9 190.92,827.41 168.32,838.64"];
	23 -- 196	[pos="256.29,772.51 232.17,747.03 183.9,696.04 159.63,670.4"];
	23 -- 231	[pos="284.76,772.01 293.58,762.14 304.89,749.47 313.67,739.64"];
	24	[height=0.5,
		pos="968.64,1081.6",
		width=0.75];
	24 -- 56	[pos="985.48,1067.4 1019,1039.2 1093.9,976.31 1127.5,948.14"];
	24 -- 92	[pos="995.26,1077.7 1016.2,1074.6 1045.2,1070.3 1066.2,1067.2"];
	24 -- 151	[pos="958.68,1064.5 947.12,1044.7 928.16,1012.1 916.6,992.32"];
	24 -- 197	[pos="947.11,1092.6 920,1106.5 873.69,1130.2 846.51,1144.1"];
	24 -- 210	[pos="941.56,1081.4 879.51,1080.9 727.6,1079.8 665.19,1079.3"];
	228	[height=0.5,
		pos="1028.5,1173.9",
		width=0.75];
	24 -- 228	[pos="979.61,1098.5 990.41,1115.2 1006.8,1140.5 1017.6,1157.1"];
	25	[height=0.5,
		pos="821.71,317.31",
		width=0.75];
	25 -- 52	[pos="796.26,323.57 729.78,339.92 551.54,383.75 485.09,400.1"];
	97	[height=0.5,
		pos="961.98,168.33",
		width=0.75];
	25 -- 97	[pos="836.2,301.93 863.08,273.38 920.39,212.5 947.37,183.85"];
	25 -- 134	[pos="848.19,321.31 890.38,327.69 972.39,340.1 1014.6,346.48"];
	25 -- 140	[pos="794.5,317.92 755.19,318.8 682.95,320.42 643.76,321.3"];
	25 -- 198	[pos="815.72,299.57 806.78,273.1 790.05,223.55 781.13,197.11"];
	206	[height=0.5,
		pos="1027.8,208.35",
		width=0.75];
	25 -- 206	[pos="843,306.06 882.6,285.13 967.16,240.43 1006.7,219.54"];
	237	[height=0.5,
		pos="958.75,434.95",
		width=0.75];
	25 -- 237	[pos="838.52,331.74 864.82,354.31 915.42,397.76 941.81,420.41"];
	25 -- 248	[pos="836.26,332.64 869.04,367.19 948.38,450.8 981.23,485.43"];
	26	[height=0.5,
		pos="1142.4,881.04",
		width=0.75];
	26 -- 74	[pos="1115.2,881.45 1074.7,882.08 998.9,883.25 958.45,883.87"];
	100	[height=0.5,
		pos="1090.2,1107.3",
		width=0.75];
	26 -- 100	[pos="1138.2,899.17 1128.4,941.64 1104.1,1047.1 1094.3,1089.4"];
	26 -- 109	[pos="1147.9,898.84 1153.3,916.36 1161.6,942.94 1167,960.42"];
	26 -- 162	[pos="1129,865.23 1082.9,810.99 931.52,632.69 885.34,578.29"];
	199	[height=0.5,
		pos="1267.5,841.96",
		width=0.75];
	26 -- 199	[pos="1167.1,873.32 1189,866.46 1220.9,856.51 1242.8,849.66"];
	27	[height=0.5,
		pos="1032.8,688.68",
		width=0.75];
	27 -- 91	[pos="1041.5,671.2 1065,623.8 1129.8,493.17 1153.3,445.85"];
	27 -- 102	[pos="1028.8,706.93 1024.4,726.82 1017.5,758.47 1013.1,778.26"];
	27 -- 113	[pos="1052.9,676.56 1076.3,662.48 1114.6,639.4 1138,625.33"];
	27 -- 185	[pos="1048,703.87 1080.5,736.27 1156.3,811.86 1189,844.45"];
	27 -- 201	[pos="1047.6,673.51 1072.9,647.67 1124,595.41 1149.3,569.46"];
	27 -- 241	[pos="1008,681.24 953.65,664.9 824.39,626.06 769.99,609.71"];
	28	[height=0.5,
		pos="840.66,1108.1",
		width=0.75];
	28 -- 106	[pos="866.41,1113.9 888.11,1118.7 919,1125.6 940.69,1130.4"];
	143	[height=0.5,
		pos="1110.4,1017.8",
		width=0.75];
	28 -- 143	[pos="865.07,1100 916.44,1082.8 1035.1,1043 1086.3,1025.9"];
	28 -- 188	[pos="813.7,1109.3 808.69,1109.5 803.46,1109.8 798.45,1110"];
	28 -- 202	[pos="813.49,1106.7 751.69,1103.3 601.14,1095 539.31,1091.6"];
	224	[height=0.5,
		pos="516.86,1134.2",
		width=0.75];
	28 -- 224	[pos="813.61,1110.3 752.66,1115.2 605.15,1127.1 544.06,1132"];
	28 -- 226	[pos="841.25,1090.1 842,1067.4 843.27,1028.6 844.02,1005.8"];
	29	[height=0.5,
		pos="877.65,606.4",
		width=0.75];
	29 -- 57	[pos="851.38,611.44 801.59,620.99 694.05,641.63 644.51,651.13"];
	107	[height=0.5,
		pos="1181.9,510.1",
		width=0.75];
	29 -- 107	[pos="902.29,598.61 959.45,580.52 1100.5,535.87 1157.5,517.84"];
	29 -- 167	[pos="860.15,620.53 852.05,627.06 842.47,634.8 834.4,641.31"];
	29 -- 203	[pos="903.98,610.88 930.62,615.4 971.59,622.36 998.33,626.91"];
	29 -- 234	[pos="874.82,588.17 868.21,545.45 851.78,439.33 845.2,396.84"];
	29 -- 237	[pos="885.87,589.02 901.45,556.07 935.11,484.91 950.62,452.13"];
	240	[height=0.5,
		pos="1116.3,384.44",
		width=0.75];
	29 -- 240	[pos="893.67,591.5 937.14,551.06 1056.9,439.64 1100.3,399.28"];
	30	[height=0.5,
		pos="1003.2,734.97",
		width=0.75];
	30 -- 80	[pos="983.84,747.72 976.42,752.61 967.95,758.2 960.52,763.1"];
	30 -- 108	[pos="987.44,749.65 954.93,779.94 880.73,849.09 848.26,879.36"];
	138	[height=0.5,
		pos="1271.6,785.18",
		width=0.75];
	30 -- 138	[pos="1029.4,739.88 1080.7,749.47 1193.8,770.64 1245.2,780.25"];
	30 -- 199	[pos="1026.6,744.46 1076.8,764.77 1194,812.2 1244.1,832.48"];
	30 -- 205	[pos="1007,716.76 1017.1,669.08 1044.1,541.05 1054.1,493.78"];
	209	[height=0.5,
		pos="1269.7,669.2",
		width=0.75];
	30 -- 209	[pos="1028.7,728.66 1079.7,716.09 1193.3,688.04 1244.2,675.49"];
	30 -- 212	[pos="995.9,717.3 973.28,662.37 904.37,495.03 881.85,440.36"];
	31	[height=0.5,
		pos="1107.1,296.38",
		width=0.75];
	31 -- 97	[pos="1090.8,281.94 1062.9,257.35 1006.5,207.6 978.51,182.91"];
	31 -- 110	[pos="1079.9,295.3 1007.6,292.41 810.88,284.56 738.6,281.68"];
	149	[height=0.5,
		pos="1090.6,168.83",
		width=0.75];
	31 -- 149	[pos="1104.8,278.38 1101.7,254.21 1096.2,211.49 1093,187.16"];
	31 -- 157	[pos="1108.4,314.6 1110.9,349.14 1116.2,423.73 1118.6,458.09"];
	31 -- 206	[pos="1092.9,280.64 1078.5,264.62 1056.3,239.93 1041.9,223.95"];
	31 -- 240	[pos="1109,314.63 1110.6,329.74 1112.8,351.11 1114.4,366.22"];
	32	[height=0.5,
		pos="720.23,110.21",
		width=0.75];
	32 -- 69	[pos="733.27,126.11 773.71,175.39 896.69,325.3 937.32,374.83"];
	111	[height=0.5,
		pos="893.84,201.95",
		width=0.75];
	32 -- 111	[pos="741.52,121.46 774.93,139.11 839.3,173.13 872.65,190.75"];
	32 -- 172	[pos="694.61,116.61 610.04,137.71 340.41,204.99 256.21,226"];
	32 -- 207	[pos="702.13,124.05 655.67,159.55 532.69,253.54 486.42,288.9"];
	33	[height=0.5,
		pos="271.34,839.97",
		width=0.75];
	33 -- 90	[pos="298.42,841.28 367.22,844.61 548.1,853.35 616.79,856.67"];
	33 -- 114	[pos="289.9,853.06 319.85,874.18 378.54,915.56 408.78,936.88"];
	33 -- 130	[pos="264.18,857.51 255.17,879.59 239.77,917.31 230.74,939.45"];
	33 -- 163	[pos="281.97,856.6 300.09,884.93 336.73,942.23 354.91,970.67"];
	33 -- 208	[pos="262.83,822.71 249.5,795.7 223.87,743.73 210.5,716.64"];
	33 -- 235	[pos="296.85,846.04 354.32,859.73 493.42,892.86 551.03,906.58"];
	34	[height=0.5,
		pos="218.21,307.1",
		width=0.75];
	34 -- 115	[pos="238.09,294.69 287.23,264.01 413.97,184.89 462.97,154.29"];
	34 -- 118	[pos="223.34,324.92 229.8,347.36 240.83,385.7 247.3,408.2"];
	123	[height=0.5,
		pos="280.26,325.21",
		width=0.75];
	34 -- 123	[pos="243.09,314.36 247.14,315.54 251.33,316.77 255.37,317.95"];
	34 -- 142	[pos="195.07,297.39 166.26,285.3 117.37,264.79 88.696,252.76"];
	34 -- 213	[pos="239.34,295.82 299.36,263.77 470.47,172.41 530.64,140.28"];
	214	[height=0.5,
		pos="615.05,171.88",
		width=0.75];
	34 -- 214	[pos="242.44,298.85 313.37,274.68 520.04,204.25 590.89,180.11"];
	35	[height=0.5,
		pos="681.25,368.65",
		width=0.75];
	35 -- 116	[pos="706.86,362.81 764.58,349.66 904.25,317.83 962.1,304.64"];
	35 -- 120	[pos="654.44,365.43 601.5,359.09 484.07,345.01 431.12,338.67"];
	35 -- 141	[pos="673.56,385.93 663.24,409.13 645.01,450.14 634.62,473.5"];
	35 -- 147	[pos="696.79,353.66 725.64,325.84 787.16,266.53 816.12,238.61"];
	35 -- 214	[pos="675.25,350.84 662.65,313.38 633.53,226.81 620.98,189.5"];
	238	[height=0.5,
		pos="1103.3,340.41",
		width=0.75];
	35 -- 238	[pos="708.29,366.84 784.42,361.74 999.99,347.32 1076.2,342.22"];
	36	[height=0.5,
		pos="885.84,157.84",
		width=0.75];
	36 -- 70	[pos="860.48,164.24 813.41,176.12 713.05,201.44 665.82,213.36"];
	36 -- 121	[pos="906.76,169.62 939.11,187.83 1000.9,222.61 1033.1,240.73"];
	36 -- 149	[pos="913.04,159.3 952.32,161.41 1024.5,165.28 1063.7,167.38"];
	36 -- 180	[pos="859.78,162.74 801.61,173.67 661.75,199.97 603.34,210.95"];
	215	[height=0.5,
		pos="728.82,18",
		width=0.75];
	36 -- 215	[pos="869.63,143.4 839.54,116.6 775.38,59.465 745.18,32.57"];
	37	[height=0.5,
		pos="41.675,566.82",
		width=0.75];
	37 -- 66	[pos="41.899,548.73 42.091,533.22 42.366,511 42.558,495.5"];
	37 -- 122	[pos="68.678,566.81 71.797,566.81 74.978,566.81 78.1,566.81"];
	37 -- 187	[pos="48.612,549.26 61.286,517.18 88.043,449.47 100.72,417.38"];
	216	[height=0.5,
		pos="27,719.34",
		width=0.75];
	37 -- 216	[pos="39.934,584.91 37.11,614.27 31.562,671.93 28.739,701.27"];
	38	[height=0.5,
		pos="505.3,450.43",
		width=0.75];
	38 -- 67	[pos="478.86,446.25 419.29,436.82 275.11,414.01 215.4,404.56"];
	38 -- 123	[pos="484.53,438.87 441.77,415.08 344.3,360.84 301.31,336.92"];
	38 -- 219	[pos="531.76,454.56 591.95,463.97 738.58,486.87 798.81,496.28"];
	244	[height=0.5,
		pos="466.34,359.02",
		width=0.75];
	38 -- 244	[pos="497.79,432.81 490.89,416.62 480.72,392.76 473.83,376.59"];
	38 -- 245	[pos="500.44,468.45 486.98,518.34 449.35,657.85 435.98,707.39"];
	39	[height=0.5,
		pos="782.39,1201.8",
		width=0.75];
	39 -- 64	[pos="755.22,1202.5 735.62,1203.1 709.28,1203.8 689.71,1204.4"];
	39 -- 124	[pos="800.38,1188 823.42,1170.4 863.13,1140 886.2,1122.4"];
	39 -- 184	[pos="785.97,1219.8 787.29,1226.5 788.78,1234 790.1,1240.7"];
	39 -- 221	[pos="755.18,1200.4 720.81,1198.6 662.02,1195.5 627.7,1193.7"];
	39 -- 225	[pos="755.5,1199.7 697.58,1195.2 561.62,1184.8 503.47,1180.3"];
	40	[height=0.5,
		pos="333.48,861.73",
		width=0.75];
	40 -- 54	[pos="338.96,844.07 349.69,809.53 373.34,733.38 384.08,698.78"];
	40 -- 125	[pos="308.05,868.34 296.39,871.37 282.6,874.95 270.94,877.98"];
	131	[height=0.5,
		pos="224.47,1002.3",
		width=0.75];
	40 -- 131	[pos="320.97,877.85 300.06,904.82 258.21,958.79 237.16,985.92"];
	136	[height=0.5,
		pos="89.046,743.21",
		width=0.75];
	40 -- 136	[pos="311.36,851 264.82,828.43 157.28,776.29 110.94,753.83"];
	40 -- 223	[pos="359.37,855.99 394.94,848.11 458.55,834.02 494.01,826.17"];
	40 -- 224	[pos="344.67,878.36 377.41,926.99 472.73,1068.6 505.58,1117.4"];
	40 -- 246	[pos="349.84,876.17 380.22,902.99 444.98,960.16 475.47,987.07"];
	41	[height=0.5,
		pos="970.8,1218",
		width=0.75];
	41 -- 100	[pos="986.9,1203 1009.8,1181.8 1051.6,1143.1 1074.3,1122"];
	41 -- 126	[pos="943.69,1217.3 922.38,1216.7 892.82,1216 871.52,1215.4"];
	41 -- 222	[pos="949.37,1229.2 942.77,1232.7 935.51,1236.5 928.91,1240"];
	41 -- 228	[pos="988.73,1204.3 995.61,1199 1003.5,1193 1010.3,1187.8"];
	42	[height=0.5,
		pos="228.49,598.43",
		width=0.75];
	42 -- 73	[pos="255.3,595.46 281.22,592.59 320.27,588.26 346.14,585.39"];
	42 -- 129	[pos="238.87,615.36 258.86,647.96 302.47,719.1 322.42,751.64"];
	42 -- 136	[pos="213.83,613.65 187.12,641.38 130.81,699.85 103.93,727.76"];
	42 -- 220	[pos="239.73,581.99 256.7,557.16 288.69,510.35 305.77,485.36"];
	42 -- 229	[pos="212.76,583.25 194.38,565.5 164.16,536.35 145.94,518.76"];
	43	[height=0.5,
		pos="343.27,1163.4",
		width=0.75];
	43 -- 128	[pos="362.62,1150.4 396.26,1127.8 465.14,1081.5 498.66,1059"];
	43 -- 131	[pos="331.22,1147.1 308.45,1116.2 259.34,1049.6 236.55,1018.7"];
	43 -- 194	[pos="335.25,1146.1 330.63,1136.1 324.85,1123.6 320.23,1113.7"];
	43 -- 230	[pos="367.3,1171.8 407.6,1185.8 488.35,1213.9 528.67,1227.9"];
	44	[height=0.5,
		pos="1075.7,790.84",
		width=0.75];
	44 -- 88	[pos="1063.6,807.31 1032.5,849.58 950.3,961.5 919.36,1003.6"];
	44 -- 132	[pos="1090.8,775.62 1116.2,750.03 1167.3,698.69 1192.6,673.22"];
	44 -- 138	[pos="1102.9,790.05 1140.3,788.97 1207.3,787.03 1244.6,785.96"];
	44 -- 139	[pos="1048.5,792.63 1010.4,795.14 941.76,799.68 903.9,802.18"];
	44 -- 192	[pos="1077.5,772.87 1082.3,724.26 1095.5,590.52 1100.3,541.59"];
	44 -- 232	[pos="1052.3,800.02 1029.9,808.84 996.22,822.1 973.7,830.96"];
	45	[height=0.5,
		pos="807.83,455.25",
		width=0.75];
	45 -- 111	[pos="813.88,437.44 829.67,390.93 872.01,266.22 887.8,219.74"];
	45 -- 133	[pos="804.54,437.25 797.97,401.36 783.33,321.3 776.78,285.46"];
	45 -- 195	[pos="785.05,464.99 748.75,480.51 678.2,510.68 641.85,526.22"];
	45 -- 233	[pos="834.77,453.1 890.38,448.65 1017.3,438.51 1072.9,434.07"];
	45 -- 242	[pos="801.96,472.88 789.85,509.26 762.21,592.32 750.11,628.68"];
	46	[height=0.5,
		pos="208.66,813.89",
		width=0.75];
	46 -- 94	[pos="222.35,829.73 264.02,877.94 388.96,1022.5 430.68,1070.7"];
	46 -- 137	[pos="221.83,798 244.67,770.44 291.37,714.08 314.26,686.46"];
	46 -- 216	[pos="187.11,802.67 152.15,784.48 83.468,748.73 48.524,730.54"];
	46 -- 236	[pos="218.05,830.82 235.81,862.82 274.11,931.85 291.88,963.89"];
	47	[height=0.5,
		pos="1226.4,592.47",
		width=0.75];
	47 -- 107	[pos="1217.2,575.4 1209.5,561.26 1198.7,541.28 1191.1,527.15"];
	47 -- 143	[pos="1221.5,610.2 1202.7,679.38 1134.2,930.7 1115.3,1000"];
	47 -- 209	[pos="1236,609.5 1243.1,622.21 1252.9,639.51 1260.1,652.22"];
	47 -- 238	[pos="1217.9,575.14 1195.4,529.09 1134.3,404.04 1111.8,357.85"];
	48	[height=0.5,
		pos="487.88,90.541",
		width=0.75];
	48 -- 58	[pos="514.95,87.654 558.98,82.959 645.59,73.722 689.37,69.053"];
	48 -- 145	[pos="466.15,101.47 397.31,136.08 184.56,243.05 115.81,277.61"];
	48 -- 148	[pos="477.41,107.25 450.6,150.03 379.75,263.11 352.84,306.06"];
	48 -- 215	[pos="512.75,83.051 559.04,69.115 657.89,39.355 704.08,25.449"];
	48 -- 239	[pos="515.08,89.82 542.7,89.087 585.21,87.96 612.83,87.227"];
	49	[height=0.5,
		pos="679.32,324.61",
		width=0.75];
	49 -- 127	[pos="705.26,329.81 769.86,342.75 937.36,376.33 1002.1,389.31"];
	49 -- 146	[pos="688.64,307.49 708.24,271.47 753.54,188.23 773.05,152.37"];
	49 -- 155	[pos="665.14,340.11 643.61,363.67 602.9,408.19 581.44,431.66"];
	49 -- 244	[pos="652.78,328.9 611.85,335.51 533.81,348.12 492.88,354.73"];
}
