graph {
	graph [bb="0,0,1090.9,814.53",
		outputorder=edgesfirst,
		overlap=prism,
		size="50,50!",
		start=5534
	];
	node [label="\N"];
	0	[height=0.5,
		pos="232.64,747.33",
		width=0.75];
	1	[height=0.5,
		pos="380.56,778.04",
		width=0.75];
	0 -- 1	[pos="258.75,752.75 285.78,758.37 327.77,767.08 354.72,772.68"];
	20	[height=0.5,
		pos="109.25,674.23",
		width=0.75];
	0 -- 20	[pos="212.27,735.26 189.4,721.72 152.53,699.87 129.66,686.32"];
	2	[height=0.5,
		pos="478.87,796.53",
		width=0.75];
	1 -- 2	[pos="406.65,782.95 420.87,785.62 438.42,788.92 452.66,791.6"];
	59	[height=0.5,
		pos="482.76,712.98",
		width=0.75];
	1 -- 59	[pos="400.27,765.49 418.36,753.97 445.04,736.99 463.12,725.48"];
	26	[height=0.5,
		pos="143.42,561.86",
		width=0.75];
	20 -- 26	[pos="114.67,656.42 121.06,635.38 131.65,600.59 138.04,579.58"];
	21	[height=0.5,
		pos="176.4,517.81",
		width=0.75];
	20 -- 21	[pos="116.69,656.89 129.6,626.82 155.99,565.35 168.93,535.23"];
	3	[height=0.5,
		pos="542.22,757.02",
		width=0.75];
	2 -- 3	[pos="498.91,784.03 506.31,779.42 514.68,774.19 522.09,769.57"];
	42	[height=0.5,
		pos="419.79,673.41",
		width=0.75];
	2 -- 42	[pos="470.53,779.16 459.27,755.69 439.32,714.12 428.09,690.7"];
	34	[height=0.5,
		pos="154.85,628.61",
		width=0.75];
	26 -- 34	[pos="146.49,579.75 148.13,589.32 150.14,601.09 151.78,610.67"];
	27	[height=0.5,
		pos="225.14,472.66",
		width=0.75];
	26 -- 27	[pos="157.66,546.32 172.57,530.05 195.85,504.63 210.8,488.31"];
	4	[height=0.5,
		pos="357.08,693.7",
		width=0.75];
	3 -- 4	[pos="518.01,748.74 482.53,736.6 416.77,714.12 381.29,701.98"];
	93	[height=0.5,
		pos="671.65,648.35",
		width=0.75];
	3 -- 93	[pos="559.14,742.81 583.94,721.98 629.91,683.39 654.72,662.56"];
	41	[height=0.5,
		pos="295.64,645.74",
		width=0.75];
	34 -- 41	[pos="181.66,631.87 206.72,634.92 243.91,639.45 268.92,642.49"];
	35	[height=0.5,
		pos="114.32,477.99",
		width=0.75];
	34 -- 35	[pos="150.04,610.74 142.24,581.75 126.92,524.81 119.13,495.83"];
	5	[height=0.5,
		pos="239.02,601.65",
		width=0.75];
	4 -- 5	[pos="339.4,679.92 317.15,662.57 279.13,632.93 256.82,615.53"];
	60	[height=0.5,
		pos="404.34,585.37",
		width=0.75];
	4 -- 60	[pos="364.67,676.3 373.49,656.08 387.96,622.93 396.77,602.74"];
	49	[height=0.5,
		pos="238.42,519.24",
		width=0.75];
	41 -- 49	[pos="287.8,628.42 276.91,604.33 257.29,560.96 246.35,536.76"];
	41 -- 42	[pos="321.36,651.48 342.67,656.23 372.8,662.94 394.1,667.69"];
	6	[height=0.5,
		pos="80.74,591.46",
		width=0.75];
	5 -- 6	[pos="211.81,599.9 182.73,598.03 136.9,595.08 107.86,593.2"];
	5 -- 27	[pos="237.06,583.45 234.42,558.86 229.73,515.31 227.09,490.77"];
	53	[height=0.5,
		pos="342.3,554.97",
		width=0.75];
	49 -- 53	[pos="262.52,527.53 279.18,533.26 301.27,540.86 317.98,546.6"];
	50	[height=0.5,
		pos="302.84,422.89",
		width=0.75];
	49 -- 50	[pos="249.64,502.46 261.47,484.78 279.97,457.1 291.75,439.48"];
	7	[height=0.5,
		pos="97.997,433.98",
		width=0.75];
	6 -- 7	[pos="82.719,573.39 86.031,543.18 92.656,482.72 95.987,452.32"];
	6 -- 21	[pos="98.733,577.61 115.84,564.44 141.41,544.75 158.49,531.6"];
	58	[height=0.5,
		pos="357.71,643.24",
		width=0.75];
	53 -- 58	[pos="345.5,573.26 348.16,588.51 351.93,610.11 354.58,625.27"];
	54	[height=0.5,
		pos="439.13,472.4",
		width=0.75];
	53 -- 54	[pos="359.17,540.58 376.94,525.43 404.76,501.71 422.46,486.62"];
	8	[height=0.5,
		pos="52.235,494.14",
		width=0.75];
	7 -- 8	[pos="85.734,450.1 79.168,458.73 71.103,469.33 64.532,477.97"];
	22	[height=0.5,
		pos="223.52,420.77",
		width=0.75];
	7 -- 22	[pos="124.93,431.15 146.11,428.92 175.47,425.83 196.64,423.6"];
	67	[height=0.5,
		pos="455.29,629.4",
		width=0.75];
	58 -- 67	[pos="384.37,639.45 398.14,637.5 414.89,635.13 428.66,633.17"];
	58 -- 59	[pos="378.64,654.91 401.73,667.78 438.65,688.38 461.77,701.26"];
	9	[height=0.5,
		pos="35.84,390.15",
		width=0.75];
	8 -- 9	[pos="49.379,476.02 46.37,456.94 41.66,427.06 38.663,408.05"];
	8 -- 35	[pos="77.489,487.57 81.249,486.59 85.127,485.58 88.891,484.6"];
	75	[height=0.5,
		pos="501.19,481.82",
		width=0.75];
	67 -- 75	[pos="460.82,611.59 469.65,583.23 486.8,528.09 495.63,499.69"];
	68	[height=0.5,
		pos="528.42,606.59",
		width=0.75];
	67 -- 68	[pos="480.05,621.67 487.67,619.3 496.07,616.68 503.69,614.3"];
	10	[height=0.5,
		pos="44.834,346.12",
		width=0.75];
	9 -- 10	[pos="39.499,372.24 40.043,369.58 40.605,366.83 41.15,364.16"];
	36	[height=0.5,
		pos="161.47,399.2",
		width=0.75];
	9 -- 36	[pos="62.791,392.09 83.987,393.62 113.38,395.74 134.56,397.26"];
	81	[height=0.5,
		pos="660.79,526.88",
		width=0.75];
	75 -- 81	[pos="526.13,488.86 556.02,497.3 605.83,511.36 635.77,519.81"];
	76	[height=0.5,
		pos="494.18,308.03",
		width=0.75];
	75 -- 76	[pos="500.45,463.55 499.1,430.08 496.25,359.34 494.9,326.05"];
	11	[height=0.5,
		pos="89.449,261.77",
		width=0.75];
	10 -- 11	[pos="53.863,329.05 61.603,314.42 72.698,293.44 80.434,278.81"];
	37	[height=0.5,
		pos="183.53,350.74",
		width=0.75];
	10 -- 37	[pos="71.905,347.02 96.343,347.84 132.11,349.03 156.53,349.84"];
	86	[height=0.5,
		pos="718.8,695.93",
		width=0.75];
	81 -- 86	[pos="666.89,544.65 678.03,577.12 701.55,645.66 712.7,678.14"];
	82	[height=0.5,
		pos="639.71,446.19",
		width=0.75];
	81 -- 82	[pos="656.11,508.97 652.62,495.6 647.87,477.41 644.38,464.05"];
	12	[height=0.5,
		pos="106.89,306.18",
		width=0.75];
	11 -- 12	[pos="96.343,279.32 97.562,282.42 98.831,285.65 100.05,288.75"];
	38	[height=0.5,
		pos="217.57,262.63",
		width=0.75];
	11 -- 38	[pos="116.62,261.95 138.36,262.09 168.7,262.3 190.43,262.44"];
	91	[height=0.5,
		pos="780.86,665.49",
		width=0.75];
	86 -- 91	[pos="740.86,685.11 746.71,682.24 753.03,679.14 758.88,676.27"];
	87	[height=0.5,
		pos="594.73,658.93",
		width=0.75];
	86 -- 87	[pos="693.99,688.53 672.35,682.07 641.12,672.76 619.49,666.31"];
	13	[height=0.5,
		pos="151.55,262.18",
		width=0.75];
	12 -- 13	[pos="122.26,291.04 126.8,286.56 131.77,281.67 136.3,277.2"];
	23	[height=0.5,
		pos="199.33,306.7",
		width=0.75];
	12 -- 23	[pos="134.13,306.33 146.16,306.4 160.28,306.48 172.29,306.55"];
	97	[height=0.5,
		pos="904.87,594.82",
		width=0.75];
	91 -- 97	[pos="801.61,653.66 824.51,640.62 861.13,619.75 884.05,606.69"];
	92	[height=0.5,
		pos="774.56,533.41",
		width=0.75];
	91 -- 92	[pos="780,647.4 778.8,622.25 776.63,576.96 775.43,551.7"];
	14	[height=0.5,
		pos="210.53,174.27",
		width=0.75];
	13 -- 14	[pos="162.64,245.64 173.19,229.93 188.96,206.42 199.49,190.73"];
	28	[height=0.5,
		pos="245.58,376.74",
		width=0.75];
	13 -- 28	[pos="164.62,278.11 182.59,299.99 214.71,339.13 232.62,360.95"];
	100	[height=0.5,
		pos="913.21,525.81",
		width=0.75];
	97 -- 100	[pos="907.06,576.69 908.28,566.63 909.79,554.14 911,544.06"];
	98	[height=0.5,
		pos="838.86,526",
		width=0.75];
	97 -- 98	[pos="890.22,579.55 879.28,568.14 864.4,552.63 853.47,541.23"];
	15	[height=0.5,
		pos="286.13,114.45",
		width=0.75];
	14 -- 15	[pos="228.06,160.39 240.28,150.73 256.5,137.89 268.69,128.24"];
	73	[height=0.5,
		pos="398.54,153.1",
		width=0.75];
	14 -- 73	[pos="237.47,171.24 273.21,167.21 335.94,160.15 371.65,156.13"];
	109	[height=0.5,
		pos="1011.3,443.93",
		width=0.75];
	100 -- 109	[pos="930.3,511.55 948.32,496.52 976.51,473 994.45,458.03"];
	101	[height=0.5,
		pos="727.59,489.36",
		width=0.75];
	100 -- 101	[pos="887.01,520.67 851.63,513.72 788.97,501.42 753.66,494.48"];
	16	[height=0.5,
		pos="301.16,20.438",
		width=0.75];
	15 -- 16	[pos="289.03,96.32 291.69,79.673 295.61,55.137 298.27,38.508"];
	29	[height=0.5,
		pos="295.11,230.65",
		width=0.75];
	15 -- 29	[pos="287.53,132.6 289.22,154.43 292.03,190.84 293.71,212.62"];
	114	[height=0.5,
		pos="1004.4,504.84",
		width=0.75];
	109 -- 114	[pos="1009.3,462.21 1008.4,469.91 1007.4,478.87 1006.5,486.58"];
	110	[height=0.5,
		pos="815.7,412.35",
		width=0.75];
	109 -- 110	[pos="984.96,439.67 947.51,433.63 879.36,422.63 841.98,416.59"];
	17	[height=0.5,
		pos="222.2,18",
		width=0.75];
	16 -- 17	[pos="273.98,19.599 266.04,19.354 257.36,19.086 249.42,18.841"];
	30	[height=0.5,
		pos="349.04,108.54",
		width=0.75];
	16 -- 30	[pos="310.39,37.425 318.87,53.026 331.37,76.021 339.84,91.605"];
	118	[height=0.5,
		pos="967.49,572.8",
		width=0.75];
	114 -- 118	[pos="995.12,521.99 989.56,532.21 982.52,545.15 976.94,555.42"];
	115	[height=0.5,
		pos="908.38,481.78",
		width=0.75];
	114 -- 115	[pos="978.95,498.72 965.05,495.38 947.9,491.26 933.99,487.92"];
	18	[height=0.5,
		pos="98.095,65.221",
		width=0.75];
	17 -- 18	[pos="198.56,26.993 176.48,35.396 143.69,47.87 121.64,56.262"];
	31	[height=0.5,
		pos="355.12,64.494",
		width=0.75];
	17 -- 31	[pos="246.27,26.42 270.21,34.794 306.75,47.573 330.78,55.98"];
	124	[height=0.5,
		pos="758.71,621.47",
		width=0.75];
	118 -- 124	[pos="941.89,578.77 901.82,588.11 824.72,606.08 784.52,615.45"];
	119	[height=0.5,
		pos="841.17,578.01",
		width=0.75];
	118 -- 119	[pos="940.39,573.92 919.08,574.8 889.52,576.01 868.22,576.89"];
	19	[height=0.5,
		pos="27,51.041",
		width=0.75];
	18 -- 19	[pos="72.025,60.021 65.843,58.788 59.248,57.473 53.066,56.24"];
	24	[height=0.5,
		pos="101.03,197.36",
		width=0.75];
	18 -- 24	[pos="98.496,83.318 99.055,108.48 100.06,153.79 100.62,179.06"];
	129	[height=0.5,
		pos="870.9,711.7",
		width=0.75];
	124 -- 129	[pos="776.24,635.57 797.31,652.52 832.47,680.79 853.5,697.7"];
	125	[height=0.5,
		pos="647.29,570.89",
		width=0.75];
	124 -- 125	[pos="736.16,611.23 716.83,602.46 689.12,589.88 669.8,581.11"];
	25	[height=0.5,
		pos="47.009,143.04",
		width=0.75];
	19 -- 25	[pos="30.953,69.217 34.484,85.45 39.625,109.09 43.132,125.21"];
	130	[height=0.5,
		pos="842.86,637.61",
		width=0.75];
	129 -- 130	[pos="864.26,694.14 859.82,682.41 854.01,667.05 849.56,655.3"];
	21 -- 22	[pos="184.83,500.47 193.4,482.8 206.62,455.58 215.17,437.97"];
	44	[height=0.5,
		pos="309.9,510.92",
		width=0.75];
	21 -- 44	[pos="203.42,516.42 226.58,515.22 259.78,513.51 282.93,512.32"];
	22 -- 23	[pos="219.75,402.95 215.23,381.64 207.71,346.19 203.17,324.77"];
	22 -- 50	[pos="250.82,421.5 258.89,421.72 267.71,421.95 275.76,422.17"];
	59 -- 68	[pos="490.3,695.41 498.76,675.7 512.41,643.9 520.87,624.18"];
	59 -- 60	[pos="472.51,696.29 457.48,671.84 429.63,626.52 414.6,602.06"];
	68 -- 82	[pos="539.92,590.03 561.24,559.29 606.71,493.75 628.12,462.9"];
	69	[height=0.5,
		pos="466.4,570.13",
		width=0.75];
	68 -- 69	[pos="508.11,594.65 501.33,590.66 493.77,586.21 486.97,582.22"];
	82 -- 92	[pos="659.32,458.87 684.89,475.41 729.35,504.16 754.93,520.71"];
	83	[height=0.5,
		pos="634.97,321.66",
		width=0.75];
	82 -- 83	[pos="639.02,428.08 638.12,404.47 636.56,363.41 635.66,339.79"];
	23 -- 24	[pos="185.25,291.03 166.56,270.25 133.76,233.77 115.09,213"];
	104	[height=0.5,
		pos="392.78,277.59",
		width=0.75];
	23 -- 104	[pos="225.83,302.71 262.77,297.15 329.36,287.13 366.3,281.58"];
	92 -- 101	[pos="758.66,518.5 753.76,513.9 748.37,508.85 743.48,504.26"];
	92 -- 93	[pos="760.68,548.91 741.04,570.85 705.33,610.72 685.63,632.73"];
	101 -- 115	[pos="754.66,488.23 788.84,486.79 847.3,484.34 881.43,482.91"];
	102	[height=0.5,
		pos="515.66,435.25",
		width=0.75];
	101 -- 102	[pos="702.03,482.84 661.18,472.41 581.68,452.1 540.98,441.71"];
	115 -- 130	[pos="900.99,499.35 888.41,529.28 862.96,589.81 850.32,619.86"];
	116	[height=0.5,
		pos="1001.9,338.72",
		width=0.75];
	115 -- 116	[pos="919.29,465.09 937.31,437.52 973.07,382.8 991.05,355.3"];
	24 -- 25	[pos="85.98,182.23 78.488,174.69 69.457,165.61 61.976,158.09"];
	32	[height=0.5,
		pos="148.5,153.24",
		width=0.75];
	24 -- 32	[pos="116.84,182.67 121.91,177.96 127.52,172.74 132.6,168.02"];
	33	[height=0.5,
		pos="127.69,109.24",
		width=0.75];
	25 -- 33	[pos="69.913,133.44 80.815,128.88 93.82,123.43 104.73,118.86"];
	131	[height=0.5,
		pos="753.99,739.93",
		width=0.75];
	130 -- 131	[pos="828.98,653.6 812.28,672.82 784.43,704.88 767.78,724.06"];
	42 -- 87	[pos="446.74,671.18 479.61,668.46 534.86,663.88 567.75,661.16"];
	43	[height=0.5,
		pos="339.85,599.01",
		width=0.75];
	42 -- 43	[pos="404,658.71 389.98,645.67 369.62,626.71 355.61,613.68"];
	27 -- 28	[pos="228.99,454.61 232.64,437.47 238.1,411.82 241.75,394.7"];
	27 -- 43	[pos="239.21,488.15 261.22,512.4 303.58,559.06 325.67,583.39"];
	87 -- 131	[pos="616.21,669.85 646.6,685.31 701.86,713.42 732.35,728.92"];
	88	[height=0.5,
		pos="577.68,466.42",
		width=0.75];
	87 -- 88	[pos="593.12,640.82 589.88,604.12 582.55,521.39 579.3,484.62"];
	28 -- 29	[pos="251.55,359.12 261.07,331.04 279.58,276.45 289.11,248.33"];
	55	[height=0.5,
		pos="370.12,367.93",
		width=0.75];
	28 -- 55	[pos="272.6,374.83 293.49,373.35 322.27,371.32 343.15,369.84"];
	29 -- 30	[pos="302.84,213.15 313.09,189.94 331.08,149.2 341.33,126"];
	63	[height=0.5,
		pos="454.83,240",
		width=0.75];
	29 -- 63	[pos="322.2,232.23 351.66,233.96 398.46,236.7 427.87,238.42"];
	30 -- 31	[pos="351.55,90.37 351.91,87.811 352.27,85.18 352.62,82.622"];
	39	[height=0.5,
		pos="336.54,158.64",
		width=0.75];
	30 -- 39	[pos="344.6,126.35 343.45,130.96 342.21,135.93 341.05,140.56"];
	31 -- 32	[pos="332.22,74.331 292.51,91.39 211.29,126.27 171.51,143.36"];
	65	[height=0.5,
		pos="510.07,108.43",
		width=0.75];
	31 -- 65	[pos="380.02,71.553 408.85,79.727 456.07,93.116 484.98,101.31"];
	32 -- 33	[pos="140.28,135.85 138.82,132.78 137.31,129.58 135.86,126.5"];
	51	[height=0.5,
		pos="279.65,282.29",
		width=0.75];
	32 -- 51	[pos="163.8,168.3 189.07,193.16 239.24,242.53 264.45,267.33"];
	40	[height=0.5,
		pos="223.71,112.18",
		width=0.75];
	33 -- 40	[pos="154.69,110.07 167.78,110.47 183.47,110.95 196.58,111.35"];
	132	[height=0.5,
		pos="816.23,756.6",
		width=0.75];
	131 -- 132	[pos="779.31,746.71 783.21,747.76 787.24,748.84 791.14,749.88"];
	35 -- 36	[pos="124.55,460.89 132.52,447.59 143.51,429.22 151.42,415.99"];
	45	[height=0.5,
		pos="287.17,466.91",
		width=0.75];
	35 -- 45	[pos="141.33,476.26 173.71,474.18 227.65,470.72 260.07,468.65"];
	36 -- 37	[pos="169.43,381.7 171.46,377.26 173.63,372.48 175.65,368.05"];
	46	[height=0.5,
		pos="365.71,412.08",
		width=0.75];
	36 -- 46	[pos="188.59,400.91 227.76,403.38 299.75,407.92 338.8,410.38"];
	37 -- 38	[pos="190.42,332.91 196.36,317.52 204.9,295.42 210.8,280.13"];
	72	[height=0.5,
		pos="369.63,322.82",
		width=0.75];
	37 -- 72	[pos="210.19,346.74 245.57,341.43 307.66,332.12 343.02,326.82"];
	38 -- 39	[pos="234.11,248.17 256.84,228.3 297.48,192.78 320.14,172.98"];
	47	[height=0.5,
		pos="307.59,334.12",
		width=0.75];
	38 -- 47	[pos="235.35,276.75 251.24,289.37 274.37,307.74 290.15,320.27"];
	93 -- 98	[pos="689.86,635.02 722.02,611.49 788.52,562.83 820.67,539.31"];
	94	[height=0.5,
		pos="591.41,614.9",
		width=0.75];
	93 -- 94	[pos="648.44,638.68 637.79,634.24 625.2,628.99 614.56,624.56"];
	98 -- 119	[pos="839.66,544.19 839.89,549.23 840.13,554.7 840.36,559.74"];
	99	[height=0.5,
		pos="949.23,418.69",
		width=0.75];
	98 -- 99	[pos="854.2,511.08 875.17,490.69 912.57,454.33 933.65,433.83"];
	39 -- 40	[pos="313.44,149.13 293.96,141.11 266.25,129.7 246.78,121.68"];
	64	[height=0.5,
		pos="460.6,168.03",
		width=0.75];
	39 -- 64	[pos="363.46,160.68 384.27,162.25 412.94,164.42 433.73,166"];
	119 -- 132	[pos="838.64,596.12 833.86,630.35 823.55,704.18 818.76,738.45"];
	120	[height=0.5,
		pos="797.94,456.39",
		width=0.75];
	119 -- 120	[pos="834.88,560.33 826.69,537.27 812.44,497.16 804.24,474.09"];
	48	[height=0.5,
		pos="213.59,218.3",
		width=0.75];
	40 -- 48	[pos="221.99,130.19 220.13,149.7 217.18,180.66 215.31,200.21"];
	133	[height=0.5,
		pos="691.95,761.41",
		width=0.75];
	132 -- 133	[pos="789.26,757.64 768.56,758.45 740.09,759.55 719.29,760.36"];
	43 -- 44	[pos="333.79,581.18 328.6,565.9 321.15,544 315.95,528.72"];
	43 -- 69	[pos="365.46,593.16 387.42,588.15 418.88,580.97 440.83,575.96"];
	44 -- 45	[pos="301.05,493.78 299.4,490.59 297.68,487.26 296.04,484.08"];
	44 -- 54	[pos="334.82,503.5 357.7,496.68 391.43,486.62 414.29,479.81"];
	60 -- 94	[pos="430.75,589.54 466.3,595.15 529.2,605.08 564.83,610.71"];
	61	[height=0.5,
		pos="377.06,472.46",
		width=0.75];
	60 -- 61	[pos="400.02,567.48 394.91,546.34 386.46,511.38 381.36,490.27"];
	45 -- 46	[pos="306.18,453.64 318.53,445.02 334.56,433.83 346.87,425.23"];
	70	[height=0.5,
		pos="422.15,516.63",
		width=0.75];
	45 -- 70	[pos="310.99,475.68 335.51,484.72 373.51,498.71 398.11,507.78"];
	46 -- 47	[pos="353.67,395.93 343.69,382.55 329.59,363.63 319.62,350.25"];
	71	[height=0.5,
		pos="431.47,428.34",
		width=0.75];
	46 -- 71	[pos="391.32,418.41 396.08,419.59 401.06,420.82 405.82,422"];
	47 -- 48	[pos="294.52,318.02 276.56,295.89 244.45,256.32 226.55,234.27"];
	103	[height=0.5,
		pos="492.21,382.36",
		width=0.75];
	47 -- 103	[pos="332.88,340.73 368.13,349.94 431.69,366.55 466.94,375.76"];
	94 -- 133	[pos="602.74,631.43 622.05,659.56 661.11,716.48 680.5,744.73"];
	95	[height=0.5,
		pos="577.71,413.16",
		width=0.75];
	94 -- 95	[pos="590.17,596.64 587.56,558.24 581.53,469.48 578.94,431.24"];
	52	[height=0.5,
		pos="272.58,158.45",
		width=0.75];
	48 -- 52	[pos="228.48,203.2 237.35,194.19 248.59,182.79 257.5,173.75"];
	134	[height=0.5,
		pos="656.77,696.46",
		width=0.75];
	133 -- 134	[pos="682.71,744.35 677.58,734.88 671.22,723.13 666.08,713.64"];
	50 -- 51	[pos="299.86,404.8 295.4,377.8 287.07,327.27 282.62,300.31"];
	50 -- 61	[pos="321.95,435.66 332.95,443 346.72,452.2 357.75,459.57"];
	69 -- 125	[pos="493.48,570.24 527.58,570.38 585.83,570.63 620.02,570.77"];
	69 -- 70	[pos="453.12,554.08 447.52,547.3 441.02,539.44 435.42,532.67"];
	51 -- 52	[pos="278.62,264.28 277.28,240.8 274.95,199.97 273.61,176.48"];
	56	[height=0.5,
		pos="392.82,205.42",
		width=0.75];
	51 -- 56	[pos="298.59,269.42 319.48,255.23 352.9,232.53 373.82,218.32"];
	125 -- 134	[pos="648.65,588.88 650.44,612.61 653.58,654.17 655.39,678.09"];
	126	[height=0.5,
		pos="580.67,365.9",
		width=0.75];
	125 -- 126	[pos="641.49,553.05 628.86,514.19 598.98,422.24 586.4,383.54"];
	57	[height=0.5,
		pos="419.51,109.06",
		width=0.75];
	52 -- 57	[pos="296.84,150.29 324.07,141.14 367.97,126.38 395.21,117.23"];
	135	[height=0.5,
		pos="715.63,577.44",
		width=0.75];
	134 -- 135	[pos="665.33,679.15 676.49,656.59 695.9,617.34 707.07,594.77"];
	54 -- 88	[pos="466.17,471.24 490.59,470.18 526.32,468.64 550.71,467.58"];
	54 -- 55	[pos="428.04,455.62 415.16,436.12 394.05,404.16 381.18,384.68"];
	88 -- 120	[pos="604.69,465.19 646.97,463.26 728.31,459.56 770.71,457.63"];
	89	[height=0.5,
		pos="696.98,360.42",
		width=0.75];
	88 -- 89	[pos="594.27,451.68 617.06,431.43 657.82,395.22 680.54,375.04"];
	55 -- 56	[pos="372.64,349.92 377,318.68 385.92,254.8 390.29,223.51"];
	62	[height=0.5,
		pos="432.16,336.71",
		width=0.75];
	55 -- 62	[pos="391.82,357.01 397.83,353.99 404.35,350.7 410.37,347.68"];
	120 -- 135	[pos="786.67,472.97 771,496.02 742.78,537.52 727.03,560.67"];
	121	[height=0.5,
		pos="939.83,374.67",
		width=0.75];
	120 -- 121	[pos="818.57,444.5 845.47,429.01 892.26,402.06 919.17,386.56"];
	56 -- 57	[pos="397.84,187.29 402.64,169.96 409.84,143.98 414.6,126.78"];
	107	[height=0.5,
		pos="708.67,194.08",
		width=0.75];
	56 -- 107	[pos="420.02,204.44 479.73,202.3 621.68,197.2 681.42,195.06"];
	66	[height=0.5,
		pos="464.1,24.738",
		width=0.75];
	57 -- 66	[pos="428.53,91.997 436.27,77.367 447.36,56.399 455.09,41.777"];
	136	[height=0.5,
		pos="512.27,526.06",
		width=0.75];
	135 -- 136	[pos="690.29,571.04 651.21,561.16 576.69,542.34 537.61,532.46"];
	61 -- 62	[pos="384.15,454.99 394.73,428.93 414.53,380.14 425.09,354.11"];
	61 -- 136	[pos="400.3,481.68 425.07,491.5 464.05,506.95 488.88,516.79"];
	62 -- 63	[pos="436.42,318.52 440.48,301.23 446.54,275.37 450.59,258.11"];
	105	[height=0.5,
		pos="516.85,260.06",
		width=0.75];
	62 -- 105	[pos="448.49,321.93 463.48,308.36 485.59,288.36 500.57,274.8"];
	63 -- 64	[pos="456.29,221.84 457.16,211.01 458.25,197.3 459.12,186.43"];
	78	[height=0.5,
		pos="646.64,179.69",
		width=0.75];
	63 -- 78	[pos="479.52,232.24 516.35,220.66 585.28,198.98 622.06,187.42"];
	64 -- 65	[pos="473.86,152.06 480.95,143.51 489.67,133 496.78,124.44"];
	64 -- 83	[pos="477,182.48 510.23,211.76 585.18,277.79 618.48,307.13"];
	65 -- 66	[pos="500.77,91.492 492.79,76.972 481.36,56.161 473.39,41.649"];
	79	[height=0.5,
		pos="611.16,91.623",
		width=0.75];
	65 -- 79	[pos="536.37,104.06 551.23,101.59 569.75,98.507 584.64,96.031"];
	74	[height=0.5,
		pos="531.48,64.251",
		width=0.75];
	66 -- 74	[pos="484.68,36.808 493.04,41.71 502.68,47.36 511.02,52.255"];
	137	[height=0.5,
		pos="575.08,510.43",
		width=0.75];
	136 -- 137	[pos="537.82,519.7 541.76,518.72 545.82,517.71 549.76,516.73"];
	70 -- 71	[pos="424.08,498.34 425.69,483.08 427.97,461.47 429.57,446.31"];
	70 -- 102	[pos="438.87,502.08 455.89,487.27 482.12,464.44 499.08,449.67"];
	71 -- 72	[pos="421.53,411.39 409.99,391.7 391.07,359.41 379.54,339.74"];
	71 -- 95	[pos="458.29,425.56 484.51,422.83 524.23,418.71 550.56,415.98"];
	72 -- 73	[pos="372.72,304.66 378.29,271.99 389.92,203.7 395.47,171.13"];
	72 -- 76	[pos="396.35,319.65 417.36,317.15 446.5,313.69 467.5,311.2"];
	73 -- 74	[pos="417.87,140.18 443.08,123.33 486.91,94.038 512.13,77.185"];
	77	[height=0.5,
		pos="584.62,213.29",
		width=0.75];
	73 -- 77	[pos="422.87,160.97 458.53,172.5 524.62,193.88 560.29,205.42"];
	102 -- 137	[pos="528.26,451.19 538.28,463.86 552.23,481.52 562.29,494.25"];
	102 -- 103	[pos="507.98,417.93 505.41,412.15 502.56,405.7 499.98,399.9"];
	80	[height=0.5,
		pos="631.93,27.58",
		width=0.75];
	74 -- 80	[pos="555.28,55.56 571.18,49.757 592.01,42.152 607.95,36.335"];
	138	[height=0.5,
		pos="701.77,412.25",
		width=0.75];
	137 -- 138	[pos="592.7,496.78 616.77,478.13 659.69,444.86 683.9,426.1"];
	76 -- 77	[pos="508.71,292.81 525.49,275.23 552.94,246.48 569.83,228.79"];
	139	[height=0.5,
		pos="556.19,321.66",
		width=0.75];
	76 -- 139	[pos="520.12,313.73 523.43,314.46 526.83,315.21 530.15,315.94"];
	95 -- 110	[pos="605.01,413.07 650.79,412.91 742.53,412.6 788.35,412.44"];
	96	[height=0.5,
		pos="759.03,368.21",
		width=0.75];
	95 -- 96	[pos="603.3,406.82 637.86,398.25 699.07,383.07 733.56,374.52"];
	77 -- 78	[pos="605.62,201.91 612.09,198.41 619.2,194.56 625.67,191.05"];
	106	[height=0.5,
		pos="646.71,244.71",
		width=0.75];
	77 -- 106	[pos="606.34,224.28 612.35,227.32 618.88,230.62 624.9,233.67"];
	78 -- 79	[pos="639.63,162.29 633.45,146.95 624.49,124.71 618.27,109.29"];
	112	[height=0.5,
		pos="784.99,232.12",
		width=0.75];
	78 -- 112	[pos="670.43,188.7 695.77,198.3 735.66,213.42 761.05,223.05"];
	110 -- 138	[pos="788.41,412.33 770.37,412.31 746.83,412.29 728.84,412.28"];
	111	[height=0.5,
		pos="725.17,282.92",
		width=0.75];
	110 -- 111	[pos="804.23,395.96 786.91,371.2 754.26,324.51 736.83,299.59"];
	79 -- 80	[pos="616.94,73.784 619.82,64.901 623.3,54.193 626.17,45.324"];
	84	[height=0.5,
		pos="722.94,238.87",
		width=0.75];
	79 -- 84	[pos="623.55,107.94 645.03,136.25 688.97,194.12 710.5,222.47"];
	85	[height=0.5,
		pos="707.75,99.144",
		width=0.75];
	80 -- 85	[pos="647.64,42.408 660.65,54.69 679.05,72.058 692.06,84.335"];
	138 -- 139	[pos="681.83,399.85 654.11,382.6 604.2,351.54 576.35,334.21"];
	83 -- 84	[pos="650.7,306.85 666.61,291.88 691.08,268.85 707.05,253.82"];
	122	[height=0.5,
		pos="876.38,328.95",
		width=0.75];
	83 -- 122	[pos="662.19,322.48 708.68,323.88 802.84,326.73 849.25,328.13"];
	84 -- 85	[pos="720.99,220.89 718.09,194.21 712.67,144.39 709.75,117.5"];
	84 -- 89	[pos="719.11,256.8 714.2,279.79 705.74,319.4 700.83,342.41"];
	90	[height=0.5,
		pos="791.27,304.6",
		width=0.75];
	85 -- 90	[pos="714.87,116.66 730.65,155.48 768.4,248.35 784.16,287.12"];
	140	[height=0.5,
		pos="578.89,277.64",
		width=0.75];
	139 -- 140	[pos="565.03,304.51 566.67,301.33 568.39,298 570.03,294.81"];
	103 -- 126	[pos="518.27,377.51 529.69,375.39 543.06,372.9 554.49,370.77"];
	103 -- 104	[pos="477.54,366.9 458.74,347.1 426.34,312.95 407.51,293.11"];
	89 -- 90	[pos="717.44,348.31 733.26,338.95 755.04,326.04 770.85,316.69"];
	146	[height=0.5,
		pos="809.5,179.68",
		width=0.75];
	89 -- 146	[pos="707.37,343.74 728.8,309.31 777.73,230.72 799.14,196.32"];
	126 -- 140	[pos="580.3,347.61 579.99,332.46 579.56,311.04 579.26,295.9"];
	127	[height=0.5,
		pos="877.77,373.22",
		width=0.75];
	126 -- 127	[pos="607.82,366.57 664.4,367.96 794.35,371.16 850.78,372.55"];
	90 -- 96	[pos="782.46,321.98 777.91,330.95 772.37,341.87 767.83,350.85"];
	141	[height=0.5,
		pos="522.6,190.4",
		width=0.75];
	140 -- 141	[pos="568.04,260.82 558.07,245.37 543.38,222.6 533.42,207.17"];
	104 -- 141	[pos="411.93,264.73 436.48,248.24 478.78,219.83 503.36,203.32"];
	104 -- 105	[pos="419.39,273.83 440.33,270.87 469.35,266.77 490.27,263.82"];
	96 -- 99	[pos="784.28,374.91 820.66,384.57 887.43,402.28 923.86,411.95"];
	142	[height=0.5,
		pos="641.69,135.67",
		width=0.75];
	141 -- 142	[pos="545,180.11 566.29,170.32 598.13,155.69 619.39,145.92"];
	105 -- 142	[pos="532.15,244.81 556.25,220.81 602.72,174.5 626.65,150.66"];
	105 -- 106	[pos="543.44,256.92 565.7,254.29 597.33,250.55 619.7,247.9"];
	108	[height=0.5,
		pos="858.4,282.46",
		width=0.75];
	99 -- 108	[pos="938.09,401.98 920.66,375.84 887.12,325.53 869.63,299.3"];
	143	[height=0.5,
		pos="782.12,135.5",
		width=0.75];
	142 -- 143	[pos="668.77,135.63 693.48,135.6 729.82,135.56 754.65,135.53"];
	106 -- 111	[pos="668.56,255.35 679.35,260.61 692.34,266.94 703.16,272.2"];
	106 -- 107	[pos="663.97,230.6 672.56,223.58 682.92,215.12 691.5,208.11"];
	111 -- 143	[pos="731.92,265.43 742.89,237.06 764.42,181.32 775.37,152.97"];
	111 -- 112	[pos="742.15,268.5 750.3,261.57 760.04,253.3 768.17,246.4"];
	107 -- 108	[pos="729.18,206.18 757.85,223.11 809.6,253.66 838.14,270.51"];
	147	[height=0.5,
		pos="749.34,54.176",
		width=0.75];
	107 -- 147	[pos="713.82,176.36 721.6,149.6 736.27,99.131 744.1,72.193"];
	113	[height=0.5,
		pos="910.21,201.87",
		width=0.75];
	108 -- 113	[pos="869.14,265.76 878.03,251.93 890.6,232.37 899.49,218.54"];
	144	[height=0.5,
		pos="928.18,284.06",
		width=0.75];
	143 -- 144	[pos="796.93,150.56 824.92,179.03 885.31,240.45 913.33,268.96"];
	112 -- 116	[pos="806.98,242.92 848.55,263.36 938.22,307.43 979.84,327.88"];
	112 -- 113	[pos="810.63,225.92 832.24,220.7 863,213.27 884.6,208.05"];
	116 -- 121	[pos="981.22,350.69 974.59,354.53 967.25,358.78 960.61,362.63"];
	117	[height=0.5,
		pos="1063.9,339.73",
		width=0.75];
	116 -- 117	[pos="1028.9,339.16 1031.5,339.2 1034.2,339.25 1036.8,339.29"];
	121 -- 127	[pos="912.79,374.04 910.17,373.97 907.52,373.91 904.91,373.85"];
	121 -- 122	[pos="921.47,361.44 913.13,355.43 903.27,348.33 894.91,342.3"];
	127 -- 144	[pos="887.49,356.03 896.41,340.24 909.57,316.97 918.49,301.2"];
	128	[height=0.5,
		pos="974.03,230.99",
		width=0.75];
	127 -- 128	[pos="889,356.63 907.54,329.22 944.37,274.81 962.87,247.48"];
	113 -- 117	[pos="926.37,216.36 955.81,242.77 1017.9,298.45 1047.5,325.02"];
	145	[height=0.5,
		pos="847.03,223.71",
		width=0.75];
	144 -- 145	[pos="909.77,270.37 896.4,260.42 878.39,247.03 865.1,237.14"];
	122 -- 145	[pos="871.4,311.09 866,291.74 857.44,261.04 852.04,241.65"];
	123	[height=0.5,
		pos="1013.1,294.37",
		width=0.75];
	122 -- 123	[pos="901.77,322.52 926.31,316.31 963.3,306.96 987.8,300.76"];
	117 -- 123	[pos="1047.5,325.13 1041.7,319.95 1035.2,314.12 1029.4,308.94"];
	145 -- 146	[pos="833.48,207.81 830.04,203.77 826.34,199.43 822.9,195.4"];
	123 -- 128	[pos="1002.8,277.72 997.11,268.47 990.05,257.01 984.35,247.75"];
	146 -- 147	[pos="801.26,162.49 789.8,138.59 769.18,95.561 757.67,71.559"];
	148	[height=0.5,
		pos="869.6,100.44",
		width=0.75];
	128 -- 148	[pos="961.22,214.98 941.18,189.92 902.61,141.71 882.51,116.57"];
	147 -- 148	[pos="772.81,63.205 794,71.356 825.01,83.285 846.18,91.429"];
}
