graph {
	graph [bb="0,0,396.78,432.24",
		outputorder=edgesfirst,
		overlap=prism,
		size="50,50!",
		start=4866
	];
	node [label="\N"];
	1	[height=0.5,
		pos="173.33,256.38",
		width=0.75];
	2	[height=0.5,
		pos="325.16,165.06",
		width=0.75];
	1 -- 2	[pos="193.49,244.26 222.53,226.79 275.83,194.73 304.91,177.24"];
	5	[height=0.5,
		pos="265.02,306.58",
		width=0.75];
	1 -- 5	[pos="194.6,268.02 209.41,276.13 229.08,286.9 243.87,295"];
	3	[height=0.5,
		pos="261.82,131.04",
		width=0.75];
	1 -- 3	[pos="184.9,240 201.86,215.98 233.29,171.46 250.25,147.43"];
	4	[height=0.5,
		pos="327.02,269.62",
		width=0.75];
	1 -- 4	[pos="200.45,258.72 228.55,261.14 272.18,264.9 300.17,267.31"];
	8	[height=0.5,
		pos="27,217.13",
		width=0.75];
	1 -- 8	[pos="148.18,249.63 121.37,242.44 79.181,231.12 52.316,223.92"];
	2 -- 5	[pos="317.78,182.41 306.24,209.57 284.03,261.83 272.45,289.08"];
	2 -- 4	[pos="325.48,183.27 325.82,202.46 326.36,232.5 326.7,251.61"];
	7	[height=0.5,
		pos="360.45,18",
		width=0.75];
	2 -- 7	[pos="329.48,147.03 336.26,118.8 349.29,64.496 356.08,36.18"];
	6	[height=0.5,
		pos="369.78,414.24",
		width=0.75];
	5 -- 6	[pos="280.03,322 299.94,342.47 334.9,378.39 354.8,398.85"];
	3 -- 5	[pos="262.15,149.17 262.77,182.89 264.08,254.9 264.69,288.55"];
	3 -- 4	[pos="269.95,148.31 282.44,174.87 306.24,225.44 318.79,252.13"];
	3 -- 7	[pos="275.54,115.32 294.38,93.727 328.07,55.111 346.85,33.585"];
	4 -- 6	[pos="332.27,287.35 340.47,315.11 356.26,368.52 364.5,396.37"];
	0	[height=0.5,
		pos="173.22,184.87",
		width=0.75];
	0 -- 2	[pos="200.04,181.37 227.81,177.75 270.94,172.13 298.61,168.52"];
	0 -- 5	[pos="185.41,201.03 202.97,224.31 235.19,267.03 252.78,290.35"];
	0 -- 3	[pos="193.33,172.65 207.83,163.84 227.32,152.01 241.8,143.21"];
	0 -- 4	[pos="194.29,196.47 223.57,212.61 276.31,241.67 305.72,257.88"];
	0 -- 8	[pos="147.42,190.56 120.85,196.42 79.689,205.5 53.039,211.38"];
}
