graph {
	graph [bb="0,0,762.02,714.86",
		outputorder=edgesfirst,
		overlap=prism,
		size="50,50!",
		start=8125
	];
	node [label="\N"];
	0	[height=0.5,
		pos="152.94,205.2",
		width=0.75];
	17	[height=0.5,
		pos="126.85,249.2",
		width=0.75];
	0 -- 17	[pos="142.93,222.09 140.91,225.48 138.8,229.05 136.79,232.44"];
	36	[height=0.5,
		pos="201.43,52.961",
		width=0.75];
	0 -- 36	[pos="158.59,187.44 167.94,158.1 186.48,99.87 195.8,70.61"];
	47	[height=0.5,
		pos="122.88,141.06",
		width=0.75];
	0 -- 47	[pos="144.88,188.01 140.57,178.81 135.27,167.5 130.95,158.29"];
	51	[height=0.5,
		pos="37.728,296.82",
		width=0.75];
	0 -- 51	[pos="135.44,219.11 113.79,236.33 77.12,265.49 55.39,282.77"];
	53	[height=0.5,
		pos="320.9,244.06",
		width=0.75];
	0 -- 53	[pos="178.45,211.1 210.02,218.4 263.47,230.77 295.15,238.1"];
	61	[height=0.5,
		pos="90.894,185.14",
		width=0.75];
	0 -- 61	[pos="128.42,197.27 124.08,195.87 119.57,194.41 115.24,193.01"];
	72	[height=0.5,
		pos="212.41,143.4",
		width=0.75];
	0 -- 72	[pos="167.64,189.92 176.72,180.49 188.34,168.41 197.47,158.93"];
	73	[height=0.5,
		pos="142.99,97.014",
		width=0.75];
	0 -- 73	[pos="151.25,186.85 149.41,166.83 146.48,135 144.65,115.09"];
	1	[height=0.5,
		pos="304.76,410.82",
		width=0.75];
	18	[height=0.5,
		pos="464.23,521.31",
		width=0.75];
	1 -- 18	[pos="323.68,423.93 354.37,445.2 414.66,486.97 445.33,508.22"];
	20	[height=0.5,
		pos="231.12,383.74",
		width=0.75];
	1 -- 20	[pos="281.06,402.11 272.65,399.01 263.19,395.53 254.78,392.44"];
	32	[height=0.5,
		pos="193.6,289.66",
		width=0.75];
	1 -- 32	[pos="290.23,394.98 268.81,371.64 229.01,328.25 207.79,305.12"];
	35	[height=0.5,
		pos="157.51,414.4",
		width=0.75];
	1 -- 35	[pos="277.76,411.48 251.27,412.12 211.11,413.1 184.6,413.74"];
	40	[height=0.5,
		pos="366.58,475.46",
		width=0.75];
	1 -- 40	[pos="319.41,426.14 329.27,436.45 342.2,449.97 352.03,460.26"];
	52	[height=0.5,
		pos="173.82,339.67",
		width=0.75];
	1 -- 52	[pos="283.72,399.39 259.29,386.12 219.22,364.34 194.8,351.08"];
	62	[height=0.5,
		pos="281.14,497.07",
		width=0.75];
	1 -- 62	[pos="299.87,428.7 295.81,443.5 290.08,464.43 286.03,479.23"];
	66	[height=0.5,
		pos="219.09,458.41",
		width=0.75];
	1 -- 66	[pos="283.58,422.59 270.3,429.96 253.25,439.43 240.02,446.78"];
	70	[height=0.5,
		pos="358.98,288.06",
		width=0.75];
	1 -- 70	[pos="312.42,393.5 322.69,370.23 340.85,329.12 351.19,305.69"];
	75	[height=0.5,
		pos="255.65,292.76",
		width=0.75];
	1 -- 75	[pos="297.52,393.4 288.23,371.08 272.23,332.61 262.93,310.25"];
	77	[height=0.5,
		pos="131.57,295.6",
		width=0.75];
	1 -- 77	[pos="285.57,398.05 252.28,375.9 184.21,330.62 150.86,308.43"];
	79	[height=0.5,
		pos="524.8,433.28",
		width=0.75];
	1 -- 79	[pos="331.74,413.58 374.09,417.9 455.67,426.22 497.94,430.54"];
	80	[height=0.5,
		pos="401.03,541.34",
		width=0.75];
	1 -- 80	[pos="316.76,427.09 335.21,452.1 370.34,499.74 388.88,524.87"];
	2	[height=0.5,
		pos="500.85,275.55",
		width=0.75];
	19	[height=0.5,
		pos="543.61,186.39",
		width=0.75];
	2 -- 19	[pos="509.1,258.36 516.62,242.67 527.69,219.6 535.25,203.83"];
	21	[height=0.5,
		pos="432.6,429.93",
		width=0.75];
	2 -- 21	[pos="493.16,292.96 480.05,322.61 453.53,382.58 440.37,412.34"];
	23	[height=0.5,
		pos="422.22,175.59",
		width=0.75];
	2 -- 23	[pos="488.22,259.49 473.55,240.84 449.48,210.25 434.82,191.61"];
	26	[height=0.5,
		pos="653.4,302.57",
		width=0.75];
	2 -- 26	[pos="527.08,280.2 555.1,285.16 599.27,292.98 627.26,297.94"];
	33	[height=0.5,
		pos="435.37,271.61",
		width=0.75];
	2 -- 33	[pos="473.84,273.93 470.04,273.7 466.12,273.46 462.32,273.23"];
	39	[height=0.5,
		pos="537.47,389.22",
		width=0.75];
	2 -- 39	[pos="506.57,293.31 513.45,314.67 524.93,350.29 531.79,371.59"];
	44	[height=0.5,
		pos="591.31,344.25",
		width=0.75];
	2 -- 44	[pos="518.72,289.13 534.58,301.17 557.63,318.67 573.47,330.7"];
	46	[height=0.5,
		pos="605.67,214.3",
		width=0.75];
	2 -- 46	[pos="521.31,263.6 539.78,252.81 566.81,237.01 585.27,226.23"];
	48	[height=0.5,
		pos="401.2,226.67",
		width=0.75];
	2 -- 48	[pos="478.74,264.71 462.22,256.6 439.75,245.58 423.25,237.49"];
	2 -- 53	[pos="474.69,270.97 440.57,265 381.23,254.62 347.1,248.64"];
	59	[height=0.5,
		pos="484.27,142.23",
		width=0.75];
	2 -- 59	[pos="498.62,257.57 495.45,232.13 489.7,185.87 486.53,160.35"];
	63	[height=0.5,
		pos="667.78,192.62",
		width=0.75];
	2 -- 63	[pos="522.68,264.71 554.67,248.82 613.96,219.36 645.95,203.47"];
	3	[height=0.5,
		pos="304.63,336.81",
		width=0.75];
	3 -- 17	[pos="282.83,326.07 248.71,309.25 183.06,276.9 148.83,260.03"];
	3 -- 20	[pos="284.93,349.39 274.38,356.12 261.43,364.39 250.87,371.13"];
	22	[height=0.5,
		pos="111.75,345.12",
		width=0.75];
	3 -- 22	[pos="277.4,337.98 240.64,339.57 175.53,342.37 138.84,343.96"];
	31	[height=0.5,
		pos="366.81,398.9",
		width=0.75];
	3 -- 31	[pos="319.68,351.84 329.31,361.46 341.78,373.9 351.47,383.58"];
	3 -- 33	[pos="326.51,325.9 350.64,313.86 389.25,294.61 413.41,282.56"];
	34	[height=0.5,
		pos="277.02,200.04",
		width=0.75];
	3 -- 34	[pos="301.02,318.93 295.73,292.72 285.92,244.14 280.63,217.93"];
	3 -- 52	[pos="277.52,337.4 255.07,337.89 223.33,338.59 200.88,339.08"];
	54	[height=0.5,
		pos="497.41,230.4",
		width=0.75];
	3 -- 54	[pos="325.62,325.22 362.71,304.75 439.37,262.44 476.44,241.98"];
	74	[height=0.5,
		pos="475.47,368.57",
		width=0.75];
	3 -- 74	[pos="330.94,341.7 363.14,347.69 417.31,357.76 449.4,363.73"];
	4	[height=0.5,
		pos="341.17,627.86",
		width=0.75];
	4 -- 21	[pos="349.12,610.64 366.41,573.21 407.27,484.77 424.6,447.25"];
	25	[height=0.5,
		pos="279.08,652.63",
		width=0.75];
	4 -- 25	[pos="317.69,637.23 312.75,639.2 307.53,641.28 302.58,643.25"];
	28	[height=0.5,
		pos="466,581.04",
		width=0.75];
	4 -- 28	[pos="364.94,618.95 387.15,610.61 420.13,598.24 442.31,589.92"];
	37	[height=0.5,
		pos="257.91,560.45",
		width=0.75];
	4 -- 37	[pos="323.92,613.89 309.63,602.32 289.43,585.96 275.14,574.4"];
	38	[height=0.5,
		pos="441.73,648.21",
		width=0.75];
	4 -- 38	[pos="367.07,633.1 381.96,636.12 400.63,639.9 415.57,642.92"];
	42	[height=0.5,
		pos="379.71,681.02",
		width=0.75];
	4 -- 42	[pos="352.94,644.1 357.64,650.57 363.03,658.01 367.75,664.51"];
	55	[height=0.5,
		pos="217.03,657.97",
		width=0.75];
	4 -- 55	[pos="315.75,634.03 294.32,639.22 263.83,646.62 242.41,651.81"];
	56	[height=0.5,
		pos="207.45,516.4",
		width=0.75];
	4 -- 56	[pos="324.23,613.75 298.65,592.42 250.41,552.22 224.67,530.76"];
	58	[height=0.5,
		pos="403.66,586.14",
		width=0.75];
	4 -- 58	[pos="360.26,615.12 367.87,610.04 376.62,604.2 384.26,599.1"];
	71	[height=0.5,
		pos="317.66,696.86",
		width=0.75];
	4 -- 71	[pos="335.12,645.63 331.63,655.85 327.27,668.66 323.78,678.91"];
	76	[height=0.5,
		pos="503.78,632.96",
		width=0.75];
	4 -- 76	[pos="368.39,628.72 398.5,629.66 446.71,631.17 476.75,632.11"];
	5	[height=0.5,
		pos="88.309,417.32",
		width=0.75];
	5 -- 22	[pos="94.104,399.48 97.738,388.28 102.4,373.92 106.03,362.76"];
	24	[height=0.5,
		pos="95.729,539.27",
		width=0.75];
	5 -- 24	[pos="89.404,435.32 90.806,458.37 93.224,498.11 94.63,521.2"];
	5 -- 37	[pos="105.19,431.57 137.7,459 208.64,518.87 241.1,546.26"];
	5 -- 51	[pos="80.954,399.8 71.364,376.95 54.686,337.22 45.091,314.36"];
	5 -- 56	[pos="105.38,431.52 128.03,450.35 167.78,483.41 190.41,502.24"];
	68	[height=0.5,
		pos="27,492.83",
		width=0.75];
	5 -- 68	[pos="75.307,433.34 64.902,446.15 50.383,464.03 39.983,476.84"];
	6	[height=0.5,
		pos="160.6,576.87",
		width=0.75];
	6 -- 25	[pos="180.17,589.38 202.12,603.41 237.52,626.05 259.48,640.1"];
	29	[height=0.5,
		pos="114.49,637.79",
		width=0.75];
	6 -- 29	[pos="148.25,593.19 141.63,601.93 133.5,612.67 126.88,621.42"];
	6 -- 35	[pos="160.26,558.86 159.67,527.63 158.45,463.78 157.86,432.49"];
	6 -- 55	[pos="172.02,593.28 181.81,607.35 195.84,627.52 205.62,641.58"];
	57	[height=0.5,
		pos="155,686.67",
		width=0.75];
	6 -- 57	[pos="159.68,595 158.64,615.34 156.96,648.16 155.93,668.51"];
	6 -- 66	[pos="169.11,559.64 180.19,537.18 199.48,498.12 210.57,475.65"];
	6 -- 68	[pos="140.89,564.47 115.63,548.58 72.093,521.19 46.794,505.28"];
	7	[height=0.5,
		pos="490.4,477.29",
		width=0.75];
	27	[height=0.5,
		pos="413.46,332.1",
		width=0.75];
	7 -- 27	[pos="481.27,460.07 466.46,432.12 437.38,377.23 422.58,349.3"];
	7 -- 28	[pos="486.15,495.36 481.67,514.41 474.66,544.21 470.2,563.17"];
	30	[height=0.5,
		pos="599.51,413.01",
		width=0.75];
	7 -- 30	[pos="510.66,465.35 530.14,453.88 559.42,436.63 578.98,425.11"];
	7 -- 31	[pos="470.82,464.87 447.81,450.28 409.85,426.2 386.71,411.53"];
	7 -- 39	[pos="499.47,460.31 507.76,444.82 519.94,422.03 528.26,406.45"];
	7 -- 40	[pos="463.23,476.89 442.58,476.59 414.32,476.17 393.69,475.86"];
	7 -- 58	[pos="477.6,493.35 461.2,513.93 432.94,549.4 416.51,570.01"];
	60	[height=0.5,
		pos="544.59,527.62",
		width=0.75];
	7 -- 60	[pos="506.37,492.12 513.36,498.62 521.55,506.22 528.55,512.73"];
	78	[height=0.5,
		pos="335.79,583.86",
		width=0.75];
	7 -- 78	[pos="471.44,490.36 441.77,510.81 384.67,550.17 354.91,570.68"];
	8	[height=0.5,
		pos="228.32,605.61",
		width=0.75];
	8 -- 24	[pos="206.72,594.8 182.21,582.54 142.45,562.64 117.76,550.29"];
	8 -- 29	[pos="203.34,612.67 184.36,618.03 158.38,625.38 139.41,630.74"];
	8 -- 42	[pos="250.01,616.41 278.79,630.75 329.3,655.91 358.06,670.23"];
	8 -- 57	[pos="214.18,621.24 201.2,635.59 182.06,656.75 169.09,671.09"];
	8 -- 62	[pos="236.8,588.17 246.66,567.92 262.83,534.7 272.67,514.47"];
	8 -- 71	[pos="243.47,621.09 260,637.97 286.29,664.82 302.73,681.61"];
	8 -- 78	[pos="254.33,600.34 271.11,596.95 292.84,592.55 309.64,589.15"];
	9	[height=0.5,
		pos="621.25,258.42",
		width=0.75];
	9 -- 30	[pos="618.71,276.46 614.52,306.24 606.21,365.38 602.03,395.09"];
	41	[height=0.5,
		pos="735.02,271.14",
		width=0.75];
	9 -- 41	[pos="647.92,261.4 666.05,263.43 689.94,266.1 708.12,268.13"];
	45	[height=0.5,
		pos="716.26,320.03",
		width=0.75];
	9 -- 45	[pos="640.94,271.19 657.24,281.76 680.3,296.71 696.6,307.28"];
	9 -- 46	[pos="615,240.73 613.99,237.85 612.94,234.87 611.92,232"];
	9 -- 54	[pos="595.59,252.61 574.34,247.81 544.28,241.01 523.04,236.2"];
	9 -- 63	[pos="632.99,241.82 640.1,231.77 649.13,219 656.2,208.99"];
	82	[height=0.5,
		pos="609.53,123.09",
		width=0.75];
	9 -- 82	[pos="619.69,240.45 617.45,214.56 613.34,167.06 611.09,141.13"];
	84	[height=0.5,
		pos="546.4,142.3",
		width=0.75];
	9 -- 84	[pos="610.53,241.78 596.3,219.71 571.32,180.97 557.1,158.91"];
	10	[height=0.5,
		pos="339.12,189.71",
		width=0.75];
	10 -- 27	[pos="348.09,206.89 362.38,234.25 390.16,287.46 404.46,314.86"];
	10 -- 32	[pos="320.1,202.78 292.21,221.93 240.53,257.43 212.63,276.59"];
	64	[height=0.5,
		pos="449.8,71.29",
		width=0.75];
	10 -- 64	[pos="353.59,174.23 374.8,151.53 414.12,109.47 435.33,86.775"];
	65	[height=0.5,
		pos="387.73,62.022",
		width=0.75];
	10 -- 65	[pos="345.78,172.22 355.04,147.91 371.7,104.13 380.99,79.707"];
	10 -- 72	[pos="315.29,181 292.64,172.72 258.76,160.34 236.14,152.07"];
	10 -- 75	[pos="326.08,205.81 310.4,225.17 284.25,257.46 268.6,276.77"];
	81	[height=0.5,
		pos="258.53,98.652",
		width=0.75];
	10 -- 81	[pos="325.09,173.85 310.29,157.14 287.14,130.98 272.4,114.33"];
	10 -- 84	[pos="364.96,183.8 404.78,174.69 480.74,157.32 520.57,148.21"];
	11	[height=0.5,
		pos="325.21,102.98",
		width=0.75];
	11 -- 23	[pos="343.46,116.63 360.8,129.62 386.74,149.03 404.06,161.99"];
	11 -- 34	[pos="316.6,120.33 307.82,138 294.3,165.22 285.56,182.84"];
	11 -- 36	[pos="301.93,93.568 279.8,84.626 246.7,71.254 224.6,62.326"];
	50	[height=0.5,
		pos="426.66,18",
		width=0.75];
	11 -- 50	[pos="342.42,88.56 361.19,72.84 391.03,47.838 409.7,32.202"];
	11 -- 59	[pos="350.77,109.28 380.45,116.61 429.12,128.62 458.78,135.94"];
	11 -- 65	[pos="344.65,90.242 352.1,85.358 360.61,79.785 368.09,74.888"];
	11 -- 73	[pos="297.93,102.08 263.48,100.96 204.56,99.028 170.16,97.902"];
	12	[height=0.5,
		pos="534.99,577.04",
		width=0.75];
	12 -- 18	[pos="517.5,563.26 506.69,554.76 492.87,543.87 482.01,535.32"];
	12 -- 38	[pos="517.01,590.76 500.5,603.37 476.16,621.94 459.66,634.53"];
	12 -- 60	[pos="538.51,558.92 539.35,554.62 540.24,550.04 541.07,545.74"];
	67	[height=0.5,
		pos="671.26,520.84",
		width=0.75];
	12 -- 67	[pos="558.11,567.5 583.17,557.17 622.93,540.77 648.03,530.42"];
	12 -- 76	[pos="525.46,594.12 521.59,601.06 517.12,609.06 513.26,615.98"];
	12 -- 80	[pos="509.79,570.32 485.84,563.94 450.03,554.4 426.11,548.03"];
	83	[height=0.5,
		pos="606.65,539.83",
		width=0.75];
	12 -- 83	[pos="556.49,565.87 565.56,561.16 576.1,555.69 585.17,550.98"];
	13	[height=0.5,
		pos="707.98,377.07",
		width=0.75];
	13 -- 26	[pos="695.86,360.53 686.76,348.1 674.34,331.15 665.29,318.8"];
	13 -- 41	[pos="712.56,359.1 717.54,339.62 725.43,308.71 730.41,289.19"];
	49	[height=0.5,
		pos="699.13,466.78",
		width=0.75];
	13 -- 49	[pos="706.19,395.22 704.65,410.79 702.45,433.1 700.91,448.65"];
	13 -- 67	[pos="703.4,394.98 696.36,422.53 682.96,475.01 675.89,502.69"];
	69	[height=0.5,
		pos="725.71,421.82",
		width=0.75];
	13 -- 69	[pos="714.88,394.5 716.17,397.74 717.51,401.12 718.79,404.36"];
	14	[height=0.5,
		pos="410.51,127.05",
		width=0.75];
	14 -- 19	[pos="433.09,137.12 457.57,148.03 496.41,165.35 520.93,176.28"];
	43	[height=0.5,
		pos="321.5,50.455",
		width=0.75];
	14 -- 43	[pos="393.77,112.64 377.86,98.951 354.06,78.471 338.17,64.798"];
	14 -- 50	[pos="413.18,109.04 416.17,88.839 420.99,56.251 423.99,36.035"];
	14 -- 64	[pos="422.09,110.62 427.16,103.43 433.1,94.999 438.17,87.794"];
	14 -- 70	[pos="404.8,144.9 394.9,175.85 374.64,239.13 364.72,270.13"];
	14 -- 82	[pos="437.77,126.51 475.77,125.75 544.28,124.39 582.28,123.63"];
	15	[height=0.5,
		pos="637.09,457.05",
		width=0.75];
	15 -- 44	[pos="629.93,439.43 621.33,418.24 606.99,382.89 598.41,361.75"];
	15 -- 45	[pos="646.79,440.25 661.99,413.95 691.23,363.36 706.47,336.97"];
	15 -- 49	[pos="663.4,461.18 666.44,461.66 669.54,462.14 672.58,462.62"];
	15 -- 69	[pos="660.37,447.8 673.3,442.66 689.33,436.28 702.27,431.14"];
	15 -- 74	[pos="615.96,445.49 584.9,428.48 527.26,396.93 496.34,380"];
	15 -- 79	[pos="611.33,451.6 593.2,447.76 569.02,442.64 550.83,438.79"];
	15 -- 83	[pos="630.63,474.61 625.47,488.66 618.26,508.26 613.1,522.3"];
	16	[height=0.5,
		pos="214.96,187.91",
		width=0.75];
	16 -- 43	[pos="227.39,171.87 247.81,145.53 288.24,93.371 308.82,66.816"];
	16 -- 47	[pos="193.14,176.81 178.46,169.34 159.19,159.53 144.54,152.08"];
	16 -- 48	[pos="240.86,193.3 276.34,200.69 339.7,213.87 375.22,221.27"];
	16 -- 61	[pos="187.73,187.3 167.05,186.84 138.73,186.21 118.06,185.74"];
	16 -- 77	[pos="202.3,204.27 186.53,224.63 159.78,259.18 144.08,279.44"];
	16 -- 81	[pos="223.36,170.7 231.07,154.9 242.44,131.6 250.15,115.81"];
}
