graph {
	graph [bb="0,0,488.75,520.99",
		outputorder=edgesfirst,
		overlap=prism,
		size="50,50!",
		start=6451
	];
	node [label="\N"];
	0	[height=0.5,
		pos="417.23,213.89",
		width=0.75];
	8	[height=0.5,
		pos="392.95,427.86",
		width=0.75];
	0 -- 8	[pos="415.16,232.13 410.57,272.55 399.6,369.28 395.02,409.66"];
	2	[height=0.5,
		pos="229.29,296.09",
		width=0.75];
	0 -- 2	[pos="394.56,223.8 358.44,239.6 288.21,270.32 252.04,286.14"];
	6	[height=0.5,
		pos="461.75,331.29",
		width=0.75];
	0 -- 6	[pos="423.9,231.46 432.29,253.59 446.63,291.4 455.04,313.59"];
	9	[height=0.5,
		pos="295.61,218.36",
		width=0.75];
	0 -- 9	[pos="390.24,214.88 370.22,215.61 343.04,216.61 322.95,217.35"];
	1	[height=0.5,
		pos="278.53,112.53",
		width=0.75];
	0 -- 1	[pos="398.81,200.43 372.28,181.04 323.59,145.46 297.02,126.04"];
	14	[height=0.5,
		pos="284.54,423.19",
		width=0.75];
	8 -- 14	[pos="365.87,426.69 349.32,425.98 328.21,425.07 311.65,424.36"];
	16	[height=0.5,
		pos="347.19,311.74",
		width=0.75];
	8 -- 16	[pos="386,410.22 377.35,388.27 362.67,351.02 354.05,329.17"];
	2 -- 8	[pos="246.8,310.19 278.3,335.55 344.15,388.57 375.56,413.86"];
	3	[height=0.5,
		pos="225.27,502.99",
		width=0.75];
	2 -- 3	[pos="228.94,314.09 228.18,353.22 226.38,445.66 225.62,484.89"];
	12	[height=0.5,
		pos="101.5,395.96",
		width=0.75];
	2 -- 12	[pos="211.52,309.98 187.11,329.06 143.45,363.17 119.12,382.19"];
	5	[height=0.5,
		pos="27,308.19",
		width=0.75];
	2 -- 5	[pos="202.01,297.72 163.29,300.04 92.827,304.25 54.171,306.56"];
	15	[height=0.5,
		pos="74.351,173.34",
		width=0.75];
	2 -- 15	[pos="211.82,282.25 182.06,258.67 121.87,210.99 91.997,187.32"];
	3 -- 8	[pos="247.89,492.86 279.98,478.48 338.39,452.31 370.43,437.95"];
	3 -- 14	[pos="237.26,486.84 247.48,473.09 262.09,453.41 272.36,439.59"];
	4	[height=0.5,
		pos="88.299,480.05",
		width=0.75];
	3 -- 4	[pos="198.86,498.57 174.61,494.5 138.86,488.52 114.63,484.46"];
	3 -- 12	[pos="208.58,488.56 184.96,468.13 142.02,430.99 118.33,410.5"];
	11	[height=0.5,
		pos="180.8,356.34",
		width=0.75];
	3 -- 11	[pos="219.91,485.3 211.36,457.11 194.74,402.32 186.18,374.09"];
	14 -- 16	[pos="294.05,406.26 305.83,385.32 325.77,349.85 337.58,328.83"];
	6 -- 8	[pos="450.08,347.67 437.43,365.43 417.36,393.61 404.68,411.4"];
	6 -- 14	[pos="440.38,342.37 406.32,360.04 340.1,394.37 305.99,412.06"];
	6 -- 9	[pos="442.7,318.33 410.73,296.61 346.69,253.07 314.7,231.33"];
	6 -- 16	[pos="435.47,326.8 416.84,323.62 391.95,319.38 373.35,316.21"];
	4 -- 14	[pos="113.15,472.85 150.8,461.94 221.87,441.35 259.58,430.42"];
	4 -- 12	[pos="91.164,461.8 93.395,447.6 96.473,428 98.69,413.88"];
	4 -- 5	[pos="81.97,462.3 70.193,429.29 45.046,358.78 33.295,325.84"];
	4 -- 11	[pos="100.39,463.88 118.12,440.17 150.97,396.23 168.7,372.52"];
	7	[height=0.5,
		pos="89.006,264.95",
		width=0.75];
	4 -- 7	[pos="88.36,461.71 88.493,421.07 88.813,323.84 88.946,283.25"];
	12 -- 14	[pos="128.12,399.92 162.82,405.08 223.17,414.06 257.89,419.22"];
	12 -- 15	[pos="99.282,377.74 94.178,335.89 81.663,233.29 76.566,191.5"];
	5 -- 12	[pos="40.32,323.88 53.797,339.76 74.522,364.17 88.048,380.1"];
	5 -- 11	[pos="51.71,315.93 80.411,324.91 127.47,339.65 156.15,348.62"];
	5 -- 7	[pos="45.941,294.98 53.634,289.62 62.5,283.44 70.181,278.08"];
	5 -- 15	[pos="33.19,290.56 42.265,264.72 59.084,216.82 68.159,190.97"];
	10	[height=0.5,
		pos="178.17,173.75",
		width=0.75];
	5 -- 10	[pos="43.466,293.55 72.545,267.69 132.66,214.22 161.73,188.38"];
	11 -- 14	[pos="200.31,368.91 218.86,380.87 246.59,398.74 265.11,410.67"];
	11 -- 16	[pos="206.07,349.57 237.43,341.16 290.6,326.91 321.95,318.51"];
	9 -- 14	[pos="294.63,236.53 292.53,275.41 287.62,366.22 285.52,405.05"];
	9 -- 11	[pos="282.44,234.19 260.41,260.66 216.33,313.64 194.17,340.27"];
	9 -- 10	[pos="272.13,209.44 251.78,201.71 222.47,190.58 202.02,182.81"];
	13	[height=0.5,
		pos="247.51,18",
		width=0.75];
	9 -- 13	[pos="291.34,200.58 282.24,162.65 261,74.173 251.84,36.029"];
	9 -- 16	[pos="305.07,235.49 314.38,252.34 328.5,277.91 337.79,294.72"];
	7 -- 11	[pos="104.16,280.04 121.17,296.98 148.6,324.29 165.62,341.23"];
	7 -- 9	[pos="114.76,259.15 154.45,250.19 230.17,233.12 269.86,224.16"];
	7 -- 15	[pos="86.111,246.85 83.542,230.79 79.808,207.45 77.24,191.4"];
	7 -- 10	[pos="104.13,249.48 120.63,232.61 146.86,205.78 163.27,188.99"];
	10 -- 11	[pos="178.43,191.93 178.94,226.93 180.03,303.3 180.54,338.24"];
	10 -- 15	[pos="151.16,173.65 135.9,173.58 116.88,173.51 101.58,173.45"];
	10 -- 13	[pos="185.86,156.49 199.19,126.55 226.44,65.333 239.79,35.341"];
	10 -- 16	[pos="195.31,187.74 227.7,214.19 297.58,271.24 330.01,297.72"];
	1 -- 2	[pos="273.72,130.46 264.28,165.64 243.44,243.33 234.05,278.35"];
	1 -- 9	[pos="281.42,130.48 284.57,149.94 289.55,180.82 292.7,200.32"];
	1 -- 15	[pos="253.49,119.98 214.2,131.69 138.49,154.24 99.272,165.92"];
	1 -- 10	[pos="258.22,124.92 240.69,135.61 215.52,150.96 198.11,161.59"];
	1 -- 13	[pos="272.69,94.746 267.15,77.846 258.86,52.573 253.32,35.7"];
}
