graph {
	graph [bb="0,0,1870,1372.5",
		outputorder=edgesfirst,
		overlap=prism,
		size="50,50!",
		start=4754
	];
	node [label="\N"];
	0	[height=0.5,
		pos="795.54,930.76",
		width=0.75];
	20	[height=0.5,
		pos="679.3,1156.9",
		width=0.75];
	0 -- 20	[pos="786.61,948.13 764.92,990.33 709.66,1097.8 688.1,1139.8"];
	23	[height=0.5,
		pos="820.43,1217.5",
		width=0.75];
	0 -- 23	[pos="797.14,949.13 801.63,1000.9 814.37,1147.7 818.85,1199.3"];
	27	[height=0.5,
		pos="763.86,1173.4",
		width=0.75];
	0 -- 27	[pos="793.16,949 787.28,994.08 772.1,1110.4 766.23,1155.3"];
	30	[height=0.5,
		pos="939.72,924.68",
		width=0.75];
	0 -- 30	[pos="822.66,929.62 848.44,928.53 886.98,926.91 912.72,925.82"];
	31	[height=0.5,
		pos="487.97,959.17",
		width=0.75];
	0 -- 31	[pos="768.79,933.23 710.62,938.6 573.19,951.3 514.88,956.68"];
	6	[height=0.5,
		pos="583.99,794.19",
		width=0.75];
	0 -- 6	[pos="776.02,918.16 735.72,892.14 643.72,832.76 603.46,806.77"];
	33	[height=0.5,
		pos="898.27,1273.1",
		width=0.75];
	0 -- 33	[pos="800.92,948.68 818.67,1007.8 875.27,1196.5 892.94,1255.4"];
	36	[height=0.5,
		pos="877.47,948.21",
		width=0.75];
	0 -- 36	[pos="821.47,936.28 831.12,938.34 842.07,940.67 851.72,942.72"];
	37	[height=0.5,
		pos="1001.8,969.62",
		width=0.75];
	0 -- 37	[pos="821.66,935.68 861.22,943.13 935.9,957.21 975.53,964.68"];
	38	[height=0.5,
		pos="949.3,1121.2",
		width=0.75];
	0 -- 38	[pos="808.39,946.67 837.33,982.52 907.37,1069.3 936.38,1105.2"];
	39	[height=0.5,
		pos="1065,942.95",
		width=0.75];
	0 -- 39	[pos="822.61,931.98 874.26,934.32 986.3,939.39 1037.9,941.73"];
	40	[height=0.5,
		pos="632.87,838.24",
		width=0.75];
	0 -- 40	[pos="774.94,919.04 743.73,901.29 684.82,867.79 653.56,850.01"];
	41	[height=0.5,
		pos="810.25,1085.4",
		width=0.75];
	0 -- 41	[pos="797.26,948.8 800.08,978.44 805.66,1037.1 808.5,1067"];
	43	[height=0.5,
		pos="579.34,1050.1",
		width=0.75];
	0 -- 43	[pos="774.42,942.42 732.98,965.31 641.48,1015.8 600.23,1038.6"];
	45	[height=0.5,
		pos="882.49,1185.1",
		width=0.75];
	0 -- 45	[pos="801.66,948.64 817.62,995.34 860.43,1120.5 876.39,1167.2"];
	47	[height=0.5,
		pos="795.28,740.32",
		width=0.75];
	0 -- 47	[pos="795.52,912.5 795.47,876.1 795.36,794.88 795.31,758.52"];
	17	[height=0.5,
		pos="816.34,833.14",
		width=0.75];
	0 -- 17	[pos="799.36,912.85 803.09,895.35 808.74,868.84 812.48,851.26"];
	48	[height=0.5,
		pos="784.49,1129.4",
		width=0.75];
	0 -- 48	[pos="794.52,949.09 792.41,987.04 787.59,1073.8 785.49,1111.4"];
	51	[height=0.5,
		pos="890.19,1229.1",
		width=0.75];
	0 -- 51	[pos="801.18,948.53 818.01,1001.6 867.79,1158.5 884.58,1211.4"];
	21	[height=0.5,
		pos="143.08,920.92",
		width=0.75];
	20 -- 21	[pos="656.6,1146.9 568.99,1108.4 253.4,969.47 165.78,930.91"];
	24	[height=0.5,
		pos="1001.2,1333.7",
		width=0.75];
	23 -- 24	[pos="840.12,1230.1 874.88,1252.5 946.75,1298.7 981.49,1321"];
	28	[height=0.5,
		pos="378.91,1084.7",
		width=0.75];
	27 -- 28	[pos="738.31,1167.6 668.45,1151.5 474.85,1106.9 404.71,1090.7"];
	32	[height=0.5,
		pos="362.73,559.81",
		width=0.75];
	31 -- 32	[pos="482.43,941.5 461.74,875.53 389.17,644.12 368.35,577.73"];
	6 -- 17	[pos="610.19,798.59 654.81,806.07 745.08,821.19 789.88,828.7"];
	55	[height=0.5,
		pos="666.37,662.1",
		width=0.75];
	6 -- 55	[pos="594.42,777.46 610.18,752.19 639.9,704.54 655.76,679.11"];
	12	[height=0.5,
		pos="733.7,658.12",
		width=0.75];
	6 -- 12	[pos="600.01,779.63 628.67,753.58 688.43,699.26 717.34,672.99"];
	87	[height=0.5,
		pos="859.26,726.18",
		width=0.75];
	6 -- 87	[pos="609.39,787.92 661.83,774.96 781.53,745.38 833.91,732.44"];
	188	[height=0.5,
		pos="476.19,670.17",
		width=0.75];
	6 -- 188	[pos="570.33,778.49 549.6,754.63 510.4,709.53 489.74,685.75"];
	14	[height=0.5,
		pos="565.89,621.59",
		width=0.75];
	6 -- 14	[pos="582.08,776.05 578.61,742.9 571.27,672.91 567.79,639.75"];
	219	[height=0.5,
		pos="540.13,1003.6",
		width=0.75];
	6 -- 219	[pos="580.25,812.05 571.98,851.5 552.24,945.77 543.93,985.46"];
	222	[height=0.5,
		pos="321.3,953.57",
		width=0.75];
	6 -- 222	[pos="563.81,806.44 514.91,836.1 390.51,911.57 341.54,941.28"];
	225	[height=0.5,
		pos="388.27,1028.6",
		width=0.75];
	6 -- 225	[pos="570.84,809.94 535.27,852.55 437.41,969.76 401.61,1012.6"];
	229	[height=0.5,
		pos="464.04,1045.5",
		width=0.75];
	6 -- 229	[pos="575.74,811.47 553.83,857.38 494.32,982.06 472.34,1028.1"];
	232	[height=0.5,
		pos="664.24,974.03",
		width=0.75];
	6 -- 232	[pos="591.83,811.77 607.21,846.23 641.18,922.34 656.49,956.65"];
	234	[height=0.5,
		pos="335.91,783.93",
		width=0.75];
	6 -- 234	[pos="556.96,793.08 509.25,791.1 410.6,787.02 362.9,785.04"];
	236	[height=0.5,
		pos="383.35,912.39",
		width=0.75];
	6 -- 236	[pos="563.64,806.18 525.19,828.83 442.24,877.7 403.74,900.38"];
	238	[height=0.5,
		pos="149.78,824.01",
		width=0.75];
	6 -- 238	[pos="556.82,796.06 478.75,801.42 254.36,816.83 176.65,822.17"];
	242	[height=0.5,
		pos="195.63,876.53",
		width=0.75];
	6 -- 242	[pos="558.2,799.66 487.65,814.62 291.95,856.11 221.41,871.06"];
	246	[height=0.5,
		pos="857.55,894.15",
		width=0.75];
	6 -- 246	[pos="607.78,802.89 659.52,821.79 781.75,866.46 833.61,885.41"];
	120	[height=0.5,
		pos="236.51,966.81",
		width=0.75];
	6 -- 120	[pos="562.25,804.99 499.85,835.99 320.63,925.02 258.23,956.02"];
	157	[height=0.5,
		pos="315.28,997.59",
		width=0.75];
	6 -- 157	[pos="565.94,807.86 516.99,844.91 382.11,947.01 333.25,983.99"];
	34	[height=0.5,
		pos="1334,1162.8",
		width=0.75];
	33 -- 34	[pos="923.58,1266.7 1000.6,1247.2 1231.5,1188.7 1308.6,1169.2"];
	42	[height=0.5,
		pos="923.57,725.95",
		width=0.75];
	41 -- 42	[pos="815.87,1067.6 835.17,1006.4 898.57,805.25 917.91,743.89"];
	44	[height=0.5,
		pos="207.61,742.99",
		width=0.75];
	43 -- 44	[pos="561.91,1035.7 499.33,984.03 286.41,808.1 224.58,757.01"];
	46	[height=0.5,
		pos="981.61,858",
		width=0.75];
	45 -- 46	[pos="887.96,1167 905.29,1109.8 958.85,933.1 976.16,876"];
	105	[height=0.5,
		pos="997.92,721.66",
		width=0.75];
	17 -- 105	[pos="836.47,820.78 871.46,799.3 943.12,755.31 977.98,733.9"];
	19	[height=0.5,
		pos="1161.5,783.94",
		width=0.75];
	17 -- 19	[pos="842.85,829.36 907.09,820.2 1070.5,796.9 1134.9,787.73"];
	325	[height=0.5,
		pos="949.35,1073.9",
		width=0.75];
	17 -- 325	[pos="825.7,850.07 850.12,894.27 915.6,1012.8 940.01,1057"];
	339	[height=0.5,
		pos="919.56,879.99",
		width=0.75];
	17 -- 339	[pos="838.74,843.31 856.05,851.17 879.91,861.99 897.21,869.85"];
	385	[height=0.5,
		pos="798.16,672.89",
		width=0.75];
	17 -- 385	[pos="814.29,815.07 810.8,784.29 803.73,722.04 800.23,691.14"];
	388	[height=0.5,
		pos="861.91,637.92",
		width=0.75];
	17 -- 388	[pos="820.55,815.12 829.23,777.93 849.04,693.05 857.71,655.89"];
	81	[height=0.5,
		pos="539.21,913.43",
		width=0.75];
	17 -- 81	[pos="791.26,840.41 738.5,855.69 616.58,891.02 564.04,906.24"];
	144	[height=0.5,
		pos="733.49,974.41",
		width=0.75];
	17 -- 144	[pos="806.35,850.18 790.42,877.33 759.47,930.12 743.52,957.31"];
	184	[height=0.5,
		pos="910.46,1029.9",
		width=0.75];
	17 -- 184	[pos="824.69,850.6 842.55,887.93 884.28,975.14 902.12,1012.4"];
	216	[height=0.5,
		pos="521.95,793.85",
		width=0.75];
	17 -- 216	[pos="789.7,829.58 733.79,822.12 604.79,804.9 548.75,797.42"];
	266	[height=0.5,
		pos="939.68,983.83",
		width=0.75];
	17 -- 266	[pos="829.31,848.98 852.93,877.85 902.74,938.7 926.51,967.75"];
	290	[height=0.5,
		pos="459.93,824.35",
		width=0.75];
	17 -- 290	[pos="789.26,832.47 722.98,830.84 553.2,826.65 486.97,825.02"];
	310	[height=0.5,
		pos="685.64,1018.4",
		width=0.75];
	17 -- 310	[pos="804.74,849.58 779.94,884.74 721.99,966.88 697.21,1002"];
	362	[height=0.5,
		pos="748.04,1051",
		width=0.75];
	17 -- 362	[pos="810.75,850.96 797.91,891.91 766.44,992.3 753.61,1033.2"];
	373	[height=0.5,
		pos="602.19,974.37",
		width=0.75];
	17 -- 373	[pos="796.96,845.92 756.29,872.74 662.45,934.63 621.68,961.51"];
	381	[height=0.5,
		pos="814.21,992.83",
		width=0.75];
	17 -- 381	[pos="816.1,851.15 815.69,881.82 814.86,943.85 814.45,974.64"];
	49	[height=0.5,
		pos="219.19,832.39",
		width=0.75];
	48 -- 49	[pos="763.02,1118.2 673.47,1071.1 330.27,890.75 240.68,843.68"];
	52	[height=0.5,
		pos="1139.7,1099.9",
		width=0.75];
	51 -- 52	[pos="911.9,1217.9 959.21,1193.4 1071.1,1135.4 1118.2,1111"];
	1	[height=0.5,
		pos="898,510",
		width=0.75];
	2	[height=0.5,
		pos="1151.7,560.53",
		width=0.75];
	1 -- 2	[pos="924.2,515.22 972.93,524.93 1077,545.66 1125.6,555.34"];
	3	[height=0.5,
		pos="733.23,702.28",
		width=0.75];
	1 -- 3	[pos="884.52,525.74 853.55,561.88 777.6,650.5 746.67,686.6"];
	53	[height=0.5,
		pos="1089.7,553.92",
		width=0.75];
	1 -- 53	[pos="923.85,515.92 960.53,524.33 1027.3,539.63 1063.9,548.02"];
	54	[height=0.5,
		pos="654.85,469.4",
		width=0.75];
	1 -- 54	[pos="871.52,505.58 824.75,497.77 728.05,481.63 681.3,473.82"];
	1 -- 55	[pos="878.65,522.71 835.05,551.34 729.53,620.62 685.83,649.32"];
	56	[height=0.5,
		pos="903.06,259.31",
		width=0.75];
	1 -- 56	[pos="898.37,491.97 899.3,445.83 901.76,323.85 902.69,277.52"];
	60	[height=0.5,
		pos="960.25,304.07",
		width=0.75];
	1 -- 60	[pos="903.42,492.09 915.22,453.04 943.14,360.67 954.89,321.8"];
	64	[height=0.5,
		pos="1083.6,435.82",
		width=0.75];
	1 -- 64	[pos="921.51,500.61 957.21,486.34 1024.7,459.36 1060.3,445.14"];
	66	[height=0.5,
		pos="997.9,769.91",
		width=0.75];
	1 -- 66	[pos="904.71,527.46 922.87,574.69 972.81,704.64 991.08,752.18"];
	67	[height=0.5,
		pos="978.31,259.58",
		width=0.75];
	1 -- 67	[pos="903.65,492.39 918.36,446.52 957.74,323.72 972.56,277.5"];
	1 -- 12	[pos="881.65,524.75 850.16,553.14 781.43,615.09 749.99,643.43"];
	71	[height=0.5,
		pos="779.35,288.71",
		width=0.75];
	1 -- 71	[pos="888.89,493 866.8,451.81 810.62,347.01 788.5,305.76"];
	75	[height=0.5,
		pos="601.97,533.2",
		width=0.75];
	1 -- 75	[pos="870.95,512.12 814.57,516.54 685.09,526.69 628.86,531.1"];
	76	[height=0.5,
		pos="743.83,347.76",
		width=0.75];
	1 -- 76	[pos="883.5,494.74 854.11,463.82 787.85,394.08 758.4,363.1"];
	16	[height=0.5,
		pos="960.04,502.06",
		width=0.75];
	1 -- 16	[pos="924.67,506.59 927.56,506.22 930.51,505.84 933.39,505.47"];
	79	[height=0.5,
		pos="588.77,443.47",
		width=0.75];
	1 -- 79	[pos="872.17,504.44 813.96,491.92 673.09,461.61 614.74,449.06"];
	18	[height=0.5,
		pos="1086.9,485.8",
		width=0.75];
	1 -- 18	[pos="924.67,506.59 960.67,501.97 1024.4,493.81 1060.4,489.2"];
	82	[height=0.5,
		pos="987.63,443.49",
		width=0.75];
	1 -- 82	[pos="916.14,496.54 931.69,485 953.98,468.47 969.52,456.93"];
	22	[height=0.5,
		pos="598.3,577.28",
		width=0.75];
	1 -- 22	[pos="872.19,515.8 815.54,528.51 680.85,558.75 624.16,571.48"];
	2 -- 16	[pos="1127,553.01 1090.2,541.78 1021.4,520.77 984.61,509.56"];
	84	[height=0.5,
		pos="915.28,592.03",
		width=0.75];
	2 -- 84	[pos="1125,564.08 1079.5,570.15 987.3,582.43 941.84,588.49"];
	4	[height=0.5,
		pos="1187.3,641.4",
		width=0.75];
	2 -- 4	[pos="1159.4,578.08 1165.4,591.64 1173.6,610.33 1179.6,623.89"];
	85	[height=0.5,
		pos="1103.7,316.94",
		width=0.75];
	2 -- 85	[pos="1148.2,542.62 1139.3,497.57 1116.1,379.95 1107.2,334.88"];
	2 -- 87	[pos="1130.7,572.44 1076.7,603.01 933.84,683.93 880.1,714.37"];
	7	[height=0.5,
		pos="1368.6,610.31",
		width=0.75];
	2 -- 7	[pos="1177.4,566.44 1219.2,576.02 1301.2,594.84 1342.9,604.41"];
	88	[height=0.5,
		pos="1083.6,693.26",
		width=0.75];
	2 -- 88	[pos="1142.9,577.61 1129.9,602.96 1105.7,650.27 1092.6,675.82"];
	89	[height=0.5,
		pos="1373.4,299.7",
		width=0.75];
	2 -- 89	[pos="1165.2,544.61 1204.9,497.93 1320.6,361.82 1360,315.41"];
	93	[height=0.5,
		pos="1435.6,440.27",
		width=0.75];
	2 -- 93	[pos="1174.9,550.69 1228.3,528.08 1359.1,472.65 1412.4,450.08"];
	97	[height=0.5,
		pos="1408.8,343.78",
		width=0.75];
	2 -- 97	[pos="1168.6,546.31 1215.2,507.03 1345.2,397.39 1391.9,358.05"];
	101	[height=0.5,
		pos="1187.2,259.76",
		width=0.75];
	2 -- 101	[pos="1153.8,542.17 1160.2,488.35 1178.7,331.4 1185,277.88"];
	13	[height=0.5,
		pos="1027.6,582.1",
		width=0.75];
	2 -- 13	[pos="1125.4,565.11 1104.3,568.77 1074.9,573.87 1053.9,577.53"];
	104	[height=0.5,
		pos="857.84,465.99",
		width=0.75];
	2 -- 104	[pos="1127.1,552.63 1071.8,534.84 937.96,491.77 882.52,473.93"];
	15	[height=0.5,
		pos="1089.6,605.21",
		width=0.75];
	2 -- 15	[pos="1133.1,573.94 1125.2,579.59 1116.1,586.16 1108.2,591.82"];
	2 -- 105	[pos="1136.9,575.98 1107.6,606.7 1042.3,675.15 1012.8,706.02"];
	106	[height=0.5,
		pos="1307.9,252.53",
		width=0.75];
	2 -- 106	[pos="1160.5,543.09 1188,488.88 1271.7,323.73 1299.1,269.78"];
	110	[height=0.5,
		pos="1408,396.23",
		width=0.75];
	2 -- 110	[pos="1171.4,547.91 1219.1,517.33 1340.5,439.52 1388.3,408.9"];
	26	[height=0.5,
		pos="1278.5,575.05",
		width=0.75];
	2 -- 26	[pos="1178.6,563.61 1200.1,566.08 1230.1,569.52 1251.6,571.98"];
	3 -- 12	[pos="733.43,684.06 733.45,681.5 733.48,678.86 733.51,676.29"];
	3 -- 16	[pos="749.54,687.88 791.29,651.03 901.66,553.61 943.57,516.6"];
	3 -- 84	[pos="753.41,690.06 788.5,668.81 860.33,625.3 895.29,604.13"];
	113	[height=0.5,
		pos="617.09,750.17",
		width=0.75];
	3 -- 113	[pos="710.01,711.86 689.75,720.21 660.52,732.27 640.27,740.61"];
	115	[height=0.5,
		pos="438.27,609.82",
		width=0.75];
	3 -- 115	[pos="708.59,694.56 653.07,677.15 518.7,635.03 463.04,617.59"];
	117	[height=0.5,
		pos="306.49,694.86",
		width=0.75];
	3 -- 117	[pos="706.21,701.81 629.45,700.48 410.63,696.67 333.67,695.33"];
	121	[height=0.5,
		pos="733.49,925.17",
		width=0.75];
	3 -- 121	[pos="733.25,720.52 733.3,762.42 733.42,865.15 733.47,906.99"];
	8	[height=0.5,
		pos="926.88,769.96",
		width=0.75];
	3 -- 8	[pos="757.37,710.72 794.58,723.72 865.54,748.52 902.75,761.52"];
	125	[height=0.5,
		pos="415.89,868.36",
		width=0.75];
	3 -- 125	[pos="711.92,713.44 654.24,743.62 495.58,826.66 437.53,857.03"];
	129	[height=0.5,
		pos="614.01,901.73",
		width=0.75];
	3 -- 129	[pos="723.07,719.29 700.54,756.97 646.65,847.12 624.15,884.76"];
	132	[height=0.5,
		pos="691.7,746.34",
		width=0.75];
	3 -- 132	[pos="718.71,717.69 714.68,721.96 710.31,726.6 706.29,730.87"];
	135	[height=0.5,
		pos="462.68,515.79",
		width=0.75];
	3 -- 135	[pos="714.21,689.17 664.53,654.93 531.33,563.12 481.68,528.89"];
	138	[height=0.5,
		pos="410.26,697.88",
		width=0.75];
	3 -- 138	[pos="705.97,701.91 644.99,701.08 498.14,699.08 437.33,698.25"];
	140	[height=0.5,
		pos="397.93,815.81",
		width=0.75];
	3 -- 140	[pos="709.12,710.45 647.4,731.34 484.24,786.59 422.27,807.57"];
	143	[height=0.5,
		pos="405.06,741.91",
		width=0.75];
	3 -- 143	[pos="706.65,705.49 645.16,712.92 493.62,731.22 431.89,738.67"];
	145	[height=0.5,
		pos="397.36,515.79",
		width=0.75];
	3 -- 145	[pos="712.48,690.76 652.41,657.4 478.84,561.03 418.41,527.48"];
	149	[height=0.5,
		pos="476.96,912.41",
		width=0.75];
	3 -- 149	[pos="716.02,716.4 669.33,754.68 540.69,860.15 494.09,898.36"];
	29	[height=0.5,
		pos="273.89,784.69",
		width=0.75];
	3 -- 29	[pos="706.89,707.01 625.87,721.54 381.01,765.47 300.13,779.98"];
	57	[height=0.5,
		pos="1250.6,71.583",
		width=0.75];
	56 -- 57	[pos="924.28,247.85 986.33,214.34 1167,116.76 1229.2,83.132"];
	61	[height=0.5,
		pos="1336.9,146.31",
		width=0.75];
	60 -- 61	[pos="983.24,294.44 1050.5,266.28 1246.3,184.28 1313.7,156.02"];
	65	[height=0.5,
		pos="1356.9,654.32",
		width=0.75];
	64 -- 65	[pos="1101.1,449.82 1150.5,489.28 1290.4,601.11 1339.6,640.44"];
	68	[height=0.5,
		pos="1331.2,102.25",
		width=0.75];
	67 -- 68	[pos="1000.9,249.5 1064.5,221.15 1244.4,140.95 1308.3,112.45"];
	12 -- 40	[pos="724.22,675.06 705,709.39 661.66,786.81 642.4,821.21"];
	12 -- 17	[pos="741.93,675.54 757.77,709.09 792.34,782.3 808.15,815.79"];
	12 -- 13	[pos="759.02,651.57 814.57,637.2 946.65,603.04 1002.2,588.66"];
	12 -- 14	[pos="707.85,652.49 676.31,645.62 623.32,634.09 591.77,627.22"];
	278	[height=0.5,
		pos="754.65,784.38",
		width=0.75];
	12 -- 278	[pos="736.71,676.21 740.69,700.21 747.68,742.33 751.66,766.32"];
	332	[height=0.5,
		pos="977.26,677.52",
		width=0.75];
	12 -- 332	[pos="760.7,660.27 807.51,664 903.24,671.62 950.14,675.36"];
	343	[height=0.5,
		pos="851.65,593.91",
		width=0.75];
	12 -- 343	[pos="754.79,646.64 776.13,635.02 808.94,617.16 830.35,605.51"];
	344	[height=0.5,
		pos="429.69,559.83",
		width=0.75];
	12 -- 344	[pos="709.34,650.24 652.41,631.83 511.21,586.18 454.17,567.74"];
	348	[height=0.5,
		pos="727.02,515.07",
		width=0.75];
	12 -- 348	[pos="732.86,640 731.58,612.63 729.16,561.03 727.88,533.49"];
	349	[height=0.5,
		pos="539.74,513.27",
		width=0.75];
	12 -- 349	[pos="715.46,644.49 678.39,616.81 594.7,554.31 557.8,526.75"];
	103	[height=0.5,
		pos="504.14,559.81",
		width=0.75];
	12 -- 103	[pos="710.85,648.33 666.85,629.49 570.83,588.37 526.9,569.56"];
	171	[height=0.5,
		pos="612.28,706.14",
		width=0.75];
	12 -- 171	[pos="710.29,667.37 688.79,675.88 657.1,688.41 635.62,696.91"];
	207	[height=0.5,
		pos="412.23,653.85",
		width=0.75];
	12 -- 207	[pos="706.57,657.76 646.02,656.95 500.43,655.02 439.63,654.22"];
	256	[height=0.5,
		pos="522.39,469.22",
		width=0.75];
	12 -- 256	[pos="717.47,643.61 678.14,608.45 578.07,518.99 538.68,483.78"];
	295	[height=0.5,
		pos="680.54,790.4",
		width=0.75];
	12 -- 295	[pos="726.64,675.68 716.48,700.98 697.81,747.42 687.63,772.76"];
	315	[height=0.5,
		pos="721.83,836.53",
		width=0.75];
	12 -- 315	[pos="732.5,676.2 730.22,710.4 725.31,784.16 723.03,818.39"];
	72	[height=0.5,
		pos="947.76,48.601",
		width=0.75];
	71 -- 72	[pos="790.93,272.21 821.69,228.34 905.25,109.22 936.1,65.22"];
	77	[height=0.5,
		pos="1061.9,72.653",
		width=0.75];
	76 -- 77	[pos="760.48,333.35 815.45,285.81 990.72,134.24 1045.5,86.913"];
	16 -- 47	[pos="948.72,518.44 918.62,561.97 836.88,680.17 806.69,723.83"];
	16 -- 18	[pos="986.64,498.66 1008.3,495.88 1038.7,491.98 1060.3,489.21"];
	264	[height=0.5,
		pos="1285,432.19",
		width=0.75];
	16 -- 264	[pos="985.81,496.52 1046.6,483.45 1198.4,450.8 1259.2,437.73"];
	338	[height=0.5,
		pos="1213.7,541.22",
		width=0.75];
	16 -- 338	[pos="986.71,506.18 1035.6,513.72 1138.8,529.66 1187.4,537.16"];
	16 -- 385	[pos="945.39,517.53 914.57,550.05 843.35,625.2 812.66,657.59"];
	386	[height=0.5,
		pos="1140.5,386.8",
		width=0.75];
	16 -- 386	[pos="979.7,489.51 1014.4,467.34 1086.2,421.5 1120.9,399.34"];
	182	[height=0.5,
		pos="1088.8,144.75",
		width=0.75];
	16 -- 182	[pos="966.43,484.35 988.34,423.51 1060.4,223.57 1082.4,162.58"];
	214	[height=0.5,
		pos="902.7,210.71",
		width=0.75];
	16 -- 214	[pos="956.46,483.84 946.16,431.52 916.58,281.25 906.28,228.93"];
	241	[height=0.5,
		pos="695.43,425.36",
		width=0.75];
	16 -- 241	[pos="935.15,494.85 884.72,480.23 770.99,447.26 720.45,432.61"];
	286	[height=0.5,
		pos="1128.2,213.91",
		width=0.75];
	16 -- 286	[pos="970.06,484.9 999.96,433.65 1088.4,282.12 1118.2,230.98"];
	306	[height=0.5,
		pos="1212.9,191.57",
		width=0.75];
	16 -- 306	[pos="972.93,486.24 1016.2,433.1 1156,261.38 1199.7,207.73"];
	324	[height=0.5,
		pos="1125.3,649.22",
		width=0.75];
	16 -- 324	[pos="976.49,516.71 1008.2,544.92 1077.3,606.47 1108.9,634.63"];
	347	[height=0.5,
		pos="840.64,240.93",
		width=0.75];
	16 -- 347	[pos="952.02,484.53 930.27,436.95 870.34,305.88 848.62,258.39"];
	358	[height=0.5,
		pos="867.9,383.36",
		width=0.75];
	16 -- 358	[pos="947.62,486.06 930.03,463.4 898.06,422.22 880.42,399.5"];
	369	[height=0.5,
		pos="805.85,344.27",
		width=0.75];
	16 -- 369	[pos="945.26,486.93 915.86,456.85 850.36,389.82 820.82,359.59"];
	80	[height=0.5,
		pos="238.63,568.82",
		width=0.75];
	79 -- 80	[pos="564.97,451.98 501.1,474.85 326.37,537.41 262.46,560.29"];
	291	[height=0.5,
		pos="977.36,632.17",
		width=0.75];
	18 -- 291	[pos="1074.8,502.03 1053.7,530.16 1010.7,587.69 989.56,615.87"];
	18 -- 348	[pos="1059.9,488 993,493.44 820.56,507.46 753.89,512.88"];
	18 -- 388	[pos="1067.7,498.77 1025.2,527.51 923.51,596.28 881.04,624.98"];
	389	[height=0.5,
		pos="1150.8,165.6",
		width=0.75];
	18 -- 389	[pos="1090.5,467.67 1101.8,411.31 1136.1,239.62 1147.3,183.54"];
	50	[height=0.5,
		pos="768.77,464.36",
		width=0.75];
	18 -- 50	[pos="1059.8,483.98 999.68,479.92 855.87,470.23 795.83,466.18"];
	109	[height=0.5,
		pos="1141.4,100.73",
		width=0.75];
	18 -- 109	[pos="1089.5,467.75 1098.6,403.07 1129.7,183.36 1138.9,118.75"];
	148	[height=0.5,
		pos="1026.8,171.64",
		width=0.75];
	18 -- 148	[pos="1083.4,467.56 1072.8,411.9 1040.8,244.74 1030.2,189.54"];
	186	[height=0.5,
		pos="1227.7,344.17",
		width=0.75];
	18 -- 186	[pos="1102,470.65 1129.1,443.39 1185.7,386.4 1212.8,359.22"];
	245	[height=0.5,
		pos="874.11,318.26",
		width=0.75];
	18 -- 245	[pos="1069.1,471.81 1029,440.19 931.65,363.56 891.69,332.1"];
	268	[height=0.5,
		pos="1249.2,297.64",
		width=0.75];
	18 -- 268	[pos="1100.5,470.09 1131,434.67 1205,348.95 1235.6,313.45"];
	328	[height=0.5,
		pos="1311.3,338.38",
		width=0.75];
	18 -- 328	[pos="1106.4,472.98 1149,445.03 1249.6,378.9 1292,351.07"];
	342	[height=0.5,
		pos="1274.9,159.65",
		width=0.75];
	18 -- 342	[pos="1096.7,468.73 1129.2,412.37 1232.8,232.67 1265.1,176.56"];
	377	[height=0.5,
		pos="964.74,191.7",
		width=0.75];
	18 -- 377	[pos="1079.6,468.29 1057.9,415.98 993.66,261.31 971.98,209.12"];
	383	[height=0.5,
		pos="1102.4,259",
		width=0.75];
	18 -- 383	[pos="1088.1,467.63 1091,425.16 1098.2,319.82 1101.2,277.27"];
	83	[height=0.5,
		pos="1216.4,596.47",
		width=0.75];
	82 -- 83	[pos="1006.7,456.27 1049.8,485.07 1154,554.76 1197.2,583.62"];
	4 -- 30	[pos="1173.6,657.04 1130.4,706.56 996.57,859.64 953.34,909.1"];
	4 -- 53	[pos="1171.2,626.96 1153.1,610.75 1123.9,584.6 1105.8,568.38"];
	153	[height=0.5,
		pos="1024.9,487.52",
		width=0.75];
	4 -- 153	[pos="1171.7,626.65 1140.8,597.31 1071.8,531.94 1040.6,502.45"];
	154	[height=0.5,
		pos="1189,928.21",
		width=0.75];
	4 -- 154	[pos="1187.4,659.78 1187.7,711.58 1188.6,858.37 1188.9,909.98"];
	158	[height=0.5,
		pos="1492.7,632.66",
		width=0.75];
	4 -- 158	[pos="1214.4,640.63 1272.4,638.97 1407.8,635.09 1465.6,633.43"];
	159	[height=0.5,
		pos="1421.4,887.56",
		width=0.75];
	4 -- 159	[pos="1202,656.8 1244,701.01 1364.7,827.97 1406.7,872.17"];
	9	[height=0.5,
		pos="1226.2,768.53",
		width=0.75];
	4 -- 9	[pos="1192.7,659.08 1200.1,683.23 1213.3,726.31 1220.7,750.59"];
	162	[height=0.5,
		pos="1687.3,678.88",
		width=0.75];
	4 -- 162	[pos="1214.2,643.42 1301,649.92 1573.3,670.33 1660.3,676.85"];
	166	[height=0.5,
		pos="1653,722.88",
		width=0.75];
	4 -- 166	[pos="1213.7,646.02 1295.5,660.34 1544.7,703.94 1626.6,718.27"];
	170	[height=0.5,
		pos="1057.5,834.16",
		width=0.75];
	4 -- 170	[pos="1176.2,657.84 1151.8,694.16 1093.3,780.95 1068.7,817.49"];
	172	[height=0.5,
		pos="1580.9,415.5",
		width=0.75];
	4 -- 172	[pos="1207.9,629.58 1275.8,590.63 1491.7,466.65 1560,427.48"];
	176	[height=0.5,
		pos="915.21,681.95",
		width=0.75];
	4 -- 176	[pos="1160.7,645.37 1108.7,653.12 994.01,670.21 941.91,677.97"];
	177	[height=0.5,
		pos="1568.4,715.48",
		width=0.75];
	4 -- 177	[pos="1213.5,646.5 1283.2,660.04 1472.6,696.87 1542.3,710.4"];
	179	[height=0.5,
		pos="1622.9,459.52",
		width=0.75];
	4 -- 179	[pos="1210.4,631.75 1285.9,600.25 1524.5,500.62 1599.9,469.15"];
	183	[height=0.5,
		pos="1197.5,884.18",
		width=0.75];
	4 -- 183	[pos="1188.1,659.65 1190,704.75 1194.8,821.08 1196.7,866.05"];
	185	[height=0.5,
		pos="1497.8,419.85",
		width=0.75];
	4 -- 185	[pos="1205.8,628.21 1260.9,588.9 1423.5,472.84 1479,433.25"];
	187	[height=0.5,
		pos="1288.2,757.68",
		width=0.75];
	4 -- 187	[pos="1200.9,657.09 1220.2,679.28 1255.2,719.62 1274.5,741.88"];
	114	[height=0.5,
		pos="1124.2,739.92",
		width=0.75];
	4 -- 114	[pos="1176.6,658.11 1165,676.23 1146.6,704.98 1134.9,723.12"];
	86	[height=0.5,
		pos="778.59,234.78",
		width=0.75];
	85 -- 86	[pos="1078.2,310.49 1017.4,295.13 864.63,256.52 803.98,241.19"];
	7 -- 158	[pos="1394.9,615.05 1416,618.84 1445.4,624.14 1466.4,627.93"];
	247	[height=0.5,
		pos="1276.3,713.68",
		width=0.75];
	7 -- 247	[pos="1354.6,626.01 1337.1,645.55 1307.5,678.72 1290.1,698.17"];
	248	[height=0.5,
		pos="1718.7,551.89",
		width=0.75];
	7 -- 248	[pos="1394.9,605.92 1459.8,595.09 1626.9,567.21 1692.1,556.33"];
	250	[height=0.5,
		pos="1756.3,690.58",
		width=0.75];
	7 -- 250	[pos="1394.6,615.7 1465.3,630.33 1659.9,670.62 1730.4,685.21"];
	11	[height=0.5,
		pos="1249.3,669.65",
		width=0.75];
	7 -- 11	[pos="1346.7,621.2 1325.2,631.9 1292.5,648.15 1271.1,658.83"];
	253	[height=0.5,
		pos="1628.2,365.33",
		width=0.75];
	7 -- 253	[pos="1384.4,595.36 1430.9,551.52 1566.4,423.68 1612.6,380.09"];
	257	[height=0.5,
		pos="1727.7,462.59",
		width=0.75];
	7 -- 257	[pos="1391.6,600.85 1456.3,574.23 1639.4,498.93 1704.4,472.17"];
	260	[height=0.5,
		pos="1470.9,307.19",
		width=0.75];
	7 -- 260	[pos="1374.5,592.71 1392.6,539.13 1446.8,378.48 1464.9,324.84"];
	263	[height=0.5,
		pos="1398.5,522.25",
		width=0.75];
	7 -- 263	[pos="1374.6,592.49 1379.8,577.21 1387.2,555.31 1392.4,540.04"];
	7 -- 264	[pos="1360.4,592.91 1344.4,558.77 1309,483.38 1293.1,449.4"];
	265	[height=0.5,
		pos="1412.3,786.39",
		width=0.75];
	7 -- 265	[pos="1373,628.17 1381.4,661.91 1399.4,734.7 1407.8,768.49"];
	267	[height=0.5,
		pos="1558.1,371.44",
		width=0.75];
	7 -- 267	[pos="1381.3,594.27 1415.8,550.75 1511,430.85 1545.4,387.41"];
	7 -- 19	[pos="1351.6,624.52 1312.7,657.16 1217.2,737.18 1178.4,769.78"];
	35	[height=0.5,
		pos="1696.3,811.15",
		width=0.75];
	7 -- 35	[pos="1388.6,622.57 1447.1,658.43 1617.4,762.82 1676.1,798.8"];
	59	[height=0.5,
		pos="1702.1,416.5",
		width=0.75];
	7 -- 59	[pos="1389,598.48 1448.5,563.88 1621.8,463.14 1681.6,428.43"];
	124	[height=0.5,
		pos="1811.4,639.64",
		width=0.75];
	7 -- 124	[pos="1395.6,612.1 1474.8,617.35 1705.4,632.62 1784.4,637.85"];
	191	[height=0.5,
		pos="1532.9,327.38",
		width=0.75];
	7 -- 191	[pos="1378.4,593.46 1407.5,543.26 1493.6,395.06 1523,344.51"];
	221	[height=0.5,
		pos="1606.9,865.47",
		width=0.75];
	7 -- 221	[pos="1383.1,625.89 1425.8,671.55 1550.2,804.7 1592.6,850.09"];
	90	[height=0.5,
		pos="1728.3,291.77",
		width=0.75];
	89 -- 90	[pos="1400.6,299.09 1466.7,297.61 1634.8,293.86 1701,292.38"];
	94	[height=0.5,
		pos="1780.7,595.61",
		width=0.75];
	93 -- 94	[pos="1458,450.34 1520.3,478.38 1695.2,557.11 1758,585.36"];
	98	[height=0.5,
		pos="1695.8,247.69",
		width=0.75];
	97 -- 98	[pos="1433.3,335.58 1487.5,317.43 1617.2,273.99 1671.4,255.86"];
	102	[height=0.5,
		pos="744.89,182.95",
		width=0.75];
	101 -- 102	[pos="1160.8,255.18 1082.2,241.52 849.57,201.13 771.09,187.5"];
	13 -- 18	[pos="1037.9,565.33 1048.7,547.76 1065.6,520.32 1076.5,502.71"];
	13 -- 15	[pos="1051.4,590.97 1056.2,592.75 1061.2,594.62 1066,596.4"];
	316	[height=0.5,
		pos="1096.1,790.08",
		width=0.75];
	13 -- 316	[pos="1033.4,599.83 1046.4,639.13 1077.4,733.14 1090.3,772.39"];
	352	[height=0.5,
		pos="929.95,380.67",
		width=0.75];
	13 -- 352	[pos="1019.3,564.93 1000.8,526.87 956.68,435.82 938.26,397.8"];
	356	[height=0.5,
		pos="925.58,427.36",
		width=0.75];
	13 -- 356	[pos="1016.7,565.54 997.15,535.91 956.42,474.15 936.72,444.27"];
	359	[height=0.5,
		pos="789.12,554.06",
		width=0.75];
	13 -- 359	[pos="1000.7,578.94 954.78,573.54 861.77,562.6 815.91,557.21"];
	363	[height=0.5,
		pos="1201.9,435.15",
		width=0.75];
	13 -- 363	[pos="1044.6,567.74 1078,539.58 1151.8,477.39 1185,449.35"];
	13 -- 42	[pos="1015.9,598.32 995.89,625.95 955.47,681.83 935.42,709.57"];
	74	[height=0.5,
		pos="1040.4,282.13",
		width=0.75];
	13 -- 74	[pos="1028.4,563.79 1030.7,510.11 1037.3,353.58 1039.6,300.2"];
	137	[height=0.5,
		pos="1016.5,349.52",
		width=0.75];
	13 -- 137	[pos="1026.7,563.85 1024.6,520.37 1019.4,411.08 1017.3,367.68"];
	175	[height=0.5,
		pos="1165.7,304.35",
		width=0.75];
	13 -- 175	[pos="1036.2,564.73 1061,514.85 1132.3,371.59 1157.1,321.72"];
	209	[height=0.5,
		pos="992.46,397.12",
		width=0.75];
	13 -- 209	[pos="1024.2,564.03 1017.4,528.57 1002.6,450.29 995.86,415"];
	235	[height=0.5,
		pos="819.88,510.04",
		width=0.75];
	13 -- 235	[pos="1003.4,573.69 963.34,559.81 883.88,532.24 843.96,518.39"];
	259	[height=0.5,
		pos="1284,388.18",
		width=0.75];
	13 -- 259	[pos="1045.6,568.46 1092.7,532.86 1218.9,437.39 1266,401.8"];
	281	[height=0.5,
		pos="1275.7,520.23",
		width=0.75];
	13 -- 281	[pos="1053.2,575.71 1100.9,563.83 1202.7,538.45 1250.3,526.59"];
	297	[height=0.5,
		pos="1263.9,476.21",
		width=0.75];
	13 -- 297	[pos="1050.3,571.95 1095.4,551.71 1196.2,506.55 1241.3,486.33"];
	15 -- 16	[pos="1072.2,591.3 1047.4,571.61 1002.5,535.83 977.66,516.08"];
	15 -- 263	[pos="1114.9,598.42 1173,582.83 1315.3,544.59 1373.3,529.02"];
	15 -- 343	[pos="1062.3,603.92 1016.4,601.74 924.33,597.36 878.63,595.2"];
	380	[height=0.5,
		pos="995.4,813.94",
		width=0.75];
	15 -- 380	[pos="1081.8,622.65 1064,662.04 1020.9,757.5 1003.2,796.7"];
	382	[height=0.5,
		pos="1346,382.42",
		width=0.75];
	15 -- 382	[pos="1106.5,590.59 1153,550.13 1283.2,436.98 1329.5,396.8"];
	384	[height=0.5,
		pos="1187.1,713.52",
		width=0.75];
	15 -- 384	[pos="1103.6,620.73 1122.1,641.32 1154.6,677.46 1173.1,698.03"];
	15 -- 46	[pos="1082.2,622.59 1062.5,668.77 1008.9,794.19 989.09,840.51"];
	78	[height=0.5,
		pos="1286.9,204.8",
		width=0.75];
	15 -- 78	[pos="1098.1,588.01 1130.5,522.29 1246.1,287.54 1278.4,221.94"];
	142	[height=0.5,
		pos="1043.6,878.91",
		width=0.75];
	15 -- 142	[pos="1086.6,623.17 1078.3,672.76 1055,811.21 1046.7,860.88"];
	178	[height=0.5,
		pos="1460.8,484.28",
		width=0.75];
	15 -- 178	[pos="1114,597.28 1181.3,575.37 1369,514.19 1436.4,492.25"];
	211	[height=0.5,
		pos="1078.5,365.19",
		width=0.75];
	15 -- 211	[pos="1088.8,587.17 1086.7,542.69 1081.4,428.14 1079.3,383.44"];
	237	[height=0.5,
		pos="860.48,788.26",
		width=0.75];
	15 -- 237	[pos="1072,619.27 1029.3,653.43 920.33,740.45 877.83,774.4"];
	303	[height=0.5,
		pos="1430.7,607.64",
		width=0.75];
	15 -- 303	[pos="1116.7,605.4 1180.5,605.86 1339.8,607 1403.6,607.45"];
	322	[height=0.5,
		pos="1388.4,698.34",
		width=0.75];
	15 -- 322	[pos="1114.3,612.91 1170.6,630.43 1307.5,673.1 1363.7,690.63"];
	337	[height=0.5,
		pos="1526.2,463.94",
		width=0.75];
	15 -- 337	[pos="1114.1,597.31 1190.6,572.56 1425.1,496.66 1501.7,471.87"];
	366	[height=0.5,
		pos="789.61,614.07",
		width=0.75];
	15 -- 366	[pos="1062.5,606.01 1005.5,607.7 874.03,611.58 816.92,613.27"];
	107	[height=0.5,
		pos="1393.2,59.522",
		width=0.75];
	106 -- 107	[pos="1315.6,235.06 1331.8,198.31 1369.4,113.4 1385.6,76.812"];
	111	[height=0.5,
		pos="1771.4,412.11",
		width=0.75];
	110 -- 111	[pos="1435.1,397.41 1502.3,400.35 1676.7,407.97 1744.2,410.92"];
	113 -- 114	[pos="644.35,749.62 732.49,747.84 1009.2,742.24 1097.1,740.46"];
	116	[height=0.5,
		pos="429.53,383.73",
		width=0.75];
	115 -- 116	[pos="437.57,591.7 435.93,549.36 431.88,444.35 430.24,401.93"];
	118	[height=0.5,
		pos="145.22,778.88",
		width=0.75];
	117 -- 118	[pos="285.08,706.02 254.23,722.09 197.62,751.58 166.72,767.68"];
	122	[height=0.5,
		pos="1116.9,1155",
		width=0.75];
	121 -- 122	[pos="753.83,937.36 820.24,977.18 1030.2,1103.1 1096.6,1142.8"];
	8 -- 36	[pos="921.96,787.7 912.52,821.78 891.93,896.04 882.44,930.27"];
	8 -- 88	[pos="948.68,759.29 978.54,744.68 1031.9,718.58 1061.8,703.95"];
	8 -- 15	[pos="941.9,754.75 972.91,723.37 1043.7,651.73 1074.7,620.38"];
	192	[height=0.5,
		pos="718.1,612.05",
		width=0.75];
	8 -- 192	[pos="908.72,756.22 869.14,726.28 775.48,655.45 736.07,625.64"];
	8 -- 247	[pos="953.15,765.73 1017.9,755.3 1184.6,728.44 1249.7,717.96"];
	269	[height=0.5,
		pos="1073.4,1111",
		width=0.75];
	8 -- 269	[pos="934.35,787.34 959.49,845.84 1040.8,1035.2 1066,1093.6"];
	273	[height=0.5,
		pos="887.25,1120.3",
		width=0.75];
	8 -- 273	[pos="924.81,788.3 917.96,848.84 896.12,1041.9 889.3,1102.1"];
	277	[height=0.5,
		pos="1146.1,834.13",
		width=0.75];
	8 -- 277	[pos="951.61,777.19 993.72,789.52 1078.9,814.45 1121.2,826.82"];
	8 -- 278	[pos="899.97,772.21 867.71,774.91 813.96,779.41 781.66,782.12"];
	279	[height=0.5,
		pos="1064.8,1011.2",
		width=0.75];
	8 -- 279	[pos="936.58,786.92 961.9,831.21 1029.8,949.96 1055.1,994.23"];
	282	[height=0.5,
		pos="694.89,881.12",
		width=0.75];
	8 -- 282	[pos="904.64,780.62 860.29,801.87 761.35,849.27 717.07,870.5"];
	284	[height=0.5,
		pos="1208.2,827.97",
		width=0.75];
	8 -- 284	[pos="952.84,775.31 1006.4,786.36 1128.8,811.59 1182.3,822.63"];
	287	[height=0.5,
		pos="965.59,546.09",
		width=0.75];
	8 -- 287	[pos="929.98,752.02 937.23,710.1 955.21,606.12 962.47,564.12"];
	8 -- 291	[pos="933.38,752.23 943.07,725.77 961.21,676.25 970.89,649.83"];
	292	[height=0.5,
		pos="1002.8,1013.7",
		width=0.75];
	8 -- 292	[pos="932.46,787.88 946.49,832.95 983.13,950.62 997.17,995.72"];
	63	[height=0.5,
		pos="1270.3,814.75",
		width=0.75];
	8 -- 63	[pos="953.54,773.44 1017.5,781.78 1179.2,802.87 1243.4,811.25"];
	161	[height=0.5,
		pos="1037.7,1057.7",
		width=0.75];
	8 -- 161	[pos="933.65,787.53 953.43,838.9 1011,988.46 1030.9,1040"];
	224	[height=0.5,
		pos="831.33,1038.2",
		width=0.75];
	8 -- 224	[pos="920.61,787.56 903.3,836.17 854.97,971.89 837.63,1020.6"];
	126	[height=0.5,
		pos="740.83,1217.5",
		width=0.75];
	125 -- 126	[pos="430.27,883.81 483.94,941.49 672.23,1143.8 726.24,1201.8"];
	130	[height=0.5,
		pos="835.54,1273.3",
		width=0.75];
	129 -- 130	[pos="624.11,918.65 661.01,980.55 788.39,1194.2 825.39,1256.2"];
	133	[height=0.5,
		pos="1470.9,371.36",
		width=0.75];
	132 -- 133	[pos="713.76,735.73 826.32,681.55 1335.6,436.44 1448.6,382.07"];
	136	[height=0.5,
		pos="716.58,275.62",
		width=0.75];
	135 -- 136	[pos="478.56,500.77 524.16,457.64 655.11,333.77 700.7,290.64"];
	139	[height=0.5,
		pos="300.68,559.88",
		width=0.75];
	138 -- 139	[pos="397.48,681.78 376.36,655.19 334.45,602.4 313.39,575.88"];
	141	[height=0.5,
		pos="643.91,1086",
		width=0.75];
	140 -- 141	[pos="412.21,831.5 455.79,879.37 586.67,1023.1 629.89,1070.6"];
	143 -- 144	[pos="423.66,755.08 481.33,795.9 656.74,920.08 714.69,961.1"];
	146	[height=0.5,
		pos="400.99,202.24",
		width=0.75];
	145 -- 146	[pos="397.57,497.58 398.21,442.16 400.14,275.98 400.78,220.5"];
	150	[height=0.5,
		pos="751.77,1261.5",
		width=0.75];
	149 -- 150	[pos="489.84,928.78 536,987.42 692.8,1186.6 738.92,1245.2"];
	155	[height=0.5,
		pos="998.61,1272",
		width=0.75];
	154 -- 155	[pos="1179.6,945.25 1147.2,1003.8 1040.6,1196.1 1008.1,1254.8"];
	160	[height=0.5,
		pos="1522.9,1031.8",
		width=0.75];
	159 -- 160	[pos="1433,904.11 1452.6,931.94 1491.9,987.78 1511.4,1015.5"];
	9 -- 37	[pos="1210.1,782.99 1168.7,820 1059.5,917.85 1018.1,955.02"];
	9 -- 18	[pos="1217.7,751.27 1192.8,700.79 1120.4,553.84 1095.5,503.2"];
	9 -- 11	[pos="1230.4,750.39 1234.6,732.55 1241,705.47 1245.1,687.67"];
	10	[height=0.5,
		pos="1126.8,1028.5",
		width=0.75];
	9 -- 10	[pos="1219.5,785.99 1201.5,833.23 1151.8,963.21 1133.6,1010.8"];
	294	[height=0.5,
		pos="1105.7,898.66",
		width=0.75];
	9 -- 294	[pos="1211.9,783.97 1188.7,809.01 1143.1,858.21 1119.9,883.24"];
	296	[height=0.5,
		pos="1450.5,677.42",
		width=0.75];
	9 -- 296	[pos="1249.4,759.12 1292.3,741.66 1384,704.44 1427.1,686.92"];
	298	[height=0.5,
		pos="1191,1048.9",
		width=0.75];
	9 -- 298	[pos="1223.9,786.49 1217.6,837.02 1199.6,979.98 1193.3,1030.8"];
	302	[height=0.5,
		pos="1453.1,830.41",
		width=0.75];
	9 -- 302	[pos="1251.3,775.39 1295,787.28 1384.2,811.61 1427.9,823.52"];
	304	[height=0.5,
		pos="1621.3,658.62",
		width=0.75];
	9 -- 304	[pos="1251.2,761.57 1322.3,741.8 1524.9,685.44 1596.1,665.62"];
	307	[height=0.5,
		pos="1238.4,973.29",
		width=0.75];
	9 -- 307	[pos="1227.3,786.7 1229.6,825.55 1235,916.34 1237.4,955.16"];
	311	[height=0.5,
		pos="1504.5,874.45",
		width=0.75];
	9 -- 311	[pos="1249.9,777.56 1302.5,797.57 1428.3,845.45 1480.8,865.44"];
	9 -- 65	[pos="1242.8,754.06 1267.9,732.09 1315.4,690.56 1340.5,668.67"];
	92	[height=0.5,
		pos="1663.7,766.9",
		width=0.75];
	9 -- 92	[pos="1253.2,768.43 1331.6,768.14 1558.1,767.3 1636.6,767"];
	128	[height=0.5,
		pos="1354.4,973.5",
		width=0.75];
	9 -- 128	[pos="1236.7,785.3 1260.8,823.83 1319.9,918.3 1344,956.78"];
	196	[height=0.5,
		pos="1607.2,552.89",
		width=0.75];
	9 -- 196	[pos="1246.9,756.78 1313.2,719.25 1519.5,602.51 1586.2,564.78"];
	228	[height=0.5,
		pos="1298.9,1017.5",
		width=0.75];
	9 -- 228	[pos="1231.4,786.43 1244.8,832.38 1280.4,954.02 1293.7,999.78"];
	249	[height=0.5,
		pos="1537.7,776.26",
		width=0.75];
	9 -- 249	[pos="1253.3,769.2 1312.2,770.66 1451.4,774.11 1510.4,775.58"];
	272	[height=0.5,
		pos="1478.5,943.16",
		width=0.75];
	9 -- 272	[pos="1245.2,781.65 1292,814.09 1413,897.77 1459.7,930.12"];
	163	[height=0.5,
		pos="1784.1,799.22",
		width=0.75];
	162 -- 163	[pos="1700.3,695.11 1718.9,718.2 1752.8,760.29 1771.2,783.24"];
	167	[height=0.5,
		pos="1813.3,734.73",
		width=0.75];
	166 -- 167	[pos="1680.1,724.89 1709.7,727.08 1756.7,730.55 1786.2,732.73"];
	170 -- 171	[pos="1032.6,827 954.56,804.57 715.41,735.79 637.27,713.32"];
	173	[height=0.5,
		pos="1634.3,170.3",
		width=0.75];
	172 -- 173	[pos="1584.8,397.47 1594.7,352.12 1620.5,233.73 1630.4,188.36"];
	177 -- 178	[pos="1560.3,698.1 1540.3,655.15 1488.8,544.38 1468.9,501.55"];
	180	[height=0.5,
		pos="1532.7,171.27",
		width=0.75];
	179 -- 180	[pos="1617.3,441.49 1601,389.6 1554.3,240.34 1538.3,188.93"];
	183 -- 184	[pos="1175.9,895.13 1122.7,922.13 985.74,991.65 932.28,1018.8"];
	185 -- 186	[pos="1472.9,412.86 1421.5,398.48 1304.6,365.71 1253,351.25"];
	5	[height=0.5,
		pos="664.82,513.43",
		width=0.75];
	5 -- 54	[pos="660.76,495.52 660.16,492.86 659.54,490.11 658.93,487.44"];
	5 -- 18	[pos="691.87,511.66 768.01,506.68 983.61,492.57 1059.8,487.58"];
	5 -- 153	[pos="691.88,511.48 758.77,506.67 931.27,494.25 997.97,489.45"];
	5 -- 188	[pos="647.75,527.62 611.84,557.46 528.85,626.42 493.09,656.13"];
	189	[height=0.5,
		pos="810.49,190.77",
		width=0.75];
	5 -- 189	[pos="672.65,496.08 697.95,440.06 777.27,264.35 802.62,208.2"];
	5 -- 192	[pos="674.1,530.61 683.88,548.71 699.19,577.04 708.93,595.06"];
	193	[height=0.5,
		pos="681.79,319.66",
		width=0.75];
	5 -- 193	[pos="666.42,495.2 669.66,458.18 676.98,374.56 680.21,337.7"];
	197	[height=0.5,
		pos="369.92,440.08",
		width=0.75];
	5 -- 197	[pos="639.42,507.11 583.68,493.25 451.15,460.28 395.36,446.41"];
	201	[height=0.5,
		pos="509.13,388.33",
		width=0.75];
	5 -- 201	[pos="647.57,499.57 617.64,475.52 556.44,426.35 526.46,402.26"];
	204	[height=0.5,
		pos="437.06,339.7",
		width=0.75];
	5 -- 204	[pos="646.95,499.8 604.37,467.32 497.34,385.68 454.85,353.27"];
	208	[height=0.5,
		pos="661.91,366.07",
		width=0.75];
	5 -- 208	[pos="664.46,495.36 663.9,467.08 662.83,412.66 662.27,384.29"];
	5 -- 14	[pos="650.65,528.93 631.84,549.49 598.83,585.58 580.04,606.12"];
	210	[height=0.5,
		pos="587.44,397.16",
		width=0.75];
	5 -- 210	[pos="653.74,496.77 639.03,474.67 613.21,435.88 598.51,413.79"];
	212	[height=0.5,
		pos="499.1,338.61",
		width=0.75];
	5 -- 212	[pos="650.12,497.92 618.59,464.66 544.82,386.84 513.54,353.84"];
	215	[height=0.5,
		pos="449.92,471.79",
		width=0.75];
	5 -- 215	[pos="638.47,508.32 597.11,500.31 517.44,484.87 476.15,476.87"];
	217	[height=0.5,
		pos="765.73,391.86",
		width=0.75];
	5 -- 217	[pos="678.01,497.54 697.35,474.24 733.19,431.06 752.53,407.76"];
	5 -- 32	[pos="638.28,517.51 580.97,526.3 446.25,546.99 389.1,555.76"];
	5 -- 86	[pos="671.94,496 692.37,445.96 751.05,302.24 771.48,252.2"];
	5 -- 116	[pos="643.94,501.92 599.29,477.31 494.98,419.8 450.37,395.21"];
	190	[height=0.5,
		pos="1234.8,115.61",
		width=0.75];
	189 -- 190	[pos="836.71,186.12 912.7,172.66 1132.4,133.75 1208.5,120.27"];
	194	[height=0.5,
		pos="1049.7,28.626",
		width=0.75];
	193 -- 194	[pos="699.54,305.62 761.84,256.34 970.14,91.579 1032.2,42.522"];
	198	[height=0.5,
		pos="81.928,964.93",
		width=0.75];
	197 -- 198	[pos="360.5,457.25 316.88,536.75 134.75,868.68 91.274,947.9"];
	202	[height=0.5,
		pos="549.36,665.88",
		width=0.75];
	201 -- 202	[pos="511.77,406.54 519.08,456.95 539.51,597.91 546.76,647.96"];
	205	[height=0.5,
		pos="187.96,337.28",
		width=0.75];
	204 -- 205	[pos="409.92,339.44 362.01,338.97 262.95,338.01 215.06,337.54"];
	208 -- 209	[pos="688.68,368.59 750.62,374.41 903.26,388.74 965.44,394.58"];
	14 -- 75	[pos="573.02,604.13 579.34,588.63 588.54,566.11 594.86,550.63"];
	14 -- 104	[pos="587.36,610.15 641.48,581.3 783,505.87 836.73,477.24"];
	14 -- 176	[pos="592.15,626.13 656.88,637.31 823.6,666.12 888.65,677.36"];
	365	[height=0.5,
		pos="374.25,603.83",
		width=0.75];
	14 -- 365	[pos="538.84,619.08 502.32,615.7 437.62,609.7 401.17,606.33"];
	367	[height=0.5,
		pos="309.92,484.18",
		width=0.75];
	14 -- 367	[pos="544.51,610.11 496.2,584.18 379.13,521.34 331.06,495.53"];
	370	[height=0.5,
		pos="121.39,602.1",
		width=0.75];
	14 -- 370	[pos="538.75,620.4 459.3,616.92 227.81,606.76 148.45,603.28"];
	374	[height=0.5,
		pos="186.32,524.68",
		width=0.75];
	14 -- 374	[pos="540.4,615.08 471.25,597.43 280.72,548.78 211.7,531.16"];
	378	[height=0.5,
		pos="501.7,621.85",
		width=0.75];
	14 -- 378	[pos="538.67,621.7 535.39,621.71 532.04,621.73 528.76,621.74"];
	14 -- 44	[pos="541.55,629.84 476.18,651.99 297.39,712.57 231.99,734.73"];
	14 -- 139	[pos="539.98,615.56 489.15,603.73 376.91,577.62 326.31,565.85"];
	262	[height=0.5,
		pos="443.21,427.75",
		width=0.75];
	14 -- 262	[pos="555.22,604.73 531.96,567.98 476.93,481.03 453.77,444.44"];
	283	[height=0.5,
		pos="314.84,738.87",
		width=0.75];
	14 -- 283	[pos="543.61,632 495.97,654.25 384.67,706.25 337.07,728.49"];
	301	[height=0.5,
		pos="144.79,696.91",
		width=0.75];
	14 -- 301	[pos="539.55,626.3 463.92,639.83 246.74,678.67 171.12,692.2"];
	319	[height=0.5,
		pos="211.83,787.78",
		width=0.75];
	14 -- 319	[pos="543.74,631.99 480.16,661.83 297.54,747.55 233.97,777.39"];
	334	[height=0.5,
		pos="518.6,726.51",
		width=0.75];
	14 -- 334	[pos="558.08,638.92 549.32,658.36 535.19,689.71 526.42,709.16"];
	355	[height=0.5,
		pos="218.2,480.64",
		width=0.75];
	14 -- 355	[pos="542.81,612.23 479.71,586.66 304.85,515.77 241.5,490.09"];
	210 -- 211	[pos="614.54,395.4 700.4,389.81 965.74,372.53 1051.5,366.95"];
	213	[height=0.5,
		pos="756.44,129.2",
		width=0.75];
	212 -- 213	[pos="516.39,324.54 563.27,286.4 692.44,181.28 739.23,143.2"];
	215 -- 216	[pos="454,490.03 466.68,546.71 505.3,719.4 517.91,775.81"];
	218	[height=0.5,
		pos="1150.3,509.88",
		width=0.75];
	217 -- 218	[pos="790.37,399.42 859.67,420.69 1055.7,480.85 1125.4,502.23"];
	220	[height=0.5,
		pos="1015.7,1169.7",
		width=0.75];
	219 -- 220	[pos="564.37,1012 645.96,1040.5 910.02,1132.8 991.53,1161.3"];
	223	[height=0.5,
		pos="522.09,1131",
		width=0.75];
	222 -- 223	[pos="337.73,968.09 375.48,1001.5 468.02,1083.3 505.71,1116.6"];
	226	[height=0.5,
		pos="610.59,1265.5",
		width=0.75];
	225 -- 226	[pos="402.85,1044.2 443.23,1087.2 556.14,1207.5 596.24,1250.2"];
	230	[height=0.5,
		pos="801.36,1317.3",
		width=0.75];
	229 -- 230	[pos="481.7,1059.7 539.99,1106.7 725.84,1256.4 783.87,1303.2"];
	233	[height=0.5,
		pos="1127,942.84",
		width=0.75];
	232 -- 233	[pos="691.12,972.22 772.92,966.71 1018.2,950.18 1100.1,944.66"];
	234 -- 235	[pos="356.71,772.16 436.14,727.21 719.87,566.64 799.16,521.77"];
	236 -- 237	[pos="408.66,905.8 491.31,884.3 752.67,816.31 835.23,794.83"];
	239	[height=0.5,
		pos="87.333,648.12",
		width=0.75];
	238 -- 239	[pos="143.45,806.18 131.45,772.38 105.53,699.37 93.588,665.74"];
	243	[height=0.5,
		pos="124.31,554.3",
		width=0.75];
	242 -- 243	[pos="191.59,858.28 179.04,801.57 140.8,628.79 128.3,572.35"];
	248 -- 249	[pos="1705.7,568.02 1672.3,609.42 1583.8,719.03 1550.6,760.27"];
	251	[height=0.5,
		pos="1753.9,855.21",
		width=0.75];
	250 -- 251	[pos="1756,708.83 1755.6,740.56 1754.6,805.52 1754.1,837.13"];
	11 -- 39	[pos="1238.1,686.33 1205.1,735.24 1108.9,877.86 1076.1,926.49"];
	11 -- 13	[pos="1226,660.44 1183.4,643.63 1093.5,608.13 1050.9,591.31"];
	11 -- 19	[pos="1236.8,686.02 1220,707.75 1190.7,745.88 1174,767.59"];
	11 -- 277	[pos="1238.9,686.32 1219.1,717.85 1176.4,785.85 1156.6,817.41"];
	313	[height=0.5,
		pos="1353.5,891.31",
		width=0.75];
	11 -- 313	[pos="1257.5,687.04 1277,728.48 1325.9,832.64 1345.3,874"];
	11 -- 332	[pos="1222.3,670.43 1170.2,671.94 1056.9,675.22 1004.6,676.73"];
	333	[height=0.5,
		pos="1061.5,737.28",
		width=0.75];
	11 -- 333	[pos="1225.6,678.21 1189.5,691.19 1121.5,715.68 1085.4,728.67"];
	335	[height=0.5,
		pos="1601.7,777.42",
		width=0.75];
	11 -- 335	[pos="1274.1,677.23 1338.8,697.01 1512.3,750.07 1577,769.85"];
	11 -- 338	[pos="1244.4,651.79 1237.6,627.25 1225.4,583.38 1218.6,558.92"];
	11 -- 339	[pos="1229.7,682.17 1171,719.59 997.62,830.21 939.1,867.53"];
	340	[height=0.5,
		pos="1592.6,503.57",
		width=0.75];
	11 -- 340	[pos="1271.3,659 1333.2,629.08 1508.2,544.41 1570.4,514.34"];
	70	[height=0.5,
		pos="1660,507.85",
		width=0.75];
	11 -- 70	[pos="1272.6,660.48 1344.8,632.04 1564.6,545.45 1636.8,517.01"];
	100	[height=0.5,
		pos="1686.8,630.96",
		width=0.75];
	11 -- 100	[pos="1276.4,667.26 1354.8,660.32 1581.7,640.25 1659.9,633.33"];
	134	[height=0.5,
		pos="1554.7,671.43",
		width=0.75];
	11 -- 134	[pos="1276.4,669.8 1334.4,670.14 1469.8,670.94 1527.7,671.27"];
	169	[height=0.5,
		pos="1629.3,821.43",
		width=0.75];
	11 -- 169	[pos="1272.5,678.91 1340.4,706.01 1537.8,784.91 1605.9,812.1"];
	203	[height=0.5,
		pos="1350.2,763.73",
		width=0.75];
	11 -- 203	[pos="1265.1,684.35 1283.9,701.92 1315.3,731.16 1334.2,748.83"];
	11 -- 233	[pos="1241.5,687.15 1219.4,736.5 1156.8,876.32 1134.8,925.48"];
	254	[height=0.5,
		pos="1461,100.78",
		width=0.75];
	253 -- 254	[pos="1617.5,348.38 1587.3,300.59 1501.7,165.2 1471.6,117.59"];
	258	[height=0.5,
		pos="1516.6,222.92",
		width=0.75];
	257 -- 258	[pos="1713.8,446.87 1675.6,403.44 1568.8,282.2 1530.5,238.71"];
	261	[height=0.5,
		pos="1015.2,116.7",
		width=0.75];
	260 -- 261	[pos="1447.9,297.61 1370.1,265.06 1116.1,158.88 1038.1,126.29"];
	265 -- 266	[pos="1389.1,796.04 1308.9,829.57 1042.9,940.7 962.75,974.19"];
	267 -- 268	[pos="1532.6,365.34 1474.5,351.45 1332.9,317.64 1274.8,303.75"];
	19 -- 187	[pos="1187.4,778.56 1209.3,774.03 1240.4,767.58 1262.3,763.05"];
	19 -- 246	[pos="1137.6,792.59 1080.8,813.19 937.99,864.98 881.29,885.55"];
	19 -- 384	[pos="1167.9,766.17 1171.8,755.41 1176.8,741.75 1180.7,731.04"];
	19 -- 52	[pos="1160.2,802.29 1156.3,858.27 1144.8,1026.4 1141,1081.9"];
	19 -- 83	[pos="1166.7,765.96 1177.2,730.13 1200.7,650.18 1211.2,614.39"];
	112	[height=0.5,
		pos="1541,825.5",
		width=0.75];
	19 -- 112	[pos="1188.2,786.86 1257.8,794.49 1444.7,814.95 1514.3,822.58"];
	152	[height=0.5,
		pos="1267.4,1108.6",
		width=0.75];
	19 -- 152	[pos="1167.3,801.85 1185.8,858.61 1243.1,1034 1261.6,1090.7"];
	19 -- 218	[pos="1160.7,765.53 1158.7,715.6 1153.1,578.04 1151.1,528.2"];
	293	[height=0.5,
		pos="1256.4,1062.1",
		width=0.75];
	19 -- 293	[pos="1167.5,801.76 1184.7,852.01 1233.3,994.37 1250.3,1044.4"];
	312	[height=0.5,
		pos="1416.5,931.59",
		width=0.75];
	19 -- 312	[pos="1181.9,795.77 1229.7,823.42 1348.1,892 1396,919.7"];
	331	[height=0.5,
		pos="1434.3,1035.1",
		width=0.75];
	19 -- 331	[pos="1177.3,798.52 1225.5,842.91 1370.1,976.01 1418.4,1020.5"];
	351	[height=0.5,
		pos="1337.8,478.06",
		width=0.75];
	19 -- 351	[pos="1171.2,767.06 1202,713.58 1297.3,548.3 1328.1,494.89"];
	364	[height=0.5,
		pos="1416,742.35",
		width=0.75];
	19 -- 364	[pos="1187.7,779.64 1236.5,771.67 1340.5,754.68 1389.4,746.68"];
	379	[height=0.5,
		pos="932.67,813.98",
		width=0.75];
	19 -- 379	[pos="1134.8,787.44 1090.7,793.23 1003.2,804.72 959.2,810.5"];
	387	[height=0.5,
		pos="1354.3,566.28",
		width=0.75];
	19 -- 387	[pos="1175.3,768.28 1210.9,728.12 1305.1,621.79 1340.5,581.79"];
	391	[height=0.5,
		pos="1540.5,588.61",
		width=0.75];
	19 -- 391	[pos="1182.9,772.88 1249.5,738.58 1452,634.25 1518.8,599.79"];
	270	[height=0.5,
		pos="1384,1206.8",
		width=0.75];
	269 -- 270	[pos="1098,1118.6 1156.2,1136.5 1301.3,1181.3 1359.4,1199.2"];
	274	[height=0.5,
		pos="1076.5,1305.7",
		width=0.75];
	273 -- 274	[pos="902.73,1135.5 938.31,1170.3 1025.5,1255.7 1061.1,1290.5"];
	280	[height=0.5,
		pos="1602.6,911.23",
		width=0.75];
	279 -- 280	[pos="1091.1,1006.3 1182.4,989.32 1485.1,933.07 1576.3,916.11"];
	282 -- 283	[pos="671.12,872.22 602.86,846.68 406.85,773.31 338.61,747.76"];
	285	[height=0.5,
		pos="1430.6,255.29",
		width=0.75];
	284 -- 285	[pos="1215,810.52 1247.9,725.79 1390.8,357.94 1423.8,272.89"];
	288	[height=0.5,
		pos="561.13,344.28",
		width=0.75];
	287 -- 288	[pos="943.84,535.24 873.61,500.2 653.36,390.3 582.98,355.18"];
	292 -- 293	[pos="1028.9,1018.7 1077.7,1028 1181.7,1047.9 1230.3,1057.1"];
	10 -- 38	[pos="1105.4,1039.7 1071.3,1057.5 1005,1092.2 970.79,1110"];
	10 -- 66	[pos="1118.2,1011.1 1094.7,964.02 1030,834.22 1006.5,787.2"];
	10 -- 313	[pos="1146.9,1016.3 1189.9,990.29 1290.4,929.47 1333.4,903.46"];
	314	[height=0.5,
		pos="1011.4,1117.4",
		width=0.75];
	10 -- 314	[pos="1108.8,1042.4 1087.1,1059.1 1050.9,1086.9 1029.3,1103.6"];
	10 -- 316	[pos="1124.5,1010.2 1118.7,965.69 1104.1,852.34 1098.4,808.13"];
	317	[height=0.5,
		pos="1032.8,1217.4",
		width=0.75];
	10 -- 317	[pos="1118.3,1045.6 1100.5,1081.5 1059.3,1164.2 1041.4,1200.2"];
	320	[height=0.5,
		pos="1329.4,1074.4",
		width=0.75];
	10 -- 320	[pos="1152.5,1034.3 1191.3,1043.1 1264.7,1059.7 1303.7,1068.5"];
	323	[height=0.5,
		pos="1205.3,1110.8",
		width=0.75];
	10 -- 323	[pos="1141.6,1044 1155.6,1058.7 1176.6,1080.7 1190.6,1095.4"];
	10 -- 325	[pos="1101.4,1035 1067.7,1043.6 1008.4,1058.8 974.73,1067.4"];
	326	[height=0.5,
		pos="1540.6,922.03",
		width=0.75];
	10 -- 326	[pos="1152.1,1022 1226,1003 1441.5,947.52 1515.4,928.51"];
	329	[height=0.5,
		pos="1340.6,1118.5",
		width=0.75];
	10 -- 329	[pos="1149.7,1038.1 1190.7,1055.4 1276.4,1091.5 1317.6,1108.8"];
	96	[height=0.5,
		pos="1552.9,980.6",
		width=0.75];
	10 -- 96	[pos="1153.5,1025.5 1230,1016.9 1449.7,992.19 1526.2,983.59"];
	131	[height=0.5,
		pos="1209.9,1155",
		width=0.75];
	10 -- 131	[pos="1137.7,1045 1153.6,1069.3 1183.1,1114.2 1199,1138.4"];
	165	[height=0.5,
		pos="1428.2,1080.3",
		width=0.75];
	10 -- 165	[pos="1153,1033 1210,1042.8 1344.7,1066 1401.8,1075.8"];
	200	[height=0.5,
		pos="1163.8,1243",
		width=0.75];
	10 -- 200	[pos="1129.9,1046.4 1136.9,1086.8 1153.7,1184.5 1160.7,1225"];
	231	[height=0.5,
		pos="1094.9,1211.1",
		width=0.75];
	10 -- 231	[pos="1123.6,1046.7 1117.5,1081.7 1104.1,1158 1098,1193"];
	252	[height=0.5,
		pos="1470.5,987.82",
		width=0.75];
	10 -- 252	[pos="1153.5,1025.3 1217.5,1017.8 1379.4,998.61 1443.6,991.01"];
	276	[height=0.5,
		pos="1271.9,1152.6",
		width=0.75];
	10 -- 276	[pos="1143.5,1042.7 1171.3,1066.5 1227,1114.2 1255,1138.2"];
	294 -- 295	[pos="1080.3,892.22 1004.8,872.98 781.7,816.16 706,796.88"];
	296 -- 297	[pos="1436.2,661.97 1401.4,624.51 1313.1,529.23 1278.3,491.72"];
	299	[height=0.5,
		pos="959.72,1227.9",
		width=0.75];
	298 -- 299	[pos="1173.2,1062.7 1130.2,1096 1020.6,1180.8 977.54,1214.1"];
	302 -- 303	[pos="1451.3,812.18 1447.1,770.31 1436.7,667.63 1432.5,625.81"];
	305	[height=0.5,
		pos="1594.9,319.23",
		width=0.75];
	304 -- 305	[pos="1619.9,640.37 1615.3,581.44 1601,396.63 1596.4,337.57"];
	308	[height=0.5,
		pos="1060.7,1261.5",
		width=0.75];
	307 -- 308	[pos="1228.1,990.03 1196.7,1041 1102.5,1193.7 1071,1244.7"];
	311 -- 312	[pos="1484.9,887.13 1470.4,896.6 1450.5,909.48 1436,918.94"];
	314 -- 315	[pos="995.81,1102.3 945.54,1053.5 787.86,900.57 737.47,851.7"];
	318	[height=0.5,
		pos="616.97,1194.8",
		width=0.75];
	317 -- 318	[pos="1005.8,1215.9 930.71,1211.8 719.54,1200.4 644.15,1196.3"];
	321	[height=0.5,
		pos="1664.6,909.49",
		width=0.75];
	320 -- 321	[pos="1351.2,1063.7 1411.7,1033.9 1581.6,950.36 1642.5,920.37"];
	323 -- 324	[pos="1202.2,1092.7 1189.4,1018.9 1141.2,740.8 1128.4,667.19"];
	327	[height=0.5,
		pos="1753.4,507.81",
		width=0.75];
	326 -- 327	[pos="1549.4,904.76 1584.1,837.39 1709.8,592.65 1744.5,525.16"];
	330	[height=0.5,
		pos="1601.4,1063.4",
		width=0.75];
	329 -- 330	[pos="1366.6,1113 1416.6,1102.5 1525.7,1079.4 1575.6,1068.9"];
	333 -- 334	[pos="1034.2,736.73 941.34,734.89 638.12,728.88 545.63,727.05"];
	336	[height=0.5,
		pos="1749.3,640.05",
		width=0.75];
	335 -- 336	[pos="1617.5,762.72 1645.8,736.42 1704.7,681.59 1733.2,655.06"];
	341	[height=0.5,
		pos="1408.6,166.97",
		width=0.75];
	340 -- 341	[pos="1583.2,486.41 1551.7,428.67 1449.5,241.78 1418,184.09"];
	345	[height=0.5,
		pos="251.38,400.83",
		width=0.75];
	344 -- 345	[pos="413.23,545.15 379.26,514.86 301.73,445.73 267.8,415.47"];
	350	[height=0.5,
		pos="907.42,147.65",
		width=0.75];
	349 -- 350	[pos="555.07,498.03 614.87,438.56 832.1,222.54 892.02,162.96"];
	353	[height=0.5,
		pos="658.58,231.42",
		width=0.75];
	352 -- 353	[pos="909.11,369.21 858.6,341.42 730.08,270.74 679.5,242.92"];
	357	[height=0.5,
		pos="619.74,300.21",
		width=0.75];
	356 -- 357	[pos="902.59,417.81 845.91,394.24 699.95,333.56 642.99,309.87"];
	360	[height=0.5,
		pos="259.17,919.57",
		width=0.75];
	359 -- 360	[pos="770.26,567.07 687.93,623.85 360.5,849.67 278.08,906.52"];
	363 -- 364	[pos="1213.4,451.67 1250.5,505.01 1367.1,672.29 1404.4,725.75"];
	365 -- 366	[pos="401.51,604.51 476.86,606.36 687.38,611.55 762.52,613.41"];
	368	[height=0.5,
		pos="451.66,252.53",
		width=0.75];
	367 -- 368	[pos="320.34,467.15 346.62,424.21 415.33,311.91 441.41,269.28"];
	371	[height=0.5,
		pos="74.902,797.16",
		width=0.75];
	370 -- 371	[pos="117.1,620.1 108.24,657.26 88.029,742.08 79.181,779.21"];
	375	[height=0.5,
		pos="253.91,340.5",
		width=0.75];
	374 -- 375	[pos="192.8,507.02 205.72,471.81 234.55,393.27 247.45,358.11"];
	378 -- 379	[pos="524.26,631.91 598.65,665.07 835.63,770.72 910.07,803.91"];
	380 -- 381	[pos="980.26,828.88 946.16,862.55 863.62,944.05 829.43,977.8"];
	382 -- 383	[pos="1324.4,371.47 1278.2,348.05 1170.2,293.33 1124,269.93"];
	386 -- 387	[pos="1157.7,401.19 1197.8,434.87 1297.4,518.56 1337.4,552.07"];
	390	[height=0.5,
		pos="1369.9,211.22",
		width=0.75];
	389 -- 390	[pos="1176.8,171.02 1219,179.79 1301.8,197.04 1343.9,205.82"];
	21 -- 22	[pos="161.21,907.24 234.3,852.06 506.94,646.25 580.12,591.01"];
	25	[height=0.5,
		pos="1366,1030.4",
		width=0.75];
	24 -- 25	[pos="1018.3,1319.4 1079.6,1268.5 1287.7,1095.5 1349,1044.6"];
	25 -- 26	[pos="1362.6,1012.2 1348.5,939.13 1296,666.44 1282,593.24"];
	28 -- 29	[pos="372.66,1066.9 353.98,1013.5 298.75,855.71 280.11,802.47"];
	34 -- 35	[pos="1349.6,1147.7 1409,1090 1621.4,883.82 1680.8,826.21"];
	49 -- 50	[pos="238.43,819.5 323.45,762.57 664.99,533.86 749.69,477.14"];
	58	[height=0.5,
		pos="1587.4,119.04",
		width=0.75];
	57 -- 58	[pos="1277.1,75.307 1339.8,84.156 1497.5,106.37 1560.6,115.27"];
	58 -- 59	[pos="1594.2,136.75 1614.6,189.66 1674.9,346.09 1695.3,398.88"];
	62	[height=0.5,
		pos="1657,291.75",
		width=0.75];
	61 -- 62	[pos="1359.4,156.54 1418.2,183.24 1575.8,254.84 1634.5,281.54"];
	62 -- 63	[pos="1645,307.98 1587.4,385.82 1340,720.46 1282.3,798.46"];
	69	[height=0.5,
		pos="1633.7,214.53",
		width=0.75];
	68 -- 69	[pos="1354.9,111.06 1411.5,132.05 1553.6,184.82 1610.1,205.76"];
	69 -- 70	[pos="1635.3,232.88 1640.1,285.56 1653.7,436.84 1658.4,489.51"];
	73	[height=0.5,
		pos="1153.5,37.747",
		width=0.75];
	72 -- 73	[pos="975.08,47.16 1014.5,45.078 1087.1,41.253 1126.4,39.177"];
	73 -- 74	[pos="1145.4,55.323 1124.5,100.41 1069.2,219.8 1048.4,264.71"];
	77 -- 78	[pos="1082.3,84.613 1125,109.71 1223.6,167.62 1266.4,192.77"];
	80 -- 81	[pos="252.33,584.53 302.4,641.93 475.23,840.08 525.44,897.64"];
	91	[height=0.5,
		pos="1843,557.28",
		width=0.75];
	90 -- 91	[pos="1735.9,309.19 1756.6,357.3 1814.6,491.61 1835.5,539.79"];
	91 -- 92	[pos="1829.5,573.03 1796.2,611.98 1710.3,712.42 1677.1,751.25"];
	95	[height=0.5,
		pos="1758.4,899.27",
		width=0.75];
	94 -- 95	[pos="1779.4,613.7 1775.4,667.71 1763.7,827.4 1759.7,881.28"];
	95 -- 96	[pos="1734.8,908.6 1695.2,924.29 1615.6,955.76 1576.2,971.38"];
	99	[height=0.5,
		pos="1840.6,489.16",
		width=0.75];
	98 -- 99	[pos="1705.9,264.67 1732.5,309 1803.8,427.89 1830.4,472.2"];
	99 -- 100	[pos="1824.7,503.8 1795.2,530.97 1732.4,588.91 1702.8,616.18"];
	102 -- 103	[pos="734.23,199.63 694.47,261.88 554.96,480.26 514.95,542.9"];
	108	[height=0.5,
		pos="1226.4,18",
		width=0.75];
	107 -- 108	[pos="1367.9,53.215 1336.4,45.389 1283.1,32.12 1251.7,24.297"];
	108 -- 109	[pos="1210.8,33.174 1195.5,48.1 1172.2,70.757 1156.9,85.65"];
	111 -- 112	[pos="1761.9,429.09 1724.6,496.09 1587.6,741.77 1550.4,808.61"];
	119	[height=0.5,
		pos="27,1009",
		width=0.75];
	118 -- 119	[pos="136.33,796.17 114.37,838.92 57.728,949.15 35.827,991.77"];
	119 -- 120	[pos="53.111,1003.7 93.367,995.6 170.14,980.16 210.4,972.06"];
	123	[height=0.5,
		pos="1691.3,860.08",
		width=0.75];
	122 -- 123	[pos="1138.3,1144 1228.9,1097.5 1579,917.75 1669.8,871.16"];
	123 -- 124	[pos="1700.6,843.15 1722.9,802.12 1779.7,697.72 1802.1,656.63"];
	127	[height=0.5,
		pos="1226.3,1283.1",
		width=0.75];
	126 -- 127	[pos="767.62,1221.1 852.51,1232.6 1114.9,1268 1199.6,1279.5"];
	127 -- 128	[pos="1233.6,1265.6 1256.1,1211.2 1324.5,1045.8 1347.1,991.22"];
	130 -- 131	[pos="860.1,1265.5 927.93,1244.1 1117.3,1184.2 1185.2,1162.8"];
	133 -- 134	[pos="1475.9,389.23 1490.8,442.6 1534.9,600.41 1549.7,653.65"];
	136 -- 137	[pos="742.15,281.92 798.8,295.89 934.37,329.29 990.96,343.23"];
	141 -- 142	[pos="665.4,1074.8 734.81,1038.9 952.49,926.13 1022,890.1"];
	147	[height=0.5,
		pos="843.49,87.546",
		width=0.75];
	146 -- 147	[pos="426.37,195.66 504.42,175.43 740.31,114.29 818.22,94.098"];
	147 -- 148	[pos="865.97,97.857 901.24,114.04 969.19,145.22 1004.4,161.37"];
	151	[height=0.5,
		pos="1226.7,1234.7",
		width=0.75];
	150 -- 151	[pos="779.01,1260 862.78,1255.3 1115.9,1241 1199.6,1236.2"];
	151 -- 152	[pos="1232.4,1216.9 1240.2,1192.9 1253.9,1150.3 1261.7,1126.3"];
	156	[height=0.5,
		pos="548.15,1225.5",
		width=0.75];
	155 -- 156	[pos="971.78,1269.2 891.66,1260.9 654.77,1236.5 574.84,1228.3"];
	156 -- 157	[pos="532.87,1210.5 490.68,1169.3 372.88,1054 330.62,1012.6"];
	160 -- 161	[pos="1495.8,1033.3 1410.7,1037.8 1149.5,1051.7 1064.6,1056.3"];
	164	[height=0.5,
		pos="1676.2,1052.7",
		width=0.75];
	163 -- 164	[pos="1776.7,816.64 1757,862.94 1703.4,988.7 1683.6,1035.1"];
	164 -- 165	[pos="1649.2,1055.7 1601.5,1061 1502.8,1072 1455.1,1077.3"];
	168	[height=0.5,
		pos="1824.6,683.72",
		width=0.75];
	167 -- 168	[pos="1817.2,716.89 1818.3,711.94 1819.5,706.58 1820.6,701.63"];
	168 -- 169	[pos="1805.9,696.92 1768.5,723.24 1685.2,781.98 1647.9,808.27"];
	174	[height=0.5,
		pos="1398.9,120.35",
		width=0.75];
	173 -- 174	[pos="1608.2,164.77 1562.8,155.14 1470,135.43 1424.8,125.83"];
	174 -- 175	[pos="1381.4,134.18 1338.2,168.28 1226.9,256.09 1183.4,290.36"];
	181	[height=0.5,
		pos="1328.6,47.275",
		width=0.75];
	180 -- 181	[pos="1512.4,158.93 1473.3,135.16 1387.9,83.295 1348.8,59.567"];
	181 -- 182	[pos="1305.2,56.799 1259.2,75.482 1157.7,116.73 1111.9,135.33"];
	190 -- 191	[pos="1253.5,128.86 1307,166.89 1460.7,276.12 1514.3,314.14"];
	195	[height=0.5,
		pos="1470.7,173.31",
		width=0.75];
	194 -- 195	[pos="1073.9,36.924 1148.1,62.443 1372.5,139.57 1446.6,165.04"];
	195 -- 196	[pos="1477,190.86 1499.8,254.28 1577.8,471.26 1600.8,535.09"];
	199	[height=0.5,
		pos="733.17,1354.5",
		width=0.75];
	198 -- 199	[pos="102.13,977.02 199.07,1035 615.76,1284.3 712.88,1342.4"];
	199 -- 200	[pos="758.5,1347.9 834.84,1328.2 1062.2,1269.3 1138.5,1249.6"];
	202 -- 203	[pos="576,669.13 697.86,684.02 1201.4,745.55 1323.5,760.47"];
	206	[height=0.5,
		pos="87.958,463.52",
		width=0.75];
	205 -- 206	[pos="175.29,353.27 156.16,377.42 120.09,422.96 100.84,447.27"];
	206 -- 207	[pos="108.24,475.43 166.48,509.61 333.73,607.78 391.95,641.95"];
	213 -- 214	[pos="777.4,140.88 805.2,156.37 854,183.57 881.78,199.06"];
	220 -- 221	[pos="1037.1,1158.7 1129.3,1111.3 1492.5,924.37 1585.3,876.62"];
	223 -- 224	[pos="546.87,1123.6 604.77,1106.2 748.41,1063.1 806.43,1045.7"];
	227	[height=0.5,
		pos="1156.9,1199",
		width=0.75];
	226 -- 227	[pos="637.31,1262.2 730.07,1251 1037.5,1213.6 1130.2,1202.3"];
	227 -- 228	[pos="1169.5,1182.9 1196.4,1148.5 1259.4,1068 1286.4,1033.6"];
	230 -- 231	[pos="825.38,1308.6 880.55,1288.6 1015.8,1239.7 1070.9,1219.7"];
	240	[height=0.5,
		pos="329.04,383.37",
		width=0.75];
	239 -- 240	[pos="101.37,632.74 144.09,585.95 272.19,445.64 314.96,398.79"];
	240 -- 241	[pos="355.69,386.42 423.2,394.16 600.45,414.47 668.39,422.26"];
	244	[height=0.5,
		pos="375.02,314.94",
		width=0.75];
	243 -- 244	[pos="139.99,539.33 185.02,496.34 314.33,372.89 359.34,329.9"];
	244 -- 245	[pos="402.21,315.12 489.17,315.7 759.91,317.5 846.9,318.08"];
	251 -- 252	[pos="1731.6,865.62 1678.7,890.41 1545.5,952.73 1492.7,977.47"];
	255	[height=0.5,
		pos="841.49,143.93",
		width=0.75];
	254 -- 255	[pos="1434,102.66 1332,109.76 970.89,134.91 868.65,142.03"];
	255 -- 256	[pos="826.52,159.18 772.93,213.82 590.87,399.41 537.32,454"];
	258 -- 259	[pos="1497.9,236.17 1454.4,267.11 1346.4,343.87 1302.7,374.88"];
	261 -- 262	[pos="994.13,128.14 904.35,176.97 553.7,367.66 464.13,416.37"];
	271	[height=0.5,
		pos="1681.2,957.33",
		width=0.75];
	270 -- 271	[pos="1400.8,1192.7 1453,1148.9 1611.8,1015.6 1664.2,971.61"];
	271 -- 272	[pos="1654.3,955.45 1615.5,952.73 1544.4,947.76 1505.6,945.05"];
	275	[height=0.5,
		pos="1282.9,1327.2",
		width=0.75];
	274 -- 275	[pos="1103.5,1308.5 1143,1312.6 1216.4,1320.2 1255.9,1324.4"];
	275 -- 276	[pos="1281.8,1309.1 1279.7,1275.7 1275.2,1204.4 1273.1,1170.8"];
	280 -- 281	[pos="1589.4,895.42 1536.7,832.41 1342.1,599.6 1289.1,536.24"];
	285 -- 286	[pos="1404.1,251.65 1346.8,243.82 1212.5,225.44 1155,217.58"];
	289	[height=0.5,
		pos="124.3,507.62",
		width=0.75];
	288 -- 289	[pos="537.33,353.18 461.13,381.67 223.7,470.45 147.85,498.82"];
	289 -- 290	[pos="140.04,522.47 196.41,575.68 387.9,756.38 444.22,809.53"];
	300	[height=0.5,
		pos="300.19,1057.3",
		width=0.75];
	299 -- 300	[pos="934.27,1221.4 829.28,1194.2 430.41,1091 325.57,1063.9"];
	300 -- 301	[pos="292.7,1040 266.45,979.07 178.81,775.81 152.4,714.54"];
	305 -- 306	[pos="1570.8,311.15 1502,288.18 1306.1,222.72 1237.2,199.7"];
	309	[height=0.5,
		pos="673.21,1290.9",
		width=0.75];
	308 -- 309	[pos="1033.7,1263.6 962.76,1268.9 771.27,1283.4 700.22,1288.8"];
	309 -- 310	[pos="674.04,1272.6 676.31,1222.9 682.55,1086.2 684.81,1036.6"];
	318 -- 319	[pos="601.59,1179.4 537.27,1114.7 290.33,866.65 226.8,802.82"];
	321 -- 322	[pos="1646.5,895.63 1596.4,857.28 1456.1,750.05 1406.3,711.97"];
	327 -- 328	[pos="1730,498.82 1653.5,469.51 1411.8,376.88 1335,347.45"];
	330 -- 331	[pos="1575,1058.9 1543.6,1053.6 1491.9,1044.8 1460.6,1039.5"];
	336 -- 337	[pos="1731.8,626.23 1690.1,593.31 1585.3,510.55 1543.7,477.69"];
	341 -- 342	[pos="1381.6,165.49 1358.4,164.22 1325.1,162.4 1301.9,161.13"];
	346	[height=0.5,
		pos="558.04,227.1",
		width=0.75];
	345 -- 346	[pos="271.98,389.16 327.71,357.59 481.04,270.72 537.13,238.94"];
	346 -- 347	[pos="585.14,228.42 639.16,231.07 759.68,236.97 813.63,239.61"];
	350 -- 351	[pos="925.36,161.43 995.35,215.17 1249.6,410.39 1319.8,464.23"];
	354	[height=0.5,
		pos="184.72,382.66",
		width=0.75];
	353 -- 354	[pos="634.1,239.23 552.61,265.24 291.03,348.73 209.33,374.8"];
	354 -- 355	[pos="190.86,400.63 196.9,418.31 206.07,445.14 212.1,462.78"];
	357 -- 358	[pos="643.99,308.33 691.43,324.23 796.03,359.28 843.55,375.2"];
	361	[height=0.5,
		pos="458.82,1124.2",
		width=0.75];
	360 -- 361	[pos="274.17,934.94 311.26,972.95 406.92,1071 443.91,1108.9"];
	361 -- 362	[pos="484.23,1117.7 539.09,1103.8 668.07,1071.2 722.79,1057.3"];
	368 -- 369	[pos="476.85,259.06 541.96,275.92 715.32,320.82 780.55,337.72"];
	372	[height=0.5,
		pos="173.6,1025.6",
		width=0.75];
	371 -- 372	[pos="82.482,814.71 100.85,857.23 147.59,965.4 165.99,1008"];
	372 -- 373	[pos="200.41,1022.4 277.38,1013.2 498.43,986.76 575.39,977.57"];
	376	[height=0.5,
		pos="666.75,166.56",
		width=0.75];
	375 -- 376	[pos="276.99,330.78 349.42,300.27 571.64,206.64 643.84,176.22"];
	376 -- 377	[pos="693.72,168.84 750.31,173.61 880.89,184.62 937.62,189.41"];
	390 -- 391	[pos="1377.9,228.92 1406.6,292.31 1503.9,507.62 1532.6,570.95"];
}
