graph {
	graph [bb="0,0,1029.4,1022.6",
		outputorder=edgesfirst,
		overlap=prism,
		size="50,50!",
		start=3485
	];
	node [label="\N"];
	0	[height=0.5,
		pos="954.69,282.62",
		width=0.75];
	1	[height=0.5,
		pos="865.38,193.55",
		width=0.75];
	0 -- 1	[pos="939.54,267.51 923.12,251.13 897.06,225.14 880.61,208.73"];
	20	[height=0.5,
		pos="1002.4,413.91",
		width=0.75];
	0 -- 20	[pos="961.13,300.32 970.24,325.38 986.8,370.93 995.94,396.06"];
	2	[height=0.5,
		pos="770.8,154.2",
		width=0.75];
	1 -- 2	[pos="842,183.82 827.34,177.72 808.52,169.89 793.91,163.82"];
	59	[height=0.5,
		pos="785.63,198.25",
		width=0.75];
	1 -- 59	[pos="838.38,195.14 830.07,195.63 820.92,196.17 812.6,196.66"];
	26	[height=0.5,
		pos="929.55,507.83",
		width=0.75];
	20 -- 26	[pos="989.74,430.27 976.36,447.51 955.42,474.49 942.1,491.65"];
	21	[height=0.5,
		pos="867.52,515.12",
		width=0.75];
	20 -- 21	[pos="984.24,427.56 958.49,446.88 911.68,481.99 885.86,501.36"];
	3	[height=0.5,
		pos="708.4,156.03",
		width=0.75];
	2 -- 3	[pos="743.61,155 740.99,155.08 738.32,155.16 735.69,155.23"];
	42	[height=0.5,
		pos="805.38,242.43",
		width=0.75];
	2 -- 42	[pos="777.63,171.64 783.66,187 792.39,209.29 798.44,224.74"];
	34	[height=0.5,
		pos="939.83,440.57",
		width=0.75];
	26 -- 34	[pos="932.3,489.8 933.78,480.15 935.59,468.3 937.06,458.64"];
	27	[height=0.5,
		pos="804.98,514.54",
		width=0.75];
	26 -- 27	[pos="902.52,509.28 881.62,510.41 852.84,511.96 831.96,513.09"];
	4	[height=0.5,
		pos="867.4,248.87",
		width=0.75];
	3 -- 4	[pos="728.86,167.98 759.39,185.81 816.53,219.17 847.01,236.97"];
	93	[height=0.5,
		pos="580.68,154.56",
		width=0.75];
	3 -- 93	[pos="681.31,155.72 659.64,155.47 629.39,155.12 607.73,154.87"];
	41	[height=0.5,
		pos="875.01,347.17",
		width=0.75];
	34 -- 41	[pos="928.24,423.87 916.44,406.87 898.26,380.67 886.5,363.72"];
	35	[height=0.5,
		pos="895.44,559.19",
		width=0.75];
	34 -- 35	[pos="933.28,458.07 924.89,480.5 910.42,519.15 902.02,541.61"];
	5	[height=0.5,
		pos="868.59,403.4",
		width=0.75];
	4 -- 5	[pos="867.54,266.9 867.76,296.52 868.21,355.16 868.44,385.01"];
	60	[height=0.5,
		pos="730.79,302.77",
		width=0.75];
	4 -- 60	[pos="843.91,258.14 818.89,268.01 779.51,283.55 754.43,293.45"];
	49	[height=0.5,
		pos="826.37,453.29",
		width=0.75];
	41 -- 49	[pos="866.98,364.69 857.97,384.35 843.43,416.07 834.41,435.74"];
	41 -- 42	[pos="863.83,330.34 850.83,310.79 829.52,278.74 816.54,259.22"];
	6	[height=0.5,
		pos="991.62,499.06",
		width=0.75];
	5 -- 6	[pos="886.21,417.11 909.6,435.29 950.65,467.21 974.02,485.38"];
	5 -- 27	[pos="858.93,420.28 846.97,441.17 826.73,476.54 814.73,497.5"];
	53	[height=0.5,
		pos="781.12,386.1",
		width=0.75];
	49 -- 53	[pos="815.18,436.68 808.28,426.42 799.43,413.3 792.49,402.99"];
	50	[height=0.5,
		pos="742.17,519.31",
		width=0.75];
	49 -- 50	[pos="808.51,467.29 794.13,478.57 774.01,494.34 759.71,505.56"];
	7	[height=0.5,
		pos="922.09,603.37",
		width=0.75];
	6 -- 7	[pos="980.44,515.82 967.47,535.28 946.19,567.2 933.23,586.65"];
	6 -- 21	[pos="964.99,502.5 944.06,505.21 915.02,508.97 894.1,511.68"];
	58	[height=0.5,
		pos="846.09,294.44",
		width=0.75];
	53 -- 58	[pos="792.74,369.71 804.49,353.13 822.56,327.64 834.36,311"];
	54	[height=0.5,
		pos="602.06,429.66",
		width=0.75];
	53 -- 54	[pos="755.47,392.34 721.43,400.62 661.68,415.15 627.67,423.43"];
	8	[height=0.5,
		pos="985.63,604.9",
		width=0.75];
	7 -- 8	[pos="949.4,604.03 952.37,604.1 955.38,604.17 958.34,604.24"];
	22	[height=0.5,
		pos="816.5,559.22",
		width=0.75];
	7 -- 22	[pos="899.18,593.79 881.59,586.44 857.4,576.32 839.73,568.93"];
	67	[height=0.5,
		pos="743.36,257.41",
		width=0.75];
	58 -- 67	[pos="822.26,285.85 805.79,279.92 783.94,272.04 767.41,266.08"];
	58 -- 59	[pos="835.56,277.69 824.53,260.14 807.3,232.74 796.24,215.14"];
	9	[height=0.5,
		pos="920.55,671.24",
		width=0.75];
	8 -- 9	[pos="970.54,620.29 960.03,631 946.06,645.24 935.57,655.93"];
	8 -- 35	[pos="963.8,593.83 949.62,586.65 931.21,577.32 917.07,570.15"];
	75	[height=0.5,
		pos="598.64,385.45",
		width=0.75];
	67 -- 75	[pos="727.04,271.85 699.24,296.44 643.02,346.18 615.12,370.87"];
	68	[height=0.5,
		pos="681.33,256.31",
		width=0.75];
	67 -- 68	[pos="716.33,256.93 713.72,256.89 711.07,256.84 708.46,256.79"];
	10	[height=0.5,
		pos="861.29,715.37",
		width=0.75];
	9 -- 10	[pos="902.45,684.72 895.23,690.09 886.94,696.27 879.69,701.67"];
	36	[height=0.5,
		pos="832.76,603.26",
		width=0.75];
	9 -- 36	[pos="902.79,657.48 887.56,645.69 865.73,628.78 850.5,616.99"];
	81	[height=0.5,
		pos="557.26,264.14",
		width=0.75];
	75 -- 81	[pos="592.62,367.81 584.77,344.81 571.13,304.81 563.28,281.8"];
	76	[height=0.5,
		pos="470.24,543.68",
		width=0.75];
	75 -- 76	[pos="585.62,401.49 561.01,431.82 507.93,497.24 483.3,527.6"];
	11	[height=0.5,
		pos="802.98,760.9",
		width=0.75];
	10 -- 11	[pos="843.48,729.28 836.24,734.93 827.9,741.44 820.68,747.08"];
	37	[height=0.5,
		pos="770.22,608.78",
		width=0.75];
	10 -- 37	[pos="847.85,699.64 830.64,679.49 800.96,644.75 783.72,624.57"];
	86	[height=0.5,
		pos="632.42,110.42",
		width=0.75];
	81 -- 86	[pos="565.73,246.81 580.17,217.28 609.37,157.57 623.86,127.93"];
	82	[height=0.5,
		pos="460.73,339.44",
		width=0.75];
	81 -- 82	[pos="539.55,277.95 522.14,291.54 495.7,312.16 478.32,325.71"];
	12	[height=0.5,
		pos="797.9,715.26",
		width=0.75];
	11 -- 12	[pos="800.97,742.86 800.63,739.77 800.27,736.56 799.93,733.47"];
	38	[height=0.5,
		pos="650.69,708.8",
		width=0.75];
	11 -- 38	[pos="778.85,752.64 750.42,742.92 703.45,726.85 674.96,717.1"];
	91	[height=0.5,
		pos="466.92,79.061",
		width=0.75];
	86 -- 91	[pos="606.2,105.45 575.21,99.581 523.96,89.869 493.02,84.007"];
	87	[height=0.5,
		pos="634.75,199.57",
		width=0.75];
	86 -- 87	[pos="632.89,128.46 633.29,143.93 633.87,166.1 634.28,181.56"];
	13	[height=0.5,
		pos="732.8,696.91",
		width=0.75];
	12 -- 13	[pos="772.92,708.22 768.04,706.85 762.93,705.4 758.04,704.03"];
	23	[height=0.5,
		pos="718.26,652.8",
		width=0.75];
	12 -- 23	[pos="780.23,701.4 767.03,691.05 749.07,676.97 735.88,666.63"];
	97	[height=0.5,
		pos="399.25,86.029",
		width=0.75];
	91 -- 97	[pos="440.18,81.815 435.59,82.286 430.83,82.777 426.24,83.249"];
	92	[height=0.5,
		pos="486.57,174.93",
		width=0.75];
	91 -- 92	[pos="470.62,97.093 474.13,114.23 479.39,139.87 482.89,156.98"];
	14	[height=0.5,
		pos="594.09,801.86",
		width=0.75];
	13 -- 14	[pos="714.95,710.41 688.46,730.46 639.01,767.87 612.31,788.07"];
	28	[height=0.5,
		pos="738.97,563.33",
		width=0.75];
	13 -- 28	[pos="733.63,678.89 734.81,653.4 736.95,607.06 738.13,581.48"];
	100	[height=0.5,
		pos="281.82,211.09",
		width=0.75];
	97 -- 100	[pos="384.85,101.36 362.31,125.37 318.95,171.55 296.34,195.63"];
	98	[height=0.5,
		pos="392.33,198.68",
		width=0.75];
	97 -- 98	[pos="398.13,104.13 396.84,125.15 394.73,159.62 393.44,180.63"];
	15	[height=0.5,
		pos="650.82,867.01",
		width=0.75];
	14 -- 15	[pos="607.82,817.63 616.74,827.87 628.32,841.17 637.21,851.38"];
	73	[height=0.5,
		pos="456.65,741.32",
		width=0.75];
	14 -- 73	[pos="571.39,791.86 545.93,780.65 504.86,762.56 479.38,751.34"];
	109	[height=0.5,
		pos="147.86,267.53",
		width=0.75];
	100 -- 109	[pos="258.79,220.79 234.26,231.13 195.63,247.4 171.04,257.76"];
	101	[height=0.5,
		pos="390.87,280.65",
		width=0.75];
	100 -- 101	[pos="301.57,223.69 321.33,236.29 351.56,255.57 371.27,268.14"];
	16	[height=0.5,
		pos="504.06,917.38",
		width=0.75];
	15 -- 16	[pos="626.58,875.33 599.39,884.66 555.53,899.71 528.33,909.05"];
	29	[height=0.5,
		pos="579.82,704.12",
		width=0.75];
	15 -- 29	[pos="643.22,849.58 629.56,818.22 600.99,752.69 587.37,721.42"];
	114	[height=0.5,
		pos="170.9,204.97",
		width=0.75];
	109 -- 114	[pos="154.4,249.77 157.54,241.25 161.29,231.06 164.42,222.56"];
	110	[height=0.5,
		pos="273.53,407.3",
		width=0.75];
	109 -- 110	[pos="161.79,283.02 185.95,309.89 235.34,364.82 259.54,391.73"];
	17	[height=0.5,
		pos="560.2,961.39",
		width=0.75];
	16 -- 17	[pos="521.82,931.31 528.37,936.44 535.8,942.26 542.36,947.4"];
	30	[height=0.5,
		pos="528.77,829.35",
		width=0.75];
	16 -- 30	[pos="509.06,899.57 513.34,884.3 519.49,862.41 523.77,847.14"];
	118	[height=0.5,
		pos="263.45,127.26",
		width=0.75];
	114 -- 118	[pos="187.87,190.72 204.57,176.7 229.92,155.41 246.58,141.42"];
	115	[height=0.5,
		pos="272.46,257.2",
		width=0.75];
	114 -- 115	[pos="192.44,216.05 209.67,224.91 233.72,237.28 250.95,246.14"];
	18	[height=0.5,
		pos="708.23,950.99",
		width=0.75];
	17 -- 18	[pos="587.35,959.48 614.06,957.61 654.6,954.76 681.25,952.89"];
	31	[height=0.5,
		pos="441.75,873.44",
		width=0.75];
	17 -- 31	[pos="541.95,947.84 519.63,931.27 482.07,903.38 459.83,886.86"];
	124	[height=0.5,
		pos="396.71,130.11",
		width=0.75];
	118 -- 124	[pos="290.74,127.84 313.74,128.33 346.47,129.04 369.46,129.53"];
	119	[height=0.5,
		pos="329.68,163.44",
		width=0.75];
	118 -- 119	[pos="284.41,138.71 292.14,142.93 300.9,147.72 308.64,151.94"];
	19	[height=0.5,
		pos="765.67,1004.6",
		width=0.75];
	18 -- 19	[pos="724.23,965.92 732.2,973.35 741.8,982.3 749.76,989.72"];
	24	[height=0.5,
		pos="746.81,809.55",
		width=0.75];
	18 -- 24	[pos="713.11,933.08 720.54,905.87 734.57,854.44 741.96,827.32"];
	129	[height=0.5,
		pos="391.36,41.566",
		width=0.75];
	124 -- 129	[pos="395.6,111.76 394.68,96.467 393.37,74.792 392.45,59.586"];
	125	[height=0.5,
		pos="495.17,262.97",
		width=0.75];
	124 -- 125	[pos="408.78,146.4 427.68,171.9 464.04,220.97 482.99,246.55"];
	25	[height=0.5,
		pos="770.98,923.09",
		width=0.75];
	19 -- 25	[pos="766.85,986.48 767.73,972.98 768.93,954.61 769.81,941.12"];
	130	[height=0.5,
		pos="331.72,119.34",
		width=0.75];
	129 -- 130	[pos="379.01,57.68 368.77,71.028 354.3,89.902 344.07,103.24"];
	21 -- 22	[pos="850.81,529.56 845.12,534.48 838.75,539.98 833.07,544.9"];
	44	[height=0.5,
		pos="764.35,431.11",
		width=0.75];
	21 -- 44	[pos="850.02,500.87 830.93,485.33 800.58,460.61 781.6,445.15"];
	22 -- 23	[pos="800.72,574.26 782.38,591.72 752.32,620.36 734,637.8"];
	22 -- 50	[pos="795.4,547.89 785.36,542.5 773.38,536.07 763.33,530.67"];
	59 -- 68	[pos="764.77,209.86 746.58,219.99 720.33,234.6 702.15,244.72"];
	59 -- 60	[pos="776.58,215.51 766.42,234.88 750.03,266.11 739.86,285.49"];
	68 -- 82	[pos="657.72,265.21 615.37,281.16 526.96,314.48 484.5,330.48"];
	69	[height=0.5,
		pos="668.74,301.73",
		width=0.75];
	68 -- 69	[pos="676.35,274.26 675.47,277.44 674.56,280.74 673.68,283.91"];
	82 -- 92	[pos="463.54,321.52 468.5,289.96 478.74,224.8 483.72,193.08"];
	83	[height=0.5,
		pos="363.08,528.09",
		width=0.75];
	82 -- 83	[pos="451.89,356.51 433.34,392.34 390.56,475 371.97,510.91"];
	23 -- 24	[pos="721.53,670.78 727.01,700.86 737.97,761.04 743.49,791.3"];
	104	[height=0.5,
		pos="536.14,639.41",
		width=0.75];
	23 -- 104	[pos="691.38,650.83 656.95,648.3 597.61,643.93 563.12,641.4"];
	92 -- 101	[pos="472.45,190.53 454.36,210.52 423.17,244.97 405.05,264.98"];
	92 -- 93	[pos="512.29,169.37 525.57,166.49 541.72,162.99 555,160.12"];
	101 -- 115	[pos="364.88,275.5 345.14,271.59 318.11,266.24 298.38,262.33"];
	102	[height=0.5,
		pos="534.16,423.53",
		width=0.75];
	101 -- 102	[pos="405.93,295.67 433.38,323.04 491.25,380.74 518.87,408.28"];
	115 -- 130	[pos="279.96,239.74 291.36,213.22 312.92,163.09 324.28,136.66"];
	116	[height=0.5,
		pos="124.19,352.84",
		width=0.75];
	115 -- 116	[pos="252.77,269.9 224.41,288.19 172.36,321.77 143.96,340.09"];
	24 -- 25	[pos="750.64,827.54 755.17,848.8 762.65,883.96 767.17,905.18"];
	32	[height=0.5,
		pos="667.01,822.87",
		width=0.75];
	24 -- 32	[pos="720.24,813.99 711.63,815.42 702.07,817.02 693.47,818.45"];
	33	[height=0.5,
		pos="645.51,911.43",
		width=0.75];
	25 -- 33	[pos="744.07,920.59 722.9,918.62 693.54,915.9 672.38,913.93"];
	131	[height=0.5,
		pos="536.54,52.963",
		width=0.75];
	130 -- 131	[pos="356.02,111.46 395.34,98.723 472.46,73.73 511.95,60.931"];
	42 -- 87	[pos="779.83,236.02 747.57,227.91 692.4,214.06 660.19,205.96"];
	43	[height=0.5,
		pos="792.83,341.29",
		width=0.75];
	42 -- 43	[pos="803.08,260.57 800.81,278.4 797.37,305.48 795.11,323.28"];
	27 -- 28	[pos="786.6,528.13 777.44,534.9 766.4,543.05 757.26,549.81"];
	27 -- 43	[pos="803.71,496.33 801.37,463.06 796.44,392.81 794.11,359.52"];
	87 -- 131	[pos="623.67,183.04 604.81,154.88 566.66,97.93 547.72,69.661"];
	88	[height=0.5,
		pos="523.82,352.19",
		width=0.75];
	87 -- 88	[pos="622.88,215.91 601.53,245.28 556.89,306.69 535.6,335.98"];
	28 -- 29	[pos="722.54,577.86 692.04,604.84 627.01,662.37 596.4,689.45"];
	55	[height=0.5,
		pos="615.03,542.1",
		width=0.75];
	28 -- 55	[pos="712.69,558.83 691.65,555.22 662.3,550.2 641.27,546.6"];
	29 -- 30	[pos="572.72,721.53 563.02,745.32 545.72,787.76 535.97,811.68"];
	63	[height=0.5,
		pos="469.29,643.12",
		width=0.75];
	29 -- 63	[pos="558.77,692.5 539.11,681.65 509.91,665.53 490.26,654.69"];
	30 -- 31	[pos="507.26,840.25 493.87,847.03 476.71,855.73 463.31,862.52"];
	39	[height=0.5,
		pos="491.16,785.33",
		width=0.75];
	30 -- 39	[pos="515.19,813.46 511.74,809.42 508.03,805.08 504.59,801.05"];
	31 -- 32	[pos="467.59,867.64 510.93,857.91 597.76,838.42 641.13,828.68"];
	65	[height=0.5,
		pos="354.23,786.3",
		width=0.75];
	31 -- 65	[pos="426.51,858.26 410.44,842.27 385.3,817.23 369.3,801.3"];
	32 -- 33	[pos="662.66,840.79 658.93,856.16 653.58,878.18 649.86,893.54"];
	51	[height=0.5,
		pos="641.87,664.68",
		width=0.75];
	32 -- 51	[pos="664.13,804.72 659.28,774.21 649.55,712.98 644.72,682.61"];
	40	[height=0.5,
		pos="506.63,873.36",
		width=0.75];
	33 -- 40	[pos="620.36,904.54 595.35,897.68 557.17,887.22 532.06,880.33"];
	132	[height=0.5,
		pos="465.28,18",
		width=0.75];
	131 -- 132	[pos="514.77,42.283 506.09,38.026 496.11,33.131 487.4,28.856"];
	35 -- 36	[pos="876.64,572.41 868.7,577.99 859.49,584.47 851.56,590.04"];
	45	[height=0.5,
		pos="739.11,475.26",
		width=0.75];
	35 -- 45	[pos="874.36,547.87 844.52,531.85 790.29,502.73 760.36,486.67"];
	36 -- 37	[pos="805.88,605.63 802.97,605.89 800,606.15 797.09,606.41"];
	46	[height=0.5,
		pos="677.08,513.63",
		width=0.75];
	36 -- 46	[pos="812.09,591.36 782.31,574.21 727.66,542.75 697.84,525.58"];
	37 -- 38	[pos="753.35,622.89 730.7,641.85 690.67,675.34 667.86,694.43"];
	72	[height=0.5,
		pos="591.23,586.23",
		width=0.75];
	37 -- 72	[pos="743.43,605.4 709.59,601.14 651.71,593.84 617.92,589.59"];
	38 -- 39	[pos="628.51,719.44 598.03,734.06 543.53,760.2 513.15,774.78"];
	47	[height=0.5,
		pos="656.24,620.62",
		width=0.75];
	38 -- 47	[pos="651.84,690.53 652.79,675.39 654.14,654 655.09,638.87"];
	93 -- 98	[pos="554.89,160.6 518.82,169.05 453.71,184.3 417.81,192.71"];
	94	[height=0.5,
		pos="619.29,243.76",
		width=0.75];
	93 -- 94	[pos="588.31,172.18 595.08,187.82 604.91,210.55 611.68,226.18"];
	98 -- 119	[pos="371.47,186.95 364.78,183.18 357.37,179.01 350.67,175.25"];
	99	[height=0.5,
		pos="210.36,299.6",
		width=0.75];
	98 -- 99	[pos="371.45,210.26 336.45,229.67 266.3,268.57 231.27,288"];
	39 -- 40	[pos="494.36,803.57 497.03,818.78 500.82,840.32 503.48,855.44"];
	64	[height=0.5,
		pos="423.87,697.28",
		width=0.75];
	39 -- 64	[pos="478.82,769.18 466.68,753.29 448.25,729.18 436.13,713.33"];
	119 -- 132	[pos="343.94,148.15 369.91,120.29 424.67,61.555 450.8,33.523"];
	120	[height=0.5,
		pos="328.81,301.21",
		width=0.75];
	119 -- 120	[pos="329.57,181.45 329.4,207.86 329.09,256.79 328.92,283.2"];
	48	[height=0.5,
		pos="553.98,757.68",
		width=0.75];
	40 -- 48	[pos="513.82,855.79 522.72,834.05 537.79,797.23 546.72,775.41"];
	133	[height=0.5,
		pos="614.66,66.37",
		width=0.75];
	132 -- 133	[pos="489.61,25.879 517.39,34.874 562.56,49.501 590.33,58.494"];
	43 -- 44	[pos="787.2,359.04 782.21,374.79 774.96,397.67 769.97,413.4"];
	43 -- 69	[pos="768.31,333.48 746.56,326.54 714.94,316.46 693.21,309.53"];
	44 -- 45	[pos="754.67,448.05 752.72,451.46 750.68,455.03 748.73,458.43"];
	44 -- 54	[pos="737.19,430.87 707.23,430.6 659.31,430.17 629.31,429.9"];
	60 -- 94	[pos="709.56,291.53 689.72,281.03 660.26,265.45 640.44,254.96"];
	61	[height=0.5,
		pos="664.11,463.76",
		width=0.75];
	60 -- 61	[pos="723.53,320.31 710.7,351.27 684.18,415.29 671.36,446.24"];
	45 -- 46	[pos="719.14,487.61 712.06,491.99 704.09,496.92 697.01,501.3"];
	70	[height=0.5,
		pos="661.68,373.73",
		width=0.75];
	45 -- 70	[pos="726.67,458.94 712.22,440 688.53,408.93 674.09,390"];
	46 -- 47	[pos="673.54,531.78 669.69,551.57 663.56,583.05 659.72,602.74"];
	71	[height=0.5,
		pos="568.26,473.79",
		width=0.75];
	46 -- 71	[pos="653.2,504.89 635.06,498.24 610.22,489.15 592.09,482.51"];
	47 -- 48	[pos="644.11,636.89 624.43,663.26 585.77,715.08 566.1,741.44"];
	103	[height=0.5,
		pos="505.59,498.16",
		width=0.75];
	47 -- 103	[pos="638.96,606.58 610.05,583.08 552.21,536.06 523.13,512.42"];
	94 -- 133	[pos="618.81,225.45 617.92,191.37 616.02,118.59 615.13,84.586"];
	95	[height=0.5,
		pos="470.23,396.2",
		width=0.75];
	94 -- 95	[pos="604.45,258.94 575.88,288.16 513.53,351.92 485,381.09"];
	52	[height=0.5,
		pos="616.46,755.92",
		width=0.75];
	48 -- 52	[pos="581.2,756.91 583.83,756.84 586.5,756.77 589.13,756.69"];
	134	[height=0.5,
		pos="518.65,130.92",
		width=0.75];
	133 -- 134	[pos="595.23,79.432 578.46,90.705 554.38,106.89 537.72,118.1"];
	50 -- 51	[pos="730.86,535.7 711.6,563.62 672.64,620.09 653.3,648.12"];
	50 -- 61	[pos="723.67,506.15 711.32,497.35 695.13,485.83 682.75,477.02"];
	69 -- 125	[pos="643.13,296.01 610.31,288.68 553.75,276.05 520.88,268.72"];
	69 -- 70	[pos="666.96,319.9 665.9,330.73 664.55,344.44 663.49,355.32"];
	51 -- 52	[pos="636.85,682.7 632.4,698.7 625.92,721.95 621.47,737.93"];
	56	[height=0.5,
		pos="486.03,694.19",
		width=0.75];
	51 -- 56	[pos="615.79,669.61 587.02,675.06 541,683.78 512.2,689.23"];
	125 -- 134	[pos="498.38,244.89 502.85,219.74 510.91,174.47 515.4,149.21"];
	126	[height=0.5,
		pos="414.19,440.21",
		width=0.75];
	125 -- 126	[pos="487.25,280.29 471.77,314.17 437.64,388.88 422.14,422.82"];
	57	[height=0.5,
		pos="416.62,789.8",
		width=0.75];
	52 -- 57	[pos="589.92,760.42 551.59,766.92 481.16,778.86 442.94,785.34"];
	135	[height=0.5,
		pos="455.1,218.95",
		width=0.75];
	134 -- 135	[pos="506.7,147.48 495.34,163.21 478.34,186.75 467,202.46"];
	54 -- 88	[pos="586.97,414.72 573.21,401.09 552.96,381.05 539.12,367.35"];
	54 -- 55	[pos="604.14,447.72 606.56,468.71 610.53,503.12 612.95,524.08"];
	88 -- 120	[pos="498.32,345.53 460.85,335.73 391.3,317.55 354,307.8"];
	89	[height=0.5,
		pos="341.42,467.03",
		width=0.75];
	88 -- 89	[pos="503.95,364.7 468.87,386.79 396.33,432.46 361.27,454.54"];
	55 -- 56	[pos="601.71,557.8 576.99,586.95 524.28,649.09 499.47,678.34"];
	62	[height=0.5,
		pos="551.8,542.19",
		width=0.75];
	55 -- 62	[pos="587.84,542.14 584.9,542.14 581.9,542.15 578.95,542.15"];
	120 -- 135	[pos="348.26,288.54 371.93,273.13 411.65,247.25 435.41,231.77"];
	121	[height=0.5,
		pos="193.26,344.44",
		width=0.75];
	120 -- 121	[pos="304.26,309.04 279.69,316.88 242.12,328.86 217.62,336.67"];
	56 -- 57	[pos="474.25,710.4 461.49,727.99 441.24,755.89 428.45,773.5"];
	107	[height=0.5,
		pos="242.57,617.14",
		width=0.75];
	56 -- 107	[pos="461.35,686.37 414.68,671.61 314.03,639.76 267.32,624.97"];
	66	[height=0.5,
		pos="323.74,892.86",
		width=0.75];
	57 -- 66	[pos="402.51,805.45 384.95,824.94 355.15,858 337.68,877.4"];
	136	[height=0.5,
		pos="605.64,328.88",
		width=0.75];
	135 -- 136	[pos="473.56,232.43 502.45,253.52 558.04,294.12 587.03,315.29"];
	61 -- 62	[pos="645.31,476.88 624.58,491.36 591.41,514.52 570.66,529.02"];
	61 -- 136	[pos="656.58,446.4 645.42,420.64 624.58,372.56 613.32,346.6"];
	62 -- 63	[pos="538.54,558.41 523.05,577.35 497.6,608.49 482.24,627.28"];
	105	[height=0.5,
		pos="408.75,599.08",
		width=0.75];
	62 -- 105	[pos="528.49,551.46 501.9,562.04 458.64,579.24 432.04,589.82"];
	63 -- 64	[pos="455.91,659.08 450.05,666.07 443.18,674.25 437.31,681.25"];
	78	[height=0.5,
		pos="298.94,672.76",
		width=0.75];
	63 -- 78	[pos="443.05,647.69 411.03,653.26 357.24,662.62 325.21,668.19"];
	64 -- 65	[pos="411.1,713.61 398.53,729.67 379.46,754.05 366.92,770.07"];
	64 -- 83	[pos="417.48,679.49 405.77,646.91 381.03,578.04 369.39,545.63"];
	65 -- 66	[pos="349.06,804.37 343.42,824.09 334.45,855.44 328.84,875.05"];
	79	[height=0.5,
		pos="287.27,760.81",
		width=0.75];
	65 -- 79	[pos="330.43,777.24 324.12,774.84 317.3,772.24 310.99,769.84"];
	74	[height=0.5,
		pos="293.04,848.82",
		width=0.75];
	66 -- 74	[pos="312.31,876.46 309.79,872.84 307.11,869.01 304.59,865.38"];
	137	[height=0.5,
		pos="526.93,308.17",
		width=0.75];
	136 -- 137	[pos="580.3,322.21 571.32,319.84 561.21,317.18 552.22,314.82"];
	70 -- 71	[pos="647.08,389.36 629.53,408.16 600.26,439.52 582.76,458.27"];
	70 -- 102	[pos="638.29,382.86 615.43,391.79 580.79,405.32 557.83,414.29"];
	71 -- 72	[pos="571.95,491.86 576.24,512.84 583.27,547.24 587.55,568.21"];
	71 -- 95	[pos="550.74,459.92 533,445.89 505.73,424.3 487.93,410.21"];
	72 -- 73	[pos="577.59,601.95 551.79,631.68 496.15,695.8 470.33,725.56"];
	72 -- 76	[pos="567.33,577.82 546.25,570.41 515.69,559.66 494.51,552.22"];
	73 -- 74	[pos="437.24,754.08 405.75,774.77 343.9,815.41 312.43,836.09"];
	77	[height=0.5,
		pos="360.96,660.14",
		width=0.75];
	73 -- 77	[pos="439.54,726.81 422.13,712.03 395.28,689.26 377.92,674.53"];
	102 -- 137	[pos="533.03,405.51 531.68,383.96 529.44,348.1 528.08,326.45"];
	102 -- 103	[pos="527.39,441.22 522.83,453.11 516.85,468.73 512.31,480.6"];
	80	[height=0.5,
		pos="233.51,804.82",
		width=0.75];
	74 -- 80	[pos="274.86,835.38 267.61,830.02 259.28,823.86 252,818.48"];
	138	[height=0.5,
		pos="367.93,396.07",
		width=0.75];
	137 -- 138	[pos="506.15,319.66 475.67,336.5 419.19,367.73 388.72,384.58"];
	76 -- 77	[pos="455.51,559.39 434.53,581.74 396.31,622.47 375.47,644.68"];
	139	[height=0.5,
		pos="425.11,484.24",
		width=0.75];
	76 -- 139	[pos="457.91,527.44 451.54,519.05 443.8,508.85 437.43,500.47"];
	95 -- 110	[pos="443.29,397.72 405.73,399.84 338.01,403.66 300.46,405.78"];
	96	[height=0.5,
		pos="311.01,351.97",
		width=0.75];
	95 -- 96	[pos="445,389.19 415.19,380.91 365.88,367.21 336.12,358.95"];
	77 -- 78	[pos="335.02,665.42 331.7,666.09 328.3,666.79 324.98,667.46"];
	106	[height=0.5,
		pos="312.72,616.13",
		width=0.75];
	77 -- 106	[pos="344.9,645.48 339.74,640.78 334.04,635.58 328.88,630.87"];
	78 -- 79	[pos="296.52,691.01 294.52,706.12 291.69,727.49 289.68,742.59"];
	112	[height=0.5,
		pos="189,532.47",
		width=0.75];
	78 -- 112	[pos="286.32,656.67 265.23,629.75 223.02,575.89 201.8,548.8"];
	110 -- 138	[pos="300.33,404.11 313.08,402.59 328.3,400.78 341.06,399.27"];
	111	[height=0.5,
		pos="257.95,526.83",
		width=0.75];
	110 -- 111	[pos="271.16,425.45 268.22,448.05 263.22,486.4 260.29,508.9"];
	79 -- 80	[pos="269.97,774.98 263.83,780 256.92,785.65 250.79,790.68"];
	84	[height=0.5,
		pos="251.02,571.06",
		width=0.75];
	79 -- 84	[pos="283.79,742.62 276.85,706.25 261.33,625.01 254.43,588.92"];
	85	[height=0.5,
		pos="180.48,657.65",
		width=0.75];
	80 -- 85	[pos="227.12,787.06 216.92,758.78 197.11,703.79 186.9,675.46"];
	138 -- 139	[pos="378.68,412.66 388.84,428.32 404,451.7 414.21,467.43"];
	83 -- 84	[pos="339.59,537.09 320.46,544.43 293.6,554.73 274.48,562.06"];
	122	[height=0.5,
		pos="211.41,432.89",
		width=0.75];
	83 -- 122	[pos="343.25,515.64 314.18,497.4 260.31,463.59 231.24,445.34"];
	84 -- 85	[pos="238.08,586.94 225.43,602.46 206.28,625.98 193.57,641.57"];
	84 -- 89	[pos="264.75,555.26 281.84,535.59 310.85,502.21 327.86,482.64"];
	90	[height=0.5,
		pos="256.05,481.53",
		width=0.75];
	85 -- 90	[pos="188,640.11 202.49,606.36 234.1,532.69 248.56,498.99"];
	140	[height=0.5,
		pos="313.08,572.09",
		width=0.75];
	139 -- 140	[pos="407.61,497.97 386.68,514.38 351.86,541.68 330.83,558.17"];
	103 -- 126	[pos="485.76,485.59 470.43,475.86 449.31,462.47 433.99,452.76"];
	103 -- 104	[pos="509.46,516.05 515.3,543.07 526.32,594.02 532.2,621.22"];
	89 -- 90	[pos="314.88,471.54 304.5,473.3 292.63,475.32 282.29,477.08"];
	146	[height=0.5,
		pos="126.99,559.42",
		width=0.75];
	89 -- 146	[pos="318.48,476.92 277.2,494.7 190.92,531.87 149.77,549.6"];
	126 -- 140	[pos="401.79,456.38 382.39,481.69 345.05,530.4 325.58,555.79"];
	127	[height=0.5,
		pos="186.41,388.82",
		width=0.75];
	126 -- 127	[pos="388.51,434.41 344.64,424.52 255.81,404.48 212.01,394.6"];
	90 -- 96	[pos="263.47,464.06 273.95,439.33 293.02,394.38 303.54,369.58"];
	141	[height=0.5,
		pos="349.31,717.5",
		width=0.75];
	140 -- 141	[pos="317.52,589.92 324.47,617.83 337.86,671.53 344.83,699.52"];
	104 -- 141	[pos="513.23,648.99 477.37,663.98 408.38,692.81 372.41,707.85"];
	104 -- 105	[pos="511.58,631.64 489.02,624.5 455.77,613.97 433.24,606.83"];
	96 -- 99	[pos="289.67,340.86 272.58,331.98 248.75,319.57 231.67,310.69"];
	142	[height=0.5,
		pos="239.01,716.8",
		width=0.75];
	141 -- 142	[pos="322.05,717.33 305.08,717.22 283.33,717.08 266.34,716.97"];
	105 -- 142	[pos="389.94,612.13 357.31,634.76 290.59,681.03 257.91,703.69"];
	105 -- 106	[pos="382.51,603.74 368.96,606.14 352.48,609.07 338.93,611.47"];
	108	[height=0.5,
		pos="193.81,477.14",
		width=0.75];
	99 -- 108	[pos="208.68,317.6 205.51,351.63 198.67,425.03 195.49,459.09"];
	143	[height=0.5,
		pos="103.89,604.01",
		width=0.75];
	142 -- 143	[pos="221.9,702.52 195.91,680.82 146.77,639.8 120.87,618.18"];
	106 -- 111	[pos="302.42,599.33 292.63,583.37 277.98,559.49 268.21,543.55"];
	106 -- 107	[pos="285.39,616.52 280.32,616.59 275.01,616.67 269.93,616.74"];
	111 -- 143	[pos="236.21,537.72 206.85,552.43 154.83,578.49 125.53,593.17"];
	111 -- 112	[pos="231.1,529.03 226.11,529.43 220.89,529.86 215.9,530.27"];
	107 -- 108	[pos="236.39,599.41 227.01,572.48 209.28,521.57 199.94,494.73"];
	147	[height=0.5,
		pos="118.1,677.19",
		width=0.75];
	107 -- 147	[pos="220.6,627.74 197.99,638.65 162.95,655.55 140.26,666.5"];
	113	[height=0.5,
		pos="94.379,496.56",
		width=0.75];
	108 -- 113	[pos="167.69,482.24 153.07,485.1 134.92,488.64 120.33,491.49"];
	144	[height=0.5,
		pos="64.937,540.76",
		width=0.75];
	143 -- 144	[pos="93.452,587.06 87.863,577.98 80.998,566.84 75.405,557.76"];
	112 -- 116	[pos="182.67,514.92 170.28,480.58 142.96,404.86 130.55,370.46"];
	112 -- 113	[pos="165.12,523.41 150.67,517.92 132.31,510.96 117.92,505.49"];
	116 -- 121	[pos="151.09,349.57 156.09,348.96 161.31,348.33 166.32,347.72"];
	117	[height=0.5,
		pos="62.022,360.9",
		width=0.75];
	116 -- 117	[pos="97.465,356.31 94.569,356.68 91.621,357.06 88.725,357.44"];
	121 -- 127	[pos="190.47,362.49 190.06,365.18 189.63,367.95 189.22,370.64"];
	121 -- 122	[pos="196.93,362.34 200.08,377.69 204.59,399.68 207.74,415.02"];
	127 -- 144	[pos="173.64,404.8 150.37,433.9 101.31,495.26 77.902,524.55"];
	128	[height=0.5,
		pos="31.091,488.84",
		width=0.75];
	127 -- 128	[pos="166.74,401.49 136.87,420.73 80.385,457.1 50.603,476.28"];
	113 -- 117	[pos="90.082,478.55 83.894,452.6 72.535,404.98 66.336,378.99"];
	145	[height=0.5,
		pos="112.7,451.49",
		width=0.75];
	144 -- 145	[pos="74.146,523.55 82.604,507.74 95.071,484.44 103.52,468.65"];
	122 -- 145	[pos="185.21,437.83 170.94,440.52 153.31,443.84 139.02,446.54"];
	123	[height=0.5,
		pos="69.673,405.13",
		width=0.75];
	122 -- 123	[pos="185.41,427.8 160,422.82 121.5,415.28 95.984,410.29"];
	117 -- 123	[pos="65.134,378.89 65.597,381.57 66.075,384.33 66.539,387.01"];
	145 -- 146	[pos="115.12,469.8 117.77,489.77 121.97,521.52 124.6,541.38"];
	123 -- 128	[pos="61.678,422.48 55.057,436.84 45.693,457.16 39.075,471.52"];
	146 -- 147	[pos="125.62,577.56 123.95,599.63 121.16,636.67 119.48,658.83"];
	148	[height=0.5,
		pos="27,611.58",
		width=0.75];
	128 -- 148	[pos="30.487,506.95 29.714,530.16 28.381,570.15 27.606,593.4"];
	147 -- 148	[pos="99.663,663.91 83.858,652.53 61.205,636.22 45.408,624.84"];
}
