graph {
	graph [bb="0,0,1026.3,966.26",
		outputorder=edgesfirst,
		overlap=prism,
		size="50,50!",
		start=3869
	];
	node [label="\N"];
	0	[height=0.5,
		pos="64.986,288.8",
		width=0.75];
	1	[height=0.5,
		pos="27,400.95",
		width=0.75];
	0 -- 1	[pos="58.967,306.57 51.854,327.57 40.091,362.3 32.991,383.26"];
	20	[height=0.5,
		pos="171.73,192.02",
		width=0.75];
	0 -- 20	[pos="81.198,274.1 101.38,255.8 135.63,224.75 155.71,206.54"];
	2	[height=0.5,
		pos="52.178,518.39",
		width=0.75];
	1 -- 2	[pos="30.824,418.78 35.556,440.86 43.569,478.23 48.318,500.38"];
	59	[height=0.5,
		pos="115.12,497.8",
		width=0.75];
	1 -- 59	[pos="41.158,416.51 57.603,434.58 84.569,464.22 101,482.28"];
	26	[height=0.5,
		pos="233.8,178.38",
		width=0.75];
	20 -- 26	[pos="197.69,186.31 201.15,185.55 204.69,184.78 208.14,184.02"];
	21	[height=0.5,
		pos="334.4,190.65",
		width=0.75];
	20 -- 21	[pos="198.95,191.79 229.07,191.53 277.31,191.13 307.35,190.87"];
	3	[height=0.5,
		pos="139.66,562.17",
		width=0.75];
	2 -- 3	[pos="73.802,529.21 87.261,535.95 104.51,544.58 117.98,551.32"];
	42	[height=0.5,
		pos="146.55,453.77",
		width=0.75];
	2 -- 42	[pos="71.275,505.31 87.647,494.1 111.11,478.03 127.48,466.83"];
	34	[height=0.5,
		pos="191.25,246.14",
		width=0.75];
	26 -- 34	[pos="223.29,195.13 216.79,205.48 208.48,218.71 201.95,229.11"];
	27	[height=0.5,
		pos="378.36,247.02",
		width=0.75];
	26 -- 27	[pos="256.07,188.96 283.32,201.89 329.15,223.65 356.3,236.54"];
	4	[height=0.5,
		pos="89.265,361.85",
		width=0.75];
	3 -- 4	[pos="135.19,544.39 125.65,506.47 103.39,418.01 93.799,379.87"];
	93	[height=0.5,
		pos="270.5,650.15",
		width=0.75];
	3 -- 93	[pos="158.68,574.96 183.49,591.64 226.63,620.65 251.45,637.34"];
	41	[height=0.5,
		pos="193.28,336.22",
		width=0.75];
	34 -- 41	[pos="191.67,264.37 192.02,279.99 192.52,302.39 192.87,318.02"];
	35	[height=0.5,
		pos="295.94,136.01",
		width=0.75];
	34 -- 35	[pos="205.81,230.82 225.7,209.9 261.17,172.58 281.17,151.54"];
	5	[height=0.5,
		pos="234.74,292.06",
		width=0.75];
	4 -- 5	[pos="111.36,351.25 138.7,338.13 185,315.92 212.44,302.76"];
	60	[height=0.5,
		pos="231.36,455.54",
		width=0.75];
	4 -- 60	[pos="108.72,374.68 135.94,392.62 185.05,425.01 212.14,442.86"];
	49	[height=0.5,
		pos="305.68,275.39",
		width=0.75];
	41 -- 49	[pos="214.42,324.78 234.52,313.9 264.57,297.64 284.63,286.78"];
	41 -- 42	[pos="186.29,353.82 177.47,375.98 162.42,413.83 153.59,436.05"];
	6	[height=0.5,
		pos="233.86,126.09",
		width=0.75];
	5 -- 6	[pos="234.64,273.98 234.47,242.06 234.12,176.06 233.96,144.15"];
	5 -- 27	[pos="259.43,284.32 285.73,276.07 327.14,263.08 353.51,254.81"];
	53	[height=0.5,
		pos="269,407.75",
		width=0.75];
	49 -- 53	[pos="300.73,293.24 293.73,318.5 281.01,364.42 273.98,389.76"];
	50	[height=0.5,
		pos="422.36,300.21",
		width=0.75];
	49 -- 50	[pos="331.57,280.9 350.91,285.02 377.22,290.61 396.54,294.72"];
	7	[height=0.5,
		pos="360.07,86.642",
		width=0.75];
	6 -- 7	[pos="258.5,118.39 280.73,111.44 313.28,101.27 335.5,94.323"];
	6 -- 21	[pos="253.72,138.84 271.46,150.24 297.3,166.82 314.92,178.14"];
	58	[height=0.5,
		pos="144.91,405.87",
		width=0.75];
	53 -- 58	[pos="241.77,407.33 221.08,407.02 192.75,406.6 172.08,406.28"];
	54	[height=0.5,
		pos="387.14,462.84",
		width=0.75];
	53 -- 54	[pos="291.22,418.11 312.21,427.9 343.53,442.5 364.62,452.34"];
	8	[height=0.5,
		pos="297.77,79.606",
		width=0.75];
	7 -- 8	[pos="333.29,83.618 330.39,83.29 327.43,82.956 324.53,82.628"];
	22	[height=0.5,
		pos="420.05,168.15",
		width=0.75];
	7 -- 22	[pos="372.21,103.14 382.69,117.37 397.73,137.81 408.14,151.96"];
	67	[height=0.5,
		pos="194.84,517.73",
		width=0.75];
	58 -- 67	[pos="152.71,423.35 162.09,444.37 177.74,479.42 187.09,500.38"];
	58 -- 59	[pos="139.17,423.6 133.89,439.88 126.12,463.87 120.85,480.13"];
	9	[height=0.5,
		pos="421.45,42.468",
		width=0.75];
	8 -- 9	[pos="322.5,72.18 344.07,65.703 375.2,56.355 396.76,49.881"];
	8 -- 35	[pos="297.18,97.762 296.97,104.2 296.74,111.45 296.53,117.88"];
	75	[height=0.5,
		pos="388.85,506.87",
		width=0.75];
	67 -- 75	[pos="221.82,516.22 258.78,514.15 324.79,510.46 361.79,508.39"];
	68	[height=0.5,
		pos="258.17,543.97",
		width=0.75];
	67 -- 68	[pos="218.06,527.36 223.57,529.64 229.44,532.07 234.95,534.35"];
	10	[height=0.5,
		pos="494.74,63.261",
		width=0.75];
	9 -- 10	[pos="446.67,49.624 454.12,51.738 462.28,54.052 469.72,56.163"];
	36	[height=0.5,
		pos="358,130.68",
		width=0.75];
	9 -- 36	[pos="409.51,59.061 398.17,74.832 381.21,98.418 369.88,114.16"];
	81	[height=0.5,
		pos="394.58,662.67",
		width=0.75];
	75 -- 81	[pos="389.52,525.05 390.62,555.07 392.82,614.66 393.92,644.61"];
	76	[height=0.5,
		pos="578.55,528.17",
		width=0.75];
	75 -- 76	[pos="415.63,509.88 451.78,513.94 515.83,521.13 551.91,525.18"];
	11	[height=0.5,
		pos="605.81,65.778",
		width=0.75];
	10 -- 11	[pos="521.91,63.877 539.13,64.267 561.31,64.769 578.54,65.16"];
	37	[height=0.5,
		pos="472.08,212.16",
		width=0.75];
	10 -- 37	[pos="492.01,81.222 487.65,109.84 479.18,165.48 474.82,194.14"];
	86	[height=0.5,
		pos="223.95,705.94",
		width=0.75];
	81 -- 86	[pos="369.04,669.15 336.78,677.33 281.6,691.32 249.39,699.49"];
	82	[height=0.5,
		pos="453.14,618.62",
		width=0.75];
	81 -- 82	[pos="412.79,648.97 419.91,643.62 428.05,637.49 435.14,632.15"];
	12	[height=0.5,
		pos="579.23,113.84",
		width=0.75];
	11 -- 12	[pos="596.37,82.858 593.86,87.391 591.15,92.285 588.65,96.814"];
	38	[height=0.5,
		pos="596.12,229.54",
		width=0.75];
	11 -- 38	[pos="604.74,83.928 602.87,115.41 599.06,179.77 597.2,211.3"];
	91	[height=0.5,
		pos="255.85,794.01",
		width=0.75];
	86 -- 91	[pos="230.4,723.77 235.94,739.04 243.87,760.94 249.4,776.21"];
	87	[height=0.5,
		pos="208.49,617.89",
		width=0.75];
	86 -- 87	[pos="220.74,687.7 218.07,672.49 214.29,650.93 211.64,635.81"];
	13	[height=0.5,
		pos="590.65,166.35",
		width=0.75];
	12 -- 13	[pos="583.16,131.91 584.32,137.25 585.59,143.09 586.75,148.42"];
	23	[height=0.5,
		pos="534.1,211.1",
		width=0.75];
	12 -- 23	[pos="571.16,131.23 562.95,148.93 550.29,176.21 542.1,193.86"];
	97	[height=0.5,
		pos="322.59,904.23",
		width=0.75];
	91 -- 97	[pos="265.99,810.75 278.53,831.47 299.77,866.54 312.36,887.33"];
	92	[height=0.5,
		pos="358.19,750.67",
		width=0.75];
	91 -- 92	[pos="278.82,784.28 295.67,777.15 318.46,767.5 335.3,760.37"];
	14	[height=0.5,
		pos="720.77,217.61",
		width=0.75];
	13 -- 14	[pos="613.91,175.51 637.45,184.79 673.64,199.05 697.27,208.35"];
	28	[height=0.5,
		pos="475.44,256.19",
		width=0.75];
	13 -- 28	[pos="572.65,180.39 551.01,197.27 514.9,225.42 493.32,242.25"];
	100	[height=0.5,
		pos="384.67,881.89",
		width=0.75];
	97 -- 100	[pos="346.42,895.66 351.07,893.98 355.95,892.23 360.6,890.55"];
	98	[height=0.5,
		pos="380.04,794.7",
		width=0.75];
	97 -- 98	[pos="331.57,887.12 342.36,866.54 360.36,832.22 371.13,811.69"];
	15	[height=0.5,
		pos="793.24,202.74",
		width=0.75];
	14 -- 15	[pos="746.93,212.24 753.58,210.88 760.72,209.41 767.36,208.05"];
	73	[height=0.5,
		pos="769.22,351.25",
		width=0.75];
	14 -- 73	[pos="727.2,235.36 736.47,260.92 753.47,307.83 762.76,333.43"];
	109	[height=0.5,
		pos="504.12,881.73",
		width=0.75];
	100 -- 109	[pos="411.78,881.85 431.19,881.83 457.23,881.79 476.71,881.76"];
	101	[height=0.5,
		pos="418.75,706.67",
		width=0.75];
	100 -- 101	[pos="388.19,863.8 394.74,830.13 408.72,758.25 415.25,724.66"];
	16	[height=0.5,
		pos="855.28,217",
		width=0.75];
	15 -- 16	[pos="818.83,208.62 822.44,209.45 826.14,210.3 829.75,211.13"];
	29	[height=0.5,
		pos="665.38,319.84",
		width=0.75];
	15 -- 29	[pos="777.3,217.33 752.8,239.77 706.14,282.51 681.52,305.06"];
	114	[height=0.5,
		pos="417.75,931.56",
		width=0.75];
	109 -- 114	[pos="483.65,893.54 469.98,901.42 452.07,911.76 438.37,919.67"];
	110	[height=0.5,
		pos="509.87,719.18",
		width=0.75];
	109 -- 110	[pos="504.76,863.71 505.86,832.47 508.13,768.58 509.23,737.28"];
	17	[height=0.5,
		pos="856.18,167.17",
		width=0.75];
	16 -- 17	[pos="855.61,198.73 855.69,194.4 855.77,189.77 855.85,185.44"];
	30	[height=0.5,
		pos="811.95,265.2",
		width=0.75];
	16 -- 30	[pos="841.33,232.52 836.39,238.02 830.82,244.21 825.87,249.71"];
	118	[height=0.5,
		pos="293.53,948.26",
		width=0.75];
	114 -- 118	[pos="391.1,935.15 370.14,937.96 341.08,941.87 320.13,944.68"];
	115	[height=0.5,
		pos="442.07,837.86",
		width=0.75];
	114 -- 115	[pos="422.43,913.5 426.74,896.9 433.09,872.44 437.39,855.87"];
	18	[height=0.5,
		pos="773.68,84.432",
		width=0.75];
	17 -- 18	[pos="841.05,152 826.16,137.07 803.57,114.41 788.71,99.512"];
	31	[height=0.5,
		pos="876.73,275.1",
		width=0.75];
	17 -- 31	[pos="859.67,185.48 863.47,205.45 869.51,237.2 873.29,257.06"];
	124	[height=0.5,
		pos="267.19,749.99",
		width=0.75];
	118 -- 124	[pos="291.15,930.31 286.14,892.66 274.6,805.78 269.59,768.03"];
	119	[height=0.5,
		pos="317.94,834.21",
		width=0.75];
	118 -- 119	[pos="297.4,930.19 301.97,908.83 309.53,873.52 314.09,852.2"];
	19	[height=0.5,
		pos="777.21,18",
		width=0.75];
	18 -- 19	[pos="774.64,66.279 775.14,56.905 775.75,45.501 776.25,36.131"];
	24	[height=0.5,
		pos="653.35,126.5",
		width=0.75];
	18 -- 24	[pos="749.62,92.843 728.63,100.18 698.34,110.77 677.37,118.1"];
	129	[height=0.5,
		pos="196.8,875.35",
		width=0.75];
	124 -- 129	[pos="257.7,766.89 244.26,790.82 219.84,834.31 206.37,858.31"];
	125	[height=0.5,
		pos="332.55,630.34",
		width=0.75];
	124 -- 125	[pos="276.55,732.84 288.98,710.1 310.79,670.18 323.21,647.45"];
	25	[height=0.5,
		pos="695.16,51.379",
		width=0.75];
	19 -- 25	[pos="753.92,27.476 742.74,32.024 729.38,37.458 718.23,41.995"];
	130	[height=0.5,
		pos="259.86,880.02",
		width=0.75];
	129 -- 130	[pos="223.91,877.36 226.85,877.57 229.84,877.8 232.77,878.01"];
	21 -- 22	[pos="359.63,184.02 370.69,181.12 383.63,177.72 394.7,174.81"];
	44	[height=0.5,
		pos="331.02,374.78",
		width=0.75];
	21 -- 44	[pos="334.06,208.97 333.41,244.27 332,321.29 331.36,356.53"];
	22 -- 23	[pos="443.68,177.05 463.26,184.42 490.93,194.84 510.5,202.21"];
	22 -- 50	[pos="420.37,186.24 420.81,211.39 421.6,256.66 422.04,281.92"];
	59 -- 68	[pos="139.71,505.74 165.91,514.2 207.16,527.51 233.42,535.99"];
	59 -- 60	[pos="138.93,489.15 158.98,481.85 187.54,471.47 207.59,464.18"];
	68 -- 82	[pos="281.68,552.98 319.16,567.32 392.01,595.21 429.53,609.58"];
	69	[height=0.5,
		pos="259.46,499.95",
		width=0.75];
	68 -- 69	[pos="258.7,525.81 258.77,523.25 258.85,520.62 258.93,518.07"];
	82 -- 92	[pos="441.3,635.07 423.01,660.52 388.07,709.11 369.87,734.42"];
	83	[height=0.5,
		pos="665.37,574.94",
		width=0.75];
	82 -- 83	[pos="479.16,613.26 520,604.85 598.69,588.66 639.46,580.27"];
	23 -- 24	[pos="552.73,197.88 575.13,181.99 612.5,155.48 634.85,139.62"];
	104	[height=0.5,
		pos="626.63,377.06",
		width=0.75];
	23 -- 104	[pos="543.65,228.24 561.38,260.04 599.19,327.85 616.99,359.77"];
	92 -- 101	[pos="376.69,737.23 384.2,731.77 392.86,725.48 400.36,720.03"];
	92 -- 93	[pos="344.49,734.97 328.01,716.08 300.53,684.58 284.1,665.75"];
	101 -- 115	[pos="421.94,724.63 426.38,749.62 434.38,794.6 438.84,819.69"];
	102	[height=0.5,
		pos="453.21,528.65",
		width=0.75];
	101 -- 102	[pos="422.24,688.62 428.85,654.5 443.09,580.91 449.7,546.75"];
	115 -- 130	[pos="416.35,843.81 381.62,851.84 320.1,866.08 285.45,874.09"];
	116	[height=0.5,
		pos="579.62,826.77",
		width=0.75];
	115 -- 116	[pos="468.91,835.69 493,833.75 528.17,830.92 552.37,828.97"];
	24 -- 25	[pos="662.84,109.45 669.68,97.157 678.88,80.634 685.71,68.357"];
	32	[height=0.5,
		pos="720.2,172.45",
		width=0.75];
	24 -- 32	[pos="672.33,139.54 681.28,145.7 691.95,153.03 700.94,159.21"];
	33	[height=0.5,
		pos="715.47,128.45",
		width=0.75];
	25 -- 33	[pos="699.87,69.254 703.15,81.705 707.51,98.242 710.78,110.67"];
	131	[height=0.5,
		pos="181.28,750.01",
		width=0.75];
	130 -- 131	[pos="249.74,863.29 234.74,838.46 206.72,792.11 191.6,767.09"];
	42 -- 87	[pos="153.17,471.33 165.03,502.76 189.76,568.27 201.72,599.96"];
	43	[height=0.5,
		pos="206.94,409.74",
		width=0.75];
	42 -- 43	[pos="164.99,440.32 172.49,434.86 181.12,428.56 188.61,423.11"];
	27 -- 28	[pos="405.14,249.55 418.61,250.82 434.9,252.36 448.41,253.64"];
	27 -- 43	[pos="362.54,262.03 329.88,293.03 255.35,363.79 222.72,394.76"];
	87 -- 131	[pos="204.76,635.99 199.55,661.29 190.14,706.95 184.96,732.13"];
	88	[height=0.5,
		pos="417.22,574.61",
		width=0.75];
	87 -- 88	[pos="234.5,612.5 274.61,604.18 351.1,588.32 391.21,580.01"];
	28 -- 29	[pos="499.89,264.38 536.36,276.6 604.62,299.48 641.03,311.68"];
	55	[height=0.5,
		pos="501.81,407.13",
		width=0.75];
	28 -- 55	[pos="478.57,274.1 483.65,303.15 493.62,360.21 498.69,389.25"];
	29 -- 30	[pos="689.26,310.94 716.51,300.78 760.84,284.26 788.09,274.1"];
	63	[height=0.5,
		pos="662.52,430.02",
		width=0.75];
	29 -- 63	[pos="664.91,338.04 664.38,358.45 663.52,391.38 662.99,411.8"];
	30 -- 31	[pos="838.3,269.23 842.22,269.83 846.27,270.44 850.19,271.04"];
	39	[height=0.5,
		pos="749.81,306.97",
		width=0.75];
	30 -- 39	[pos="792.63,278.19 785.07,283.26 776.43,289.07 768.9,294.14"];
	31 -- 32	[pos="857.22,262.31 827.06,242.53 769.47,204.76 739.46,185.08"];
	65	[height=0.5,
		pos="831.25,395.29",
		width=0.75];
	31 -- 65	[pos="870.11,292.58 861.49,315.37 846.5,355 837.87,377.8"];
	32 -- 33	[pos="718.25,154.3 717.97,151.74 717.69,149.12 717.41,146.56"];
	51	[height=0.5,
		pos="601.88,301.47",
		width=0.75];
	32 -- 51	[pos="705.93,188.01 683.19,212.81 638.98,261.02 616.2,285.85"];
	40	[height=0.5,
		pos="782.25,148.48",
		width=0.75];
	33 -- 40	[pos="740.33,135.91 745.97,137.6 751.95,139.4 757.58,141.09"];
	132	[height=0.5,
		pos="181.09,794.05",
		width=0.75];
	131 -- 132	[pos="181.2,768.18 181.19,770.74 181.18,773.37 181.16,775.92"];
	35 -- 36	[pos="322.98,133.69 325.6,133.46 328.25,133.24 330.86,133.01"];
	45	[height=0.5,
		pos="330.85,319.48",
		width=0.75];
	35 -- 45	[pos="299.35,153.93 306.03,189.01 320.74,266.35 327.43,301.48"];
	36 -- 37	[pos="376.58,143.96 397.8,159.11 432.29,183.75 453.5,198.9"];
	46	[height=0.5,
		pos="393.05,344.23",
		width=0.75];
	36 -- 46	[pos="360.99,148.89 367.61,189.23 383.46,285.77 390.07,326.07"];
	37 -- 38	[pos="498.69,215.89 519.61,218.82 548.63,222.89 569.55,225.82"];
	72	[height=0.5,
		pos="563.87,365.56",
		width=0.75];
	37 -- 72	[pos="482.25,229.16 499.9,258.65 535.98,318.94 553.65,348.48"];
	38 -- 39	[pos="617.81,240.47 647.1,255.23 698.99,281.37 728.22,296.1"];
	47	[height=0.5,
		pos="523.38,318.8",
		width=0.75];
	38 -- 47	[pos="583.11,245.5 569.87,261.74 549.47,286.78 536.27,302.98"];
	93 -- 98	[pos="282.85,666.45 303.89,694.21 346.44,750.36 367.56,778.23"];
	94	[height=0.5,
		pos="270.51,587.98",
		width=0.75];
	93 -- 94	[pos="270.5,631.83 270.5,623.81 270.5,614.41 270.5,606.38"];
	98 -- 119	[pos="360.39,807.2 353.14,811.81 344.93,817.04 337.67,821.66"];
	99	[height=0.5,
		pos="505.06,810.38",
		width=0.75];
	98 -- 99	[pos="406.86,798.06 427.95,800.71 457.2,804.37 478.28,807.02"];
	39 -- 40	[pos="753.46,289.1 759.69,258.66 772.3,197.09 778.55,166.54"];
	64	[height=0.5,
		pos="762.78,416.63",
		width=0.75];
	39 -- 64	[pos="751.95,325.08 754.35,345.4 758.23,378.17 760.63,398.5"];
	119 -- 132	[pos="293.16,826.94 268.51,819.71 230.89,808.67 206.15,801.41"];
	120	[height=0.5,
		pos="447.79,750.75",
		width=0.75];
	119 -- 120	[pos="337.38,821.72 361.86,805.98 403.68,779.11 428.22,763.33"];
	48	[height=0.5,
		pos="658.16,212.6",
		width=0.75];
	40 -- 48	[pos="760.63,159.65 737.85,171.42 702.2,189.84 679.52,201.56"];
	133	[height=0.5,
		pos="134.54,671.66",
		width=0.75];
	132 -- 133	[pos="174.42,776.52 165.57,753.25 150.04,712.42 141.19,689.17"];
	43 -- 44	[pos="232.05,402.67 253.58,396.6 284.43,387.91 305.95,381.85"];
	43 -- 69	[pos="216.82,426.71 226.21,442.84 240.25,466.95 249.62,483.06"];
	44 -- 45	[pos="330.97,356.67 330.95,350.63 330.93,343.88 330.91,337.82"];
	44 -- 54	[pos="341.84,391.76 351.84,407.45 366.62,430.63 376.55,446.21"];
	60 -- 94	[pos="236.64,473.4 244.11,498.68 257.69,544.63 265.19,569.98"];
	61	[height=0.5,
		pos="388.13,418.82",
		width=0.75];
	60 -- 61	[pos="256.9,449.56 286.05,442.73 333.46,431.63 362.6,424.8"];
	45 -- 46	[pos="354.37,328.84 359.32,330.81 364.55,332.89 369.5,334.86"];
	70	[height=0.5,
		pos="323.17,461.26",
		width=0.75];
	45 -- 70	[pos="329.86,337.73 328.39,364.95 325.62,415.9 324.15,443.09"];
	46 -- 47	[pos="419.11,339.14 441.84,334.71 474.64,328.31 497.36,323.88"];
	71	[height=0.5,
		pos="454.84,451.16",
		width=0.75];
	46 -- 71	[pos="402.98,361.41 414.51,381.36 433.42,414.09 444.94,434.02"];
	47 -- 48	[pos="541,304.92 566.83,284.57 614.7,246.84 640.53,226.49"];
	103	[height=0.5,
		pos="515.45,495.2",
		width=0.75];
	47 -- 103	[pos="522.56,337.02 521.03,370.91 517.78,443.27 516.26,477.09"];
	94 -- 133	[pos="250.44,600.33 224.74,616.15 180.43,643.42 154.68,659.27"];
	95	[height=0.5,
		pos="479.29,572.69",
		width=0.75];
	94 -- 95	[pos="297.38,586.01 337.35,583.09 412.09,577.61 452.2,574.67"];
	52	[height=0.5,
		pos="747.63,262.45",
		width=0.75];
	48 -- 52	[pos="678.91,224.16 693.26,232.16 712.29,242.76 726.68,250.78"];
	134	[height=0.5,
		pos="196.71,661.94",
		width=0.75];
	133 -- 134	[pos="160.9,667.54 163.95,667.06 167.05,666.58 170.1,666.1"];
	50 -- 51	[pos="449.63,300.4 483.47,300.64 540.83,301.04 574.65,301.28"];
	50 -- 61	[pos="417.24,317.97 410.78,340.33 399.76,378.53 393.29,400.94"];
	69 -- 125	[pos="269.01,516.99 283.02,541.98 308.98,588.29 323,613.29"];
	69 -- 70	[pos="279.61,487.71 287.05,483.19 295.48,478.07 302.92,473.55"];
	51 -- 52	[pos="627.27,294.67 654.02,287.51 695.89,276.3 722.53,269.17"];
	56	[height=0.5,
		pos="700.66,383.91",
		width=0.75];
	51 -- 56	[pos="619.09,315.83 637.22,330.96 665.59,354.65 683.65,369.72"];
	125 -- 134	[pos="307,636.28 282.87,641.9 246.85,650.27 222.61,655.92"];
	126	[height=0.5,
		pos="541.31,600.12",
		width=0.75];
	125 -- 126	[pos="358.99,626.51 399.04,620.71 474.64,609.77 514.76,603.97"];
	57	[height=0.5,
		pos="831.94,337.05",
		width=0.75];
	52 -- 57	[pos="763.89,276.83 778.72,289.96 800.54,309.26 815.45,322.46"];
	135	[height=0.5,
		pos="332.52,706.42",
		width=0.75];
	134 -- 135	[pos="220.99,669.89 245.56,677.94 283.34,690.31 307.99,698.38"];
	54 -- 88	[pos="391.98,480.8 397.59,501.66 406.79,535.86 412.4,556.7"];
	54 -- 55	[pos="408.98,452.23 429.26,442.38 459.29,427.79 479.66,417.89"];
	88 -- 120	[pos="420.37,592.8 426.25,626.64 438.79,698.9 444.65,732.66"];
	89	[height=0.5,
		pos="633.75,618.98",
		width=0.75];
	88 -- 89	[pos="443.34,579.96 485.07,588.51 566.3,605.16 607.88,613.68"];
	55 -- 56	[pos="528.63,404 566.69,399.56 635.95,391.47 673.95,387.03"];
	62	[height=0.5,
		pos="543,451.15",
		width=0.75];
	55 -- 62	[pos="516.22,422.53 520.21,426.79 524.54,431.42 528.53,435.69"];
	120 -- 135	[pos="424.19,741.67 404.3,734.02 375.98,723.13 356.1,715.48"];
	121	[height=0.5,
		pos="540.79,763.72",
		width=0.75];
	120 -- 121	[pos="474.69,754.5 487.13,756.24 501.87,758.29 514.27,760.02"];
	56 -- 57	[pos="724.74,375.32 748.42,366.86 784.38,354.03 808.01,345.59"];
	107	[height=0.5,
		pos="823.76,565.31",
		width=0.75];
	56 -- 107	[pos="711.8,400.33 735.18,434.78 789.12,514.27 812.55,548.8"];
	66	[height=0.5,
		pos="900.94,364.23",
		width=0.75];
	57 -- 66	[pos="855.3,346.25 862.5,349.09 870.41,352.21 877.61,355.04"];
	136	[height=0.5,
		pos="321.98,522.41",
		width=0.75];
	135 -- 136	[pos="331.47,688.1 329.45,652.83 325.05,575.86 323.03,540.65"];
	61 -- 62	[pos="414.05,424.23 442.64,430.2 488.37,439.75 516.99,445.72"];
	61 -- 136	[pos="377.5,435.47 365.16,454.8 344.92,486.49 332.58,505.81"];
	62 -- 63	[pos="569.23,446.51 589.15,442.99 616.44,438.17 636.35,434.65"];
	105	[height=0.5,
		pos="662.14,484.33",
		width=0.75];
	62 -- 105	[pos="567.97,458.1 588.31,463.77 616.87,471.72 637.2,477.38"];
	63 -- 64	[pos="689.12,426.47 703.63,424.53 721.53,422.14 736.05,420.2"];
	78	[height=0.5,
		pos="807.93,521.28",
		width=0.75];
	63 -- 78	[pos="682.43,442.52 710.28,459.99 760.54,491.54 788.26,508.93"];
	64 -- 65	[pos="787.5,408.93 793.63,407.02 800.2,404.97 806.34,403.06"];
	64 -- 83	[pos="752.35,433.57 733.6,464.04 694.41,527.74 675.72,558.12"];
	65 -- 66	[pos="854.07,385.12 861.85,381.66 870.55,377.78 878.31,374.32"];
	79	[height=0.5,
		pos="937.24,477.27",
		width=0.75];
	65 -- 79	[pos="849.23,409.2 868.84,424.37 900.02,448.48 919.53,463.57"];
	74	[height=0.5,
		pos="893.32,409.14",
		width=0.75];
	66 -- 74	[pos="897.89,382.24 897.39,385.17 896.88,388.2 896.38,391.13"];
	137	[height=0.5,
		pos="354.51,576.78",
		width=0.75];
	136 -- 137	[pos="332.1,539.31 335.97,545.8 340.4,553.2 344.29,559.7"];
	70 -- 71	[pos="350.13,459.19 372.85,457.45 405.2,454.97 427.91,453.23"];
	70 -- 102	[pos="344.64,472.39 368.73,484.88 407.59,505.01 431.7,517.51"];
	71 -- 72	[pos="472.36,437.41 492.58,421.53 525.68,395.55 546.04,379.56"];
	71 -- 95	[pos="458.45,469.09 463.07,492.07 471.04,531.67 475.67,554.68"];
	72 -- 73	[pos="591.14,363.66 630.53,360.91 702.9,355.87 742.16,353.13"];
	72 -- 76	[pos="565.5,383.58 568.32,414.84 574.09,478.75 576.92,510.07"];
	73 -- 74	[pos="791.4,361.6 813.85,372.07 848.38,388.18 870.91,398.69"];
	77	[height=0.5,
		pos="740.58,504.87",
		width=0.75];
	73 -- 77	[pos="765.88,369.17 760.39,398.61 749.52,456.91 743.99,486.59"];
	102 -- 137	[pos="431.3,539.33 414.95,547.31 392.69,558.16 376.35,566.13"];
	102 -- 103	[pos="474.28,517.33 480.77,513.84 487.91,510 494.4,506.51"];
	80	[height=0.5,
		pos="999.31,483.89",
		width=0.75];
	74 -- 80	[pos="912.27,422.51 931.56,436.11 961.3,457.08 980.53,470.64"];
	138	[height=0.5,
		pos="471,662.65",
		width=0.75];
	137 -- 138	[pos="372.71,590.2 394.47,606.23 430.67,632.92 452.54,649.04"];
	76 -- 77	[pos="604.95,524.38 634.99,520.06 683.78,513.04 713.93,508.7"];
	139	[height=0.5,
		pos="603.36,572.23",
		width=0.75];
	76 -- 139	[pos="588.07,545.08 589.93,548.38 591.88,551.84 593.74,555.15"];
	95 -- 110	[pos="483.04,590.65 488.91,618.77 500.21,672.87 506.09,701.07"];
	96	[height=0.5,
		pos="541.68,674.11",
		width=0.75];
	95 -- 96	[pos="489.6,589.44 501.15,608.23 519.8,638.53 531.36,657.34"];
	77 -- 78	[pos="766.04,511.07 771.41,512.38 777.07,513.76 782.43,515.07"];
	106	[height=0.5,
		pos="743.18,548.94",
		width=0.75];
	77 -- 106	[pos="741.65,523.05 741.81,525.61 741.96,528.24 742.11,530.8"];
	78 -- 79	[pos="832.25,513 855.37,505.13 889.94,493.37 913.03,485.51"];
	112	[height=0.5,
		pos="780.28,663.65",
		width=0.75];
	78 -- 112	[pos="804.43,539.31 799.11,566.69 789.06,618.47 783.76,645.76"];
	110 -- 138	[pos="498.42,702.53 493.41,695.23 487.53,686.69 482.51,679.38"];
	111	[height=0.5,
		pos="699.68,620.11",
		width=0.75];
	110 -- 111	[pos="531.28,708.01 567.83,688.93 641.85,650.3 678.35,631.25"];
	79 -- 80	[pos="963.93,480.11 966.82,480.42 969.76,480.74 972.65,481.05"];
	84	[height=0.5,
		pos="761.7,595.07",
		width=0.75];
	79 -- 84	[pos="918.12,490.1 884.35,512.76 814.54,559.61 780.79,582.26"];
	85	[height=0.5,
		pos="899.89,566.41",
		width=0.75];
	80 -- 85	[pos="982,498.26 963.75,513.41 935.19,537.12 917.01,552.2"];
	138 -- 139	[pos="489.97,649.69 515.13,632.51 559.29,602.34 584.43,585.16"];
	83 -- 84	[pos="691.18,580.33 705,583.22 721.98,586.77 735.81,589.66"];
	122	[height=0.5,
		pos="660.85,720.79",
		width=0.75];
	83 -- 122	[pos="664.8,593.12 663.94,621.07 662.29,674.3 661.42,702.38"];
	84 -- 85	[pos="787.69,589.68 812.4,584.56 849.35,576.9 874.02,571.78"];
	84 -- 89	[pos="735.5,599.97 713.42,604.09 681.99,609.97 659.92,614.09"];
	90	[height=0.5,
		pos="698.19,664.14",
		width=0.75];
	85 -- 90	[pos="877.92,577.06 839.12,595.86 758.91,634.72 720.13,653.51"];
	140	[height=0.5,
		pos="678.57,530.91",
		width=0.75];
	139 -- 140	[pos="624.31,560.72 634.74,554.99 647.31,548.08 657.73,542.36"];
	103 -- 126	[pos="519.84,513 524.59,532.29 532.14,562.91 536.9,582.24"];
	103 -- 104	[pos="529.99,479.75 551.29,457.11 590.78,415.15 612.09,392.51"];
	89 -- 90	[pos="652.39,632.04 660.86,637.98 670.87,644.99 679.37,650.95"];
	146	[height=0.5,
		pos="846.26,677.96",
		width=0.75];
	89 -- 146	[pos="658.96,625.98 699.86,637.33 780.2,659.63 821.08,670.97"];
	126 -- 140	[pos="563.06,589.16 588.76,576.2 631.26,554.77 656.92,541.83"];
	127	[height=0.5,
		pos="598.8,718.67",
		width=0.75];
	126 -- 127	[pos="549.67,617.36 560.57,639.84 579.53,678.93 590.43,701.41"];
	90 -- 96	[pos="671.28,665.85 642.62,667.68 597.49,670.55 568.76,672.38"];
	141	[height=0.5,
		pos="778.11,460.74",
		width=0.75];
	140 -- 141	[pos="697.29,517.71 715.09,505.17 741.7,486.4 759.47,473.88"];
	104 -- 141	[pos="647.69,388.7 676.63,404.68 728.38,433.27 757.23,449.2"];
	104 -- 105	[pos="632.49,394.78 639.07,414.65 649.69,446.7 656.27,466.59"];
	96 -- 99	[pos="536.89,691.92 529.87,718.04 516.87,766.44 509.85,792.56"];
	142	[height=0.5,
		pos="877.44,521.29",
		width=0.75];
	141 -- 142	[pos="798.21,472.99 815.45,483.5 840.15,498.55 857.37,509.06"];
	105 -- 142	[pos="688.54,488.86 729.98,495.97 809.81,509.68 851.17,516.78"];
	105 -- 106	[pos="679.73,498.35 693.32,509.19 712.05,524.12 725.63,534.95"];
	108	[height=0.5,
		pos="722.87,708.17",
		width=0.75];
	99 -- 108	[pos="527.14,800.01 568.89,780.42 658.94,738.17 700.73,718.56"];
	143	[height=0.5,
		pos="892.64,632.92",
		width=0.75];
	142 -- 143	[pos="879.89,539.23 882.7,559.93 887.32,593.81 890.15,614.66"];
	106 -- 111	[pos="732.87,565.81 725.94,577.15 716.83,592.05 709.91,603.37"];
	106 -- 107	[pos="769.12,554.21 778.32,556.08 788.67,558.18 797.87,560.05"];
	111 -- 143	[pos="726.91,621.92 763.69,624.36 828.83,628.68 865.54,631.12"];
	111 -- 112	[pos="720.86,631.55 732.7,637.95 747.42,645.9 759.25,652.29"];
	107 -- 108	[pos="812.18,581.69 792.83,609.1 754.09,663.95 734.62,691.53"];
	147	[height=0.5,
		pos="962,597.86",
		width=0.75];
	107 -- 147	[pos="849.43,571.35 874.27,577.2 911.68,586.01 936.46,591.85"];
	113	[height=0.5,
		pos="762.04,766.96",
		width=0.75];
	108 -- 113	[pos="733.99,724.86 739.33,732.87 745.71,742.44 751.03,750.43"];
	144	[height=0.5,
		pos="690.35,764.83",
		width=0.75];
	143 -- 144	[pos="873.24,645.57 834.58,670.78 748.3,727.03 709.69,752.22"];
	112 -- 116	[pos="762.83,677.84 724.78,708.77 634.77,781.94 596.89,812.73"];
	112 -- 113	[pos="777.11,681.64 773.78,700.49 768.58,729.93 765.25,748.83"];
	116 -- 121	[pos="569.21,809.87 563.64,800.83 556.8,789.71 551.22,780.66"];
	117	[height=0.5,
		pos="625.21,904.77",
		width=0.75];
	116 -- 117	[pos="589.51,843.7 597.16,856.78 607.7,874.8 615.34,887.88"];
	121 -- 127	[pos="558.51,749.96 565.71,744.37 574,737.93 581.19,732.35"];
	121 -- 122	[pos="564.79,755.13 585.73,747.65 615.95,736.84 636.88,729.36"];
	127 -- 144	[pos="620.5,729.61 635.09,736.97 654.25,746.63 668.81,753.97"];
	128	[height=0.5,
		pos="750.95,811.05",
		width=0.75];
	127 -- 128	[pos="619.01,730.94 648.11,748.61 701.51,781.03 730.66,798.73"];
	113 -- 117	[pos="747.14,781.97 720.96,808.34 666.98,862.71 640.52,889.36"];
	145	[height=0.5,
		pos="785.06,722.93",
		width=0.75];
	144 -- 145	[pos="713.27,754.68 728.17,748.1 747.49,739.55 762.34,732.98"];
	122 -- 145	[pos="688.11,721.26 708.82,721.62 737.17,722.1 757.86,722.46"];
	123	[height=0.5,
		pos="691.23,855.36",
		width=0.75];
	122 -- 123	[pos="664.88,738.66 670.69,764.4 681.36,811.63 687.18,837.41"];
	117 -- 123	[pos="643.25,891.27 652.57,884.3 663.9,875.81 673.21,868.84"];
	145 -- 146	[pos="803.42,709.44 811.17,703.75 820.17,697.13 827.91,691.44"];
	123 -- 128	[pos="709.47,841.82 716.88,836.32 725.42,829.99 732.82,824.5"];
	146 -- 147	[pos="865.11,664.91 886.64,650.02 921.64,625.8 943.16,610.9"];
	148	[height=0.5,
		pos="908.34,717.14",
		width=0.75];
	128 -- 148	[pos="771.2,798.96 801.42,780.93 857.99,747.18 888.16,729.18"];
	147 -- 148	[pos="954.2,615.21 944.03,637.82 926.33,677.15 916.15,699.77"];
}
