graph {
	graph [bb="0,0,1102.6,998.25",
		outputorder=edgesfirst,
		overlap=prism,
		size="50,50!",
		start=7031
	];
	node [label="\N"];
	0	[height=0.5,
		pos="437.33,337.15",
		width=0.75];
	20	[height=0.5,
		pos="85.597,281.66",
		width=0.75];
	0 -- 20	[pos="410.89,332.98 345.71,322.7 177.85,296.22 112.34,285.88"];
	2	[height=0.5,
		pos="637.88,509.75",
		width=0.75];
	0 -- 2	[pos="454.08,351.57 491.93,384.14 583.65,463.08 621.31,495.5"];
	22	[height=0.5,
		pos="106.3,237.22",
		width=0.75];
	0 -- 22	[pos="412.72,329.72 351.43,311.22 192.52,263.25 131.07,244.7"];
	24	[height=0.5,
		pos="670.5,249.64",
		width=0.75];
	0 -- 24	[pos="460.97,328.28 505.66,311.5 602.06,275.32 646.79,258.53"];
	25	[height=0.5,
		pos="440.12,61.257",
		width=0.75];
	0 -- 25	[pos="437.51,319.05 438.02,269.06 439.43,129.49 439.94,79.425"];
	6	[height=0.5,
		pos="540.16,381.22",
		width=0.75];
	0 -- 6	[pos="460.15,346.93 477.19,354.23 500.38,364.17 517.4,371.47"];
	7	[height=0.5,
		pos="493.75,557.28",
		width=0.75];
	0 -- 7	[pos="441.95,355.16 452.55,396.54 478.56,498 489.15,539.33"];
	26	[height=0.5,
		pos="210.04,549.28",
		width=0.75];
	0 -- 26	[pos="421.35,352.07 379.61,391.02 267.72,495.45 226.01,534.38"];
	9	[height=0.5,
		pos="636.83,450.46",
		width=0.75];
	0 -- 9	[pos="457.93,348.85 496.16,370.56 577.68,416.86 616.05,438.66"];
	27	[height=0.5,
		pos="281.82,500.82",
		width=0.75];
	0 -- 27	[pos="422.7,352.55 393.06,383.74 326.23,454.08 296.53,485.34"];
	28	[height=0.5,
		pos="420.2,105.3",
		width=0.75];
	0 -- 28	[pos="435.98,318.96 432.78,275.61 424.73,166.66 421.54,123.4"];
	12	[height=0.5,
		pos="513.36,513.28",
		width=0.75];
	0 -- 12	[pos="444.9,354.68 459.47,388.44 491.27,462.11 505.82,495.82"];
	13	[height=0.5,
		pos="459.21,381.21",
		width=0.75];
	0 -- 13	[pos="445.85,354.31 447.44,357.5 449.09,360.83 450.68,364.02"];
	30	[height=0.5,
		pos="457.58,266.91",
		width=0.75];
	0 -- 30	[pos="442.44,319.42 445.48,308.86 449.34,295.48 452.4,284.87"];
	31	[height=0.5,
		pos="303.85,350.39",
		width=0.75];
	0 -- 31	[pos="410.32,339.83 387.16,342.13 353.96,345.42 330.82,347.71"];
	16	[height=0.5,
		pos="574.83,469.26",
		width=0.75];
	0 -- 16	[pos="452.83,352.05 479.24,377.42 532.66,428.74 559.17,454.21"];
	32	[height=0.5,
		pos="645.25,65.81",
		width=0.75];
	0 -- 32	[pos="449.71,320.99 486.69,272.73 596.04,130.04 632.93,81.886"];
	34	[height=0.5,
		pos="184.74,451.07",
		width=0.75];
	0 -- 34	[pos="414.91,347.26 366.98,368.88 254.99,419.39 207.1,440.98"];
	19	[height=0.5,
		pos="518.22,425.23",
		width=0.75];
	0 -- 19	[pos="451.79,352.9 466.51,368.93 489.2,393.64 503.88,409.62"];
	21	[height=0.5,
		pos="160.55,604.31",
		width=0.75];
	20 -- 21	[pos="89.734,299.47 102.81,355.75 143.15,529.41 156.34,586.16"];
	2 -- 6	[pos="625.5,493.47 606.71,468.75 571.17,422.01 552.44,397.37"];
	2 -- 9	[pos="637.56,491.64 637.43,484.29 637.28,475.81 637.15,468.46"];
	2 -- 12	[pos="610.86,510.52 590.12,511.11 561.59,511.91 540.75,512.5"];
	2 -- 19	[pos="619.18,496.55 596.7,480.67 559.21,454.18 536.78,438.35"];
	3	[height=0.5,
		pos="507.11,601.3",
		width=0.75];
	2 -- 3	[pos="619.14,522.87 594.28,540.27 550.65,570.82 525.81,588.21"];
	8	[height=0.5,
		pos="572.52,657.09",
		width=0.75];
	2 -- 8	[pos="630.13,527.23 617.55,555.59 592.83,611.29 580.26,639.63"];
	15	[height=0.5,
		pos="644.71,553.93",
		width=0.75];
	2 -- 15	[pos="640.66,527.72 641.07,530.4 641.5,533.16 641.91,535.83"];
	46	[height=0.5,
		pos="911.59,354.48",
		width=0.75];
	2 -- 46	[pos="658.45,498.08 709.18,469.31 839.8,395.21 890.78,366.29"];
	48	[height=0.5,
		pos="780.15,246.74",
		width=0.75];
	2 -- 48	[pos="647.22,492.5 673.06,444.73 745.31,311.16 770.97,263.72"];
	49	[height=0.5,
		pos="352.41,536.65",
		width=0.75];
	2 -- 49	[pos="611.02,512.28 556.62,517.41 433.92,528.97 379.4,534.11"];
	50	[height=0.5,
		pos="910.31,510.21",
		width=0.75];
	2 -- 50	[pos="665,509.8 717.22,509.89 831.17,510.08 883.3,510.17"];
	52	[height=0.5,
		pos="870.01,635.08",
		width=0.75];
	2 -- 52	[pos="658.89,521.1 702.97,544.9 804.69,599.82 848.88,623.68"];
	53	[height=0.5,
		pos="409.7,222.88",
		width=0.75];
	2 -- 53	[pos="624.96,493.51 584.8,443.01 462.45,289.19 422.48,238.94"];
	14	[height=0.5,
		pos="698.89,462.54",
		width=0.75];
	2 -- 14	[pos="655.53,496.1 663.55,489.89 673.03,482.55 681.07,476.33"];
	55	[height=0.5,
		pos="609.14,205.51",
		width=0.75];
	2 -- 55	[pos="636.17,491.63 631.06,437.52 615.94,277.53 610.84,223.54"];
	17	[height=0.5,
		pos="822.92,491.41",
		width=0.75];
	2 -- 17	[pos="664.79,507.09 699.87,503.61 760.88,497.56 795.98,494.08"];
	57	[height=0.5,
		pos="553.88,816.07",
		width=0.75];
	2 -- 57	[pos="633,527.55 618.15,581.69 573.64,744.03 558.77,798.23"];
	23	[height=0.5,
		pos="98.534,583.12",
		width=0.75];
	22 -- 23	[pos="105.89,255.33 104.55,314.96 100.29,504.79 98.946,564.77"];
	6 -- 7	[pos="535.46,399.07 526.56,432.82 507.38,505.6 498.47,539.38"];
	6 -- 9	[pos="558.8,394.57 575.92,406.83 601.15,424.9 618.25,437.15"];
	36	[height=0.5,
		pos="345.33,397.58",
		width=0.75];
	6 -- 36	[pos="513.07,383.5 475.85,386.62 409.29,392.21 372.19,395.33"];
	6 -- 17	[pos="563.78,390.43 617.14,411.22 746.46,461.62 799.57,482.31"];
	10	[height=0.5,
		pos="633.02,598.2",
		width=0.75];
	6 -- 10	[pos="547.6,398.61 564.99,439.24 608.12,540.02 625.54,580.73"];
	75	[height=0.5,
		pos="862.7,266.39",
		width=0.75];
	6 -- 75	[pos="564.14,372.68 623.85,351.42 778.68,296.3 838.56,274.98"];
	103	[height=0.5,
		pos="386.77,484.07",
		width=0.75];
	6 -- 103	[pos="521.04,394.04 491.65,413.75 435.67,451.29 406.13,471.09"];
	104	[height=0.5,
		pos="862.9,398.51",
		width=0.75];
	6 -- 104	[pos="567.12,382.66 627.87,385.92 774.9,393.79 835.79,397.06"];
	105	[height=0.5,
		pos="509.13,337.21",
		width=0.75];
	6 -- 105	[pos="528.6,364.83 526.05,361.22 523.35,357.38 520.8,353.76"];
	106	[height=0.5,
		pos="347.65,205.47",
		width=0.75];
	6 -- 106	[pos="524.08,366.54 487.84,333.46 400.14,253.39 363.82,220.23"];
	107	[height=0.5,
		pos="671.3,200.48",
		width=0.75];
	6 -- 107	[pos="552.03,364.86 576.93,330.54 634.4,251.34 659.36,216.93"];
	108	[height=0.5,
		pos="673.97,337.74",
		width=0.75];
	6 -- 108	[pos="564.7,373.24 588.85,365.4 625.49,353.49 649.58,345.66"];
	109	[height=0.5,
		pos="584.1,285.25",
		width=0.75];
	6 -- 109	[pos="548.22,363.62 556.15,346.3 568.18,320.02 576.09,302.74"];
	110	[height=0.5,
		pos="163.77,281.44",
		width=0.75];
	6 -- 110	[pos="514.88,374.52 446.31,356.34 257.38,306.25 188.94,288.11"];
	112	[height=0.5,
		pos="503.57,18",
		width=0.75];
	6 -- 112	[pos="538.35,363.21 532.12,301.37 511.64,98.125 505.4,36.121"];
	63	[height=0.5,
		pos="285.58,185.9",
		width=0.75];
	6 -- 63	[pos="522.26,367.49 475.52,331.62 350.18,235.46 303.46,199.62"];
	7 -- 12	[pos="501.5,539.89 502.87,536.81 504.3,533.61 505.67,530.54"];
	7 -- 19	[pos="497.1,539.2 501.79,513.91 510.24,468.27 514.91,443.1"];
	37	[height=0.5,
		pos="365.34,737.23",
		width=0.75];
	7 -- 37	[pos="482.13,573.57 457.74,607.74 401.47,686.6 377.03,720.85"];
	7 -- 49	[pos="467.17,553.4 441.9,549.71 404.11,544.2 378.88,540.52"];
	64	[height=0.5,
		pos="258.84,650.53",
		width=0.75];
	7 -- 64	[pos="470.37,566.56 425.34,584.44 327.08,623.44 282.13,641.29"];
	7 -- 10	[pos="518.65,564.6 543.85,572 582.59,583.38 607.87,590.81"];
	11	[height=0.5,
		pos="783.35,631.13",
		width=0.75];
	7 -- 11	[pos="519.2,563.77 574.13,577.78 703.28,610.71 758.07,624.68"];
	89	[height=0.5,
		pos="519.61,293.19",
		width=0.75];
	7 -- 89	[pos="495.53,539.13 500.26,490.88 513.08,359.86 517.82,311.47"];
	114	[height=0.5,
		pos="325.25,832.83",
		width=0.75];
	7 -- 114	[pos="483.47,574.1 453.38,623.3 365.8,766.52 335.62,815.88"];
	115	[height=0.5,
		pos="506.27,645.34",
		width=0.75];
	7 -- 115	[pos="496.35,575.53 498.51,590.74 501.57,612.29 503.72,627.42"];
	116	[height=0.5,
		pos="178.66,345.63",
		width=0.75];
	7 -- 116	[pos="474.52,544.36 418.27,506.57 254.49,396.56 198.05,358.65"];
	117	[height=0.5,
		pos="83.191,539.12",
		width=0.75];
	7 -- 117	[pos="466.5,556.08 391.82,552.77 184.52,543.6 110.17,540.31"];
	119	[height=0.5,
		pos="472.57,715.07",
		width=0.75];
	7 -- 119	[pos="491.32,575.38 487.26,605.66 479.12,666.24 475.04,696.7"];
	120	[height=0.5,
		pos="52.56,465.22",
		width=0.75];
	7 -- 120	[pos="467.8,551.87 389.58,535.54 156.66,486.94 78.479,470.63"];
	122	[height=0.5,
		pos="745.91,675.22",
		width=0.75];
	7 -- 122	[pos="516.13,567.75 563.98,590.13 675.77,642.42 723.58,664.78"];
	123	[height=0.5,
		pos="177.25,753",
		width=0.75];
	7 -- 123	[pos="473.96,569.52 417.25,604.59 254.65,705.14 197.45,740.51"];
	77	[height=0.5,
		pos="463.45,878.86",
		width=0.75];
	7 -- 77	[pos="492.04,575.49 486.7,632.09 470.45,804.52 465.15,860.85"];
	9 -- 12	[pos="615.33,461.4 592.8,472.86 557.62,490.76 535.03,502.25"];
	9 -- 16	[pos="611.97,458 607.93,459.22 603.74,460.49 599.7,461.72"];
	9 -- 15	[pos="638.21,468.48 639.64,487.36 641.89,516.84 643.33,535.77"];
	9 -- 14	[pos="662.79,455.51 666.11,456.16 669.52,456.82 672.84,457.47"];
	9 -- 10	[pos="636.37,468.58 635.63,496.93 634.23,551.49 633.49,579.94"];
	9 -- 115	[pos="625.7,467.08 601.04,503.89 542.02,591.99 517.37,628.77"];
	135	[height=0.5,
		pos="847.79,543.68",
		width=0.75];
	9 -- 135	[pos="659.41,460.44 699.91,478.33 784.45,515.69 825.06,533.63"];
	136	[height=0.5,
		pos="364.78,272.21",
		width=0.75];
	9 -- 136	[pos="617.27,437.64 567.07,404.75 434.17,317.67 384.17,284.91"];
	137	[height=0.5,
		pos="908.28,310.46",
		width=0.75];
	9 -- 137	[pos="658.59,439.24 709.54,412.96 836.12,347.68 886.8,321.54"];
	139	[height=0.5,
		pos="284.6,601.24",
		width=0.75];
	9 -- 139	[pos="613.99,460.24 550.27,487.52 371.05,564.24 307.39,591.49"];
	140	[height=0.5,
		pos="435.55,178.87",
		width=0.75];
	9 -- 140	[pos="624.85,434.29 589.13,386.09 483.69,243.83 447.73,195.3"];
	66	[height=0.5,
		pos="241.75,389.29",
		width=0.75];
	9 -- 66	[pos="610.3,446.35 538.32,435.21 340.01,404.51 268.17,393.39"];
	29	[height=0.5,
		pos="964.53,425.95",
		width=0.75];
	28 -- 29	[pos="440.54,117.28 526.33,167.82 858.1,363.25 944.08,413.9"];
	12 -- 13	[pos="506.17,495.74 495.81,470.48 476.81,424.12 466.43,398.82"];
	12 -- 16	[pos="531.8,500.07 539.58,494.5 548.62,488.03 556.4,482.46"];
	12 -- 19	[pos="514.37,495.03 515.2,479.92 516.38,458.56 517.21,443.45"];
	40	[height=0.5,
		pos="324.58,645.63",
		width=0.75];
	12 -- 40	[pos="494.57,526.45 458.38,551.82 379.42,607.18 343.3,632.51"];
	12 -- 15	[pos="538.06,520.92 561.55,528.19 596.67,539.06 620.12,546.32"];
	18	[height=0.5,
		pos="444.23,671.07",
		width=0.75];
	12 -- 18	[pos="505.7,530.77 492.41,561.1 465.24,623.11 451.93,653.5"];
	12 -- 14	[pos="538.38,506.43 573.79,496.75 638.16,479.15 673.67,469.44"];
	80	[height=0.5,
		pos="785.73,541.7",
		width=0.75];
	12 -- 80	[pos="540.47,516.11 592.68,521.56 706.61,533.44 758.73,538.88"];
	12 -- 105	[pos="512.92,495.1 512.11,461.27 510.37,389.04 509.56,355.29"];
	161	[height=0.5,
		pos="746.16,722.19",
		width=0.75];
	12 -- 161	[pos="529.73,527.97 572.47,566.33 687.08,669.18 729.81,707.52"];
	68	[height=0.5,
		pos="151.53,407.04",
		width=0.75];
	12 -- 68	[pos="488.49,505.98 422.39,486.57 242.88,433.86 176.58,414.4"];
	127	[height=0.5,
		pos="365.54,788.79",
		width=0.75];
	12 -- 127	[pos="504.11,530.51 477.57,579.99 401.32,722.09 374.78,771.57"];
	145	[height=0.5,
		pos="302.8,746.97",
		width=0.75];
	12 -- 145	[pos="499.22,528.97 460.86,571.55 355.17,688.85 316.88,731.34"];
	150	[height=0.5,
		pos="808.28,722.37",
		width=0.75];
	12 -- 150	[pos="532.26,526.68 585.53,564.44 736.47,671.45 789.54,709.08"];
	13 -- 16	[pos="477.03,394.78 498.69,411.27 535.05,438.96 556.81,455.53"];
	13 -- 19	[pos="477.24,394.66 484.42,400.02 492.68,406.18 499.9,411.56"];
	13 -- 15	[pos="475.03,395.94 510.07,428.57 593.93,506.64 628.94,539.24"];
	81	[height=0.5,
		pos="756.24,299.01",
		width=0.75];
	13 -- 81	[pos="484.28,374.27 540.23,358.79 674.75,321.57 730.93,306.02"];
	94	[height=0.5,
		pos="550.92,93.054",
		width=0.75];
	13 -- 94	[pos="464.95,363.19 481.46,311.31 528.94,162.11 545.3,110.71"];
	13 -- 106	[pos="448.52,364.36 427.19,330.77 379.61,255.82 358.32,222.27"];
	13 -- 116	[pos="432.57,377.83 379.09,371.05 259.21,355.85 205.54,349.04"];
	128	[height=0.5,
		pos="222.6,595.64",
		width=0.75];
	13 -- 128	[pos="442.95,395.95 399.62,435.22 281.76,542.02 238.66,581.08"];
	13 -- 136	[pos="445.68,365.59 427.73,344.87 396.23,308.5 378.29,287.8"];
	146	[height=0.5,
		pos="324.73,441.63",
		width=0.75];
	13 -- 146	[pos="436.7,391.32 411.88,402.48 372.17,420.32 347.31,431.48"];
	163	[height=0.5,
		pos="355.1,97.818",
		width=0.75];
	13 -- 163	[pos="452.7,363.48 434,312.59 380.3,166.42 361.61,115.54"];
	165	[height=0.5,
		pos="733.19,89.614",
		width=0.75];
	13 -- 165	[pos="473.56,365.95 520.79,315.67 671.15,155.64 718.66,105.08"];
	167	[height=0.5,
		pos="123.28,495.09",
		width=0.75];
	13 -- 167	[pos="435.05,389.4 373.22,410.36 209.75,465.77 147.67,486.82"];
	54	[height=0.5,
		pos="179.03,205.31",
		width=0.75];
	13 -- 54	[pos="439.51,368.84 388.07,336.55 250.13,249.95 198.71,217.67"];
	152	[height=0.5,
		pos="482.3,134.85",
		width=0.75];
	13 -- 152	[pos="460.91,363.1 465.18,317.54 476.33,198.58 480.6,152.99"];
	16 -- 19	[pos="557.23,455.57 550.48,450.32 542.77,444.33 536,439.06"];
	42	[height=0.5,
		pos="386.61,624.7",
		width=0.75];
	16 -- 42	[pos="557.8,483.33 522.05,512.84 439.57,580.96 403.74,610.55"];
	16 -- 18	[pos="563.92,486.12 539.28,524.2 479.55,616.5 455.02,654.4"];
	16 -- 109	[pos="575.75,450.94 577.53,415.67 581.41,338.7 583.18,303.49"];
	131	[height=0.5,
		pos="593.17,745.99",
		width=0.75];
	16 -- 131	[pos="576.04,487.41 579.36,537.56 588.64,677.54 591.97,727.77"];
	169	[height=0.5,
		pos="807.84,354.49",
		width=0.75];
	16 -- 169	[pos="596.75,458.46 641.16,436.59 741.31,387.26 785.81,365.34"];
	56	[height=0.5,
		pos="733.38,189.58",
		width=0.75];
	16 -- 56	[pos="584.51,452.18 612.88,402.14 695.62,256.19 723.83,206.43"];
	98	[height=0.5,
		pos="606.65,160.83",
		width=0.75];
	16 -- 98	[pos="576.73,450.89 582.39,396.03 599.12,233.83 604.76,179.1"];
	121	[height=0.5,
		pos="116.63,330.5",
		width=0.75];
	16 -- 121	[pos="550.2,461.8 470.64,437.7 221.12,362.14 141.39,338"];
	157	[height=0.5,
		pos="852.21,588.03",
		width=0.75];
	16 -- 157	[pos="598,479.18 650.35,501.59 777.21,555.91 829.3,578.22"];
	33	[height=0.5,
		pos="920.46,213.93",
		width=0.75];
	32 -- 33	[pos="666.39,77.187 717.62,104.76 847.95,174.9 899.25,202.52"];
	102	[height=0.5,
		pos="544.61,183.13",
		width=0.75];
	19 -- 102	[pos="520.2,407.04 525.11,362.06 537.75,246.06 542.64,201.21"];
	134	[height=0.5,
		pos="330.23,690.78",
		width=0.75];
	19 -- 134	[pos="506.46,441.84 472.7,489.53 375.74,626.5 341.98,674.18"];
	148	[height=0.5,
		pos="414.43,577.42",
		width=0.75];
	19 -- 148	[pos="506.91,441.81 486.95,471.08 445.67,531.6 425.72,560.86"];
	160	[height=0.5,
		pos="751.64,399.79",
		width=0.75];
	19 -- 160	[pos="544.99,422.31 589.9,417.42 679.88,407.61 724.82,402.71"];
	173	[height=0.5,
		pos="187.56,500.76",
		width=0.75];
	19 -- 173	[pos="492.55,431.1 430.94,445.17 275.26,480.73 213.44,494.85"];
	45	[height=0.5,
		pos="27,350.44",
		width=0.75];
	19 -- 45	[pos="491.81,421.21 406.52,408.22 139.02,367.49 53.541,354.48"];
	88	[height=0.5,
		pos="669.17,127.07",
		width=0.75];
	19 -- 88	[pos="526.99,407.91 553.66,355.22 633.66,197.2 660.37,144.44"];
	113	[height=0.5,
		pos="303.04,141.86",
		width=0.75];
	19 -- 113	[pos="505.72,408.77 467.6,358.57 353.11,207.8 315.3,158.01"];
	141	[height=0.5,
		pos="241.37,238.23",
		width=0.75];
	19 -- 141	[pos="499.19,412.38 448.61,378.22 311.26,285.43 260.54,251.17"];
	172	[height=0.5,
		pos="795.59,202.68",
		width=0.75];
	19 -- 172	[pos="535.57,411.31 585.38,371.34 728.44,256.56 778.25,216.6"];
	1	[height=0.5,
		pos="569.15,604.6",
		width=0.75];
	1 -- 2	[pos="581.12,588.08 593.74,570.67 613.48,543.42 626.05,526.08"];
	1 -- 9	[pos="576.78,587.21 589.78,557.61 616.07,497.74 629.13,468.02"];
	1 -- 13	[pos="560.7,587.44 540.24,545.86 488.18,440.07 467.69,398.43"];
	1 -- 3	[pos="542.12,603.16 539.51,603.02 536.85,602.88 534.24,602.74"];
	4	[height=0.5,
		pos="760.9,482.09",
		width=0.75];
	1 -- 4	[pos="588.95,591.95 625.79,568.41 704.45,518.15 741.21,494.67"];
	35	[height=0.5,
		pos="672.28,381.78",
		width=0.75];
	1 -- 35	[pos="577.24,587.11 596.52,545.46 644.99,440.76 664.23,399.19"];
	1 -- 36	[pos="553.05,589.71 511.76,551.51 402.42,450.38 361.28,412.34"];
	1 -- 37	[pos="549.61,617.31 510.65,642.66 423.73,699.23 384.82,724.55"];
	1 -- 8	[pos="570.31,622.66 570.64,627.88 571.01,633.58 571.34,638.81"];
	38	[height=0.5,
		pos="428.81,807.15",
		width=0.75];
	1 -- 38	[pos="557.66,621.17 531.28,659.25 466.6,752.61 440.26,790.63"];
	39	[height=0.5,
		pos="678.55,892.18",
		width=0.75];
	1 -- 39	[pos="575.83,622.15 595.36,673.49 652.22,822.98 671.82,874.49"];
	1 -- 40	[pos="542.51,609.06 495.34,616.98 397.7,633.36 350.82,641.23"];
	41	[height=0.5,
		pos="660.92,689.39",
		width=0.75];
	1 -- 41	[pos="585.13,619.37 601.98,634.93 628.34,659.29 645.12,674.79"];
	1 -- 15	[pos="588.22,591.81 599.67,584.13 614.2,574.39 625.65,566.71"];
	1 -- 42	[pos="542.21,607.56 507.6,611.37 447.88,617.95 413.35,621.75"];
	43	[height=0.5,
		pos="808,678.16",
		width=0.75];
	1 -- 43	[pos="593.81,612.19 639.7,626.32 737.69,656.5 783.48,670.6"];
	1 -- 18	[pos="547.96,615.87 524.99,628.09 488.54,647.49 465.53,659.74"];
	44	[height=0.5,
		pos="240.58,749.14",
		width=0.75];
	1 -- 44	[pos="546.56,614.53 486.54,640.94 323.53,712.65 263.33,739.13"];
	1 -- 21	[pos="542.02,604.58 467.79,604.52 261.89,604.38 187.67,604.33"];
	3 -- 13	[pos="503.19,583.29 494.19,541.92 472.11,440.48 463.12,399.16"];
	3 -- 16	[pos="515.96,584.04 528.94,558.73 553,511.83 565.98,486.52"];
	3 -- 19	[pos="508.26,583.12 510.39,549.29 514.95,477.06 517.08,443.31"];
	3 -- 8	[pos="523.95,615.67 533.64,623.93 545.78,634.29 555.5,642.58"];
	59	[height=0.5,
		pos="695.07,631.19",
		width=0.75];
	3 -- 59	[pos="533.64,605.52 569.46,611.22 632.92,621.3 668.68,626.99"];
	60	[height=0.5,
		pos="240.71,311.64",
		width=0.75];
	3 -- 60	[pos="492.79,585.73 446.53,535.43 301.46,377.69 255.11,327.29"];
	62	[height=0.5,
		pos="89.061,374.53",
		width=0.75];
	3 -- 62	[pos="486.09,589.9 414.65,551.14 181.63,424.74 110.12,385.96"];
	3 -- 64	[pos="481.01,606.48 433.33,615.93 332.66,635.89 284.97,645.35"];
	65	[height=0.5,
		pos="206.92,694.9",
		width=0.75];
	3 -- 65	[pos="482.54,608.96 426.11,626.56 287.76,669.7 231.41,687.27"];
	3 -- 10	[pos="534.12,600.64 555.22,600.12 584.42,599.4 605.62,598.87"];
	3 -- 11	[pos="533.85,604.19 586.66,609.89 703.78,622.54 756.6,628.24"];
	67	[height=0.5,
		pos="184.35,648.56",
		width=0.75];
	3 -- 67	[pos="480.7,605.17 420.17,614.03 272.01,635.73 211.13,644.64"];
	69	[height=0.5,
		pos="534.62,701.97",
		width=0.75];
	3 -- 69	[pos="512.03,619.3 517.04,637.62 524.75,665.86 529.74,684.13"];
	70	[height=0.5,
		pos="427.56,759.08",
		width=0.75];
	3 -- 70	[pos="498.45,618.49 483.14,648.84 451.51,711.58 436.22,741.91"];
	71	[height=0.5,
		pos="534.93,907.44",
		width=0.75];
	3 -- 71	[pos="508.77,619.53 513.71,673.98 528.34,834.98 533.28,889.31"];
	73	[height=0.5,
		pos="263.21,816.48",
		width=0.75];
	3 -- 73	[pos="490.73,615.75 446.3,654.95 323.87,762.96 279.52,802.09"];
	3 -- 23	[pos="479.99,600.09 405.75,596.79 199.87,587.63 125.65,584.33"];
	4 -- 24	[pos="754.1,464.62 737.35,421.54 694.21,310.6 677.37,267.31"];
	4 -- 9	[pos="735.49,475.61 714.08,470.15 683.61,462.38 662.21,456.93"];
	4 -- 16	[pos="733.84,480.22 698.57,477.79 637.21,473.56 601.92,471.12"];
	4 -- 59	[pos="753.22,499.48 740.54,528.21 715.36,585.25 702.7,613.9"];
	4 -- 10	[pos="744.7,496.79 720.11,519.13 673.6,561.35 649.08,583.61"];
	4 -- 11	[pos="763.61,500.07 767.92,528.71 776.31,584.4 780.64,613.09"];
	5	[height=0.5,
		pos="648.14,293.68",
		width=0.75];
	4 -- 5	[pos="750.89,465.37 729.55,429.7 679.75,346.5 658.28,310.63"];
	4 -- 75	[pos="769.06,464.8 788.12,424.41 835.4,324.23 854.5,283.76"];
	76	[height=0.5,
		pos="981.32,713.86",
		width=0.75];
	4 -- 76	[pos="775.36,497.29 815.3,539.29 926.8,656.54 966.81,698.6"];
	78	[height=0.5,
		pos="1068.7,673.26",
		width=0.75];
	4 -- 78	[pos="781.1,494.63 837.01,529.35 993.34,626.44 1048.9,660.92"];
	4 -- 80	[pos="768.22,499.65 771.42,507.34 775.17,516.35 778.38,524.06"];
	4 -- 81	[pos="760.44,463.86 759.54,428.77 757.6,352.2 756.7,317.16"];
	82	[height=0.5,
		pos="902.24,460.01",
		width=0.75];
	4 -- 82	[pos="787.49,477.93 812.76,473.99 850.55,468.08 875.78,464.14"];
	83	[height=0.5,
		pos="1031.9,426.96",
		width=0.75];
	4 -- 83	[pos="786.88,476.8 838.68,466.26 954.25,442.75 1006,432.23"];
	85	[height=0.5,
		pos="991.46,514.97",
		width=0.75];
	4 -- 85	[pos="787.35,485.86 831.7,492.18 920.58,504.86 964.97,511.19"];
	86	[height=0.5,
		pos="721.2,766.2",
		width=0.75];
	4 -- 86	[pos="758.36,500.29 751.18,551.61 730.87,697.01 723.72,748.14"];
	87	[height=0.5,
		pos="924.86,261.11",
		width=0.75];
	4 -- 87	[pos="772.96,465.84 803.28,424.97 882.44,318.28 912.78,277.39"];
	47	[height=0.5,
		pos="1034.4,470.96",
		width=0.75];
	4 -- 47	[pos="788.12,480.98 840.55,478.85 954.94,474.19 1007.3,472.07"];
	8 -- 26	[pos="547.6,649.68 481.38,629.98 301.55,576.5 235.13,556.74"];
	8 -- 9	[pos="578.11,639.11 590.31,599.94 619.16,507.25 631.3,468.25"];
	8 -- 10	[pos="587.78,642.23 596.89,633.37 608.41,622.15 617.55,613.26"];
	90	[height=0.5,
		pos="822.92,442.53",
		width=0.75];
	8 -- 90	[pos="589.33,642.68 634.95,603.59 760.64,495.89 806.18,456.88"];
	8 -- 103	[pos="556.68,642.34 521.59,609.65 437.62,531.44 402.57,498.79"];
	8 -- 114	[pos="553.93,670.3 508.11,702.87 390.1,786.74 344.05,819.47"];
	125	[height=0.5,
		pos="743.96,925.27",
		width=0.75];
	8 -- 125	[pos="583.24,673.86 614.03,722.03 702.46,860.35 733.24,908.5"];
	126	[height=0.5,
		pos="404.95,957.19",
		width=0.75];
	8 -- 126	[pos="563.03,674.08 533.6,726.78 444.11,887.06 414.55,940.01"];
	8 -- 128	[pos="546.22,652.47 481.21,641.05 313.55,611.61 248.73,600.22"];
	129	[height=0.5,
		pos="666.03,810.21",
		width=0.75];
	8 -- 129	[pos="582.7,673.77 600.6,703.07 637.49,763.47 655.57,793.08"];
	130	[height=0.5,
		pos="615.93,854.26",
		width=0.75];
	8 -- 130	[pos="576.45,674.93 584.69,712.38 603.72,798.78 611.98,836.31"];
	8 -- 131	[pos="576.7,675.08 580.28,690.5 585.42,712.61 589,728.03"];
	132	[height=0.5,
		pos="870.52,761.12",
		width=0.75];
	8 -- 132	[pos="596.65,665.51 652.63,685.06 790.78,733.29 846.58,752.76"];
	133	[height=0.5,
		pos="333.69,876.86",
		width=0.75];
	8 -- 133	[pos="556.47,671.85 512.97,711.89 393.09,822.2 349.66,862.16"];
	8 -- 134	[pos="545.66,660.82 498.96,667.32 403.35,680.61 356.83,687.08"];
	79	[height=0.5,
		pos="693.11,980.25",
		width=0.75];
	8 -- 79	[pos="579.17,674.92 600.26,731.42 665.42,906.05 686.48,962.47"];
	15 -- 31	[pos="624.41,541.81 563.78,505.6 384.53,398.57 324.04,362.45"];
	15 -- 16	[pos="631.57,538 619.07,522.86 600.39,500.23 587.92,485.11"];
	15 -- 19	[pos="629.7,538.66 605.36,513.89 557.54,465.24 533.2,440.48"];
	15 -- 18	[pos="624.38,565.81 585.96,588.26 503.08,636.68 464.61,659.16"];
	15 -- 17	[pos="668.74,545.5 702.85,533.53 764.93,511.76 798.98,499.81"];
	15 -- 70	[pos="629.09,568.68 589.13,606.44 483.46,706.27 443.33,744.18"];
	96	[height=0.5,
		pos="846.08,310.43",
		width=0.75];
	15 -- 96	[pos="657.92,537.95 694.41,493.83 796.28,370.65 832.82,326.46"];
	15 -- 108	[pos="647.16,535.87 652.66,495.17 665.99,396.69 671.51,355.9"];
	15 -- 119	[pos="628.82,568.8 596.03,599.5 521.18,669.57 488.42,700.24"];
	15 -- 130	[pos="642.95,572.26 637.8,626.01 622.79,782.73 617.67,836.16"];
	147	[height=0.5,
		pos="657.1,738.07",
		width=0.75];
	15 -- 147	[pos="645.92,571.92 648.29,607.12 653.51,684.75 655.88,720.01"];
	84	[height=0.5,
		pos="949.81,558.97",
		width=0.75];
	15 -- 84	[pos="671.79,554.38 729.68,555.33 864.95,557.57 922.79,558.53"];
	155	[height=0.5,
		pos="807.18,829.1",
		width=0.75];
	15 -- 155	[pos="654.63,570.73 683.63,619.85 768.08,762.88 797.18,812.17"];
	18 -- 34	[pos="427.21,656.63 380.07,616.67 248.29,504.95 201.49,465.27"];
	18 -- 86	[pos="468.33,679.34 520.71,697.33 644.45,739.84 696.96,757.87"];
	101	[height=0.5,
		pos="375.29,353.53",
		width=0.75];
	18 -- 101	[pos="440.33,653.08 428.22,597.33 391.4,427.73 379.24,371.7"];
	18 -- 133	[pos="435,688.26 414.14,727.09 363.58,821.21 342.82,859.86"];
	18 -- 139	[pos="421.36,661.06 391.02,647.79 337.76,624.49 307.43,611.23"];
	159	[height=0.5,
		pos="616.33,933.93",
		width=0.75];
	18 -- 159	[pos="455.26,687.91 486.34,735.39 574.42,869.92 605.39,917.23"];
	18 -- 167	[pos="423.17,659.52 365.02,627.63 202.66,538.61 144.41,506.68"];
	168	[height=0.5,
		pos="491.59,790.46",
		width=0.75];
	18 -- 168	[pos="451.22,688.68 460.17,711.26 475.61,750.16 484.57,772.77"];
	170	[height=0.5,
		pos="744.92,827.3",
		width=0.75];
	18 -- 170	[pos="465.86,682.3 521.34,711.13 668.23,787.45 723.49,816.16"];
	18 -- 173	[pos="424.94,658.27 377.26,626.63 254.28,545.03 206.73,513.48"];
	58	[height=0.5,
		pos="337.06,920.88",
		width=0.75];
	18 -- 58	[pos="436.7,688.63 417.02,734.5 364.26,857.49 344.59,903.33"];
	74	[height=0.5,
		pos="271.64,905.38",
		width=0.75];
	18 -- 74	[pos="432.1,687.54 400.41,730.57 315.44,845.92 283.76,888.92"];
	111	[height=0.5,
		pos="113.38,648.53",
		width=0.75];
	18 -- 111	[pos="417.16,669.22 354.96,664.99 202.47,654.6 140.36,650.37"];
	124	[height=0.5,
		pos="209.58,862.28",
		width=0.75];
	18 -- 124	[pos="426.98,685.13 383.58,720.49 270.28,812.82 226.86,848.2"];
	44 -- 45	[pos="231.41,732.01 196.35,666.57 71.137,432.83 36.143,367.5"];
	46 -- 47	[pos="927.14,369.24 950.63,391.52 994.93,433.53 1018.6,455.96"];
	51	[height=0.5,
		pos="801.51,783.19",
		width=0.75];
	50 -- 51	[pos="903.34,527.7 883.73,576.89 828.26,716.05 808.56,765.49"];
	53 -- 54	[pos="382.79,220.83 338.46,217.45 250.58,210.76 206.13,207.38"];
	14 -- 30	[pos="681.54,448.47 637.01,412.37 519.13,316.81 474.77,280.85"];
	14 -- 16	[pos="671.97,464 651.31,465.12 622.89,466.65 602.13,467.78"];
	14 -- 19	[pos="673.01,457.19 638.66,450.1 578.38,437.65 544.06,430.57"];
	14 -- 41	[pos="695.85,480.72 688.72,523.3 671.02,629.08 663.93,671.44"];
	14 -- 15	[pos="688.95,479.3 679.24,495.69 664.52,520.51 654.77,536.96"];
	14 -- 17	[pos="724.59,468.52 745.88,473.48 775.98,480.48 797.26,485.44"];
	14 -- 69	[pos="687.6,479 657.59,522.74 576.09,641.53 545.99,685.4"];
	14 -- 82	[pos="725.9,462.2 764.79,461.72 836.17,460.83 875.13,460.35"];
	95	[height=0.5,
		pos="858.36,222.09",
		width=0.75];
	14 -- 95	[pos="709.85,446.01 738.98,402.09 818.1,282.79 847.32,238.73"];
	14 -- 107	[pos="697,444.53 691.95,396.65 678.26,266.64 673.21,218.62"];
	14 -- 129	[pos="697.17,480.74 691.49,540.82 673.39,732.37 667.73,792.19"];
	153	[height=0.5,
		pos="932.03,603.02",
		width=0.75];
	14 -- 153	[pos="719.17,474.76 763.38,501.39 867.95,564.41 911.96,590.92"];
	14 -- 168	[pos="688.33,479.25 652.77,535.5 537.66,717.58 502.13,773.78"];
	118	[height=0.5,
		pos="302.77,304.34",
		width=0.75];
	14 -- 118	[pos="675.59,453.23 605.36,425.18 396.24,341.67 326.04,313.63"];
	164	[height=0.5,
		pos="768.59,136.88",
		width=0.75];
	14 -- 164	[pos="702.74,444.57 714.92,387.63 752.59,211.65 764.76,154.79"];
	55 -- 56	[pos="635.79,202.1 656.75,199.41 685.82,195.68 706.77,192.99"];
	17 -- 43	[pos="821.46,509.66 818.6,545.45 812.29,624.48 809.45,660.11"];
	17 -- 85	[pos="849.63,495.14 881.18,499.55 933.38,506.85 964.88,511.25"];
	17 -- 122	[pos="815.54,509.04 800.82,544.17 767.97,622.56 753.27,657.65"];
	17 -- 132	[pos="826.12,509.53 834.79,558.66 858.68,694.04 867.34,743.09"];
	158	[height=0.5,
		pos="994.09,620.38",
		width=0.75];
	17 -- 158	[pos="840.92,504.97 873.79,529.74 943.2,582.03 976.08,606.81"];
	17 -- 169	[pos="820.92,473.23 818.03,447.04 812.74,398.98 809.85,372.74"];
	17 -- 170	[pos="818.73,509.47 805.18,567.79 762.71,750.7 749.14,809.15"];
	171	[height=0.5,
		pos="1043,382.94",
		width=0.75];
	17 -- 171	[pos="844.83,480.61 887.02,459.82 979.09,414.45 1021.2,393.69"];
	17 -- 33	[pos="829.17,473.63 846.79,423.51 896.71,281.5 914.26,231.56"];
	72	[height=0.5,
		pos="1050.1,718.03",
		width=0.75];
	17 -- 72	[pos="838.18,506.63 879.56,547.92 993.58,661.67 1034.9,702.87"];
	100	[height=0.5,
		pos="1049.3,338.9",
		width=0.75];
	17 -- 100	[pos="842.22,478.41 884.99,449.59 987.31,380.65 1030,351.87"];
	138	[height=0.5,
		pos="1075.6,515.01",
		width=0.75];
	17 -- 138	[pos="849.97,493.94 898.61,498.48 1000.3,507.97 1048.8,512.5"];
	162	[height=0.5,
		pos="1056.1,608.39",
		width=0.75];
	17 -- 162	[pos="844.86,502.42 889.42,524.77 990.05,575.25 1034.4,597.5"];
	166	[height=0.5,
		pos="986.97,297.82",
		width=0.75];
	17 -- 166	[pos="836.35,475.57 867.18,439.18 942.79,349.95 973.59,313.61"];
	57 -- 58	[pos="531.9,826.7 490.34,846.79 400.7,890.12 359.1,910.23"];
	61	[height=0.5,
		pos="670.83,21.787",
		width=0.75];
	60 -- 61	[pos="259.75,298.81 330.8,250.93 580.03,82.975 651.53,34.797"];
	62 -- 63	[pos="104.48,359.73 141.13,324.56 233.11,236.26 269.96,200.89"];
	65 -- 66	[pos="209,676.7 215.19,622.35 233.51,461.63 239.69,407.4"];
	10 -- 27	[pos="608.04,591.27 543.48,573.37 371.59,525.71 306.91,507.77"];
	10 -- 16	[pos="625.17,580.81 614.07,556.2 593.88,511.47 582.74,486.78"];
	10 -- 38	[pos="618,613.56 580.15,652.3 481.16,753.59 443.57,792.05"];
	10 -- 18	[pos="609.49,607.28 573.22,621.28 504.04,647.98 467.76,661.99"];
	10 -- 14	[pos="641.36,581.02 653.96,555.07 677.73,506.13 690.41,480.01"];
	10 -- 17	[pos="653.7,586.57 690.23,566.03 765.75,523.56 802.26,503.03"];
	91	[height=0.5,
		pos="602.22,339.19",
		width=0.75];
	10 -- 91	[pos="630.85,579.99 625.2,532.43 610.03,404.92 604.38,357.39"];
	142	[height=0.5,
		pos="681.3,936.21",
		width=0.75];
	10 -- 142	[pos="635.62,616.37 644,675.06 670.29,859.13 678.69,917.94"];
	144	[height=0.5,
		pos="400.37,904.46",
		width=0.75];
	10 -- 144	[pos="620.51,614.67 580.02,667.97 452.83,835.4 412.66,888.28"];
	10 -- 146	[pos="611.34,587.19 554.74,558.44 402.96,481.36 346.38,452.63"];
	10 -- 147	[pos="636.12,616.2 640.74,643.06 649.39,693.33 654.01,720.14"];
	10 -- 148	[pos="606.22,595.65 564.26,591.66 483.54,583.99 441.45,579.99"];
	10 -- 51	[pos="647.1,613.65 678.81,648.48 755.56,732.75 787.35,767.65"];
	11 -- 39	[pos="776.32,648.66 757.22,696.22 704.62,827.26 685.56,874.72"];
	11 -- 52	[pos="810.3,632.36 820.63,632.83 832.42,633.37 842.78,633.84"];
	11 -- 104	[pos="789.46,613.26 804.31,569.86 842.13,459.26 856.88,416.12"];
	11 -- 125	[pos="780.95,649.09 773.92,701.6 753.44,854.49 746.39,907.17"];
	11 -- 135	[pos="795.47,614.68 806.99,599.05 824.22,575.66 835.72,560.05"];
	149	[height=0.5,
		pos="996.26,763.5",
		width=0.75];
	11 -- 149	[pos="803.38,643.58 844.07,668.88 935.93,725.99 976.44,751.18"];
	151	[height=0.5,
		pos="973.64,381.91",
		width=0.75];
	11 -- 151	[pos="795.84,614.78 830.4,569.51 927.04,442.95 961.36,398"];
	11 -- 153	[pos="809.59,626.17 836.68,621.05 878.71,613.1 905.8,607.98"];
	154	[height=0.5,
		pos="882.6,845.53",
		width=0.75];
	11 -- 154	[pos="791.48,648.68 810.13,688.98 855.87,787.8 874.5,828.05"];
	156	[height=0.5,
		pos="932.71,794.43",
		width=0.75];
	11 -- 156	[pos="797.68,646.79 826.3,678.08 890.25,748.01 918.65,779.06"];
	11 -- 158	[pos="810.47,629.75 850.94,627.68 926.67,623.82 967.08,621.76"];
	11 -- 159	[pos="773.9,648.28 744.5,701.57 654.94,863.94 625.68,916.97"];
	11 -- 160	[pos="780.87,612.98 774.94,569.73 760.03,461.02 754.12,417.86"];
	11 -- 29	[pos="797.27,615.37 831.08,577.08 917.21,479.53 950.81,441.48"];
	93	[height=0.5,
		pos="1068.5,562.07",
		width=0.75];
	11 -- 93	[pos="808.91,624.94 863.04,611.83 988.71,581.39 1042.9,568.27"];
	143	[height=0.5,
		pos="816.31,903.15",
		width=0.75];
	11 -- 143	[pos="785.57,649.4 791.57,698.95 808.11,835.5 814.11,884.96"];
	67 -- 68	[pos="181.89,630.41 175.79,585.54 160.06,469.82 153.98,425.08"];
	71 -- 72	[pos="558.74,898.69 644.92,867 939.97,758.51 1026.2,726.8"];
	73 -- 74	[pos="264.92,834.47 266.38,849.89 268.48,872 269.94,887.42"];
	5 -- 25	[pos="634.16,278.07 596.27,235.73 491.85,119.06 454.03,76.8"];
	5 -- 6	[pos="630.79,307.75 610.64,324.08 577.6,350.87 557.47,367.19"];
	5 -- 9	[pos="646.84,311.67 644.67,341.75 640.33,401.94 638.15,432.2"];
	5 -- 12	[pos="637.78,310.55 612.7,351.42 548.87,455.42 523.75,496.35"];
	5 -- 35	[pos="653.02,311.51 657.21,326.8 663.22,348.7 667.4,363.98"];
	5 -- 48	[pos="672.04,285.18 695.82,276.73 732.11,263.83 755.98,255.34"];
	5 -- 89	[pos="620.88,293.58 599.07,293.49 568.63,293.38 546.83,293.29"];
	5 -- 90	[pos="664.89,307.95 698.3,336.4 772.85,399.89 806.21,428.3"];
	5 -- 91	[pos="632.85,308.84 627.94,313.7 622.51,319.08 617.6,323.95"];
	92	[height=0.5,
		pos="929.6,169.9",
		width=0.75];
	5 -- 92	[pos="670.69,283.76 723.4,260.58 854.13,203.09 906.94,179.87"];
	5 -- 94	[pos="639.68,276.23 621.25,238.19 577.64,148.2 559.29,110.32"];
	5 -- 95	[pos="672.25,285.47 712.69,271.7 793.73,244.1 834.2,230.32"];
	5 -- 96	[pos="675.24,295.97 713.04,299.17 781.19,304.94 818.98,308.13"];
	97	[height=0.5,
		pos="792.82,36.547",
		width=0.75];
	5 -- 97	[pos="657.63,276.81 683.84,230.22 757.03,100.15 783.29,53.48"];
	99	[height=0.5,
		pos="888.04,104.4",
		width=0.75];
	5 -- 99	[pos="665.78,279.76 710.14,244.76 825.98,153.36 870.38,118.34"];
	5 -- 101	[pos="622.47,299.31 570.46,310.72 453.2,336.44 401.09,347.87"];
	5 -- 102	[pos="633.74,278.31 614.07,257.31 579,219.85 559.22,198.73"];
	5 -- 61	[pos="649.66,275.42 653.79,225.89 665.19,89.408 669.31,39.97"];
	76 -- 77	[pos="956.69,721.71 869.35,749.54 575.03,843.31 487.93,871.06"];
	78 -- 79	[pos="1051.6,687.25 989.04,738.39 773.07,914.9 710.33,966.18"];
	83 -- 84	[pos="1021.5,443.68 1005.8,468.93 976.18,516.55 960.38,541.97"];
	87 -- 88	[pos="903.5,249.92 855.37,224.68 738.89,163.62 690.64,138.33"];
	92 -- 93	[pos="935.84,187.52 958.91,252.65 1039.2,479.46 1062.3,544.51"];
	97 -- 98	[pos="773.59,49.379 737.83,73.256 661.45,124.24 625.76,148.07"];
	99 -- 100	[pos="899.38,120.89 928.98,163.95 1008.4,279.39 1038,322.43"];
	110 -- 111	[pos="161.31,299.39 152.77,361.58 124.52,567.38 115.9,630.18"];
	112 -- 113	[pos="483.61,30.329 445.17,54.069 361.29,105.88 322.92,129.58"];
	117 -- 118	[pos="97.598,523.72 137.38,481.18 248.46,362.41 288.31,319.8"];
	120 -- 121	[pos="60.805,447.88 73.108,422.01 96.134,373.6 108.42,347.77"];
	123 -- 124	[pos="182.59,771.05 188.61,791.41 198.35,824.34 204.34,844.57"];
	126 -- 127	[pos="400.74,939.17 393.15,906.76 377.29,839 369.73,806.69"];
	137 -- 138	[pos="921.42,326.51 952.7,364.75 1031.4,460.87 1062.6,499.03"];
	140 -- 141	[pos="410.96,186.38 373.71,197.77 303.38,219.27 266.07,230.68"];
	142 -- 143	[pos="706.7,929.99 730.68,924.11 766.47,915.35 790.57,909.45"];
	144 -- 145	[pos="389.93,887.61 371.15,857.29 331.89,793.93 313.17,763.7"];
	149 -- 150	[pos="970.52,757.87 934.62,750.01 869.91,735.85 834.02,728"];
	151 -- 152	[pos="951.89,370.98 870.64,330.12 585.37,186.68 504.07,145.8"];
	154 -- 155	[pos="856.64,839.88 848.97,838.21 840.58,836.38 832.92,834.71"];
	156 -- 157	[pos="925.85,776.84 910.64,737.84 874.25,644.54 859.06,605.58"];
	161 -- 162	[pos="769.96,713.45 827.66,692.27 974.46,638.38 1032.2,617.16"];
	163 -- 164	[pos="381.91,100.35 456.72,107.42 667.11,127.29 741.84,134.35"];
	165 -- 166	[pos="750.23,103.6 796.35,141.44 923.24,245.54 969.66,283.63"];
	171 -- 172	[pos="1024.4,369.39 978.47,335.9 859.91,249.53 814.07,216.14"];
}
