graph {
	graph [bb="0,0,1478.9,1250",
		outputorder=edgesfirst,
		overlap=prism,
		size="50,50!",
		start=595
	];
	node [label="\N"];
	0	[height=0.5,
		pos="536.41,447.2",
		width=0.75];
	50	[height=0.5,
		pos="709.93,307.05",
		width=0.75];
	0 -- 50	[pos="553.68,433.25 586.94,406.38 659.52,347.76 692.73,320.94"];
	81	[height=0.5,
		pos="587.5,332.28",
		width=0.75];
	0 -- 81	[pos="544.17,429.75 553.77,408.15 570.03,371.57 579.67,349.9"];
	85	[height=0.5,
		pos="203.93,506.32",
		width=0.75];
	0 -- 85	[pos="510.32,451.84 448.32,462.86 292.7,490.54 230.36,501.62"];
	88	[height=0.5,
		pos="209.55,550.32",
		width=0.75];
	0 -- 88	[pos="511.84,454.95 451.12,474.11 294.51,523.52 233.96,542.62"];
	104	[height=0.5,
		pos="569.62,376.29",
		width=0.75];
	0 -- 104	[pos="544.62,429.67 549.77,418.68 556.38,404.57 561.51,393.62"];
	108	[height=0.5,
		pos="359.95,660.86",
		width=0.75];
	0 -- 108	[pos="523.14,463.26 490.36,502.95 405.81,605.32 373.12,644.9"];
	112	[height=0.5,
		pos="432.66,343.32",
		width=0.75];
	0 -- 112	[pos="521.1,431.87 501.37,412.12 467.29,377.99 447.69,358.38"];
	114	[height=0.5,
		pos="585.36,288.24",
		width=0.75];
	0 -- 114	[pos="541.93,429.27 551.33,398.75 570.35,337 579.79,306.35"];
	119	[height=0.5,
		pos="558.99,539.43",
		width=0.75];
	0 -- 119	[pos="540.76,464.98 544.73,481.21 550.58,505.08 554.57,521.38"];
	128	[height=0.5,
		pos="426.15,298.75",
		width=0.75];
	0 -- 128	[pos="524.4,431.03 503.19,402.48 459.34,343.44 438.15,314.9"];
	129	[height=0.5,
		pos="795.65,336.62",
		width=0.75];
	0 -- 129	[pos="559.41,437.39 608.61,416.4 723.54,367.38 772.69,346.41"];
	135	[height=0.5,
		pos="754.49,484.79",
		width=0.75];
	0 -- 135	[pos="562.71,451.73 604.63,458.96 686.11,473.01 728.09,480.24"];
	150	[height=0.5,
		pos="496.11,544.06",
		width=0.75];
	0 -- 150	[pos="529.02,464.96 521.74,482.44 510.71,508.97 503.45,526.4"];
	153	[height=0.5,
		pos="764.32,528.79",
		width=0.75];
	0 -- 153	[pos="560.37,455.78 604.14,471.45 696.55,504.53 740.34,520.21"];
	188	[height=0.5,
		pos="350.28,386.81",
		width=0.75];
	0 -- 188	[pos="512.07,439.31 476.4,427.73 410.3,406.28 374.62,394.71"];
	190	[height=0.5,
		pos="243.46,461.19",
		width=0.75];
	0 -- 190	[pos="509.37,448.49 453.56,451.16 326.18,457.24 270.43,459.91"];
	204	[height=0.5,
		pos="484.46,656.16",
		width=0.75];
	0 -- 204	[pos="531.98,465.01 522.16,504.49 498.68,598.95 488.88,638.39"];
	245	[height=0.5,
		pos="816.53,444.22",
		width=0.75];
	0 -- 245	[pos="563.52,446.91 617.07,446.34 735.84,445.08 789.4,444.51"];
	246	[height=0.5,
		pos="644.27,244.22",
		width=0.75];
	0 -- 246	[pos="545.6,429.89 566.03,391.45 614.98,299.33 635.25,261.2"];
	1	[height=0.5,
		pos="564.7,640.71",
		width=0.75];
	51	[height=0.5,
		pos="626.79,625.73",
		width=0.75];
	1 -- 51	[pos="590.31,634.53 593.92,633.66 597.63,632.77 601.24,631.9"];
	62	[height=0.5,
		pos="713.81,681.65",
		width=0.75];
	1 -- 62	[pos="590,647.66 617.41,655.18 660.92,667.13 688.39,674.67"];
	72	[height=0.5,
		pos="520.21,807.51",
		width=0.75];
	1 -- 72	[pos="559.94,658.56 551.38,690.67 533.48,757.78 524.94,789.79"];
	74	[height=0.5,
		pos="341.17,776.26",
		width=0.75];
	1 -- 74	[pos="544.47,652.98 501.91,678.79 403.57,738.42 361.2,764.12"];
	76	[height=0.5,
		pos="348.16,474.85",
		width=0.75];
	1 -- 76	[pos="546.61,626.86 505.75,595.56 406.71,519.7 366.04,488.55"];
	77	[height=0.5,
		pos="412.32,421",
		width=0.75];
	1 -- 77	[pos="553.25,624.2 524.94,583.38 451.93,478.11 423.7,437.41"];
	80	[height=0.5,
		pos="458.18,818.12",
		width=0.75];
	1 -- 80	[pos="554.49,657.72 534.13,691.63 488.7,767.29 468.37,801.16"];
	84	[height=0.5,
		pos="274.3,572.29",
		width=0.75];
	1 -- 84	[pos="539.18,634.7 484.24,621.75 355.24,591.36 300.07,578.36"];
	87	[height=0.5,
		pos="327.11,616.84",
		width=0.75];
	1 -- 87	[pos="537.91,638.02 492.28,633.43 399.98,624.16 354.17,619.56"];
	90	[height=0.5,
		pos="470.19,489.71",
		width=0.75];
	1 -- 90	[pos="554.23,623.98 536.06,594.95 498.91,535.6 480.72,506.52"];
	96	[height=0.5,
		pos="681.15,471.62",
		width=0.75];
	1 -- 96	[pos="576.08,624.19 598.28,591.95 647.18,520.95 669.55,488.46"];
	102	[height=0.5,
		pos="506.97,726",
		width=0.75];
	1 -- 102	[pos="553.57,657.16 543.41,672.16 528.47,694.24 518.26,709.32"];
	117	[height=0.5,
		pos="271.59,528.13",
		width=0.75];
	1 -- 117	[pos="541.21,631.69 486.33,610.61 350.18,558.32 295.19,537.2"];
	1 -- 119	[pos="563.68,622.6 562.65,604.28 561.06,576.11 560.02,557.72"];
	139	[height=0.5,
		pos="444.95,701.69",
		width=0.75];
	1 -- 139	[pos="543.02,651.75 521.31,662.81 488.12,679.71 466.48,690.73"];
	1 -- 150	[pos="553.07,624.32 540.45,606.54 520.44,578.34 507.8,560.53"];
	151	[height=0.5,
		pos="249.22,641.75",
		width=0.75];
	1 -- 151	[pos="537.53,640.8 477.89,641 336.11,641.46 276.44,641.66"];
	164	[height=0.5,
		pos="825.24,572.82",
		width=0.75];
	1 -- 164	[pos="590.16,634.08 640.09,621.07 750.35,592.33 800.06,579.38"];
	167	[height=0.5,
		pos="645.51,793.21",
		width=0.75];
	1 -- 167	[pos="573.81,657.91 589.34,687.2 620.73,746.44 636.31,775.84"];
	173	[height=0.5,
		pos="598.42,449.54",
		width=0.75];
	1 -- 173	[pos="567.87,622.73 574.3,586.29 588.79,504.13 595.23,467.62"];
	177	[height=0.5,
		pos="691.02,549.54",
		width=0.75];
	1 -- 177	[pos="583.07,627.45 607.02,610.17 648.67,580.1 672.63,562.81"];
	178	[height=0.5,
		pos="791.86,723.09",
		width=0.75];
	1 -- 178	[pos="588.58,649.37 632.21,665.19 724.32,698.59 767.96,714.42"];
	181	[height=0.5,
		pos="626.77,673.58",
		width=0.75];
	1 -- 181	[pos="586.06,652.02 592.37,655.36 599.28,659.02 605.58,662.36"];
	191	[height=0.5,
		pos="341.61,704.9",
		width=0.75];
	1 -- 191	[pos="539.54,647.95 496.58,660.31 409.57,685.34 366.68,697.68"];
	200	[height=0.5,
		pos="376.19,572.83",
		width=0.75];
	1 -- 200	[pos="540.83,632.12 504.66,619.09 436.39,594.51 400.17,581.47"];
	223	[height=0.5,
		pos="661.38,426.68",
		width=0.75];
	1 -- 223	[pos="572.61,623.2 590.79,582.96 635.35,484.31 653.5,444.14"];
	226	[height=0.5,
		pos="408.16,518.88",
		width=0.75];
	1 -- 226	[pos="547.05,626.97 516.98,603.57 456.17,556.25 425.99,532.75"];
	227	[height=0.5,
		pos="583.28,771.03",
		width=0.75];
	1 -- 227	[pos="567.28,658.83 570.83,683.73 577.18,728.25 580.72,753.06"];
	232	[height=0.5,
		pos="403.65,745.79",
		width=0.75];
	1 -- 232	[pos="545.27,653.39 514.32,673.58 454.14,712.84 423.14,733.07"];
	235	[height=0.5,
		pos="474.36,431.13",
		width=0.75];
	1 -- 235	[pos="557.15,623.2 540.11,583.65 498.79,487.8 481.83,448.44"];
	242	[height=0.5,
		pos="735.32,593.56",
		width=0.75];
	1 -- 242	[pos="589.88,633.76 622.23,624.82 678.05,609.39 710.32,600.47"];
	249	[height=0.5,
		pos="345.49,528.8",
		width=0.75];
	1 -- 249	[pos="542.88,629.57 500.86,608.12 409.17,561.31 367.23,539.9"];
	2	[height=0.5,
		pos="1022.3,506.63",
		width=0.75];
	52	[height=0.5,
		pos="1078.3,776.61",
		width=0.75];
	2 -- 52	[pos="1026.1,524.76 1036.3,573.94 1064.4,709.47 1074.6,758.56"];
	61	[height=0.5,
		pos="1141.1,688.15",
		width=0.75];
	2 -- 61	[pos="1033.3,523.38 1055.9,557.96 1107.5,636.89 1130.2,671.44"];
	63	[height=0.5,
		pos="952.76,336.93",
		width=0.75];
	2 -- 63	[pos="1015.1,489.11 1001.8,456.5 973.23,386.88 959.9,354.35"];
	93	[height=0.5,
		pos="1188,471.65",
		width=0.75];
	2 -- 93	[pos="1048.2,501.16 1079.2,494.61 1131,483.69 1162.1,477.13"];
	103	[height=0.5,
		pos="1153.8,630.43",
		width=0.75];
	2 -- 103	[pos="1038.2,521.56 1063.4,545.36 1112.6,591.62 1137.9,615.45"];
	118	[height=0.5,
		pos="1215.8,608.54",
		width=0.75];
	2 -- 118	[pos="1043.7,517.92 1081,537.56 1157.4,577.78 1194.6,597.35"];
	122	[height=0.5,
		pos="1154.4,383.56",
		width=0.75];
	2 -- 122	[pos="1038.2,491.78 1063.6,468.13 1113,422.14 1138.4,398.46"];
	144	[height=0.5,
		pos="1146.4,427.57",
		width=0.75];
	2 -- 144	[pos="1042,494.1 1065.2,479.3 1103.6,454.81 1126.8,440.03"];
	152	[height=0.5,
		pos="1189.7,564.18",
		width=0.75];
	2 -- 152	[pos="1046.6,515 1078.5,525.94 1133.9,544.99 1165.6,555.9"];
	2 -- 164	[pos="998.14,514.74 960.31,527.45 887.54,551.89 849.6,564.64"];
	179	[height=0.5,
		pos="1092.4,342.57",
		width=0.75];
	2 -- 179	[pos="1029.8,489.07 1043.3,457.49 1071.5,391.48 1084.9,360"];
	193	[height=0.5,
		pos="967.99,550.65",
		width=0.75];
	2 -- 193	[pos="1005.1,520.56 998.78,525.69 991.59,531.52 985.25,536.66"];
	208	[height=0.5,
		pos="966.07,292.91",
		width=0.75];
	2 -- 208	[pos="1017.6,488.77 1007,448.55 981.4,351.19 970.79,310.87"];
	3	[height=0.5,
		pos="859.37,627.92",
		width=0.75];
	53	[height=0.5,
		pos="960.29,506",
		width=0.75];
	3 -- 53	[pos="872.56,611.98 891.9,588.62 927.75,545.31 947.09,521.95"];
	54	[height=0.5,
		pos="920.14,380.95",
		width=0.75];
	3 -- 54	[pos="863.84,609.76 875.1,563.98 904.56,444.26 915.74,398.8"];
	3 -- 62	[pos="835.66,636.67 808.59,646.66 764.57,662.91 737.51,672.9"];
	73	[height=0.5,
		pos="1017.5,461.9",
		width=0.75];
	3 -- 73	[pos="873.96,612.6 904.09,580.97 972.86,508.78 1003,477.19"];
	78	[height=0.5,
		pos="650.62,724.56",
		width=0.75];
	3 -- 78	[pos="837.03,638.26 796.85,656.86 712.86,695.75 672.8,714.29"];
	98	[height=0.5,
		pos="905.97,582.46",
		width=0.75];
	3 -- 98	[pos="874.63,613.04 879.72,608.06 885.4,602.52 890.52,597.54"];
	99	[height=0.5,
		pos="1016.3,785.01",
		width=0.75];
	3 -- 99	[pos="874.41,642.98 904.33,672.93 970.98,739.66 1001,769.76"];
	101	[height=0.5,
		pos="1017,697.98",
		width=0.75];
	3 -- 101	[pos="881.96,637.96 911.92,651.28 964.52,674.65 994.47,687.96"];
	105	[height=0.5,
		pos="628.99,515.96",
		width=0.75];
	3 -- 105	[pos="837.28,617.18 793.25,595.78 695,548.03 651.02,526.66"];
	3 -- 135	[pos="847.34,611.5 827.11,583.89 786.51,528.5 766.38,501.02"];
	137	[height=0.5,
		pos="857.69,380.59",
		width=0.75];
	3 -- 137	[pos="859.25,609.73 858.93,563.99 858.12,444.57 857.81,398.8"];
	3 -- 153	[pos="844.52,612.43 826.66,593.81 796.88,562.75 779.07,544.17"];
	155	[height=0.5,
		pos="1033.3,639.04",
		width=0.75];
	3 -- 155	[pos="886.55,629.66 919.23,631.75 973.73,635.23 1006.3,637.31"];
	166	[height=0.5,
		pos="892.96,671.96",
		width=0.75];
	3 -- 166	[pos="871.69,644.07 874.61,647.9 877.73,651.99 880.65,655.82"];
	171	[height=0.5,
		pos="1065.3,550.98",
		width=0.75];
	3 -- 171	[pos="883,619.09 922.62,604.29 1002,574.63 1041.7,559.82"];
	217	[height=0.5,
		pos="892.34,859.47",
		width=0.75];
	3 -- 217	[pos="861.96,646.09 868.12,689.38 883.61,798.19 889.76,841.39"];
	243	[height=0.5,
		pos="716.22,811.81",
		width=0.75];
	3 -- 243	[pos="846.92,643.92 819.84,678.7 755.89,760.86 728.75,795.72"];
	4	[height=0.5,
		pos="797.36,617.17",
		width=0.75];
	4 -- 51	[pos="770.34,618.52 738.49,620.12 685.88,622.76 653.97,624.37"];
	55	[height=0.5,
		pos="566.98,493.57",
		width=0.75];
	4 -- 55	[pos="776.1,605.76 732.21,582.21 632.03,528.47 588.19,504.95"];
	68	[height=0.5,
		pos="954.92,720.95",
		width=0.75];
	4 -- 68	[pos="816.68,629.89 846.92,649.81 905.11,688.13 935.44,708.12"];
	89	[height=0.5,
		pos="830.32,860.57",
		width=0.75];
	4 -- 89	[pos="799.84,635.46 805.97,680.68 821.76,797.3 827.86,842.39"];
	4 -- 98	[pos="821.74,609.38 839.5,603.7 863.47,596.04 881.3,590.34"];
	141	[height=0.5,
		pos="954.23,815.45",
		width=0.75];
	4 -- 141	[pos="810.2,633.39 839.69,670.67 911.99,762.06 941.44,799.28"];
	154	[height=0.5,
		pos="729.38,395.61",
		width=0.75];
	4 -- 154	[pos="791.92,599.41 779.19,557.92 747.61,455.02 734.85,413.45"];
	156	[height=0.5,
		pos="569.02,717.61",
		width=0.75];
	4 -- 156	[pos="774.64,627.16 730.87,646.42 635.36,688.43 591.66,707.65"];
	4 -- 166	[pos="818.11,629.06 834.14,638.25 856.24,650.91 872.26,660.1"];
	170	[height=0.5,
		pos="768.32,874.65",
		width=0.75];
	4 -- 170	[pos="795.32,635.27 789.99,682.55 775.69,809.31 770.36,856.57"];
	174	[height=0.5,
		pos="516.17,592.52",
		width=0.75];
	4 -- 174	[pos="770.4,614.8 716.66,610.09 596.73,599.58 543.05,594.88"];
	176	[height=0.5,
		pos="954.99,665.24",
		width=0.75];
	4 -- 176	[pos="821.99,624.68 851.52,633.68 900.71,648.68 930.27,657.7"];
	4 -- 181	[pos="772.92,625.25 740.49,635.97 683.57,654.79 651.17,665.51"];
	182	[height=0.5,
		pos="988.54,417.83",
		width=0.75];
	4 -- 182	[pos="812.05,601.85 847.63,564.75 938.17,470.35 973.81,433.19"];
	189	[height=0.5,
		pos="793.32,385.12",
		width=0.75];
	4 -- 189	[pos="797.05,598.96 796.29,555.58 794.39,446.54 793.63,403.24"];
	4 -- 193	[pos="820.73,608.06 853.31,595.35 912.05,572.46 944.63,559.76"];
	195	[height=0.5,
		pos="971.21,597.97",
		width=0.75];
	4 -- 195	[pos="824.15,614.21 856.82,610.6 911.71,604.54 944.4,600.93"];
	231	[height=0.5,
		pos="878.56,424.99",
		width=0.75];
	4 -- 231	[pos="804.71,599.77 820.13,563.28 855.71,479.06 871.17,442.48"];
	241	[height=0.5,
		pos="712.66,767.78",
		width=0.75];
	4 -- 241	[pos="787.81,634.15 771.54,663.08 738.64,721.59 722.3,750.63"];
	5	[height=0.5,
		pos="582.23,843.73",
		width=0.75];
	56	[height=0.5,
		pos="292.56,827.04",
		width=0.75];
	5 -- 56	[pos="555.24,842.18 500.04,839 374.82,831.78 319.59,828.6"];
	65	[height=0.5,
		pos="556.98,969.4",
		width=0.75];
	5 -- 65	[pos="578.61,861.74 573.81,885.62 565.39,927.55 560.59,951.43"];
	5 -- 72	[pos="561.58,831.67 554.82,827.72 547.31,823.33 540.56,819.4"];
	95	[height=0.5,
		pos="298.85,915.27",
		width=0.75];
	5 -- 95	[pos="556.58,850.21 502.63,863.83 377.96,895.3 324.24,908.86"];
	113	[height=0.5,
		pos="432.36,921.1",
		width=0.75];
	5 -- 113	[pos="560.76,854.82 532.27,869.52 482.26,895.34 453.79,910.03"];
	132	[height=0.5,
		pos="367.63,963.75",
		width=0.75];
	5 -- 132	[pos="561.26,855.46 520.13,878.46 429.31,929.25 388.36,952.15"];
	157	[height=0.5,
		pos="608.79,1059.1",
		width=0.75];
	5 -- 157	[pos="584.45,861.72 589.45,902.27 601.55,1000.4 606.56,1041"];
	158	[height=0.5,
		pos="357.93,867.21",
		width=0.75];
	5 -- 158	[pos="555.18,846.56 511.95,851.09 427.8,859.9 384.73,864.4"];
	165	[height=0.5,
		pos="619.28,970.57",
		width=0.75];
	5 -- 165	[pos="587.46,861.63 594.52,885.81 607.03,928.63 614.07,952.75"];
	203	[height=0.5,
		pos="494.45,934.84",
		width=0.75];
	5 -- 203	[pos="567.34,859.19 551.1,876.04 525.27,902.85 509.12,919.61"];
	5 -- 204	[pos="573.21,826.42 554.58,790.69 512.07,709.12 493.46,673.42"];
	219	[height=0.5,
		pos="839.4,963.13",
		width=0.75];
	5 -- 219	[pos="604.6,854.12 653.24,876.7 768.14,930.04 816.9,952.68"];
	5 -- 227	[pos="582.5,825.38 582.66,814.28 582.86,800.17 583.02,789.12"];
	5 -- 243	[pos="607.75,837.65 631.44,832.01 666.54,823.65 690.34,817.98"];
	248	[height=0.5,
		pos="681.32,928.89",
		width=0.75];
	5 -- 248	[pos="599.04,858.18 617.37,873.93 646.53,898.99 664.76,914.66"];
	6	[height=0.5,
		pos="695.22,351.1",
		width=0.75];
	57	[height=0.5,
		pos="715.34,637.61",
		width=0.75];
	6 -- 57	[pos="696.51,369.46 700.15,421.21 710.44,567.84 714.06,619.4"];
	60	[height=0.5,
		pos="872.02,165.31",
		width=0.75];
	6 -- 60	[pos="709.69,335.9 742.84,301.06 824.01,215.77 857.35,180.73"];
	6 -- 63	[pos="722.3,349.61 771.76,346.89 876.18,341.14 925.67,338.42"];
	6 -- 104	[pos="669.2,356.32 647.64,360.65 617.16,366.76 595.61,371.08"];
	125	[height=0.5,
		pos="747.96,106.07",
		width=0.75];
	6 -- 125	[pos="699.1,333.09 708.85,287.77 734.31,169.46 744.07,124.11"];
	159	[height=0.5,
		pos="810,147.39",
		width=0.75];
	6 -- 159	[pos="704.81,334.09 726.42,295.74 778.7,202.94 800.36,164.5"];
	6 -- 173	[pos="680.1,366.49 661.91,384.98 631.58,415.83 613.44,434.27"];
	175	[height=0.5,
		pos="522.52,179.44",
		width=0.75];
	6 -- 175	[pos="679.9,335.87 647.04,303.21 570.17,226.8 537.57,194.39"];
	183	[height=0.5,
		pos="644.83,156.19",
		width=0.75];
	6 -- 183	[pos="690.57,333.12 680.97,295.99 659.06,211.23 649.47,174.14"];
	202	[height=0.5,
		pos="588.55,200.2",
		width=0.75];
	6 -- 202	[pos="683.6,334.67 663.08,305.64 620.66,245.63 600.15,216.61"];
	210	[height=0.5,
		pos="282.36,415.31",
		width=0.75];
	6 -- 210	[pos="668.77,355.22 594.29,366.8 383.4,399.6 308.86,411.19"];
	7	[height=0.5,
		pos="1080.2,918.57",
		width=0.75];
	58	[height=0.5,
		pos="1233.9,1002",
		width=0.75];
	7 -- 58	[pos="1101.2,930 1130.5,945.89 1183.2,974.5 1212.6,990.47"];
	59	[height=0.5,
		pos="1249.5,815.75",
		width=0.75];
	7 -- 59	[pos="1100.2,906.37 1132.8,886.58 1196.9,847.71 1229.4,827.93"];
	82	[height=0.5,
		pos="922.77,1032",
		width=0.75];
	7 -- 82	[pos="1061.8,931.81 1031.6,953.56 971.91,996.61 941.5,1018.5"];
	7 -- 99	[pos="1071.9,901.38 1059.7,875.88 1037,828.26 1024.7,802.55"];
	133	[height=0.5,
		pos="1139.6,820.65",
		width=0.75];
	7 -- 133	[pos="1090.5,901.52 1101.4,883.54 1118.5,855.41 1129.4,837.51"];
	146	[height=0.5,
		pos="1280.6,866.94",
		width=0.75];
	7 -- 146	[pos="1105.5,912.03 1144,902.13 1216.6,883.43 1255.1,873.51"];
	147	[height=0.5,
		pos="964.1,1076.1",
		width=0.75];
	7 -- 147	[pos="1068.2,934.83 1045.9,965.01 998.51,1029.4 976.19,1059.7"];
	160	[height=0.5,
		pos="1080.1,994.4",
		width=0.75];
	7 -- 160	[pos="1080.1,936.93 1080.1,948.85 1080.1,964.33 1080.1,976.21"];
	169	[height=0.5,
		pos="856.63,1055.4",
		width=0.75];
	7 -- 169	[pos="1059.9,930.95 1017.4,957 919.03,1017.2 876.66,1043.1"];
	198	[height=0.5,
		pos="1067.3,1045.4",
		width=0.75];
	7 -- 198	[pos="1078.3,936.74 1075.9,960.84 1071.6,1003.1 1069.2,1027.2"];
	213	[height=0.5,
		pos="1266.2,914.44",
		width=0.75];
	7 -- 213	[pos="1107.2,917.97 1142.5,917.19 1203.8,915.83 1239.1,915.05"];
	234	[height=0.5,
		pos="914.28,941.76",
		width=0.75];
	7 -- 234	[pos="1053.5,922.3 1022.5,926.63 971.79,933.72 940.87,938.05"];
	239	[height=0.5,
		pos="1204.2,1053.1",
		width=0.75];
	7 -- 239	[pos="1094.4,934 1118.2,959.82 1165.8,1011.5 1189.8,1037.4"];
	8	[height=0.5,
		pos="1038.7,829.1",
		width=0.75];
	8 -- 61	[pos="1050.7,812.66 1070.4,785.5 1109.5,731.58 1129.2,704.49"];
	115	[height=0.5,
		pos="1328.2,950.89",
		width=0.75];
	8 -- 115	[pos="1061.9,838.86 1116.3,861.72 1251.3,918.51 1305.3,941.25"];
	8 -- 160	[pos="1043.2,847.11 1051.2,878.9 1067.7,944.64 1075.6,976.42"];
	161	[height=0.5,
		pos="1382.5,725.87",
		width=0.75];
	8 -- 161	[pos="1063.4,821.68 1126.7,802.68 1294,752.44 1357.5,733.36"];
	162	[height=0.5,
		pos="682.33,977.76",
		width=0.75];
	8 -- 162	[pos="1015.6,838.74 951.13,865.64 769.79,941.28 705.38,968.15"];
	212	[height=0.5,
		pos="852.23,904.63",
		width=0.75];
	8 -- 212	[pos="1015.5,838.51 979.63,853.03 911.3,880.7 875.47,895.22"];
	9	[height=0.5,
		pos="344.41,430.83",
		width=0.75];
	9 -- 55	[pos="369.51,437.9 412.37,449.98 499.17,474.46 541.97,486.52"];
	64	[height=0.5,
		pos="151.62,405.73",
		width=0.75];
	9 -- 64	[pos="317.6,427.34 280.77,422.54 214.91,413.97 178.2,409.19"];
	9 -- 105	[pos="369.17,438.23 422.99,454.33 550.14,492.37 604.09,508.51"];
	9 -- 117	[pos="332.06,447.33 318.58,465.33 297.16,493.96 283.76,511.87"];
	126	[height=0.5,
		pos="102.92,463.3",
		width=0.75];
	9 -- 126	[pos="317.64,434.43 271.1,440.69 175.8,453.5 129.44,459.74"];
	163	[height=0.5,
		pos="425.92,254.75",
		width=0.75];
	9 -- 163	[pos="352.37,413.62 367.96,379.96 402.32,305.74 417.93,272.02"];
	9 -- 174	[pos="360.26,445.75 392.98,476.55 467.67,546.86 500.36,577.64"];
	197	[height=0.5,
		pos="141.87,507.51",
		width=0.75];
	9 -- 197	[pos="320.78,439.77 281.75,454.55 204.27,483.88 165.35,498.62"];
	218	[height=0.5,
		pos="358.33,289.1",
		width=0.75];
	9 -- 218	[pos="346.2,412.59 348.87,385.38 353.88,334.44 356.55,307.27"];
	221	[height=0.5,
		pos="195.8,355.16",
		width=0.75];
	9 -- 221	[pos="322.8,419.82 294.62,405.48 245.62,380.53 217.43,366.18"];
	236	[height=0.5,
		pos="460.49,210.75",
		width=0.75];
	9 -- 236	[pos="353.52,413.56 375.22,372.42 429.77,269 451.42,227.94"];
	9 -- 249	[pos="344.61,449.25 344.81,466.88 345.1,493.3 345.29,510.79"];
	10	[height=0.5,
		pos="772.5,918.67",
		width=0.75];
	10 -- 65	[pos="746.93,924.69 705.45,934.45 623.97,953.63 582.52,963.39"];
	10 -- 82	[pos="790.62,932.34 819.51,954.13 875.65,996.49 904.58,1018.3"];
	10 -- 89	[pos="787.69,903.4 796.12,894.93 806.58,884.42 815.03,875.93"];
	91	[height=0.5,
		pos="685.41,1065.9",
		width=0.75];
	10 -- 91	[pos="762.51,935.56 745.8,963.81 712.36,1020.4 695.55,1048.8"];
	116	[height=0.5,
		pos="757.47,1099.4",
		width=0.75];
	10 -- 116	[pos="771,936.65 768.13,971.2 761.87,1046.5 758.98,1081.2"];
	121	[height=0.5,
		pos="823.66,1143.5",
		width=0.75];
	10 -- 121	[pos="776.6,936.69 786.18,978.78 809.94,1083.2 819.54,1125.4"];
	134	[height=0.5,
		pos="794.31,1055.3",
		width=0.75];
	10 -- 134	[pos="775.39,936.81 779.57,962.95 787.22,1010.9 791.4,1037.1"];
	10 -- 165	[pos="748.22,926.89 719.53,936.61 672.08,952.68 643.44,962.38"];
	168	[height=0.5,
		pos="432.4,972.86",
		width=0.75];
	10 -- 168	[pos="746.09,922.88 682.73,932.97 522.61,958.48 459.02,968.61"];
	10 -- 169	[pos="782.81,935.43 798.96,961.67 830.03,1012.2 846.23,1038.5"];
	10 -- 170	[pos="770.77,900.51 770.53,897.95 770.28,895.33 770.04,892.77"];
	192	[height=0.5,
		pos="481.44,1017.7",
		width=0.75];
	10 -- 192	[pos="748.18,926.94 693.39,945.58 560.81,990.69 505.89,1009.4"];
	205	[height=0.5,
		pos="546.11,1053.6",
		width=0.75];
	10 -- 205	[pos="752.01,930.88 708.91,956.57 609.31,1015.9 566.39,1041.5"];
	10 -- 217	[pos="794.2,907.95 815.78,897.29 848.72,881.02 870.39,870.31"];
	11	[height=0.5,
		pos="1230.8,516.67",
		width=0.75];
	66	[height=0.5,
		pos="1302.5,375.98",
		width=0.75];
	11 -- 66	[pos="1239.6,499.42 1253.4,472.42 1279.8,420.46 1293.6,393.37"];
	83	[height=0.5,
		pos="1287.5,637.7",
		width=0.75];
	11 -- 83	[pos="1238.9,534.01 1249.7,557.02 1268.6,597.4 1279.4,620.39"];
	11 -- 144	[pos="1216.1,501.15 1200.6,484.8 1176.4,459.2 1160.9,442.91"];
	145	[height=0.5,
		pos="1363.1,637.57",
		width=0.75];
	11 -- 145	[pos="1246.8,531.25 1272.2,554.49 1321.6,599.66 1347.1,622.93"];
	11 -- 171	[pos="1205,522.03 1174,528.46 1122.3,539.17 1091.3,545.6"];
	196	[height=0.5,
		pos="996.1,211.76",
		width=0.75];
	11 -- 196	[pos="1218.2,500.28 1177.3,447.21 1049,280.52 1008.5,227.87"];
	12	[height=0.5,
		pos="1311.2,505.47",
		width=0.75];
	67	[height=0.5,
		pos="1304.5,549.49",
		width=0.75];
	12 -- 67	[pos="1308.4,523.63 1308,526.19 1307.6,528.82 1307.2,531.38"];
	71	[height=0.5,
		pos="1226.7,328.91",
		width=0.75];
	12 -- 71	[pos="1302.9,488.22 1286.8,454.47 1251.1,380.04 1235,346.23"];
	12 -- 93	[pos="1285.9,498.55 1264.7,492.71 1234.5,484.4 1213.2,478.56"];
	142	[height=0.5,
		pos="1427.1,665.07",
		width=0.75];
	12 -- 142	[pos="1323.1,521.95 1345.3,552.53 1392.7,617.75 1415,648.44"];
	12 -- 161	[pos="1316.9,523.14 1330.2,564.4 1363.4,666.77 1376.7,708.12"];
	172	[height=0.5,
		pos="1451.9,459.68",
		width=0.75];
	12 -- 172	[pos="1335.7,497.5 1361.3,489.14 1401.4,476.1 1427.2,467.72"];
	229	[height=0.5,
		pos="1216.5,377.84",
		width=0.75];
	12 -- 229	[pos="1299.2,489.31 1281.1,464.89 1246.9,418.85 1228.7,394.28"];
	13	[height=0.5,
		pos="1203.1,708.33",
		width=0.75];
	13 -- 59	[pos="1210.8,726.07 1219.4,746.09 1233.4,778.45 1242,798.34"];
	13 -- 68	[pos="1176.1,709.7 1128.3,712.13 1029.6,717.15 981.92,719.57"];
	13 -- 101	[pos="1176,706.82 1140.8,704.86 1079.4,701.45 1044.1,699.48"];
	120	[height=0.5,
		pos="1204.2,905.84",
		width=0.75];
	13 -- 120	[pos="1203.2,726.56 1203.4,764.18 1203.9,850.07 1204.1,887.66"];
	13 -- 152	[pos="1201.4,690.07 1198.8,662.34 1194,609.93 1191.4,582.29"];
	13 -- 176	[pos="1176.5,703.72 1128.8,695.42 1029,678.08 981.35,669.81"];
	187	[height=0.5,
		pos="1373.6,499.63",
		width=0.75];
	13 -- 187	[pos="1216.2,692.3 1247.9,653.45 1328.7,554.62 1360.5,515.71"];
	14	[height=0.5,
		pos="940.63,461.97",
		width=0.75];
	14 -- 53	[pos="948.4,479.37 949.77,482.45 951.2,485.65 952.57,488.73"];
	69	[height=0.5,
		pos="1090.1,298.55",
		width=0.75];
	14 -- 69	[pos="954.69,446.59 983.19,415.45 1047.4,345.22 1076,314.01"];
	127	[height=0.5,
		pos="1084.3,470.53",
		width=0.75];
	14 -- 127	[pos="967.66,463.58 993.35,465.11 1031.8,467.4 1057.4,468.93"];
	14 -- 177	[pos="916.69,470.36 869.1,487.06 763.08,524.26 715.25,541.04"];
	186	[height=0.5,
		pos="934.07,184.44",
		width=0.75];
	14 -- 186	[pos="940.2,443.76 939.01,393.47 935.69,253.08 934.5,202.71"];
	201	[height=0.5,
		pos="952.98,764.96",
		width=0.75];
	14 -- 201	[pos="941.36,480.01 943.55,533.78 950.03,692.49 952.24,746.63"];
	211	[height=0.5,
		pos="631.71,382.65",
		width=0.75];
	14 -- 211	[pos="915.35,455.48 857.42,440.6 715.61,404.19 657.34,389.23"];
	233	[height=0.5,
		pos="1050.6,392.96",
		width=0.75];
	14 -- 233	[pos="960.29,449.63 980.18,437.15 1010.8,417.95 1030.7,405.42"];
	15	[height=0.5,
		pos="1115.4,732.18",
		width=0.75];
	70	[height=0.5,
		pos="1142.2,916.75",
		width=0.75];
	15 -- 70	[pos="1118,750.21 1123.1,785.5 1134.4,863.3 1139.5,898.64"];
	15 -- 83	[pos="1136.5,720.59 1169.6,702.41 1233.5,667.38 1266.5,649.23"];
	15 -- 103	[pos="1122.1,714.45 1129.1,695.78 1140.2,666.55 1147.2,647.95"];
	110	[height=0.5,
		pos="1018.1,957.78",
		width=0.75];
	15 -- 110	[pos="1107.9,749.5 1089.8,791.5 1043.7,898.34 1025.6,940.39"];
	140	[height=0.5,
		pos="1038.2,874.54",
		width=0.75];
	15 -- 140	[pos="1106.1,749.35 1091.3,776.71 1062.4,829.9 1047.6,857.31"];
	148	[height=0.5,
		pos="1261.6,770.28",
		width=0.75];
	15 -- 148	[pos="1140.9,738.81 1167.7,745.81 1209.7,756.76 1236.4,763.72"];
	15 -- 178	[pos="1088.4,731.42 1027.5,729.71 880.09,725.57 819.04,723.85"];
	180	[height=0.5,
		pos="1205.9,861.83",
		width=0.75];
	15 -- 180	[pos="1126.9,748.6 1144.2,773.4 1176.8,820.17 1194.2,845.14"];
	207	[height=0.5,
		pos="1343.5,681.72",
		width=0.75];
	15 -- 207	[pos="1141.1,726.49 1184.9,716.8 1273.5,697.2 1317.5,687.47"];
	220	[height=0.5,
		pos="1127.4,553.83",
		width=0.75];
	15 -- 220	[pos="1116.6,714.09 1118.9,679.91 1123.9,606.18 1126.2,571.96"];
	16	[height=0.5,
		pos="1028.1,255.8",
		width=0.75];
	16 -- 60	[pos="1007.7,243.97 977.78,226.63 922.34,194.49 892.43,177.15"];
	16 -- 71	[pos="1052,264.62 1090.3,278.71 1164.8,306.14 1203,320.18"];
	16 -- 179	[pos="1040.2,272.12 1051.7,287.63 1068.9,310.83 1080.3,326.32"];
	16 -- 182	[pos="1023.7,273.76 1016.1,304.9 1000.6,368.59 992.94,399.79"];
	17	[height=0.5,
		pos="500.36,274.71",
		width=0.75];
	75	[height=0.5,
		pos="344.76,210.59",
		width=0.75];
	17 -- 75	[pos="477.07,265.11 447.65,252.98 397.33,232.25 367.96,220.15"];
	17 -- 77	[pos="490.26,291.49 473.37,319.56 439.57,375.72 422.58,403.96"];
	86	[height=0.5,
		pos="687.89,62.034",
		width=0.75];
	17 -- 86	[pos="514.15,259.07 548.83,219.74 639.38,117.05 674.08,77.695"];
	17 -- 112	[pos="485.34,289.93 474.12,301.31 458.85,316.78 447.64,328.14"];
	130	[height=0.5,
		pos="619.79,68.108",
		width=0.75];
	17 -- 130	[pos="510.14,257.8 532.59,218.96 587.63,123.74 610.05,84.959"];
	17 -- 154	[pos="521.91,286.08 565.67,309.18 664.49,361.35 708.06,384.35"];
	17 -- 183	[pos="517.5,260.65 545.31,237.84 599.93,193.03 627.72,170.23"];
	194	[height=0.5,
		pos="482.97,100.26",
		width=0.75];
	17 -- 194	[pos="498.57,256.69 495.23,223.27 488.12,151.99 484.78,118.44"];
	17 -- 218	[pos="473.65,277.41 448.42,279.97 410.76,283.79 385.41,286.36"];
	225	[height=0.5,
		pos="296.28,254.61",
		width=0.75];
	17 -- 225	[pos="473.26,272.04 434.12,268.18 362.19,261.1 323.17,257.25"];
	247	[height=0.5,
		pos="409.27,166.71",
		width=0.75];
	17 -- 247	[pos="486.92,258.77 469.7,238.35 440.01,203.16 422.76,182.71"];
	18	[height=0.5,
		pos="256.16,298.63",
		width=0.75];
	18 -- 75	[pos="271.6,283.3 287.86,267.14 313.31,241.84 329.5,225.75"];
	18 -- 76	[pos="265.15,315.85 282.78,349.62 321.71,424.2 339.27,457.82"];
	18 -- 175	[pos="278.87,288.47 329.19,265.95 449.6,212.07 499.87,189.57"];
	184	[height=0.5,
		pos="141.69,277.27",
		width=0.75];
	18 -- 184	[pos="229.9,293.73 211.28,290.26 186.41,285.62 167.83,282.15"];
	222	[height=0.5,
		pos="70.646,390.45",
		width=0.75];
	18 -- 222	[pos="234.15,309.53 198.35,327.24 127.94,362.09 92.34,379.71"];
	230	[height=0.5,
		pos="322.41,150.47",
		width=0.75];
	18 -- 230	[pos="263.89,281.35 276.59,252.95 301.72,196.73 314.52,168.11"];
	18 -- 247	[pos="272.84,284.26 302.29,258.89 363.18,206.42 392.61,181.06"];
	19	[height=0.5,
		pos="272.68,705.33",
		width=0.75];
	19 -- 78	[pos="299.86,706.71 369.59,710.26 554.22,719.66 623.68,723.19"];
	79	[height=0.5,
		pos="72.107,674.58",
		width=0.75];
	19 -- 79	[pos="246.04,701.25 207.57,695.35 136.88,684.51 98.532,678.63"];
	19 -- 87	[pos="283.17,688.27 292.87,672.5 307.2,649.2 316.83,633.55"];
	109	[height=0.5,
		pos="230.51,794.38",
		width=0.75];
	19 -- 109	[pos="264.55,722.5 257.13,738.17 246.21,761.21 238.76,776.96"];
	124	[height=0.5,
		pos="138.69,556.8",
		width=0.75];
	19 -- 124	[pos="258.59,689.72 232.92,661.27 178.81,601.28 152.99,572.66"];
	19 -- 156	[pos="299.76,706.45 356.06,708.79 485.16,714.14 541.68,716.48"];
	185	[height=0.5,
		pos="295.91,871.08",
		width=0.75];
	19 -- 185	[pos="275.21,723.39 279.68,755.27 288.91,821.18 293.38,853.05"];
	19 -- 211	[pos="289.04,690.63 348.85,636.87 555.29,451.33 615.26,397.44"];
	20	[height=0.5,
		pos="769.01,194.15",
		width=0.75];
	20 -- 81	[pos="750.94,207.9 716.15,234.37 640.23,292.15 605.5,318.59"];
	106	[height=0.5,
		pos="552.18,118.58",
		width=0.75];
	20 -- 106	[pos="744.98,185.77 703.3,171.24 618.07,141.54 576.32,126.99"];
	20 -- 186	[pos="796.27,192.54 826.94,190.74 876.47,187.82 907.05,186.03"];
	20 -- 189	[pos="771.3,212.11 775.93,248.51 786.38,330.59 791.02,367.06"];
	21	[height=0.5,
		pos="200.87,594.33",
		width=0.75];
	21 -- 79	[pos="181.03,606.7 156.91,621.73 116.41,646.97 92.179,662.07"];
	21 -- 84	[pos="225.73,586.87 233.39,584.57 241.81,582.04 249.46,579.74"];
	94	[height=0.5,
		pos="288.69,342.67",
		width=0.75];
	21 -- 94	[pos="207.05,576.64 223.17,530.43 266.4,406.53 282.52,360.35"];
	21 -- 158	[pos="210.7,611.4 238.9,660.41 319.91,801.15 348.11,850.15"];
	21 -- 190	[pos="206.53,576.65 214.67,551.19 229.62,504.45 237.78,478.95"];
	21 -- 200	[pos="227.5,591.07 260.55,587.01 316.57,580.14 349.6,576.09"];
	22	[height=0.5,
		pos="279.15,749.37",
		width=0.75];
	22 -- 85	[pos="273.62,731.5 259.71,686.55 223.39,569.2 209.47,524.22"];
	92	[height=0.5,
		pos="192.45,750.36",
		width=0.75];
	22 -- 92	[pos="251.72,749.68 241.5,749.8 229.91,749.93 219.71,750.05"];
	22 -- 95	[pos="281.3,767.44 285.09,799.35 292.92,865.33 296.71,897.22"];
	22 -- 168	[pos="290.42,765.8 318.76,807.13 392.76,915.04 421.11,956.4"];
	22 -- 191	[pos="297.89,736.03 305.8,730.4 314.98,723.86 322.88,718.23"];
	23	[height=0.5,
		pos="822.21,292.53",
		width=0.75];
	23 -- 50	[pos="795.6,295.97 777.83,298.27 754.54,301.28 736.74,303.58"];
	23 -- 86	[pos="812.33,275.58 787.49,232.95 722.64,121.66 697.78,79.008"];
	23 -- 96	[pos="809.44,308.74 782.58,342.83 720.53,421.62 693.79,455.58"];
	23 -- 159	[pos="820.69,274.44 818.35,246.63 813.89,193.66 811.54,165.71"];
	23 -- 196	[pos="844.58,282.13 877.97,266.63 940.47,237.6 973.81,222.11"];
	23 -- 231	[pos="829.57,309.85 840.37,335.23 860.39,382.28 871.19,407.67"];
	24	[height=0.5,
		pos="148.65,638.37",
		width=0.75];
	24 -- 56	[pos="160.92,654.46 188.11,690.11 253.16,775.39 280.32,811"];
	24 -- 92	[pos="155.49,655.87 163.67,676.79 177.29,711.59 185.51,732.61"];
	24 -- 151	[pos="175.86,639.29 190.17,639.77 207.67,640.35 221.98,640.83"];
	24 -- 197	[pos="147.7,620.18 146.41,595.18 144.09,550.47 142.8,525.55"];
	24 -- 210	[pos="158.7,621.61 183.48,580.27 247.29,473.82 272.19,432.27"];
	228	[height=0.5,
		pos="27,630.54",
		width=0.75];
	24 -- 228	[pos="121.65,636.63 101.49,635.34 74.063,633.57 53.922,632.27"];
	25	[height=0.5,
		pos="998.98,1029.8",
		width=0.75];
	25 -- 52	[pos="1004.6,1012 1019.1,965.5 1058.2,840.86 1072.7,794.4"];
	97	[height=0.5,
		pos="848.84,1187.6",
		width=0.75];
	25 -- 97	[pos="984.31,1045.2 955.54,1075.4 892,1142.2 863.35,1172.3"];
	25 -- 134	[pos="972.22,1033.1 933,1038 860.3,1047.1 821.08,1052"];
	25 -- 140	[pos="1003.5,1012 1011,982.19 1026.1,922.59 1033.7,892.62"];
	25 -- 198	[pos="1024.8,1035.7 1030.3,1036.9 1036,1038.2 1041.5,1039.5"];
	206	[height=0.5,
		pos="924.68,1165.8",
		width=0.75];
	25 -- 206	[pos="989.72,1046.7 975.48,1072.8 948.37,1122.5 934.06,1148.6"];
	237	[height=0.5,
		pos="746.31,1001",
		width=0.75];
	25 -- 237	[pos="971.94,1026.7 923.31,1021.2 821.65,1009.6 773.16,1004.1"];
	25 -- 248	[pos="974.58,1022 915.45,1003.3 765.02,955.48 705.8,936.67"];
	26	[height=0.5,
		pos="419.98,877.05",
		width=0.75];
	26 -- 74	[pos="407.32,860.85 392.61,842.05 368.49,811.21 353.8,792.42"];
	100	[height=0.5,
		pos="68.404,753.47",
		width=0.75];
	26 -- 100	[pos="396.09,868.65 331.95,846.11 156.5,784.44 92.326,761.88"];
	26 -- 109	[pos="397.12,867.07 360.61,851.14 289.53,820.13 253.15,804.26"];
	26 -- 162	[pos="443.72,886.16 493.67,905.34 609.09,949.65 658.83,968.74"];
	199	[height=0.5,
		pos="235.12,948.13",
		width=0.75];
	26 -- 199	[pos="396.57,886.05 361.1,899.69 294.15,925.43 258.63,939.09"];
	27	[height=0.5,
		pos="644.24,840.64",
		width=0.75];
	27 -- 91	[pos="647.54,858.69 655.25,900.88 674.37,1005.5 682.09,1047.8"];
	27 -- 102	[pos="627.14,826.35 600.69,804.26 550.18,762.09 523.86,740.11"];
	27 -- 113	[pos="620.76,849.56 580.03,865.02 496.75,896.65 455.95,912.14"];
	27 -- 185	[pos="617.2,843 552.14,848.69 387.49,863.08 322.7,868.74"];
	27 -- 201	[pos="669.77,834.38 727.85,820.15 869.32,785.47 927.42,771.23"];
	27 -- 241	[pos="658.75,825.19 670.36,812.82 686.56,795.57 698.17,783.21"];
	28	[height=0.5,
		pos="365.96,342.79",
		width=0.75];
	28 -- 106	[pos="379.05,327.03 413.25,285.86 504.92,175.48 539.1,134.33"];
	143	[height=0.5,
		pos="130.43,718.58",
		width=0.75];
	28 -- 143	[pos="355.54,359.43 316.63,421.5 180.15,639.25 141,701.72"];
	28 -- 188	[pos="359.67,360.44 358.65,363.32 357.59,366.29 356.57,369.16"];
	28 -- 202	[pos="385.71,330.14 427.95,303.08 526.64,239.86 568.84,212.82"];
	224	[height=0.5,
		pos="679.25,112.17",
		width=0.75];
	28 -- 224	[pos="384.16,329.4 439.53,288.64 605.56,166.41 661,125.6"];
	28 -- 226	[pos="370.24,360.65 378.33,394.4 395.77,467.19 403.87,500.98"];
	29	[height=0.5,
		pos="706.26,855.84",
		width=0.75];
	29 -- 57	[pos="707.02,837.61 708.73,796.43 712.89,696.62 714.59,655.63"];
	107	[height=0.5,
		pos="463.15,1067",
		width=0.75];
	29 -- 107	[pos="689.55,870.35 645.03,909.02 523.94,1014.2 479.66,1052.7"];
	29 -- 167	[pos="691.56,840.68 682.15,830.97 669.97,818.42 660.51,808.66"];
	29 -- 203	[pos="682.38,864.75 641.59,879.96 558.98,910.77 518.25,925.96"];
	29 -- 234	[pos="729.32,865.36 769.31,881.88 851.06,915.65 891.12,932.2"];
	29 -- 237	[pos="711.17,873.64 718.86,901.51 733.65,955.12 741.36,983.08"];
	240	[height=0.5,
		pos="659.25,1110",
		width=0.75];
	29 -- 240	[pos="702.96,873.71 694.35,920.26 671.29,1044.9 662.61,1091.8"];
	30	[height=0.5,
		pos="503.33,887.42",
		width=0.75];
	30 -- 80	[pos="492.4,870.64 485.3,859.75 476.09,845.6 469.01,834.74"];
	30 -- 108	[pos="492.78,870.76 466.27,828.86 397.04,719.47 370.51,677.54"];
	138	[height=0.5,
		pos="202.89,899.28",
		width=0.75];
	30 -- 138	[pos="476.14,888.49 419.08,890.75 287.43,895.94 230.24,898.2"];
	30 -- 199	[pos="477.61,893.24 426.34,904.85 311.96,930.74 260.76,942.33"];
	30 -- 205	[pos="507.91,905.21 516.12,937.11 533.26,1003.7 541.5,1035.7"];
	209	[height=0.5,
		pos="300.94,992.77",
		width=0.75];
	30 -- 209	[pos="481.67,898.69 442.72,918.97 361.29,961.36 322.45,981.57"];
	30 -- 212	[pos="530.41,888.76 595.42,891.96 759.68,900.07 824.91,903.28"];
	31	[height=0.5,
		pos="841.12,1099.4",
		width=0.75];
	31 -- 97	[pos="842.72,1117.7 844.05,1132.8 845.92,1154.2 847.25,1169.3"];
	31 -- 110	[pos="858.41,1085.6 892.24,1058.5 966.83,998.79 1000.7,971.67"];
	149	[height=0.5,
		pos="878.86,1232",
		width=0.75];
	31 -- 149	[pos="846.21,1117.3 853.41,1142.6 866.51,1188.6 873.73,1214"];
	31 -- 157	[pos="814.92,1094.9 770.3,1087.1 680.05,1071.5 635.25,1063.7"];
	31 -- 206	[pos="858.84,1113.5 873.12,1124.8 893.08,1140.7 907.27,1152"];
	31 -- 240	[pos="813.89,1101 779.51,1103 720.7,1106.4 686.36,1108.4"];
	32	[height=0.5,
		pos="1389.8,455.29",
		width=0.75];
	32 -- 69	[pos="1368.2,444.02 1312.9,415.1 1166.6,338.53 1111.5,309.72"];
	111	[height=0.5,
		pos="1250.1,460.06",
		width=0.75];
	32 -- 111	[pos="1362.5,456.22 1337.9,457.06 1301.9,458.29 1277.3,459.13"];
	32 -- 172	[pos="1416.8,457.2 1419.5,457.39 1422.1,457.58 1424.7,457.76"];
	32 -- 207	[pos="1386.1,473.43 1377.4,515.94 1355.8,621.53 1347.1,663.8"];
	33	[height=0.5,
		pos="706.7,263",
		width=0.75];
	33 -- 90	[pos="691.18,277.88 648.33,318.96 528.69,433.64 485.77,474.78"];
	33 -- 114	[pos="680.67,268.42 660.2,272.68 631.81,278.58 611.35,282.84"];
	33 -- 130	[pos="698.99,245.71 682.49,208.72 643.96,122.32 627.49,85.365"];
	33 -- 163	[pos="679.52,262.2 625.85,260.63 506.8,257.13 453.12,255.55"];
	33 -- 208	[pos="733.48,266.09 783.31,271.84 889.71,284.11 939.44,289.84"];
	33 -- 235	[pos="688.08,276.48 644.47,308.04 536.13,386.43 492.75,417.82"];
	34	[height=0.5,
		pos="1323.7,769.89",
		width=0.75];
	34 -- 115	[pos="1324.1,787.91 1325,822.51 1326.9,897.92 1327.8,932.68"];
	34 -- 118	[pos="1312.5,753.23 1291.9,722.31 1247.8,656.38 1227.1,625.35"];
	123	[height=0.5,
		pos="1311.9,725.85",
		width=0.75];
	34 -- 123	[pos="1318.9,751.97 1318.1,749.21 1317.4,746.36 1316.6,743.6"];
	34 -- 142	[pos="1338.9,754.42 1358.6,734.49 1392.6,700.06 1412.1,680.26"];
	34 -- 213	[pos="1316.7,787.33 1305.7,815.11 1284.2,869.12 1273.2,896.95"];
	214	[height=0.5,
		pos="1142.1,1013",
		width=0.75];
	34 -- 214	[pos="1311.5,786.22 1278.4,830.5 1187.3,952.52 1154.3,996.72"];
	35	[height=0.5,
		pos="956.08,985.77",
		width=0.75];
	35 -- 116	[pos="935.57,997.49 897.51,1019.3 816.36,1065.7 778.16,1087.5"];
	35 -- 120	[pos="980.77,977.81 1028.3,962.49 1132.1,929.06 1179.6,913.76"];
	35 -- 141	[pos="955.88,967.54 955.52,934.76 954.78,866.23 954.43,833.55"];
	35 -- 147	[pos="957.7,1004 959.09,1019.7 961.08,1042.2 962.47,1057.8"];
	35 -- 214	[pos="982.74,989.67 1018.1,994.84 1080.2,1003.9 1115.5,1009.1"];
	238	[height=0.5,
		pos="651.15,1156",
		width=0.75];
	35 -- 238	[pos="935.12,997.47 879.28,1028.6 727.4,1113.4 671.85,1144.4"];
	36	[height=0.5,
		pos="1006.3,1120.1",
		width=0.75];
	36 -- 70	[pos="1017.4,1103.4 1042.9,1065.2 1105.6,971.51 1131.1,933.34"];
	36 -- 121	[pos="979.72,1123.5 945.1,1127.9 884.88,1135.6 850.25,1140.1"];
	36 -- 149	[pos="989.88,1134.5 965.41,1156 919.62,1196.2 895.2,1217.7"];
	36 -- 180	[pos="1018.8,1103.9 1054.6,1057.6 1157.6,924.35 1193.4,877.98"];
	215	[height=0.5,
		pos="1243.9,1097.1",
		width=0.75];
	36 -- 215	[pos="1033.1,1117.5 1078.7,1113.1 1171,1104.2 1216.9,1099.7"];
	37	[height=0.5,
		pos="1154.4,299.27",
		width=0.75];
	37 -- 66	[pos="1176,310.43 1204,324.97 1252.9,350.26 1280.9,364.81"];
	37 -- 122	[pos="1154.4,317.56 1154.4,331.7 1154.4,351.18 1154.4,365.3"];
	37 -- 187	[pos="1170.5,314.01 1211.1,351.06 1316.9,447.8 1357.5,484.87"];
	216	[height=0.5,
		pos="1037.4,112.88",
		width=0.75];
	37 -- 216	[pos="1143.8,282.4 1121.6,246.91 1070.1,164.91 1047.9,129.57"];
	38	[height=0.5,
		pos="1079.1,683.04",
		width=0.75];
	38 -- 67	[pos="1099.5,670.96 1142.4,645.53 1241.6,586.78 1284.3,561.46"];
	38 -- 123	[pos="1105.3,687.87 1150.1,696.11 1240.9,712.81 1285.7,721.04"];
	38 -- 219	[pos="1065.5,698.9 1023.3,748.2 894.8,898.38 852.83,947.44"];
	244	[height=0.5,
		pos="1328.4,593.54",
		width=0.75];
	38 -- 244	[pos="1103,674.46 1150.6,657.35 1257,619.18 1304.6,602.1"];
	38 -- 245	[pos="1063,668.46 1016.2,625.83 879.71,501.69 832.68,458.91"];
	39	[height=0.5,
		pos="119.68,343.11",
		width=0.75];
	39 -- 64	[pos="128.41,360.22 132.91,369.05 138.4,379.8 142.9,388.64"];
	39 -- 124	[pos="121.3,361.33 124.89,401.7 133.48,498.3 137.07,538.63"];
	39 -- 184	[pos="125.58,325.46 128.74,316.02 132.61,304.42 135.77,294.96"];
	39 -- 221	[pos="146.3,347.32 153.76,348.5 161.87,349.79 169.32,350.97"];
	39 -- 225	[pos="141.34,332.25 175.23,315.27 240.45,282.59 274.45,265.55"];
	40	[height=0.5,
		pos="768.73,238.22",
		width=0.75];
	40 -- 54	[pos="784.36,252.96 813.38,280.31 875.24,338.63 904.36,366.08"];
	40 -- 125	[pos="765.89,220.12 761.93,194.96 754.81,149.65 750.83,124.37"];
	131	[height=0.5,
		pos="721.31,18",
		width=0.75];
	40 -- 131	[pos="764.85,220.2 755.94,178.8 734.08,77.302 725.18,35.962"];
	136	[height=0.5,
		pos="999.71,156.91",
		width=0.75];
	40 -- 136	[pos="793.01,229.67 837.49,214.02 931.52,180.92 975.75,165.35"];
	40 -- 223	[pos="759.02,255.28 738.58,291.16 691.35,374.07 671,409.8"];
	40 -- 224	[pos="757.03,221.74 739.88,197.58 708.1,152.81 690.95,128.65"];
	40 -- 246	[pos="741.72,239.52 720.85,240.53 692.09,241.92 671.22,242.92"];
	41	[height=0.5,
		pos="34.085,548.95",
		width=0.75];
	41 -- 100	[pos="37.13,567.1 43.643,605.91 58.859,696.59 65.366,735.36"];
	41 -- 126	[pos="47.032,532.84 59.338,517.53 77.742,494.63 90.029,479.34"];
	41 -- 222	[pos="38.208,531.08 45.23,500.63 59.433,439.06 66.482,408.5"];
	41 -- 228	[pos="32.512,567.06 31.338,580.58 29.741,598.97 28.568,612.48"];
	42	[height=0.5,
		pos="1018.8,337.08",
		width=0.75];
	42 -- 73	[pos="1018.6,355.23 1018.4,378.9 1018,420.05 1017.7,443.73"];
	42 -- 129	[pos="991.44,337.02 948.5,336.93 865.75,336.76 822.88,336.68"];
	42 -- 136	[pos="1016.9,318.81 1013.2,284.19 1005.3,209.41 1001.6,174.96"];
	42 -- 220	[pos="1027.5,354.45 1047.9,395.14 1098.6,496.21 1118.8,536.68"];
	42 -- 229	[pos="1044.7,342.41 1082.5,350.22 1152.8,364.7 1190.6,372.51"];
	43	[height=0.5,
		pos="554.76,43.474",
		width=0.75];
	43 -- 128	[pos="546.12,60.62 522.69,107.13 458.14,235.26 434.75,281.68"];
	43 -- 131	[pos="581.15,39.438 612.24,34.682 663.61,26.826 694.77,22.06"];
	43 -- 194	[pos="537.01,57.511 525.88,66.313 511.6,77.613 500.51,86.385"];
	43 -- 230	[pos="532.48,53.734 488.18,74.132 389.48,119.58 344.96,140.08"];
	44	[height=0.5,
		pos="396.18,820.28",
		width=0.75];
	44 -- 88	[pos="384.78,803.8 351.47,755.61 254.46,615.29 221.03,566.93"];
	44 -- 132	[pos="392.62,838.16 387.15,865.65 376.73,918.01 371.23,945.64"];
	44 -- 138	[pos="372.86,829.81 335.61,845.04 263.1,874.67 225.99,889.84"];
	44 -- 139	[pos="403.37,802.78 412.6,780.36 428.49,741.72 437.73,719.26"];
	44 -- 192	[pos="403.74,837.8 419.92,875.26 457.73,962.79 473.89,1000.2"];
	44 -- 232	[pos="397.99,802.25 399.15,790.62 400.66,775.56 401.83,763.91"];
	45	[height=0.5,
		pos="1054.7,595.02",
		width=0.75];
	45 -- 111	[pos="1073.8,581.83 1111.3,555.97 1193.9,498.85 1231.2,473.1"];
	45 -- 133	[pos="1061.4,612.73 1077.2,654.9 1117.2,760.93 1133,803.03"];
	45 -- 195	[pos="1027.4,595.99 1018,596.32 1007.6,596.69 998.33,597.02"];
	45 -- 233	[pos="1054.3,576.73 1053.6,538.26 1051.8,449.36 1051,411.06"];
	45 -- 242	[pos="1027.5,594.9 967.13,594.62 822.76,593.96 762.48,593.69"];
	46	[height=0.5,
		pos="706.65,206.19",
		width=0.75];
	46 -- 94	[pos="682.38,214.11 608.5,238.24 386.99,310.57 313.03,334.72"];
	46 -- 137	[pos="720.32,221.97 749.08,255.18 815.53,331.9 844.16,364.96"];
	46 -- 216	[pos="731.79,199.1 793.3,181.74 950.87,137.3 1012.3,119.96"];
	46 -- 236	[pos="679.37,206.69 631.93,207.57 534.79,209.37 487.52,210.25"];
	47	[height=0.5,
		pos="386.15,1028.7",
		width=0.75];
	47 -- 107	[pos="408.01,1039.6 418.51,1044.8 431.04,1051 441.51,1056.2"];
	47 -- 143	[pos="373.12,1012.9 329.25,959.71 187.27,787.51 143.44,734.36"];
	47 -- 209	[pos="363.32,1019.1 351.09,1013.9 336.08,1007.6 323.84,1002.4"];
	47 -- 238	[pos="408.29,1039.4 458.17,1063.3 578.89,1121.3 628.89,1145.3"];
	48	[height=0.5,
		pos="1359.9,893.06",
		width=0.75];
	48 -- 58	[pos="1343.1,907.53 1319,928.37 1274.8,966.62 1250.7,987.49"];
	48 -- 145	[pos="1360.1,874.69 1360.7,827.55 1362.3,702.73 1362.8,655.78"];
	48 -- 148	[pos="1347,877.01 1328.2,853.48 1293.3,809.87 1274.5,786.34"];
	48 -- 215	[pos="1350.2,910.11 1328.3,948.62 1275.3,1041.9 1253.5,1080.3"];
	48 -- 239	[pos="1344.9,908.41 1315.3,938.92 1249.1,1006.9 1219.3,1037.6"];
	49	[height=0.5,
		pos="1265.1,681.77",
		width=0.75];
	49 -- 127	[pos="1251.5,665.9 1217.9,626.65 1131.3,525.44 1097.8,486.31"];
	49 -- 146	[pos="1266.6,699.87 1269.6,735.27 1276.1,813.32 1279.1,848.78"];
	49 -- 155	[pos="1239,676.95 1194.3,668.72 1103.9,652.06 1059.4,643.84"];
	49 -- 244	[pos="1277,665.18 1288.3,649.4 1305.3,625.81 1316.6,610.06"];
}
