graph {
	graph [bb="0,0,819.68,1011.6",
		outputorder=edgesfirst,
		overlap=prism,
		size="50,50!",
		start=5260
	];
	node [label="\N"];
	0	[height=0.5,
		pos="467.45,488.91",
		width=0.75];
	37	[height=0.5,
		pos="661.21,449.44",
		width=0.75];
	0 -- 37	[pos="493.58,483.58 530.66,476.03 598.15,462.29 635.18,454.75"];
	2	[height=0.5,
		pos="410.4,370.54",
		width=0.75];
	0 -- 2	[pos="459.15,471.69 448.33,449.25 429.52,410.23 418.7,387.77"];
	25	[height=0.5,
		pos="505.84,436.74",
		width=0.75];
	0 -- 25	[pos="479.38,472.69 483.96,466.46 489.19,459.37 493.78,453.13"];
	3	[height=0.5,
		pos="398.26,294.81",
		width=0.75];
	0 -- 3	[pos="461.18,471.34 448.05,434.48 417.73,349.42 404.56,312.47"];
	4	[height=0.5,
		pos="444.66,538.44",
		width=0.75];
	0 -- 4	[pos="459.48,506.23 457.27,511.03 454.88,516.24 452.67,521.04"];
	5	[height=0.5,
		pos="436.12,615.34",
		width=0.75];
	0 -- 5	[pos="463.02,506.75 457.09,530.71 446.6,573.05 440.62,597.18"];
	18	[height=0.5,
		pos="374.06,654.19",
		width=0.75];
	0 -- 18	[pos="457.8,505.97 439.91,537.64 401.75,605.18 383.79,636.97"];
	62	[height=0.5,
		pos="556.24,525.62",
		width=0.75];
	0 -- 62	[pos="490.78,498.55 503.83,503.95 520.04,510.65 533.07,516.04"];
	9	[height=0.5,
		pos="298.13,619.61",
		width=0.75];
	0 -- 9	[pos="449.65,502.65 417.13,527.75 348.47,580.74 315.94,605.85"];
	34	[height=0.5,
		pos="368.55,414.59",
		width=0.75];
	0 -- 34	[pos="449.31,475.27 431.46,461.86 404.38,441.51 386.57,428.13"];
	12	[height=0.5,
		pos="633.47,548.59",
		width=0.75];
	0 -- 12	[pos="491.23,497.46 522.7,508.77 577.87,528.61 609.45,539.96"];
	20	[height=0.5,
		pos="588.65,592.63",
		width=0.75];
	0 -- 20	[pos="484.04,503.11 507.12,522.86 548.68,558.43 571.86,578.27"];
	39	[height=0.5,
		pos="480.46,674.11",
		width=0.75];
	0 -- 39	[pos="468.72,507 471.21,542.41 476.69,620.47 479.19,655.94"];
	49	[height=0.5,
		pos="584.21,476.71",
		width=0.75];
	0 -- 49	[pos="494.23,486.11 513.09,484.14 538.23,481.51 557.14,479.53"];
	64	[height=0.5,
		pos="501.29,355.37",
		width=0.75];
	0 -- 64	[pos="472.01,470.9 478.47,445.41 490.21,399.08 496.69,373.52"];
	28	[height=0.5,
		pos="526.59,577.99",
		width=0.75];
	0 -- 28	[pos="478.57,505.66 489.15,521.59 504.96,545.41 515.52,561.31"];
	71	[height=0.5,
		pos="418.43,705.18",
		width=0.75];
	0 -- 71	[pos="463.35,506.97 454.1,547.78 431.68,646.7 422.47,687.32"];
	54	[height=0.5,
		pos="373.5,573.35",
		width=0.75];
	0 -- 54	[pos="451.08,503.61 433.84,519.11 406.85,543.37 389.68,558.81"];
	35	[height=0.5,
		pos="526.63,630.1",
		width=0.75];
	0 -- 35	[pos="474.82,506.5 486.23,533.71 508,585.66 519.35,612.73"];
	57	[height=0.5,
		pos="567.69,370.4",
		width=0.75];
	0 -- 57	[pos="480.97,472.92 500.21,450.18 535.27,408.73 554.39,386.13"];
	77	[height=0.5,
		pos="288.01,507.66",
		width=0.75];
	0 -- 77	[pos="440.58,491.71 406.66,495.26 348.64,501.32 314.77,504.86"];
	37 -- 62	[pos="642.92,462.71 623.77,476.61 593.87,498.31 574.67,512.25"];
	1	[height=0.5,
		pos="273.32,437.58",
		width=0.75];
	67	[height=0.5,
		pos="333.81,342.73",
		width=0.75];
	1 -- 67	[pos="284.13,420.62 295.14,403.36 312.11,376.75 323.09,359.54"];
	1 -- 2	[pos="295.34,426.81 320.92,414.3 362.87,393.78 388.43,381.29"];
	1 -- 3	[pos="286.93,422.02 310.84,394.71 360.13,338.38 384.29,310.77"];
	8	[height=0.5,
		pos="293.43,298.53",
		width=0.75];
	1 -- 8	[pos="275.95,419.4 279.8,392.75 286.95,343.36 290.8,316.72"];
	1 -- 4	[pos="293.65,449.54 326.62,468.95 391.4,507.08 424.36,526.48"];
	36	[height=0.5,
		pos="311.45,575.6",
		width=0.75];
	1 -- 36	[pos="278.23,455.34 285.51,481.69 299.1,530.9 306.44,557.47"];
	10	[height=0.5,
		pos="197.32,278.35",
		width=0.75];
	1 -- 10	[pos="265.04,420.23 250.42,389.6 220.2,326.29 205.59,295.67"];
	1 -- 9	[pos="275.79,455.69 280.54,490.59 290.92,566.73 295.67,601.56"];
	1 -- 34	[pos="298.84,431.41 312.5,428.12 329.28,424.06 342.96,420.76"];
	41	[height=0.5,
		pos="139.64,370.02",
		width=0.75];
	1 -- 41	[pos="251.54,426.57 226.69,414.01 186.26,393.58 161.41,381.02"];
	43	[height=0.5,
		pos="132.82,326.01",
		width=0.75];
	1 -- 43	[pos="255.81,423.67 228.89,402.29 177.61,361.57 150.55,340.09"];
	52	[height=0.5,
		pos="232.85,392.72",
		width=0.75];
	1 -- 52	[pos="259.39,422.14 255.37,417.68 250.97,412.81 246.94,408.34"];
	23	[height=0.5,
		pos="179.86,607.26",
		width=0.75];
	1 -- 23	[pos="263.84,454.78 245.88,487.39 207.09,557.82 189.22,590.26"];
	50	[height=0.5,
		pos="140.88,563.22",
		width=0.75];
	1 -- 50	[pos="257.61,452.48 232.12,476.66 182.05,524.16 156.57,548.33"];
	73	[height=0.5,
		pos="241.87,574.88",
		width=0.75];
	1 -- 73	[pos="269.21,455.53 263.18,481.84 252.01,530.61 245.99,556.93"];
	29	[height=0.5,
		pos="231.38,322.44",
		width=0.75];
	1 -- 29	[pos="266.77,419.59 258.89,397.96 245.75,361.88 237.89,340.3"];
	44	[height=0.5,
		pos="350.07,529.09",
		width=0.75];
	1 -- 44	[pos="286.69,453.52 300.78,470.31 322.83,496.6 336.85,513.33"];
	53	[height=0.5,
		pos="92.201,414.06",
		width=0.75];
	1 -- 53	[pos="246.6,434.1 212.25,429.65 152.99,421.95 118.74,417.5"];
	74	[height=0.5,
		pos="377.49,460.93",
		width=0.75];
	1 -- 74	[pos="299.07,443.35 315.1,446.94 335.64,451.55 351.68,455.14"];
	58	[height=0.5,
		pos="85.348,458.08",
		width=0.75];
	1 -- 58	[pos="246.39,440.51 210.65,444.41 147.94,451.25 112.23,455.15"];
	1 -- 77	[pos="277.1,455.62 279.28,466.01 282.01,479.02 284.19,489.43"];
	65	[height=0.5,
		pos="94.051,505.86",
		width=0.75];
	1 -- 65	[pos="249.51,446.64 215.13,459.74 151.95,483.8 117.67,496.86"];
	79	[height=0.5,
		pos="183.17,502.8",
		width=0.75];
	1 -- 79	[pos="254.64,451.09 239.07,462.36 217,478.33 201.52,489.53"];
	2 -- 25	[pos="429.25,383.62 445.98,395.23 470.3,412.09 487.02,423.69"];
	2 -- 3	[pos="407.52,352.59 405.6,340.61 403.08,324.9 401.16,312.89"];
	2 -- 4	[pos="414.06,388.51 420.66,420.82 434.45,488.38 441.02,520.6"];
	7	[height=0.5,
		pos="277.53,214.13",
		width=0.75];
	2 -- 7	[pos="396.92,354.68 371.46,324.7 316.53,260.04 291.03,230.03"];
	17	[height=0.5,
		pos="502.23,250.86",
		width=0.75];
	2 -- 17	[pos="422.78,354.4 440.31,331.56 472.17,290.04 489.75,267.13"];
	2 -- 52	[pos="383.82,373.86 350.34,378.04 293.17,385.18 259.61,389.38"];
	22	[height=0.5,
		pos="566.78,284.06",
		width=0.75];
	2 -- 22	[pos="431.49,358.88 461.42,342.33 515.89,312.2 545.77,295.68"];
	26	[height=0.5,
		pos="440.21,215",
		width=0.75];
	2 -- 26	[pos="413.87,352.4 419.62,322.42 431.02,262.93 436.75,233.03"];
	46	[height=0.5,
		pos="574.02,415.65",
		width=0.75];
	2 -- 46	[pos="435.6,377.49 466.44,385.99 518.32,400.3 549.05,408.77"];
	2 -- 64	[pos="436.69,366.15 448.75,364.14 463.01,361.76 475.06,359.75"];
	2 -- 29	[pos="385.13,363.75 351.01,354.59 290.57,338.35 256.52,329.2"];
	2 -- 74	[pos="403.9,388.4 398.09,404.35 389.64,427.58 383.87,443.42"];
	2 -- 57	[pos="437.44,370.52 466.25,370.49 511.6,370.45 540.48,370.42"];
	25 -- 49	[pos="527.67,447.87 538.54,453.42 551.64,460.1 562.5,465.63"];
	25 -- 46	[pos="530.45,429.13 536.56,427.24 543.1,425.21 549.21,423.32"];
	25 -- 57	[pos="520.18,421.35 530.18,410.64 543.45,396.4 553.43,385.7"];
	3 -- 67	[pos="379.97,308.41 371.18,314.94 360.69,322.74 351.93,329.26"];
	3 -- 8	[pos="371.27,295.77 355.74,296.32 336.28,297.01 320.7,297.56"];
	3 -- 7	[pos="379.13,282.02 356.66,267.01 319.58,242.23 296.97,227.12"];
	3 -- 10	[pos="371.16,292.59 332.7,289.44 262.71,283.71 224.31,280.56"];
	3 -- 17	[pos="421.08,285.16 438.29,277.89 461.82,267.94 479.11,260.64"];
	3 -- 34	[pos="393.81,312.74 388.21,335.32 378.64,373.89 373.03,396.53"];
	19	[height=0.5,
		pos="324.15,125.88",
		width=0.75];
	3 -- 19	[pos="390.61,277.36 376.41,244.99 346.12,175.97 331.87,143.48"];
	13	[height=0.5,
		pos="621.99,225.83",
		width=0.75];
	3 -- 13	[pos="423.06,287.16 466.18,273.87 554.47,246.65 597.43,233.4"];
	42	[height=0.5,
		pos="572.46,162.81",
		width=0.75];
	3 -- 42	[pos="416.25,281.18 449.71,255.82 521.18,201.67 554.57,176.37"];
	3 -- 22	[pos="425.34,293.08 456.78,291.08 508.35,287.79 539.77,285.78"];
	24	[height=0.5,
		pos="559.97,206.84",
		width=0.75];
	3 -- 24	[pos="419.4,283.31 450.39,266.45 507.83,235.2 538.82,218.34"];
	3 -- 26	[pos="407.36,277.49 414.45,264.01 424.22,245.41 431.27,232.01"];
	31	[height=0.5,
		pos="386.16,112.69",
		width=0.75];
	3 -- 31	[pos="397.06,276.68 394.74,241.77 389.67,165.6 387.36,130.75"];
	3 -- 64	[pos="418.62,306.77 436.68,317.39 462.93,332.82 480.98,343.43"];
	38	[height=0.5,
		pos="386.15,162.89",
		width=0.75];
	3 -- 38	[pos="396.6,276.74 394.3,251.62 390.15,206.39 387.83,181.16"];
	47	[height=0.5,
		pos="510.23,139.93",
		width=0.75];
	3 -- 47	[pos="410.03,278.52 431.48,248.86 476.7,186.31 498.28,156.46"];
	40	[height=0.5,
		pos="281.12,170.1",
		width=0.75];
	3 -- 40	[pos="383.9,279.52 361.42,255.58 318.16,209.53 295.6,185.52"];
	48	[height=0.5,
		pos="448.2,121.5",
		width=0.75];
	3 -- 48	[pos="403.42,276.91 413.01,243.62 433.5,172.52 443.07,139.3"];
	8 -- 67	[pos="307.56,313.99 311.47,318.27 315.71,322.92 319.63,327.21"];
	8 -- 10	[pos="267.68,293.13 253.89,290.23 236.95,286.67 223.15,283.78"];
	4 -- 25	[pos="454.77,521.64 466.1,502.8 484.38,472.41 495.72,453.56"];
	4 -- 5	[pos="442.64,556.66 441.28,568.92 439.49,585.02 438.13,597.25"];
	4 -- 36	[pos="419.61,545.43 395.79,552.07 360.17,562.01 336.39,568.64"];
	6	[height=0.5,
		pos="587.97,684.87",
		width=0.75];
	4 -- 6	[pos="459.46,553.56 486.92,581.62 545.48,641.45 573.04,669.62"];
	4 -- 62	[pos="471.39,535.37 488.93,533.35 511.78,530.73 529.35,528.71"];
	4 -- 9	[pos="423.67,550.07 395.81,565.5 346.92,592.58 319.08,608"];
	4 -- 12	[pos="471.71,539.89 507.61,541.82 570.6,545.21 606.47,547.14"];
	4 -- 20	[pos="468.44,547.39 495.12,557.43 538.14,573.62 564.83,583.67"];
	32	[height=0.5,
		pos="340.9,732.21",
		width=0.75];
	4 -- 32	[pos="435.46,555.63 415.76,592.4 369.76,678.31 350.09,715.05"];
	4 -- 49	[pos="467.39,528.38 493.34,516.9 535.54,498.23 561.49,486.76"];
	4 -- 46	[pos="460.27,523.62 485.13,500.02 533.46,454.15 558.36,430.51"];
	4 -- 73	[pos="418.57,543.13 379.74,550.1 307.15,563.15 268.19,570.15"];
	4 -- 44	[pos="417.81,535.78 405.03,534.52 389.78,533.01 376.99,531.75"];
	4 -- 74	[pos="431.07,522.75 419.42,509.31 402.71,490.03 391.07,476.59"];
	5 -- 18	[pos="416.14,627.85 409.05,632.29 401.08,637.28 394,641.71"];
	5 -- 62	[pos="454.1,601.91 476.75,585 515.43,556.1 538.14,539.14"];
	5 -- 9	[pos="408.85,616.19 384.66,616.93 349.51,618.02 325.33,618.77"];
	5 -- 32	[pos="422.88,631.59 404.68,653.92 372.16,693.84 354.02,716.1"];
	5 -- 71	[pos="432.54,633.52 429.47,649.11 425.07,671.45 422,687.03"];
	18 -- 32	[pos="366.54,671.9 361.07,684.75 353.71,702.07 348.28,714.85"];
	18 -- 28	[pos="395.92,643.28 424.91,628.79 475.8,603.36 504.78,588.89"];
	18 -- 71	[pos="387.61,669.77 393.02,675.98 399.23,683.11 404.65,689.35"];
	18 -- 35	[pos="400.64,650 428.56,645.59 472.21,638.7 500.11,634.29"];
	36 -- 73	[pos="284.35,575.32 279.31,575.27 274.05,575.21 269.01,575.16"];
	36 -- 44	[pos="324.74,559.59 328.67,554.86 332.96,549.69 336.88,544.96"];
	6 -- 12	[pos="593.92,667.06 602.64,640.94 618.8,592.53 627.52,566.41"];
	6 -- 20	[pos="588.11,666.65 588.22,650.48 588.4,626.98 588.51,610.82"];
	15	[height=0.5,
		pos="703.74,669.33",
		width=0.75];
	6 -- 15	[pos="614.53,681.31 633.23,678.8 658.15,675.45 676.91,672.93"];
	68	[height=0.5,
		pos="663.54,738.21",
		width=0.75];
	6 -- 68	[pos="606.65,698.06 618.28,706.26 633.18,716.78 644.81,724.99"];
	30	[height=0.5,
		pos="760.21,597.65",
		width=0.75];
	6 -- 30	[pos="609.79,673.83 642.92,657.05 705.55,625.33 738.57,608.61"];
	21	[height=0.5,
		pos="765.81,648.77",
		width=0.75];
	6 -- 21	[pos="613.83,679.63 647.55,672.78 706.19,660.88 739.92,654.03"];
	45	[height=0.5,
		pos="609.38,825.54",
		width=0.75];
	6 -- 45	[pos="590.73,702.98 594.84,729.99 602.53,780.54 606.63,807.51"];
	72	[height=0.5,
		pos="671.44,835.04",
		width=0.75];
	6 -- 72	[pos="597.39,701.81 613.42,730.65 645.84,788.98 661.93,817.94"];
	56	[height=0.5,
		pos="542.35,870.89",
		width=0.75];
	6 -- 56	[pos="583.6,702.71 574.88,738.27 555.42,817.6 546.71,853.11"];
	78	[height=0.5,
		pos="735.9,778.24",
		width=0.75];
	6 -- 78	[pos="607.62,697.27 635.91,715.13 687.84,747.9 716.17,765.79"];
	7 -- 10	[pos="260.12,228.06 246.67,238.84 228.13,253.68 214.69,264.44"];
	7 -- 19	[pos="286.51,197.11 294.72,181.59 306.78,158.75 315.03,143.14"];
	14	[height=0.5,
		pos="123.95,202.46",
		width=0.75];
	7 -- 14	[pos="250.42,212.07 222.35,209.94 178.75,206.63 150.78,204.5"];
	11	[height=0.5,
		pos="142.16,148.99",
		width=0.75];
	7 -- 11	[pos="255.48,203.52 230.3,191.4 189.37,171.71 164.2,159.59"];
	27	[height=0.5,
		pos="218.84,49.052",
		width=0.75];
	7 -- 27	[pos="271.25,196.46 259.95,164.69 236.34,98.271 225.07,66.591"];
	55	[height=0.5,
		pos="164.95,93.087",
		width=0.75];
	7 -- 55	[pos="263.27,198.8 241.73,175.64 201.12,131.98 179.44,108.68"];
	7 -- 26	[pos="304.75,214.27 334.88,214.44 383.11,214.69 413.16,214.85"];
	7 -- 31	[pos="293.56,199.16 314.21,179.87 349.9,146.55 370.42,127.39"];
	7 -- 29	[pos="270.11,231.53 261.5,251.74 247.38,284.89 238.78,305.08"];
	51	[height=0.5,
		pos="334.34,18",
		width=0.75];
	7 -- 51	[pos="282.67,196.38 293.46,159.13 318.35,73.187 329.17,35.852"];
	10 -- 14	[pos="182.47,263 169.74,249.83 151.5,230.96 138.77,217.8"];
	10 -- 11	[pos="189.88,260.91 179.35,236.22 160.21,191.34 149.65,166.57"];
	10 -- 43	[pos="179.01,291.88 170.22,298.38 159.72,306.13 150.96,312.61"];
	69	[height=0.5,
		pos="43.022,204.76",
		width=0.75];
	10 -- 69	[pos="175.21,267.81 145.88,253.82 94.4,229.26 65.089,215.28"];
	10 -- 53	[pos="184.85,294.45 164.62,320.57 124.88,371.87 104.66,397.98"];
	76	[height=0.5,
		pos="27.093,280.14",
		width=0.75];
	10 -- 76	[pos="169.97,278.64 138.11,278.97 85.804,279.52 54.094,279.85"];
	9 -- 18	[pos="320.5,629.8 330.3,634.26 341.78,639.49 351.59,643.96"];
	59	[height=0.5,
		pos="194.33,743.19",
		width=0.75];
	9 -- 59	[pos="284.77,635.51 264.84,659.24 227.54,703.65 207.64,727.34"];
	9 -- 32	[pos="304.81,637.2 312.85,658.36 326.25,693.64 334.26,714.74"];
	9 -- 23	[pos="271.29,616.81 251.94,614.78 225.92,612.07 206.59,610.05"];
	9 -- 50	[pos="274.25,611.04 244.61,600.41 194.36,582.39 164.73,571.77"];
	9 -- 73	[pos="280.64,605.7 273.93,600.37 266.27,594.28 259.55,588.93"];
	9 -- 54	[pos="318.33,607.21 329.23,600.52 342.64,592.29 353.51,585.62"];
	9 -- 77	[pos="296.5,601.62 294.63,580.85 291.56,546.88 289.67,525.97"];
	61	[height=0.5,
		pos="156.81,699.15",
		width=0.75];
	9 -- 61	[pos="277.28,631.34 250.56,646.38 204.51,672.3 177.75,687.36"];
	59 -- 61	[pos="180.79,727.29 177.35,723.25 173.65,718.91 170.21,714.88"];
	63	[height=0.5,
		pos="38.969,683.09",
		width=0.75];
	59 -- 63	[pos="170.74,734.06 141.45,722.73 91.804,703.53 62.533,692.2"];
	70	[height=0.5,
		pos="646,109.25",
		width=0.75];
	17 -- 70	[pos="517.62,235.71 545.29,208.45 603.14,151.47 630.73,124.3"];
	17 -- 22	[pos="523.72,261.92 530.62,265.46 538.26,269.39 545.16,272.94"];
	17 -- 26	[pos="481.58,238.92 474.95,235.09 467.61,230.85 460.98,227.01"];
	34 -- 54	[pos="369.12,432.8 370.07,463.42 371.99,524.87 372.94,555.35"];
	34 -- 77	[pos="354.89,430.37 340.08,447.49 316.58,474.65 301.74,491.79"];
	34 -- 79	[pos="346.55,425.05 310.97,441.98 241.17,475.2 205.43,492.21"];
	41 -- 43	[pos="136.83,351.87 136.43,349.31 136.03,346.68 135.63,344.12"];
	41 -- 52	[pos="165.11,376.22 178.26,379.43 194.26,383.32 207.41,386.52"];
	41 -- 58	[pos="129.17,387 119.56,402.6 105.39,425.58 95.784,441.16"];
	19 -- 31	[pos="350.09,120.36 353.4,119.66 356.8,118.93 360.12,118.23"];
	19 -- 38	[pos="344.45,138 351.37,142.13 359.11,146.75 366.02,150.87"];
	19 -- 40	[pos="309.1,141.34 304.83,145.73 300.2,150.5 295.94,154.87"];
	19 -- 51	[pos="325.88,107.58 327.76,87.619 330.76,55.88 332.63,36.029"];
	14 -- 41	[pos="125.66,220.72 128.68,253.03 134.95,319.93 137.96,352.05"];
	14 -- 27	[pos="134.28,185.75 152.53,156.24 190.27,95.237 208.51,65.741"];
	75	[height=0.5,
		pos="27,75.679",
		width=0.75];
	14 -- 75	[pos="111.67,186.41 93.122,162.15 58.152,116.42 39.485,92.006"];
	14 -- 43	[pos="125.26,220.69 126.93,244.05 129.83,284.31 131.51,307.7"];
	14 -- 69	[pos="96.549,203.24 88.021,203.48 78.624,203.75 70.117,203.99"];
	14 -- 55	[pos="130.53,184.89 138.18,164.48 150.73,131.01 158.38,110.62"];
	14 -- 29	[pos="137.99,218.15 158.58,241.14 196.74,283.76 217.33,306.75"];
	14 -- 76	[pos="106.63,216.35 89.111,230.4 62.168,252.01 44.585,266.11"];
	11 -- 14	[pos="136.09,166.79 134.15,172.51 131.99,178.83 130.05,184.55"];
	11 -- 27	[pos="154.48,132.93 168.7,114.39 191.97,84.062 206.29,65.401"];
	11 -- 75	[pos="122.62,136.55 101.45,123.07 67.844,101.68 46.63,88.176"];
	11 -- 69	[pos="121.13,160.81 104.2,170.34 80.513,183.66 63.676,193.14"];
	27 -- 75	[pos="192.16,52.754 155.51,57.841 89.979,66.937 53.448,72.008"];
	27 -- 55	[pos="201.49,63.227 195.34,68.256 188.41,73.912 182.26,78.939"];
	12 -- 37	[pos="638.43,530.87 643.44,512.93 651.16,485.35 656.2,467.35"];
	12 -- 62	[pos="608.61,541.2 599.79,538.57 589.87,535.62 581.05,533"];
	12 -- 20	[pos="618.29,563.5 613.72,568 608.7,572.93 604.11,577.44"];
	12 -- 15	[pos="643.24,565.38 656.59,588.32 680.4,629.23 693.83,652.29"];
	12 -- 30	[pos="657.01,557.71 679.77,566.52 714.07,579.79 736.79,588.59"];
	12 -- 21	[pos="651.31,562.1 676.57,581.22 722.49,615.98 747.82,635.16"];
	60	[height=0.5,
		pos="792.68,499.81",
		width=0.75];
	12 -- 60	[pos="658.34,540.97 688.25,531.81 738.14,516.52 767.98,507.38"];
	33	[height=0.5,
		pos="769.86,553.64",
		width=0.75];
	12 -- 33	[pos="660.74,549.6 684.53,550.48 718.86,551.75 742.64,552.63"];
	20 -- 68	[pos="597.53,609.91 611.94,637.92 640.26,692.96 654.66,720.96"];
	20 -- 33	[pos="614.61,587.05 649.06,579.64 709.52,566.63 743.95,559.22"];
	13 -- 42	[pos="609.24,209.6 601.78,200.12 592.42,188.2 585,178.77"];
	13 -- 70	[pos="625.69,207.87 630.19,186.02 637.74,149.36 642.26,127.42"];
	13 -- 22	[pos="607.49,241.13 599.44,249.62 589.45,260.15 581.38,268.66"];
	13 -- 26	[pos="594.78,224.21 560.41,222.16 501.63,218.66 467.31,216.61"];
	42 -- 48	[pos="548.2,154.75 526.31,147.47 494.27,136.82 472.39,129.54"];
	15 -- 20	[pos="684.48,656.49 663.23,642.33 629.25,619.69 607.97,605.51"];
	15 -- 68	[pos="693.81,686.35 687.57,697.03 679.57,710.74 673.36,721.38"];
	15 -- 30	[pos="716.56,653.06 725.8,641.33 738.22,625.57 747.44,613.85"];
	15 -- 21	[pos="728.27,661.2 732.61,659.77 737.12,658.27 741.46,656.84"];
	15 -- 60	[pos="712.76,652.14 729.81,619.65 766.57,549.57 783.64,517.04"];
	15 -- 33	[pos="713.5,652.26 726,630.39 747.55,592.69 760.07,570.78"];
	15 -- 45	[pos="693.65,686.04 675.58,715.95 637.91,778.31 619.69,808.47"];
	68 -- 72	[pos="665.02,756.42 666.44,773.73 668.55,799.62 669.96,816.91"];
	68 -- 78	[pos="684.47,749.79 694.07,755.1 705.42,761.38 715.01,766.69"];
	16	[height=0.5,
		pos="606.41,993.61",
		width=0.75];
	66	[height=0.5,
		pos="706.15,955.88",
		width=0.75];
	16 -- 66	[pos="630.05,984.67 645.83,978.7 666.52,970.87 682.34,964.89"];
	16 -- 45	[pos="606.73,975.31 607.3,942.89 608.49,875.79 609.06,843.57"];
	16 -- 56	[pos="597.5,976.55 585.33,953.23 563.62,911.65 551.39,888.2"];
	66 -- 72	[pos="701.03,938.05 694.47,915.2 683.16,875.82 676.58,852.94"];
	43 -- 53	[pos="124.8,343.4 117.68,358.84 107.33,381.27 100.21,396.7"];
	43 -- 58	[pos="126.52,343.55 117.44,368.81 100.77,415.17 91.678,440.47"];
	43 -- 76	[pos="110.14,316.17 92.303,308.43 67.567,297.7 49.737,289.96"];
	69 -- 75	[pos="40.795,186.81 37.751,162.29 32.321,118.55 29.261,93.89"];
	22 -- 70	[pos="574.67,266.66 589.85,233.15 622.99,160.03 638.15,126.58"];
	22 -- 26	[pos="545.88,272.66 522.43,259.86 484.6,239.22 461.14,226.42"];
	22 -- 64	[pos="552.57,299.53 541.59,311.49 526.45,327.97 515.48,339.93"];
	21 -- 30	[pos="763.82,630.6 763.29,625.78 762.72,620.58 762.19,615.76"];
	39 -- 71	[pos="458.77,684.98 452.76,687.99 446.23,691.25 440.22,694.27"];
	23 -- 59	[pos="181.78,625.31 184.55,651.31 189.63,699.02 192.4,725.06"];
	23 -- 50	[pos="165.79,591.36 162.21,587.32 158.37,582.98 154.8,578.95"];
	23 -- 73	[pos="201.2,596.12 207.37,592.9 214.1,589.38 220.28,586.16"];
	23 -- 61	[pos="175.31,625.41 171.24,641.63 165.32,665.24 161.28,681.34"];
	23 -- 63	[pos="158.77,618.61 132.21,632.91 86.834,657.33 60.206,671.66"];
	50 -- 59	[pos="146.2,581.13 156.45,615.63 178.81,690.9 189.04,725.34"];
	50 -- 61	[pos="143,581.27 146.04,607.27 151.64,654.98 154.69,681.02"];
	50 -- 63	[pos="127.56,578.89 108.03,601.86 71.829,644.44 52.296,667.41"];
	24 -- 42	[pos="565.05,188.93 565.83,186.17 566.64,183.32 567.42,180.56"];
	24 -- 26	[pos="533.09,208.67 513.5,210 487.07,211.8 467.41,213.14"];
	24 -- 48	[pos="542.01,193.12 521.15,177.2 486.95,151.09 466.11,135.18"];
	26 -- 42	[pos="463.55,205.79 487.57,196.31 524.8,181.62 548.91,172.11"];
	26 -- 70	[pos="461.84,203.88 501.37,183.57 584.81,140.7 624.35,120.38"];
	26 -- 31	[pos="431.04,197.64 421.04,178.72 405.14,148.62 395.19,129.79"];
	31 -- 38	[pos="386.16,130.82 386.16,135.31 386.16,140.13 386.15,144.63"];
	31 -- 47	[pos="411.87,118.34 433.16,123.01 463.27,129.62 484.55,134.29"];
	31 -- 51	[pos="376.89,95.763 367.52,78.634 353.1,52.293 343.7,35.102"];
	49 -- 57	[pos="581.41,458.67 578.37,439.12 573.55,408.1 570.51,388.52"];
	46 -- 57	[pos="571.48,397.51 571.07,394.56 570.64,391.5 570.23,388.55"];
	28 -- 35	[pos="526.61,596.22 526.61,601.26 526.61,606.75 526.62,611.8"];
	29 -- 41	[pos="209.64,333.72 195.02,341.3 175.82,351.26 161.23,358.83"];
	29 -- 43	[pos="204.19,323.43 190.4,323.92 173.7,324.53 159.93,325.03"];
	29 -- 52	[pos="231.76,340.54 231.98,350.95 232.25,364 232.47,374.44"];
	38 -- 47	[pos="412.47,158.02 433.52,154.13 462.91,148.69 483.95,144.79"];
	38 -- 40	[pos="359.11,164.75 343.42,165.83 323.75,167.18 308.08,168.25"];
	38 -- 51	[pos="379.8,145.13 369.85,117.32 350.72,63.81 340.74,35.912"];
	33 -- 60	[pos="777.21,536.31 779.76,530.29 782.63,523.53 785.19,517.48"];
	54 -- 77	[pos="355.79,559.74 341.21,548.54 320.65,532.73 306,521.48"];
	54 -- 79	[pos="349.78,564.56 313.21,551 243.46,525.15 206.89,511.59"];
	35 -- 39	[pos="511,645 506.19,649.59 500.89,654.64 496.08,659.23"];
	35 -- 71	[pos="507.78,643.18 488.04,656.88 457.22,678.27 437.42,692"];
	40 -- 51	[pos="287.33,152.36 297.59,123.05 317.94,64.867 328.17,35.633"];
	53 -- 58	[pos="89.413,431.96 88.998,434.63 88.57,437.38 88.155,440.05"];
	53 -- 76	[pos="83.822,396.82 71.321,371.11 47.922,322.98 35.439,297.3"];
	53 -- 65	[pos="92.566,432.19 92.891,448.29 93.362,471.68 93.686,487.76"];
	45 -- 68	[pos="619.82,808.7 629.41,793.24 643.55,770.44 653.13,755"];
	45 -- 66	[pos="621.44,841.78 639.98,866.76 675.3,914.33 693.94,939.43"];
	45 -- 72	[pos="635.7,829.57 638.74,830.03 641.84,830.51 644.88,830.97"];
	45 -- 56	[pos="590.35,838.41 581.37,844.49 570.67,851.73 561.66,857.82"];
	45 -- 78	[pos="633.17,816.64 655.79,808.19 689.62,795.54 712.21,787.1"];
	72 -- 78	[pos="688.04,820.41 697.74,811.86 709.93,801.12 719.58,792.62"];
	58 -- 65	[pos="88.638,476.14 89.331,479.95 90.063,483.96 90.756,487.77"];
	77 -- 79	[pos="261.01,506.41 245.48,505.69 226.02,504.79 210.45,504.07"];
	56 -- 66	[pos="563.76,882 595.16,898.29 653.34,928.47 684.73,944.76"];
	56 -- 72	[pos="567.55,863.89 590.29,857.57 623.58,848.33 646.31,842.02"];
	61 -- 73	[pos="168.11,682.65 184.38,658.88 214.24,615.26 230.53,591.45"];
	61 -- 63	[pos="130.07,695.5 110.79,692.88 84.865,689.34 65.604,686.72"];
}
