graph {
	graph [bb="0,0,2034,1703.9",
		outputorder=edgesfirst,
		overlap=prism,
		size="50,50!",
		start=5471
	];
	node [label="\N"];
	0	[height=0.5,
		pos="474.45,794.39",
		width=0.75];
	1	[height=0.5,
		pos="682.93,666.74",
		width=0.75];
	0 -- 1	[pos="494.44,782.15 534.29,757.75 623.2,703.31 663,678.94"];
	100	[height=0.5,
		pos="651.04,875.17",
		width=0.75];
	0 -- 100	[pos="496.81,804.62 530.69,820.11 594.64,849.37 628.58,864.89"];
	2	[height=0.5,
		pos="454.46,750.35",
		width=0.75];
	1 -- 2	[pos="658.91,675.53 614.92,691.63 521.91,725.67 478.16,741.68"];
	292	[height=0.5,
		pos="888.67,614.83",
		width=0.75];
	1 -- 292	[pos="708.58,660.27 748.22,650.27 823.91,631.17 863.36,621.22"];
	104	[height=0.5,
		pos="710.14,948.32",
		width=0.75];
	100 -- 104	[pos="663.86,891.04 673.71,903.23 687.25,919.98 697.13,932.23"];
	101	[height=0.5,
		pos="777.59,962.81",
		width=0.75];
	100 -- 101	[pos="669.98,888.29 693.84,904.81 734.59,933.03 758.51,949.6"];
	3	[height=0.5,
		pos="566.05,619.77",
		width=0.75];
	2 -- 3	[pos="467.92,734.6 489.37,709.5 531.06,660.71 552.54,635.58"];
	213	[height=0.5,
		pos="524.05,885.33",
		width=0.75];
	2 -- 213	[pos="463.27,767.45 476.58,793.27 501.69,841.95 515.08,867.95"];
	107	[height=0.5,
		pos="807.2,685.46",
		width=0.75];
	104 -- 107	[pos="716.66,930.67 734.34,882.78 783.06,750.83 800.71,703.03"];
	105	[height=0.5,
		pos="804.29,1205.5",
		width=0.75];
	104 -- 105	[pos="716.61,966 733.81,1013 780.52,1140.6 797.78,1187.7"];
	4	[height=0.5,
		pos="431.82,478.76",
		width=0.75];
	3 -- 4	[pos="551.43,604.42 525.61,577.29 472.23,521.22 446.42,494.1"];
	189	[height=0.5,
		pos="790.95,799.96",
		width=0.75];
	3 -- 189	[pos="583.32,633.61 625.19,667.15 731.69,752.49 773.62,786.07"];
	110	[height=0.5,
		pos="675.96,514.94",
		width=0.75];
	107 -- 110	[pos="794.86,669.41 769.84,636.91 713.44,563.63 688.37,531.06"];
	108	[height=0.5,
		pos="1074.8,606.46",
		width=0.75];
	107 -- 108	[pos="831.89,678.17 882.74,663.15 998.62,628.94 1049.7,613.84"];
	5	[height=0.5,
		pos="431.32,244.84",
		width=0.75];
	4 -- 5	[pos="431.78,460.41 431.69,416.68 431.45,306.76 431.36,263.11"];
	414	[height=0.5,
		pos="538.93,420.3",
		width=0.75];
	4 -- 414	[pos="452.73,467.35 471.48,457.12 498.86,442.17 517.71,431.89"];
	113	[height=0.5,
		pos="887.02,479.56",
		width=0.75];
	110 -- 113	[pos="702.27,510.53 742.82,503.73 820.16,490.76 860.72,483.97"];
	111	[height=0.5,
		pos="709.76,426.63",
		width=0.75];
	110 -- 111	[pos="682.64,497.49 688.52,482.11 697.06,459.8 702.98,444.34"];
	6	[height=0.5,
		pos="783.98,216.65",
		width=0.75];
	5 -- 6	[pos="458.41,242.68 524.05,237.43 691.06,224.08 756.8,218.83"];
	335	[height=0.5,
		pos="400.88,200.8",
		width=0.75];
	5 -- 335	[pos="419.98,228.45 417.48,224.83 414.83,220.99 412.32,217.36"];
	116	[height=0.5,
		pos="691.91,338.24",
		width=0.75];
	113 -- 116	[pos="868.67,466.26 831.48,439.33 747.63,378.6 710.36,351.61"];
	114	[height=0.5,
		pos="949.73,661.11",
		width=0.75];
	113 -- 114	[pos="893.15,497.3 905.17,532.09 931.71,608.93 943.67,643.57"];
	7	[height=0.5,
		pos="932.83,117.18",
		width=0.75];
	6 -- 7	[pos="803.13,203.85 831.72,184.75 885.21,149 913.75,129.93"];
	6 -- 111	[pos="777.78,234.19 763.81,273.72 730,369.37 715.99,408.99"];
	118	[height=0.5,
		pos="879.95,328.95",
		width=0.75];
	116 -- 118	[pos="718.86,336.91 754.5,335.15 816.98,332.06 852.76,330.29"];
	117	[height=0.5,
		pos="525.1,464.34",
		width=0.75];
	116 -- 117	[pos="673.75,351.98 641.57,376.3 574.97,426.65 542.99,450.82"];
	8	[height=0.5,
		pos="1305.7,108.27",
		width=0.75];
	7 -- 8	[pos="959.95,116.53 1028.8,114.88 1209.9,110.56 1278.7,108.92"];
	417	[height=0.5,
		pos="1046.4,143.34",
		width=0.75];
	7 -- 417	[pos="958.6,123.11 977.18,127.4 1002.2,133.15 1020.7,137.43"];
	122	[height=0.5,
		pos="1030.9,253.66",
		width=0.75];
	118 -- 122	[pos="901.58,318.16 930.12,303.93 980.08,279.01 1008.8,264.67"];
	119	[height=0.5,
		pos="769.49,573.39",
		width=0.75];
	118 -- 119	[pos="872.01,346.53 851.63,391.63 797.67,511.05 777.37,555.97"];
	9	[height=0.5,
		pos="1455.9,219.29",
		width=0.75];
	8 -- 9	[pos="1323.8,121.66 1352.7,143 1408.8,184.48 1437.7,205.85"];
	418	[height=0.5,
		pos="1373.9,131.12",
		width=0.75];
	8 -- 418	[pos="1329.9,116.39 1336.4,118.55 1343.3,120.87 1349.7,123.03"];
	124	[height=0.5,
		pos="1233.2,322.18",
		width=0.75];
	122 -- 124	[pos="1055.3,261.93 1094.3,275.13 1170.2,300.84 1209,313.99"];
	123	[height=0.5,
		pos="942.01,332.97",
		width=0.75];
	122 -- 123	[pos="1014.6,268.21 998.57,282.52 974.22,304.24 958.22,318.52"];
	10	[height=0.5,
		pos="1614.8,251.07",
		width=0.75];
	9 -- 10	[pos="1481.7,224.46 1511.3,230.37 1559.4,239.98 1588.9,245.89"];
	324	[height=0.5,
		pos="1355.6,220.02",
		width=0.75];
	9 -- 324	[pos="1428.7,219.49 1414.5,219.59 1397,219.72 1382.8,219.82"];
	128	[height=0.5,
		pos="1373.8,175.99",
		width=0.75];
	124 -- 128	[pos="1248,306.81 1275.1,278.66 1332.3,219.15 1359.2,191.15"];
	125	[height=0.5,
		pos="1323.8,618.91",
		width=0.75];
	124 -- 125	[pos="1238.6,339.85 1254.7,392.5 1302.2,547.94 1318.3,600.95"];
	11	[height=0.5,
		pos="1697.2,437.85",
		width=0.75];
	10 -- 11	[pos="1622.5,268.64 1638.3,304.33 1673.8,384.92 1689.5,420.46"];
	156	[height=0.5,
		pos="1813.1,361.25",
		width=0.75];
	10 -- 156	[pos="1635.6,262.65 1673.7,283.81 1754.2,328.49 1792.3,349.66"];
	130	[height=0.5,
		pos="1243.3,62.731",
		width=0.75];
	128 -- 130	[pos="1357.2,161.64 1332.3,139.98 1285.2,99.124 1260.1,77.316"];
	129	[height=0.5,
		pos="1180.9,159.22",
		width=0.75];
	128 -- 129	[pos="1347,173.66 1310.2,170.46 1244.6,164.76 1207.8,161.56"];
	12	[height=0.5,
		pos="1765.4,585.48",
		width=0.75];
	11 -- 12	[pos="1705.2,455.07 1718.2,483.37 1744.1,539.39 1757.3,567.91"];
	302	[height=0.5,
		pos="1638,301.44",
		width=0.75];
	11 -- 302	[pos="1689.6,420.29 1678.2,394.1 1656.9,345.08 1645.6,318.92"];
	132	[height=0.5,
		pos="1108.5,129.5",
		width=0.75];
	130 -- 132	[pos="1221.3,73.608 1196.2,86.024 1155.5,106.22 1130.4,118.63"];
	131	[height=0.5,
		pos="1101.9,18.3",
		width=0.75];
	130 -- 131	[pos="1218.6,54.992 1192.8,46.887 1152.6,34.228 1126.7,26.1"];
	13	[height=0.5,
		pos="1862.2,722.67",
		width=0.75];
	12 -- 13	[pos="1777.1,602.03 1795.7,628.4 1831.9,679.66 1850.5,706.07"];
	185	[height=0.5,
		pos="1407.7,767.01",
		width=0.75];
	12 -- 185	[pos="1743.8,596.43 1680.1,628.78 1493.1,723.68 1429.3,756.05"];
	135	[height=0.5,
		pos="940.47,163.1",
		width=0.75];
	132 -- 135	[pos="1082.6,134.68 1051,140.99 997.97,151.6 966.38,157.91"];
	133	[height=0.5,
		pos="1293.6,210.2",
		width=0.75];
	132 -- 133	[pos="1131.2,139.4 1166.8,154.93 1235.5,184.85 1271,200.35"];
	14	[height=0.5,
		pos="1696.2,857.24",
		width=0.75];
	13 -- 14	[pos="1844.8,736.82 1812.8,762.73 1745.2,817.51 1713.5,843.29"];
	144	[height=0.5,
		pos="1528.1,556.37",
		width=0.75];
	13 -- 144	[pos="1840.5,711.89 1780.2,681.88 1610.9,597.59 1550.1,567.35"];
	138	[height=0.5,
		pos="1231.6,214.02",
		width=0.75];
	135 -- 138	[pos="966.82,167.71 1022.1,177.38 1149.7,199.69 1205.1,209.39"];
	136	[height=0.5,
		pos="657.07,197.13",
		width=0.75];
	135 -- 136	[pos="913.81,166.3 859.8,172.78 738,187.41 683.87,193.91"];
	15	[height=0.5,
		pos="1827.5,627",
		width=0.75];
	14 -- 15	[pos="1705.9,840.31 1730.2,797.73 1793.5,686.56 1817.8,643.96"];
	222	[height=0.5,
		pos="1597.6,1005.6",
		width=0.75];
	14 -- 222	[pos="1685.1,873.97 1666.2,902.46 1627.9,960.09 1608.8,988.69"];
	140	[height=0.5,
		pos="1298.1,358.12",
		width=0.75];
	138 -- 140	[pos="1239.6,231.4 1252.4,259.1 1277.2,312.94 1290,340.68"];
	139	[height=0.5,
		pos="1093.2,261.55",
		width=0.75];
	138 -- 139	[pos="1207.5,222.3 1182.2,230.97 1142.8,244.51 1117.5,253.21"];
	16	[height=0.5,
		pos="1466,589.27",
		width=0.75];
	15 -- 16	[pos="1800.6,624.2 1733.7,617.21 1560.2,599.1 1493.1,592.1"];
	305	[height=0.5,
		pos="1848.8,486.07",
		width=0.75];
	15 -- 305	[pos="1830.2,608.87 1834.3,581.81 1842,531.16 1846.1,504.14"];
	143	[height=0.5,
		pos="1446.4,380.27",
		width=0.75];
	140 -- 143	[pos="1324.6,362.08 1351.5,366.1 1392.9,372.29 1419.9,376.31"];
	141	[height=0.5,
		pos="1199.7,637.22",
		width=0.75];
	140 -- 141	[pos="1291.8,376 1274,426.42 1223.7,569.26 1206,619.49"];
	17	[height=0.5,
		pos="1222.5,552.82",
		width=0.75];
	16 -- 17	[pos="1439.5,585.3 1392.7,578.29 1295.8,563.8 1249,556.79"];
	145	[height=0.5,
		pos="1393.7,668.93",
		width=0.75];
	16 -- 145	[pos="1451.7,605.01 1439,619.07 1420.4,639.53 1407.7,653.49"];
	149	[height=0.5,
		pos="1508.7,339.03",
		width=0.75];
	143 -- 149	[pos="1465.8,367.45 1473.2,362.53 1481.7,356.92 1489.1,351.99"];
	143 -- 144	[pos="1454.4,397.48 1470,431.14 1504.4,505.38 1520,539.1"];
	18	[height=0.5,
		pos="1012.8,580.69",
		width=0.75];
	17 -- 18	[pos="1195.9,556.35 1155.7,561.7 1079.7,571.79 1039.4,577.15"];
	17 -- 108	[pos="1198.7,561.44 1171.3,571.39 1126.5,587.67 1098.9,597.68"];
	152	[height=0.5,
		pos="1783,450.74",
		width=0.75];
	149 -- 152	[pos="1532.1,348.55 1583.9,369.66 1707.9,420.16 1759.7,441.24"];
	150	[height=0.5,
		pos="1312.2,438.57",
		width=0.75];
	149 -- 150	[pos="1486.9,350.06 1449.1,369.25 1371.5,408.52 1333.8,427.64"];
	19	[height=0.5,
		pos="801.35,474.49",
		width=0.75];
	18 -- 19	[pos="990.93,569.73 950.31,549.32 863.58,505.75 823.06,485.4"];
	232	[height=0.5,
		pos="1082.5,789.52",
		width=0.75];
	18 -- 232	[pos="1018.7,598.5 1031.9,637.95 1063.4,732.35 1076.5,771.76"];
	155	[height=0.5,
		pos="1973.2,539.27",
		width=0.75];
	152 -- 155	[pos="1805.2,461.07 1841.7,478.08 1914.2,511.81 1950.8,528.87"];
	153	[height=0.5,
		pos="1903.6,626",
		width=0.75];
	152 -- 153	[pos="1794.3,467.23 1817.3,500.63 1869.1,575.96 1892.2,609.43"];
	20	[height=0.5,
		pos="545.7,560.67",
		width=0.75];
	19 -- 20	[pos="776.83,482.75 727.97,499.23 618.94,535.98 570.13,552.43"];
	330	[height=0.5,
		pos="765.22,304.85",
		width=0.75];
	19 -- 330	[pos="797.55,456.66 790.61,424.08 775.96,355.29 769.02,322.7"];
	158	[height=0.5,
		pos="1912.4,841.32",
		width=0.75];
	155 -- 158	[pos="1969.6,557.26 1958.7,610.98 1926.8,769.83 1916,823.43"];
	155 -- 156	[pos="1959.3,523.78 1929,490.11 1857.5,410.58 1827.1,376.83"];
	21	[height=0.5,
		pos="403.47,794.41",
		width=0.75];
	20 -- 21	[pos="535.47,577.48 509.29,620.5 440.08,734.24 413.8,777.44"];
	430	[height=0.5,
		pos="503.96,605.32",
		width=0.75];
	20 -- 430	[pos="531.1,576.29 526.96,580.72 522.46,585.53 518.34,589.94"];
	161	[height=0.5,
		pos="1854.3,1098.1",
		width=0.75];
	158 -- 161	[pos="1908.3,859.38 1897.6,906.52 1869,1032.9 1858.4,1080"];
	159	[height=0.5,
		pos="1831.9,852.24",
		width=0.75];
	158 -- 159	[pos="1885.6,844.96 1876.9,846.14 1867.3,847.44 1858.6,848.62"];
	22	[height=0.5,
		pos="591.49,1004.7",
		width=0.75];
	21 -- 22	[pos="417.29,809.87 452.07,848.77 542.85,950.32 577.64,989.24"];
	431	[height=0.5,
		pos="409.71,883.7",
		width=0.75];
	21 -- 431	[pos="404.73,812.48 405.82,827.97 407.37,850.17 408.45,865.66"];
	164	[height=0.5,
		pos="1962.2,1097",
		width=0.75];
	161 -- 164	[pos="1881.5,1097.8 1897.9,1097.6 1918.6,1097.4 1935,1097.2"];
	162	[height=0.5,
		pos="1580.6,1327.3",
		width=0.75];
	161 -- 162	[pos="1837.2,1112.4 1788,1153.6 1646.8,1271.8 1597.7,1313"];
	23	[height=0.5,
		pos="409.18,1195.6",
		width=0.75];
	22 -- 23	[pos="576.88,1020 542.74,1055.8 458.07,1144.4 423.86,1180.2"];
	22 -- 101	[pos="617.36,998.9 652.92,990.89 716.49,976.57 751.93,968.59"];
	166	[height=0.5,
		pos="2007,1153.7",
		width=0.75];
	164 -- 166	[pos="1974.9,1113.1 1981,1120.8 1988.3,1130 1994.4,1137.7"];
	165	[height=0.5,
		pos="1944.9,1149.5",
		width=0.75];
	164 -- 165	[pos="1956.3,1114.7 1954.5,1120.2 1952.6,1126.2 1950.8,1131.7"];
	24	[height=0.5,
		pos="454.15,1448.8",
		width=0.75];
	23 -- 24	[pos="412.42,1213.8 420.71,1260.5 442.68,1384.2 450.94,1430.8"];
	358	[height=0.5,
		pos="335.71,1041.2",
		width=0.75];
	23 -- 358	[pos="400.9,1178.2 386.79,1148.5 358.24,1088.6 344.07,1058.8"];
	168	[height=0.5,
		pos="1885.9,1201.3",
		width=0.75];
	166 -- 168	[pos="1983.7,1162.9 1962.2,1171.3 1930.6,1183.7 1909.1,1192.1"];
	167	[height=0.5,
		pos="1956.4,1236.4",
		width=0.75];
	166 -- 167	[pos="1996.8,1170.4 1988,1184.8 1975.4,1205.4 1966.6,1219.7"];
	25	[height=0.5,
		pos="415.43,1553.3",
		width=0.75];
	24 -- 25	[pos="447.58,1466.6 440.46,1485.8 429.16,1516.3 422.03,1535.5"];
	251	[height=0.5,
		pos="730.7,1538.5",
		width=0.75];
	24 -- 251	[pos="478.69,1456.8 531.17,1473.8 653.78,1513.6 706.22,1530.6"];
	170	[height=0.5,
		pos="1739.6,1110",
		width=0.75];
	168 -- 170	[pos="1866.1,1188.9 1838.2,1171.5 1787.5,1139.8 1759.5,1122.4"];
	169	[height=0.5,
		pos="1868.8,1283.6",
		width=0.75];
	168 -- 169	[pos="1882.1,1219.1 1879.3,1233 1875.3,1252 1872.5,1265.8"];
	26	[height=0.5,
		pos="604.55,1509.5",
		width=0.75];
	25 -- 26	[pos="440.93,1547.4 477.03,1539.1 542.64,1523.9 578.84,1515.5"];
	435	[height=0.5,
		pos="303.36,1513.9",
		width=0.75];
	25 -- 435	[pos="391.39,1544.9 372.48,1538.2 346.26,1529 327.36,1522.4"];
	172	[height=0.5,
		pos="1509.2,957.14",
		width=0.75];
	170 -- 172	[pos="1720.4,1097.2 1677,1068.4 1572,998.81 1528.6,969.97"];
	171	[height=0.5,
		pos="1809.7,1239.3",
		width=0.75];
	170 -- 171	[pos="1748.9,1127.1 1762.3,1151.9 1786.9,1197.3 1800.3,1222"];
	27	[height=0.5,
		pos="718.51,1301.8",
		width=0.75];
	26 -- 27	[pos="613.87,1492.5 635.3,1453.4 687.82,1357.7 709.22,1318.7"];
	436	[height=0.5,
		pos="489.72,1501.8",
		width=0.75];
	26 -- 436	[pos="577.63,1507.7 559.33,1506.5 535.21,1504.9 516.87,1503.7"];
	175	[height=0.5,
		pos="1287.5,976.37",
		width=0.75];
	172 -- 175	[pos="1482,959.49 1439.4,963.2 1357.2,970.33 1314.6,974.02"];
	173	[height=0.5,
		pos="1124.4,833.54",
		width=0.75];
	172 -- 173	[pos="1484.8,949.31 1415.6,927.08 1218.3,863.7 1148.9,841.41"];
	28	[height=0.5,
		pos="1201,1428.6",
		width=0.75];
	27 -- 28	[pos="743.77,1308.4 827.05,1330.3 1092.3,1400 1175.7,1421.9"];
	342	[height=0.5,
		pos="497.62,1041.5",
		width=0.75];
	27 -- 342	[pos="705.03,1285.9 665.5,1239.3 550.23,1103.5 510.93,1057.2"];
	180	[height=0.5,
		pos="1146.9,1006.6",
		width=0.75];
	175 -- 180	[pos="1261.7,981.92 1236.5,987.34 1198.3,995.54 1173,1001"];
	176	[height=0.5,
		pos="1248.5,770.82",
		width=0.75];
	175 -- 176	[pos="1284.1,958.49 1276.7,919.62 1259.3,827.78 1251.9,788.81"];
	29	[height=0.5,
		pos="1147.6,1632.8",
		width=0.75];
	28 -- 29	[pos="1196.3,1446.3 1186.3,1485 1162.4,1576.2 1152.3,1614.9"];
	28 -- 162	[pos="1226.2,1421.8 1295.1,1403.5 1486,1352.6 1555.1,1334.1"];
	184	[height=0.5,
		pos="1251.9,846.52",
		width=0.75];
	180 -- 184	[pos="1157.8,990.07 1177.9,959.39 1220.8,893.98 1241,863.2"];
	181	[height=0.5,
		pos="863.81,1124.5",
		width=0.75];
	180 -- 181	[pos="1123.8,1016.2 1070.5,1038.4 940.05,1092.7 886.9,1114.8"];
	30	[height=0.5,
		pos="991.38,1579",
		width=0.75];
	29 -- 30	[pos="1123.6,1624.5 1094.2,1614.4 1044.9,1597.4 1015.5,1587.3"];
	439	[height=0.5,
		pos="1068.1,1685.9",
		width=0.75];
	29 -- 439	[pos="1128.4,1645.6 1116,1653.9 1099.9,1664.7 1087.4,1673"];
	188	[height=0.5,
		pos="1025.7,915.71",
		width=0.75];
	184 -- 188	[pos="1227.3,854.05 1183.8,867.36 1093.8,894.88 1050.3,908.18"];
	184 -- 185	[pos="1273.6,835.46 1303.3,820.27 1356.5,793.11 1386.2,777.97"];
	31	[height=0.5,
		pos="919.59,1512.3",
		width=0.75];
	30 -- 31	[pos="975.45,1564.2 963.55,1553.1 947.36,1538.1 935.48,1527.1"];
	284	[height=0.5,
		pos="897.24,1380.2",
		width=0.75];
	30 -- 284	[pos="983.19,1561.7 965.39,1524.1 923.32,1435.3 905.47,1397.6"];
	191	[height=0.5,
		pos="1185,1209.9",
		width=0.75];
	188 -- 191	[pos="1034.9,932.8 1063.1,984.79 1147.5,1140.7 1175.8,1192.8"];
	188 -- 189	[pos="1003.6,904.82 958.73,882.7 857.46,832.76 812.8,810.74"];
	32	[height=0.5,
		pos="872.34,1468.3",
		width=0.75];
	31 -- 32	[pos="903.86,1497.6 898.81,1492.9 893.22,1487.7 888.17,1483"];
	182	[height=0.5,
		pos="1009.8,1336.2",
		width=0.75];
	31 -- 182	[pos="928.4,1495.1 945.64,1461.4 983.66,1387.2 1000.9,1353.5"];
	194	[height=0.5,
		pos="1179.1,1101.1",
		width=0.75];
	191 -- 194	[pos="1184,1191.4 1182.9,1171.3 1181.2,1139.3 1180.1,1119.3"];
	192	[height=0.5,
		pos="1328,1312.9",
		width=0.75];
	191 -- 192	[pos="1203.4,1223.2 1230.7,1242.8 1281.7,1279.6 1309.2,1299.4"];
	33	[height=0.5,
		pos="1003.4,1466.4",
		width=0.75];
	32 -- 33	[pos="899.49,1467.9 921.98,1467.6 953.79,1467.1 976.27,1466.8"];
	32 -- 105	[pos="867.67,1450.2 855.2,1402.1 821.31,1271.2 808.91,1223.3"];
	198	[height=0.5,
		pos="924.47,1080.4",
		width=0.75];
	194 -- 198	[pos="1151.9,1098.9 1102.9,1094.9 1000.4,1086.6 951.53,1082.6"];
	195	[height=0.5,
		pos="1310.5,891.76",
		width=0.75];
	194 -- 195	[pos="1189.7,1084.4 1214.3,1045.1 1275.3,947.9 1300,908.62"];
	34	[height=0.5,
		pos="833.77,1358.9",
		width=0.75];
	33 -- 34	[pos="983.59,1453.8 950.91,1433.1 886.03,1392 853.43,1371.4"];
	383	[height=0.5,
		pos="1151.5,1342.3",
		width=0.75];
	33 -- 383	[pos="1020.4,1452.2 1048.8,1428.3 1105.7,1380.7 1134.3,1356.7"];
	201	[height=0.5,
		pos="674.69,1058.6",
		width=0.75];
	198 -- 201	[pos="897.26,1078 849.09,1073.8 749.36,1065.1 701.48,1060.9"];
	199	[height=0.5,
		pos="1178.5,956.29",
		width=0.75];
	198 -- 199	[pos="946.57,1069.6 994.74,1046.1 1108.7,990.41 1156.7,966.98"];
	35	[height=0.5,
		pos="780.76,1152.8",
		width=0.75];
	34 -- 35	[pos="829.16,1341 819.13,1302 795.45,1209.9 785.4,1170.9"];
	444	[height=0.5,
		pos="701.57,1389.8",
		width=0.75];
	34 -- 444	[pos="808.28,1364.9 785.02,1370.3 750.81,1378.3 727.43,1383.8"];
	204	[height=0.5,
		pos="357.22,1085.4",
		width=0.75];
	201 -- 204	[pos="647.89,1060.8 588.1,1065.9 444.32,1078 384.28,1083.1"];
	202	[height=0.5,
		pos="586.1,927.65",
		width=0.75];
	201 -- 202	[pos="663.47,1042 646.43,1016.8 614.21,969.2 597.23,944.1"];
	36	[height=0.5,
		pos="436.48,1101.2",
		width=0.75];
	35 -- 36	[pos="754.32,1148.9 690.23,1139.2 527.19,1114.8 463.01,1105.1"];
	177	[height=0.5,
		pos="1025.7,1046.3",
		width=0.75];
	35 -- 177	[pos="803.81,1142.8 850.61,1122.5 956.3,1076.5 1002.9,1056.2"];
	206	[height=0.5,
		pos="329.26,1217.9",
		width=0.75];
	204 -- 206	[pos="353.45,1103.2 348.12,1128.5 338.42,1174.5 333.07,1199.9"];
	205	[height=0.5,
		pos="382.46,927.77",
		width=0.75];
	204 -- 205	[pos="360.12,1067.3 364.96,1037 374.65,976.54 379.52,946.12"];
	37	[height=0.5,
		pos="191.89,881.59",
		width=0.75];
	36 -- 37	[pos="420.05,1086.4 375.49,1046.4 252.72,936.2 208.24,896.28"];
	207	[height=0.5,
		pos="254.02,1073.9",
		width=0.75];
	36 -- 207	[pos="409.95,1097.2 375.35,1092 315.19,1083 280.58,1077.8"];
	212	[height=0.5,
		pos="556.51,1195.3",
		width=0.75];
	206 -- 212	[pos="356.23,1215.2 399.96,1210.9 485.87,1202.4 529.59,1198"];
	206 -- 207	[pos="320.34,1200.8 305.86,1173.1 277.41,1118.7 262.94,1090.9"];
	38	[height=0.5,
		pos="252,671.08",
		width=0.75];
	37 -- 38	[pos="197.01,863.65 208.37,823.88 235.54,728.72 246.89,688.99"];
	447	[height=0.5,
		pos="104.69,962.02",
		width=0.75];
	37 -- 447	[pos="175.89,896.35 160.16,910.86 136.28,932.89 120.58,947.37"];
	215	[height=0.5,
		pos="767.93,1350.2",
		width=0.75];
	212 -- 215	[pos="574.91,1208.8 614.99,1238.2 709.83,1307.6 749.74,1336.9"];
	212 -- 213	[pos="554.63,1177.3 548.89,1122.5 531.68,958.24 525.94,903.38"];
	39	[height=0.5,
		pos="299.47,460.56",
		width=0.75];
	38 -- 39	[pos="256.05,653.14 265.02,613.36 286.47,518.2 295.43,478.46"];
	362	[height=0.5,
		pos="92.929,650.06",
		width=0.75];
	38 -- 362	[pos="225.38,667.57 196.01,663.68 149.04,657.47 119.64,653.59"];
	218	[height=0.5,
		pos="1005.5,1292.2",
		width=0.75];
	215 -- 218	[pos="793.35,1344 838.95,1332.9 934.14,1309.6 979.86,1298.5"];
	216	[height=0.5,
		pos="856.65,1543.4",
		width=0.75];
	215 -- 216	[pos="775.96,1367.7 792.85,1404.5 831.88,1489.5 848.7,1526.1"];
	40	[height=0.5,
		pos="340.33,339.73",
		width=0.75];
	39 -- 40	[pos="305.41,442.99 313.16,420.08 326.63,380.24 334.38,357.32"];
	371	[height=0.5,
		pos="463.09,423.69",
		width=0.75];
	39 -- 371	[pos="325.4,454.72 356.03,447.81 406.7,436.39 437.29,429.5"];
	221	[height=0.5,
		pos="1316.8,1171",
		width=0.75];
	218 -- 221	[pos="1028.9,1283.1 1086.6,1260.6 1235.1,1202.8 1293.1,1180.2"];
	219	[height=0.5,
		pos="776.7,1250",
		width=0.75];
	218 -- 219	[pos="979.22,1287.4 935.21,1279.2 847.03,1263 802.99,1254.9"];
	41	[height=0.5,
		pos="423.63,533.35",
		width=0.75];
	40 -- 41	[pos="347.87,357.25 363.73,394.12 400.37,479.3 416.16,516.01"];
	40 -- 136	[pos="362.86,329.59 421.08,303.37 576.11,233.58 634.45,207.31"];
	227	[height=0.5,
		pos="1392,1169.2",
		width=0.75];
	221 -- 227	[pos="1343.9,1170.3 1350.8,1170.2 1358.1,1170 1364.9,1169.8"];
	221 -- 222	[pos="1337.4,1158.8 1389.5,1128.1 1525.6,1048 1577.3,1017.5"];
	42	[height=0.5,
		pos="558.84,689.97",
		width=0.75];
	41 -- 42	[pos="437.34,549.23 463.25,579.25 519.15,644 545.1,674.05"];
	451	[height=0.5,
		pos="389.23,580.92",
		width=0.75];
	41 -- 451	[pos="411.79,549.72 408.29,554.56 404.46,559.85 400.97,564.68"];
	231	[height=0.5,
		pos="1248.5,932.33",
		width=0.75];
	227 -- 231	[pos="1381.7,1152.2 1355.2,1108.5 1285.1,992.75 1258.7,949.21"];
	228	[height=0.5,
		pos="1403.1,1347",
		width=0.75];
	227 -- 228	[pos="1393.2,1187.2 1395.3,1221.3 1399.9,1294.8 1402,1328.9"];
	43	[height=0.5,
		pos="709.34,765.52",
		width=0.75];
	42 -- 43	[pos="580.72,700.96 609.26,715.28 658.88,740.19 687.43,754.52"];
	208	[height=0.5,
		pos="386.33,838.5",
		width=0.75];
	42 -- 208	[pos="542.3,704.21 509.41,732.53 436.13,795.62 403.07,824.08"];
	236	[height=0.5,
		pos="1473.6,1001.2",
		width=0.75];
	231 -- 236	[pos="1273.4,939.96 1316.8,953.23 1405.6,980.39 1448.8,993.61"];
	231 -- 232	[pos="1231.6,917.85 1199.8,890.48 1131.2,831.44 1099.3,804.03"];
	44	[height=0.5,
		pos="736.92,1041",
		width=0.75];
	43 -- 44	[pos="711.15,783.6 716.15,833.51 730.1,972.87 735.11,1022.9"];
	395	[height=0.5,
		pos="994.78,760.78",
		width=0.75];
	43 -- 395	[pos="736.45,765.07 790.86,764.17 912.82,762.14 967.43,761.23"];
	242	[height=0.5,
		pos="1548.1,1253.7",
		width=0.75];
	236 -- 242	[pos="1478.8,1018.9 1492.5,1065.3 1529.2,1189.6 1542.8,1236"];
	237	[height=0.5,
		pos="1335.5,802.27",
		width=0.75];
	236 -- 237	[pos="1462,984.55 1436,947.02 1372.8,856.05 1346.9,818.7"];
	45	[height=0.5,
		pos="654.72,1146.6",
		width=0.75];
	44 -- 45	[pos="724.44,1057.1 708.99,1076.9 682.83,1110.5 667.32,1130.4"];
	44 -- 219	[pos="740.38,1059.2 747.93,1098.8 765.77,1192.6 773.28,1232"];
	244	[height=0.5,
		pos="1255.9,1304.4",
		width=0.75];
	242 -- 244	[pos="1521.9,1258.3 1466.4,1267.9 1337.6,1290.2 1282.1,1299.9"];
	243	[height=0.5,
		pos="1403,1302.9",
		width=0.75];
	242 -- 243	[pos="1523.8,1262 1497,1271 1454.2,1285.6 1427.3,1294.6"];
	46	[height=0.5,
		pos="963.7,1204.1",
		width=0.75];
	45 -- 46	[pos="680.79,1151.5 738.99,1162.3 878.92,1188.4 937.36,1199.2"];
	346	[height=0.5,
		pos="333.45,1173.7",
		width=0.75];
	45 -- 346	[pos="627.88,1148.9 567.41,1154 421.05,1166.3 360.44,1171.4"];
	247	[height=0.5,
		pos="1104,1518.6",
		width=0.75];
	244 -- 247	[pos="1244.2,1320.9 1216,1360.8 1144.1,1462.2 1115.7,1502.1"];
	245	[height=0.5,
		pos="1133.2,1145.6",
		width=0.75];
	244 -- 245	[pos="1243.4,1288.3 1219.9,1257.9 1169.2,1192.2 1145.6,1161.8"];
	47	[height=0.5,
		pos="1065.7,1430.5",
		width=0.75];
	46 -- 47	[pos="971.53,1221.5 990.51,1263.7 1038.8,1370.9 1057.8,1413.1"];
	238	[height=0.5,
		pos="1051.5,1001.8",
		width=0.75];
	46 -- 238	[pos="971.33,1186.5 987.97,1148.2 1027.3,1057.4 1043.9,1019.2"];
	250	[height=0.5,
		pos="794,1560.1",
		width=0.75];
	247 -- 250	[pos="1077.3,1522.2 1018.7,1530 879.4,1548.7 820.75,1556.6"];
	248	[height=0.5,
		pos="1370.3,1543.3",
		width=0.75];
	247 -- 248	[pos="1131,1521.1 1182.1,1525.9 1292.1,1536.1 1343.2,1540.8"];
	48	[height=0.5,
		pos="1022.9,1641.3",
		width=0.75];
	47 -- 48	[pos="1062,1448.5 1054,1488.3 1034.6,1583.6 1026.6,1623.4"];
	384	[height=0.5,
		pos="1278.5,1401",
		width=0.75];
	47 -- 384	[pos="1092.2,1426.8 1133.1,1421.1 1211.1,1410.3 1252,1404.6"];
	253	[height=0.5,
		pos="603.81,1553.7",
		width=0.75];
	250 -- 253	[pos="766.75,1559.2 730.59,1558 667.14,1555.8 631,1554.6"];
	250 -- 251	[pos="769.71,1551.9 764.83,1550.2 759.7,1548.4 754.83,1546.8"];
	49	[height=0.5,
		pos="1305,1509.7",
		width=0.75];
	48 -- 49	[pos="1045.1,1631 1097.7,1606.5 1229.7,1544.9 1282.6,1520.2"];
	48 -- 216	[pos="1002.5,1629.3 970.54,1610.5 908.88,1574.2 876.94,1555.4"];
	255	[height=0.5,
		pos="320.93,1464.1",
		width=0.75];
	253 -- 255	[pos="579.2,1545.9 525.7,1528.9 399.32,1488.9 345.69,1471.9"];
	254	[height=0.5,
		pos="691.86,1592.1",
		width=0.75];
	253 -- 254	[pos="626.48,1563.5 639.63,1569.3 656.13,1576.5 669.26,1582.2"];
	50	[height=0.5,
		pos="1366.7,1601.8",
		width=0.75];
	49 -- 50	[pos="1316,1526.2 1327.2,1542.8 1344.4,1568.4 1355.6,1585.2"];
	49 -- 192	[pos="1307.1,1491.6 1311.5,1454.1 1321.5,1368.5 1325.8,1331"];
	258	[height=0.5,
		pos="124.22,1444.7",
		width=0.75];
	255 -- 258	[pos="293.99,1461.4 256.43,1457.7 188.71,1451.1 151.15,1447.4"];
	256	[height=0.5,
		pos="515.37,1239.4",
		width=0.75];
	255 -- 256	[pos="334.61,1448.3 370.31,1407 466.03,1296.4 501.72,1255.1"];
	51	[height=0.5,
		pos="1499.1,1545.5",
		width=0.75];
	50 -- 51	[pos="1389.8,1592 1414.1,1581.6 1452.1,1565.5 1476.3,1555.2"];
	460	[height=0.5,
		pos="1434.5,1577",
		width=0.75];
	50 -- 460	[pos="1390.4,1593.1 1397,1590.7 1404.1,1588.1 1410.7,1585.7"];
	260	[height=0.5,
		pos="59.543,1327.2",
		width=0.75];
	258 -- 260	[pos="114.82,1427.6 102.55,1405.4 81.228,1366.6 68.96,1344.3"];
	259	[height=0.5,
		pos="230.12,1475.7",
		width=0.75];
	258 -- 259	[pos="149.05,1452 165.92,1456.9 188.16,1463.4 205.08,1468.4"];
	52	[height=0.5,
		pos="1544.4,1398.7",
		width=0.75];
	51 -- 52	[pos="1504.6,1527.8 1513.3,1499.6 1530.2,1444.7 1538.9,1416.5"];
	461	[height=0.5,
		pos="1563.9,1562.8",
		width=0.75];
	51 -- 461	[pos="1524.3,1552.2 1529,1553.5 1533.9,1554.8 1538.6,1556.1"];
	263	[height=0.5,
		pos="183.78,1400.4",
		width=0.75];
	260 -- 263	[pos="79.781,1339.2 102.75,1352.7 140.01,1374.6 163.14,1388.3"];
	261	[height=0.5,
		pos="118.44,1282.2",
		width=0.75];
	260 -- 261	[pos="77.533,1313.5 84.84,1307.9 93.261,1301.5 100.56,1295.9"];
	53	[height=0.5,
		pos="1668.1,1143.3",
		width=0.75];
	52 -- 53	[pos="1552.7,1381.6 1575.2,1335.1 1637.1,1207.4 1659.7,1160.7"];
	52 -- 248	[pos="1527.4,1412.8 1494.1,1440.5 1420.7,1501.4 1387.4,1529.1"];
	265	[height=0.5,
		pos="405.73,1322.3",
		width=0.75];
	263 -- 265	[pos="207.96,1391.9 250.65,1376.9 338.91,1345.8 381.59,1330.8"];
	264	[height=0.5,
		pos="183.64,1329.5",
		width=0.75];
	263 -- 264	[pos="183.74,1382.2 183.72,1371.7 183.7,1358.5 183.68,1348"];
	54	[height=0.5,
		pos="1477.9,764.94",
		width=0.75];
	53 -- 54	[pos="1659.5,1126 1627.8,1063 1518.4,845.47 1486.6,782.28"];
	463	[height=0.5,
		pos="1725.4,1187.8",
		width=0.75];
	53 -- 463	[pos="1685.9,1157.1 1692.9,1162.5 1700.8,1168.7 1707.8,1174.1"];
	267	[height=0.5,
		pos="692.62,1102.6",
		width=0.75];
	265 -- 267	[pos="423.68,1308.5 475.2,1269.1 623.17,1155.8 674.68,1116.4"];
	266	[height=0.5,
		pos="264.13,1268.2",
		width=0.75];
	265 -- 266	[pos="382.03,1313.2 355.89,1303.2 314.08,1287.3 287.91,1277.3"];
	55	[height=0.5,
		pos="1310.5,757.33",
		width=0.75];
	54 -- 55	[pos="1450.6,763.7 1419.4,762.28 1368.6,759.97 1337.5,758.56"];
	54 -- 125	[pos="1462.3,750.13 1432.8,722.14 1369.1,661.77 1339.5,633.75"];
	271	[height=0.5,
		pos="715.53,997",
		width=0.75];
	267 -- 271	[pos="696.5,1084.7 700.72,1065.3 707.4,1034.5 711.62,1015"];
	268	[height=0.5,
		pos="848.47,1061.8",
		width=0.75];
	267 -- 268	[pos="718,1096 746.99,1088.4 794.11,1076 823.09,1068.4"];
	56	[height=0.5,
		pos="1068.2,652.55",
		width=0.75];
	55 -- 56	[pos="1287.8,747.48 1241.6,727.5 1137.4,682.47 1091.2,662.46"];
	55 -- 195	[pos="1310.5,775.46 1310.5,801.12 1310.5,847.76 1310.5,873.49"];
	274	[height=0.5,
		pos="606.57,1283.3",
		width=0.75];
	271 -- 274	[pos="708.88,1014.5 689.43,1065.6 632.79,1214.4 613.27,1265.7"];
	272	[height=0.5,
		pos="872.99,754.78",
		width=0.75];
	271 -- 272	[pos="726.35,980.35 755.12,936.1 833.24,815.93 862.09,771.55"];
	57	[height=0.5,
		pos="945.9,391.22",
		width=0.75];
	56 -- 57	[pos="1060,635 1037.7,587.39 976.33,456.22 954.08,408.7"];
	102	[height=0.5,
		pos="1017.4,827.42",
		width=0.75];
	56 -- 102	[pos="1063.1,670.28 1053.3,703.8 1032.3,776.09 1022.5,809.65"];
	277	[height=0.5,
		pos="457.42,1404.8",
		width=0.75];
	274 -- 277	[pos="589.46,1297.2 560.84,1320.5 503.58,1367.2 474.79,1390.7"];
	275	[height=0.5,
		pos="714.6,1256.9",
		width=0.75];
	274 -- 275	[pos="632.17,1277 649.39,1272.8 672,1267.3 689.19,1263.1"];
	58	[height=0.5,
		pos="522.82,302.84",
		width=0.75];
	57 -- 58	[pos="920.07,385.83 844.54,370.05 624.63,324.11 548.84,308.28"];
	467	[height=0.5,
		pos="1082.4,349.59",
		width=0.75];
	57 -- 467	[pos="970.62,383.68 995.2,376.18 1032.7,364.74 1057.4,357.21"];
	280	[height=0.5,
		pos="638.26,1420.5",
		width=0.75];
	277 -- 280	[pos="484.49,1407.2 518.68,1410.1 577.16,1415.2 611.29,1418.1"];
	278	[height=0.5,
		pos="307.7,1332.7",
		width=0.75];
	277 -- 278	[pos="435.33,1394.2 407.02,1380.5 358.23,1357 329.88,1343.3"];
	59	[height=0.5,
		pos="272.77,343.1",
		width=0.75];
	58 -- 59	[pos="496.53,307.07 448.51,314.8 347.12,331.13 299.08,338.87"];
	468	[height=0.5,
		pos="695.89,241.92",
		width=0.75];
	58 -- 468	[pos="546.88,294.37 579.86,282.76 638.74,262.03 671.75,250.41"];
	283	[height=0.5,
		pos="941.58,1292.2",
		width=0.75];
	280 -- 283	[pos="661.55,1410.6 718.15,1386.7 862.37,1325.7 918.62,1301.9"];
	281	[height=0.5,
		pos="591.71,1465.5",
		width=0.75];
	280 -- 281	[pos="622.76,1435.4 617.79,1440.3 612.28,1445.6 607.3,1450.4"];
	60	[height=0.5,
		pos="129.85,449.95",
		width=0.75];
	59 -- 60	[pos="254.67,356.64 227.33,377.08 175.78,415.62 148.26,436.19"];
	469	[height=0.5,
		pos="320.16,294.29",
		width=0.75];
	59 -- 469	[pos="287.51,327.93 293.16,322.11 299.61,315.46 305.27,309.63"];
	288	[height=0.5,
		pos="1104.4,1056.8",
		width=0.75];
	283 -- 288	[pos="953.04,1275.6 982.93,1232.4 1063.1,1116.5 1093,1073.3"];
	283 -- 284	[pos="932.82,1309.6 925.05,1325 913.75,1347.5 905.98,1362.9"];
	61	[height=0.5,
		pos="29.906,607.8",
		width=0.75];
	60 -- 61	[pos="119.35,466.54 100.2,496.78 59.836,560.53 40.573,590.95"];
	470	[height=0.5,
		pos="193.59,475.85",
		width=0.75];
	60 -- 470	[pos="153.23,459.45 158.77,461.7 164.68,464.1 170.22,466.35"];
	291	[height=0.5,
		pos="1067.2,697.17",
		width=0.75];
	288 -- 291	[pos="1102.5,1038.5 1096.1,976.79 1075.5,777.1 1069.1,715.47"];
	289	[height=0.5,
		pos="1304,1044.2",
		width=0.75];
	288 -- 289	[pos="1131.4,1055.1 1169.4,1052.7 1238.7,1048.3 1276.9,1045.9"];
	62	[height=0.5,
		pos="127.18,761.5",
		width=0.75];
	61 -- 62	[pos="40.501,624.54 59.214,654.11 97.898,715.23 116.6,744.78"];
	471	[height=0.5,
		pos="27,666.53",
		width=0.75];
	61 -- 471	[pos="29.002,626.06 28.649,633.2 28.245,641.36 27.893,648.48"];
	294	[height=0.5,
		pos="1197.6,454.26",
		width=0.75];
	291 -- 294	[pos="1076.4,680.09 1100.3,635.49 1164.5,515.9 1188.4,471.32"];
	291 -- 292	[pos="1044.9,686.91 1010.6,671.09 945.23,640.91 910.92,625.09"];
	63	[height=0.5,
		pos="285.92,866.58",
		width=0.75];
	62 -- 63	[pos="146.65,774.39 177.11,794.55 235.73,833.36 266.3,853.59"];
	363	[height=0.5,
		pos="180.97,663.51",
		width=0.75];
	62 -- 363	[pos="136.55,744.43 146.37,726.56 161.69,698.64 171.53,680.71"];
	299	[height=0.5,
		pos="1417.7,264.01",
		width=0.75];
	294 -- 299	[pos="1214.1,439.96 1254.9,404.7 1359.9,313.9 1400.9,278.47"];
	295	[height=0.5,
		pos="973.27,472.24",
		width=0.75];
	294 -- 295	[pos="1170.5,456.43 1127.4,459.88 1043.6,466.6 1000.4,470.06"];
	64	[height=0.5,
		pos="529.46,984.79",
		width=0.75];
	63 -- 64	[pos="307.96,877.28 354.21,899.73 460.93,951.53 507.29,974.03"];
	347	[height=0.5,
		pos="200.74,1006.8",
		width=0.75];
	63 -- 347	[pos="275.65,883.5 259.27,910.45 227.45,962.86 211.05,989.85"];
	301	[height=0.5,
		pos="1545.4,251.65",
		width=0.75];
	299 -- 301	[pos="1444.5,261.42 1466.3,259.31 1496.9,256.35 1518.7,254.24"];
	300	[height=0.5,
		pos="1320.1,264.45",
		width=0.75];
	299 -- 300	[pos="1390.5,264.13 1377,264.19 1360.7,264.27 1347.2,264.33"];
	65	[height=0.5,
		pos="297.94,1129.4",
		width=0.75];
	64 -- 65	[pos="509.72,997.12 466.09,1024.4 361.85,1089.5 317.96,1116.9"];
	239	[height=0.5,
		pos="799.68,1016.9",
		width=0.75];
	64 -- 239	[pos="556.36,987.98 608.15,994.14 721.18,1007.6 772.89,1013.7"];
	304	[height=0.5,
		pos="1748.5,390.83",
		width=0.75];
	301 -- 304	[pos="1564.5,264.75 1603.3,291.34 1691,351.4 1729.6,377.87"];
	301 -- 302	[pos="1566.9,263.2 1582,271.3 1602,282.08 1616.9,290.12"];
	66	[height=0.5,
		pos="315.93,952.98",
		width=0.75];
	65 -- 66	[pos="299.8,1111.2 303.25,1077.3 310.63,1004.9 314.08,971.09"];
	350	[height=0.5,
		pos="245.66,1334",
		width=0.75];
	65 -- 350	[pos="293.39,1147.2 283.5,1185.9 260.14,1277.3 250.23,1316.1"];
	307	[height=0.5,
		pos="1585.4,408.46",
		width=0.75];
	304 -- 307	[pos="1721.6,393.74 1691.3,397.02 1642.3,402.31 1612.1,405.58"];
	304 -- 305	[pos="1764.2,405.71 1783,423.6 1814.5,453.45 1833.2,471.29"];
	67	[height=0.5,
		pos="588.92,883.23",
		width=0.75];
	66 -- 67	[pos="341.61,946.42 393.77,933.09 511.56,902.99 563.5,889.72"];
	476	[height=0.5,
		pos="288.69,997.02",
		width=0.75];
	66 -- 476	[pos="305.63,969.63 303.46,973.14 301.17,976.84 299,980.35"];
	310	[height=0.5,
		pos="1620.4,158.33",
		width=0.75];
	307 -- 310	[pos="1587.9,390.48 1594.4,344.44 1611.4,222.72 1617.8,176.5"];
	308	[height=0.5,
		pos="1538.4,600.44",
		width=0.75];
	307 -- 308	[pos="1581,426.52 1572,463.21 1551.7,546.04 1542.7,582.57"];
	68	[height=0.5,
		pos="901.61,909.61",
		width=0.75];
	67 -- 68	[pos="615.85,885.5 674.95,890.49 815.48,902.34 874.63,907.33"];
	209	[height=0.5,
		pos="544.84,794.51",
		width=0.75];
	67 -- 209	[pos="580.42,866.12 572.66,850.51 561.25,827.55 553.46,811.86"];
	312	[height=0.5,
		pos="1575.6,106.37",
		width=0.75];
	310 -- 312	[pos="1606.7,142.46 1601.1,136.01 1594.7,128.58 1589.2,122.14"];
	311	[height=0.5,
		pos="1513,138.98",
		width=0.75];
	310 -- 311	[pos="1594.1,153.6 1577.5,150.6 1556,146.73 1539.4,143.73"];
	69	[height=0.5,
		pos="1141,745.48",
		width=0.75];
	68 -- 69	[pos="920.8,896.45 965.74,865.65 1077.4,789.11 1122.1,758.47"];
	68 -- 245	[pos="916.45,924.73 958.17,967.26 1076.2,1087.6 1118.1,1130.3"];
	314	[height=0.5,
		pos="1372.4,64.323",
		width=0.75];
	312 -- 314	[pos="1549.4,100.95 1510.4,92.882 1437.4,77.773 1398.5,69.713"];
	313	[height=0.5,
		pos="1486.2,81.606",
		width=0.75];
	312 -- 313	[pos="1550.2,99.336 1538,95.962 1523.5,91.932 1511.3,88.567"];
	70	[height=0.5,
		pos="1387.8,512.8",
		width=0.75];
	69 -- 70	[pos="1156.9,730.57 1201.4,688.54 1327.7,569.46 1372.1,527.58"];
	196	[height=0.5,
		pos="1062.4,871.64",
		width=0.75];
	69 -- 196	[pos="1130.6,762.23 1115.5,786.36 1087.9,830.65 1072.8,854.82"];
	316	[height=0.5,
		pos="1173.7,106.36",
		width=0.75];
	314 -- 316	[pos="1346.4,69.819 1308.4,77.875 1237.8,92.805 1199.7,100.86"];
	315	[height=0.5,
		pos="1308.6,18",
		width=0.75];
	314 -- 315	[pos="1354,50.925 1345.6,44.832 1335.7,37.637 1327.3,31.529"];
	71	[height=0.5,
		pos="1588.3,452.5",
		width=0.75];
	70 -- 71	[pos="1412.8,505.28 1451.4,493.67 1525.2,471.48 1563.7,459.92"];
	325	[height=0.5,
		pos="1305.8,314.07",
		width=0.75];
	70 -- 325	[pos="1380.5,495.16 1365,457.45 1328.6,369.34 1313,331.66"];
	319	[height=0.5,
		pos="1167.3,251.23",
		width=0.75];
	316 -- 319	[pos="1172.9,124.41 1171.7,152.17 1169.3,205.05 1168.1,232.95"];
	317	[height=0.5,
		pos="875.39,73.143",
		width=0.75];
	316 -- 317	[pos="1147,103.38 1090.3,97.076 958.85,82.435 902.17,76.125"];
	72	[height=0.5,
		pos="1722.7,686.67",
		width=0.75];
	71 -- 72	[pos="1598,469.35 1622.7,512.45 1688.1,626.39 1712.9,669.67"];
	326	[height=0.5,
		pos="1391.8,308.05",
		width=0.75];
	71 -- 326	[pos="1569.8,438.91 1532.3,411.31 1447.5,348.98 1410.1,321.5"];
	323	[height=0.5,
		pos="1095.2,217.54",
		width=0.75];
	319 -- 323	[pos="1144.9,240.75 1136.1,236.66 1126.1,231.97 1117.4,227.89"];
	320	[height=0.5,
		pos="1135.5,467.43",
		width=0.75];
	319 -- 320	[pos="1164.6,269.29 1158.6,309.99 1144.2,408.47 1138.2,449.26"];
	73	[height=0.5,
		pos="1559.7,852.98",
		width=0.75];
	72 -- 73	[pos="1707.7,702.02 1676.6,733.7 1605.7,806.02 1574.7,837.67"];
	72 -- 159	[pos="1733.6,703.15 1754.4,734.73 1799.7,803.43 1820.8,835.34"];
	329	[height=0.5,
		pos="846.02,229.34",
		width=0.75];
	323 -- 329	[pos="1068.1,218.82 1020.2,221.09 921.04,225.79 873.13,228.06"];
	323 -- 324	[pos="1122.6,217.8 1172.8,218.28 1278.8,219.29 1328.6,219.76"];
	74	[height=0.5,
		pos="1535.6,1033.6",
		width=0.75];
	73 -- 74	[pos="1557.3,870.96 1552.7,905.48 1542.7,980.72 1538,1015.4"];
	73 -- 199	[pos="1534.4,859.84 1465.1,878.63 1272.6,930.8 1203.6,949.51"];
	332	[height=0.5,
		pos="595.2,152.69",
		width=0.75];
	329 -- 332	[pos="821.05,221.71 772.98,207.02 668.07,174.96 620.07,160.29"];
	329 -- 330	[pos="830.05,244.26 815.89,257.5 795.3,276.74 781.15,289.97"];
	75	[height=0.5,
		pos="1215.3,1000.3",
		width=0.75];
	74 -- 75	[pos="1508.8,1030.8 1448.6,1024.5 1302.7,1009.4 1242.2,1003.1"];
	186	[height=0.5,
		pos="1349.5,1000.1",
		width=0.75];
	74 -- 186	[pos="1509.3,1028.8 1473.9,1022.5 1411.1,1011.2 1375.7,1004.8"];
	334	[height=0.5,
		pos="338.57,225.66",
		width=0.75];
	332 -- 334	[pos="570.13,159.82 521.07,173.77 412.89,204.53 363.75,218.5"];
	333	[height=0.5,
		pos="498.28,126.76",
		width=0.75];
	332 -- 333	[pos="569.99,145.95 555.63,142.1 537.71,137.31 523.37,133.47"];
	76	[height=0.5,
		pos="895.41,865.61",
		width=0.75];
	75 -- 76	[pos="1192.3,990.63 1133.4,965.84 977.77,900.29 918.64,875.39"];
	229	[height=0.5,
		pos="1195.6,1254",
		width=0.75];
	75 -- 229	[pos="1213.9,1018.6 1210.3,1065.4 1200.6,1189.3 1197,1236"];
	337	[height=0.5,
		pos="237.38,430.95",
		width=0.75];
	334 -- 337	[pos="330.12,242.81 311.07,281.45 264.97,374.97 245.88,413.7"];
	334 -- 335	[pos="361.77,216.4 366.89,214.36 372.32,212.2 377.45,210.15"];
	77	[height=0.5,
		pos="839.59,948.35",
		width=0.75];
	76 -- 77	[pos="884.12,882.35 874.37,896.8 860.37,917.55 850.68,931.91"];
	120	[height=0.5,
		pos="646.35,729.41",
		width=0.75];
	76 -- 120	[pos="874.18,854 827.12,828.26 714.54,766.7 667.53,740.99"];
	339	[height=0.5,
		pos="162.95,616.3",
		width=0.75];
	337 -- 339	[pos="230.38,448.39 216.19,483.71 184.2,563.37 169.98,598.77"];
	338	[height=0.5,
		pos="210.76,383.54",
		width=0.75];
	337 -- 338	[pos="227.77,413.84 225.32,409.49 222.7,404.82 220.26,400.48"];
	78	[height=0.5,
		pos="968.03,1248.2",
		width=0.75];
	77 -- 78	[pos="847.05,965.77 869.75,1018.8 937.82,1177.7 960.55,1230.7"];
	77 -- 114	[pos="846.31,930.82 865.98,879.54 923.23,730.23 942.96,678.78"];
	341	[height=0.5,
		pos="253.91,913.54",
		width=0.75];
	339 -- 341	[pos="168.36,634 184.51,686.75 232.15,842.45 248.41,895.56"];
	340	[height=0.5,
		pos="223.71,571.16",
		width=0.75];
	339 -- 340	[pos="181.18,602.76 188.87,597.05 197.8,590.41 205.49,584.7"];
	79	[height=0.5,
		pos="1155.6,1473.5",
		width=0.75];
	78 -- 79	[pos="981.22,1264 1015.7,1305.4 1108,1416.3 1142.4,1457.6"];
	78 -- 275	[pos="940.91,1249.1 892.26,1250.8 790.7,1254.3 741.91,1255.9"];
	345	[height=0.5,
		pos="129.77,1070",
		width=0.75];
	341 -- 345	[pos="241.1,929.7 217.31,959.69 166.58,1023.6 142.71,1053.7"];
	341 -- 342	[pos="275.54,924.9 321.9,949.24 430.38,1006.2 476.39,1030.4"];
	80	[height=0.5,
		pos="1390.6,1421.7",
		width=0.75];
	79 -- 80	[pos="1181.7,1467.7 1227,1457.8 1319.7,1437.3 1364.8,1427.4"];
	489	[height=0.5,
		pos="1263,1463.1",
		width=0.75];
	79 -- 489	[pos="1182.4,1470.9 1198.8,1469.3 1219.8,1467.2 1236.2,1465.7"];
	349	[height=0.5,
		pos="112.76,1200.7",
		width=0.75];
	345 -- 349	[pos="127.41,1088.2 124.16,1113.2 118.34,1157.8 115.1,1182.7"];
	345 -- 346	[pos="151.57,1081.1 190.77,1101.1 272.72,1142.8 311.81,1162.7"];
	81	[height=0.5,
		pos="1615.1,1249.7",
		width=0.75];
	80 -- 81	[pos="1408.6,1407.9 1450.8,1375.6 1555.4,1295.4 1597.4,1263.3"];
	490	[height=0.5,
		pos="1471.1,1427.5",
		width=0.75];
	80 -- 490	[pos="1417.9,1423.7 1426.3,1424.3 1435.7,1425 1444.2,1425.6"];
	353	[height=0.5,
		pos="42.912,1084.1",
		width=0.75];
	349 -- 353	[pos="102.45,1183.5 89.17,1161.3 66.224,1123 53.033,1101"];
	349 -- 350	[pos="127.74,1215.7 153.27,1241.3 204.9,1293.1 230.52,1318.8"];
	82	[height=0.5,
		pos="1783.7,1018.8",
		width=0.75];
	81 -- 82	[pos="1627,1233.5 1657.9,1191.1 1740.9,1077.4 1771.9,1035"];
	178	[height=0.5,
		pos="1250.4,1176.4",
		width=0.75];
	81 -- 178	[pos="1589.2,1244.5 1522.1,1231 1343.6,1195.2 1276.5,1181.7"];
	355	[height=0.5,
		pos="42.575,956.34",
		width=0.75];
	353 -- 355	[pos="42.865,1066.1 42.801,1041.8 42.688,999.07 42.624,974.69"];
	354	[height=0.5,
		pos="65.503,1022.5",
		width=0.75];
	353 -- 354	[pos="49.326,1066.6 52.352,1058.3 55.957,1048.5 58.996,1040.2"];
	83	[height=0.5,
		pos="1763.5,812.75",
		width=0.75];
	82 -- 83	[pos="1781.9,1000.5 1778.1,961.38 1769.1,870.05 1765.3,830.99"];
	492	[height=0.5,
		pos="1845.8,986.83",
		width=0.75];
	82 -- 492	[pos="1805.4,1007.6 1811.4,1004.5 1818,1001.1 1824,998.05"];
	357	[height=0.5,
		pos="192.36,827.52",
		width=0.75];
	355 -- 357	[pos="59.177,942.06 87.97,917.3 146.84,866.67 175.69,841.86"];
	356	[height=0.5,
		pos="129.84,850.37",
		width=0.75];
	355 -- 356	[pos="55.828,940.24 72.325,920.21 100.32,886.21 116.74,866.27"];
	84	[height=0.5,
		pos="1703.4,569.92",
		width=0.75];
	83 -- 84	[pos="1759.1,794.9 1748,749.99 1718.9,632.74 1707.8,587.8"];
	83 -- 153	[pos="1775.7,796.51 1802.2,761.19 1864.8,677.75 1891.3,642.34"];
	361	[height=0.5,
		pos="280.41,627.05",
		width=0.75];
	357 -- 361	[pos="200.02,810.08 216.67,772.17 256.01,682.6 272.7,644.6"];
	357 -- 358	[pos="203.61,844.29 230.41,884.24 297.77,984.66 324.51,1024.5"];
	85	[height=0.5,
		pos="1375.5,371.42",
		width=0.75];
	84 -- 85	[pos="1683.4,557.8 1624.8,522.36 1454.4,419.18 1395.7,383.63"];
	234	[height=0.5,
		pos="1513.8,720.91",
		width=0.75];
	84 -- 234	[pos="1685.9,583.85 1649.8,612.62 1567.4,678.27 1531.3,707.01"];
	365	[height=0.5,
		pos="361.56,489.96",
		width=0.75];
	361 -- 365	[pos="290.36,610.24 305.93,583.93 335.9,533.3 351.53,506.91"];
	361 -- 362	[pos="253.55,630.35 217.91,634.72 155.35,642.4 119.74,646.77"];
	86	[height=0.5,
		pos="1151,367.58",
		width=0.75];
	85 -- 86	[pos="1348.5,370.95 1305.3,370.22 1221.4,368.78 1178.2,368.04"];
	374	[height=0.5,
		pos="1218.8,366.21",
		width=0.75];
	85 -- 374	[pos="1348.2,370.51 1319.5,369.55 1274.4,368.06 1245.8,367.11"];
	368	[height=0.5,
		pos="402.35,335.29",
		width=0.75];
	365 -- 368	[pos="366.24,472.22 374.07,442.54 389.73,383.16 397.6,353.3"];
	366	[height=0.5,
		pos="549.23,376.3",
		width=0.75];
	365 -- 366	[pos="381.64,477.8 417.67,455.98 492.88,410.43 529,388.55"];
	87	[height=0.5,
		pos="1074.8,556.47",
		width=0.75];
	86 -- 87	[pos="1144,385.01 1129.5,420.99 1096.3,503.13 1081.8,539.08"];
	86 -- 133	[pos="1165.2,351.91 1192.6,321.75 1252.2,255.92 1279.5,225.81"];
	370	[height=0.5,
		pos="730.99,382.44",
		width=0.75];
	368 -- 370	[pos="428.97,339.11 490.7,347.97 643.06,369.82 704.59,378.65"];
	369	[height=0.5,
		pos="460.78,289.01",
		width=0.75];
	368 -- 369	[pos="419.88,321.4 427.28,315.55 435.87,308.74 443.26,302.88"];
	88	[height=0.5,
		pos="738.02,527.37",
		width=0.75];
	87 -- 88	[pos="1047.8,554.13 984.74,548.68 828.32,535.17 765.14,529.71"];
	87 -- 173	[pos="1078,574.64 1087.1,624.97 1112.3,765.68 1121.2,815.65"];
	373	[height=0.5,
		pos="1035.3,481.65",
		width=0.75];
	370 -- 373	[pos="755.38,390.39 812.36,408.97 953.72,455.05 1010.8,473.66"];
	370 -- 371	[pos="704.32,386.54 652.97,394.45 540.92,411.7 489.65,419.6"];
	89	[height=0.5,
		pos="584.94,332.26",
		width=0.75];
	88 -- 89	[pos="725.49,511.4 696.79,474.81 626.51,385.25 597.64,348.45"];
	210	[height=0.5,
		pos="620.88,666.25",
		width=0.75];
	88 -- 210	[pos="724.58,543.3 701.99,570.09 656.65,623.84 634.16,650.51"];
	376	[height=0.5,
		pos="1385.9,623.99",
		width=0.75];
	373 -- 376	[pos="1058.6,491.1 1122.2,516.93 1298.5,588.52 1362.4,614.45"];
	373 -- 374	[pos="1055.3,469.07 1090.7,446.81 1163.9,400.72 1199.1,378.59"];
	90	[height=0.5,
		pos="559.27,214.81",
		width=0.75];
	89 -- 90	[pos="581.04,314.42 576.22,292.35 568.05,254.97 563.2,232.82"];
	499	[height=0.5,
		pos="417.25,379.44",
		width=0.75];
	89 -- 499	[pos="559.84,339.33 528.13,348.24 473.91,363.5 442.25,372.4"];
	379	[height=0.5,
		pos="1489.7,912.62",
		width=0.75];
	376 -- 379	[pos="1392.2,641.61 1410.8,693.14 1464.7,843.16 1483.4,894.86"];
	377	[height=0.5,
		pos="1690.5,759.94",
		width=0.75];
	376 -- 377	[pos="1408.8,634.21 1465.4,659.47 1611.4,724.6 1667.8,749.79"];
	91	[height=0.5,
		pos="726,153.76",
		width=0.75];
	90 -- 91	[pos="583.16,206.06 614.85,194.46 670.48,174.09 702.15,162.5"];
	500	[height=0.5,
		pos="533.17,170.79",
		width=0.75];
	90 -- 500	[pos="549.25,197.92 547.24,194.52 545.13,190.96 543.12,187.57"];
	382	[height=0.5,
		pos="1454.4,1188.4",
		width=0.75];
	379 -- 382	[pos="1487.4,930.72 1481,980.69 1463.1,1120.2 1456.7,1170.3"];
	380	[height=0.5,
		pos="1505.4,808.96",
		width=0.75];
	379 -- 380	[pos="1492.5,894.56 1495.3,875.65 1499.8,846.12 1502.7,827.15"];
	92	[height=0.5,
		pos="676.21,293.98",
		width=0.75];
	91 -- 92	[pos="719.69,171.52 710.12,198.5 692.01,249.48 682.47,276.37"];
	91 -- 317	[pos="747.08,142.38 775.4,127.11 825.42,100.11 853.92,84.726"];
	386	[height=0.5,
		pos="1618.7,948.52",
		width=0.75];
	382 -- 386	[pos="1465.6,1171.9 1495.7,1128.1 1577.2,1009.1 1607.3,965.12"];
	382 -- 383	[pos="1432.6,1199.5 1376.7,1227.9 1228.8,1303 1173.1,1331.3"];
	93	[height=0.5,
		pos="687.27,621.41",
		width=0.75];
	92 -- 93	[pos="676.82,312.05 678.76,369.3 684.73,546.23 686.66,603.4"];
	502	[height=0.5,
		pos="563.22,258.83",
		width=0.75];
	92 -- 502	[pos="651.69,286.35 632.74,280.46 606.63,272.33 587.69,266.44"];
	388	[height=0.5,
		pos="1517.7,675.36",
		width=0.75];
	386 -- 388	[pos="1612.2,931.02 1594,881.8 1542.5,742.55 1524.3,693.08"];
	387	[height=0.5,
		pos="1650.2,1095.3",
		width=0.75];
	386 -- 387	[pos="1622.5,966.51 1628.6,994.68 1640.2,1048.9 1646.3,1077.1"];
	94	[height=0.5,
		pos="869.21,661.55",
		width=0.75];
	93 -- 94	[pos="712.95,627.08 747.53,634.71 808.7,648.21 843.37,655.85"];
	343	[height=0.5,
		pos="517.13,734",
		width=0.75];
	93 -- 343	[pos="668.08,634.11 635.4,655.73 569.31,699.47 536.51,721.18"];
	393	[height=0.5,
		pos="1581.5,644.74",
		width=0.75];
	388 -- 393	[pos="1539.7,664.83 1546,661.78 1552.9,658.46 1559.3,655.4"];
	389	[height=0.5,
		pos="1261.8,632.45",
		width=0.75];
	388 -- 389	[pos="1491.3,670.93 1442.1,662.69 1337.1,645.08 1288.1,636.86"];
	95	[height=0.5,
		pos="747.61,859.5",
		width=0.75];
	94 -- 95	[pos="858.84,678.43 835.87,715.83 780.9,805.31 757.95,842.67"];
	126	[height=0.5,
		pos="1152.6,555.5",
		width=0.75];
	94 -- 126	[pos="892.89,652.69 946.23,632.73 1075.3,584.42 1128.8,564.41"];
	399	[height=0.5,
		pos="1795.6,689.35",
		width=0.75];
	393 -- 399	[pos="1607.3,650.12 1648.5,658.7 1728.5,675.37 1769.7,683.95"];
	394	[height=0.5,
		pos="1331.7,668.09",
		width=0.75];
	393 -- 394	[pos="1554.8,647.24 1506.8,651.72 1406.7,661.08 1358.6,665.58"];
	96	[height=0.5,
		pos="990.49,1118.5",
		width=0.75];
	95 -- 96	[pos="762.08,874.93 805.27,921 933,1057.2 976.1,1103.2"];
	359	[height=0.5,
		pos="535.86,838.54",
		width=0.75];
	95 -- 359	[pos="720.79,856.85 680.17,852.83 603.48,845.23 562.79,841.21"];
	402	[height=0.5,
		pos="1819.5,896.78",
		width=0.75];
	399 -- 402	[pos="1797.7,707.4 1802.2,746.63 1812.9,839.3 1817.4,878.63"];
	400	[height=0.5,
		pos="1579.7,688.77",
		width=0.75];
	399 -- 400	[pos="1768.3,689.28 1726.7,689.17 1648.2,688.95 1606.9,688.84"];
	97	[height=0.5,
		pos="1285.6,1356.9",
		width=0.75];
	96 -- 97	[pos="1008.1,1132.7 1060.6,1175.1 1215.8,1300.5 1268.1,1342.8"];
	225	[height=0.5,
		pos="1123,1189.7",
		width=0.75];
	96 -- 225	[pos="1011.8,1130 1036.5,1143.2 1077.1,1165 1101.8,1178.3"];
	404	[height=0.5,
		pos="1711.7,981.53",
		width=0.75];
	402 -- 404	[pos="1801.7,910.77 1781.6,926.57 1749.1,952.11 1729.2,967.8"];
	403	[height=0.5,
		pos="1823.5,941.96",
		width=0.75];
	402 -- 403	[pos="1821.1,914.9 1821.4,917.84 1821.6,920.89 1821.9,923.84"];
	98	[height=0.5,
		pos="1620.9,1371.3",
		width=0.75];
	97 -- 98	[pos="1312.8,1358.1 1375.6,1360.8 1530.4,1367.5 1593.5,1370.2"];
	507	[height=0.5,
		pos="1408.1,1258.9",
		width=0.75];
	97 -- 507	[pos="1302.9,1343.1 1326.1,1324.5 1367.2,1291.7 1390.5,1273"];
	407	[height=0.5,
		pos="1647.6,715.33",
		width=0.75];
	404 -- 407	[pos="1707.4,963.65 1695.7,915.16 1663.5,781.53 1651.9,733.13"];
	405	[height=0.5,
		pos="1576.9,1077.6",
		width=0.75];
	404 -- 405	[pos="1693.2,994.68 1667.6,1013 1621.3,1045.9 1595.6,1064.3"];
	99	[height=0.5,
		pos="1518.5,1297.7",
		width=0.75];
	98 -- 99	[pos="1602.1,1357.8 1583.6,1344.6 1555.6,1324.4 1537.1,1311.2"];
	508	[height=0.5,
		pos="1743.5,1241",
		width=0.75];
	98 -- 508	[pos="1635.4,1355.9 1659,1330.8 1705.4,1281.5 1729,1256.4"];
	410	[height=0.5,
		pos="1449.8,516.67",
		width=0.75];
	407 -- 410	[pos="1632.4,700.07 1595.5,663 1501.5,568.55 1464.8,531.71"];
	408	[height=0.5,
		pos="1423.8,720.89",
		width=0.75];
	407 -- 408	[pos="1620.6,716 1577.6,717.07 1494,719.15 1450.9,720.22"];
	103	[height=0.5,
		pos="1227.1,1044.3",
		width=0.75];
	99 -- 103	[pos="1502,1283.4 1450.8,1238.9 1295.2,1103.6 1243.8,1058.8"];
	411	[height=0.5,
		pos="1136.9,599.51",
		width=0.75];
	410 -- 411	[pos="1424.5,523.38 1365.7,538.94 1220.6,577.35 1162,592.86"];
	101 -- 102	[pos="798.45,951.03 843.91,925.36 951.47,864.63 996.73,839.08"];
	101 -- 181	[pos="786.65,979.81 803.17,1010.8 837.99,1076.1 854.61,1107.2"];
	102 -- 103	[pos="1032.1,842.68 1070.6,882.5 1173.9,989.29 1212.3,1029.1"];
	146	[height=0.5,
		pos="1203.1,725.3",
		width=0.75];
	102 -- 146	[pos="1038.3,815.91 1074.1,796.24 1146.5,756.41 1182.2,736.78"];
	292 -- 295	[pos="898.71,597.91 914.99,570.47 946.97,516.56 963.25,489.13"];
	293	[height=0.5,
		pos="1004.7,710.29",
		width=0.75];
	292 -- 293	[pos="905.8,628.92 927.73,646.96 965.54,678.07 987.51,696.15"];
	295 -- 320	[pos="1000.4,471.43 1030.5,470.54 1078.6,469.12 1108.5,468.23"];
	296	[height=0.5,
		pos="906.49,435.49",
		width=0.75];
	295 -- 296	[pos="952.14,460.61 944.35,456.32 935.51,451.46 927.71,447.17"];
	320 -- 389	[pos="1147.9,483.55 1171.9,515.02 1224.9,584.3 1249.2,616.02"];
	321	[height=0.5,
		pos="1066.3,393.59",
		width=0.75];
	320 -- 321	[pos="1121.2,452.13 1109.3,439.46 1092.5,421.54 1080.6,408.87"];
	389 -- 411	[pos="1236.5,625.79 1214.8,620.07 1183.8,611.88 1162.1,606.17"];
	390	[height=0.5,
		pos="1200.7,681.26",
		width=0.75];
	389 -- 390	[pos="1244.4,646.31 1236.3,652.85 1226.5,660.64 1218.3,667.2"];
	106	[height=0.5,
		pos="900.78,992.38",
		width=0.75];
	103 -- 106	[pos="1200.7,1040.1 1139.5,1030.4 988.84,1006.4 927.45,996.63"];
	412	[height=0.5,
		pos="744.85,711.94",
		width=0.75];
	411 -- 412	[pos="1112,606.63 1041.5,626.85 840.51,684.51 769.81,704.78"];
	105 -- 106	[pos="812.19,1188 830.33,1148 874.8,1049.8 892.91,1009.8"];
	442	[height=0.5,
		pos="894.47,1424.3",
		width=0.75];
	105 -- 442	[pos="811.52,1223 828.4,1264 870.29,1365.6 887.2,1406.6"];
	213 -- 412	[pos="541.74,871.43 583.08,838.97 685.64,758.43 727.07,725.9"];
	214	[height=0.5,
		pos="542.29,1086",
		width=0.75];
	213 -- 214	[pos="525.7,903.49 529.17,941.69 537.2,1030 540.65,1068"];
	109	[height=0.5,
		pos="885.52,710.74",
		width=0.75];
	106 -- 109	[pos="899.8,974.34 897.05,923.59 889.27,780.01 886.51,729"];
	413	[height=0.5,
		pos="745.17,665.44",
		width=0.75];
	412 -- 413	[pos="744.97,693.83 745,690.46 745.02,686.95 745.05,683.58"];
	108 -- 109	[pos="1053.8,618.01 1017.4,638.06 943.03,679.05 906.59,699.13"];
	108 -- 141	[pos="1100.4,612.76 1121.9,618.07 1152.6,625.62 1174.2,630.93"];
	189 -- 413	[pos="784.97,782.38 776.19,756.59 759.93,708.81 751.16,683.03"];
	190	[height=0.5,
		pos="1052.9,1118.9",
		width=0.75];
	189 -- 190	[pos="803.94,815.78 848.54,870.08 995.13,1048.5 1039.9,1103"];
	112	[height=0.5,
		pos="832.53,524.9",
		width=0.75];
	109 -- 112	[pos="880.44,692.92 870.31,657.4 847.71,578.14 837.6,542.66"];
	413 -- 414	[pos="731.96,649.73 694.79,605.56 589.65,480.6 552.3,436.2"];
	111 -- 112	[pos="727.09,440.5 750.35,459.12 791.47,492.03 814.89,510.78"];
	111 -- 119	[pos="716.84,444.04 728.34,472.29 750.93,527.77 762.42,556"];
	115	[height=0.5,
		pos="764.53,617.46",
		width=0.75];
	112 -- 115	[pos="820.37,541.45 808,558.3 788.92,584.26 776.58,601.06"];
	415	[height=0.5,
		pos="628.65,249.46",
		width=0.75];
	414 -- 415	[pos="547.86,403.3 565.01,370.63 602.39,299.46 619.62,266.65"];
	335 -- 415	[pos="427.01,206.39 470.94,215.77 559.1,234.6 602.83,243.94"];
	336	[height=0.5,
		pos="338.87,180.67",
		width=0.75];
	335 -- 336	[pos="376.37,192.85 372.04,191.44 367.53,189.97 363.2,188.57"];
	114 -- 115	[pos="923.98,655.04 888.6,646.7 825.33,631.79 790.06,623.48"];
	147	[height=0.5,
		pos="1136.3,650.47",
		width=0.75];
	114 -- 147	[pos="976.86,659.56 1012.2,657.55 1073.7,654.04 1109.1,652.02"];
	115 -- 117	[pos="744.93,604.93 699.92,576.15 589.57,505.58 544.63,476.83"];
	416	[height=0.5,
		pos="892.6,284.42",
		width=0.75];
	415 -- 416	[pos="655.41,253 706,259.7 815.12,274.15 865.77,280.86"];
	119 -- 296	[pos="784.42,558.37 810.63,531.99 864.68,477.59 891.17,450.92"];
	119 -- 120	[pos="756.78,589.5 733.18,619.4 682.87,683.15 659.18,713.16"];
	296 -- 416	[pos="904.82,417.27 902.15,388.23 896.96,331.78 894.28,302.7"];
	297	[height=0.5,
		pos="950.71,581.44",
		width=0.75];
	296 -- 297	[pos="911.91,453.39 920.4,481.4 936.73,535.3 945.25,563.4"];
	121	[height=0.5,
		pos="670.94,577.41",
		width=0.75];
	117 -- 121	[pos="542.98,478.21 570.97,499.91 624.83,541.66 652.91,563.43"];
	416 -- 417	[pos="908.48,269.85 937.95,242.82 1000.8,185.17 1030.4,158.04"];
	120 -- 121	[pos="649.27,711.38 654,682.12 663.29,624.66 668.02,595.42"];
	120 -- 202	[pos="640.9,747.35 629.43,785.1 602.92,872.31 591.49,909.89"];
	121 -- 123	[pos="687.08,562.85 735.3,519.37 877.85,390.83 925.95,347.45"];
	417 -- 418	[pos="1073.5,142.33 1135.1,140.03 1285.1,134.43 1346.7,132.13"];
	127	[height=0.5,
		pos="1099.9,305.56",
		width=0.75];
	123 -- 127	[pos="968.45,328.38 997.69,323.31 1044.5,315.18 1073.7,310.12"];
	419	[height=0.5,
		pos="1436.5,168.84",
		width=0.75];
	418 -- 419	[pos="1394,143.26 1401.2,147.57 1409.2,152.41 1416.4,156.72"];
	125 -- 126	[pos="1300,610.09 1267.3,597.98 1208.8,576.31 1176.2,564.24"];
	233	[height=0.5,
		pos="1269.6,696.68",
		width=0.75];
	125 -- 233	[pos="1312.3,635.4 1303.1,648.6 1290.3,667.02 1281.1,680.21"];
	324 -- 419	[pos="1375.6,207.37 1388.2,199.43 1404.3,189.25 1416.7,181.34"];
	324 -- 325	[pos="1346.5,237.27 1337.5,254.24 1323.8,280 1314.9,296.93"];
	126 -- 127	[pos="1148.8,537.52 1139.1,491.52 1113.5,369.9 1103.8,323.71"];
	126 -- 150	[pos="1170.9,542.08 1201.5,519.65 1262.8,474.75 1293.6,452.18"];
	127 -- 129	[pos="1109.4,288.49 1125,260.29 1155.9,204.31 1171.5,176.18"];
	420	[height=0.5,
		pos="1559.2,206.96",
		width=0.75];
	419 -- 420	[pos="1461,176.46 1482.4,183.11 1513.3,192.7 1534.7,199.35"];
	156 -- 420	[pos="1792.8,348.89 1745.1,319.93 1626.7,247.97 1579.3,219.17"];
	157	[height=0.5,
		pos="1911.1,577.36",
		width=0.75];
	156 -- 157	[pos="1821,378.57 1839.3,419.04 1884.8,519.41 1903.2,559.96"];
	129 -- 131	[pos="1171.4,142.22 1156.2,115.14 1126.7,62.482 1111.5,35.359"];
	421	[height=0.5,
		pos="1571.6,296.15",
		width=0.75];
	420 -- 421	[pos="1561.7,225.01 1563.9,240.48 1567,262.66 1569.1,278.13"];
	302 -- 421	[pos="1611,299.29 1607,298.97 1602.8,298.64 1598.8,298.32"];
	303	[height=0.5,
		pos="1481,277.94",
		width=0.75];
	302 -- 303	[pos="1611.4,297.45 1582.4,293.12 1536.4,286.23 1507.5,281.91"];
	134	[height=0.5,
		pos="1005.5,99.303",
		width=0.75];
	131 -- 134	[pos="1085.1,32.41 1067.5,47.187 1040,70.266 1022.4,85.084"];
	422	[height=0.5,
		pos="1525.7,467.6",
		width=0.75];
	421 -- 422	[pos="1566.8,314.18 1557.9,347.19 1539.3,416.99 1530.5,449.82"];
	185 -- 390	[pos="1384.7,757.5 1345,741.02 1263.6,707.32 1223.7,690.81"];
	185 -- 186	[pos="1403.2,784.92 1392.4,828.31 1364.9,938.71 1354,982.17"];
	133 -- 134	[pos="1270,201.13 1215.9,180.28 1083.1,129.17 1029,108.35"];
	327	[height=0.5,
		pos="1165.5,299",
		width=0.75];
	133 -- 327	[pos="1274.7,223.31 1250.5,240.1 1208.7,269.03 1184.4,285.85"];
	390 -- 394	[pos="1227.5,678.57 1250.1,676.29 1282.3,673.06 1304.9,670.79"];
	391	[height=0.5,
		pos="1186.4,912.29",
		width=0.75];
	390 -- 391	[pos="1199.6,699.39 1196.9,742.58 1190.2,851.14 1187.6,894.25"];
	394 -- 422	[pos="1346.6,652.69 1382.8,615.28 1475,519.96 1511,482.78"];
	394 -- 395	[pos="1306.6,674.98 1244.2,692.14 1082.5,736.64 1020,753.84"];
	137	[height=0.5,
		pos="908.03,239.28",
		width=0.75];
	134 -- 137	[pos="994.09,115.63 975.42,142.46 938.45,195.58 919.63,222.62"];
	423	[height=0.5,
		pos="1713.7,525.87",
		width=0.75];
	422 -- 423	[pos="1550.3,475.22 1586.3,486.39 1653.1,507.08 1689.1,518.25"];
	144 -- 423	[pos="1554.7,552 1590,546.19 1652.2,535.97 1687.4,530.18"];
	144 -- 145	[pos="1511,570.63 1485.2,592.28 1436.3,633.21 1410.6,654.79"];
	136 -- 137	[pos="683.46,201.56 731.65,209.65 833.41,226.75 881.63,234.85"];
	450	[height=0.5,
		pos="334.53,387.23",
		width=0.75];
	136 -- 450	[pos="636.41,209.31 578.15,243.65 413.07,340.94 355.03,375.15"];
	137 -- 139	[pos="934.95,242.52 970.15,246.75 1031.4,254.13 1066.5,258.34"];
	424	[height=0.5,
		pos="1859.1,677.96",
		width=0.75];
	423 -- 424	[pos="1728.4,541.29 1756.3,570.44 1816.4,633.31 1844.4,662.5"];
	222 -- 377	[pos="1604.3,987.92 1621.4,942.6 1666.8,822.59 1683.9,777.44"];
	223	[height=0.5,
		pos="1539.6,1165.7",
		width=0.75];
	222 -- 223	[pos="1591.2,1023.3 1580,1054.1 1557.3,1117 1546.1,1147.8"];
	377 -- 424	[pos="1712.6,749.22 1744.9,733.51 1804.8,704.39 1837.1,688.68"];
	378	[height=0.5,
		pos="1455.7,634.66",
		width=0.75];
	377 -- 378	[pos="1669.3,748.6 1624.7,724.81 1521.8,669.91 1477.1,646.06"];
	142	[height=0.5,
		pos="1236.5,410.22",
		width=0.75];
	139 -- 142	[pos="1108,276.9 1135.4,305.39 1194,366.14 1221.6,394.73"];
	425	[height=0.5,
		pos="1827.4,544.58",
		width=0.75];
	424 -- 425	[pos="1854.9,659.97 1848.8,634.51 1837.8,588.24 1831.7,562.71"];
	141 -- 142	[pos="1202.7,619.03 1209.6,576.42 1226.8,470.57 1233.6,428.19"];
	141 -- 176	[pos="1206.2,654.96 1215.5,680.52 1232.7,727.41 1242,753.01"];
	305 -- 425	[pos="1842.4,503.62 1839.7,511.03 1836.5,519.63 1833.8,527.03"];
	306	[height=0.5,
		pos="1660.3,362.19",
		width=0.75];
	305 -- 306	[pos="1829.3,473.28 1793.1,449.48 1715.8,398.66 1679.7,374.91"];
	148	[height=0.5,
		pos="1325.8,530.84",
		width=0.75];
	142 -- 148	[pos="1248.6,426.49 1265.6,449.51 1296.6,491.35 1313.7,514.44"];
	426	[height=0.5,
		pos="1515.6,512.35",
		width=0.75];
	425 -- 426	[pos="1800.6,541.8 1741.6,535.71 1601.5,521.23 1542.5,515.13"];
	145 -- 237	[pos="1386.1,686.36 1374.9,711.91 1354.3,759.27 1343.1,784.83"];
	145 -- 146	[pos="1368.8,676.3 1332.2,687.1 1264.5,707.13 1228,717.93"];
	237 -- 308	[pos="1350.8,787.1 1388.4,749.6 1485.6,652.9 1523.2,615.51"];
	237 -- 238	[pos="1316.9,815.36 1265.4,851.5 1121.7,952.41 1070.2,988.62"];
	146 -- 147	[pos="1189.2,709.8 1177.8,696.96 1161.6,678.8 1150.1,665.96"];
	146 -- 400	[pos="1229.8,722.71 1299.1,715.99 1483.5,698.11 1552.8,691.38"];
	308 -- 426	[pos="1533.7,582.61 1529.8,567.33 1524.1,545.43 1520.2,530.15"];
	309	[height=0.5,
		pos="1570.8,340.15",
		width=0.75];
	308 -- 309	[pos="1540.6,582.14 1546.6,534.35 1562.5,406.2 1568.5,358.44"];
	147 -- 148	[pos="1156.2,637.89 1192.7,614.86 1269.8,566.16 1306.1,543.24"];
	397	[height=0.5,
		pos="1124.4,898.96",
		width=0.75];
	147 -- 397	[pos="1135.4,668.74 1133.2,714.7 1127.5,834.68 1125.3,880.67"];
	151	[height=0.5,
		pos="1415.1,424.28",
		width=0.75];
	148 -- 151	[pos="1339,515.11 1355.8,494.97 1384.9,460.25 1401.9,440.07"];
	427	[height=0.5,
		pos="1324.2,574.87",
		width=0.75];
	426 -- 427	[pos="1491,520.4 1454.2,532.4 1385.4,554.87 1348.7,566.86"];
	176 -- 408	[pos="1273.6,763.67 1307,754.18 1365.4,737.52 1398.7,728.03"];
	176 -- 177	[pos="1235.6,786.82 1196.2,835.52 1078.1,981.52 1038.7,1030.3"];
	150 -- 151	[pos="1338.7,434.89 1354,432.77 1373.1,430.12 1388.3,428"];
	150 -- 321	[pos="1285.9,433.75 1238.6,425.1 1139.6,407 1092.4,398.37"];
	408 -- 427	[pos="1412.6,704.43 1393.4,676.38 1354.7,619.66 1335.5,591.5"];
	409	[height=0.5,
		pos="1614.5,904.19",
		width=0.75];
	408 -- 409	[pos="1439.4,735.89 1475.2,770.35 1563.1,854.83 1598.9,889.24"];
	154	[height=0.5,
		pos="1721,481.86",
		width=0.75];
	151 -- 154	[pos="1441.2,429.19 1499,440.07 1637.2,466.1 1695,476.97"];
	428	[height=0.5,
		pos="943.86,523.61",
		width=0.75];
	427 -- 428	[pos="1297.4,571.27 1227.6,561.86 1040.4,536.62 970.57,527.21"];
	232 -- 272	[pos="1055.9,785.12 1015.6,778.44 939.47,765.81 899.31,759.15"];
	232 -- 233	[pos="1104.3,778.68 1140.4,760.8 1211.9,725.29 1247.9,707.44"];
	272 -- 297	[pos="880.73,737.53 895.59,704.39 927.97,632.17 942.89,598.89"];
	273	[height=0.5,
		pos="713.09,903.65",
		width=0.75];
	272 -- 273	[pos="857.07,769.6 826.42,798.14 759.54,860.41 728.94,888.9"];
	297 -- 428	[pos="948.58,563.46 947.76,556.56 946.83,548.69 946.01,541.78"];
	298	[height=0.5,
		pos="1097.6,511.46",
		width=0.75];
	297 -- 298	[pos="972.7,570.97 1000.4,557.77 1047.7,535.24 1075.5,522.01"];
	153 -- 154	[pos="1886.1,612.18 1851.2,584.63 1773.3,523.16 1738.4,495.64"];
	493	[height=0.5,
		pos="1825.5,767.61",
		width=0.75];
	153 -- 493	[pos="1894.2,643.08 1879.2,670.3 1850,723.21 1835,750.47"];
	154 -- 157	[pos="1742.8,492.82 1779.4,511.19 1852.7,548 1889.3,566.38"];
	429	[height=0.5,
		pos="657.78,470.79",
		width=0.75];
	428 -- 429	[pos="917.71,518.78 863.36,508.75 738.73,485.74 684.17,475.66"];
	330 -- 366	[pos="740.86,312.91 699.27,326.67 615.03,354.54 573.49,368.28"];
	331	[height=0.5,
		pos="771.4,260.75",
		width=0.75];
	330 -- 331	[pos="767.73,286.91 768.11,284.24 768.49,281.49 768.87,278.82"];
	366 -- 429	[pos="565.71,390.65 586.11,408.41 620.66,438.48 641.14,456.3"];
	367	[height=0.5,
		pos="361.53,438.7",
		width=0.75];
	366 -- 367	[pos="524.69,384.46 488.61,396.45 421.68,418.71 385.77,430.64"];
	160	[height=0.5,
		pos="1896.6,895.78",
		width=0.75];
	157 -- 160	[pos="1910.3,595.39 1907.8,651.3 1900,821.37 1897.5,877.56"];
	429 -- 430	[pos="641.32,485.19 611.87,510.95 550.47,564.65 520.77,590.62"];
	159 -- 160	[pos="1851,865.07 1859.3,870.69 1869.1,877.27 1877.5,882.9"];
	482	[height=0.5,
		pos="1646.4,660.91",
		width=0.75];
	159 -- 482	[pos="1817,836.91 1782.2,800.99 1695.7,711.77 1661.1,676.05"];
	163	[height=0.5,
		pos="1812.3,1143.1",
		width=0.75];
	160 -- 163	[pos="1890.6,913.57 1875,959.2 1833.8,1080 1818.3,1125.5"];
	430 -- 431	[pos="497.92,623.16 480.9,673.44 432.66,815.91 415.7,866.01"];
	162 -- 163	[pos="1598,1313.5 1640.9,1279.3 1751.5,1191.4 1794.7,1157.1"];
	438	[height=0.5,
		pos="1138.1,1429.4",
		width=0.75];
	162 -- 438	[pos="1554.9,1333.3 1476.7,1351.3 1242.2,1405.4 1163.9,1423.4"];
	163 -- 165	[pos="1839.5,1144.4 1862.4,1145.5 1894.9,1147.1 1917.8,1148.2"];
	432	[height=0.5,
		pos="604.6,1101.3",
		width=0.75];
	431 -- 432	[pos="423.73,899.34 459.69,939.48 554.9,1045.8 590.72,1085.8"];
	181 -- 432	[pos="837.05,1122.1 787.38,1117.6 681.46,1108.1 631.61,1103.7"];
	181 -- 182	[pos="875.27,1141.1 902.55,1180.7 971.15,1280.2 998.38,1319.7"];
	165 -- 167	[pos="1947.3,1167.5 1949.3,1182.4 1952,1203.5 1954,1218.4"];
	433	[height=0.5,
		pos="335.41,1288.6",
		width=0.75];
	432 -- 433	[pos="585.68,1114.4 536.25,1148.8 403.72,1241.1 354.32,1275.5"];
	358 -- 433	[pos="335.68,1059.4 335.63,1105.2 335.49,1224.6 335.43,1270.4"];
	358 -- 359	[pos="350.75,1026 387.93,988.33 483.83,891.22 520.91,853.67"];
	167 -- 169	[pos="1935.2,1247.8 1921.4,1255.3 1903.5,1264.9 1889.8,1272.3"];
	434	[height=0.5,
		pos="318.54,1415.7",
		width=0.75];
	433 -- 434	[pos="333.03,1306.5 329.83,1330.6 324.18,1373.2 320.97,1397.4"];
	251 -- 281	[pos="709.29,1527.3 683.1,1513.5 639.02,1490.3 612.92,1476.6"];
	252	[height=0.5,
		pos="794.32,1604.3",
		width=0.75];
	251 -- 252	[pos="745.46,1553.8 755.74,1564.4 769.38,1578.5 779.64,1589.2"];
	281 -- 434	[pos="565.52,1460.7 513.31,1451.2 396.8,1429.9 344.66,1420.4"];
	282	[height=0.5,
		pos="602.88,1376.4",
		width=0.75];
	281 -- 282	[pos="593.97,1447.4 595.91,1432 598.69,1409.9 600.62,1394.4"];
	169 -- 171	[pos="1850.7,1270.1 1843.4,1264.6 1834.9,1258.3 1827.6,1252.8"];
	434 -- 435	[pos="315.76,1433.7 313.02,1451.4 308.86,1478.3 306.13,1496"];
	174	[height=0.5,
		pos="1526,1121.6",
		width=0.75];
	171 -- 174	[pos="1786.4,1229.7 1733.1,1207.5 1602.4,1153.3 1549.2,1131.2"];
	435 -- 436	[pos="330.46,1512.2 365.79,1509.9 427.24,1505.9 462.59,1503.6"];
	173 -- 174	[pos="1143,846.85 1210.1,894.99 1439.7,1059.7 1507.2,1108.1"];
	269	[height=0.5,
		pos="855.61,821.59",
		width=0.75];
	173 -- 269	[pos="1097.4,832.34 1045.9,830.05 934.11,825.08 882.6,822.79"];
	179	[height=0.5,
		pos="1323.9,1268.9",
		width=0.75];
	174 -- 179	[pos="1507.7,1134.9 1469.3,1162.9 1380.8,1227.5 1342.3,1255.5"];
	437	[height=0.5,
		pos="609.06,1327.3",
		width=0.75];
	436 -- 437	[pos="500.95,1485.4 523.69,1452.2 574.98,1377.2 597.77,1343.8"];
	177 -- 178	[pos="1046.4,1058.3 1089.2,1083.1 1187,1139.7 1229.7,1164.5"];
	177 -- 268	[pos="998.79,1048.7 965.38,1051.6 908.74,1056.5 875.35,1059.5"];
	342 -- 437	[pos="504.42,1059 524.32,1110 582.24,1258.5 602.2,1309.7"];
	342 -- 343	[pos="498.78,1023.2 502.25,968.5 512.51,806.78 515.97,752.22"];
	178 -- 179	[pos="1263.2,1192.5 1276.7,1209.5 1297.8,1236.1 1311.2,1253"];
	224	[height=0.5,
		pos="1378.8,1214.9",
		width=0.75];
	178 -- 224	[pos="1275.2,1183.8 1297.9,1190.6 1331.4,1200.7 1354.1,1207.5"];
	183	[height=0.5,
		pos="1168.7,1298.1",
		width=0.75];
	179 -- 183	[pos="1297.6,1273.9 1268.9,1279.2 1223.5,1287.8 1194.9,1293.2"];
	437 -- 438	[pos="635.29,1332.4 725.47,1349.8 1022.1,1407 1112,1424.3"];
	182 -- 183	[pos="1035.3,1330.1 1065,1323 1113.6,1311.3 1143.3,1304.2"];
	441	[height=0.5,
		pos="982.22,1528.5",
		width=0.75];
	182 -- 441	[pos="1007.2,1354.3 1001.9,1391 990.09,1473.6 984.83,1510.3"];
	187	[height=0.5,
		pos="1254.7,1132.4",
		width=0.75];
	183 -- 187	[pos="1177.6,1281 1194.1,1249.2 1229.2,1181.5 1245.8,1149.7"];
	438 -- 439	[pos="1133.2,1447.4 1120.3,1494.5 1085.9,1620.8 1073,1667.8"];
	186 -- 187	[pos="1337.7,1016.6 1319.5,1042.1 1284.6,1090.8 1266.4,1116.1"];
	186 -- 289	[pos="1334.1,1015.1 1329.4,1019.6 1324.2,1024.7 1319.4,1029.3"];
	187 -- 190	[pos="1227.5,1130.6 1188.9,1128 1118.6,1123.3 1080,1120.7"];
	440	[height=0.5,
		pos="928.21,1603.8",
		width=0.75];
	439 -- 440	[pos="1047.7,1673.9 1021.2,1658.4 975.11,1631.3 948.58,1615.8"];
	284 -- 440	[pos="899.77,1398.5 905.61,1440.7 919.94,1544.1 925.73,1585.9"];
	285	[height=0.5,
		pos="707.19,1212.4",
		width=0.75];
	284 -- 285	[pos="880.7,1365.6 844.67,1333.8 759.42,1258.5 723.55,1226.9"];
	193	[height=0.5,
		pos="1121.4,1250.1",
		width=0.75];
	190 -- 193	[pos="1061.9,1136 1075,1161.2 1099.3,1207.8 1112.5,1232.9"];
	440 -- 441	[pos="939.93,1587.5 948.99,1574.8 961.47,1557.4 970.53,1544.8"];
	192 -- 193	[pos="1303.1,1305.3 1263.2,1293.2 1185.8,1269.7 1146.1,1257.6"];
	192 -- 223	[pos="1346.7,1299.9 1386.9,1271.9 1480.8,1206.6 1520.9,1178.7"];
	197	[height=0.5,
		pos="1115,1100.8",
		width=0.75];
	193 -- 197	[pos="1120.7,1232.1 1119.4,1203.4 1117,1147.6 1115.8,1118.9"];
	441 -- 442	[pos="968.89,1512.7 952.4,1493.1 924.47,1459.9 907.92,1440.2"];
	195 -- 196	[pos="1283.5,889.57 1235.8,885.7 1137.1,877.7 1089.4,873.83"];
	465	[height=0.5,
		pos="1594.8,785.07",
		width=0.75];
	195 -- 465	[pos="1334.3,882.85 1387.8,862.76 1517.3,814.16 1571,794.03"];
	196 -- 197	[pos="1066.5,889.62 1076.3,932.46 1101,1040.2 1110.9,1082.9"];
	240	[height=0.5,
		pos="963.65,901.71",
		width=0.75];
	196 -- 240	[pos="1037.7,879.15 1022.6,883.74 1003.4,889.59 988.33,894.19"];
	200	[height=0.5,
		pos="910.86,1036.4",
		width=0.75];
	197 -- 200	[pos="1090.4,1093 1051.1,1080.7 974.85,1056.6 935.57,1044.2"];
	443	[height=0.5,
		pos="941.33,1468.3",
		width=0.75];
	442 -- 443	[pos="910.33,1439.2 915.22,1443.7 920.59,1448.8 925.48,1453.4"];
	199 -- 200	[pos="1153.8,963.69 1102.8,978.95 986.44,1013.8 935.5,1029"];
	396	[height=0.5,
		pos="1186.5,794.55",
		width=0.75];
	199 -- 396	[pos="1179.4,938.06 1180.9,906.99 1184,844.16 1185.6,812.97"];
	383 -- 443	[pos="1131.4,1354.4 1091.2,1378.4 1001.5,1432.2 961.42,1456.2"];
	383 -- 384	[pos="1173.9,1352.6 1197,1363.3 1232.8,1379.8 1255.9,1390.5"];
	203	[height=0.5,
		pos="653.5,1013.1",
		width=0.75];
	200 -- 203	[pos="883.8,1034 834.38,1029.5 730.02,1020 680.58,1015.5"];
	443 -- 444	[pos="917.02,1460.3 871.07,1445.3 771.95,1412.9 725.94,1397.8"];
	202 -- 203	[pos="598.77,943.71 610.82,958.98 628.85,981.82 640.88,997.06"];
	202 -- 256	[pos="581.99,945.75 569.49,1000.8 532.01,1166 519.49,1221.2"];
	203 -- 205	[pos="628.97,1005.3 577.49,989.14 458.72,951.77 407.13,935.53"];
	445	[height=0.5,
		pos="641.96,1239.3",
		width=0.75];
	444 -- 445	[pos="694.62,1372.3 683.13,1343.3 660.33,1285.7 648.87,1256.7"];
	268 -- 445	[pos="831.92,1076 793.25,1109.3 697.34,1191.7 658.59,1225"];
	268 -- 269	[pos="849.01,1043.7 850.33,999.23 853.74,884.59 855.07,839.86"];
	211	[height=0.5,
		pos="471.73,839.68",
		width=0.75];
	205 -- 211	[pos="397.6,912.83 414.02,896.63 440.06,870.92 456.51,854.7"];
	446	[height=0.5,
		pos="227.2,1200.3",
		width=0.75];
	445 -- 446	[pos="615.07,1236.7 540.03,1229.7 328.99,1209.8 254.03,1202.8"];
	207 -- 208	[pos="263.54,1056.9 287.89,1013.6 352.27,899.09 376.72,855.59"];
	207 -- 261	[pos="243.15,1090.6 217.77,1129.6 154.79,1226.3 129.35,1265.4"];
	208 -- 209	[pos="411.45,831.53 441.13,823.29 490.21,809.67 519.84,801.45"];
	452	[height=0.5,
		pos="582.88,750.47",
		width=0.75];
	208 -- 452	[pos="408.88,828.4 446.69,811.47 522.45,777.54 560.29,760.59"];
	261 -- 278	[pos="143.57,1288.9 179.77,1298.6 246.21,1316.3 282.46,1325.9"];
	262	[height=0.5,
		pos="121.6,1356.5",
		width=0.75];
	261 -- 262	[pos="119.22,1300.6 119.71,1312.1 120.34,1326.9 120.83,1338.4"];
	278 -- 446	[pos="297.51,1315.9 282.11,1290.6 253.07,1242.8 237.57,1217.3"];
	279	[height=0.5,
		pos="388.93,1366.3",
		width=0.75];
	278 -- 279	[pos="330.76,1342.2 341.74,1346.8 354.83,1352.2 365.81,1356.7"];
	209 -- 210	[pos="554.78,777.74 569.35,753.16 596.36,707.61 610.93,683.02"];
	477	[height=0.5,
		pos="622.5,812.36",
		width=0.75];
	209 -- 477	[pos="570.7,800.45 579.08,802.38 588.38,804.51 596.75,806.44"];
	210 -- 211	[pos="607.38,681.95 579.05,714.88 513.69,790.88 485.3,823.89"];
	498	[height=0.5,
		pos="608.87,552.38",
		width=0.75];
	210 -- 498	[pos="618.98,648.21 616.73,626.88 613.01,591.62 610.77,570.34"];
	211 -- 214	[pos="476.8,857.39 489.79,902.73 524.12,1022.6 537.16,1068.1"];
	446 -- 447	[pos="218.39,1183.1 195.84,1139.3 136.23,1023.4 113.59,979.32"];
	217	[height=0.5,
		pos="682.47,1345.8",
		width=0.75];
	214 -- 217	[pos="551.49,1103 576.89,1150.1 647.8,1281.6 673.24,1328.7"];
	448	[height=0.5,
		pos="196.63,715.12",
		width=0.75];
	447 -- 448	[pos="111.3,944.27 128.27,898.71 173.18,778.09 190.08,732.71"];
	216 -- 217	[pos="842.69,1527.6 809.99,1490.5 728.77,1398.4 696.25,1361.5"];
	458	[height=0.5,
		pos="1069.1,1566.3",
		width=0.75];
	216 -- 458	[pos="883.55,1546.3 924.41,1550.7 1001.7,1559 1042.4,1563.4"];
	362 -- 448	[pos="112.92,662.6 131.29,674.12 158.35,691.1 176.7,702.61"];
	362 -- 363	[pos="119.34,654.1 130.49,655.8 143.43,657.78 154.58,659.48"];
	220	[height=0.5,
		pos="909.71,1336.2",
		width=0.75];
	217 -- 220	[pos="709.43,1344.7 753.05,1342.8 838.61,1339.2 882.43,1337.4"];
	449	[height=0.5,
		pos="294.97,514.86",
		width=0.75];
	448 -- 449	[pos="205.18,697.7 223.83,659.73 267.94,569.9 286.51,532.1"];
	219 -- 220	[pos="796.33,1262.7 821.48,1279 864.82,1307.1 890.01,1323.5"];
	454	[height=0.5,
		pos="754.67,1085.1",
		width=0.75];
	219 -- 454	[pos="774.3,1232.1 770.06,1200.3 761.3,1134.7 757.06,1103"];
	371 -- 449	[pos="442.14,435.05 409.84,452.57 348.23,485.98 315.92,503.49"];
	372	[height=0.5,
		pos="805.61,348.92",
		width=0.75];
	371 -- 372	[pos="488.84,418.07 552.31,404.21 715.78,368.53 779.56,354.6"];
	226	[height=0.5,
		pos="1071.8,1301.1",
		width=0.75];
	220 -- 226	[pos="935.4,1330.7 965.67,1324.1 1015.7,1313.3 1046,1306.7"];
	449 -- 450	[pos="300.47,497.11 307.99,472.87 321.39,429.62 328.95,405.24"];
	223 -- 224	[pos="1514.8,1173.2 1484.5,1182.5 1433.5,1198.1 1403.3,1207.4"];
	223 -- 228	[pos="1527.5,1181.7 1501.7,1216.1 1441.4,1296.1 1415.4,1330.7"];
	224 -- 225	[pos="1351.9,1212.2 1302.8,1207.4 1199.1,1197.1 1149.9,1192.3"];
	491	[height=0.5,
		pos="1653.2,1190.7",
		width=0.75];
	224 -- 491	[pos="1405.6,1212.5 1458.1,1207.9 1573.7,1197.7 1626.3,1193"];
	225 -- 226	[pos="1115,1207.1 1105.4,1228 1089.4,1262.9 1079.8,1283.8"];
	506	[height=0.5,
		pos="1113.4,957.69",
		width=0.75];
	225 -- 506	[pos="1122.3,1171.5 1120.5,1128.1 1115.9,1019.1 1114.1,975.81"];
	230	[height=0.5,
		pos="1267.8,1222.3",
		width=0.75];
	226 -- 230	[pos="1095.1,1291.8 1132.8,1276.6 1206.9,1246.8 1244.6,1231.7"];
	450 -- 451	[pos="339.58,405.11 350,442.01 373.78,526.23 384.19,563.09"];
	228 -- 229	[pos="1380.5,1336.8 1340.6,1319 1258.1,1282 1218.2,1264.1"];
	459	[height=0.5,
		pos="1349.1,1465.7",
		width=0.75];
	228 -- 459	[pos="1395.3,1364.2 1385.1,1386.8 1367.2,1425.9 1357,1448.4"];
	229 -- 230	[pos="1218.4,1244 1226.9,1240.3 1236.4,1236.1 1244.9,1232.4"];
	485	[height=0.5,
		pos="1059.4,1209.3",
		width=0.75];
	229 -- 485	[pos="1171.2,1246 1146.6,1237.9 1108.7,1225.5 1084,1217.4"];
	235	[height=0.5,
		pos="1411.5,1037.2",
		width=0.75];
	230 -- 235	[pos="1280.3,1206.2 1307.5,1171.2 1371.7,1088.5 1399,1053.4"];
	451 -- 452	[pos="405.74,595.37 442.32,627.41 529.86,704.05 566.41,736.05"];
	233 -- 234	[pos="1296.7,699.37 1343.8,704.04 1440.1,713.59 1487,718.25"];
	233 -- 380	[pos="1291.8,707.24 1336.7,728.64 1438.1,776.9 1483.1,798.34"];
	234 -- 235	[pos="1508,738.82 1490,794.48 1435.2,964.05 1417.3,1019.4"];
	494	[height=0.5,
		pos="1641.4,600.72",
		width=0.75];
	234 -- 494	[pos="1529.5,706.17 1554,683.1 1601,638.72 1625.6,615.58"];
	241	[height=0.5,
		pos="1276.1,1088.4",
		width=0.75];
	235 -- 241	[pos="1388,1046.1 1363.3,1055.4 1324.7,1070 1299.9,1079.4"];
	453	[height=0.5,
		pos="711.99,809.63",
		width=0.75];
	452 -- 453	[pos="605.37,760.78 628.92,771.57 665.71,788.43 689.33,799.25"];
	238 -- 239	[pos="1024.5,1003.4 976.18,1006.3 875.28,1012.3 826.81,1015.3"];
	456	[height=0.5,
		pos="928.39,1160.1",
		width=0.75];
	238 -- 456	[pos="1039,1017.8 1015.4,1048.2 964.51,1113.6 940.9,1144"];
	239 -- 240	[pos="818.49,1003.7 850.12,981.45 913.58,936.88 945.06,914.77"];
	239 -- 285	[pos="791.47,1034.2 773.92,1071.3 732.91,1158 715.38,1195.1"];
	240 -- 241	[pos="984.15,913.96 1040.9,947.86 1199.6,1042.7 1256,1076.3"];
	479	[height=0.5,
		pos="1068.9,743.16",
		width=0.75];
	240 -- 479	[pos="974.71,885.04 994.87,854.67 1037.4,790.64 1057.7,760.08"];
	395 -- 453	[pos="968.43,765.33 914.54,774.64 792.3,795.76 738.38,805.07"];
	395 -- 396	[pos="1021,765.4 1057.6,771.85 1123.6,783.48 1160.2,789.93"];
	241 -- 243	[pos="1286.1,1105.2 1309.8,1145.3 1369.4,1246.1 1393.1,1286.1"];
	453 -- 454	[pos="714.79,827.7 722.53,877.61 744.11,1016.9 751.86,1066.9"];
	246	[height=0.5,
		pos="1213.5,1380.8",
		width=0.75];
	243 -- 246	[pos="1379.7,1312.5 1343.3,1327.4 1273.1,1356.3 1236.7,1371.3"];
	455	[height=0.5,
		pos="621.46,1195.2",
		width=0.75];
	454 -- 455	[pos="737.52,1099.2 711.95,1120.4 664.07,1160 638.53,1181.1"];
	245 -- 246	[pos="1139.2,1163.3 1154.1,1207 1192.6,1319.7 1207.5,1363.3"];
	245 -- 391	[pos="1137.2,1127.7 1147.2,1084.3 1172.4,973.77 1182.3,930.27"];
	346 -- 455	[pos="360.29,1175.7 415.17,1179.8 539.67,1189.1 594.58,1193.2"];
	346 -- 347	[pos="320.73,1157.7 295.43,1125.9 239.05,1055 213.62,1023"];
	249	[height=0.5,
		pos="1085.4,1610.4",
		width=0.75];
	246 -- 249	[pos="1204.1,1397.7 1180.4,1440.1 1118.5,1551 1094.8,1593.5"];
	455 -- 456	[pos="648.16,1192.2 706.21,1185.5 843.34,1169.9 901.53,1163.2"];
	248 -- 249	[pos="1344.8,1549.3 1290.7,1562 1165.1,1591.6 1111,1604.3"];
	462	[height=0.5,
		pos="1557.2,1459.2",
		width=0.75];
	248 -- 462	[pos="1392.8,1533.2 1428.8,1517 1498.6,1485.6 1534.6,1469.4"];
	249 -- 252	[pos="1058.3,1609.8 1002.8,1608.6 876.97,1606 821.48,1604.9"];
	457	[height=0.5,
		pos="1089.5,1384.7",
		width=0.75];
	456 -- 457	[pos="940.24,1176.6 970.03,1218.2 1047.8,1326.6 1077.6,1368.1"];
	384 -- 457	[pos="1251.4,1398.6 1215.5,1395.5 1152.4,1390.1 1116.5,1387"];
	385	[height=0.5,
		pos="1521,1209.7",
		width=0.75];
	384 -- 385	[pos="1296,1387.2 1340.6,1352 1458.6,1258.9 1503.4,1223.6"];
	252 -- 254	[pos="767.67,1601.1 752.6,1599.3 733.83,1597.1 718.73,1595.3"];
	457 -- 458	[pos="1087.5,1402.7 1083.5,1437.6 1075,1513.5 1071.1,1548.3"];
	257	[height=0.5,
		pos="395.16,1493.4",
		width=0.75];
	254 -- 257	[pos="667.58,1584 611.8,1565.4 475.06,1520 419.36,1501.4"];
	458 -- 459	[pos="1092.9,1557.7 1145.9,1538.7 1272.5,1493.3 1325.3,1474.3"];
	256 -- 257	[pos="507.11,1256.8 485.1,1303.3 425.22,1429.9 403.32,1476.2"];
	351	[height=0.5,
		pos="453.33,1277.7",
		width=0.75];
	256 -- 351	[pos="495.4,1251.7 488.31,1256.1 480.35,1261 473.26,1265.4"];
	257 -- 259	[pos="368.28,1490.5 337.58,1487.2 287.68,1481.9 256.99,1478.6"];
	459 -- 460	[pos="1361.7,1482.1 1378,1503.3 1406,1539.9 1422.2,1560.9"];
	259 -- 262	[pos="215.93,1460.1 195.13,1437.3 156.59,1394.9 135.79,1372.1"];
	460 -- 461	[pos="1461.3,1574.1 1483.5,1571.6 1514.9,1568.2 1537.1,1565.7"];
	262 -- 264	[pos="144.35,1346.6 149.75,1344.3 155.5,1341.8 160.89,1339.4"];
	461 -- 462	[pos="1562.7,1544.8 1561.5,1525.9 1559.6,1496.4 1558.4,1477.4"];
	264 -- 266	[pos="201.5,1315.9 214.84,1305.8 232.99,1291.9 246.32,1281.8"];
	462 -- 463	[pos="1567.7,1442.3 1597.9,1393.5 1684.7,1253.5 1714.8,1204.8"];
	270	[height=0.5,
		pos="648.11,959.76",
		width=0.75];
	266 -- 270	[pos="281.37,1254.4 345,1203.3 566.21,1025.6 630.48,973.93"];
	464	[height=0.5,
		pos="1659.6,1030.2",
		width=0.75];
	463 -- 464	[pos="1718.1,1170.4 1705.4,1140.1 1679.6,1078.1 1667,1047.8"];
	269 -- 270	[pos="836.46,834.34 797.03,860.6 707.16,920.44 667.52,946.84"];
	497	[height=0.5,
		pos="826.61,617.54",
		width=0.75];
	269 -- 497	[pos="853.04,803.48 847.53,764.76 834.67,674.29 829.18,635.61"];
	380 -- 464	[pos="1517,825.59 1545.7,866.69 1619.6,972.71 1648.1,1013.7"];
	381	[height=0.5,
		pos="1551.8,897",
		width=0.75];
	380 -- 381	[pos="1514.6,826.35 1522.8,841.89 1534.7,864.51 1542.8,879.94"];
	270 -- 273	[pos="664.85,945.31 674.47,937 686.53,926.59 696.19,918.25"];
	464 -- 465	[pos="1654.9,1012.2 1642.9,966.86 1611.6,848.49 1599.6,803.12"];
	276	[height=0.5,
		pos="592.65,1151.2",
		width=0.75];
	273 -- 276	[pos="704.62,921.06 682.51,966.52 623.21,1088.4 601.11,1133.8"];
	466	[height=0.5,
		pos="1404,561.2",
		width=0.75];
	465 -- 466	[pos="1581.4,769.33 1546.4,728.22 1452.4,618.01 1417.4,576.92"];
	275 -- 276	[pos="697.9,1242.4 674.55,1222.2 632.39,1185.7 609.15,1165.5"];
	286	[height=0.5,
		pos="872.36,1292.1",
		width=0.75];
	275 -- 286	[pos="740.3,1262.6 769.64,1269.2 817.34,1279.8 846.68,1286.4"];
	400 -- 466	[pos="1561.3,675.36 1527.5,650.85 1456.2,599.13 1422.5,574.62"];
	401	[height=0.5,
		pos="1621.9,830.67",
		width=0.75];
	400 -- 401	[pos="1585,706.45 1593.1,733.64 1608.5,785.43 1616.6,812.76"];
	276 -- 279	[pos="578,1166.7 540.41,1206.4 440.89,1311.4 403.45,1351"];
	466 -- 467	[pos="1384.3,548.28 1326.8,510.41 1159,399.99 1101.8,362.34"];
	279 -- 282	[pos="416.03,1367.6 457.07,1369.5 534.55,1373.2 575.67,1375.1"];
	467 -- 468	[pos="1057.3,342.61 987.41,323.13 790.75,268.34 720.9,248.88"];
	287	[height=0.5,
		pos="900.16,1247.8",
		width=0.75];
	282 -- 287	[pos="625.71,1366.6 681.05,1342.6 821.83,1281.7 877.25,1257.7"];
	468 -- 469	[pos="669.17,245.64 600.1,255.27 416.2,280.9 347,290.55"];
	285 -- 286	[pos="729.12,1223 760.71,1238.3 818.69,1266.2 850.34,1281.5"];
	474	[height=0.5,
		pos="391.28,1244.6",
		width=0.75];
	285 -- 474	[pos="680.25,1215.2 620.57,1221.2 477.76,1235.8 418.14,1241.8"];
	286 -- 287	[pos="882.87,1275.4 885.09,1271.9 887.42,1268.1 889.64,1264.6"];
	488	[height=0.5,
		pos="1026.6,1380.3",
		width=0.75];
	286 -- 488	[pos="893.16,1304 922.6,1320.8 976.1,1351.4 1005.6,1368.3"];
	290	[height=0.5,
		pos="982.39,959.72",
		width=0.75];
	287 -- 290	[pos="905.31,1229.8 920.07,1178.1 962.48,1029.5 977.25,977.73"];
	469 -- 470	[pos="308.71,310.72 284.67,345.2 229.21,424.76 205.11,459.32"];
	289 -- 290	[pos="1278.8,1037.6 1218.7,1021.8 1067.5,982.08 1007.5,966.32"];
	289 -- 405	[pos="1330.7,1047.5 1382.9,1053.8 1497.9,1067.9 1550.1,1074.3"];
	290 -- 293	[pos="984.03,941.38 988.17,895.14 998.99,774.22 1003.1,728.32"];
	470 -- 471	[pos="179.96,491.45 148.72,527.21 72.241,614.74 40.821,650.71"];
	293 -- 298	[pos="1012.8,692.99 1030.4,655.39 1071.9,566.55 1089.5,528.86"];
	472	[height=0.5,
		pos="109.24,805.92",
		width=0.75];
	471 -- 472	[pos="36.92,683.34 52.728,710.13 83.457,762.21 99.286,789.04"];
	363 -- 472	[pos="172.32,680.69 158.53,708.06 131.73,761.27 117.92,788.68"];
	364	[height=0.5,
		pos="327.16,583.01",
		width=0.75];
	363 -- 364	[pos="201.92,651.98 229.71,636.68 278.49,609.82 306.26,594.53"];
	298 -- 300	[pos="1111.5,496.01 1151.5,451.65 1266.3,324.25 1306.2,279.9"];
	473	[height=0.5,
		pos="137.37,1015.1",
		width=0.75];
	472 -- 473	[pos="111.69,824.12 117.02,863.78 129.64,957.62 134.95,997.11"];
	347 -- 473	[pos="174.23,1010.3 170.84,1010.7 167.37,1011.2 163.98,1011.6"];
	348	[height=0.5,
		pos="167.1,929.78",
		width=0.75];
	347 -- 348	[pos="193.11,989.34 187.6,976.73 180.2,959.79 174.71,947.19"];
	300 -- 303	[pos="1347.1,266.71 1376.8,269.2 1424.3,273.18 1454,275.68"];
	473 -- 474	[pos="153.64,1029.8 199.5,1071.3 329.45,1188.7 375.14,1230"];
	303 -- 306	[pos="1503.4,288.44 1537.8,304.63 1603.5,335.51 1638,351.69"];
	475	[height=0.5,
		pos="202.11,1245.6",
		width=0.75];
	474 -- 475	[pos="364.17,1244.7 328.21,1244.9 265.1,1245.2 229.16,1245.4"];
	350 -- 475	[pos="237.05,1316.5 229.37,1300.9 218.18,1278.2 210.54,1262.7"];
	350 -- 351	[pos="270.71,1327.2 310.62,1316.4 388.22,1295.3 428.19,1284.5"];
	306 -- 309	[pos="1634.9,355.94 1622.8,352.96 1608.4,349.41 1596.3,346.43"];
	475 -- 476	[pos="208.33,1227.7 224.31,1181.8 266.6,1060.4 282.52,1014.7"];
	309 -- 311	[pos="1565.6,322.3 1554.7,284.12 1529.1,194.93 1518.1,156.79"];
	476 -- 477	[pos="309.57,985.47 369.52,952.31 541.69,857.06 601.63,823.9"];
	311 -- 313	[pos="1505,121.76 1501.6,114.5 1497.6,106.07 1494.2,98.807"];
	478	[height=0.5,
		pos="932.11,804.77",
		width=0.75];
	477 -- 478	[pos="649.7,811.69 708.43,810.25 846.51,806.87 905.08,805.43"];
	391 -- 478	[pos="1163.4,902.56 1115.1,882.14 1003.7,835.02 955.26,814.55"];
	392	[height=0.5,
		pos="1444.2,1081.2",
		width=0.75];
	391 -- 392	[pos="1205.8,924.98 1253.6,956.28 1376.6,1036.9 1424.6,1068.3"];
	313 -- 315	[pos="1462.2,73.028 1428.3,60.854 1366.4,38.698 1332.5,26.544"];
	478 -- 479	[pos="954.7,794.59 980.04,783.18 1020.9,764.77 1046.3,753.35"];
	318	[height=0.5,
		pos="1129,62.317",
		width=0.75];
	315 -- 318	[pos="1283.3,24.256 1249.1,32.678 1188.8,47.579 1154.5,56.021"];
	480	[height=0.5,
		pos="1261.1,493.48",
		width=0.75];
	479 -- 480	[pos="1081.5,726.78 1116.4,681.43 1214,554.63 1248.7,509.6"];
	325 -- 480	[pos="1301.3,331.93 1292.8,366.32 1274.1,441.36 1265.5,475.69"];
	325 -- 326	[pos="1333,312.16 1343.1,311.45 1354.6,310.65 1364.8,309.94"];
	317 -- 318	[pos="902.53,71.984 951.35,69.9 1053.4,65.545 1102.1,63.467"];
	501	[height=0.5,
		pos="721.89,197.9",
		width=0.75];
	317 -- 501	[pos="858.08,87.211 828.6,111.17 768.97,159.64 739.37,183.69"];
	322	[height=0.5,
		pos="1118.8,173.51",
		width=0.75];
	318 -- 322	[pos="1127.3,80.678 1125.4,101.4 1122.4,134.91 1120.5,155.49"];
	481	[height=0.5,
		pos="1461.6,468.3",
		width=0.75];
	480 -- 481	[pos="1287.7,490.14 1326.1,485.32 1396.5,476.48 1434.9,471.66"];
	326 -- 481	[pos="1399.4,325.5 1412.8,356.33 1440.6,420.06 1454,450.87"];
	326 -- 327	[pos="1364.5,306.96 1320.9,305.21 1236,301.82 1192.5,300.08"];
	321 -- 322	[pos="1070.6,375.58 1080.5,334.21 1104.7,232.78 1114.6,191.46"];
	504	[height=0.5,
		pos="860.7,569.96",
		width=0.75];
	321 -- 504	[pos="1049.5,408.03 1010.8,441.18 916.06,522.46 877.47,555.57"];
	328	[height=0.5,
		pos="1002.5,204.1",
		width=0.75];
	322 -- 328	[pos="1093.6,180.15 1074.1,185.28 1047.2,192.35 1027.7,197.48"];
	481 -- 482	[pos="1476.4,483.74 1511.1,519.89 1597.3,609.7 1631.8,645.66"];
	327 -- 328	[pos="1144.8,286.98 1113.5,268.73 1054.2,234.22 1023,216.02"];
	496	[height=0.5,
		pos="1065.3,437.64",
		width=0.75];
	327 -- 496	[pos="1153.6,315.45 1134.3,342.13 1096.4,394.54 1077.1,421.21"];
	328 -- 331	[pos="976.92,210.38 932.37,221.3 841.16,243.65 796.78,254.53"];
	483	[height=0.5,
		pos="1448.5,853.38",
		width=0.75];
	482 -- 483	[pos="1630.9,676.01 1593.9,711.99 1500.9,802.44 1464,838.35"];
	396 -- 483	[pos="1212.1,800.3 1262.2,811.55 1372.6,836.34 1422.8,847.61"];
	396 -- 397	[pos="1176.5,811.33 1165,830.7 1146.1,862.39 1134.6,881.88"];
	331 -- 333	[pos="749.51,250.01 698.37,224.92 571.51,162.69 520.27,137.55"];
	484	[height=0.5,
		pos="1420.4,1125.2",
		width=0.75];
	483 -- 484	[pos="1446.6,871.63 1441.5,921.15 1427.4,1057.6 1422.2,1107"];
	405 -- 484	[pos="1552.1,1085.1 1522.8,1094 1474.3,1108.8 1445,1117.7"];
	406	[height=0.5,
		pos="1721.7,1048.7",
		width=0.75];
	405 -- 406	[pos="1602.8,1072.4 1629,1067.2 1669.3,1059.2 1695.5,1053.9"];
	333 -- 336	[pos="474.07,134.95 444.02,145.11 393.08,162.33 363.04,172.49"];
	484 -- 485	[pos="1394.7,1131.2 1328.3,1146.6 1151.7,1187.8 1085.2,1203.3"];
	336 -- 338	[pos="328.38,197.27 304.36,235.31 245.55,328.45 221.38,366.71"];
	486	[height=0.5,
		pos="866.36,1194.8",
		width=0.75];
	485 -- 486	[pos="1032.6,1207.3 995.79,1204.5 930.11,1199.6 893.28,1196.8"];
	351 -- 486	[pos="479.48,1272.5 553.87,1257.5 766.08,1214.9 840.32,1200"];
	352	[height=0.5,
		pos="191.83,1110.1",
		width=0.75];
	351 -- 352	[pos="433.67,1265.1 385.09,1234 259.8,1153.7 211.36,1122.6"];
	338 -- 340	[pos="212,401.53 214.47,437.3 219.97,517 222.45,552.95"];
	487	[height=0.5,
		pos="1033.3,1162.9",
		width=0.75];
	486 -- 487	[pos="892.44,1189.8 923.71,1183.9 975.8,1173.9 1007.1,1167.9"];
	397 -- 487	[pos="1118.3,916.69 1101.7,964.78 1055.9,1097.3 1039.4,1145.3"];
	398	[height=0.5,
		pos="1445.5,956.65",
		width=0.75];
	397 -- 398	[pos="1150.7,903.69 1211,914.53 1359.1,941.12 1419.3,951.95"];
	344	[height=0.5,
		pos="300.59,730.52",
		width=0.75];
	340 -- 344	[pos="232.08,588.52 246.87,619.17 277.45,682.54 292.23,713.18"];
	487 -- 488	[pos="1032.7,1181.1 1031.5,1222 1028.4,1321 1027.2,1362"];
	343 -- 344	[pos="489.7,733.56 448.05,732.89 369.32,731.62 327.8,730.95"];
	503	[height=0.5,
		pos="579.64,508.35",
		width=0.75];
	343 -- 503	[pos="522.03,716.29 533.69,674.21 562.95,568.59 574.67,526.29"];
	344 -- 348	[pos="289.44,747.16 264.25,784.76 203.2,875.9 178.13,913.32"];
	488 -- 489	[pos="1050.6,1388.6 1095.9,1404.5 1193.6,1438.7 1239,1454.6"];
	348 -- 352	[pos="169.56,947.73 174.29,982.21 184.59,1057.3 189.34,1092"];
	489 -- 490	[pos="1289.4,1458.5 1329.3,1451.7 1404.6,1438.8 1444.6,1432"];
	352 -- 354	[pos="172.92,1097 149.1,1080.5 108.42,1052.2 84.545,1035.7"];
	490 -- 491	[pos="1483.6,1411.2 1517,1367.8 1607.7,1249.9 1640.9,1206.7"];
	354 -- 356	[pos="72.146,1004.7 84.506,971.63 110.9,901.03 123.23,868.04"];
	491 -- 492	[pos="1667.7,1175.3 1703.4,1137.6 1795.3,1040.3 1831.1,1002.3"];
	360	[height=0.5,
		pos="312.8,788.6",
		width=0.75];
	356 -- 360	[pos="154.13,842.16 189.22,830.32 253.71,808.55 288.69,796.74"];
	492 -- 493	[pos="1844.1,968.52 1840.2,927.15 1831,826.89 1827.2,785.72"];
	359 -- 360	[pos="509.83,832.71 466.85,823.09 381.53,803.99 338.65,794.39"];
	505	[height=0.5,
		pos="773.24,755.96",
		width=0.75];
	359 -- 505	[pos="559.93,830.17 605.42,814.34 703.56,780.2 749.11,764.35"];
	360 -- 364	[pos="314.07,770.35 316.8,731.34 323.17,640.19 325.89,601.22"];
	493 -- 494	[pos="1809.5,753.09 1774.7,721.53 1692.4,646.97 1657.5,615.33"];
	364 -- 367	[pos="331.45,565.03 338.03,537.37 350.57,484.7 357.19,456.91"];
	495	[height=0.5,
		pos="1378.2,468.76",
		width=0.75];
	494 -- 495	[pos="1619.4,589.7 1569.7,564.8 1449.4,504.45 1400,479.66"];
	374 -- 495	[pos="1238.3,378.78 1268.9,398.47 1327.8,436.34 1358.5,456.09"];
	375	[height=0.5,
		pos="1160.3,511.46",
		width=0.75];
	374 -- 375	[pos="1211.7,383.73 1200.5,411.65 1178.6,465.92 1167.3,493.88"];
	367 -- 369	[pos="372.53,422.11 391.61,393.34 430.62,334.5 449.73,305.67"];
	495 -- 496	[pos="1351.3,466.08 1292.1,460.2 1151.5,446.21 1092.3,440.32"];
	369 -- 372	[pos="486.98,293.56 551.11,304.7 715.36,333.24 779.45,344.37"];
	496 -- 497	[pos="1047.3,451.16 1003.1,484.5 889.2,570.36 844.76,603.86"];
	372 -- 375	[pos="828.06,359.21 891.86,388.45 1073.7,471.8 1137.7,501.11"];
	497 -- 498	[pos="801.63,610.06 759.63,597.49 675.36,572.27 633.56,559.76"];
	375 -- 378	[pos="1183.4,521.13 1238.7,544.16 1377.5,602.05 1432.6,625.04"];
	498 -- 499	[pos="592.54,537.63 556.33,504.96 469.71,426.78 433.55,394.15"];
	378 -- 381	[pos="1462.1,652.28 1479.7,700.07 1527.9,831.75 1545.4,879.45"];
	499 -- 500	[pos="426.74,362.36 448.53,323.14 501.96,226.98 523.72,187.81"];
	381 -- 385	[pos="1550,915.16 1544.6,970.43 1528.3,1136.2 1522.8,1191.5"];
	500 -- 501	[pos="559.81,174.62 595.78,179.79 659.49,188.94 695.39,194.09"];
	385 -- 387	[pos="1537.4,1195.2 1562.1,1173.3 1608.7,1132 1633.6,1110"];
	501 -- 502	[pos="698.48,206.89 668.48,218.41 616.78,238.26 586.73,249.8"];
	387 -- 392	[pos="1623.3,1093.4 1583.8,1090.7 1510.6,1085.7 1471.1,1083"];
	502 -- 503	[pos="564.43,277.17 567.47,323.43 575.43,444.39 578.46,490.31"];
	392 -- 398	[pos="1444.4,1063.1 1444.6,1039.5 1445.1,998.4 1445.3,974.78"];
	503 -- 504	[pos="605.58,514.03 659.12,525.77 781.33,552.56 834.82,564.28"];
	398 -- 401	[pos="1464.1,943.41 1497.9,919.21 1569.5,868.13 1603.3,843.92"];
	504 -- 505	[pos="852.47,587.45 835.76,623 798.02,703.25 781.38,738.64"];
	401 -- 403	[pos="1642.7,842.16 1681.3,863.49 1763.7,908.96 1802.5,930.37"];
	505 -- 506	[pos="793.5,767.97 853.85,803.77 1032,909.44 1092.8,945.48"];
	403 -- 406	[pos="1808.9,957.26 1789.5,977.55 1755.6,1013.2 1736.2,1033.5"];
	506 -- 507	[pos="1128.4,973.04 1178.9,1024.7 1342.6,1191.9 1393.1,1243.6"];
	406 -- 409	[pos="1709.6,1032.4 1689,1004.7 1647.3,948.52 1626.7,920.65"];
	507 -- 508	[pos="1435.3,1257.4 1498.3,1254.1 1653.8,1245.8 1716.5,1242.4"];
	509	[height=0.5,
		pos="1792.2,1062.8",
		width=0.75];
	409 -- 509	[pos="1630.9,918.83 1664.7,949.04 1742,1018 1775.9,1048.2"];
	508 -- 509	[pos="1748.3,1223.3 1757.7,1189.2 1778,1114.9 1787.3,1080.7"];
}
