graph {
	graph [bb="0,0,661.16,595.87",
		outputorder=edgesfirst,
		overlap=prism,
		size="50,50!",
		start=6293
	];
	node [label="\N"];
	0	[height=0.5,
		pos="27,133.12",
		width=0.75];
	1	[height=0.5,
		pos="127.11,145.98",
		width=0.75];
	0 -- 1	[pos="53.566,136.53 68.048,138.39 85.923,140.69 100.42,142.55"];
	10	[height=0.5,
		pos="28.72,232.27",
		width=0.75];
	0 -- 10	[pos="27.316,151.31 27.626,169.2 28.097,196.35 28.407,214.2"];
	2	[height=0.5,
		pos="259.42,150.66",
		width=0.75];
	1 -- 2	[pos="154.21,146.94 177.04,147.75 209.54,148.9 232.36,149.71"];
	11	[height=0.5,
		pos="108.49,242.91",
		width=0.75];
	1 -- 11	[pos="123.61,164.21 120.28,181.54 115.3,207.45 111.98,224.76"];
	13	[height=0.5,
		pos="134.49,286.94",
		width=0.75];
	10 -- 13	[pos="50.125,243.33 68.476,252.82 94.777,266.42 113.12,275.9"];
	10 -- 11	[pos="55.284,235.81 63.805,236.95 73.242,238.21 81.774,239.34"];
	3	[height=0.5,
		pos="378.73,223.6",
		width=0.75];
	2 -- 3	[pos="279.39,162.87 301.42,176.34 336.65,197.87 358.7,211.35"];
	37	[height=0.5,
		pos="362.96,113.63",
		width=0.75];
	2 -- 37	[pos="283.43,142.08 300.16,136.09 322.38,128.15 339.08,122.18"];
	16	[height=0.5,
		pos="189.16,154.63",
		width=0.75];
	13 -- 16	[pos="141.75,269.37 152.21,244.07 171.4,197.62 181.87,172.27"];
	14	[height=0.5,
		pos="208.08,395.71",
		width=0.75];
	13 -- 14	[pos="145.67,303.46 159.5,323.91 182.92,358.52 196.8,379.03"];
	4	[height=0.5,
		pos="441.24,307.7",
		width=0.75];
	3 -- 4	[pos="390.79,239.81 401.85,254.71 418.17,276.66 429.23,291.53"];
	24	[height=0.5,
		pos="434.69,136.37",
		width=0.75];
	3 -- 24	[pos="389.52,206.78 399.43,191.33 414.03,168.56 423.93,153.13"];
	20	[height=0.5,
		pos="267.78,38.291",
		width=0.75];
	16 -- 20	[pos="200.43,137.96 215.37,115.85 241.6,77.029 256.54,54.929"];
	17	[height=0.5,
		pos="223.77,234.64",
		width=0.75];
	16 -- 17	[pos="196.67,171.99 202.48,185.41 210.48,203.9 216.28,217.31"];
	5	[height=0.5,
		pos="515.83,439.97",
		width=0.75];
	4 -- 5	[pos="450.84,324.72 465.16,350.12 491.97,397.65 506.27,423.01"];
	31	[height=0.5,
		pos="520.06,302.99",
		width=0.75];
	4 -- 31	[pos="468.37,306.08 476.38,305.6 485.15,305.08 493.15,304.6"];
	23	[height=0.5,
		pos="416.7,18",
		width=0.75];
	20 -- 23	[pos="294.41,34.664 321.43,30.982 363.03,25.313 390.06,21.63"];
	21	[height=0.5,
		pos="266.36,106.64",
		width=0.75];
	20 -- 21	[pos="267.4,56.609 267.2,66.416 266.95,78.461 266.74,88.276"];
	6	[height=0.5,
		pos="395.06,490.62",
		width=0.75];
	5 -- 6	[pos="492.83,449.62 471.34,458.63 439.44,472.01 417.97,481.01"];
	40	[height=0.5,
		pos="595.59,418.37",
		width=0.75];
	5 -- 40	[pos="541.07,433.13 550.47,430.59 561.13,427.7 570.52,425.16"];
	26	[height=0.5,
		pos="550.97,24.66",
		width=0.75];
	23 -- 26	[pos="443.87,19.348 467.17,20.503 500.56,22.16 523.84,23.314"];
	23 -- 24	[pos="419.43,35.977 422.81,58.225 428.54,95.894 431.93,118.22"];
	7	[height=0.5,
		pos="313.57,547.05",
		width=0.75];
	6 -- 7	[pos="376.16,503.71 362.99,512.82 345.51,524.93 332.37,534.03"];
	32	[height=0.5,
		pos="453.78,409.69",
		width=0.75];
	6 -- 32	[pos="406.94,474.24 417.13,460.2 431.73,440.08 441.92,426.04"];
	28	[height=0.5,
		pos="634.16,128.75",
		width=0.75];
	26 -- 28	[pos="563.97,40.924 579.6,60.478 605.67,93.093 621.26,112.6"];
	27	[height=0.5,
		pos="560.54,111.39",
		width=0.75];
	26 -- 27	[pos="552.95,42.63 554.58,57.415 556.89,78.282 558.52,93.142"];
	8	[height=0.5,
		pos="210.96,499.26",
		width=0.75];
	7 -- 8	[pos="291.31,536.68 274.09,528.66 250.38,517.62 233.18,509.61"];
	42	[height=0.5,
		pos="420.72,577.87",
		width=0.75];
	7 -- 42	[pos="338.42,554.2 355.61,559.14 378.4,565.7 395.64,570.65"];
	30	[height=0.5,
		pos="567.54,184.67",
		width=0.75];
	28 -- 30	[pos="617.35,142.86 607.33,151.27 594.64,161.92 584.58,170.37"];
	29	[height=0.5,
		pos="621.79,230.29",
		width=0.75];
	28 -- 29	[pos="631.95,146.9 629.7,165.38 626.23,193.87 623.98,212.29"];
	9	[height=0.5,
		pos="106.17,480.99",
		width=0.75];
	8 -- 9	[pos="184.79,494.69 168.78,491.91 148.38,488.35 132.37,485.56"];
	8 -- 14	[pos="210.46,481.22 209.93,462.33 209.11,432.83 208.59,413.89"];
	35	[height=0.5,
		pos="494.11,68.674",
		width=0.75];
	30 -- 35	[pos="557.02,168.05 543.06,146 518.56,107.3 504.61,85.262"];
	30 -- 31	[pos="560.53,202.13 551.55,224.5 536.08,263.06 527.09,285.46"];
	12	[height=0.5,
		pos="70.543,365.06",
		width=0.75];
	9 -- 12	[pos="100.68,463.13 93.969,441.28 82.672,404.52 75.98,382.75"];
	36	[height=0.5,
		pos="354.67,40.594",
		width=0.75];
	35 -- 36	[pos="468.21,63.458 443.33,58.446 405.91,50.911 380.91,45.877"];
	11 -- 17	[pos="135.52,240.97 154.02,239.64 178.45,237.89 196.91,236.56"];
	11 -- 12	[pos="102.98,260.67 95.78,283.83 83.267,324.11 76.068,347.28"];
	17 -- 21	[pos="229.69,216.84 237.83,192.39 252.38,148.66 260.49,124.29"];
	18	[height=0.5,
		pos="293.13,345.78",
		width=0.75];
	17 -- 18	[pos="234.31,251.52 247.42,272.53 269.67,308.19 282.72,329.1"];
	21 -- 36	[pos="284.66,92.958 299.92,81.547 321.53,65.379 336.7,54.036"];
	22	[height=0.5,
		pos="321.44,179.57",
		width=0.75];
	21 -- 22	[pos="278.59,122.83 287.71,134.91 300.13,151.35 309.25,163.43"];
	15	[height=0.5,
		pos="146.04,364.62",
		width=0.75];
	12 -- 15	[pos="97.798,364.9 104.64,364.86 111.98,364.82 118.82,364.78"];
	36 -- 37	[pos="356.72,58.649 358,69.886 359.63,84.288 360.91,95.534"];
	14 -- 15	[pos="186.38,384.84 180.37,381.82 173.85,378.56 167.83,375.54"];
	14 -- 18	[pos="228.67,383.62 242.04,375.77 259.4,365.58 272.73,357.75"];
	19	[height=0.5,
		pos="256.57,292.94",
		width=0.75];
	15 -- 19	[pos="165.54,351.97 185.63,338.95 216.74,318.77 236.89,305.71"];
	38	[height=0.5,
		pos="483.17,191.25",
		width=0.75];
	37 -- 38	[pos="382.54,126.28 404.9,140.71 441.25,164.18 463.6,178.61"];
	24 -- 38	[pos="448.45,151.95 454.95,159.3 462.68,168.06 469.2,175.44"];
	25	[height=0.5,
		pos="432.1,92.338",
		width=0.75];
	24 -- 25	[pos="433.62,118.2 433.47,115.65 433.32,113.02 433.17,110.46"];
	18 -- 19	[pos="281.76,329.35 277.4,323.05 272.43,315.86 268.06,309.54"];
	33	[height=0.5,
		pos="391.78,384.24",
		width=0.75];
	18 -- 33	[pos="316.51,354.89 332.12,360.98 352.58,368.95 368.22,375.05"];
	19 -- 22	[pos="266.42,275.72 278.69,254.29 299.5,217.91 311.71,196.58"];
	39	[height=0.5,
		pos="582.3,289.38",
		width=0.75];
	38 -- 39	[pos="498.66,206.58 517.28,225.02 548.35,255.77 566.92,274.15"];
	31 -- 39	[pos="545.74,297.38 549.22,296.61 552.79,295.83 556.28,295.07"];
	31 -- 32	[pos="509.7,319.66 497.33,339.59 476.73,372.75 464.28,392.78"];
	22 -- 25	[pos="339.22,165.55 359.87,149.27 393.73,122.58 414.37,106.32"];
	39 -- 40	[pos="584.18,307.58 586.71,332.17 591.19,375.72 593.72,400.25"];
	25 -- 27	[pos="458.71,96.285 480.76,99.555 511.93,104.18 533.96,107.45"];
	41	[height=0.5,
		pos="528.67,515.34",
		width=0.75];
	40 -- 41	[pos="584.24,434.82 571.93,452.65 552.41,480.94 540.08,498.81"];
	32 -- 41	[pos="465.48,426.2 479.55,446.04 503.02,479.15 517.05,498.95"];
	32 -- 33	[pos="430.69,400.21 425.6,398.12 420.2,395.9 415.09,393.81"];
	27 -- 29	[pos="569.31,128.42 580.89,150.9 601.16,190.25 612.83,212.9"];
	41 -- 42	[pos="508.11,527.25 488.91,538.37 460.39,554.89 441.21,566.01"];
	34	[height=0.5,
		pos="552.29,354.46",
		width=0.75];
	29 -- 34	[pos="612.27,247.3 599.04,270.94 575.21,313.51 561.91,337.26"];
	43	[height=0.5,
		pos="458.2,508.37",
		width=0.75];
	42 -- 43	[pos="429.99,560.69 435.8,549.92 443.25,536.09 449.04,525.35"];
	33 -- 34	[pos="417.92,379.39 447.77,373.85 496.31,364.84 526.15,359.3"];
	33 -- 43	[pos="400.87,401.24 413.52,424.88 436.29,467.44 449,491.18"];
	44	[height=0.5,
		pos="593.35,479.66",
		width=0.75];
	34 -- 44	[pos="558.08,372.13 565.87,395.86 579.62,437.78 587.45,461.67"];
	43 -- 44	[pos="483.94,502.9 507.83,497.83 543.24,490.31 567.25,485.21"];
}
