graph {
	graph [bb="0,0,715.18,822.34",
		outputorder=edgesfirst,
		overlap=prism,
		size="50,50!",
		start=5400
	];
	node [label="\N"];
	0	[height=0.5,
		pos="450.49,423.14",
		width=0.75];
	37	[height=0.5,
		pos="383.12,279.75",
		width=0.75];
	0 -- 37	[pos="442.37,405.84 429.42,378.28 404.24,324.71 391.27,297.11"];
	2	[height=0.5,
		pos="326.41,476.03",
		width=0.75];
	0 -- 2	[pos="427.73,432.84 405.48,442.32 371.78,456.68 349.44,466.21"];
	25	[height=0.5,
		pos="353.41,357.94",
		width=0.75];
	0 -- 25	[pos="431.31,410.26 414.29,398.83 389.56,382.22 372.55,370.8"];
	3	[height=0.5,
		pos="261.99,491.37",
		width=0.75];
	0 -- 3	[pos="426.62,431.78 390.46,444.87 322.19,469.58 285.97,482.69"];
	4	[height=0.5,
		pos="458.3,379.1",
		width=0.75];
	0 -- 4	[pos="453.67,405.22 454.14,402.56 454.63,399.8 455.1,397.14"];
	5	[height=0.5,
		pos="521.24,417",
		width=0.75];
	0 -- 5	[pos="477.65,420.78 483.1,420.31 488.83,419.81 494.28,419.34"];
	18	[height=0.5,
		pos="564.1,461.18",
		width=0.75];
	0 -- 18	[pos="474.87,431.3 494.03,437.72 520.61,446.62 539.77,453.03"];
	62	[height=0.5,
		pos="490.77,334.59",
		width=0.75];
	0 -- 62	[pos="458.45,405.64 465.51,390.12 475.77,367.56 482.83,352.05"];
	9	[height=0.5,
		pos="540.45,505.18",
		width=0.75];
	0 -- 9	[pos="466.58,437.8 482.95,452.74 508.18,475.75 524.51,490.64"];
	34	[height=0.5,
		pos="388.49,507.42",
		width=0.75];
	0 -- 34	[pos="438.54,439.39 427.56,454.31 411.38,476.31 400.41,491.22"];
	12	[height=0.5,
		pos="515.64,279.17",
		width=0.75];
	0 -- 12	[pos="458.35,405.77 470.87,378.1 495.21,324.3 507.75,296.59"];
	20	[height=0.5,
		pos="453.61,284.69",
		width=0.75];
	0 -- 20	[pos="450.9,405.04 451.5,378.5 452.6,329.33 453.2,302.79"];
	39	[height=0.5,
		pos="626.13,434.9",
		width=0.75];
	0 -- 39	[pos="477.55,424.95 510.56,427.16 566.02,430.87 599.04,433.09"];
	49	[height=0.5,
		pos="415.51,328.72",
		width=0.75];
	0 -- 49	[pos="443.91,405.38 437.66,388.5 428.31,363.25 422.06,346.4"];
	64	[height=0.5,
		pos="283.01,431.95",
		width=0.75];
	0 -- 64	[pos="423.21,424.57 391.98,426.22 341.12,428.89 310.01,430.53"];
	28	[height=0.5,
		pos="552.9,328.57",
		width=0.75];
	0 -- 28	[pos="466.5,408.36 485.73,390.59 517.83,360.96 537.01,343.24"];
	71	[height=0.5,
		pos="647.4,357.11",
		width=0.75];
	0 -- 71	[pos="474.64,415.04 512.43,402.37 585.14,377.99 623.05,365.27"];
	54	[height=0.5,
		pos="602.6,505.41",
		width=0.75];
	0 -- 54	[pos="471.64,434.58 500.7,450.29 552.67,478.4 581.63,494.07"];
	35	[height=0.5,
		pos="558.81,372.92",
		width=0.75];
	0 -- 35	[pos="472.67,412.85 491.24,404.24 517.62,392.01 536.29,383.36"];
	57	[height=0.5,
		pos="346.51,411.71",
		width=0.75];
	0 -- 57	[pos="423.71,420.19 408.19,418.49 388.71,416.35 373.2,414.65"];
	77	[height=0.5,
		pos="472.92,558.25",
		width=0.75];
	0 -- 77	[pos="453.47,441.08 457.76,466.92 465.63,514.35 469.93,540.23"];
	37 -- 62	[pos="404.64,290.72 423.42,300.28 450.51,314.09 469.28,323.64"];
	1	[height=0.5,
		pos="410.87,566.47",
		width=0.75];
	67	[height=0.5,
		pos="324.05,520.35",
		width=0.75];
	1 -- 67	[pos="389.41,555.07 375.95,547.92 358.67,538.74 345.26,531.62"];
	1 -- 2	[pos="396.54,551.13 381.01,534.5 356.36,508.1 340.8,491.44"];
	1 -- 3	[pos="389.22,555.55 360.99,541.31 311.9,516.55 283.67,502.3"];
	8	[height=0.5,
		pos="293.29,564.36",
		width=0.75];
	1 -- 8	[pos="383.6,565.98 364.6,565.64 339.38,565.19 320.41,564.84"];
	1 -- 4	[pos="415.41,548.5 424.48,512.69 444.71,432.78 453.76,397.01"];
	36	[height=0.5,
		pos="478.39,513.58",
		width=0.75];
	1 -- 36	[pos="428.61,552.57 438.45,544.86 450.67,535.3 460.53,527.57"];
	10	[height=0.5,
		pos="273.81,652.4",
		width=0.75];
	1 -- 10	[pos="390.94,578.96 364.95,595.26 319.76,623.59 293.76,639.89"];
	1 -- 9	[pos="433.14,555.93 456.88,544.71 494.24,527.04 518.03,515.79"];
	1 -- 34	[pos="404.15,548.75 401.32,541.28 398.03,532.6 395.2,525.12"];
	41	[height=0.5,
		pos="384.81,673.19",
		width=0.75];
	1 -- 41	[pos="406.45,584.57 401.62,604.32 393.96,635.72 389.16,655.36"];
	43	[height=0.5,
		pos="322.75,696.41",
		width=0.75];
	1 -- 43	[pos="399.71,582.93 382.85,607.79 351.06,654.66 334.1,679.68"];
	52	[height=0.5,
		pos="385.34,610.64",
		width=0.75];
	1 -- 52	[pos="401.07,583.42 399.1,586.82 397.04,590.4 395.07,593.8"];
	23	[height=0.5,
		pos="570.04,596.98",
		width=0.75];
	1 -- 23	[pos="437.15,571.51 466.73,577.18 514.49,586.33 543.98,591.98"];
	50	[height=0.5,
		pos="548.31,641.02",
		width=0.75];
	1 -- 50	[pos="432.04,577.95 457.94,592 501.53,615.64 527.34,629.64"];
	73	[height=0.5,
		pos="540.44,552.96",
		width=0.75];
	1 -- 73	[pos="437.71,563.67 459.95,561.35 491.4,558.07 513.62,555.75"];
	29	[height=0.5,
		pos="322.86,608.36",
		width=0.75];
	1 -- 29	[pos="388.66,577.04 375.32,583.39 358.4,591.45 345.06,597.8"];
	44	[height=0.5,
		pos="450.54,469.53",
		width=0.75];
	1 -- 44	[pos="418.14,548.69 425.3,531.2 436.17,504.65 443.31,487.2"];
	53	[height=0.5,
		pos="444.33,717.24",
		width=0.75];
	1 -- 53	[pos="414.84,584.36 421.28,613.37 433.93,670.37 440.36,699.37"];
	74	[height=0.5,
		pos="388.46,459.94",
		width=0.75];
	1 -- 74	[pos="407.07,548.4 402.95,528.81 396.41,497.72 392.28,478.1"];
	58	[height=0.5,
		pos="506.36,710.03",
		width=0.75];
	1 -- 58	[pos="421.82,582.94 440.14,610.48 476.81,665.6 495.24,693.31"];
	1 -- 77	[pos="437.54,562.93 440.43,562.55 443.38,562.16 446.27,561.78"];
	65	[height=0.5,
		pos="568.42,690.15",
		width=0.75];
	1 -- 65	[pos="428.63,580.42 458.89,604.17 520.09,652.22 550.47,676.07"];
	79	[height=0.5,
		pos="486.27,631.28",
		width=0.75];
	1 -- 79	[pos="427.6,580.85 440.1,591.59 457.1,606.2 469.58,616.93"];
	2 -- 25	[pos="330.51,458.09 335.58,435.9 344.18,398.32 349.27,376.05"];
	2 -- 3	[pos="300.95,482.09 296.59,483.13 292.05,484.21 287.69,485.25"];
	2 -- 4	[pos="344.74,462.55 369.94,444.03 415,410.92 440.11,392.46"];
	7	[height=0.5,
		pos="214.57,607.49",
		width=0.75];
	2 -- 7	[pos="312.92,491.88 291.42,517.15 249.64,566.27 228.11,591.57"];
	17	[height=0.5,
		pos="229.16,372.06",
		width=0.75];
	2 -- 17	[pos="312.06,460.69 293.67,441.03 261.98,407.15 243.57,387.47"];
	2 -- 52	[pos="333.99,493.35 345.24,519.05 366.26,567.04 377.6,592.95"];
	22	[height=0.5,
		pos="221.01,416.39",
		width=0.75];
	2 -- 22	[pos="305.58,464.24 287.11,453.79 260.25,438.59 241.79,428.15"];
	26	[height=0.5,
		pos="199.95,482.39",
		width=0.75];
	2 -- 26	[pos="299.28,477.39 277.94,478.47 248.36,479.96 227.04,481.03"];
	46	[height=0.5,
		pos="291.36,330.27",
		width=0.75];
	2 -- 46	[pos="322.11,458.15 315.38,430.18 302.44,376.35 295.7,348.28"];
	2 -- 64	[pos="311.23,460.61 306.93,456.24 302.25,451.49 297.96,447.14"];
	2 -- 29	[pos="325.92,494.15 325.24,519.35 324.03,564.72 323.35,590.03"];
	2 -- 74	[pos="351.65,469.48 355.4,468.51 359.28,467.5 363.04,466.53"];
	2 -- 57	[pos="332.01,458.11 334.79,449.19 338.15,438.44 340.94,429.53"];
	25 -- 49	[pos="375.48,347.56 381.2,344.87 387.36,341.97 393.1,339.27"];
	25 -- 46	[pos="330.66,347.79 325.26,345.39 319.51,342.82 314.11,340.41"];
	25 -- 57	[pos="351.07,376.15 350.35,381.75 349.56,387.92 348.84,393.53"];
	3 -- 67	[pos="284.4,501.83 290.09,504.49 296.2,507.34 301.89,510"];
	3 -- 8	[pos="269.57,509.04 274.49,520.51 280.88,535.41 285.79,546.85"];
	3 -- 7	[pos="254.89,508.75 245.95,530.64 230.68,568.04 221.72,589.98"];
	3 -- 10	[pos="263.33,509.53 265.6,540.45 270.19,603.01 272.47,634.06"];
	3 -- 17	[pos="257.08,473.51 250.89,451.01 240.31,412.59 234.11,390.05"];
	3 -- 34	[pos="288.82,494.77 310.29,497.49 340.25,501.3 361.7,504.02"];
	19	[height=0.5,
		pos="162.65,527.83",
		width=0.75];
	3 -- 19	[pos="238.2,500.1 222.59,505.83 202.24,513.3 186.6,519.04"];
	13	[height=0.5,
		pos="118.93,439.79",
		width=0.75];
	3 -- 13	[pos="238.05,482.73 211.64,473.21 169.39,457.98 142.95,448.45"];
	42	[height=0.5,
		pos="166.46,351.75",
		width=0.75];
	3 -- 42	[pos="250.66,474.8 232.27,447.93 196.16,395.15 177.78,368.29"];
	3 -- 22	[pos="252.69,474.35 245.99,462.08 236.97,445.59 230.27,433.33"];
	24	[height=0.5,
		pos="158.98,395.75",
		width=0.75];
	3 -- 24	[pos="245.9,476.43 226.54,458.46 194.27,428.5 174.96,410.59"];
	3 -- 26	[pos="235.32,487.51 232.43,487.09 229.49,486.67 226.6,486.25"];
	31	[height=0.5,
		pos="89.063,576.11",
		width=0.75];
	3 -- 31	[pos="240.09,502.1 206.92,518.35 144.29,549.05 111.06,565.33"];
	3 -- 64	[pos="268.3,473.54 270.96,466.02 274.05,457.28 276.71,449.77"];
	38	[height=0.5,
		pos="100.62,532.06",
		width=0.75];
	3 -- 38	[pos="236.42,497.81 206.21,505.43 156.24,518.04 126.07,525.64"];
	47	[height=0.5,
		pos="151.12,580.9",
		width=0.75];
	3 -- 47	[pos="244.67,505.36 223.84,522.18 189.1,550.23 168.32,567.01"];
	40	[height=0.5,
		pos="101.35,483.81",
		width=0.75];
	3 -- 40	[pos="234.74,490.08 205.11,488.69 158.04,486.48 128.47,485.09"];
	48	[height=0.5,
		pos="229.32,311.68",
		width=0.75];
	3 -- 48	[pos="258.74,473.48 252.49,439.13 238.88,364.26 232.61,329.76"];
	8 -- 67	[pos="304.75,547.97 307.27,544.35 309.95,540.52 312.48,536.9"];
	8 -- 10	[pos="289.35,582.17 285.99,597.35 281.19,619.05 277.81,634.31"];
	4 -- 25	[pos="432.37,373.87 416.23,370.61 395.55,366.44 379.4,363.19"];
	4 -- 5	[pos="478.56,391.3 485.75,395.63 493.83,400.5 501.02,404.82"];
	4 -- 36	[pos="461.01,397.23 464.84,422.9 471.81,469.56 475.66,495.3"];
	6	[height=0.5,
		pos="420.93,235.74",
		width=0.75];
	4 -- 6	[pos="453.64,361.23 446.48,333.76 432.84,281.43 425.64,253.83"];
	4 -- 62	[pos="470.2,362.78 473.03,358.91 476.04,354.78 478.86,350.91"];
	4 -- 9	[pos="469.21,395.84 484.92,419.95 513.76,464.22 529.5,488.37"];
	4 -- 12	[pos="468.02,362.14 478.57,343.77 495.3,314.61 505.86,296.2"];
	4 -- 20	[pos="457.39,360.89 456.56,344.18 455.34,319.54 454.51,302.84"];
	32	[height=0.5,
		pos="688.18,401.14",
		width=0.75];
	4 -- 32	[pos="485.12,381.67 529.3,385.9 616.88,394.3 661.18,398.55"];
	4 -- 49	[pos="444.99,363.43 439.89,357.42 434.07,350.57 428.95,344.54"];
	4 -- 46	[pos="433.31,371.79 401.74,362.55 347.77,346.76 316.25,337.55"];
	4 -- 73	[pos="466.47,396.4 482.22,429.73 516.57,502.45 532.29,535.72"];
	4 -- 44	[pos="456.73,397.4 455.38,413.09 453.45,435.57 452.11,451.26"];
	4 -- 74	[pos="444.5,395.07 432.18,409.33 414.23,430.1 401.99,444.27"];
	5 -- 18	[pos="536.23,432.46 540.48,436.83 545.1,441.6 549.34,445.96"];
	5 -- 62	[pos="514.78,399.53 509.64,385.63 502.49,366.29 497.33,352.33"];
	5 -- 9	[pos="525.13,434.85 528.46,450.15 533.24,472.07 536.57,487.37"];
	5 -- 32	[pos="548.07,414.46 579.22,411.5 630.3,406.64 661.43,403.68"];
	5 -- 71	[pos="543.51,406.43 566.57,395.49 602.38,378.48 625.36,367.58"];
	18 -- 32	[pos="586,450.59 608.54,439.68 643.47,422.78 666.09,411.83"];
	18 -- 28	[pos="562.57,443.02 560.44,417.77 556.6,372.3 554.46,346.94"];
	18 -- 71	[pos="577.12,444.92 592.77,425.37 618.87,392.76 634.47,373.26"];
	18 -- 35	[pos="563.01,442.89 562.1,427.75 560.81,406.33 559.91,391.19"];
	36 -- 73	[pos="498.02,526.04 505.26,530.64 513.47,535.84 520.72,540.44"];
	36 -- 44	[pos="467.86,496.93 465.64,493.42 463.3,489.72 461.08,486.21"];
	6 -- 12	[pos="443.37,246.03 458.47,252.95 478.29,262.04 493.35,268.95"];
	6 -- 20	[pos="431.99,252.31 435.4,257.41 439.15,263.03 442.55,268.13"];
	15	[height=0.5,
		pos="460.27,191.71",
		width=0.75];
	6 -- 15	[pos="435.13,219.84 438.74,215.8 442.62,211.47 446.22,207.44"];
	68	[height=0.5,
		pos="363.17,191.73",
		width=0.75];
	6 -- 68	[pos="402.97,222.05 396.08,216.81 388.22,210.82 381.32,205.56"];
	30	[height=0.5,
		pos="560.45,220.44",
		width=0.75];
	6 -- 30	[pos="447.83,232.79 472.53,230.08 508.95,226.08 533.63,223.38"];
	21	[height=0.5,
		pos="522.4,176.41",
		width=0.75];
	6 -- 21	[pos="441.46,223.73 459.07,213.44 484.3,198.69 501.9,188.4"];
	45	[height=0.5,
		pos="349.1,140.66",
		width=0.75];
	6 -- 45	[pos="408.74,219.61 395.54,202.12 374.58,174.38 361.35,156.87"];
	72	[height=0.5,
		pos="284.89,156.53",
		width=0.75];
	6 -- 72	[pos="400.56,223.88 374.92,208.95 331.11,183.44 305.4,168.47"];
	56	[height=0.5,
		pos="412.99,98.605",
		width=0.75];
	6 -- 56	[pos="419.87,217.53 418.35,191.3 415.57,143.16 414.05,116.89"];
	78	[height=0.5,
		pos="477.31,129.94",
		width=0.75];
	6 -- 78	[pos="429.99,218.74 440.45,199.11 457.56,167 468.09,147.25"];
	7 -- 10	[pos="232.67,621.21 240.02,626.78 248.49,633.2 255.83,638.76"];
	7 -- 19	[pos="203.56,590.59 194.69,576.98 182.29,557.95 173.47,544.42"];
	14	[height=0.5,
		pos="260.56,722.9",
		width=0.75];
	7 -- 14	[pos="221.56,625.02 230.2,646.71 244.83,683.44 253.51,705.21"];
	11	[height=0.5,
		pos="196.2,712.32",
		width=0.75];
	7 -- 11	[pos="211.37,625.75 208,644.99 202.72,675.11 199.37,694.27"];
	27	[height=0.5,
		pos="79.483,660.92",
		width=0.75];
	7 -- 27	[pos="191.35,616.67 166.61,626.46 127.65,641.87 102.85,651.68"];
	55	[height=0.5,
		pos="132.14,704.96",
		width=0.75];
	7 -- 55	[pos="200.96,623.58 185.59,641.75 160.76,671.12 145.49,689.17"];
	7 -- 26	[pos="212.45,589.3 209.68,565.58 204.86,524.33 202.08,500.6"];
	7 -- 31	[pos="189.17,601.14 167.4,595.69 136.19,587.89 114.42,582.45"];
	7 -- 29	[pos="241.62,607.71 258.16,607.84 279.24,608.01 295.78,608.15"];
	51	[height=0.5,
		pos="27,589.07",
		width=0.75];
	7 -- 51	[pos="187.7,604.85 152.04,601.35 89.457,595.21 53.825,591.71"];
	10 -- 14	[pos="270.4,670.56 268.43,681 265.97,694.09 264,704.56"];
	10 -- 11	[pos="255.81,666.3 243.27,675.98 226.62,688.84 214.11,698.5"];
	10 -- 43	[pos="290.11,667.06 295.33,671.76 301.12,676.96 306.36,681.67"];
	69	[height=0.5,
		pos="269.2,767.41",
		width=0.75];
	10 -- 69	[pos="273.08,670.62 272.22,692.16 270.79,727.77 269.93,749.27"];
	10 -- 53	[pos="297.52,661.42 330.1,673.8 388.35,695.95 420.82,708.3"];
	76	[height=0.5,
		pos="336.71,768.93",
		width=0.75];
	10 -- 76	[pos="283.09,669.59 294.99,691.63 315.48,729.6 327.39,751.67"];
	9 -- 18	[pos="549.66,488.05 551.38,484.86 553.16,481.53 554.88,478.35"];
	59	[height=0.5,
		pos="644.51,601.69",
		width=0.75];
	9 -- 59	[pos="556.26,519.84 575.81,537.98 608.93,568.69 628.56,586.9"];
	9 -- 32	[pos="559.16,492.01 587.42,472.1 640.71,434.57 669.16,414.54"];
	9 -- 23	[pos="546.16,522.88 551.4,539.14 559.12,563.09 564.35,579.33"];
	9 -- 50	[pos="541.49,523.22 543,549.2 545.76,596.88 547.26,622.9"];
	9 -- 73	[pos="540.44,523.24 540.44,527.05 540.44,531.06 540.44,534.87"];
	9 -- 54	[pos="567.53,505.28 570.15,505.29 572.8,505.3 575.42,505.31"];
	9 -- 77	[pos="522.71,519.12 512.86,526.86 500.65,536.46 490.78,544.21"];
	61	[height=0.5,
		pos="649.48,556.39",
		width=0.75];
	9 -- 61	[pos="562.78,515.67 581.59,524.51 608.38,537.09 627.18,545.92"];
	59 -- 61	[pos="646.5,583.53 646.83,580.57 647.16,577.51 647.49,574.56"];
	63	[height=0.5,
		pos="658.91,690.3",
		width=0.75];
	59 -- 63	[pos="647.43,619.62 649.92,635 653.51,657.03 656,672.39"];
	70	[height=0.5,
		pos="56.888,388.88",
		width=0.75];
	17 -- 70	[pos="202.24,374.69 169.88,377.85 115.9,383.12 83.616,386.27"];
	17 -- 22	[pos="225.84,390.09 225.33,392.87 224.81,395.74 224.29,398.52"];
	17 -- 26	[pos="224.47,389.79 219.05,410.26 210.19,443.74 204.73,464.34"];
	34 -- 54	[pos="415.61,507.16 456.68,506.78 534.23,506.05 575.37,505.66"];
	34 -- 77	[pos="408.93,519.72 422.21,527.71 439.44,538.09 452.67,546.06"];
	34 -- 79	[pos="401.08,523.36 419.75,547.01 454.6,591.16 473.42,615.01"];
	41 -- 43	[pos="360.99,682.1 356.21,683.89 351.18,685.78 346.4,687.56"];
	41 -- 52	[pos="384.96,655.1 385.03,646.87 385.12,637.15 385.19,628.91"];
	41 -- 58	[pos="409.4,680.65 430.36,687 460.32,696.08 481.38,702.46"];
	19 -- 31	[pos="143.32,540.51 132.59,547.55 119.28,556.28 108.52,563.34"];
	19 -- 38	[pos="135.63,529.67 133.01,529.85 130.36,530.03 127.75,530.21"];
	19 -- 40	[pos="144.26,514.62 136.5,509.05 127.49,502.58 119.73,497.01"];
	19 -- 51	[pos="140.25,537.94 115.12,549.29 74.582,567.59 49.434,578.95"];
	14 -- 41	[pos="283.93,713.55 306.14,704.67 339.36,691.37 361.54,682.5"];
	14 -- 27	[pos="236.51,714.67 201.88,702.82 138.32,681.06 103.63,669.19"];
	75	[height=0.5,
		pos="157.54,804.34",
		width=0.75];
	14 -- 75	[pos="243.08,736.72 224.14,751.69 194.08,775.45 175.1,790.45"];
	14 -- 43	[pos="283.36,713.19 288.77,710.89 294.54,708.43 299.95,706.12"];
	14 -- 69	[pos="264.07,741.01 264.62,743.8 265.18,746.68 265.72,749.47"];
	14 -- 55	[pos="233.95,719.19 211.91,716.11 180.74,711.75 158.71,708.68"];
	14 -- 29	[pos="270.02,705.51 281.8,683.85 301.78,647.1 313.51,625.55"];
	14 -- 76	[pos="280.57,735 291.67,741.71 305.45,750.03 316.57,756.76"];
	11 -- 14	[pos="222.75,716.69 226.49,717.3 230.33,717.93 234.07,718.55"];
	11 -- 27	[pos="173.42,702.29 152.86,693.23 122.76,679.98 102.21,670.93"];
	11 -- 75	[pos="188.75,730.06 181.86,746.46 171.68,770.68 164.84,786.96"];
	11 -- 69	[pos="214.25,725.94 225.48,734.41 239.87,745.28 251.11,753.76"];
	27 -- 75	[pos="88.743,677.94 103.77,705.54 133.28,759.76 148.29,787.34"];
	27 -- 55	[pos="96.432,675.1 102.44,680.13 109.21,685.79 115.22,690.81"];
	12 -- 37	[pos="488.5,279.29 465.63,279.39 433.08,279.53 410.22,279.63"];
	12 -- 62	[pos="507.77,296.7 504.87,303.17 501.58,310.5 498.67,316.98"];
	12 -- 20	[pos="488.61,281.57 486,281.8 483.35,282.04 480.73,282.27"];
	12 -- 15	[pos="504.96,262.3 495.16,246.82 480.71,223.99 470.92,208.52"];
	12 -- 30	[pos="527.88,263.12 534.1,254.97 541.65,245.08 547.91,236.87"];
	12 -- 21	[pos="516.85,260.8 518.08,242.09 519.98,213.27 521.2,194.62"];
	60	[height=0.5,
		pos="623.4,223.64",
		width=0.75];
	12 -- 60	[pos="537.19,268.06 555.98,258.38 583.11,244.4 601.89,234.72"];
	33	[height=0.5,
		pos="611.37,267.66",
		width=0.75];
	12 -- 33	[pos="542.3,275.96 555.47,274.38 571.32,272.47 584.51,270.89"];
	20 -- 68	[pos="438.67,269.34 421.92,252.11 394.89,224.34 378.13,207.1"];
	20 -- 33	[pos="480.37,281.8 509.38,278.67 555.41,273.7 584.47,270.56"];
	13 -- 42	[pos="128.09,422.81 136.46,407.32 148.76,384.54 157.16,368.97"];
	13 -- 70	[pos="101.64,425.61 93.04,418.55 82.668,410.04 74.076,402.99"];
	13 -- 22	[pos="144.69,433.88 160.16,430.33 179.78,425.84 195.26,422.29"];
	13 -- 26	[pos="140.21,450.98 152.03,457.19 166.69,464.9 178.53,471.12"];
	42 -- 48	[pos="186.01,339.29 193.5,334.51 202.06,329.06 209.57,324.27"];
	15 -- 20	[pos="458.96,210.08 457.78,226.49 456.07,250.38 454.9,266.67"];
	15 -- 68	[pos="433.23,191.72 419.87,191.72 403.79,191.72 390.41,191.72"];
	15 -- 30	[pos="485.29,198.89 500.59,203.27 520.1,208.87 535.4,213.25"];
	15 -- 21	[pos="485.9,185.4 489.51,184.51 493.22,183.6 496.83,182.71"];
	15 -- 60	[pos="486.48,196.84 516.93,202.8 566.84,212.57 597.26,218.52"];
	15 -- 33	[pos="481.92,202.59 510.64,217.03 561.06,242.37 589.76,256.8"];
	15 -- 45	[pos="437.78,181.38 418.49,172.52 390.84,159.83 371.57,150.97"];
	68 -- 72	[pos="340.53,181.55 330.15,176.88 317.86,171.35 307.48,166.69"];
	68 -- 78	[pos="384.37,180.25 404.87,169.15 435.76,152.43 456.22,141.35"];
	16	[height=0.5,
		pos="306.88,31.245",
		width=0.75];
	66	[height=0.5,
		pos="390.27,18",
		width=0.75];
	16 -- 66	[pos="333.26,27.054 343,25.508 354.03,23.757 363.77,22.209"];
	16 -- 45	[pos="313.66,48.824 321.54,69.242 334.46,102.72 342.34,123.12"];
	16 -- 56	[pos="326.84,43.915 345.81,55.958 374.18,73.968 393.12,85.992"];
	66 -- 72	[pos="377.98,34.162 357.67,60.855 317.36,113.84 297.11,140.47"];
	43 -- 53	[pos="349.13,700.93 369.52,704.42 397.62,709.24 418,712.73"];
	43 -- 58	[pos="349.84,698.42 384.66,701 444.73,705.46 479.46,708.03"];
	43 -- 76	[pos="326.2,714.34 328.35,725.5 331.1,739.79 333.25,750.96"];
	69 -- 75	[pos="244.97,775.42 226.37,781.57 200.79,790.03 182.11,796.21"];
	22 -- 70	[pos="194.64,411.97 164.01,406.84 113.79,398.42 83.191,393.29"];
	22 -- 26	[pos="215.37,434.08 212.35,443.55 208.64,455.18 205.61,464.66"];
	22 -- 64	[pos="246.59,422.81 250.19,423.71 253.89,424.64 257.5,425.55"];
	21 -- 30	[pos="536.14,192.3 539.63,196.34 543.38,200.68 546.86,204.71"];
	39 -- 71	[pos="631.06,416.86 634.5,404.29 639.06,387.6 642.49,375.06"];
	23 -- 59	[pos="596.93,598.68 603.59,599.1 610.74,599.55 617.41,599.98"];
	23 -- 50	[pos="561.58,614.13 560,617.32 558.36,620.65 556.79,623.84"];
	23 -- 73	[pos="558.85,580.33 556.49,576.83 554,573.13 551.64,569.62"];
	23 -- 61	[pos="591.75,585.89 602.96,580.16 616.59,573.19 627.8,567.47"];
	23 -- 63	[pos="584.72,612.39 601.18,629.68 627.74,657.56 644.22,674.86"];
	50 -- 59	[pos="571.6,631.5 586.72,625.31 606.36,617.29 621.44,611.12"];
	50 -- 61	[pos="565.47,626.66 584.19,611.01 613.96,586.11 632.57,570.54"];
	50 -- 63	[pos="570.96,651.11 590.05,659.61 617.22,671.72 636.29,680.22"];
	24 -- 42	[pos="162.03,377.85 162.48,375.19 162.95,372.44 163.4,369.77"];
	24 -- 26	[pos="167.27,413.28 174.43,428.41 184.7,450.14 191.81,465.18"];
	24 -- 48	[pos="172.21,379.94 184.79,364.91 203.59,342.43 216.15,327.42"];
	26 -- 42	[pos="195.37,464.5 188.99,439.62 177.51,394.83 171.1,369.84"];
	26 -- 70	[pos="180.66,469.78 153.35,451.94 103.72,419.49 76.333,401.59"];
	26 -- 31	[pos="183.11,496.63 162.27,514.24 126.98,544.06 106.06,561.74"];
	31 -- 38	[pos="93.765,558.19 94.49,555.43 95.238,552.58 95.962,549.82"];
	31 -- 47	[pos="116.1,578.2 118.71,578.4 121.37,578.6 123.98,578.8"];
	31 -- 51	[pos="63.103,581.53 59.781,582.23 56.379,582.94 53.056,583.63"];
	49 -- 57	[pos="402.21,344.72 389.99,359.42 371.98,381.08 359.77,395.76"];
	46 -- 57	[pos="302.52,346.75 312.09,360.88 325.8,381.13 335.37,395.26"];
	28 -- 35	[pos="555.31,346.61 555.66,349.3 556.03,352.07 556.39,354.75"];
	29 -- 41	[pos="337.54,623.73 347.41,634.06 360.38,647.63 370.23,657.94"];
	29 -- 43	[pos="322.83,626.61 322.81,641.72 322.79,663.09 322.77,678.19"];
	29 -- 52	[pos="350.08,609.35 352.71,609.45 355.38,609.55 358.01,609.64"];
	38 -- 47	[pos="116.05,546.98 122.31,553.04 129.53,560.02 135.79,566.07"];
	38 -- 40	[pos="100.9,513.82 100.96,509.98 101.02,505.92 101.08,502.08"];
	38 -- 51	[pos="82.8,545.86 71.225,554.83 56.2,566.46 44.658,575.4"];
	33 -- 60	[pos="616.26,249.75 617.02,246.99 617.8,244.14 618.55,241.38"];
	54 -- 77	[pos="579.42,514.86 555.96,524.41 519.89,539.11 496.34,548.7"];
	54 -- 79	[pos="588.34,520.84 566.01,545 523.05,591.48 500.65,615.72"];
	35 -- 39	[pos="574.76,387.61 585.5,397.49 599.58,410.46 610.29,420.32"];
	35 -- 71	[pos="584.91,368.26 596.34,366.22 609.73,363.83 621.18,361.79"];
	40 -- 51	[pos="89.735,500.26 75.767,520.04 52.468,553.02 38.536,572.74"];
	53 -- 58	[pos="470.99,714.14 473.88,713.8 476.83,713.46 479.72,713.12"];
	53 -- 76	[pos="422.29,727.82 403.72,736.74 377.28,749.44 358.72,758.36"];
	53 -- 65	[pos="470.04,711.63 491.34,706.98 521.45,700.4 542.74,695.76"];
	45 -- 68	[pos="354.02,158.52 355.39,163.47 356.87,168.84 358.23,173.79"];
	45 -- 66	[pos="355,123.08 362.78,99.899 376.41,59.307 384.25,35.94"];
	45 -- 72	[pos="323.73,146.93 319.38,148.01 314.86,149.12 310.51,150.2"];
	45 -- 56	[pos="368.62,127.81 376.54,122.59 385.68,116.58 393.59,111.37"];
	45 -- 78	[pos="375.98,138.41 397.86,136.58 428.6,134.01 450.47,132.18"];
	72 -- 78	[pos="311.65,152.83 348.41,147.75 414.14,138.67 450.78,133.6"];
	58 -- 65	[pos="530.89,702.17 535.22,700.78 539.74,699.34 544.07,697.95"];
	77 -- 79	[pos="476.22,576.3 478.27,587.53 480.91,601.93 482.96,613.18"];
	56 -- 66	[pos="407.95,80.716 404.18,67.359 399.06,49.184 395.3,35.839"];
	56 -- 72	[pos="390.38,108.83 366.97,119.42 330.6,135.86 307.27,146.41"];
	61 -- 73	[pos="622.25,555.53 605.59,555.01 584.36,554.34 567.7,553.81"];
	61 -- 63	[pos="650.75,574.45 652.55,600.01 655.83,646.46 657.63,672.1"];
}
