graph {
	graph [bb="0,0,431.19,445.54",
		outputorder=edgesfirst,
		overlap=prism,
		size="50,50!",
		start=4700
	];
	node [label="\N"];
	1	[height=0.5,
		pos="252.9,198.56",
		width=0.75];
	2	[height=0.5,
		pos="149.07,324.06",
		width=0.75];
	1 -- 2	[pos="239.75,214.46 219.78,238.6 182.02,284.23 162.11,308.29"];
	5	[height=0.5,
		pos="93.103,171.89",
		width=0.75];
	1 -- 5	[pos="226.51,194.16 196.9,189.22 149.15,181.25 119.53,176.3"];
	3	[height=0.5,
		pos="87.062,281.23",
		width=0.75];
	1 -- 3	[pos="231.22,209.37 199.44,225.21 140.53,254.58 108.75,270.42"];
	4	[height=0.5,
		pos="161.04,137.39",
		width=0.75];
	1 -- 4	[pos="233.42,185.59 217.72,175.14 195.78,160.53 180.18,150.14"];
	8	[height=0.5,
		pos="404.19,248.71",
		width=0.75];
	1 -- 8	[pos="277.21,206.62 305.44,215.98 351.73,231.33 379.94,240.68"];
	2 -- 5	[pos="142.54,306.3 131.75,276.98 110.35,218.78 99.591,189.53"];
	2 -- 4	[pos="150.24,305.82 152.53,270.04 157.6,191.04 159.88,155.43"];
	7	[height=0.5,
		pos="27,427.54",
		width=0.75];
	2 -- 7	[pos="132.35,338.23 109.11,357.93 67.253,393.41 43.907,413.21"];
	6	[height=0.5,
		pos="55.137,18",
		width=0.75];
	5 -- 6	[pos="88.674,153.94 81.358,124.28 66.836,65.419 59.539,35.84"];
	3 -- 5	[pos="88.06,263.18 89.179,242.92 90.984,210.25 92.104,189.98"];
	3 -- 4	[pos="95.839,264.17 110.08,236.48 138.04,182.1 152.27,154.44"];
	3 -- 7	[pos="79.817,298.88 68.273,327 45.831,381.67 34.271,409.83"];
	4 -- 6	[pos="147.19,121.78 126.9,98.902 89.283,56.496 68.986,33.612"];
	0	[height=0.5,
		pos="247.71,274.52",
		width=0.75];
	0 -- 2	[pos="225.82,285.51 209.47,293.72 187.23,304.89 170.9,313.09"];
	0 -- 5	[pos="228.45,261.73 198.82,242.06 142.39,204.61 112.61,184.84"];
	0 -- 3	[pos="220.46,275.66 190.83,276.89 143.76,278.86 114.18,280.1"];
	0 -- 4	[pos="237.09,257.7 220.45,231.38 188.44,180.75 171.75,154.34"];
	0 -- 8	[pos="274.26,270.14 303.12,265.38 348.97,257.82 377.78,253.07"];
}
