graph {
	graph [bb="0,0,373.27,355.18",
		outputorder=edgesfirst,
		overlap=prism,
		size="50,50!",
		start=4387
	];
	node [label="\N"];
	0	[height=0.5,
		pos="27,208.81",
		width=0.75];
	1	[height=0.5,
		pos="71.189,145.94",
		width=0.75];
	0 -- 1	[pos="38.61,192.29 45.054,183.12 53.047,171.75 59.503,162.56"];
	4	[height=0.5,
		pos="91.515,250.51",
		width=0.75];
	0 -- 4	[pos="46.707,221.54 54.711,226.72 63.937,232.68 71.928,237.85"];
	5	[height=0.5,
		pos="133.2,188.11",
		width=0.75];
	0 -- 5	[pos="52.978,203.74 69.435,200.54 90.642,196.4 107.12,193.19"];
	2	[height=0.5,
		pos="114,82.456",
		width=0.75];
	1 -- 2	[pos="82.438,129.26 88.682,120 96.426,108.52 102.68,99.244"];
	1 -- 4	[pos="74.73,164.15 78.46,183.35 84.3,213.39 88.015,232.5"];
	1 -- 5	[pos="90.13,158.82 97.68,163.96 106.36,169.86 113.94,175.02"];
	6	[height=0.5,
		pos="176.16,124.42",
		width=0.75];
	1 -- 6	[pos="97.136,140.62 113.29,137.31 133.98,133.07 150.14,129.75"];
	3	[height=0.5,
		pos="156.15,18",
		width=0.75];
	2 -- 3	[pos="124.86,65.857 131.1,56.308 138.92,44.344 145.19,34.767"];
	2 -- 5	[pos="117.26,100.38 120.79,119.81 126.39,150.64 129.92,170.1"];
	2 -- 6	[pos="132.99,95.274 140.56,100.38 149.26,106.26 156.86,111.39"];
	7	[height=0.5,
		pos="218.49,62.455",
		width=0.75];
	2 -- 7	[pos="140.1,77.46 156.06,74.406 176.4,70.512 192.36,67.456"];
	3 -- 6	[pos="159.54,36.053 163.22,55.622 169.06,86.674 172.75,106.28"];
	3 -- 7	[pos="174.85,31.338 182.74,36.964 191.91,43.501 199.8,49.126"];
	4 -- 5	[pos="102.68,233.79 108.66,224.83 116.01,213.84 121.99,204.88"];
	8	[height=0.5,
		pos="155,293.32",
		width=0.75];
	4 -- 8	[pos="110.56,263.35 118.6,268.77 127.93,275.07 135.97,280.48"];
	9	[height=0.5,
		pos="196.8,231.02",
		width=0.75];
	4 -- 9	[pos="117.54,245.69 133.74,242.69 154.5,238.85 170.71,235.85"];
	5 -- 6	[pos="144.48,171.38 150.75,162.09 158.52,150.57 164.8,141.26"];
	5 -- 8	[pos="136.89,205.96 140.9,225.31 147.27,256.01 151.29,275.39"];
	5 -- 9	[pos="152.28,200.99 160.33,206.42 169.68,212.73 177.73,218.16"];
	10	[height=0.5,
		pos="239.78,167.31",
		width=0.75];
	5 -- 10	[pos="159.27,183.02 175.78,179.8 197.07,175.65 213.6,172.42"];
	6 -- 7	[pos="187.5,107.81 193.57,98.923 201.03,88.003 207.11,79.106"];
	6 -- 9	[pos="179.66,142.5 183.45,162.11 189.48,193.21 193.28,212.85"];
	6 -- 10	[pos="195.24,137.29 203.3,142.72 212.65,149.02 220.7,154.45"];
	11	[height=0.5,
		pos="281.82,105.14",
		width=0.75];
	6 -- 11	[pos="202.28,119.65 218.53,116.69 239.37,112.88 255.64,109.91"];
	7 -- 10	[pos="222.2,80.719 226.1,99.965 232.22,130.09 236.11,149.26"];
	7 -- 11	[pos="237.49,75.26 245.36,80.564 254.48,86.71 262.39,92.043"];
	8 -- 9	[pos="166.2,276.63 172.2,267.69 179.56,256.71 185.57,247.76"];
	12	[height=0.5,
		pos="218.4,337.18",
		width=0.75];
	8 -- 12	[pos="174.02,306.48 182.05,312.03 191.37,318.48 199.39,324.03"];
	13	[height=0.5,
		pos="259.26,272.59",
		width=0.75];
	8 -- 13	[pos="181.04,288.14 196.96,284.98 217.26,280.94 233.19,277.77"];
	9 -- 10	[pos="208.09,214.28 214.36,204.99 222.13,193.47 228.41,184.16"];
	9 -- 12	[pos="200.46,249.03 204.43,268.55 210.74,299.53 214.71,319.08"];
	9 -- 13	[pos="216.22,243.94 223.81,249 232.49,254.78 240.06,259.81"];
	14	[height=0.5,
		pos="301.86,209.41",
		width=0.75];
	9 -- 14	[pos="222.77,225.68 238.93,222.35 259.65,218.09 275.83,214.76"];
	10 -- 11	[pos="251.04,150.65 257.08,141.73 264.48,130.77 270.52,121.84"];
	10 -- 13	[pos="243.17,185.65 246.74,204.97 252.34,235.22 255.9,254.46"];
	10 -- 14	[pos="258.74,180.17 266.3,185.29 274.99,191.19 282.59,196.34"];
	15	[height=0.5,
		pos="346.27,147.03",
		width=0.75];
	10 -- 15	[pos="265.83,162.35 282.33,159.21 303.6,155.16 320.12,152.01"];
	11 -- 14	[pos="285.31,123.3 288.99,142.44 294.75,172.39 298.41,191.45"];
	11 -- 15	[pos="301.16,117.71 309.17,122.91 318.45,128.95 326.5,134.18"];
	12 -- 13	[pos="228.92,320.55 234.97,310.98 242.56,298.99 248.63,289.39"];
	13 -- 14	[pos="270.45,255.99 276.66,246.77 284.37,235.34 290.6,226.11"];
	14 -- 15	[pos="313.53,193.02 320.01,183.92 328.04,172.64 334.53,163.53"];
}
