graph {
	graph [bb="0,0,612.94,636.51",
		outputorder=edgesfirst,
		overlap=prism,
		size="50,50!",
		start=2528
	];
	node [label="\N"];
	0	[height=0.5,
		pos="174.62,618.51",
		width=0.75];
	1	[height=0.5,
		pos="166.83,518.8",
		width=0.75];
	0 -- 1	[pos="173.19,600.22 171.78,582.23 169.65,554.92 168.25,536.97"];
	10	[height=0.5,
		pos="279.13,607.55",
		width=0.75];
	0 -- 10	[pos="201.53,615.68 217.14,614.05 236.72,611.99 252.31,610.36"];
	2	[height=0.5,
		pos="127.18,407.32",
		width=0.75];
	1 -- 2	[pos="160.46,500.89 153.06,480.08 140.93,445.97 133.54,425.19"];
	11	[height=0.5,
		pos="275.33,527.8",
		width=0.75];
	1 -- 11	[pos="193.65,521.02 210.34,522.41 231.74,524.18 248.44,525.57"];
	13	[height=0.5,
		pos="337.38,506.86",
		width=0.75];
	10 -- 13	[pos="289.01,590.47 299.79,571.84 316.93,542.21 327.64,523.68"];
	10 -- 11	[pos="278.27,589.45 277.65,576.4 276.81,558.86 276.19,545.82"];
	3	[height=0.5,
		pos="204.88,278.62",
		width=0.75];
	2 -- 3	[pos="137.34,390.49 152.23,365.83 179.83,320.12 194.72,295.45"];
	37	[height=0.5,
		pos="109.32,293.12",
		width=0.75];
	2 -- 37	[pos="124.35,389.22 121.01,367.84 115.48,332.48 112.14,311.13"];
	16	[height=0.5,
		pos="203.3,463.21",
		width=0.75];
	13 -- 16	[pos="313.1,498.95 288.95,491.09 252.1,479.1 227.86,471.21"];
	14	[height=0.5,
		pos="433.37,423.64",
		width=0.75];
	13 -- 14	[pos="354.1,492.36 371.72,477.09 399.3,453.18 416.84,437.97"];
	4	[height=0.5,
		pos="299.42,200",
		width=0.75];
	3 -- 4	[pos="221.78,264.57 238.89,250.34 265.18,228.47 282.35,214.2"];
	24	[height=0.5,
		pos="107.43,222.31",
		width=0.75];
	3 -- 24	[pos="184.21,266.68 167.68,257.12 144.6,243.79 128.07,234.23"];
	20	[height=0.5,
		pos="65.14,398.47",
		width=0.75];
	16 -- 20	[pos="181.1,452.81 155.32,440.73 113.04,420.92 87.283,408.85"];
	17	[height=0.5,
		pos="277.15,414.62",
		width=0.75];
	16 -- 17	[pos="222.71,450.45 233.56,443.31 247.04,434.43 257.88,427.31"];
	5	[height=0.5,
		pos="407.51,127.05",
		width=0.75];
	4 -- 5	[pos="318.5,187.12 338.13,173.87 368.56,153.33 388.26,140.04"];
	31	[height=0.5,
		pos="298.64,121.05",
		width=0.75];
	4 -- 31	[pos="299.24,181.69 299.12,168.93 298.95,151.99 298.82,139.26"];
	23	[height=0.5,
		pos="27,252.02",
		width=0.75];
	20 -- 23	[pos="60.463,380.52 53.143,352.41 39.058,298.32 31.715,270.12"];
	21	[height=0.5,
		pos="178.17,363.29",
		width=0.75];
	20 -- 21	[pos="89.666,390.84 108.63,384.94 134.75,376.81 153.7,370.91"];
	6	[height=0.5,
		pos="497.12,217.17",
		width=0.75];
	5 -- 6	[pos="422.71,142.34 439.29,159.01 465.65,185.52 482.14,202.1"];
	40	[height=0.5,
		pos="395.29,37.09",
		width=0.75];
	5 -- 40	[pos="405.04,108.84 402.92,93.237 399.88,70.867 397.76,55.267"];
	26	[height=0.5,
		pos="36.37,115.03",
		width=0.75];
	23 -- 26	[pos="28.244,233.83 30.036,207.63 33.326,159.54 35.121,133.29"];
	23 -- 24	[pos="50.696,243.27 61.075,239.43 73.232,234.94 83.623,231.1"];
	7	[height=0.5,
		pos="565.5,294.69",
		width=0.75];
	6 -- 7	[pos="510.96,232.85 522.82,246.3 539.82,265.58 551.68,279.02"];
	32	[height=0.5,
		pos="419.56,171.08",
		width=0.75];
	6 -- 32	[pos="476.74,205.06 465.34,198.28 451.18,189.87 439.8,183.11"];
	28	[height=0.5,
		pos="126.22,18",
		width=0.75];
	26 -- 28	[pos="50.806,99.437 67.574,81.331 95.07,51.64 111.82,33.55"];
	27	[height=0.5,
		pos="124.49,96.351",
		width=0.75];
	26 -- 27	[pos="62.333,109.52 73.807,107.09 87.262,104.24 98.714,101.81"];
	8	[height=0.5,
		pos="534.35,405.38",
		width=0.75];
	7 -- 8	[pos="560.5,312.47 554.68,333.13 545.15,367 539.34,387.64"];
	42	[height=0.5,
		pos="585.94,187.99",
		width=0.75];
	7 -- 42	[pos="568.97,276.59 572.73,256.97 578.69,225.83 582.45,206.18"];
	30	[height=0.5,
		pos="186.53,80.187",
		width=0.75];
	28 -- 30	[pos="141.13,33.372 150.48,43.011 162.48,55.386 171.8,64.992"];
	29	[height=0.5,
		pos="238.32,18.512",
		width=0.75];
	28 -- 29	[pos="153.36,18.124 170.85,18.204 193.52,18.308 211.04,18.388"];
	9	[height=0.5,
		pos="522.48,512.35",
		width=0.75];
	8 -- 9	[pos="532.34,423.53 530.15,443.2 526.69,474.41 524.5,494.12"];
	8 -- 14	[pos="508.08,410.13 493.12,412.84 474.45,416.21 459.51,418.92"];
	35	[height=0.5,
		pos="67.368,172.38",
		width=0.75];
	30 -- 35	[pos="168.69,93.989 146.23,111.37 107.85,141.06 85.33,158.48"];
	30 -- 31	[pos="210.31,88.853 229.33,95.787 255.88,105.46 274.9,112.39"];
	12	[height=0.5,
		pos="409.26,557.55",
		width=0.75];
	9 -- 12	[pos="499.3,521.61 479.89,529.35 452.31,540.36 432.8,548.15"];
	36	[height=0.5,
		pos="47.283,310.36",
		width=0.75];
	35 -- 36	[pos="64.742,190.42 60.893,216.86 53.759,265.87 49.91,292.32"];
	11 -- 17	[pos="275.62,509.61 275.96,488.49 276.52,453.86 276.86,432.76"];
	11 -- 12	[pos="301.15,533.53 324.87,538.8 359.83,546.57 383.52,551.83"];
	17 -- 21	[pos="255.67,403.48 239.07,394.87 216.2,383.01 199.61,374.41"];
	18	[height=0.5,
		pos="381.09,336.89",
		width=0.75];
	17 -- 18	[pos="295.25,401.08 314.21,386.9 343.83,364.75 362.84,350.53"];
	21 -- 36	[pos="155.07,353.95 131.3,344.33 94.447,329.43 70.592,319.78"];
	22	[height=0.5,
		pos="240.23,322.66",
		width=0.75];
	21 -- 22	[pos="197.47,350.65 204.87,345.81 213.32,340.28 220.74,335.42"];
	15	[height=0.5,
		pos="417.97,482.07",
		width=0.75];
	12 -- 15	[pos="411.37,539.28 412.74,527.41 414.52,512.01 415.88,500.18"];
	36 -- 37	[pos="72.516,303.35 76.407,302.27 80.424,301.15 84.31,300.07"];
	14 -- 15	[pos="428.67,441.49 426.76,448.74 424.56,457.1 422.65,464.34"];
	14 -- 18	[pos="423.29,406.92 414.09,391.65 400.56,369.2 391.32,353.86"];
	19	[height=0.5,
		pos="342.16,383.96",
		width=0.75];
	15 -- 19	[pos="405.45,465.87 391.41,447.69 368.75,418.38 354.69,400.19"];
	38	[height=0.5,
		pos="166.73,164.14",
		width=0.75];
	37 -- 38	[pos="117.06,275.72 128.02,251.11 147.94,206.36 158.93,181.67"];
	24 -- 38	[pos="122.7,207.33 131.49,198.71 142.49,187.92 151.31,179.27"];
	25	[height=0.5,
		pos="173.89,214.15",
		width=0.75];
	24 -- 25	[pos="134.08,219.04 138.41,218.51 142.9,217.95 147.23,217.42"];
	18 -- 19	[pos="367.91,352.83 363.85,357.73 359.38,363.13 355.32,368.04"];
	33	[height=0.5,
		pos="411.1,228.44",
		width=0.75];
	18 -- 33	[pos="386.04,318.98 391.6,298.89 400.57,266.48 406.14,246.37"];
	19 -- 22	[pos="322.02,371.85 304.15,361.1 278.18,345.48 260.33,334.74"];
	39	[height=0.5,
		pos="271,64.429",
		width=0.75];
	38 -- 39	[pos="182.57,149 202.28,130.15 235.74,98.154 255.36,79.389"];
	31 -- 39	[pos="290.2,103.75 286.77,96.728 282.82,88.632 279.39,81.618"];
	31 -- 32	[pos="321.67,130.58 343.19,139.48 375.13,152.7 396.62,161.59"];
	22 -- 25	[pos="229.87,305.7 217.4,285.32 196.61,251.32 184.18,230.99"];
	39 -- 40	[pos="296.75,58.764 318.08,54.072 348.25,47.437 369.57,42.747"];
	25 -- 27	[pos="166.6,196.77 157.26,174.5 141.16,136.11 131.81,113.8"];
	41	[height=0.5,
		pos="500.59,95.367",
		width=0.75];
	40 -- 41	[pos="416.09,48.603 434.43,58.754 461.03,73.475 479.47,83.678"];
	32 -- 41	[pos="435.57,156.12 449.87,142.76 470.69,123.31 484.89,110.04"];
	32 -- 33	[pos="416.88,189.23 415.9,195.92 414.78,203.51 413.79,210.21"];
	27 -- 29	[pos="143.54,83.322 164.55,68.954 198.17,45.969 219.2,31.583"];
	41 -- 42	[pos="515.07,111.08 530.86,128.21 555.97,155.47 571.67,172.51"];
	34	[height=0.5,
		pos="361.48,81.094",
		width=0.75];
	29 -- 34	[pos="260.05,29.557 282.56,40.996 317.53,58.762 339.96,70.16"];
	43	[height=0.5,
		pos="521.05,158.9",
		width=0.75];
	42 -- 43	[pos="563.24,177.81 556.96,175 550.13,171.94 543.84,169.12"];
	33 -- 34	[pos="405.12,210.66 395.58,182.34 377.04,127.29 367.48,98.93"];
	33 -- 43	[pos="430.76,216.01 450.65,203.43 481.23,184.08 501.19,171.46"];
	44	[height=0.5,
		pos="480.13,31.421",
		width=0.75];
	34 -- 44	[pos="384.35,71.517 405.23,62.777 435.94,49.922 456.92,41.139"];
	43 -- 44	[pos="515.36,141.18 507.58,116.96 493.72,73.761 485.9,49.407"];
}
