graph {
	graph [bb="0,0,410.31,407.32",
		outputorder=edgesfirst,
		overlap=prism,
		size="50,50!",
		start=5332
	];
	node [label="\N"];
	1	[height=0.5,
		pos="239.37,270.47",
		width=0.75];
	2	[height=0.5,
		pos="318.33,146.48",
		width=0.75];
	1 -- 2	[pos="250.02,253.75 265.09,230.09 292.48,187.07 307.6,163.34"];
	5	[height=0.5,
		pos="171.28,139.55",
		width=0.75];
	1 -- 5	[pos="230.47,253.36 217.42,228.27 193.23,181.76 180.18,156.67"];
	3	[height=0.5,
		pos="265.01,102.48",
		width=0.75];
	1 -- 3	[pos="242.12,252.49 247.04,220.25 257.31,152.92 262.25,120.58"];
	4	[height=0.5,
		pos="162,207.46",
		width=0.75];
	1 -- 4	[pos="222.2,256.49 209.38,246.04 191.93,231.84 179.12,221.4"];
	8	[height=0.5,
		pos="321.45,389.32",
		width=0.75];
	1 -- 8	[pos="250.79,287 266.47,309.7 294.51,350.3 310.14,372.94"];
	2 -- 5	[pos="291.36,145.21 264.91,143.96 224.8,142.07 198.33,140.83"];
	2 -- 4	[pos="294.93,155.61 265.37,167.14 214.82,186.86 185.31,198.37"];
	7	[height=0.5,
		pos="383.31,18",
		width=0.75];
	2 -- 7	[pos="326.96,129.42 339.39,104.85 362.2,59.746 374.65,35.132"];
	6	[height=0.5,
		pos="27,157.18",
		width=0.75];
	5 -- 6	[pos="144.48,142.83 118.56,145.99 79.522,150.76 53.656,153.92"];
	3 -- 5	[pos="241.36,111.83 227.04,117.5 208.85,124.69 194.6,130.33"];
	3 -- 4	[pos="249.81,117.97 230.22,137.93 196.38,172.42 176.93,192.24"];
	3 -- 7	[pos="283.49,89.279 305.59,73.501 342.36,47.246 364.57,31.386"];
	4 -- 6	[pos="138.17,198.58 113.5,189.39 75.174,175.12 50.586,165.96"];
	0	[height=0.5,
		pos="304.23,245.37",
		width=0.75];
	0 -- 2	[pos="306.81,227.23 309.36,209.39 313.22,182.31 315.76,164.5"];
	0 -- 5	[pos="286.85,231.53 261.37,211.25 214.14,173.67 188.66,153.39"];
	0 -- 3	[pos="299.34,227.56 291.82,200.18 277.51,148.03 269.96,120.51"];
	0 -- 4	[pos="279.13,238.68 253.29,231.79 213.25,221.12 187.33,214.21"];
	0 -- 8	[pos="306.41,263.6 309.72,291.29 315.99,343.63 319.29,371.24"];
}
