graph {
	graph [bb="0,0,388.04,370.86",
		outputorder=edgesfirst,
		overlap=prism,
		size="50,50!",
		start=2740
	];
	node [label="\N"];
	1	[height=0.5,
		pos="247.42,85.97",
		width=0.75];
	2	[height=0.5,
		pos="158.48,107.38",
		width=0.75];
	1 -- 2	[pos="221.69,92.162 209.89,95.002 195.94,98.361 184.14,101.2"];
	5	[height=0.5,
		pos="202.77,234.38",
		width=0.75];
	1 -- 5	[pos="242.03,103.87 233.45,132.4 216.77,187.85 208.17,216.42"];
	3	[height=0.5,
		pos="139.28,167.47",
		width=0.75];
	1 -- 3	[pos="229.07,99.795 209.07,114.87 177.25,138.85 157.35,153.85"];
	4	[height=0.5,
		pos="264.77,219.93",
		width=0.75];
	1 -- 4	[pos="249.76,104.04 253.07,129.6 259.09,176.08 262.41,201.72"];
	8	[height=0.5,
		pos="361.04,18",
		width=0.75];
	1 -- 8	[pos="267.73,73.818 288.41,61.446 320.29,42.38 340.91,30.046"];
	2 -- 5	[pos="164.63,125.04 173.05,149.17 188.06,192.2 196.52,216.46"];
	2 -- 4	[pos="173.26,123.03 193.56,144.53 229.88,182.98 250.12,204.41"];
	7	[height=0.5,
		pos="27,94.93",
		width=0.75];
	2 -- 7	[pos="131.55,104.83 108.86,102.68 76.566,99.622 53.887,97.475"];
	6	[height=0.5,
		pos="262.3,352.86",
		width=0.75];
	5 -- 6	[pos="211.42,251.61 222.71,274.07 242.34,313.14 253.63,335.61"];
	3 -- 5	[pos="154,182.99 164.26,193.8 177.88,208.16 188.12,218.95"];
	3 -- 4	[pos="162.3,177.09 184.8,186.5 218.88,200.75 241.48,210.19"];
	3 -- 7	[pos="119.72,154.84 99.239,141.6 67.249,120.93 46.71,107.66"];
	4 -- 6	[pos="264.43,238.14 263.96,263.45 263.12,309.02 262.64,334.45"];
	0	[height=0.5,
		pos="291.34,131.67",
		width=0.75];
	0 -- 2	[pos="265.09,126.87 241.8,122.61 207.95,116.42 184.67,112.17"];
	0 -- 5	[pos="277.5,147.72 260.86,167.01 233.11,199.2 216.51,218.45"];
	0 -- 3	[pos="265.55,137.74 237.5,144.35 192.94,154.84 164.95,161.43"];
	0 -- 4	[pos="285.97,149.53 281.36,164.84 274.75,186.79 270.14,202.1"];
	0 -- 8	[pos="301.63,114.9 314.81,93.406 337.52,56.365 350.72,34.841"];
}
