graph {
	graph [bb="0,0,1256.6,887.39",
		outputorder=edgesfirst,
		overlap=prism,
		size="50,50!",
		start=2564
	];
	node [label="\N"];
	0	[height=0.5,
		pos="467.86,869.39",
		width=0.75];
	1	[height=0.5,
		pos="351.72,794.74",
		width=0.75];
	0 -- 1	[pos="448.42,856.9 426.99,843.12 392.69,821.07 371.23,807.28"];
	20	[height=0.5,
		pos="620.69,866.1",
		width=0.75];
	0 -- 20	[pos="495.19,868.8 523,868.21 565.87,867.28 593.6,866.68"];
	2	[height=0.5,
		pos="297.78,733.93",
		width=0.75];
	1 -- 2	[pos="337.83,779.08 329.84,770.07 319.83,758.78 311.81,749.75"];
	59	[height=0.5,
		pos="315.15,662.94",
		width=0.75];
	1 -- 59	[pos="346.79,776.96 339.81,751.81 327.12,706.08 320.12,680.85"];
	26	[height=0.5,
		pos="687.85,817.44",
		width=0.75];
	20 -- 26	[pos="639.04,852.8 648.52,845.94 660.05,837.58 669.52,830.72"];
	21	[height=0.5,
		pos="661.89,728.83",
		width=0.75];
	20 -- 21	[pos="625.99,848.43 633.86,822.22 648.55,773.28 656.48,746.86"];
	3	[height=0.5,
		pos="249.41,659.75",
		width=0.75];
	2 -- 3	[pos="286.81,717.1 278.83,704.87 268.1,688.41 260.18,676.26"];
	42	[height=0.5,
		pos="377.17,687.98",
		width=0.75];
	2 -- 42	[pos="318.23,722.1 329.99,715.29 344.72,706.76 356.52,699.93"];
	34	[height=0.5,
		pos="570.8,822.09",
		width=0.75];
	26 -- 34	[pos="660.7,818.52 641.79,819.27 616.68,820.27 597.8,821.02"];
	27	[height=0.5,
		pos="728.38,716.08",
		width=0.75];
	26 -- 27	[pos="694.91,799.79 702.35,781.18 713.99,752.06 721.4,733.53"];
	4	[height=0.5,
		pos="413.75,776.02",
		width=0.75];
	3 -- 4	[pos="267.94,672.86 299.5,695.19 363.34,740.36 395.03,762.78"];
	93	[height=0.5,
		pos="284.84,512.42",
		width=0.75];
	3 -- 93	[pos="253.75,641.69 260.56,613.41 273.64,559 280.46,530.63"];
	41	[height=0.5,
		pos="475.81,793.39",
		width=0.75];
	34 -- 41	[pos="545.84,814.55 531.88,810.33 514.53,805.09 500.6,800.88"];
	35	[height=0.5,
		pos="718.67,773.33",
		width=0.75];
	34 -- 35	[pos="595.22,814.04 622.61,805.01 666.8,790.44 694.21,781.4"];
	5	[height=0.5,
		pos="537.81,778.08",
		width=0.75];
	4 -- 5	[pos="440.97,776.47 461.66,776.82 489.98,777.29 510.65,777.63"];
	60	[height=0.5,
		pos="474.6,654.79",
		width=0.75];
	4 -- 60	[pos="422.34,758.91 433.87,735.94 454.25,695.34 465.86,672.21"];
	49	[height=0.5,
		pos="599.87,737.64",
		width=0.75];
	41 -- 49	[pos="498.27,783.29 520.62,773.25 554.72,757.93 577.15,747.85"];
	41 -- 42	[pos="461.25,777.84 442.5,757.79 410.09,723.16 391.47,703.26"];
	6	[height=0.5,
		pos="727.7,861.53",
		width=0.75];
	5 -- 6	[pos="560.71,788.15 597.31,804.23 668.55,835.54 705.01,851.56"];
	5 -- 27	[pos="562.33,770.1 598.92,758.2 667.41,735.91 703.95,724.02"];
	53	[height=0.5,
		pos="538.97,660.9",
		width=0.75];
	49 -- 53	[pos="586.95,721.36 576.55,708.25 562,689.92 551.66,676.89"];
	50	[height=0.5,
		pos="712.7,625.18",
		width=0.75];
	49 -- 50	[pos="615.09,722.47 636.62,701.01 675.77,661.99 697.37,640.47"];
	7	[height=0.5,
		pos="780.69,760.14",
		width=0.75];
	6 -- 7	[pos="736.69,844.33 746.43,825.69 761.9,796.1 771.66,777.42"];
	6 -- 21	[pos="719.1,844.18 706.48,818.75 683.11,771.61 670.49,746.18"];
	58	[height=0.5,
		pos="404.03,732.01",
		width=0.75];
	53 -- 58	[pos="517.59,672.17 492.32,685.48 450.53,707.5 425.31,720.8"];
	54	[height=0.5,
		pos="547.24,543.75",
		width=0.75];
	53 -- 54	[pos="540.24,642.85 541.79,620.9 544.4,584.06 545.95,562.01"];
	8	[height=0.5,
		pos="773.27,817.38",
		width=0.75];
	7 -- 8	[pos="778.35,778.25 777.48,784.93 776.5,792.5 775.63,799.19"];
	22	[height=0.5,
		pos="776.49,671.31",
		width=0.75];
	7 -- 22	[pos="779.82,741.73 779.1,726.39 778.07,704.64 777.34,689.39"];
	67	[height=0.5,
		pos="393.11,643.96",
		width=0.75];
	58 -- 67	[pos="401.77,713.77 399.89,698.66 397.24,677.29 395.37,662.18"];
	58 -- 59	[pos="386.04,718.03 370.52,705.97 348.23,688.65 332.81,676.66"];
	9	[height=0.5,
		pos="852.4,753.25",
		width=0.75];
	8 -- 9	[pos="790.44,803.46 803.62,792.78 821.75,778.09 834.99,767.36"];
	8 -- 35	[pos="755.99,803.44 749.62,798.3 742.4,792.48 736.02,787.33"];
	75	[height=0.5,
		pos="492.05,498.62",
		width=0.75];
	67 -- 75	[pos="404.46,627.29 423.54,599.26 461.83,543 480.83,515.1"];
	68	[height=0.5,
		pos="408.02,599.95",
		width=0.75];
	67 -- 68	[pos="399.09,626.32 400.06,623.45 401.07,620.47 402.04,617.6"];
	10	[height=0.5,
		pos="905.12,701.24",
		width=0.75];
	9 -- 10	[pos="867.65,738.2 874.58,731.36 882.77,723.29 889.72,716.43"];
	36	[height=0.5,
		pos="790.39,715.35",
		width=0.75];
	9 -- 36	[pos="832.44,741.05 825.36,736.72 817.39,731.85 810.31,727.53"];
	81	[height=0.5,
		pos="366.61,467.9",
		width=0.75];
	75 -- 81	[pos="466.66,492.4 444.9,487.07 413.71,479.43 391.96,474.11"];
	76	[height=0.5,
		pos="614.8,376.4",
		width=0.75];
	75 -- 76	[pos="507.1,483.63 530.66,460.18 575.99,415.04 599.62,391.51"];
	11	[height=0.5,
		pos="1001.5,613.89",
		width=0.75];
	10 -- 11	[pos="921.47,686.42 939.3,670.26 967.65,644.56 985.38,628.49"];
	37	[height=0.5,
		pos="838.58,627.6",
		width=0.75];
	10 -- 37	[pos="891.01,685.62 879.71,673.13 863.96,655.69 852.67,643.2"];
	86	[height=0.5,
		pos="179.41,516.15",
		width=0.75];
	81 -- 86	[pos="341.36,474.4 305.63,483.61 240.69,500.35 204.85,509.59"];
	82	[height=0.5,
		pos="408.69,367.7",
		width=0.75];
	81 -- 82	[pos="373.94,450.44 381.62,432.16 393.61,403.62 401.3,385.29"];
	12	[height=0.5,
		pos="900.7,656.71",
		width=0.75];
	11 -- 12	[pos="978.62,623.61 962.13,630.62 939.96,640.03 923.48,647.03"];
	38	[height=0.5,
		pos="853.86,539.56",
		width=0.75];
	11 -- 38	[pos="979.71,602.93 951.79,588.87 903.69,564.65 875.73,550.57"];
	91	[height=0.5,
		pos="151.07,439.73",
		width=0.75];
	86 -- 91	[pos="172.83,498.42 168.26,486.08 162.18,469.68 157.61,457.36"];
	87	[height=0.5,
		pos="292.74,600.68",
		width=0.75];
	86 -- 87	[pos="197.62,529.73 218.77,545.5 253.45,571.37 274.58,587.13"];
	13	[height=0.5,
		pos="939.22,609.19",
		width=0.75];
	12 -- 13	[pos="913.74,640.62 917.76,635.67 922.18,630.21 926.19,625.26"];
	23	[height=0.5,
		pos="840.04,583.58",
		width=0.75];
	12 -- 23	[pos="887.54,640.84 877.36,628.58 863.35,611.68 853.18,599.42"];
	97	[height=0.5,
		pos="113.68,351.65",
		width=0.75];
	91 -- 97	[pos="143.68,422.33 137.13,406.89 127.6,384.44 121.05,369.01"];
	92	[height=0.5,
		pos="275.13,424.28",
		width=0.75];
	91 -- 92	[pos="177.68,436.42 198.62,433.81 227.64,430.2 248.56,427.59"];
	14	[height=0.5,
		pos="913.08,477.01",
		width=0.75];
	13 -- 14	[pos="935.64,591.09 930.64,565.78 921.6,520.09 916.62,494.89"];
	28	[height=0.5,
		pos="756.1,576.35",
		width=0.75];
	13 -- 28	[pos="912.99,604.49 878.18,598.24 817.08,587.29 782.29,581.05"];
	100	[height=0.5,
		pos="126.91,294.43",
		width=0.75];
	97 -- 100	[pos="117.79,333.86 119.37,327.03 121.17,319.25 122.75,312.41"];
	98	[height=0.5,
		pos="266.18,378.81",
		width=0.75];
	97 -- 98	[pos="139.9,356.32 167.91,361.31 212.07,369.17 240.05,374.16"];
	15	[height=0.5,
		pos="1077.4,389.2",
		width=0.75];
	14 -- 15	[pos="934.22,465.71 965.69,448.9 1024.5,417.47 1056.1,400.6"];
	73	[height=0.5,
		pos="879.14,334.66",
		width=0.75];
	14 -- 73	[pos="908.78,458.98 902.25,431.6 889.91,379.84 883.4,352.54"];
	109	[height=0.5,
		pos="162.71,197.07",
		width=0.75];
	100 -- 109	[pos="133.47,276.57 139.93,259 149.74,232.34 156.19,214.81"];
	101	[height=0.5,
		pos="345.2,388.02",
		width=0.75];
	100 -- 101	[pos="149.85,304.27 191.78,322.24 280.29,360.19 322.24,378.18"];
	16	[height=0.5,
		pos="1071.5,342.19",
		width=0.75];
	15 -- 16	[pos="1075.1,371.16 1074.7,367.64 1074.2,363.95 1073.8,360.42"];
	29	[height=0.5,
		pos="851.06,439.56",
		width=0.75];
	15 -- 29	[pos="1051.4,394.98 1007.8,404.7 920.17,424.18 876.72,433.85"];
	114	[height=0.5,
		pos="100.69,223.57",
		width=0.75];
	109 -- 114	[pos="139.97,206.79 134.57,209.09 128.82,211.55 123.43,213.86"];
	110	[height=0.5,
		pos="309.39,266.63",
		width=0.75];
	109 -- 110	[pos="184.99,207.63 212.72,220.78 259.78,243.1 287.39,256.19"];
	17	[height=0.5,
		pos="1077.2,298.19",
		width=0.75];
	16 -- 17	[pos="1073.9,324.04 1074.2,321.49 1074.6,318.86 1074.9,316.3"];
	30	[height=0.5,
		pos="1003.2,333.1",
		width=0.75];
	16 -- 30	[pos="1044.9,338.65 1040,338 1034.8,337.31 1029.8,336.65"];
	118	[height=0.5,
		pos="64.866,307.58",
		width=0.75];
	114 -- 118	[pos="93.264,240.98 87.116,255.4 78.423,275.79 72.279,290.2"];
	115	[height=0.5,
		pos="188.96,265.75",
		width=0.75];
	114 -- 115	[pos="122.96,234.22 136.45,240.66 153.57,248.84 167,255.26"];
	18	[height=0.5,
		pos="1189,422.36",
		width=0.75];
	17 -- 18	[pos="1091.2,313.67 1112.6,337.46 1153.4,382.78 1174.9,406.69"];
	31	[height=0.5,
		pos="993.1,289.09",
		width=0.75];
	17 -- 31	[pos="1050.1,295.26 1040.4,294.21 1029.5,293.03 1019.8,291.98"];
	124	[height=0.5,
		pos="213.09,438.4",
		width=0.75];
	118 -- 124	[pos="81.295,322.08 109.79,347.23 168.04,398.65 196.59,423.84"];
	119	[height=0.5,
		pos="204.15,393.92",
		width=0.75];
	118 -- 119	[pos="84.822,319.95 111.3,336.36 157.77,365.17 184.23,381.57"];
	19	[height=0.5,
		pos="1229.6,470.72",
		width=0.75];
	18 -- 19	[pos="1202.3,438.19 1206.7,443.48 1211.7,449.38 1216.1,454.68"];
	24	[height=0.5,
		pos="1032.6,525.52",
		width=0.75];
	18 -- 24	[pos="1169.5,435.22 1139.4,455.09 1081.9,493.05 1051.9,512.83"];
	129	[height=0.5,
		pos="27,434.17",
		width=0.75];
	124 -- 129	[pos="186.03,437.79 150.75,436.99 89.388,435.59 54.091,434.79"];
	125	[height=0.5,
		pos="367.67,511.93",
		width=0.75];
	124 -- 125	[pos="235.24,448.94 264.62,462.92 316.2,487.45 345.57,501.42"];
	25	[height=0.5,
		pos="1139.6,526.02",
		width=0.75];
	19 -- 25	[pos="1209.6,482.99 1194.7,492.16 1174.4,504.62 1159.5,513.78"];
	130	[height=0.5,
		pos="103.9,395.66",
		width=0.75];
	129 -- 130	[pos="48.831,423.24 59.31,417.99 71.829,411.72 82.281,406.48"];
	21 -- 22	[pos="683.71,717.87 704.1,707.64 734.38,692.44 754.74,682.22"];
	44	[height=0.5,
		pos="606.36,664.58",
		width=0.75];
	21 -- 44	[pos="648.16,712.94 639.56,702.99 628.51,690.2 619.93,680.28"];
	22 -- 23	[pos="788.44,654.81 799.8,639.12 816.8,615.67 828.14,600.01"];
	22 -- 50	[pos="758.04,657.97 749.65,651.9 739.74,644.73 731.33,638.65"];
	59 -- 68	[pos="334.39,649.89 350.33,639.08 372.87,623.79 388.8,612.98"];
	59 -- 60	[pos="342.2,661.55 371.52,660.06 418.05,657.68 447.42,656.18"];
	68 -- 82	[pos="408.07,581.73 408.2,538.31 408.51,429.17 408.64,385.84"];
	69	[height=0.5,
		pos="470.3,609.5",
		width=0.75];
	68 -- 69	[pos="434.43,604 437.48,604.47 440.59,604.94 443.65,605.41"];
	82 -- 92	[pos="385.73,377.42 361.27,387.79 322.76,404.11 298.24,414.49"];
	83	[height=0.5,
		pos="609.29,281.71",
		width=0.75];
	82 -- 83	[pos="431.7,357.83 470.4,341.25 548.03,307.97 586.55,291.46"];
	23 -- 24	[pos="864.83,576.11 901.8,564.96 971.02,544.1 1007.9,532.97"];
	104	[height=0.5,
		pos="773.43,423.37",
		width=0.75];
	23 -- 104	[pos="832.79,566.13 819.97,535.31 793.48,471.6 780.68,440.8"];
	92 -- 101	[pos="296.54,413.21 305.07,408.79 314.88,403.72 323.45,399.28"];
	92 -- 93	[pos="277.15,442.55 278.81,457.67 281.17,479.06 282.83,494.18"];
	101 -- 115	[pos="327.59,374.24 297.58,350.75 236.88,303.25 206.76,279.68"];
	102	[height=0.5,
		pos="517.73,454.59",
		width=0.75];
	101 -- 102	[pos="368.83,397.14 401.78,409.85 461.17,432.77 494.12,445.48"];
	115 -- 130	[pos="178.02,282.47 161.68,307.41 131.11,354.1 114.8,379"];
	116	[height=0.5,
		pos="224.73,154.95",
		width=0.75];
	115 -- 116	[pos="194.71,247.95 201.38,227.27 212.33,193.37 219,172.71"];
	24 -- 25	[pos="1059.9,525.65 1076,525.73 1096.3,525.82 1112.4,525.89"];
	32	[height=0.5,
		pos="1015.4,392.43",
		width=0.75];
	24 -- 32	[pos="1030.3,507.57 1027,482.17 1021,436 1017.7,410.52"];
	33	[height=0.5,
		pos="1127,449.17",
		width=0.75];
	25 -- 33	[pos="1136.6,507.81 1134.6,495.56 1131.9,479.48 1129.9,467.26"];
	131	[height=0.5,
		pos="117.12,524.52",
		width=0.75];
	130 -- 131	[pos="105.77,413.85 108.29,438.41 112.75,481.91 115.26,506.43"];
	42 -- 87	[pos="362.47,672.77 347.06,656.85 323.01,631.97 307.56,616"];
	43	[height=0.5,
		pos="470.13,706.57",
		width=0.75];
	42 -- 43	[pos="403.07,693.16 415.85,695.72 431.24,698.79 444.05,701.35"];
	27 -- 28	[pos="731.95,698.1 737.27,671.27 747.23,621.05 752.55,594.26"];
	27 -- 43	[pos="701.23,715.08 651.63,713.25 546.92,709.4 497.3,707.57"];
	87 -- 131	[pos="269.78,590.72 236.03,576.08 173.4,548.93 139.81,534.36"];
	88	[height=0.5,
		pos="428.9,449.05",
		width=0.75];
	87 -- 88	[pos="306.8,585.02 332.89,555.96 388.53,494.01 414.71,464.84"];
	28 -- 29	[pos="767.56,559.85 785.81,533.56 821.29,482.45 839.56,456.12"];
	55	[height=0.5,
		pos="671.96,496.92",
		width=0.75];
	28 -- 55	[pos="740.28,561.41 725.23,547.21 702.74,525.97 687.72,511.79"];
	29 -- 30	[pos="869.71,426.51 898.91,406.08 955.09,366.76 984.38,346.26"];
	63	[height=0.5,
		pos="752.08,379.34",
		width=0.75];
	29 -- 63	[pos="831.03,427.38 813.86,416.93 789.25,401.95 772.08,391.51"];
	30 -- 31	[pos="999.08,315.2 998.47,312.54 997.84,309.79 997.23,307.12"];
	39	[height=0.5,
		pos="941.16,376.15",
		width=0.75];
	30 -- 39	[pos="984.24,346.25 976.54,351.6 967.67,357.75 959.99,363.08"];
	31 -- 32	[pos="996.98,307.09 1001,325.94 1007.4,355.38 1011.5,374.29"];
	65	[height=0.5,
		pos="869.02,240.17",
		width=0.75];
	31 -- 65	[pos="969.76,279.89 947.72,271.2 914.82,258.23 892.68,249.5"];
	32 -- 33	[pos="1036.9,403.37 1056.5,413.35 1085.4,428.04 1105.1,438.07"];
	51	[height=0.5,
		pos="810.98,484.29",
		width=0.75];
	32 -- 51	[pos="992.72,402.61 953.32,420.31 872.67,456.56 833.42,474.2"];
	40	[height=0.5,
		pos="1064.9,449.94",
		width=0.75];
	33 -- 40	[pos="1099.9,449.51 1097.3,449.54 1094.7,449.57 1092.1,449.6"];
	132	[height=0.5,
		pos="89.027,478.1",
		width=0.75];
	131 -- 132	[pos="106.98,507.76 104.46,503.61 101.77,499.16 99.249,494.99"];
	35 -- 36	[pos="736.03,759.3 747.31,750.18 761.94,738.35 773.19,729.26"];
	45	[height=0.5,
		pos="698.81,670.21",
		width=0.75];
	35 -- 45	[pos="715.21,755.37 711.59,736.56 705.93,707.18 702.3,688.31"];
	36 -- 37	[pos="799.68,698.43 808.16,682.99 820.63,660.28 829.15,644.77"];
	46	[height=0.5,
		pos="650.66,620.55",
		width=0.75];
	36 -- 46	[pos="771.25,702.37 744.64,684.31 696.73,651.81 670.01,633.68"];
	37 -- 38	[pos="841.74,609.36 844.38,594.15 848.12,572.6 850.75,557.48"];
	72	[height=0.5,
		pos="734,467.38",
		width=0.75];
	37 -- 72	[pos="827.78,611.06 807.74,580.36 765.01,514.89 744.9,484.07"];
	38 -- 39	[pos="863.03,522.38 879.76,491.08 915.01,425.09 931.84,393.59"];
	47	[height=0.5,
		pos="748.94,516.95",
		width=0.75];
	38 -- 47	[pos="827.92,533.97 811.78,530.49 791.09,526.03 774.94,522.55"];
	93 -- 98	[pos="282.33,494.4 278.77,468.9 272.29,422.55 268.72,396.97"];
	94	[height=0.5,
		pos="363.45,555.95",
		width=0.75];
	93 -- 94	[pos="305.91,524.08 317.28,530.38 331.26,538.12 342.6,544.4"];
	98 -- 119	[pos="240.59,385.04 236.99,385.92 233.28,386.82 229.68,387.7"];
	99	[height=0.5,
		pos="224.76,217.68",
		width=0.75];
	98 -- 99	[pos="261.59,360.95 253.63,329.98 237.35,266.64 229.37,235.62"];
	39 -- 40	[pos="961.32,388.17 984.34,401.89 1021.8,424.21 1044.8,437.92"];
	64	[height=0.5,
		pos="812.4,320.55",
		width=0.75];
	39 -- 64	[pos="918.43,366.34 895.04,356.24 858.79,340.59 835.33,330.45"];
	119 -- 132	[pos="185.91,407.26 164.48,422.93 129.12,448.79 107.56,464.55"];
	120	[height=0.5,
		pos="328.24,343.64",
		width=0.75];
	119 -- 120	[pos="227.49,384.46 249.68,375.47 282.85,362.03 305.01,353.05"];
	48	[height=0.5,
		pos="915.87,521.03",
		width=0.75];
	40 -- 48	[pos="1042.9,460.43 1014.8,473.87 966.18,497.04 937.96,510.5"];
	133	[height=0.5,
		pos="196.78,601.1",
		width=0.75];
	132 -- 133	[pos="102.67,493.68 123.29,517.21 162.15,561.58 182.9,585.26"];
	43 -- 44	[pos="494.8,698.96 519.33,691.4 556.78,679.86 581.41,672.27"];
	43 -- 69	[pos="470.16,688.31 470.19,670.96 470.23,645 470.27,627.67"];
	44 -- 45	[pos="633.6,666.24 645.64,666.97 659.75,667.83 671.77,668.56"];
	44 -- 54	[pos="597.89,647.26 586.65,624.29 566.93,583.98 555.7,561.03"];
	60 -- 94	[pos="458.2,640.21 437.19,621.52 400.97,589.31 379.92,570.59"];
	61	[height=0.5,
		pos="609.28,576.19",
		width=0.75];
	60 -- 61	[pos="495.06,642.86 520.37,628.08 563.23,603.07 588.64,588.24"];
	45 -- 46	[pos="684.1,655.04 678.24,648.99 671.49,642.04 665.61,635.97"];
	70	[height=0.5,
		pos="532.96,606.38",
		width=0.75];
	45 -- 70	[pos="675.4,661.2 643.88,649.07 588.11,627.61 556.52,615.45"];
	46 -- 47	[pos="665.16,605.26 683.74,585.67 715.77,551.91 734.38,532.3"];
	71	[height=0.5,
		pos="609.63,505.44",
		width=0.75];
	46 -- 71	[pos="644.25,602.56 636.54,580.94 623.68,544.86 616,523.3"];
	47 -- 48	[pos="776.13,517.61 807.18,518.37 857.66,519.61 888.69,520.37"];
	103	[height=0.5,
		pos="599.98,426.09",
		width=0.75];
	47 -- 103	[pos="728.85,504.69 700.42,487.35 648.74,455.83 620.23,438.44"];
	94 -- 133	[pos="338.14,562.8 306.72,571.32 253.46,585.74 222.05,594.25"];
	95	[height=0.5,
		pos="474.65,405.02",
		width=0.75];
	94 -- 95	[pos="375.56,539.51 396.95,510.48 441.18,450.46 462.56,421.44"];
	52	[height=0.5,
		pos="953.32,432.99",
		width=0.75];
	48 -- 52	[pos="923.27,503.64 929.84,488.2 939.38,465.77 945.94,450.35"];
	134	[height=0.5,
		pos="241.5,556.64",
		width=0.75];
	133 -- 134	[pos="211.92,586.05 216.58,581.41 221.71,576.31 226.37,571.68"];
	50 -- 51	[pos="724.17,608.74 743.11,581.59 780.7,527.7 799.59,500.62"];
	50 -- 61	[pos="690.52,614.67 673.07,606.41 648.87,594.95 631.43,586.68"];
	69 -- 125	[pos="454.71,594.68 435.42,576.34 402.76,545.29 383.41,526.89"];
	69 -- 70	[pos="497.23,608.16 500.02,608.02 502.85,607.88 505.64,607.74"];
	51 -- 52	[pos="834.8,475.7 861.08,466.23 903.11,451.09 929.42,441.61"];
	56	[height=0.5,
		pos="817.08,364.62",
		width=0.75];
	51 -- 56	[pos="811.9,466.11 813.05,443.62 814.99,405.53 816.14,382.96"];
	125 -- 134	[pos="343.64,520.45 321.19,528.4 287.86,540.21 265.44,548.16"];
	126	[height=0.5,
		pos="495.52,351.25",
		width=0.75];
	125 -- 126	[pos="380.4,495.94 404.9,465.14 458.38,397.93 482.85,367.18"];
	57	[height=0.5,
		pos="931.06,281.25",
		width=0.75];
	52 -- 57	[pos="950.68,414.99 946.4,385.79 937.98,328.42 933.7,299.23"];
	135	[height=0.5,
		pos="304.53,468.29",
		width=0.75];
	134 -- 135	[pos="253.35,540.02 264.62,524.23 281.47,500.6 292.72,484.83"];
	54 -- 88	[pos="529.78,529.77 507.41,511.87 468.84,481.01 446.43,463.08"];
	54 -- 55	[pos="571,534.83 593.19,526.5 626.14,514.13 648.3,505.8"];
	88 -- 120	[pos="414.05,433.49 394.91,413.45 361.84,378.82 342.83,358.91"];
	89	[height=0.5,
		pos="492.8,263.01",
		width=0.75];
	88 -- 89	[pos="435.02,431.21 447.24,395.65 474.49,316.31 486.69,280.79"];
	55 -- 56	[pos="688.05,482.25 715.94,456.82 772.98,404.82 800.92,379.35"];
	62	[height=0.5,
		pos="662.02,439.47",
		width=0.75];
	55 -- 62	[pos="668.82,478.74 667.66,472.04 666.34,464.44 665.18,457.73"];
	120 -- 135	[pos="324.84,361.5 320.36,385.06 312.51,426.31 307.99,450.06"];
	121	[height=0.5,
		pos="286.77,178.58",
		width=0.75];
	120 -- 121	[pos="323.72,325.66 315.75,293.91 299.26,228.27 291.28,196.54"];
	56 -- 57	[pos="835.39,351.22 856.66,335.67 891.54,310.15 912.8,294.61"];
	107	[height=0.5,
		pos="681.85,190.48",
		width=0.75];
	56 -- 107	[pos="804.6,348.55 778.84,315.37 720.04,239.66 694.3,206.52"];
	66	[height=0.5,
		pos="945.1,219.4",
		width=0.75];
	57 -- 66	[pos="935.12,263.36 936.97,255.23 939.15,245.62 941,237.46"];
	136	[height=0.5,
		pos="429.79,538.44",
		width=0.75];
	135 -- 136	[pos="325.21,479.87 348.42,492.87 385.86,513.83 409.08,526.84"];
	61 -- 62	[pos="616.07,558.6 626.19,532.35 645.15,483.21 655.26,457"];
	61 -- 136	[pos="583.18,570.7 549.06,563.52 489.63,551.02 455.63,543.87"];
	62 -- 63	[pos="681.12,426.72 696.3,416.58 717.45,402.47 732.7,392.28"];
	105	[height=0.5,
		pos="732.49,335.31",
		width=0.75];
	62 -- 105	[pos="673.34,422.74 686.49,403.3 708.06,371.42 721.2,352"];
	63 -- 64	[pos="767.62,364.2 776.69,355.36 788.1,344.24 797.13,335.44"];
	78	[height=0.5,
		pos="748.23,223.94",
		width=0.75];
	63 -- 78	[pos="751.63,361.21 750.89,331.27 749.41,271.83 748.67,241.96"];
	64 -- 65	[pos="824.13,303.9 833.91,290.01 847.77,270.33 857.5,256.53"];
	64 -- 83	[pos="786.26,315.55 747.26,308.1 674.27,294.14 635.33,286.69"];
	65 -- 66	[pos="894.35,233.25 902.57,231.01 911.67,228.53 919.88,226.29"];
	79	[height=0.5,
		pos="805.92,150.51",
		width=0.75];
	65 -- 79	[pos="857.45,223.72 846.06,207.55 828.78,182.99 817.42,166.85"];
	74	[height=0.5,
		pos="883.04,196.14",
		width=0.75];
	66 -- 74	[pos="921.28,210.47 916.5,208.68 911.47,206.8 906.69,205"];
	137	[height=0.5,
		pos="537.96,395.28",
		width=0.75];
	136 -- 137	[pos="441.99,522.29 462.77,494.8 504.79,439.19 525.65,411.58"];
	70 -- 71	[pos="545.28,590.16 559.58,571.33 583.05,540.43 597.34,521.61"];
	70 -- 102	[pos="531.15,588.38 528.22,559.16 522.47,501.78 519.54,472.58"];
	71 -- 72	[pos="634.2,497.92 655.86,491.29 687.28,481.68 709.05,475.01"];
	71 -- 95	[pos="591.43,491.89 565.67,472.73 518.84,437.89 493,418.67"];
	72 -- 73	[pos="750.09,452.67 777.99,427.16 835.03,374.99 862.98,349.44"];
	72 -- 76	[pos="716.16,453.76 693.68,436.61 655.3,407.31 632.77,390.11"];
	73 -- 74	[pos="879.65,316.55 880.39,290 881.78,240.8 882.53,214.25"];
	77	[height=0.5,
		pos="744.97,289.03",
		width=0.75];
	73 -- 77	[pos="854.84,326.4 830.52,318.13 793.34,305.48 769.08,297.23"];
	102 -- 137	[pos="523.8,436.8 526.36,429.29 529.34,420.57 531.9,413.06"];
	102 -- 103	[pos="541.97,446.19 552.67,442.48 565.23,438.13 575.92,434.43"];
	80	[height=0.5,
		pos="809.3,106.24",
		width=0.75];
	74 -- 80	[pos="869.85,180.07 856.43,163.7 835.75,138.49 822.37,122.17"];
	138	[height=0.5,
		pos="433.47,309.85",
		width=0.75];
	137 -- 138	[pos="520.71,381.17 501.35,365.34 470.12,339.81 450.75,323.98"];
	76 -- 77	[pos="634.01,363.51 658.62,346.99 701.03,318.52 725.68,301.97"];
	139	[height=0.5,
		pos="547.25,307.04",
		width=0.75];
	76 -- 139	[pos="599.81,361.01 588.61,349.51 573.38,333.87 562.2,322.39"];
	95 -- 110	[pos="457.59,390.73 425.92,364.21 358.39,307.67 326.61,281.05"];
	96	[height=0.5,
		pos="371.45,299.6",
		width=0.75];
	95 -- 96	[pos="459.87,389.92 440.25,369.88 405.82,334.7 386.21,314.67"];
	77 -- 78	[pos="745.87,270.9 746.33,261.87 746.87,250.99 747.32,241.98"];
	106	[height=0.5,
		pos="684.84,244.95",
		width=0.75];
	77 -- 106	[pos="726.6,275.56 719.14,270.1 710.54,263.79 703.09,258.33"];
	78 -- 79	[pos="761.03,207.65 770.59,195.48 783.6,178.92 793.16,166.76"];
	112	[height=0.5,
		pos="533.4,174.86",
		width=0.75];
	78 -- 112	[pos="722.31,218.02 680.91,208.56 600.32,190.15 559.07,180.73"];
	110 -- 138	[pos="333.61,275.07 355.47,282.68 387.47,293.83 409.31,301.43"];
	111	[height=0.5,
		pos="554.86,219.65",
		width=0.75];
	110 -- 111	[pos="335.66,261.6 382.91,252.56 481.67,233.66 528.78,224.64"];
	79 -- 80	[pos="807.3,132.5 807.5,129.82 807.71,127.06 807.92,124.37"];
	84	[height=0.5,
		pos="619.8,210.89",
		width=0.75];
	79 -- 84	[pos="781.59,158.4 745.92,169.98 679.81,191.42 644.14,203"];
	85	[height=0.5,
		pos="680.92,125.48",
		width=0.75];
	80 -- 85	[pos="782.7,110.23 760.66,113.53 729.51,118.2 707.48,121.5"];
	138 -- 139	[pos="460.72,309.18 478.73,308.73 502.25,308.15 520.21,307.71"];
	83 -- 84	[pos="612,263.47 613.58,252.82 615.57,239.43 617.14,228.82"];
	122	[height=0.5,
		pos="391.92,178.09",
		width=0.75];
	83 -- 122	[pos="587.25,271.21 545.59,251.34 455.72,208.5 414.01,188.62"];
	84 -- 85	[pos="631.59,194.43 642.41,179.3 658.36,157.01 669.17,141.9"];
	84 -- 89	[pos="596.8,220.33 573.93,229.72 539.02,244.04 516.06,253.46"];
	90	[height=0.5,
		pos="491.74,218.93",
		width=0.75];
	85 -- 90	[pos="659.22,136.2 622.82,154.18 549.9,190.2 513.48,208.19"];
	140	[height=0.5,
		pos="671.33,291.26",
		width=0.75];
	139 -- 140	[pos="573.86,303.66 594.8,300.99 623.83,297.3 644.75,294.64"];
	103 -- 126	[pos="581.3,412.71 562.29,399.09 532.99,378.09 514.03,364.51"];
	103 -- 104	[pos="627.08,425.66 659.57,425.15 713.7,424.3 746.23,423.79"];
	89 -- 90	[pos="492.36,244.82 492.3,242.26 492.24,239.63 492.17,237.07"];
	146	[height=0.5,
		pos="553.02,127.98",
		width=0.75];
	89 -- 146	[pos="500.55,245.63 512.11,219.7 533.76,171.17 545.3,145.29"];
	126 -- 140	[pos="519.6,343.03 553.17,331.58 613.69,310.93 647.26,299.48"];
	127	[height=0.5,
		pos="344.23,222.6",
		width=0.75];
	126 -- 127	[pos="478.75,336.99 449.67,312.26 390.2,261.7 361.07,236.92"];
	90 -- 96	[pos="472.68,231.71 450.29,246.73 413.34,271.5 390.82,286.61"];
	141	[height=0.5,
		pos="806.99,276.52",
		width=0.75];
	140 -- 141	[pos="698.13,288.35 721.91,285.77 756.47,282.01 780.24,279.43"];
	104 -- 141	[pos="777.55,405.36 783.99,377.18 796.38,322.95 802.84,294.68"];
	104 -- 105	[pos="765.34,405.97 758.17,390.53 747.74,368.1 740.57,352.67"];
	96 -- 99	[pos="350.75,288.03 322.95,272.51 273.83,245.08 245.84,229.45"];
	142	[height=0.5,
		pos="743.86,164.3",
		width=0.75];
	141 -- 142	[pos="797.4,259.48 785.53,238.38 765.44,202.67 753.54,181.5"];
	105 -- 142	[pos="733.71,317.01 735.9,284.09 740.47,215.29 742.65,182.47"];
	105 -- 106	[pos="723.53,318.31 715.07,302.26 702.43,278.3 693.93,262.17"];
	108	[height=0.5,
		pos="470.36,174.32",
		width=0.75];
	99 -- 108	[pos="251.05,213.04 298.19,204.71 396.61,187.34 443.89,178.99"];
	143	[height=0.5,
		pos="615.07,109.06",
		width=0.75];
	142 -- 143	[pos="721.13,154.55 697.74,144.51 661.48,128.96 638.01,118.89"];
	106 -- 111	[pos="658.85,239.89 636.18,235.48 603.46,229.11 580.8,224.7"];
	106 -- 107	[pos="683.85,226.81 683.53,220.99 683.17,214.55 682.85,208.73"];
	111 -- 143	[pos="564.27,202.37 575.58,181.59 594.45,146.94 605.73,126.22"];
	111 -- 112	[pos="546.62,202.46 545.02,199.11 543.33,195.59 541.72,192.23"];
	107 -- 108	[pos="654.64,188.4 614.03,185.3 538.02,179.49 497.47,176.39"];
	147	[height=0.5,
		pos="679.91,80.126",
		width=0.75];
	107 -- 147	[pos="681.53,172.26 681.17,151.81 680.59,118.84 680.23,98.376"];
	113	[height=0.5,
		pos="458.6,86.156",
		width=0.75];
	108 -- 113	[pos="467.92,156.05 465.89,140.82 463.01,119.24 460.99,104.1"];
	144	[height=0.5,
		pos="415.36,130.23",
		width=0.75];
	143 -- 144	[pos="588.14,111.91 549.92,115.96 480.35,123.34 442.18,127.38"];
	112 -- 116	[pos="506.28,173.11 447.73,169.34 310.08,160.46 251.68,156.69"];
	112 -- 113	[pos="520.03,159 506.41,142.86 485.43,117.97 471.85,101.88"];
	116 -- 121	[pos="248.19,163.89 253.13,165.77 258.34,167.75 263.28,169.64"];
	117	[height=0.5,
		pos="234.56,81.96",
		width=0.75];
	116 -- 117	[pos="227.16,136.91 228.67,125.68 230.61,111.29 232.12,100.05"];
	121 -- 127	[pos="304.64,192.27 311.49,197.52 319.31,203.51 326.18,208.77"];
	121 -- 122	[pos="313.85,178.46 329.43,178.38 348.94,178.29 364.56,178.22"];
	127 -- 144	[pos="356.62,206.51 369.59,189.66 389.86,163.34 402.87,146.44"];
	128	[height=0.5,
		pos="421.35,42.044",
		width=0.75];
	127 -- 128	[pos="351.62,205.29 366.33,170.86 399.09,94.167 413.87,59.57"];
	113 -- 117	[pos="431.57,85.65 388.51,84.844 304.8,83.276 261.68,82.468"];
	145	[height=0.5,
		pos="522.91,77.884",
		width=0.75];
	144 -- 145	[pos="437.38,119.51 455.94,110.48 482.36,97.617 500.91,88.588"];
	122 -- 145	[pos="409.86,164.36 434.8,145.28 479.71,110.93 504.77,91.763"];
	123	[height=0.5,
		pos="319.65,76.816",
		width=0.75];
	122 -- 123	[pos="380.31,161.82 366.9,143.03 344.97,112.29 331.47,93.383"];
	117 -- 123	[pos="261.48,80.332 271.42,79.732 282.67,79.052 292.61,78.451"];
	145 -- 146	[pos="533.11,94.843 536.25,100.07 539.7,105.81 542.84,111.04"];
	123 -- 128	[pos="343.75,68.576 359.85,63.073 380.94,55.862 397.07,50.346"];
	146 -- 147	[pos="576.59,119.09 599.24,110.55 633.29,97.708 656.04,89.129"];
	148	[height=0.5,
		pos="587.17,18",
		width=0.75];
	128 -- 148	[pos="447.99,38.181 478.94,33.694 529.68,26.336 560.6,21.854"];
	147 -- 148	[pos="660.7,67.253 644.78,56.591 622.27,41.514 606.36,30.856"];
}
