graph {
	graph [bb="0,0,1850.2,1462.3",
		outputorder=edgesfirst,
		overlap=prism,
		size="50,50!",
		start=8001
	];
	node [label="\N"];
	0	[height=0.5,
		pos="1119.7,647.23",
		width=0.75];
	20	[height=0.5,
		pos="1370.7,422.85",
		width=0.75];
	0 -- 20	[pos="1136.2,632.51 1181.8,591.76 1309.2,477.8 1354.5,437.33"];
	23	[height=0.5,
		pos="1180.1,348.58",
		width=0.75];
	0 -- 23	[pos="1123.4,629 1134.2,575.56 1165.7,419.71 1176.4,366.57"];
	27	[height=0.5,
		pos="1308.7,400.03",
		width=0.75];
	0 -- 27	[pos="1132.1,631.01 1166.4,586.22 1262,461.17 1296.2,416.31"];
	30	[height=0.5,
		pos="937.74,820.58",
		width=0.75];
	0 -- 30	[pos="1104.2,662.01 1069.9,694.68 987.98,772.73 953.48,805.59"];
	31	[height=0.5,
		pos="1472.9,771.9",
		width=0.75];
	0 -- 31	[pos="1143.7,655.7 1208.2,678.45 1384.4,740.66 1448.8,763.41"];
	6	[height=0.5,
		pos="1250.5,562.18",
		width=0.75];
	0 -- 6	[pos="1139.3,634.5 1164,618.47 1206.1,591.08 1230.8,575"];
	33	[height=0.5,
		pos="990.49,395.18",
		width=0.75];
	0 -- 33	[pos="1110.9,629.91 1087.2,583.75 1022.8,458.2 999.27,412.29"];
	36	[height=0.5,
		pos="834.39,518.72",
		width=0.75];
	0 -- 36	[pos="1097.4,637.15 1044.1,613.18 910.58,553.03 857.08,528.94"];
	37	[height=0.5,
		pos="1102.2,925.89",
		width=0.75];
	0 -- 37	[pos="1118.6,665.52 1115.4,716.13 1106.5,857.64 1103.4,907.9"];
	38	[height=0.5,
		pos="1252.8,962.31",
		width=0.75];
	0 -- 38	[pos="1127.1,664.62 1150.3,719.71 1222.2,889.96 1245.5,944.98"];
	39	[height=0.5,
		pos="906.41,864.59",
		width=0.75];
	0 -- 39	[pos="1104.7,662.52 1065.6,702.43 960.54,809.44 921.39,849.33"];
	40	[height=0.5,
		pos="1250.5,474.13",
		width=0.75];
	0 -- 40	[pos="1132,630.95 1157,597.96 1213.2,523.56 1238.1,490.5"];
	41	[height=0.5,
		pos="1308.7,655.23",
		width=0.75];
	0 -- 41	[pos="1146.8,648.38 1182.7,649.9 1245.8,652.57 1281.6,654.09"];
	43	[height=0.5,
		pos="1449.1,642.92",
		width=0.75];
	0 -- 43	[pos="1147,646.88 1208.9,646.07 1359.9,644.09 1421.9,643.28"];
	45	[height=0.5,
		pos="1142,392.6",
		width=0.75];
	0 -- 45	[pos="1121.3,628.92 1125.4,581.94 1136.3,457.54 1140.4,410.74"];
	47	[height=0.5,
		pos="1074.2,497.93",
		width=0.75];
	0 -- 47	[pos="1114.3,629.52 1105.6,600.79 1088.4,544.34 1079.6,515.62"];
	17	[height=0.5,
		pos="1059.7,736.13",
		width=0.75];
	0 -- 17	[pos="1108.5,663.95 1097.7,679.85 1081.7,703.62 1071,719.49"];
	48	[height=0.5,
		pos="1506.8,816.55",
		width=0.75];
	0 -- 48	[pos="1142.5,657.19 1211.1,687.18 1415,776.38 1483.8,806.49"];
	51	[height=0.5,
		pos="1008.3,527.38",
		width=0.75];
	0 -- 51	[pos="1105.2,631.56 1083.8,608.59 1044.2,566.02 1022.9,543.05"];
	21	[height=0.5,
		pos="1312.3,181.74",
		width=0.75];
	20 -- 21	[pos="1366.3,404.73 1355.5,359.94 1327.5,244.41 1316.7,199.75"];
	24	[height=0.5,
		pos="970.96,75.862",
		width=0.75];
	23 -- 24	[pos="1167.6,332.34 1130.4,283.83 1020.5,140.41 983.35,92.02"];
	28	[height=0.5,
		pos="1108.3,134.55",
		width=0.75];
	27 -- 28	[pos="1296.5,383.82 1260.7,336.43 1156.5,198.44 1120.6,150.89"];
	32	[height=0.5,
		pos="1614.7,824.74",
		width=0.75];
	31 -- 32	[pos="1496.6,780.74 1522.8,790.5 1564.7,806.1 1590.9,815.87"];
	6 -- 17	[pos="1234.6,576.71 1198.7,609.46 1111.8,688.7 1075.8,721.52"];
	55	[height=0.5,
		pos="1138.5,509.34",
		width=0.75];
	6 -- 55	[pos="1228.4,551.74 1208.7,542.48 1180.2,529.01 1160.6,519.76"];
	12	[height=0.5,
		pos="1078.8,553.35",
		width=0.75];
	6 -- 12	[pos="1223.3,560.78 1191.2,559.13 1138,556.39 1105.9,554.74"];
	87	[height=0.5,
		pos="946.59,571.45",
		width=0.75];
	6 -- 87	[pos="1223.5,563 1166,564.76 1031.8,568.85 973.94,570.61"];
	188	[height=0.5,
		pos="1380.7,661.87",
		width=0.75];
	6 -- 188	[pos="1268.3,575.83 1293.1,594.82 1337.7,629 1362.6,648.06"];
	14	[height=0.5,
		pos="1315.5,555.48",
		width=0.75];
	6 -- 14	[pos="1277.3,559.42 1281.1,559.03 1285,558.63 1288.7,558.24"];
	219	[height=0.5,
		pos="1481.7,689.62",
		width=0.75];
	6 -- 219	[pos="1271.4,573.71 1315.4,597.92 1416.7,653.76 1460.7,678.02"];
	222	[height=0.5,
		pos="1369.5,334.78",
		width=0.75];
	6 -- 222	[pos="1259.5,545.09 1281.5,502.94 1338.3,394.42 1360.5,352.07"];
	225	[height=0.5,
		pos="1562.5,608.1",
		width=0.75];
	6 -- 225	[pos="1277.1,566.1 1336.1,574.77 1477.1,595.53 1536,604.19"];
	229	[height=0.5,
		pos="1534.9,750.8",
		width=0.75];
	6 -- 229	[pos="1270.1,575.14 1322.1,609.69 1463.8,703.63 1515.6,737.99"];
	232	[height=0.5,
		pos="1348.8,794",
		width=0.75];
	6 -- 232	[pos="1257.9,579.6 1276.1,622.57 1323,733.2 1341.3,776.37"];
	234	[height=0.5,
		pos="1382.7,466.87",
		width=0.75];
	6 -- 234	[pos="1268.9,548.93 1294,530.82 1338.8,498.52 1364.1,480.31"];
	236	[height=0.5,
		pos="1212.1,267.25",
		width=0.75];
	6 -- 236	[pos="1248.2,544.18 1241.3,491.52 1221.3,338.23 1214.5,285.4"];
	238	[height=0.5,
		pos="1545.4,393.28",
		width=0.75];
	6 -- 238	[pos="1271.3,550.3 1325.4,519.29 1470.6,436.14 1524.7,405.15"];
	242	[height=0.5,
		pos="1504.4,468.19",
		width=0.75];
	6 -- 242	[pos="1274.4,553.34 1322.9,535.38 1432.5,494.82 1480.8,476.94"];
	246	[height=0.5,
		pos="995.24,732.38",
		width=0.75];
	6 -- 246	[pos="1231.3,574.97 1184,606.52 1062.2,687.74 1014.6,719.44"];
	120	[height=0.5,
		pos="1447.6,297.11",
		width=0.75];
	6 -- 120	[pos="1262.6,546 1297.7,498.68 1400.2,360.9 1435.5,313.42"];
	157	[height=0.5,
		pos="1384.6,259.14",
		width=0.75];
	6 -- 157	[pos="1258.3,544.58 1282.1,490.89 1353.4,329.66 1377,276.42"];
	34	[height=0.5,
		pos="303.25,369.46",
		width=0.75];
	33 -- 34	[pos="963.13,394.15 852.66,390.02 440.25,374.59 330.32,370.47"];
	42	[height=0.5,
		pos="923.95,693.27",
		width=0.75];
	41 -- 42	[pos="1281.9,657.88 1211.5,664.84 1021.3,683.64 950.77,690.62"];
	44	[height=0.5,
		pos="1481.8,423.72",
		width=0.75];
	43 -- 44	[pos="1451.8,624.98 1457.9,583.88 1472.9,483.25 1479.1,441.91"];
	46	[height=0.5,
		pos="592.24,322.86",
		width=0.75];
	45 -- 46	[pos="1115.1,389.19 1021.8,377.35 712.33,338.1 619.07,326.26"];
	105	[height=0.5,
		pos="791.73,670.24",
		width=0.75];
	17 -- 105	[pos="1034,729.81 982.81,717.22 868.51,689.12 817.35,676.54"];
	19	[height=0.5,
		pos="678.21,823.97",
		width=0.75];
	17 -- 19	[pos="1034.1,742.03 964.68,758.01 773.55,802.01 703.97,818.03"];
	325	[height=0.5,
		pos="1131.7,969.91",
		width=0.75];
	17 -- 325	[pos="1065.3,754.09 1078.7,797.71 1112.9,908.86 1126.2,952.21"];
	339	[height=0.5,
		pos="851.67,908.63",
		width=0.75];
	17 -- 339	[pos="1042.7,750.25 1003.6,782.67 907.7,862.18 868.64,894.56"];
	385	[height=0.5,
		pos="1055.7,633.02",
		width=0.75];
	17 -- 385	[pos="1059,717.7 1058.3,698.93 1057.1,670 1056.4,651.29"];
	388	[height=0.5,
		pos="1168.3,810.31",
		width=0.75];
	17 -- 388	[pos="1078.6,749.05 1098.4,762.58 1129.4,783.72 1149.2,797.29"];
	81	[height=0.5,
		pos="1440.5,822.62",
		width=0.75];
	17 -- 81	[pos="1085.3,741.94 1154.6,757.68 1345.4,801.01 1414.8,816.78"];
	144	[height=0.5,
		pos="1152.9,465.31",
		width=0.75];
	17 -- 144	[pos="1065.8,718.36 1082.7,669.29 1129.9,532.29 1146.8,483.14"];
	184	[height=0.5,
		pos="1173.3,865.57",
		width=0.75];
	17 -- 184	[pos="1073.4,751.75 1095.3,776.62 1137.7,824.99 1159.6,849.9"];
	216	[height=0.5,
		pos="1352.6,882.05",
		width=0.75];
	17 -- 216	[pos="1081.7,747.1 1136.1,774.21 1276.4,844.12 1330.7,871.16"];
	266	[height=0.5,
		pos="1014.2,875.76",
		width=0.75];
	17 -- 266	[pos="1054,753.82 1045.2,780.53 1028.8,830.89 1020,857.78"];
	290	[height=0.5,
		pos="1200.3,911.48",
		width=0.75];
	17 -- 290	[pos="1072.7,752.31 1099.5,785.8 1160.9,862.36 1187.6,895.59"];
	310	[height=0.5,
		pos="1476.6,893.21",
		width=0.75];
	17 -- 310	[pos="1083.3,745.03 1156.6,772.64 1379.7,856.7 1453,884.32"];
	362	[height=0.5,
		pos="1378.3,554.92",
		width=0.75];
	17 -- 362	[pos="1080.6,724.24 1138.5,691.33 1300.3,599.3 1357.7,566.62"];
	373	[height=0.5,
		pos="1401.2,725.96",
		width=0.75];
	17 -- 373	[pos="1086.8,735.32 1150.7,733.42 1310.2,728.67 1374.1,726.76"];
	381	[height=0.5,
		pos="1010.4,483.38",
		width=0.75];
	17 -- 381	[pos="1056.2,717.95 1047.1,671.32 1023,547.84 1013.9,501.39"];
	49	[height=0.5,
		pos="1662.7,900.43",
		width=0.75];
	48 -- 49	[pos="1527.8,827.86 1557.6,843.87 1611.7,872.97 1641.5,889.02"];
	52	[height=0.5,
		pos="575.93,771.09",
		width=0.75];
	51 -- 52	[pos="987.45,539.13 914.24,580.4 669.46,718.37 596.58,759.45"];
	1	[height=0.5,
		pos="917.95,635.4",
		width=0.75];
	2	[height=0.5,
		pos="667.07,675.54",
		width=0.75];
	1 -- 2	[pos="891.57,639.62 843.39,647.33 741.67,663.6 693.47,671.32"];
	3	[height=0.5,
		pos="785.04,407.78",
		width=0.75];
	1 -- 3	[pos="907.96,618.29 883.27,576 819.59,466.94 794.97,424.77"];
	53	[height=0.5,
		pos="728.98,741.47",
		width=0.75];
	1 -- 53	[pos="897,647.16 860.58,667.6 786.01,709.45 749.73,729.82"];
	54	[height=0.5,
		pos="1187,626.12",
		width=0.75];
	1 -- 54	[pos="944.98,634.47 996.55,632.69 1108.4,628.83 1160,627.06"];
	1 -- 55	[pos="938.7,623.54 980.83,599.45 1076,545.06 1117.9,521.08"];
	56	[height=0.5,
		pos="702.47,457.57",
		width=0.75];
	1 -- 56	[pos="900.68,621.15 860.23,587.77 759.76,504.84 719.53,471.64"];
	60	[height=0.5,
		pos="660.07,586.17",
		width=0.75];
	1 -- 60	[pos="891.8,630.41 842.38,620.97 735.76,600.62 686.28,591.18"];
	64	[height=0.5,
		pos="920.15,773.95",
		width=0.75];
	1 -- 64	[pos="918.24,653.51 918.66,680.07 919.44,729.28 919.86,755.83"];
	66	[height=0.5,
		pos="914.73,915.02",
		width=0.75];
	1 -- 66	[pos="917.74,653.75 917.15,704.53 915.52,846.54 914.94,896.97"];
	67	[height=0.5,
		pos="982.25,776.56",
		width=0.75];
	1 -- 67	[pos="925.83,652.71 938.18,679.8 961.92,731.93 974.3,759.11"];
	1 -- 12	[pos="939.65,624.33 970.44,608.63 1026.5,580.05 1057.2,564.37"];
	71	[height=0.5,
		pos="1184.1,582.02",
		width=0.75];
	1 -- 71	[pos="943.95,630.19 994.82,619.98 1107,597.48 1158,587.26"];
	75	[height=0.5,
		pos="1200.5,518.15",
		width=0.75];
	1 -- 75	[pos="941.07,625.81 994.2,603.76 1124.4,549.72 1177.5,527.71"];
	76	[height=0.5,
		pos="912.2,396.16",
		width=0.75];
	1 -- 76	[pos="917.51,617.03 916.43,572.38 913.7,458.64 912.64,414.28"];
	16	[height=0.5,
		pos="808.07,581.98",
		width=0.75];
	1 -- 16	[pos="895.98,624.72 876.81,615.4 849.16,601.95 830.01,592.64"];
	79	[height=0.5,
		pos="1218.1,430.12",
		width=0.75];
	1 -- 79	[pos="937.18,622.25 991.39,585.17 1145,480.11 1199,443.16"];
	18	[height=0.5,
		pos="1044.3,787.72",
		width=0.75];
	1 -- 18	[pos="931.23,651.41 955.55,680.74 1007,742.75 1031.2,771.92"];
	82	[height=0.5,
		pos="702.05,630.2",
		width=0.75];
	1 -- 82	[pos="890.6,634.74 849.08,633.74 770.57,631.85 729.17,630.85"];
	22	[height=0.5,
		pos="1077.5,395.31",
		width=0.75];
	1 -- 22	[pos="928.92,618.9 958.07,575.04 1037.2,455.92 1066.5,411.93"];
	2 -- 16	[pos="686.38,662.73 713.23,644.91 761.58,612.83 788.54,594.94"];
	84	[height=0.5,
		pos="639.4,454.89",
		width=0.75];
	2 -- 84	[pos="664.8,657.48 659.6,616 646.85,514.31 641.66,472.88"];
	4	[height=0.5,
		pos="741.7,875.95",
		width=0.75];
	2 -- 4	[pos="673.69,693.32 687.86,731.36 720.95,820.21 735.1,858.2"];
	85	[height=0.5,
		pos="764.07,626.22",
		width=0.75];
	2 -- 85	[pos="688.6,664.6 704.56,656.48 726.24,645.46 742.27,637.31"];
	2 -- 87	[pos="690.9,666.67 743.71,647 870.06,599.94 922.82,580.3"];
	7	[height=0.5,
		pos="548.95,868.92",
		width=0.75];
	2 -- 7	[pos="656.79,692.36 634.46,728.94 581.68,815.34 559.29,852"];
	88	[height=0.5,
		pos="515.84,630.59",
		width=0.75];
	2 -- 88	[pos="642.1,668.12 613.99,659.77 568.61,646.28 540.6,637.95"];
	89	[height=0.5,
		pos="406.28,664.66",
		width=0.75];
	2 -- 89	[pos="639.65,674.4 589.44,672.3 483.27,667.87 433.33,665.78"];
	93	[height=0.5,
		pos="406.42,775.36",
		width=0.75];
	2 -- 93	[pos="643.48,684.57 593.98,703.53 479.76,747.28 430.15,766.28"];
	97	[height=0.5,
		pos="388.93,575.01",
		width=0.75];
	2 -- 97	[pos="642.87,666.79 590.14,647.74 465.38,602.64 412.87,583.67"];
	101	[height=0.5,
		pos="483.89,449.58",
		width=0.75];
	2 -- 101	[pos="654.19,659.65 620.56,618.16 530.38,506.92 496.76,465.45"];
	13	[height=0.5,
		pos="796.1,714.27",
		width=0.75];
	2 -- 13	[pos="691.95,683.01 714.8,689.87 748.47,699.97 771.3,706.83"];
	104	[height=0.5,
		pos="1016.8,571.46",
		width=0.75];
	2 -- 104	[pos="691.94,668.14 756.23,649 927.4,598.06 991.81,578.89"];
	15	[height=0.5,
		pos="614.15,630.18",
		width=0.75];
	2 -- 15	[pos="650.32,661.19 644.15,655.89 637.15,649.89 630.96,644.59"];
	2 -- 105	[pos="694.12,674.39 715.03,673.5 743.83,672.28 764.73,671.39"];
	106	[height=0.5,
		pos="545.91,457.52",
		width=0.75];
	2 -- 106	[pos="657.56,658.43 634.91,617.68 577.98,515.23 555.38,474.55"];
	110	[height=0.5,
		pos="423.18,521.39",
		width=0.75];
	2 -- 110	[pos="647.11,662.93 601.26,633.95 488.86,562.9 443.07,533.97"];
	26	[height=0.5,
		pos="421.88,470.75",
		width=0.75];
	2 -- 26	[pos="650.22,661.46 605.42,624.05 483.78,522.45 438.85,484.93"];
	3 -- 12	[pos="807.13,418.72 861.7,445.76 1002.5,515.51 1056.9,542.48"];
	3 -- 16	[pos="787.42,425.76 791.83,459.14 801.24,530.32 805.67,563.83"];
	3 -- 84	[pos="760.67,415.66 733.78,424.36 690.78,438.27 663.86,446.98"];
	113	[height=0.5,
		pos="587.44,366.87",
		width=0.75];
	3 -- 113	[pos="759.21,402.43 721.34,394.59 651.15,380.06 613.28,372.22"];
	115	[height=0.5,
		pos="1070.5,246.77",
		width=0.75];
	3 -- 115	[pos="806.03,395.94 858.95,366.09 997.33,288.04 1049.9,258.41"];
	117	[height=0.5,
		pos="876.3,163.9",
		width=0.75];
	3 -- 117	[pos="791.61,390.24 808.4,345.35 852.8,226.68 869.67,181.61"];
	121	[height=0.5,
		pos="680.47,234.82",
		width=0.75];
	3 -- 121	[pos="774.83,390.88 754.78,357.73 710.53,284.53 690.57,251.53"];
	8	[height=0.5,
		pos="598.04,542.95",
		width=0.75];
	3 -- 8	[pos="766.43,421.23 730.58,447.14 652.36,503.68 616.58,529.55"];
	125	[height=0.5,
		pos="551.42,277.85",
		width=0.75];
	3 -- 125	[pos="763.9,396.02 719.42,371.28 616.64,314.12 572.35,289.49"];
	129	[height=0.5,
		pos="519.15,355.61",
		width=0.75];
	3 -- 129	[pos="759.06,402.68 708.23,392.71 596.15,370.72 545.23,360.73"];
	132	[height=0.5,
		pos="639.15,278.84",
		width=0.75];
	3 -- 132	[pos="768.59,393.24 740.57,368.47 683.89,318.39 655.76,293.52"];
	135	[height=0.5,
		pos="814.26,191.57",
		width=0.75];
	3 -- 135	[pos="787.48,389.71 792.98,349.02 806.29,250.53 811.8,209.74"];
	138	[height=0.5,
		pos="1008.5,204.04",
		width=0.75];
	3 -- 138	[pos="801.11,393.12 842.23,355.62 950.94,256.49 992.23,218.83"];
	140	[height=0.5,
		pos="748.69,184.65",
		width=0.75];
	3 -- 140	[pos="782.07,389.52 775.24,347.57 758.48,244.74 751.66,202.85"];
	143	[height=0.5,
		pos="898.53,254.32",
		width=0.75];
	3 -- 143	[pos="797.19,391.35 819.03,361.82 864.69,300.07 886.47,270.63"];
	145	[height=0.5,
		pos="946.45,184.05",
		width=0.75];
	3 -- 145	[pos="796.91,391.32 826.76,349.95 904.69,241.93 934.56,200.53"];
	149	[height=0.5,
		pos="631.24,190.8",
		width=0.75];
	3 -- 149	[pos="773.48,391.47 744.98,351.26 671.58,247.71 642.93,207.3"];
	29	[height=0.5,
		pos="884.41,208.56",
		width=0.75];
	3 -- 29	[pos="793.69,390.45 812.53,352.68 857.1,263.32 875.86,225.71"];
	57	[height=0.5,
		pos="158.5,363.59",
		width=0.75];
	56 -- 57	[pos="676.24,453.03 584.24,437.14 276.88,384.04 184.79,368.14"];
	61	[height=0.5,
		pos="97.527,411.13",
		width=0.75];
	60 -- 61	[pos="635.54,578.54 542.91,549.72 215.03,447.69 122.19,418.81"];
	65	[height=0.5,
		pos="934.73,1109.6",
		width=0.75];
	64 -- 65	[pos="920.94,792 923.47,850.28 931.41,1033.1 933.94,1091.5"];
	68	[height=0.5,
		pos="1074.2,1190.5",
		width=0.75];
	67 -- 68	[pos="986.27,794.61 1001.4,862.78 1055,1104.1 1070.2,1172.4"];
	12 -- 40	[pos="1101.3,542.99 1134.2,527.81 1195.2,499.68 1228.1,484.49"];
	12 -- 17	[pos="1076.9,571.54 1073.3,606.58 1065.3,683.03 1061.6,718.01"];
	12 -- 13	[pos="1058,565.18 1005.8,594.94 869.24,672.64 816.92,702.42"];
	12 -- 14	[pos="1106,553.59 1151.5,554 1242.7,554.82 1288.3,555.23"];
	278	[height=0.5,
		pos="849.5,428.3",
		width=0.75];
	12 -- 278	[pos="1057.7,541.81 1014,517.99 914.25,463.61 870.61,439.81"];
	332	[height=0.5,
		pos="858.13,745.84",
		width=0.75];
	12 -- 332	[pos="1062.2,567.82 1021.2,603.58 915.5,695.81 874.61,731.47"];
	343	[height=0.5,
		pos="911.2,476.01",
		width=0.75];
	12 -- 343	[pos="1056.6,543.08 1024.5,528.29 965.67,501.14 933.55,486.32"];
	344	[height=0.5,
		pos="1150.1,264.14",
		width=0.75];
	12 -- 344	[pos="1083.3,535.26 1096.1,483.32 1132.8,334.15 1145.6,282.22"];
	348	[height=0.5,
		pos="1182.6,670.78",
		width=0.75];
	12 -- 348	[pos="1092.8,569.19 1112.8,591.72 1149.1,632.79 1168.9,655.19"];
	349	[height=0.5,
		pos="1026,298.78",
		width=0.75];
	12 -- 349	[pos="1075.1,535.45 1065.4,488.71 1039.4,363.38 1029.7,316.67"];
	103	[height=0.5,
		pos="1088,290.85",
		width=0.75];
	12 -- 103	[pos="1079.5,535.31 1081.1,487.35 1085.7,357.12 1087.4,309.02"];
	171	[height=0.5,
		pos="1024.9,439.34",
		width=0.75];
	12 -- 171	[pos="1070.6,536.03 1060.5,514.6 1043.3,478.32 1033.1,456.82"];
	207	[height=0.5,
		pos="1246.6,361.91",
		width=0.75];
	12 -- 207	[pos="1092.6,537.68 1124.1,501.69 1201.4,413.46 1232.9,377.53"];
	256	[height=0.5,
		pos="1088.5,446.69",
		width=0.75];
	12 -- 256	[pos="1080.5,535.26 1082.3,515.64 1085.1,484.52 1086.9,464.87"];
	295	[height=0.5,
		pos="1186.6,723.91",
		width=0.75];
	12 -- 295	[pos="1089.4,570.01 1110,602.62 1155.4,674.52 1176,707.18"];
	315	[height=0.5,
		pos="1264.3,700.6",
		width=0.75];
	12 -- 315	[pos="1096.3,567.2 1131.6,595.26 1211.3,658.55 1246.8,686.67"];
	72	[height=0.5,
		pos="1728.3,809.24",
		width=0.75];
	71 -- 72	[pos="1207.1,591.64 1296,628.76 1616.3,762.49 1705.2,799.62"];
	77	[height=0.5,
		pos="577.83,102.77",
		width=0.75];
	76 -- 77	[pos="895.62,381.62 838.69,331.66 651.59,167.49 594.51,117.41"];
	16 -- 47	[pos="832.64,574.22 883.34,558.21 999.08,521.67 1049.7,505.67"];
	16 -- 18	[pos="824.68,596.45 868.05,634.22 984.32,735.51 1027.7,773.27"];
	264	[height=0.5,
		pos="530.36,683.06",
		width=0.75];
	16 -- 264	[pos="783.91,590.77 731.26,609.94 606.69,655.28 554.27,674.36"];
	338	[height=0.5,
		pos="647.49,745.43",
		width=0.75];
	16 -- 338	[pos="793.25,597.06 762.82,628.04 693.54,698.55 662.74,729.9"];
	16 -- 385	[pos="834.1,587.34 881.66,597.15 982.05,617.84 1029.6,627.65"];
	386	[height=0.5,
		pos="607.94,498.91",
		width=0.75];
	16 -- 386	[pos="785.12,572.45 746.61,556.47 669.47,524.45 630.94,508.45"];
	182	[height=0.5,
		pos="587.03,410.88",
		width=0.75];
	16 -- 182	[pos="790.36,568.27 748.97,536.23 646.3,456.76 604.83,424.66"];
	214	[height=0.5,
		pos="1053.2,351.28",
		width=0.75];
	16 -- 214	[pos="823.78,567.2 867.94,525.63 992.88,408.02 1037.3,366.24"];
	241	[height=0.5,
		pos="913.04,302.5",
		width=0.75];
	16 -- 241	[pos="814.64,564.5 833.49,514.31 887.63,370.16 906.47,319.98"];
	286	[height=0.5,
		pos="655.48,370.64",
		width=0.75];
	16 -- 286	[pos="796.35,565.75 767.95,526.41 695.69,426.32 667.24,386.92"];
	306	[height=0.5,
		pos="827.57,626.06",
		width=0.75];
	16 -- 306	[pos="815.78,599.4 817.14,602.48 818.56,605.69 819.92,608.77"];
	324	[height=0.5,
		pos="796.01,771.44",
		width=0.75];
	16 -- 324	[pos="806.92,600.14 804.61,636.36 799.46,717.16 797.16,753.33"];
	347	[height=0.5,
		pos="832.65,286.35",
		width=0.75];
	16 -- 347	[pos="809.57,563.93 813.96,511.15 826.74,357.49 831.14,304.54"];
	358	[height=0.5,
		pos="884.74,346.51",
		width=0.75];
	16 -- 358	[pos="813.84,564.28 828.04,520.64 864.63,408.27 878.91,364.42"];
	369	[height=0.5,
		pos="975.44,344.69",
		width=0.75];
	16 -- 369	[pos="819.58,565.67 850.15,522.32 933.19,404.6 963.85,361.12"];
	80	[height=0.5,
		pos="1542.6,512.25",
		width=0.75];
	79 -- 80	[pos="1243.6,436.56 1304.2,451.92 1456.7,490.51 1517.2,505.83"];
	291	[height=0.5,
		pos="729.16,683.63",
		width=0.75];
	18 -- 291	[pos="1020.1,779.73 961.4,760.35 812.18,711.06 753.44,691.65"];
	18 -- 348	[pos="1061.2,773.38 1087.8,750.94 1138.9,707.75 1165.5,685.24"];
	18 -- 388	[pos="1070.6,792.51 1091.6,796.34 1121,801.69 1142,805.52"];
	389	[height=0.5,
		pos="1120.3,1013.9",
		width=0.75];
	18 -- 389	[pos="1050.2,805.47 1064.4,847.76 1100.2,954.07 1114.4,996.28"];
	50	[height=0.5,
		pos="1277.8,918.28",
		width=0.75];
	18 -- 50	[pos="1065,799.31 1109.2,824.02 1212.3,881.67 1256.8,906.53"];
	109	[height=0.5,
		pos="1292.3,749.88",
		width=0.75];
	18 -- 109	[pos="1070.8,783.67 1118.6,776.39 1218.4,761.16 1266,753.9"];
	148	[height=0.5,
		pos="1295.9,838.01",
		width=0.75];
	18 -- 148	[pos="1070.2,792.91 1118.5,802.55 1221.3,823.1 1269.7,832.77"];
	186	[height=0.5,
		pos="1050.3,982.59",
		width=0.75];
	18 -- 186	[pos="1044.8,806.05 1046,843.29 1048.6,927.37 1049.8,964.44"];
	245	[height=0.5,
		pos="1414.6,876.66",
		width=0.75];
	18 -- 245	[pos="1069.7,793.83 1137.4,810.08 1321.1,854.21 1389,870.51"];
	268	[height=0.5,
		pos="927.74,963.81",
		width=0.75];
	18 -- 268	[pos="1033.3,804.29 1011.1,837.85 961.01,913.53 938.76,947.16"];
	328	[height=0.5,
		pos="1309.2,1006.3",
		width=0.75];
	18 -- 328	[pos="1061.2,801.73 1109,841.12 1244,952.57 1292,992.17"];
	342	[height=0.5,
		pos="1246.2,1042.6",
		width=0.75];
	18 -- 342	[pos="1056.9,803.66 1093.1,849.44 1197.3,980.89 1233.5,1026.7"];
	377	[height=0.5,
		pos="1380.6,943.17",
		width=0.75];
	18 -- 377	[pos="1066.6,798.04 1127.6,826.25 1296.8,904.43 1358,932.75"];
	383	[height=0.5,
		pos="1096.3,853.96",
		width=0.75];
	18 -- 383	[pos="1056.9,803.76 1064.9,814.02 1075.4,827.29 1083.5,837.61"];
	83	[height=0.5,
		pos="616.17,861.23",
		width=0.75];
	82 -- 83	[pos="695.45,647.95 679.43,691.06 638.6,800.9 622.67,843.74"];
	4 -- 30	[pos="766.93,868.82 804.57,858.19 875.02,838.29 912.61,827.68"];
	4 -- 53	[pos="739.99,857.81 737.56,832.14 733.14,785.49 730.71,759.75"];
	153	[height=0.5,
		pos="1038.9,938.55",
		width=0.75];
	4 -- 153	[pos="767.55,881.39 823.75,893.23 956.52,921.21 1012.9,933.07"];
	154	[height=0.5,
		pos="468.48,777.22",
		width=0.75];
	4 -- 154	[pos="717.94,867.36 666.26,848.69 544.19,804.57 492.39,785.86"];
	158	[height=0.5,
		pos="587.41,912.96",
		width=0.75];
	4 -- 158	[pos="716.23,882.06 687.64,888.92 641.53,899.98 612.93,906.84"];
	159	[height=0.5,
		pos="422.01,916.95",
		width=0.75];
	4 -- 159	[pos="715,879.37 654.82,887.09 509.19,905.77 448.87,913.51"];
	9	[height=0.5,
		pos="875.97,1018.2",
		width=0.75];
	4 -- 9	[pos="756.33,891.44 782.16,918.8 835.55,975.36 861.36,1002.7"];
	162	[height=0.5,
		pos="614.97,1155.4",
		width=0.75];
	4 -- 162	[pos="733.78,893.43 711.02,943.63 645.65,1087.8 622.9,1138"];
	166	[height=0.5,
		pos="526.75,1049.3",
		width=0.75];
	4 -- 166	[pos="724.48,889.84 684.23,922.31 584.39,1002.8 544.06,1035.4"];
	170	[height=0.5,
		pos="679.69,878.86",
		width=0.75];
	4 -- 170	[pos="714.68,877.22 712.07,877.34 709.42,877.47 706.81,877.59"];
	172	[height=0.5,
		pos="478.79,1005.3",
		width=0.75];
	4 -- 172	[pos="719.74,886.75 670.25,911.11 550.48,970.04 500.87,994.45"];
	176	[height=0.5,
		pos="1106.3,780.15",
		width=0.75];
	4 -- 176	[pos="767.05,869.29 833.9,851.72 1014.4,804.28 1081.1,786.77"];
	177	[height=0.5,
		pos="486.93,859.13",
		width=0.75];
	4 -- 177	[pos="714.44,874.15 665.4,870.91 562.89,864.14 514,860.92"];
	179	[height=0.5,
		pos="356.95,871.33",
		width=0.75];
	4 -- 179	[pos="714.65,875.62 644,874.77 454.58,872.5 383.97,871.65"];
	183	[height=0.5,
		pos="779.92,1047.1",
		width=0.75];
	4 -- 183	[pos="745.72,893.94 753.06,926.8 768.56,996.18 775.9,1029.1"];
	185	[height=0.5,
		pos="741.37,1091.1",
		width=0.75];
	4 -- 185	[pos="741.68,894.29 741.61,934.94 741.46,1032.2 741.4,1072.8"];
	187	[height=0.5,
		pos="664.93,968.25",
		width=0.75];
	4 -- 187	[pos="728.33,892.02 714.24,908.97 692.18,935.48 678.15,952.35"];
	114	[height=0.5,
		pos="530.79,815.12",
		width=0.75];
	4 -- 114	[pos="716.68,868.73 676.09,857.02 596.35,834.03 555.78,822.33"];
	86	[height=0.5,
		pos="1339.1,705.87",
		width=0.75];
	85 -- 86	[pos="790.65,629.91 886.85,643.23 1216.2,688.85 1312.5,702.18"];
	7 -- 158	[pos="562.84,884.82 566.37,888.86 570.16,893.2 573.68,897.23"];
	247	[height=0.5,
		pos="412.04,619.06",
		width=0.75];
	7 -- 247	[pos="539.54,851.75 514.47,805.99 446.28,681.54 421.34,636.03"];
	248	[height=0.5,
		pos="365.7,1013",
		width=0.75];
	7 -- 248	[pos="531.38,882.73 496.35,910.26 418.2,971.69 383.21,999.19"];
	250	[height=0.5,
		pos="303.4,971.26",
		width=0.75];
	7 -- 250	[pos="525.85,878.55 479.05,898.05 373.52,942.04 326.62,961.58"];
	11	[height=0.5,
		pos="701.41,922.96",
		width=0.75];
	7 -- 11	[pos="573.11,877.48 601.66,887.6 648.87,904.33 677.37,914.43"];
	253	[height=0.5,
		pos="236.54,886.89",
		width=0.75];
	7 -- 253	[pos="522.05,870.47 462.99,873.87 322.59,881.94 263.5,885.34"];
	257	[height=0.5,
		pos="229.51,838.08",
		width=0.75];
	7 -- 257	[pos="521.99,866.32 461.68,860.49 316.43,846.47 256.29,840.66"];
	260	[height=0.5,
		pos="248.93,637.23",
		width=0.75];
	7 -- 260	[pos="531.08,855.12 477.72,813.91 319.94,692.07 266.7,650.96"];
	263	[height=0.5,
		pos="344.21,622.75",
		width=0.75];
	7 -- 263	[pos="535.83,853.15 498.94,808.79 394.57,683.29 357.49,638.71"];
	7 -- 264	[pos="547.14,850.76 543.58,815.23 535.75,736.89 532.19,701.29"];
	265	[height=0.5,
		pos="406.43,823.47",
		width=0.75];
	7 -- 265	[pos="524.45,861.11 498.35,852.78 457.25,839.68 431.09,831.33"];
	267	[height=0.5,
		pos="540.81,979.37",
		width=0.75];
	7 -- 267	[pos="547.61,887.16 546.1,907.62 543.66,940.63 542.15,961.1"];
	7 -- 19	[pos="572.96,860.57 596.03,852.55 630.71,840.48 653.89,832.42"];
	35	[height=0.5,
		pos="234.24,690.17",
		width=0.75];
	7 -- 35	[pos="528.3,857.19 471.28,824.8 312.08,734.38 254.97,701.94"];
	59	[height=0.5,
		pos="227.25,791.66",
		width=0.75];
	7 -- 59	[pos="523.44,862.79 463.25,848.34 312.95,812.24 252.76,797.79"];
	124	[height=0.5,
		pos="214.52,747.06",
		width=0.75];
	7 -- 124	[pos="525.17,860.26 463.69,837.85 300,778.21 238.41,755.76"];
	191	[height=0.5,
		pos="402.69,1080.3",
		width=0.75];
	7 -- 191	[pos="537.48,885.51 510.13,925.02 441.4,1024.4 414.11,1063.8"];
	221	[height=0.5,
		pos="359.02,921.25",
		width=0.75];
	7 -- 221	[pos="523.73,875.87 487.3,885.91 420.36,904.35 384.04,914.36"];
	90	[height=0.5,
		pos="218.48,931",
		width=0.75];
	89 -- 90	[pos="394.54,681.32 360.73,729.26 263.48,867.17 229.98,914.68"];
	94	[height=0.5,
		pos="340.36,1098.7",
		width=0.75];
	93 -- 94	[pos="402.78,793.21 391.25,849.61 355.7,1023.7 344.08,1080.5"];
	98	[height=0.5,
		pos="124.73,658.87",
		width=0.75];
	97 -- 98	[pos="364.55,582.75 314.35,598.69 199.92,635.01 149.44,651.03"];
	102	[height=0.5,
		pos="748.9,135.9",
		width=0.75];
	101 -- 102	[pos="497.4,433.59 542.86,379.79 690,205.61 735.42,151.85"];
	13 -- 18	[pos="820.8,721.58 868.24,735.62 971.63,766.23 1019.3,780.33"];
	13 -- 15	[pos="773.79,703.96 738.77,687.78 671.31,656.59 636.36,640.44"];
	316	[height=0.5,
		pos="854.91,959.03",
		width=0.75];
	13 -- 316	[pos="800.42,732.27 811.3,777.53 839.7,895.71 850.58,941.01"];
	352	[height=0.5,
		pos="1093.2,691.41",
		width=0.75];
	13 -- 352	[pos="822.99,712.2 879.42,707.86 1009.6,697.84 1066.2,693.49"];
	356	[height=0.5,
		pos="884.32,569.58",
		width=0.75];
	13 -- 356	[pos="806.39,697.39 823.39,669.51 857.14,614.17 874.09,586.36"];
	359	[height=0.5,
		pos="902.21,522.76",
		width=0.75];
	13 -- 359	[pos="805.51,697.28 825.65,660.93 872.69,576.03 892.81,539.72"];
	363	[height=0.5,
		pos="740.27,830.72",
		width=0.75];
	13 -- 363	[pos="787.86,731.45 777.3,753.47 759.11,791.42 748.54,813.47"];
	13 -- 42	[pos="822.59,709.92 844.53,706.32 875.56,701.22 897.49,697.62"];
	74	[height=0.5,
		pos="976.79,919.79",
		width=0.75];
	13 -- 74	[pos="809.98,730.06 843.69,768.41 929.6,866.12 963.11,904.24"];
	137	[height=0.5,
		pos="724.55,544.35",
		width=0.75];
	13 -- 137	[pos="788.71,696.73 774.96,664.08 745.61,594.37 731.9,561.8"];
	175	[height=0.5,
		pos="563.67,727.08",
		width=0.75];
	13 -- 175	[pos="768.98,715.77 724.19,718.23 635.29,723.14 590.62,725.6"];
	209	[height=0.5,
		pos="1034.3,831.74",
		width=0.75];
	13 -- 209	[pos="818.08,725.11 863.46,747.49 967.03,798.57 1012.4,820.92"];
	235	[height=0.5,
		pos="1022,677.08",
		width=0.75];
	13 -- 235	[pos="822.45,709.93 865.85,702.78 951.9,688.62 995.43,681.45"];
	259	[height=0.5,
		pos="616.14,815.32",
		width=0.75];
	13 -- 259	[pos="775.1,726.06 740.43,745.53 671.59,784.19 637.01,803.61"];
	281	[height=0.5,
		pos="592.41,674.2",
		width=0.75];
	13 -- 281	[pos="769.89,709.11 730.78,701.42 657.58,687.02 618.53,679.33"];
	297	[height=0.5,
		pos="789.65,921.56",
		width=0.75];
	13 -- 297	[pos="795.54,732.3 794.32,771.51 791.43,864.12 790.21,903.42"];
	15 -- 16	[pos="639.5,623.88 676.67,614.64 745.54,597.52 782.71,588.28"];
	15 -- 263	[pos="587.03,629.43 535.29,628.01 423.04,624.92 371.31,623.49"];
	15 -- 343	[pos="635.51,619.09 690.19,590.71 834.73,515.69 889.63,487.2"];
	380	[height=0.5,
		pos="504.77,405.27",
		width=0.75];
	15 -- 380	[pos="605.75,612.9 585.39,571.04 533.59,464.53 513.2,422.6"];
	382	[height=0.5,
		pos="496.9,580.25",
		width=0.75];
	15 -- 382	[pos="591.26,620.43 570.6,611.64 540.37,598.76 519.73,589.97"];
	384	[height=0.5,
		pos="468.32,683.72",
		width=0.75];
	15 -- 384	[pos="590.39,638.9 563.28,648.85 519.18,665.05 492.07,675"];
	15 -- 46	[pos="612.84,611.87 608.95,557.21 597.42,395.6 593.54,341.07"];
	78	[height=0.5,
		pos="427.66,336.62",
		width=0.75];
	15 -- 78	[pos="603.59,613.55 570.84,562 471.24,405.22 438.33,353.43"];
	142	[height=0.5,
		pos="365.37,365.31",
		width=0.75];
	15 -- 142	[pos="599.7,614.79 555.73,567.98 423.88,427.61 379.86,380.74"];
	178	[height=0.5,
		pos="325.68,533.35",
		width=0.75];
	15 -- 178	[pos="589.55,621.92 534.92,603.58 404,559.64 349.81,541.45"];
	211	[height=0.5,
		pos="720.58,386.71",
		width=0.75];
	15 -- 211	[pos="621.8,612.67 641.44,567.75 693.43,448.81 712.99,404.06"];
	237	[height=0.5,
		pos="700.47,326.26",
		width=0.75];
	15 -- 237	[pos="619.29,612.07 634.64,558.02 680.04,398.19 695.36,344.26"];
	303	[height=0.5,
		pos="362.84,709.39",
		width=0.75];
	15 -- 303	[pos="589.59,637.92 541.55,653.06 435.62,686.45 387.49,701.62"];
	322	[height=0.5,
		pos="276.58,593.18",
		width=0.75];
	15 -- 322	[pos="587.38,627.24 524.22,620.32 366.51,603.04 303.36,596.12"];
	337	[height=0.5,
		pos="297.83,489.31",
		width=0.75];
	15 -- 337	[pos="591.65,620.16 533.5,594.26 378.68,525.32 320.42,499.37"];
	366	[height=0.5,
		pos="767.02,327.95",
		width=0.75];
	15 -- 366	[pos="622.8,613.06 649.65,559.99 731.3,398.58 758.27,345.25"];
	107	[height=0.5,
		pos="937.13,119.9",
		width=0.75];
	106 -- 107	[pos="562.72,443.02 626.93,387.61 856.29,189.67 920.38,134.35"];
	111	[height=0.5,
		pos="171.62,564.04",
		width=0.75];
	110 -- 111	[pos="396.73,525.88 348.42,534.07 246.42,551.36 198.09,559.56"];
	113 -- 114	[pos="585.15,384.99 576.02,457.23 542.29,724.13 533.11,796.77"];
	116	[height=0.5,
		pos="1418.6,510.89",
		width=0.75];
	115 -- 116	[pos="1088.7,260.6 1148.9,306.24 1340.7,451.76 1400.6,497.2"];
	118	[height=0.5,
		pos="1022.9,18",
		width=0.75];
	117 -- 118	[pos="891.43,148.84 919.53,120.88 979.45,61.263 1007.6,33.201"];
	122	[height=0.5,
		pos="309.74,197.76",
		width=0.75];
	121 -- 122	[pos="653.51,232.13 585.03,225.28 404.97,207.28 336.6,200.45"];
	8 -- 36	[pos="625.15,540.17 670.74,535.5 762.22,526.12 807.6,521.47"];
	8 -- 88	[pos="583.72,558.22 568.72,574.2 545.31,599.18 530.27,615.21"];
	8 -- 15	[pos="601.38,561.02 604.14,575.99 608.05,597.16 610.81,612.13"];
	192	[height=0.5,
		pos="991.65,615.51",
		width=0.75];
	8 -- 192	[pos="624.17,547.77 695.68,560.95 894.03,597.51 965.53,610.69"];
	8 -- 247	[pos="574.86,552.44 539.12,567.06 470.96,594.95 435.22,609.58"];
	269	[height=0.5,
		pos="213.95,460",
		width=0.75];
	8 -- 269	[pos="572.24,537.38 502.36,522.29 309.94,480.73 239.89,465.6"];
	273	[height=0.5,
		pos="233.63,549.16",
		width=0.75];
	8 -- 273	[pos="570.95,543.41 503.48,544.56 328.55,547.54 260.9,548.69"];
	277	[height=0.5,
		pos="501.57,730.29",
		width=0.75];
	8 -- 277	[pos="589.14,560.24 570.76,595.93 528.81,677.39 510.45,713.04"];
	8 -- 278	[pos="620.35,532.78 667.95,511.07 779,460.45 826.87,438.62"];
	279	[height=0.5,
		pos="364.63,300.65",
		width=0.75];
	8 -- 279	[pos="583.44,527.79 541.52,484.28 421.13,359.31 379.22,315.8"];
	282	[height=0.5,
		pos="742.29,279.61",
		width=0.75];
	8 -- 282	[pos="607.5,525.67 633.7,477.84 706.96,344.1 732.98,296.61"];
	284	[height=0.5,
		pos="414.74,242.69",
		width=0.75];
	8 -- 284	[pos="587.66,525.95 555.39,473.1 457.11,312.1 425,259.51"];
	287	[height=0.5,
		pos="235.81,504.04",
		width=0.75];
	8 -- 287	[pos="571.11,540.06 504.05,532.85 330.16,514.17 262.92,506.95"];
	8 -- 291	[pos="612.32,558.27 637.54,585.33 689.69,641.28 714.89,668.33"];
	292	[height=0.5,
		pos="359.87,447.88",
		width=0.75];
	8 -- 292	[pos="574.77,533.66 529.24,515.49 428.84,475.41 383.23,457.21"];
	63	[height=0.5,
		pos="293.6,322.41",
		width=0.75];
	8 -- 63	[pos="579.45,529.49 524.97,490.02 366.11,374.94 311.94,335.7"];
	161	[height=0.5,
		pos="257.45,414.79",
		width=0.75];
	8 -- 161	[pos="574.36,534.04 511.91,510.54 343.25,447.08 280.97,423.64"];
	224	[height=0.5,
		pos="535.35,203.37",
		width=0.75];
	8 -- 224	[pos="594.67,524.69 583.76,465.59 549.49,279.94 538.66,221.3"];
	126	[height=0.5,
		pos="109.54,520.78",
		width=0.75];
	125 -- 126	[pos="530.41,289.4 455.88,330.37 204.74,468.44 130.42,509.29"];
	130	[height=0.5,
		pos="291.55,842.85",
		width=0.75];
	129 -- 130	[pos="511.05,372.95 475.69,448.64 335.07,749.68 299.67,825.46"];
	133	[height=0.5,
		pos="171.55,515.81",
		width=0.75];
	132 -- 133	[pos="617.53,289.79 539.31,329.44 271.49,465.17 193.2,504.84"];
	136	[height=0.5,
		pos="528.19,157.85",
		width=0.75];
	135 -- 136	[pos="787.6,188.43 733.09,182.01 609.42,167.43 554.88,161"];
	139	[height=0.5,
		pos="1322.6,239.2",
		width=0.75];
	138 -- 139	[pos="1035.2,207.04 1094.6,213.68 1236.6,229.57 1295.9,236.21"];
	141	[height=0.5,
		pos="450.16,89.001",
		width=0.75];
	140 -- 141	[pos="724.26,176.83 668.14,158.85 530.55,114.76 474.51,96.803"];
	143 -- 144	[pos="915.62,268.49 961.96,306.93 1089.7,412.83 1135.9,451.2"];
	146	[height=0.5,
		pos="1279.9,69.131",
		width=0.75];
	145 -- 146	[pos="970.7,175.7 1032.3,154.47 1194.3,98.652 1255.8,77.457"];
	150	[height=0.5,
		pos="342.06,144.93",
		width=0.75];
	149 -- 150	[pos="604.81,186.61 549.87,177.9 423.89,157.91 368.74,149.17"];
	155	[height=0.5,
		pos="590.22,146.8",
		width=0.75];
	154 -- 155	[pos="472,759.03 489.71,667.27 569.14,255.98 586.75,164.76"];
	160	[height=0.5,
		pos="186.87,620.5",
		width=0.75];
	159 -- 160	[pos="409.37,901.01 368.54,849.54 240.49,688.1 199.57,636.52"];
	9 -- 37	[pos="899.33,1008.7 942.8,990.92 1035.6,953.06 1079,935.36"];
	9 -- 18	[pos="887.8,1002 918.7,959.66 1001.6,846.2 1032.4,803.91"];
	9 -- 11	[pos="854.92,1006.7 821.36,988.4 756.14,952.81 722.54,934.48"];
	10	[height=0.5,
		pos="997.43,1134",
		width=0.75];
	9 -- 10	[pos="891.85,1033.3 915.26,1055.6 958.74,1097.1 981.93,1119.2"];
	294	[height=0.5,
		pos="1059.7,1102",
		width=0.75];
	9 -- 294	[pos="898.5,1028.5 933.87,1044.6 1002,1075.7 1037.3,1091.8"];
	296	[height=0.5,
		pos="891.94,1164.6",
		width=0.75];
	9 -- 296	[pos="877.96,1036.4 881.04,1064.6 886.91,1118.5 889.97,1146.6"];
	298	[height=0.5,
		pos="1164.6,1130.8",
		width=0.75];
	9 -- 298	[pos="899.59,1027.4 953.86,1048.6 1086.9,1100.5 1141.1,1121.6"];
	302	[height=0.5,
		pos="679.31,1055",
		width=0.75];
	9 -- 302	[pos="849.86,1023.1 812.24,1030.1 743.21,1043 705.54,1050.1"];
	304	[height=0.5,
		pos="866.77,1120.6",
		width=0.75];
	9 -- 304	[pos="874.33,1036.5 872.65,1055.1 870.07,1083.8 868.4,1102.4"];
	307	[height=0.5,
		pos="943.9,1208.6",
		width=0.75];
	9 -- 307	[pos="882.24,1035.8 895.18,1072 924.72,1154.8 937.65,1191.1"];
	311	[height=0.5,
		pos="866.04,1209.6",
		width=0.75];
	9 -- 311	[pos="875.04,1036.2 873.14,1072.7 868.87,1154.9 866.98,1191.5"];
	9 -- 65	[pos="886.75,1035 897.35,1051.5 913.44,1076.5 924.02,1092.9"];
	92	[height=0.5,
		pos="828.91,1290.4",
		width=0.75];
	9 -- 92	[pos="872.81,1036.5 864.24,1086.1 840.61,1222.7 832.05,1272.2"];
	128	[height=0.5,
		pos="704.44,1228.7",
		width=0.75];
	9 -- 128	[pos="863.08,1034 831.29,1073 749.42,1173.5 717.48,1212.7"];
	196	[height=0.5,
		pos="1006,1184.9",
		width=0.75];
	9 -- 196	[pos="888.44,1034.2 913.24,1066 968.5,1136.8 993.42,1168.7"];
	228	[height=0.5,
		pos="1068.2,1146.5",
		width=0.75];
	9 -- 228	[pos="895.1,1031 931.85,1055.5 1011.9,1108.9 1048.8,1133.6"];
	249	[height=0.5,
		pos="739.92,1179.1",
		width=0.75];
	9 -- 249	[pos="862.68,1033.9 836.73,1064.6 779.61,1132.2 753.47,1163.1"];
	272	[height=0.5,
		pos="766.73,1252",
		width=0.75];
	9 -- 272	[pos="867.94,1035.4 847.74,1078.6 794.99,1191.5 774.78,1234.8"];
	163	[height=0.5,
		pos="672.63,1344.8",
		width=0.75];
	162 -- 163	[pos="620.4,1173.3 631.39,1209.3 656.17,1290.7 667.18,1326.9"];
	167	[height=0.5,
		pos="281.4,1142.8",
		width=0.75];
	166 -- 167	[pos="503.23,1058.3 456.33,1076.2 351.69,1116 304.85,1133.8"];
	170 -- 171	[pos="692.38,862.7 746.51,793.78 957.72,524.86 1012.1,455.65"];
	173	[height=0.5,
		pos="149.72,930.01",
		width=0.75];
	172 -- 173	[pos="453.24,999.47 391.93,985.44 237,949.98 175.48,935.9"];
	177 -- 178	[pos="478.26,841.62 450.19,784.92 362.04,606.81 334.2,550.56"];
	180	[height=0.5,
		pos="109.58,595.13",
		width=0.75];
	179 -- 180	[pos="342.94,855.68 299.4,807.07 166.76,658.97 123.43,610.6"];
	183 -- 184	[pos="802.2,1036.8 871.28,1004.9 1081.4,907.98 1150.8,875.96"];
	185 -- 186	[pos="765.36,1082.7 822.92,1062.5 968.37,1011.4 1026.1,991.08"];
	5	[height=0.5,
		pos="1230.3,782.77",
		width=0.75];
	5 -- 54	[pos="1225.4,764.8 1217,734.59 1200.2,673.96 1191.9,643.88"];
	5 -- 18	[pos="1203.3,783.49 1168,784.43 1106.6,786.06 1071.3,787"];
	5 -- 153	[pos="1213,796.87 1176.5,826.53 1092.3,895.07 1056,924.6"];
	5 -- 188	[pos="1247.6,768.9 1276.4,745.71 1334.1,699.29 1363.2,675.95"];
	189	[height=0.5,
		pos="1433.3,1028.3",
		width=0.75];
	5 -- 189	[pos="1243.6,798.88 1280.5,843.48 1383.6,968.19 1420.2,1012.5"];
	5 -- 192	[pos="1211.6,769.65 1167,738.38 1054.8,659.78 1010.3,628.57"];
	193	[height=0.5,
		pos="1600.7,914.68",
		width=0.75];
	5 -- 193	[pos="1254.3,791.33 1321.3,815.19 1509.8,882.31 1576.7,906.15"];
	197	[height=0.5,
		pos="1598.7,961.35",
		width=0.75];
	5 -- 197	[pos="1252.3,793.41 1317.6,825.09 1510.6,918.64 1576.4,950.54"];
	201	[height=0.5,
		pos="1477.3,984.32",
		width=0.75];
	5 -- 201	[pos="1247.7,796.94 1293,833.95 1414.6,933.17 1459.9,970.16"];
	204	[height=0.5,
		pos="1706,763.64",
		width=0.75];
	5 -- 204	[pos="1257.6,781.67 1341.5,778.3 1595.1,768.1 1678.8,764.73"];
	208	[height=0.5,
		pos="1538.7,917.34",
		width=0.75];
	5 -- 208	[pos="1253,792.67 1310,817.55 1458.9,882.53 1515.9,907.43"];
	5 -- 14	[pos="1237,764.94 1252.9,722.45 1292.9,615.64 1308.8,573.23"];
	210	[height=0.5,
		pos="1386.9,598.96",
		width=0.75];
	5 -- 210	[pos="1243.7,767.1 1273.2,732.46 1343.7,649.7 1373.4,614.85"];
	212	[height=0.5,
		pos="1699,705.53",
		width=0.75];
	5 -- 212	[pos="1256.9,778.4 1339.4,764.8 1590.6,723.39 1672.7,709.86"];
	215	[height=0.5,
		pos="1566.4,869.73",
		width=0.75];
	5 -- 215	[pos="1255.6,789.31 1317.9,805.42 1478.3,846.92 1540.9,863.11"];
	217	[height=0.5,
		pos="1371.2,1013.1",
		width=0.75];
	5 -- 217	[pos="1240.7,799.71 1266.8,842.29 1334.8,953.48 1360.9,996.09"];
	5 -- 32	[pos="1257.1,785.69 1327.5,793.38 1517.4,814.12 1587.9,821.81"];
	5 -- 86	[pos="1249.3,769.38 1269.3,755.26 1300.5,733.17 1320.4,719.11"];
	5 -- 116	[pos="1241.8,766.17 1275.5,717.52 1373.8,575.65 1407.3,527.27"];
	190	[height=0.5,
		pos="1028.1,1234.6",
		width=0.75];
	189 -- 190	[pos="1411.8,1039.3 1341.8,1074.9 1120.7,1187.5 1050.1,1223.4"];
	194	[height=0.5,
		pos="1620.5,1111.1",
		width=0.75];
	193 -- 194	[pos="1602.5,932.81 1606.3,970.23 1614.9,1055.7 1618.7,1093"];
	198	[height=0.5,
		pos="1718,1059.8",
		width=0.75];
	197 -- 198	[pos="1615.8,975.46 1638.4,994.18 1678.2,1027 1700.9,1045.7"];
	202	[height=0.5,
		pos="1278.4,1130.7",
		width=0.75];
	201 -- 202	[pos="1458.9,997.83 1421,1025.7 1334.6,1089.4 1296.7,1117.2"];
	205	[height=0.5,
		pos="1667.4,568.33",
		width=0.75];
	204 -- 205	[pos="1702.4,745.61 1695.1,708.41 1678.3,623.48 1671,586.31"];
	208 -- 209	[pos="1512.2,912.85 1425.2,898.08 1147.9,851.01 1060.7,836.22"];
	14 -- 75	[pos="1291.1,547.56 1271.6,541.23 1244.4,532.38 1224.9,526.05"];
	14 -- 104	[pos="1288.4,556.92 1231.7,559.96 1100.8,566.96 1044,570"];
	14 -- 176	[pos="1301.1,570.92 1262.9,611.96 1159.1,723.43 1120.8,764.6"];
	365	[height=0.5,
		pos="1245.5,311.27",
		width=0.75];
	14 -- 365	[pos="1310.3,537.52 1297.4,492.36 1263.6,374.44 1250.6,329.25"];
	367	[height=0.5,
		pos="1509.6,331.98",
		width=0.75];
	14 -- 367	[pos="1329.1,539.76 1364.8,498.73 1460.4,388.7 1496,347.68"];
	370	[height=0.5,
		pos="1657.3,436.28",
		width=0.75];
	14 -- 370	[pos="1339.5,547.1 1402.2,525.21 1570.5,466.53 1633.3,444.65"];
	374	[height=0.5,
		pos="1604.6,480.28",
		width=0.75];
	14 -- 374	[pos="1340.6,548.94 1395.3,534.71 1524.5,501.12 1579.3,486.86"];
	378	[height=0.5,
		pos="1320.7,482.6",
		width=0.75];
	14 -- 378	[pos="1316.8,537.46 1317.6,526.25 1318.6,511.88 1319.4,500.66"];
	14 -- 44	[pos="1332.9,541.63 1364.9,516.32 1432.4,462.9 1464.3,437.58"];
	14 -- 139	[pos="1315.9,537.11 1317.1,481.07 1321,312.8 1322.2,257.23"];
	262	[height=0.5,
		pos="1307.5,309.76",
		width=0.75];
	14 -- 262	[pos="1314.9,537.41 1313.4,491.97 1309.6,373.32 1308.1,327.85"];
	283	[height=0.5,
		pos="1250.3,223.22",
		width=0.75];
	14 -- 283	[pos="1312,537.61 1300.6,479.92 1265.2,298.99 1253.8,241.17"];
	301	[height=0.5,
		pos="1636.6,612.35",
		width=0.75];
	14 -- 301	[pos="1341.7,560.13 1402.1,570.82 1550.1,597.03 1610.4,607.71"];
	319	[height=0.5,
		pos="1635.9,685.52",
		width=0.75];
	14 -- 319	[pos="1338.8,564.93 1398,588.96 1553.6,652.11 1612.7,676.1"];
	334	[height=0.5,
		pos="1410.8,778.42",
		width=0.75];
	14 -- 334	[pos="1322.9,572.97 1340.8,614.65 1385.6,719.42 1403.4,761.01"];
	355	[height=0.5,
		pos="1633.9,392.27",
		width=0.75];
	14 -- 355	[pos="1337.3,544.26 1395.6,514.37 1554.2,433.08 1612.2,403.35"];
	210 -- 211	[pos="1362.4,591.15 1257.8,557.84 849.3,427.71 744.95,394.48"];
	213	[height=0.5,
		pos="1449.4,251.8",
		width=0.75];
	212 -- 213	[pos="1689.6,688.57 1650.3,617.14 1498.5,341.14 1458.9,269.08"];
	215 -- 216	[pos="1539.3,871.29 1498.3,873.65 1420.8,878.12 1379.8,880.49"];
	218	[height=0.5,
		pos="889.35,1062.2",
		width=0.75];
	217 -- 218	[pos="1344.3,1015.8 1259.8,1024.4 1000.4,1050.9 916.1,1059.5"];
	220	[height=0.5,
		pos="1184.1,1013.9",
		width=0.75];
	219 -- 220	[pos="1467.4,705.26 1417,760.18 1248.5,943.79 1198.3,998.46"];
	223	[height=0.5,
		pos="1046.3,101.46",
		width=0.75];
	222 -- 223	[pos="1350.7,321.22 1293.5,279.89 1121.5,155.75 1064.7,114.76"];
	226	[height=0.5,
		pos="1768.1,988.37",
		width=0.75];
	225 -- 226	[pos="1571.9,625.42 1606.2,688.92 1724.8,908.43 1758.9,971.37"];
	230	[height=0.5,
		pos="1585.5,1055.4",
		width=0.75];
	229 -- 230	[pos="1537.9,768.94 1546.9,823.11 1573.5,983.29 1582.5,1037.3"];
	233	[height=0.5,
		pos="802.2,1003.1",
		width=0.75];
	232 -- 233	[pos="1325.3,802.98 1235.7,837.25 915.88,959.58 825.91,993.99"];
	234 -- 235	[pos="1362.3,478.77 1299,515.68 1106.3,627.96 1042.6,665.05"];
	236 -- 237	[pos="1185.3,270.34 1097,280.53 815.67,312.97 727.3,323.16"];
	239	[height=0.5,
		pos="1462.6,161",
		width=0.75];
	238 -- 239	[pos="1539,375.44 1523.6,332.1 1484.2,221.66 1468.8,178.59"];
	243	[height=0.5,
		pos="1698,656.36",
		width=0.75];
	242 -- 243	[pos="1519.9,483.27 1556.2,518.59 1646.5,606.34 1682.7,641.47"];
	248 -- 249	[pos="388.26,1023 454.95,1052.6 650.6,1139.5 717.32,1169.1"];
	251	[height=0.5,
		pos="521.01,1187.1",
		width=0.75];
	250 -- 251	[pos="318.7,986.44 358.66,1026.1 465.79,1132.3 505.73,1172"];
	11 -- 39	[pos="726.55,915.8 766,904.57 842.01,882.93 881.38,871.72"];
	11 -- 13	[pos="709.32,905.52 727.19,866.14 770.49,770.7 788.28,731.51"];
	11 -- 19	[pos="697.15,904.8 692.97,886.94 686.61,859.83 682.44,842.01"];
	11 -- 277	[pos="685.73,907.84 648.37,871.82 554.46,781.28 517.18,745.34"];
	313	[height=0.5,
		pos="739.04,1135.1",
		width=0.75];
	11 -- 313	[pos="704.62,941.04 711.73,981.13 728.74,1077 735.84,1117.1"];
	11 -- 332	[pos="715.32,907.24 745.06,873.63 814.54,795.1 844.26,761.52"];
	333	[height=0.5,
		pos="946.81,1009.4",
		width=0.75];
	11 -- 333	[pos="725.39,931.4 772.3,947.92 875.74,984.36 922.73,1000.9"];
	335	[height=0.5,
		pos="430.07,961.08",
		width=0.75];
	11 -- 335	[pos="674.9,926.68 623.03,933.97 508.65,950.04 456.69,957.34"];
	11 -- 338	[pos="696.04,905.28 685.73,871.34 663.27,797.38 652.91,763.29"];
	11 -- 339	[pos="728.27,920.39 755.54,917.79 797.52,913.79 824.79,911.19"];
	340	[height=0.5,
		pos="676.98,1144.4",
		width=0.75];
	11 -- 340	[pos="699.41,941.08 694.82,982.72 683.56,1084.8 678.97,1126.4"];
	70	[height=0.5,
		pos="552.92,1143.1",
		width=0.75];
	11 -- 70	[pos="690.25,939.5 662.66,980.4 591.52,1085.9 564.01,1126.7"];
	100	[height=0.5,
		pos="464.74,1063.6",
		width=0.75];
	11 -- 100	[pos="681.23,934.94 636.63,961.44 530.07,1024.7 485.2,1051.4"];
	134	[height=0.5,
		pos="424.87,872.83",
		width=0.75];
	11 -- 134	[pos="674.89,918.15 622.04,908.57 504.1,887.19 451.3,877.63"];
	169	[height=0.5,
		pos="470.81,1118",
		width=0.75];
	11 -- 169	[pos="684.45,937.3 641.81,973.36 530.46,1067.5 487.79,1103.6"];
	203	[height=0.5,
		pos="804.52,1131",
		width=0.75];
	11 -- 203	[pos="710.02,940.34 729.48,979.6 776.64,1074.8 796,1113.8"];
	11 -- 233	[pos="718.97,936.91 737.47,951.61 766.42,974.62 784.85,989.26"];
	254	[height=0.5,
		pos="167.43,975.09",
		width=0.75];
	253 -- 254	[pos="223.87,903.07 211.4,918.98 192.47,943.14 180.03,959.02"];
	258	[height=0.5,
		pos="152.46,754.47",
		width=0.75];
	257 -- 258	[pos="215.02,822.35 201.16,807.31 180.38,784.76 166.63,769.84"];
	261	[height=0.5,
		pos="775.21,235.57",
		width=0.75];
	260 -- 261	[pos="266.74,623.64 347.27,562.18 676.89,310.62 757.41,249.16"];
	265 -- 266	[pos="433.33,825.79 533.83,834.43 886.68,864.79 987.24,873.44"];
	267 -- 268	[pos="568.01,978.27 639.06,975.42 829.55,967.76 900.57,964.9"];
	19 -- 187	[pos="676.55,841.95 674.01,869.59 669.16,922.25 666.61,950.04"];
	19 -- 246	[pos="703.08,816.78 762.2,799.7 910.6,756.83 970.04,739.66"];
	19 -- 384	[pos="658.84,811.02 618.85,784.31 527.59,723.32 487.64,696.63"];
	19 -- 52	[pos="656.52,812.75 639.16,803.78 614.94,791.25 597.59,782.28"];
	19 -- 83	[pos="657.9,836.17 650.97,840.33 643.23,844.98 636.32,849.13"];
	112	[height=0.5,
		pos="329.5,798.75",
		width=0.75];
	19 -- 112	[pos="651.13,822.01 586.17,817.31 421.99,805.44 356.79,800.72"];
	152	[height=0.5,
		pos="282.31,746.49",
		width=0.75];
	19 -- 152	[pos="652.23,818.88 580.5,804.84 380.23,765.65 308.38,751.59"];
	19 -- 218	[pos="692.06,839.6 730.32,882.77 837.12,1003.3 875.44,1046.5"];
	293	[height=0.5,
		pos="344.37,754.22",
		width=0.75];
	19 -- 293	[pos="652.29,818.55 590.09,805.56 432.92,772.72 370.5,759.68"];
	312	[height=0.5,
		pos="614.23,1056.3",
		width=0.75];
	19 -- 312	[pos="673.29,841.81 661.38,885.06 631.09,995.08 619.16,1038.4"];
	331	[height=0.5,
		pos="551.56,1098",
		width=0.75];
	19 -- 331	[pos="670.09,841.52 647.22,891.01 582.4,1031.2 559.6,1080.6"];
	351	[height=0.5,
		pos="300.65,681.26",
		width=0.75];
	19 -- 351	[pos="654.59,815.04 586.79,789.41 392.06,715.81 324.26,690.19"];
	364	[height=0.5,
		pos="602.9,956.99",
		width=0.75];
	19 -- 364	[pos="668.67,840.81 654.26,866.26 627.1,914.24 612.59,939.86"];
	379	[height=0.5,
		pos="809.6,817.93",
		width=0.75];
	19 -- 379	[pos="705.43,822.72 727.98,821.68 759.87,820.22 782.41,819.18"];
	387	[height=0.5,
		pos="424.96,730.36",
		width=0.75];
	19 -- 387	[pos="654.38,815.16 606.11,797.32 497.27,757.09 448.9,739.21"];
	391	[height=0.5,
		pos="671.4,1100.3",
		width=0.75];
	19 -- 391	[pos="677.76,842.1 676.53,892.18 673.08,1032 671.85,1082.1"];
	270	[height=0.5,
		pos="28.41,785.64",
		width=0.75];
	269 -- 270	[pos="204.24,477.05 172.18,533.32 69.951,712.73 38.028,768.76"];
	274	[height=0.5,
		pos="166.12,884.11",
		width=0.75];
	273 -- 274	[pos="230,567.16 218.28,625.32 181.51,807.73 169.76,866.02"];
	280	[height=0.5,
		pos="159.58,415.94",
		width=0.75];
	279 -- 280	[pos="343.84,312.34 304.54,334.43 219.77,382.1 180.43,404.22"];
	282 -- 283	[pos="769.24,276.62 857.24,266.85 1135.5,235.96 1223.4,226.2"];
	285	[height=0.5,
		pos="404.09,139.52",
		width=0.75];
	284 -- 285	[pos="412.88,224.72 410.94,205.9 407.91,176.51 405.96,157.63"];
	288	[height=0.5,
		pos="90.457,784.47",
		width=0.75];
	287 -- 288	[pos="226.93,521.16 200.99,571.22 125.44,716.99 99.399,767.22"];
	292 -- 293	[pos="358.95,466.12 356.19,520.61 348.04,681.71 345.29,736.07"];
	10 -- 38	[pos="1016.6,1121.1 1064.1,1089.2 1186.4,1006.9 1233.7,975.13"];
	10 -- 66	[pos="990.8,1116.4 975.32,1075.4 936.91,973.73 921.39,932.65"];
	10 -- 313	[pos="970.26,1134.1 920.64,1134.3 815.87,1134.8 766.23,1135"];
	314	[height=0.5,
		pos="1308.8,1053.2",
		width=0.75];
	10 -- 314	[pos="1022.6,1127.4 1081,1112.3 1224.8,1075 1283.4,1059.8"];
	10 -- 316	[pos="984.53,1118.2 957.46,1084.9 895.01,1008.3 867.89,974.95"];
	317	[height=0.5,
		pos="1340.7,1100.5",
		width=0.75];
	10 -- 317	[pos="1024.4,1131.4 1088.5,1125.1 1249.8,1109.4 1313.9,1103.1"];
	320	[height=0.5,
		pos="834.29,1339.3",
		width=0.75];
	10 -- 320	[pos="984.63,1150.1 954.13,1188.5 877.47,1284.9 847.03,1323.2"];
	323	[height=0.5,
		pos="1097.9,1058",
		width=0.75];
	10 -- 323	[pos="1015.4,1120.4 1033.6,1106.6 1061.5,1085.5 1079.8,1071.7"];
	10 -- 325	[pos="1010.5,1118 1036.3,1086.5 1093.1,1017.1 1118.7,985.76"];
	326	[height=0.5,
		pos="1146.9,1262.2",
		width=0.75];
	10 -- 326	[pos="1014,1148.2 1042.7,1172.8 1101.5,1223.2 1130.3,1247.9"];
	329	[height=0.5,
		pos="962.66,1322.7",
		width=0.75];
	10 -- 329	[pos="994.09,1152.1 987.45,1188.1 972.62,1268.6 965.98,1304.6"];
	96	[height=0.5,
		pos="1027.6,1336.4",
		width=0.75];
	10 -- 96	[pos="1000.1,1151.9 1005.8,1190.4 1019.2,1280.1 1025,1318.5"];
	131	[height=0.5,
		pos="900.54,1306",
		width=0.75];
	10 -- 131	[pos="987.78,1151.1 969.21,1184.1 928.69,1256.1 910.15,1289"];
	165	[height=0.5,
		pos="1091.8,1327.1",
		width=0.75];
	10 -- 165	[pos="1005.8,1151.1 1023.7,1187.7 1065.4,1273 1083.3,1309.7"];
	200	[height=0.5,
		pos="1214.9,1233.2",
		width=0.75];
	10 -- 200	[pos="1019.9,1144.2 1061.7,1163.3 1150.9,1204 1192.6,1223.1"];
	231	[height=0.5,
		pos="1258.2,1174.8",
		width=0.75];
	10 -- 231	[pos="1023.9,1138.1 1073.8,1145.9 1181.6,1162.8 1231.6,1170.6"];
	252	[height=0.5,
		pos="913.37,1384.9",
		width=0.75];
	10 -- 252	[pos="991.52,1151.6 976.08,1197.7 934.7,1321.2 919.28,1367.3"];
	276	[height=0.5,
		pos="975.48,1380.4",
		width=0.75];
	10 -- 276	[pos="995.81,1152.1 991.76,1197.7 981.16,1316.7 977.1,1362.3"];
	294 -- 295	[pos="1065.7,1084.3 1087,1020.8 1159.4,805.05 1180.6,741.6"];
	296 -- 297	[pos="884.58,1147.1 865.75,1102.4 815.98,984.12 797.07,939.2"];
	299	[height=0.5,
		pos="1490.4,1154.2",
		width=0.75];
	298 -- 299	[pos="1191.6,1132.7 1252.9,1137.1 1402.1,1147.9 1463.5,1152.3"];
	302 -- 303	[pos="664.89,1039.2 612.05,981.54 429.37,782.04 376.98,724.84"];
	305	[height=0.5,
		pos="1217.3,1086.7",
		width=0.75];
	304 -- 305	[pos="893.69,1118 958.95,1111.7 1125,1095.6 1190.3,1089.3"];
	308	[height=0.5,
		pos="1209,1291.5",
		width=0.75];
	307 -- 308	[pos="968.36,1216.2 1018.7,1232 1133.5,1267.9 1184.2,1283.7"];
	311 -- 312	[pos="845.86,1197.3 798.71,1168.6 681.75,1097.4 634.51,1068.6"];
	314 -- 315	[pos="1306.6,1035.2 1298.9,974.87 1274.3,779.87 1266.6,718.95"];
	318	[height=0.5,
		pos="1648.9,1036.7",
		width=0.75];
	317 -- 318	[pos="1366.7,1095.1 1424.9,1083.1 1565,1054.1 1623.1,1042.1"];
	321	[height=0.5,
		pos="302.29,1054.2",
		width=0.75];
	320 -- 321	[pos="813.11,1327.9 727.69,1282.1 409.06,1111.4 323.53,1065.6"];
	323 -- 324	[pos="1082.1,1043 1029.9,993.46 863.6,835.59 811.66,786.29"];
	327	[height=0.5,
		pos="1403,1153.4",
		width=0.75];
	326 -- 327	[pos="1170.1,1252.4 1218.9,1231.6 1331.5,1183.8 1380.1,1163.1"];
	330	[height=0.5,
		pos="734.79,1306",
		width=0.75];
	329 -- 330	[pos="935.63,1320.7 891.77,1317.5 805.62,1311.2 761.79,1307.9"];
	333 -- 334	[pos="968.56,998.56 1046.5,959.76 1311.2,827.99 1389.1,789.23"];
	336	[height=0.5,
		pos="90.397,739.09",
		width=0.75];
	335 -- 336	[pos="410.34,948.18 350.16,908.85 169.44,790.75 109.76,751.74"];
	341	[height=0.5,
		pos="998.14,1278.6",
		width=0.75];
	340 -- 341	[pos="700.08,1154.1 759.33,1178.9 916.23,1244.4 975.25,1269.1"];
	345	[height=0.5,
		pos="1176.9,49.63",
		width=0.75];
	344 -- 345	[pos="1152.4,245.85 1157.5,205.22 1169.6,107.87 1174.7,67.57"];
	350	[height=0.5,
		pos="489.31,291.79",
		width=0.75];
	349 -- 350	[pos="998.66,298.43 906.59,297.23 608.59,293.35 516.61,292.15"];
	353	[height=0.5,
		pos="1638.1,524.3",
		width=0.75];
	352 -- 353	[pos="1118.1,683.79 1208.9,655.92 1522.9,559.65 1613.5,531.86"];
	357	[height=0.5,
		pos="1008.5,145.73",
		width=0.75];
	356 -- 357	[pos="889.5,551.91 909.69,482.97 983.04,232.55 1003.3,163.48"];
	360	[height=0.5,
		pos="1070.9,178.81",
		width=0.75];
	359 -- 360	[pos="910.8,505.23 939.74,446.23 1033.4,255.26 1062.3,196.31"];
	363 -- 364	[pos="724.24,845.45 697.77,869.78 645.22,918.08 618.82,942.35"];
	365 -- 366	[pos="1218.4,312.22 1134.3,315.15 878.23,324.07 794.12,327.01"];
	368	[height=0.5,
		pos="1277.6,137.72",
		width=0.75];
	367 -- 368	[pos="1492.6,317.7 1449.7,281.77 1337.6,187.97 1294.7,152.02"];
	371	[height=0.5,
		pos="1764.3,508.96",
		width=0.75];
	370 -- 371	[pos="1676.4,449.27 1695.9,462.5 1725.9,482.89 1745.3,496.07"];
	375	[height=0.5,
		pos="1760.1,625.31",
		width=0.75];
	374 -- 375	[pos="1620.4,494.98 1650.2,522.78 1714.4,582.74 1744.3,610.56"];
	378 -- 379	[pos="1301.3,495.34 1220.3,548.46 910.03,752.04 829.03,805.18"];
	380 -- 381	[pos="531.24,409.36 618.51,422.84 896.52,465.79 983.85,479.28"];
	382 -- 383	[pos="519.31,590.48 613.78,633.62 979.13,800.44 1073.8,843.68"];
	386 -- 387	[pos="595.08,515.18 561.4,557.78 470.96,672.18 437.57,714.41"];
	390	[height=0.5,
		pos="928.74,1252.6",
		width=0.75];
	389 -- 390	[pos="1107.4,1030 1072.5,1073.5 976.38,1193.3 941.55,1236.6"];
	21 -- 22	[pos="1296.2,196.42 1253.3,235.44 1136.8,341.39 1093.8,380.53"];
	25	[height=0.5,
		pos="466.15,161.53",
		width=0.75];
	24 -- 25	[pos="944.53,80.347 857.3,95.151 579.17,142.35 492.32,157.09"];
	25 -- 26	[pos="463.58,179.49 455.76,234.14 432.29,398.02 424.46,452.74"];
	28 -- 29	[pos="1083.9,142.62 1040.8,156.85 951.81,186.28 908.77,200.51"];
	34 -- 35	[pos="299.34,387.62 287.2,444.07 250.19,616.03 238.11,672.21"];
	49 -- 50	[pos="1635.6,901.68 1565,904.96 1375.5,913.75 1304.8,917.02"];
	58	[height=0.5,
		pos="47.476,560.52",
		width=0.75];
	57 -- 58	[pos="148.84,380.72 127.79,418.06 77.99,506.39 57.033,543.56"];
	58 -- 59	[pos="60.117,576.77 93.125,619.21 181.63,733 214.62,775.42"];
	62	[height=0.5,
		pos="81.786,262.56",
		width=0.75];
	61 -- 62	[pos="95.597,392.91 92.576,364.4 86.763,309.54 83.732,280.93"];
	62 -- 63	[pos="106.92,269.66 147.68,281.18 227.76,303.81 268.5,315.32"];
	69	[height=0.5,
		pos="626.77,1259.1",
		width=0.75];
	68 -- 69	[pos="1047.9,1194.6 968.67,1206.7 732.91,1242.9 653.34,1255.1"];
	69 -- 70	[pos="616.19,1242.5 602.15,1220.5 577.51,1181.7 563.48,1159.7"];
	73	[height=0.5,
		pos="1465.9,1072.4",
		width=0.75];
	72 -- 73	[pos="1713,824.53 1666.6,871.14 1526.9,1011.1 1480.8,1057.4"];
	73 -- 74	[pos="1441.3,1064.7 1357.7,1038.6 1085.1,953.58 1001.4,927.48"];
	77 -- 78	[pos="567.03,119.59 539.32,162.74 465.96,276.98 438.36,319.96"];
	80 -- 81	[pos="1536.7,530.28 1518.6,585.26 1464.3,750.4 1446.3,804.93"];
	91	[height=0.5,
		pos="554.07,1234.5",
		width=0.75];
	90 -- 91	[pos="234.67,945.64 291.49,997.02 481.48,1168.8 538.05,1220"];
	91 -- 92	[pos="579.93,1239.7 632.31,1250.4 750.43,1274.4 802.92,1285.1"];
	95	[height=0.5,
		pos="726.46,1388.8",
		width=0.75];
	94 -- 95	[pos="358.47,1112.3 423.32,1161.1 643.6,1326.5 708.4,1375.2"];
	95 -- 96	[pos="752.66,1384.2 809.62,1374.3 944.18,1350.9 1001.3,1341"];
	99	[height=0.5,
		pos="157.64,1020.2",
		width=0.75];
	98 -- 99	[pos="126.41,677.28 132.05,739.27 150.32,939.89 155.97,1001.8"];
	99 -- 100	[pos="184.09,1023.9 242.14,1032.1 380.15,1051.6 438.25,1059.8"];
	102 -- 103	[pos="771.42,146.19 833.11,174.37 1004.3,252.61 1065.7,280.67"];
	108	[height=0.5,
		pos="1571.7,349.25",
		width=0.75];
	107 -- 108	[pos="961.23,128.61 1061.9,164.98 1447.8,304.5 1547.9,340.66"];
	108 -- 109	[pos="1560.2,365.7 1514.9,430.64 1348.9,668.73 1303.7,733.51"];
	111 -- 112	[pos="182.72,580.55 211.71,623.64 289.43,739.19 318.41,782.26"];
	119	[height=0.5,
		pos="1365.9,105.34",
		width=0.75];
	118 -- 119	[pos="1048.4,24.493 1111.9,40.662 1276.6,82.587 1340.2,98.801"];
	119 -- 120	[pos="1373.3,122.69 1388.8,159.11 1424.6,243.15 1440.2,279.66"];
	123	[height=0.5,
		pos="27,499.49",
		width=0.75];
	122 -- 123	[pos="295.33,213.14 246.83,264.9 89.838,432.43 41.381,484.14"];
	123 -- 124	[pos="39.304,515.73 73.281,560.59 168.14,685.83 202.17,730.76"];
	127	[height=0.5,
		pos="260.41,1098.3",
		width=0.75];
	126 -- 127	[pos="114.22,538.69 136.67,624.65 233.21,994.17 255.71,1080.3"];
	127 -- 128	[pos="285.24,1105.6 363.04,1128.4 601.57,1198.5 679.51,1221.4"];
	130 -- 131	[pos="309.45,856.46 398.55,924.23 793.55,1224.7 882.65,1292.4"];
	133 -- 134	[pos="183.43,532.56 226.08,592.66 371.17,797.16 413.31,856.54"];
	136 -- 137	[pos="536.88,174.96 569.32,238.8 683.1,462.76 715.74,527"];
	141 -- 142	[pos="444.73,106.71 429.45,156.49 386.23,297.35 370.87,347.4"];
	147	[height=0.5,
		pos="1729.1,455.06",
		width=0.75];
	146 -- 147	[pos="1296.7,83.555 1367.6,144.45 1641.9,380.13 1712.5,440.77"];
	147 -- 148	[pos="1712.6,469.6 1644,530.26 1381.1,762.76 1312.4,823.45"];
	151	[height=0.5,
		pos="100.46,463.09",
		width=0.75];
	150 -- 151	[pos="329.75,161.15 288.3,215.73 154.16,392.38 112.75,446.91"];
	151 -- 152	[pos="111.29,479.97 143.63,530.37 239.27,679.41 271.54,729.69"];
	156	[height=0.5,
		pos="1215.8,93.681",
		width=0.75];
	155 -- 156	[pos="617.1,144.51 719.66,135.81 1085.7,104.73 1188.7,95.985"];
	156 -- 157	[pos="1231.1,108.66 1263.1,140 1336.8,212.22 1369,243.84"];
	160 -- 161	[pos="193.01,602.6 206.39,563.6 238.05,471.33 251.37,432.5"];
	164	[height=0.5,
		pos="972.64,1444.3",
		width=0.75];
	163 -- 164	[pos="696.93,1352.8 753.15,1371.5 891.68,1417.4 948.12,1436.1"];
	164 -- 165	[pos="988.22,1428.9 1011.2,1406.4 1053.9,1364.4 1076.6,1342.1"];
	168	[height=0.5,
		pos="346.21,1186.8",
		width=0.75];
	167 -- 168	[pos="300.49,1155.7 308.86,1161.4 318.65,1168.1 327.03,1173.8"];
	168 -- 169	[pos="367.07,1175.3 390.07,1162.6 426.86,1142.2 449.89,1129.5"];
	174	[height=0.5,
		pos="153.4,703.03",
		width=0.75];
	173 -- 174	[pos="150.01,911.82 150.7,869.32 152.41,763.89 153.1,721.31"];
	174 -- 175	[pos="180.32,704.61 254.66,708.97 462.2,721.13 536.65,725.5"];
	181	[height=0.5,
		pos="140.25,310.79",
		width=0.75];
	180 -- 181	[pos="111.54,576.91 117.08,525.55 132.78,380.03 138.31,328.86"];
	181 -- 182	[pos="165.88,316.53 244.59,334.17 482.29,387.41 561.23,405.1"];
	190 -- 191	[pos="1002.4,1228.3 901.07,1203.2 529.37,1111.5 428.24,1086.6"];
	195	[height=0.5,
		pos="1276,1277.4",
		width=0.75];
	194 -- 195	[pos="1598.4,1121.8 1536.2,1151.8 1359.9,1236.9 1297.9,1266.8"];
	195 -- 196	[pos="1251.5,1269 1200.1,1251.4 1081.4,1210.7 1030.2,1193.2"];
	199	[height=0.5,
		pos="1444.3,1251.9",
		width=0.75];
	198 -- 199	[pos="1699.1,1073 1649.1,1108.1 1513.4,1203.4 1463.2,1238.6"];
	199 -- 200	[pos="1417.1,1249.7 1372.8,1246.1 1285.7,1239 1241.7,1235.4"];
	202 -- 203	[pos="1251.2,1130.7 1167.7,1130.8 915.03,1130.9 831.59,1131"];
	206	[height=0.5,
		pos="1555.7,263.32",
		width=0.75];
	205 -- 206	[pos="1660.9,550.61 1641.2,496.7 1582,335.06 1562.2,281.09"];
	206 -- 207	[pos="1531.2,271.14 1473.3,289.59 1328.9,335.65 1271.1,354.09"];
	213 -- 214	[pos="1424,258.17 1352.5,276.12 1150.1,326.93 1078.6,344.89"];
	220 -- 221	[pos="1157.1,1010.9 1032.2,996.87 510.34,938.25 385.79,924.26"];
	223 -- 224	[pos="1020.2,106.66 932.6,124.14 648.91,180.72 561.34,198.19"];
	227	[height=0.5,
		pos="1432.1,1198.2",
		width=0.75];
	226 -- 227	[pos="1748.1,1000.9 1688.3,1038.2 1511.6,1148.5 1452,1185.8"];
	227 -- 228	[pos="1405.6,1194.5 1338.6,1184.9 1162.5,1159.9 1095,1150.3"];
	230 -- 231	[pos="1561.7,1064.1 1501.2,1086.1 1342.2,1144.1 1281.9,1166.1"];
	240	[height=0.5,
		pos="1114.5,76.034",
		width=0.75];
	239 -- 240	[pos="1437,154.76 1372.6,139.04 1204.5,98.014 1140.1,82.291"];
	240 -- 241	[pos="1100.6,91.6 1063.8,132.97 963.88,245.33 926.98,286.83"];
	244	[height=0.5,
		pos="1724.7,944.35",
		width=0.75];
	243 -- 244	[pos="1699.7,674.38 1704.5,726.1 1718.3,874.63 1723.1,926.34"];
	244 -- 245	[pos="1698.8,938.69 1640.5,925.95 1499.2,895.12 1440.7,882.35"];
	251 -- 252	[pos="542.67,1198 611.26,1232.6 823.28,1339.5 891.79,1374"];
	255	[height=0.5,
		pos="606.87,1012.3",
		width=0.75];
	254 -- 255	[pos="194.26,977.36 272.71,984 501.12,1003.3 579.84,1010"];
	255 -- 256	[pos="620.26,996.56 689.39,915.38 1005.5,544.23 1075,462.6"];
	258 -- 259	[pos="179.06,757.96 260.75,768.68 507.44,801.06 589.37,811.81"];
	261 -- 262	[pos="801.98,239.3 893.05,252 1190.3,293.43 1281,306.06"];
	271	[height=0.5,
		pos="362.25,1142.7",
		width=0.75];
	270 -- 271	[pos="42.755,800.98 97.543,859.59 293.26,1068.9 347.96,1127.5"];
	271 -- 272	[pos="387.55,1149.6 460.28,1169.2 669.31,1225.7 741.7,1245.3"];
	275	[height=0.5,
		pos="491.17,1231.2",
		width=0.75];
	274 -- 275	[pos="180.5,899.47 234.2,956.8 422.55,1157.9 476.58,1215.6"];
	275 -- 276	[pos="515.85,1238.8 598.93,1264.4 867.84,1347.2 950.85,1372.8"];
	280 -- 281	[pos="179.88,428.05 252.58,471.43 499.53,618.78 572.16,662.11"];
	285 -- 286	[pos="420.2,154.33 465.61,196.07 594.27,314.36 639.51,355.95"];
	289	[height=0.5,
		pos="803.35,1208",
		width=0.75];
	288 -- 289	[pos="110.64,796.47 213.63,857.64 679.63,1134.5 782.99,1195.9"];
	289 -- 290	[pos="821.43,1194.5 887.56,1145.1 1115.8,974.59 1182.1,925.07"];
	300	[height=0.5,
		pos="1823.2,940.68",
		width=0.75];
	299 -- 300	[pos="1510.2,1141.5 1569.4,1103.5 1744.4,991.22 1803.5,953.33"];
	300 -- 301	[pos="1813.4,923.49 1781.2,866.75 1678.3,685.85 1646.2,629.37"];
	305 -- 306	[pos="1203.9,1070.8 1144,999.94 900.78,712.59 840.93,641.85"];
	309	[height=0.5,
		pos="1528,1110.2",
		width=0.75];
	308 -- 309	[pos="1229.9,1279.6 1287.9,1246.6 1449.8,1154.6 1507.4,1121.9"];
	309 -- 310	[pos="1523.7,1092 1514,1051.1 1490.5,951.88 1480.9,911.13"];
	318 -- 319	[pos="1648.2,1018.3 1646,957.65 1638.8,764.15 1636.6,703.73"];
	321 -- 322	[pos="301.28,1036.2 297.17,962.49 281.72,685.28 277.6,611.38"];
	327 -- 328	[pos="1392.4,1136.8 1374.4,1108.6 1338,1051.4 1319.9,1023.1"];
	330 -- 331	[pos="721.02,1290.3 686.98,1251.7 599.18,1152 565.24,1113.5"];
	336 -- 337	[pos="103.69,723.09 141.16,677.97 247.32,550.13 284.65,505.18"];
	341 -- 342	[pos="1013.7,1263.9 1058.2,1221.5 1186.1,1099.7 1230.6,1057.4"];
	346	[height=0.5,
		pos="949.76,31.585",
		width=0.75];
	345 -- 346	[pos="1150,47.489 1106.3,44.017 1020.4,37.194 976.67,33.723"];
	346 -- 347	[pos="941.71,49.096 920.26,95.75 861.93,222.65 840.6,269.05"];
	350 -- 351	[pos="480.96,309.03 449.8,373.36 340.48,599.05 309.12,663.78"];
	354	[height=0.5,
		pos="1680.6,322.36",
		width=0.75];
	353 -- 354	[pos="1641.9,506.38 1649.9,468.05 1668.8,378.52 1676.8,340.24"];
	354 -- 355	[pos="1669.5,338.93 1662.1,350.07 1652.3,364.7 1644.9,375.82"];
	357 -- 358	[pos="998.13,162.5 974.84,200.3 918.48,291.76 895.13,329.64"];
	361	[height=0.5,
		pos="1411,206.62",
		width=0.75];
	360 -- 361	[pos="1097.9,181.02 1161.5,186.22 1320.4,199.21 1384,204.42"];
	361 -- 362	[pos="1409.3,224.86 1403.6,285.05 1385.6,476.94 1380,536.86"];
	368 -- 369	[pos="1258.7,150.66 1204.4,187.83 1048.6,294.59 994.33,331.75"];
	372	[height=0.5,
		pos="1596.9,729.54",
		width=0.75];
	371 -- 372	[pos="1752,525.18 1721,565.97 1640.2,672.48 1609.2,713.3"];
	372 -- 373	[pos="1569.7,729.04 1532.4,728.36 1465.8,727.14 1428.5,726.46"];
	376	[height=0.5,
		pos="1747.4,900.25",
		width=0.75];
	375 -- 376	[pos="1759.2,643.35 1756.9,693.17 1750.5,832.25 1748.2,882.15"];
	376 -- 377	[pos="1720.7,903.37 1653.1,911.28 1475.7,932.05 1407.7,940"];
	390 -- 391	[pos="908.12,1240.4 859.81,1211.8 739.81,1140.8 691.77,1112.4"];
}
