graph {
	graph [bb="0,0,1844.8,1477.1",
		outputorder=edgesfirst,
		overlap=prism,
		size="50,50!",
		start=1375
	];
	node [label="\N"];
	0	[height=0.5,
		pos="713.17,967.88",
		width=0.75];
	20	[height=0.5,
		pos="545.28,1178",
		width=0.75];
	0 -- 20	[pos="700.27,984.03 668.95,1023.2 589.12,1123.2 557.99,1162.1"];
	23	[height=0.5,
		pos="380.39,1136.8",
		width=0.75];
	0 -- 23	[pos="691.59,978.83 631.39,1009.4 462.07,1095.3 401.92,1125.8"];
	27	[height=0.5,
		pos="796.23,1217.9",
		width=0.75];
	0 -- 27	[pos="719.01,985.46 734.22,1031.2 774.95,1153.8 790.28,1200"];
	30	[height=0.5,
		pos="583.78,976.5",
		width=0.75];
	0 -- 30	[pos="686.05,969.69 663.96,971.16 632.94,973.23 610.87,974.7"];
	31	[height=0.5,
		pos="702.53,1187.5",
		width=0.75];
	0 -- 31	[pos="712.28,986.23 710.27,1027.7 705.41,1128.1 703.41,1169.4"];
	6	[height=0.5,
		pos="870.87,1077.7",
		width=0.75];
	0 -- 6	[pos="731.88,980.91 762.23,1002 821.85,1043.5 852.19,1064.6"];
	33	[height=0.5,
		pos="350.89,1087.4",
		width=0.75];
	0 -- 33	[pos="688.84,975.91 622.84,997.69 440.99,1057.7 375.11,1079.4"];
	36	[height=0.5,
		pos="1153.4,877.19",
		width=0.75];
	0 -- 36	[pos="739.06,962.55 817.12,946.47 1049.5,898.59 1127.5,882.52"];
	37	[height=0.5,
		pos="548.38,932.44",
		width=0.75];
	0 -- 37	[pos="687.42,962.35 656.55,955.71 605.12,944.65 574.22,938"];
	38	[height=0.5,
		pos="519.42,977.02",
		width=0.75];
	0 -- 38	[pos="686.23,969.15 649.32,970.89 583.4,974 546.44,975.74"];
	39	[height=0.5,
		pos="588.02,767.84",
		width=0.75];
	0 -- 39	[pos="702.71,951.17 679.16,913.52 622.15,822.39 598.53,784.64"];
	40	[height=0.5,
		pos="933.18,1055.3",
		width=0.75];
	0 -- 40	[pos="736.72,977.24 779.06,994.07 867.58,1029.3 909.81,1046"];
	41	[height=0.5,
		pos="619.95,1089.5",
		width=0.75];
	0 -- 41	[pos="700.79,984.03 682.96,1007.3 650.24,1050 632.38,1073.3"];
	43	[height=0.5,
		pos="640.51,1217.9",
		width=0.75];
	0 -- 43	[pos="707.94,985.86 694.54,1032 659.04,1154.1 645.69,1200.1"];
	45	[height=0.5,
		pos="797.07,1051.7",
		width=0.75];
	0 -- 45	[pos="728.17,982.87 743.35,998.02 766.68,1021.3 781.91,1036.5"];
	47	[height=0.5,
		pos="1003.6,849.29",
		width=0.75];
	0 -- 47	[pos="736.45,958.38 790.83,936.17 925.74,881.09 980.23,858.84"];
	17	[height=0.5,
		pos="793.06,883.93",
		width=0.75];
	0 -- 17	[pos="727.82,952.49 742.24,937.34 764.12,914.35 778.5,899.23"];
	48	[height=0.5,
		pos="473.87,1145.2",
		width=0.75];
	0 -- 48	[pos="694.79,981.5 650.14,1014.6 536.37,1098.9 491.99,1131.8"];
	51	[height=0.5,
		pos="442.47,1099.8",
		width=0.75];
	0 -- 51	[pos="691.02,978.68 640.13,1003.5 515.37,1064.3 464.55,1089"];
	21	[height=0.5,
		pos="1045,1336.1",
		width=0.75];
	20 -- 21	[pos="569.72,1185.8 654.57,1212.6 935.83,1301.6 1020.6,1328.4"];
	24	[height=0.5,
		pos="192.62,966.25",
		width=0.75];
	23 -- 24	[pos="364.38,1122.2 329,1090.1 244.45,1013.3 208.85,980.99"];
	28	[height=0.5,
		pos="1378.3,1261.9",
		width=0.75];
	27 -- 28	[pos="823.13,1219.9 920.5,1227.3 1253.9,1252.5 1351.3,1259.9"];
	32	[height=0.5,
		pos="1072.7,1243.1",
		width=0.75];
	31 -- 32	[pos="729.15,1191.5 797.46,1201.8 978.3,1228.9 1046.3,1239.2"];
	6 -- 17	[pos="863.83,1060.1 849.05,1023.3 814.95,938.44 800.14,901.56"];
	55	[height=0.5,
		pos="1060,981.36",
		width=0.75];
	6 -- 55	[pos="892.56,1066.6 928.95,1048.1 1001.8,1011 1038.3,992.42"];
	12	[height=0.5,
		pos="1149.9,922.47",
		width=0.75];
	6 -- 12	[pos="891.84,1066 943.67,1037.2 1077.4,962.81 1129,934.06"];
	87	[height=0.5,
		pos="866.86,844.89",
		width=0.75];
	6 -- 87	[pos="870.56,1059.4 869.81,1015.9 867.92,906.5 867.18,863.07"];
	188	[height=0.5,
		pos="950.65,1190",
		width=0.75];
	6 -- 188	[pos="882.64,1094.2 897.81,1115.6 924.02,1152.5 939.09,1173.8"];
	14	[height=0.5,
		pos="989.93,1102",
		width=0.75];
	6 -- 14	[pos="896.71,1082.9 916.54,1087 943.81,1092.5 963.74,1096.6"];
	219	[height=0.5,
		pos="1053.7,1194.2",
		width=0.75];
	6 -- 219	[pos="890.44,1090.1 925.53,1112.5 998.8,1159.2 1034,1181.6"];
	222	[height=0.5,
		pos="1136.4,1221.6",
		width=0.75];
	6 -- 222	[pos="892.15,1089.2 941.99,1116.2 1065.8,1183.3 1115.4,1210.2"];
	225	[height=0.5,
		pos="783.37,1264.2",
		width=0.75];
	6 -- 225	[pos="862.8,1094.9 846.17,1130.3 808.27,1211.1 791.56,1246.7"];
	229	[height=0.5,
		pos="721.33,1231.6",
		width=0.75];
	6 -- 229	[pos="855.99,1093 827.32,1122.5 764.77,1186.9 736.16,1216.3"];
	232	[height=0.5,
		pos="692.24,1115.3",
		width=0.75];
	6 -- 232	[pos="844.9,1083.1 811.03,1090.3 752.13,1102.7 718.25,1109.8"];
	234	[height=0.5,
		pos="955.23,1146",
		width=0.75];
	6 -- 234	[pos="888.35,1091.8 902.92,1103.6 923.57,1120.4 938.06,1132.1"];
	236	[height=0.5,
		pos="1079,1150.1",
		width=0.75];
	6 -- 236	[pos="895.16,1086.1 935.26,1100.1 1014.9,1127.8 1054.9,1141.7"];
	238	[height=0.5,
		pos="928.89,1298.2",
		width=0.75];
	6 -- 238	[pos="875.62,1095.7 886.53,1137.2 913.27,1238.8 924.16,1280.3"];
	242	[height=0.5,
		pos="866.88,1328",
		width=0.75];
	6 -- 242	[pos="870.58,1095.7 869.85,1141.7 867.91,1263.5 867.17,1309.8"];
	246	[height=0.5,
		pos="628.07,888.77",
		width=0.75];
	6 -- 246	[pos="853.02,1063.8 808.11,1028.8 690.88,937.63 645.95,902.68"];
	120	[height=0.5,
		pos="1121.6,1294.3",
		width=0.75];
	6 -- 120	[pos="887.71,1092.2 933.39,1131.7 1059.2,1240.4 1104.8,1279.8"];
	157	[height=0.5,
		pos="798.23,1327",
		width=0.75];
	6 -- 157	[pos="865.65,1095.6 852.24,1141.6 816.76,1263.4 803.41,1309.2"];
	34	[height=0.5,
		pos="175.59,488.66",
		width=0.75];
	33 -- 34	[pos="345.64,1069.5 319.83,981.37 206.58,594.5 180.82,506.51"];
	42	[height=0.5,
		pos="817.54,764.11",
		width=0.75];
	41 -- 42	[pos="630.29,1072.4 664.44,1016.2 773.3,836.96 807.29,780.98"];
	44	[height=0.5,
		pos="981.27,1342.3",
		width=0.75];
	43 -- 44	[pos="664.2,1226.5 726.54,1249.3 894.61,1310.6 957.28,1333.5"];
	46	[height=0.5,
		pos="1195.5,660.36",
		width=0.75];
	45 -- 46	[pos="812.69,1036.3 876.43,973.74 1116.5,738 1180,675.6"];
	105	[height=0.5,
		pos="777.83,717.3",
		width=0.75];
	17 -- 105	[pos="791.4,865.78 788.47,833.73 782.41,767.47 779.48,735.43"];
	19	[height=0.5,
		pos="604.54,547.61",
		width=0.75];
	17 -- 19	[pos="783.45,866.79 751.11,809.1 646.44,622.35 614.13,564.71"];
	325	[height=0.5,
		pos="495.07,858.89",
		width=0.75];
	17 -- 325	[pos="766.09,881.66 709.5,876.91 578.92,865.93 522.19,861.17"];
	339	[height=0.5,
		pos="684.62,714.33",
		width=0.75];
	17 -- 339	[pos="782.46,867.36 761.73,834.94 716.02,763.45 695.26,730.97"];
	385	[height=0.5,
		pos="1004.3,764.45",
		width=0.75];
	17 -- 385	[pos="813.7,872.26 854.08,849.41 943.11,799.05 983.56,776.17"];
	388	[height=0.5,
		pos="856.41,888.97",
		width=0.75];
	17 -- 388	[pos="819.92,886.07 823.03,886.31 826.19,886.56 829.3,886.81"];
	81	[height=0.5,
		pos="787.36,1106.1",
		width=0.75];
	17 -- 81	[pos="792.59,902.11 791.52,943.88 788.89,1046.3 787.82,1088"];
	144	[height=0.5,
		pos="927.03,1011.3",
		width=0.75];
	17 -- 144	[pos="808.69,898.79 834.5,923.33 885.75,972.05 911.5,996.53"];
	184	[height=0.5,
		pos="573.64,1031.9",
		width=0.75];
	17 -- 184	[pos="773.97,896.81 732.47,924.8 634.44,990.93 592.84,1019"];
	216	[height=0.5,
		pos="711.65,1071.2",
		width=0.75];
	17 -- 216	[pos="785.4,901.55 769.84,937.34 734.72,1018.1 719.23,1053.8"];
	266	[height=0.5,
		pos="574.39,844.41",
		width=0.75];
	17 -- 266	[pos="766.68,879.16 724.54,871.55 642.51,856.72 600.52,849.13"];
	290	[height=0.5,
		pos="636.45,820.01",
		width=0.75];
	17 -- 290	[pos="769.95,874.5 740.34,862.41 689.31,841.58 659.65,829.48"];
	310	[height=0.5,
		pos="509.77,1026.9",
		width=0.75];
	17 -- 310	[pos="771.3,894.92 718.57,921.54 584.41,989.26 531.6,1015.9"];
	362	[height=0.5,
		pos="638.79,1159.6",
		width=0.75];
	17 -- 362	[pos="783.41,901.17 755.64,950.8 675.75,1093.5 648.23,1142.7"];
	373	[height=0.5,
		pos="576.73,1133.5",
		width=0.75];
	17 -- 373	[pos="779.53,899.54 740.68,944.36 629.1,1073.1 590.26,1117.9"];
	381	[height=0.5,
		pos="755.52,786.85",
		width=0.75];
	17 -- 381	[pos="786.17,866.12 779.4,848.61 769.12,822.02 762.36,804.54"];
	49	[height=0.5,
		pos="638.75,1320.9",
		width=0.75];
	48 -- 49	[pos="488.22,1160.5 519.4,1193.7 593.06,1272.2 624.32,1305.6"];
	52	[height=0.5,
		pos="387.16,696.02",
		width=0.75];
	51 -- 52	[pos="439.99,1081.6 430.8,1014.6 398.81,781.08 389.64,714.11"];
	1	[height=0.5,
		pos="1066.3,807.67",
		width=0.75];
	2	[height=0.5,
		pos="922.39,615.88",
		width=0.75];
	1 -- 2	[pos="1054,791.32 1026.8,755.09 961.78,668.39 934.62,632.19"];
	3	[height=0.5,
		pos="1438.8,750.19",
		width=0.75];
	1 -- 3	[pos="1092.8,803.58 1161.3,793.02 1343.6,764.88 1412.2,754.29"];
	53	[height=0.5,
		pos="879.55,800.88",
		width=0.75];
	1 -- 53	[pos="1039.1,806.68 1003.7,805.4 942.16,803.15 906.74,801.87"];
	54	[height=0.5,
		pos="1245.2,957.54",
		width=0.75];
	1 -- 54	[pos="1083.1,821.77 1117.2,850.34 1194.1,914.75 1228.3,943.37"];
	1 -- 55	[pos="1065.6,825.93 1064.4,859.38 1061.9,930.08 1060.6,963.34"];
	56	[height=0.5,
		pos="1339.5,556.51",
		width=0.75];
	1 -- 56	[pos="1082.2,793.08 1130.4,748.69 1275.2,615.58 1323.6,571.14"];
	60	[height=0.5,
		pos="1510.1,671.63",
		width=0.75];
	1 -- 60	[pos="1091.1,800.07 1169,776.2 1407.9,702.98 1485.5,679.19"];
	64	[height=0.5,
		pos="1013.5,634",
		width=0.75];
	1 -- 64	[pos="1060.8,789.74 1050.7,756.37 1029,685.13 1018.9,651.84"];
	66	[height=0.5,
		pos="671.83,616.39",
		width=0.75];
	1 -- 66	[pos="1044.2,796.98 975.12,763.46 763.21,660.7 693.98,627.12"];
	67	[height=0.5,
		pos="1275.6,514.74",
		width=0.75];
	1 -- 67	[pos="1078.1,791.08 1115,739.52 1227.2,582.46 1263.9,531.15"];
	1 -- 12	[pos="1078.3,824.12 1094.2,845.94 1122,884.24 1137.9,906.05"];
	71	[height=0.5,
		pos="1365.6,603.86",
		width=0.75];
	1 -- 71	[pos="1085.5,794.61 1139.5,757.8 1292.7,653.49 1346.6,616.81"];
	75	[height=0.5,
		pos="1178,969.33",
		width=0.75];
	1 -- 75	[pos="1077.6,824.06 1099,855.05 1145.2,921.88 1166.7,952.9"];
	76	[height=0.5,
		pos="1383.1,662.13",
		width=0.75];
	1 -- 76	[pos="1088.6,797.44 1146.7,770.72 1302.7,699.06 1360.9,672.35"];
	16	[height=0.5,
		pos="1069.2,712.55",
		width=0.75];
	1 -- 16	[pos="1066.9,789.33 1067.4,772.49 1068.1,747.66 1068.6,730.83"];
	79	[height=0.5,
		pos="1438.4,824.16",
		width=0.75];
	1 -- 79	[pos="1093.4,808.87 1162.1,811.92 1342.8,819.92 1411.5,822.96"];
	18	[height=0.5,
		pos="941.61,821.07",
		width=0.75];
	1 -- 18	[pos="1039.5,810.55 1018.5,812.81 989.34,815.94 968.31,818.2"];
	82	[height=0.5,
		pos="1050.3,529.28",
		width=0.75];
	1 -- 82	[pos="1065.2,789.41 1062.3,738.96 1054.2,598.14 1051.3,547.61"];
	22	[height=0.5,
		pos="1293.1,905.91",
		width=0.75];
	1 -- 22	[pos="1089.3,817.63 1132.9,836.51 1227,877.29 1270.4,896.07"];
	2 -- 16	[pos="941.88,628.72 969.96,647.21 1021.5,681.14 1049.6,699.66"];
	84	[height=0.5,
		pos="1131.8,673.68",
		width=0.75];
	2 -- 84	[pos="947.64,622.85 988,633.99 1066.5,655.67 1106.8,666.77"];
	4	[height=0.5,
		pos="650.55,773.77",
		width=0.75];
	2 -- 4	[pos="901.95,627.75 851.58,657.01 721.85,732.36 671.22,761.77"];
	85	[height=0.5,
		pos="942.27,747.94",
		width=0.75];
	2 -- 85	[pos="925.11,633.97 928.9,659.12 935.71,704.39 939.51,729.65"];
	2 -- 87	[pos="918.03,633.85 907.65,676.66 881.56,784.28 871.2,827.01"];
	7	[height=0.5,
		pos="796.88,481.9",
		width=0.75];
	2 -- 7	[pos="907.99,600.51 883.91,574.81 835.72,523.37 811.5,497.51"];
	88	[height=0.5,
		pos="1186.3,604.01",
		width=0.75];
	2 -- 88	[pos="949.64,614.66 1000.3,612.38 1108.6,607.51 1159.2,605.23"];
	89	[height=0.5,
		pos="797.28,393.81",
		width=0.75];
	2 -- 89	[pos="912.78,598.83 889.49,557.49 830.25,452.32 806.93,410.93"];
	93	[height=0.5,
		pos="699.17,460.65",
		width=0.75];
	2 -- 93	[pos="903.36,602.65 861.18,573.32 760.28,503.15 718.16,473.85"];
	97	[height=0.5,
		pos="923.53,372.4",
		width=0.75];
	2 -- 97	[pos="922.47,597.58 922.68,552.35 923.23,435.69 923.44,390.58"];
	101	[height=0.5,
		pos="720.66,660.39",
		width=0.75];
	2 -- 101	[pos="896.43,621.61 857.69,630.16 785.19,646.15 746.52,654.68"];
	13	[height=0.5,
		pos="951.4,659.89",
		width=0.75];
	2 -- 13	[pos="933.35,632.52 935.66,636.03 938.1,639.73 940.41,643.23"];
	104	[height=0.5,
		pos="956.87,893.32",
		width=0.75];
	2 -- 104	[pos="924.65,634.09 930.9,684.36 948.34,824.7 954.6,875.05"];
	15	[height=0.5,
		pos="1130.5,559.75",
		width=0.75];
	2 -- 15	[pos="947.49,609.11 987.48,598.32 1065.2,577.35 1105.3,566.54"];
	2 -- 105	[pos="903.78,628.93 876.18,648.3 824.64,684.46 796.82,703.98"];
	106	[height=0.5,
		pos="985.64,382.28",
		width=0.75];
	2 -- 106	[pos="927.24,597.94 939.02,554.46 968.97,443.83 980.76,400.28"];
	110	[height=0.5,
		pos="819.46,437.88",
		width=0.75];
	2 -- 110	[pos="912.52,598.81 892.84,564.79 848.95,488.87 829.3,454.89"];
	26	[height=0.5,
		pos="619.73,503.56",
		width=0.75];
	2 -- 26	[pos="898.64,607.07 842.06,586.07 699.83,533.29 643.37,512.33"];
	3 -- 12	[pos="1418.5,762.3 1365.4,793.94 1223.2,878.75 1170.2,910.37"];
	3 -- 16	[pos="1411.9,747.45 1343.6,740.5 1164.1,722.21 1096,715.27"];
	3 -- 84	[pos="1413.4,743.86 1355.7,729.47 1215,694.41 1157.2,680.01"];
	113	[height=0.5,
		pos="1358.7,903.91",
		width=0.75];
	3 -- 113	[pos="1429.9,767.23 1414.5,796.78 1383,857.19 1367.6,886.79"];
	115	[height=0.5,
		pos="1581.8,897.87",
		width=0.75];
	3 -- 115	[pos="1453.6,765.44 1481,793.74 1539.4,854.08 1566.9,882.48"];
	117	[height=0.5,
		pos="1576.6,967.58",
		width=0.75];
	3 -- 117	[pos="1449.4,766.89 1475,807.35 1540.3,910.3 1565.9,950.83"];
	121	[height=0.5,
		pos="1692.7,652.25",
		width=0.75];
	3 -- 121	[pos="1462.2,741.15 1510.6,722.49 1621,679.91 1669.3,661.27"];
	8	[height=0.5,
		pos="1258.9,683.97",
		width=0.75];
	3 -- 8	[pos="1414.9,741.4 1380.4,728.7 1317,705.36 1282.6,692.7"];
	125	[height=0.5,
		pos="1511.1,993.19",
		width=0.75];
	3 -- 125	[pos="1444.1,768.06 1457.5,813 1492.4,930.33 1505.7,975.3"];
	129	[height=0.5,
		pos="1511.4,538.83",
		width=0.75];
	3 -- 129	[pos="1444.9,732.53 1458.5,692.75 1491.6,596.47 1505.3,556.59"];
	132	[height=0.5,
		pos="1577.5,574.5",
		width=0.75];
	3 -- 132	[pos="1451.6,733.98 1478,700.51 1538.3,624.11 1564.7,590.68"];
	135	[height=0.5,
		pos="1686.5,795.57",
		width=0.75];
	3 -- 135	[pos="1464.8,754.96 1512.4,763.67 1612.9,782.07 1660.5,790.79"];
	138	[height=0.5,
		pos="1445.6,1014.8",
		width=0.75];
	3 -- 138	[pos="1439.3,768.37 1440.5,816.71 1443.9,947.97 1445.2,996.45"];
	140	[height=0.5,
		pos="1718.2,750.89",
		width=0.75];
	3 -- 140	[pos="1465.8,750.26 1519.2,750.39 1637.7,750.69 1691.1,750.82"];
	143	[height=0.5,
		pos="1492.1,898.64",
		width=0.75];
	3 -- 143	[pos="1445.1,767.8 1455.4,796.37 1475.5,852.5 1485.8,881.05"];
	145	[height=0.5,
		pos="1657.9,882.6",
		width=0.75];
	3 -- 145	[pos="1459,762.41 1500.7,787.63 1596,845.21 1637.7,870.41"];
	149	[height=0.5,
		pos="1639.7,608.21",
		width=0.75];
	3 -- 149	[pos="1457.3,737.09 1495.5,710.11 1582.5,648.61 1620.9,621.48"];
	29	[height=0.5,
		pos="1514.5,949.15",
		width=0.75];
	3 -- 29	[pos="1445.5,767.85 1459.9,805.6 1493.4,893.81 1507.8,931.54"];
	57	[height=0.5,
		pos="1272.9,227.75",
		width=0.75];
	56 -- 57	[pos="1335.8,538.36 1324.1,480.88 1288.2,303.24 1276.5,245.83"];
	61	[height=0.5,
		pos="1817.8,631.94",
		width=0.75];
	60 -- 61	[pos="1536.9,668.18 1595.1,660.67 1732.6,642.94 1790.9,635.41"];
	65	[height=0.5,
		pos="528.06,668.83",
		width=0.75];
	64 -- 65	[pos="986.32,635.95 901.17,642.06 639.89,660.81 555.01,666.9"];
	68	[height=0.5,
		pos="1144.9,188.65",
		width=0.75];
	67 -- 68	[pos="1268.6,497.21 1245.9,440.59 1174.7,263.01 1152,206.27"];
	12 -- 40	[pos="1129.9,934.73 1088.6,960.04 994.37,1017.8 953.13,1043.1"];
	12 -- 17	[pos="1123.1,919.57 1056.9,912.43 886.64,894.04 820.19,886.86"];
	12 -- 13	[pos="1137.5,906.04 1101.7,858.78 998.96,722.81 963.56,675.98"];
	12 -- 14	[pos="1136,938.08 1105.7,972.03 1034.3,1052.2 1003.9,1086.3"];
	278	[height=0.5,
		pos="1376.4,804.57",
		width=0.75];
	12 -- 278	[pos="1171.2,911.38 1214.4,888.9 1311.7,838.23 1355,815.71"];
	332	[height=0.5,
		pos="906.34,703.92",
		width=0.75];
	12 -- 332	[pos="1133.5,907.79 1089.2,867.97 966.91,758.27 922.62,718.53"];
	343	[height=0.5,
		pos="1252.4,807.56",
		width=0.75];
	12 -- 343	[pos="1163.7,906.97 1183.3,885.04 1218.8,845.17 1238.5,823.18"];
	344	[height=0.5,
		pos="1321.5,1008.9",
		width=0.75];
	12 -- 344	[pos="1171.6,933.42 1204.6,950.05 1267,981.48 1299.9,998.06"];
	348	[height=0.5,
		pos="1005.3,937.35",
		width=0.75];
	12 -- 348	[pos="1123,925.23 1097.1,927.91 1057.9,931.93 1032,934.6"];
	349	[height=0.5,
		pos="1060.1,1106.1",
		width=0.75];
	12 -- 349	[pos="1141.4,939.74 1124.3,974.74 1085.7,1053.7 1068.6,1088.7"];
	103	[height=0.5,
		pos="1184.1,1060.5",
		width=0.75];
	12 -- 103	[pos="1154.3,940.23 1160.8,966.6 1173,1015.8 1179.6,1042.4"];
	171	[height=0.5,
		pos="995.2,1057.9",
		width=0.75];
	12 -- 171	[pos="1133.3,936.97 1103.6,963.04 1041.3,1017.5 1011.6,1043.5"];
	207	[height=0.5,
		pos="1308.1,1064.5",
		width=0.75];
	12 -- 207	[pos="1166.2,937.13 1196.5,964.34 1261.2,1022.4 1291.7,1049.7"];
	256	[height=0.5,
		pos="1361,950.85",
		width=0.75];
	12 -- 256	[pos="1176.6,926.06 1217.2,931.52 1294,941.85 1334.5,947.29"];
	295	[height=0.5,
		pos="907.2,967.29",
		width=0.75];
	12 -- 295	[pos="1123.4,927.35 1076.6,935.99 979.75,953.89 933.24,962.48"];
	315	[height=0.5,
		pos="845.01,977.04",
		width=0.75];
	12 -- 315	[pos="1123.6,927.17 1066,937.49 928.99,962.01 871.32,972.34"];
	72	[height=0.5,
		pos="1543.5,321.29",
		width=0.75];
	71 -- 72	[pos="1376.2,587.03 1407.9,536.77 1501.4,388.18 1532.9,338.04"];
	77	[height=0.5,
		pos="1545.5,365.33",
		width=0.75];
	76 -- 77	[pos="1392.6,644.89 1421.3,592.31 1507.7,434.4 1536.2,382.25"];
	16 -- 47	[pos="1060.9,729.86 1048.3,756.17 1024.4,805.89 1011.9,832.11"];
	16 -- 18	[pos="1052.5,726.73 1028.1,747.53 982.74,786.08 958.29,806.88"];
	264	[height=0.5,
		pos="1050.4,436.59",
		width=0.75];
	16 -- 264	[pos="1068,694.44 1064.6,644.44 1055.1,504.84 1051.7,454.76"];
	338	[height=0.5,
		pos="954.13,527.86",
		width=0.75];
	16 -- 338	[pos="1058.8,695.83 1036.9,660.76 986.5,579.82 964.6,544.67"];
	16 -- 385	[pos="1051.8,726.45 1042.5,733.9 1031,743.05 1021.7,750.5"];
	386	[height=0.5,
		pos="1140.8,471.73",
		width=0.75];
	16 -- 386	[pos="1074.4,694.84 1087.7,650.3 1122.2,534.03 1135.5,489.47"];
	182	[height=0.5,
		pos="1214.5,340.68",
		width=0.75];
	16 -- 182	[pos="1076,695.11 1100.4,632.79 1182.9,421.46 1207.5,358.52"];
	214	[height=0.5,
		pos="1430,618.11",
		width=0.75];
	16 -- 214	[pos="1094.6,705.9 1160.8,688.57 1338.5,642.08 1404.7,624.75"];
	241	[height=0.5,
		pos="1501,772.91",
		width=0.75];
	16 -- 241	[pos="1095.9,716.28 1173.3,727.1 1397.3,758.41 1474.5,769.21"];
	286	[height=0.5,
		pos="1406.4,484.87",
		width=0.75];
	16 -- 286	[pos="1088.3,699.65 1147.5,659.67 1327.6,538.07 1387.1,497.9"];
	306	[height=0.5,
		pos="1207.3,384.74",
		width=0.75];
	16 -- 306	[pos="1076.6,694.92 1100.6,638 1175.8,459.49 1199.9,402.45"];
	324	[height=0.5,
		pos="977.71,462.73",
		width=0.75];
	16 -- 324	[pos="1062.8,694.98 1046,649.11 1000.9,526.13 984.13,480.28"];
	347	[height=0.5,
		pos="1428,528.91",
		width=0.75];
	16 -- 347	[pos="1090.8,701.47 1154.8,668.75 1342.3,572.74 1406.3,540"];
	358	[height=0.5,
		pos="1344.4,467.78",
		width=0.75];
	16 -- 358	[pos="1085.6,697.97 1134.5,654.43 1279.3,525.72 1328.1,482.29"];
	369	[height=0.5,
		pos="1500.8,715.69",
		width=0.75];
	16 -- 369	[pos="1096.2,712.74 1173.6,713.31 1395.8,714.92 1473.6,715.49"];
	80	[height=0.5,
		pos="1201,1192.6",
		width=0.75];
	79 -- 80	[pos="1427.6,840.95 1388.1,902.33 1251.6,1114.2 1211.9,1175.7"];
	291	[height=0.5,
		pos="1314.4,799.39",
		width=0.75];
	18 -- 291	[pos="968.72,819.5 1037.6,815.49 1218.6,804.96 1287.4,800.96"];
	18 -- 348	[pos="951.01,838.23 963.05,860.21 983.8,898.1 995.86,920.12"];
	18 -- 388	[pos="923.96,835.14 909.24,846.87 888.38,863.49 873.75,875.15"];
	389	[height=0.5,
		pos="698.46,830.91",
		width=0.75];
	18 -- 389	[pos="914.66,822.16 867.92,824.06 772.35,827.92 725.53,829.82"];
	50	[height=0.5,
		pos="864.08,1021.1",
		width=0.75];
	18 -- 50	[pos="934.73,838.82 920.02,876.77 885.64,965.44 870.95,1003.4"];
	109	[height=0.5,
		pos="1068.4,589.98",
		width=0.75];
	18 -- 109	[pos="950.93,804.08 974.38,761.34 1035.6,649.76 1059.1,607"];
	148	[height=0.5,
		pos="1267.5,857.36",
		width=0.75];
	18 -- 148	[pos="968.28,824.04 1029.4,830.85 1179,847.5 1240.4,854.35"];
	186	[height=0.5,
		pos="801.85,933.01",
		width=0.75];
	18 -- 186	[pos="924.19,835.02 897.41,856.47 846.4,897.33 819.49,918.88"];
	245	[height=0.5,
		pos="997.49,1013.9",
		width=0.75];
	18 -- 245	[pos="946.77,838.87 957.41,875.61 981.71,959.48 992.34,996.18"];
	268	[height=0.5,
		pos="844.72,659.9",
		width=0.75];
	18 -- 268	[pos="931.42,804.13 912.77,773.1 873.33,707.49 854.77,676.62"];
	328	[height=0.5,
		pos="782.7,646.94",
		width=0.75];
	18 -- 328	[pos="927.51,805.62 897.43,772.66 827.25,695.76 797,662.61"];
	342	[height=0.5,
		pos="931.49,571.88",
		width=0.75];
	18 -- 342	[pos="940.87,802.75 938.99,756.55 934.09,635.76 932.23,589.9"];
	377	[height=0.5,
		pos="1122,1018.1",
		width=0.75];
	18 -- 377	[pos="955.77,836.53 989.49,873.35 1074.3,965.92 1107.9,1002.7"];
	383	[height=0.5,
		pos="1096.1,763.41",
		width=0.75];
	18 -- 383	[pos="965.41,812.19 994.52,801.32 1043.5,783.04 1072.5,772.21"];
	83	[height=0.5,
		pos="570.39,459.54",
		width=0.75];
	82 -- 83	[pos="1023.8,525.43 939.9,513.24 680.58,475.56 596.79,463.38"];
	4 -- 30	[pos="644.74,791.41 632.12,829.75 602.28,920.33 589.63,958.76"];
	4 -- 53	[pos="677.27,776.93 721.28,782.14 808.52,792.47 852.65,797.69"];
	153	[height=0.5,
		pos="782.95,983.12",
		width=0.75];
	4 -- 153	[pos="661.16,790.55 685.95,829.75 747.45,926.98 772.29,966.26"];
	154	[height=0.5,
		pos="375.38,1011.7",
		width=0.75];
	4 -- 154	[pos="633.75,788.3 584.51,830.88 440.92,955.04 391.96,997.37"];
	158	[height=0.5,
		pos="547.78,503.56",
		width=0.75];
	4 -- 158	[pos="643.81,756.04 625.19,707.08 573.2,570.4 554.54,521.36"];
	159	[height=0.5,
		pos="649.86,999.4",
		width=0.75];
	4 -- 159	[pos="650.5,791.86 650.37,834.1 650.05,938.9 649.92,981.23"];
	9	[height=0.5,
		pos="575.11,712.88",
		width=0.75];
	4 -- 9	[pos="633.05,759.65 620.87,749.81 604.68,736.75 592.51,726.93"];
	162	[height=0.5,
		pos="338.3,784.09",
		width=0.75];
	4 -- 162	[pos="623.39,774.67 564.33,776.62 424.82,781.23 365.62,783.18"];
	166	[height=0.5,
		pos="334.16,740.05",
		width=0.75];
	4 -- 166	[pos="623.85,770.93 564.26,764.58 420.97,749.3 361.13,742.93"];
	170	[height=0.5,
		pos="645.84,942.17",
		width=0.75];
	4 -- 170	[pos="650.05,791.79 649.14,824.12 647.25,891.61 646.34,924.02"];
	172	[height=0.5,
		pos="333.2,831.16",
		width=0.75];
	4 -- 172	[pos="624.31,778.52 564.61,789.31 419.2,815.61 359.47,826.41"];
	176	[height=0.5,
		pos="735.03,1027.2",
		width=0.75];
	4 -- 176	[pos="656.49,791.59 672,838.11 713.6,962.86 729.1,1009.4"];
	177	[height=0.5,
		pos="524.2,553.58",
		width=0.75];
	4 -- 177	[pos="640.85,756.86 617.33,715.87 557.49,611.59 533.94,570.55"];
	179	[height=0.5,
		pos="373.78,603.57",
		width=0.75];
	4 -- 179	[pos="630.65,761.53 579.7,730.2 445.03,647.39 393.88,615.93"];
	183	[height=0.5,
		pos="455.92,982.39",
		width=0.75];
	4 -- 183	[pos="636.24,789.11 600.24,827.69 506.26,928.42 470.25,967.02"];
	185	[height=0.5,
		pos="433.05,854.16",
		width=0.75];
	4 -- 185	[pos="626.86,782.53 585.02,797.99 498.53,829.96 456.71,845.41"];
	187	[height=0.5,
		pos="466.02,657.44",
		width=0.75];
	4 -- 187	[pos="630.8,761.32 595.38,738.99 521.43,692.37 485.9,669.97"];
	114	[height=0.5,
		pos="690.12,874.93",
		width=0.75];
	4 -- 114	[pos="657.44,791.39 664.71,809.96 676.08,839.02 683.31,857.51"];
	86	[height=0.5,
		pos="1132.2,1104.6",
		width=0.75];
	85 -- 86	[pos="951.43,765.14 983.59,825.52 1091.1,1027.4 1123.2,1087.5"];
	7 -- 158	[pos="769.75,484.26 721.83,488.43 622.77,497.04 574.88,501.21"];
	247	[height=0.5,
		pos="1145.3,383.68",
		width=0.75];
	7 -- 247	[pos="821.94,474.84 886.07,456.76 1055.6,408.96 1120,390.81"];
	248	[height=0.5,
		pos="559.04,283.49",
		width=0.75];
	7 -- 248	[pos="779.78,467.63 735.89,431.03 619.7,334.1 575.99,297.63"];
	250	[height=0.5,
		pos="613.81,219.32",
		width=0.75];
	7 -- 250	[pos="785.43,465.48 752.55,418.32 658.13,282.89 625.26,235.74"];
	11	[height=0.5,
		pos="732.88,570.97",
		width=0.75];
	7 -- 11	[pos="785.14,498.24 773.67,514.21 756.29,538.4 744.76,554.43"];
	253	[height=0.5,
		pos="930.19,194.73",
		width=0.75];
	7 -- 253	[pos="805.02,464.37 828.88,412.98 898.44,263.13 922.16,212.03"];
	257	[height=0.5,
		pos="749.48,217.22",
		width=0.75];
	7 -- 257	[pos="793.63,463.71 784.95,415.24 761.33,283.4 752.7,235.19"];
	260	[height=0.5,
		pos="496.81,374.82",
		width=0.75];
	7 -- 260	[pos="772.83,473.32 716.65,453.27 577.27,403.53 520.97,383.44"];
	263	[height=0.5,
		pos="1088.5,339.66",
		width=0.75];
	7 -- 263	[pos="818.8,471.21 872.84,444.85 1012,376.96 1066.3,350.47"];
	7 -- 264	[pos="823.06,477.22 871.65,468.54 975.25,450.02 1024,441.31"];
	265	[height=0.5,
		pos="563.19,371.51",
		width=0.75];
	7 -- 265	[pos="774.48,471.32 729.81,450.22 630.15,403.14 585.53,382.07"];
	267	[height=0.5,
		pos="821.68,299.4",
		width=0.75];
	7 -- 267	[pos="799.35,463.74 804.1,428.76 814.47,352.42 819.22,317.5"];
	7 -- 19	[pos="772.52,490.22 735.53,502.86 665.59,526.75 628.71,539.35"];
	35	[height=0.5,
		pos="631.75,263.62",
		width=0.75];
	7 -- 35	[pos="784.47,465.5 753.79,424.95 674.67,320.36 644.08,279.92"];
	59	[height=0.5,
		pos="744.11,172.06",
		width=0.75];
	7 -- 59	[pos="793.82,463.91 784.49,409.14 756.52,244.94 747.19,190.11"];
	124	[height=0.5,
		pos="806.14,170.88",
		width=0.75];
	7 -- 124	[pos="797.42,463.84 799.06,408.87 803.96,244.03 805.6,188.99"];
	191	[height=0.5,
		pos="995.94,243.79",
		width=0.75];
	7 -- 191	[pos="810.25,465.91 846.52,422.53 946.44,303.01 982.63,259.71"];
	221	[height=0.5,
		pos="926.55,283.54",
		width=0.75];
	7 -- 221	[pos="807.72,465.33 832.13,427.99 891.2,337.63 915.66,300.2"];
	90	[height=0.5,
		pos="489.13,141.51",
		width=0.75];
	89 -- 90	[pos="779.83,379.52 725.59,335.12 560.36,199.83 506.39,155.64"];
	94	[height=0.5,
		pos="408.97,172.21",
		width=0.75];
	93 -- 94	[pos="683.98,445.54 633.83,395.7 473.94,236.78 424.01,187.16"];
	98	[height=0.5,
		pos="829.96,117.18",
		width=0.75];
	97 -- 98	[pos="917.09,354.86 900,308.23 853.58,181.61 836.43,134.84"];
	102	[height=0.5,
		pos="888.6,1185.9",
		width=0.75];
	101 -- 102	[pos="726.34,678.17 752.04,758.59 857.22,1087.7 882.92,1168.1"];
	13 -- 18	[pos="950.29,678.07 948.41,709.03 944.61,771.64 942.72,802.72"];
	13 -- 15	[pos="972.29,648.21 1006.8,628.91 1075.3,590.6 1109.7,571.36"];
	316	[height=0.5,
		pos="609.79,591.62",
		width=0.75];
	13 -- 316	[pos="925.44,654.71 861.92,642.01 699.2,609.49 635.71,596.8"];
	352	[height=0.5,
		pos="1202.9,730.68",
		width=0.75];
	13 -- 352	[pos="976.43,666.94 1024.6,680.51 1129.8,710.12 1177.9,723.66"];
	356	[height=0.5,
		pos="1151.4,515.74",
		width=0.75];
	13 -- 356	[pos="969.86,646.59 1008,619.13 1094.9,556.45 1133,529.01"];
	359	[height=0.5,
		pos="1376.6,760.09",
		width=0.75];
	13 -- 359	[pos="977.04,665.94 1052.8,683.79 1275.1,736.17 1350.9,754.04"];
	363	[height=0.5,
		pos="915,456.12",
		width=0.75];
	13 -- 363	[pos="948.17,641.81 941.26,603.14 925.12,512.8 918.22,474.16"];
	13 -- 42	[pos="933.62,673.73 908.02,693.67 861.03,730.25 835.39,750.22"];
	74	[height=0.5,
		pos="1118.2,427.69",
		width=0.75];
	13 -- 74	[pos="963.13,643.57 993.76,600.93 1075.9,486.61 1106.5,444"];
	137	[height=0.5,
		pos="1249.6,578.56",
		width=0.75];
	13 -- 137	[pos="976.56,653.03 1032.9,637.67 1168.4,600.69 1224.6,585.37"];
	175	[height=0.5,
		pos="782.91,525.93",
		width=0.75];
	13 -- 175	[pos="934,646.06 901.71,620.39 832.87,565.65 800.47,539.89"];
	209	[height=0.5,
		pos="1190.4,833.15",
		width=0.75];
	13 -- 209	[pos="969.75,673.2 1014.2,705.45 1127.4,787.5 1172,819.79"];
	235	[height=0.5,
		pos="1128.3,812.74",
		width=0.75];
	13 -- 235	[pos="968.04,674.27 1001.8,703.4 1077.8,769.09 1111.6,798.28"];
	259	[height=0.5,
		pos="1051.4,385.93",
		width=0.75];
	13 -- 259	[pos="957.8,642.34 975.82,592.98 1026.8,453.31 1044.9,403.7"];
	281	[height=0.5,
		pos="1213.6,525.08",
		width=0.75];
	13 -- 281	[pos="972.85,648.86 1022.1,623.52 1143,561.38 1192.2,536.07"];
	297	[height=0.5,
		pos="841.53,569.94",
		width=0.75];
	13 -- 297	[pos="934.23,645.84 913.71,629.04 879.56,601.08 858.94,584.19"];
	15 -- 16	[pos="1123.4,577.27 1111.7,606.59 1088.2,665.26 1076.3,694.75"];
	15 -- 263	[pos="1127,541.73 1119.1,500.36 1099.8,398.92 1091.9,357.61"];
	15 -- 343	[pos="1139,577.17 1161.4,622.67 1221.5,744.67 1243.8,790.15"];
	380	[height=0.5,
		pos="1229.5,467.39",
		width=0.75];
	15 -- 380	[pos="1146.4,544.91 1164.8,527.67 1195.1,499.41 1213.6,482.19"];
	382	[height=0.5,
		pos="1276.5,382.45",
		width=0.75];
	15 -- 382	[pos="1143.7,543.7 1171.5,509.94 1235.8,431.94 1263.4,398.33"];
	384	[height=0.5,
		pos="885.15,512.53",
		width=0.75];
	15 -- 384	[pos="1104.2,554.69 1057,545.61 958.29,526.61 911.21,517.55"];
	15 -- 46	[pos="1141.2,576.36 1153.3,595 1172.7,625.07 1184.8,643.72"];
	78	[height=0.5,
		pos="1276.7,322.89",
		width=0.75];
	15 -- 78	[pos="1140.7,543.09 1167.5,499.71 1239.2,383.56 1266.2,339.85"];
	142	[height=0.5,
		pos="1338.6,368.33",
		width=0.75];
	15 -- 142	[pos="1146.4,545.04 1185.2,509.41 1283.7,418.76 1322.5,383.08"];
	178	[height=0.5,
		pos="1034.1,295.64",
		width=0.75];
	15 -- 178	[pos="1124,542.01 1106.4,493.89 1058.1,361.32 1040.5,313.3"];
	211	[height=0.5,
		pos="1430,574.07",
		width=0.75];
	15 -- 211	[pos="1157.6,561.04 1214.5,563.76 1345.7,570.04 1402.7,572.77"];
	237	[height=0.5,
		pos="1419.6,706.15",
		width=0.75];
	15 -- 237	[pos="1152.2,570.75 1205.9,597.95 1344.4,668.09 1398,695.22"];
	303	[height=0.5,
		pos="970.73,327.58",
		width=0.75];
	15 -- 303	[pos="1119,543.05 1089.5,500.21 1011.5,386.8 982.11,344.13"];
	322	[height=0.5,
		pos="1090.8,251.64",
		width=0.75];
	15 -- 322	[pos="1128.1,541.39 1121,486.59 1100.2,324.57 1093.2,269.89"];
	337	[height=0.5,
		pos="1160.7,296.5",
		width=0.75];
	15 -- 337	[pos="1132.5,541.65 1138.1,493.56 1153,362.96 1158.6,314.72"];
	366	[height=0.5,
		pos="1321.1,675.4",
		width=0.75];
	15 -- 366	[pos="1150.5,571.9 1187.1,594.12 1264.4,641.01 1301,663.23"];
	107	[height=0.5,
		pos="1081.9,163.57",
		width=0.75];
	106 -- 107	[pos="993.36,364.75 1011.4,323.7 1056.3,221.71 1074.3,180.88"];
	111	[height=0.5,
		pos="550.98,186.83",
		width=0.75];
	110 -- 111	[pos="803.47,422.92 755.72,378.27 614.53,246.25 566.88,201.7"];
	113 -- 114	[pos="1331.6,902.74 1223.8,898.06 824.93,880.77 717.13,876.1"];
	116	[height=0.5,
		pos="1395.3,1154.1",
		width=0.75];
	115 -- 116	[pos="1569.8,914.29 1536.1,960.56 1440.7,1091.7 1407.2,1137.8"];
	118	[height=0.5,
		pos="1682.9,1145.1",
		width=0.75];
	117 -- 118	[pos="1586.8,984.6 1607.1,1018.5 1652.4,1094.2 1672.7,1128.1"];
	122	[height=0.5,
		pos="1606.5,278.95",
		width=0.75];
	121 -- 122	[pos="1688.5,634.24 1673.9,571.04 1625.1,359.7 1610.6,296.78"];
	8 -- 36	[pos="1249.5,701.12 1229.5,737.78 1182.7,823.45 1162.7,860.08"];
	8 -- 88	[pos="1244.9,668.56 1232.1,654.49 1213.3,633.79 1200.5,619.66"];
	8 -- 15	[pos="1243.4,668.99 1218.7,645.11 1170.7,598.69 1146,574.78"];
	192	[height=0.5,
		pos="1429.9,870.27",
		width=0.75];
	8 -- 192	[pos="1273.2,699.54 1305.4,734.69 1383.6,819.89 1415.7,854.88"];
	8 -- 247	[pos="1252.1,666.09 1231.9,612.68 1172.2,454.76 1152,401.47"];
	269	[height=0.5,
		pos="1690.6,706.12",
		width=0.75];
	8 -- 269	[pos="1285.9,685.36 1363.4,689.34 1586.1,700.76 1663.6,704.74"];
	273	[height=0.5,
		pos="1404.9,406.92",
		width=0.75];
	8 -- 273	[pos="1268,666.64 1294.2,616.89 1369.5,473.99 1395.7,424.24"];
	277	[height=0.5,
		pos="1040.8,484.62",
		width=0.75];
	8 -- 277	[pos="1242.8,669.31 1202.5,632.45 1097.2,536.19 1056.8,499.3"];
	8 -- 278	[pos="1273.8,699.25 1296.4,722.44 1339.1,766.29 1361.7,789.42"];
	279	[height=0.5,
		pos="1573.4,497.4",
		width=0.75];
	8 -- 279	[pos="1279.5,671.73 1336.7,637.84 1496.4,543.09 1553.1,509.44"];
	282	[height=0.5,
		pos="1562.5,850.53",
		width=0.75];
	8 -- 282	[pos="1279.8,695.42 1335.2,725.85 1485.8,808.48 1541.5,839"];
	284	[height=0.5,
		pos="1564.6,453.39",
		width=0.75];
	8 -- 284	[pos="1277.1,670.24 1331.5,629.23 1492.2,507.97 1546.5,467.05"];
	287	[height=0.5,
		pos="1518.7,409.38",
		width=0.75];
	8 -- 287	[pos="1273.6,668.42 1319.3,620.09 1458.6,472.85 1504.2,424.76"];
	8 -- 291	[pos="1267.3,701.5 1277.8,723.32 1295.6,760.35 1306.1,782.07"];
	292	[height=0.5,
		pos="1338.6,423.76",
		width=0.75];
	8 -- 292	[pos="1264.4,666.09 1279,618.44 1318.6,488.83 1333.2,441.43"];
	63	[height=0.5,
		pos="1636.8,529.08",
		width=0.75];
	8 -- 63	[pos="1282,674.52 1349.4,646.86 1545.9,566.35 1613.6,538.61"];
	161	[height=0.5,
		pos="1581.6,732.09",
		width=0.75];
	8 -- 161	[pos="1285.3,687.91 1345.8,696.93 1493.9,719.02 1554.8,728.1"];
	224	[height=0.5,
		pos="1624.5,838.56",
		width=0.75];
	8 -- 224	[pos="1281.8,693.64 1347.4,721.41 1536,801.14 1601.7,828.9"];
	126	[height=0.5,
		pos="1353.9,1321",
		width=0.75];
	125 -- 126	[pos="1502.8,1010.4 1475.7,1066.9 1389.5,1246.8 1362.2,1303.6"];
	130	[height=0.5,
		pos="933.9,238.76",
		width=0.75];
	129 -- 130	[pos="1489.8,527.62 1398.7,480.27 1046,297.02 955.29,249.87"];
	133	[height=0.5,
		pos="1228.6,276.71",
		width=0.75];
	132 -- 133	[pos="1560.7,560.14 1501.6,509.72 1304.1,341.13 1245.3,290.93"];
	136	[height=0.5,
		pos="1626.8,420.25",
		width=0.75];
	135 -- 136	[pos="1683.6,777.46 1673.5,713.91 1639.7,501.43 1629.6,438.17"];
	139	[height=0.5,
		pos="1263.1,1233",
		width=0.75];
	138 -- 139	[pos="1432.2,1030.8 1398.4,1071.3 1309.9,1177 1276.3,1217.2"];
	141	[height=0.5,
		pos="1689.9,411.1",
		width=0.75];
	140 -- 141	[pos="1716.6,732.62 1711.7,673.62 1696.3,488.58 1691.4,429.46"];
	143 -- 144	[pos="1465.9,903.85 1371.4,922.69 1047.8,987.21 953.2,1006.1"];
	146	[height=0.5,
		pos="1793.3,854.44",
		width=0.75];
	145 -- 146	[pos="1683.6,877.24 1707.6,872.26 1743.1,864.88 1767.1,859.88"];
	150	[height=0.5,
		pos="1425.4,311.06",
		width=0.75];
	149 -- 150	[pos="1627.8,591.81 1590.4,539.86 1474.6,379.29 1437.2,327.41"];
	155	[height=0.5,
		pos="256.29,1208.1",
		width=0.75];
	154 -- 155	[pos="365.23,1028.5 342.73,1065.6 288.89,1154.3 266.42,1191.4"];
	160	[height=0.5,
		pos="1142.6,1148.6",
		width=0.75];
	159 -- 160	[pos="674.64,1006.9 758.85,1032.4 1033.5,1115.6 1117.8,1141.1"];
	9 -- 37	[pos="572.92,730.85 567.91,772.02 555.64,872.82 550.59,914.23"];
	9 -- 18	[pos="600.01,720.23 666.88,739.97 849.77,793.96 916.67,813.71"];
	9 -- 11	[pos="591.4,698.23 621.63,671.03 686.1,613.05 716.44,585.75"];
	10	[height=0.5,
		pos="449.23,705.12",
		width=0.75];
	9 -- 10	[pos="548.11,711.22 526.87,709.91 497.42,708.09 476.19,706.78"];
	294	[height=0.5,
		pos="557.1,888.43",
		width=0.75];
	9 -- 294	[pos="573.25,731.01 569.79,764.73 562.4,836.75 558.95,870.4"];
	296	[height=0.5,
		pos="435.84,611.08",
		width=0.75];
	9 -- 296	[pos="556.9,699.57 530.21,680.06 480.75,643.91 454.05,624.39"];
	298	[height=0.5,
		pos="308.96,923.65",
		width=0.75];
	9 -- 298	[pos="557.65,726.71 509.42,764.9 374.79,871.52 326.49,909.77"];
	302	[height=0.5,
		pos="485.74,506.32",
		width=0.75];
	9 -- 302	[pos="567.49,695.27 550.61,656.25 510.2,562.87 493.34,523.89"];
	304	[height=0.5,
		pos="361.68,501.97",
		width=0.75];
	9 -- 304	[pos="559.76,697.71 520.38,658.8 416.12,555.77 376.89,517"];
	307	[height=0.5,
		pos="266.51,740.89",
		width=0.75];
	9 -- 307	[pos="548.27,715.32 489.9,720.61 352.02,733.13 293.52,738.44"];
	311	[height=0.5,
		pos="322.17,696.02",
		width=0.75];
	9 -- 311	[pos="548.04,711.08 499.36,707.83 397.59,701.04 349.05,697.81"];
	9 -- 65	[pos="559.44,698.21 554.42,693.51 548.85,688.3 543.82,683.59"];
	92	[height=0.5,
		pos="299.87,644.3",
		width=0.75];
	9 -- 92	[pos="549.71,706.55 497.28,693.49 377.59,663.67 325.21,650.62"];
	128	[height=0.5,
		pos="371.02,890.8",
		width=0.75];
	9 -- 128	[pos="558.41,727.44 520.04,760.89 425.98,842.89 387.66,876.29"];
	196	[height=0.5,
		pos="308.92,875.17",
		width=0.75];
	9 -- 196	[pos="555.1,725.08 505.77,755.16 378.73,832.61 329.16,862.83"];
	228	[height=0.5,
		pos="271.17,790.19",
		width=0.75];
	9 -- 228	[pos="549.72,719.34 492.51,733.89 354.05,769.11 296.7,783.7"];
	249	[height=0.5,
		pos="353.56,550.84",
		width=0.75];
	9 -- 249	[pos="556.6,699.34 514.8,668.77 413.47,594.66 371.86,564.23"];
	272	[height=0.5,
		pos="434.76,935.68",
		width=0.75];
	9 -- 272	[pos="564.56,729.63 538.49,771.02 471.24,877.77 445.24,919.04"];
	163	[height=0.5,
		pos="73.28,926.11",
		width=0.75];
	162 -- 163	[pos="317.06,795.47 267.44,822.06 144.34,888.02 94.621,914.67"];
	167	[height=0.5,
		pos="118.09,606.69",
		width=0.75];
	166 -- 167	[pos="314.22,727.75 273.06,702.34 179.1,644.35 137.98,618.97"];
	170 -- 171	[pos="670.13,950.22 734.03,971.4 906.36,1028.5 970.61,1049.8"];
	173	[height=0.5,
		pos="64.48,720.05",
		width=0.75];
	172 -- 173	[pos="309.82,821.49 258.87,800.43 138.34,750.59 87.612,729.61"];
	177 -- 178	[pos="545.78,542.66 629.09,500.51 929.19,348.71 1012.5,306.56"];
	180	[height=0.5,
		pos="326.23,173.79",
		width=0.75];
	179 -- 180	[pos="371.77,585.38 363.99,515.08 335.95,261.64 328.22,191.75"];
	183 -- 184	[pos="478.89,992.06 499.64,1000.8 529.99,1013.6 550.72,1022.3"];
	185 -- 186	[pos="458.98,859.7 526.7,874.18 708.26,913 775.94,927.47"];
	5	[height=0.5,
		pos="1068.7,1062.1",
		width=0.75];
	5 -- 54	[pos="1088.9,1050.1 1122.9,1030 1190.9,989.68 1224.9,969.56"];
	5 -- 18	[pos="1059.5,1044.8 1036.1,1000.3 974.02,882.55 950.67,838.25"];
	5 -- 153	[pos="1043.3,1055.1 989.1,1040.1 862.42,1005.1 808.25,990.11"];
	5 -- 188	[pos="1054.4,1077.5 1031.8,1102.1 987.66,1149.9 964.94,1174.6"];
	189	[height=0.5,
		pos="1395.1,1059.2",
		width=0.75];
	5 -- 189	[pos="1096,1061.8 1157.4,1061.3 1306.1,1060 1367.7,1059.5"];
	5 -- 192	[pos="1089.9,1050.8 1153.9,1016.8 1344.2,915.77 1408.4,881.66"];
	193	[height=0.5,
		pos="1045.5,1292.1",
		width=0.75];
	5 -- 193	[pos="1066.9,1080.1 1062.5,1123.1 1051.7,1231.2 1047.3,1274.1"];
	197	[height=0.5,
		pos="937.7,1254.2",
		width=0.75];
	5 -- 197	[pos="1057.3,1078.8 1032.5,1115.2 973.7,1201.4 948.98,1237.7"];
	201	[height=0.5,
		pos="1369.7,1108.7",
		width=0.75];
	5 -- 201	[pos="1095.1,1066.2 1152.1,1075 1285.8,1095.7 1343,1104.6"];
	204	[height=0.5,
		pos="1316.2,1277",
		width=0.75];
	5 -- 204	[pos="1085.3,1076.5 1130.4,1115.7 1254.6,1223.5 1299.6,1262.6"];
	208	[height=0.5,
		pos="1246.1,1104.4",
		width=0.75];
	5 -- 208	[pos="1094.5,1068.2 1128.2,1076.3 1186.9,1090.3 1220.6,1098.3"];
	5 -- 14	[pos="1047.2,1073 1036.1,1078.6 1022.8,1085.3 1011.7,1090.9"];
	210	[height=0.5,
		pos="1383.6,1001.9",
		width=0.75];
	5 -- 210	[pos="1094.7,1057.1 1154,1045.8 1298.2,1018.2 1357.5,1006.9"];
	212	[height=0.5,
		pos="1360.3,1217.5",
		width=0.75];
	5 -- 212	[pos="1090.1,1073.5 1144.1,1102.2 1284.9,1177.3 1338.9,1206"];
	215	[height=0.5,
		pos="1001.7,1238.2",
		width=0.75];
	5 -- 215	[pos="1062,1079.6 1049.2,1113.4 1021.2,1187 1008.3,1220.7"];
	217	[height=0.5,
		pos="850.18,1121.7",
		width=0.75];
	5 -- 217	[pos="1043.6,1068.9 1001.6,1080.4 917.35,1103.4 875.29,1114.8"];
	5 -- 32	[pos="1069.1,1080.1 1069.9,1114.7 1071.5,1190.1 1072.3,1224.9"];
	5 -- 86	[pos="1088.1,1075.1 1096,1080.3 1105.1,1086.4 1112.9,1091.7"];
	5 -- 116	[pos="1093.8,1069.2 1154.6,1086.3 1309.3,1129.8 1370.2,1147"];
	190	[height=0.5,
		pos="1473.7,474.64",
		width=0.75];
	189 -- 190	[pos="1397.5,1041.1 1409.2,954.07 1459.5,580.03 1471.2,492.85"];
	194	[height=0.5,
		pos="735.41,1308.2",
		width=0.75];
	193 -- 194	[pos="1018.6,1293.5 959.9,1296.5 821.34,1303.7 762.55,1306.8"];
	198	[height=0.5,
		pos="574.7,1267.2",
		width=0.75];
	197 -- 198	[pos="910.71,1255.2 843.51,1257.6 669.26,1263.8 601.87,1266.2"];
	202	[height=0.5,
		pos="1492.1,582.88",
		width=0.75];
	201 -- 202	[pos="1373.8,1090.9 1392.6,1010.4 1469.2,681.12 1487.9,600.67"];
	205	[height=0.5,
		pos="1440.4,1405.4",
		width=0.75];
	204 -- 205	[pos="1330.9,1292.2 1354.8,1316.9 1401.8,1365.5 1425.7,1390.2"];
	208 -- 209	[pos="1242.3,1086.2 1232.2,1036.8 1204.2,900.61 1194.1,851.29"];
	14 -- 75	[pos="1008.7,1088.8 1044.7,1063.3 1123.4,1007.9 1159.4,982.48"];
	14 -- 104	[pos="987.06,1083.8 980.79,1044.3 965.96,950.66 959.72,911.28"];
	14 -- 176	[pos="965.03,1094.7 916.3,1080.4 808.85,1048.8 760.04,1034.5"];
	365	[height=0.5,
		pos="1260.4,1148.5",
		width=0.75];
	14 -- 365	[pos="1016.4,1106.5 1068.1,1115.4 1182.1,1135 1233.9,1144"];
	367	[height=0.5,
		pos="1235.5,1277",
		width=0.75];
	14 -- 367	[pos="1008.4,1115.1 1053.9,1147.6 1171.1,1231.1 1216.8,1263.7"];
	370	[height=0.5,
		pos="1059.3,1385.8",
		width=0.75];
	14 -- 370	[pos="994.38,1120.1 1006.9,1171.4 1042.4,1316.7 1054.9,1367.8"];
	374	[height=0.5,
		pos="1185.3,1339.7",
		width=0.75];
	14 -- 374	[pos="1003.1,1117.9 1038.6,1161.2 1136.7,1280.6 1172.2,1323.8"];
	378	[height=0.5,
		pos="764.55,1173.6",
		width=0.75];
	14 -- 378	[pos="965.38,1109.8 922.03,1123.5 832.4,1152 789.07,1165.8"];
	14 -- 44	[pos="989.28,1120 987.68,1164.6 983.54,1279.2 981.93,1324"];
	14 -- 139	[pos="1012.3,1112.7 1063.6,1137.3 1189.5,1197.7 1240.8,1222.3"];
	262	[height=0.5,
		pos="867.31,1235.3",
		width=0.75];
	14 -- 262	[pos="975.63,1117.5 952,1143.2 905.09,1194.2 881.52,1219.8"];
	283	[height=0.5,
		pos="1322.5,1173.4",
		width=0.75];
	14 -- 283	[pos="1015.8,1107.5 1077.7,1120.8 1234.3,1154.4 1296.4,1167.8"];
	301	[height=0.5,
		pos="991.92,1386.3",
		width=0.75];
	14 -- 301	[pos="990.06,1120.2 990.42,1171.5 991.43,1317.1 991.79,1368.2"];
	319	[height=0.5,
		pos="856.89,1279.3",
		width=0.75];
	14 -- 319	[pos="977.66,1118.3 952.31,1152.1 894.45,1229.2 869.13,1263"];
	334	[height=0.5,
		pos="826.59,1165.7",
		width=0.75];
	14 -- 334	[pos="966.53,1111.1 935.48,1123.2 880.98,1144.5 849.95,1156.6"];
	355	[height=0.5,
		pos="1254.9,1321",
		width=0.75];
	14 -- 355	[pos="1006.9,1116 1054.7,1155.5 1189.7,1267.1 1237.7,1306.8"];
	210 -- 211	[pos="1385.5,983.8 1393.1,913.98 1420.4,662.67 1428,592.42"];
	213	[height=0.5,
		pos="1635.2,1056.9",
		width=0.75];
	212 -- 213	[pos="1381,1205.4 1432.1,1175.6 1563.7,1098.7 1614.7,1068.9"];
	215 -- 216	[pos="980.85,1226.2 927.33,1195.4 785.63,1113.8 732.32,1083.1"];
	218	[height=0.5,
		pos="515.93,757.32",
		width=0.75];
	217 -- 218	[pos="835.82,1106 780.96,1046.2 585,832.61 530.24,772.92"];
	220	[height=0.5,
		pos="1500.5,816.93",
		width=0.75];
	219 -- 220	[pos="1070.7,1179.8 1141.4,1120.1 1412.7,891.05 1483.5,831.27"];
	223	[height=0.5,
		pos="1528.7,1141.5",
		width=0.75];
	222 -- 223	[pos="1162.4,1216.3 1233.7,1201.7 1431.4,1161.4 1502.7,1146.8"];
	226	[height=0.5,
		pos="422.14,1190.5",
		width=0.75];
	225 -- 226	[pos="757.39,1258.9 690.91,1245.3 515.13,1209.5 448.37,1195.9"];
	230	[height=0.5,
		pos="318.35,1169",
		width=0.75];
	229 -- 230	[pos="694.89,1227.5 621.88,1216.1 418.03,1184.5 344.89,1173.1"];
	233	[height=0.5,
		pos="547.75,599.11",
		width=0.75];
	232 -- 233	[pos="687.27,1097.5 665.06,1018.2 575.09,696.79 552.77,617.07"];
	234 -- 235	[pos="964.29,1128.5 994.2,1071 1089.6,887.35 1119.3,830.01"];
	236 -- 237	[pos="1091.3,1134.1 1144.5,1064.7 1354.1,791.48 1407.3,722.19"];
	239	[height=0.5,
		pos="1290.9,1369.8",
		width=0.75];
	238 -- 239	[pos="954.93,1303.4 1021.5,1316.6 1197.7,1351.3 1264.6,1364.6"];
	243	[height=0.5,
		pos="996.15,1452.3",
		width=0.75];
	242 -- 243	[pos="882.47,1343 907.32,1366.9 955.62,1413.3 980.51,1437.2"];
	248 -- 249	[pos="546.49,299.82 509.72,347.66 402.5,487.17 365.94,534.74"];
	251	[height=0.5,
		pos="238.03,243.33",
		width=0.75];
	250 -- 251	[pos="586.79,221.04 517.54,225.47 334.32,237.18 265.07,241.61"];
	11 -- 39	[pos="720.78,587.42 693.44,624.57 627.19,714.6 599.98,751.58"];
	11 -- 13	[pos="756.27,580.49 798.32,597.6 886.24,633.38 928.18,650.45"];
	11 -- 19	[pos="706.6,566.18 684.45,562.15 652.93,556.41 630.79,552.38"];
	11 -- 277	[pos="757.81,563.98 815.51,547.79 957.67,507.92 1015.6,491.68"];
	313	[height=0.5,
		pos="423.73,471.6",
		width=0.75];
	11 -- 313	[pos="708.36,563.09 650.52,544.5 506.09,498.07 448.25,479.48"];
	11 -- 332	[pos="750.79,584.7 784.11,610.24 855.27,664.78 888.52,690.26"];
	333	[height=0.5,
		pos="609.28,654.14",
		width=0.75];
	11 -- 333	[pos="713.84,583.78 690.68,599.37 651.81,625.52 628.54,641.18"];
	335	[height=0.5,
		pos="757.11,305.21",
		width=0.75];
	11 -- 335	[pos="734.55,552.7 738.98,504.03 751.05,371.66 755.47,323.25"];
	11 -- 338	[pos="759.13,565.85 801.71,557.56 885.35,541.26 927.91,532.96"];
	11 -- 339	[pos="726.96,588.55 717.7,616.06 699.88,669 690.59,696.61"];
	340	[height=0.5,
		pos="684.26,351.89",
		width=0.75];
	11 -- 340	[pos="728.9,553.04 719.76,511.86 697.35,410.89 688.23,369.76"];
	70	[height=0.5,
		pos="668.62,307.84",
		width=0.75];
	11 -- 70	[pos="728.46,552.88 716.7,504.7 684.69,373.64 672.98,325.71"];
	100	[height=0.5,
		pos="601.88,327.51",
		width=0.75];
	11 -- 100	[pos="723.67,553.85 699.62,509.15 635.12,389.29 611.08,344.61"];
	134	[height=0.5,
		pos="819.14,344.15",
		width=0.75];
	11 -- 134	[pos="739.65,553.17 755.78,510.77 796.31,404.18 812.41,361.86"];
	169	[height=0.5,
		pos="430.12,350.33",
		width=0.75];
	11 -- 169	[pos="714.4,557.5 660.22,518.01 502.23,402.88 448.36,363.62"];
	203	[height=0.5,
		pos="861.41,388.18",
		width=0.75];
	11 -- 203	[pos="744.51,554.42 768.98,519.62 825.53,439.21 849.9,404.55"];
	11 -- 233	[pos="706.36,575 671.16,580.35 609.39,589.74 574.22,595.09"];
	254	[height=0.5,
		pos="1236.4,182.49",
		width=0.75];
	253 -- 254	[pos="957.36,193.64 1015.5,191.32 1151.2,185.89 1209.3,183.57"];
	258	[height=0.5,
		pos="1018.6,151.67",
		width=0.75];
	257 -- 258	[pos="775.28,210.93 826.72,198.4 941.49,170.45 992.86,157.93"];
	261	[height=0.5,
		pos="436.61,1055.7",
		width=0.75];
	260 -- 261	[pos="495.2,393.03 486.66,489.57 446.77,940.77 438.22,1037.5"];
	265 -- 266	[pos="563.63,389.76 565.41,465.04 572.18,751.04 573.96,826.22"];
	267 -- 268	[pos="822.85,317.78 826.8,379.62 839.6,579.78 843.55,641.57"];
	19 -- 187	[pos="587,561.52 560.35,582.64 509.98,622.58 483.42,643.64"];
	19 -- 246	[pos="605.81,565.95 609.9,625.32 622.76,811.84 626.82,870.75"];
	19 -- 384	[pos="631.19,544.27 684.68,537.59 804.58,522.6 858.26,515.89"];
	19 -- 52	[pos="585.63,560.52 544.52,588.59 447.4,654.9 406.18,683.04"];
	19 -- 83	[pos="597.63,529.79 591.67,514.41 583.1,492.32 577.18,477.04"];
	112	[height=0.5,
		pos="359.39,383.57",
		width=0.75];
	19 -- 112	[pos="585.31,534.73 539.48,504.07 424.27,426.99 378.54,396.39"];
	152	[height=0.5,
		pos="515.4,327.5",
		width=0.75];
	19 -- 152	[pos="597.4,529.97 580.67,488.65 539.09,386.01 522.45,344.92"];
	19 -- 218	[pos="597.14,565.13 580.46,604.6 540.09,700.13 523.37,739.7"];
	293	[height=0.5,
		pos="729.07,416.59",
		width=0.75];
	19 -- 293	[pos="619.07,532.32 642.94,507.21 690.19,457.5 714.25,432.19"];
	312	[height=0.5,
		pos="299.65,493.69",
		width=0.75];
	19 -- 312	[pos="578.28,542.96 520.65,532.77 383.63,508.54 325.95,498.34"];
	331	[height=0.5,
		pos="304.65,435.81",
		width=0.75];
	19 -- 331	[pos="580.76,538.74 524.65,517.83 384.55,465.6 328.44,444.68"];
	351	[height=0.5,
		pos="366.27,652",
		width=0.75];
	19 -- 351	[pos="581.7,557.62 536.15,577.57 434.54,622.09 389.05,642.02"];
	364	[height=0.5,
		pos="452.44,422.89",
		width=0.75];
	19 -- 364	[pos="587.39,533.54 558.18,509.59 499.09,461.14 469.76,437.1"];
	379	[height=0.5,
		pos="457.96,801.36",
		width=0.75];
	19 -- 379	[pos="594.7,564.65 567.99,610.88 494.41,738.25 467.76,784.39"];
	387	[height=0.5,
		pos="612.07,415.52",
		width=0.75];
	19 -- 387	[pos="605.57,529.52 607.01,504.36 609.59,459.07 611.03,433.81"];
	391	[height=0.5,
		pos="286.81,552.65",
		width=0.75];
	19 -- 391	[pos="577.45,548.04 517.42,548.99 373.8,551.27 313.83,552.22"];
	270	[height=0.5,
		pos="1573.1,1025.7",
		width=0.75];
	269 -- 270	[pos="1684.2,723.76 1663.6,779.64 1600.1,952.36 1579.6,1008.2"];
	274	[height=0.5,
		pos="1090.7,119.02",
		width=0.75];
	273 -- 274	[pos="1388.9,392.25 1335,342.86 1160.5,183 1106.7,133.66"];
	280	[height=0.5,
		pos="1422,355.21",
		width=0.75];
	279 -- 280	[pos="1557.8,482.72 1528.8,455.47 1466.9,397.37 1437.8,370.02"];
	282 -- 283	[pos="1550.2,866.98 1509.1,922.36 1375.8,1101.6 1334.7,1156.9"];
	285	[height=0.5,
		pos="1620.4,355.66",
		width=0.75];
	284 -- 285	[pos="1574.3,436.37 1584.5,418.43 1600.6,390.35 1610.8,372.48"];
	288	[height=0.5,
		pos="1417.5,261.43",
		width=0.75];
	287 -- 288	[pos="1507.5,392.98 1488,364.54 1448.2,306.39 1428.7,277.9"];
	292 -- 293	[pos="1311.2,423.44 1210,422.25 857.47,418.1 756.37,416.92"];
	10 -- 38	[pos="453.84,722.96 466.55,772.22 502.06,909.77 514.8,959.11"];
	10 -- 66	[pos="472.63,695.79 515.39,678.75 605.64,642.77 648.41,625.72"];
	10 -- 313	[pos="447.23,686.79 442.46,643.14 430.48,533.41 425.72,489.84"];
	314	[height=0.5,
		pos="362.02,967.68",
		width=0.75];
	10 -- 314	[pos="443.37,722.75 427.52,770.47 383.92,901.75 367.97,949.78"];
	10 -- 316	[pos="467.96,691.88 498.9,670.01 560.32,626.59 591.18,604.78"];
	317	[height=0.5,
		pos="246.93,922.18",
		width=0.75];
	10 -- 317	[pos="434.68,720.73 397.36,760.78 298.53,866.82 261.35,906.71"];
	320	[height=0.5,
		pos="237.64,484.13",
		width=0.75];
	10 -- 320	[pos="434.69,689.93 396.03,649.56 291.06,539.92 252.28,499.43"];
	323	[height=0.5,
		pos="381.37,427.6",
		width=0.75];
	10 -- 323	[pos="444.88,687.34 432.66,637.33 398.06,495.86 385.77,445.59"];
	10 -- 325	[pos="454.58,723.06 463.41,752.69 480.95,811.51 489.76,841.06"];
	326	[height=0.5,
		pos="165.4,682.96",
		width=0.75];
	10 -- 326	[pos="422.27,703.01 368.17,698.79 246.89,689.32 192.59,685.08"];
	329	[height=0.5,
		pos="140.2,727.1",
		width=0.75];
	10 -- 329	[pos="422.35,707.03 363.9,711.19 225.83,721.01 167.24,725.18"];
	96	[height=0.5,
		pos="87.978,651.58",
		width=0.75];
	10 -- 96	[pos="422.67,701.18 355.86,691.28 181.43,665.43 114.58,655.52"];
	131	[height=0.5,
		pos="297.34,376.59",
		width=0.75];
	10 -- 131	[pos="441.06,687.46 414.63,630.28 331.59,450.67 305.36,393.94"];
	165	[height=0.5,
		pos="140.67,771.18",
		width=0.75];
	10 -- 165	[pos="423.45,710.64 365.37,723.07 224.81,753.17 166.59,765.63"];
	200	[height=0.5,
		pos="144.72,836.75",
		width=0.75];
	10 -- 200	[pos="426.34,715.01 369.77,739.47 223.87,802.53 167.46,826.92"];
	231	[height=0.5,
		pos="230.72,876.42",
		width=0.75];
	10 -- 231	[pos="431.72,718.85 390.8,750.92 289.31,830.49 248.31,862.62"];
	252	[height=0.5,
		pos="159.89,560.95",
		width=0.75];
	10 -- 252	[pos="427.48,694.28 373.86,667.57 235.77,598.76 181.89,571.92"];
	276	[height=0.5,
		pos="235.27,418.88",
		width=0.75];
	10 -- 276	[pos="437.11,688.91 399.54,638.65 285.27,485.77 247.52,435.26"];
	294 -- 295	[pos="582.85,894.23 647.59,908.81 816.64,946.89 881.42,961.48"];
	296 -- 297	[pos="462.77,608.35 536.48,600.88 740.91,580.15 814.61,572.67"];
	299	[height=0.5,
		pos="256.24,1140.2",
		width=0.75];
	298 -- 299	[pos="304.55,941.74 294.6,982.6 270.49,1081.6 260.59,1122.3"];
	302 -- 303	[pos="509.46,497.58 591.8,467.23 864.78,366.63 947.05,336.31"];
	305	[height=0.5,
		pos="695.07,262.09",
		width=0.75];
	304 -- 305	[pos="380.08,488.73 438.23,446.89 617.67,317.77 676.31,275.58"];
	308	[height=0.5,
		pos="104.22,881.35",
		width=0.75];
	307 -- 308	[pos="249.76,755.39 218.66,782.31 152.34,839.7 121.13,866.72"];
	311 -- 312	[pos="320.17,678.06 315.91,639.76 305.96,550.41 301.68,511.89"];
	314 -- 315	[pos="389.03,968.2 473.66,969.84 733.13,974.88 817.9,976.52"];
	318	[height=0.5,
		pos="360.07,1213",
		width=0.75];
	317 -- 318	[pos="253.84,939.94 274.09,991.98 333.12,1143.7 353.25,1195.5"];
	321	[height=0.5,
		pos="622.69,174.38",
		width=0.75];
	320 -- 321	[pos="254.93,470.22 318.88,418.78 541.57,239.63 605.44,188.25"];
	323 -- 324	[pos="408.54,429.2 508,435.06 851.56,455.3 950.72,461.14"];
	327	[height=0.5,
		pos="300.19,331.39",
		width=0.75];
	326 -- 327	[pos="172.27,665.04 195.44,604.59 270.58,408.62 293.49,348.86"];
	330	[height=0.5,
		pos="113.57,516.93",
		width=0.75];
	329 -- 330	[pos="137.89,708.82 132.84,668.97 120.89,574.69 115.87,535.02"];
	333 -- 334	[pos="616.76,671.75 650.19,750.46 785.77,1069.6 819.14,1148.1"];
	336	[height=0.5,
		pos="910.12,106.53",
		width=0.75];
	335 -- 336	[pos="769.63,288.95 798.4,251.6 868.92,160.03 897.64,122.73"];
	341	[height=0.5,
		pos="868.15,161.29",
		width=0.75];
	340 -- 341	[pos="699,336.62 733.43,300.93 818.84,212.4 853.35,176.64"];
	345	[height=0.5,
		pos="1674.8,1100.9",
		width=0.75];
	344 -- 345	[pos="1346.9,1015.5 1412.1,1032.5 1584.7,1077.5 1649.6,1094.4"];
	350	[height=0.5,
		pos="508.81,1092",
		width=0.75];
	349 -- 350	[pos="1032.8,1105.4 938.79,1103 629.71,1095.1 535.99,1092.7"];
	353	[height=0.5,
		pos="1648.5,926.66",
		width=0.75];
	352 -- 353	[pos="1225.6,740.67 1302,774.29 1549.5,883.1 1625.9,916.69"];
	357	[height=0.5,
		pos="1340.6,324.13",
		width=0.75];
	356 -- 357	[pos="1166.3,500.7 1201.6,464.97 1290.1,375.28 1325.6,339.36"];
	360	[height=0.5,
		pos="1457.4,1131.6",
		width=0.75];
	359 -- 360	[pos="1380.5,778 1394.1,840.76 1439.7,1050.2 1453.4,1113.4"];
	363 -- 364	[pos="888.13,454.19 806.37,448.32 561.23,430.71 479.38,424.83"];
	365 -- 366	[pos="1262.7,1130.6 1272.3,1055.6 1309.2,768.37 1318.8,693.39"];
	368	[height=0.5,
		pos="1540.6,1072.7",
		width=0.75];
	367 -- 368	[pos="1254.5,1264.2 1309.3,1227.5 1466.7,1122.1 1521.5,1085.5"];
	371	[height=0.5,
		pos="914.97,1459.1",
		width=0.75];
	370 -- 371	[pos="1037.7,1396.8 1010.5,1410.6 964.01,1434.2 936.73,1448.1"];
	375	[height=0.5,
		pos="1281.5,1427.8",
		width=0.75];
	374 -- 375	[pos="1201.6,1354.6 1219.4,1370.9 1247.7,1396.8 1265.4,1413"];
	378 -- 379	[pos="751.38,1157.6 701.06,1096.5 521.31,878.28 471.08,817.29"];
	380 -- 381	[pos="1210.3,480.31 1133.8,531.84 851.08,722.44 774.66,773.95"];
	382 -- 383	[pos="1268.3,399.8 1238.2,463.27 1134.5,682.32 1104.4,745.95"];
	386 -- 387	[pos="1113.8,468.87 1023.1,459.22 729.57,428.01 638.96,418.37"];
	390	[height=0.5,
		pos="206.8,813.74",
		width=0.75];
	389 -- 390	[pos="671.32,829.96 585.36,826.96 319.69,817.68 233.85,814.69"];
	21 -- 22	[pos="1054.7,1319.2 1094.3,1250.6 1243.2,992.43 1283.2,923.13"];
	25	[height=0.5,
		pos="236.98,677.64",
		width=0.75];
	24 -- 25	[pos="195.39,948.2 203.36,896.37 226.24,747.51 234.21,695.69"];
	25 -- 26	[pos="259.49,667.4 327.28,636.57 528.94,544.85 597,513.9"];
	28 -- 29	[pos="1386,1244.2 1410,1189.2 1483,1021.5 1506.8,966.67"];
	34 -- 35	[pos="197.59,477.81 274.83,439.71 533.08,312.3 609.97,274.37"];
	49 -- 50	[pos="650.87,1304.8 689.99,1252.7 812.7,1089.4 851.91,1037.3"];
	58	[height=0.5,
		pos="946.98,18",
		width=0.75];
	57 -- 58	[pos="1253,214.94 1194.7,177.41 1024.6,67.956 966.61,30.637"];
	58 -- 59	[pos="928.97,31.672 890.48,60.907 800.54,129.21 762.08,158.42"];
	62	[height=0.5,
		pos="1785.5,486.05",
		width=0.75];
	61 -- 62	[pos="1813.9,614.05 1807.7,586.05 1795.8,532.18 1789.5,504.09"];
	62 -- 63	[pos="1760.7,493.25 1733.2,501.2 1689.3,513.9 1661.8,521.85"];
	69	[height=0.5,
		pos="747.52,106.05",
		width=0.75];
	68 -- 69	[pos="1118.9,183.23 1046.8,168.24 845.33,126.38 773.43,111.44"];
	69 -- 70	[pos="740.66,123.61 725.74,161.77 690.48,251.93 675.52,290.18"];
	73	[height=0.5,
		pos="1338.3,278.78",
		width=0.75];
	72 -- 73	[pos="1517.5,315.91 1478.1,307.76 1403.8,292.36 1364.4,284.19"];
	73 -- 74	[pos="1319.2,291.74 1277.5,319.9 1179.2,386.43 1137.5,414.66"];
	77 -- 78	[pos="1518.7,361.11 1467.2,352.97 1354.8,335.22 1303.3,327.1"];
	80 -- 81	[pos="1175.2,1187.2 1100.9,1171.7 887.5,1127.1 813.22,1111.5"];
	91	[height=0.5,
		pos="173.23,380.12",
		width=0.75];
	90 -- 91	[pos="471.24,155.02 415.77,196.92 247.05,324.36 191.32,366.46"];
	91 -- 92	[pos="181.54,397.46 204.49,445.33 268.55,578.96 291.53,626.9"];
	95	[height=0.5,
		pos="119.2,336.11",
		width=0.75];
	94 -- 95	[pos="388.13,183.99 334.66,214.24 193.1,294.31 139.85,324.43"];
	95 -- 96	[pos="117.38,354.44 111.85,410.33 95.243,578.17 89.758,633.6"];
	99	[height=0.5,
		pos="542.66,53.106",
		width=0.75];
	98 -- 99	[pos="804.21,111.43 749.67,99.27 623.03,71.03 568.45,58.859"];
	99 -- 100	[pos="546.54,71.111 557.27,120.83 587.23,259.64 597.98,309.44"];
	102 -- 103	[pos="911.79,1176.1 967.02,1152.6 1105.9,1093.7 1161,1070.3"];
	108	[height=0.5,
		pos="1209.9,231.91",
		width=0.75];
	107 -- 108	[pos="1103.1,174.86 1126.8,187.52 1165,207.94 1188.7,220.61"];
	108 -- 109	[pos="1202.9,249.67 1178.7,310.77 1099.3,511.92 1075.3,572.54"];
	111 -- 112	[pos="536.26,201.94 500.6,238.56 409.87,331.74 374.15,368.41"];
	119	[height=0.5,
		pos="1420.9,1361.4",
		width=0.75];
	118 -- 119	[pos="1665.7,1159.3 1618.2,1198.5 1485.7,1307.9 1438.2,1347.1"];
	119 -- 120	[pos="1395.1,1355.6 1338.5,1342.9 1204,1312.8 1147.4,1300.1"];
	123	[height=0.5,
		pos="1157.9,100.75",
		width=0.75];
	122 -- 123	[pos="1583,269.62 1505.5,238.83 1258.3,140.64 1181.1,109.98"];
	123 -- 124	[pos="1131.7,105.96 1066.6,118.94 897.76,152.61 832.46,165.63"];
	127	[height=0.5,
		pos="484.15,1222.5",
		width=0.75];
	126 -- 127	[pos="1326.9,1318 1197.3,1303.3 639.73,1240.2 510.82,1225.6"];
	127 -- 128	[pos="478.07,1204.7 458.43,1147.1 396.82,966.45 377.13,908.73"];
	130 -- 131	[pos="908.16,244.33 805.47,266.57 425.69,348.8 323.05,371.02"];
	133 -- 134	[pos="1202.4,281.03 1128.5,293.2 919.36,327.64 845.43,339.82"];
	136 -- 137	[pos="1603.7,429.91 1536.4,458.17 1340.3,540.46 1272.8,568.82"];
	141 -- 142	[pos="1663.2,407.85 1597.8,399.89 1430.5,379.52 1365.2,371.57"];
	147	[height=0.5,
		pos="1694.2,978.47",
		width=0.75];
	146 -- 147	[pos="1780.5,870.4 1761.5,894.22 1725.9,938.79 1706.9,962.57"];
	147 -- 148	[pos="1669.1,971.35 1593.4,949.87 1368.2,885.93 1292.5,864.47"];
	151	[height=0.5,
		pos="913.74,62.326",
		width=0.75];
	150 -- 151	[pos="1403.4,300.37 1319.4,259.55 1019.5,113.73 935.64,72.974"];
	151 -- 152	[pos="894.52,75.116 827.23,119.91 602.6,269.45 534.88,314.53"];
	156	[height=0.5,
		pos="576.57,1316.9",
		width=0.75];
	155 -- 156	[pos="280.36,1216.3 339.72,1236.4 492.57,1288.3 552.22,1308.6"];
	156 -- 157	[pos="603.75,1318.1 646.41,1320.1 728.6,1323.8 771.18,1325.8"];
	160 -- 161	[pos="1158.2,1133.8 1226.4,1069.1 1497,812.31 1565.7,747.17"];
	164	[height=0.5,
		pos="27,790.6",
		width=0.75];
	163 -- 164	[pos="67.23,908.39 58.36,882.42 41.922,834.29 33.052,808.32"];
	164 -- 165	[pos="53.364,786.09 71.727,782.96 96.116,778.79 114.45,775.66"];
	168	[height=0.5,
		pos="173.07,292.01",
		width=0.75];
	167 -- 168	[pos="121.28,588.42 131.02,532.67 160.27,365.24 169.94,309.95"];
	168 -- 169	[pos="198.66,297.81 247.8,308.96 354.89,333.26 404.26,344.46"];
	174	[height=0.5,
		pos="235.28,347.37",
		width=0.75];
	173 -- 174	[pos="72.489,702.57 101.18,639.98 198.63,427.35 227.29,364.81"];
	174 -- 175	[pos="259.87,355.39 350.82,385.05 667.55,488.32 758.38,517.93"];
	181	[height=0.5,
		pos="955.28,150.61",
		width=0.75];
	180 -- 181	[pos="353.26,172.79 456.38,168.99 824.45,155.43 928,151.61"];
	181 -- 182	[pos="973.51,163.97 1021.1,198.87 1148.7,292.45 1196.3,327.33"];
	190 -- 191	[pos="1451.6,463.97 1371.7,425.35 1098,293.13 1018.1,254.48"];
	195	[height=0.5,
		pos="236.16,1093.4",
		width=0.75];
	194 -- 195	[pos="712.66,1298.4 629.49,1262.6 342.43,1139.1 259.04,1103.3"];
	195 -- 196	[pos="242.11,1075.6 255.79,1034.5 289.33,933.94 302.99,892.97"];
	199	[height=0.5,
		pos="166.33,1093.8",
		width=0.75];
	198 -- 199	[pos="551.87,1257.5 480.32,1227.1 260.93,1133.9 189.25,1103.5"];
	199 -- 200	[pos="164.81,1075.7 160.84,1028.5 150.21,901.97 146.24,854.8"];
	202 -- 203	[pos="1467.4,575.25 1366.5,544.1 986.54,426.81 885.97,395.76"];
	206	[height=0.5,
		pos="1522.2,1282.4",
		width=0.75];
	205 -- 206	[pos="1451.4,1388.8 1467,1365.4 1495.4,1322.7 1511.1,1299.2"];
	206 -- 207	[pos="1507.2,1267.1 1467.9,1227.1 1362.5,1119.8 1323.2,1079.8"];
	213 -- 214	[pos="1627.1,1039.7 1594.4,969.68 1471.3,706.36 1438.2,635.67"];
	220 -- 221	[pos="1484.5,802.11 1402,725.47 1024.7,374.76 942.43,298.29"];
	223 -- 224	[pos="1534.4,1123.5 1551.5,1069.6 1601.8,910.27 1618.8,856.51"];
	227	[height=0.5,
		pos="193.67,1048.1",
		width=0.75];
	226 -- 227	[pos="402.26,1178.1 359.05,1151.2 256.98,1087.6 213.67,1060.6"];
	227 -- 228	[pos="199,1030.4 213.16,983.28 251.61,855.31 265.81,808.05"];
	230 -- 231	[pos="313,1151.1 297.36,1098.9 251.81,946.82 236.11,894.42"];
	240	[height=0.5,
		pos="1595.7,1117.2",
		width=0.75];
	239 -- 240	[pos="1308.1,1355.5 1361.8,1311 1525.2,1175.6 1578.6,1131.4"];
	240 -- 241	[pos="1590.7,1099.2 1574.4,1039.7 1522.2,850 1505.9,790.76"];
	244	[height=0.5,
		pos="1223.9,1383.7",
		width=0.75];
	243 -- 244	[pos="1021,1444.8 1064.8,1431.6 1155.4,1404.4 1199.2,1391.2"];
	244 -- 245	[pos="1213.6,1366.9 1175.9,1305.3 1045.7,1092.7 1007.9,1030.9"];
	251 -- 252	[pos="233.61,261.32 219.85,317.22 177.95,487.53 164.27,543.16"];
	255	[height=0.5,
		pos="1737.3,601.47",
		width=0.75];
	254 -- 255	[pos="1253.3,196.67 1330,260.78 1643.7,523.19 1720.3,587.29"];
	255 -- 256	[pos="1721.1,616.48 1659.4,673.82 1438.7,878.65 1377.1,935.9"];
	258 -- 259	[pos="1021.1,169.66 1027.2,213.27 1042.7,324.21 1048.8,367.88"];
	261 -- 262	[pos="459.76,1065.4 534.63,1096.6 769.64,1194.6 844.3,1225.7"];
	271	[height=0.5,
		pos="578.46,1223.1",
		width=0.75];
	270 -- 271	[pos="1547,1030.9 1406.9,1058.7 745.28,1190 604.74,1217.9"];
	271 -- 272	[pos="569.9,1206 544.41,1155 469.13,1004.4 443.45,953.07"];
	275	[height=0.5,
		pos="480.12,95.988",
		width=0.75];
	274 -- 275	[pos="1063.7,118 962.71,114.19 608.2,100.82 507.17,97.009"];
	275 -- 276	[pos="467.64,112.44 425.64,167.83 289.69,347.11 247.73,402.45"];
	280 -- 281	[pos="1404.6,369.4 1365.2,401.45 1269.9,479.14 1230.8,511.05"];
	285 -- 286	[pos="1600.2,367.81 1559.5,392.44 1467.5,447.97 1426.7,472.65"];
	289	[height=0.5,
		pos="1058,207.6",
		width=0.75];
	288 -- 289	[pos="1391,257.47 1324.6,247.52 1151,221.53 1084.5,211.57"];
	289 -- 290	[pos="1046.8,223.98 986.98,310.82 707.62,716.62 647.76,803.58"];
	300	[height=0.5,
		pos="709.88,1363.2",
		width=0.75];
	299 -- 300	[pos="278.12,1150.9 354.84,1188.7 611.16,1314.6 687.96,1352.4"];
	300 -- 301	[pos="736.92,1365.4 790.83,1369.8 911.12,1379.7 964.96,1384.1"];
	305 -- 306	[pos="720.82,268.25 808.47,289.24 1094.6,357.74 1181.8,378.63"];
	309	[height=0.5,
		pos="255.71,1009.2",
		width=0.75];
	308 -- 309	[pos="121.01,895.52 150.13,920.08 209.67,970.32 238.85,994.93"];
	309 -- 310	[pos="282.9,1011.1 331.8,1014.5 434.02,1021.6 482.78,1025.1"];
	318 -- 319	[pos="386.78,1216.6 473.15,1228.1 744.22,1264.3 830.34,1275.8"];
	321 -- 322	[pos="649.2,178.76 731.6,192.35 982.6,233.78 1064.6,247.31"];
	327 -- 328	[pos="319.7,344.15 397.54,395.06 685.41,583.32 763.21,634.19"];
	330 -- 331	[pos="136.62,507.14 173.45,491.51 245.13,461.08 281.82,445.51"];
	336 -- 337	[pos="928.14,120.19 974.37,155.24 1096.8,248.05 1142.8,282.96"];
	341 -- 342	[pos="870.92,179.19 881.35,246.8 918.26,486.11 928.72,553.88"];
	346	[height=0.5,
		pos="1761.2,677.51",
		width=0.75];
	345 -- 346	[pos="1678.5,1083 1692.6,1013.9 1743.3,765.2 1757.5,695.68"];
	346 -- 347	[pos="1738.6,667.42 1677.8,640.31 1511.5,566.15 1450.6,539.02"];
	350 -- 351	[pos="503.04,1074.2 480.07,1003.3 395.2,741.3 372.11,670.01"];
	354	[height=0.5,
		pos="1502.5,1337.9",
		width=0.75];
	353 -- 354	[pos="1642.3,944.33 1618.3,1011.8 1532.6,1252.9 1508.7,1320.3"];
	354 -- 355	[pos="1475.5,1336.1 1427.9,1332.8 1329.4,1326.1 1281.8,1322.9"];
	357 -- 358	[pos="1341.1,342.32 1341.8,369.95 1343.2,422.19 1343.9,449.74"];
	361	[height=0.5,
		pos="927.56,1415.1",
		width=0.75];
	360 -- 361	[pos="1436.3,1142.9 1351.2,1188.4 1033.9,1358.2 948.71,1403.8"];
	361 -- 362	[pos="911.2,1400.6 860.5,1355.8 706.27,1219.3 655.32,1174.2"];
	368 -- 369	[pos="1538.5,1054.5 1531.7,993.24 1509.7,795.03 1502.9,733.85"];
	372	[height=0.5,
		pos="640.5,1267.1",
		width=0.75];
	371 -- 372	[pos="896.11,1445.9 845.84,1410.8 709.13,1315.1 659.14,1280.2"];
	372 -- 373	[pos="632.3,1249.9 620.12,1224.4 597.38,1176.8 585.11,1151.1"];
	376	[height=0.5,
		pos="1440.4,1305.5",
		width=0.75];
	375 -- 376	[pos="1299.4,1414 1330,1390.5 1391.7,1343 1422.3,1319.4"];
	376 -- 377	[pos="1424.2,1290.8 1369.6,1241.5 1192.8,1081.9 1138.2,1032.7"];
	390 -- 391	[pos="212.3,795.8 226.95,747.98 266.8,617.94 281.38,570.38"];
}
