graph {
	graph [bb="0,0,1056.7,1084.1",
		outputorder=edgesfirst,
		overlap=prism,
		size="50,50!",
		start=7057
	];
	node [label="\N"];
	0	[height=0.5,
		pos="41.382,676.27",
		width=0.75];
	1	[height=0.5,
		pos="111.26,787.35",
		width=0.75];
	0 -- 1	[pos="51.995,693.14 65.206,714.14 87.628,749.78 100.78,770.69"];
	20	[height=0.5,
		pos="27,545.32",
		width=0.75];
	0 -- 20	[pos="39.382,658.06 36.634,633.04 31.721,588.31 28.983,563.37"];
	2	[height=0.5,
		pos="181.47,864.02",
		width=0.75];
	1 -- 2	[pos="125.47,802.87 137.65,816.17 155.11,835.24 167.28,848.53"];
	59	[height=0.5,
		pos="228.98,819.98",
		width=0.75];
	1 -- 59	[pos="136.23,794.27 156.07,799.77 183.71,807.44 203.65,812.96"];
	26	[height=0.5,
		pos="81.257,499.49",
		width=0.75];
	20 -- 26	[pos="43.87,531.07 50.34,525.6 57.724,519.37 64.211,513.89"];
	21	[height=0.5,
		pos="188.1,448.54",
		width=0.75];
	20 -- 21	[pos="47.077,533.26 78.032,514.66 137.07,479.2 168.02,460.6"];
	3	[height=0.5,
		pos="253.54,870.02",
		width=0.75];
	2 -- 3	[pos="208.3,866.26 214.23,866.75 220.51,867.27 226.44,867.77"];
	42	[height=0.5,
		pos="221.97,775.94",
		width=0.75];
	2 -- 42	[pos="189.47,846.62 196.57,831.18 206.89,808.74 213.99,793.31"];
	34	[height=0.5,
		pos="80.082,589.41",
		width=0.75];
	26 -- 34	[pos="81.019,517.69 80.815,533.29 80.523,555.65 80.319,571.24"];
	27	[height=0.5,
		pos="252.5,455.56",
		width=0.75];
	26 -- 27	[pos="106.52,493.01 138.9,484.7 194.7,470.38 227.13,462.07"];
	4	[height=0.5,
		pos="156.75,735.61",
		width=0.75];
	3 -- 4	[pos="241.67,853.54 223.1,827.74 187.35,778.1 168.72,752.22"];
	93	[height=0.5,
		pos="417.33,895.46",
		width=0.75];
	3 -- 93	[pos="279.86,874.11 310.33,878.84 360.24,886.59 390.8,891.34"];
	41	[height=0.5,
		pos="123.76,645.6",
		width=0.75];
	34 -- 41	[pos="92.715,605.66 98.56,613.18 105.48,622.09 111.3,629.58"];
	35	[height=0.5,
		pos="119.17,450.05",
		width=0.75];
	34 -- 35	[pos="85.113,571.48 92.619,544.72 106.67,494.63 114.16,467.91"];
	5	[height=0.5,
		pos="142.12,599.59",
		width=0.75];
	4 -- 5	[pos="154.81,717.54 152.01,691.53 146.88,643.78 144.07,617.72"];
	60	[height=0.5,
		pos="291.47,696.89",
		width=0.75];
	4 -- 60	[pos="181.78,728.41 205.97,721.46 242.43,710.99 266.58,704.05"];
	49	[height=0.5,
		pos="197.66,500.73",
		width=0.75];
	41 -- 49	[pos="132.53,628.42 146.75,600.53 174.69,545.76 188.9,517.89"];
	41 -- 42	[pos="136,661.85 154.82,686.82 190.67,734.39 209.58,759.49"];
	6	[height=0.5,
		pos="57.105,455.18",
		width=0.75];
	5 -- 6	[pos="132.2,582.74 115.91,555.06 83.649,500.26 67.225,472.37"];
	5 -- 27	[pos="154.57,583.35 175.77,555.68 218.65,499.73 239.93,471.96"];
	53	[height=0.5,
		pos="277.24,608",
		width=0.75];
	49 -- 53	[pos="209.75,517.02 224.7,537.18 250.03,571.32 265.04,591.55"];
	50	[height=0.5,
		pos="323.83,456.78",
		width=0.75];
	49 -- 50	[pos="221.69,492.36 244.14,484.54 277.47,472.93 299.89,465.12"];
	7	[height=0.5,
		pos="121.16,360.19",
		width=0.75];
	6 -- 7	[pos="68.263,438.63 79.947,421.3 98.196,394.24 109.91,376.87"];
	6 -- 21	[pos="84.247,453.8 106.73,452.66 138.52,451.05 160.99,449.92"];
	58	[height=0.5,
		pos="171.93,691.24",
		width=0.75];
	53 -- 58	[pos="259.38,622.12 239.89,637.52 208.91,662.01 189.53,677.33"];
	54	[height=0.5,
		pos="417.11,605.13",
		width=0.75];
	53 -- 54	[pos="304.54,607.44 329.18,606.93 365.25,606.2 389.87,605.69"];
	8	[height=0.5,
		pos="49.798,408.66",
		width=0.75];
	7 -- 8	[pos="102.03,373.18 91.796,380.13 79.221,388.68 68.974,395.64"];
	22	[height=0.5,
		pos="208.98,395.35",
		width=0.75];
	7 -- 22	[pos="144.69,369.61 157.39,374.7 173.02,380.96 185.68,386.03"];
	67	[height=0.5,
		pos="284,740.91",
		width=0.75];
	58 -- 67	[pos="194.61,701.29 214.06,709.91 241.92,722.26 261.36,730.87"];
	58 -- 59	[pos="179.63,708.6 190.52,733.17 210.31,777.84 221.23,802.49"];
	9	[height=0.5,
		pos="92.819,306.31",
		width=0.75];
	8 -- 9	[pos="57.096,391.3 65.007,372.48 77.56,342.61 85.485,323.76"];
	8 -- 35	[pos="70.238,420.85 79.191,426.2 89.677,432.45 98.641,437.8"];
	75	[height=0.5,
		pos="428.73,649.15",
		width=0.75];
	67 -- 75	[pos="303.82,728.35 331.54,710.77 381.56,679.06 409.15,661.57"];
	68	[height=0.5,
		pos="346.05,784.17",
		width=0.75];
	67 -- 68	[pos="302.95,754.13 310.65,759.49 319.53,765.68 327.21,771.04"];
	10	[height=0.5,
		pos="138.7,254.13",
		width=0.75];
	9 -- 10	[pos="106.59,290.66 112.39,284.05 119.14,276.38 124.95,269.77"];
	36	[height=0.5,
		pos="146.93,404.26",
		width=0.75];
	9 -- 36	[pos="102.24,323.37 112.12,341.24 127.53,369.15 137.43,387.06"];
	81	[height=0.5,
		pos="470.11,764.33",
		width=0.75];
	75 -- 81	[pos="435.2,667.15 442.97,688.79 455.94,724.88 463.69,746.46"];
	76	[height=0.5,
		pos="591.86,531.97",
		width=0.75];
	75 -- 76	[pos="447.13,635.94 478.46,613.43 541.82,567.91 573.28,545.32"];
	11	[height=0.5,
		pos="214.64,198.81",
		width=0.75];
	10 -- 11	[pos="157.08,240.74 168.94,232.1 184.29,220.92 196.16,212.27"];
	37	[height=0.5,
		pos="271.04,368.78",
		width=0.75];
	10 -- 37	[pos="155.2,268.42 180.56,290.39 228.86,332.23 254.34,354.31"];
	86	[height=0.5,
		pos="333.24,903.65",
		width=0.75];
	81 -- 86	[pos="455.2,779.5 428.87,806.3 374.44,861.71 348.13,888.49"];
	82	[height=0.5,
		pos="537.42,708.09",
		width=0.75];
	81 -- 82	[pos="487.09,750.14 497.22,741.68 510.04,730.96 520.2,722.47"];
	12	[height=0.5,
		pos="276.7,238.58",
		width=0.75];
	11 -- 12	[pos="234.28,211.39 241.52,216.03 249.73,221.29 256.98,225.94"];
	38	[height=0.5,
		pos="395.21,324.61",
		width=0.75];
	11 -- 38	[pos="233.62,212.04 268.39,236.26 341.9,287.47 376.48,311.57"];
	91	[height=0.5,
		pos="460.06,968.14",
		width=0.75];
	86 -- 91	[pos="354.75,914.59 378.07,926.45 415.08,945.27 438.44,957.15"];
	87	[height=0.5,
		pos="375.49,851.45",
		width=0.75];
	86 -- 87	[pos="346.14,887.7 351.39,881.23 357.43,873.76 362.66,867.3"];
	13	[height=0.5,
		pos="319.67,282.62",
		width=0.75];
	12 -- 13	[pos="291.73,253.98 295.99,258.35 300.62,263.09 304.87,267.45"];
	23	[height=0.5,
		pos="333.17,326.66",
		width=0.75];
	12 -- 23	[pos="287.32,255.14 297.35,270.79 312.32,294.15 322.4,309.87"];
	97	[height=0.5,
		pos="529.16,986.5",
		width=0.75];
	91 -- 97	[pos="485.4,974.87 491.4,976.47 497.81,978.17 503.82,979.77"];
	92	[height=0.5,
		pos="475.12,851.44",
		width=0.75];
	91 -- 92	[pos="462.38,950.16 465.2,928.3 469.94,891.6 472.77,869.63"];
	14	[height=0.5,
		pos="510.75,252.38",
		width=0.75];
	13 -- 14	[pos="346.24,278.41 382.75,272.64 448.02,262.31 484.41,256.55"];
	28	[height=0.5,
		pos="333.08,412.78",
		width=0.75];
	13 -- 28	[pos="321.54,300.72 324.09,325.45 328.63,369.55 331.19,394.42"];
	100	[height=0.5,
		pos="666.45,868.48",
		width=0.75];
	97 -- 100	[pos="545.72,972.27 572.11,949.58 623.4,905.48 649.83,882.77"];
	98	[height=0.5,
		pos="566.45,868.51",
		width=0.75];
	97 -- 98	[pos="534.74,968.84 541.77,946.59 553.78,908.6 560.83,886.29"];
	15	[height=0.5,
		pos="575.01,163.71",
		width=0.75];
	14 -- 15	[pos="522.54,236.12 534.06,220.22 551.51,196.14 563.08,180.17"];
	73	[height=0.5,
		pos="639.05,355.21",
		width=0.75];
	14 -- 73	[pos="528.05,266.25 552.54,285.88 597.05,321.55 621.61,341.24"];
	109	[height=0.5,
		pos="781.1,829.81",
		width=0.75];
	100 -- 109	[pos="690.76,860.28 710.22,853.72 737.37,844.56 756.82,838"];
	101	[height=0.5,
		pos="595.01,780.43",
		width=0.75];
	100 -- 101	[pos="653.35,852.33 640.46,836.45 620.89,812.33 608.03,796.48"];
	16	[height=0.5,
		pos="601.98,119.19",
		width=0.75];
	15 -- 16	[pos="585.21,146.88 587.36,143.33 589.62,139.59 591.77,136.05"];
	29	[height=0.5,
		pos="514.13,358.8",
		width=0.75];
	15 -- 29	[pos="569.5,181.37 557.94,218.42 531.26,303.9 519.67,341.04"];
	114	[height=0.5,
		pos="759.85,900.52",
		width=0.75];
	109 -- 114	[pos="775.74,847.66 772.54,858.29 768.49,871.76 765.28,882.44"];
	110	[height=0.5,
		pos="712.4,728.42",
		width=0.75];
	109 -- 110	[pos="769.75,813.07 756.95,794.17 736.25,763.62 723.54,744.85"];
	17	[height=0.5,
		pos="664.29,103.14",
		width=0.75];
	16 -- 17	[pos="627.32,112.66 631.09,111.69 634.99,110.69 638.76,109.71"];
	30	[height=0.5,
		pos="628.02,218.31",
		width=0.75];
	16 -- 30	[pos="606.75,137.37 611.45,155.26 618.58,182.4 623.27,200.24"];
	118	[height=0.5,
		pos="668.11,984.78",
		width=0.75];
	114 -- 118	[pos="743.87,915.2 727.14,930.57 701,954.58 684.22,969.99"];
	115	[height=0.5,
		pos="719.09,823.61",
		width=0.75];
	114 -- 115	[pos="750.8,883.45 744.05,870.71 734.86,853.37 728.11,840.63"];
	18	[height=0.5,
		pos="502.26,76.298",
		width=0.75];
	17 -- 18	[pos="637.89,98.764 607.76,93.773 558.77,85.658 528.64,80.668"];
	31	[height=0.5,
		pos="697.55,201.11",
		width=0.75];
	17 -- 31	[pos="670.39,121.11 676.39,138.78 685.5,165.62 691.49,183.26"];
	124	[height=0.5,
		pos="542.45,942.47",
		width=0.75];
	118 -- 124	[pos="643.89,976.62 621.63,969.13 588.83,958.09 566.6,950.61"];
	119	[height=0.5,
		pos="604.54,912.53",
		width=0.75];
	118 -- 119	[pos="654.32,969.1 643.66,956.98 628.97,940.29 618.31,928.17"];
	19	[height=0.5,
		pos="445,18",
		width=0.75];
	18 -- 19	[pos="487.22,60.981 478.87,52.479 468.51,41.935 460.14,33.417"];
	24	[height=0.5,
		pos="414.58,165.95",
		width=0.75];
	18 -- 24	[pos="487.39,91.506 471.26,107.99 445.68,134.15 429.52,150.67"];
	129	[height=0.5,
		pos="532.88,1066.1",
		width=0.75];
	124 -- 129	[pos="541.06,960.46 539.24,983.9 536.09,1024.7 534.27,1048.1"];
	125	[height=0.5,
		pos="532.16,772.97",
		width=0.75];
	124 -- 125	[pos="541.35,924.33 539.37,891.71 535.23,823.51 533.25,790.98"];
	25	[height=0.5,
		pos="392.92,91.341",
		width=0.75];
	19 -- 25	[pos="433.44,34.277 424.87,46.346 413.23,62.737 404.63,74.856"];
	130	[height=0.5,
		pos="605.3,970.93",
		width=0.75];
	129 -- 130	[pos="545.17,1050 558.48,1032.5 579.62,1004.7 592.96,987.16"];
	21 -- 22	[pos="194.93,431.13 197.22,425.31 199.76,418.82 202.05,412.99"];
	44	[height=0.5,
		pos="319.41,563.63",
		width=0.75];
	21 -- 44	[pos="204.46,462.89 229.63,484.94 277.56,526.95 302.84,549.11"];
	22 -- 23	[pos="229.76,383.86 252.69,371.18 289.36,350.89 312.31,338.2"];
	22 -- 50	[pos="230.04,406.62 250.64,417.63 281.83,434.32 302.51,445.38"];
	59 -- 68	[pos="253.52,812.48 273.37,806.41 301.19,797.89 321.14,791.79"];
	59 -- 60	[pos="237.67,802.87 249.54,779.48 270.72,737.78 282.66,714.26"];
	68 -- 82	[pos="369.52,774.84 406.34,760.2 477.3,731.99 514.06,717.37"];
	69	[height=0.5,
		pos="353.49,737.19",
		width=0.75];
	68 -- 69	[pos="348.91,766.14 349.48,762.52 350.08,758.71 350.66,755.09"];
	82 -- 92	[pos="529.9,725.38 517.93,752.93 494.65,806.5 482.66,834.09"];
	83	[height=0.5,
		pos="692.44,578.33",
		width=0.75];
	82 -- 83	[pos="554.3,693.95 584.12,668.99 645.77,617.39 675.58,592.45"];
	23 -- 24	[pos="341.88,309.46 357.55,278.53 390.3,213.87 405.93,183.03"];
	104	[height=0.5,
		pos="514.23,410.21",
		width=0.75];
	23 -- 104	[pos="355.37,336.91 390.12,352.94 456.98,383.79 491.84,399.88"];
	92 -- 101	[pos="495.46,839.4 517.51,826.34 552.49,805.62 574.58,792.54"];
	92 -- 93	[pos="457.15,865.13 450.26,870.38 442.39,876.37 435.48,881.63"];
	101 -- 115	[pos="619.23,788.86 641.09,796.47 673.09,807.6 694.93,815.2"];
	102	[height=0.5,
		pos="490.78,617.77",
		width=0.75];
	101 -- 102	[pos="584.25,763.64 564.28,732.47 521.69,666 501.64,634.72"];
	115 -- 130	[pos="706.69,839.66 684.81,868 639.56,926.58 617.68,954.91"];
	116	[height=0.5,
		pos="818.64,784.96",
		width=0.75];
	115 -- 116	[pos="742.43,814.55 758.29,808.39 779.2,800.27 795.1,794.1"];
	24 -- 25	[pos="409.45,148.27 406.02,136.46 401.53,120.99 398.09,109.15"];
	32	[height=0.5,
		pos="539.1,208.37",
		width=0.75];
	24 -- 32	[pos="438.88,174.23 460.82,181.7 492.93,192.64 514.86,200.11"];
	33	[height=0.5,
		pos="475.05,120.32",
		width=0.75];
	25 -- 33	[pos="417.12,99.878 427.81,103.65 440.35,108.08 451.03,111.84"];
	131	[height=0.5,
		pos="398.02,991.54",
		width=0.75];
	130 -- 131	[pos="578.2,973.63 538.37,977.59 464.45,984.93 424.8,988.88"];
	42 -- 87	[pos="243.97,786.76 273.15,801.11 324.37,826.31 353.54,840.65"];
	43	[height=0.5,
		pos="234.07,652.02",
		width=0.75];
	42 -- 43	[pos="223.73,757.92 226.03,734.43 230.02,693.57 232.31,670.06"];
	27 -- 28	[pos="273.67,444.32 285.42,438.08 300,430.34 311.77,424.09"];
	27 -- 43	[pos="250.8,473.69 247.29,511.11 239.28,596.54 235.77,633.93"];
	87 -- 131	[pos="378.39,869.48 382.71,896.37 390.81,946.72 395.13,973.58"];
	88	[height=0.5,
		pos="475.36,710.92",
		width=0.75];
	87 -- 88	[pos="387.14,835.05 406.39,807.98 444.59,754.22 463.78,727.21"];
	28 -- 29	[pos="357.87,405.39 392.45,395.08 454.78,376.49 489.34,366.19"];
	55	[height=0.5,
		pos="438.54,502.12",
		width=0.75];
	28 -- 55	[pos="350.02,427.14 369.7,443.81 401.98,471.15 421.64,487.8"];
	29 -- 30	[pos="526.97,342.95 548.84,315.97 593.09,261.4 615.05,234.31"];
	63	[height=0.5,
		pos="576.38,431.72",
		width=0.75];
	29 -- 63	[pos="527.64,374.62 538.08,386.85 552.46,403.7 562.9,415.93"];
	30 -- 31	[pos="653.51,212 659.56,210.51 666.01,208.91 672.06,207.42"];
	39	[height=0.5,
		pos="586.82,311.2",
		width=0.75];
	30 -- 39	[pos="620.27,235.78 612.9,252.39 601.89,277.23 594.53,293.81"];
	31 -- 32	[pos="670.31,202.36 641.2,203.69 595.32,205.79 566.25,207.12"];
	65	[height=0.5,
		pos="764.69,347.08",
		width=0.75];
	31 -- 65	[pos="705.51,218.43 718.44,246.52 743.82,301.71 756.74,329.78"];
	32 -- 33	[pos="527.05,191.81 515.6,176.06 498.48,152.52 487.04,136.81"];
	51	[height=0.5,
		pos="452.09,395.11",
		width=0.75];
	32 -- 51	[pos="531.07,225.6 514.49,261.18 476.66,342.38 460.1,377.91"];
	40	[height=0.5,
		pos="504.37,164.33",
		width=0.75];
	33 -- 40	[pos="486.14,136.96 488.47,140.46 490.94,144.16 493.27,147.67"];
	132	[height=0.5,
		pos="463.72,1034.3",
		width=0.75];
	131 -- 132	[pos="417.38,1004.1 425.86,1009.6 435.79,1016.1 444.28,1021.6"];
	35 -- 36	[pos="129.35,433.26 131.77,429.27 134.34,425.03 136.75,421.04"];
	45	[height=0.5,
		pos="257.34,544.85",
		width=0.75];
	35 -- 45	[pos="138.1,463.03 164.41,481.08 211.78,513.59 238.2,531.72"];
	36 -- 37	[pos="171.75,397.16 193.25,391.01 224.23,382.16 245.84,375.98"];
	46	[height=0.5,
		pos="317.37,500.83",
		width=0.75];
	36 -- 46	[pos="167.83,416.1 200.63,434.68 263.82,470.49 296.56,489.04"];
	37 -- 38	[pos="294.98,360.26 316.97,352.44 349.38,340.92 371.35,333.1"];
	72	[height=0.5,
		pos="457.75,458.11",
		width=0.75];
	37 -- 72	[pos="293.19,379.38 329.13,396.57 399.71,430.34 435.63,447.52"];
	38 -- 39	[pos="422.26,322.72 458.78,320.17 523.46,315.64 559.91,313.09"];
	47	[height=0.5,
		pos="395.16,439.19",
		width=0.75];
	38 -- 47	[pos="395.21,342.77 395.2,364.22 395.18,399.7 395.17,421.12"];
	93 -- 98	[pos="443.64,890.7 470.82,885.79 512.98,878.17 540.15,873.26"];
	94	[height=0.5,
		pos="408.08,807.4",
		width=0.75];
	93 -- 94	[pos="415.41,877.21 413.82,862.1 411.58,840.73 409.99,825.62"];
	98 -- 119	[pos="580.2,884.4 583.7,888.44 587.45,892.78 590.94,896.81"];
	99	[height=0.5,
		pos="657.07,822.57",
		width=0.75];
	98 -- 99	[pos="588.39,857.39 602.63,850.17 621.13,840.79 635.33,833.59"];
	39 -- 40	[pos="577.2,294.07 561.31,265.77 529.78,209.59 513.93,181.36"];
	64	[height=0.5,
		pos="667.23,399.25",
		width=0.75];
	39 -- 64	[pos="601.19,326.94 615.83,342.97 638.39,367.67 652.98,383.65"];
	119 -- 132	[pos="587.84,926.97 560.73,950.4 507.5,996.41 480.41,1019.8"];
	120	[height=0.5,
		pos="675.66,772.45",
		width=0.75];
	119 -- 120	[pos="613.26,895.35 626.91,868.47 653.17,816.74 666.86,789.77"];
	48	[height=0.5,
		pos="448.72,280.32",
		width=0.75];
	40 -- 48	[pos="496.04,181.7 485.55,203.56 467.63,240.91 457.11,262.84"];
	133	[height=0.5,
		pos="335.58,947.68",
		width=0.75];
	132 -- 133	[pos="444.54,1021.3 420.38,1005 379.12,977.09 354.9,960.73"];
	43 -- 44	[pos="248.94,636.63 264.6,620.4 289.12,595.01 304.72,578.85"];
	43 -- 69	[pos="252.73,665.33 275.17,681.33 312.59,708.02 334.96,723.97"];
	44 -- 45	[pos="294.52,556.1 290.48,554.87 286.28,553.61 282.24,552.38"];
	44 -- 54	[pos="342.57,573.47 358.14,580.08 378.58,588.77 394.12,595.37"];
	60 -- 94	[pos="307.2,711.8 329.45,732.89 369.91,771.22 392.23,792.38"];
	61	[height=0.5,
		pos="381.48,561.1",
		width=0.75];
	60 -- 61	[pos="302.51,680.24 319.78,654.18 353.02,604.03 370.35,577.89"];
	45 -- 46	[pos="275.68,531.4 283.12,525.94 291.71,519.64 299.14,514.19"];
	70	[height=0.5,
		pos="339.34,651.37",
		width=0.75];
	45 -- 70	[pos="269.79,561.02 285.21,581.05 311.3,614.95 326.77,635.04"];
	46 -- 47	[pos="335.02,486.84 347.75,476.75 364.86,463.19 377.58,453.12"];
	71	[height=0.5,
		pos="457.82,559.23",
		width=0.75];
	46 -- 71	[pos="340.56,510.47 366.58,521.29 408.55,538.74 434.59,549.57"];
	47 -- 48	[pos="401.1,421.58 411.4,391.04 432.45,328.6 442.76,298.01"];
	103	[height=0.5,
		pos="528.01,561.83",
		width=0.75];
	47 -- 103	[pos="411.19,453.98 436.72,477.56 486.36,523.38 511.93,546.99"];
	94 -- 133	[pos="399.19,824.6 385.27,851.52 358.5,903.32 344.55,930.33"];
	95	[height=0.5,
		pos="526.18,664.05",
		width=0.75];
	94 -- 95	[pos="421.17,791.51 443.87,763.95 490.29,707.61 513.04,680.01"];
	52	[height=0.5,
		pos="572.85,267.17",
		width=0.75];
	48 -- 52	[pos="475.66,277.47 496.48,275.26 525.16,272.22 545.97,270.02"];
	134	[height=0.5,
		pos="479.93,924.1",
		width=0.75];
	133 -- 134	[pos="362.06,943.35 388.1,939.1 427.64,932.64 453.62,928.4"];
	50 -- 51	[pos="345.88,446.18 369.37,434.88 406.35,417.1 429.9,405.78"];
	50 -- 61	[pos="333.35,474.01 344.1,493.45 361.47,524.88 372.14,544.2"];
	69 -- 125	[pos="379.47,742.39 413.35,749.17 472.26,760.97 506.15,767.76"];
	69 -- 70	[pos="350.49,718.99 348.09,704.42 344.74,684.1 342.34,669.54"];
	51 -- 52	[pos="466.66,379.67 489.87,355.09 534.99,307.28 558.23,282.66"];
	56	[height=0.5,
		pos="576.36,385.2",
		width=0.75];
	51 -- 56	[pos="479.05,392.96 499.9,391.29 528.61,389 549.44,387.34"];
	125 -- 134	[pos="526.07,790.6 516.06,819.57 496.24,876.92 486.15,906.11"];
	126	[height=0.5,
		pos="579.83,620.01",
		width=0.75];
	125 -- 126	[pos="537.72,755.13 546.91,725.65 565.14,667.14 574.31,637.74"];
	57	[height=0.5,
		pos="694.61,290.42",
		width=0.75];
	52 -- 57	[pos="598.97,272.16 619.52,276.08 648,281.52 668.53,285.44"];
	135	[height=0.5,
		pos="537.18,824.47",
		width=0.75];
	134 -- 135	[pos="489.64,907.2 500.17,888.88 516.88,859.81 527.42,841.45"];
	54 -- 88	[pos="426.47,622.13 437.34,641.87 455.16,674.24 466.02,693.97"];
	54 -- 55	[pos="420.84,587.19 424.75,568.4 430.86,539.05 434.78,520.2"];
	88 -- 120	[pos="499.92,718.47 538.36,730.28 612.33,753 650.89,764.84"];
	89	[height=0.5,
		pos="683.57,641.99",
		width=0.75];
	88 -- 89	[pos="499.65,702.88 539.66,689.63 618.99,663.37 659.11,650.09"];
	55 -- 56	[pos="455.44,487.78 481.89,465.34 532.78,422.17 559.32,399.65"];
	62	[height=0.5,
		pos="524.17,501.58",
		width=0.75];
	55 -- 62	[pos="465.63,501.95 475.63,501.89 486.95,501.82 496.96,501.75"];
	120 -- 135	[pos="651.85,781.39 626.49,790.92 586.56,805.92 561.14,815.47"];
	121	[height=0.5,
		pos="756.6,779.46",
		width=0.75];
	120 -- 121	[pos="702.61,774.78 711.35,775.54 721.03,776.38 729.76,777.14"];
	56 -- 57	[pos="593.8,371.21 616.16,353.29 654.7,322.41 677.09,304.46"];
	107	[height=0.5,
		pos="814.09,490.65",
		width=0.75];
	56 -- 107	[pos="599.15,395.31 644.59,415.46 745.98,460.44 791.37,480.57"];
	66	[height=0.5,
		pos="812.95,267.22",
		width=0.75];
	57 -- 66	[pos="720.58,285.33 740.31,281.46 767.33,276.16 787.04,272.3"];
	136	[height=0.5,
		pos="413.34,693.18",
		width=0.75];
	135 -- 136	[pos="522.73,809.15 499,783.99 452,734.17 428.08,708.81"];
	61 -- 62	[pos="404.41,551.54 430.88,540.5 474.18,522.43 500.83,511.32"];
	61 -- 136	[pos="385.78,578.91 391.86,604.12 402.91,649.95 409.01,675.23"];
	62 -- 63	[pos="536.28,485.38 544.72,474.09 555.92,459.1 564.34,447.84"];
	105	[height=0.5,
		pos="622.46,475.84",
		width=0.75];
	62 -- 105	[pos="549.48,494.95 564.16,491.11 582.58,486.28 597.24,482.44"];
	63 -- 64	[pos="600.25,423.19 613.5,418.46 629.93,412.58 643.2,407.84"];
	78	[height=0.5,
		pos="771.66,446.26",
		width=0.75];
	63 -- 78	[pos="603.53,433.74 640.84,436.52 707.55,441.49 744.74,444.26"];
	64 -- 65	[pos="688.38,387.93 704.73,379.18 727.25,367.12 743.58,358.38"];
	64 -- 83	[pos="669.79,417.41 674.63,451.82 685.1,526.15 689.92,560.39"];
	65 -- 66	[pos="774.93,330.14 783.12,316.59 794.55,297.67 802.73,284.13"];
	79	[height=0.5,
		pos="829,382.24",
		width=0.75];
	65 -- 79	[pos="785.75,358.59 792.93,362.52 800.95,366.9 808.11,370.82"];
	74	[height=0.5,
		pos="826.82,315.45",
		width=0.75];
	66 -- 74	[pos="818.04,284.9 819.24,289.1 820.53,293.57 821.73,297.77"];
	137	[height=0.5,
		pos="588.31,664.05",
		width=0.75];
	136 -- 137	[pos="439.53,688.82 472.52,683.33 528.87,673.95 561.94,668.44"];
	70 -- 71	[pos="357.08,637.57 379.41,620.2 417.57,590.53 439.96,573.12"];
	70 -- 102	[pos="365.03,645.67 392.88,639.49 437.07,629.69 464.97,623.5"];
	71 -- 72	[pos="457.81,541.15 457.79,522.86 457.77,494.73 457.76,476.37"];
	71 -- 95	[pos="468.8,576.07 481.56,595.63 502.48,627.71 515.23,647.25"];
	72 -- 73	[pos="478.55,446.31 513.43,426.51 583.31,386.85 618.22,367.04"];
	72 -- 76	[pos="478.7,469.65 503.75,483.44 545.43,506.4 570.61,520.27"];
	73 -- 74	[pos="665.16,349.68 701.03,342.09 765.17,328.5 800.93,320.93"];
	77	[height=0.5,
		pos="709.28,443.27",
		width=0.75];
	73 -- 77	[pos="651.93,371.36 664.6,387.25 683.84,411.37 696.48,427.22"];
	102 -- 137	[pos="512.91,628.27 528.88,635.85 550.33,646.03 566.27,653.59"];
	102 -- 103	[pos="501.75,601.29 506.56,594.07 512.18,585.62 516.99,578.39"];
	80	[height=0.5,
		pos="892.59,341.3",
		width=0.75];
	74 -- 80	[pos="850.19,324.64 856.39,327.07 863.09,329.71 869.29,332.14"];
	138	[height=0.5,
		pos="650.34,686.74",
		width=0.75];
	137 -- 138	[pos="612.11,672.76 616.76,674.46 621.64,676.24 626.29,677.94"];
	76 -- 77	[pos="609.95,518.31 632.08,501.59 669.31,473.46 691.36,456.81"];
	139	[height=0.5,
		pos="630.4,576.01",
		width=0.75];
	76 -- 139	[pos="605.77,547.87 609.31,551.91 613.1,556.25 616.63,560.28"];
	95 -- 110	[pos="550.53,672.47 586.32,684.84 652.73,707.79 688.35,720.11"];
	96	[height=0.5,
		pos="612.85,736.39",
		width=0.75];
	95 -- 96	[pos="543.31,678.34 558.5,691.03 580.58,709.46 595.76,722.13"];
	77 -- 78	[pos="736.46,444.57 739.09,444.7 741.75,444.83 744.38,444.95"];
	106	[height=0.5,
		pos="737.46,490.28",
		width=0.75];
	77 -- 106	[pos="719.45,460.24 722.04,464.56 724.81,469.19 727.39,473.49"];
	78 -- 79	[pos="785.54,430.76 794.42,420.85 805.91,408.02 814.85,398.04"];
	112	[height=0.5,
		pos="832.96,601.86",
		width=0.75];
	78 -- 112	[pos="778.57,463.81 790.35,493.69 814.16,554.14 825.98,584.14"];
	110 -- 138	[pos="693.11,715.46 685.56,710.4 676.93,704.6 669.41,699.55"];
	111	[height=0.5,
		pos="765.27,595.52",
		width=0.75];
	110 -- 111	[pos="719.42,710.77 729.53,685.35 748.09,638.7 758.22,613.24"];
	79 -- 80	[pos="848.42,369.74 856.17,364.75 865.07,359.02 872.84,354.01"];
	84	[height=0.5,
		pos="785.5,550.96",
		width=0.75];
	79 -- 84	[pos="824.34,400.3 815.97,432.77 798.47,500.65 790.12,533.03"];
	85	[height=0.5,
		pos="876.14,519.84",
		width=0.75];
	80 -- 85	[pos="890.92,359.4 887.77,393.62 880.96,467.44 877.81,501.69"];
	138 -- 139	[pos="647.04,668.46 643.33,647.82 637.32,614.45 633.63,593.95"];
	83 -- 84	[pos="717.38,570.99 730.73,567.07 747.13,562.24 760.49,558.31"];
	122	[height=0.5,
		pos="803.35,690.89",
		width=0.75];
	83 -- 122	[pos="707.4,593.51 728.57,614.99 767.04,654.04 788.27,675.59"];
	84 -- 85	[pos="809.79,542.62 822.9,538.12 839.02,532.59 852.09,528.1"];
	84 -- 89	[pos="769.12,565.59 750.1,582.57 718.91,610.43 699.91,627.4"];
	90	[height=0.5,
		pos="753.4,640.74",
		width=0.75];
	85 -- 90	[pos="860.84,534.91 837.32,558.08 792.53,602.2 768.89,625.49"];
	140	[height=0.5,
		pos="705.11,534.29",
		width=0.75];
	139 -- 140	[pos="651.21,564.39 661.57,558.6 674.06,551.63 684.41,545.85"];
	103 -- 126	[pos="541.9,577.42 549.33,585.77 558.47,596.02 565.91,604.38"];
	103 -- 104	[pos="526.38,543.84 523.74,514.82 518.57,457.96 515.9,428.65"];
	89 -- 90	[pos="710.77,641.5 715.83,641.41 721.11,641.32 726.16,641.23"];
	146	[height=0.5,
		pos="896.22,603.21",
		width=0.75];
	89 -- 146	[pos="709.65,637.23 750.46,629.79 828.99,615.47 869.94,608"];
	126 -- 140	[pos="598.86,606.99 622.41,590.88 662.28,563.6 685.9,547.43"];
	127	[height=0.5,
		pos="788.4,735.45",
		width=0.75];
	126 -- 127	[pos="600.98,631.71 641.06,653.9 727.63,701.81 767.51,723.89"];
	90 -- 96	[pos="734.45,653.64 707.62,671.9 658.86,705.08 631.95,723.39"];
	141	[height=0.5,
		pos="729.94,391.6",
		width=0.75];
	140 -- 141	[pos="708.25,516.22 713.03,488.77 722.06,436.88 726.82,409.52"];
	104 -- 141	[pos="541.11,407.89 582.56,404.31 661.6,397.49 703.05,393.92"];
	104 -- 105	[pos="534.33,422.4 553.77,434.19 583.06,451.95 602.46,463.71"];
	96 -- 99	[pos="621.8,753.83 629.52,768.88 640.61,790.5 648.28,805.45"];
	142	[height=0.5,
		pos="833.68,426.27",
		width=0.75];
	141 -- 142	[pos="754.26,399.73 770.91,405.29 792.89,412.64 809.51,418.19"];
	105 -- 142	[pos="647.94,469.86 688.53,460.33 767.45,441.81 808.11,432.27"];
	105 -- 106	[pos="649.13,479.19 667.58,481.5 692.03,484.58 710.53,486.9"];
	108	[height=0.5,
		pos="822.29,646.35",
		width=0.75];
	99 -- 108	[pos="671.44,807.24 702.69,773.91 776.51,695.18 807.83,661.77"];
	143	[height=0.5,
		pos="938.2,559.14",
		width=0.75];
	142 -- 143	[pos="846.28,442.29 866.37,467.83 905.43,517.48 925.55,543.06"];
	106 -- 111	[pos="742.17,508.13 747.29,527.48 755.4,558.19 760.52,577.58"];
	106 -- 107	[pos="764.69,490.41 771.92,490.45 779.72,490.48 786.94,490.52"];
	111 -- 143	[pos="791.16,590.07 823.85,583.19 879.77,571.43 912.42,564.56"];
	111 -- 112	[pos="792.02,598.02 796.6,598.45 801.37,598.9 805.96,599.33"];
	107 -- 108	[pos="815.05,508.81 816.63,538.81 819.77,598.37 821.34,628.3"];
	147	[height=0.5,
		pos="952.14,513.66",
		width=0.75];
	107 -- 147	[pos="840.38,495.03 864.79,499.1 900.95,505.13 925.47,509.22"];
	113	[height=0.5,
		pos="963.73,647.76",
		width=0.75];
	108 -- 113	[pos="849.56,646.62 874.61,646.87 911.53,647.24 936.55,647.49"];
	144	[height=0.5,
		pos="969.79,603.57",
		width=0.75];
	143 -- 144	[pos="949.79,575.43 952.53,579.3 955.46,583.42 958.21,587.28"];
	112 -- 116	[pos="831.53,620.09 828.79,655.18 822.8,731.77 820.06,766.81"];
	112 -- 113	[pos="856.95,610.28 880.39,618.51 915.91,630.97 939.46,639.24"];
	116 -- 121	[pos="791.61,782.56 789,782.33 786.35,782.1 783.73,781.87"];
	117	[height=0.5,
		pos="927.54,780.31",
		width=0.75];
	116 -- 117	[pos="845.84,783.8 862.47,783.09 883.67,782.18 900.31,781.47"];
	121 -- 127	[pos="768.44,763.07 771.12,759.36 773.97,755.42 776.65,751.71"];
	121 -- 122	[pos="765.61,762.39 773.89,746.7 786.09,723.58 794.36,707.91"];
	127 -- 144	[pos="806.79,722.08 841.56,696.8 916.55,642.28 951.35,616.98"];
	128	[height=0.5,
		pos="988.29,691.93",
		width=0.75];
	127 -- 128	[pos="814.12,729.85 852.4,721.52 923.95,705.94 962.35,697.58"];
	113 -- 117	[pos="958.85,665.63 951.94,690.93 939.39,736.92 932.46,762.29"];
	145	[height=0.5,
		pos="922.37,692.2",
		width=0.75];
	144 -- 145	[pos="960.65,620.66 952.25,636.35 939.87,659.49 931.48,675.17"];
	122 -- 145	[pos="830.36,691.19 849.7,691.4 875.65,691.69 895.06,691.9"];
	123	[height=0.5,
		pos="934.43,736.25",
		width=0.75];
	122 -- 123	[pos="827.39,699.21 850.89,707.34 886.49,719.66 910.09,727.83"];
	117 -- 123	[pos="930.34,762.39 930.76,759.72 931.19,756.97 931.61,754.3"];
	145 -- 146	[pos="917.08,674.19 912.51,658.65 905.96,636.33 901.42,620.89"];
	123 -- 128	[pos="951.47,722.23 957.76,717.06 964.88,711.19 971.17,706.02"];
	146 -- 147	[pos="906.74,586.37 916.74,570.36 931.69,546.41 941.67,530.43"];
	148	[height=0.5,
		pos="1029.7,557.94",
		width=0.75];
	128 -- 148	[pos="993.79,674.14 1001.7,648.51 1016.3,601.47 1024.2,575.8"];
	147 -- 148	[pos="972.93,525.53 984.15,531.93 997.96,539.81 1009.1,546.19"];
}
