graph {
	graph [bb="0,0,747.3,710.76",
		outputorder=edgesfirst,
		overlap=prism,
		size="50,50!",
		start=9860
	];
	node [label="\N"];
	0	[height=0.5,
		pos="108.91,341.88",
		width=0.75];
	17	[height=0.5,
		pos="170.92,304.81",
		width=0.75];
	0 -- 17	[pos="129.22,329.74 136.14,325.6 143.87,320.98 150.78,316.85"];
	36	[height=0.5,
		pos="52.755,482.29",
		width=0.75];
	0 -- 36	[pos="101.91,359.37 91.153,386.28 70.657,437.53 59.842,464.57"];
	47	[height=0.5,
		pos="27,345.15",
		width=0.75];
	0 -- 47	[pos="81.637,342.97 72.795,343.32 62.991,343.71 54.157,344.06"];
	51	[height=0.5,
		pos="143.6,196.92",
		width=0.75];
	0 -- 51	[pos="113.24,323.81 119.92,295.88 132.68,242.55 139.33,214.76"];
	53	[height=0.5,
		pos="242.74,441.15",
		width=0.75];
	0 -- 53	[pos="126.96,355.26 152.5,374.21 198.93,408.65 224.55,427.66"];
	61	[height=0.5,
		pos="46.833,298.94",
		width=0.75];
	0 -- 61	[pos="89.95,328.76 82.248,323.43 73.37,317.29 65.68,311.97"];
	72	[height=0.5,
		pos="101.02,429.94",
		width=0.75];
	0 -- 72	[pos="107.28,360.12 105.92,375.24 104.01,396.61 102.66,411.71"];
	73	[height=0.5,
		pos="38.983,432.56",
		width=0.75];
	0 -- 73	[pos="96.411,358.09 83.682,374.59 64.067,400.03 51.377,416.49"];
	1	[height=0.5,
		pos="420.79,304.69",
		width=0.75];
	18	[height=0.5,
		pos="553.01,302.18",
		width=0.75];
	1 -- 18	[pos="447.87,304.18 470.68,303.74 503.16,303.13 525.97,302.7"];
	20	[height=0.5,
		pos="294.88,252.8",
		width=0.75];
	1 -- 20	[pos="397.7,295.17 375.12,285.87 340.92,271.78 318.25,262.44"];
	32	[height=0.5,
		pos="358.51,340.88",
		width=0.75];
	1 -- 32	[pos="400.4,316.54 393.58,320.5 385.99,324.91 379.16,328.88"];
	35	[height=0.5,
		pos="387.73,214.6",
		width=0.75];
	1 -- 35	[pos="414.26,286.89 408.46,271.1 400.04,248.14 394.25,232.36"];
	40	[height=0.5,
		pos="485.27,303.66",
		width=0.75];
	1 -- 40	[pos="448.14,304.25 451.43,304.2 454.8,304.15 458.09,304.09"];
	52	[height=0.5,
		pos="356.9,289.64",
		width=0.75];
	1 -- 52	[pos="395.17,298.65 391.01,297.67 386.69,296.66 382.52,295.67"];
	62	[height=0.5,
		pos="323.78,208.26",
		width=0.75];
	1 -- 62	[pos="405.63,289.62 387.41,271.5 357.01,241.29 338.83,223.22"];
	66	[height=0.5,
		pos="456.71,225.34",
		width=0.75];
	1 -- 66	[pos="428.76,287.08 434.76,273.84 442.93,255.79 448.89,242.63"];
	70	[height=0.5,
		pos="346.78,416.48",
		width=0.75];
	1 -- 70	[pos="409.87,321.18 395.88,342.32 371.76,378.75 357.74,399.92"];
	75	[height=0.5,
		pos="269.45,322.86",
		width=0.75];
	1 -- 75	[pos="394.08,307.9 366.5,311.21 323.72,316.35 296.14,319.66"];
	77	[height=0.5,
		pos="232.84,260.77",
		width=0.75];
	1 -- 77	[pos="395.05,298.67 359.16,290.29 294.46,275.17 258.57,266.78"];
	79	[height=0.5,
		pos="559.16,434.25",
		width=0.75];
	1 -- 79	[pos="436.66,319.55 463.35,344.54 516.91,394.68 543.47,419.56"];
	80	[height=0.5,
		pos="572.29,346.22",
		width=0.75];
	1 -- 80	[pos="445.81,311.55 473.88,319.24 519.15,331.65 547.24,339.35"];
	2	[height=0.5,
		pos="394.44,507.67",
		width=0.75];
	19	[height=0.5,
		pos="337,596.51",
		width=0.75];
	2 -- 19	[pos="383.63,524.38 373.36,540.27 358.01,564.02 347.75,579.88"];
	21	[height=0.5,
		pos="482.57,380.55",
		width=0.75];
	2 -- 21	[pos="405.78,491.31 422.61,467.04 454.02,421.72 470.99,397.25"];
	23	[height=0.5,
		pos="259.54,599.52",
		width=0.75];
	2 -- 23	[pos="375.4,520.64 349.69,538.14 304.15,569.15 278.49,586.62"];
	26	[height=0.5,
		pos="533.88,571.38",
		width=0.75];
	2 -- 26	[pos="416.84,517.91 442.86,529.8 485.54,549.29 511.54,561.17"];
	33	[height=0.5,
		pos="337.72,460.49",
		width=0.75];
	2 -- 33	[pos="377.42,493.52 370.24,487.55 361.9,480.61 354.73,474.64"];
	39	[height=0.5,
		pos="521.46,478.27",
		width=0.75];
	2 -- 39	[pos="420.14,501.72 442.18,496.62 473.76,489.31 495.79,484.21"];
	44	[height=0.5,
		pos="510.95,527.36",
		width=0.75];
	2 -- 44	[pos="420.87,512.14 439.94,515.36 465.57,519.69 484.62,522.91"];
	46	[height=0.5,
		pos="418.3,657.52",
		width=0.75];
	2 -- 46	[pos="397.31,525.75 401.9,554.55 410.82,610.54 415.41,639.38"];
	48	[height=0.5,
		pos="283.36,504.52",
		width=0.75];
	2 -- 48	[pos="367.26,506.9 350.05,506.41 327.87,505.78 310.63,505.29"];
	2 -- 53	[pos="371.72,497.71 343.13,485.17 294.27,463.75 265.6,451.18"];
	59	[height=0.5,
		pos="249.25,548.54",
		width=0.75];
	2 -- 59	[pos="369.48,514.7 342.88,522.18 301.02,533.97 274.37,541.47"];
	63	[height=0.5,
		pos="402.68,613.42",
		width=0.75];
	2 -- 63	[pos="395.87,526.09 397.39,545.5 399.75,575.88 401.26,595.21"];
	3	[height=0.5,
		pos="296.48,372.47",
		width=0.75];
	3 -- 17	[pos="275.47,361.15 252.29,348.66 215.21,328.68 192,316.17"];
	3 -- 20	[pos="296.24,354.3 295.94,331.8 295.43,293.72 295.12,271.15"];
	22	[height=0.5,
		pos="238.11,208.77",
		width=0.75];
	3 -- 22	[pos="290.23,354.95 279.06,323.61 255.76,258.27 244.49,226.66"];
	31	[height=0.5,
		pos="420.53,354.3",
		width=0.75];
	3 -- 31	[pos="323.09,368.57 344.02,365.51 373.04,361.26 393.96,358.19"];
	3 -- 33	[pos="304.63,389.86 311.86,405.29 322.37,427.72 329.59,443.14"];
	34	[height=0.5,
		pos="179.72,434.76",
		width=0.75];
	3 -- 34	[pos="275.34,383.75 254.31,394.97 222.21,412.09 201.1,423.36"];
	3 -- 52	[pos="308.42,356.11 319.01,341.58 334.4,320.48 344.99,305.97"];
	54	[height=0.5,
		pos="334.04,552.31",
		width=0.75];
	3 -- 54	[pos="300.22,390.37 307.42,424.84 323.13,500.07 330.31,534.48"];
	74	[height=0.5,
		pos="457.91,477.2",
		width=0.75];
	3 -- 74	[pos="315.95,385.1 346.98,405.23 407.3,444.37 438.37,464.52"];
	4	[height=0.5,
		pos="580.95,214.1",
		width=0.75];
	4 -- 21	[pos="570.98,230.97 552.12,262.88 511.45,331.69 492.57,363.63"];
	25	[height=0.5,
		pos="631.4,169.74",
		width=0.75];
	4 -- 25	[pos="597.47,199.57 603.1,194.62 609.39,189.09 615.01,184.15"];
	28	[height=0.5,
		pos="634.34,304.91",
		width=0.75];
	4 -- 28	[pos="591,231.18 600.54,247.42 614.82,271.7 624.35,287.91"];
	37	[height=0.5,
		pos="356.11,164.22",
		width=0.75];
	4 -- 37	[pos="555.16,208.38 511.91,198.78 425.23,179.55 381.95,169.95"];
	38	[height=0.5,
		pos="696.38,267.8",
		width=0.75];
	4 -- 38	[pos="603.21,224.45 623.65,233.96 653.77,247.98 674.19,257.48"];
	42	[height=0.5,
		pos="519.71,110.55",
		width=0.75];
	4 -- 42	[pos="570.84,197 559.43,177.7 540.98,146.5 529.64,127.33"];
	55	[height=0.5,
		pos="607.77,125.72",
		width=0.75];
	4 -- 55	[pos="586.38,196.21 591.03,180.88 597.7,158.91 602.35,143.58"];
	56	[height=0.5,
		pos="418.44,170.5",
		width=0.75];
	4 -- 56	[pos="555.56,207.29 525.03,199.09 474.11,185.43 443.66,177.26"];
	58	[height=0.5,
		pos="611.13,258.12",
		width=0.75];
	4 -- 58	[pos="592.19,230.49 594.67,234.11 597.3,237.95 599.78,241.57"];
	71	[height=0.5,
		pos="545.51,154.58",
		width=0.75];
	4 -- 71	[pos="570.89,197.2 566.06,189.09 560.29,179.4 555.48,171.31"];
	76	[height=0.5,
		pos="673.22,223.52",
		width=0.75];
	4 -- 76	[pos="608.14,216.87 620.15,218.1 634.24,219.54 646.23,220.76"];
	5	[height=0.5,
		pos="261.31,155.9",
		width=0.75];
	5 -- 22	[pos="253.71,173.21 251.17,179 248.35,185.44 245.8,191.24"];
	24	[height=0.5,
		pos="287.42,100.38",
		width=0.75];
	5 -- 24	[pos="269.43,138.64 272.54,132.02 276.09,124.46 279.22,117.82"];
	5 -- 37	[pos="288.22,158.26 301.03,159.39 316.31,160.73 329.13,161.85"];
	5 -- 51	[pos="237.2,164.3 216.89,171.38 187.97,181.46 167.67,188.54"];
	5 -- 56	[pos="288.32,158.41 317.19,161.09 362.69,165.32 391.52,168"];
	68	[height=0.5,
		pos="338.76,56.341",
		width=0.75];
	5 -- 68	[pos="273.75,139.91 288.12,121.44 311.63,91.22 326.09,72.629"];
	6	[height=0.5,
		pos="457.65,76.166",
		width=0.75];
	6 -- 25	[pos="478.96,87.64 512.39,105.65 576.81,140.34 610.19,158.32"];
	29	[height=0.5,
		pos="487.27,19.972",
		width=0.75];
	6 -- 29	[pos="466.7,59.001 470.38,52.029 474.61,43.994 478.28,37.033"];
	6 -- 35	[pos="448.94,93.418 435.54,119.95 410.02,170.47 396.55,197.13"];
	6 -- 55	[pos="482.11,84.239 510.02,93.454 555.42,108.44 583.33,117.65"];
	57	[height=0.5,
		pos="418.38,18",
		width=0.75];
	6 -- 57	[pos="446.51,59.654 441.25,51.862 434.98,42.579 429.7,34.756"];
	6 -- 66	[pos="457.54,94.458 457.36,123.09 457.01,178.18 456.83,206.9"];
	6 -- 68	[pos="431.27,71.766 411.57,68.481 384.76,64.011 365.07,60.729"];
	7	[height=0.5,
		pos="544.61,390.24",
		width=0.75];
	27	[height=0.5,
		pos="408.8,428.11",
		width=0.75];
	7 -- 27	[pos="519.7,397.18 495.35,403.97 458.47,414.26 434.02,421.08"];
	7 -- 28	[pos="560.24,375.38 576.61,359.81 602.18,335.5 618.59,319.89"];
	30	[height=0.5,
		pos="583.54,488.12",
		width=0.75];
	7 -- 30	[pos="551.57,407.74 558.61,425.44 569.44,452.67 576.51,470.44"];
	7 -- 31	[pos="519.8,383.05 498.16,376.78 466.93,367.74 445.3,361.47"];
	7 -- 39	[pos="539.93,408.05 535.91,423.33 530.15,445.22 526.14,460.48"];
	7 -- 40	[pos="533.17,373.54 522.66,358.21 507.17,335.62 496.67,320.3"];
	7 -- 58	[pos="553.31,372.97 566.06,347.65 589.68,300.72 602.43,275.4"];
	60	[height=0.5,
		pos="627.95,393.87",
		width=0.75];
	7 -- 60	[pos="571.9,391.43 581.2,391.83 591.6,392.29 600.88,392.69"];
	78	[height=0.5,
		pos="518.84,227.03",
		width=0.75];
	7 -- 78	[pos="541.75,372.15 536.8,340.78 526.67,276.63 521.71,245.2"];
	8	[height=0.5,
		pos="396.63,120.2",
		width=0.75];
	8 -- 24	[pos="370.47,115.45 353.31,112.34 330.94,108.28 313.75,105.15"];
	8 -- 29	[pos="410.79,104.54 427.82,85.713 456.22,54.305 473.21,35.524"];
	8 -- 42	[pos="423.64,118.09 444.16,116.48 472.26,114.27 492.77,112.66"];
	8 -- 57	[pos="400.52,101.93 404.48,83.329 410.58,54.66 414.53,36.114"];
	8 -- 62	[pos="383.27,136.35 370.13,152.24 350.17,176.36 337.06,192.21"];
	8 -- 71	[pos="422.23,126.11 449.5,132.41 492.42,142.32 519.75,148.63"];
	8 -- 78	[pos="413.11,134.61 436.44,155 478.83,192.06 502.23,212.51"];
	9	[height=0.5,
		pos="468.62,589.42",
		width=0.75];
	9 -- 30	[pos="485.09,574.91 506.93,555.65 545.27,521.85 567.1,502.6"];
	41	[height=0.5,
		pos="563.85,670.51",
		width=0.75];
	9 -- 41	[pos="485.65,603.92 502.98,618.68 529.69,641.43 546.97,656.14"];
	45	[height=0.5,
		pos="584.31,615.42",
		width=0.75];
	9 -- 45	[pos="494.3,595.19 513.47,599.5 539.55,605.36 558.71,609.67"];
	9 -- 46	[pos="456.44,605.91 448.53,616.62 438.26,630.51 430.37,641.19"];
	9 -- 54	[pos="443.62,582.53 419.6,575.9 383.49,565.95 359.36,559.29"];
	9 -- 63	[pos="444.82,598.09 438.92,600.24 432.59,602.54 426.68,604.69"];
	82	[height=0.5,
		pos="346.53,692.76",
		width=0.75];
	9 -- 82	[pos="451.9,603.58 428.65,623.25 386.79,658.68 363.44,678.44"];
	84	[height=0.5,
		pos="307.52,643.54",
		width=0.75];
	9 -- 84	[pos="444.51,597.53 414.13,607.73 362.25,625.16 331.8,635.39"];
	10	[height=0.5,
		pos="221.34,487.9",
		width=0.75];
	10 -- 27	[pos="245.85,480.08 281.78,468.62 348.36,447.39 384.29,435.93"];
	10 -- 32	[pos="235.76,472.44 262.03,444.28 317.43,384.91 343.87,356.57"];
	64	[height=0.5,
		pos="188.82,648.67",
		width=0.75];
	10 -- 64	[pos="217.67,506.03 211.43,536.91 198.79,599.36 192.52,630.36"];
	65	[height=0.5,
		pos="125.14,607.87",
		width=0.75];
	10 -- 65	[pos="208.37,504.08 189.9,527.1 156.26,569.06 137.91,591.95"];
	10 -- 72	[pos="199.27,477.27 177.56,466.81 144.61,450.94 122.95,440.5"];
	10 -- 75	[pos="226.58,469.92 235.83,438.18 254.97,372.55 264.22,340.82"];
	81	[height=0.5,
		pos="117.67,473.94",
		width=0.75];
	10 -- 81	[pos="194.64,484.3 179.16,482.22 159.74,479.61 144.28,477.52"];
	10 -- 84	[pos="230.73,504.85 247.3,534.79 281.58,596.69 298.15,626.61"];
	11	[height=0.5,
		pos="137.73,523.96",
		width=0.75];
	11 -- 23	[pos="157.57,536.27 180.22,550.32 217.06,573.17 239.71,587.21"];
	11 -- 34	[pos="145.82,506.76 153.21,491.07 164.08,467.99 171.5,452.21"];
	11 -- 36	[pos="115.85,513.23 103.16,507.01 87.238,499.2 74.564,492.98"];
	50	[height=0.5,
		pos="114.94,661.45",
		width=0.75];
	11 -- 50	[pos="134.75,541.93 130.38,568.28 122.29,617.12 117.92,643.47"];
	11 -- 59	[pos="163.59,529.66 181.61,533.63 205.54,538.9 223.52,542.87"];
	11 -- 65	[pos="135,542.17 132.89,556.24 129.98,575.63 127.87,589.7"];
	11 -- 73	[pos="121.86,509.27 103.44,492.22 73.219,464.25 54.809,447.21"];
	12	[height=0.5,
		pos="651.94,349.36",
		width=0.75];
	12 -- 18	[pos="629.49,338.65 613.18,330.88 591.23,320.41 575.03,312.68"];
	12 -- 38	[pos="661.36,332.06 668.96,318.13 679.57,298.65 687.12,284.79"];
	12 -- 60	[pos="642.73,366.44 640.88,369.87 638.94,373.48 637.09,376.91"];
	67	[height=0.5,
		pos="707.8,482.83",
		width=0.75];
	12 -- 67	[pos="659.24,366.81 669.95,392.39 689.79,439.79 700.49,465.38"];
	12 -- 76	[pos="654.99,331.33 659.03,307.4 666.14,265.42 670.18,241.51"];
	12 -- 80	[pos="624.97,348.29 616.76,347.97 607.73,347.61 599.5,347.29"];
	83	[height=0.5,
		pos="682.09,438.68",
		width=0.75];
	12 -- 83	[pos="657.89,367 663.18,382.66 670.86,405.42 676.14,421.07"];
	13	[height=0.5,
		pos="646.37,593.35",
		width=0.75];
	13 -- 26	[pos="620.28,588.25 602.11,584.71 577.97,579.99 559.83,576.45"];
	13 -- 41	[pos="630.46,608.23 615.85,621.89 594.31,642.03 579.71,655.68"];
	49	[height=0.5,
		pos="708.38,582.01",
		width=0.75];
	13 -- 49	[pos="672.67,588.54 675.84,587.96 679.08,587.37 682.24,586.79"];
	13 -- 67	[pos="655.97,576.08 667.51,555.32 686.76,520.69 698.27,499.98"];
	69	[height=0.5,
		pos="720.3,537.96",
		width=0.75];
	13 -- 69	[pos="664.65,579.66 676.11,571.07 690.82,560.05 702.24,551.5"];
	14	[height=0.5,
		pos="187.2,587.06",
		width=0.75];
	14 -- 19	[pos="214.33,588.77 241.47,590.48 282.99,593.11 310.07,594.81"];
	43	[height=0.5,
		pos="64.872,563",
		width=0.75];
	14 -- 43	[pos="161.26,581.96 140.5,577.87 111.53,572.18 90.776,568.1"];
	14 -- 50	[pos="172.23,602.47 159.74,615.33 142.06,633.54 129.65,646.31"];
	14 -- 64	[pos="187.68,605.21 187.88,613.16 188.13,622.48 188.34,630.44"];
	14 -- 70	[pos="201.64,571.62 232.02,539.14 302.23,464.1 332.48,431.76"];
	14 -- 82	[pos="206.42,599.81 237.04,620.12 296.58,659.62 327.24,679.96"];
	15	[height=0.5,
		pos="645.7,501.45",
		width=0.75];
	15 -- 44	[pos="619.72,506.45 596.01,511 561.14,517.71 537.31,522.29"];
	15 -- 45	[pos="636.37,518.76 624.77,540.3 605.07,576.87 593.52,598.32"];
	15 -- 49	[pos="658.38,517.75 669.33,531.82 685.05,552.02 695.93,566.01"];
	15 -- 69	[pos="667.68,512.21 677.39,516.96 688.78,522.54 698.48,527.28"];
	15 -- 74	[pos="619.19,498.03 583.5,493.42 520.36,485.26 484.58,480.65"];
	15 -- 79	[pos="627.77,487.52 612.82,475.91 591.63,459.46 576.77,447.92"];
	15 -- 83	[pos="655.45,484.63 660.67,475.62 667.08,464.56 672.31,455.54"];
	16	[height=0.5,
		pos="158,385.9",
		width=0.75];
	16 -- 43	[pos="148.9,403.2 131.05,437.15 91.639,512.1 73.87,545.89"];
	16 -- 47	[pos="133.36,378.23 109.94,370.95 74.914,360.05 51.53,352.78"];
	16 -- 48	[pos="173.62,400.68 197.64,423.41 243.4,466.71 267.54,489.55"];
	16 -- 61	[pos="140.14,371.92 119.39,355.7 85.375,329.09 64.65,312.87"];
	16 -- 77	[pos="168.09,369.02 182.38,345.14 208.34,301.73 222.67,277.78"];
	16 -- 81	[pos="150.03,403.29 142.96,418.73 132.69,441.16 125.62,456.58"];
}
