graph {
	graph [bb="0,0,1588.1,1246.9",
		outputorder=edgesfirst,
		overlap=prism,
		size="50,50!",
		start=9946
	];
	node [label="\N"];
	0	[height=0.5,
		pos="788.72,662.15",
		width=0.75];
	42	[height=0.5,
		pos="839.56,526.17",
		width=0.75];
	0 -- 42	[pos="795.26,644.65 804.97,618.69 823.09,570.21 832.88,544.03"];
	1	[height=0.5,
		pos="819,396.89",
		width=0.75];
	0 -- 1	[pos="790.8,643.92 796.35,595.34 811.43,463.22 816.95,414.9"];
	2	[height=0.5,
		pos="599.46,574.69",
		width=0.75];
	0 -- 2	[pos="766.26,651.78 729.84,634.94 658.29,601.87 621.88,585.05"];
	153	[height=0.5,
		pos="625.34,690.95",
		width=0.75];
	0 -- 153	[pos="762.47,666.78 731.98,672.15 681.98,680.97 651.52,686.34"];
	3	[height=0.5,
		pos="878.51,482.16",
		width=0.75];
	0 -- 3	[pos="797.33,644.9 814.49,610.49 852.79,533.73 869.93,499.37"];
	6	[height=0.5,
		pos="911.07,530.35",
		width=0.75];
	0 -- 6	[pos="802.99,646.78 826.44,621.51 872.87,571.5 896.5,546.04"];
	4	[height=0.5,
		pos="567.97,734.98",
		width=0.75];
	0 -- 4	[pos="764.25,670.23 721.71,684.26 634.6,713 592.21,726.98"];
	5	[height=0.5,
		pos="692.44,435.82",
		width=0.75];
	0 -- 5	[pos="781.32,644.77 763.4,602.64 717.81,495.45 699.86,453.26"];
	7	[height=0.5,
		pos="630.38,433.63",
		width=0.75];
	0 -- 7	[pos="777.33,645.72 748.19,603.66 671.14,492.45 641.88,450.22"];
	201	[height=0.5,
		pos="891.69,814.23",
		width=0.75];
	0 -- 201	[pos="799.93,678.72 819.74,707.97 860.69,768.44 880.49,797.68"];
	12	[height=0.5,
		pos="1063.9,709.27",
		width=0.75];
	0 -- 12	[pos="815.1,666.67 867.7,675.68 985.05,695.77 1037.6,704.77"];
	19	[height=0.5,
		pos="520.79,593.92",
		width=0.75];
	0 -- 19	[pos="763.03,655.61 711.82,642.57 597.55,613.47 546.41,600.45"];
	229	[height=0.5,
		pos="686.21,602.91",
		width=0.75];
	0 -- 229	[pos="767.97,650.17 750.19,639.89 724.7,625.16 706.93,614.88"];
	11	[height=0.5,
		pos="1096,654.12",
		width=0.75];
	0 -- 11	[pos="815.72,661.45 873.85,659.93 1010.3,656.36 1068.7,654.83"];
	113	[height=0.5,
		pos="984.53,706.41",
		width=0.75];
	0 -- 113	[pos="814.32,667.94 851.84,676.42 921.39,692.14 958.92,700.63"];
	255	[height=0.5,
		pos="748.23,561.37",
		width=0.75];
	0 -- 255	[pos="781.67,644.6 774.28,626.21 762.75,597.5 755.34,579.06"];
	138	[height=0.5,
		pos="953.75,816.6",
		width=0.75];
	0 -- 138	[pos="804.54,676.96 836.01,706.41 906.11,772.01 937.73,801.6"];
	13	[height=0.5,
		pos="615.73,850.77",
		width=0.75];
	0 -- 13	[pos="774.56,677.59 742.04,713.05 662.31,799.98 629.84,835.39"];
	120	[height=0.5,
		pos="630.05,754.58",
		width=0.75];
	0 -- 120	[pos="768.3,674.05 737.83,691.8 680.81,725.01 650.39,742.73"];
	152	[height=0.5,
		pos="754.15,748.83",
		width=0.75];
	0 -- 152	[pos="781.72,679.69 775.73,694.73 767.13,716.29 761.14,731.32"];
	17	[height=0.5,
		pos="826.82,913.38",
		width=0.75];
	0 -- 17	[pos="791.46,680.22 798.47,726.46 817.01,848.71 824.05,895.14"];
	144	[height=0.5,
		pos="584.25,637.65",
		width=0.75];
	0 -- 144	[pos="761.99,658.95 722.8,654.25 650.18,645.55 610.99,640.85"];
	39	[height=0.5,
		pos="985.28,573.57",
		width=0.75];
	0 -- 39	[pos="811.27,651.99 849.08,634.95 924.85,600.8 962.69,583.74"];
	29	[height=0.5,
		pos="895.2,618.39",
		width=0.75];
	0 -- 29	[pos="811.82,652.66 829.68,645.32 854.29,635.2 872.14,627.87"];
	31	[height=0.5,
		pos="953.75,750.43",
		width=0.75];
	0 -- 31	[pos="809.95,673.51 841.64,690.47 900.95,722.19 932.59,739.12"];
	32	[height=0.5,
		pos="798.85,613.23",
		width=0.75];
	0 -- 32	[pos="792.43,644.21 793.32,639.96 794.26,635.42 795.14,631.17"];
	54	[height=0.5,
		pos="829.65,775.97",
		width=0.75];
	0 -- 54	[pos="795.11,679.94 802.8,701.32 815.63,736.99 823.3,758.31"];
	36	[height=0.5,
		pos="816.48,441.35",
		width=0.75];
	0 -- 36	[pos="790.99,644.08 796.21,602.58 809,500.81 814.21,459.36"];
	38	[height=0.5,
		pos="749.41,908.02",
		width=0.75];
	0 -- 38	[pos="785.83,680.23 778.56,725.7 759.58,844.42 752.31,889.92"];
	155	[height=0.5,
		pos="773.37,820",
		width=0.75];
	0 -- 155	[pos="786.96,680.26 784.01,710.55 778.12,771.15 775.16,801.62"];
	237	[height=0.5,
		pos="647.02,646.92",
		width=0.75];
	0 -- 237	[pos="761.73,659.25 736.52,656.54 699.09,652.52 673.9,649.81"];
	283	[height=0.5,
		pos="928.61,662.39",
		width=0.75];
	0 -- 283	[pos="816.02,662.2 840.67,662.24 876.75,662.31 901.37,662.35"];
	146	[height=0.5,
		pos="851.73,664.09",
		width=0.75];
	0 -- 146	[pos="815.81,662.98 818.74,663.07 821.73,663.17 824.67,663.26"];
	49	[height=0.5,
		pos="1015.8,860.58",
		width=0.75];
	0 -- 49	[pos="805.41,676.74 847.5,713.53 957.57,809.72 999.35,846.23"];
	106	[height=0.5,
		pos="742.1,864",
		width=0.75];
	0 -- 106	[pos="784.58,680.07 775.74,718.37 755.07,807.86 746.23,846.13"];
	140	[height=0.5,
		pos="891.69,742.75",
		width=0.75];
	0 -- 140	[pos="806.65,676.19 825.55,690.99 855.14,714.14 873.96,728.87"];
	86	[height=0.5,
		pos="819.79,708.49",
		width=0.75];
	0 -- 86	[pos="799.76,678.62 802.62,682.89 805.7,687.49 808.57,691.77"];
	242	[height=0.5,
		pos="1015.8,772.53",
		width=0.75];
	0 -- 242	[pos="810.9,672.94 854.42,694.09 950.51,740.81 993.83,761.87"];
	95	[height=0.5,
		pos="888.88,910.28",
		width=0.75];
	0 -- 95	[pos="795.76,679.6 814.15,725.16 863.46,847.31 881.84,892.85"];
	104	[height=0.5,
		pos="665.84,558.9",
		width=0.75];
	0 -- 104	[pos="771.89,648.01 748.49,628.35 706.36,592.95 682.86,573.2"];
	193	[height=0.5,
		pos="692.1,742.19",
		width=0.75];
	0 -- 193	[pos="771.44,676.46 753.86,691.03 726.75,713.48 709.22,728.01"];
	262	[height=0.5,
		pos="687.39,694.54",
		width=0.75];
	0 -- 262	[pos="764.19,669.99 748.38,675.05 727.88,681.6 712.05,686.66"];
	161	[height=0.5,
		pos="845.79,862.92",
		width=0.75];
	0 -- 161	[pos="793.78,679.97 804.61,718.07 829.92,807.08 840.74,845.14"];
	176	[height=0.5,
		pos="923.03,574.39",
		width=0.75];
	0 -- 176	[pos="808.25,649.39 833.71,632.75 878,603.81 903.48,587.16"];
	42 -- 146	[pos="841.15,544.2 843.48,570.63 847.81,619.62 850.14,646.05"];
	42 -- 86	[pos="837.59,544.32 833.8,579.27 825.53,655.53 821.75,690.42"];
	158	[height=0.5,
		pos="898.39,125.56",
		width=0.75];
	42 -- 158	[pos="842.2,508.18 851.97,441.65 886,209.95 895.76,143.5"];
	195	[height=0.5,
		pos="960.41,147.74",
		width=0.75];
	42 -- 195	[pos="845.22,508.43 865.52,444.86 934.48,228.95 954.76,165.45"];
	1 -- 42	[pos="821.86,414.86 825.77,439.43 832.73,483.23 836.66,507.93"];
	10	[height=0.5,
		pos="940.52,443.39",
		width=0.75];
	1 -- 10	[pos="842.43,405.86 863.81,414.04 895.26,426.07 916.75,434.3"];
	1 -- 3	[pos="830.48,413.33 841.01,428.43 856.55,450.69 867.07,465.77"];
	1 -- 6	[pos="830.29,413.25 847.96,438.87 881.96,488.15 899.69,513.85"];
	1 -- 5	[pos="794.3,404.49 772,411.35 739.36,421.39 717.08,428.24"];
	167	[height=0.5,
		pos="915.44,399.38",
		width=0.75];
	1 -- 167	[pos="846.12,397.59 859.27,397.93 875.03,398.34 888.19,398.68"];
	1 -- 229	[pos="808.14,413.75 783.17,452.48 721.97,547.43 697.04,586.11"];
	37	[height=0.5,
		pos="784.49,342.66",
		width=0.75];
	1 -- 37	[pos="808.27,380.03 804.08,373.44 799.28,365.9 795.1,359.33"];
	1 -- 255	[pos="811.43,414.49 797.81,446.15 769.33,512.33 755.75,543.89"];
	23	[height=0.5,
		pos="848.53,169.6",
		width=0.75];
	1 -- 23	[pos="821.37,378.67 826.91,336.01 840.68,230.02 846.2,187.58"];
	269	[height=0.5,
		pos="774.19,53.323",
		width=0.75];
	1 -- 269	[pos="816.66,378.9 808.93,319.67 784.33,131.12 776.56,71.547"];
	137	[height=0.5,
		pos="762.32,234.79",
		width=0.75];
	1 -- 137	[pos="812.83,379.23 801.93,348.05 779.39,283.59 768.49,252.42"];
	1 -- 32	[pos="817.32,414.96 813.53,455.68 804.35,554.24 800.55,595.05"];
	1 -- 146	[pos="821.2,414.84 827.15,463.39 843.51,596.99 849.5,645.87"];
	1 -- 86	[pos="819.05,414.99 819.19,470.06 819.61,635.2 819.74,690.34"];
	1 -- 158	[pos="824.21,379.09 838.6,329.92 878.76,192.67 893.17,143.43"];
	1 -- 195	[pos="828.72,379.76 854.62,334.14 925.05,210.04 950.81,164.66"];
	233	[height=0.5,
		pos="1000.5,487.44",
		width=0.75];
	1 -- 233	[pos="840.89,407.81 875.86,425.26 943.94,459.23 978.78,476.62"];
	10 -- 37	[pos="921.08,430.84 891.18,411.54 834.23,374.77 804.18,355.38"];
	10 -- 255	[pos="920.31,455.79 883.28,478.51 805,526.54 768.18,549.13"];
	2 -- 153	[pos="603.44,592.6 608.29,614.38 616.43,650.95 621.31,672.83"];
	2 -- 3	[pos="623.73,566.64 676.51,549.14 801.19,507.8 854.09,490.26"];
	66	[height=0.5,
		pos="396.02,605.28",
		width=0.75];
	2 -- 66	[pos="572.86,578.68 533.87,584.55 461.61,595.42 422.62,601.28"];
	2 -- 4	[pos="595.91,592.76 589.86,623.55 577.63,685.82 571.56,716.73"];
	79	[height=0.5,
		pos="560.71,505.01",
		width=0.75];
	2 -- 79	[pos="589.88,557.46 583.87,546.66 576.16,532.8 570.17,522.03"];
	2 -- 7	[pos="603.37,556.82 609.29,529.83 620.44,478.95 626.4,451.79"];
	198	[height=0.5,
		pos="435.94,693.33",
		width=0.75];
	2 -- 198	[pos="581.02,588.06 549.61,610.85 486.09,656.94 454.56,679.82"];
	9	[height=0.5,
		pos="356.08,457.74",
		width=0.75];
	2 -- 9	[pos="577.43,564.1 531.21,541.89 424.56,490.65 378.24,468.39"];
	157	[height=0.5,
		pos="498.68,466.56",
		width=0.75];
	2 -- 157	[pos="585.02,559.19 565.86,538.64 532.24,502.56 513.09,482.03"];
	2 -- 13	[pos="600.52,592.8 603.47,642.83 611.7,782.49 614.66,832.59"];
	15	[height=0.5,
		pos="514.5,811.72",
		width=0.75];
	2 -- 15	[pos="593.07,592.5 577.29,636.54 536.58,750.1 520.84,794.02"];
	2 -- 120	[pos="602.5,592.59 608.35,626.99 621.09,701.94 626.97,736.48"];
	20	[height=0.5,
		pos="740.22,386.7",
		width=0.75];
	2 -- 20	[pos="611.7,558.33 638.39,522.69 701.53,438.37 728.1,402.89"];
	57	[height=0.5,
		pos="754.46,481.71",
		width=0.75];
	2 -- 57	[pos="619.72,562.53 649.43,544.71 704.48,511.69 734.19,493.87"];
	71	[height=0.5,
		pos="436.64,438.49",
		width=0.75];
	2 -- 71	[pos="582.34,560.37 550.99,534.14 484.71,478.7 453.52,452.62"];
	46	[height=0.5,
		pos="294.05,500.22",
		width=0.75];
	2 -- 46	[pos="573.94,568.46 516.45,554.45 377.33,520.52 319.7,506.47"];
	27	[height=0.5,
		pos="622.72,514.86",
		width=0.75];
	2 -- 27	[pos="606.31,557.06 609.31,549.34 612.83,540.3 615.84,532.57"];
	33	[height=0.5,
		pos="478.54,364.4",
		width=0.75];
	2 -- 33	[pos="589.77,557.83 567.13,518.46 510.97,420.79 488.28,381.34"];
	2 -- 237	[pos="610.49,591.44 618.17,603.11 628.38,618.61 636.05,630.26"];
	53	[height=0.5,
		pos="436.62,501.67",
		width=0.75];
	2 -- 53	[pos="576.82,564.53 545.71,550.58 490.08,525.64 459.07,511.74"];
	210	[height=0.5,
		pos="754.46,430.73",
		width=0.75];
	2 -- 210	[pos="615.46,559.82 645.16,532.24 708.5,473.42 738.31,445.73"];
	126	[height=0.5,
		pos="692.4,509.32",
		width=0.75];
	2 -- 126	[pos="618.27,561.46 634.39,550.12 657.5,533.86 673.62,522.52"];
	72	[height=0.5,
		pos="498.36,716.42",
		width=0.75];
	2 -- 72	[pos="587.86,590.94 568.46,618.14 529.65,672.56 510.13,699.92"];
	88	[height=0.5,
		pos="616.12,368.21",
		width=0.75];
	2 -- 88	[pos="600.94,556.36 604.11,517.08 611.53,425.17 614.67,386.2"];
	217	[height=0.5,
		pos="561.14,418.6",
		width=0.75];
	2 -- 217	[pos="595.06,556.78 587.71,526.83 573,466.91 565.6,436.78"];
	2 -- 262	[pos="611.68,591.35 628.48,614.25 658.52,655.19 675.27,678.02"];
	177	[height=0.5,
		pos="458.08,589.72",
		width=0.75];
	2 -- 177	[pos="572.53,577.55 547.38,580.22 510.03,584.2 484.9,586.87"];
	197	[height=0.5,
		pos="457.64,545.7",
		width=0.75];
	2 -- 197	[pos="573.45,569.37 547.86,564.14 509.02,556.2 483.49,550.98"];
	215	[height=0.5,
		pos="364.48,649.31",
		width=0.75];
	2 -- 215	[pos="574.75,582.53 529.63,596.86 434.35,627.12 389.21,641.45"];
	273	[height=0.5,
		pos="330.62,568.26",
		width=0.75];
	2 -- 273	[pos="572.45,574.04 520.92,572.81 409.12,570.14 357.61,568.91"];
	153 -- 262	[pos="652.38,692.52 654.99,692.67 657.64,692.82 660.25,692.97"];
	3 -- 10	[pos="898.47,469.68 905.55,465.26 913.52,460.28 920.6,455.85"];
	47	[height=0.5,
		pos="828.18,247.98",
		width=0.75];
	3 -- 47	[pos="874.65,464.18 865.28,420.59 841.44,309.68 832.06,266.03"];
	3 -- 6	[pos="889.71,498.75 893.03,503.65 896.65,509.01 899.95,513.9"];
	3 -- 5	[pos="853.03,475.82 817.5,466.97 753.44,451.01 717.91,442.16"];
	204	[height=0.5,
		pos="760.72,292.16",
		width=0.75];
	3 -- 204	[pos="868.06,465.3 845.71,429.25 793.48,345.01 771.15,308.99"];
	3 -- 12	[pos="891.55,498.13 925.58,539.83 1016.8,651.64 1050.9,693.32"];
	3 -- 167	[pos="886.34,464.61 892.61,450.56 901.36,430.95 907.62,416.91"];
	3 -- 37	[pos="867.36,465.61 849.26,438.77 813.72,386.03 795.63,359.19"];
	3 -- 11	[pos="895.94,495.94 936.66,528.14 1037.7,608.01 1078.5,640.27"];
	35	[height=0.5,
		pos="1017.3,437.89",
		width=0.75];
	3 -- 35	[pos="903,474.35 928.2,466.31 967.26,453.84 992.55,445.78"];
	151	[height=0.5,
		pos="1178.3,552.08",
		width=0.75];
	3 -- 151	[pos="904.07,488.12 960.7,501.33 1096.2,532.94 1152.8,546.13"];
	21	[height=0.5,
		pos="1186.6,451.11",
		width=0.75];
	3 -- 21	[pos="905.31,479.46 963.57,473.59 1101.2,459.72 1159.6,453.83"];
	16	[height=0.5,
		pos="1202.9,498.17",
		width=0.75];
	3 -- 16	[pos="905.61,483.5 966.67,486.51 1114.4,493.81 1175.6,496.83"];
	3 -- 20	[pos="859.57,469.09 833.24,450.91 785.82,418.18 759.38,399.93"];
	3 -- 57	[pos="851.29,482.06 830.6,481.99 802.29,481.88 781.62,481.81"];
	123	[height=0.5,
		pos="1101.1,610.08",
		width=0.75];
	3 -- 123	[pos="899.05,493.97 941.45,518.34 1038.2,573.96 1080.6,598.31"];
	40	[height=0.5,
		pos="1124.5,472.79",
		width=0.75];
	3 -- 40	[pos="905.78,481.12 953.19,479.32 1050.3,475.62 1097.5,473.82"];
	84	[height=0.5,
		pos="1121.7,428.72",
		width=0.75];
	3 -- 84	[pos="904.53,476.44 951.34,466.16 1049.2,444.66 1095.8,434.4"];
	111	[height=0.5,
		pos="1116.2,560.64",
		width=0.75];
	3 -- 111	[pos="903.05,490.27 948.72,505.34 1046.2,537.54 1091.8,552.58"];
	3 -- 27	[pos="851.62,485.6 802.37,491.9 698.24,505.21 649.25,511.47"];
	98	[height=0.5,
		pos="678.18,360.42",
		width=0.75];
	3 -- 98	[pos="858.2,469.82 819.7,446.43 736.56,395.89 698.25,372.61"];
	3 -- 29	[pos="880.73,500.25 883.92,526.31 889.78,574.13 892.97,600.23"];
	68	[height=0.5,
		pos="898.91,332.56",
		width=0.75];
	3 -- 68	[pos="880.97,464.12 884.89,435.36 892.51,379.46 896.44,350.67"];
	3 -- 36	[pos="859.22,469.47 851.82,464.61 843.38,459.05 835.97,454.17"];
	78	[height=0.5,
		pos="1088.7,274.03",
		width=0.75];
	3 -- 78	[pos="893.63,467.19 932.31,428.89 1034.6,327.61 1073.4,289.14"];
	3 -- 283	[pos="883.5,500.1 893.1,534.65 914.06,610.04 923.64,644.53"];
	170	[height=0.5,
		pos="1054.8,384.04",
		width=0.75];
	3 -- 170	[pos="899.42,470.52 933.34,451.64 999.98,414.54 1033.9,395.66"];
	45	[height=0.5,
		pos="822.78,298.66",
		width=0.75];
	3 -- 45	[pos="873.07,464.23 862.38,429.06 838.8,351.4 828.17,316.39"];
	166	[height=0.5,
		pos="896.3,257.66",
		width=0.75];
	3 -- 166	[pos="879.94,464.17 883.27,422.13 891.53,317.86 894.86,275.74"];
	80	[height=0.5,
		pos="1185.4,390.18",
		width=0.75];
	3 -- 80	[pos="903.37,474.71 961.03,457.43 1103.3,414.79 1160.8,397.57"];
	3 -- 210	[pos="855.47,472.61 833.33,463.43 800.04,449.63 777.8,440.41"];
	59	[height=0.5,
		pos="958.76,288.54",
		width=0.75];
	3 -- 59	[pos="885.77,464.64 901.01,427.87 936.18,343.02 951.45,306.17"];
	69	[height=0.5,
		pos="961.91,355.35",
		width=0.75];
	3 -- 69	[pos="889.41,465.59 905.4,441.28 935.02,396.24 951,371.94"];
	65	[height=0.5,
		pos="1027,222.63",
		width=0.75];
	3 -- 65	[pos="888.26,465.13 915.16,418.11 990.29,286.82 1017.2,239.72"];
	3 -- 126	[pos="851.85,486.05 816.47,491.22 754.37,500.27 719.02,505.43"];
	116	[height=0.5,
		pos="1023.9,323.91",
		width=0.75];
	3 -- 116	[pos="892.72,466.7 920.44,436.52 981.49,370.08 1009.4,339.67"];
	188	[height=0.5,
		pos="1047.7,565.94",
		width=0.75];
	3 -- 188	[pos="900.28,492.94 932.77,509.03 993.58,539.14 1026,555.2"];
	134	[height=0.5,
		pos="1148.2,340.94",
		width=0.75];
	3 -- 134	[pos="900.13,470.85 950.75,444.34 1076.5,378.49 1126.9,352.12"];
	125	[height=0.5,
		pos="1062.5,516.62",
		width=0.75];
	3 -- 125	[pos="904.87,487.1 939.94,493.67 1001.6,505.21 1036.5,511.75"];
	294	[height=0.5,
		pos="1086.2,318.43",
		width=0.75];
	3 -- 294	[pos="896.22,468.2 935.45,437.27 1029.3,363.25 1068.5,332.35"];
	3 -- 233	[pos="905.58,483.33 925.79,484.21 953.28,485.4 973.47,486.27"];
	3 -- 176	[pos="886.89,499.51 894.85,516 906.75,540.66 914.7,557.12"];
	200	[height=0.5,
		pos="959.99,191.75",
		width=0.75];
	3 -- 200	[pos="883.49,464.43 898.03,412.59 940.38,261.64 954.98,209.62"];
	275	[height=0.5,
		pos="895.33,213.62",
		width=0.75];
	3 -- 275	[pos="879.64,464.13 882.7,415.32 891.1,281.05 894.18,231.93"];
	169	[height=0.5,
		pos="836.29,92.992",
		width=0.75];
	47 -- 169	[pos="829.13,229.9 830.68,200.19 833.76,141.38 835.33,111.44"];
	149	[height=0.5,
		pos="963.96,103.56",
		width=0.75];
	47 -- 149	[pos="842.72,232.53 868.85,204.73 923.48,146.62 949.54,118.91"];
	241	[height=0.5,
		pos="912.08,55.031",
		width=0.75];
	47 -- 241	[pos="835.78,230.52 851.71,193.88 888.48,109.32 904.45,72.594"];
	47 -- 200	[pos="851.14,238.19 875.19,227.93 912.74,211.91 936.85,201.62"];
	47 -- 275	[pos="849.8,236.92 857.47,232.99 866.09,228.58 873.75,224.66"];
	131	[height=0.5,
		pos="412.87,354.76",
		width=0.75];
	66 -- 131	[pos="397.23,587.26 400.33,541.15 408.53,419.25 411.64,372.95"];
	247	[height=0.5,
		pos="179.21,801.06",
		width=0.75];
	66 -- 247	[pos="379.72,620 339.45,656.37 235.57,750.17 195.4,786.44"];
	66 -- 126	[pos="420.53,597.35 476.28,579.29 612.09,535.32 667.87,517.26"];
	100	[height=0.5,
		pos="302.45,651.47",
		width=0.75];
	66 -- 100	[pos="374.32,615.99 359.31,623.4 339.41,633.23 324.36,640.66"];
	133	[height=0.5,
		pos="330.17,698.62",
		width=0.75];
	66 -- 133	[pos="384.25,621.97 372.26,638.96 353.79,665.14 341.84,682.08"];
	299	[height=0.5,
		pos="144.07,757.04",
		width=0.75];
	66 -- 299	[pos="375.83,617.44 328.65,645.86 211.63,716.35 164.36,744.82"];
	297	[height=0.5,
		pos="374.56,398.8",
		width=0.75];
	66 -- 297	[pos="394.15,587.32 390.1,548.27 380.51,456.02 376.44,416.87"];
	6 -- 167	[pos="911.68,512.14 912.51,487.12 914.01,442.38 914.84,417.44"];
	6 -- 35	[pos="927.66,515.9 947.61,498.53 980.89,469.56 1000.8,452.24"];
	6 -- 137	[pos="902.43,513.18 876.14,460.94 797.31,304.3 770.99,252"];
	6 -- 29	[pos="907.78,548.59 905.04,563.8 901.15,585.35 898.43,600.47"];
	6 -- 32	[pos="892.79,543.85 871.92,559.26 837.99,584.32 817.13,599.73"];
	6 -- 68	[pos="909.94,512.09 907.63,474.42 902.34,388.41 900.03,350.77"];
	6 -- 283	[pos="913.47,548.43 916.81,573.58 922.82,618.85 926.18,644.11"];
	6 -- 140	[pos="909.42,548.46 905.75,588.59 897,684.6 893.34,724.69"];
	6 -- 233	[pos="933.17,519.74 946.92,513.14 964.55,504.68 978.31,498.07"];
	4 -- 79	[pos="567.4,716.94 566.05,674.05 562.65,566.41 561.28,523.29"];
	4 -- 15	[pos="556.37,751.63 547.34,764.59 534.87,782.48 525.9,795.36"];
	18	[height=0.5,
		pos="303.78,789.5",
		width=0.75];
	4 -- 18	[pos="542.16,740.31 491.65,750.73 380.29,773.71 329.69,784.15"];
	261	[height=0.5,
		pos="501.29,899.74",
		width=0.75];
	4 -- 261	[pos="560.84,752.61 548,784.32 521.17,850.61 508.37,882.23"];
	4 -- 152	[pos="595.04,737 630.34,739.62 691.73,744.19 727.05,746.82"];
	194	[height=0.5,
		pos="256.48,836.87",
		width=0.75];
	4 -- 194	[pos="543.53,742.98 485.3,762.02 338.92,809.91 280.81,828.91"];
	94	[height=0.5,
		pos="366.05,805.98",
		width=0.75];
	4 -- 94	[pos="544.02,743.41 505.16,757.07 428.82,783.91 389.98,797.57"];
	4 -- 36	[pos="581.33,719.2 624.48,668.21 759.81,508.31 803.05,457.22"];
	4 -- 38	[pos="583.44,749.74 617.64,782.35 699.33,860.26 733.73,893.06"];
	58	[height=0.5,
		pos="428.11,838.71",
		width=0.75];
	4 -- 58	[pos="549.69,748.54 522.88,768.42 473.21,805.27 446.4,825.15"];
	224	[height=0.5,
		pos="512.97,855.72",
		width=0.75];
	4 -- 224	[pos="560.09,752.28 549.64,775.23 531.29,815.52 520.84,838.45"];
	4 -- 72	[pos="542.84,728.28 536.61,726.62 529.93,724.84 523.69,723.17"];
	213	[height=0.5,
		pos="318.81,871.8",
		width=0.75];
	4 -- 213	[pos="546.73,746.65 499.65,772.5 387.02,834.34 340,860.17"];
	196	[height=0.5,
		pos="712.1,62.09",
		width=0.75];
	79 -- 196	[pos="566.73,487.37 591.04,416.26 681.72,150.98 706.06,79.776"];
	79 -- 88	[pos="567.84,487.4 578.48,461.14 598.4,411.97 609.02,385.74"];
	5 -- 204	[pos="700.68,418.49 713.8,390.88 739.32,337.2 752.46,309.55"];
	5 -- 7	[pos="665.4,434.86 662.79,434.77 660.14,434.68 657.52,434.59"];
	5 -- 19	[pos="676.6,450.41 644.07,480.38 570.02,548.58 537.1,578.91"];
	8	[height=0.5,
		pos="550.66,373.32",
		width=0.75];
	5 -- 8	[pos="669.66,425.78 643.2,414.11 599.81,394.99 573.38,383.34"];
	5 -- 229	[pos="691.76,454.02 690.57,486.16 688.09,552.61 686.89,584.74"];
	5 -- 9	[pos="665.48,437.58 602.5,441.68 446.28,451.86 383.17,455.98"];
	44	[height=0.5,
		pos="625.92,115.73",
		width=0.75];
	5 -- 44	[pos="688.68,417.69 676.97,361.35 641.3,189.73 629.65,133.66"];
	5 -- 37	[pos="707.64,420.44 724.8,403.07 752.53,375.01 769.57,357.76"];
	5 -- 255	[pos="700.2,453.28 710.86,477.26 729.92,520.15 740.54,544.06"];
	22	[height=0.5,
		pos="474.89,318.16",
		width=0.75];
	5 -- 22	[pos="671.19,424.32 629.49,401.77 537.42,351.98 495.91,329.53"];
	5 -- 27	[pos="678.67,451.44 666.44,465.29 648.68,485.43 636.47,499.28"];
	5 -- 98	[pos="689.06,417.95 686.81,406.02 683.85,390.38 681.59,378.42"];
	253	[height=0.5,
		pos="687.95,138.28",
		width=0.75];
	5 -- 253	[pos="692.17,417.66 691.36,364.54 689.03,209.88 688.22,156.59"];
	127	[height=0.5,
		pos="660.95,201.68",
		width=0.75];
	5 -- 127	[pos="690.02,417.84 684.16,374.25 669.25,263.37 663.38,219.73"];
	230	[height=0.5,
		pos="536.91,275.15",
		width=0.75];
	5 -- 230	[pos="677.53,420.41 647.72,389.63 581.13,320.83 551.55,290.28"];
	109	[height=0.5,
		pos="598.94,239.66",
		width=0.75];
	5 -- 109	[pos="684.14,418.41 666.4,381.19 624.94,294.22 607.22,257.03"];
	238	[height=0.5,
		pos="587.33,161.8",
		width=0.75];
	5 -- 238	[pos="685.71,418.26 666.77,368.89 613.19,229.2 594.15,179.57"];
	204 -- 253	[pos="752.52,274.81 738.54,245.26 710.27,185.48 696.24,155.81"];
	7 -- 19	[pos="619.07,450.18 598.07,480.89 553.29,546.39 532.21,577.22"];
	7 -- 9	[pos="603.58,435.98 551.14,440.59 435.52,450.76 382.99,455.38"];
	7 -- 157	[pos="604.99,439.98 581.67,445.81 547.29,454.41 523.99,460.23"];
	7 -- 144	[pos="626.29,451.73 617.54,490.45 597.08,580.9 588.34,619.58"];
	25	[height=0.5,
		pos="311.44,337.41",
		width=0.75];
	7 -- 25	[pos="605.62,426.16 546.2,408.23 396.03,362.93 336.4,344.94"];
	30	[height=0.5,
		pos="439.23,110.68",
		width=0.75];
	7 -- 30	[pos="620.37,416.72 587.42,361.04 482.51,183.81 449.37,127.81"];
	7 -- 33	[pos="607.98,423.41 579.27,410.32 529.79,387.77 501.04,374.66"];
	96	[height=0.5,
		pos="350.89,222.43",
		width=0.75];
	7 -- 96	[pos="612.47,420.09 562.11,382.04 419.63,274.37 369.01,236.12"];
	263	[height=0.5,
		pos="524.32,157.12",
		width=0.75];
	7 -- 263	[pos="623.59,415.91 604.43,365.97 550.14,224.45 531.06,174.69"];
	7 -- 237	[pos="631.8,451.81 634.94,492.11 642.46,588.53 645.6,628.78"];
	212	[height=0.5,
		pos="448.57,222.5",
		width=0.75];
	7 -- 212	[pos="616.72,417.76 582.94,378.54 495.83,277.38 462.15,238.26"];
	7 -- 53	[pos="606.23,442.11 569,455.18 498,480.12 460.77,493.19"];
	101	[height=0.5,
		pos="460.77,164.12",
		width=0.75];
	7 -- 101	[pos="619.77,416.77 589.31,368.37 501.83,229.36 471.38,180.97"];
	7 -- 104	[pos="635.46,451.57 642.2,475.39 654.03,517.19 660.77,540.98"];
	277	[height=0.5,
		pos="525.45,209.2",
		width=0.75];
	7 -- 277	[pos="622.32,416.39 602.79,374.61 553.1,268.33 533.54,226.5"];
	132	[height=0.5,
		pos="387.15,266.55",
		width=0.75];
	7 -- 132	[pos="611.3,420.52 565.83,389.28 451.53,310.77 406.15,279.6"];
	145	[height=0.5,
		pos="390.79,310.66",
		width=0.75];
	7 -- 145	[pos="608.7,422.5 563.08,399.09 457.67,344.99 412.25,321.68"];
	7 -- 197	[pos="610.9,446.26 577.64,467.85 510.27,511.56 477.05,533.1"];
	257	[height=0.5,
		pos="563.42,109.84",
		width=0.75];
	7 -- 257	[pos="626.69,415.76 615.01,359.28 578.96,185.01 567.18,128.05"];
	12 -- 151	[pos="1075.7,693.04 1097.6,662.92 1144.3,598.69 1166.3,568.46"];
	12 -- 138	[pos="1048.6,724.19 1027.7,744.58 990.33,780.95 969.29,801.45"];
	12 -- 16	[pos="1074.8,692.71 1100.8,653.25 1166.1,554.05 1192,514.66"];
	28	[height=0.5,
		pos="1254.1,714.02",
		width=0.75];
	12 -- 28	[pos="1091.1,709.95 1127.3,710.85 1190.8,712.44 1226.9,713.34"];
	181	[height=0.5,
		pos="1357.3,691.49",
		width=0.75];
	12 -- 181	[pos="1091,707.63 1146.9,704.24 1274.4,696.51 1330.3,693.13"];
	12 -- 283	[pos="1039.7,700.89 1015.1,692.36 977.13,679.21 952.58,670.7"];
	12 -- 49	[pos="1058.3,726.92 1049.1,755.92 1030.8,813.34 1021.5,842.57"];
	67	[height=0.5,
		pos="1063.5,907.22",
		width=0.75];
	12 -- 67	[pos="1063.8,727.54 1063.8,765.25 1063.6,851.32 1063.5,888.99"];
	64	[height=0.5,
		pos="1137,957.42",
		width=0.75];
	12 -- 64	[pos="1069.1,727.12 1082.6,772.9 1118.4,894.13 1131.8,939.73"];
	136	[height=0.5,
		pos="1000.7,906.91",
		width=0.75];
	12 -- 136	[pos="1058.2,727.16 1046.1,764.79 1018.4,851.73 1006.4,889.2"];
	185	[height=0.5,
		pos="1196.1,869.35",
		width=0.75];
	12 -- 185	[pos="1077,725.21 1102.4,755.89 1157.7,822.85 1183,853.48"];
	118	[height=0.5,
		pos="1225.6,921.21",
		width=0.75];
	12 -- 118	[pos="1076.3,725.55 1106.4,765 1183,865.37 1213.1,904.88"];
	73	[height=0.5,
		pos="1298,881.98",
		width=0.75];
	12 -- 73	[pos="1082.3,722.82 1126,755.11 1236.1,836.27 1279.7,868.49"];
	218	[height=0.5,
		pos="1099.1,1001.4",
		width=0.75];
	12 -- 218	[pos="1066.1,727.55 1072.4,780.02 1090.5,930.7 1096.9,983.16"];
	288	[height=0.5,
		pos="997.94,956.1",
		width=0.75];
	12 -- 288	[pos="1059.1,727.02 1047,772.45 1014.9,892.56 1002.7,938.18"];
	216	[height=0.5,
		pos="1207,805.18",
		width=0.75];
	12 -- 216	[pos="1083.2,722.21 1110.5,740.51 1160.2,773.79 1187.6,792.15"];
	286	[height=0.5,
		pos="1154.8,913.39",
		width=0.75];
	12 -- 286	[pos="1071.6,726.67 1088.8,765.24 1129.9,857.51 1147.1,896.03"];
	19 -- 229	[pos="547.74,595.39 578.5,597.06 628.52,599.78 659.28,601.45"];
	19 -- 144	[pos="539.83,607.04 547.87,612.58 557.2,619.01 565.23,624.54"];
	19 -- 22	[pos="517.78,575.83 509.46,525.86 486.24,386.37 477.91,336.32"];
	150	[height=0.5,
		pos="268.48,544.95",
		width=0.75];
	19 -- 150	[pos="494.74,588.87 446.39,579.48 343.3,559.47 294.77,550.05"];
	52	[height=0.5,
		pos="239.48,646.51",
		width=0.75];
	19 -- 52	[pos="494.58,598.82 440.98,608.84 319.37,631.57 265.73,641.6"];
	251	[height=0.5,
		pos="241.49,763.11",
		width=0.75];
	19 -- 251	[pos="500.71,606.09 449.3,637.23 313.39,719.55 261.77,750.82"];
	248	[height=0.5,
		pos="312.54,410.82",
		width=0.75];
	19 -- 248	[pos="504.45,579.56 465.62,545.41 368.14,459.7 329.09,425.37"];
	245	[height=0.5,
		pos="310.79,744.45",
		width=0.75];
	19 -- 245	[pos="502.16,607.28 462.31,635.85 369.2,702.58 329.39,731.12"];
	19 -- 193	[pos="537.53,608.41 570.36,636.83 642.86,699.58 675.54,727.87"];
	164	[height=0.5,
		pos="206.12,718.13",
		width=0.75];
	19 -- 164	[pos="497.4,603.16 439.14,626.15 288.09,685.78 229.67,708.83"];
	171	[height=0.5,
		pos="250.65,589.02",
		width=0.75];
	19 -- 171	[pos="493.66,593.43 441.88,592.49 329.54,590.45 277.77,589.51"];
	276	[height=0.5,
		pos="276.83,456.19",
		width=0.75];
	19 -- 276	[pos="499.99,582.18 453.9,556.16 343.62,493.9 297.58,467.9"];
	270	[height=0.5,
		pos="268.13,695.49",
		width=0.75];
	19 -- 270	[pos="497.48,603.3 449.34,622.64 339.48,666.81 291.39,686.14"];
	198 -- 215	[pos="416.03,681.07 406.29,675.06 394.57,667.85 384.78,661.81"];
	198 -- 273	[pos="422.6,677.49 402.34,653.43 364.04,607.95 343.85,583.97"];
	167 -- 233	[pos="930.25,414.72 945.86,430.88 970.28,456.18 985.82,472.28"];
	8 -- 19	[pos="548.21,391.37 542.6,432.84 528.84,534.52 523.23,575.93"];
	8 -- 229	[pos="560.62,390.2 585.69,432.66 651.15,543.52 676.23,586.01"];
	8 -- 22	[pos="532.31,359.97 520.49,351.36 505.17,340.2 493.32,331.58"];
	8 -- 150	[pos="530.36,385.66 478.3,417.33 340.45,501.18 288.59,532.72"];
	8 -- 230	[pos="548.13,355.31 545.67,337.71 541.94,311.05 539.46,293.38"];
	8 -- 248	[pos="524.26,377.48 478.49,384.68 384.9,399.42 339.05,406.64"];
	9 -- 66	[pos="360.9,475.54 368.58,503.9 383.5,559.02 391.19,587.42"];
	14	[height=0.5,
		pos="187.93,556.59",
		width=0.75];
	9 -- 14	[pos="335.8,469.66 303.48,488.66 240.65,525.6 208.29,544.62"];
	43	[height=0.5,
		pos="92.316,459.74",
		width=0.75];
	9 -- 43	[pos="328.85,457.95 278.17,458.33 169.97,459.15 119.4,459.53"];
	9 -- 25	[pos="349.59,440.24 341.13,417.43 326.41,377.75 317.94,354.93"];
	9 -- 27	[pos="382.13,463.32 433.24,474.27 546.08,498.45 596.96,509.34"];
	9 -- 98	[pos="380.82,450.27 440.78,432.15 593.32,386.06 653.36,367.92"];
	9 -- 131	[pos="365.46,440.74 375.98,421.66 392.95,390.88 403.47,371.79"];
	81	[height=0.5,
		pos="206.81,500.84",
		width=0.75];
	9 -- 81	[pos="331.1,464.96 303.54,472.91 259.47,485.64 231.88,493.6"];
	50	[height=0.5,
		pos="214.87,412.18",
		width=0.75];
	9 -- 50	[pos="331.49,449.81 305.57,441.44 265,428.35 239.19,420.03"];
	190	[height=0.5,
		pos="152.77,600.6",
		width=0.75];
	9 -- 190	[pos="337.32,470.93 298.59,498.14 210.18,560.26 171.49,587.45"];
	77	[height=0.5,
		pos="245.01,368.16",
		width=0.75];
	9 -- 77	[pos="338.73,443.75 317.86,426.92 283.05,398.85 262.24,382.06"];
	228	[height=0.5,
		pos="316.65,266.45",
		width=0.75];
	9 -- 228	[pos="352.37,439.75 344.86,403.29 327.91,321.08 320.38,284.54"];
	82	[height=0.5,
		pos="254.59,280.13",
		width=0.75];
	9 -- 82	[pos="346.35,440.71 326.95,406.76 283.67,331.02 264.29,297.11"];
	281	[height=0.5,
		pos="155.48,368.12",
		width=0.75];
	9 -- 281	[pos="333.46,447.64 294.83,430.38 216.59,395.42 178.02,378.19"];
	121	[height=0.5,
		pos="154.48,456.73",
		width=0.75];
	9 -- 121	[pos="328.89,457.61 290.31,457.41 220.08,457.06 181.56,456.87"];
	227	[height=0.5,
		pos="139.5,646.65",
		width=0.75];
	9 -- 227	[pos="339.45,472.25 299.13,507.41 196.57,596.87 156.19,632.09"];
	221	[height=0.5,
		pos="138.74,508.27",
		width=0.75];
	9 -- 221	[pos="330.3,463.74 288.47,473.46 206.3,492.56 164.49,502.28"];
	9 -- 273	[pos="351.88,475.99 347.13,496.59 339.46,529.89 334.74,550.35"];
	265	[height=0.5,
		pos="249.39,324.14",
		width=0.75];
	9 -- 265	[pos="343.21,441.63 322.71,415.95 282.84,366.03 262.3,340.31"];
	55	[height=0.5,
		pos="501.31,109.16",
		width=0.75];
	44 -- 55	[pos="598.89,114.31 577.98,113.2 549.19,111.69 528.3,110.59"];
	44 -- 127	[pos="633.01,133.12 639.05,147.94 647.69,169.13 653.76,184.02"];
	44 -- 109	[pos="622,133.75 616.88,157.25 607.98,198.11 602.87,221.62"];
	44 -- 238	[pos="612.64,131.59 608.72,136.27 604.43,141.4 600.51,146.07"];
	162	[height=0.5,
		pos="646.51,71.534",
		width=0.75];
	44 -- 162	[pos="633.94,98.517 635.43,95.317 636.99,91.974 638.48,88.774"];
	37 -- 204	[pos="776.31,325.28 773.9,320.15 771.25,314.53 768.84,309.4"];
	37 -- 255	[pos="781.52,360.56 774.73,401.57 758.08,501.97 751.24,543.22"];
	37 -- 253	[pos="776.26,325.24 758.02,286.63 714.38,194.24 696.16,155.66"];
	11 -- 113	[pos="1073.7,664.58 1054.3,673.7 1026.2,686.86 1006.8,695.97"];
	11 -- 21	[pos="1103.7,636.81 1120.8,598.46 1161.8,506.69 1178.9,468.38"];
	11 -- 16	[pos="1107.2,637.73 1127.7,607.85 1170.9,544.87 1191.5,514.82"];
	93	[height=0.5,
		pos="1374.1,578.03",
		width=0.75];
	11 -- 93	[pos="1121.2,647.23 1174,632.78 1295.8,599.44 1348.8,584.96"];
	249	[height=0.5,
		pos="1349.5,779.54",
		width=0.75];
	11 -- 249	[pos="1118,665.03 1166.1,688.81 1279.8,745.07 1327.7,768.75"];
	108	[height=0.5,
		pos="1296.5,636.91",
		width=0.75];
	11 -- 108	[pos="1123,651.8 1161.4,648.5 1231.3,642.51 1269.6,639.22"];
	159	[height=0.5,
		pos="1272.7,837.13",
		width=0.75];
	11 -- 159	[pos="1110.8,669.41 1144,703.86 1224.5,787.23 1257.9,821.76"];
	24	[height=0.5,
		pos="1077.8,816.42",
		width=0.75];
	11 -- 24	[pos="1094,672.11 1090.5,703.31 1083.3,767.1 1079.8,798.35"];
	11 -- 123	[pos="1098.1,635.96 1098.4,633.4 1098.7,630.77 1099,628.21"];
	11 -- 40	[pos="1098.8,636.07 1104.3,601.31 1116.2,525.47 1121.7,490.77"];
	11 -- 39	[pos="1077.7,640.82 1057.2,625.89 1024.1,601.82 1003.6,586.89"];
	11 -- 84	[pos="1098,636.06 1102.9,593.85 1114.8,489.16 1119.6,446.87"];
	11 -- 111	[pos="1099.9,636.1 1103.5,619.54 1108.8,595.14 1112.3,578.61"];
	11 -- 28	[pos="1119.7,663.09 1149.5,674.41 1200.7,693.78 1230.5,705.09"];
	11 -- 31	[pos="1076.8,667.11 1049.7,685.49 1000.3,718.91 973.08,737.34"];
	173	[height=0.5,
		pos="1420.6,630.17",
		width=0.75];
	11 -- 173	[pos="1122.8,652.14 1183.9,647.64 1332.6,636.66 1393.7,632.16"];
	70	[height=0.5,
		pos="1234.5,596.09",
		width=0.75];
	11 -- 70	[pos="1118.9,644.54 1144.5,633.79 1185.9,616.45 1211.6,605.69"];
	115	[height=0.5,
		pos="1310,440.44",
		width=0.75];
	11 -- 115	[pos="1111,639.1 1150.3,599.86 1255.7,494.67 1295,455.45"];
	63	[height=0.5,
		pos="1140,798.92",
		width=0.75];
	11 -- 63	[pos="1101.4,671.88 1109.8,699.67 1126.1,753.14 1134.6,781.02"];
	11 -- 242	[pos="1084.8,670.59 1069.6,693.08 1042.4,733.2 1027.1,755.83"];
	211	[height=0.5,
		pos="1240.3,545.28",
		width=0.75];
	11 -- 211	[pos="1114,640.56 1141.6,619.7 1194.3,579.97 1222.1,559.01"];
	220	[height=0.5,
		pos="1327,533.87",
		width=0.75];
	11 -- 220	[pos="1117.3,643.02 1161.2,620.17 1261.2,568.09 1305.4,545.12"];
	156	[height=0.5,
		pos="1264.9,487.02",
		width=0.75];
	11 -- 156	[pos="1111.3,639 1143.4,607.18 1217.8,533.67 1249.8,501.99"];
	11 -- 188	[pos="1086.7,637.12 1078.1,621.5 1065.5,598.49 1057,582.89"];
	128	[height=0.5,
		pos="1201.4,668.14",
		width=0.75];
	11 -- 128	[pos="1122.6,657.66 1138.6,659.78 1158.8,662.48 1174.8,664.6"];
	11 -- 125	[pos="1091.6,636.15 1085.2,609.79 1073.3,560.95 1066.9,534.6"];
	287	[height=0.5,
		pos="1353.7,735.53",
		width=0.75];
	11 -- 287	[pos="1120.7,661.93 1170,677.49 1279.9,712.21 1329.1,727.75"];
	239	[height=0.5,
		pos="1155.3,720.06",
		width=0.75];
	11 -- 239	[pos="1110,669.75 1119.5,680.26 1131.9,694.06 1141.3,704.54"];
	186	[height=0.5,
		pos="1092.5,754.91",
		width=0.75];
	11 -- 186	[pos="1095.4,672.14 1094.7,690.37 1093.7,718.41 1093.1,736.71"];
	274	[height=0.5,
		pos="1286.5,773.46",
		width=0.75];
	11 -- 274	[pos="1116,666.67 1152.7,689.65 1230.3,738.23 1266.8,761.08"];
	292	[height=0.5,
		pos="1114,860.44",
		width=0.75];
	11 -- 292	[pos="1097.6,672.43 1101,711.68 1109,803.52 1112.4,842.47"];
	271	[height=0.5,
		pos="1346.4,823.58",
		width=0.75];
	11 -- 271	[pos="1115.2,667.14 1161.9,698.76 1281,779.32 1327.4,810.75"];
	272	[height=0.5,
		pos="1358.6,647.47",
		width=0.75];
	11 -- 272	[pos="1123.1,653.43 1173.4,652.16 1280.7,649.44 1331.2,648.17"];
	35 -- 68	[pos="1000.8,423.25 978.19,403.12 937.76,367.14 915.22,347.08"];
	138 -- 283	[pos="950.82,798.6 946,769.05 936.46,710.54 931.6,680.75"];
	138 -- 288	[pos="959.35,834.26 967.8,860.95 983.74,911.27 992.25,938.13"];
	157 -- 177	[pos="492.86,484.21 485.14,507.62 471.6,548.71 463.89,572.11"];
	157 -- 197	[pos="489.77,483.73 482.89,497.01 473.41,515.29 466.53,528.56"];
	21 -- 108	[pos="1196.5,467.93 1217.4,503.21 1265.6,584.63 1286.5,619.99"];
	74	[height=0.5,
		pos="1438.3,524.76",
		width=0.75];
	21 -- 74	[pos="1211.6,458.44 1259.9,472.56 1365.2,503.36 1413.4,517.45"];
	51	[height=0.5,
		pos="1422.8,384.74",
		width=0.75];
	21 -- 51	[pos="1211.8,444.01 1257.3,431.24 1352.4,404.53 1397.7,391.8"];
	219	[height=0.5,
		pos="1372,433.81",
		width=0.75];
	21 -- 219	[pos="1213.5,448.6 1248.7,445.32 1309.8,439.61 1345,436.33"];
	21 -- 80	[pos="1186.2,432.83 1186.1,425.12 1185.9,416.16 1185.8,408.45"];
	295	[height=0.5,
		pos="1375.4,284.87",
		width=0.75];
	21 -- 295	[pos="1203,436.65 1238.7,405.21 1323.1,330.93 1358.9,299.41"];
	117	[height=0.5,
		pos="1183.9,176.32",
		width=0.75];
	21 -- 117	[pos="1186.4,433.08 1185.9,383.29 1184.5,244.29 1184,194.42"];
	105	[height=0.5,
		pos="1290.9,344.7",
		width=0.75];
	21 -- 105	[pos="1201.5,435.86 1221.3,415.63 1256.1,380.13 1276,359.91"];
	21 -- 220	[pos="1207,463.15 1233.6,478.84 1279.9,506.12 1306.5,521.82"];
	21 -- 134	[pos="1180.4,433.41 1173.2,412.85 1161.5,379.14 1154.4,358.6"];
	13 -- 15	[pos="592.25,841.71 576.01,835.45 554.49,827.14 538.2,820.86"];
	13 -- 120	[pos="618.42,832.68 620.98,815.48 624.81,789.76 627.36,772.59"];
	13 -- 17	[pos="640.77,858.2 681.51,870.28 761.63,894.05 802.13,906.06"];
	34	[height=0.5,
		pos="637.99,1063.7",
		width=0.75];
	13 -- 34	[pos="617.63,868.93 621.83,909.17 631.9,1005.4 636.1,1045.6"];
	91	[height=0.5,
		pos="687.38,949.41",
		width=0.75];
	13 -- 91	[pos="627.56,867.06 640.84,885.33 662.25,914.81 675.53,933.09"];
	85	[height=0.5,
		pos="406.47,995.13",
		width=0.75];
	13 -- 85	[pos="596.79,863.84 557.05,891.25 465.35,954.51 425.52,981.99"];
	13 -- 38	[pos="638.71,860.61 663.2,871.1 701.74,887.61 726.28,898.12"];
	48	[height=0.5,
		pos="625.35,965.5",
		width=0.75];
	13 -- 48	[pos="617.25,868.95 619.05,890.43 622.03,925.96 623.83,947.41"];
	13 -- 106	[pos="642.53,853.58 663.98,855.82 693.9,858.96 715.34,861.2"];
	129	[height=0.5,
		pos="416.05,909.1",
		width=0.75];
	13 -- 129	[pos="590.84,858.04 552.47,869.25 479.3,890.63 440.93,901.83"];
	62	[height=0.5,
		pos="549.92,1035.2",
		width=0.75];
	13 -- 62	[pos="609.42,868.45 596.84,903.7 568.78,982.35 556.21,1017.5"];
	189	[height=0.5,
		pos="354,932.34",
		width=0.75];
	13 -- 189	[pos="591.1,858.45 541.22,873.99 428.73,909.05 378.75,924.63"];
	83	[height=0.5,
		pos="715.69,993.42",
		width=0.75];
	13 -- 83	[pos="627.2,867.14 646.38,894.51 684.76,949.27 704.05,976.81"];
	165	[height=0.5,
		pos="530.87,987.83",
		width=0.75];
	13 -- 165	[pos="605.32,867.58 589.04,893.88 557.7,944.5 541.36,970.89"];
	103	[height=0.5,
		pos="291.8,915.84",
		width=0.75];
	13 -- 103	[pos="589.77,855.99 529.11,868.17 378.66,898.39 317.88,910.6"];
	214	[height=0.5,
		pos="740.07,1037.4",
		width=0.75];
	13 -- 214	[pos="626.76,867.34 650.36,902.76 705.48,985.52 729.06,1020.9"];
	223	[height=0.5,
		pos="827.81,1009.3",
		width=0.75];
	13 -- 223	[pos="633.81,864.29 673.88,894.24 769.75,965.9 809.77,995.81"];
	142	[height=0.5,
		pos="469.39,1031.9",
		width=0.75];
	13 -- 142	[pos="602.74,866.84 574.97,901.21 510.1,981.49 482.35,1015.8"];
	119	[height=0.5,
		pos="342.97,977.84",
		width=0.75];
	13 -- 119	[pos="593.41,861.17 542.13,885.06 416.42,943.62 365.22,967.48"];
	122	[height=0.5,
		pos="478.05,943.81",
		width=0.75];
	13 -- 122	[pos="596.58,863.71 570.28,881.48 523.25,913.26 497.03,930.98"];
	222	[height=0.5,
		pos="794.84,960.48",
		width=0.75];
	13 -- 222	[pos="635.93,863.14 670.42,884.27 740.28,927.06 774.72,948.16"];
	192	[height=0.5,
		pos="563.33,931.53",
		width=0.75];
	13 -- 192	[pos="604.87,867.5 595.88,881.36 583.16,900.96 574.17,914.82"];
	15 -- 18	[pos="487.81,808.9 447.39,804.64 371.07,796.59 330.58,792.32"];
	15 -- 194	[pos="487.37,814.36 437.69,819.2 332.65,829.45 283.24,834.26"];
	15 -- 94	[pos="487.27,810.66 460.49,809.63 419.83,808.06 393.11,807.03"];
	15 -- 58	[pos="489.97,819.38 478.3,823.03 464.38,827.38 452.7,831.03"];
	15 -- 129	[pos="499.12,826.93 480.62,845.23 449.77,875.75 431.32,893.99"];
	15 -- 224	[pos="513.87,829.87 513.78,832.42 513.69,835.05 513.6,837.61"];
	15 -- 72	[pos="511.46,793.79 508.6,776.86 504.32,751.6 501.44,734.59"];
	15 -- 213	[pos="489.71,819.33 452.07,830.88 380.91,852.73 343.39,864.25"];
	14 -- 43	[pos="172.99,541.45 155.13,523.37 125.42,493.27 107.47,475.09"];
	14 -- 46	[pos="209.15,545.31 227.66,535.48 254.37,521.3 272.87,511.47"];
	14 -- 81	[pos="193.9,538.95 196.11,532.44 198.61,525.07 200.81,518.55"];
	114	[height=0.5,
		pos="45.535,550.31",
		width=0.75];
	14 -- 114	[pos="160.81,555.39 135.47,554.27 97.858,552.61 72.553,551.5"];
	14 -- 227	[pos="178.59,573.95 169.96,590 157.21,613.71 148.65,629.64"];
	147	[height=0.5,
		pos="77.33,667.77",
		width=0.75];
	14 -- 147	[pos="172.55,572.04 151.42,593.29 113.64,631.27 92.578,652.44"];
	284	[height=0.5,
		pos="96.22,712.14",
		width=0.75];
	14 -- 284	[pos="177.94,573.53 160.3,603.45 123.83,665.31 106.2,695.22"];
	182	[height=0.5,
		pos="27.531,614.54",
		width=0.75];
	14 -- 182	[pos="163.92,565.26 133.59,576.22 81.725,594.96 51.446,605.9"];
	14 -- 215	[pos="209.23,567.77 243.16,585.59 309.13,620.24 343.11,638.08"];
	14 -- 273	[pos="214.77,558.78 240.12,560.86 277.95,563.95 303.41,566.04"];
	18 -- 194	[pos="288.81,804.49 283.29,810.02 277.04,816.28 271.51,821.82"];
	18 -- 213	[pos="307.11,807.76 309.62,821.5 313.04,840.22 315.53,853.87"];
	43 -- 46	[pos="118.28,464.95 157.01,472.72 229.51,487.27 268.19,495.03"];
	141	[height=0.5,
		pos="88.685,235.54",
		width=0.75];
	43 -- 141	[pos="92.019,441.39 91.336,399.25 89.663,295.92 88.982,253.83"];
	43 -- 81	[pos="116.32,468.36 135.86,475.37 163.31,485.22 182.84,492.23"];
	43 -- 50	[pos="115.66,450.68 137.32,442.27 169.43,429.82 191.2,421.37"];
	252	[height=0.5,
		pos="92.249,413.65",
		width=0.75];
	43 -- 252	[pos="92.29,441.52 92.285,438.3 92.28,434.95 92.275,431.73"];
	43 -- 190	[pos="99.851,477.3 111.5,504.44 133.74,556.26 145.33,583.27"];
	60	[height=0.5,
		pos="110.34,324.06",
		width=0.75];
	43 -- 60	[pos="94.71,441.72 98.158,415.77 104.49,368.14 107.94,342.15"];
	43 -- 77	[pos="112.59,447.58 141.8,430.06 195.4,397.92 224.65,380.37"];
	43 -- 114	[pos="83.517,476.77 75.206,492.86 62.804,516.88 54.454,533.04"];
	43 -- 82	[pos="106.43,444.11 137.2,410.06 209.99,329.5 240.62,295.59"];
	43 -- 281	[pos="103.61,443.36 115.04,426.79 132.61,401.3 144.07,384.67"];
	43 -- 121	[pos="119.4,458.43 122.02,458.3 124.67,458.17 127.29,458.05"];
	293	[height=0.5,
		pos="29.393,447.89",
		width=0.75];
	43 -- 293	[pos="65.996,454.78 62.493,454.12 58.904,453.45 55.406,452.79"];
	43 -- 227	[pos="96.84,477.66 105.86,513.39 125.98,593.1 134.99,628.78"];
	172	[height=0.5,
		pos="90.552,602.65",
		width=0.75];
	43 -- 172	[pos="92.093,477.84 91.755,505.18 91.119,556.73 90.779,584.24"];
	43 -- 147	[pos="91.012,477.84 88.178,517.18 81.483,610.13 78.642,649.57"];
	168	[height=0.5,
		pos="48.245,312.98",
		width=0.75];
	43 -- 168	[pos="87,442.04 78.529,413.83 62.063,358.99 53.58,330.75"];
	148	[height=0.5,
		pos="147.43,279.59",
		width=0.75];
	43 -- 148	[pos="97.802,441.81 108.37,407.28 131.42,331.92 141.97,297.45"];
	260	[height=0.5,
		pos="151.74,221.09",
		width=0.75];
	43 -- 260	[pos="96.782,441.8 107.82,397.47 136.29,283.12 147.3,238.91"];
	43 -- 182	[pos="85.01,477.2 72.568,506.93 47.401,567.06 34.909,596.91"];
	43 -- 221	[pos="107.01,475.1 112.43,480.76 118.56,487.18 123.99,492.85"];
	43 -- 265	[pos="108.83,445.48 138.92,419.51 202.35,364.74 232.62,338.61"];
	290	[height=0.5,
		pos="27,384.57",
		width=0.75];
	43 -- 290	[pos="78.464,443.8 67.305,430.96 51.702,413 40.608,400.23"];
	16 -- 151	[pos="1195,515.53 1192.1,521.68 1189,528.61 1186.2,534.76"];
	16 -- 21	[pos="1196.7,480.38 1195.4,476.63 1194,472.68 1192.7,468.93"];
	16 -- 93	[pos="1225.3,508.61 1258.1,523.92 1318.9,552.28 1351.7,567.59"];
	16 -- 74	[pos="1229.9,501.22 1275.3,506.35 1366.4,516.64 1411.6,521.74"];
	16 -- 28	[pos="1207.2,516.21 1216.8,556.94 1240.2,655.65 1249.9,696.19"];
	16 -- 181	[pos="1215.8,514.32 1244.9,550.8 1315.5,639.22 1344.5,675.53"];
	16 -- 173	[pos="1223,510.36 1264.5,535.5 1359.1,592.9 1400.6,618.02"];
	16 -- 51	[pos="1224.4,487.09 1266.4,465.41 1359.1,417.59 1401.2,395.87"];
	16 -- 219	[pos="1226.4,489.23 1258.6,476.96 1316.2,455.07 1348.4,442.79"];
	16 -- 80	[pos="1199.9,479.85 1196.7,459.88 1191.6,428.1 1188.4,408.23"];
	163	[height=0.5,
		pos="1339.4,389.49",
		width=0.75];
	16 -- 163	[pos="1220.5,484.19 1246.7,463.32 1295.7,424.26 1321.9,403.43"];
	76	[height=0.5,
		pos="1498.2,596.37",
		width=0.75];
	16 -- 76	[pos="1227.1,506.21 1282.4,524.62 1418,569.7 1473.7,588.22"];
	102	[height=0.5,
		pos="1460.8,430.16",
		width=0.75];
	16 -- 102	[pos="1228.1,491.53 1277.4,478.53 1386.1,449.85 1435.5,436.83"];
	296	[height=0.5,
		pos="1482.7,662.92",
		width=0.75];
	16 -- 296	[pos="1223.5,510.29 1275.2,540.75 1410.3,620.3 1462.1,650.78"];
	16 -- 105	[pos="1212.6,481.16 1229.6,451.66 1264.1,391.34 1281.1,361.78"];
	16 -- 220	[pos="1227.7,505.31 1249.2,511.5 1280.2,520.41 1301.8,526.62"];
	231	[height=0.5,
		pos="1295.5,256.44",
		width=0.75];
	16 -- 231	[pos="1209.7,480.4 1226.9,435.59 1271.7,318.41 1288.8,273.92"];
	226	[height=0.5,
		pos="1434.3,474.36",
		width=0.75];
	16 -- 226	[pos="1229.9,495.4 1274.5,490.81 1363,481.7 1407.4,477.12"];
	180	[height=0.5,
		pos="1360.8,344.83",
		width=0.75];
	16 -- 180	[pos="1218.3,483.19 1248.4,453.95 1314.7,389.57 1345,360.1"];
	254	[height=0.5,
		pos="1470.4,708.89",
		width=0.75];
	16 -- 254	[pos="1220.4,512 1268.9,550.18 1404.2,656.77 1452.8,695.02"];
	264	[height=0.5,
		pos="1313.4,300.68",
		width=0.75];
	16 -- 264	[pos="1212.5,480.99 1233.4,443.55 1283,354.96 1303.9,317.68"];
	240	[height=0.5,
		pos="1436.1,577.47",
		width=0.75];
	16 -- 240	[pos="1227,506.36 1271.7,521.56 1367,553.96 1411.8,569.21"];
	16 -- 272	[pos="1218.4,513.04 1248.2,541.65 1313.3,604.1 1343.1,632.67"];
	93 -- 173	[pos="1388,593.68 1393.9,600.28 1400.8,607.94 1406.7,614.54"];
	93 -- 296	[pos="1392,592.05 1412.3,607.87 1445,633.45 1465.1,649.16"];
	93 -- 272	[pos="1370.1,595.91 1367.8,606.2 1364.9,619.09 1362.6,629.41"];
	152 -- 161	[pos="767.28,765.18 784.8,786.99 815.63,825.37 832.98,846.97"];
	17 -- 201	[pos="837.82,896.56 849.82,878.22 868.91,849.04 880.85,830.8"];
	17 -- 34	[pos="809.39,927.26 773.42,955.9 691.31,1021.3 655.37,1049.9"];
	41	[height=0.5,
		pos="857.77,1138.2",
		width=0.75];
	17 -- 41	[pos="829.3,931.4 835.09,973.49 849.47,1077.9 855.28,1120.1"];
	17 -- 48	[pos="801.3,919.98 762.55,930.01 689.29,948.96 650.66,958.95"];
	56	[height=0.5,
		pos="874.53,1089.3",
		width=0.75];
	17 -- 56	[pos="831.65,931.22 840.8,964.95 860.52,1037.7 869.68,1071.5"];
	17 -- 106	[pos="806.31,901.43 793.09,893.72 775.96,883.74 762.72,876.02"];
	17 -- 95	[pos="853.86,912.03 856.47,911.9 859.12,911.77 861.74,911.64"];
	203	[height=0.5,
		pos="979.68,1105.5",
		width=0.75];
	17 -- 203	[pos="839.59,929.43 868.36,965.59 938,1053.1 966.84,1089.3"];
	110	[height=0.5,
		pos="936.05,1161.7",
		width=0.75];
	17 -- 110	[pos="834.5,930.85 854.55,976.44 908.33,1098.7 928.38,1144.3"];
	135	[height=0.5,
		pos="1041.7,1074.1",
		width=0.75];
	17 -- 135	[pos="845.14,927.09 885.83,957.53 983.35,1030.5 1023.7,1060.7"];
	34 -- 85	[pos="613.21,1056.4 568.77,1043.2 475.99,1015.7 431.42,1002.5"];
	34 -- 38	[pos="649.7,1047.4 671.05,1017.5 716.05,954.66 737.52,924.64"];
	34 -- 41	[pos="662.35,1072 704.71,1086.3 791.44,1115.7 833.64,1130"];
	139	[height=0.5,
		pos="560.24,1095.3",
		width=0.75];
	34 -- 139	[pos="614.66,1073.2 604.82,1077.2 593.39,1081.9 583.55,1085.9"];
	34 -- 48	[pos="635.67,1045.7 633.41,1028.1 629.97,1001.4 627.7,983.74"];
	34 -- 56	[pos="664.67,1066.6 710.09,1071.6 801.98,1081.5 847.59,1086.4"];
	61	[height=0.5,
		pos="689.21,1125.5",
		width=0.75];
	34 -- 61	[pos="651.18,1079.6 658.77,1088.8 668.28,1100.2 675.89,1109.4"];
	75	[height=0.5,
		pos="874.02,1197.7",
		width=0.75];
	34 -- 75	[pos="658.94,1075.6 703.84,1101.1 808.9,1160.8 853.46,1186"];
	184	[height=0.5,
		pos="811.98,1184.1",
		width=0.75];
	34 -- 184	[pos="656.94,1076.9 690.41,1100 759.6,1147.8 793.05,1171"];
	92	[height=0.5,
		pos="625.7,1108",
		width=0.75];
	34 -- 92	[pos="633.06,1081.5 632.26,1084.4 631.43,1087.4 630.63,1090.2"];
	34 -- 142	[pos="611.65,1058.8 579.97,1052.8 527.14,1042.8 495.55,1036.8"];
	34 -- 119	[pos="613.09,1056.5 557.52,1040.3 423.91,1001.4 368.11,985.16"];
	112	[height=0.5,
		pos="744.13,1081.5",
		width=0.75];
	34 -- 112	[pos="664.23,1068.1 680.56,1070.9 701.48,1074.3 717.83,1077.1"];
	206	[height=0.5,
		pos="362.37,1061.6",
		width=0.75];
	34 -- 206	[pos="610.81,1063.5 558.11,1063.1 442.61,1062.3 389.75,1061.8"];
	175	[height=0.5,
		pos="280.87,1021.6",
		width=0.75];
	34 -- 175	[pos="611.15,1060.6 544.8,1052.8 373.69,1032.6 307.53,1024.8"];
	154	[height=0.5,
		pos="424.69,1076",
		width=0.75];
	34 -- 154	[pos="610.98,1065.3 570.06,1067.7 492.81,1072.1 451.82,1074.5"];
	178	[height=0.5,
		pos="672.52,1169.5",
		width=0.75];
	34 -- 178	[pos="643.85,1081.7 650.23,1101.3 660.39,1132.4 666.75,1151.8"];
	183	[height=0.5,
		pos="487.6,1088.4",
		width=0.75];
	34 -- 183	[pos="611.45,1068.1 583.96,1072.6 541.26,1079.6 513.87,1084.1"];
	249 -- 292	[pos="1325.2,787.9 1279.9,803.44 1183.3,836.63 1138.2,852.13"];
	249 -- 271	[pos="1348.2,797.71 1348,800.27 1347.8,802.9 1347.6,805.45"];
	91 -- 223	[pos="710.26,959.16 736.37,970.3 778.84,988.41 804.95,999.54"];
	91 -- 122	[pos="660.01,948.67 619.79,947.6 545.13,945.6 505.09,944.53"];
	91 -- 192	[pos="660.77,945.57 639.84,942.55 610.82,938.37 589.9,935.36"];
	20 -- 79	[pos="721.01,399.36 686.55,422.08 614.61,469.49 580.05,492.26"];
	20 -- 57	[pos="742.97,405.02 745.5,421.95 749.25,446.96 751.77,463.77"];
	20 -- 36	[pos="758.68,399.93 770.58,408.46 786,419.51 797.92,428.06"];
	20 -- 45	[pos="754.6,371.37 769.66,355.31 793.19,330.22 808.29,314.12"];
	256	[height=0.5,
		pos="750,106.11",
		width=0.75];
	20 -- 256	[pos="740.86,368.29 742.64,317.33 747.6,174.83 749.37,124.22"];
	20 -- 59	[pos="762.79,376.57 804.77,357.71 894.42,317.44 936.32,298.62"];
	20 -- 69	[pos="766.96,382.92 809.69,376.88 892.85,365.12 935.42,359.1"];
	20 -- 196	[pos="738.63,368.32 733.68,311.19 718.6,137.13 713.68,80.271"];
	20 -- 88	[pos="713.6,382.74 692.66,379.62 663.63,375.29 642.7,372.17"];
	199	[height=0.5,
		pos="786.51,150.16",
		width=0.75];
	20 -- 199	[pos="743.78,368.54 752.42,324.4 774.42,211.93 783.01,168.06"];
	266	[height=0.5,
		pos="724.33,190.33",
		width=0.75];
	20 -- 266	[pos="738.75,368.58 735.73,331.17 728.82,245.78 725.79,208.4"];
	194 -- 213	[pos="277.23,848.5 283.89,852.23 291.26,856.37 297.93,860.1"];
	108 -- 220	[pos="1301.8,618.96 1307.4,600.05 1316.2,570.45 1321.7,551.61"];
	22 -- 44	[pos="486.99,301.94 515.27,264.03 585.42,170.01 613.76,132.03"];
	22 -- 150	[pos="460.7,333.75 422.9,375.28 320.09,488.24 282.5,529.55"];
	22 -- 55	[pos="477.19,299.98 482.2,260.35 494.05,166.6 499.04,127.15"];
	22 -- 127	[pos="494.8,305.7 530.61,283.28 605.48,236.41 641.19,214.06"];
	22 -- 230	[pos="493.83,305.02 501.53,299.69 510.4,293.54 518.08,288.21"];
	22 -- 52	[pos="463.21,334.44 423.14,390.34 291.41,574.07 251.23,630.13"];
	22 -- 248	[pos="454.33,329.9 423.18,347.67 364.38,381.23 333.19,399.03"];
	22 -- 109	[pos="494.54,305.72 517.63,291.11 555.73,267 578.96,252.3"];
	22 -- 238	[pos="486.71,301.72 508.25,271.77 553.66,208.63 575.33,178.49"];
	22 -- 162	[pos="486.41,301.6 517.68,256.67 603.83,132.87 635.03,88.027"];
	22 -- 171	[pos="461.53,334.29 421.65,382.47 303.73,524.91 263.94,572.97"];
	22 -- 276	[pos="455.9,331.4 418.04,357.78 333.57,416.64 295.76,442.99"];
	57 -- 210	[pos="754.46,463.59 754.46,458.78 754.46,453.59 754.46,448.79"];
	74 -- 80	[pos="1417.2,513.51 1369.6,488.18 1254.4,426.88 1206.7,401.49"];
	187	[height=0.5,
		pos="1560.2,560.56",
		width=0.75];
	74 -- 187	[pos="1463.3,532.09 1484.3,538.27 1514.3,547.06 1535.3,553.24"];
	74 -- 76	[pos="1451.6,540.65 1461.5,552.52 1475,568.66 1485,580.52"];
	74 -- 102	[pos="1442.5,506.96 1446.5,490.16 1452.5,465.08 1456.5,448.19"];
	74 -- 295	[pos="1433.6,506.73 1421.9,462.16 1391.8,347.22 1380.1,302.78"];
	289	[height=0.5,
		pos="1561.1,613.11",
		width=0.75];
	74 -- 289	[pos="1456.7,537.98 1479.9,554.64 1519.4,583.09 1542.6,599.79"];
	74 -- 254	[pos="1441.5,542.75 1447.6,577.95 1461.1,655.57 1467.3,690.83"];
	267	[height=0.5,
		pos="1534.1,706.92",
		width=0.75];
	74 -- 267	[pos="1447.3,541.89 1465.6,576.61 1506.8,654.9 1525,689.69"];
	159 -- 287	[pos="1285.7,820.81 1300.9,801.73 1325.9,770.39 1341,751.48"];
	159 -- 186	[pos="1250.3,826.88 1215.6,811.09 1149.6,780.96 1114.9,765.16"];
	159 -- 274	[pos="1276.6,819.06 1278.5,810.38 1280.8,800.01 1282.7,791.36"];
	150 -- 248	[pos="274.33,527.14 282.76,501.48 298.23,454.4 306.66,428.7"];
	150 -- 164	[pos="262.16,562.51 250.21,595.7 224.43,667.3 212.46,700.52"];
	23 -- 42	[pos="848.08,187.77 846.54,248.94 841.55,446.92 840.01,508.03"];
	23 -- 269	[pos="837.88,152.94 823.75,130.83 798.94,92.039 784.82,69.951"];
	23 -- 146	[pos="848.65,187.78 849.15,265.41 851.11,568.56 851.61,646"];
	23 -- 158	[pos="864.86,155.18 870.31,150.36 876.39,144.99 881.86,140.16"];
	23 -- 195	[pos="874.48,164.53 892.43,161.02 916.22,156.37 934.22,152.86"];
	24 -- 123	[pos="1079.8,798.47 1084.2,759.45 1094.6,667.26 1099,628.14"];
	24 -- 186	[pos="1082,798.63 1084,790.54 1086.2,780.99 1088.2,772.88"];
	123 -- 188	[pos="1083.9,595.87 1077.8,590.83 1070.9,585.16 1064.9,580.12"];
	123 -- 128	[pos="1121.9,622.11 1139.2,632.14 1163.8,646.35 1181,656.32"];
	123 -- 125	[pos="1093.8,592.5 1086.9,575.79 1076.6,550.8 1069.7,534.12"];
	123 -- 287	[pos="1123,621 1170.9,644.78 1284.3,701.05 1332,724.73"];
	123 -- 239	[pos="1109.5,627.27 1119.7,647.81 1136.5,681.99 1146.7,702.63"];
	123 -- 186	[pos="1100,628.13 1098.3,655.89 1095.2,708.75 1093.5,736.64"];
	123 -- 274	[pos="1117.5,624.58 1152.7,655.59 1235,728.02 1270.1,759"];
	40 -- 84	[pos="1123.3,454.61 1123.2,452.05 1123,449.42 1122.8,446.86"];
	40 -- 78	[pos="1121.3,454.8 1114.5,417.05 1098.8,329.96 1091.9,292.12"];
	40 -- 70	[pos="1138.5,488.4 1159.6,512.12 1199.6,556.96 1220.7,580.6"];
	40 -- 115	[pos="1150.7,468.22 1186,462.08 1248.3,451.2 1283.7,445.04"];
	40 -- 211	[pos="1144.4,485.25 1165.6,498.53 1199,519.43 1220.3,532.74"];
	143	[height=0.5,
		pos="1247.5,388.72",
		width=0.75];
	40 -- 143	[pos="1143.5,459.84 1166.5,444.08 1205.2,417.65 1228.3,401.82"];
	40 -- 156	[pos="1151.3,475.5 1176.1,478.01 1212.9,481.74 1237.8,484.27"];
	235	[height=0.5,
		pos="1233.4,220.72",
		width=0.75];
	40 -- 235	[pos="1132,455.46 1151.9,409.41 1205.9,284.35 1225.9,238.16"];
	25 -- 71	[pos="328.85,351.46 352.77,370.78 395.54,405.31 419.38,424.56"];
	25 -- 46	[pos="309.51,355.45 306.17,386.75 299.33,450.74 295.98,482.09"];
	25 -- 30	[pos="321.04,320.37 344.78,278.25 406.01,169.62 429.69,127.61"];
	25 -- 33	[pos="337.92,341.69 369.21,346.74 420.95,355.1 452.19,360.14"];
	25 -- 96	[pos="317.6,319.44 325.01,297.84 337.37,261.81 344.77,240.27"];
	25 -- 50	[pos="293.73,351.12 276.41,364.53 250.19,384.84 232.8,398.3"];
	25 -- 252	[pos="287.14,345.86 244.9,360.55 158.4,390.64 116.32,405.28"];
	25 -- 60	[pos="284.32,335.61 245.83,333.05 175.78,328.4 137.35,325.85"];
	97	[height=0.5,
		pos="395.16,178.39",
		width=0.75];
	25 -- 97	[pos="320.4,320.39 336.43,289.94 369.84,226.47 386.01,195.77"];
	90	[height=0.5,
		pos="287.87,200.14",
		width=0.75];
	25 -- 90	[pos="308.36,319.46 303.84,293.15 295.47,244.4 290.95,218.09"];
	25 -- 132	[pos="327.13,322.73 340.12,310.57 358.5,293.37 371.49,281.21"];
	25 -- 148	[pos="287.24,328.88 256.14,317.91 202.48,298.99 171.46,288.06"];
	71 -- 97	[pos="433.72,420.2 426.09,372.33 405.59,243.77 398.02,196.31"];
	71 -- 90	[pos="426.18,421.73 398.86,377.97 325.62,260.62 298.32,216.88"];
	71 -- 217	[pos="463.04,434.28 484.17,430.9 513.65,426.19 534.77,422.81"];
	26	[height=0.5,
		pos="1141.1,225.84",
		width=0.75];
	26 -- 39	[pos="1133.2,243.56 1106.4,303.35 1019.5,497.18 993.02,556.29"];
	26 -- 78	[pos="1125.1,240.56 1118.6,246.54 1111.1,253.43 1104.6,259.4"];
	191	[height=0.5,
		pos="1036.4,104.83",
		width=0.75];
	26 -- 191	[pos="1127.4,210.02 1107.3,186.83 1070.2,143.84 1050.1,120.65"];
	26 -- 143	[pos="1151.9,242.35 1172.3,273.57 1216.3,340.91 1236.7,372.16"];
	207	[height=0.5,
		pos="1217.9,310.1",
		width=0.75];
	26 -- 207	[pos="1155.2,241.29 1169,256.4 1189.8,279.29 1203.6,294.46"];
	26 -- 116	[pos="1124.1,240.1 1101.8,258.69 1063.2,291.03 1041,309.63"];
	39 -- 113	[pos="985.18,591.76 985.03,617.06 984.78,662.61 984.63,688.01"];
	39 -- 170	[pos="991.69,556.07 1004.9,520.06 1035,437.97 1048.3,401.76"];
	39 -- 70	[pos="1012.4,576.02 1060.4,580.35 1159.5,589.31 1207.4,593.64"];
	39 -- 211	[pos="1012.1,570.59 1061.1,565.16 1164.5,553.69 1213.4,548.25"];
	39 -- 143	[pos="1004.1,560.27 1052.5,526.17 1180.6,435.87 1228.8,401.89"];
	39 -- 207	[pos="999.13,557.87 1040.5,511.01 1162.8,372.46 1204.1,325.71"];
	39 -- 116	[pos="988.06,555.61 995.17,509.66 1014,388.18 1021.1,342.04"];
	39 -- 176	[pos="958.16,573.92 955.54,573.96 952.88,573.99 950.26,574.03"];
	46 -- 71	[pos="316.96,490.3 343.57,478.78 387.2,459.89 413.78,448.39"];
	46 -- 252	[pos="271.29,490.46 232.53,473.83 154.14,440.2 115.23,423.51"];
	46 -- 60	[pos="278.39,485.2 243.68,451.92 160.64,372.28 125.97,339.04"];
	46 -- 172	[pos="272.27,511.18 233.1,530.89 151.23,572.11 112.17,591.76"];
	46 -- 147	[pos="276.31,513.93 235.57,545.43 135.69,622.65 95.006,654.1"];
	46 -- 284	[pos="279.5,515.8 242.83,555.09 146.93,657.82 110.52,696.82"];
	46 -- 148	[pos="283.03,483.64 255.79,442.65 185.54,336.94 158.38,296.06"];
	46 -- 260	[pos="285.15,482.76 259.53,432.51 185.84,287.97 160.46,238.18"];
	46 -- 215	[pos="302.27,517.61 315.84,546.34 342.78,603.37 356.32,632.02"];
	84 -- 111	[pos="1120.9,446.79 1119.9,471.91 1118,517.14 1117,542.37"];
	84 -- 156	[pos="1145,438.22 1171.6,449.06 1215,466.69 1241.6,477.53"];
	84 -- 235	[pos="1130.8,411.7 1151.8,372.6 1203.3,276.73 1224.3,237.68"];
	282	[height=0.5,
		pos="1160.5,132.28",
		width=0.75];
	84 -- 282	[pos="1124,410.63 1131,357.7 1151.1,203.62 1158.1,150.52"];
	111 -- 123	[pos="1110.7,578.49 1109.4,583.03 1107.9,587.9 1106.5,592.43"];
	111 -- 156	[pos="1138.2,549.78 1166.3,535.86 1214.7,511.87 1242.9,497.92"];
	111 -- 128	[pos="1129.2,576.97 1145.3,597.29 1172.6,631.78 1188.6,652.01"];
	111 -- 125	[pos="1098.9,546.47 1092.8,541.44 1085.9,535.79 1079.7,530.76"];
	111 -- 239	[pos="1120.6,578.62 1128.1,609.23 1143.3,671.16 1150.8,701.9"];
	27 -- 66	[pos="599.31,524.2 555.76,541.57 462.76,578.66 419.3,596"];
	27 -- 98	[pos="629.08,497.15 639.78,467.36 661.25,407.58 671.9,377.93"];
	27 -- 131	[pos="604.83,501.21 565.18,470.97 470.32,398.59 430.71,368.38"];
	27 -- 126	[pos="649.86,512.7 654.91,512.3 660.18,511.88 665.22,511.48"];
	89	[height=0.5,
		pos="429.19,649.29",
		width=0.75];
	27 -- 89	[pos="603.81,528 566.72,553.76 484.82,610.65 447.89,636.3"];
	27 -- 100	[pos="599.94,524.58 541.07,549.69 384.31,616.56 325.32,641.72"];
	234	[height=0.5,
		pos="430.58,737.34",
		width=0.75];
	27 -- 234	[pos="609.21,530.51 573.93,571.36 479.34,680.88 444.07,721.71"];
	27 -- 133	[pos="602.61,527.49 549.04,561.14 403.32,652.67 350.03,686.14"];
	202	[height=0.5,
		pos="495.49,767.69",
		width=0.75];
	27 -- 202	[pos="613.98,532.24 590.68,578.54 527.3,704.47 504.13,750.52"];
	27 -- 297	[pos="600.26,504.36 553.01,482.26 443.84,431.2 396.79,409.2"];
	28 -- 181	[pos="1279.9,708.39 1295.6,704.95 1315.7,700.57 1331.5,697.13"];
	28 -- 49	[pos="1234.2,726.26 1189.3,753.85 1080.7,820.61 1035.8,848.27"];
	28 -- 67	[pos="1239.1,729.18 1203.5,765.29 1113.9,856.08 1078.3,892.13"];
	28 -- 63	[pos="1236,727.47 1214.8,743.27 1179.8,769.35 1158.4,785.25"];
	99	[height=0.5,
		pos="1407,890.13",
		width=0.75];
	28 -- 99	[pos="1267.7,729.64 1296.7,763.07 1364.5,841.15 1393.5,874.54"];
	28 -- 185	[pos="1247.5,731.53 1236.4,761.37 1213.9,821.71 1202.7,851.66"];
	124	[height=0.5,
		pos="1226,973.7",
		width=0.75];
	28 -- 124	[pos="1252.1,732.28 1246.9,779.96 1233.1,907.8 1228,955.46"];
	28 -- 286	[pos="1245.4,731.36 1226.6,769.16 1182.1,858.59 1163.4,896.23"];
	28 -- 271	[pos="1267.3,729.71 1284.7,750.42 1315.3,786.68 1332.9,807.55"];
	28 -- 272	[pos="1273.7,701.5 1292.4,689.6 1320.3,671.81 1339,659.93"];
	29 -- 35	[pos="906.46,601.73 929.72,567.35 982.79,488.86 1006,454.51"];
	29 -- 283	[pos="907.45,634.53 910.35,638.35 913.45,642.43 916.36,646.26"];
	30 -- 96	[pos="426.57,126.7 409.78,147.94 380.3,185.22 363.52,206.45"];
	30 -- 212	[pos="440.77,129.15 442.51,149.99 445.33,183.68 447.06,204.38"];
	30 -- 101	[pos="446.28,128.18 448.64,134.02 451.27,140.54 453.63,146.4"];
	208	[height=0.5,
		pos="534.56,65.034",
		width=0.75];
	30 -- 208	[pos="461.34,100.1 476.74,92.722 497.2,82.927 512.57,75.565"];
	30 -- 277	[pos="453.08,126.51 469.17,144.9 495.56,175.05 511.64,193.41"];
	30 -- 132	[pos="433.36,128.26 423.35,158.2 403.13,218.75 393.08,248.8"];
	174	[height=0.5,
		pos="461.05,65.124",
		width=0.75];
	30 -- 174	[pos="447.48,93.46 449.21,89.831 451.05,86.002 452.79,82.373"];
	232	[height=0.5,
		pos="628.47,27.4",
		width=0.75];
	30 -- 232	[pos="462.06,100.64 498.53,84.588 569.52,53.344 605.86,37.352"];
	225	[height=0.5,
		pos="314.13,149.11",
		width=0.75];
	30 -- 225	[pos="414.51,118.28 392.58,125.01 360.71,134.8 338.79,141.53"];
	298	[height=0.5,
		pos="700.48,18",
		width=0.75];
	30 -- 298	[pos="463.34,102.13 513.11,84.474 626.71,44.172 676.43,26.533"];
	30 -- 257	[pos="466.48,110.5 487.19,110.36 515.54,110.17 536.23,110.03"];
	31 -- 113	[pos="965.21,734.04 967.74,730.42 970.42,726.59 972.95,722.97"];
	32 -- 137	[pos="797.12,595.23 790.96,531.48 770.24,316.82 764.07,252.89"];
	32 -- 54	[pos="802.27,631.27 808.19,662.55 820.29,726.51 826.22,757.85"];
	32 -- 146	[pos="814.43,628.21 821.26,634.78 829.25,642.46 836.08,649.03"];
	32 -- 140	[pos="810.61,629.63 828.47,654.55 862.23,701.64 880.03,726.48"];
	32 -- 86	[pos="802.79,631.15 806.54,648.18 812.13,673.65 815.87,690.66"];
	54 -- 140	[pos="851,764.54 857.31,761.16 864.21,757.46 870.51,754.09"];
	33 -- 71	[pos="468.82,381.59 462.05,393.56 453.06,409.45 446.3,421.4"];
	33 -- 96	[pos="464.64,348.94 440.08,321.63 389.32,265.17 364.77,237.88"];
	33 -- 263	[pos="482.53,346.37 491.2,307.07 511.74,214.09 520.38,174.96"];
	33 -- 53	[pos="473.15,382.07 465.14,408.28 450.2,457.22 442.13,483.64"];
	33 -- 97	[pos="470.7,346.9 454.77,311.36 418.79,231.1 402.92,195.71"];
	33 -- 217	[pos="498.12,377.25 511.28,385.89 528.57,397.23 541.7,405.85"];
	33 -- 101	[pos="476.93,346.27 473.56,308.24 465.77,220.47 462.39,182.35"];
	33 -- 277	[pos="483.92,346.6 492.93,316.82 510.94,257.23 519.99,227.28"];
	33 -- 145	[pos="458.63,352.21 444.37,343.47 425.24,331.76 410.93,322.99"];
	33 -- 177	[pos="476.9,382.46 473.07,424.65 463.57,529.3 459.73,571.58"];
	96 -- 97	[pos="366.37,207.03 370.76,202.66 375.53,197.91 379.91,193.56"];
	179	[height=0.5,
		pos="377.16,108.11",
		width=0.75];
	96 -- 179	[pos="354.99,204.57 359.9,183.22 368.06,147.69 372.99,126.22"];
	96 -- 101	[pos="372.07,211.19 391.41,200.93 419.85,185.84 439.28,175.53"];
	96 -- 174	[pos="362.47,205.89 383.68,175.6 428.52,111.57 449.62,81.439"];
	209	[height=0.5,
		pos="221.83,210.79",
		width=0.75];
	96 -- 209	[pos="323.83,219.99 301.8,218 270.86,215.21 248.85,213.23"];
	96 -- 225	[pos="342.17,205.06 336.32,193.37 328.62,178.02 322.78,166.36"];
	85 -- 103	[pos="387.54,982.03 366.29,967.34 332.02,943.65 310.76,928.95"];
	85 -- 119	[pos="381.37,988.29 377.08,987.12 372.61,985.91 368.3,984.74"];
	85 -- 175	[pos="380.45,1000.6 358.89,1005.2 328.41,1011.6 306.86,1016.1"];
	68 -- 167	[pos="903.34,350.47 905.71,360.05 908.62,371.83 911,381.43"];
	36 -- 47	[pos="817.58,423.16 819.81,386.21 824.87,302.77 827.09,265.98"];
	36 -- 79	[pos="791.02,447.69 741.99,459.89 635.01,486.52 586.06,498.7"];
	36 -- 152	[pos="812.86,459.21 801.84,513.56 768.81,676.51 757.78,730.92"];
	130	[height=0.5,
		pos="1022.4,148.84",
		width=0.75];
	36 -- 130	[pos="828.14,424.79 864.39,373.3 974.83,216.46 1010.9,165.22"];
	36 -- 45	[pos="817.27,423.28 818.48,395.98 820.75,344.51 821.97,317.04"];
	36 -- 256	[pos="812.9,423.33 801.36,365.12 765.16,182.56 753.59,124.22"];
	36 -- 169	[pos="817.51,423.11 820.94,362.91 831.86,170.98 835.26,111.05"];
	36 -- 199	[pos="814.6,423.14 809.22,370.84 793.77,220.65 788.39,168.36"];
	36 -- 266	[pos="810,423.7 793.08,377.61 747.71,254.03 730.8,207.96"];
	131 -- 297	[pos="399.04,370.66 395.52,374.7 391.75,379.04 388.24,383.07"];
	38 -- 152	[pos="749.96,889.76 750.87,859.06 752.71,797.45 753.62,766.88"];
	38 -- 91	[pos="730.13,920.89 722.73,925.83 714.29,931.46 706.87,936.4"];
	38 -- 155	[pos="754.26,890.21 758.42,874.94 764.38,853.05 768.53,837.79"];
	38 -- 56	[pos="760.74,924.43 784.5,958.87 839.32,1038.3 863.14,1072.8"];
	38 -- 129	[pos="722.13,908.11 659.46,908.31 505.82,908.81 443.24,909.02"];
	38 -- 62	[pos="729.56,920.68 691.32,945.05 607.88,998.24 569.7,1022.6"];
	38 -- 75	[pos="757.02,925.71 779.32,977.55 844.34,1128.7 866.51,1180.3"];
	38 -- 224	[pos="723.66,902.33 678.18,892.27 584.15,871.47 538.7,861.41"];
	38 -- 184	[pos="753.52,926.13 764.88,976.27 796.66,1116.5 807.94,1166.2"];
	38 -- 95	[pos="776.63,908.46 801.21,908.86 837.17,909.44 861.72,909.84"];
	38 -- 112	[pos="748.86,926.26 747.84,959.56 745.7,1029.9 744.68,1063.2"];
	38 -- 122	[pos="722.9,911.52 671.02,918.36 556.64,933.44 504.67,940.3"];
	38 -- 161	[pos="771.77,897.56 787.34,890.28 808.02,880.6 823.56,873.33"];
	278	[height=0.5,
		pos="778.17,1125.5",
		width=0.75];
	38 -- 278	[pos="751.82,926.19 757.24,967.23 770.39,1066.7 775.79,1107.5"];
	38 -- 192	[pos="722.75,911.39 687.38,915.86 625.29,923.7 589.94,928.17"];
	155 -- 161	[pos="793.93,832.19 803.8,838.04 815.59,845.02 825.43,850.86"];
	41 -- 48	[pos="839.53,1124.6 796.09,1092.3 686.86,1011.2 643.5,978.99"];
	41 -- 106	[pos="850.36,1120.6 829.47,1071.1 770.27,930.77 749.45,881.43"];
	139 -- 154	[pos="533.78,1091.6 510.05,1088.2 475.4,1083.2 451.54,1079.8"];
	139 -- 178	[pos="579.54,1108.1 600.11,1121.7 632.48,1143 653.09,1156.7"];
	205	[height=0.5,
		pos="775.9,1228.9",
		width=0.75];
	139 -- 205	[pos="580.14,1107.6 621.23,1133.1 715.01,1191.2 756.05,1216.6"];
	237 -- 262	[pos="660.46,662.78 664.78,667.87 669.55,673.5 673.87,678.59"];
	130 -- 199	[pos="995.37,148.99 949.99,149.24 859.04,149.75 813.62,150"];
	78 -- 84	[pos="1092.5,292.08 1098.9,321.88 1111.5,381.06 1117.8,410.79"];
	78 -- 191	[pos="1083.2,256.24 1073.1,223.74 1051.9,155.14 1041.9,122.63"];
	78 -- 143	[pos="1107.2,287.41 1137.8,309.51 1198.6,353.38 1229.1,375.42"];
	78 -- 207	[pos="1113.6,280.98 1136.3,287.33 1169.8,296.67 1192.6,303.05"];
	78 -- 116	[pos="1071,287.66 1061.8,294.7 1050.7,303.26 1041.6,310.3"];
	250	[height=0.5,
		pos="1098.4,139.19",
		width=0.75];
	78 -- 250	[pos="1090,255.84 1091.8,230.11 1095.2,183.33 1097.1,157.52"];
	48 -- 85	[pos="598.51,969.13 556.39,974.84 475.23,985.82 433.19,991.51"];
	48 -- 61	[pos="632.3,982.92 644.59,1013.7 669.99,1077.3 682.27,1108.1"];
	48 -- 106	[pos="642.08,950.96 664.27,931.66 703.23,897.8 725.41,878.52"];
	48 -- 103	[pos="598.9,961.56 536.49,952.27 380.66,929.07 318.25,919.78"];
	212 -- 277	[pos="475.03,217.92 482.85,216.57 491.4,215.09 499.21,213.74"];
	107	[height=0.5,
		pos="998.09,1193.7",
		width=0.75];
	56 -- 107	[pos="891.45,1103.6 914.98,1123.5 957.34,1159.3 980.98,1179.2"];
	56 -- 95	[pos="875.98,1071.2 878.73,1036.9 884.67,962.84 887.42,928.48"];
	56 -- 110	[pos="887.88,1105 898.2,1117.2 912.41,1133.9 922.73,1146"];
	236	[height=0.5,
		pos="1081.1,1118.1",
		width=0.75];
	56 -- 236	[pos="901.12,1093 940.79,1098.6 1015,1108.9 1054.7,1114.4"];
	170 -- 176	[pos="1043.3,400.6 1018.3,436.69 959.24,522.07 934.37,558"];
	70 -- 115	[pos="1242.9,578.84 1257.4,548.92 1287.1,487.75 1301.6,457.77"];
	70 -- 211	[pos="1236.6,578.03 1237.1,573.24 1237.7,568.07 1238.2,563.28"];
	70 -- 143	[pos="1235.7,578.05 1238.1,538.83 1243.9,446.18 1246.4,406.87"];
	115 -- 156	[pos="1295.2,455.69 1290.2,460.89 1284.6,466.7 1279.6,471.89"];
	115 -- 235	[pos="1303.9,422.83 1289.5,381.69 1253.9,279.63 1239.6,238.41"];
	191 -- 250	[pos="1057.4,116.46 1063.9,120.04 1071,123.99 1077.4,127.57"];
	141 -- 168	[pos="79.71,252.73 73.009,265.56 63.891,283.02 57.195,295.84"];
	141 -- 148	[pos="106.63,249 113.78,254.36 122.01,260.53 129.19,265.91"];
	81 -- 121	[pos="189.97,486.64 183.99,481.6 177.27,475.94 171.29,470.9"];
	81 -- 227	[pos="198.83,518.14 185.87,546.2 160.42,601.32 147.48,629.37"];
	81 -- 273	[pos="227.81,512.28 250.58,524.67 286.71,544.35 309.51,556.77"];
	50 -- 252	[pos="187.66,412.51 167.34,412.75 139.69,413.08 119.39,413.33"];
	50 -- 190	[pos="209.03,429.91 197.19,465.82 170.5,546.8 158.64,582.79"];
	50 -- 60	[pos="198.08,398.02 178.57,381.58 146.58,354.61 127.1,338.18"];
	55 -- 238	[pos="521.27,121.37 535.06,129.82 553.36,141.01 567.19,149.48"];
	55 -- 162	[pos="526.61,102.61 553.09,95.744 594.46,85.023 621.02,78.14"];
	230 -- 248	[pos="516.6,287.43 473.89,313.26 375.17,372.95 332.64,398.66"];
	230 -- 238	[pos="544.79,257.44 554.26,236.15 570.06,200.63 579.51,179.39"];
	45 -- 47	[pos="824.7,280.65 825.2,275.98 825.73,270.96 826.23,266.28"];
	45 -- 130	[pos="840.85,285.1 878.77,256.65 966.26,190.99 1004.3,162.47"];
	45 -- 169	[pos="823.98,280.41 826.54,241.38 832.53,150.2 835.1,111.2"];
	45 -- 69	[pos="846.07,308.15 871.75,318.61 912.83,335.36 938.55,345.83"];
	45 -- 65	[pos="846.61,289.79 885.97,275.14 964.09,246.06 1003.3,231.45"];
	45 -- 149	[pos="834.58,282.36 861.15,245.64 925.47,156.76 952.1,119.95"];
	45 -- 199	[pos="818.41,280.75 811.44,252.2 797.88,196.72 790.9,168.13"];
	45 -- 294	[pos="849.98,300.7 900.58,304.5 1008.6,312.61 1059.1,316.4"];
	166 -- 294	[pos="920.73,265.48 957.19,277.15 1025.4,298.99 1061.8,310.64"];
	166 -- 200	[pos="911.07,242.37 921.36,231.72 935.02,217.58 945.3,206.95"];
	256 -- 266	[pos="744.55,123.97 740.2,138.26 734.12,158.21 729.77,172.49"];
	61 -- 85	[pos="666.55,1115 613.48,1090.6 481.64,1029.8 428.85,1005.4"];
	49 -- 138	[pos="997.16,847.38 989.31,841.82 980.19,835.35 972.34,829.78"];
	49 -- 67	[pos="1031.1,875.59 1036.6,880.92 1042.7,886.91 1048.1,892.23"];
	49 -- 63	[pos="1037.7,849.7 1060.4,838.43 1095.7,820.92 1118.3,809.69"];
	49 -- 242	[pos="1015.8,842.34 1015.8,827.22 1015.8,805.86 1015.8,790.75"];
	49 -- 64	[pos="1033.1,874.45 1056.2,892.86 1096.6,925.17 1119.7,943.57"];
	49 -- 136	[pos="1010,878.36 1008.8,881.93 1007.6,885.68 1006.5,889.25"];
	49 -- 185	[pos="1042.8,861.89 1076.8,863.55 1134.8,866.37 1168.9,868.03"];
	49 -- 124	[pos="1037.1,872.05 1077.5,893.79 1164.7,940.74 1204.9,962.37"];
	49 -- 288	[pos="1012.4,878.55 1009.2,895.62 1004.5,921.16 1001.3,938.21"];
	49 -- 216	[pos="1040.8,853.34 1077.4,842.72 1145.3,823.04 1182,812.43"];
	243	[height=0.5,
		pos="1103.7,1045.4",
		width=0.75];
	49 -- 243	[pos="1024,877.97 1040.9,913.29 1078.8,993.06 1095.6,1028.2"];
	67 -- 185	[pos="1088.4,900.1 1112.1,893.33 1147.6,883.2 1171.3,876.44"];
	67 -- 118	[pos="1090.6,909.56 1120.6,912.15 1168.7,916.3 1198.6,918.88"];
	67 -- 73	[pos="1090.4,904.32 1135.5,899.47 1225.9,889.74 1271.1,884.88"];
	67 -- 218	[pos="1070.2,924.94 1076.5,941.78 1086,966.97 1092.4,983.79"];
	67 -- 286	[pos="1090.4,909.04 1102.2,909.83 1116,910.76 1127.8,911.56"];
	259	[height=0.5,
		pos="1278.1,1034.4",
		width=0.75];
	67 -- 259	[pos="1083.6,919.18 1124.6,943.42 1216.8,998.07 1257.8,1022.4"];
	51 -- 74	[pos="1424.8,402.76 1427.8,429.5 1433.3,479.41 1436.3,506.36"];
	51 -- 219	[pos="1407.3,399.73 1401,405.82 1393.7,412.84 1387.4,418.92"];
	51 -- 163	[pos="1395.5,386.3 1386.2,386.83 1375.8,387.42 1366.5,387.95"];
	51 -- 102	[pos="1436.1,400.63 1439.8,405.03 1443.7,409.8 1447.4,414.21"];
	51 -- 105	[pos="1398,377.21 1374.4,370.05 1339.1,359.34 1315.6,352.2"];
	160	[height=0.5,
		pos="1438.7,287.64",
		width=0.75];
	51 -- 160	[pos="1425.8,366.48 1428.6,349.12 1432.9,323.16 1435.7,305.83"];
	285	[height=0.5,
		pos="1347,195.7",
		width=0.75];
	51 -- 285	[pos="1415.8,367.3 1401.4,331.28 1368.4,249.08 1354,213.1"];
	279	[height=0.5,
		pos="1398.7,240.86",
		width=0.75];
	51 -- 279	[pos="1419.8,366.81 1415.2,339.24 1406.4,286.72 1401.8,259.02"];
	51 -- 231	[pos="1407.7,369.52 1383.2,344.83 1335,296.32 1310.6,271.64"];
	51 -- 226	[pos="1425.1,402.88 1427.1,418.43 1430,440.71 1431.9,456.25"];
	51 -- 180	[pos="1403.2,372.12 1395.9,367.46 1387.7,362.18 1380.5,357.52"];
	244	[height=0.5,
		pos="1484.8,386.12",
		width=0.75];
	51 -- 244	[pos="1449.8,385.34 1452.4,385.4 1455.1,385.46 1457.7,385.52"];
	51 -- 264	[pos="1404.7,370.86 1384.3,355.19 1351.4,329.86 1331.1,314.3"];
	51 -- 240	[pos="1424.1,402.88 1426.6,439.61 1432.3,522.44 1434.9,559.24"];
	190 -- 221	[pos="150,582.36 147.54,566.17 143.97,542.65 141.51,526.48"];
	52 -- 150	[pos="244.54,628.82 249.83,610.29 258.09,581.36 263.39,562.78"];
	52 -- 251	[pos="239.8,664.72 240.17,686.63 240.8,723.17 241.17,745.02"];
	52 -- 248	[pos="244.98,628.79 258.51,585.11 293.38,472.63 306.98,428.74"];
	52 -- 245	[pos="251.58,663.12 264.77,681.24 285.75,710.06 298.88,728.08"];
	52 -- 164	[pos="231.41,663.84 226.2,675.02 219.45,689.51 214.24,700.7"];
	52 -- 171	[pos="242.96,628.63 244.29,621.78 245.81,613.95 247.14,607.08"];
	258	[height=0.5,
		pos="66.901,793.07",
		width=0.75];
	52 -- 258	[pos="222.62,660.83 189.54,688.92 116.51,750.94 83.578,778.9"];
	251 -- 258	[pos="214.97,767.66 181.96,773.32 125.95,782.93 93.094,788.57"];
	53 -- 157	[pos="457.29,489.98 463.92,486.23 471.26,482.08 477.89,478.32"];
	53 -- 145	[pos="432.31,483.7 423.55,447.21 403.78,364.79 395.06,328.44"];
	53 -- 177	[pos="440.97,519.49 444.69,534.77 450.02,556.66 453.74,571.93"];
	80 -- 295	[pos="1206.5,378.51 1243.1,358.21 1318.1,316.65 1354.6,296.43"];
	80 -- 117	[pos="1185.3,371.95 1185,331.54 1184.3,234.87 1184,194.51"];
	80 -- 134	[pos="1173.3,374.06 1169.2,368.67 1164.6,362.67 1160.6,357.27"];
	245 -- 251	[pos="285.38,751.29 279.35,752.91 272.92,754.64 266.9,756.27"];
	245 -- 270	[pos="297.06,728.69 292.19,723.1 286.71,716.81 281.84,711.22"];
	109 -- 127	[pos="618.9,227.44 625.98,223.1 633.95,218.22 641.03,213.89"];
	86 -- 137	[pos="817.61,690.5 808.51,615.47 773.62,327.87 764.51,252.79"];
	86 -- 146	[pos="831.5,692.21 834.28,688.35 837.24,684.23 840.02,680.37"];
	107 -- 236	[pos="1014.1,1179.1 1028.8,1165.7 1050.5,1146 1065.2,1132.7"];
	59 -- 69	[pos="959.62,306.8 960.06,316.23 960.6,327.7 961.05,337.12"];
	58 -- 261	[pos="445.08,852.87 456.91,862.72 472.61,875.82 484.41,885.66"];
	58 -- 129	[pos="425,856.84 423.22,867.27 420.98,880.33 419.18,890.79"];
	58 -- 224	[pos="454.03,843.91 464.47,846 476.47,848.4 486.92,850.5"];
	58 -- 213	[pos="403.31,846.22 385.42,851.64 361.38,858.91 343.51,864.32"];
	129 -- 224	[pos="437.08,897.52 453.34,888.57 475.74,876.23 491.98,867.28"];
	129 -- 213	[pos="392.51,900.07 377.33,894.25 357.66,886.71 342.47,880.88"];
	69 -- 199	[pos="948.44,339.59 915.79,301.4 832.73,204.22 800.03,165.97"];
	69 -- 294	[pos="986.76,347.97 1008.4,341.53 1039.7,332.24 1061.4,325.8"];
	60 -- 141	[pos="105.96,306.14 102.2,290.79 96.817,268.78 93.062,253.43"];
	60 -- 252	[pos="106.68,342.19 103.54,357.73 99.043,380.01 95.905,395.55"];
	60 -- 168	[pos="84.008,319.36 80.835,318.79 77.594,318.22 74.423,317.65"];
	60 -- 148	[pos="123.73,308 127.13,303.92 130.79,299.54 134.18,295.47"];
	62 -- 139	[pos="553.02,1053.2 554.33,1060.8 555.84,1069.7 557.15,1077.3"];
	62 -- 189	[pos="528.58,1024 490.9,1004.2 412.98,963.3 375.31,943.53"];
	62 -- 214	[pos="577.17,1035.5 613.31,1035.9 676.75,1036.7 712.88,1037.1"];
	87	[height=0.5,
		pos="749.95,1169.5",
		width=0.75];
	62 -- 87	[pos="569.1,1048.1 607.34,1073.7 692.64,1131 730.83,1156.7"];
	62 -- 92	[pos="565.62,1050.3 578.72,1062.8 597.26,1080.7 610.28,1093.2"];
	62 -- 112	[pos="575.71,1041.3 612.96,1050.2 681.41,1066.5 718.54,1075.4"];
	62 -- 122	[pos="537.07,1018.8 523.99,1002.2 503.83,976.58 490.79,960"];
	189 -- 214	[pos="379.03,939.15 448.79,958.14 644.85,1011.5 714.84,1030.6"];
	63 -- 249	[pos="1167,796.43 1207.2,792.71 1282.5,785.74 1322.6,782.03"];
	63 -- 99	[pos="1164.2,807.17 1214.9,824.5 1331.9,864.47 1382.7,881.83"];
	63 -- 242	[pos="1114.3,793.45 1093.1,788.95 1063.2,782.6 1041.9,778.08"];
	63 -- 124	[pos="1148.6,816.32 1165.1,849.82 1201,922.93 1217.5,956.37"];
	63 -- 243	[pos="1137.4,817.05 1130.7,862.64 1113.1,981.67 1106.4,1027.3"];
	63 -- 292	[pos="1132.6,816.38 1129.1,824.63 1125,834.44 1121.5,842.72"];
	63 -- 271	[pos="1167,802.14 1206.7,806.88 1280.2,815.67 1319.7,820.39"];
	99 -- 124	[pos="1384.8,900.38 1350.1,916.42 1283.2,947.28 1248.4,963.37"];
	75 -- 184	[pos="848.07,1192 844.61,1191.2 841.07,1190.5 837.63,1189.7"];
	75 -- 112	[pos="857.83,1183.2 832.94,1160.9 785.53,1118.5 760.52,1096.1"];
	242 -- 243	[pos="1021.5,790.44 1037.5,840.01 1082.2,978.6 1098.1,1027.8"];
	242 -- 292	[pos="1032,787.05 1050.2,803.34 1079.5,829.61 1097.7,845.9"];
	224 -- 261	[pos="508.22,873.62 507.49,876.38 506.73,879.23 506,881.99"];
	64 -- 67	[pos="1118.1,944.49 1107.1,937 1093.3,927.59 1082.3,920.1"];
	64 -- 185	[pos="1148.1,940.85 1158.7,925.11 1174.5,901.56 1185,885.84"];
	64 -- 73	[pos="1159.4,946.93 1190.2,932.52 1245.2,906.74 1275.8,892.38"];
	64 -- 216	[pos="1145,939.95 1158.5,910.59 1185.6,851.67 1199.1,822.44"];
	64 -- 259	[pos="1158.1,968.94 1184.7,983.45 1230.2,1008.2 1256.8,1022.8"];
	65 -- 166	[pos="1001.8,229.38 978.67,235.59 944.55,244.73 921.42,250.92"];
	65 -- 149	[pos="1018,205.57 1006,182.94 984.96,143.21 972.98,120.59"];
	65 -- 241	[pos="1015.8,206.26 993.88,174.3 945.62,103.93 923.53,71.721"];
	65 -- 294	[pos="1037.3,239.32 1048.1,256.79 1065,284.09 1075.8,301.61"];
	65 -- 200	[pos="1004.7,212.35 997.54,209.05 989.61,205.4 982.44,202.09"];
	268	[height=0.5,
		pos="1025.4,59.557",
		width=0.75];
	65 -- 268	[pos="1026.8,204.56 1026.5,173.21 1025.9,109.12 1025.6,77.713"];
	136 -- 138	[pos="991.67,889.49 983.3,873.4 970.93,849.63 962.62,833.65"];
	136 -- 288	[pos="999.71,924.94 999.47,929.22 999.21,933.79 998.96,938.06"];
	149 -- 241	[pos="948.12,88.737 941.68,82.716 934.26,75.776 927.83,69.764"];
	149 -- 268	[pos="982.4,90.359 990.18,84.789 999.22,78.319 1007,72.751"];
	185 -- 286	[pos="1181.7,884.75 1177.7,889.02 1173.3,893.65 1169.3,897.92"];
	291	[height=0.5,
		pos="160.79,845.07",
		width=0.75];
	247 -- 291	[pos="171.93,818.46 170.68,821.44 169.39,824.53 168.14,827.52"];
	247 -- 299	[pos="166.53,785.17 163.38,781.23 160.01,777.01 156.86,773.06"];
	118 -- 218	[pos="1205.8,933.74 1182,948.82 1142.4,973.95 1118.7,988.99"];
	118 -- 259	[pos="1233.8,938.89 1243.6,960.15 1260.1,995.62 1269.9,1016.8"];
	72 -- 94	[pos="479.4,729.25 454.39,746.18 410.61,775.82 385.41,792.88"];
	73 -- 118	[pos="1277.1,893.33 1267.5,898.49 1256.3,904.58 1246.7,909.75"];
	73 -- 218	[pos="1277.9,894.09 1239.7,916.99 1157.5,966.37 1119.3,989.29"];
	73 -- 259	[pos="1295.7,900.06 1291.8,929.39 1284.3,987.01 1280.5,1016.3"];
	187 -- 289	[pos="1560.5,578.64 1560.6,583.87 1560.7,589.58 1560.8,594.81"];
	163 -- 231	[pos="1333.6,371.83 1325.2,346.38 1309.7,299.67 1301.3,274.18"];
	163 -- 226	[pos="1355.9,404.28 1373.3,419.85 1400.6,444.24 1417.9,459.75"];
	163 -- 240	[pos="1348.3,406.84 1366.8,442.74 1409,524.8 1427.4,560.43"];
	76 -- 187	[pos="1518.8,584.45 1525.5,580.62 1532.8,576.38 1539.4,572.55"];
	76 -- 102	[pos="1494.1,578.27 1486.9,546.21 1472,479.85 1464.8,447.99"];
	76 -- 180	[pos="1488.8,579.08 1463.6,533.02 1395.1,407.73 1370.1,361.91"];
	76 -- 289	[pos="1523.4,603.08 1527.5,604.17 1531.8,605.31 1535.9,606.4"];
	76 -- 254	[pos="1493.8,614.2 1488.6,635.15 1480.1,669.7 1474.9,690.77"];
	76 -- 267	[pos="1504,614.13 1510.7,634.76 1521.7,668.59 1528.4,689.2"];
	102 -- 187	[pos="1473.2,446.41 1492.3,471.53 1528.9,519.51 1548,544.51"];
	246	[height=0.5,
		pos="1553.6,499.91",
		width=0.75];
	102 -- 246	[pos="1479.1,443.94 1495.5,456.25 1519.3,474.17 1535.6,486.4"];
	102 -- 160	[pos="1458,412.11 1453.7,384.84 1445.8,333.44 1441.5,306"];
	102 -- 285	[pos="1452.4,412.92 1431.4,369.56 1376.4,256.35 1355.4,212.96"];
	102 -- 279	[pos="1454.9,412.35 1443.1,376.18 1416.3,294.5 1404.5,258.48"];
	102 -- 231	[pos="1446.1,414.74 1414.8,381.86 1341.8,305.15 1310.3,272.07"];
	102 -- 180	[pos="1443.8,415.68 1425.3,399.9 1395.9,374.79 1377.5,359.09"];
	102 -- 244	[pos="1470.1,413 1471.9,409.82 1473.7,406.49 1475.4,403.3"];
	280	[height=0.5,
		pos="1536.3,444.65",
		width=0.75];
	102 -- 280	[pos="1486.8,435.14 1494.4,436.6 1502.7,438.19 1510.3,439.65"];
	184 -- 278	[pos="802.2,1167.1 797.75,1159.4 792.5,1150.3 788.04,1142.6"];
	77 -- 81	[pos="239.86,386.05 232.57,411.38 219.32,457.41 212,482.81"];
	77 -- 228	[pos="256.52,351.82 269.89,332.84 291.81,301.72 305.17,282.75"];
	77 -- 82	[pos="246.99,349.92 248.64,334.81 250.96,313.45 252.61,298.35"];
	77 -- 121	[pos="229.65,383.19 213,399.47 186.59,425.32 169.91,441.63"];
	228 -- 265	[pos="300.03,280.71 289.76,289.52 276.61,300.79 266.29,309.64"];
	117 -- 134	[pos="1180,194.25 1173.1,225.92 1158.9,291.38 1152.1,323.03"];
	114 -- 293	[pos="42.649,532 39.711,513.36 35.183,484.63 32.254,466.04"];
	114 -- 172	[pos="59.042,566.01 64.739,572.63 71.358,580.33 77.055,586.95"];
	114 -- 147	[pos="50.364,568.15 56.34,590.22 66.459,627.61 72.456,649.76"];
	114 -- 182	[pos="40.52,568.2 38.023,577.11 35.013,587.85 32.519,596.74"];
	82 -- 228	[pos="280.55,274.41 284.01,273.65 287.55,272.87 291,272.11"];
	82 -- 281	[pos="238.23,294.66 219.86,310.96 190.25,337.26 171.87,353.57"];
	82 -- 121	[pos="244.99,297.07 225.86,330.82 183.16,406.14 164.05,439.85"];
	82 -- 265	[pos="252.45,298.29 252.14,300.84 251.83,303.47 251.53,306.03"];
	281 -- 290	[pos="128.86,371.53 106.81,374.35 75.629,378.34 53.587,381.17"];
	143 -- 207	[pos="1240.8,370.88 1235.9,357.92 1229.3,340.48 1224.5,327.6"];
	121 -- 228	[pos="168.03,440.84 198.63,404.93 272.8,317.91 303.26,282.17"];
	121 -- 281	[pos="154.69,438.37 154.86,423.06 155.11,401.37 155.28,386.15"];
	121 -- 290	[pos="133.71,444.98 110.01,431.56 71.458,409.74 47.756,396.32"];
	83 -- 189	[pos="689.39,988.98 622.58,977.7 446.91,948.03 380.2,936.77"];
	83 -- 165	[pos="688.42,992.6 653.38,991.54 592.91,989.71 557.95,988.65"];
	83 -- 122	[pos="689.81,988.02 644.1,978.47 549.59,958.74 503.9,949.2"];
	83 -- 222	[pos="739.01,983.72 749.32,979.43 761.41,974.4 771.69,970.12"];
	165 -- 222	[pos="557.64,985.06 608.23,979.82 717.36,968.51 768.01,963.26"];
	103 -- 119	[pos="304.98,931.81 312.56,940.99 322.05,952.5 329.66,961.71"];
	103 -- 175	[pos="289.89,934.26 287.89,953.68 284.75,984.06 282.75,1003.4"];
	87 -- 214	[pos="748.59,1151.4 746.71,1126.3 743.33,1081 741.44,1055.7"];
	87 -- 92	[pos="728.02,1158.7 705.31,1147.4 670.04,1130 647.41,1118.7"];
	87 -- 142	[pos="727.93,1158.7 675.49,1133 543.65,1068.3 491.31,1042.6"];
	92 -- 139	[pos="599.45,1102.9 595.18,1102.1 590.76,1101.2 586.49,1100.4"];
	92 -- 142	[pos="603.63,1097.2 573.85,1082.7 521.08,1057 491.35,1042.5"];
	88 -- 196	[pos="621.7,350.43 638.66,296.32 689.53,134.09 706.51,79.92"];
	89 -- 131	[pos="428.17,630.87 425.23,577.85 416.78,425.34 413.87,372.8"];
	89 -- 100	[pos="402,649.76 380.62,650.13 350.97,650.64 329.6,651.01"];
	89 -- 234	[pos="429.48,667.54 429.72,682.65 430.05,704.01 430.29,719.12"];
	89 -- 202	[pos="438.69,666.26 451.3,688.76 473.41,728.27 486.01,750.76"];
	90 -- 97	[pos="313.84,194.87 330.59,191.48 352.28,187.08 369.06,183.68"];
	95 -- 201	[pos="889.41,892.21 889.91,875.15 890.65,849.68 891.16,832.54"];
	95 -- 155	[pos="871.33,896.57 849.62,879.6 812.87,850.87 791.08,833.84"];
	95 -- 107	[pos="895.71,928.01 915.32,978.91 971.65,1125.1 991.26,1176"];
	95 -- 203	[pos="896.93,927.6 914.17,964.64 954.42,1051.2 971.64,1088.2"];
	95 -- 110	[pos="892.27,928.36 900.97,974.75 924.02,1097.6 932.69,1143.8"];
	95 -- 236	[pos="903.33,925.9 939.05,964.52 1031.2,1064.1 1066.8,1102.6"];
	95 -- 135	[pos="903.25,925.69 932.38,956.92 998.05,1027.3 1027.2,1058.6"];
	95 -- 161	[pos="874.77,894.77 870.06,889.59 864.8,883.82 860.08,878.63"];
	100 -- 131	[pos="309.03,633.8 328.67,581.03 386.73,424.99 406.32,372.34"];
	100 -- 247	[pos="289.26,667.48 265.54,696.27 215.96,756.46 192.31,785.17"];
	100 -- 234	[pos="321.63,664.33 345.79,680.51 387.05,708.17 411.26,724.39"];
	100 -- 133	[pos="312.46,668.49 315,672.82 317.73,677.46 320.27,681.78"];
	100 -- 202	[pos="322.74,663.69 359.82,686.01 438.09,733.13 475.18,755.46"];
	100 -- 291	[pos="290.37,667.98 263.54,704.65 199.25,792.51 172.63,828.88"];
	100 -- 297	[pos="307.52,633.71 320.76,587.31 356.26,462.92 369.5,416.55"];
	179 -- 208	[pos="402.45,101.19 431.82,93.149 479.99,79.968 509.33,71.937"];
	179 -- 209	[pos="357.8,120.9 328.03,140.58 271.34,178.06 241.43,197.83"];
	179 -- 225	[pos="357.56,120.86 349.9,125.84 341.14,131.54 333.5,136.51"];
	142 -- 214	[pos="496.59,1032.4 548.47,1033.5 661.03,1035.8 712.89,1036.9"];
	101 -- 179	[pos="441.38,151.13 427.87,142.08 409.93,130.06 396.45,121.03"];
	101 -- 208	[pos="472.96,147.76 486.63,129.4 508.68,99.789 522.36,81.42"];
	101 -- 277	[pos="479.48,177.16 487.99,183.09 498.04,190.09 506.56,196.04"];
	101 -- 209	[pos="434.75,169.2 388.78,178.18 293.76,196.74 247.82,205.71"];
	101 -- 257	[pos="482.04,152.87 499.66,143.56 524.57,130.38 542.18,121.07"];
	208 -- 232	[pos="557.78,55.731 572.22,49.941 590.74,42.521 605.2,36.726"];
	208 -- 298	[pos="559.76,57.891 591.13,48.999 644.36,33.908 675.59,25.057"];
	246 -- 280	[pos="1548,482.12 1546.1,475.81 1543.8,468.71 1541.9,462.41"];
	133 -- 247	[pos="311.05,711.59 282.02,731.3 227.12,768.55 198.18,788.19"];
	133 -- 234	[pos="353.71,707.7 369.83,713.91 391.1,722.11 407.18,728.32"];
	133 -- 202	[pos="353.16,708.22 384.65,721.38 440.9,744.88 472.43,758.06"];
	133 -- 291	[pos="313.62,712.93 281.24,740.93 209.84,802.66 177.4,830.7"];
	133 -- 299	[pos="305.46,706.38 269.77,717.58 204.18,738.17 168.59,749.34"];
	104 -- 144	[pos="650.5,573.71 636,587.7 614.37,608.58 599.81,622.63"];
	104 -- 237	[pos="661.94,577.14 658.69,592.34 654.08,613.89 650.85,629.01"];
	105 -- 219	[pos="1305,360.22 1319.8,376.48 1342.9,401.87 1357.8,418.17"];
	119 -- 175	[pos="324.34,990.97 316.48,996.51 307.34,1002.9 299.49,1008.5"];
	110 -- 236	[pos="960.99,1154.2 987.73,1146.2 1029.9,1133.5 1056.5,1125.5"];
	110 -- 135	[pos="953.02,1147.6 972.74,1131.3 1005.1,1104.5 1024.8,1088.2"];
	112 -- 139	[pos="717,1083.5 682.13,1086.1 621.96,1090.7 587.19,1093.3"];
	112 -- 184	[pos="755.03,1097.9 767.62,1117 788.21,1148.1 800.88,1167.3"];
	112 -- 206	[pos="716.98,1080 646.71,1076.4 459.49,1066.7 389.38,1063"];
	112 -- 178	[pos="730.99,1097.6 718.07,1113.5 698.46,1137.6 685.57,1153.5"];
	112 -- 205	[pos="748.02,1099.5 754.12,1127.8 765.86,1182.3 771.97,1210.7"];
	112 -- 183	[pos="716.68,1082.2 667.3,1083.5 564.08,1086.3 514.85,1087.6"];
	112 -- 278	[pos="756.61,1097.6 759.57,1101.4 762.73,1105.5 765.69,1109.3"];
	162 -- 238	[pos="635.66,88.091 625.05,104.28 608.98,128.79 598.32,145.05"];
	156 -- 235	[pos="1262.8,468.71 1257,419.95 1241.3,287.3 1235.5,238.8"];
	156 -- 282	[pos="1259.6,468.94 1241.7,408.09 1183.7,211.12 1165.8,150.32"];
	116 -- 170	[pos="1032.7,340.98 1036.8,349.03 1041.7,358.63 1045.9,366.72"];
	116 -- 191	[pos="1025,305.61 1027.3,264.27 1033,164.07 1035.4,122.92"];
	116 -- 250	[pos="1031.1,306.2 1045.3,270.8 1077.2,191.71 1091.4,156.58"];
	116 -- 176	[pos="1016.8,341.52 998.3,387.51 948.63,510.83 930.12,556.79"];
	172 -- 293	[pos="83.655,585.19 71.909,555.47 48.151,495.36 36.359,465.52"];
	122 -- 189	[pos="451.13,941.32 430.33,939.39 401.66,936.75 380.86,934.82"];
	122 -- 165	[pos="495.06,957.98 501.09,963.01 507.87,968.66 513.9,973.69"];
	122 -- 222	[pos="505.06,945.23 564.91,948.38 708.12,955.92 767.9,959.06"];
	122 -- 192	[pos="504.57,939.99 514.83,938.51 526.56,936.82 536.83,935.34"];
	128 -- 287	[pos="1224.2,678.23 1252.9,690.93 1302,712.63 1330.8,725.37"];
	128 -- 239	[pos="1187.6,683.72 1181.7,690.29 1174.9,697.92 1169.1,704.49"];
	125 -- 188	[pos="1057.1,534.42 1055.8,538.84 1054.4,543.57 1053.1,547.99"];
	218 -- 259	[pos="1125.1,1006.2 1159,1012.5 1218.1,1023.3 1252,1029.6"];
	132 -- 212	[pos="405.58,253.34 413.36,247.76 422.39,241.28 430.16,235.71"];
	135 -- 203	[pos="1020,1085.1 1014,1088.1 1007.5,1091.4 1001.5,1094.5"];
	202 -- 234	[pos="473.15,757.24 466.55,754.16 459.33,750.78 452.74,747.7"];
	199 -- 256	[pos="773.33,134.25 770.06,130.31 766.56,126.08 763.28,122.14"];
	199 -- 266	[pos="766.84,162.87 759.58,167.55 751.36,172.87 744.09,177.56"];
	145 -- 263	[pos="404.58,294.81 430.16,265.39 484.72,202.65 510.4,173.11"];
	154 -- 178	[pos="448.45,1085 495.82,1102.9 601.51,1142.7 648.83,1160.6"];
	154 -- 205	[pos="447.46,1085.9 511,1113.6 689.71,1191.4 753.18,1219"];
	147 -- 172	[pos="81.013,649.63 82.847,640.6 85.058,629.71 86.889,620.69"];
	147 -- 284	[pos="84.796,685.31 86.116,688.41 87.49,691.63 88.808,694.73"];
	147 -- 182	[pos="62.926,652.37 56.377,645.37 48.641,637.1 42.075,630.09"];
	193 -- 229	[pos="691.33,723.98 690.2,697.29 688.11,647.82 686.98,621.13"];
	148 -- 168	[pos="123.17,287.76 107.8,292.93 87.989,299.6 72.602,304.78"];
	148 -- 260	[pos="148.77,261.4 149.28,254.42 149.87,246.46 150.38,239.47"];
	241 -- 268	[pos="939.23,56.115 957.04,56.826 980.25,57.753 998.1,58.466"];
	164 -- 251	[pos="218.69,734.11 221.94,738.25 225.45,742.72 228.72,746.87"];
	164 -- 258	[pos="184.98,729.51 158.81,743.6 114.5,767.44 88.245,781.58"];
	178 -- 205	[pos="693.44,1181.5 711.49,1191.9 737.42,1206.8 755.36,1217.1"];
	178 -- 183	[pos="649.84,1159.6 614.25,1143.9 545.69,1113.9 510.17,1098.3"];
	235 -- 282	[pos="1220.4,204.91 1207.2,188.91 1186.9,164.31 1173.6,148.25"];
	158 -- 269	[pos="877.88,113.63 854.87,100.25 817.75,78.66 794.73,65.269"];
	158 -- 195	[pos="922.2,134.07 926.84,135.73 931.72,137.48 936.37,139.14"];
	186 -- 274	[pos="1119.4,757.49 1156.5,761.04 1222.8,767.37 1259.8,770.9"];
	274 -- 287	[pos="1307.4,761.67 1315.6,757.06 1324.9,751.78 1333.1,747.19"];
	160 -- 285	[pos="1423.6,272.46 1406.6,255.42 1379.2,227.95 1362.2,210.9"];
	160 -- 244	[pos="1446.9,305.25 1455.3,323.17 1468.3,350.8 1476.6,368.67"];
	160 -- 280	[pos="1449.1,304.45 1467.9,334.67 1507.2,397.84 1526,427.97"];
	226 -- 264	[pos="1422.9,458.02 1399.9,424.92 1347.9,350.27 1324.8,317.1"];
	226 -- 240	[pos="1434.6,492.79 1434.9,511.56 1435.4,540.48 1435.8,559.19"];
	171 -- 245	[pos="257.43,606.55 268.99,636.4 292.35,696.78 303.95,726.75"];
	171 -- 276	[pos="254.18,571.11 259.18,545.75 268.26,499.67 273.27,474.24"];
	171 -- 270	[pos="253.62,607.08 256.83,626.66 261.93,657.73 265.15,677.34"];
	174 -- 179	[pos="439.44,76.193 426.92,82.611 411.2,90.664 398.69,97.075"];
	174 -- 208	[pos="488.42,65.09 494.63,65.083 501.21,65.075 507.41,65.067"];
	174 -- 232	[pos="486.84,59.312 518.3,52.223 571.17,40.31 602.65,33.218"];
	174 -- 225	[pos="440.31,76.979 412.31,92.985 362.71,121.34 334.76,137.32"];
	232 -- 298	[pos="655.28,23.9 661.36,23.106 667.81,22.264 673.88,21.472"];
	183 -- 206	[pos="461.65,1082.8 440.16,1078.2 409.77,1071.8 388.28,1067.2"];
	209 -- 225	[pos="240.95,198.01 256.79,187.42 279.19,172.45 295.03,161.87"];
	180 -- 279	[pos="1367.2,327.19 1374.2,308.07 1385.3,277.73 1392.3,258.58"];
	180 -- 231	[pos="1348.8,328.62 1337.1,312.77 1319.3,288.77 1307.6,272.85"];
	180 -- 244	[pos="1385,352.89 1406.7,360.12 1438.4,370.67 1460.2,377.94"];
	182 -- 293	[pos="27.734,596.39 28.092,564.33 28.832,498.06 29.191,466.02"];
	182 -- 227	[pos="52.38,621.66 70.807,626.95 95.831,634.12 114.33,639.43"];
	244 -- 246	[pos="1495,402.91 1508,424.42 1530.4,461.51 1543.4,483.05"];
	244 -- 285	[pos="1473.1,369.88 1447.1,334 1385.1,248.26 1358.9,212.16"];
	244 -- 279	[pos="1474.8,369.17 1458.2,341.18 1425.3,285.62 1408.7,257.7"];
	244 -- 280	[pos="1498.6,401.8 1506,410.2 1515.1,420.52 1522.5,428.92"];
	192 -- 223	[pos="588.21,938.85 638.62,953.67 752.29,987.09 802.8,1001.9"];
	254 -- 267	[pos="1497.4,708.06 1500.5,707.96 1503.7,707.86 1506.8,707.76"];
	215 -- 273	[pos="357.13,631.72 351.45,618.13 343.63,599.4 337.95,585.81"];
	200 -- 241	[pos="953.82,174.16 944.68,148.05 927.6,99.309 918.38,72.991"];
	200 -- 275	[pos="935.54,200.02 930.39,201.76 924.96,203.6 919.81,205.34"];
	200 -- 268	[pos="968.54,174.47 981.08,149.13 1004.3,102.18 1016.9,76.844"];
	243 -- 292	[pos="1104.7,1027.4 1106.7,992 1111,914.02 1113,878.59"];
	257 -- 277	[pos="556.63,127.61 549.72,145.69 539.07,173.56 532.18,191.59"];
	272 -- 296	[pos="1385.2,650.79 1406.1,653.39 1435.2,657 1456.1,659.61"];
}
