graph {
	graph [bb="0,0,1433.2,1200.9",
		outputorder=edgesfirst,
		overlap=prism,
		size="50,50!",
		start=4245
	];
	node [label="\N"];
	0	[height=0.5,
		pos="1042.2,732.66",
		width=0.75];
	50	[height=0.5,
		pos="1088.6,512.53",
		width=0.75];
	0 -- 50	[pos="1046,714.64 1054.7,673.26 1076.1,571.81 1084.8,530.48"];
	81	[height=0.5,
		pos="1228.1,777.68",
		width=0.75];
	0 -- 81	[pos="1067.6,738.82 1103.1,747.42 1167.1,762.92 1202.6,771.52"];
	85	[height=0.5,
		pos="1166.1,757.48",
		width=0.75];
	0 -- 85	[pos="1068.2,737.86 1089.3,742.1 1119,748.05 1140.1,752.28"];
	88	[height=0.5,
		pos="1104,788.05",
		width=0.75];
	0 -- 88	[pos="1058.4,747.21 1067.5,755.29 1078.6,765.31 1087.7,773.4"];
	104	[height=0.5,
		pos="1059.4,423.95",
		width=0.75];
	0 -- 104	[pos="1043.2,714.27 1046.3,659.36 1055.4,497.02 1058.4,442.24"];
	108	[height=0.5,
		pos="909.09,543.73",
		width=0.75];
	0 -- 108	[pos="1030.6,716.22 1005.4,680.49 945.97,596.08 920.74,560.26"];
	112	[height=0.5,
		pos="1198,546.51",
		width=0.75];
	0 -- 112	[pos="1055.5,716.79 1084.9,681.62 1155.4,597.47 1184.8,562.34"];
	114	[height=0.5,
		pos="1137.6,467.94",
		width=0.75];
	0 -- 114	[pos="1048.6,714.88 1066,666.65 1113.9,533.78 1131.2,485.65"];
	119	[height=0.5,
		pos="947.23,648.37",
		width=0.75];
	0 -- 119	[pos="1025.6,717.98 1008.2,702.51 980.94,678.29 963.58,662.89"];
	128	[height=0.5,
		pos="1203.6,647.09",
		width=0.75];
	0 -- 128	[pos="1063.6,721.29 1094.6,704.88 1151.5,674.73 1182.3,658.37"];
	129	[height=0.5,
		pos="1142.8,876.14",
		width=0.75];
	0 -- 129	[pos="1053.7,749.12 1073,776.65 1111.6,831.74 1131.1,859.43"];
	135	[height=0.5,
		pos="1042,784.49",
		width=0.75];
	0 -- 135	[pos="1042.1,750.79 1042.1,755.81 1042.1,761.26 1042.1,766.29"];
	150	[height=0.5,
		pos="972.64,604.33",
		width=0.75];
	0 -- 150	[pos="1033,715.62 1019.7,691.07 995.24,646.03 981.91,621.44"];
	153	[height=0.5,
		pos="955.31,792.51",
		width=0.75];
	0 -- 153	[pos="1023.3,745.65 1008.8,755.69 988.68,769.52 974.12,779.55"];
	188	[height=0.5,
		pos="1184.6,602.7",
		width=0.75];
	0 -- 188	[pos="1058.2,718 1085.6,693.04 1140.9,642.56 1168.4,617.5"];
	190	[height=0.5,
		pos="1221.4,691.13",
		width=0.75];
	0 -- 190	[pos="1067.9,726.71 1101.9,718.81 1161.7,704.96 1195.8,697.07"];
	204	[height=0.5,
		pos="876.92,829.68",
		width=0.75];
	0 -- 204	[pos="1021.9,744.55 990.2,763.18 929.17,799.01 897.35,817.69"];
	245	[height=0.5,
		pos="977.35,882.07",
		width=0.75];
	0 -- 245	[pos="1034.6,750.09 1022.1,778.88 997.32,836.03 984.86,864.75"];
	246	[height=0.5,
		pos="1283.5,733.64",
		width=0.75];
	0 -- 246	[pos="1069.4,732.77 1115.9,732.96 1210,733.34 1256.4,733.53"];
	1	[height=0.5,
		pos="839.42,538.56",
		width=0.75];
	51	[height=0.5,
		pos="734.67,461.6",
		width=0.75];
	1 -- 51	[pos="821.18,525.15 802.07,511.12 772.22,489.19 753.06,475.11"];
	62	[height=0.5,
		pos="801.57,650.36",
		width=0.75];
	1 -- 62	[pos="833.34,556.52 826.28,577.39 814.69,611.6 807.64,632.44"];
	72	[height=0.5,
		pos="739.56,670.34",
		width=0.75];
	1 -- 72	[pos="827.18,554.72 808.01,580.01 771.13,628.68 751.91,654.05"];
	74	[height=0.5,
		pos="665.26,387.31",
		width=0.75];
	1 -- 74	[pos="822.72,524.06 789.43,495.15 715.16,430.64 681.91,401.77"];
	76	[height=0.5,
		pos="978.62,386.31",
		width=0.75];
	1 -- 76	[pos="853.54,523.12 880.22,493.94 937.76,431 964.47,401.79"];
	77	[height=0.5,
		pos="1067.3,468.31",
		width=0.75];
	1 -- 77	[pos="864.24,530.91 908.06,517.39 998.67,489.46 1042.5,475.95"];
	80	[height=0.5,
		pos="727.26,417.58",
		width=0.75];
	1 -- 80	[pos="825.22,523.24 803.76,500.09 763.3,456.46 741.71,433.16"];
	84	[height=0.5,
		pos="1074.5,650.96",
		width=0.75];
	1 -- 84	[pos="861.53,549.13 906.33,570.56 1007.3,618.87 1052.2,640.33"];
	87	[height=0.5,
		pos="1079.7,606.7",
		width=0.75];
	1 -- 87	[pos="864.68,545.72 910.94,558.84 1008.7,586.58 1054.7,599.63"];
	90	[height=0.5,
		pos="914.36,373.37",
		width=0.75];
	1 -- 90	[pos="847.3,521.19 861.69,489.47 892.08,422.49 906.47,390.75"];
	96	[height=0.5,
		pos="803.76,457.26",
		width=0.75];
	1 -- 96	[pos="831.68,520.92 825.66,507.19 817.35,488.24 811.36,474.59"];
	102	[height=0.5,
		pos="859.99,694.37",
		width=0.75];
	1 -- 102	[pos="841.82,556.74 845.79,586.76 853.65,646.36 857.61,676.31"];
	117	[height=0.5,
		pos="976.65,430.58",
		width=0.75];
	1 -- 117	[pos="857.08,524.66 883.43,503.93 932.75,465.12 959.06,444.42"];
	1 -- 119	[pos="854.41,553.83 875.01,574.81 911.84,612.32 932.37,633.23"];
	139	[height=0.5,
		pos="770.71,549.64",
		width=0.75];
	1 -- 139	[pos="813.05,542.81 807.91,543.64 802.51,544.51 797.35,545.34"];
	1 -- 150	[pos="861.12,549.27 885.75,561.43 925.7,581.16 950.51,593.4"];
	151	[height=0.5,
		pos="816.61,367",
		width=0.75];
	1 -- 151	[pos="837.02,520.52 832.64,487.57 823.39,418.01 819.01,385.05"];
	164	[height=0.5,
		pos="633.02,435.17",
		width=0.75];
	1 -- 164	[pos="817.72,527.69 778.08,507.83 694.39,465.91 654.74,446.04"];
	167	[height=0.5,
		pos="649.08,480.54",
		width=0.75];
	1 -- 167	[pos="814.54,530.97 777.96,519.83 710.08,499.14 673.66,488.04"];
	173	[height=0.5,
		pos="750.64,366.98",
		width=0.75];
	1 -- 173	[pos="830.59,521.48 813.61,488.68 776.62,417.19 759.58,384.24"];
	177	[height=0.5,
		pos="979.96,742.03",
		width=0.75];
	1 -- 177	[pos="850.92,555.21 877.34,593.46 942.12,687.24 968.5,725.43"];
	178	[height=0.5,
		pos="596.5,613.5",
		width=0.75];
	1 -- 178	[pos="814.79,546.16 768.23,560.52 667.8,591.5 621.19,605.88"];
	181	[height=0.5,
		pos="735.26,505.62",
		width=0.75];
	1 -- 181	[pos="815,530.84 798.4,525.59 776.53,518.67 759.89,513.41"];
	191	[height=0.5,
		pos="835.38,605.58",
		width=0.75];
	1 -- 191	[pos="838.32,556.87 837.75,566.33 837.06,577.84 836.49,587.29"];
	200	[height=0.5,
		pos="1009.7,688.61",
		width=0.75];
	1 -- 200	[pos="855.75,552.95 888.22,581.55 960.57,645.29 993.2,674.05"];
	223	[height=0.5,
		pos="1034.6,562.66",
		width=0.75];
	1 -- 223	[pos="866.16,541.86 903.44,546.46 970.64,554.76 1007.9,559.36"];
	226	[height=0.5,
		pos="1000,518.64",
		width=0.75];
	1 -- 226	[pos="866.3,535.23 896.04,531.54 943.66,525.63 973.32,521.95"];
	227	[height=0.5,
		pos="690.79,626.3",
		width=0.75];
	1 -- 227	[pos="819.07,550.57 790.76,567.28 739.8,597.37 711.38,614.15"];
	232	[height=0.5,
		pos="773.32,593.68",
		width=0.75];
	1 -- 232	[pos="822.4,552.75 812.61,560.92 800.34,571.15 790.52,579.34"];
	235	[height=0.5,
		pos="852.33,411.05",
		width=0.75];
	1 -- 235	[pos="841.24,520.56 843.69,496.4 848.01,453.7 850.48,429.37"];
	242	[height=0.5,
		pos="793.12,716.47",
		width=0.75];
	1 -- 242	[pos="834.73,556.6 825.83,590.78 806.61,664.63 797.76,698.65"];
	249	[height=0.5,
		pos="996.23,474.61",
		width=0.75];
	1 -- 249	[pos="862.56,529.12 892.21,517.03 943.31,496.2 973,484.09"];
	2	[height=0.5,
		pos="422.32,346",
		width=0.75];
	52	[height=0.5,
		pos="295.76,384.77",
		width=0.75];
	2 -- 52	[pos="397.61,353.56 375.31,360.4 342.68,370.39 320.4,377.22"];
	61	[height=0.5,
		pos="329.93,265.35",
		width=0.75];
	2 -- 61	[pos="405.8,331.58 389.09,316.99 363.38,294.55 346.61,279.91"];
	63	[height=0.5,
		pos="600.62,235.96",
		width=0.75];
	2 -- 63	[pos="442.42,333.59 476.76,312.4 546.3,269.48 580.59,248.32"];
	93	[height=0.5,
		pos="376.46,484.14",
		width=0.75];
	2 -- 93	[pos="416.42,363.77 407.61,390.3 391.13,439.94 382.34,466.43"];
	103	[height=0.5,
		pos="318.57,440.12",
		width=0.75];
	2 -- 103	[pos="406.1,360.7 386.61,378.39 354.1,407.88 334.66,425.52"];
	118	[height=0.5,
		pos="240.01,334.83",
		width=0.75];
	2 -- 118	[pos="395.42,344.35 360.95,342.24 301.54,338.6 267.02,336.48"];
	122	[height=0.5,
		pos="471.99,96.316",
		width=0.75];
	2 -- 122	[pos="425.89,328.04 435.03,282.08 459.2,160.59 468.38,114.45"];
	144	[height=0.5,
		pos="392.93,269.89",
		width=0.75];
	2 -- 144	[pos="415.5,328.34 410.75,316.05 404.45,299.72 399.71,287.44"];
	152	[height=0.5,
		pos="359.28,313.89",
		width=0.75];
	2 -- 152	[pos="400.62,334.95 394.21,331.68 387.2,328.11 380.8,324.85"];
	2 -- 164	[pos="445.27,355.71 485.8,372.86 569.59,408.32 610.1,425.47"];
	179	[height=0.5,
		pos="405.98,129.95",
		width=0.75];
	2 -- 179	[pos="420.95,327.95 417.88,287.28 410.44,188.86 407.35,148.1"];
	193	[height=0.5,
		pos="504.66,417.71",
		width=0.75];
	2 -- 193	[pos="438.98,360.51 453.26,372.95 473.74,390.78 488.02,403.22"];
	208	[height=0.5,
		pos="537.05,197.79",
		width=0.75];
	2 -- 208	[pos="434.81,329.85 456.88,301.35 502.51,242.41 524.57,213.92"];
	3	[height=0.5,
		pos="740.94,822.32",
		width=0.75];
	53	[height=0.5,
		pos="949.31,979.53",
		width=0.75];
	3 -- 53	[pos="759.07,835.99 798.58,865.8 892.04,936.32 931.38,966"];
	54	[height=0.5,
		pos="1115,832.06",
		width=0.75];
	3 -- 54	[pos="768.15,823.03 837.25,824.83 1018.9,829.56 1087.9,831.36"];
	3 -- 62	[pos="747.2,804.56 758.85,771.53 783.72,700.98 795.34,668.02"];
	73	[height=0.5,
		pos="866.48,953.11",
		width=0.75];
	3 -- 73	[pos="755.59,837.58 779.78,862.78 827.8,912.81 851.93,937.95"];
	78	[height=0.5,
		pos="1042,891.15",
		width=0.75];
	3 -- 78	[pos="766.61,828.18 823.5,841.19 959.6,872.3 1016.4,885.29"];
	98	[height=0.5,
		pos="658.15,670.4",
		width=0.75];
	3 -- 98	[pos="731.61,805.18 715.71,776.01 683.55,716.99 667.58,687.7"];
	99	[height=0.5,
		pos="587.87,809.22",
		width=0.75];
	3 -- 99	[pos="713.93,820.01 686.04,817.62 642.76,813.92 614.87,811.53"];
	101	[height=0.5,
		pos="532.58,754.33",
		width=0.75];
	3 -- 101	[pos="716.63,814.38 676.59,801.32 597.21,775.42 557.06,762.32"];
	105	[height=0.5,
		pos="926.31,697.99",
		width=0.75];
	3 -- 105	[pos="760.08,809.48 795.69,785.6 871.74,734.59 907.27,710.76"];
	3 -- 135	[pos="767.66,818.96 824.8,811.78 958.28,795.01 1015.4,787.84"];
	137	[height=0.5,
		pos="989.04,838.04",
		width=0.75];
	3 -- 137	[pos="767.97,824.03 815.69,827.06 914.35,833.31 962.05,836.33"];
	3 -- 153	[pos="767.66,818.6 808.85,812.88 887.4,801.95 928.59,796.23"];
	155	[height=0.5,
		pos="886.73,1017.1",
		width=0.75];
	3 -- 155	[pos="753.12,838.59 780.56,875.26 846.98,964 874.48,1000.8"];
	166	[height=0.5,
		pos="718.72,714.43",
		width=0.75];
	3 -- 166	[pos="737.17,804.01 733.06,784.05 726.52,752.31 722.43,732.46"];
	171	[height=0.5,
		pos="596.09,671.13",
		width=0.75];
	3 -- 171	[pos="726.26,806.99 698.49,778.01 638.61,715.51 610.82,686.5"];
	217	[height=0.5,
		pos="650.2,853.23",
		width=0.75];
	3 -- 217	[pos="716.62,830.6 703.5,835.07 687.35,840.57 674.27,845.03"];
	243	[height=0.5,
		pos="778.05,866.32",
		width=0.75];
	3 -- 243	[pos="754.34,838.2 757.74,842.24 761.4,846.58 764.8,850.6"];
	4	[height=0.5,
		pos="675.77,553.36",
		width=0.75];
	4 -- 51	[pos="686.58,536.53 697.2,519.98 713.33,494.85 723.94,478.33"];
	55	[height=0.5,
		pos="761.62,322.96",
		width=0.75];
	4 -- 55	[pos="682.37,535.66 698.34,492.78 739,383.67 755,340.72"];
	68	[height=0.5,
		pos="565.4,520.12",
		width=0.75];
	4 -- 68	[pos="651,545.9 632.82,540.43 608.24,533.02 590.09,527.56"];
	89	[height=0.5,
		pos="534.06,657.35",
		width=0.75];
	4 -- 89	[pos="657.54,566.74 630.32,586.71 579.39,624.08 552.22,644.02"];
	4 -- 98	[pos="673.06,571.39 669.76,593.32 664.22,630.13 660.9,652.15"];
	141	[height=0.5,
		pos="502.28,562.33",
		width=0.75];
	4 -- 141	[pos="648.66,554.76 616.17,556.44 562.03,559.24 529.49,560.92"];
	154	[height=0.5,
		pos="914.49,419.96",
		width=0.75];
	4 -- 154	[pos="696.54,541.76 741.69,516.53 848.34,456.92 893.6,431.63"];
	156	[height=0.5,
		pos="863.6,649.62",
		width=0.75];
	4 -- 156	[pos="697.32,564.4 733.45,582.92 805.86,620.03 842.02,638.56"];
	4 -- 166	[pos="680.53,571.21 688.79,602.17 705.67,665.48 713.94,696.49"];
	170	[height=0.5,
		pos="526.09,710.09",
		width=0.75];
	4 -- 170	[pos="661.15,568.67 632.6,598.56 569.76,664.36 540.99,694.48"];
	174	[height=0.5,
		pos="789.73,411.02",
		width=0.75];
	4 -- 174	[pos="688.62,537.31 710.51,509.97 754.78,454.67 776.75,427.23"];
	176	[height=0.5,
		pos="539.16,476.08",
		width=0.75];
	4 -- 176	[pos="655.02,541.62 629.35,527.1 585.87,502.51 560.11,487.93"];
	4 -- 181	[pos="693.3,539.3 700.97,533.14 709.97,525.92 717.65,519.75"];
	182	[height=0.5,
		pos="532.04,361.86",
		width=0.75];
	4 -- 182	[pos="663.52,537.03 636.36,500.85 571.39,414.29 544.26,378.15"];
	189	[height=0.5,
		pos="864.27,738.43",
		width=0.75];
	4 -- 189	[pos="691.2,568.51 726.63,603.3 813.51,688.59 848.9,723.33"];
	4 -- 193	[pos="658.1,539.35 625.23,513.29 555.03,457.64 522.23,431.64"];
	195	[height=0.5,
		pos="594.63,754.08",
		width=0.75];
	4 -- 195	[pos="668.71,570.82 653.37,608.78 617.11,698.46 601.73,736.52"];
	231	[height=0.5,
		pos="598.95,387.08",
		width=0.75];
	4 -- 231	[pos="667.7,535.88 652.9,503.86 621.63,436.17 606.92,404.33"];
	241	[height=0.5,
		pos="740.73,761.04",
		width=0.75];
	4 -- 241	[pos="681.31,571.07 693.58,610.31 722.94,704.19 735.2,743.38"];
	5	[height=0.5,
		pos="660.27,802.23",
		width=0.75];
	56	[height=0.5,
		pos="610.75,569.2",
		width=0.75];
	5 -- 56	[pos="656.47,784.33 647.25,740.96 623.8,630.6 614.57,587.16"];
	65	[height=0.5,
		pos="593.79,927.52",
		width=0.75];
	5 -- 65	[pos="651.17,819.39 638.51,843.25 615.71,886.2 602.99,910.17"];
	5 -- 72	[pos="670.47,785.26 685.7,759.93 714.19,712.54 729.4,687.25"];
	95	[height=0.5,
		pos="805.91,997.15",
		width=0.75];
	5 -- 95	[pos="672.44,818.51 699.85,855.2 766.2,944 793.67,980.78"];
	113	[height=0.5,
		pos="824.67,1041.2",
		width=0.75];
	5 -- 113	[pos="671.57,818.65 701.61,862.31 783.17,980.86 813.3,1024.6"];
	132	[height=0.5,
		pos="719.62,949.31",
		width=0.75];
	5 -- 132	[pos="667.31,819.68 678.74,847.99 701.17,903.59 712.59,931.88"];
	157	[height=0.5,
		pos="463.81,818.42",
		width=0.75];
	5 -- 157	[pos="633.37,804.45 595.85,807.54 528.22,813.11 490.71,816.2"];
	158	[height=0.5,
		pos="994.6,935.16",
		width=0.75];
	5 -- 158	[pos="683.52,811.47 744.67,835.79 909.58,901.35 971.07,925.8"];
	165	[height=0.5,
		pos="635.72,980.65",
		width=0.75];
	5 -- 165	[pos="657.78,820.32 653.08,854.52 642.92,928.28 638.21,962.51"];
	203	[height=0.5,
		pos="464.08,690.49",
		width=0.75];
	5 -- 203	[pos="639.65,790.48 601.97,769.02 522.41,723.71 484.72,702.24"];
	5 -- 204	[pos="686.84,805.6 728.42,810.86 808.42,821 850.14,826.29"];
	219	[height=0.5,
		pos="755.2,1051.2",
		width=0.75];
	5 -- 219	[pos="666.95,819.74 684.38,865.46 731.11,988.05 748.54,1033.8"];
	5 -- 227	[pos="663.42,784.06 669.29,750.26 681.81,678.09 687.66,644.36"];
	5 -- 243	[pos="681.33,813.69 702.63,825.28 735.4,843.11 756.78,854.74"];
	248	[height=0.5,
		pos="463.42,747.06",
		width=0.75];
	5 -- 248	[pos="635.34,795.24 597.58,784.66 526.28,764.68 488.46,754.08"];
	6	[height=0.5,
		pos="772.88,265.69",
		width=0.75];
	57	[height=0.5,
		pos="589.62,317.82",
		width=0.75];
	6 -- 57	[pos="747.78,272.83 712.79,282.79 649.7,300.73 614.71,310.68"];
	60	[height=0.5,
		pos="657.65,131.18",
		width=0.75];
	6 -- 60	[pos="759.44,250 737.35,224.22 693.63,173.18 671.37,147.19"];
	6 -- 63	[pos="746.72,261.18 714.34,255.59 659.52,246.13 627.03,240.52"];
	6 -- 104	[pos="793.95,277.33 846.95,306.6 985.31,383.01 1038.3,412.3"];
	125	[height=0.5,
		pos="1036.6,323.58",
		width=0.75];
	6 -- 125	[pos="798.65,271.35 849.07,282.41 960.24,306.81 1010.7,317.9"];
	159	[height=0.5,
		pos="863.66,95.614",
		width=0.75];
	6 -- 159	[pos="782.08,248.45 799.53,215.77 837.2,145.17 854.56,112.65"];
	6 -- 173	[pos="768.9,283.8 764.86,302.24 758.62,330.65 754.58,349.03"];
	175	[height=0.5,
		pos="860.17,139.63",
		width=0.75];
	6 -- 175	[pos="784.29,249.21 801.02,225.05 832.02,180.28 848.75,156.12"];
	183	[height=0.5,
		pos="845.58,227.69",
		width=0.75];
	6 -- 183	[pos="794.3,254.5 803.68,249.59 814.67,243.85 824.06,238.94"];
	202	[height=0.5,
		pos="940.67,241.34",
		width=0.75];
	6 -- 202	[pos="799.47,261.83 830.88,257.28 882.84,249.74 914.2,245.18"];
	210	[height=0.5,
		pos="794.13,138.27",
		width=0.75];
	6 -- 210	[pos="775.88,247.71 779.93,223.42 787.1,180.4 791.14,156.16"];
	7	[height=0.5,
		pos="401.79,817.39",
		width=0.75];
	58	[height=0.5,
		pos="226.91,881.72",
		width=0.75];
	7 -- 58	[pos="377.84,826.2 344.35,838.52 283.91,860.76 250.57,873.02"];
	59	[height=0.5,
		pos="253.58,697.48",
		width=0.75];
	7 -- 59	[pos="384.5,803.4 355.94,780.3 299.25,734.43 270.76,711.38"];
	82	[height=0.5,
		pos="400.11,884.94",
		width=0.75];
	7 -- 82	[pos="401.34,835.5 401.1,845.19 400.8,857.09 400.56,866.79"];
	7 -- 99	[pos="428.85,816.21 464.13,814.66 525.49,811.96 560.78,810.41"];
	133	[height=0.5,
		pos="507.7,928.16",
		width=0.75];
	7 -- 133	[pos="416.52,832.8 436.75,853.96 472.93,891.8 493.1,912.89"];
	146	[height=0.5,
		pos="457.91,1062.6",
		width=0.75];
	7 -- 146	[pos="405.92,835.42 416.3,880.76 443.39,999.13 453.77,1044.5"];
	147	[height=0.5,
		pos="213.62,758.18",
		width=0.75];
	7 -- 147	[pos="377.19,809.65 341.13,798.31 274.29,777.27 238.23,765.93"];
	160	[height=0.5,
		pos="156.26,621.66",
		width=0.75];
	7 -- 160	[pos="384.13,803.32 338.83,767.2 218.89,671.58 173.76,635.61"];
	169	[height=0.5,
		pos="445.49,928.98",
		width=0.75];
	7 -- 169	[pos="408.62,834.83 416.78,855.67 430.36,890.35 438.56,911.3"];
	198	[height=0.5,
		pos="233.35,836.95",
		width=0.75];
	7 -- 198	[pos="375.1,820.49 343.65,824.14 291.71,830.17 260.19,833.83"];
	213	[height=0.5,
		pos="171.34,804.4",
		width=0.75];
	7 -- 213	[pos="374.45,815.85 329.98,813.34 242.51,808.41 198.29,805.92"];
	234	[height=0.5,
		pos="333.6,642.96",
		width=0.75];
	7 -- 234	[pos="394.88,799.71 381.77,766.19 353.47,693.79 340.43,660.43"];
	239	[height=0.5,
		pos="266.89,927.07",
		width=0.75];
	7 -- 239	[pos="384.43,831.51 358.53,852.57 310.05,891.98 284.18,913.01"];
	8	[height=0.5,
		pos="177.95,378.71",
		width=0.75];
	8 -- 61	[pos="195.98,365.26 225.23,343.44 282.68,300.59 311.92,278.78"];
	115	[height=0.5,
		pos="50.455,460.24",
		width=0.75];
	8 -- 115	[pos="158.31,391.27 134.42,406.55 94.321,432.19 70.328,447.53"];
	8 -- 160	[pos="176.32,396.97 172.29,442.11 161.9,558.51 157.88,603.52"];
	161	[height=0.5,
		pos="73.266,580.98",
		width=0.75];
	8 -- 161	[pos="169.02,395.96 149.24,434.17 101.92,525.61 82.168,563.78"];
	162	[height=0.5,
		pos="467.99,140.32",
		width=0.75];
	8 -- 162	[pos="195.22,364.51 246.81,322.11 399.34,196.75 450.81,154.44"];
	212	[height=0.5,
		pos="358.06,357.91",
		width=0.75];
	8 -- 212	[pos="204.91,375.6 238.97,371.67 297.21,364.94 331.21,361.02"];
	9	[height=0.5,
		pos="1041,379.37",
		width=0.75];
	9 -- 55	[pos="1015,374.11 961.76,363.37 840.97,338.98 787.69,328.23"];
	64	[height=0.5,
		pos="1279,383.09",
		width=0.75];
	9 -- 64	[pos="1068.3,379.8 1114.1,380.51 1205.8,381.95 1251.6,382.67"];
	9 -- 105	[pos="1034.7,396.95 1014.7,452.66 952.65,624.83 932.62,680.46"];
	9 -- 117	[pos="1023.5,393.36 1014.4,400.59 1003.3,409.38 994.22,416.6"];
	126	[height=0.5,
		pos="1045.1,215.38",
		width=0.75];
	9 -- 126	[pos="1041.5,361.19 1042.3,329.67 1043.9,265.22 1044.6,233.64"];
	163	[height=0.5,
		pos="919.1,285.35",
		width=0.75];
	9 -- 163	[pos="1023.3,365.7 1000.2,347.87 959.99,316.87 936.86,299.04"];
	9 -- 174	[pos="1014.2,382.76 965.78,388.85 864.66,401.58 816.43,407.65"];
	197	[height=0.5,
		pos="974.56,329.37",
		width=0.75];
	9 -- 197	[pos="1022.9,365.71 1013.5,358.65 1002.1,350.07 992.71,343.01"];
	218	[height=0.5,
		pos="1160.8,332.72",
		width=0.75];
	9 -- 218	[pos="1064.4,370.26 1085.5,362.04 1116.4,350.02 1137.5,341.8"];
	221	[height=0.5,
		pos="1291.2,439.85",
		width=0.75];
	9 -- 221	[pos="1066.9,385.61 1114.9,397.23 1217.6,422.04 1265.5,433.64"];
	236	[height=0.5,
		pos="1216.1,382.1",
		width=0.75];
	9 -- 236	[pos="1068.4,379.8 1101.3,380.31 1156.2,381.17 1189,381.68"];
	9 -- 249	[pos="1032.8,396.84 1024.7,414.02 1012.5,440.11 1004.4,457.26"];
	10	[height=0.5,
		pos="525.82,798.38",
		width=0.75];
	10 -- 65	[pos="534.84,815.53 547.84,840.23 571.7,885.56 584.72,910.3"];
	10 -- 82	[pos="507,811.34 483.3,827.66 442.82,855.53 419.06,871.9"];
	10 -- 89	[pos="526.88,780.23 528.46,753.15 531.42,702.47 533,675.43"];
	91	[height=0.5,
		pos="687.41,1068.7",
		width=0.75];
	10 -- 91	[pos="535.93,815.29 564.95,863.83 648.29,1003.3 677.3,1051.8"];
	116	[height=0.5,
		pos="377.67,749.38",
		width=0.75];
	10 -- 116	[pos="501.36,790.29 473.91,781.21 429.63,766.57 402.17,757.48"];
	121	[height=0.5,
		pos="447.69,1017.1",
		width=0.75];
	10 -- 121	[pos="519.56,815.91 504.93,856.87 468.64,958.48 453.98,999.53"];
	134	[height=0.5,
		pos="339.73,793.47",
		width=0.75];
	10 -- 134	[pos="498.76,797.66 463.48,796.73 402.12,795.12 366.83,794.19"];
	10 -- 165	[pos="535.96,815.2 556.9,849.92 604.69,929.18 625.6,963.87"];
	168	[height=0.5,
		pos="655.96,936.64",
		width=0.75];
	10 -- 168	[pos="540.24,813.7 565.26,840.28 616.41,894.62 641.47,921.24"];
	10 -- 169	[pos="515.48,815.18 500.06,840.26 471.19,887.2 455.78,912.23"];
	10 -- 170	[pos="525.87,780.08 525.92,764.93 525.99,743.5 526.03,728.36"];
	192	[height=0.5,
		pos="588.12,883.48",
		width=0.75];
	10 -- 192	[pos="537.83,814.79 548.86,829.85 565.12,852.07 576.14,867.12"];
	205	[height=0.5,
		pos="435.22,625.99",
		width=0.75];
	10 -- 205	[pos="516.8,781.22 499.44,748.18 461.54,676.07 444.2,643.08"];
	10 -- 217	[pos="548.34,808.31 570.74,818.19 604.93,833.27 627.42,843.18"];
	11	[height=0.5,
		pos="380.62,404.96",
		width=0.75];
	66	[height=0.5,
		pos="322.13,165.67",
		width=0.75];
	11 -- 66	[pos="376.22,386.97 365.36,342.52 337.33,227.87 326.5,183.54"];
	83	[height=0.5,
		pos="353.91,528.17",
		width=0.75];
	11 -- 83	[pos="376.73,422.88 371.67,446.24 362.87,486.86 357.8,510.24"];
	11 -- 144	[pos="382.28,386.74 384.63,360.96 388.9,314.1 391.26,288.25"];
	145	[height=0.5,
		pos="102.73,516.08",
		width=0.75];
	11 -- 145	[pos="357.4,414.24 305.09,435.16 178.51,485.78 126.08,506.74"];
	11 -- 171	[pos="393.45,420.81 431.68,468.04 544.55,607.47 583.05,655.02"];
	196	[height=0.5,
		pos="521.07,285.86",
		width=0.75];
	11 -- 196	[pos="397.56,390.59 424.55,367.7 477.03,323.2 504.07,300.28"];
	12	[height=0.5,
		pos="315.62,712.96",
		width=0.75];
	67	[height=0.5,
		pos="446.5,972.99",
		width=0.75];
	12 -- 67	[pos="324.41,730.42 348.25,777.79 413.95,908.32 437.74,955.6"];
	71	[height=0.5,
		pos="194.53,466.73",
		width=0.75];
	12 -- 71	[pos="307.11,695.64 284.87,650.43 225.26,529.22 203.03,484.03"];
	12 -- 93	[pos="320.4,695 331.77,652.23 360.36,544.7 371.71,502.01"];
	142	[height=0.5,
		pos="80.898,713.19",
		width=0.75];
	12 -- 142	[pos="288.24,712.98 243.01,713.03 153.22,713.12 108.11,713.16"];
	12 -- 161	[pos="294.54,701.48 248.7,676.52 140.42,617.55 94.473,592.53"];
	172	[height=0.5,
		pos="366.39,999.12",
		width=0.75];
	12 -- 172	[pos="318.8,730.86 327.92,782.25 354.1,929.85 363.22,981.23"];
	229	[height=0.5,
		pos="549.36,974.8",
		width=0.75];
	12 -- 229	[pos="329.54,728.55 371.12,775.12 494.04,912.82 535.52,959.28"];
	13	[height=0.5,
		pos="435.45,540.79",
		width=0.75];
	13 -- 59	[pos="418.66,555.25 384.02,585.1 304.93,653.23 270.32,683.05"];
	13 -- 68	[pos="461.75,536.61 484.14,533.05 516.18,527.95 538.69,524.37"];
	13 -- 101	[pos="443.4,558.27 461.66,598.41 506.43,696.83 524.66,736.92"];
	120	[height=0.5,
		pos="132.51,472.04",
		width=0.75];
	13 -- 120	[pos="409.88,534.99 352.82,522.04 215.63,490.9 158.33,477.9"];
	13 -- 152	[pos="429.47,522.99 415.23,480.57 379.44,373.94 365.23,331.61"];
	13 -- 176	[pos="455.45,528.32 473.81,516.86 500.88,499.97 519.23,488.52"];
	187	[height=0.5,
		pos="266.61,250.12",
		width=0.75];
	13 -- 187	[pos="425.64,523.91 395.8,472.53 306.32,318.49 276.45,267.06"];
	14	[height=0.5,
		pos="1058.6,944.57",
		width=0.75];
	14 -- 53	[pos="1034.1,952.42 1016.1,958.18 991.74,965.96 973.76,971.71"];
	69	[height=0.5,
		pos="825.42,1101.9",
		width=0.75];
	14 -- 69	[pos="1039.5,957.45 995.69,987.03 888.22,1059.6 844.44,1089.1"];
	127	[height=0.5,
		pos="895.36,1109.9",
		width=0.75];
	14 -- 127	[pos="1043.5,959.84 1012.4,991.34 941.46,1063.2 910.39,1094.7"];
	14 -- 177	[pos="1051.8,926.95 1036.9,888.55 1001.6,797.7 986.73,759.46"];
	186	[height=0.5,
		pos="1209.1,977.09",
		width=0.75];
	14 -- 186	[pos="1084.5,950.17 1112,956.12 1155.4,965.5 1183,971.47"];
	201	[height=0.5,
		pos="970.27,1047.1",
		width=0.75];
	14 -- 201	[pos="1044.8,960.59 1028.2,979.85 1000.5,1012 983.98,1031.2"];
	211	[height=0.5,
		pos="1248.4,932.57",
		width=0.75];
	14 -- 211	[pos="1085.8,942.85 1121.9,940.57 1185.2,936.56 1221.2,934.28"];
	233	[height=0.5,
		pos="887.48,1064.4",
		width=0.75];
	14 -- 233	[pos="1040,957.63 1007.1,980.68 939,1028.3 906.1,1051.4"];
	15	[height=0.5,
		pos="402.05,670.04",
		width=0.75];
	70	[height=0.5,
		pos="275.67,791.51",
		width=0.75];
	15 -- 70	[pos="386.55,684.93 362.29,708.25 315.63,753.1 291.29,776.49"];
	15 -- 83	[pos="396.05,652.36 386.82,625.17 369.26,573.39 359.99,546.08"];
	15 -- 103	[pos="395.63,652.38 380.1,609.58 340.56,500.7 325,457.84"];
	110	[height=0.5,
		pos="199.31,569.24",
		width=0.75];
	15 -- 110	[pos="380.35,659.25 341.43,639.9 260.19,599.51 221.16,580.1"];
	140	[height=0.5,
		pos="253.86,653.44",
		width=0.75];
	15 -- 140	[pos="375.21,667.03 348.36,664.02 307.28,659.42 280.5,656.42"];
	148	[height=0.5,
		pos="191.4,714.16",
		width=0.75];
	15 -- 148	[pos="376.22,675.45 335.79,683.91 258,700.21 217.44,708.7"];
	15 -- 178	[pos="427.07,662.76 464.41,651.9 534.29,631.58 571.57,620.74"];
	180	[height=0.5,
		pos="295.36,838.6",
		width=0.75];
	15 -- 180	[pos="391.43,686.82 370.98,719.13 326.35,789.63 305.94,821.89"];
	207	[height=0.5,
		pos="463.42,884.12",
		width=0.75];
	15 -- 207	[pos="407.17,687.92 418.75,728.32 446.82,826.23 458.35,866.44"];
	220	[height=0.5,
		pos="525.87,855.67",
		width=0.75];
	15 -- 220	[pos="413.03,686.51 436.47,721.65 491.15,803.62 514.73,838.96"];
	16	[height=0.5,
		pos="536.31,241.83",
		width=0.75];
	16 -- 60	[pos="552.42,227.14 575.63,205.97 618.23,167.13 641.47,145.94"];
	16 -- 71	[pos="516.95,254.57 456.94,294.06 274.4,414.18 214.09,453.86"];
	16 -- 179	[pos="519.54,227.43 494.51,205.95 447.68,165.75 422.69,144.3"];
	16 -- 182	[pos="535.66,260.06 534.85,282.75 533.48,321.26 532.68,343.85"];
	17	[height=0.5,
		pos="1098.7,333.82",
		width=0.75];
	75	[height=0.5,
		pos="1159.8,258.46",
		width=0.75];
	17 -- 75	[pos="1111.7,317.84 1122,305.05 1136.5,287.2 1146.8,274.42"];
	17 -- 77	[pos="1094.5,351.68 1088.5,377.4 1077.5,424.61 1071.5,450.37"];
	86	[height=0.5,
		pos="1013.1,259.42",
		width=0.75];
	17 -- 86	[pos="1082.2,319.47 1067.1,306.3 1044.7,286.88 1029.6,273.72"];
	17 -- 112	[pos="1106.9,351.22 1125.5,391.21 1171.3,489.24 1189.9,529.16"];
	130	[height=0.5,
		pos="969.3,197.32",
		width=0.75];
	17 -- 130	[pos="1084.1,318.43 1059.3,292.21 1009,239.19 984.04,212.87"];
	17 -- 154	[pos="1076.5,344.21 1041.1,360.77 972.25,392.95 936.79,409.53"];
	17 -- 183	[pos="1075.8,324.21 1027.7,304.06 916.81,257.55 868.63,237.35"];
	194	[height=0.5,
		pos="1341.6,394.1",
		width=0.75];
	17 -- 194	[pos="1124.3,340.16 1170.9,351.73 1269.4,376.18 1316,387.76"];
	17 -- 218	[pos="1125.8,333.34 1128.4,333.29 1131,333.25 1133.6,333.2"];
	225	[height=0.5,
		pos="1302.1,334.35",
		width=0.75];
	17 -- 225	[pos="1125.7,333.89 1164.6,333.99 1236,334.17 1275,334.27"];
	247	[height=0.5,
		pos="1113.7,208.82",
		width=0.75];
	17 -- 247	[pos="1100.9,315.64 1103.7,291.95 1108.7,250.73 1111.5,227.02"];
	18	[height=0.5,
		pos="1097.6,279.56",
		width=0.75];
	18 -- 75	[pos="1121.8,271.34 1126.3,269.81 1131,268.22 1135.5,266.69"];
	18 -- 76	[pos="1081,294.4 1058.3,314.8 1017.7,351.27 995.02,371.59"];
	18 -- 175	[pos="1077.3,267.63 1032.6,241.26 925.7,178.26 880.7,151.73"];
	184	[height=0.5,
		pos="1321.1,285.06",
		width=0.75];
	18 -- 184	[pos="1125,280.24 1168,281.3 1250.8,283.34 1293.8,284.39"];
	222	[height=0.5,
		pos="1063.5,134.37",
		width=0.75];
	18 -- 222	[pos="1093.4,261.76 1086.8,233.89 1074.2,180.28 1067.7,152.32"];
	230	[height=0.5,
		pos="1406.2,351.53",
		width=0.75];
	18 -- 230	[pos="1123.1,285.51 1181.1,299.05 1322.5,332.03 1380.6,345.58"];
	18 -- 247	[pos="1101.6,261.71 1104.1,251.07 1107.1,237.6 1109.6,226.91"];
	19	[height=0.5,
		pos="1152.5,712.57",
		width=0.75];
	19 -- 78	[pos="1142.2,729.37 1121.1,763.4 1073.6,840.15 1052.5,874.26"];
	79	[height=0.5,
		pos="1353.8,854.3",
		width=0.75];
	19 -- 79	[pos="1171.1,725.65 1209.4,752.58 1296.5,813.97 1335,841.05"];
	19 -- 87	[pos="1141.2,696.03 1127.5,676.14 1104.6,642.96 1091,623.13"];
	109	[height=0.5,
		pos="1153.9,423.59",
		width=0.75];
	19 -- 109	[pos="1152.6,694.49 1152.9,642.59 1153.6,493.55 1153.9,441.66"];
	124	[height=0.5,
		pos="1278.1,646.61",
		width=0.75];
	19 -- 124	[pos="1173.8,701.38 1196.9,689.25 1233.6,670.01 1256.7,657.86"];
	19 -- 156	[pos="1126.7,706.93 1071.8,694.98 944.44,667.23 889.54,655.27"];
	185	[height=0.5,
		pos="1185.9,927.75",
		width=0.75];
	19 -- 185	[pos="1155.3,730.54 1161.6,771.05 1176.8,869.08 1183.1,909.68"];
	19 -- 211	[pos="1160.2,730.2 1178.2,771.49 1222.9,874.08 1240.8,915.16"];
	20	[height=0.5,
		pos="1291.8,839.36",
		width=0.75];
	20 -- 81	[pos="1276.3,824.43 1266.5,814.87 1253.7,802.51 1243.8,792.9"];
	106	[height=0.5,
		pos="1269.8,588.25",
		width=0.75];
	20 -- 106	[pos="1290.2,821.3 1286.1,775.08 1275.4,652.89 1271.4,606.48"];
	20 -- 186	[pos="1281.6,856.25 1265.7,882.68 1235.2,933.55 1219.3,960.07"];
	20 -- 189	[pos="1266.3,833.35 1190.3,815.41 965.99,762.44 889.87,744.47"];
	21	[height=0.5,
		pos="1229.2,821.68",
		width=0.75];
	21 -- 79	[pos="1254.4,828.28 1276,833.94 1307,842.05 1328.6,847.71"];
	21 -- 84	[pos="1215.2,806.23 1185.9,773.89 1118.3,699.38 1088.8,666.75"];
	94	[height=0.5,
		pos="1345.6,730.03",
		width=0.75];
	21 -- 94	[pos="1246.8,807.76 1268.8,790.44 1306.2,761.03 1328.1,743.78"];
	21 -- 158	[pos="1207.1,832.36 1162.4,853.99 1061.6,902.76 1016.8,924.43"];
	21 -- 190	[pos="1228.1,803.53 1226.6,778.59 1223.9,733.99 1222.5,709.13"];
	21 -- 200	[pos="1208.9,809.4 1167.1,784.05 1071.7,726.19 1029.9,700.86"];
	22	[height=0.5,
		pos="803.15,782.44",
		width=0.75];
	22 -- 85	[pos="830.13,780.59 897.32,775.97 1071.5,763.98 1138.9,759.35"];
	92	[height=0.5,
		pos="658.3,342.69",
		width=0.75];
	22 -- 92	[pos="797.29,764.66 773.95,693.8 687.7,431.95 664.23,360.69"];
	22 -- 95	[pos="803.39,800.75 803.91,841.31 805.15,938.37 805.67,978.89"];
	22 -- 168	[pos="788.5,797.79 760.29,827.35 698.72,891.84 670.56,921.35"];
	22 -- 191	[pos="806.42,764.51 812.6,730.61 825.92,657.5 832.11,623.56"];
	23	[height=0.5,
		pos="823.66,315.75",
		width=0.75];
	23 -- 50	[pos="841.87,329.28 890.28,365.22 1021.7,462.85 1070.3,498.91"];
	23 -- 86	[pos="848.43,308.39 884.75,297.59 952.05,277.58 988.37,266.78"];
	23 -- 96	[pos="821.14,333.67 817.33,360.75 810.15,411.79 806.32,439.04"];
	23 -- 159	[pos="826.93,297.74 834.45,256.35 852.89,154.89 860.39,113.57"];
	23 -- 196	[pos="796.81,313.1 739.39,307.43 605.23,294.18 547.86,288.51"];
	23 -- 231	[pos="799.19,323.52 755.96,337.24 666.6,365.61 623.4,379.32"];
	24	[height=0.5,
		pos="709.14,278.78",
		width=0.75];
	24 -- 56	[pos="703.13,296.51 685.57,348.36 634.43,499.31 616.81,551.34"];
	24 -- 92	[pos="696.31,294.91 688.66,304.52 678.98,316.69 671.3,326.34"];
	24 -- 151	[pos="726.4,292.96 746.46,309.42 779.35,336.41 799.38,352.86"];
	24 -- 197	[pos="735.56,283.82 786.43,293.51 897.46,314.67 948.25,324.35"];
	24 -- 210	[pos="719.39,261.83 735.72,234.83 767.48,182.32 783.84,155.28"];
	228	[height=0.5,
		pos="861.2,22.541",
		width=0.75];
	24 -- 228	[pos="719.11,261.97 746.67,215.54 823.59,85.919 851.19,39.416"];
	25	[height=0.5,
		pos="262.52,609.42",
		width=0.75];
	25 -- 52	[pos="265.19,591.41 271.41,549.35 286.85,445.01 293.08,402.86"];
	97	[height=0.5,
		pos="47.061,669.01",
		width=0.75];
	25 -- 97	[pos="237.39,616.37 195.87,627.86 113.45,650.65 72.039,662.11"];
	25 -- 134	[pos="269.93,627.07 284.69,662.25 317.61,740.74 332.35,775.88"];
	25 -- 140	[pos="259,627.32 258.48,629.99 257.94,632.74 257.41,635.41"];
	25 -- 198	[pos="260.19,627.65 254.71,670.36 241.1,776.46 235.66,818.94"];
	206	[height=0.5,
		pos="27,625",
		width=0.75];
	25 -- 206	[pos="235.51,611.21 190.2,614.2 99.407,620.21 54.064,623.21"];
	237	[height=0.5,
		pos="256.55,477.35",
		width=0.75];
	25 -- 237	[pos="261.71,591.33 260.57,566.18 258.52,520.9 257.38,495.64"];
	25 -- 248	[pos="281.42,622.37 319.71,648.6 406.05,707.76 444.42,734.04"];
	26	[height=0.5,
		pos="663.86,232.08",
		width=0.75];
	26 -- 74	[pos="664.02,250.19 664.29,279.94 664.82,338.85 665.09,368.83"];
	100	[height=0.5,
		pos="799.19,28.908",
		width=0.75];
	26 -- 100	[pos="674.93,215.45 700.37,177.26 762.75,83.619 788.15,45.48"];
	26 -- 109	[pos="687.17,241.19 769.73,273.45 1047.7,382.08 1130.5,414.42"];
	26 -- 162	[pos="641.39,221.55 603.61,203.85 527.8,168.34 490.2,150.72"];
	199	[height=0.5,
		pos="622.07,179.27",
		width=0.75];
	26 -- 199	[pos="651.09,215.95 645.91,209.4 639.94,201.84 634.76,195.3"];
	27	[height=0.5,
		pos="902.77,889.29",
		width=0.75];
	27 -- 91	[pos="885.87,903.37 845.71,936.82 744.91,1020.8 704.53,1054.4"];
	27 -- 102	[pos="898.82,871.3 890.67,834.17 872.07,749.41 863.93,712.32"];
	27 -- 113	[pos="893.96,906.42 878.96,935.59 848.63,994.59 833.57,1023.9"];
	27 -- 185	[pos="929.4,892.91 983.36,900.24 1105,916.77 1159.1,924.11"];
	27 -- 201	[pos="910.25,906.78 923.23,937.11 949.76,999.13 962.76,1029.5"];
	27 -- 241	[pos="885.12,875.32 853.95,850.65 789.51,799.65 758.35,775"];
	28	[height=0.5,
		pos="1137.6,377.97",
		width=0.75];
	28 -- 106	[pos="1148.2,394.83 1173,434.3 1234.6,532.35 1259.3,571.61"];
	143	[height=0.5,
		pos="903.89,183.67",
		width=0.75];
	28 -- 143	[pos="1120.4,363.69 1077.1,327.67 963.8,233.47 920.79,197.72"];
	28 -- 188	[pos="1141.4,395.98 1150.2,438.06 1172,542.44 1180.8,584.6"];
	28 -- 202	[pos="1118.7,364.87 1081.1,338.76 997.08,280.49 959.49,254.41"];
	224	[height=0.5,
		pos="1260.7,512.38",
		width=0.75];
	28 -- 224	[pos="1151.7,393.39 1175.3,419.18 1222.6,470.78 1246.4,496.73"];
	28 -- 226	[pos="1122.6,393.3 1096.1,420.36 1041.4,476.3 1015,503.34"];
	29	[height=0.5,
		pos="472.83,483.29",
		width=0.75];
	29 -- 57	[pos="484.46,466.82 506.84,435.1 555.69,365.89 578.04,334.22"];
	107	[height=0.5,
		pos="411.26,225.88",
		width=0.75];
	29 -- 107	[pos="468.5,465.19 457.2,417.93 426.88,291.2 415.58,243.96"];
	29 -- 167	[pos="499.98,482.87 533.1,482.35 588.76,481.48 621.89,480.97"];
	29 -- 203	[pos="472.07,501.31 470.41,540.5 466.5,633.07 464.84,672.36"];
	29 -- 234	[pos="459.23,498.89 432.68,529.34 374.22,596.37 347.46,627.06"];
	29 -- 237	[pos="445.44,482.54 403.84,481.39 325.19,479.23 283.72,478.09"];
	240	[height=0.5,
		pos="232.69,422.71",
		width=0.75];
	29 -- 240	[pos="447.13,476.81 400.91,465.15 304.29,440.77 258.2,429.15"];
	30	[height=0.5,
		pos="566.71,431.92",
		width=0.75];
	30 -- 80	[pos="593.59,429.52 623.22,426.87 670.63,422.64 700.3,419.99"];
	30 -- 108	[pos="591.06,439.87 654.01,460.42 821.58,515.15 884.64,535.74"];
	138	[height=0.5,
		pos="442.63,390.01",
		width=0.75];
	30 -- 138	[pos="542.49,423.74 520.63,416.35 488.63,405.55 466.79,398.17"];
	30 -- 199	[pos="570.7,413.75 580.91,367.13 607.95,243.71 618.13,197.27"];
	30 -- 205	[pos="555.5,448.46 530.66,485.13 471.22,572.86 446.4,609.49"];
	209	[height=0.5,
		pos="474.98,184.34",
		width=0.75];
	30 -- 209	[pos="560.12,414.11 543.19,368.43 498.37,247.49 481.51,201.98"];
	30 -- 212	[pos="542.78,423.43 502.64,409.19 422.21,380.66 382.04,366.42"];
	31	[height=0.5,
		pos="186.06,668.15",
		width=0.75];
	31 -- 97	[pos="158.93,668.32 134.43,668.47 98.592,668.69 74.122,668.85"];
	31 -- 110	[pos="188.49,650.01 190.88,632.16 194.51,605.07 196.9,587.27"];
	149	[height=0.5,
		pos="105.8,814.75",
		width=0.75];
	31 -- 149	[pos="176.69,685.25 161.23,713.5 130.53,769.58 115.11,797.75"];
	31 -- 157	[pos="207.39,679.69 259.22,707.73 391.28,779.17 442.79,807.04"];
	31 -- 206	[pos="160.85,661.31 131.07,653.23 81.816,639.87 52.085,631.81"];
	31 -- 240	[pos="189.48,650.1 198.11,604.71 220.63,486.2 229.25,440.79"];
	32	[height=0.5,
		pos="538.39,1097.3",
		width=0.75];
	32 -- 69	[pos="565.39,1097.7 620.1,1098.6 743.46,1100.6 798.28,1101.5"];
	111	[height=0.5,
		pos="683.21,1112.7",
		width=0.75];
	32 -- 111	[pos="565.29,1100.1 591.3,1102.9 630.49,1107.1 656.46,1109.9"];
	32 -- 172	[pos="517.64,1085.4 484.5,1066.5 419.97,1029.7 386.95,1010.9"];
	32 -- 207	[pos="532.13,1079.5 517.98,1039.2 483.69,941.76 469.61,901.73"];
	33	[height=0.5,
		pos="838.47,271.71",
		width=0.75];
	33 -- 90	[pos="850.66,288.05 864.82,307.02 888.05,338.12 902.2,357.08"];
	33 -- 114	[pos="858.09,284.59 912.43,320.23 1064.3,419.89 1118.3,455.28"];
	33 -- 130	[pos="859.2,259.93 883.69,246 924.21,222.96 948.66,209.06"];
	33 -- 163	[pos="864.87,276.18 873.87,277.7 883.93,279.4 892.92,280.92"];
	33 -- 208	[pos="813.03,265.48 756.26,251.55 619.75,218.07 562.74,204.09"];
	33 -- 235	[pos="840.28,289.93 842.94,316.63 847.86,366.12 850.52,392.83"];
	34	[height=0.5,
		pos="137.21,577.15",
		width=0.75];
	34 -- 115	[pos="125.14,560.89 108.66,538.68 79.268,499.07 62.695,476.73"];
	34 -- 118	[pos="144.6,559.72 163.52,515.12 213.55,397.21 232.55,352.42"];
	123	[height=0.5,
		pos="328.49,883.03",
		width=0.75];
	34 -- 123	[pos="147.76,594.03 181.21,647.51 284.57,812.8 317.97,866.21"];
	34 -- 142	[pos="129.96,594.65 119.15,620.78 98.912,669.67 88.116,695.75"];
	34 -- 213	[pos="139.94,595.36 146.35,638.02 162.27,743.98 168.64,786.41"];
	214	[height=0.5,
		pos="40.721,536.38",
		width=0.75];
	34 -- 214	[pos="114.34,567.49 99.072,561.04 79.061,552.58 63.757,546.12"];
	35	[height=0.5,
		pos="291.87,565.39",
		width=0.75];
	35 -- 116	[pos="299.94,582.7 316.3,617.76 353.17,696.84 369.56,731.98"];
	35 -- 120	[pos="271.37,553.37 240.77,535.45 183.49,501.9 152.94,484.01"];
	35 -- 141	[pos="318.95,564.99 359.24,564.41 434.55,563.31 474.98,562.72"];
	35 -- 147	[pos="284.79,582.83 269.93,619.45 235.64,703.93 220.74,740.63"];
	35 -- 214	[pos="265,562.28 216.66,556.7 115.6,545.03 67.405,539.46"];
	238	[height=0.5,
		pos="204.55,280.46",
		width=0.75];
	35 -- 238	[pos="286.41,547.56 270.73,496.39 225.69,349.44 210.01,298.28"];
	36	[height=0.5,
		pos="204.88,948.6",
		width=0.75];
	36 -- 70	[pos="212.72,931.19 226.33,900.99 254.16,839.25 267.79,809"];
	36 -- 121	[pos="229.95,955.68 276.6,968.85 376.21,996.97 422.75,1010.1"];
	36 -- 149	[pos="192.93,932.46 173.88,906.73 136.87,856.72 117.8,830.95"];
	36 -- 180	[pos="218.23,932.37 235.43,911.46 265.16,875.32 282.25,854.54"];
	215	[height=0.5,
		pos="103.12,880.29",
		width=0.75];
	36 -- 215	[pos="185.74,935.75 167.55,923.54 140.34,905.28 122.17,893.09"];
	37	[height=0.5,
		pos="455.74,18",
		width=0.75];
	37 -- 66	[pos="441.7,33.524 416.1,61.811 362.14,121.45 336.39,149.91"];
	37 -- 122	[pos="459.51,36.164 462.14,48.816 465.62,65.62 468.24,78.251"];
	37 -- 187	[pos="442.74,33.955 408.19,76.36 314.36,191.53 279.7,234.06"];
	216	[height=0.5,
		pos="731.11,142.9",
		width=0.75];
	37 -- 216	[pos="478.28,28.221 530.04,51.7 656.96,109.27 708.65,132.71"];
	38	[height=0.5,
		pos="655.9,1024.7",
		width=0.75];
	38 -- 67	[pos="630.22,1018.3 589.92,1008.4 512.28,989.23 472.06,979.3"];
	38 -- 123	[pos="633.14,1014.8 573.25,988.91 411.75,919.05 351.54,893"];
	38 -- 219	[pos="680.96,1031.4 695.9,1035.4 714.81,1040.4 729.81,1044.4"];
	244	[height=0.5,
		pos="716.27,1182.9",
		width=0.75];
	38 -- 244	[pos="662.59,1042.2 674.19,1072.6 697.92,1134.8 709.55,1165.3"];
	38 -- 245	[pos="678.5,1014.6 737.52,988.45 895.77,918.26 954.77,892.09"];
	39	[height=0.5,
		pos="1378.7,444.88",
		width=0.75];
	39 -- 64	[pos="1358.5,432.37 1341.1,421.58 1316.1,406.09 1298.8,395.37"];
	39 -- 124	[pos="1370.1,462.08 1351.1,500.19 1305.6,591.38 1286.6,629.46"];
	39 -- 184	[pos="1372.3,427.16 1361.3,396.44 1338.6,333.63 1327.5,302.86"];
	39 -- 221	[pos="1351.5,443.31 1340.9,442.7 1328.7,442 1318.1,441.39"];
	39 -- 225	[pos="1367.1,428.09 1352.6,407.19 1328,371.73 1313.6,350.93"];
	40	[height=0.5,
		pos="1137.9,651.3",
		width=0.75];
	40 -- 54	[pos="1135.6,669.29 1131.3,703.85 1121.7,779.16 1117.3,813.87"];
	40 -- 125	[pos="1132.3,633.21 1114.6,575.78 1059.6,398 1042.1,341.21"];
	131	[height=0.5,
		pos="1342.7,670.57",
		width=0.75];
	40 -- 131	[pos="1164.7,653.82 1203.9,657.51 1276.6,664.36 1315.9,668.05"];
	136	[height=0.5,
		pos="1122.8,920.18",
		width=0.75];
	40 -- 136	[pos="1136.9,669.36 1134.2,718.22 1126.6,852.66 1123.9,901.84"];
	40 -- 223	[pos="1121.3,637.05 1102.2,620.61 1070.8,593.71 1051.5,577.16"];
	40 -- 224	[pos="1151.8,635.63 1175.4,608.95 1223.1,554.98 1246.8,528.2"];
	40 -- 246	[pos="1158.8,663.09 1186.5,678.75 1235.1,706.22 1262.7,721.86"];
	41	[height=0.5,
		pos="925.7,59.581",
		width=0.75];
	41 -- 100	[pos="900.1,53.374 878.15,48.052 846.69,40.425 824.75,35.106"];
	41 -- 126	[pos="938.03,75.668 960.9,105.52 1009.7,169.19 1032.6,199.15"];
	41 -- 222	[pos="946.92,71.103 972.89,85.199 1016.6,108.91 1042.4,122.96"];
	41 -- 228	[pos="904.94,47.658 897.57,43.428 889.29,38.67 881.93,34.443"];
	42	[height=0.5,
		pos="803.15,933.83",
		width=0.75];
	42 -- 73	[pos="827.82,941.34 832.4,942.74 837.19,944.2 841.78,945.59"];
	42 -- 129	[pos="829.52,929.36 892.79,918.61 1052.7,891.44 1116.2,880.66"];
	42 -- 136	[pos="830.13,932.68 890.34,930.11 1035.1,923.93 1095.6,921.34"];
	42 -- 220	[pos="778.05,926.76 725.4,911.92 603.89,877.66 551.11,862.78"];
	42 -- 229	[pos="776.47,938.14 727.6,946.03 624.29,962.7 575.69,970.55"];
	43	[height=0.5,
		pos="1324.6,533.94",
		width=0.75];
	43 -- 128	[pos="1308.8,548.74 1285.6,570.42 1242.6,610.61 1219.4,632.3"];
	43 -- 131	[pos="1327,552.09 1330.5,578.22 1336.8,626.18 1340.3,652.35"];
	43 -- 194	[pos="1326.8,515.95 1330,489.24 1336.1,439.39 1339.4,412.47"];
	43 -- 230	[pos="1332.4,516.45 1348,481.59 1382.8,403.79 1398.4,368.97"];
	44	[height=0.5,
		pos="656.67,758.22",
		width=0.75];
	44 -- 88	[pos="683.65,760.02 763.36,765.33 997.25,780.93 1077,786.25"];
	44 -- 132	[pos="662.48,775.86 674.47,812.26 701.85,895.35 713.83,931.72"];
	44 -- 138	[pos="646.63,740.96 610.6,678.96 488,468.06 452.4,406.81"];
	44 -- 139	[pos="666,741.15 687.44,701.94 740,605.81 761.41,566.65"];
	44 -- 192	[pos="647.28,775.37 634.15,799.36 610.46,842.66 597.39,866.53"];
	44 -- 232	[pos="668.28,741.84 690.64,710.3 739.43,641.48 761.76,610"];
	45	[height=0.5,
		pos="716.05,892.6",
		width=0.75];
	45 -- 111	[pos="713.36,910.61 707.19,951.99 692.06,1053.4 685.89,1094.8"];
	45 -- 133	[pos="689.66,897.1 649.59,903.94 573.82,916.88 533.87,923.7"];
	45 -- 195	[pos="702.36,876.98 679.04,850.38 631.87,796.57 608.46,769.86"];
	45 -- 233	[pos="731.26,907.85 763.71,940.37 839.42,1016.3 872.06,1049"];
	45 -- 242	[pos="723.72,875.07 738.49,841.31 770.73,767.64 785.48,733.93"];
	46	[height=0.5,
		pos="1135.8,557.58",
		width=0.75];
	46 -- 94	[pos="1153,571.69 1192.4,604.11 1289.1,683.59 1328.5,715.97"];
	46 -- 137	[pos="1126.9,574.7 1100.7,624.77 1024.4,770.55 998.07,820.79"];
	46 -- 216	[pos="1121,542.33 1057.5,477.3 809.86,223.58 746.13,158.29"];
	46 -- 236	[pos="1143.8,540.11 1159.2,506.48 1192.8,433.08 1208.2,399.5"];
	47	[height=0.5,
		pos="524.25,52.289",
		width=0.75];
	47 -- 107	[pos="513.42,68.934 491.82,102.12 443.63,176.15 422.06,209.29"];
	47 -- 143	[pos="548.29,60.607 616.58,84.241 811.25,151.61 879.72,175.3"];
	47 -- 209	[pos="517.71,69.824 508.29,95.081 490.99,141.44 481.55,166.73"];
	47 -- 238	[pos="505.68,65.543 449.18,105.87 279.74,226.8 223.17,267.17"];
	48	[height=0.5,
		pos="107.41,763.82",
		width=0.75];
	48 -- 58	[pos="122.55,778.75 145.41,801.31 188.52,843.84 211.53,866.54"];
	48 -- 145	[pos="107.07,745.6 106.2,699.79 103.94,580.17 103.08,534.32"];
	48 -- 148	[pos="127.75,751.8 140.85,744.05 157.84,734 170.97,726.24"];
	48 -- 215	[pos="106.74,782.02 105.94,803.9 104.59,840.4 103.79,862.22"];
	48 -- 239	[pos="122.42,779.18 152.81,810.29 221.35,880.46 251.81,911.64"];
	49	[height=0.5,
		pos="763.39,1136.8",
		width=0.75];
	49 -- 127	[pos="789.46,1131.5 812.6,1126.8 846.22,1119.9 869.34,1115.2"];
	49 -- 146	[pos="737.87,1130.6 680.37,1116.6 541.21,1082.8 483.57,1068.8"];
	49 -- 155	[pos="778.76,1121.9 802.39,1098.9 847.41,1055.3 871.16,1032.2"];
	49 -- 244	[pos="747.96,1151.9 742.7,1157.1 736.82,1162.8 731.57,1168"];
}
