graph {
	graph [bb="0,0,817.11,691.25",
		outputorder=edgesfirst,
		overlap=prism,
		size="50,50!",
		start=7883
	];
	node [label="\N"];
	0	[height=0.5,
		pos="426.42,407.57",
		width=0.75];
	37	[height=0.5,
		pos="397.16,590.56",
		width=0.75];
	0 -- 37	[pos="423.5,425.78 417.9,460.86 405.66,537.4 400.06,572.42"];
	2	[height=0.5,
		pos="558.12,344.84",
		width=0.75];
	0 -- 2	[pos="448.46,397.07 472.77,385.49 511.66,366.97 536,355.37"];
	25	[height=0.5,
		pos="496.11,375.72",
		width=0.75];
	0 -- 25	[pos="448.85,397.31 456.81,393.68 465.76,389.59 473.71,385.95"];
	3	[height=0.5,
		pos="620.42,330.69",
		width=0.75];
	0 -- 3	[pos="449.82,398.29 487.1,383.52 559.59,354.79 596.93,340"];
	4	[height=0.5,
		pos="364.4,379.78",
		width=0.75];
	0 -- 4	[pos="403.68,397.38 398.28,394.96 392.53,392.39 387.14,389.97"];
	5	[height=0.5,
		pos="302.35,420.05",
		width=0.75];
	0 -- 5	[pos="399.49,410.27 378.68,412.37 350.01,415.25 329.21,417.35"];
	18	[height=0.5,
		pos="369.2,452.03",
		width=0.75];
	0 -- 18	[pos="408.63,421.39 401.67,426.8 393.72,432.98 386.78,438.37"];
	62	[height=0.5,
		pos="369.98,496.08",
		width=0.75];
	0 -- 62	[pos="415.8,424.21 405.71,440.04 390.62,463.7 380.55,479.5"];
	9	[height=0.5,
		pos="307.61,312.74",
		width=0.75];
	0 -- 9	[pos="408.89,393.57 386.42,375.65 347.71,344.75 325.21,326.79"];
	34	[height=0.5,
		pos="495.05,331.61",
		width=0.75];
	0 -- 34	[pos="440.64,391.83 452.49,378.71 469.29,360.11 481.08,347.07"];
	12	[height=0.5,
		pos="307.95,516.49",
		width=0.75];
	0 -- 12	[pos="410.44,422.25 387.83,443.04 346.73,480.83 324.05,501.68"];
	20	[height=0.5,
		pos="299.54,468.92",
		width=0.75];
	0 -- 20	[pos="404.31,418.25 381.17,429.44 345.02,446.92 321.81,458.15"];
	39	[height=0.5,
		pos="596.68,562.69",
		width=0.75];
	0 -- 39	[pos="442.43,422.16 474.88,451.72 548.06,518.39 580.58,548.02"];
	49	[height=0.5,
		pos="444.26,486.03",
		width=0.75];
	0 -- 49	[pos="430.46,425.37 433.36,438.12 437.25,455.23 440.16,468.02"];
	64	[height=0.5,
		pos="550.48,424.29",
		width=0.75];
	0 -- 64	[pos="453.03,411.15 473.96,413.98 502.99,417.89 523.91,420.71"];
	28	[height=0.5,
		pos="459.2,574.06",
		width=0.75];
	0 -- 28	[pos="429.99,425.7 436.31,457.81 449.4,524.29 455.68,556.2"];
	71	[height=0.5,
		pos="491.74,530.04",
		width=0.75];
	0 -- 71	[pos="435.5,424.59 447.91,447.86 470.04,489.36 482.52,512.76"];
	54	[height=0.5,
		pos="302.4,356.75",
		width=0.75];
	0 -- 54	[pos="403.38,398.13 381.24,389.06 347.96,375.42 325.73,366.31"];
	35	[height=0.5,
		pos="530.35,574.07",
		width=0.75];
	0 -- 35	[pos="436.95,424.45 456.87,456.36 499.85,525.2 519.79,557.15"];
	57	[height=0.5,
		pos="529.78,486.02",
		width=0.75];
	0 -- 57	[pos="444.42,421.23 463.27,435.54 492.72,457.9 511.63,472.25"];
	77	[height=0.5,
		pos="370.03,315.52",
		width=0.75];
	0 -- 77	[pos="416.07,390.68 405.9,374.07 390.46,348.87 380.31,332.29"];
	37 -- 62	[pos="392.05,572.79 387.19,555.9 379.92,530.64 375.07,513.77"];
	1	[height=0.5,
		pos="429.07,252.3",
		width=0.75];
	67	[height=0.5,
		pos="549.48,287.37",
		width=0.75];
	1 -- 67	[pos="454.02,259.57 474.68,265.59 503.9,274.1 524.56,280.12"];
	1 -- 2	[pos="447.56,265.56 472.09,283.15 515.15,314.03 539.66,331.61"];
	1 -- 3	[pos="452.15,261.75 488.93,276.82 560.43,306.11 597.26,321.2"];
	8	[height=0.5,
		pos="581.33,243.34",
		width=0.75];
	1 -- 8	[pos="456.29,250.7 484.01,249.07 526.72,246.55 554.35,244.92"];
	1 -- 4	[pos="420.35,269.49 408,293.82 385.57,338.05 373.19,362.46"];
	36	[height=0.5,
		pos="245.56,281.52",
		width=0.75];
	1 -- 36	[pos="402.78,256.49 367.99,262.03 307.01,271.74 272.1,277.29"];
	10	[height=0.5,
		pos="591.8,155.27",
		width=0.75];
	1 -- 10	[pos="449.35,240.21 480.62,221.56 540.25,186.01 571.52,167.36"];
	1 -- 9	[pos="407.35,263.11 385.38,274.04 351.6,290.85 329.55,301.83"];
	1 -- 34	[pos="442.42,268.35 453.94,282.2 470.49,302.09 481.94,315.86"];
	41	[height=0.5,
		pos="468.71,135.87",
		width=0.75];
	1 -- 41	[pos="435.09,234.62 442.54,212.73 455.15,175.68 462.63,153.72"];
	43	[height=0.5,
		pos="530.84,111.22",
		width=0.75];
	1 -- 43	[pos="440.94,235.84 460.55,208.66 499.48,154.69 519.04,127.58"];
	52	[height=0.5,
		pos="473.83,207.38",
		width=0.75];
	1 -- 52	[pos="444.22,237.09 448.89,232.41 454.03,227.26 458.69,222.57"];
	23	[height=0.5,
		pos="285.58,149.47",
		width=0.75];
	1 -- 23	[pos="410.6,239.07 383.05,219.32 331.49,182.37 303.98,162.65"];
	50	[height=0.5,
		pos="246.19,193.5",
		width=0.75];
	1 -- 50	[pos="404.4,244.37 369.4,233.11 305.7,212.63 270.75,201.39"];
	73	[height=0.5,
		pos="272.55,237.52",
		width=0.75];
	1 -- 73	[pos="402.16,249.76 373.41,247.04 328.09,242.76 299.37,240.05"];
	29	[height=0.5,
		pos="546.86,199.29",
		width=0.75];
	1 -- 29	[pos="451.5,242.2 472.33,232.83 503.18,218.95 524.11,209.53"];
	44	[height=0.5,
		pos="334.7,260.82",
		width=0.75];
	1 -- 44	[pos="402.28,254.72 389.53,255.87 374.32,257.24 361.56,258.39"];
	53	[height=0.5,
		pos="420.69,91.466",
		width=0.75];
	1 -- 53	[pos="428.12,234.16 426.51,203.27 423.26,140.8 421.64,109.78"];
	74	[height=0.5,
		pos="432.43,297.07",
		width=0.75];
	1 -- 74	[pos="430.44,270.51 430.65,273.32 430.87,276.22 431.08,279.02"];
	58	[height=0.5,
		pos="358.53,86.488",
		width=0.75];
	1 -- 58	[pos="421.65,234.87 408.1,203.02 379.5,135.79 365.95,103.93"];
	1 -- 77	[pos="414.78,267.6 405.63,277.4 393.8,290.07 384.6,299.92"];
	65	[height=0.5,
		pos="296.33,105.45",
		width=0.75];
	1 -- 65	[pos="415.11,236.86 389.69,208.73 336.08,149.43 310.5,121.13"];
	79	[height=0.5,
		pos="347.68,182.54",
		width=0.75];
	1 -- 79	[pos="412.2,237.84 398.24,225.87 378.48,208.94 364.52,196.98"];
	2 -- 25	[pos="536.43,355.64 530.42,358.63 523.9,361.88 517.89,364.87"];
	2 -- 3	[pos="583.82,339 587.44,338.18 591.16,337.34 594.78,336.51"];
	2 -- 4	[pos="531.99,349.55 495.02,356.22 427.82,368.34 390.73,375.03"];
	7	[height=0.5,
		pos="639.9,199.31",
		width=0.75];
	2 -- 7	[pos="567.66,327.86 583.42,299.82 614.7,244.15 630.42,216.18"];
	17	[height=0.5,
		pos="612.54,388.86",
		width=0.75];
	2 -- 17	[pos="575.34,358.77 581.69,363.91 588.88,369.73 595.24,374.87"];
	2 -- 52	[pos="547.78,327.99 531.6,301.6 500.48,250.84 484.25,224.38"];
	22	[height=0.5,
		pos="612.54,455.47",
		width=0.75];
	2 -- 22	[pos="566.62,362.13 576.84,382.91 593.9,417.57 604.09,438.3"];
	26	[height=0.5,
		pos="682.77,333.25",
		width=0.75];
	2 -- 26	[pos="584.86,342.35 605.75,340.41 634.66,337.72 655.64,335.77"];
	46	[height=0.5,
		pos="488.46,442",
		width=0.75];
	2 -- 46	[pos="546.3,361.32 533.49,379.19 513.16,407.54 500.33,425.44"];
	2 -- 64	[pos="556.38,362.87 555.14,375.78 553.48,393.1 552.23,406.06"];
	2 -- 29	[pos="556.71,326.7 554.56,298.81 550.45,245.69 548.28,217.66"];
	2 -- 74	[pos="534.48,335.86 512.01,327.32 478.4,314.55 455.97,306.02"];
	2 -- 57	[pos="554.53,362.72 549.11,389.73 538.88,440.66 533.43,467.84"];
	25 -- 49	[pos="488.01,392.96 478.32,413.56 462.21,447.84 452.47,468.55"];
	25 -- 46	[pos="494.02,393.83 492.94,403.18 491.62,414.56 490.54,423.91"];
	25 -- 57	[pos="501.52,393.44 507.8,414.03 518.1,447.78 524.38,468.35"];
	3 -- 67	[pos="600.28,318.39 590.61,312.49 579.06,305.44 569.42,299.55"];
	3 -- 8	[pos="612.7,313.43 605.89,298.22 596.02,276.15 589.17,260.86"];
	3 -- 7	[pos="623.09,312.7 626.8,287.68 633.48,242.63 637.21,217.51"];
	3 -- 10	[pos="617.46,312.58 611.97,278.88 600.23,206.91 594.74,173.28"];
	3 -- 17	[pos="617.97,348.78 617.03,355.72 615.96,363.63 615.01,370.59"];
	3 -- 34	[pos="593.22,330.89 572.19,331.04 543.21,331.26 522.2,331.41"];
	19	[height=0.5,
		pos="701.98,196.01",
		width=0.75];
	3 -- 19	[pos="630.58,313.9 646.21,288.1 675.98,238.94 691.69,213.01"];
	13	[height=0.5,
		pos="729.87,384.95",
		width=0.75];
	3 -- 13	[pos="642.31,341.54 661.4,351 688.95,364.66 708.02,374.12"];
	42	[height=0.5,
		pos="674.59,429.02",
		width=0.75];
	3 -- 42	[pos="629.85,347.82 639.8,365.86 655.36,394.11 665.26,412.09"];
	3 -- 22	[pos="619.27,348.83 617.78,372.49 615.18,413.63 613.68,437.3"];
	24	[height=0.5,
		pos="674.58,482.79",
		width=0.75];
	3 -- 24	[pos="626.74,348.44 637.17,377.74 657.89,435.92 668.3,465.16"];
	3 -- 26	[pos="647.59,331.8 650.21,331.91 652.88,332.02 655.5,332.13"];
	31	[height=0.5,
		pos="728.07,242.99",
		width=0.75];
	3 -- 31	[pos="637.71,316.6 657.8,300.23 690.75,273.4 710.82,257.05"];
	3 -- 64	[pos="608.24,346.99 595.4,364.17 575.31,391.06 562.52,408.17"];
	38	[height=0.5,
		pos="666.03,275.84",
		width=0.75];
	3 -- 38	[pos="633.61,314.83 639.61,307.61 646.69,299.09 652.71,291.86"];
	47	[height=0.5,
		pos="744.89,340.42",
		width=0.75];
	3 -- 47	[pos="647.43,332.8 668.3,334.43 697.07,336.68 717.93,338.31"];
	40	[height=0.5,
		pos="750.66,293.95",
		width=0.75];
	3 -- 40	[pos="645.53,323.61 668.59,317.1 702.59,307.51 725.63,301.01"];
	48	[height=0.5,
		pos="607.47,518.64",
		width=0.75];
	3 -- 48	[pos="619.18,348.71 616.71,384.54 611.2,464.38 608.72,500.4"];
	8 -- 67	[pos="569.47,259.73 566.78,263.45 563.93,267.4 561.24,271.11"];
	8 -- 10	[pos="583.5,225.09 585.3,209.97 587.84,188.6 589.63,173.49"];
	4 -- 25	[pos="391.69,378.94 414.3,378.24 446.26,377.26 468.85,376.56"];
	4 -- 5	[pos="344.77,392.52 337.52,397.23 329.32,402.55 322.07,407.26"];
	4 -- 36	[pos="347.37,365.71 324.78,347.03 285.13,314.24 262.55,295.57"];
	6	[height=0.5,
		pos="237.49,434.72",
		width=0.75];
	4 -- 6	[pos="341.71,389.61 318.75,399.54 283.45,414.83 260.41,424.8"];
	4 -- 62	[pos="365.27,397.95 366.32,419.8 368.07,456.24 369.11,478.04"];
	4 -- 9	[pos="350.94,363.9 341.89,353.21 330.01,339.18 320.97,328.52"];
	4 -- 12	[pos="357.14,397.38 346.3,423.62 326.01,472.75 315.19,498.96"];
	4 -- 20	[pos="352.5,396.13 340.8,412.21 323.04,436.62 311.36,452.67"];
	32	[height=0.5,
		pos="233.39,357.56",
		width=0.75];
	4 -- 32	[pos="338.2,375.34 315.5,371.49 282.81,365.95 259.99,362.08"];
	4 -- 49	[pos="376.53,395.92 391.54,415.89 416.95,449.7 432.02,469.74"];
	4 -- 46	[pos="386.01,390.62 408.64,401.97 443.99,419.7 466.68,431.08"];
	4 -- 73	[pos="353.69,363.19 336.08,335.92 301.23,281.93 283.49,254.45"];
	4 -- 44	[pos="359.96,361.97 354.36,339.55 344.79,301.24 339.18,278.75"];
	4 -- 74	[pos="377.52,363.84 389.57,349.19 407.32,327.6 419.36,312.97"];
	5 -- 18	[pos="324.61,430.7 331.9,434.19 339.99,438.06 347.26,441.54"];
	5 -- 62	[pos="316.36,435.8 327.97,448.85 344.38,467.3 355.98,480.35"];
	5 -- 9	[pos="303.24,401.85 304.21,382.11 305.74,350.8 306.71,331.03"];
	5 -- 32	[pos="286,405.24 275.01,395.28 260.58,382.21 249.61,372.27"];
	5 -- 71	[pos="322.97,432.03 359.41,453.19 434.72,496.93 471.13,518.07"];
	18 -- 32	[pos="350.32,438.9 324.37,420.85 277.97,388.58 252.11,370.59"];
	18 -- 28	[pos="381.15,468.24 398.37,491.58 429.96,534.41 447.2,557.79"];
	18 -- 71	[pos="388.89,464.57 411.75,479.12 449.25,502.99 472.1,517.54"];
	18 -- 35	[pos="387.06,465.56 418.04,489.02 481.38,536.99 512.41,560.49"];
	36 -- 73	[pos="255.92,264.63 258,261.24 260.19,257.67 262.27,254.29"];
	36 -- 44	[pos="271.34,275.53 283.17,272.79 297.16,269.54 308.98,266.79"];
	6 -- 12	[pos="251.07,450.49 263.55,464.97 281.94,486.31 294.41,500.77"];
	6 -- 20	[pos="258.49,446.3 264.96,449.86 272.08,453.79 278.55,457.35"];
	15	[height=0.5,
		pos="229.82,522.78",
		width=0.75];
	6 -- 15	[pos="235.9,452.97 234.58,468.08 232.72,489.45 231.4,504.56"];
	68	[height=0.5,
		pos="207.33,478.75",
		width=0.75];
	6 -- 68	[pos="226.26,451.12 223.78,454.74 221.15,458.57 218.67,462.2"];
	30	[height=0.5,
		pos="225.62,566.83",
		width=0.75];
	6 -- 30	[pos="235.86,452.81 233.6,477.97 229.54,523.26 227.27,548.53"];
	21	[height=0.5,
		pos="287.7,585.14",
		width=0.75];
	6 -- 21	[pos="243.45,452.57 253.11,481.52 272.09,538.39 281.75,567.32"];
	45	[height=0.5,
		pos="145.3,460.09",
		width=0.75];
	6 -- 45	[pos="212.3,441.66 199.29,445.23 183.46,449.59 170.46,453.17"];
	72	[height=0.5,
		pos="139.01,504.22",
		width=0.75];
	6 -- 72	[pos="218.5,448.12 200.95,460.51 175.03,478.8 157.6,491.09"];
	56	[height=0.5,
		pos="106.04,416.05",
		width=0.75];
	6 -- 56	[pos="210.89,430.94 188.08,427.7 155.4,423.06 132.6,419.82"];
	78	[height=0.5,
		pos="145.64,372.04",
		width=0.75];
	6 -- 78	[pos="218.46,421.73 202.69,410.98 180.41,395.76 164.65,385.01"];
	7 -- 10	[pos="623.89,184.65 618.75,179.94 613.06,174.73 607.91,170.02"];
	7 -- 19	[pos="666.95,197.87 669.57,197.73 672.22,197.59 674.83,197.45"];
	14	[height=0.5,
		pos="594.9,95.951",
		width=0.75];
	7 -- 14	[pos="632.27,181.78 623.99,162.77 610.86,132.61 602.57,113.57"];
	11	[height=0.5,
		pos="657.16,105.53",
		width=0.75];
	7 -- 11	[pos="643.23,181.23 646.29,164.62 650.79,140.14 653.85,123.56"];
	27	[height=0.5,
		pos="769.85,160.85",
		width=0.75];
	7 -- 27	[pos="664.65,191.99 687.63,185.19 721.67,175.11 744.75,168.28"];
	55	[height=0.5,
		pos="719.24,115.15",
		width=0.75];
	7 -- 55	[pos="654.46,183.88 668.77,168.69 690.5,145.64 704.78,130.49"];
	7 -- 26	[pos="645.6,217.1 653.8,242.71 668.84,289.73 677.06,315.39"];
	7 -- 31	[pos="661.7,210.11 675.26,216.83 692.65,225.44 706.22,232.17"];
	7 -- 29	[pos="612.49,199.3 600.38,199.3 586.17,199.3 574.08,199.3"];
	51	[height=0.5,
		pos="790.11,206.39",
		width=0.75];
	7 -- 51	[pos="667.1,200.59 694.33,201.88 735.96,203.84 763.11,205.12"];
	10 -- 14	[pos="592.75,137.15 593.13,129.79 593.57,121.31 593.96,113.96"];
	10 -- 11	[pos="609.66,141.68 618.88,134.66 630.1,126.12 639.32,119.1"];
	10 -- 43	[pos="573.18,141.82 565.62,136.35 556.9,130.05 549.35,124.6"];
	69	[height=0.5,
		pos="586.68,51.897",
		width=0.75];
	10 -- 69	[pos="590.91,137.26 589.98,118.41 588.52,88.954 587.58,70.044"];
	10 -- 53	[pos="568.01,146.4 535.32,134.21 476.86,112.41 444.28,100.26"];
	76	[height=0.5,
		pos="516.84,49.383",
		width=0.75];
	10 -- 76	[pos="580.09,138.73 566,118.83 542.51,85.653 528.47,65.812"];
	9 -- 18	[pos="315.29,330.1 327.09,356.79 349.57,407.63 361.43,434.46"];
	59	[height=0.5,
		pos="182.32,186.99",
		width=0.75];
	9 -- 59	[pos="292.25,297.32 268.07,273.06 221.43,226.24 197.42,202.14"];
	9 -- 32	[pos="287.33,324.99 276.85,331.31 264.11,339.01 253.64,345.33"];
	9 -- 23	[pos="305.17,294.64 300.93,263.26 292.28,199.09 288.03,167.65"];
	9 -- 50	[pos="298.81,295.66 287.13,272.99 266.64,233.2 254.97,210.55"];
	9 -- 73	[pos="299.48,295.29 293.82,283.14 286.29,267 280.64,254.87"];
	9 -- 54	[pos="305.46,330.9 305.16,333.45 304.84,336.08 304.54,338.64"];
	9 -- 77	[pos="334.81,313.95 337.44,314.07 340.1,314.19 342.73,314.3"];
	61	[height=0.5,
		pos="175.29,233.76",
		width=0.75];
	9 -- 61	[pos="287.22,300.57 262.29,285.69 220.33,260.64 195.48,245.81"];
	59 -- 61	[pos="179.62,204.94 179.09,208.44 178.54,212.12 178.01,215.63"];
	63	[height=0.5,
		pos="190.12,92.588",
		width=0.75];
	59 -- 63	[pos="183.82,168.79 185.2,152.07 187.24,127.43 188.62,110.73"];
	70	[height=0.5,
		pos="775.89,443.4",
		width=0.75];
	17 -- 70	[pos="636.99,397.03 667.88,407.34 720.7,424.98 751.53,435.27"];
	17 -- 22	[pos="612.54,407.06 612.54,416.46 612.54,427.89 612.54,437.29"];
	17 -- 26	[pos="630.26,374.83 640.99,366.33 654.62,355.54 665.3,347.08"];
	34 -- 54	[pos="468.26,335.11 431.45,339.91 365.64,348.5 328.96,353.29"];
	34 -- 77	[pos="468.54,328.2 447.46,325.49 418.11,321.71 396.94,318.98"];
	34 -- 79	[pos="480.11,316.5 451.86,287.93 390.94,226.3 362.66,197.69"];
	41 -- 43	[pos="492.2,126.55 497.15,124.59 502.37,122.52 507.32,120.56"];
	41 -- 52	[pos="470,153.92 470.77,164.68 471.75,178.3 472.52,189.1"];
	41 -- 58	[pos="446.15,125.76 427.13,117.24 400.06,105.11 381.06,96.588"];
	19 -- 31	[pos="711.4,212.97 713.74,217.18 716.24,221.69 718.58,225.9"];
	19 -- 38	[pos="694.18,213.33 688.15,226.72 679.84,245.17 673.81,258.56"];
	19 -- 40	[pos="710.69,213.52 719.55,231.35 733.2,258.82 742.03,276.59"];
	19 -- 51	[pos="728.9,199.18 739.84,200.47 752.44,201.95 763.35,203.24"];
	14 -- 41	[pos="570.27,103.74 548.03,110.78 515.49,121.07 493.28,128.1"];
	14 -- 27	[pos="618.49,104.7 651.88,117.09 712.58,139.6 746.07,152.03"];
	75	[height=0.5,
		pos="693.77,18",
		width=0.75];
	14 -- 75	[pos="612.57,82.015 630.57,67.827 658.31,45.96 676.25,31.816"];
	14 -- 43	[pos="569.21,102.07 565.04,103.07 560.71,104.1 556.53,105.1"];
	14 -- 69	[pos="591.56,78.033 591.06,75.365 590.55,72.614 590.05,69.943"];
	14 -- 55	[pos="621.27,100.02 642.37,103.28 671.82,107.83 692.91,111.09"];
	14 -- 29	[pos="586.75,113.48 577.86,132.6 563.73,163 554.89,182.02"];
	14 -- 76	[pos="574.39,83.716 562.92,76.871 548.66,68.368 537.21,61.537"];
	11 -- 14	[pos="630.76,101.47 627.71,101 624.6,100.52 621.54,100.05"];
	11 -- 27	[pos="679.16,116.33 699.01,126.07 728.07,140.34 747.91,150.08"];
	11 -- 75	[pos="664.57,87.816 670.96,72.53 680.14,50.578 686.5,35.388"];
	11 -- 69	[pos="639.01,91.717 628.41,83.648 615.08,73.505 604.53,65.476"];
	27 -- 75	[pos="760.68,143.62 746.05,116.16 717.62,62.787 702.98,35.292"];
	27 -- 55	[pos="753.56,146.14 747.78,140.92 741.28,135.05 735.5,129.84"];
	12 -- 37	[pos="325.15,530.77 340.95,543.89 364.23,563.22 380.02,576.32"];
	12 -- 62	[pos="332.47,508.42 336.8,506.99 341.31,505.51 345.64,504.09"];
	12 -- 20	[pos="304.77,498.5 304.1,494.71 303.39,490.71 302.72,486.93"];
	12 -- 15	[pos="281.06,518.65 273.2,519.29 264.62,519.98 256.75,520.61"];
	12 -- 30	[pos="288.02,528.67 275.17,536.53 258.52,546.71 245.65,554.58"];
	12 -- 21	[pos="302.73,534.17 299.74,544.34 295.98,557.08 292.97,567.28"];
	60	[height=0.5,
		pos="298.72,673.25",
		width=0.75];
	12 -- 60	[pos="306.87,534.78 305.09,564.98 301.56,624.95 299.79,655.08"];
	33	[height=0.5,
		pos="335.15,629.23",
		width=0.75];
	12 -- 33	[pos="312.26,534.35 317.35,555.46 325.78,590.37 330.86,611.45"];
	20 -- 68	[pos="272.87,471.76 260.74,473.06 246.42,474.58 234.26,475.88"];
	20 -- 33	[pos="303.55,486.99 310.39,517.78 324.23,580.06 331.09,610.97"];
	13 -- 42	[pos="712.38,398.9 705.93,404.04 698.62,409.87 692.16,415.02"];
	13 -- 70	[pos="742.45,400.93 748.94,409.17 756.84,419.21 763.33,427.45"];
	13 -- 22	[pos="709.7,397.08 688.21,409.99 654.38,430.32 632.84,443.27"];
	13 -- 26	[pos="715.74,369.44 709.78,362.9 702.85,355.29 696.89,348.75"];
	42 -- 48	[pos="662.28,445.46 650.17,461.63 631.78,486.17 619.7,502.31"];
	15 -- 20	[pos="247.77,508.91 258.26,500.81 271.45,490.62 281.88,482.55"];
	15 -- 68	[pos="221.06,505.63 219.43,502.45 217.73,499.12 216.1,495.93"];
	15 -- 30	[pos="228.09,540.95 227.84,543.51 227.59,546.14 227.35,548.7"];
	15 -- 21	[pos="244.12,538.2 252.96,547.72 264.27,559.9 273.16,569.47"];
	15 -- 60	[pos="237.72,540.04 250.94,568.91 277.4,626.69 290.7,655.73"];
	15 -- 33	[pos="244.91,538.03 264.93,558.27 300.08,593.78 320.09,614.01"];
	15 -- 45	[pos="211.48,509.18 197.3,498.66 177.77,484.18 163.6,473.67"];
	68 -- 72	[pos="183.43,487.66 176.81,490.13 169.63,492.8 163.01,495.27"];
	68 -- 78	[pos="197.42,461.61 185.91,441.69 167.03,409.04 155.53,389.14"];
	16	[height=0.5,
		pos="45.962,533.87",
		width=0.75];
	66	[height=0.5,
		pos="27,459.73",
		width=0.75];
	16 -- 66	[pos="41.372,515.93 38.391,504.27 34.521,489.14 31.548,477.51"];
	16 -- 45	[pos="64.182,520.34 82.106,507.03 109.31,486.82 127.2,473.54"];
	16 -- 56	[pos="54.698,516.74 66.089,494.4 85.9,455.55 97.296,433.2"];
	66 -- 72	[pos="50.208,468.95 69.304,476.53 96.253,487.23 115.45,494.86"];
	43 -- 53	[pos="504.74,106.54 487.3,103.41 464.46,99.317 446.99,96.183"];
	43 -- 58	[pos="504.3,107.41 471.91,102.76 417.5,94.953 385.1,90.303"];
	43 -- 76	[pos="526.79,93.336 524.95,85.203 522.77,75.598 520.93,67.444"];
	69 -- 75	[pos="611.25,44.121 628.66,38.609 651.93,31.244 669.32,25.741"];
	22 -- 70	[pos="639.51,453.47 669.78,451.24 718.59,447.63 748.88,445.4"];
	22 -- 26	[pos="622.3,438.47 635.72,415.12 659.71,373.37 673.09,350.1"];
	22 -- 64	[pos="590.83,444.56 584.82,441.54 578.29,438.26 572.28,435.24"];
	21 -- 30	[pos="262.81,577.8 258.76,576.6 254.57,575.37 250.52,574.17"];
	39 -- 71	[pos="572.07,555.03 555.35,549.83 533.31,542.97 516.55,537.76"];
	23 -- 59	[pos="261.63,158.17 244.95,164.23 222.79,172.28 206.14,178.33"];
	23 -- 50	[pos="271.36,165.36 267.75,169.4 263.86,173.74 260.26,177.77"];
	23 -- 73	[pos="282.88,167.71 280.63,182.92 277.44,204.48 275.2,219.6"];
	23 -- 61	[pos="267.37,163.39 246.81,179.1 213.58,204.5 193.16,220.1"];
	23 -- 63	[pos="265.34,137.41 249.14,127.75 226.53,114.28 210.34,104.63"];
	50 -- 59	[pos="219.47,190.77 216.05,190.43 212.55,190.07 209.13,189.72"];
	50 -- 61	[pos="225.3,205.36 216.15,210.56 205.43,216.64 196.27,221.84"];
	50 -- 63	[pos="236.68,176.38 226.37,157.82 210.01,128.38 199.68,109.79"];
	24 -- 42	[pos="674.58,464.59 674.58,458.98 674.58,452.81 674.59,447.2"];
	24 -- 26	[pos="675.57,464.75 677.14,436.01 680.2,380.13 681.78,351.35"];
	24 -- 48	[pos="653.34,494.13 645.51,498.32 636.63,503.06 628.79,507.25"];
	26 -- 42	[pos="681.23,351.26 679.78,368.27 677.61,393.67 676.15,410.76"];
	26 -- 70	[pos="696.11,349.03 713.82,369.97 744.88,406.72 762.57,427.65"];
	26 -- 31	[pos="691.51,315.84 699.53,299.86 711.35,276.3 719.36,260.34"];
	31 -- 38	[pos="706.72,254.3 700.41,257.64 693.51,261.29 687.21,264.63"];
	31 -- 47	[pos="731.23,261.32 734.26,278.84 738.79,305.11 741.8,322.5"];
	31 -- 51	[pos="748.38,231.01 755.17,227 762.73,222.54 769.54,218.53"];
	49 -- 57	[pos="471.32,486.03 481.3,486.03 492.61,486.03 502.6,486.03"];
	46 -- 57	[pos="502.91,457.4 506.91,461.66 511.26,466.29 515.26,470.56"];
	28 -- 35	[pos="486.51,574.07 491.99,574.07 497.76,574.07 503.24,574.07"];
	29 -- 41	[pos="529.52,185.22 516.56,174.71 498.94,160.41 486,149.91"];
	29 -- 43	[pos="543.54,181.04 540.77,165.83 536.85,144.27 534.1,129.15"];
	29 -- 52	[pos="520.08,202.26 513.73,202.96 506.96,203.71 500.61,204.42"];
	38 -- 47	[pos="683.14,289.86 696.37,300.69 714.59,315.61 727.81,326.43"];
	38 -- 40	[pos="691.88,281.38 702.28,283.6 714.26,286.16 724.68,288.39"];
	38 -- 51	[pos="686.8,264.22 709.7,251.4 746.34,230.89 769.27,218.05"];
	33 -- 60	[pos="322,645.12 318.74,649.06 315.24,653.29 311.97,657.24"];
	54 -- 77	[pos="322.32,344.6 331.05,339.28 341.28,333.05 350.02,327.72"];
	54 -- 79	[pos="307.07,338.76 315.77,305.29 334.35,233.83 343.03,200.43"];
	35 -- 39	[pos="556.57,569.57 561.06,568.8 565.72,568 570.22,567.23"];
	35 -- 71	[pos="516.41,558.17 512.87,554.13 509.06,549.8 505.53,545.76"];
	40 -- 51	[pos="758.46,276.65 765.37,261.3 775.42,238.99 782.33,223.65"];
	53 -- 58	[pos="393.6,89.297 390.99,89.088 388.33,88.875 385.71,88.665"];
	53 -- 76	[pos="443.47,81.493 458.8,74.785 478.92,65.978 494.21,59.285"];
	53 -- 65	[pos="394.01,94.467 373.03,96.827 343.93,100.1 322.96,102.46"];
	45 -- 68	[pos="170.17,467.57 174.22,468.79 178.41,470.05 182.45,471.27"];
	45 -- 66	[pos="118.16,460.01 98.923,459.95 73.223,459.87 54.014,459.81"];
	45 -- 72	[pos="142.74,478.04 142.36,480.71 141.97,483.47 141.59,486.14"];
	45 -- 56	[pos="131.13,444.19 127.53,440.15 123.66,435.81 120.06,431.78"];
	45 -- 78	[pos="145.37,441.84 145.43,426.73 145.51,405.36 145.57,390.26"];
	72 -- 78	[pos="139.92,486.11 141.18,460.94 143.46,415.62 144.72,390.34"];
	58 -- 65	[pos="333.95,93.984 329.74,95.268 325.36,96.603 321.14,97.888"];
	77 -- 79	[pos="367.02,297.58 362.75,272.2 355,226.07 350.72,200.61"];
	56 -- 66	[pos="84.861,427.75 73.429,434.07 59.366,441.84 47.967,448.14"];
	56 -- 72	[pos="112.71,433.89 118.47,449.29 126.74,471.4 132.46,486.7"];
	61 -- 73	[pos="202.38,234.81 215.76,235.32 231.86,235.94 245.27,236.46"];
	61 -- 63	[pos="177.2,215.59 180.04,188.49 185.37,137.75 188.22,110.69"];
}
