graph {
	graph [bb="0,0,244.14,226.57",
		outputorder=edgesfirst,
		overlap=prism,
		size="50,50!",
		start=8725
	];
	node [label="\N"];
	0	[height=0.5,
		pos="217.14,18.014",
		width=0.75];
	1	[height=0.5,
		pos="153.72,19.281",
		width=0.75];
	0 -- 1	[pos="189.88,18.559 186.92,18.618 183.91,18.678 180.96,18.737"];
	4	[height=0.5,
		pos="215.91,81.522",
		width=0.75];
	0 -- 4	[pos="216.79,36.043 216.63,44.551 216.43,54.686 216.27,63.227"];
	5	[height=0.5,
		pos="153.9,81.247",
		width=0.75];
	0 -- 5	[pos="202.16,32.999 192.22,42.933 179.22,55.929 169.22,65.93"];
	2	[height=0.5,
		pos="90.51,19.227",
		width=0.75];
	1 -- 2	[pos="126.54,19.257 123.6,19.255 120.6,19.252 117.66,19.25"];
	1 -- 4	[pos="168.77,34.347 178.41,43.989 190.87,56.463 200.56,66.161"];
	1 -- 5	[pos="153.77,37.537 153.79,45.534 153.82,54.9 153.85,62.907"];
	6	[height=0.5,
		pos="90.365,81.179",
		width=0.75];
	1 -- 6	[pos="138.38,34.264 128.57,43.853 115.87,56.258 106,65.903"];
	3	[height=0.5,
		pos="27,18",
		width=0.75];
	2 -- 3	[pos="63.207,18.699 60.249,18.642 57.238,18.584 54.279,18.527"];
	2 -- 5	[pos="105.85,34.24 115.82,43.991 128.76,56.649 138.7,66.372"];
	2 -- 6	[pos="90.467,37.479 90.449,45.474 90.427,54.838 90.408,62.843"];
	7	[height=0.5,
		pos="28.326,81.371",
		width=0.75];
	2 -- 7	[pos="75.457,34.27 65.824,43.897 53.362,56.351 43.672,66.034"];
	3 -- 6	[pos="42.017,32.973 51.971,42.898 64.994,55.883 75.016,65.875"];
	3 -- 7	[pos="27.383,36.329 27.561,44.81 27.771,54.853 27.948,63.301"];
	4 -- 5	[pos="188.89,81.402 186.28,81.391 183.63,81.379 181.02,81.367"];
	8	[height=0.5,
		pos="215.87,144.82",
		width=0.75];
	4 -- 8	[pos="215.9,99.831 215.9,108.3 215.89,118.33 215.89,126.77"];
	9	[height=0.5,
		pos="153.83,144.6",
		width=0.75];
	4 -- 9	[pos="200.89,96.791 191.12,106.71 178.46,119.58 168.72,129.47"];
	5 -- 6	[pos="126.59,81.218 123.63,81.215 120.61,81.212 117.66,81.208"];
	5 -- 8	[pos="168.9,96.637 178.65,106.63 191.29,119.61 201.01,129.57"];
	5 -- 9	[pos="153.88,99.571 153.87,108.05 153.86,118.09 153.85,126.54"];
	10	[height=0.5,
		pos="90.292,144.55",
		width=0.75];
	5 -- 10	[pos="138.83,96.25 128.83,106.2 115.76,119.21 105.7,129.22"];
	6 -- 7	[pos="63.334,81.263 60.722,81.271 58.071,81.279 55.458,81.287"];
	6 -- 9	[pos="105.41,96.209 115.38,106.17 128.42,119.21 138.46,129.24"];
	6 -- 10	[pos="90.344,99.51 90.334,107.99 90.323,118.04 90.313,126.48"];
	11	[height=0.5,
		pos="28.286,144.53",
		width=0.75];
	6 -- 11	[pos="75.338,96.515 65.577,106.48 52.908,119.4 43.175,129.34"];
	7 -- 10	[pos="43.326,96.666 53.069,106.6 65.715,119.49 75.43,129.4"];
	7 -- 11	[pos="28.314,99.639 28.309,108.09 28.303,118.1 28.297,126.52"];
	8 -- 9	[pos="188.84,144.72 186.23,144.72 183.58,144.71 180.97,144.7"];
	12	[height=0.5,
		pos="216.49,208.57",
		width=0.75];
	8 -- 12	[pos="216.05,162.92 216.13,171.46 216.23,181.63 216.31,190.2"];
	13	[height=0.5,
		pos="153.39,206.54",
		width=0.75];
	8 -- 13	[pos="200.75,159.76 191.07,169.32 178.55,181.69 168.81,191.31"];
	9 -- 10	[pos="126.52,144.58 123.56,144.58 120.55,144.58 117.59,144.57"];
	9 -- 12	[pos="168.68,159.76 178.52,169.81 191.4,182.96 201.31,193.07"];
	9 -- 13	[pos="153.7,162.85 153.65,170.84 153.58,180.21 153.52,188.21"];
	14	[height=0.5,
		pos="90.409,206.56",
		width=0.75];
	9 -- 14	[pos="138.48,159.6 128.66,169.2 115.95,181.61 106.06,191.27"];
	10 -- 11	[pos="63.276,144.54 60.665,144.54 58.016,144.54 55.404,144.54"];
	10 -- 13	[pos="105.57,159.56 115.34,169.16 127.99,181.59 137.82,191.24"];
	10 -- 14	[pos="90.327,162.82 90.342,170.82 90.359,180.2 90.375,188.21"];
	15	[height=0.5,
		pos="27.118,208.04",
		width=0.75];
	10 -- 15	[pos="75.321,159.6 65.396,169.57 52.412,182.62 42.421,192.66"];
	11 -- 14	[pos="43.324,159.55 52.948,169.15 65.397,181.59 75.078,191.25"];
	11 -- 15	[pos="27.954,162.56 27.798,171.07 27.612,181.2 27.454,189.74"];
	12 -- 13	[pos="189.36,207.7 186.42,207.6 183.43,207.51 180.49,207.41"];
	13 -- 14	[pos="126.32,206.55 123.38,206.55 120.4,206.55 117.46,206.55"];
	14 -- 15	[pos="63.201,207.2 60.252,207.26 57.252,207.33 54.304,207.4"];
}
