graph {
	graph [bb="0,0,375.53,559.82",
		outputorder=edgesfirst,
		overlap=prism,
		size="50,50!",
		start=4638
	];
	node [label="\N"];
	1	[height=0.5,
		pos="317.06,359.6",
		width=0.75];
	2	[height=0.5,
		pos="172.89,227.36",
		width=0.75];
	1 -- 2	[pos="301.08,344.94 273.37,319.52 216.7,267.55 188.94,242.08"];
	5	[height=0.5,
		pos="328.56,215.53",
		width=0.75];
	1 -- 5	[pos="318.51,341.36 320.73,313.64 324.91,261.25 327.11,233.63"];
	3	[height=0.5,
		pos="234.9,200.52",
		width=0.75];
	1 -- 3	[pos="308.26,342.58 292.53,312.12 259.74,248.62 243.88,217.9"];
	4	[height=0.5,
		pos="90.4,349.55",
		width=0.75];
	1 -- 4	[pos="289.72,358.39 246.03,356.45 161,352.68 117.48,350.76"];
	8	[height=0.5,
		pos="348.53,541.82",
		width=0.75];
	1 -- 8	[pos="320.19,377.74 326.22,412.67 339.39,488.89 345.41,523.76"];
	2 -- 5	[pos="200.01,225.3 228.49,223.13 273.03,219.75 301.49,217.59"];
	2 -- 4	[pos="161.77,243.84 146.02,267.16 117.4,309.55 101.61,332.95"];
	7	[height=0.5,
		pos="217.62,18",
		width=0.75];
	2 -- 7	[pos="176.71,209.51 185.14,170.05 205.27,75.788 213.75,36.102"];
	6	[height=0.5,
		pos="27,182.33",
		width=0.75];
	5 -- 6	[pos="301.8,212.58 244.57,206.28 110.87,191.57 53.701,185.27"];
	3 -- 5	[pos="261.49,204.78 274.25,206.83 289.5,209.27 302.23,211.31"];
	3 -- 4	[pos="219.98,215.91 192.29,244.47 133.25,305.36 105.45,334.03"];
	3 -- 7	[pos="233.18,182.35 229.87,147.37 222.64,71.022 219.33,36.094"];
	4 -- 6	[pos="83.735,331.97 71.558,299.86 45.852,232.06 33.671,199.93"];
	0	[height=0.5,
		pos="229.92,397.34",
		width=0.75];
	0 -- 2	[pos="223.92,379.47 212.94,346.73 189.73,277.54 178.81,244.99"];
	0 -- 5	[pos="239.2,380.23 258,345.58 300.39,267.44 319.23,232.72"];
	0 -- 3	[pos="230.38,379.17 231.33,341.68 233.49,256.09 234.44,218.64"];
	0 -- 4	[pos="205.62,389.01 180.01,380.24 139.93,366.52 114.42,357.78"];
	0 -- 8	[pos="243.06,413.35 265.86,441.12 312.48,497.91 335.33,525.73"];
}
