graph {
	graph [bb="0,0,513.98,425.37",
		outputorder=edgesfirst,
		overlap=prism,
		size="50,50!",
		start=2965
	];
	node [label="\N"];
	0	[height=0.5,
		pos="158.99,94.171",
		width=0.75];
	8	[height=0.5,
		pos="353.83,51.737",
		width=0.75];
	0 -- 8	[pos="184.86,88.536 222.23,80.397 290.9,65.441 328.16,57.328"];
	2	[height=0.5,
		pos="285.49,234.35",
		width=0.75];
	0 -- 2	[pos="173.01,109.71 197.32,136.65 247.04,191.75 271.4,218.74"];
	6	[height=0.5,
		pos="248.91,18",
		width=0.75];
	0 -- 6	[pos="175.9,79.843 191.98,66.225 216.02,45.86 232.07,32.263"];
	9	[height=0.5,
		pos="196.21,195.88",
		width=0.75];
	0 -- 9	[pos="165.47,111.89 172.3,130.55 183,159.77 189.8,178.36"];
	1	[height=0.5,
		pos="113.63,259.48",
		width=0.75];
	0 -- 1	[pos="154.05,112.18 145.32,143.98 127.28,209.72 118.56,241.5"];
	14	[height=0.5,
		pos="379.77,147.67",
		width=0.75];
	8 -- 14	[pos="358.71,69.781 363.35,86.933 370.28,112.58 374.91,129.71"];
	16	[height=0.5,
		pos="264.12,124.52",
		width=0.75];
	8 -- 16	[pos="336.53,65.771 320.65,78.659 297.23,97.656 281.36,110.53"];
	2 -- 8	[pos="292.04,216.84 305.07,182.02 334.1,104.45 347.2,69.462"];
	3	[height=0.5,
		pos="467.58,176.86",
		width=0.75];
	2 -- 3	[pos="310.04,226.6 344.89,215.59 408.32,195.57 443.12,184.58"];
	12	[height=0.5,
		pos="409.81,313.48",
		width=0.75];
	2 -- 12	[pos="305.18,246.89 328.46,261.71 366.96,286.21 390.2,301"];
	5	[height=0.5,
		pos="357.4,404.31",
		width=0.75];
	2 -- 5	[pos="292.91,251.9 306.73,284.55 336.23,354.28 350.01,386.86"];
	15	[height=0.5,
		pos="221.82,407.37",
		width=0.75];
	2 -- 15	[pos="279.03,251.89 266.83,285.05 240.51,356.58 228.29,389.78"];
	3 -- 8	[pos="453.4,161.27 431.49,137.16 389.64,91.122 367.83,67.134"];
	3 -- 14	[pos="443.12,168.73 430.94,164.68 416.26,159.8 404.1,155.76"];
	4	[height=0.5,
		pos="486.98,304.71",
		width=0.75];
	3 -- 4	[pos="470.32,194.91 474.01,219.27 480.56,262.43 484.25,286.75"];
	3 -- 12	[pos="460.14,194.44 449.05,220.67 428.29,269.78 417.21,295.97"];
	11	[height=0.5,
		pos="349.73,259.43",
		width=0.75];
	3 -- 11	[pos="448.9,189.94 426.97,205.31 390.77,230.67 368.7,246.14"];
	14 -- 16	[pos="353.81,142.48 334.77,138.66 309.01,133.51 289.99,129.7"];
	6 -- 8	[pos="273.24,25.825 290.07,31.236 312.38,38.41 329.26,43.838"];
	6 -- 14	[pos="264.17,33.129 289.39,58.115 339.45,107.72 364.6,132.64"];
	6 -- 9	[pos="243.66,35.706 233.59,69.713 211.64,143.82 201.52,177.98"];
	6 -- 16	[pos="251.49,36.07 254.28,55.658 258.72,86.741 261.53,106.36"];
	4 -- 14	[pos="475.71,288.2 455.17,258.12 411.87,194.7 391.21,164.43"];
	4 -- 12	[pos="459.99,307.78 452.42,308.64 444.21,309.57 436.65,310.43"];
	4 -- 5	[pos="469.23,318.35 444.56,337.32 400.13,371.47 375.34,390.52"];
	4 -- 11	[pos="462.76,296.72 437.82,288.49 399.18,275.75 374.17,267.5"];
	7	[height=0.5,
		pos="295.39,371.89",
		width=0.75];
	4 -- 7	[pos="462.71,313.22 425.86,326.14 356.19,350.57 319.46,363.45"];
	12 -- 14	[pos="406.54,295.42 400.76,263.53 388.81,197.59 383.03,165.71"];
	12 -- 15	[pos="387.88,324.44 351.65,342.53 279.75,378.44 243.62,396.49"];
	5 -- 12	[pos="367.26,387.23 376.63,370.99 390.64,346.71 399.99,330.49"];
	5 -- 11	[pos="356.44,386.26 354.97,358.49 352.17,305.62 350.7,277.72"];
	5 -- 7	[pos="336.06,393.16 329.89,389.93 323.16,386.41 316.98,383.18"];
	5 -- 15	[pos="330.29,404.92 306.64,405.46 272.52,406.23 248.89,406.76"];
	10	[height=0.5,
		pos="192.7,312.94",
		width=0.75];
	5 -- 10	[pos="336.54,392.74 304.94,375.21 245.3,342.12 213.65,324.56"];
	11 -- 14	[pos="354.55,241.48 360.16,220.62 369.35,186.42 374.95,165.58"];
	11 -- 16	[pos="339.06,242.62 322.56,216.63 291.07,166.99 274.65,141.12"];
	9 -- 14	[pos="221.35,189.28 256.4,180.07 319.59,163.47 354.64,154.27"];
	9 -- 11	[pos="219.2,205.39 248.14,217.37 297.57,237.84 326.59,249.85"];
	9 -- 10	[pos="195.67,213.91 195.01,235.84 193.91,272.66 193.25,294.69"];
	13	[height=0.5,
		pos="27,262.54",
		width=0.75];
	9 -- 13	[pos="172.69,205.15 140.36,217.88 82.552,240.65 50.329,253.35"];
	9 -- 16	[pos="210.95,180.39 222.34,168.43 238.03,151.94 249.41,139.97"];
	7 -- 11	[pos="303.88,354.32 314.09,333.19 331.12,297.95 341.3,276.88"];
	7 -- 9	[pos="285.88,355.02 266.97,321.46 224.84,246.69 205.84,212.96"];
	7 -- 15	[pos="273.32,382.54 264.01,387.03 253.19,392.25 243.88,396.73"];
	7 -- 10	[pos="274.61,359.96 256.79,349.73 231.26,335.07 213.45,324.85"];
	10 -- 11	[pos="216.89,304.69 246.4,294.64 295.99,277.74 325.51,267.69"];
	10 -- 15	[pos="198.18,330.7 203.38,347.58 211.17,372.83 216.37,389.69"];
	10 -- 13	[pos="167.89,305.39 136.56,295.86 82.985,279.57 51.705,270.05"];
	10 -- 16	[pos="199.42,295.21 213.06,259.21 243.88,177.91 257.47,142.06"];
	1 -- 2	[pos="140.1,255.61 172.4,250.89 226.67,242.95 258.98,238.23"];
	1 -- 9	[pos="131.55,245.68 145.4,235.01 164.49,220.31 178.33,209.65"];
	1 -- 15	[pos="125.62,275.88 146.42,304.3 188.94,362.43 209.78,390.91"];
	1 -- 10	[pos="132.77,272.42 145.2,280.83 161.34,291.74 173.73,300.12"];
	1 -- 13	[pos="86.219,260.45 76.008,260.81 64.427,261.22 54.232,261.58"];
}
