graph {
	graph [bb="0,0,1727.6,1440.8",
		outputorder=edgesfirst,
		overlap=prism,
		size="50,50!",
		start=4367
	];
	node [label="\N"];
	0	[height=0.5,
		pos="1159.1,659.65",
		width=0.75];
	20	[height=0.5,
		pos="1515.3,675.48",
		width=0.75];
	0 -- 20	[pos="1186.1,660.85 1252.4,663.8 1422.1,671.34 1488.3,674.28"];
	23	[height=0.5,
		pos="1540.6,813.38",
		width=0.75];
	0 -- 23	[pos="1182.3,669.03 1250.5,696.48 1448.8,776.38 1517.1,803.92"];
	27	[height=0.5,
		pos="1513.6,722.77",
		width=0.75];
	0 -- 27	[pos="1185.4,664.34 1251,676.03 1421.2,706.33 1487,718.05"];
	30	[height=0.5,
		pos="889.95,594.04",
		width=0.75];
	0 -- 30	[pos="1133.3,653.36 1081.8,640.82 967.04,612.83 915.67,600.31"];
	31	[height=0.5,
		pos="1309.8,466.33",
		width=0.75];
	0 -- 31	[pos="1171.6,643.5 1200,607.11 1268.7,519.04 1297.2,482.57"];
	6	[height=0.5,
		pos="1248.2,607.97",
		width=0.75];
	0 -- 6	[pos="1179.7,647.66 1194.1,639.31 1213.3,628.22 1227.7,619.89"];
	33	[height=0.5,
		pos="1300.2,958.9",
		width=0.75];
	0 -- 33	[pos="1167.3,677.03 1192.2,729.92 1267,888.52 1292,941.47"];
	36	[height=0.5,
		pos="1073.8,973.85",
		width=0.75];
	0 -- 36	[pos="1154.2,677.44 1139.3,732.62 1093.7,900.43 1078.7,955.87"];
	37	[height=0.5,
		pos="827.88,576.28",
		width=0.75];
	0 -- 37	[pos="1133.6,653.24 1072,637.73 915.14,598.25 853.41,582.71"];
	38	[height=0.5,
		pos="924.28,437.33",
		width=0.75];
	0 -- 38	[pos="1143.3,644.72 1100.5,604.22 982.67,492.62 939.98,452.2"];
	39	[height=0.5,
		pos="811.85,774.22",
		width=0.75];
	0 -- 39	[pos="1134.6,667.7 1070.9,688.74 899.95,745.15 836.23,766.17"];
	40	[height=0.5,
		pos="1274.5,657.8",
		width=0.75];
	0 -- 40	[pos="1186.1,659.22 1204.5,658.92 1228.7,658.53 1247.2,658.24"];
	41	[height=0.5,
		pos="1315.7,710.66",
		width=0.75];
	0 -- 41	[pos="1183.5,667.62 1212.9,677.2 1262,693.18 1291.4,702.74"];
	43	[height=0.5,
		pos="1371.9,481.57",
		width=0.75];
	0 -- 43	[pos="1176.1,645.38 1216.1,611.95 1315.3,528.91 1355,495.66"];
	45	[height=0.5,
		pos="1375.3,896.56",
		width=0.75];
	0 -- 45	[pos="1173.2,675.19 1212.4,718.12 1321.8,837.97 1361,880.96"];
	47	[height=0.5,
		pos="1187,792.29",
		width=0.75];
	0 -- 47	[pos="1162.8,677.54 1168.2,702.85 1177.9,748.87 1183.2,774.26"];
	17	[height=0.5,
		pos="1045.8,774.5",
		width=0.75];
	0 -- 17	[pos="1143.8,675.14 1122,697.18 1082.4,737.35 1060.8,759.25"];
	48	[height=0.5,
		pos="1434.3,513.08",
		width=0.75];
	0 -- 48	[pos="1180.2,648.39 1231.4,621.11 1361.8,551.7 1413.1,524.38"];
	51	[height=0.5,
		pos="1228.2,887.7",
		width=0.75];
	0 -- 51	[pos="1164.5,677.54 1177.4,720.17 1209.9,827.34 1222.8,869.89"];
	21	[height=0.5,
		pos="1638.5,762.42",
		width=0.75];
	20 -- 21	[pos="1534,688.69 1557.2,705.03 1596.4,732.7 1619.7,749.09"];
	24	[height=0.5,
		pos="1461.2,1114.7",
		width=0.75];
	23 -- 24	[pos="1535.9,831.32 1521.8,884.93 1480,1043.4 1465.9,1096.9"];
	28	[height=0.5,
		pos="1623.7,903.34",
		width=0.75];
	27 -- 28	[pos="1523.9,739.76 1545,774.26 1592.5,852.18 1613.4,886.53"];
	32	[height=0.5,
		pos="1199.3,275.06",
		width=0.75];
	31 -- 32	[pos="1300,449.35 1279,413.06 1230,328.26 1209.1,292"];
	6 -- 17	[pos="1231,622.16 1192.7,653.63 1101.2,728.91 1063,760.34"];
	55	[height=0.5,
		pos="1221.1,703.65",
		width=0.75];
	6 -- 55	[pos="1243.1,625.96 1238.3,643.07 1231,668.65 1226.2,685.73"];
	12	[height=0.5,
		pos="1153.1,703.76",
		width=0.75];
	6 -- 12	[pos="1232.9,623.36 1215.1,641.34 1185.7,670.89 1168,688.72"];
	87	[height=0.5,
		pos="1028.9,697.46",
		width=0.75];
	6 -- 87	[pos="1225.2,617.37 1183.1,634.56 1094.1,670.85 1052,688.04"];
	188	[height=0.5,
		pos="1236.3,415.63",
		width=0.75];
	6 -- 188	[pos="1247.1,589.87 1244.8,553.21 1239.7,470.55 1237.4,433.82"];
	14	[height=0.5,
		pos="1200.1,504.29",
		width=0.75];
	6 -- 14	[pos="1240.1,590.38 1231.2,571.2 1217,540.69 1208.1,521.61"];
	219	[height=0.5,
		pos="1314.7,422.29",
		width=0.75];
	6 -- 219	[pos="1254.6,590.16 1267.3,554.67 1295.6,475.48 1308.3,440.04"];
	222	[height=0.5,
		pos="1575.7,719.49",
		width=0.75];
	6 -- 222	[pos="1272.3,616.17 1332.9,636.79 1491,690.64 1551.6,711.28"];
	225	[height=0.5,
		pos="1400.4,382.42",
		width=0.75];
	6 -- 225	[pos="1259.4,591.38 1287.5,549.67 1361,440.77 1389.2,399.03"];
	229	[height=0.5,
		pos="1340.2,334.18",
		width=0.75];
	6 -- 229	[pos="1254.3,590 1271,540.27 1317.7,401.23 1334.2,351.86"];
	232	[height=0.5,
		pos="1166.8,451.15",
		width=0.75];
	6 -- 232	[pos="1239.4,590.89 1223.7,560.72 1191.3,498.36 1175.6,468.21"];
	234	[height=0.5,
		pos="1391.2,601.12",
		width=0.75];
	6 -- 234	[pos="1275.5,606.66 1300.9,605.44 1338.7,603.64 1364.1,602.42"];
	236	[height=0.5,
		pos="1496.1,768.97",
		width=0.75];
	6 -- 236	[pos="1267.7,620.6 1314,650.7 1430.5,726.36 1476.8,756.39"];
	238	[height=0.5,
		pos="1567.3,631.46",
		width=0.75];
	6 -- 238	[pos="1275.2,609.95 1335.3,614.37 1479.8,625.01 1540.1,629.45"];
	242	[height=0.5,
		pos="1500.2,518.57",
		width=0.75];
	6 -- 242	[pos="1272.4,599.39 1320.5,582.31 1428,544.18 1476.1,527.11"];
	246	[height=0.5,
		pos="980.05,767.01",
		width=0.75];
	6 -- 246	[pos="1227.6,620.18 1177.6,649.86 1050.1,725.48 1000.3,754.97"];
	120	[height=0.5,
		pos="1574,587.42",
		width=0.75];
	6 -- 120	[pos="1275.2,606.27 1336.4,602.4 1485.7,592.99 1547,589.12"];
	157	[height=0.5,
		pos="1457.9,448.92",
		width=0.75];
	6 -- 157	[pos="1266.1,594.4 1305.7,564.36 1400.5,492.46 1440.1,462.44"];
	34	[height=0.5,
		pos="881.56,1334",
		width=0.75];
	33 -- 34	[pos="1284,973.38 1217.5,1033 964.79,1259.5 897.89,1319.4"];
	42	[height=0.5,
		pos="921.7,859.19",
		width=0.75];
	41 -- 42	[pos="1291.9,719.61 1221.7,746.08 1015.7,823.74 945.48,850.22"];
	44	[height=0.5,
		pos="1419.2,337.9",
		width=0.75];
	43 -- 44	[pos="1377.7,463.95 1386.8,436.38 1404.2,383.32 1413.3,355.66"];
	46	[height=0.5,
		pos="1023.4,1172.9",
		width=0.75];
	45 -- 46	[pos="1357.3,910.65 1296.8,958.15 1100.7,1112.2 1040.9,1159.1"];
	105	[height=0.5,
		pos="897.74,924.28",
		width=0.75];
	17 -- 105	[pos="1030.8,789.68 1002.4,818.39 941.19,880.32 912.79,909.06"];
	19	[height=0.5,
		pos="681.46,900.94",
		width=0.75];
	17 -- 19	[pos="1021.6,782.89 955.46,805.84 772.25,869.43 705.88,892.47"];
	325	[height=0.5,
		pos="889.71,528.89",
		width=0.75];
	17 -- 325	[pos="1035,757.62 1006.5,712.64 928.73,590.3 900.3,545.56"];
	339	[height=0.5,
		pos="805.65,836.25",
		width=0.75];
	17 -- 339	[pos="1020.5,780.99 974.4,792.85 877.04,817.89 830.91,829.75"];
	385	[height=0.5,
		pos="1113.6,833.43",
		width=0.75];
	17 -- 385	[pos="1062.5,789.07 1073,798.2 1086.5,809.93 1097,819.03"];
	388	[height=0.5,
		pos="987.5,641.45",
		width=0.75];
	17 -- 388	[pos="1038.1,757.1 1027,731.61 1006.3,684.35 995.12,658.85"];
	81	[height=0.5,
		pos="1375.3,849.81",
		width=0.75];
	17 -- 81	[pos="1071.3,780.35 1132.7,794.38 1287.9,829.84 1349.5,843.92"];
	144	[height=0.5,
		pos="1313.2,887.36",
		width=0.75];
	17 -- 144	[pos="1069,784.32 1119.7,805.71 1239.7,856.34 1290.2,877.64"];
	184	[height=0.5,
		pos="952,560.66",
		width=0.75];
	17 -- 184	[pos="1038.1,757 1020.5,716.8 977.25,618.24 959.65,578.1"];
	216	[height=0.5,
		pos="1329.1,578.55",
		width=0.75];
	17 -- 216	[pos="1064.8,761.34 1116.4,725.64 1258.6,627.28 1310.2,591.66"];
	266	[height=0.5,
		pos="989.98,991.27",
		width=0.75];
	17 -- 266	[pos="1041.1,792.61 1030.6,833.51 1005.1,932.65 994.58,973.37"];
	290	[height=0.5,
		pos="1362.2,940.64",
		width=0.75];
	17 -- 290	[pos="1067,785.66 1124.5,815.85 1282.8,898.92 1340.7,929.31"];
	310	[height=0.5,
		pos="1262.1,514.06",
		width=0.75];
	17 -- 310	[pos="1059,758.6 1097.6,712.1 1210.1,576.73 1248.8,530.08"];
	362	[height=0.5,
		pos="1300.1,1003",
		width=0.75];
	17 -- 362	[pos="1062.1,789.14 1108,830.42 1238.2,947.38 1283.9,988.5"];
	373	[height=0.5,
		pos="1377.7,725.07",
		width=0.75];
	17 -- 373	[pos="1072.4,770.54 1134.5,761.28 1288.7,738.32 1351,729.05"];
	381	[height=0.5,
		pos="1176.1,1017.1",
		width=0.75];
	17 -- 381	[pos="1054.9,791.56 1078.8,836.1 1143,955.55 1166.9,1000.1"];
	49	[height=0.5,
		pos="1447.5,248.85",
		width=0.75];
	48 -- 49	[pos="1435.2,494.92 1437.6,446.65 1444.2,315.56 1446.6,267.14"];
	52	[height=0.5,
		pos="898.63,1158",
		width=0.75];
	51 -- 52	[pos="1210.9,901.86 1154,948.56 972.41,1097.5 915.71,1144"];
	1	[height=0.5,
		pos="983.72,816.02",
		width=0.75];
	2	[height=0.5,
		pos="767.01,880.28",
		width=0.75];
	1 -- 2	[pos="958.86,823.39 917.17,835.75 833.63,860.52 791.92,872.89"];
	3	[height=0.5,
		pos="1135.9,973.1",
		width=0.75];
	1 -- 3	[pos="998.59,831.37 1027.8,861.48 1092.2,927.95 1121.2,957.92"];
	53	[height=0.5,
		pos="749.62,758.51",
		width=0.75];
	1 -- 53	[pos="958.22,809.76 913.19,798.69 820.1,775.82 775.09,764.77"];
	54	[height=0.5,
		pos="1094.2,589.64",
		width=0.75];
	1 -- 54	[pos="992.2,798.63 1012.8,756.39 1065.4,648.76 1085.8,606.78"];
	1 -- 55	[pos="1006.1,805.45 1051.4,783.98 1153.8,735.49 1199,714.11"];
	56	[height=0.5,
		pos="771.79,963.29",
		width=0.75];
	1 -- 56	[pos="964.91,829.09 924.69,857.04 830.73,922.33 790.55,950.25"];
	60	[height=0.5,
		pos="1105,1074.8",
		width=0.75];
	1 -- 60	[pos="991.86,833.4 1014,880.55 1074.8,1010.4 1096.9,1057.5"];
	64	[height=0.5,
		pos="892.06,690.36",
		width=0.75];
	1 -- 64	[pos="971.73,799.59 954.17,775.51 921.61,730.88 904.04,706.79"];
	66	[height=0.5,
		pos="793.9,621.82",
		width=0.75];
	1 -- 66	[pos="968.82,800.78 933.34,764.48 844.14,673.22 808.73,636.99"];
	67	[height=0.5,
		pos="862.45,1064.4",
		width=0.75];
	1 -- 67	[pos="975.19,833.49 952.92,879.09 893.22,1001.4 870.97,1046.9"];
	1 -- 12	[pos="1003.1,803.14 1035.8,781.49 1101.4,738.04 1133.9,716.48"];
	71	[height=0.5,
		pos="1027.3,1073.4",
		width=0.75];
	1 -- 71	[pos="986.78,834.12 994.79,881.38 1016.2,1008.1 1024.2,1055.4"];
	75	[height=0.5,
		pos="1177.3,612.02",
		width=0.75];
	1 -- 75	[pos="998.27,800.69 1034.2,762.79 1127,665.04 1162.8,627.25"];
	76	[height=0.5,
		pos="1052,1029.4",
		width=0.75];
	1 -- 76	[pos="989.42,833.85 1002.3,874.11 1033.5,971.7 1046.4,1011.8"];
	16	[height=0.5,
		pos="983.23,903.25",
		width=0.75];
	1 -- 16	[pos="983.62,834.1 983.53,849.07 983.42,870.24 983.33,885.2"];
	79	[height=0.5,
		pos="1192.6,840.17",
		width=0.75];
	1 -- 79	[pos="1010.6,819.13 1050.7,823.76 1125.8,832.44 1165.8,837.07"];
	18	[height=0.5,
		pos="863.32,644.8",
		width=0.75];
	1 -- 18	[pos="972.17,799.6 949.16,766.88 897.81,693.85 874.83,661.17"];
	82	[height=0.5,
		pos="924.67,976.35",
		width=0.75];
	1 -- 82	[pos="977.17,833.79 965.82,864.61 942.61,927.63 931.24,958.5"];
	22	[height=0.5,
		pos="1249.1,795.89",
		width=0.75];
	1 -- 22	[pos="1010.6,813.98 1061.5,810.12 1171.2,801.8 1222.1,797.94"];
	2 -- 16	[pos="793.96,883.14 835.51,887.56 914.74,895.98 956.29,900.39"];
	84	[height=0.5,
		pos="922.43,1020.4",
		width=0.75];
	2 -- 84	[pos="783.35,895 813.28,921.98 876.55,979.01 906.31,1005.8"];
	4	[height=0.5,
		pos="661.1,644.75",
		width=0.75];
	2 -- 4	[pos="759.23,862.96 739.64,819.4 688.49,705.68 668.89,662.09"];
	85	[height=0.5,
		pos="621.15,776.79",
		width=0.75];
	2 -- 85	[pos="748.24,866.96 720.24,847.09 667.82,809.9 639.85,790.06"];
	2 -- 87	[pos="785.85,867.13 834.18,833.4 962.13,744.09 1010.3,710.49"];
	7	[height=0.5,
		pos="556.07,920.67",
		width=0.75];
	2 -- 7	[pos="740.72,885.31 700.08,893.09 622.47,907.96 582.03,915.7"];
	88	[height=0.5,
		pos="799.79,1076.3",
		width=0.75];
	2 -- 88	[pos="770.04,898.37 776.28,935.72 790.53,1021 796.77,1058.3"];
	89	[height=0.5,
		pos="541.39,968.31",
		width=0.75];
	2 -- 89	[pos="743.29,889.53 699.85,906.48 608,942.32 564.79,959.18"];
	93	[height=0.5,
		pos="493.27,924.27",
		width=0.75];
	2 -- 93	[pos="740.27,884.58 687.8,893.01 571.95,911.62 519.72,920.02"];
	97	[height=0.5,
		pos="595.69,1056.3",
		width=0.75];
	2 -- 97	[pos="752.11,895.59 719.63,928.97 642.77,1007.9 610.43,1041.2"];
	101	[height=0.5,
		pos="814,1120.4",
		width=0.75];
	2 -- 101	[pos="770.55,898.32 779.28,942.92 801.79,1058 810.5,1102.4"];
	13	[height=0.5,
		pos="743.6,802.55",
		width=0.75];
	2 -- 13	[pos="761.58,862.25 757.77,849.6 752.71,832.78 748.92,820.21"];
	104	[height=0.5,
		pos="925.34,642.79",
		width=0.75];
	2 -- 104	[pos="778.15,863.58 807.22,819.97 885.16,703.06 914.22,659.47"];
	15	[height=0.5,
		pos="833.68,1016.4",
		width=0.75];
	2 -- 15	[pos="775.46,897.51 788.21,923.54 812.26,972.63 825.1,998.83"];
	2 -- 105	[pos="791.3,888.45 814.78,896.36 850.15,908.26 873.59,916.15"];
	106	[height=0.5,
		pos="467.95,880.25",
		width=0.75];
	2 -- 106	[pos="739.95,880.28 683.15,880.27 552.1,880.26 495.17,880.25"];
	110	[height=0.5,
		pos="657.74,1077",
		width=0.75];
	2 -- 110	[pos="757.51,897.39 736.79,934.69 687.78,1022.9 667.15,1060.1"];
	26	[height=0.5,
		pos="816.1,1179.6",
		width=0.75];
	2 -- 26	[pos="770.01,898.55 778.79,952.11 804.41,1108.3 813.14,1161.5"];
	3 -- 12	[pos="1137.1,955.01 1140.2,905.95 1148.8,770.74 1151.9,721.77"];
	3 -- 16	[pos="1113.4,962.8 1084.5,949.59 1034.8,926.83 1005.9,913.6"];
	3 -- 84	[pos="1110.2,978.8 1069.1,987.89 989.37,1005.5 948.28,1014.6"];
	113	[height=0.5,
		pos="1237.7,959.09",
		width=0.75];
	3 -- 113	[pos="1162.4,969.46 1177.3,967.4 1196,964.83 1211,962.77"];
	115	[height=0.5,
		pos="1459.2,829.34",
		width=0.75];
	3 -- 115	[pos="1158.4,963.11 1217.5,936.81 1377,865.9 1436.4,839.46"];
	117	[height=0.5,
		pos="1486.5,974.82",
		width=0.75];
	3 -- 117	[pos="1163.1,973.24 1228.5,973.56 1393.5,974.37 1459,974.69"];
	121	[height=0.5,
		pos="1284.1,1192.6",
		width=0.75];
	3 -- 121	[pos="1147.1,989.6 1174.5,1030.3 1245.3,1135 1272.9,1175.9"];
	8	[height=0.5,
		pos="963.02,1068.3",
		width=0.75];
	3 -- 8	[pos="1115.1,984.59 1081.8,1002.9 1017.2,1038.5 983.96,1056.8"];
	125	[height=0.5,
		pos="1093.9,1183.3",
		width=0.75];
	3 -- 125	[pos="1132.3,991.03 1124.4,1030.7 1105.4,1125.8 1097.4,1165.5"];
	129	[height=0.5,
		pos="1437.3,903.41",
		width=0.75];
	3 -- 129	[pos="1161.6,967.16 1218.6,953.99 1354.8,922.49 1411.7,909.33"];
	132	[height=0.5,
		pos="1156.5,1140.5",
		width=0.75];
	3 -- 132	[pos="1138.2,991.33 1142.1,1023.6 1150.3,1090.4 1154.3,1122.5"];
	135	[height=0.5,
		pos="1331.8,1097.8",
		width=0.75];
	3 -- 135	[pos="1155.8,985.74 1193.4,1009.7 1274.7,1061.4 1312.2,1085.3"];
	138	[height=0.5,
		pos="1561.4,894.49",
		width=0.75];
	3 -- 138	[pos="1162.2,968.25 1238.5,954.15 1459.2,913.37 1535.3,899.32"];
	140	[height=0.5,
		pos="1399,1105.8",
		width=0.75];
	3 -- 140	[pos="1157.9,984.19 1207.5,1009.2 1327.8,1069.9 1377.2,1094.9"];
	143	[height=0.5,
		pos="1362.1,1045.2",
		width=0.75];
	3 -- 143	[pos="1160.6,980.96 1204.1,994.83 1294,1023.5 1337.5,1037.4"];
	145	[height=0.5,
		pos="1424.2,1061.8",
		width=0.75];
	3 -- 145	[pos="1160.5,980.67 1214.8,997.39 1344.6,1037.3 1399.2,1054.2"];
	149	[height=0.5,
		pos="1335.5,1148.6",
		width=0.75];
	3 -- 149	[pos="1152.3,987.46 1189.7,1020.4 1281.3,1100.9 1318.9,1134"];
	29	[height=0.5,
		pos="1424.5,1016.3",
		width=0.75];
	3 -- 29	[pos="1162.3,977.05 1217.1,985.25 1342.8,1004.1 1397.8,1012.3"];
	57	[height=0.5,
		pos="360.76,1195.2",
		width=0.75];
	56 -- 57	[pos="751.12,974.95 680.96,1014.5 452.3,1143.6 381.71,1183.4"];
	61	[height=0.5,
		pos="1299.2,1256.1",
		width=0.75];
	60 -- 61	[pos="1120.9,1089.6 1157.4,1123.7 1246.9,1207.3 1283.4,1241.3"];
	65	[height=0.5,
		pos="595.66,524.57",
		width=0.75];
	64 -- 65	[pos="871.22,678.71 816.79,648.26 670.87,566.64 616.48,536.22"];
	68	[height=0.5,
		pos="543.16,1289.8",
		width=0.75];
	67 -- 68	[pos="843.9,1077.5 787.47,1117.3 618.26,1236.8 561.75,1276.6"];
	12 -- 40	[pos="1176.8,694.79 1198.2,686.69 1229.5,674.84 1250.8,666.75"];
	12 -- 17	[pos="1133.4,716.73 1113.9,729.58 1084.3,749.11 1065,761.84"];
	12 -- 13	[pos="1127.5,709.94 1053.9,727.68 842.74,778.63 769.21,796.37"];
	12 -- 14	[pos="1157.3,685.7 1166.3,647.73 1187,559.97 1195.9,522.15"];
	278	[height=0.5,
		pos="1166.2,928.51",
		width=0.75];
	12 -- 278	[pos="1154.1,721.77 1156.6,763.85 1162.7,868.24 1165.1,910.41"];
	332	[height=0.5,
		pos="874.24,737.61",
		width=0.75];
	12 -- 332	[pos="1126.4,707 1073.1,713.47 954.13,727.91 900.9,734.37"];
	343	[height=0.5,
		pos="1073.8,928.49",
		width=0.75];
	12 -- 343	[pos="1146.9,721.39 1132.1,763.4 1094.8,869.01 1080,910.94"];
	344	[height=0.5,
		pos="1427.4,769.12",
		width=0.75];
	12 -- 344	[pos="1178.9,709.91 1231.3,722.4 1349.7,750.6 1401.9,763.04"];
	348	[height=0.5,
		pos="1031.9,597.42",
		width=0.75];
	12 -- 348	[pos="1136.7,689.42 1113.6,669.12 1071.6,632.23 1048.4,611.88"];
	349	[height=0.5,
		pos="1336.5,647.37",
		width=0.75];
	12 -- 349	[pos="1177.8,696.15 1212.9,685.36 1276.8,665.72 1311.9,654.95"];
	103	[height=0.5,
		pos="1365.4,805.79",
		width=0.75];
	12 -- 103	[pos="1175,714.29 1215.7,733.84 1302.4,775.54 1343.3,795.16"];
	171	[height=0.5,
		pos="1170,567.98",
		width=0.75];
	12 -- 171	[pos="1155.3,685.73 1158.6,659.76 1164.5,612.09 1167.8,586.08"];
	207	[height=0.5,
		pos="1435.3,681.01",
		width=0.75];
	12 -- 207	[pos="1179.9,701.6 1233.7,697.26 1354.3,687.54 1408.3,683.19"];
	256	[height=0.5,
		pos="1267,558.07",
		width=0.75];
	12 -- 256	[pos="1165.7,687.61 1187.6,659.6 1232.4,602.34 1254.3,574.29"];
	295	[height=0.5,
		pos="1014,542.36",
		width=0.75];
	12 -- 295	[pos="1139.5,687.99 1113,657.21 1054.6,589.45 1027.9,558.43"];
	315	[height=0.5,
		pos="1138.1,495.18",
		width=0.75];
	12 -- 315	[pos="1151.8,685.61 1148.9,646.17 1142.2,552.98 1139.4,513.43"];
	72	[height=0.5,
		pos="883.74,1378.8",
		width=0.75];
	71 -- 72	[pos="1019.2,1090.7 993.97,1144.3 917.29,1307.4 891.96,1361.3"];
	77	[height=0.5,
		pos="1189.4,1289",
		width=0.75];
	76 -- 77	[pos="1061,1046.4 1085.9,1093.5 1155.4,1224.8 1180.3,1271.9"];
	16 -- 47	[pos="1004.3,891.8 1043.4,870.48 1127,824.95 1166.1,803.68"];
	16 -- 18	[pos="975.18,885.89 953.33,838.81 893.14,709.08 871.34,662.08"];
	264	[height=0.5,
		pos="709.06,981.18",
		width=0.75];
	16 -- 264	[pos="957.93,910.44 905.56,925.33 785.87,959.35 733.9,974.12"];
	338	[height=0.5,
		pos="703.63,856.93",
		width=0.75];
	16 -- 338	[pos="956.93,898.9 903.64,890.07 783.47,870.16 730.07,861.31"];
	16 -- 385	[pos="1004.5,891.88 1028.7,878.89 1068.1,857.78 1092.4,844.8"];
	386	[height=0.5,
		pos="966.08,1117.5",
		width=0.75];
	16 -- 386	[pos="981.77,921.52 978.53,961.98 970.77,1058.8 967.53,1099.2"];
	182	[height=0.5,
		pos="1095.6,635.37",
		width=0.75];
	16 -- 182	[pos="990.6,885.68 1011,837.14 1067.8,701.63 1088.2,653.01"];
	214	[height=0.5,
		pos="1253.5,747.97",
		width=0.75];
	16 -- 214	[pos="1004,891.33 1054.4,862.35 1182.9,788.52 1233,759.73"];
	241	[height=0.5,
		pos="1238.1,1017.3",
		width=0.75];
	16 -- 241	[pos="1005.8,913.38 1054.2,935.02 1167.2,985.59 1215.5,1007.2"];
	286	[height=0.5,
		pos="1028.6,1128.4",
		width=0.75];
	16 -- 286	[pos="986.86,921.3 995.35,963.47 1016.4,1068.1 1024.9,1110.3"];
	306	[height=0.5,
		pos="879.77,1109.8",
		width=0.75];
	16 -- 306	[pos="974.59,920.51 955.11,959.39 907.98,1053.5 888.46,1092.5"];
	324	[height=0.5,
		pos="819.55,693.56",
		width=0.75];
	16 -- 324	[pos="970.66,887.15 940.19,848.11 862.68,748.81 832.16,709.72"];
	347	[height=0.5,
		pos="1168,1076.6",
		width=0.75];
	16 -- 347	[pos="998.98,918.04 1033.9,950.79 1117.4,1029.2 1152.3,1061.9"];
	358	[height=0.5,
		pos="1166.7,748.06",
		width=0.75];
	16 -- 358	[pos="1000.2,888.93 1035.1,859.37 1114.9,791.89 1149.8,762.35"];
	369	[height=0.5,
		pos="1254.6,843.21",
		width=0.75];
	16 -- 369	[pos="1009.3,897.5 1061.1,886.02 1176.9,860.41 1228.7,848.95"];
	80	[height=0.5,
		pos="1499.4,888.19",
		width=0.75];
	79 -- 80	[pos="1219,844.3 1277,853.38 1414.9,874.96 1472.9,884.04"];
	291	[height=0.5,
		pos="859.64,880.27",
		width=0.75];
	18 -- 291	[pos="863.04,662.89 862.35,706.72 860.61,818.23 859.92,862.12"];
	18 -- 348	[pos="888.56,637.71 920.43,628.75 974.93,613.43 1006.8,604.49"];
	18 -- 388	[pos="890.57,644.07 911.27,643.51 939.62,642.74 960.31,642.18"];
	389	[height=0.5,
		pos="659.99,556.69",
		width=0.75];
	18 -- 389	[pos="840.39,634.86 801.23,617.9 721.93,583.53 682.83,566.59"];
	50	[height=0.5,
		pos="1051.4,467.86",
		width=0.75];
	18 -- 50	[pos="879.03,630.02 914.43,596.71 1000.1,516.11 1035.6,482.72"];
	109	[height=0.5,
		pos="704.55,460.84",
		width=0.75];
	18 -- 109	[pos="849.78,629.12 819.79,594.36 748.02,511.2 718.05,476.48"];
	148	[height=0.5,
		pos="1076.1,520.12",
		width=0.75];
	18 -- 148	[pos="883.72,632.85 924.38,609.01 1015.1,555.84 1055.7,532.04"];
	186	[height=0.5,
		pos="828.7,480.04",
		width=0.75];
	18 -- 186	[pos="859.55,626.85 852.89,595.16 839.12,529.64 832.46,497.96"];
	245	[height=0.5,
		pos="996.32,397.2",
		width=0.75];
	18 -- 245	[pos="872.46,627.78 896.76,582.55 962.75,459.71 987.12,414.34"];
	268	[height=0.5,
		pos="607.03,688.77",
		width=0.75];
	18 -- 268	[pos="836.86,649.34 787.62,657.79 682.48,675.82 633.35,684.25"];
	328	[height=0.5,
		pos="872.02,377.38",
		width=0.75];
	18 -- 328	[pos="863.92,626.42 865.51,577.45 869.84,444.25 871.43,395.53"];
	342	[height=0.5,
		pos="710.62,511.71",
		width=0.75];
	18 -- 342	[pos="846.69,630.3 817.31,604.7 756.59,551.77 727.23,526.19"];
	377	[height=0.5,
		pos="934.1,362.57",
		width=0.75];
	18 -- 377	[pos="867.85,626.72 880.64,575.74 916.86,431.29 929.6,380.5"];
	383	[height=0.5,
		pos="737.82,714.49",
		width=0.75];
	18 -- 383	[pos="842.31,656.46 819.15,669.33 782.09,689.9 758.89,702.78"];
	83	[height=0.5,
		pos="744.06,1191.6",
		width=0.75];
	82 -- 83	[pos="911.39,992.18 877.99,1032 790.78,1135.9 757.36,1175.8"];
	4 -- 30	[pos="686.9,639.03 730.97,629.26 820.23,609.49 864.23,599.74"];
	4 -- 53	[pos="673.78,661.05 690.61,682.67 720.15,720.63 736.96,742.24"];
	153	[height=0.5,
		pos="809.91,377.05",
		width=0.75];
	4 -- 153	[pos="670.63,627.6 697.51,579.24 773.67,442.24 800.45,394.06"];
	154	[height=0.5,
		pos="637.48,306.96",
		width=0.75];
	4 -- 154	[pos="659.83,626.59 655.72,567.94 642.86,383.99 638.75,325.21"];
	158	[height=0.5,
		pos="404.6,765.89",
		width=0.75];
	4 -- 158	[pos="638.78,655.29 590.15,678.25 475.1,732.59 426.68,755.46"];
	159	[height=0.5,
		pos="364.81,706.23",
		width=0.75];
	4 -- 159	[pos="635.06,650.15 578.86,661.81 446.73,689.23 390.68,700.86"];
	9	[height=0.5,
		pos="549.36,574.5",
		width=0.75];
	4 -- 9	[pos="641.38,632.35 621.08,619.59 589.62,599.81 569.26,587.01"];
	162	[height=0.5,
		pos="471.26,488.25",
		width=0.75];
	4 -- 162	[pos="643.91,630.58 607.77,600.79 524.25,531.94 488.26,502.27"];
	166	[height=0.5,
		pos="379.54,493.01",
		width=0.75];
	4 -- 166	[pos="639.93,633.34 587.63,605.15 452.72,532.45 400.56,504.34"];
	170	[height=0.5,
		pos="766.6,450.47",
		width=0.75];
	4 -- 170	[pos="670.46,627.51 690.48,590.64 737.26,504.51 757.26,467.67"];
	172	[height=0.5,
		pos="429.23,444.22",
		width=0.75];
	4 -- 172	[pos="644.42,630.33 601.64,593.33 488.37,495.37 445.75,458.51"];
	176	[height=0.5,
		pos="890.72,484.86",
		width=0.75];
	4 -- 176	[pos="679.89,631.66 723.05,601.61 828.89,527.91 871.99,497.9"];
	177	[height=0.5,
		pos="427.31,721.83",
		width=0.75];
	4 -- 177	[pos="636.52,652.85 591.5,667.69 496.33,699.07 451.56,713.83"];
	179	[height=0.5,
		pos="531.01,378.11",
		width=0.75];
	4 -- 179	[pos="652.56,627.25 628.93,578.82 562.87,443.41 539.41,395.32"];
	183	[height=0.5,
		pos="642.26,475.62",
		width=0.75];
	4 -- 183	[pos="659.08,626.65 655.45,594.1 647.87,526.05 644.26,493.59"];
	185	[height=0.5,
		pos="535.63,471.54",
		width=0.75];
	4 -- 185	[pos="649.29,628.45 625.38,595.44 571.45,521 547.49,487.92"];
	187	[height=0.5,
		pos="489.55,763.25",
		width=0.75];
	4 -- 187	[pos="642.08,657.88 609.02,680.72 541.33,727.49 508.39,750.24"];
	114	[height=0.5,
		pos="723.12,670.48",
		width=0.75];
	4 -- 114	[pos="684.19,654.33 689.29,656.44 694.69,658.68 699.8,660.8"];
	86	[height=0.5,
		pos="954.55,299.76",
		width=0.75];
	85 -- 86	[pos="632.63,760.37 683.93,686.97 891.92,389.37 943.12,316.12"];
	7 -- 158	[pos="541.27,905.55 512.39,876.03 448.79,811.05 419.68,781.3"];
	247	[height=0.5,
		pos="682.04,1161.6",
		width=0.75];
	7 -- 247	[pos="565.13,937.99 588.37,982.44 649.91,1100.1 673.07,1144.4"];
	248	[height=0.5,
		pos="229.32,889.93",
		width=0.75];
	7 -- 248	[pos="529.33,918.15 468.06,912.39 318.06,898.28 256.43,892.48"];
	250	[height=0.5,
		pos="198.3,970.69",
		width=0.75];
	7 -- 250	[pos="529.47,924.39 463.24,933.65 291.49,957.66 225.07,966.95"];
	11	[height=0.5,
		pos="567.66,820.82",
		width=0.75];
	7 -- 11	[pos="558.2,902.36 560.29,884.34 563.46,856.99 565.54,839.01"];
	253	[height=0.5,
		pos="211.31,1059.8",
		width=0.75];
	7 -- 253	[pos="532.92,930.02 470.26,955.31 297.89,1024.9 234.82,1050.4"];
	257	[height=0.5,
		pos="356.01,1107.2",
		width=0.75];
	7 -- 257	[pos="540.04,935.62 502.49,970.64 409.19,1057.6 371.84,1092.5"];
	260	[height=0.5,
		pos="345.76,809.89",
		width=0.75];
	7 -- 260	[pos="534.75,909.44 494.44,888.21 407.49,842.41 367.14,821.15"];
	263	[height=0.5,
		pos="557.96,1100.3",
		width=0.75];
	7 -- 263	[pos="556.26,938.89 556.63,973.32 557.4,1047.6 557.77,1082.1"];
	7 -- 264	[pos="579.31,929.86 608.06,941.23 656.75,960.49 685.6,971.9"];
	265	[height=0.5,
		pos="494.6,1125.5",
		width=0.75];
	7 -- 265	[pos="550.72,938.49 539.1,977.24 511.63,1068.8 499.98,1107.6"];
	267	[height=0.5,
		pos="416.71,975.06",
		width=0.75];
	7 -- 267	[pos="532.75,929.77 507.02,939.81 465.87,955.88 440.11,965.93"];
	7 -- 19	[pos="582.36,916.53 603.61,913.19 633.42,908.5 654.78,905.14"];
	35	[height=0.5,
		pos="417.98,1239.3",
		width=0.75];
	7 -- 35	[pos="548.45,938.25 524.31,993.96 449.69,1166.1 425.58,1221.8"];
	59	[height=0.5,
		pos="302.33,1061.9",
		width=0.75];
	7 -- 59	[pos="535.31,932.22 487.73,958.7 371.24,1023.5 323.38,1050.1"];
	124	[height=0.5,
		pos="430.34,1141.4",
		width=0.75];
	7 -- 124	[pos="546.42,937.63 523.01,978.72 463.47,1083.3 440.03,1124.4"];
	191	[height=0.5,
		pos="245.92,838.64",
		width=0.75];
	7 -- 191	[pos="530.95,914.03 472.84,898.66 329.62,860.78 271.27,845.35"];
	221	[height=0.5,
		pos="327.09,853.89",
		width=0.75];
	7 -- 221	[pos="531.13,913.4 487.08,900.55 396.02,874 352,861.16"];
	90	[height=0.5,
		pos="104.9,968.58",
		width=0.75];
	89 -- 90	[pos="514.09,968.33 435.61,968.38 210.03,968.52 131.91,968.57"];
	94	[height=0.5,
		pos="89.688,776.21",
		width=0.75];
	93 -- 94	[pos="469.53,915.56 397.97,889.31 184.91,811.14 113.4,784.9"];
	98	[height=0.5,
		pos="293.07,1228",
		width=0.75];
	97 -- 98	[pos="574.89,1068.1 519.6,1099.5 369.47,1184.6 314.02,1216.1"];
	102	[height=0.5,
		pos="1221.6,1160.3",
		width=0.75];
	101 -- 102	[pos="840.75,1123 914.61,1130.2 1120.8,1150.4 1194.8,1157.7"];
	13 -- 18	[pos="755.96,786.26 778.9,756.03 827.82,691.58 850.85,661.24"];
	13 -- 15	[pos="750.97,820.05 767.91,860.24 809.42,958.78 826.33,998.92"];
	316	[height=0.5,
		pos="611.4,600.72",
		width=0.75];
	13 -- 316	[pos="732.78,786.03 707.99,748.19 647.31,655.53 622.37,617.47"];
	352	[height=0.5,
		pos="728.78,572.98",
		width=0.75];
	13 -- 352	[pos="742.44,784.54 739.68,741.73 732.74,634.27 729.96,591.23"];
	356	[height=0.5,
		pos="669.43,714.49",
		width=0.75];
	13 -- 356	[pos="730.34,786.81 716.92,770.88 696.29,746.38 682.83,730.39"];
	359	[height=0.5,
		pos="771.4,1018.6",
		width=0.75];
	13 -- 359	[pos="745.92,820.6 751.16,861.28 763.82,959.71 769.06,1000.5"];
	363	[height=0.5,
		pos="609.85,864.91",
		width=0.75];
	13 -- 363	[pos="721.21,812.99 696.52,824.5 657.03,842.91 632.31,854.44"];
	13 -- 42	[pos="767.99,810.31 802,821.12 863.31,840.62 897.32,851.44"];
	74	[height=0.5,
		pos="646.4,988.97",
		width=0.75];
	13 -- 74	[pos="734.63,819.75 716.11,855.27 673.85,936.33 655.35,971.81"];
	137	[height=0.5,
		pos="836.38,969.87",
		width=0.75];
	13 -- 137	[pos="753.01,819.51 770.79,851.59 809.15,920.76 826.95,952.86"];
	175	[height=0.5,
		pos="468.05,807.3",
		width=0.75];
	13 -- 175	[pos="716.43,803.02 663.74,803.93 548.27,805.92 495.43,806.83"];
	209	[height=0.5,
		pos="731.85,620.45",
		width=0.75];
	13 -- 209	[pos="742.43,784.42 740.18,749.52 735.27,673.35 733.02,638.5"];
	235	[height=0.5,
		pos="965.93,686.81",
		width=0.75];
	13 -- 235	[pos="764.92,791.45 807.31,769.39 901.75,720.22 944.35,698.04"];
	259	[height=0.5,
		pos="533.14,864.86",
		width=0.75];
	13 -- 259	[pos="718.63,809.94 678.13,821.93 598.56,845.49 558.08,857.47"];
	281	[height=0.5,
		pos="630.04,944.96",
		width=0.75];
	13 -- 281	[pos="730.8,818.61 708.98,845.96 664.87,901.28 642.97,928.74"];
	297	[height=0.5,
		pos="558.17,776.79",
		width=0.75];
	13 -- 297	[pos="717.03,798.86 681.79,793.96 619.92,785.37 584.69,780.48"];
	15 -- 16	[pos="851.72,1002.7 880.46,980.97 936.34,938.71 965.13,916.94"];
	15 -- 263	[pos="808.73,1024 756.23,1039.9 634.93,1076.9 582.66,1092.8"];
	15 -- 343	[pos="857.59,1007.6 903.62,990.77 1004.1,954.01 1050,937.2"];
	380	[height=0.5,
		pos="960.81,1161.5",
		width=0.75];
	15 -- 380	[pos="847.53,1032.2 871.98,1060.1 922.54,1117.8 946.98,1145.7"];
	382	[height=0.5,
		pos="751.87,1147.6",
		width=0.75];
	15 -- 382	[pos="823.15,1033.2 807.44,1058.4 778.04,1105.6 762.36,1130.7"];
	384	[height=0.5,
		pos="736.15,1080.9",
		width=0.75];
	15 -- 384	[pos="814.41,1029.1 797.31,1040.4 772.47,1056.9 755.38,1068.2"];
	15 -- 46	[pos="850.85,1030.5 886.98,1060.3 970.46,1129.2 1006.4,1158.8"];
	78	[height=0.5,
		pos="878.14,1202",
		width=0.75];
	15 -- 78	[pos="837.94,1034.2 846.42,1069.5 865.3,1148.4 873.82,1184"];
	142	[height=0.5,
		pos="866.46,1246",
		width=0.75];
	15 -- 142	[pos="836.25,1034.4 842.38,1077.3 857.79,1185.2 863.9,1228.1"];
	178	[height=0.5,
		pos="556.64,1149.9",
		width=0.75];
	15 -- 178	[pos="811.48,1027.1 759.48,1052.1 630.29,1114.4 578.57,1139.4"];
	211	[height=0.5,
		pos="1011.7,947.26",
		width=0.75];
	15 -- 211	[pos="857.32,1007.2 891.47,993.93 954.22,969.58 988.26,956.36"];
	237	[height=0.5,
		pos="1093.3,1119.1",
		width=0.75];
	15 -- 237	[pos="857.18,1025.7 906.61,1045.2 1020.8,1090.4 1070,1109.9"];
	303	[height=0.5,
		pos="544.08,1012.3",
		width=0.75];
	15 -- 303	[pos="806.44,1016 751.24,1015.2 626.77,1013.5 571.46,1012.7"];
	322	[height=0.5,
		pos="565.55,1194.6",
		width=0.75];
	15 -- 322	[pos="814.4,1029.2 765.05,1062 634.57,1148.7 585.02,1181.7"];
	337	[height=0.5,
		pos="699.31,1250.3",
		width=0.75];
	15 -- 337	[pos="824.02,1033.2 799.29,1076.2 733.9,1190.1 709.07,1233.3"];
	366	[height=0.5,
		pos="1114,1030.5",
		width=0.75];
	15 -- 366	[pos="860.82,1017.7 914.41,1020.4 1033.3,1026.4 1086.9,1029.1"];
	107	[height=0.5,
		pos="121.58,821.54",
		width=0.75];
	106 -- 107	[pos="441.63,875.79 377.22,864.87 212.23,836.91 147.86,826"];
	111	[height=0.5,
		pos="480.02,1261.8",
		width=0.75];
	110 -- 111	[pos="642.9,1092.4 609.36,1127.3 528.08,1211.8 494.7,1246.5"];
	113 -- 114	[pos="1216.9,947.42 1133.9,900.86 826.87,728.67 743.9,682.14"];
	116	[height=0.5,
		pos="1298.6,378.25",
		width=0.75];
	115 -- 116	[pos="1452.9,811.66 1427.2,739.5 1330.4,467.74 1304.8,395.81"];
	118	[height=0.5,
		pos="1659.5,992.02",
		width=0.75];
	117 -- 118	[pos="1513.5,977.51 1546,980.74 1600.2,986.13 1632.6,989.36"];
	122	[height=0.5,
		pos="1086.7,1389.2",
		width=0.75];
	121 -- 122	[pos="1269,1207.7 1232.2,1244.3 1138.7,1337.4 1101.9,1374.1"];
	8 -- 36	[pos="979.85,1054 1000.7,1036.2 1035.9,1006.2 1056.8,988.34"];
	8 -- 88	[pos="936.07,1069.6 905.82,1071.1 857.04,1073.5 826.78,1075"];
	8 -- 15	[pos="939.6,1058.9 916.16,1049.5 880.31,1035.1 856.93,1025.7"];
	192	[height=0.5,
		pos="1091.1,730.49",
		width=0.75];
	8 -- 192	[pos="969.73,1050.6 991.86,992.26 1062.4,806.13 1084.4,748"];
	8 -- 247	[pos="938.58,1076.4 885.31,1094.1 759.27,1135.9 706.23,1153.5"];
	269	[height=0.5,
		pos="823.38,1290",
		width=0.75];
	8 -- 269	[pos="952.53,1085 926.65,1126.1 860.01,1231.9 834,1273.2"];
	273	[height=0.5,
		pos="761.35,1285.6",
		width=0.75];
	8 -- 273	[pos="948.52,1084 911.31,1124 812.79,1230.2 775.73,1270.1"];
	277	[height=0.5,
		pos="693.44,1033",
		width=0.75];
	8 -- 277	[pos="936.19,1064.8 884.52,1058 771.76,1043.3 720.17,1036.5"];
	8 -- 278	[pos="982.14,1055.2 1021,1028.5 1108.6,968.12 1147.3,941.52"];
	279	[height=0.5,
		pos="946.47,1283.2",
		width=0.75];
	8 -- 279	[pos="961.61,1086.6 958.49,1127.2 951,1224.4 947.88,1264.9"];
	282	[height=0.5,
		pos="1265.1,1062.2",
		width=0.75];
	8 -- 282	[pos="990.1,1067.8 1047.4,1066.6 1180.6,1063.9 1238,1062.8"];
	284	[height=0.5,
		pos="1031.4,1216.9",
		width=0.75];
	8 -- 284	[pos="971,1085.7 984.18,1114.3 1010.3,1171.1 1023.5,1199.7"];
	287	[height=0.5,
		pos="1158.1,1211.1",
		width=0.75];
	8 -- 287	[pos="981.38,1081.8 1018.6,1109 1102.4,1170.3 1139.7,1197.6"];
	8 -- 291	[pos="953.67,1051.3 934.03,1015.6 888.73,933.18 869.05,897.39"];
	292	[height=0.5,
		pos="940.57,1205.5",
		width=0.75];
	8 -- 292	[pos="960.09,1086.3 955.79,1112.6 947.81,1161.3 943.51,1187.6"];
	63	[height=0.5,
		pos="1008.7,1261.1",
		width=0.75];
	8 -- 63	[pos="967.24,1086.1 975.93,1122.7 995.72,1206.2 1004.4,1243"];
	161	[height=0.5,
		pos="783.23,1236.6",
		width=0.75];
	8 -- 161	[pos="947.07,1083.3 912.86,1115.3 832.83,1190.2 798.89,1222"];
	224	[height=0.5,
		pos="1220.7,1236.5",
		width=0.75];
	8 -- 224	[pos="982.39,1081 1030.1,1112.1 1153.1,1192.4 1201.1,1223.7"];
	126	[height=0.5,
		pos="724.07,1351.9",
		width=0.75];
	125 -- 126	[pos="1071.6,1193.5 1005.7,1223.6 812.33,1311.7 746.4,1341.8"];
	130	[height=0.5,
		pos="1261.6,324.03",
		width=0.75];
	129 -- 130	[pos="1431.9,885.75 1405.9,800.03 1293.1,427.88 1267,341.84"];
	133	[height=0.5,
		pos="698.34,1307.8",
		width=0.75];
	132 -- 133	[pos="1132.5,1149.2 1053.3,1178.1 800.91,1270.3 722.09,1299.1"];
	136	[height=0.5,
		pos="1122,1260.6",
		width=0.75];
	135 -- 136	[pos="1313.9,1111.6 1274.3,1142.4 1179.4,1216 1139.8,1246.7"];
	139	[height=0.5,
		pos="1472.5,564.38",
		width=0.75];
	138 -- 139	[pos="1556.6,876.74 1541.2,819.43 1492.8,639.66 1477.3,582.22"];
	141	[height=0.5,
		pos="1249.9,1333",
		width=0.75];
	140 -- 141	[pos="1388,1122.5 1360.4,1164.5 1288.4,1274.3 1260.8,1316.3"];
	143 -- 144	[pos="1356.6,1027.4 1347.2,997.1 1328.2,935.77 1318.8,905.34"];
	146	[height=0.5,
		pos="1610.6,947.34",
		width=0.75];
	145 -- 146	[pos="1444.1,1049.6 1479.9,1027.6 1554.6,981.72 1590.5,959.68"];
	150	[height=0.5,
		pos="1238.8,1377.3",
		width=0.75];
	149 -- 150	[pos="1328,1166.2 1310.1,1208.7 1264.3,1317.1 1246.3,1359.7"];
	155	[height=0.5,
		pos="886.47,120.61",
		width=0.75];
	154 -- 155	[pos="655.78,293.25 701.94,258.71 822.64,168.37 868.47,134.08"];
	160	[height=0.5,
		pos="349.06,1151.2",
		width=0.75];
	159 -- 160	[pos="364.17,724.22 361.63,795.93 352.26,1060.9 349.71,1133"];
	9 -- 37	[pos="576.57,574.68 629.82,575.02 747.22,575.77 800.56,576.11"];
	9 -- 18	[pos="575.05,580.25 634.07,593.47 778.77,625.87 837.71,639.07"];
	9 -- 11	[pos="550.71,592.61 554.09,638.16 562.92,757.1 566.31,802.68"];
	10	[height=0.5,
		pos="598.7,431.44",
		width=0.75];
	9 -- 10	[pos="555.51,556.67 565.02,529.11 583.17,476.47 592.63,449.05"];
	294	[height=0.5,
		pos="690.11,391.06",
		width=0.75];
	9 -- 294	[pos="561.85,558.22 588.56,523.41 650.96,442.08 677.65,407.31"];
	296	[height=0.5,
		pos="533.27,530.48",
		width=0.75];
	9 -- 296	[pos="542.91,556.85 541.86,553.98 540.77,551.01 539.72,548.14"];
	298	[height=0.5,
		pos="441.65,355.55",
		width=0.75];
	9 -- 298	[pos="540.91,557.32 520.82,516.49 470.41,414.01 450.21,372.95"];
	302	[height=0.5,
		pos="444.2,666.9",
		width=0.75];
	9 -- 302	[pos="532.93,588.94 513.29,606.2 480.61,634.91 460.86,652.26"];
	304	[height=0.5,
		pos="348.99,542.96",
		width=0.75];
	9 -- 304	[pos="522.75,570.31 484.32,564.26 413.7,553.15 375.39,547.12"];
	307	[height=0.5,
		pos="511.67,317.13",
		width=0.75];
	9 -- 307	[pos="546.71,556.4 539.79,509.15 521.23,382.44 514.31,335.21"];
	311	[height=0.5,
		pos="472.57,574.59",
		width=0.75];
	9 -- 311	[pos="522.07,574.53 514.83,574.54 507.01,574.55 499.77,574.56"];
	9 -- 65	[pos="563.76,558.98 569.38,552.91 575.82,545.97 581.43,539.91"];
	92	[height=0.5,
		pos="367.21,440.81",
		width=0.75];
	9 -- 92	[pos="530.89,560.95 495.89,535.26 420.28,479.76 385.45,454.2"];
	128	[height=0.5,
		pos="305.27,587.41",
		width=0.75];
	9 -- 128	[pos="522.31,575.93 475.39,578.41 379.45,583.49 332.45,585.97"];
	196	[height=0.5,
		pos="436.35,400.19",
		width=0.75];
	9 -- 196	[pos="538.53,557.79 516.92,524.47 468.73,450.13 447.15,416.85"];
	228	[height=0.5,
		pos="574.5,333.36",
		width=0.75];
	9 -- 228	[pos="551.25,556.38 555.92,511.58 567.96,396.04 572.62,351.37"];
	249	[height=0.5,
		pos="317.45,497.48",
		width=0.75];
	9 -- 249	[pos="524.98,566.4 480.44,551.61 386.41,520.38 341.85,505.58"];
	272	[height=0.5,
		pos="262.56,543.35",
		width=0.75];
	9 -- 272	[pos="522.64,571.6 467.99,565.66 344,552.2 289.32,546.26"];
	163	[height=0.5,
		pos="229.7,273.14",
		width=0.75];
	162 -- 163	[pos="455.03,473.8 411.13,434.71 290.36,327.16 246.17,287.81"];
	167	[height=0.5,
		pos="137.54,546.09",
		width=0.75];
	166 -- 167	[pos="353.64,498.69 307.06,508.91 209.69,530.26 163.25,540.45"];
	170 -- 171	[pos="791.53,457.73 863.86,478.8 1073.1,539.76 1145.3,560.76"];
	173	[height=0.5,
		pos="190.98,475.31",
		width=0.75];
	172 -- 173	[pos="402.36,447.73 356.48,453.72 263.56,465.84 217.75,471.82"];
	177 -- 178	[pos="432.71,739.68 453.74,809.31 530.15,1062.2 551.23,1132"];
	180	[height=0.5,
		pos="638.78,159.62",
		width=0.75];
	179 -- 180	[pos="539.47,360.97 559.57,320.22 610.01,217.95 630.22,176.99"];
	183 -- 184	[pos="667.34,482.51 725.38,498.44 868.42,537.71 926.68,553.71"];
	185 -- 186	[pos="562.67,472.33 618.5,473.94 745.94,477.64 801.72,479.26"];
	5	[height=0.5,
		pos="986.64,471.54",
		width=0.75];
	5 -- 54	[pos="1000.7,486.98 1021.3,509.62 1059.5,551.56 1080.1,574.2"];
	5 -- 18	[pos="975.04,487.84 951.54,520.86 898.53,595.33 874.98,628.42"];
	5 -- 153	[pos="965.32,460.15 931.26,441.93 864.96,406.48 831.03,388.34"];
	5 -- 188	[pos="1012.4,465.77 1060.4,455.03 1162.8,432.09 1210.7,421.37"];
	189	[height=0.5,
		pos="886.03,255.98",
		width=0.75];
	5 -- 189	[pos="978.58,454.27 959.74,413.91 913.01,313.78 894.13,273.34"];
	5 -- 192	[pos="993.66,488.94 1012.6,536 1064.9,665.46 1084,712.83"];
	193	[height=0.5,
		pos="983.18,185.47",
		width=0.75];
	5 -- 193	[pos="986.42,453.21 985.8,401.54 984.02,255.13 983.4,203.65"];
	197	[height=0.5,
		pos="1046.7,183.3",
		width=0.75];
	5 -- 197	[pos="990.4,453.51 1001.2,401.75 1032.1,253.08 1042.9,201.32"];
	201	[height=0.5,
		pos="948.17,229.5",
		width=0.75];
	5 -- 201	[pos="983.75,453.35 976.6,408.38 958.17,292.41 951.04,247.57"];
	204	[height=0.5,
		pos="1119.3,152.84",
		width=0.75];
	5 -- 204	[pos="993.96,453.95 1017.2,398.23 1088.8,226.02 1112,170.37"];
	208	[height=0.5,
		pos="1016.6,259.81",
		width=0.75];
	5 -- 208	[pos="989.2,453.49 994.85,413.49 1008.4,317.78 1014,277.82"];
	5 -- 14	[pos="1013.2,475.62 1054.3,481.92 1132.5,493.91 1173.5,500.21"];
	210	[height=0.5,
		pos="1131.6,363.11",
		width=0.75];
	5 -- 210	[pos="1004.7,458.03 1032.5,437.25 1085.4,397.67 1113.3,376.79"];
	212	[height=0.5,
		pos="1163.7,196.86",
		width=0.75];
	5 -- 212	[pos="997.45,454.77 1029.1,405.62 1121.5,262.29 1153,213.41"];
	215	[height=0.5,
		pos="1179.9,319.08",
		width=0.75];
	5 -- 215	[pos="1004.1,457.74 1040.8,428.79 1125.5,361.98 1162.3,332.95"];
	217	[height=0.5,
		pos="892.39,302.05",
		width=0.75];
	5 -- 217	[pos="977.09,454.36 958.97,421.79 919.85,351.44 901.83,319.02"];
	5 -- 32	[pos="1002.6,456.78 1042.1,420.27 1144,326.13 1183.4,289.74"];
	5 -- 86	[pos="983.27,453.49 977.11,420.49 964.09,350.84 957.93,317.84"];
	5 -- 116	[pos="1011.4,464.15 1069.7,446.69 1215.5,403.1 1273.8,385.65"];
	190	[height=0.5,
		pos="369.48,352.66",
		width=0.75];
	189 -- 190	[pos="859.7,260.91 771.09,277.49 484.28,331.17 395.75,347.74"];
	194	[height=0.5,
		pos="811,68.994",
		width=0.75];
	193 -- 194	[pos="964.1,172.56 931,150.17 863.33,104.39 830.17,81.962"];
	198	[height=0.5,
		pos="942.79,26.496",
		width=0.75];
	197 -- 198	[pos="1035.7,166.81 1015.8,136.78 973.89,73.452 953.88,43.232"];
	202	[height=0.5,
		pos="506.73,273.09",
		width=0.75];
	201 -- 202	[pos="921.22,232.16 842.32,239.95 612.42,262.65 533.61,270.44"];
	205	[height=0.5,
		pos="1399.3,161.04",
		width=0.75];
	204 -- 205	[pos="1146.4,153.63 1199.9,155.2 1318.6,158.68 1372.2,160.25"];
	208 -- 209	[pos="1004,275.78 956.95,335.35 791.96,544.32 744.63,604.26"];
	14 -- 75	[pos="1196.2,522.56 1192,542.49 1185.3,574.19 1181.1,594.01"];
	14 -- 104	[pos="1178.5,515.15 1127.3,540.98 998.69,605.81 947.18,631.78"];
	14 -- 176	[pos="1173.2,502.6 1114.7,498.92 976.44,490.24 917.79,486.56"];
	365	[height=0.5,
		pos="1392.2,557.09",
		width=0.75];
	14 -- 365	[pos="1225.2,511.19 1262,521.31 1330.3,540.06 1367.1,550.18"];
	367	[height=0.5,
		pos="1462.5,384.68",
		width=0.75];
	14 -- 367	[pos="1222.5,494.09 1272,471.49 1390.6,417.43 1440.2,394.85"];
	370	[height=0.5,
		pos="1483.2,340.56",
		width=0.75];
	14 -- 370	[pos="1220.9,492.25 1273.4,461.89 1410.6,382.52 1462.7,352.39"];
	374	[height=0.5,
		pos="1416.1,292.87",
		width=0.75];
	14 -- 374	[pos="1215.6,489.08 1255.5,450.07 1361,346.79 1400.7,307.94"];
	378	[height=0.5,
		pos="1160,407.14",
		width=0.75];
	14 -- 378	[pos="1192.9,486.92 1185.7,469.35 1174.5,442.32 1167.2,424.69"];
	14 -- 44	[pos="1218,490.67 1259.2,459.39 1360.2,382.71 1401.3,351.47"];
	14 -- 139	[pos="1226.2,510.05 1278.4,521.56 1395.1,547.3 1446.9,558.73"];
	262	[height=0.5,
		pos="1135.3,271.35",
		width=0.75];
	14 -- 262	[pos="1195.1,486.39 1183,443.03 1152.3,332.72 1140.2,289.3"];
	283	[height=0.5,
		pos="1453.3,636.79",
		width=0.75];
	14 -- 283	[pos="1221.7,515.58 1269.5,540.62 1383.9,600.52 1431.7,625.52"];
	301	[height=0.5,
		pos="1290.7,241.53",
		width=0.75];
	14 -- 301	[pos="1206.2,486.64 1222.7,438.77 1268.2,306.88 1284.7,259.1"];
	319	[height=0.5,
		pos="1225.8,231.05",
		width=0.75];
	14 -- 319	[pos="1201.8,485.93 1206.5,436.16 1219.4,299 1224.1,249.32"];
	334	[height=0.5,
		pos="1037.1,344.78",
		width=0.75];
	14 -- 334	[pos="1184.8,489.28 1153.7,458.88 1083.6,390.33 1052.5,359.87"];
	355	[height=0.5,
		pos="1354,262.68",
		width=0.75];
	14 -- 355	[pos="1210.7,487.68 1238.8,443.54 1315.2,323.67 1343.4,279.4"];
	210 -- 211	[pos="1127.9,381.23 1110,468.28 1033.2,842.77 1015.4,929.35"];
	213	[height=0.5,
		pos="1520.1,474.53",
		width=0.75];
	212 -- 213	[pos="1181.3,210.63 1242,257.91 1441.5,413.28 1502.3,460.68"];
	215 -- 216	[pos="1189.7,336.1 1216.8,383.12 1292.2,514.37 1319.3,561.46"];
	218	[height=0.5,
		pos="560.33,732.79",
		width=0.75];
	217 -- 218	[pos="879.98,318.15 827.7,385.96 625.71,647.97 572.98,716.38"];
	220	[height=0.5,
		pos="761.87,301.91",
		width=0.75];
	219 -- 220	[pos="1288.8,416.64 1195.9,396.42 880.5,327.75 787.73,307.55"];
	223	[height=0.5,
		pos="1548.5,989.05",
		width=0.75];
	222 -- 223	[pos="1573.9,737.6 1568.9,786.7 1555.3,922.01 1550.3,971.02"];
	226	[height=0.5,
		pos="1151.3,108",
		width=0.75];
	225 -- 226	[pos="1386.3,366.88 1342.5,318.69 1209.5,172.13 1165.6,123.71"];
	230	[height=0.5,
		pos="1007.1,128.28",
		width=0.75];
	229 -- 230	[pos="1320.3,321.92 1261.2,285.38 1086.7,177.52 1027.2,140.74"];
	233	[height=0.5,
		pos="537.74,685.06",
		width=0.75];
	232 -- 233	[pos="1142.9,460.04 1043.3,497.09 661.35,639.1 561.66,676.17"];
	234 -- 235	[pos="1365.2,606.35 1289.2,621.67 1067.7,666.3 991.82,681.59"];
	236 -- 237	[pos="1479.6,783.35 1414.3,840.09 1174.9,1048.1 1109.8,1104.8"];
	239	[height=0.5,
		pos="1681.4,688.47",
		width=0.75];
	238 -- 239	[pos="1589,642.31 1609.3,652.46 1639.5,667.52 1659.7,677.65"];
	243	[height=0.5,
		pos="1545.5,338.49",
		width=0.75];
	242 -- 243	[pos="1504.7,500.64 1513.4,466.13 1532.4,390.8 1541,356.34"];
	248 -- 249	[pos="233.34,872.05 248.02,806.67 298.69,581.02 313.41,515.47"];
	251	[height=0.5,
		pos="135.19,634.62",
		width=0.75];
	250 -- 251	[pos="194.91,952.63 183.95,894.27 149.59,711.26 138.6,652.78"];
	11 -- 39	[pos="593.79,815.83 640.66,806.88 738.52,788.21 785.53,779.24"];
	11 -- 13	[pos="594.38,818.04 627.54,814.6 683.77,808.76 716.92,805.32"];
	11 -- 19	[pos="586.45,834.05 607.53,848.89 641.54,872.84 662.64,887.69"];
	11 -- 277	[pos="577.74,837.82 601.35,877.65 660,976.58 683.49,1016.2"];
	313	[height=0.5,
		pos="476.24,619.02",
		width=0.75];
	11 -- 313	[pos="559.7,803.26 542.37,765 501.36,674.49 484.11,636.39"];
	11 -- 332	[pos="592.74,814.01 650.23,798.4 790.98,760.2 848.8,744.51"];
	333	[height=0.5,
		pos="542.02,622.71",
		width=0.75];
	11 -- 333	[pos="565.29,802.53 560.39,764.7 549.2,678.21 544.35,640.66"];
	335	[height=0.5,
		pos="387.74,1019.1",
		width=0.75];
	11 -- 335	[pos="553.54,836.38 519.9,873.45 435.36,966.64 401.79,1003.6"];
	11 -- 338	[pos="592.91,827.52 617.33,834.01 654.13,843.78 678.51,850.26"];
	11 -- 339	[pos="594.96,822.59 640.86,825.56 732.97,831.53 778.67,834.5"];
	340	[height=0.5,
		pos="305.59,750.29",
		width=0.75];
	11 -- 340	[pos="542.53,814.05 492.44,800.57 380.67,770.49 330.64,757.03"];
	70	[height=0.5,
		pos="322.4,897.93",
		width=0.75];
	11 -- 70	[pos="542.79,828.63 495.66,843.45 393.86,875.46 346.97,890.21"];
	100	[height=0.5,
		pos="260.35,934.08",
		width=0.75];
	11 -- 100	[pos="543.8,829.61 486.4,850.76 341.15,904.3 283.99,925.37"];
	134	[height=0.5,
		pos="468.69,1037.5",
		width=0.75];
	11 -- 134	[pos="559.72,838.18 541.19,878.74 495.22,979.37 476.66,1020"];
	169	[height=0.5,
		pos="283.74,794.29",
		width=0.75];
	11 -- 169	[pos="540.69,818.3 486.43,813.23 364.64,801.85 310.53,796.8"];
	203	[height=0.5,
		pos="375.94,662.2",
		width=0.75];
	11 -- 203	[pos="550.64,806.74 514.26,776.64 429.26,706.32 392.92,676.25"];
	11 -- 233	[pos="563.68,802.79 557.96,776.82 547.46,729.17 541.73,703.16"];
	254	[height=0.5,
		pos="251.22,631.59",
		width=0.75];
	253 -- 254	[pos="213,1041.7 219.51,971.83 242.95,720.28 249.51,649.96"];
	258	[height=0.5,
		pos="182.38,1103.9",
		width=0.75];
	257 -- 258	[pos="328.88,1106.7 296.35,1106.1 242.17,1105 209.6,1104.4"];
	261	[height=0.5,
		pos="651.33,258.32",
		width=0.75];
	260 -- 261	[pos="355.24,792.78 400.77,710.59 596.67,356.98 641.96,275.23"];
	265 -- 266	[pos="519.84,1118.7 604.82,1095.7 879.88,1021.1 964.78,998.1"];
	267 -- 268	[pos="427.77,958.43 461.4,907.83 562.27,756.11 595.94,705.44"];
	19 -- 187	[pos="663.06,887.74 626.47,861.49 544.95,803 508.18,776.62"];
	19 -- 246	[pos="703.9,890.88 759.24,866.06 901.74,802.14 957.35,777.2"];
	19 -- 384	[pos="686.9,918.85 697.39,953.34 720.26,1028.6 730.73,1063"];
	19 -- 52	[pos="694.72,916.63 733.49,962.52 846.37,1096.1 885.27,1142.2"];
	19 -- 83	[pos="685.38,919.12 696.62,971.33 728.9,1121.2 740.14,1173.4"];
	112	[height=0.5,
		pos="493.88,1181.4",
		width=0.75];
	19 -- 112	[pos="670.29,917.65 636.93,967.53 538.28,1115 505,1164.8"];
	152	[height=0.5,
		pos="604.11,1242.8",
		width=0.75];
	19 -- 152	[pos="677.41,918.84 664.08,977.77 621.63,1165.4 608.22,1224.6"];
	19 -- 218	[pos="669.63,884.51 646.41,852.28 595.14,781.12 572.03,749.04"];
	293	[height=0.5,
		pos="672.61,1205.8",
		width=0.75];
	19 -- 293	[pos="680.93,919.1 679.36,973.33 674.7,1133.7 673.13,1187.8"];
	312	[height=0.5,
		pos="397.25,857.33",
		width=0.75];
	19 -- 312	[pos="654.98,896.88 600.82,888.57 477.96,869.71 423.77,861.4"];
	331	[height=0.5,
		pos="384.58,931.03",
		width=0.75];
	19 -- 331	[pos="654.59,903.66 598.21,909.38 468.12,922.56 411.61,928.29"];
	351	[height=0.5,
		pos="479.04,985.6",
		width=0.75];
	19 -- 351	[pos="658.24,910.65 619.19,926.98 540.85,959.75 501.99,976"];
	364	[height=0.5,
		pos="480.75,1081.5",
		width=0.75];
	19 -- 364	[pos="665.37,915.41 627.79,949.22 534.57,1033.1 496.91,1067"];
	379	[height=0.5,
		pos="684.86,758.51",
		width=0.75];
	19 -- 379	[pos="681.89,882.9 682.54,855.66 683.76,804.28 684.42,776.85"];
	387	[height=0.5,
		pos="620.02,1138.6",
		width=0.75];
	19 -- 387	[pos="676.84,918.81 665.43,962.96 635.99,1076.8 624.61,1120.9"];
	391	[height=0.5,
		pos="402.84,1063.2",
		width=0.75];
	19 -- 391	[pos="660.97,912.87 609.45,942.88 474.91,1021.2 423.36,1051.2"];
	270	[height=0.5,
		pos="417.56,1303.8",
		width=0.75];
	269 -- 270	[pos="796.13,1291 722.2,1293.5 518.49,1300.4 444.7,1302.9"];
	274	[height=0.5,
		pos="341.84,1290.3",
		width=0.75];
	273 -- 274	[pos="734.15,1285.9 658.26,1286.8 444.8,1289.2 368.98,1290"];
	280	[height=0.5,
		pos="636.31,1294.1",
		width=0.75];
	279 -- 280	[pos="919.49,1284.1 860.83,1286.2 722.26,1291.1 663.45,1293.1"];
	282 -- 283	[pos="1272.8,1044.8 1303.3,975.81 1415.1,722.97 1445.6,654.17"];
	285	[height=0.5,
		pos="1143.5,1344.7",
		width=0.75];
	284 -- 285	[pos="1045.2,1232.6 1066.7,1257.1 1108.1,1304.3 1129.7,1328.9"];
	288	[height=0.5,
		pos="1328.9,1303",
		width=0.75];
	287 -- 288	[pos="1179.4,1222.5 1212.3,1240.2 1275.2,1274.1 1307.9,1291.7"];
	292 -- 293	[pos="913.4,1205.5 862.04,1205.6 751.26,1205.7 699.85,1205.8"];
	10 -- 38	[pos="625.9,431.94 687.19,433.04 835.5,435.73 896.93,436.84"];
	10 -- 66	[pos="614.02,446.38 650.51,481.97 742.24,571.43 778.66,606.95"];
	10 -- 313	[pos="587.84,448.09 564.6,483.69 510.3,566.85 487.08,602.42"];
	314	[height=0.5,
		pos="827.04,322.83",
		width=0.75];
	10 -- 314	[pos="621.01,420.83 664.78,400.01 761.41,354.05 804.98,333.32"];
	10 -- 316	[pos="600.06,449.56 602.51,482.14 607.62,550.25 610.05,582.74"];
	317	[height=0.5,
		pos="669.67,206.84",
		width=0.75];
	10 -- 317	[pos="604.27,413.82 617.5,371.94 650.72,266.81 664.02,224.69"];
	320	[height=0.5,
		pos="373.24,396.73",
		width=0.75];
	10 -- 320	[pos="571.95,427.32 528.44,420.63 442.86,407.45 399.6,400.79"];
	323	[height=0.5,
		pos="699.7,317.09",
		width=0.75];
	10 -- 323	[pos="612.75,415.54 632.04,393.69 666.54,354.63 685.77,332.85"];
	10 -- 325	[pos="623.01,439.58 677.79,457.93 810.36,502.32 865.26,520.7"];
	326	[height=0.5,
		pos="528.9,228.99",
		width=0.75];
	10 -- 326	[pos="592.63,413.83 579.43,375.54 548.24,285.09 535.01,246.7"];
	329	[height=0.5,
		pos="291.71,315.47",
		width=0.75];
	10 -- 329	[pos="575.12,422.54 517.98,400.95 372.6,346.03 315.37,324.41"];
	96	[height=0.5,
		pos="338.88,271.44",
		width=0.75];
	10 -- 96	[pos="578.75,419.15 530.38,389.37 407.34,313.6 358.91,283.77"];
	131	[height=0.5,
		pos="753.58,252.15",
		width=0.75];
	10 -- 131	[pos="612.45,415.53 641.91,381.42 710.85,301.62 740.08,267.77"];
	165	[height=0.5,
		pos="414.18,261.89",
		width=0.75];
	10 -- 165	[pos="582.65,416.69 547.67,384.55 464.89,308.49 430.06,276.48"];
	200	[height=0.5,
		pos="607.54,203.63",
		width=0.75];
	10 -- 200	[pos="599.41,413.19 601.07,370.42 605.19,264.19 606.84,221.66"];
	231	[height=0.5,
		pos="732.09,207.77",
		width=0.75];
	10 -- 231	[pos="608.73,414.63 633.45,373.18 697.1,266.43 721.95,224.77"];
	252	[height=0.5,
		pos="307.25,359.49",
		width=0.75];
	10 -- 252	[pos="573.35,425.18 518.23,411.57 388.01,379.42 332.76,365.78"];
	276	[height=0.5,
		pos="305.15,403.52",
		width=0.75];
	10 -- 276	[pos="571.87,428.89 516.11,423.59 388.22,411.42 332.23,406.09"];
	294 -- 295	[pos="712.37,401.46 771.55,429.1 932.27,504.16 991.63,531.89"];
	296 -- 297	[pos="535.1,548.6 539.71,594.15 551.73,713.08 556.34,758.66"];
	299	[height=0.5,
		pos="635.93,78.672",
		width=0.75];
	298 -- 299	[pos="453.22,339.06 487.78,289.81 589.95,144.21 624.42,95.077"];
	302 -- 303	[pos="449.43,684.98 466.69,744.67 521.72,934.99 538.9,994.41"];
	305	[height=0.5,
		pos="273.33,1017",
		width=0.75];
	304 -- 305	[pos="346.12,560.96 334.13,636.05 288.2,923.84 276.21,998.96"];
	308	[height=0.5,
		pos="700.91,116.36",
		width=0.75];
	307 -- 308	[pos="526.2,301.71 561.43,264.34 651.05,169.26 686.33,131.83"];
	311 -- 312	[pos="467.74,592.71 454.14,643.78 415.59,788.48 402.04,839.36"];
	314 -- 315	[pos="847.93,334.4 904.59,365.8 1060.7,452.32 1117.3,483.66"];
	318	[height=0.5,
		pos="950.09,76.381",
		width=0.75];
	317 -- 318	[pos="692.14,196.38 744.78,171.9 875.54,111.06 927.9,86.705"];
	321	[height=0.5,
		pos="183.75,810.72",
		width=0.75];
	320 -- 321	[pos="365.34,413.99 334.52,481.32 222.56,725.92 191.68,793.39"];
	323 -- 324	[pos="705.32,334.74 725.45,397.98 793.83,612.77 813.94,675.94"];
	327	[height=0.5,
		pos="777.1,163.73",
		width=0.75];
	326 -- 327	[pos="554.06,222.37 601.64,209.86 704.24,182.88 751.87,170.36"];
	330	[height=0.5,
		pos="203.35,587.54",
		width=0.75];
	329 -- 330	[pos="285.92,333.32 269.9,382.62 225.21,520.25 209.17,569.62"];
	333 -- 334	[pos="562.98,610.94 643.96,565.48 935.9,401.59 1016.4,356.4"];
	336	[height=0.5,
		pos="355.25,1246.3",
		width=0.75];
	335 -- 336	[pos="385.13,1037.3 379.04,1080 363.89,1185.9 357.82,1228.3"];
	341	[height=0.5,
		pos="253.03,479.22",
		width=0.75];
	340 -- 341	[pos="302.06,732.08 292.49,682.7 266.1,546.64 256.54,497.35"];
	345	[height=0.5,
		pos="1607,806.45",
		width=0.75];
	344 -- 345	[pos="1453.6,774.55 1487.7,781.65 1547.1,794.01 1581.2,801.08"];
	350	[height=0.5,
		pos="842.14,429.41",
		width=0.75];
	349 -- 350	[pos="1314,637.44 1231.6,601.13 947.37,475.81 864.8,439.4"];
	353	[height=0.5,
		pos="921.14,185.02",
		width=0.75];
	352 -- 353	[pos="737.29,555.81 769.07,491.73 880.53,266.92 912.5,202.43"];
	357	[height=0.5,
		pos="1101.6,319.07",
		width=0.75];
	356 -- 357	[pos="685.58,699.71 753.76,637.32 1017.7,395.84 1085.6,333.71"];
	360	[height=0.5,
		pos="946.12,1336",
		width=0.75];
	359 -- 360	[pos="780.79,1035.7 811.13,1090.8 906.28,1263.7 936.68,1318.9"];
	363 -- 364	[pos="599.72,881.9 575.58,922.39 514.92,1024.2 490.83,1064.6"];
	365 -- 366	[pos="1382.3,573.94 1339.1,647.4 1167.6,939.33 1124.1,1013.4"];
	368	[height=0.5,
		pos="1616.5,675.49",
		width=0.75];
	367 -- 368	[pos="1471.6,402 1499,453.73 1580,606.65 1607.4,658.26"];
	371	[height=0.5,
		pos="1569.8,406.53",
		width=0.75];
	370 -- 371	[pos="1501.1,354.23 1516,365.55 1537,381.56 1551.8,392.88"];
	375	[height=0.5,
		pos="1284.9,82.162",
		width=0.75];
	374 -- 375	[pos="1405.6,275.98 1381,236.43 1319.8,138.18 1295.3,98.836"];
	378 -- 379	[pos="1141.7,420.7 1066,476.64 778.67,689.13 703.14,744.99"];
	380 -- 381	[pos="979.92,1148.7 1020.8,1121.3 1116.2,1057.3 1157,1029.9"];
	382 -- 383	[pos="751.28,1129.5 749,1059.1 740.7,803.19 738.41,732.62"];
	386 -- 387	[pos="938.92,1119.1 874.23,1123.1 711.61,1133 647.05,1137"];
	390	[height=0.5,
		pos="199.16,675.65",
		width=0.75];
	389 -- 390	[pos="634.56,563.25 553.99,584.05 304.98,648.33 224.52,669.1"];
	21 -- 22	[pos="1611.5,764.75 1540,770.89 1347.2,787.46 1276,793.58"];
	25	[height=0.5,
		pos="1012.7,1345.2",
		width=0.75];
	24 -- 25	[pos="1439.5,1125.9 1363.6,1164.9 1109.7,1295.4 1034.1,1334.2"];
	25 -- 26	[pos="995.96,1331.1 958.9,1299.9 870.37,1225.3 833.1,1193.9"];
	28 -- 29	[pos="1602.7,915.21 1564.4,936.96 1483.3,982.93 1445.1,1004.6"];
	34 -- 35	[pos="855.64,1328.7 774.41,1312.1 525.37,1261.2 444,1244.6"];
	49 -- 50	[pos="1426.5,260.47 1357.9,298.41 1140.9,418.37 1072.3,456.27"];
	58	[height=0.5,
		pos="238.74,1168.6",
		width=0.75];
	57 -- 58	[pos="334.88,1189.6 314.17,1185.1 285.27,1178.7 264.58,1174.2"];
	58 -- 59	[pos="248.95,1151.4 260.89,1131.4 280.51,1098.5 292.35,1078.6"];
	62	[height=0.5,
		pos="1198,1422.1",
		width=0.75];
	61 -- 62	[pos="1289,1272.9 1269.6,1304.7 1227.7,1373.4 1208.3,1405.2"];
	62 -- 63	[pos="1181.2,1407.8 1145.3,1377.2 1061.4,1305.8 1025.5,1275.3"];
	69	[height=0.5,
		pos="263.64,1124.5",
		width=0.75];
	68 -- 69	[pos="522.6,1277.6 470.78,1247 335.28,1166.9 283.84,1136.5"];
	69 -- 70	[pos="268.25,1106.7 279.2,1064.5 306.71,958.43 317.73,915.95"];
	73	[height=0.5,
		pos="573.47,1333.8",
		width=0.75];
	72 -- 73	[pos="857.29,1374.9 798.67,1366.4 658.41,1346.1 599.86,1337.7"];
	73 -- 74	[pos="577.29,1315.8 589.89,1256.2 630.07,1066.2 642.62,1006.8"];
	77 -- 78	[pos="1164.4,1282 1106.2,1265.7 961.59,1225.3 903.2,1209"];
	80 -- 81	[pos="1474.9,880.6 1453.2,873.92 1421.9,864.23 1400.2,857.51"];
	91	[height=0.5,
		pos="132.36,590.3",
		width=0.75];
	90 -- 91	[pos="106.2,950.59 110.83,886.87 126.41,672.3 131.05,608.4"];
	91 -- 92	[pos="151.98,577.81 196.19,549.67 303.17,481.57 347.48,453.37"];
	95	[height=0.5,
		pos="180.91,421.47",
		width=0.75];
	94 -- 95	[pos="94.337,758.13 109.98,697.27 160.63,500.31 176.27,439.51"];
	95 -- 96	[pos="196.63,406.54 226.91,377.78 292.99,315.02 323.22,286.32"];
	99	[height=0.5,
		pos="99.158,1060.7",
		width=0.75];
	98 -- 99	[pos="276.54,1213.7 240,1182.2 152.68,1106.8 115.93,1075.1"];
	99 -- 100	[pos="116.72,1046.9 147.72,1022.5 211.83,972.18 242.82,947.85"];
	102 -- 103	[pos="1228.8,1142.7 1253.3,1082.4 1333.7,884 1358.2,823.48"];
	108	[height=0.5,
		pos="242.94,396.96",
		width=0.75];
	107 -- 108	[pos="126.64,803.84 146.38,734.79 218.09,483.93 237.86,414.74"];
	108 -- 109	[pos="269.42,400.63 350.74,411.88 596.33,445.86 677.89,457.15"];
	111 -- 112	[pos="483.17,1243.5 485.45,1230.3 488.53,1212.5 490.8,1199.3"];
	119	[height=0.5,
		pos="1700.6,732.47",
		width=0.75];
	118 -- 119	[pos="1662.4,973.77 1669.9,926.12 1690.2,798.33 1697.7,750.7"];
	119 -- 120	[pos="1686.8,716.67 1662.4,688.77 1612.1,631.09 1587.7,603.2"];
	123	[height=0.5,
		pos="549.31,1378.3",
		width=0.75];
	122 -- 123	[pos="1059.6,1388.7 967.81,1386.8 668.29,1380.7 576.38,1378.9"];
	123 -- 124	[pos="540.57,1360.9 518.51,1317 460.84,1202.1 438.94,1158.6"];
	127	[height=0.5,
		pos="139.67,1015.3",
		width=0.75];
	126 -- 127	[pos="703.61,1340.2 613.31,1288.1 250.84,1079.3 160.26,1027.2"];
	127 -- 128	[pos="146.47,997.73 173.31,928.38 271.73,674.08 298.5,604.89"];
	130 -- 131	[pos="1235,320.27 1147.3,307.86 867.95,268.34 780.21,255.92"];
	133 -- 134	[pos="685,1292.1 644.41,1244.3 522.7,1101 482.06,1053.2"];
	136 -- 137	[pos="1107,1245.3 1057.7,1195.1 900.33,1035 851.19,984.94"];
	141 -- 142	[pos="1224.1,1327.2 1154.3,1311.3 961.81,1267.7 892.1,1251.8"];
	147	[height=0.5,
		pos="1637.2,630.88",
		width=0.75];
	146 -- 147	[pos="1612.1,928.96 1616.8,872.9 1631,704.52 1635.6,648.92"];
	147 -- 148	[pos="1611.2,625.76 1517.4,607.23 1196,543.79 1102,525.25"];
	151	[height=0.5,
		pos="823.5,1422.8",
		width=0.75];
	150 -- 151	[pos="1211.9,1380.3 1136.8,1388.5 925.43,1411.6 850.37,1419.9"];
	151 -- 152	[pos="806.28,1408.7 765.27,1375 662.18,1290.4 621.25,1256.8"];
	156	[height=0.5,
		pos="1283.4,130.23",
		width=0.75];
	155 -- 156	[pos="913.75,121.27 986.36,123.03 1183.7,127.81 1256.2,129.57"];
	156 -- 157	[pos="1292.8,147.37 1323.1,202.7 1418.1,376.25 1448.5,431.7"];
	160 -- 161	[pos="375.24,1156.4 452.7,1171.6 680.14,1216.4 757.29,1231.5"];
	164	[height=0.5,
		pos="321.9,182.65",
		width=0.75];
	163 -- 164	[pos="244.93,258.2 262.01,241.43 289.56,214.39 306.65,197.61"];
	164 -- 165	[pos="338.83,197.18 355.48,211.48 380.75,233.18 397.36,247.45"];
	168	[height=0.5,
		pos="27,753.74",
		width=0.75];
	167 -- 168	[pos="128.49,563.08 107.76,602.02 57.018,697.35 36.171,736.51"];
	168 -- 169	[pos="53.509,757.93 102.83,765.72 208.16,782.35 257.38,790.13"];
	174	[height=0.5,
		pos="243.55,719.67",
		width=0.75];
	173 -- 174	[pos="194.85,493.28 204.57,538.47 229.95,656.46 239.68,701.68"];
	174 -- 175	[pos="267.15,728.88 310.26,745.71 401.29,781.24 444.42,798.08"];
	181	[height=0.5,
		pos="1078.6,227.33",
		width=0.75];
	180 -- 181	[pos="665.3,163.7 743.68,175.77 973.63,211.17 1052.1,223.24"];
	181 -- 182	[pos="1079.4,245.39 1082.2,312.79 1092,549.23 1094.8,617.06"];
	190 -- 191	[pos="364.93,370.53 345.54,446.82 269.79,744.76 250.44,820.86"];
	195	[height=0.5,
		pos="500.36,159.99",
		width=0.75];
	194 -- 195	[pos="786.11,76.286 727.94,93.324 583.65,135.59 525.37,152.66"];
	195 -- 196	[pos="495.55,178.04 483.65,222.67 452.99,337.76 441.13,382.26"];
	199	[height=0.5,
		pos="675.37,33.74",
		width=0.75];
	198 -- 199	[pos="915.68,27.231 864.42,28.619 753.86,31.614 702.55,33.004"];
	199 -- 200	[pos="668.36,51.282 655.33,83.922 627.5,153.62 614.5,186.19"];
	202 -- 203	[pos="500.77,290.82 478.98,355.64 403.78,579.37 381.94,644.37"];
	206	[height=0.5,
		pos="1584.7,489.08",
		width=0.75];
	205 -- 206	[pos="1409,178.22 1441,234.91 1543.2,415.64 1575.1,472.08"];
	206 -- 207	[pos="1572.2,505.12 1544.1,541.24 1476.1,628.68 1447.9,664.89"];
	213 -- 214	[pos="1505,490.01 1458.1,538.14 1315.1,684.76 1268.4,732.66"];
	220 -- 221	[pos="749.09,318.14 685.41,398.98 402.85,757.7 339.65,837.94"];
	223 -- 224	[pos="1530.4,1002.7 1473.1,1046 1296,1179.7 1238.7,1222.9"];
	227	[height=0.5,
		pos="797.15,119.61",
		width=0.75];
	226 -- 227	[pos="1124.1,108.89 1058.2,111.05 890.46,116.55 824.44,118.72"];
	227 -- 228	[pos="781.49,134.64 740.61,173.89 631,279.12 590.14,318.35"];
	230 -- 231	[pos="982.17,135.47 929.95,150.57 809.46,185.4 757.12,200.53"];
	240	[height=0.5,
		pos="1603.2,850.47",
		width=0.75];
	239 -- 240	[pos="1673,705.8 1658,736.99 1626.5,802.17 1611.5,833.26"];
	240 -- 241	[pos="1580.9,860.66 1515.7,890.44 1325.9,977.17 1260.5,1007.1"];
	244	[height=0.5,
		pos="1193.4,152.01",
		width=0.75];
	243 -- 244	[pos="1524.3,327.25 1461.5,294.02 1277.4,196.52 1214.6,163.27"];
	244 -- 245	[pos="1180.5,168.1 1144.7,212.53 1045.1,336.56 1009.3,381.06"];
	251 -- 252	[pos="145.7,617.82 176.42,568.7 265.85,425.7 296.67,376.41"];
	255	[height=0.5,
		pos="823.95,274.5",
		width=0.75];
	254 -- 255	[pos="271.27,619.09 359.86,563.85 715.79,341.93 804.06,286.89"];
	255 -- 256	[pos="843.55,287.05 916.82,333.94 1174,498.58 1247.3,545.5"];
	258 -- 259	[pos="201.49,1090.8 262.67,1049.1 453.32,919.24 514.23,877.74"];
	261 -- 262	[pos="678.38,259.05 763.18,261.33 1023.1,268.33 1108.1,270.62"];
	271	[height=0.5,
		pos="56.003,908.95",
		width=0.75];
	270 -- 271	[pos="403.38,1288.3 345.55,1225.2 127.74,987.3 70.079,924.33"];
	271 -- 272	[pos="65.689,891.81 100.38,830.4 218.23,621.81 252.89,560.46"];
	275	[height=0.5,
		pos="36.814,820.28",
		width=0.75];
	274 -- 275	[pos="330.99,1273.6 283.55,1200.5 94.72,909.51 47.54,836.81"];
	275 -- 276	[pos="47.498,803.68 90.582,736.77 251.29,487.16 294.43,420.16"];
	280 -- 281	[pos="635.99,1275.8 634.9,1215.5 631.44,1023.1 630.36,963.06"];
	285 -- 286	[pos="1134.5,1327.7 1113.1,1287.4 1059.3,1186.2 1037.7,1145.6"];
	289	[height=0.5,
		pos="1525.5,1080.7",
		width=0.75];
	288 -- 289	[pos="1342.7,1287.4 1378.8,1246.6 1475.6,1137.2 1511.7,1096.4"];
	289 -- 290	[pos="1508.6,1066.3 1477.4,1039.4 1410.6,982.19 1379.2,955.24"];
	300	[height=0.5,
		pos="1031.8,18",
		width=0.75];
	299 -- 300	[pos="662.52,74.597 734.63,63.544 933.34,33.089 1005.3,22.057"];
	300 -- 301	[pos="1048.4,32.323 1095,72.601 1227,186.55 1273.9,227.04"];
	305 -- 306	[pos="299.78,1021 399.63,1036.3 753.09,1090.4 853.18,1105.7"];
	309	[height=0.5,
		pos="1069.1,106.08",
		width=0.75];
	308 -- 309	[pos="727.99,115.61 796.08,113.7 973.88,108.74 1042,106.83"];
	309 -- 310	[pos="1077.3,123.35 1108.8,189.93 1222.2,429.57 1253.9,496.56"];
	318 -- 319	[pos="970.81,88.006 1021.9,116.67 1153.5,190.48 1204.8,219.29"];
	321 -- 322	[pos="198.72,825.77 259.65,887.05 488.76,1117.4 550.27,1179.3"];
	327 -- 328	[pos="784.87,181.21 802.71,221.37 846.46,319.85 864.27,359.95"];
	330 -- 331	[pos="212.34,604.57 243.19,663.05 344.6,855.25 375.54,913.89"];
	336 -- 337	[pos="382.25,1246.6 446.41,1247.3 607.45,1249.2 671.96,1250"];
	341 -- 342	[pos="279.94,481.13 361.08,486.89 602.65,504.04 683.74,509.8"];
	346	[height=0.5,
		pos="1537.8,1034.6",
		width=0.75];
	345 -- 346	[pos="1601.6,824.36 1588.6,867.02 1556.1,974.25 1543.2,1016.8"];
	346 -- 347	[pos="1510.9,1037.7 1442.6,1045.5 1263,1065.8 1194.8,1073.6"];
	350 -- 351	[pos="831.27,446.06 777.82,527.94 543.22,887.29 489.87,969.02"];
	354	[height=0.5,
		pos="1214.2,65.877",
		width=0.75];
	353 -- 354	[pos="944.62,175.47 999.63,153.11 1136.3,97.551 1191,75.306"];
	354 -- 355	[pos="1225.9,82.318 1252.2,119.36 1315.9,209.02 1342.3,246.15"];
	357 -- 358	[pos="1104.3,337.23 1115,407.4 1153.4,660.38 1164,730.14"];
	361	[height=0.5,
		pos="1350.2,1209.5",
		width=0.75];
	360 -- 361	[pos="970.79,1328.3 1043,1305.7 1253.5,1239.8 1325.6,1217.2"];
	361 -- 362	[pos="1345.9,1191.5 1336.4,1152.4 1313.9,1059.8 1304.4,1020.8"];
	368 -- 369	[pos="1594.1,685.85 1529.3,715.92 1341.5,802.93 1276.8,832.92"];
	372	[height=0.5,
		pos="1700.4,616.13",
		width=0.75];
	371 -- 372	[pos="1580.2,423.33 1604.7,462.58 1665.3,559.93 1689.8,599.25"];
	372 -- 373	[pos="1676.1,624.32 1616.2,644.56 1461.6,696.75 1401.8,716.93"];
	376	[height=0.5,
		pos="1071.8,62.059",
		width=0.75];
	375 -- 376	[pos="1257.9,79.615 1216.9,75.749 1139.5,68.439 1098.6,64.584"];
	376 -- 377	[pos="1063.8,79.514 1039.5,132.63 966.5,291.89 942.12,345.06"];
	390 -- 391	[pos="208.18,692.8 241.82,756.81 359.84,981.39 393.7,1045.8"];
}
