graph {
	graph [bb="0,0,1713.5,1525.5",
		outputorder=edgesfirst,
		overlap=prism,
		size="50,50!",
		start=893
	];
	node [label="\N"];
	0	[height=0.5,
		pos="869.73,962.56",
		width=0.75];
	20	[height=0.5,
		pos="525.2,1136.4",
		width=0.75];
	0 -- 20	[pos="848.18,973.44 786.31,1004.7 608.61,1094.3 546.75,1125.5"];
	23	[height=0.5,
		pos="473.14,881.54",
		width=0.75];
	0 -- 23	[pos="843.71,957.25 771.76,942.55 570.75,901.48 499,886.82"];
	27	[height=0.5,
		pos="534.33,1180.4",
		width=0.75];
	0 -- 27	[pos="850.25,975.22 790.97,1013.7 613.22,1129.2 553.86,1167.7"];
	30	[height=0.5,
		pos="1082.3,849.04",
		width=0.75];
	0 -- 30	[pos="890.89,951.26 931.64,929.5 1020.6,882.02 1061.2,860.29"];
	31	[height=0.5,
		pos="952.16,1223.9",
		width=0.75];
	0 -- 31	[pos="875.4,980.53 890.49,1028.4 931.55,1158.6 946.56,1206.2"];
	6	[height=0.5,
		pos="857.77,1052.7",
		width=0.75];
	0 -- 6	[pos="867.31,980.8 865.24,996.43 862.26,1018.8 860.19,1034.5"];
	33	[height=0.5,
		pos="709.47,635.29",
		width=0.75];
	0 -- 33	[pos="861.34,945.43 833.71,889.01 745.76,709.4 717.97,652.65"];
	36	[height=0.5,
		pos="605.51,802.27",
		width=0.75];
	0 -- 36	[pos="849.44,950.25 800.14,920.34 674.51,844.13 625.52,814.4"];
	37	[height=0.5,
		pos="1127.8,893.08",
		width=0.75];
	0 -- 37	[pos="894.94,955.77 944.27,942.49 1053,913.2 1102.4,899.89"];
	38	[height=0.5,
		pos="1226.6,977.96",
		width=0.75];
	0 -- 38	[pos="896.85,963.73 963.21,966.6 1133.2,973.93 1199.5,976.79"];
	39	[height=0.5,
		pos="1048,716.88",
		width=0.75];
	0 -- 39	[pos="881.7,946.06 914.17,901.31 1003.6,777.99 1036,733.31"];
	40	[height=0.5,
		pos="688.02,1027.4",
		width=0.75];
	0 -- 40	[pos="845.6,971.18 810.75,983.62 746.7,1006.5 711.96,1018.9"];
	41	[height=0.5,
		pos="625.99,1027.8",
		width=0.75];
	0 -- 41	[pos="844.57,969.3 797.86,981.79 698.26,1008.4 651.38,1021"];
	43	[height=0.5,
		pos="890.11,1259.7",
		width=0.75];
	0 -- 43	[pos="870.98,980.71 874.61,1033.8 885.21,1188.2 888.86,1241.5"];
	45	[height=0.5,
		pos="598.27,951.61",
		width=0.75];
	0 -- 45	[pos="842.71,961.47 790.81,959.38 677.72,954.82 625.59,952.71"];
	47	[height=0.5,
		pos="721.28,852.66",
		width=0.75];
	0 -- 47	[pos="851.53,949.09 823.04,927.99 768.22,887.41 739.63,866.25"];
	17	[height=0.5,
		pos="869.91,807.92",
		width=0.75];
	0 -- 17	[pos="869.75,944.52 869.79,914.88 869.86,856.2 869.89,826.33"];
	48	[height=0.5,
		pos="766.06,1247.5",
		width=0.75];
	0 -- 48	[pos="863.25,980.39 844.63,1031.6 791.16,1178.5 772.54,1229.7"];
	51	[height=0.5,
		pos="971.4,764.32",
		width=0.75];
	0 -- 51	[pos="878.58,945.32 897.85,907.73 943.46,818.81 962.65,781.38"];
	21	[height=0.5,
		pos="318.43,1126.2",
		width=0.75];
	20 -- 21	[pos="498.17,1135.1 458.54,1133.1 385.1,1129.5 345.47,1127.5"];
	24	[height=0.5,
		pos="140.83,431.43",
		width=0.75];
	23 -- 24	[pos="461.12,865.25 409.22,794.96 204.7,517.94 152.83,447.69"];
	28	[height=0.5,
		pos="256.37,1102.2",
		width=0.75];
	27 -- 28	[pos="509.17,1173.3 456.25,1158.4 333.96,1124.1 281.27,1109.2"];
	32	[height=0.5,
		pos="1083.9,1323.9",
		width=0.75];
	31 -- 32	[pos="970.2,1237.6 995.44,1256.7 1041,1291.3 1066.1,1310.3"];
	6 -- 17	[pos="858.66,1034.7 860.91,989.41 866.77,871.23 869.02,825.95"];
	55	[height=0.5,
		pos="668.24,983.43",
		width=0.75];
	6 -- 55	[pos="833.77,1043.9 797.31,1030.6 728.39,1005.4 692.05,992.13"];
	12	[height=0.5,
		pos="774.45,912.02",
		width=0.75];
	6 -- 12	[pos="847.72,1035.7 831.7,1008.7 800.57,956.12 784.53,929.05"];
	87	[height=0.5,
		pos="807.67,816.47",
		width=0.75];
	6 -- 87	[pos="853.92,1034.5 844.57,990.45 820.76,878.15 811.47,834.35"];
	188	[height=0.5,
		pos="1014.2,1263.4",
		width=0.75];
	6 -- 188	[pos="869.78,1068.9 898.9,1108.1 972.98,1207.9 1002.1,1247.1"];
	14	[height=0.5,
		pos="945.56,1103.6",
		width=0.75];
	6 -- 14	[pos="878.57,1064.7 892.57,1072.8 910.94,1083.5 924.9,1091.6"];
	219	[height=0.5,
		pos="1074.1,1134.3",
		width=0.75];
	6 -- 219	[pos="881.33,1061.6 922.95,1077.3 1009,1109.7 1050.6,1125.4"];
	222	[height=0.5,
		pos="470.88,1219.5",
		width=0.75];
	6 -- 222	[pos="835.01,1062.5 766.5,1092 562.65,1179.9 493.85,1209.6"];
	225	[height=0.5,
		pos="986.76,1307.4",
		width=0.75];
	6 -- 225	[pos="866.43,1069.8 889.87,1116.1 954.37,1243.4 977.96,1290"];
	229	[height=0.5,
		pos="1076.2,1224.6",
		width=0.75];
	6 -- 229	[pos="875.28,1066.4 916.19,1098.6 1017.7,1178.5 1058.7,1210.8"];
	232	[height=0.5,
		pos="1097.3,1076.4",
		width=0.75];
	6 -- 232	[pos="884.78,1055.3 930.89,1059.9 1024.3,1069.2 1070.4,1073.8"];
	234	[height=0.5,
		pos="762.68,1203.5",
		width=0.75];
	6 -- 234	[pos="847.23,1069.4 828.95,1098.4 791.57,1157.7 773.26,1186.7"];
	236	[height=0.5,
		pos="563.96,1060.7",
		width=0.75];
	6 -- 236	[pos="830.65,1053.4 774.68,1054.9 646.92,1058.4 591.01,1060"];
	238	[height=0.5,
		pos="528.38,1268.4",
		width=0.75];
	6 -- 238	[pos="838.15,1065.5 779.57,1103.9 606.35,1217.3 547.89,1255.6"];
	242	[height=0.5,
		pos="765.59,1310",
		width=0.75];
	6 -- 242	[pos="851.43,1070.4 834.59,1117.4 788.86,1245 771.97,1292.2"];
	246	[height=0.5,
		pos="1010.1,808.92",
		width=0.75];
	6 -- 246	[pos="868.24,1035.9 896.08,991.38 971.67,870.45 999.59,825.79"];
	120	[height=0.5,
		pos="600.92,1300.8",
		width=0.75];
	6 -- 120	[pos="842.09,1067.8 796.13,1112.2 662.09,1241.7 616.39,1285.9"];
	157	[height=0.5,
		pos="1076.3,1279.8",
		width=0.75];
	6 -- 157	[pos="872.44,1067.9 912.24,1109.3 1021.9,1223.3 1061.6,1264.6"];
	34	[height=0.5,
		pos="596.43,150.91",
		width=0.75];
	33 -- 34	[pos="705.31,617.48 687.59,541.52 618.42,245.15 600.63,168.89"];
	42	[height=0.5,
		pos="771.95,674.22",
		width=0.75];
	41 -- 42	[pos="633.22,1010.2 658.07,950.05 739.75,752.21 764.67,691.86"];
	44	[height=0.5,
		pos="872.98,1358.1",
		width=0.75];
	43 -- 44	[pos="886.97,1277.8 883.88,1295.5 879.18,1322.4 876.1,1340.1"];
	46	[height=0.5,
		pos="389.8,508.78",
		width=0.75];
	45 -- 46	[pos="590.1,934.25 556.75,863.41 431.16,596.64 397.92,526.02"];
	105	[height=0.5,
		pos="925.84,632.27",
		width=0.75];
	17 -- 105	[pos="875.58,790.11 886.3,756.45 909.43,683.83 920.16,650.12"];
	19	[height=0.5,
		pos="1023.8,496.73",
		width=0.75];
	17 -- 19	[pos="878.41,790.75 905.31,736.34 988.46,568.19 1015.3,513.86"];
	325	[height=0.5,
		pos="1189.8,875.25",
		width=0.75];
	17 -- 325	[pos="895.82,813.38 955.75,825.99 1103.5,857.08 1163.6,869.75"];
	339	[height=0.5,
		pos="1025.2,672.88",
		width=0.75];
	17 -- 339	[pos="886.53,793.47 916.41,767.48 978.88,713.14 1008.7,687.23"];
	385	[height=0.5,
		pos="787.56,719.62",
		width=0.75];
	17 -- 385	[pos="855.57,792.54 840.55,776.43 817.08,751.28 802.02,735.12"];
	388	[height=0.5,
		pos="949.84,940.4",
		width=0.75];
	17 -- 388	[pos="880.04,824.7 895.33,850.04 924.16,897.83 939.55,923.34"];
	81	[height=0.5,
		pos="601.66,710.51",
		width=0.75];
	17 -- 81	[pos="846.11,799.28 795.2,780.79 676.27,737.6 625.41,719.14"];
	144	[height=0.5,
		pos="659.23,895.41",
		width=0.75];
	17 -- 144	[pos="846.96,817.45 806.44,834.28 722.65,869.07 682.15,885.89"];
	184	[height=0.5,
		pos="1144.5,820.26",
		width=0.75];
	17 -- 184	[pos="897,809.14 949.5,811.5 1064.6,816.67 1117.3,819.03"];
	216	[height=0.5,
		pos="1008.8,988.17",
		width=0.75];
	17 -- 216	[pos="882.48,824.24 908.93,858.55 970.05,937.85 996.38,972.02"];
	266	[height=0.5,
		pos="962.45,569.64",
		width=0.75];
	17 -- 266	[pos="876.72,790.4 893.83,746.34 938.51,631.28 955.64,587.19"];
	290	[height=0.5,
		pos="596.18,563.73",
		width=0.75];
	17 -- 290	[pos="853.61,793.38 804.92,749.95 660.98,621.53 612.4,578.2"];
	310	[height=0.5,
		pos="1190.3,933.92",
		width=0.75];
	17 -- 310	[pos="893.21,817.09 952.26,840.3 1107.3,901.26 1166.7,924.62"];
	362	[height=0.5,
		pos="543.46,764.83",
		width=0.75];
	17 -- 362	[pos="843.2,804.4 781.83,796.3 631.37,776.44 570.09,768.35"];
	373	[height=0.5,
		pos="1111.2,988.16",
		width=0.75];
	17 -- 373	[pos="888.05,821.47 932.87,854.96 1048.5,941.31 1093.2,974.71"];
	381	[height=0.5,
		pos="788.97,608.94",
		width=0.75];
	17 -- 381	[pos="862.73,790.26 847.37,752.5 811.48,664.28 796.14,626.56"];
	49	[height=0.5,
		pos="663.05,1341.7",
		width=0.75];
	48 -- 49	[pos="749.96,1262.2 730.61,1279.9 698.34,1309.5 679.03,1327.1"];
	52	[height=0.5,
		pos="1046.7,427.33",
		width=0.75];
	51 -- 52	[pos="975.45,746.2 988.53,687.69 1029.5,504.17 1042.7,445.53"];
	1	[height=0.5,
		pos="763.04,764.61",
		width=0.75];
	2	[height=0.5,
		pos="862.64,608.28",
		width=0.75];
	1 -- 2	[pos="773.7,747.88 792.87,717.79 832.95,654.89 852.06,624.89"];
	3	[height=0.5,
		pos="469.4,819.31",
		width=0.75];
	1 -- 3	[pos="736.99,769.47 681.4,779.82 551.73,803.98 495.82,814.39"];
	53	[height=0.5,
		pos="959.01,676.27",
		width=0.75];
	1 -- 53	[pos="785.52,754.48 823.23,737.48 898.77,703.43 936.49,686.42"];
	54	[height=0.5,
		pos="790.48,1052.1",
		width=0.75];
	1 -- 54	[pos="764.76,782.59 769.69,834.21 783.84,982.46 788.76,1034.1"];
	1 -- 55	[pos="755.45,782.15 737.65,823.22 693.44,925.26 675.74,966.11"];
	56	[height=0.5,
		pos="454.58,574.04",
		width=0.75];
	1 -- 56	[pos="742.81,752.11 686.78,717.49 530.13,620.71 474.49,586.34"];
	60	[height=0.5,
		pos="376.14,839.53",
		width=0.75];
	1 -- 60	[pos="737.06,769.64 666.66,783.28 472.83,820.81 402.27,834.47"];
	64	[height=0.5,
		pos="783.3,866.1",
		width=0.75];
	1 -- 64	[pos="766.67,782.76 770.35,801.23 776.03,829.7 779.71,848.11"];
	66	[height=0.5,
		pos="1020.3,856.08",
		width=0.75];
	1 -- 66	[pos="787.24,773.22 836.39,790.69 947.37,830.16 996.31,847.56"];
	67	[height=0.5,
		pos="432.47,618.05",
		width=0.75];
	1 -- 67	[pos="740.32,754.54 679.93,727.76 515.93,655.05 455.35,628.2"];
	1 -- 12	[pos="764.44,782.69 766.63,810.98 770.84,865.42 773.04,893.8"];
	71	[height=0.5,
		pos="429.87,932.54",
		width=0.75];
	1 -- 71	[pos="741.44,775.5 681.17,805.88 511.64,891.33 451.42,921.68"];
	75	[height=0.5,
		pos="728.47,1071.5",
		width=0.75];
	1 -- 75	[pos="760.99,782.89 754.84,837.46 736.65,998.83 730.52,1053.3"];
	76	[height=0.5,
		pos="402.17,705.01",
		width=0.75];
	1 -- 76	[pos="736.8,760.28 670.3,749.3 495.73,720.46 428.81,709.41"];
	16	[height=0.5,
		pos="682.09,693",
		width=0.75];
	1 -- 16	[pos="746.66,750.12 732.62,737.7 712.49,719.89 698.45,707.47"];
	79	[height=0.5,
		pos="412.04,768.63",
		width=0.75];
	1 -- 79	[pos="735.79,764.92 670.4,765.67 505.14,767.57 439.52,768.32"];
	18	[height=0.5,
		pos="907.35,896.36",
		width=0.75];
	1 -- 18	[pos="779.04,779.21 806.78,804.54 863.49,856.32 891.28,881.69"];
	82	[height=0.5,
		pos="658.21,591.09",
		width=0.75];
	1 -- 82	[pos="752.8,747.66 732.71,714.4 688.34,640.96 668.34,607.86"];
	22	[height=0.5,
		pos="521.36,964.75",
		width=0.75];
	1 -- 22	[pos="746.05,778.68 701.67,815.43 582.69,913.96 538.34,950.69"];
	2 -- 16	[pos="840.5,618.67 805.85,634.93 739.17,666.21 704.41,682.53"];
	84	[height=0.5,
		pos="556.62,607.76",
		width=0.75];
	2 -- 84	[pos="835.49,608.23 777.41,608.14 641.73,607.91 583.71,607.81"];
	4	[height=0.5,
		pos="1112.7,671.03",
		width=0.75];
	2 -- 4	[pos="888,614.64 935.92,626.67 1039.3,652.61 1087.3,664.65"];
	85	[height=0.5,
		pos="987.92,613.66",
		width=0.75];
	2 -- 85	[pos="889.83,609.45 910.84,610.35 939.79,611.6 960.79,612.5"];
	2 -- 87	[pos="857.96,626.03 847.6,665.26 822.85,759 812.43,798.47"];
	7	[height=0.5,
		pos="984.7,450.88",
		width=0.75];
	2 -- 7	[pos="875.25,592.03 898.63,561.86 948.51,497.55 971.98,467.28"];
	88	[height=0.5,
		pos="633.06,486.52",
		width=0.75];
	2 -- 88	[pos="841.46,597.04 797.72,573.85 697.89,520.9 654.19,497.73"];
	89	[height=0.5,
		pos="877.16,360.76",
		width=0.75];
	2 -- 89	[pos="863.71,590.08 866.4,544.3 873.41,424.79 876.09,378.98"];
	93	[height=0.5,
		pos="931.55,406.35",
		width=0.75];
	2 -- 93	[pos="868.64,590.71 881.67,552.52 912.46,462.3 925.52,424.02"];
	97	[height=0.5,
		pos="696,275.9",
		width=0.75];
	2 -- 97	[pos="853.92,590.88 825.12,533.44 733.31,350.31 704.64,293.13"];
	101	[height=0.5,
		pos="675.55,393.38",
		width=0.75];
	2 -- 101	[pos="848.89,592.48 814.29,552.74 723.95,448.97 689.32,409.21"];
	13	[height=0.5,
		pos="896.06,676.37",
		width=0.75];
	2 -- 13	[pos="871.08,625.46 876.1,635.7 882.47,648.67 887.51,658.95"];
	104	[height=0.5,
		pos="926.94,852.34",
		width=0.75];
	2 -- 104	[pos="867.37,626.23 879.26,671.36 910.31,789.21 922.2,834.37"];
	15	[height=0.5,
		pos="705.12,502.91",
		width=0.75];
	2 -- 15	[pos="843.33,595.36 813.1,575.13 754.93,536.22 724.6,515.93"];
	2 -- 105	[pos="886.18,617.21 891.37,619.18 896.88,621.27 902.08,623.25"];
	106	[height=0.5,
		pos="553.3,392.98",
		width=0.75];
	2 -- 106	[pos="843.76,595.14 788.53,556.7 627.74,444.79 572.33,406.22"];
	110	[height=0.5,
		pos="694.6,324.64",
		width=0.75];
	2 -- 110	[pos="852.64,591.39 822.75,540.94 734.38,391.78 704.56,341.45"];
	26	[height=0.5,
		pos="622.53,305.33",
		width=0.75];
	2 -- 26	[pos="849.73,591.99 807.94,539.27 676.67,373.64 635.21,321.33"];
	3 -- 12	[pos="494.11,826.82 551.27,844.19 692.13,887 749.51,904.44"];
	3 -- 16	[pos="489.79,807.2 530.45,783.06 621.16,729.19 661.76,705.07"];
	3 -- 84	[pos="476.69,801.64 493.14,761.72 533.03,664.97 549.41,625.24"];
	113	[height=0.5,
		pos="535.19,916.67",
		width=0.75];
	3 -- 113	[pos="480.56,835.83 492.66,853.73 511.85,882.14 523.97,900.07"];
	115	[height=0.5,
		pos="439.88,1076.8",
		width=0.75];
	3 -- 115	[pos="467.33,837.42 461.9,884.71 447.37,1011.5 441.95,1058.8"];
	117	[height=0.5,
		pos="250.46,993.58",
		width=0.75];
	3 -- 117	[pos="451.85,833.28 410.86,865.91 309.17,946.85 268.09,979.55"];
	121	[height=0.5,
		pos="218.42,754.84",
		width=0.75];
	3 -- 121	[pos="443.95,812.77 395.85,800.42 292.09,773.76 243.93,761.39"];
	8	[height=0.5,
		pos="494.56,639.29",
		width=0.75];
	3 -- 8	[pos="471.95,801.06 476.79,766.47 487.23,691.75 492.04,657.32"];
	125	[height=0.5,
		pos="319.68,993.41",
		width=0.75];
	3 -- 125	[pos="455.85,835.07 427.42,868.13 361.81,944.43 333.31,977.57"];
	129	[height=0.5,
		pos="420.14,983.01",
		width=0.75];
	3 -- 129	[pos="464.04,837.14 454.56,868.63 434.97,933.73 425.5,965.21"];
	132	[height=0.5,
		pos="278.14,696.54",
		width=0.75];
	3 -- 132	[pos="449.65,806.64 412.91,783.05 334.44,732.68 297.78,709.15"];
	135	[height=0.5,
		pos="228.68,874.44",
		width=0.75];
	3 -- 135	[pos="443.64,825.21 397.31,835.82 300.46,858 254.26,868.58"];
	138	[height=0.5,
		pos="381.69,1032.6",
		width=0.75];
	3 -- 138	[pos="462.22,836.77 445.74,876.86 405.31,975.16 388.85,1015.2"];
	140	[height=0.5,
		pos="164.73,842.95",
		width=0.75];
	3 -- 140	[pos="442.36,821.41 384.55,825.9 249.47,836.37 191.7,840.86"];
	143	[height=0.5,
		pos="343.25,898.58",
		width=0.75];
	3 -- 143	[pos="449.69,831.7 426.13,846.5 386.92,871.14 363.24,886.02"];
	145	[height=0.5,
		pos="245.78,918.47",
		width=0.75];
	3 -- 145	[pos="446.73,829.37 403.87,848.37 311.42,889.37 268.51,908.39"];
	149	[height=0.5,
		pos="196.86,798.91",
		width=0.75];
	3 -- 149	[pos="442.27,817.28 390.03,813.37 276.03,804.83 223.88,800.93"];
	29	[height=0.5,
		pos="307.82,949.35",
		width=0.75];
	3 -- 29	[pos="452.11,833.23 421.17,858.12 356.68,910.03 325.48,935.14"];
	57	[height=0.5,
		pos="312.33,256.47",
		width=0.75];
	56 -- 57	[pos="446.73,556.51 421.86,500.99 345,329.39 320.16,273.94"];
	61	[height=0.5,
		pos="66.63,832.69",
		width=0.75];
	60 -- 61	[pos="348.95,838.93 290.24,837.63 152.21,834.58 93.653,833.28"];
	65	[height=0.5,
		pos="1280.1,842.12",
		width=0.75];
	64 -- 65	[pos="810.36,864.79 896.93,860.61 1166.4,847.61 1253,843.43"];
	68	[height=0.5,
		pos="374.36,255.81",
		width=0.75];
	67 -- 68	[pos="429.59,600.09 419.7,538.42 387.18,335.72 377.26,273.88"];
	12 -- 40	[pos="762.06,928.56 745.54,950.63 716.47,989.45 700.1,1011.3"];
	12 -- 17	[pos="788.53,896.66 806.58,876.98 837.69,843.06 855.77,823.35"];
	12 -- 13	[pos="783.39,894.69 805.93,851.01 864.89,736.77 887.27,693.4"];
	12 -- 14	[pos="788.45,927.7 820.61,963.7 899.48,1052 931.6,1087.9"];
	278	[height=0.5,
		pos="550.66,846.29",
		width=0.75];
	12 -- 278	[pos="749.64,904.74 706.63,892.1 618.67,866.26 575.58,853.61"];
	332	[height=0.5,
		pos="976.61,720.28",
		width=0.75];
	12 -- 332	[pos="789.97,897.29 827.6,861.6 923.34,770.8 961.03,735.06"];
	343	[height=0.5,
		pos="667.09,757.95",
		width=0.75];
	12 -- 343	[pos="762.96,895.53 742.29,865.88 699.1,803.89 678.5,774.32"];
	344	[height=0.5,
		pos="501.94,1076.5",
		width=0.75];
	12 -- 344	[pos="754.41,924.12 704.01,954.53 572.43,1033.9 522,1064.4"];
	348	[height=0.5,
		pos="811.67,1006.6",
		width=0.75];
	12 -- 348	[pos="781.45,929.81 788.1,946.72 798.06,972 804.7,988.88"];
	349	[height=0.5,
		pos="884.69,1008.6",
		width=0.75];
	12 -- 349	[pos="791.19,926.69 812.03,944.96 847.41,975.96 868.15,994.14"];
	103	[height=0.5,
		pos="563.17,1009",
		width=0.75];
	12 -- 103	[pos="751.83,922.4 711.17,941.05 626.16,980.06 585.61,998.66"];
	171	[height=0.5,
		pos="946.75,990.78",
		width=0.75];
	12 -- 171	[pos="796.97,922.32 829.99,937.41 891.2,965.38 924.22,980.48"];
	207	[height=0.5,
		pos="587.26,1104.8",
		width=0.75];
	12 -- 207	[pos="759.76,927.15 724.85,963.08 637.23,1053.3 602.14,1089.4"];
	256	[height=0.5,
		pos="817.1,1096.7",
		width=0.75];
	12 -- 256	[pos="778.61,930.07 786.79,965.47 804.84,1043.6 812.98,1078.9"];
	295	[height=0.5,
		pos="926.35,1052.7",
		width=0.75];
	12 -- 295	[pos="790.41,926.81 819.51,953.75 880.86,1010.6 910.13,1037.7"];
	315	[height=0.5,
		pos="990.24,1034.8",
		width=0.75];
	12 -- 315	[pos="795.14,923.79 836.38,947.26 928.41,999.63 969.61,1023.1"];
	72	[height=0.5,
		pos="174.56,953.7",
		width=0.75];
	71 -- 72	[pos="403.03,934.76 353.99,938.83 250.47,947.41 201.42,951.47"];
	77	[height=0.5,
		pos="172.9,387.32",
		width=0.75];
	76 -- 77	[pos="390.17,688.38 350.55,633.48 224.23,458.45 184.78,403.79"];
	16 -- 47	[pos="686.51,711 694.04,741.67 709.26,803.69 716.82,834.48"];
	16 -- 18	[pos="698.29,707.62 739.85,745.15 849.9,844.49 891.3,881.87"];
	264	[height=0.5,
		pos="771.22,458.63",
		width=0.75];
	16 -- 264	[pos="688.79,675.38 705.35,631.84 748.06,519.55 764.57,476.13"];
	338	[height=0.5,
		pos="898.84,564.25",
		width=0.75];
	16 -- 338	[pos="702.48,680.89 743.9,656.29 837.42,600.73 878.66,576.24"];
	16 -- 385	[pos="707.35,699.38 723.93,703.56 745.53,709.01 762.14,713.21"];
	386	[height=0.5,
		pos="560.1,481.06",
		width=0.75];
	16 -- 386	[pos="672.31,676.01 649.47,636.33 592.81,537.89 569.92,498.13"];
	182	[height=0.5,
		pos="472.86,517.62",
		width=0.75];
	16 -- 182	[pos="664.97,678.65 625.63,645.68 529.2,564.84 489.92,531.92"];
	214	[height=0.5,
		pos="347.75,795.5",
		width=0.75];
	16 -- 214	[pos="657.5,700.54 595.68,719.49 434.24,768.98 372.37,787.95"];
	241	[height=0.5,
		pos="340.16,743.31",
		width=0.75];
	16 -- 241	[pos="655.54,696.9 591.84,706.28 430.85,729.97 366.92,739.37"];
	286	[height=0.5,
		pos="292.09,615.22",
		width=0.75];
	16 -- 286	[pos="656.2,687.84 585.34,673.7 388.82,634.51 317.97,620.38"];
	306	[height=0.5,
		pos="597.21,898.49",
		width=0.75];
	16 -- 306	[pos="674.85,710.52 658.82,749.34 620.44,842.23 604.42,881.01"];
	324	[height=0.5,
		pos="833.99,653.43",
		width=0.75];
	16 -- 324	[pos="707.51,686.38 735.64,679.05 780.68,667.32 808.73,660.01"];
	347	[height=0.5,
		pos="340.17,683.77",
		width=0.75];
	16 -- 347	[pos="654.97,692.27 591,690.54 431.26,686.23 367.29,684.5"];
	358	[height=0.5,
		pos="364.86,552.8",
		width=0.75];
	16 -- 358	[pos="659.53,683.03 601.21,657.25 445.94,588.63 387.52,562.81"];
	369	[height=0.5,
		pos="411.14,883.56",
		width=0.75];
	16 -- 369	[pos="663.47,706.1 613.97,740.91 479.54,835.45 429.89,870.37"];
	80	[height=0.5,
		pos="156.37,745.6",
		width=0.75];
	79 -- 80	[pos="385.16,766.21 336.06,761.79 232.39,752.45 183.27,748.03"];
	291	[height=0.5,
		pos="718.8,808.63",
		width=0.75];
	18 -- 291	[pos="884.98,885.95 848.69,869.07 777.41,835.9 741.14,819.02"];
	18 -- 348	[pos="893.64,912.15 875.45,933.11 843.53,969.88 825.36,990.82"];
	18 -- 388	[pos="922.21,911.76 926.42,916.13 931,920.88 935.2,925.23"];
	389	[height=0.5,
		pos="904.05,763.91",
		width=0.75];
	18 -- 389	[pos="906.9,878.22 906.27,853 905.14,807.59 904.51,782.26"];
	50	[height=0.5,
		pos="881.25,1114",
		width=0.75];
	18 -- 50	[pos="905.17,914.54 900.24,955.61 888.3,1055.2 883.4,1096"];
	109	[height=0.5,
		pos="702.18,1115.5",
		width=0.75];
	18 -- 109	[pos="892.92,911.77 855.25,952.01 754.24,1059.9 716.59,1100.1"];
	148	[height=0.5,
		pos="716.47,1159.5",
		width=0.75];
	18 -- 148	[pos="895.41,912.82 861.13,960.08 762.68,1095.8 728.41,1143.1"];
	186	[height=0.5,
		pos="1066.1,944.13",
		width=0.75];
	18 -- 186	[pos="932.15,903.82 961.96,912.8 1011.7,927.77 1041.4,936.72"];
	245	[height=0.5,
		pos="835.4,1158.1",
		width=0.75];
	18 -- 245	[pos="902.4,914.35 889.23,962.28 853.39,1092.7 840.28,1140.3"];
	268	[height=0.5,
		pos="1047.8,760.92",
		width=0.75];
	18 -- 268	[pos="922.92,881.35 949.92,855.31 1005.1,802.08 1032.2,776"];
	328	[height=0.5,
		pos="1061.1,1032.2",
		width=0.75];
	18 -- 328	[pos="923.8,910.9 953.4,937.05 1015.3,991.72 1044.8,1017.8"];
	342	[height=0.5,
		pos="845.34,872.05",
		width=0.75];
	18 -- 342	[pos="883.91,887.17 878.97,885.24 873.76,883.19 868.82,881.26"];
	377	[height=0.5,
		pos="966.97,1153.6",
		width=0.75];
	18 -- 377	[pos="911.54,914.45 922.49,961.68 951.84,1088.3 962.79,1135.5"];
	383	[height=0.5,
		pos="753.78,958.19",
		width=0.75];
	18 -- 383	[pos="884.03,905.75 855.16,917.37 806.29,937.05 777.32,948.71"];
	83	[height=0.5,
		pos="801.93,326.78",
		width=0.75];
	82 -- 83	[pos="667.42,574.15 693.32,526.53 766.58,391.78 792.61,343.91"];
	4 -- 30	[pos="1109.6,689.08 1103.8,723.2 1091.2,796.79 1085.4,830.94"];
	4 -- 53	[pos="1085.6,671.96 1057.6,672.91 1014.1,674.39 986.12,675.35"];
	153	[height=0.5,
		pos="1251.8,886.22",
		width=0.75];
	4 -- 153	[pos="1123.6,687.92 1149.6,728.14 1215,829.27 1240.9,869.42"];
	154	[height=0.5,
		pos="1408.7,760.88",
		width=0.75];
	4 -- 154	[pos="1137.4,678.54 1193.1,695.45 1328,736.38 1383.9,753.33"];
	158	[height=0.5,
		pos="1183.4,477.35",
		width=0.75];
	4 -- 158	[pos="1119.1,653.5 1132.5,616.72 1163.5,531.85 1177,494.98"];
	159	[height=0.5,
		pos="1170.8,427.81",
		width=0.75];
	4 -- 159	[pos="1117,653.15 1127.7,608.17 1155.8,490.73 1166.5,445.72"];
	9	[height=0.5,
		pos="1156.1,775.82",
		width=0.75];
	4 -- 9	[pos="1120.1,688.81 1128.1,708.19 1140.9,739.02 1148.8,758.3"];
	162	[height=0.5,
		pos="1353.5,585.43",
		width=0.75];
	4 -- 162	[pos="1136.7,662.51 1182.8,646.1 1283.6,610.3 1329.7,593.92"];
	166	[height=0.5,
		pos="1408.3,535.62",
		width=0.75];
	4 -- 166	[pos="1135.4,660.63 1190.6,635.36 1331.1,570.98 1385.9,545.87"];
	170	[height=0.5,
		pos="1218.2,772.77",
		width=0.75];
	4 -- 170	[pos="1128.3,686.04 1148.2,705.28 1182.6,738.43 1202.6,757.69"];
	172	[height=0.5,
		pos="1291.5,579.41",
		width=0.75];
	4 -- 172	[pos="1134.3,659.98 1168.6,642.37 1235.4,608.13 1269.8,590.5"];
	176	[height=0.5,
		pos="1128.3,941.91",
		width=0.75];
	4 -- 176	[pos="1113.7,689.23 1116.6,738.57 1124.4,874.54 1127.2,923.8"];
	177	[height=0.5,
		pos="1108.8,452.68",
		width=0.75];
	4 -- 177	[pos="1112.4,652.79 1111.6,611.59 1109.8,511.72 1109.1,470.71"];
	179	[height=0.5,
		pos="1340.6,487.11",
		width=0.75];
	4 -- 179	[pos="1130.2,656.9 1172.7,622.58 1281.1,535.14 1323.4,501.03"];
	183	[height=0.5,
		pos="1290.7,669.5",
		width=0.75];
	4 -- 183	[pos="1139.7,670.8 1173.3,670.51 1230.2,670.02 1263.7,669.73"];
	185	[height=0.5,
		pos="1281.8,722.16",
		width=0.75];
	4 -- 185	[pos="1137.3,678.47 1169.3,688.16 1225.1,705.02 1257.2,714.72"];
	187	[height=0.5,
		pos="1175.7,521.47",
		width=0.75];
	4 -- 187	[pos="1120,653.58 1132.2,624.76 1156.3,567.56 1168.4,538.81"];
	114	[height=0.5,
		pos="1049.9,628.86",
		width=0.75];
	4 -- 114	[pos="1093.5,658.15 1085.7,652.92 1076.8,646.89 1069,641.66"];
	86	[height=0.5,
		pos="1159.3,1046.9",
		width=0.75];
	85 -- 86	[pos="994.85,631.18 1022.5,701 1124.5,958.96 1152.3,1029.2"];
	7 -- 158	[pos="1011.5,454.45 1049.5,459.51 1118.7,468.73 1156.7,473.79"];
	247	[height=0.5,
		pos="615.32,349.34",
		width=0.75];
	7 -- 247	[pos="959.6,443.98 892.22,425.45 707.88,374.78 640.46,356.25"];
	248	[height=0.5,
		pos="1294.9,401.72",
		width=0.75];
	7 -- 248	[pos="1011.1,446.68 1069.8,437.4 1210,415.17 1268.5,405.9"];
	250	[height=0.5,
		pos="1112.2,242.22",
		width=0.75];
	7 -- 250	[pos="994.92,434.15 1018.8,395.08 1078,298.17 1102,259.02"];
	11	[height=0.5,
		pos="1060.3,540.79",
		width=0.75];
	7 -- 11	[pos="998.22,466.95 1012,483.32 1033.2,508.54 1046.9,524.86"];
	253	[height=0.5,
		pos="1049.8,210.86",
		width=0.75];
	7 -- 253	[pos="989.6,432.84 1001.7,388.25 1032.9,273.24 1045,228.78"];
	257	[height=0.5,
		pos="935.71,144.75",
		width=0.75];
	7 -- 257	[pos="981.78,432.64 973.07,378.19 947.31,217.21 938.61,162.88"];
	260	[height=0.5,
		pos="1276.2,293.14",
		width=0.75];
	7 -- 260	[pos="1006.1,439.28 1060.2,410.03 1201.5,333.57 1255.1,304.54"];
	263	[height=0.5,
		pos="626.57,261.3",
		width=0.75];
	7 -- 263	[pos="963.37,439.58 899.67,405.87 711.34,306.18 647.79,272.54"];
	7 -- 264	[pos="957.66,451.86 916.71,453.34 839.4,456.15 798.38,457.64"];
	265	[height=0.5,
		pos="848.16,255.84",
		width=0.75];
	7 -- 265	[pos="973.06,434.25 947.2,397.31 885.23,308.79 859.58,272.15"];
	267	[height=0.5,
		pos="1086.4,383.3",
		width=0.75];
	7 -- 267	[pos="1003.8,438.16 1021.9,426.16 1048.9,408.24 1067,396.18"];
	7 -- 19	[pos="998.16,466.66 1002.1,471.32 1006.5,476.42 1010.5,481.08"];
	35	[height=0.5,
		pos="857.31,159.08",
		width=0.75];
	7 -- 35	[pos="977.11,433.5 954.45,381.6 887.46,228.14 864.86,176.36"];
	59	[height=0.5,
		pos="852.92,115.02",
		width=0.75];
	7 -- 59	[pos="977.8,433.29 955.08,375.39 882.76,191.07 859.91,132.83"];
	124	[height=0.5,
		pos="764.48,143.55",
		width=0.75];
	7 -- 124	[pos="972.86,434.35 934.62,380.99 814.7,213.63 776.38,160.15"];
	191	[height=0.5,
		pos="1406,317.98",
		width=0.75];
	7 -- 191	[pos="1009.2,443.16 1083.6,419.67 1306.9,349.23 1381.5,325.72"];
	221	[height=0.5,
		pos="1179.3,293.12",
		width=0.75];
	7 -- 221	[pos="1002,436.88 1038.9,406.94 1125.2,336.99 1162,307.09"];
	90	[height=0.5,
		pos="1180.3,199.55",
		width=0.75];
	89 -- 90	[pos="898.48,349.42 954.15,319.82 1103.4,240.46 1159.1,210.88"];
	94	[height=0.5,
		pos="1238,243.77",
		width=0.75];
	93 -- 94	[pos="953.1,394.92 1009.4,365.06 1160.2,285.02 1216.5,255.19"];
	98	[height=0.5,
		pos="822.94,34.458",
		width=0.75];
	97 -- 98	[pos="705.13,258.53 728.55,213.99 790.56,96.039 813.89,51.665"];
	102	[height=0.5,
		pos="301.94,567.79",
		width=0.75];
	101 -- 102	[pos="653.29,403.77 586.84,434.79 390.37,526.5 324.07,557.45"];
	13 -- 18	[pos="896.98,694.37 899.1,735.62 904.28,836.62 906.41,878.11"];
	13 -- 15	[pos="879.78,661.58 843.71,628.81 757.4,550.39 721.36,517.66"];
	316	[height=0.5,
		pos="1121.1,731.72",
		width=0.75];
	13 -- 316	[pos="921.44,682.61 964.67,693.24 1052.1,714.74 1095.5,725.42"];
	352	[height=0.5,
		pos="1074.9,804.99",
		width=0.75];
	13 -- 352	[pos="914.52,689.65 948.88,714.36 1022.2,767.12 1056.5,791.78"];
	356	[height=0.5,
		pos="833.25,476.2",
		width=0.75];
	13 -- 356	[pos="890.49,658.6 878.57,620.62 850.72,531.88 838.81,493.93"];
	359	[height=0.5,
		pos="659.58,547.07",
		width=0.75];
	13 -- 359	[pos="875.07,664.89 830.2,640.36 725.35,583.03 680.52,558.52"];
	363	[height=0.5,
		pos="960.9,525.59",
		width=0.75];
	13 -- 363	[pos="903.62,658.78 916.12,629.72 940.92,572.05 953.38,543.07"];
	13 -- 42	[pos="868.82,675.9 848.13,675.54 819.8,675.05 799.12,674.69"];
	74	[height=0.5,
		pos="627.37,646.6",
		width=0.75];
	13 -- 74	[pos="869.31,673.4 817.81,667.7 705.42,655.25 654.01,649.55"];
	137	[height=0.5,
		pos="728.87,548.46",
		width=0.75];
	13 -- 137	[pos="878.17,662.68 845.99,638.06 778.72,586.6 746.64,562.05"];
	175	[height=0.5,
		pos="1104.7,496.69",
		width=0.75];
	13 -- 175	[pos="912.78,661.97 951.84,628.32 1048.7,544.87 1087.9,511.16"];
	209	[height=0.5,
		pos="1011.9,900.09",
		width=0.75];
	13 -- 209	[pos="904.96,693.55 926.51,735.2 981.36,841.15 1003,882.85"];
	235	[height=0.5,
		pos="935.91,808.32",
		width=0.75];
	13 -- 235	[pos="901.43,694.16 909.04,719.35 922.86,765.13 930.49,790.39"];
	259	[height=0.5,
		pos="922.68,481.51",
		width=0.75];
	13 -- 259	[pos="898.52,658.38 903.59,621.26 915.16,536.53 920.23,499.45"];
	281	[height=0.5,
		pos="702.44,458.83",
		width=0.75];
	13 -- 281	[pos="882.14,660.72 846.41,620.58 751.82,514.31 716.23,474.33"];
	297	[height=0.5,
		pos="1105.4,584.83",
		width=0.75];
	13 -- 297	[pos="918.86,666.4 959.13,648.79 1042.4,612.38 1082.6,594.79"];
	15 -- 16	[pos="702.92,521.13 698.51,557.47 688.69,638.54 684.29,674.83"];
	15 -- 263	[pos="699.35,485.14 684.82,440.46 646.89,323.8 632.36,279.1"];
	15 -- 343	[pos="702.45,520.84 695.47,567.67 676.74,693.23 669.76,740.04"];
	380	[height=0.5,
		pos="499.92,345.26",
		width=0.75];
	15 -- 380	[pos="687.27,489.19 648.46,459.38 556.78,388.94 517.88,359.06"];
	382	[height=0.5,
		pos="513.86,437.01",
		width=0.75];
	15 -- 382	[pos="680.9,494.56 644.11,481.89 574.56,457.92 537.88,445.29"];
	384	[height=0.5,
		pos="737.58,414.61",
		width=0.75];
	15 -- 384	[pos="711.69,485.04 717.36,469.62 725.5,447.47 731.13,432.15"];
	15 -- 46	[pos="677.97,503.41 618.36,504.52 476.65,507.16 417.01,508.27"];
	78	[height=0.5,
		pos="419.56,318.56",
		width=0.75];
	15 -- 78	[pos="685.5,490.24 633.33,456.56 491.65,365.1 439.33,331.32"];
	142	[height=0.5,
		pos="383.48,398.36",
		width=0.75];
	15 -- 142	[pos="680.69,494.96 620.87,475.52 467.66,425.72 407.89,406.29"];
	178	[height=0.5,
		pos="560.46,270.21",
		width=0.75];
	15 -- 178	[pos="694.72,486.17 668.09,443.34 597.7,330.11 570.97,287.1"];
	211	[height=0.5,
		pos="464.23,683.31",
		width=0.75];
	15 -- 211	[pos="687.02,516.46 642.26,549.98 526.84,636.41 482.21,669.83"];
	237	[height=0.5,
		pos="369.53,604.23",
		width=0.75];
	15 -- 237	[pos="680.45,510.36 618.39,529.09 456.35,578.02 394.25,596.77"];
	303	[height=0.5,
		pos="824.36,409.72",
		width=0.75];
	15 -- 303	[pos="722.72,489.16 745.26,471.54 784.12,441.17 806.7,423.53"];
	322	[height=0.5,
		pos="534.13,194.07",
		width=0.75];
	15 -- 322	[pos="695.69,485.86 665.79,431.87 573.4,264.99 543.54,211.07"];
	337	[height=0.5,
		pos="498.44,238.08",
		width=0.75];
	15 -- 337	[pos="692.51,486.74 655.61,439.46 548.18,301.81 511.16,254.37"];
	366	[height=0.5,
		pos="481.44,727.32",
		width=0.75];
	15 -- 366	[pos="690.1,517.98 649.35,558.86 537.07,671.51 496.4,712.31"];
	107	[height=0.5,
		pos="160.49,653.18",
		width=0.75];
	106 -- 107	[pos="534.08,405.7 467.39,449.88 246.3,596.34 179.66,640.48"];
	111	[height=0.5,
		pos="789.46,97.178",
		width=0.75];
	110 -- 111	[pos="701.89,307.17 719.55,264.83 764.47,157.11 782.15,114.71"];
	113 -- 114	[pos="556,905.03 639.04,858.6 946.14,686.89 1029.1,640.48"];
	116	[height=0.5,
		pos="701.95,1266.7",
		width=0.75];
	115 -- 116	[pos="458.31,1090.2 506.43,1125.1 635.45,1218.5 683.55,1253.3"];
	118	[height=0.5,
		pos="179.8,1153.3",
		width=0.75];
	117 -- 118	[pos="242.76,1011 229.17,1041.7 201.07,1105.3 187.48,1136"];
	122	[height=0.5,
		pos="110.82,385.77",
		width=0.75];
	121 -- 122	[pos="213.23,737.04 195.05,674.69 134.37,466.57 116.08,403.83"];
	8 -- 36	[pos="505.81,655.82 527.08,687.05 572.95,754.43 594.23,785.7"];
	8 -- 88	[pos="508.6,623.8 535.15,594.52 592.4,531.37 618.98,502.05"];
	8 -- 15	[pos="513.99,626.7 554.11,600.72 645.67,541.42 685.74,515.46"];
	192	[height=0.5,
		pos="664.64,939.41",
		width=0.75];
	8 -- 192	[pos="504.19,656.29 534.06,708.99 624.89,869.28 654.9,922.23"];
	8 -- 247	[pos="501.93,621.59 523.54,569.7 586.56,418.4 608.05,366.81"];
	269	[height=0.5,
		pos="280.48,787.36",
		width=0.75];
	8 -- 269	[pos="475.56,652.43 434.94,680.53 340.03,746.18 299.44,774.25"];
	273	[height=0.5,
		pos="265.78,490.65",
		width=0.75];
	8 -- 273	[pos="475.05,626.62 431.83,598.54 328.41,531.34 285.24,503.29"];
	277	[height=0.5,
		pos="860.61,520.23",
		width=0.75];
	8 -- 277	[pos="518.86,631.39 585.29,609.78 769.38,549.9 836.08,528.2"];
	8 -- 278	[pos="499.44,657.3 510.08,696.54 535.24,789.4 545.83,828.47"];
	279	[height=0.5,
		pos="208.07,563.58",
		width=0.75];
	8 -- 279	[pos="469.39,632.64 415.18,618.31 287.93,584.69 233.5,570.3"];
	282	[height=0.5,
		pos="314.11,851.25",
		width=0.75];
	8 -- 282	[pos="481,655.22 447.47,694.6 361.01,796.16 327.58,835.43"];
	284	[height=0.5,
		pos="203.77,519.56",
		width=0.75];
	8 -- 284	[pos="471.26,629.7 416.67,607.22 281.08,551.39 226.79,529.04"];
	287	[height=0.5,
		pos="141.76,562.44",
		width=0.75];
	8 -- 287	[pos="468.62,633.64 403.38,619.43 233.03,582.32 167.74,568.1"];
	8 -- 291	[pos="512.53,652.86 554.52,684.57 658.67,763.22 700.74,794.99"];
	292	[height=0.5,
		pos="451.81,473.57",
		width=0.75];
	8 -- 292	[pos="489.9,621.24 481.66,589.28 464.59,523.11 456.4,491.35"];
	63	[height=0.5,
		pos="226.98,652.52",
		width=0.75];
	8 -- 63	[pos="467.43,640.63 416.14,643.17 305.52,648.64 254.18,651.17"];
	161	[height=0.5,
		pos="327.79,473.65",
		width=0.75];
	8 -- 161	[pos="479.47,624.3 447.87,592.92 375.08,520.63 343.21,488.97"];
	224	[height=0.5,
		pos="214.02,701.41",
		width=0.75];
	8 -- 224	[pos="468.67,645.02 415.23,656.86 293.24,683.87 239.85,695.69"];
	126	[height=0.5,
		pos="513.83,1358.6",
		width=0.75];
	125 -- 126	[pos="328.79,1010.5 361.4,1071.9 472.17,1280.3 504.75,1341.6"];
	130	[height=0.5,
		pos="967.05,1351.5",
		width=0.75];
	129 -- 130	[pos="439.28,995.91 523.79,1052.8 863.01,1281.4 947.78,1338.5"];
	133	[height=0.5,
		pos="436.39,254.49",
		width=0.75];
	132 -- 133	[pos="284.44,678.94 309.85,607.96 404.63,343.21 430.07,272.14"];
	136	[height=0.5,
		pos="174.16,608.51",
		width=0.75];
	135 -- 136	[pos="225.02,856.57 215.11,808.25 187.85,675.29 177.88,626.65"];
	139	[height=0.5,
		pos="633.89,1256.5",
		width=0.75];
	138 -- 139	[pos="398.24,1047.3 444.05,1088 572.12,1201.7 617.61,1242.1"];
	141	[height=0.5,
		pos="79.732,574.32",
		width=0.75];
	140 -- 141	[pos="159.15,825.32 143.75,776.65 100.75,640.76 85.329,592.01"];
	143 -- 144	[pos="370.46,898.31 430.19,897.71 572.19,896.28 631.97,895.68"];
	146	[height=0.5,
		pos="180.8,1103.3",
		width=0.75];
	145 -- 146	[pos="239.55,936.19 227.13,971.52 199.41,1050.3 187.01,1085.6"];
	150	[height=0.5,
		pos="94.212,482.09",
		width=0.75];
	149 -- 150	[pos="191.05,780.96 172.98,725.2 117.94,555.32 99.961,499.83"];
	155	[height=0.5,
		pos="1579.4,1029.1",
		width=0.75];
	154 -- 155	[pos="1419.4,777.65 1450.1,825.82 1538.1,964.16 1568.7,1012.3"];
	160	[height=0.5,
		pos="674.97,129.26",
		width=0.75];
	159 -- 160	[pos="1150.7,415.74 1070.8,367.63 775.61,189.86 695.27,141.48"];
	9 -- 37	[pos="1151.8,793.63 1146.5,815.67 1137.4,852.98 1132.1,875.1"];
	9 -- 18	[pos="1134,786.51 1086.8,809.39 976.54,862.83 929.37,885.69"];
	9 -- 11	[pos="1148.9,758.15 1131.1,714.49 1085.2,601.88 1067.4,558.34"];
	10	[height=0.5,
		pos="1280.3,782.84",
		width=0.75];
	9 -- 10	[pos="1183,777.34 1203.7,778.51 1232.2,780.12 1252.9,781.29"];
	294	[height=0.5,
		pos="1313.9,911.97",
		width=0.75];
	9 -- 294	[pos="1172.7,790.13 1202.9,816.21 1266.6,871.19 1297,897.43"];
	296	[height=0.5,
		pos="1343.9,750.8",
		width=0.75];
	9 -- 296	[pos="1182.6,772.29 1218.3,767.53 1281.4,759.12 1317.2,754.36"];
	298	[height=0.5,
		pos="1471.2,904.18",
		width=0.75];
	9 -- 298	[pos="1179.3,785.26 1237.5,808.99 1389.7,870.97 1448,894.73"];
	302	[height=0.5,
		pos="1190.4,667.08",
		width=0.75];
	9 -- 302	[pos="1161.8,757.86 1168.2,737.59 1178.5,704.83 1184.9,684.7"];
	304	[height=0.5,
		pos="1409.2,860.3",
		width=0.75];
	9 -- 304	[pos="1180.4,783.92 1228.7,800.06 1336.7,836.09 1385,852.22"];
	307	[height=0.5,
		pos="1492.7,790.16",
		width=0.75];
	9 -- 307	[pos="1183.1,776.97 1246.1,779.65 1402.4,786.31 1465.6,789"];
	311	[height=0.5,
		pos="1425.4,702.01",
		width=0.75];
	9 -- 311	[pos="1181.4,768.87 1232.9,754.77 1349.1,722.92 1400.3,708.88"];
	9 -- 65	[pos="1177.4,787.22 1200.1,799.36 1235.9,818.48 1258.7,830.65"];
	92	[height=0.5,
		pos="1520.6,698.61",
		width=0.75];
	9 -- 92	[pos="1182,770.33 1249,756.13 1427.4,718.34 1494.5,704.12"];
	128	[height=0.5,
		pos="1405.8,957.14",
		width=0.75];
	9 -- 128	[pos="1174.5,789.15 1220.6,822.68 1341.2,910.23 1387.4,943.79"];
	196	[height=0.5,
		pos="1470.3,948.19",
		width=0.75];
	9 -- 196	[pos="1177.2,787.39 1234.4,818.8 1392.2,905.32 1449.3,936.66"];
	228	[height=0.5,
		pos="1471.5,857.94",
		width=0.75];
	9 -- 228	[pos="1181.4,782.4 1240.4,797.78 1386.9,835.92 1446.1,851.33"];
	249	[height=0.5,
		pos="1396.5,629.45",
		width=0.75];
	9 -- 249	[pos="1176.2,763.59 1221.4,736.04 1330.9,669.36 1376.3,641.75"];
	272	[height=0.5,
		pos="1408.3,904.33",
		width=0.75];
	9 -- 272	[pos="1177.6,786.77 1225.1,810.99 1338.7,868.86 1386.5,893.22"];
	163	[height=0.5,
		pos="1646.9,594.06",
		width=0.75];
	162 -- 163	[pos="1380.6,586.23 1436.5,587.87 1564.1,591.62 1619.9,593.27"];
	167	[height=0.5,
		pos="1530.1,395.47",
		width=0.75];
	166 -- 167	[pos="1422,519.81 1445.4,492.9 1492.7,438.46 1516.2,411.43"];
	170 -- 171	[pos="1200.8,786.73 1151.8,826.11 1012.9,937.69 964,976.92"];
	173	[height=0.5,
		pos="1515.8,577.48",
		width=0.75];
	172 -- 173	[pos="1318.6,579.17 1361.7,578.81 1445.5,578.09 1488.7,577.72"];
	177 -- 178	[pos="1084.5,444.6 993.81,414.43 675.48,308.49 584.76,278.29"];
	180	[height=0.5,
		pos="1022.8,121.45",
		width=0.75];
	179 -- 180	[pos="1327,471.4 1274.8,411.39 1088.5,197.01 1036.4,137.1"];
	183 -- 184	[pos="1275.9,684.78 1247.9,713.68 1187.4,776.01 1159.4,804.93"];
	185 -- 186	[pos="1267,737.42 1227.6,777.97 1120.5,888.09 1081,928.76"];
	5	[height=0.5,
		pos="1007.6,1084.3",
		width=0.75];
	5 -- 54	[pos="981.01,1080.3 939.22,1074.1 858.7,1062.2 816.99,1056"];
	5 -- 18	[pos="998.57,1067.3 979.52,1031.6 935.57,949.23 916.48,913.46"];
	5 -- 153	[pos="1024.8,1070.3 1069.6,1034 1189.8,936.48 1234.7,900.13"];
	5 -- 188	[pos="1008.3,1102.4 1009.6,1136.8 1012.3,1210.8 1013.5,1245.2"];
	189	[height=0.5,
		pos="1277.5,1105.1",
		width=0.75];
	5 -- 189	[pos="1034.5,1086.3 1086.1,1090.3 1198.5,1099 1250.3,1103"];
	5 -- 192	[pos="984.61,1074.5 922.12,1048.1 749.95,975.44 687.58,949.1"];
	193	[height=0.5,
		pos="1208,1326.1",
		width=0.75];
	5 -- 193	[pos="1020.8,1100.1 1057.1,1144 1158.5,1266.3 1194.8,1310.2"];
	197	[height=0.5,
		pos="1234.9,1249.3",
		width=0.75];
	5 -- 197	[pos="1026.2,1097.8 1069,1128.8 1173.7,1204.9 1216.3,1235.9"];
	201	[height=0.5,
		pos="1266.6,1181.5",
		width=0.75];
	5 -- 201	[pos="1031.5,1093.2 1080.9,1111.8 1193.4,1154 1242.7,1172.5"];
	204	[height=0.5,
		pos="1056.3,1425.3",
		width=0.75];
	5 -- 204	[pos="1010.3,1102.6 1018.7,1161.9 1045.4,1348.4 1053.8,1407.3"];
	208	[height=0.5,
		pos="1157,1135.6",
		width=0.75];
	5 -- 208	[pos="1031.6,1092.5 1059.4,1102 1104.7,1117.6 1132.6,1127.2"];
	5 -- 14	[pos="983.11,1091.9 978.9,1093.2 974.53,1094.5 970.32,1095.9"];
	210	[height=0.5,
		pos="828.09,1232.8",
		width=0.75];
	5 -- 210	[pos="990.43,1098.5 956.11,1126.9 879.53,1190.2 845.25,1218.6"];
	212	[height=0.5,
		pos="786.43,1398.1",
		width=0.75];
	5 -- 212	[pos="996.06,1100.7 957.92,1154.8 836.52,1327.1 798.17,1381.5"];
	215	[height=0.5,
		pos="1138.3,1224.1",
		width=0.75];
	5 -- 215	[pos="1022.1,1099.8 1047.2,1126.6 1098.6,1181.6 1123.8,1208.5"];
	217	[height=0.5,
		pos="1287.8,1022",
		width=0.75];
	5 -- 217	[pos="1033.5,1078.5 1086.9,1066.7 1208.7,1039.6 1262,1027.7"];
	5 -- 32	[pos="1013.3,1101.9 1027.4,1146.2 1064.2,1261.9 1078.3,1306.2"];
	5 -- 86	[pos="1033,1078 1061,1071.1 1105.8,1060.1 1133.8,1053.2"];
	5 -- 116	[pos="987.11,1096.5 931.42,1129.7 777.98,1221.3 722.4,1254.5"];
	190	[height=0.5,
		pos="1562.2,742.63",
		width=0.75];
	189 -- 190	[pos="1290.1,1089 1337.1,1029.2 1502.1,819.14 1549.4,758.89"];
	194	[height=0.5,
		pos="1481.4,1296.7",
		width=0.75];
	193 -- 194	[pos="1234.7,1323.2 1287,1317.6 1402.2,1305.2 1454.5,1299.6"];
	198	[height=0.5,
		pos="1544.2,1273.1",
		width=0.75];
	197 -- 198	[pos="1261.8,1251.4 1320.3,1255.9 1458.5,1266.5 1517.1,1271"];
	202	[height=0.5,
		pos="1533.6,885.33",
		width=0.75];
	201 -- 202	[pos="1280.5,1166 1326.6,1114.9 1473.1,952.39 1519.5,901.04"];
	205	[height=0.5,
		pos="718.68,1487.6",
		width=0.75];
	204 -- 205	[pos="1030.1,1430.1 967.21,1441.7 808.24,1471.1 745.11,1482.7"];
	208 -- 209	[pos="1146.6,1118.7 1119.8,1075.2 1048.9,960.16 1022.2,916.88"];
	14 -- 75	[pos="918.94,1099.6 877.16,1093.4 796.67,1081.5 754.97,1075.4"];
	14 -- 104	[pos="944.22,1085.5 940.79,1039.2 931.73,917.01 928.29,870.58"];
	14 -- 176	[pos="962.09,1088.9 996.88,1058.1 1077.3,987.04 1111.9,956.39"];
	365	[height=0.5,
		pos="651.28,1202.5",
		width=0.75];
	14 -- 365	[pos="921.23,1111.7 865.87,1130.3 731.03,1175.7 675.64,1194.3"];
	367	[height=0.5,
		pos="747.21,1354",
		width=0.75];
	14 -- 367	[pos="932.85,1119.6 897.11,1164.7 795.99,1292.4 760.07,1337.8"];
	370	[height=0.5,
		pos="1056.8,1378.1",
		width=0.75];
	14 -- 370	[pos="952.69,1121.1 972.79,1170.7 1029.7,1311.2 1049.8,1360.6"];
	374	[height=0.5,
		pos="849.36,1432.7",
		width=0.75];
	14 -- 374	[pos="940.39,1121.2 923.68,1178.4 871.3,1357.6 854.56,1414.9"];
	378	[height=0.5,
		pos="1221.3,1022",
		width=0.75];
	14 -- 378	[pos="970.52,1096.2 1023,1080.6 1144.4,1044.7 1196.6,1029.3"];
	14 -- 44	[pos="940.46,1121.4 927.13,1168.2 891.39,1293.5 878.07,1340.2"];
	14 -- 139	[pos="923.64,1114.3 866.42,1142.4 712.98,1217.7 655.78,1245.8"];
	262	[height=0.5,
		pos="1204.5,1195.7",
		width=0.75];
	14 -- 262	[pos="969.46,1112.1 1018.8,1129.6 1131.4,1169.7 1180.7,1187.2"];
	283	[height=0.5,
		pos="542.6,1224.4",
		width=0.75];
	14 -- 283	[pos="920.66,1111 848.42,1132.7 639.37,1195.4 567.34,1217"];
	301	[height=0.5,
		pos="1146,1354",
		width=0.75];
	14 -- 301	[pos="958.4,1119.6 994.6,1164.8 1097.2,1293 1133.2,1338.1"];
	319	[height=0.5,
		pos="1172.8,1268.1",
		width=0.75];
	14 -- 319	[pos="964.16,1117 1006.9,1148 1111.6,1223.8 1154.3,1254.7"];
	334	[height=0.5,
		pos="1211.7,1091",
		width=0.75];
	14 -- 334	[pos="972.54,1102.3 1023.6,1099.9 1133.6,1094.7 1184.7,1092.3"];
	355	[height=0.5,
		pos="994.03,1395.5",
		width=0.75];
	14 -- 355	[pos="948.59,1121.8 957.3,1174.2 982.29,1324.8 991,1377.2"];
	210 -- 211	[pos="817,1216 763.11,1134.6 528.93,781.01 475.23,699.92"];
	213	[height=0.5,
		pos="408.86,1237.5",
		width=0.75];
	212 -- 213	[pos="763.66,1388.5 696.38,1359.8 498.98,1275.8 431.66,1247.2"];
	215 -- 216	[pos="1129,1207.1 1105.2,1163.7 1042.2,1048.9 1018.2,1005.3"];
	218	[height=0.5,
		pos="1229.5,623.04",
		width=0.75];
	217 -- 218	[pos="1285.2,1004.1 1275.5,937.98 1241.9,708.14 1232.2,641.36"];
	220	[height=0.5,
		pos="1478.5,746.15",
		width=0.75];
	219 -- 220	[pos="1089.7,1119.3 1154,1057.6 1398.1,823.32 1462.8,761.29"];
	223	[height=0.5,
		pos="224.73,1046.7",
		width=0.75];
	222 -- 223	[pos="451.98,1206.2 406.04,1174 289.01,1091.8 243.36,1059.8"];
	226	[height=0.5,
		pos="1345.5,1355",
		width=0.75];
	225 -- 226	[pos="1013.4,1311 1079.8,1319.8 1252,1342.6 1318.6,1351.4"];
	230	[height=0.5,
		pos="1424.6,1198.6",
		width=0.75];
	229 -- 230	[pos="1103.3,1222.6 1168.2,1217.8 1332.2,1205.5 1397.3,1200.7"];
	233	[height=0.5,
		pos="1167.4,599.37",
		width=0.75];
	232 -- 233	[pos="1099.9,1058.3 1111,982.74 1153.6,693.11 1164.8,617.51"];
	234 -- 235	[pos="770.34,1186 799.02,1120.6 899.8,890.7 928.33,825.61"];
	236 -- 237	[pos="556.57,1043.4 525.78,971.07 407.73,693.93 376.92,621.58"];
	239	[height=0.5,
		pos="361.79,1325.6",
		width=0.75];
	238 -- 239	[pos="504.16,1276.7 472.57,1287.6 417.64,1306.4 386.04,1317.2"];
	243	[height=0.5,
		pos="657.66,1443.2",
		width=0.75];
	242 -- 243	[pos="752.57,1326.1 731.83,1351.7 691.5,1401.4 670.73,1427.1"];
	248 -- 249	[pos="1302.7,419.21 1321.6,461.6 1369.7,569.45 1388.7,611.9"];
	251	[height=0.5,
		pos="1468,356.91",
		width=0.75];
	250 -- 251	[pos="1136.7,250.1 1201.7,271.05 1378.2,327.95 1443.4,348.97"];
	11 -- 39	[pos="1059,558.97 1056.6,592.8 1051.6,665.04 1049.2,698.8"];
	11 -- 13	[pos="1043,555.04 1011.4,581.15 944.55,636.34 913.09,662.3"];
	11 -- 19	[pos="1047.1,524.89 1043.9,520.94 1040.3,516.71 1037.1,512.76"];
	11 -- 277	[pos="1033.4,538.02 995.15,534.08 925.59,526.92 887.43,522.99"];
	313	[height=0.5,
		pos="1291.5,625.47",
		width=0.75];
	11 -- 313	[pos="1084.2,549.53 1128.6,565.8 1223.4,600.54 1267.8,616.77"];
	11 -- 332	[pos="1052.3,558 1036.3,592.22 1000.8,668.47 984.73,702.86"];
	333	[height=0.5,
		pos="1184.1,711.11",
		width=0.75];
	11 -- 333	[pos="1072.2,557.12 1095.8,589.68 1148.6,662.32 1172.3,694.83"];
	335	[height=0.5,
		pos="1132,337.14",
		width=0.75];
	11 -- 335	[pos="1066.5,523.08 1080.1,484.46 1112.3,393.11 1125.8,354.67"];
	11 -- 338	[pos="1033.6,544.67 1003.6,549.02 955.18,556.06 925.27,560.41"];
	11 -- 339	[pos="1055.6,558.61 1048.9,583.82 1036.7,629.64 1029.9,654.93"];
	340	[height=0.5,
		pos="1187,381.18",
		width=0.75];
	11 -- 340	[pos="1073.1,524.61 1097.4,494.02 1149.8,428.03 1174.1,397.4"];
	70	[height=0.5,
		pos="1004.3,306.05",
		width=0.75];
	11 -- 70	[pos="1056,522.76 1045.6,479.07 1019.1,367.9 1008.6,324.14"];
	100	[height=0.5,
		pos="1218.1,337.16",
		width=0.75];
	11 -- 100	[pos="1072.9,524.47 1102.6,486.25 1176.1,391.3 1205.6,353.28"];
	134	[height=0.5,
		pos="940.81,330.14",
		width=0.75];
	11 -- 134	[pos="1050.7,523.91 1028.3,484.47 972.85,386.62 950.43,347.1"];
	169	[height=0.5,
		pos="1232.9,425.21",
		width=0.75];
	11 -- 169	[pos="1079.4,527.98 1112.6,505.76 1180.4,460.34 1213.6,438.08"];
	203	[height=0.5,
		pos="1297.7,535.02",
		width=0.75];
	11 -- 203	[pos="1087.5,540.13 1133.2,539.02 1224.7,536.8 1270.4,535.68"];
	11 -- 233	[pos="1081.2,552.23 1100,562.48 1127.4,577.46 1146.2,587.76"];
	254	[height=0.5,
		pos="1338.2,265.36",
		width=0.75];
	253 -- 254	[pos="1075.9,215.79 1130.7,226.14 1257.1,250.03 1311.9,260.4"];
	258	[height=0.5,
		pos="889.77,70.96",
		width=0.75];
	257 -- 258	[pos="925.29,128 917.77,115.93 907.66,99.697 900.15,87.637"];
	261	[height=0.5,
		pos="1539.8,834.44",
		width=0.75];
	260 -- 261	[pos="1284.6,310.53 1324.3,392.06 1491.7,735.72 1531.4,817.11"];
	265 -- 266	[pos="854.64,273.61 874.75,328.84 936.03,497.1 956.05,552.06"];
	267 -- 268	[pos="1084.6,401.26 1078.1,464.87 1056.2,679.07 1049.7,742.85"];
	19 -- 187	[pos="1050.3,501.04 1078.1,505.57 1121.5,512.65 1149.3,517.17"];
	19 -- 246	[pos="1023,514.87 1020.6,570.04 1013.3,735.49 1010.9,790.74"];
	19 -- 384	[pos="998.9,489.59 944.77,474.06 816.89,437.37 762.63,421.8"];
	19 -- 52	[pos="1029.7,478.86 1033.1,468.58 1037.4,455.69 1040.8,445.38"];
	19 -- 83	[pos="1006,483.11 964.47,451.29 861.42,372.35 819.8,340.46"];
	112	[height=0.5,
		pos="1021.3,254.9",
		width=0.75];
	19 -- 112	[pos="1023.6,478.56 1023.1,433.63 1021.9,317.76 1021.4,272.96"];
	152	[height=0.5,
		pos="775.28,187.87",
		width=0.75];
	19 -- 152	[pos="1010.8,480.56 967.84,427.19 830.92,257.02 788.16,203.88"];
	19 -- 218	[pos="1043.9,509.08 1083.3,533.28 1170.4,586.74 1209.6,610.83"];
	293	[height=0.5,
		pos="677.79,217.27",
		width=0.75];
	19 -- 293	[pos="1006.2,482.49 946.67,434.44 753.8,278.66 694.98,231.16"];
	312	[height=0.5,
		pos="1277.3,490.51",
		width=0.75];
	19 -- 312	[pos="1050.9,496.07 1099.6,494.87 1201.2,492.38 1249.9,491.18"];
	331	[height=0.5,
		pos="1344,357.69",
		width=0.75];
	19 -- 331	[pos="1046.6,486.85 1105.4,461.28 1262.1,393.23 1321.1,367.62"];
	351	[height=0.5,
		pos="1281.7,357.65",
		width=0.75];
	19 -- 351	[pos="1044.9,485.35 1093.4,459.21 1212.3,395.1 1260.7,368.99"];
	364	[height=0.5,
		pos="1070,339.16",
		width=0.75];
	19 -- 364	[pos="1029,478.97 1037.9,448.7 1055.8,387.49 1064.7,357.11"];
	379	[height=0.5,
		pos="1229.5,565.94",
		width=0.75];
	19 -- 379	[pos="1048.2,504.95 1087.8,518.27 1165.5,544.43 1205.1,557.74"];
	387	[height=0.5,
		pos="779,280.19",
		width=0.75];
	19 -- 387	[pos="1007.4,482.19 962.76,442.74 839.88,334.04 795.37,294.67"];
	391	[height=0.5,
		pos="958.98,262.03",
		width=0.75];
	19 -- 391	[pos="1018.8,478.71 1006.7,434.91 975.91,323.32 963.88,279.8"];
	270	[height=0.5,
		pos="359.37,1188.7",
		width=0.75];
	269 -- 270	[pos="284.03,805.39 297.13,872.04 342.75,1104.2 355.84,1170.7"];
	274	[height=0.5,
		pos="609.31,94.565",
		width=0.75];
	273 -- 274	[pos="279.67,474.63 335.15,410.66 540.5,173.89 595.62,110.35"];
	280	[height=0.5,
		pos="292.07,320.85",
		width=0.75];
	279 -- 280	[pos="214.25,545.73 229.82,500.74 270.54,383.07 286,338.4"];
	282 -- 283	[pos="324.52,868.26 362.67,930.56 494.57,1146 532.39,1207.7"];
	285	[height=0.5,
		pos="47.619,618.37",
		width=0.75];
	284 -- 285	[pos="184,532.08 153.96,551.08 97.177,587.01 67.236,605.95"];
	288	[height=0.5,
		pos="48.613,421.73",
		width=0.75];
	287 -- 288	[pos="130.71,545.74 112.78,518.66 77.568,465.47 59.65,438.4"];
	292 -- 293	[pos="465.61,457.92 505.95,412.17 623.41,278.95 663.89,233.04"];
	10 -- 38	[pos="1275.3,800.85 1265.1,838.02 1241.7,922.86 1231.5,960"];
	10 -- 66	[pos="1255.3,789.86 1205.8,803.82 1095.3,834.94 1045.5,848.97"];
	10 -- 313	[pos="1281.5,764.79 1283.7,734.59 1288,674.17 1290.2,643.79"];
	314	[height=0.5,
		pos="1349.9,1006.5",
		width=0.75];
	10 -- 314	[pos="1285.8,800.76 1298.9,842.73 1331.4,947.01 1344.4,988.76"];
	10 -- 316	[pos="1255.7,774.96 1225.8,765.36 1175.6,749.22 1145.7,739.61"];
	317	[height=0.5,
		pos="1513.9,992.23",
		width=0.75];
	10 -- 317	[pos="1296.7,797.56 1339.6,836.01 1454.6,939.1 1497.5,977.52"];
	320	[height=0.5,
		pos="1458.5,657.94",
		width=0.75];
	10 -- 320	[pos="1299,769.71 1333.2,745.72 1405.5,695.08 1439.8,671.08"];
	323	[height=0.5,
		pos="1342.3,821.32",
		width=0.75];
	10 -- 323	[pos="1300.2,795.23 1307.3,799.62 1315.3,804.56 1322.3,808.96"];
	10 -- 325	[pos="1265.3,798.1 1248.6,815.22 1221.5,842.84 1204.7,859.97"];
	326	[height=0.5,
		pos="1551.8,938.2",
		width=0.75];
	10 -- 326	[pos="1301.1,794.77 1351.8,823.76 1480.9,897.63 1531.3,926.44"];
	329	[height=0.5,
		pos="1599.3,686.99",
		width=0.75];
	10 -- 329	[pos="1305,775.4 1364.5,757.54 1514.7,712.41 1574.3,694.49"];
	96	[height=0.5,
		pos="1624.2,733.98",
		width=0.75];
	10 -- 96	[pos="1306.7,779.09 1370.7,769.99 1533.6,746.86 1597.7,737.75"];
	131	[height=0.5,
		pos="1384.2,1050.5",
		width=0.75];
	10 -- 131	[pos="1287.1,800.4 1305.9,848.9 1358.5,984.29 1377.3,1032.9"];
	165	[height=0.5,
		pos="1608.6,810.05",
		width=0.75];
	10 -- 165	[pos="1307.1,785.07 1368.7,790.17 1519.4,802.66 1581.4,807.79"];
	200	[height=0.5,
		pos="1595.8,881.11",
		width=0.75];
	10 -- 200	[pos="1304.8,790.47 1363.6,808.78 1512.1,855.05 1571.1,873.42"];
	231	[height=0.5,
		pos="1460.2,1036.3",
		width=0.75];
	10 -- 231	[pos="1292.1,799.47 1324.8,845.49 1416.2,974.19 1448.6,1019.9"];
	252	[height=0.5,
		pos="1582.7,635.4",
		width=0.75];
	10 -- 252	[pos="1302.5,772 1358.6,744.66 1505.1,673.19 1560.8,646.06"];
	276	[height=0.5,
		pos="1520.5,621.58",
		width=0.75];
	10 -- 276	[pos="1299.5,769.92 1344.5,739.72 1456.1,664.82 1501.2,634.56"];
	294 -- 295	[pos="1289.9,920.66 1220.4,945.89 1019.4,1018.9 950.14,1044"];
	296 -- 297	[pos="1325.1,737.78 1280.7,706.83 1169.1,629.14 1124.4,598.02"];
	299	[height=0.5,
		pos="1514.6,1117.4",
		width=0.75];
	298 -- 299	[pos="1474.9,922.36 1483.1,962.63 1502.8,1059 1510.9,1099.2"];
	302 -- 303	[pos="1171.8,653.96 1109,609.82 905.72,466.92 842.98,422.81"];
	305	[height=0.5,
		pos="1129.5,1179.8",
		width=0.75];
	304 -- 305	[pos="1395.3,876.14 1347.6,930.67 1190.5,1110.2 1143.1,1164.3"];
	308	[height=0.5,
		pos="1658,903.72",
		width=0.75];
	307 -- 308	[pos="1511.7,803.19 1543.4,825.03 1607.2,868.81 1639,890.67"];
	311 -- 312	[pos="1413.7,685.42 1386.1,645.88 1316.5,546.49 1288.8,507.03"];
	314 -- 315	[pos="1322.9,1008.6 1256.1,1013.9 1083.7,1027.4 1017.1,1032.7"];
	318	[height=0.5,
		pos="1489.8,1201.8",
		width=0.75];
	317 -- 318	[pos="1511.8,1010.5 1507.2,1050.2 1496.4,1144.2 1491.8,1183.7"];
	321	[height=0.5,
		pos="1174.3,249.07",
		width=0.75];
	320 -- 321	[pos="1447,641.41 1401.2,575.52 1232,332.07 1186,265.81"];
	323 -- 324	[pos="1317.8,813.22 1231.7,784.79 943.94,689.74 858.26,661.44"];
	327	[height=0.5,
		pos="1390.6,1154.3",
		width=0.75];
	326 -- 327	[pos="1539.7,954.44 1509.8,994.58 1432.5,1098.1 1402.6,1138.1"];
	330	[height=0.5,
		pos="1420.4,447.45",
		width=0.75];
	329 -- 330	[pos="1587,670.52 1554.2,626.66 1465.1,507.35 1432.5,463.71"];
	333 -- 334	[pos="1185.4,729.18 1190.1,793.18 1205.7,1008.7 1210.4,1072.9"];
	336	[height=0.5,
		pos="725.95,85.246",
		width=0.75];
	335 -- 336	[pos="1112.1,324.82 1043.2,282.05 814.65,140.28 745.77,97.542"];
	341	[height=0.5,
		pos="777.46,232.03",
		width=0.75];
	340 -- 341	[pos="1163.2,372.51 1090.8,346.15 873.78,267.11 801.31,240.72"];
	345	[height=0.5,
		pos="243.92,1146.3",
		width=0.75];
	344 -- 345	[pos="476.73,1083.3 427.4,1096.7 318.64,1126.1 269.23,1139.4"];
	350	[height=0.5,
		pos="1352.8,673.84",
		width=0.75];
	349 -- 350	[pos="903.33,995.3 978.58,941.49 1259.5,740.58 1334.4,687.03"];
	353	[height=0.5,
		pos="1328.6,1166",
		width=0.75];
	352 -- 353	[pos="1086.4,821.44 1128.7,881.58 1274.6,1089.2 1316.9,1149.5"];
	357	[height=0.5,
		pos="357.5,323.65",
		width=0.75];
	356 -- 357	[pos="808.67,468.32 726.76,442.06 463.62,357.68 381.93,331.49"];
	360	[height=0.5,
		pos="167.04,475.49",
		width=0.75];
	359 -- 360	[pos="633.09,543.22 547.58,530.79 279.36,491.82 193.66,479.36"];
	363 -- 364	[pos="970.77,508.72 991.48,473.31 1039.3,391.62 1060,356.13"];
	365 -- 366	[pos="644.94,1184.7 618.14,1109.7 514.42,819.57 487.73,744.91"];
	368	[height=0.5,
		pos="397.28,1281.6",
		width=0.75];
	367 -- 368	[pos="721.19,1348.6 656.41,1335.2 488.43,1300.4 423.47,1287"];
	371	[height=0.5,
		pos="1173.3,1449.1",
		width=0.75];
	370 -- 371	[pos="1076.9,1390.3 1098.2,1403.3 1131.8,1423.8 1153.1,1436.8"];
	375	[height=0.5,
		pos="820.03,1507.5",
		width=0.75];
	374 -- 375	[pos="842.41,1450.4 837.74,1462.3 831.6,1478 826.93,1489.9"];
	378 -- 379	[pos="1221.7,1003.8 1223,930.6 1227.8,657.47 1229.1,584.15"];
	380 -- 381	[pos="515.87,359.81 566.29,405.81 721.87,547.73 772.71,594.11"];
	382 -- 383	[pos="521.84,454.35 558.35,533.66 709.2,861.34 745.77,940.78"];
	386 -- 387	[pos="576.19,466.29 616.67,429.14 722.37,332.15 762.88,294.98"];
	390	[height=0.5,
		pos="660.13,173.27",
		width=0.75];
	389 -- 390	[pos="896.88,746.55 861.2,660.14 702.99,277.04 667.3,190.63"];
	21 -- 22	[pos="336.08,1112.1 374.56,1081.5 465.59,1009.1 503.89,978.64"];
	25	[height=0.5,
		pos="386.71,200.67",
		width=0.75];
	24 -- 25	[pos="156.58,416.64 200.89,375.06 326.24,257.43 370.77,215.64"];
	25 -- 26	[pos="409.32,210.71 454.4,230.71 554.97,275.34 599.99,295.32"];
	28 -- 29	[pos="262.37,1084.4 272.29,1054.9 291.97,996.45 301.86,967.07"];
	34 -- 35	[pos="623.86,151.77 674.09,153.34 780.29,156.67 830.25,158.23"];
	49 -- 50	[pos="677.71,1326.4 717.46,1284.9 826.98,1170.6 866.65,1129.2"];
	58	[height=0.5,
		pos="676.63,18",
		width=0.75];
	57 -- 58	[pos="331.66,243.82 394.77,202.51 594.31,71.887 657.35,30.622"];
	58 -- 59	[pos="697.54,29.51 731.47,48.182 798.12,84.86 832.03,103.52"];
	62	[height=0.5,
		pos="27,686.73",
		width=0.75];
	61 -- 62	[pos="61.77,814.79 54.164,786.78 39.53,732.88 31.899,704.78"];
	62 -- 63	[pos="53.555,682.19 91.91,675.63 162.39,663.57 200.63,657.03"];
	69	[height=0.5,
		pos="751.89,39.385",
		width=0.75];
	68 -- 69	[pos="394.93,244.02 460.63,206.36 665.02,89.185 731.07,51.318"];
	69 -- 70	[pos="766.55,54.875 811.16,102 944.94,243.33 989.6,290.51"];
	73	[height=0.5,
		pos="94.369,782.63",
		width=0.75];
	72 -- 73	[pos="166.43,936.35 151.06,903.56 117.91,832.84 102.52,800.02"];
	73 -- 74	[pos="119.72,776.16 209.51,753.25 511.83,676.09 601.86,653.11"];
	77 -- 78	[pos="197.9,380.35 245.18,367.17 347.16,338.75 394.49,325.55"];
	80 -- 81	[pos="183.22,743.49 262.57,737.23 495.38,718.89 574.78,712.63"];
	91	[height=0.5,
		pos="1464.6,491.6",
		width=0.75];
	90 -- 91	[pos="1195.2,214.85 1244.3,265.31 1400.9,426.22 1449.8,476.46"];
	91 -- 92	[pos="1469.4,509.61 1480.1,548.86 1505.2,641.71 1515.7,680.79"];
	95	[height=0.5,
		pos="1549.9,527.69",
		width=0.75];
	94 -- 95	[pos="1254.3,258.63 1308.2,307.69 1480.1,464.12 1533.7,512.97"];
	95 -- 96	[pos="1556.2,545.27 1570.3,584.25 1603.9,677.51 1617.9,716.44"];
	99	[height=0.5,
		pos="1086.9,80.589",
		width=0.75];
	98 -- 99	[pos="849.21,39.05 899.79,47.892 1010.2,67.188 1060.7,76.015"];
	99 -- 100	[pos="1095.7,97.822 1119.6,144.56 1185.4,273.35 1209.3,320"];
	102 -- 103	[pos="311.86,584.54 353.24,654.43 511.84,922.28 553.24,992.19"];
	108	[height=0.5,
		pos="318.42,1067.6",
		width=0.75];
	107 -- 108	[pos="167.17,670.72 192.95,738.35 285.72,981.75 311.65,1049.8"];
	108 -- 109	[pos="345.1,1070.9 415.39,1079.7 605.05,1103.4 675.42,1112.2"];
	111 -- 112	[pos="808.43,110.08 852,139.73 958.84,212.43 1002.4,242.04"];
	119	[height=0.5,
		pos="401.06,1369.6",
		width=0.75];
	118 -- 119	[pos="195.36,1168.6 236.08,1208.4 345.44,1315.2 385.82,1354.7"];
	119 -- 120	[pos="425.17,1361.3 463.58,1348.1 538.26,1322.4 576.73,1309.2"];
	123	[height=0.5,
		pos="525.38,80.134",
		width=0.75];
	122 -- 123	[pos="129.17,372.25 197.8,321.64 438.97,143.84 507.25,93.505"];
	123 -- 124	[pos="550.52,86.8 596.44,98.979 693.39,124.69 739.32,136.87"];
	127	[height=0.5,
		pos="1295.2,1293.4",
		width=0.75];
	126 -- 127	[pos="540.73,1356.4 660.82,1346.4 1147.3,1305.7 1268,1295.6"];
	127 -- 128	[pos="1301,1275.8 1320.1,1217.8 1380.8,1033.3 1399.9,974.97"];
	130 -- 131	[pos="985.51,1338.1 1054.4,1288.4 1296.1,1114 1365.5,1064"];
	133 -- 134	[pos="462.8,258.45 549.87,271.51 827.23,313.1 914.36,326.17"];
	136 -- 137	[pos="200.92,605.62 294.73,595.46 608.16,561.53 702.06,551.36"];
	141 -- 142	[pos="100.13,562.5 155.34,530.53 307.21,442.55 362.77,410.36"];
	147	[height=0.5,
		pos="436.27,1325.6",
		width=0.75];
	146 -- 147	[pos="197.56,1117.9 243.96,1158.2 373.7,1271.1 419.78,1311.2"];
	147 -- 148	[pos="456.87,1313.4 508.82,1282.6 644.65,1202.1 696.22,1171.5"];
	151	[height=0.5,
		pos="461.77,128.57",
		width=0.75];
	150 -- 151	[pos="110.01,466.9 170.33,408.88 385.82,201.63 446.04,143.71"];
	151 -- 152	[pos="487.96,133.53 546.98,144.69 689.79,171.7 748.94,182.89"];
	156	[height=0.5,
		pos="1419.2,1274.3",
		width=0.75];
	155 -- 156	[pos="1568.4,1045.9 1539.1,1090.9 1459.3,1213 1430.1,1257.7"];
	156 -- 157	[pos="1392,1274.7 1327.9,1275.8 1167.6,1278.3 1103.5,1279.4"];
	160 -- 161	[pos="659.6,144.5 602.12,201.52 400.16,401.86 342.98,458.59"];
	164	[height=0.5,
		pos="1686.5,756.37",
		width=0.75];
	163 -- 164	[pos="1651.3,612.05 1658.9,643.25 1674.4,707.04 1682.1,738.3"];
	164 -- 165	[pos="1667.6,769.36 1655.5,777.74 1639.7,788.6 1627.5,796.99"];
	168	[height=0.5,
		pos="1367,221.32",
		width=0.75];
	167 -- 168	[pos="1515.6,380.02 1484.7,347.05 1412.7,270.15 1381.6,236.99"];
	168 -- 169	[pos="1356,238.01 1330.8,276.33 1269,370.31 1243.8,408.58"];
	174	[height=0.5,
		pos="1389.8,402.91",
		width=0.75];
	173 -- 174	[pos="1504,561.06 1479.9,527.7 1425.5,452.37 1401.5,419.16"];
	174 -- 175	[pos="1365.5,410.9 1311.6,428.62 1182.7,471.02 1128.9,488.72"];
	181	[height=0.5,
		pos="527.02,150.06",
		width=0.75];
	180 -- 181	[pos="995.78,123.01 909.4,127.99 640.47,143.51 554.05,148.5"];
	181 -- 182	[pos="524.37,168.04 515.18,230.45 484.69,437.32 475.5,499.67"];
	190 -- 191	[pos="1555.7,724.92 1530.3,655.85 1438,404.96 1412.6,335.76"];
	195	[height=0.5,
		pos="1527.3,1073.3",
		width=0.75];
	194 -- 195	[pos="1485,1278.8 1493.6,1237 1515,1133.2 1523.6,1091.3"];
	195 -- 196	[pos="1519.4,1055.9 1508.5,1032 1489,989.28 1478.2,965.45"];
	199	[height=0.5,
		pos="1596,1108.5",
		width=0.75];
	198 -- 199	[pos="1549.7,1255.5 1559.6,1223.9 1580.3,1158.2 1590.3,1126.5"];
	199 -- 200	[pos="1596,1090.2 1596,1047.7 1595.9,942.07 1595.8,899.42"];
	202 -- 203	[pos="1522.6,868.9 1483,810.2 1348.9,611.11 1309,551.82"];
	206	[height=0.5,
		pos="529.76,1402.7",
		width=0.75];
	205 -- 206	[pos="696.27,1477.5 660.01,1461.2 588.87,1429.3 552.44,1412.9"];
	206 -- 207	[pos="533.27,1384.5 543.56,1331.2 573.56,1175.7 583.79,1122.7"];
	213 -- 214	[pos="406.35,1219.4 396.45,1147.7 360.13,885.03 350.25,813.56"];
	220 -- 221	[pos="1467.5,729.48 1420.6,658.45 1237.5,381.26 1190.4,309.93"];
	223 -- 224	[pos="224.17,1028.6 222.32,969.11 216.45,779.6 214.59,719.73"];
	227	[height=0.5,
		pos="1452.6,1133.8",
		width=0.75];
	226 -- 227	[pos="1353.9,1337.6 1373.9,1296.3 1424.3,1192.3 1444.2,1151.1"];
	227 -- 228	[pos="1453.9,1115.7 1457.3,1065.7 1466.8,926.17 1470.2,876.11"];
	230 -- 231	[pos="1428.5,1180.6 1435.4,1149.4 1449.4,1085.6 1456.3,1054.3"];
	240	[height=0.5,
		pos="187.76,1001.7",
		width=0.75];
	239 -- 240	[pos="352.68,1308.6 322.68,1252.8 227.17,1075 197,1018.9"];
	240 -- 241	[pos="197.76,984.75 225.38,937.93 302.46,807.22 330.12,760.33"];
	244	[height=0.5,
		pos="717.74,1399.2",
		width=0.75];
	243 -- 244	[pos="676.01,1429.8 683.47,1424.3 692.06,1418 699.5,1412.6"];
	244 -- 245	[pos="726.2,1381.8 747.91,1337.4 805.39,1219.6 827.01,1175.3"];
	251 -- 252	[pos="1475.2,374.33 1495.8,424.34 1554.9,567.98 1575.5,617.98"];
	255	[height=0.5,
		pos="1404.3,816.28",
		width=0.75];
	254 -- 255	[pos="1340.4,283.38 1350.4,366.74 1392.1,714.47 1402.1,798.13"];
	255 -- 256	[pos="1382,826.94 1288.9,871.41 931.68,1042 839.11,1086.2"];
	258 -- 259	[pos="891.22,89.13 896.66,156.94 915.73,394.84 921.2,463.08"];
	261 -- 262	[pos="1525.4,849.96 1470.4,909.25 1273.8,1121 1218.9,1180.2"];
	271	[height=0.5,
		pos="1296.9,1229.9",
		width=0.75];
	270 -- 271	[pos="386.42,1189.9 522.73,1195.9 1133.2,1222.7 1269.8,1228.7"];
	271 -- 272	[pos="1303.1,1212 1322.5,1155 1382.7,979.1 1402.2,922.25"];
	275	[height=0.5,
		pos="1275.4,198.16",
		width=0.75];
	274 -- 275	[pos="635.83,98.689 742.78,115.32 1141.7,177.37 1248.8,194.02"];
	275 -- 276	[pos="1285.2,215.02 1324.5,283 1471.4,536.6 1510.8,604.67"];
	280 -- 281	[pos="316.21,328.97 388.97,353.43 605.61,426.27 678.33,450.72"];
	285 -- 286	[pos="74.715,618.02 121.71,617.41 217.79,616.18 264.87,615.57"];
	289	[height=0.5,
		pos="245.48,378.08",
		width=0.75];
	288 -- 289	[pos="74.349,416.02 112.08,407.66 182,392.16 219.73,383.79"];
	289 -- 290	[pos="266.62,389.28 329.12,422.36 512.48,519.42 575.01,552.52"];
	300	[height=0.5,
		pos="1419.3,1348.8",
		width=0.75];
	299 -- 300	[pos="1507.5,1134.8 1489.8,1177.7 1444.3,1288.1 1426.5,1331.2"];
	300 -- 301	[pos="1392.1,1349.3 1339.7,1350.3 1225.4,1352.5 1173.1,1353.5"];
	305 -- 306	[pos="1108.3,1168.6 1022.8,1123.5 704.03,954.95 618.46,909.72"];
	309	[height=0.5,
		pos="1447.4,1089.8",
		width=0.75];
	308 -- 309	[pos="1641.5,918.32 1602.1,953.1 1503.1,1040.5 1463.9,1075.2"];
	309 -- 310	[pos="1427.2,1077.5 1379.2,1048.4 1258.4,975.17 1210.4,946.1"];
	318 -- 319	[pos="1463.8,1207.2 1404.2,1219.7 1258.2,1250.3 1198.7,1262.7"];
	321 -- 322	[pos="1147.2,246.74 1042.6,237.76 665.85,205.39 561.24,196.4"];
	327 -- 328	[pos="1366.9,1145.5 1306.3,1123 1145.9,1063.7 1085,1041.1"];
	330 -- 331	[pos="1406.7,431.4 1392.8,415.06 1371.4,389.89 1357.5,373.6"];
	336 -- 337	[pos="706.55,98.276 663.46,127.22 560.21,196.58 517.47,225.3"];
	341 -- 342	[pos="779.38,250.15 789.2,342.71 833.66,761.9 843.43,854.09"];
	346	[height=0.5,
		pos="114.81,893.95",
		width=0.75];
	345 -- 346	[pos="235.04,1128.9 211.4,1082.7 147.09,957.05 123.57,911.09"];
	346 -- 347	[pos="130.66,879.18 172.03,840.58 282.98,737.11 324.34,698.53"];
	350 -- 351	[pos="1348.8,655.94 1336.3,600.42 1298.3,431.54 1285.8,375.75"];
	354	[height=0.5,
		pos="1223.1,1394.3",
		width=0.75];
	353 -- 354	[pos="1320.5,1183.5 1300.8,1226.1 1250.6,1334.6 1231.1,1377"];
	354 -- 355	[pos="1195.9,1394.4 1151.8,1394.6 1065.2,1395.1 1021.2,1395.4"];
	357 -- 358	[pos="358.09,342.02 359.47,385.03 362.9,491.88 364.28,534.66"];
	361	[height=0.5,
		pos="94.281,724.84",
		width=0.75];
	360 -- 361	[pos="161.81,493.43 148.39,539.43 112.84,661.24 99.467,707.07"];
	361 -- 362	[pos="121.37,727.25 201.51,734.39 436.81,755.34 516.62,762.44"];
	368 -- 369	[pos="397.91,1263.4 400.22,1197.1 408.19,968.27 410.5,901.8"];
	372	[height=0.5,
		pos="1357.2,1308",
		width=0.75];
	371 -- 372	[pos="1191.3,1435.3 1226.5,1408.3 1304.4,1348.6 1339.5,1321.6"];
	372 -- 373	[pos="1344.7,1291.7 1302.5,1236.8 1165.9,1059.2 1123.7,1004.4"];
	376	[height=0.5,
		pos="780.58,1443.6",
		width=0.75];
	375 -- 376	[pos="809.67,1490.7 803.91,1481.4 796.78,1469.8 791.01,1460.5"];
	376 -- 377	[pos="791.41,1426.7 824.35,1375.5 923.13,1221.8 956.12,1170.5"];
	390 -- 391	[pos="684.84,180.61 741.06,197.31 877.99,237.98 934.24,254.68"];
}
