graph {
	graph [bb="0,0,1051.1,844.18",
		outputorder=edgesfirst,
		overlap=prism,
		size="50,50!",
		start=1066
	];
	node [label="\N"];
	0	[height=0.5,
		pos="468.95,630.97",
		width=0.75];
	37	[height=0.5,
		pos="564.26,760.47",
		width=0.75];
	0 -- 37	[pos="481.02,647.37 499.36,672.28 534.02,719.37 552.29,744.2"];
	2	[height=0.5,
		pos="394.15,454.86",
		width=0.75];
	0 -- 2	[pos="461.51,613.44 447.17,579.68 415.88,506.02 401.56,472.32"];
	25	[height=0.5,
		pos="545.7,479.13",
		width=0.75];
	0 -- 25	[pos="477.61,613.85 492.35,584.69 522.16,525.7 536.96,496.42"];
	3	[height=0.5,
		pos="270.08,461.2",
		width=0.75];
	0 -- 3	[pos="452,616.5 414.33,584.34 324.07,507.3 286.71,475.4"];
	4	[height=0.5,
		pos="574.81,527.03",
		width=0.75];
	0 -- 4	[pos="484.12,616.08 504.13,596.43 539.16,562.03 559.33,542.23"];
	5	[height=0.5,
		pos="507.62,694.41",
		width=0.75];
	0 -- 5	[pos="479.31,647.97 484.86,657.08 491.67,668.26 497.23,677.36"];
	18	[height=0.5,
		pos="443.54,736.52",
		width=0.75];
	0 -- 18	[pos="464.64,648.88 459.97,668.29 452.55,699.09 447.87,718.53"];
	62	[height=0.5,
		pos="575.95,663.16",
		width=0.75];
	0 -- 62	[pos="493.77,638.44 511.06,643.64 534.01,650.54 551.27,655.73"];
	9	[height=0.5,
		pos="406.92,593.18",
		width=0.75];
	0 -- 9	[pos="448.98,618.81 441.9,614.49 433.93,609.63 426.85,605.32"];
	34	[height=0.5,
		pos="359.62,520.3",
		width=0.75];
	0 -- 34	[pos="453.75,615.58 432.86,594.44 395.52,556.64 374.7,535.56"];
	12	[height=0.5,
		pos="641.9,650.62",
		width=0.75];
	0 -- 12	[pos="495.6,634 528.1,637.69 582.71,643.9 615.23,647.59"];
	20	[height=0.5,
		pos="648.35,588.71",
		width=0.75];
	0 -- 20	[pos="494.65,624.92 528.76,616.88 588.61,602.78 622.69,594.75"];
	39	[height=0.5,
		pos="507.55,807.51",
		width=0.75];
	0 -- 39	[pos="472.87,648.87 480.26,682.71 496.22,755.69 503.63,789.56"];
	49	[height=0.5,
		pos="579.85,610.94",
		width=0.75];
	0 -- 49	[pos="495.23,626.22 512.91,623.03 536.12,618.84 553.76,615.65"];
	64	[height=0.5,
		pos="305.62,564.66",
		width=0.75];
	0 -- 64	[pos="445.55,621.47 414.41,608.83 359.69,586.61 328.71,574.03"];
	28	[height=0.5,
		pos="445.5,826.18",
		width=0.75];
	0 -- 28	[pos="466.79,648.99 462.32,686.17 452.12,771.06 447.66,808.21"];
	71	[height=0.5,
		pos="388.05,782.16",
		width=0.75];
	0 -- 71	[pos="459.83,648.02 444.29,677.06 412.87,735.79 397.27,764.94"];
	54	[height=0.5,
		pos="357.19,668.23",
		width=0.75];
	0 -- 54	[pos="444.7,639.06 425.96,645.31 400.13,653.92 381.4,660.16"];
	35	[height=0.5,
		pos="325.99,768.26",
		width=0.75];
	0 -- 35	[pos="453.38,645.93 425.88,672.34 369.03,726.93 341.55,753.33"];
	57	[height=0.5,
		pos="512.77,556.24",
		width=0.75];
	0 -- 57	[pos="478.9,614.01 486.07,601.78 495.71,585.35 502.87,573.13"];
	77	[height=0.5,
		pos="421.65,540.19",
		width=0.75];
	0 -- 77	[pos="460.05,613.9 451.65,597.77 439.11,573.7 430.67,557.5"];
	37 -- 62	[pos="566.46,742.17 568.55,724.77 571.68,698.75 573.77,681.38"];
	1	[height=0.5,
		pos="442.48,410.25",
		width=0.75];
	67	[height=0.5,
		pos="297.48,392.34",
		width=0.75];
	1 -- 67	[pos="415.88,406.96 389.88,403.75 350.5,398.89 324.39,395.66"];
	1 -- 2	[pos="426.65,424.86 421.37,429.73 415.48,435.17 410.17,440.07"];
	1 -- 3	[pos="417.78,417.55 385.1,427.21 327.81,444.14 295.01,453.83"];
	8	[height=0.5,
		pos="354.56,348.32",
		width=0.75];
	1 -- 8	[pos="423.83,397.12 408.91,386.61 388.09,371.94 373.17,361.44"];
	1 -- 4	[pos="458.97,424.8 484.47,447.3 533.15,490.27 558.53,512.66"];
	36	[height=0.5,
		pos="607.77,452.95",
		width=0.75];
	1 -- 36	[pos="467.94,416.83 499.09,424.88 551.51,438.42 582.55,446.44"];
	10	[height=0.5,
		pos="339.5,277.01",
		width=0.75];
	1 -- 10	[pos="430.06,394.18 410.26,368.57 371.78,318.78 351.96,293.14"];
	1 -- 9	[pos="439,428.12 432.2,463.09 417.21,540.2 410.41,575.23"];
	1 -- 34	[pos="430.25,426.49 414.59,447.3 387.59,483.16 371.9,504"];
	41	[height=0.5,
		pos="449.16,220.16",
		width=0.75];
	1 -- 41	[pos="443.12,392.02 444.4,355.69 447.24,274.62 448.52,238.34"];
	43	[height=0.5,
		pos="387.11,224.21",
		width=0.75];
	1 -- 43	[pos="437.17,392.41 426.58,356.85 402.97,277.51 392.4,242"];
	52	[height=0.5,
		pos="473.53,333.04",
		width=0.75];
	1 -- 52	[pos="449.52,392.73 454.61,380.1 461.44,363.11 466.51,350.49"];
	23	[height=0.5,
		pos="338.47,608.7",
		width=0.75];
	1 -- 23	[pos="433.43,427.51 413.71,465.14 367.06,554.16 347.43,591.62"];
	50	[height=0.5,
		pos="261.6,609.58",
		width=0.75];
	1 -- 50	[pos="428.28,425.89 394.47,463.15 309.48,556.82 275.73,594.01"];
	73	[height=0.5,
		pos="483.67,512.21",
		width=0.75];
	1 -- 73	[pos="449.65,428.01 457.21,446.73 469.05,476.02 476.58,494.66"];
	29	[height=0.5,
		pos="403.61,304.29",
		width=0.75];
	1 -- 29	[pos="436.06,392.75 428.86,373.12 417.25,341.46 410.04,321.82"];
	44	[height=0.5,
		pos="628.62,376.88",
		width=0.75];
	1 -- 44	[pos="468.75,405.54 504.23,399.18 567.07,387.91 602.48,381.57"];
	53	[height=0.5,
		pos="500.15,264.18",
		width=0.75];
	1 -- 53	[pos="449.43,392.63 460.52,364.56 482.07,309.98 493.17,281.86"];
	74	[height=0.5,
		pos="504.52,397.57",
		width=0.75];
	1 -- 74	[pos="468.43,404.95 471.75,404.27 475.15,403.57 478.47,402.89"];
	58	[height=0.5,
		pos="562.15,269.08",
		width=0.75];
	1 -- 58	[pos="455.97,394.33 478.96,367.22 525.45,312.38 548.52,285.16"];
	1 -- 77	[pos="439.58,428.32 435.6,453.14 428.49,497.53 424.52,522.28"];
	65	[height=0.5,
		pos="603.5,313.12",
		width=0.75];
	1 -- 65	[pos="462.55,398.15 493.49,379.48 552.5,343.89 583.44,325.23"];
	79	[height=0.5,
		pos="332.1,464.17",
		width=0.75];
	1 -- 79	[pos="420.67,420.9 401.44,430.29 373.56,443.91 354.24,453.35"];
	2 -- 25	[pos="420.55,459.08 448.28,463.52 491.64,470.47 519.35,474.91"];
	2 -- 3	[pos="367.23,456.23 346.56,457.29 318.14,458.74 297.38,459.81"];
	2 -- 4	[pos="417.4,464.14 451.99,477.96 516.66,503.79 551.36,517.66"];
	7	[height=0.5,
		pos="263.53,298.34",
		width=0.75];
	2 -- 7	[pos="380.91,438.99 355.87,408.99 301.87,344.28 276.81,314.25"];
	17	[height=0.5,
		pos="235.42,399.8",
		width=0.75];
	2 -- 17	[pos="370.04,446.49 340.12,436.12 289.4,418.52 259.49,408.15"];
	2 -- 52	[pos="405.02,438.17 420.14,414.98 447.35,373.21 462.53,349.91"];
	22	[height=0.5,
		pos="221.14,519.12",
		width=0.75];
	2 -- 22	[pos="370.46,463.66 337.42,475.93 277.86,498.05 244.82,510.32"];
	26	[height=0.5,
		pos="206.41,443.83",
		width=0.75];
	2 -- 26	[pos="367.25,453.28 331.66,451.19 269.28,447.52 233.56,445.43"];
	46	[height=0.5,
		pos="566.54,408.91",
		width=0.75];
	2 -- 46	[pos="419.59,448.08 452.27,439.37 508.68,424.33 541.28,415.65"];
	2 -- 64	[pos="381.09,471.06 364.25,491.94 335.17,528.01 318.44,548.75"];
	2 -- 29	[pos="395.29,436.69 397.11,407.76 400.65,351.5 402.47,322.52"];
	2 -- 74	[pos="415.69,443.67 435.14,433.58 463.6,418.81 483.03,408.72"];
	2 -- 57	[pos="410.89,469.17 433.5,488.49 473.55,522.72 496.12,542"];
	25 -- 49	[pos="550.31,496.9 556.83,522.06 568.67,567.79 575.21,593.02"];
	25 -- 46	[pos="550.96,461.41 554.1,450.85 558.06,437.47 561.21,426.87"];
	25 -- 57	[pos="538.23,496.62 532.84,509.24 525.6,526.21 520.22,538.81"];
	3 -- 67	[pos="277.13,443.47 281.26,433.11 286.44,420.08 290.54,409.77"];
	3 -- 8	[pos="282.18,445.03 298.24,423.57 326.43,385.91 342.47,364.46"];
	3 -- 7	[pos="269.35,443.15 268.09,411.84 265.52,347.83 264.26,316.47"];
	3 -- 10	[pos="276.73,443.54 290,408.33 319.61,329.78 332.86,294.61"];
	3 -- 17	[pos="260.42,444.1 255.62,435.58 249.82,425.32 245.02,416.81"];
	3 -- 34	[pos="289.51,474.03 304.53,483.94 325.22,497.6 340.23,507.5"];
	19	[height=0.5,
		pos="184.76,311.96",
		width=0.75];
	3 -- 19	[pos="260.46,444.37 244.07,415.71 210.93,357.73 194.48,328.96"];
	13	[height=0.5,
		pos="126.56,548.87",
		width=0.75];
	3 -- 13	[pos="250.12,473.39 222.86,490.05 174.23,519.76 146.81,536.5"];
	42	[height=0.5,
		pos="199.57,620.7",
		width=0.75];
	3 -- 42	[pos="262.4,478.57 248.83,509.25 220.79,572.68 207.24,603.35"];
	3 -- 22	[pos="256.71,477.03 249.8,485.2 241.4,495.14 234.5,503.31"];
	24	[height=0.5,
		pos="137.54,592.91",
		width=0.75];
	3 -- 24	[pos="254.87,476.31 229.44,501.58 178.56,552.15 152.98,577.57"];
	3 -- 26	[pos="244.92,454.34 240.61,453.16 236.12,451.94 231.81,450.76"];
	31	[height=0.5,
		pos="173.04,355.99",
		width=0.75];
	3 -- 31	[pos="255.76,445.68 237.41,425.79 205.79,391.5 187.42,371.58"];
	3 -- 64	[pos="276.11,478.75 282.64,497.78 293.01,527.96 299.56,547.02"];
	38	[height=0.5,
		pos="103.47,416.82",
		width=0.75];
	3 -- 38	[pos="244.77,454.46 213.37,446.09 160.13,431.91 128.74,423.55"];
	47	[height=0.5,
		pos="142.32,460.85",
		width=0.75];
	3 -- 47	[pos="242.98,461.13 221.3,461.07 191.05,460.98 169.38,460.92"];
	40	[height=0.5,
		pos="110.6,372.78",
		width=0.75];
	3 -- 40	[pos="249.23,449.64 218.66,432.7 162.02,401.29 131.45,384.34"];
	48	[height=0.5,
		pos="93.608,504.85",
		width=0.75];
	3 -- 48	[pos="244.42,467.55 210.86,475.85 152.44,490.3 119.01,498.57"];
	8 -- 67	[pos="336.81,362.01 330,367.26 322.23,373.25 315.41,378.51"];
	8 -- 10	[pos="350.76,330.33 348.49,319.6 345.62,306.02 343.35,295.24"];
	4 -- 25	[pos="564.63,510.27 561.81,505.63 558.75,500.59 555.93,495.95"];
	4 -- 5	[pos="567.75,544.62 554.84,576.77 527.6,644.64 514.69,676.8"];
	4 -- 36	[pos="582.62,509.47 587.87,497.66 594.77,482.16 600.01,470.38"];
	6	[height=0.5,
		pos="734.8,533.14",
		width=0.75];
	4 -- 6	[pos="601.95,528.06 631.46,529.19 678.34,530.98 707.8,532.1"];
	4 -- 62	[pos="574.96,545.1 575.18,571.14 575.58,618.93 575.8,645.01"];
	4 -- 9	[pos="551.46,536.22 519.48,548.83 462.36,571.33 430.33,583.95"];
	4 -- 12	[pos="584,543.95 596.78,567.49 619.78,609.87 632.61,633.5"];
	4 -- 20	[pos="591.87,541.33 603.75,551.3 619.52,564.53 631.38,574.48"];
	32	[height=0.5,
		pos="569.64,713.02",
		width=0.75];
	4 -- 32	[pos="574.3,545.2 573.32,580.76 571.14,659.16 570.15,694.77"];
	4 -- 49	[pos="575.9,545.23 576.75,559.31 577.92,578.7 578.76,592.76"];
	4 -- 46	[pos="573.54,508.83 571.98,486.57 569.36,449.12 567.8,426.94"];
	4 -- 73	[pos="548.45,522.74 536.36,520.78 522.06,518.45 509.97,516.49"];
	4 -- 44	[pos="581.09,509.51 591.4,480.73 611.82,423.76 622.22,394.75"];
	4 -- 74	[pos="565.48,509.83 552.03,485.07 527.36,439.63 513.89,414.83"];
	5 -- 18	[pos="488.04,707.28 480.09,712.5 470.93,718.52 462.99,723.74"];
	5 -- 62	[pos="529.99,684.18 537.47,680.76 545.8,676.95 553.29,673.52"];
	5 -- 9	[pos="492.32,679.04 473.29,659.9 440.97,627.42 422.02,608.36"];
	5 -- 32	[pos="532.49,701.87 536.53,703.09 540.72,704.34 544.77,705.56"];
	5 -- 71	[pos="489.46,707.74 466.99,724.23 428.93,752.15 406.38,768.7"];
	18 -- 32	[pos="469.67,731.65 491.31,727.62 521.91,721.92 543.55,717.88"];
	18 -- 28	[pos="443.94,754.67 444.28,770.22 444.76,792.51 445.1,808.06"];
	18 -- 71	[pos="426.29,750.71 419.54,756.26 411.83,762.6 405.1,768.13"];
	18 -- 35	[pos="418.32,743.33 398.49,748.69 370.99,756.11 351.17,761.46"];
	36 -- 73	[pos="585.58,463.55 562.99,474.33 528.18,490.96 505.66,501.71"];
	36 -- 44	[pos="612.71,434.93 616.03,422.8 620.4,406.88 623.71,394.78"];
	6 -- 12	[pos="721.89,549.47 704.14,571.92 672.4,612.05 654.71,634.42"];
	6 -- 20	[pos="715.19,545.75 701.04,554.84 682.02,567.06 667.89,576.15"];
	15	[height=0.5,
		pos="752.89,673.42",
		width=0.75];
	6 -- 15	[pos="737.13,551.19 740.6,578.13 747.1,628.54 750.57,655.44"];
	68	[height=0.5,
		pos="803.84,537.39",
		width=0.75];
	6 -- 68	[pos="761.69,534.79 766.69,535.1 771.91,535.42 776.91,535.73"];
	30	[height=0.5,
		pos="768.21,718.47",
		width=0.75];
	6 -- 30	[pos="738.07,551.24 744.47,586.77 758.61,665.2 764.98,700.56"];
	21	[height=0.5,
		pos="809.89,629.41",
		width=0.75];
	6 -- 21	[pos="747.54,549.47 761.43,567.28 783.53,595.6 797.34,613.32"];
	45	[height=0.5,
		pos="886.91,566.13",
		width=0.75];
	6 -- 45	[pos="760.61,538.73 788.58,544.8 832.96,554.43 860.98,560.5"];
	72	[height=0.5,
		pos="876.28,455.88",
		width=0.75];
	6 -- 72	[pos="755.98,521.57 782.65,507.01 828.21,482.13 854.95,467.53"];
	56	[height=0.5,
		pos="898.87,503.47",
		width=0.75];
	6 -- 56	[pos="761.16,528.37 791.78,522.83 841.99,513.76 872.57,508.23"];
	78	[height=0.5,
		pos="841.68,409.41",
		width=0.75];
	6 -- 78	[pos="748.34,517.46 768.79,493.8 807.34,449.17 827.92,425.34"];
	7 -- 10	[pos="288.83,291.23 297.12,288.91 306.31,286.32 314.57,284.01"];
	7 -- 19	[pos="237.3,302.87 228.89,304.33 219.57,305.94 211.15,307.4"];
	14	[height=0.5,
		pos="321.75,162.84",
		width=0.75];
	7 -- 14	[pos="271.03,280.9 282.2,254.88 303.13,206.19 314.29,180.21"];
	11	[height=0.5,
		pos="256.96,172.4",
		width=0.75];
	7 -- 11	[pos="262.59,280.29 261.34,256.35 259.15,214.34 257.9,190.41"];
	27	[height=0.5,
		pos="174.23,158.81",
		width=0.75];
	7 -- 27	[pos="252.76,281.51 235.6,254.69 202.23,202.55 185.04,175.7"];
	55	[height=0.5,
		pos="236.28,128.36",
		width=0.75];
	7 -- 55	[pos="260.62,280.15 255.37,247.43 244.4,179.04 239.17,146.42"];
	7 -- 26	[pos="256.64,315.89 245.66,343.85 224.32,398.22 213.33,426.22"];
	7 -- 31	[pos="243.9,310.85 228.72,320.52 207.81,333.84 192.64,343.51"];
	7 -- 29	[pos="290.54,299.49 315.19,300.53 351.44,302.08 376.21,303.13"];
	51	[height=0.5,
		pos="84.964,259.1",
		width=0.75];
	7 -- 51	[pos="237.57,292.63 203.62,285.17 144.5,272.18 110.67,264.75"];
	10 -- 14	[pos="336.69,258.92 333.36,237.54 327.87,202.19 324.55,180.84"];
	10 -- 11	[pos="326.6,260.66 311.09,241.01 285.23,208.23 269.76,188.63"];
	10 -- 43	[pos="353.52,261.45 359.67,254.64 366.86,246.66 373.01,239.84"];
	69	[height=0.5,
		pos="340.86,99.85",
		width=0.75];
	10 -- 69	[pos="339.64,258.71 339.9,224.68 340.46,152 340.72,118.04"];
	10 -- 53	[pos="366.39,274.86 396.04,272.49 443.48,268.7 473.17,266.33"];
	76	[height=0.5,
		pos="422.05,118.68",
		width=0.75];
	10 -- 76	[pos="348.49,259.76 364.37,229.31 397.19,166.35 413.07,135.91"];
	9 -- 18	[pos="411.48,611.04 418.5,638.51 431.87,690.83 438.92,718.43"];
	59	[height=0.5,
		pos="263.99,756.25",
		width=0.75];
	9 -- 59	[pos="393.21,608.81 365.96,639.9 305.25,709.18 277.87,740.42"];
	9 -- 32	[pos="425.27,606.69 456.52,629.71 519.73,676.26 551.11,699.37"];
	9 -- 23	[pos="381.04,599.04 375.59,600.28 369.84,601.59 364.39,602.82"];
	9 -- 50	[pos="380.26,596.18 354.21,599.13 314.75,603.58 288.58,606.53"];
	9 -- 73	[pos="421.35,577.95 434.99,563.56 455.34,542.1 469.04,527.65"];
	9 -- 54	[pos="395.88,609.83 387.64,622.27 376.43,639.2 368.2,651.62"];
	9 -- 77	[pos="411.9,575.24 413.44,569.71 415.13,563.63 416.67,558.11"];
	61	[height=0.5,
		pos="298.8,712.25",
		width=0.75];
	9 -- 61	[pos="392.78,608.74 372.06,631.56 333.66,673.86 312.94,696.68"];
	59 -- 61	[pos="276.76,740.12 279.78,736.29 283.01,732.21 286.04,728.38"];
	63	[height=0.5,
		pos="174.01,739.29",
		width=0.75];
	59 -- 63	[pos="237.97,751.34 226.13,749.11 212.16,746.48 200.29,744.24"];
	70	[height=0.5,
		pos="27,453.55",
		width=0.75];
	17 -- 70	[pos="209.86,406.39 169.75,416.74 92.476,436.67 52.439,446.99"];
	17 -- 22	[pos="233.25,417.92 230.57,440.35 226.02,478.32 223.33,500.83"];
	17 -- 26	[pos="224.45,416.45 222.14,419.96 219.7,423.66 217.39,427.16"];
	34 -- 54	[pos="359.33,538.44 358.86,566.83 357.96,621.46 357.49,649.95"];
	34 -- 77	[pos="384.14,528.16 388.47,529.55 392.98,531 397.31,532.39"];
	34 -- 79	[pos="351.22,503.16 347.86,496.32 344.01,488.46 340.64,481.6"];
	41 -- 43	[pos="422.12,221.93 419.51,222.1 416.86,222.27 414.24,222.44"];
	41 -- 52	[pos="453.02,238.05 457.56,259.06 465.04,293.73 469.6,314.87"];
	41 -- 58	[pos="472.02,230.06 491.63,238.55 519.73,250.71 539.32,259.2"];
	19 -- 31	[pos="179.99,329.87 179.26,332.63 178.5,335.48 177.77,338.24"];
	19 -- 38	[pos="172.06,328.35 156.79,348.04 131.32,380.9 116.09,400.55"];
	19 -- 40	[pos="167.56,326.07 155.58,335.89 139.67,348.94 127.7,358.75"];
	19 -- 51	[pos="163.6,300.75 146.78,291.84 123.34,279.43 106.44,270.47"];
	14 -- 41	[pos="344.24,172.96 367.38,183.37 403.25,199.51 426.47,209.96"];
	14 -- 27	[pos="294.7,162.1 268.16,161.37 227.93,160.27 201.36,159.55"];
	75	[height=0.5,
		pos="259.81,18",
		width=0.75];
	14 -- 75	[pos="314.28,145.37 302.38,117.53 279.23,63.411 267.31,35.533"];
	14 -- 43	[pos="337.57,177.7 347.85,187.34 361.19,199.87 371.43,209.49"];
	14 -- 69	[pos="327.18,144.96 329.78,136.37 332.89,126.12 335.49,117.56"];
	14 -- 55	[pos="298.4,153.42 286.34,148.55 271.66,142.63 259.61,137.77"];
	14 -- 29	[pos="331.63,179.9 347.36,207.09 377.95,259.94 393.7,287.17"];
	14 -- 76	[pos="344.51,152.82 360.92,145.59 382.99,135.88 399.38,128.66"];
	11 -- 14	[pos="283.69,168.46 287.45,167.9 291.32,167.33 295.09,166.77"];
	11 -- 27	[pos="230.33,168.03 220.78,166.46 210.04,164.69 200.53,163.13"];
	11 -- 75	[pos="257.29,154.39 257.84,124.8 258.92,66.206 259.47,36.378"];
	11 -- 69	[pos="273.53,158.07 288.24,145.35 309.62,126.86 324.32,114.15"];
	27 -- 75	[pos="184.38,142.1 200.85,115 233.21,61.769 249.67,34.684"];
	27 -- 55	[pos="196.28,147.99 202.13,145.11 208.45,142.01 214.3,139.15"];
	12 -- 37	[pos="630.11,667.31 615.44,688.07 590.52,723.32 575.91,743.99"];
	12 -- 62	[pos="615.84,655.58 611.37,656.43 606.73,657.31 602.26,658.16"];
	12 -- 20	[pos="643.8,632.38 644.63,624.39 645.61,615.03 646.44,607.03"];
	12 -- 15	[pos="667.93,655.97 685.74,659.63 709.26,664.46 727.03,668.11"];
	12 -- 30	[pos="663.04,661.98 686.36,674.5 723.66,694.54 747,707.08"];
	12 -- 21	[pos="668.52,647.26 699.89,643.3 751.69,636.76 783.12,632.79"];
	60	[height=0.5,
		pos="696.3,813.15",
		width=0.75];
	12 -- 60	[pos="647.83,668.33 658.29,699.59 679.92,764.22 690.38,795.47"];
	33	[height=0.5,
		pos="716.66,762.52",
		width=0.75];
	12 -- 33	[pos="652.94,667.13 667.07,688.29 691.43,724.75 705.58,745.94"];
	20 -- 68	[pos="672.64,580.69 701.77,571.08 750.3,555.06 779.46,545.44"];
	20 -- 33	[pos="655.27,606.33 668.37,639.64 696.61,711.5 709.72,744.85"];
	13 -- 42	[pos="142.05,564.11 154.43,576.3 171.72,593.31 184.11,605.49"];
	13 -- 70	[pos="111.01,533.98 92.302,516.07 61.103,486.2 42.448,468.34"];
	13 -- 22	[pos="151.41,541.06 165.31,536.68 182.58,531.25 196.46,526.89"];
	13 -- 26	[pos="139.04,532.46 154.04,512.73 179.06,479.81 194.02,460.13"];
	42 -- 48	[pos="185.28,605.08 164.94,582.84 127.88,542.33 107.67,520.23"];
	15 -- 20	[pos="735.63,659.44 716.26,643.74 685.02,618.42 665.64,602.72"];
	15 -- 68	[pos="759.45,655.92 769.18,629.94 787.34,581.44 797.15,555.26"];
	15 -- 30	[pos="758.94,691.23 760.01,694.38 761.13,697.65 762.2,700.8"];
	15 -- 21	[pos="770.61,659.74 777.41,654.49 785.17,648.5 791.98,643.24"];
	15 -- 60	[pos="745.84,690.84 734.99,717.61 714.34,768.61 703.44,795.52"];
	15 -- 33	[pos="745.73,691.03 739.38,706.65 730.15,729.34 723.8,744.95"];
	15 -- 45	[pos="770.41,659.4 796.1,638.83 843.7,600.72 869.38,580.16"];
	68 -- 72	[pos="817.81,521.67 830.64,507.24 849.54,485.97 862.35,471.55"];
	68 -- 78	[pos="809.1,519.59 816.29,495.28 829.11,451.91 836.34,427.46"];
	16	[height=0.5,
		pos="1024.1,472.71",
		width=0.75];
	66	[height=0.5,
		pos="1017.4,564.17",
		width=0.75];
	16 -- 66	[pos="1022.7,490.78 1021.6,506.81 1019.9,530.11 1018.7,546.14"];
	16 -- 45	[pos="1005,485.7 978.78,503.55 931.93,535.46 905.82,553.25"];
	16 -- 56	[pos="998.42,479.01 976.82,484.32 946.06,491.88 924.47,497.18"];
	66 -- 72	[pos="999.51,550.45 972.37,529.62 921.06,490.25 894,469.49"];
	43 -- 53	[pos="411.08,232.69 430.26,239.47 457.04,248.94 476.21,255.72"];
	43 -- 58	[pos="412.56,230.74 445.75,239.24 503.46,254.04 536.67,262.55"];
	43 -- 76	[pos="393.03,206.31 399.5,186.79 409.78,155.74 416.21,136.32"];
	69 -- 75	[pos="325.62,84.454 311.03,69.728 289.18,47.66 274.71,33.05"];
	22 -- 70	[pos="196.94,510.95 159.64,498.35 88.498,474.32 51.195,461.72"];
	22 -- 26	[pos="217.57,500.9 215.26,489.06 212.25,473.69 209.94,461.89"];
	22 -- 64	[pos="242.46,530.61 255.36,537.57 271.75,546.4 284.6,553.33"];
	21 -- 30	[pos="801.66,647 794.3,662.72 783.59,685.6 776.28,701.21"];
	39 -- 71	[pos="481.62,802.01 461.58,797.76 433.96,791.9 413.93,787.65"];
	23 -- 59	[pos="329.78,625.92 315.43,654.35 286.94,710.79 272.63,739.15"];
	23 -- 50	[pos="311.16,609.01 303.91,609.09 296.08,609.18 288.83,609.27"];
	23 -- 73	[pos="357.76,595.89 385.53,577.43 436.49,543.56 464.31,525.08"];
	23 -- 61	[pos="331.74,626.27 324.45,645.31 312.87,675.52 305.56,694.6"];
	23 -- 63	[pos="320.87,622.68 289.22,647.81 223.05,700.35 191.49,725.41"];
	50 -- 59	[pos="261.9,627.86 262.36,656.12 263.24,710.08 263.7,738.2"];
	50 -- 61	[pos="268.08,627.46 274.91,646.31 285.6,675.8 292.4,694.57"];
	50 -- 63	[pos="250.51,626.01 233.75,650.82 202.16,697.61 185.29,722.58"];
	24 -- 42	[pos="160.29,603.1 165.68,605.51 171.43,608.09 176.83,610.51"];
	24 -- 26	[pos="145.58,575.51 158.85,546.79 185.19,489.77 198.43,461.12"];
	24 -- 48	[pos="128.86,575.51 121.16,560.07 109.97,537.64 102.27,522.21"];
	26 -- 42	[pos="205.71,462.1 204.39,496.08 201.58,568.63 200.27,602.54"];
	26 -- 70	[pos="179.16,445.31 145.25,447.15 87.68,450.27 53.917,452.09"];
	26 -- 31	[pos="199.66,426.06 193.83,410.72 185.46,388.69 179.67,373.44"];
	31 -- 38	[pos="156.56,370.41 145.63,379.96 131.33,392.46 120.33,402.08"];
	31 -- 47	[pos="167.83,373.78 162.18,393.06 153.22,423.66 147.56,442.97"];
	31 -- 51	[pos="158.89,340.42 142.45,322.34 115.5,292.69 99.08,274.63"];
	49 -- 57	[pos="562.58,596.85 552.64,588.75 540.19,578.59 530.22,570.47"];
	46 -- 57	[pos="560.06,426.69 549.72,455 529.63,510.05 519.28,538.41"];
	28 -- 35	[pos="423.58,815.55 402.15,805.17 369.7,789.44 348.18,779.01"];
	29 -- 41	[pos="412.83,287.27 420.73,272.67 432.06,251.75 439.96,237.16"];
	29 -- 43	[pos="399.87,286.12 397.17,273.02 393.53,255.4 390.84,242.31"];
	29 -- 52	[pos="426.89,313.87 434.36,316.94 442.63,320.34 450.11,323.41"];
	38 -- 47	[pos="117.5,432.71 121.06,436.75 124.89,441.09 128.45,445.12"];
	38 -- 40	[pos="106.37,398.91 106.8,396.24 107.25,393.49 107.68,390.82"];
	38 -- 51	[pos="101.35,398.73 97.799,368.46 90.692,307.91 87.119,277.46"];
	33 -- 60	[pos="709.65,779.94 707.63,784.98 705.42,790.48 703.39,795.52"];
	54 -- 77	[pos="365.89,650.97 378.19,626.53 400.55,582.11 412.89,557.59"];
	54 -- 79	[pos="354.97,650.12 350.2,611.4 339.08,520.93 334.32,482.24"];
	35 -- 39	[pos="352.01,773.89 386.52,781.35 447.1,794.44 481.59,801.9"];
	35 -- 71	[pos="351.59,773.99 355.07,774.77 358.63,775.57 362.11,776.35"];
	40 -- 51	[pos="106.54,354.77 101.74,333.48 93.798,298.28 89.006,277.03"];
	53 -- 58	[pos="527.16,266.32 529.77,266.52 532.42,266.73 535.04,266.94"];
	53 -- 76	[pos="491.04,247.21 476.07,219.32 446.43,164.11 431.34,136"];
	53 -- 65	[pos="522.32,274.68 539.76,282.94 563.94,294.39 581.37,302.64"];
	45 -- 68	[pos="862.88,557.82 851.86,554 838.83,549.49 827.82,545.68"];
	45 -- 66	[pos="913.94,565.72 936.33,565.39 968,564.91 990.38,564.57"];
	45 -- 72	[pos="885.15,547.92 883.18,527.5 880.01,494.55 878.03,474.12"];
	45 -- 56	[pos="890.37,548.01 891.97,539.62 893.86,529.69 895.46,521.34"];
	45 -- 78	[pos="881.72,548.15 873,517.92 855.49,457.27 846.81,427.18"];
	72 -- 78	[pos="864.18,439.63 860.82,435.13 857.19,430.24 853.83,425.73"];
	58 -- 65	[pos="576.62,284.49 580.62,288.75 584.97,293.38 588.98,297.66"];
	77 -- 79	[pos="404.8,525.89 388.79,512.3 364.85,491.97 348.87,478.4"];
	56 -- 66	[pos="920.33,514.47 941.67,525.4 974.25,542.08 995.68,553.05"];
	56 -- 72	[pos="890.71,486.29 888.69,482.03 886.52,477.47 884.5,473.2"];
	61 -- 73	[pos="313,696.89 347.41,659.65 434.96,564.92 469.42,527.63"];
	61 -- 63	[pos="272.94,717.85 251.53,722.49 221.24,729.05 199.84,733.69"];
}
