graph {
	graph [bb="0,0,343.45,321.06",
		outputorder=edgesfirst,
		overlap=prism,
		size="50,50!",
		start=5584
	];
	node [label="\N"];
	0	[height=0.5,
		pos="141.39,107.38",
		width=0.75];
	2	[height=0.5,
		pos="124.72,18",
		width=0.75];
	0 -- 2	[pos="138.02,89.289 135.13,73.783 130.98,51.558 128.09,36.06"];
	1	[height=0.5,
		pos="225.25,177.45",
		width=0.75];
	0 -- 1	[pos="158.36,121.56 172.91,133.72 193.76,151.14 208.31,163.29"];
	4	[height=0.5,
		pos="316.45,174.61",
		width=0.75];
	0 -- 4	[pos="165,116.44 198.51,129.31 259.48,152.73 292.94,165.58"];
	3	[height=0.5,
		pos="221.72,21.177",
		width=0.75];
	0 -- 3	[pos="155.75,91.965 170.29,76.372 192.63,52.394 207.21,36.745"];
	6	[height=0.5,
		pos="27,181.94",
		width=0.75];
	0 -- 6	[pos="121.99,120.02 100.95,133.74 67.573,155.49 46.501,169.23"];
	7	[height=0.5,
		pos="88.432,257.6",
		width=0.75];
	0 -- 7	[pos="135.21,124.9 125.06,153.69 104.97,210.7 94.736,239.72"];
	5	[height=0.5,
		pos="293.86,80.787",
		width=0.75];
	2 -- 5	[pos="148.59,26.863 180.83,38.829 237.93,60.027 270.11,71.97"];
	2 -- 3	[pos="151.74,18.885 165.08,19.322 181.14,19.848 194.51,20.285"];
	2 -- 6	[pos="114.63,34.927 95.902,66.341 55.974,133.33 37.181,164.86"];
	10	[height=0.5,
		pos="68.463,107.45",
		width=0.75];
	2 -- 10	[pos="114.14,34.824 104.08,50.816 89.038,74.732 78.996,90.699"];
	1 -- 2	[pos="214.68,160.69 195.42,130.15 154.82,65.75 135.45,35.018"];
	1 -- 4	[pos="252.61,176.6 264.26,176.24 277.81,175.81 289.42,175.45"];
	1 -- 5	[pos="236.89,161.06 249.51,143.28 269.53,115.07 282.17,97.266"];
	1 -- 7	[pos="204.77,189.45 178.97,204.56 134.91,230.37 109.06,245.52"];
	11	[height=0.5,
		pos="174.31,303.06",
		width=0.75];
	1 -- 11	[pos="218.17,194.92 208.49,218.78 191.23,261.34 181.5,285.34"];
	4 -- 5	[pos="312.09,156.52 308.09,139.9 302.2,115.42 298.2,98.821"];
	4 -- 11	[pos="300.42,189.09 273.12,213.76 217.91,263.66 190.5,288.43"];
	8	[height=0.5,
		pos="240.29,248.38",
		width=0.75];
	4 -- 8	[pos="301.04,189.54 287.82,202.33 268.88,220.68 255.68,233.47"];
	5 -- 8	[pos="288.23,98.406 277.94,130.59 256.22,198.55 245.93,230.75"];
	9	[height=0.5,
		pos="163.24,166.61",
		width=0.75];
	5 -- 9	[pos="274.59,93.45 249.89,109.68 207.33,137.64 182.6,153.89"];
	3 -- 4	[pos="232.04,37.888 250.26,67.402 287.93,128.42 306.14,157.92"];
	3 -- 5	[pos="238.82,35.304 250.32,44.806 265.41,57.281 276.89,66.762"];
	3 -- 10	[pos="201.05,32.812 171.8,49.277 118.63,79.207 89.294,95.722"];
	3 -- 9	[pos="214.67,38.719 203.43,66.671 181.58,121.01 170.32,149"];
	6 -- 10	[pos="36.409,165.03 43.146,152.93 52.186,136.69 58.948,124.54"];
	6 -- 7	[pos="40.028,197.98 50.453,210.82 65.002,228.74 75.423,241.58"];
	6 -- 11	[pos="44.187,196.07 72.573,219.41 128.92,265.74 157.24,289.02"];
	6 -- 9	[pos="53.917,178.91 77.803,176.22 112.51,172.32 136.38,169.63"];
	7 -- 10	[pos="86.023,239.49 82.185,210.63 74.724,154.52 70.88,125.62"];
	7 -- 11	[pos="109.66,268.84 122.87,275.83 139.81,284.8 153.03,291.8"];
	7 -- 8	[pos="115.58,255.95 143.22,254.27 185.82,251.69 213.38,250.01"];
	8 -- 10	[pos="223.19,234.35 190.25,207.34 118.38,148.39 85.497,121.42"];
	8 -- 11	[pos="223.3,262.46 213.52,270.56 201.28,280.71 191.48,288.84"];
	8 -- 9	[pos="225.8,233 212.02,218.38 191.42,196.52 177.67,181.92"];
	9 -- 10	[pos="143.14,154.06 126.95,143.95 104.31,129.82 88.209,119.77"];
	9 -- 11	[pos="164.71,184.73 166.83,210.83 170.72,258.73 172.84,284.87"];
}
