graph {
	graph [bb="0,0,700.47,728.32",
		outputorder=edgesfirst,
		overlap=prism,
		size="50,50!",
		start=7187
	];
	node [label="\N"];
	0	[height=0.5,
		pos="470.14,710.32",
		width=0.75];
	1	[height=0.5,
		pos="394.45,643.1",
		width=0.75];
	0 -- 1	[pos="453.71,695.73 441.02,684.46 423.53,668.92 410.84,657.65"];
	10	[height=0.5,
		pos="541.93,627.35",
		width=0.75];
	0 -- 10	[pos="483.64,694.71 496.4,679.97 515.43,657.98 528.24,643.17"];
	2	[height=0.5,
		pos="278.74,606.65",
		width=0.75];
	1 -- 2	[pos="369.91,635.37 350.27,629.18 322.87,620.55 303.24,614.37"];
	11	[height=0.5,
		pos="487.93,564.27",
		width=0.75];
	1 -- 11	[pos="411.59,628.64 428.46,614.41 454.06,592.83 470.89,578.63"];
	13	[height=0.5,
		pos="520.82,514.76",
		width=0.75];
	10 -- 13	[pos="538.54,609.26 534.6,588.25 528.14,553.8 524.2,532.81"];
	10 -- 11	[pos="528.3,611.44 520.06,601.8 509.58,589.56 501.36,579.96"];
	3	[height=0.5,
		pos="252.26,462.72",
		width=0.75];
	2 -- 3	[pos="275.44,588.71 270.36,561.13 260.7,508.6 255.6,480.89"];
	37	[height=0.5,
		pos="158.61,567.79",
		width=0.75];
	2 -- 37	[pos="254.43,598.79 233.72,592.09 204.11,582.51 183.3,575.78"];
	16	[height=0.5,
		pos="395.36,554.04",
		width=0.75];
	13 -- 16	[pos="496.33,522.43 474.37,529.3 442.29,539.35 420.21,546.26"];
	14	[height=0.5,
		pos="547.87,378.98",
		width=0.75];
	13 -- 14	[pos="524.41,496.73 529.59,470.76 539.08,423.09 544.26,397.08"];
	4	[height=0.5,
		pos="287.03,331.54",
		width=0.75];
	3 -- 4	[pos="257.02,444.76 263.68,419.64 275.69,374.29 282.32,349.29"];
	24	[height=0.5,
		pos="167.57,453.38",
		width=0.75];
	3 -- 24	[pos="225.46,459.77 215.58,458.67 204.38,457.44 194.48,456.35"];
	20	[height=0.5,
		pos="249.19,562.61",
		width=0.75];
	16 -- 20	[pos="368.21,555.63 341.95,557.17 302.4,559.49 276.19,561.02"];
	17	[height=0.5,
		pos="418.51,472.24",
		width=0.75];
	16 -- 17	[pos="400.38,536.29 404.27,522.57 409.62,503.67 413.5,489.96"];
	5	[height=0.5,
		pos="337.7,238.18",
		width=0.75];
	4 -- 5	[pos="296.32,314.42 305.46,297.57 319.34,272 328.46,255.2"];
	31	[height=0.5,
		pos="251.12,243.26",
		width=0.75];
	4 -- 31	[pos="279.93,314.1 273.64,298.63 264.49,276.14 258.2,260.67"];
	23	[height=0.5,
		pos="107,497.41",
		width=0.75];
	20 -- 23	[pos="226.66,552.28 200.03,540.07 156,519.88 129.42,507.7"];
	21	[height=0.5,
		pos="309.91,506.76",
		width=0.75];
	20 -- 21	[pos="265.14,547.94 274,539.79 284.98,529.69 293.85,521.53"];
	6	[height=0.5,
		pos="461.81,186.94",
		width=0.75];
	5 -- 6	[pos="360.75,228.66 382.9,219.52 416.21,205.77 438.46,196.58"];
	40	[height=0.5,
		pos="244.14,161.27",
		width=0.75];
	5 -- 40	[pos="320.54,224.08 303.66,210.2 278.04,189.14 261.19,175.29"];
	26	[height=0.5,
		pos="27,362.39",
		width=0.75];
	23 -- 26	[pos="97.028,480.59 81.698,454.71 52.501,405.43 37.096,379.43"];
	23 -- 24	[pos="125.5,483.96 133.02,478.5 141.68,472.2 149.18,466.75"];
	7	[height=0.5,
		pos="565.45,195.92",
		width=0.75];
	6 -- 7	[pos="488.77,189.27 504.12,190.6 523.29,192.26 538.63,193.59"];
	32	[height=0.5,
		pos="337.76,185.11",
		width=0.75];
	6 -- 32	[pos="434.59,186.54 413.91,186.23 385.59,185.82 364.92,185.51"];
	28	[height=0.5,
		pos="28.404,229.8",
		width=0.75];
	26 -- 28	[pos="27.192,344.23 27.46,318.98 27.941,273.52 28.209,248.16"];
	27	[height=0.5,
		pos="127.07,286.6",
		width=0.75];
	26 -- 27	[pos="44.891,348.84 62.994,335.13 90.831,314.05 109,300.29"];
	8	[height=0.5,
		pos="616.4,301.51",
		width=0.75];
	7 -- 8	[pos="573.86,213.35 583.3,232.92 598.53,264.48 607.97,284.05"];
	42	[height=0.5,
		pos="511.82,100.6",
		width=0.75];
	7 -- 42	[pos="555.86,178.88 546.1,161.53 531.06,134.79 521.33,117.5"];
	30	[height=0.5,
		pos="65.072,284.68",
		width=0.75];
	28 -- 30	[pos="39.405,246.26 44.046,253.21 49.438,261.28 54.078,268.22"];
	29	[height=0.5,
		pos="148.67,162.53",
		width=0.75];
	28 -- 29	[pos="49.353,218.08 71.428,205.73 105.98,186.41 127.96,174.11"];
	9	[height=0.5,
		pos="673.47,398.58",
		width=0.75];
	8 -- 9	[pos="626.34,318.42 636.75,336.13 653.01,363.78 663.46,381.54"];
	8 -- 14	[pos="602.53,317.19 590.64,330.63 573.6,349.89 561.72,363.33"];
	35	[height=0.5,
		pos="70.583,421.4",
		width=0.75];
	30 -- 35	[pos="65.804,302.83 66.858,328.98 68.793,376.98 69.848,403.17"];
	30 -- 31	[pos="90.941,278.92 126.49,271.01 190.04,256.86 225.47,248.97"];
	12	[height=0.5,
		pos="608.52,509.69",
		width=0.75];
	9 -- 12	[pos="663.61,415.45 651.4,436.34 630.73,471.7 618.48,492.66"];
	36	[height=0.5,
		pos="176.97,511.95",
		width=0.75];
	35 -- 36	[pos="87.675,435.95 107.65,452.95 140.47,480.88 160.27,497.74"];
	11 -- 17	[pos="475.52,547.82 462.88,531.06 443.41,505.25 430.82,488.55"];
	11 -- 12	[pos="510.33,554.13 531.85,544.39 564.21,529.75 585.83,519.96"];
	17 -- 21	[pos="394.14,479.99 376.38,485.63 352.41,493.25 334.58,498.92"];
	18	[height=0.5,
		pos="451.46,338.46",
		width=0.75];
	17 -- 18	[pos="422.89,454.48 429.19,428.89 440.76,381.93 447.07,356.3"];
	21 -- 36	[pos="282.69,507.83 259.75,508.72 227.09,509.99 204.15,510.89"];
	22	[height=0.5,
		pos="328.32,414.71",
		width=0.75];
	21 -- 22	[pos="313.55,488.58 316.78,472.44 321.46,448.99 324.69,432.86"];
	15	[height=0.5,
		pos="572.74,436.93",
		width=0.75];
	12 -- 15	[pos="600.04,492.45 594.34,480.85 586.85,465.62 581.16,454.05"];
	36 -- 37	[pos="171.16,529.62 169.02,536.14 166.59,543.52 164.44,550.05"];
	14 -- 15	[pos="555.33,396.37 558.48,403.7 562.14,412.22 565.28,419.56"];
	14 -- 18	[pos="525.02,369.38 509.77,362.96 489.77,354.56 474.48,348.13"];
	19	[height=0.5,
		pos="451.74,401.46",
		width=0.75];
	15 -- 19	[pos="547.96,429.67 527.08,423.55 497.35,414.83 476.48,408.71"];
	38	[height=0.5,
		pos="132.8,406.05",
		width=0.75];
	37 -- 38	[pos="155.75,549.87 150.79,518.78 140.65,455.2 135.68,424.06"];
	24 -- 38	[pos="155.61,437.09 152.15,432.39 148.38,427.25 144.91,422.53"];
	25	[height=0.5,
		pos="212.27,370.08",
		width=0.75];
	24 -- 25	[pos="176.83,436.12 184.56,421.73 195.49,401.34 203.17,387.03"];
	18 -- 19	[pos="451.54,356.68 451.58,364.97 451.62,374.75 451.66,383.06"];
	33	[height=0.5,
		pos="399.78,223.64",
		width=0.75];
	18 -- 33	[pos="443.62,321.02 433.9,299.44 417.45,262.9 407.71,241.24"];
	19 -- 22	[pos="424.96,404.33 404.26,406.56 375.73,409.62 355.05,411.84"];
	39	[height=0.5,
		pos="189.08,258.38",
		width=0.75];
	38 -- 39	[pos="139.48,388.53 150.31,360.11 171.59,304.28 182.41,275.88"];
	31 -- 39	[pos="225.53,249.5 221.92,250.38 218.22,251.28 214.61,252.16"];
	31 -- 32	[pos="270.35,230.36 284.7,220.72 304.24,207.61 318.59,197.98"];
	22 -- 25	[pos="304.83,405.68 284.7,397.94 255.84,386.84 235.72,379.1"];
	39 -- 40	[pos="198.67,241.47 208.72,223.75 224.4,196.08 234.48,178.32"];
	25 -- 27	[pos="197.03,355.16 181.62,340.05 157.93,316.83 142.46,301.67"];
	41	[height=0.5,
		pos="368.82,94.394",
		width=0.75];
	40 -- 41	[pos="265.29,149.93 288.22,137.63 324.6,118.11 347.57,105.79"];
	32 -- 41	[pos="343.9,167.19 349.38,151.18 357.36,127.87 362.8,111.97"];
	32 -- 33	[pos="357.73,197.52 364.81,201.92 372.78,206.86 379.86,211.26"];
	27 -- 29	[pos="130.21,268.56 134.31,245.03 141.43,204.12 145.53,180.59"];
	41 -- 42	[pos="396.05,95.576 421.5,96.681 459.28,98.321 484.69,99.425"];
	34	[height=0.5,
		pos="285.4,117.24",
		width=0.75];
	29 -- 34	[pos="173.12,154.43 198.01,146.19 236.36,133.48 261.17,125.26"];
	43	[height=0.5,
		pos="445.91,93.31",
		width=0.75];
	42 -- 43	[pos="485.01,97.637 481.02,97.195 476.91,96.74 472.91,96.297"];
	33 -- 34	[pos="383.88,208.85 362.03,188.52 322.95,152.17 301.17,131.91"];
	33 -- 43	[pos="406.01,206.06 414.81,181.19 430.81,135.97 439.64,111.02"];
	44	[height=0.5,
		pos="346.74,18",
		width=0.75];
	34 -- 44	[pos="295.81,100.4 307.09,82.155 324.99,53.198 336.29,34.917"];
	43 -- 44	[pos="427.72,79.497 409.83,65.909 382.67,45.283 364.82,31.725"];
}
