graph {
	graph [bb="0,0,1047.5,829.61",
		outputorder=edgesfirst,
		overlap=prism,
		size="50,50!",
		start=8602
	];
	node [label="\N"];
	0	[height=0.5,
		pos="572.22,209",
		width=0.75];
	37	[height=0.5,
		pos="485.59,79.274",
		width=0.75];
	0 -- 37	[pos="561.08,192.31 544.44,167.4 513.31,120.78 496.7,95.905"];
	2	[height=0.5,
		pos="646.45,379.53",
		width=0.75];
	0 -- 2	[pos="579.75,226.29 593.98,258.98 624.67,329.47 638.91,362.19"];
	25	[height=0.5,
		pos="481.3,350.05",
		width=0.75];
	0 -- 25	[pos="561.44,225.74 543.94,252.88 509.56,306.21 492.07,333.34"];
	3	[height=0.5,
		pos="770.53,376.44",
		width=0.75];
	0 -- 3	[pos="589.13,223.28 626.6,254.91 716.24,330.6 753.66,362.2"];
	4	[height=0.5,
		pos="461.09,305.92",
		width=0.75];
	0 -- 4	[pos="555.35,223.72 534.34,242.04 498.68,273.14 477.77,291.38"];
	5	[height=0.5,
		pos="538.93,143.76",
		width=0.75];
	0 -- 5	[pos="563.48,191.86 558.62,182.35 552.6,170.55 547.74,161.01"];
	18	[height=0.5,
		pos="598.7,92.626",
		width=0.75];
	0 -- 18	[pos="576.3,191.07 581.26,169.27 589.59,132.67 594.57,110.77"];
	62	[height=0.5,
		pos="463.71,175.92",
		width=0.75];
	0 -- 62	[pos="547.6,201.5 529.97,196.12 506.31,188.91 488.61,183.51"];
	9	[height=0.5,
		pos="634.49,217.43",
		width=0.75];
	0 -- 9	[pos="598.99,212.63 601.89,213.02 604.84,213.42 607.74,213.81"];
	34	[height=0.5,
		pos="689.22,302.84",
		width=0.75];
	0 -- 34	[pos="589.49,222.85 611.61,240.59 649.73,271.17 671.89,288.94"];
	12	[height=0.5,
		pos="393.76,188.7",
		width=0.75];
	0 -- 12	[pos="545.51,205.96 511.86,202.14 454.39,195.6 420.66,191.76"];
	20	[height=0.5,
		pos="388.24,254.01",
		width=0.75];
	0 -- 20	[pos="546.64,215.26 511.49,223.86 448.64,239.23 413.61,247.8"];
	39	[height=0.5,
		pos="520.05,31.464",
		width=0.75];
	0 -- 39	[pos="567.03,191.33 557.06,157.39 535.32,83.422 525.3,49.329"];
	49	[height=0.5,
		pos="455.79,228.63",
		width=0.75];
	0 -- 49	[pos="545.8,213.46 526.75,216.67 501.14,220.98 482.11,224.19"];
	64	[height=0.5,
		pos="734.67,258.08",
		width=0.75];
	0 -- 64	[pos="596.9,216.46 627.52,225.71 679.43,241.39 710.03,250.64"];
	28	[height=0.5,
		pos="706.17,61.352",
		width=0.75];
	0 -- 28	[pos="586.31,193.48 611.96,165.2 666.06,105.57 691.88,77.11"];
	71	[height=0.5,
		pos="582.11,24.484",
		width=0.75];
	0 -- 71	[pos="573.19,190.98 575.08,155.7 579.25,77.92 581.14,42.586"];
	54	[height=0.5,
		pos="683.46,149.41",
		width=0.75];
	0 -- 54	[pos="593.41,197.65 613.2,187.05 642.58,171.31 662.35,160.72"];
	35	[height=0.5,
		pos="644.17,18",
		width=0.75];
	0 -- 35	[pos="578.86,191.38 592.57,154.99 623.85,71.935 637.54,35.584"];
	57	[height=0.5,
		pos="544.03,307.92",
		width=0.75];
	0 -- 57	[pos="567.05,227.15 561.93,245.1 554.15,272.42 549.07,290.22"];
	77	[height=0.5,
		pos="627.16,269.56",
		width=0.75];
	0 -- 77	[pos="586.37,224.6 594.51,233.57 604.71,244.81 612.87,253.81"];
	37 -- 62	[pos="481.47,97.452 477.56,114.73 471.71,140.57 467.81,157.82"];
	1	[height=0.5,
		pos="593.15,423.55",
		width=0.75];
	67	[height=0.5,
		pos="698.34,435.66",
		width=0.75];
	1 -- 67	[pos="619.97,426.64 635.79,428.46 655.75,430.75 671.57,432.58"];
	1 -- 2	[pos="610.31,409.38 616.4,404.35 623.24,398.7 629.33,393.67"];
	1 -- 3	[pos="618.56,416.8 652.28,407.84 711.46,392.12 745.16,383.17"];
	8	[height=0.5,
		pos="734.78,479.69",
		width=0.75];
	1 -- 8	[pos="616.54,432.82 642.78,443.22 685.1,460 711.36,470.41"];
	1 -- 4	[pos="576.96,409.12 551.61,386.55 502.85,343.11 477.42,320.46"];
	36	[height=0.5,
		pos="439.88,394.19",
		width=0.75];
	1 -- 36	[pos="567.15,418.57 538.97,413.17 494.24,404.61 466.01,399.2"];
	10	[height=0.5,
		pos="712.89,544.53",
		width=0.75];
	1 -- 10	[pos="608.31,438.87 631.35,462.14 674.89,506.13 697.84,529.33"];
	1 -- 9	[pos="596.75,405.62 604.56,366.64 623.03,274.55 630.87,235.47"];
	1 -- 34	[pos="606.11,407.27 624.54,384.1 658.15,341.89 676.47,318.87"];
	41	[height=0.5,
		pos="591.39,600.57",
		width=0.75];
	1 -- 41	[pos="592.97,441.83 592.63,475.84 591.91,548.46 591.57,582.39"];
	43	[height=0.5,
		pos="653.58,593.48",
		width=0.75];
	1 -- 43	[pos="599.39,441.09 610.97,473.66 635.66,543.09 647.29,575.78"];
	52	[height=0.5,
		pos="578.89,493.31",
		width=0.75];
	1 -- 52	[pos="589.48,441.51 587.36,451.85 584.72,464.8 582.6,475.17"];
	23	[height=0.5,
		pos="711.07,213.4",
		width=0.75];
	1 -- 23	[pos="602.8,406.35 624.97,366.85 679.31,269.99 701.45,230.54"];
	50	[height=0.5,
		pos="777.61,212.76",
		width=0.75];
	1 -- 50	[pos="607.01,407.7 641.28,368.55 729.66,267.55 763.84,228.5"];
	73	[height=0.5,
		pos="565.09,263.88",
		width=0.75];
	1 -- 73	[pos="589.98,405.54 584.59,374.88 573.69,312.85 568.28,282.06"];
	29	[height=0.5,
		pos="649.47,511.11",
		width=0.75];
	1 -- 29	[pos="604.01,440.43 613.98,455.94 628.68,478.79 638.64,494.28"];
	44	[height=0.5,
		pos="407.04,452.05",
		width=0.75];
	1 -- 44	[pos="566.48,427.63 531.11,433.05 469.01,442.56 433.66,447.97"];
	53	[height=0.5,
		pos="553.45,556.54",
		width=0.75];
	1 -- 53	[pos="587.88,441.21 580.29,466.64 566.35,513.33 558.75,538.81"];
	74	[height=0.5,
		pos="531.1,424.56",
		width=0.75];
	1 -- 74	[pos="566.12,423.99 563.5,424.03 560.85,424.08 558.24,424.12"];
	58	[height=0.5,
		pos="491.19,560.68",
		width=0.75];
	1 -- 58	[pos="581.05,439.82 561.43,466.21 522.89,518.05 503.27,544.43"];
	1 -- 77	[pos="597.12,405.58 603.67,375.91 616.68,317.01 623.22,287.41"];
	65	[height=0.5,
		pos="458.26,516.64",
		width=0.75];
	1 -- 65	[pos="574.11,436.69 548.4,454.43 502.86,485.86 477.2,503.57"];
	79	[height=0.5,
		pos="708.48,351.75",
		width=0.75];
	1 -- 79	[pos="612.97,411.21 634.1,398.06 667.35,377.35 688.53,364.17"];
	2 -- 25	[pos="620.28,374.86 589.45,369.35 538.52,360.26 507.62,354.75"];
	2 -- 3	[pos="673.68,378.85 694.37,378.33 722.69,377.63 743.36,377.11"];
	2 -- 4	[pos="622.98,370.2 587.32,356.05 519.92,329.28 484.38,315.17"];
	7	[height=0.5,
		pos="781.49,533.27",
		width=0.75];
	2 -- 7	[pos="660.15,395.11 686.03,424.58 741.85,488.14 767.76,517.64"];
	17	[height=0.5,
		pos="832.55,349.41",
		width=0.75];
	2 -- 17	[pos="672.72,375.28 708.09,369.55 770.66,359.43 806.12,353.69"];
	2 -- 52	[pos="636.48,396.32 623.71,417.83 601.69,454.91 588.9,476.46"];
	22	[height=0.5,
		pos="828.48,281.42",
		width=0.75];
	2 -- 22	[pos="667.69,368.08 702.77,349.18 772.39,311.65 807.38,292.8"];
	26	[height=0.5,
		pos="833.33,413.94",
		width=0.75];
	2 -- 26	[pos="672.83,384.38 708.45,390.94 771.54,402.56 807.09,409.11"];
	46	[height=0.5,
		pos="469.08,438.34",
		width=0.75];
	2 -- 46	[pos="622.16,387.58 588.29,398.81 527.23,419.06 493.36,430.29"];
	2 -- 64	[pos="658.35,363.15 675.19,339.97 705.79,297.84 722.68,274.59"];
	2 -- 29	[pos="646.87,397.55 647.44,422.6 648.47,467.72 649.05,492.89"];
	2 -- 74	[pos="623.11,388.64 603.1,396.45 574.42,407.65 554.41,415.46"];
	2 -- 57	[pos="627.67,366.39 609.19,353.47 581.14,333.86 562.7,320.97"];
	25 -- 49	[pos="477.53,332.14 472.71,309.18 464.4,269.61 459.57,246.62"];
	25 -- 46	[pos="478.76,368.35 476.65,383.6 473.66,405.21 471.56,420.37"];
	25 -- 57	[pos="500.46,337.18 508.24,331.95 517.21,325.93 524.98,320.71"];
	3 -- 67	[pos="753.42,390.47 742.08,399.77 727.24,411.95 715.83,421.31"];
	3 -- 8	[pos="764.3,394.42 757.74,413.37 747.47,443.04 740.94,461.91"];
	3 -- 7	[pos="771.78,394.43 773.89,424.52 778.09,484.73 780.21,515.01"];
	3 -- 10	[pos="764.47,394.11 753.4,426.39 730.02,494.55 718.95,526.84"];
	3 -- 17	[pos="793.27,366.53 798.66,364.18 804.42,361.67 809.81,359.32"];
	3 -- 34	[pos="754.46,361.9 740.21,349 719.5,330.25 705.25,317.35"];
	19	[height=0.5,
		pos="853.26,519.35",
		width=0.75];
	3 -- 19	[pos="780.34,393.39 796.27,420.9 827.54,474.92 843.46,502.41"];
	13	[height=0.5,
		pos="891.07,236.27",
		width=0.75];
	3 -- 13	[pos="784.12,360.63 807.27,333.71 854.1,279.26 877.34,252.23"];
	42	[height=0.5,
		pos="946.36,280.29",
		width=0.75];
	3 -- 42	[pos="791.74,364.84 825.62,346.31 891.59,310.24 925.35,291.78"];
	3 -- 22	[pos="780.89,359.45 791.44,342.16 807.69,315.5 818.21,298.26"];
	24	[height=0.5,
		pos="894.57,324.32",
		width=0.75];
	3 -- 24	[pos="793.57,366.76 815.85,357.39 849.41,343.29 871.65,333.95"];
	3 -- 26	[pos="790.74,388.51 797.92,392.79 805.98,397.61 813.15,401.89"];
	31	[height=0.5,
		pos="873.78,475.3",
		width=0.75];
	3 -- 31	[pos="786.21,391.45 805.73,410.14 838.86,441.86 858.29,460.47"];
	3 -- 64	[pos="765.16,358.72 758.4,336.41 746.85,298.29 740.07,275.92"];
	38	[height=0.5,
		pos="942.78,456.54",
		width=0.75];
	3 -- 38	[pos="792.69,386.75 825.68,402.08 887.33,430.76 920.43,446.15"];
	47	[height=0.5,
		pos="947.33,368.44",
		width=0.75];
	3 -- 47	[pos="797.76,375.21 831.08,373.7 887.15,371.16 920.35,369.66"];
	40	[height=0.5,
		pos="929.75,412.5",
		width=0.75];
	3 -- 40	[pos="796.11,382.23 825.73,388.94 874.26,399.93 903.97,406.66"];
	48	[height=0.5,
		pos="877.97,192.27",
		width=0.75];
	3 -- 48	[pos="780.44,359.44 800.91,324.36 847.63,244.27 868.08,209.22"];
	8 -- 67	[pos="721.63,463.79 718.36,459.85 714.87,455.63 711.6,451.68"];
	8 -- 10	[pos="728.8,497.41 725.71,506.56 721.95,517.69 718.86,526.83"];
	4 -- 25	[pos="469.08,323.36 470.49,326.45 471.96,329.66 473.37,332.74"];
	4 -- 5	[pos="469.42,288.56 484.41,257.35 515.72,192.11 530.66,160.99"];
	4 -- 36	[pos="456.8,323.78 453.12,339.1 447.85,361.05 444.17,376.36"];
	6	[height=0.5,
		pos="310.58,306",
		width=0.75];
	4 -- 6	[pos="433.84,305.93 406.56,305.95 364.84,305.97 337.64,305.98"];
	4 -- 62	[pos="461.46,287.84 461.95,263.15 462.84,219.1 463.34,194.26"];
	4 -- 9	[pos="482.7,294.89 516.02,277.89 579.56,245.46 612.88,228.46"];
	4 -- 12	[pos="451.3,288.87 438.54,266.65 416.33,228 403.56,205.77"];
	4 -- 20	[pos="442.33,292.55 431.46,284.8 417.81,275.07 406.94,267.33"];
	32	[height=0.5,
		pos="476.86,123.32",
		width=0.75];
	4 -- 32	[pos="462.66,287.74 465.69,252.74 472.28,176.37 475.3,141.42"];
	4 -- 49	[pos="459.84,287.6 458.99,275.28 457.88,259.11 457.04,246.81"];
	4 -- 46	[pos="462.19,324.05 463.71,349.27 466.44,394.67 467.97,420"];
	4 -- 73	[pos="484.43,296.48 501.56,289.56 524.72,280.2 541.83,273.28"];
	4 -- 44	[pos="454.57,323.55 444.19,351.63 423.99,406.23 413.59,434.36"];
	4 -- 74	[pos="471.13,322.92 484.43,345.47 507.79,385.06 521.09,407.59"];
	5 -- 18	[pos="555.58,129.52 563.73,122.54 573.53,114.16 581.73,107.15"];
	5 -- 62	[pos="515.95,153.58 506.62,157.57 495.86,162.17 486.55,166.16"];
	5 -- 9	[pos="556.9,157.62 573.99,170.79 599.54,190.49 616.59,203.64"];
	5 -- 32	[pos="514.4,135.68 510.06,134.25 505.55,132.77 501.21,131.34"];
	5 -- 71	[pos="545.3,126.16 553.47,103.61 567.54,64.741 575.71,42.156"];
	18 -- 32	[pos="573.16,99.06 552.36,104.3 523.15,111.66 502.37,116.89"];
	18 -- 28	[pos="623.63,85.372 640.99,80.32 664.05,73.61 681.38,68.566"];
	18 -- 71	[pos="594.34,74.722 591.92,64.785 588.92,52.46 586.5,42.504"];
	18 -- 35	[pos="609.02,75.692 616.46,63.479 626.46,47.064 633.89,34.867"];
	36 -- 73	[pos="454.49,378.99 478.49,354.01 526,304.56 550.18,279.39"];
	36 -- 44	[pos="430.21,411.24 425.97,418.7 421.01,427.45 416.76,434.92"];
	6 -- 12	[pos="322.15,289.69 337.95,267.4 366.13,227.66 382.02,205.25"];
	6 -- 20	[pos="329.78,293.14 341.73,285.15 357.04,274.9 369,266.89"];
	15	[height=0.5,
		pos="272.55,207.83",
		width=0.75];
	6 -- 15	[pos="303.78,288.45 296.9,270.69 286.32,243.38 279.42,225.56"];
	68	[height=0.5,
		pos="246.48,299.61",
		width=0.75];
	6 -- 68	[pos="283.77,303.33 280.34,302.98 276.83,302.63 273.39,302.29"];
	30	[height=0.5,
		pos="233.29,163.77",
		width=0.75];
	6 -- 30	[pos="301.26,288.84 286.4,261.5 257.53,208.36 242.65,180.99"];
	21	[height=0.5,
		pos="276.59,119.72",
		width=0.75];
	6 -- 21	[pos="307.26,287.8 300.75,252.09 286.36,173.26 279.87,137.72"];
	45	[height=0.5,
		pos="164.66,319.85",
		width=0.75];
	6 -- 45	[pos="283.82,308.54 257.65,311.02 218.03,314.78 191.75,317.28"];
	72	[height=0.5,
		pos="155.37,272.34",
		width=0.75];
	6 -- 72	[pos="284.6,300.36 255.86,294.13 209.84,284.15 181.17,277.93"];
	56	[height=0.5,
		pos="157.21,383.98",
		width=0.75];
	6 -- 56	[pos="288.93,317 259.7,331.87 207.92,358.2 178.75,373.03"];
	78	[height=0.5,
		pos="219.21,420.41",
		width=0.75];
	6 -- 78	[pos="297.88,321.91 280.52,343.64 249.55,382.41 232.1,404.27"];
	7 -- 10	[pos="755.16,537.59 750.02,538.43 744.63,539.32 739.48,540.16"];
	7 -- 19	[pos="807.81,528.16 814.05,526.95 820.71,525.66 826.95,524.45"];
	14	[height=0.5,
		pos="715.78,653.78",
		width=0.75];
	7 -- 14	[pos="772.21,550.28 759.69,573.25 737.51,613.93 725.01,636.85"];
	11	[height=0.5,
		pos="777.91,660.15",
		width=0.75];
	7 -- 11	[pos="780.97,551.45 780.29,575.57 779.1,617.9 778.42,642"];
	27	[height=0.5,
		pos="834.75,704.15",
		width=0.75];
	7 -- 27	[pos="786.99,550.91 797.19,583.66 818.96,653.48 829.2,686.35"];
	55	[height=0.5,
		pos="877.38,656.01",
		width=0.75];
	7 -- 55	[pos="794.02,549.32 812.4,572.84 846.46,616.44 864.84,639.96"];
	7 -- 26	[pos="789.02,515.92 798.85,493.29 815.95,453.95 825.78,431.31"];
	7 -- 31	[pos="801.51,520.69 817.1,510.9 838.62,497.39 854.11,487.65"];
	7 -- 29	[pos="755.09,528.84 732.06,524.97 698.83,519.4 675.82,515.53"];
	51	[height=0.5,
		pos="957.04,571.99",
		width=0.75];
	7 -- 51	[pos="807.39,538.98 840.68,546.32 898.12,558.99 931.32,566.31"];
	10 -- 14	[pos="713.36,562.57 713.9,582.81 714.77,615.46 715.3,635.71"];
	10 -- 11	[pos="722.48,561.59 734.77,583.45 755.96,621.12 768.28,643.02"];
	10 -- 43	[pos="695.73,558.69 687.93,565.13 678.72,572.73 670.9,579.18"];
	69	[height=0.5,
		pos="682.23,718.42",
		width=0.75];
	10 -- 69	[pos="709.72,562.48 703.85,595.8 691.32,666.86 685.43,700.3"];
	10 -- 53	[pos="685.84,546.57 656.43,548.78 609.72,552.3 580.36,554.51"];
	76	[height=0.5,
		pos="620.08,697.73",
		width=0.75];
	10 -- 76	[pos="702.6,561.51 684.76,590.96 648.28,651.17 630.41,680.67"];
	9 -- 18	[pos="629.36,199.55 622.56,175.83 610.62,134.18 603.82,110.47"];
	59	[height=0.5,
		pos="795.92,65.256",
		width=0.75];
	9 -- 59	[pos="650.26,202.57 681.2,173.4 749.52,109 780.32,79.961"];
	9 -- 32	[pos="614.2,205.32 583.94,187.25 527.29,153.43 497.07,135.39"];
	9 -- 23	[pos="661.7,216 668.92,215.62 676.72,215.21 683.94,214.83"];
	9 -- 50	[pos="661.74,216.54 687.21,215.71 725.02,214.48 750.46,213.65"];
	9 -- 73	[pos="615.16,230.37 605.53,236.81 593.93,244.58 584.31,251.01"];
	9 -- 54	[pos="646.34,200.97 654.04,190.27 664.03,176.39 671.71,165.72"];
	9 -- 77	[pos="631.97,235.37 631.24,240.56 630.44,246.22 629.71,251.41"];
	61	[height=0.5,
		pos="733.58,105.39",
		width=0.75];
	9 -- 61	[pos="648.27,201.86 667.09,180.57 700.67,142.61 719.6,121.2"];
	59 -- 61	[pos="776.2,77.956 768.92,82.642 760.68,87.949 753.39,92.639"];
	63	[height=0.5,
		pos="874.84,74.546",
		width=0.75];
	59 -- 63	[pos="822.64,68.401 830.87,69.37 839.92,70.436 848.15,71.404"];
	70	[height=0.5,
		pos="1020.5,325.82",
		width=0.75];
	17 -- 70	[pos="859.48,346.03 895.32,341.54 958.29,333.63 993.95,329.16"];
	17 -- 22	[pos="831.46,331.19 830.88,321.44 830.16,309.46 829.58,299.69"];
	17 -- 26	[pos="832.77,367.73 832.88,376.52 833.01,387.03 833.11,395.8"];
	34 -- 54	[pos="688.54,284.64 687.43,255.11 685.25,197.1 684.14,167.59"];
	34 -- 77	[pos="667.87,291.39 661.55,288.01 654.65,284.3 648.35,280.92"];
	34 -- 79	[pos="696.18,320.5 697.94,324.99 699.84,329.81 701.6,334.29"];
	41 -- 43	[pos="618.13,597.52 621.02,597.19 623.97,596.86 626.87,596.53"];
	41 -- 52	[pos="589.27,582.38 586.97,562.65 583.32,531.36 581.02,511.6"];
	41 -- 58	[pos="568.15,591.32 552.08,584.92 530.77,576.44 514.66,570.02"];
	19 -- 31	[pos="861.37,501.94 862.81,498.86 864.3,495.66 865.73,492.58"];
	19 -- 38	[pos="872.25,506.03 887.54,495.3 908.93,480.29 924.13,469.63"];
	19 -- 40	[pos="865.21,502.65 879.58,482.58 903.55,449.1 917.88,429.08"];
	19 -- 51	[pos="874.77,530.25 892.46,539.23 917.43,551.89 935.21,560.91"];
	14 -- 41	[pos="692.97,644.02 670.66,634.48 636.88,620.03 614.48,610.45"];
	14 -- 27	[pos="738.72,663.49 759.79,672.41 790.84,685.56 811.89,694.47"];
	75	[height=0.5,
		pos="764.14,811.61",
		width=0.75];
	14 -- 75	[pos="721.23,671.58 730.52,701.89 749.31,763.2 758.63,793.63"];
	14 -- 43	[pos="700.41,638.87 690.91,629.67 678.76,617.89 669.21,608.63"];
	14 -- 69	[pos="706.79,671.1 701.98,680.38 696.07,691.77 691.25,701.05"];
	14 -- 55	[pos="742.83,654.15 772.66,654.57 820.38,655.22 850.25,655.64"];
	14 -- 29	[pos="707.78,636.57 695.04,609.15 670.26,555.84 657.5,528.38"];
	14 -- 76	[pos="693.1,664.19 677.85,671.2 657.82,680.4 642.6,687.39"];
	11 -- 14	[pos="751.2,657.41 748.31,657.11 745.36,656.81 742.47,656.51"];
	11 -- 27	[pos="795.59,673.83 802.36,679.08 810.1,685.07 816.9,690.33"];
	11 -- 75	[pos="776.28,678.12 773.64,707.11 768.47,763.91 765.81,793.19"];
	11 -- 69	[pos="757.62,672.5 741.38,682.39 718.72,696.19 702.49,706.08"];
	27 -- 75	[pos="823.72,720.94 810.45,741.13 788.33,774.8 775.09,794.94"];
	27 -- 55	[pos="848.71,688.39 853.47,683.02 858.79,677.01 863.54,671.65"];
	12 -- 37	[pos="407.31,172.56 424.77,151.75 454.94,115.8 472.28,95.131"];
	12 -- 62	[pos="419.8,183.94 425.55,182.89 431.65,181.78 437.41,180.73"];
	12 -- 20	[pos="392.22,206.89 391.46,215.95 390.53,226.87 389.77,235.91"];
	12 -- 15	[pos="367.46,192.85 347.27,196.04 319.5,200.42 299.22,203.62"];
	12 -- 30	[pos="367.26,184.59 337.53,179.97 289.58,172.52 259.83,167.9"];
	12 -- 21	[pos="373.35,176.69 351.97,164.1 318.59,144.45 297.16,131.83"];
	60	[height=0.5,
		pos="339.77,27.605",
		width=0.75];
	12 -- 60	[pos="387.77,170.85 377.4,139.88 356.18,76.563 345.78,45.54"];
	33	[height=0.5,
		pos="324.22,75.706",
		width=0.75];
	12 -- 33	[pos="383.5,172.03 370.35,150.67 347.69,113.84 334.53,92.447"];
	20 -- 68	[pos="363.87,261.85 337.91,270.2 297.03,283.35 271.01,291.72"];
	20 -- 33	[pos="381.87,236.26 369.6,202.08 342.82,127.5 330.57,93.382"];
	13 -- 42	[pos="908.57,250.2 915.02,255.34 922.33,261.16 928.79,266.3"];
	13 -- 70	[pos="909.89,249.29 934.44,266.27 977.12,295.8 1001.7,312.79"];
	13 -- 22	[pos="872.63,249.57 864.55,255.4 855.09,262.22 847.01,268.06"];
	13 -- 26	[pos="885.32,253.95 874.26,288.01 850.1,362.33 839.06,396.33"];
	42 -- 48	[pos="933.82,264.14 921.48,248.26 902.75,224.16 890.44,208.31"];
	15 -- 20	[pos="295.96,217.18 316.04,225.19 344.81,236.67 364.87,244.68"];
	15 -- 68	[pos="267.53,225.53 262.94,241.68 256.19,265.43 251.58,281.66"];
	15 -- 30	[pos="258.38,191.93 254.78,187.88 250.91,183.54 247.31,179.51"];
	15 -- 21	[pos="273.39,189.58 274.08,174.45 275.06,153.07 275.75,137.96"];
	15 -- 60	[pos="279.12,190.22 291.97,155.77 320.31,79.797 333.18,45.285"];
	15 -- 33	[pos="279.41,190.29 289.3,165.01 307.44,118.63 317.33,93.323"];
	15 -- 45	[pos="257.55,223.41 236.94,244.81 200.08,283.08 179.54,304.41"];
	68 -- 72	[pos="221.59,292.16 208.73,288.31 193.09,283.63 180.24,279.78"];
	68 -- 78	[pos="242.46,317.44 237.3,340.28 228.41,379.64 223.25,402.52"];
	16	[height=0.5,
		pos="34.898,405.88",
		width=0.75];
	66	[height=0.5,
		pos="27,300.92",
		width=0.75];
	16 -- 66	[pos="33.522,387.59 32.073,368.33 29.804,338.18 28.36,318.99"];
	16 -- 45	[pos="54.046,393.18 78.58,376.92 120.87,348.89 145.44,332.6"];
	16 -- 56	[pos="61.136,401.18 81.773,397.49 110.39,392.36 131.01,388.67"];
	66 -- 72	[pos="52.669,295.2 75.057,290.22 107.37,283.02 129.74,278.04"];
	43 -- 53	[pos="629.85,584.73 614.01,578.88 593.24,571.22 577.36,565.36"];
	43 -- 58	[pos="627.49,588.21 597.19,582.09 547.5,572.05 517.22,565.94"];
	43 -- 76	[pos="647.9,611.17 641.74,630.33 631.96,660.75 625.79,679.96"];
	69 -- 75	[pos="696.13,734.23 711.28,751.47 735.38,778.88 750.45,796.03"];
	22 -- 70	[pos="854.38,287.41 891.14,295.91 958.03,311.38 994.73,319.86"];
	22 -- 26	[pos="829.15,299.57 830.07,324.81 831.73,370.24 832.66,395.58"];
	22 -- 64	[pos="802.85,275.05 789.61,271.75 773.51,267.75 760.27,264.45"];
	21 -- 30	[pos="261.45,135.13 257.16,139.5 252.49,144.25 248.21,148.6"];
	39 -- 71	[pos="546.73,28.464 549.62,28.138 552.56,27.807 555.45,27.482"];
	23 -- 59	[pos="720.8,196.41 737.08,167.98 769.66,111.11 786.04,82.509"];
	23 -- 50	[pos="738.13,213.14 742.16,213.1 746.32,213.06 750.35,213.02"];
	23 -- 73	[pos="686.96,221.74 659.91,231.09 616.29,246.17 589.23,255.53"];
	23 -- 61	[pos="714.79,195.57 718.96,175.56 725.69,143.28 729.86,123.26"];
	23 -- 63	[pos="727.98,199.07 759.36,172.46 826.28,115.72 857.77,89.013"];
	50 -- 59	[pos="779.86,194.67 783.37,166.36 790.13,111.89 793.66,83.491"];
	50 -- 61	[pos="770.34,195.03 762.13,175.02 748.87,142.67 740.72,122.79"];
	50 -- 63	[pos="789.15,196.36 807.86,169.76 844.62,117.51 863.32,90.922"];
	24 -- 42	[pos="911.24,310.14 917.04,305.22 923.54,299.69 929.36,294.74"];
	24 -- 26	[pos="883.33,340.76 872.35,356.83 855.72,381.16 844.7,397.3"];
	24 -- 48	[pos="892.29,306.23 889.13,281.09 883.45,235.81 880.27,210.56"];
	26 -- 42	[pos="846.74,398.08 868.5,372.36 911.23,321.83 932.97,296.13"];
	26 -- 70	[pos="855.54,403.48 891.57,386.53 962.34,353.21 998.34,336.26"];
	26 -- 31	[pos="844.38,430.71 850.09,439.36 857.04,449.9 862.74,458.55"];
	31 -- 38	[pos="899.08,468.42 905.08,466.79 911.48,465.05 917.48,463.42"];
	31 -- 47	[pos="885.27,458.6 899.09,438.53 922.14,405.04 935.92,385.02"];
	31 -- 51	[pos="887.53,491.27 903.05,509.29 928.14,538.42 943.55,556.32"];
	49 -- 57	[pos="471.98,243.17 487.8,257.39 511.76,278.92 527.65,293.2"];
	46 -- 57	[pos="478.87,421.29 493.24,396.29 519.86,349.97 534.23,324.97"];
	28 -- 35	[pos="687.23,48.109 679.54,42.731 670.67,36.532 662.99,31.161"];
	29 -- 41	[pos="638.55,527.94 628.16,543.93 612.63,567.85 602.27,583.82"];
	29 -- 43	[pos="650.38,529.39 651.06,543.04 651.99,561.61 652.67,575.25"];
	29 -- 52	[pos="623.99,504.69 617.67,503.09 610.9,501.39 604.57,499.79"];
	38 -- 47	[pos="943.72,438.29 944.5,423.17 945.61,401.79 946.39,386.67"];
	38 -- 40	[pos="937.56,438.88 936.71,436.01 935.83,433.04 934.98,430.16"];
	38 -- 51	[pos="945.01,474.58 947.67,496.14 952.11,532.02 954.78,553.69"];
	33 -- 60	[pos="329.93,58.068 331.28,53.885 332.72,49.423 334.07,45.24"];
	54 -- 77	[pos="675.39,166.62 664.69,189.46 645.91,229.55 635.21,252.38"];
	54 -- 79	[pos="685.68,167.37 690.41,205.67 701.46,295.02 706.23,333.55"];
	35 -- 39	[pos="617.24,20.922 596.42,23.18 567.74,26.292 546.93,28.549"];
	35 -- 71	[pos="617.49,20.787 614.73,21.076 611.92,21.369 609.16,21.658"];
	40 -- 51	[pos="932.83,430.49 938.07,461.12 948.67,523.07 953.93,553.82"];
	53 -- 58	[pos="526.33,558.34 523.71,558.52 521.05,558.69 518.42,558.87"];
	53 -- 76	[pos="561.62,573.85 574.41,600.95 599.02,653.09 611.84,680.27"];
	53 -- 65	[pos="530.41,546.88 515.55,540.65 496.3,532.58 481.42,526.35"];
	45 -- 68	[pos="190.1,313.56 199.95,311.12 211.21,308.34 221.06,305.9"];
	45 -- 66	[pos="138.12,316.2 113.74,312.85 77.813,307.91 53.462,304.56"];
	45 -- 72	[pos="161.15,301.89 160.41,298.1 159.63,294.11 158.89,290.33"];
	45 -- 56	[pos="162.55,338.06 161.53,346.8 160.32,357.24 159.3,365.95"];
	45 -- 78	[pos="173.92,336.91 183.95,355.4 199.86,384.75 209.91,403.27"];
	72 -- 78	[pos="162.94,289.91 175.23,318.4 199.36,374.38 211.64,402.87"];
	58 -- 65	[pos="479.12,544.53 476.25,540.7 473.2,536.62 470.33,532.79"];
	77 -- 79	[pos="642.08,284.64 656.66,299.37 678.74,321.7 693.38,336.49"];
	56 -- 66	[pos="137.43,371.37 112.82,355.66 71.038,329.01 46.535,313.38"];
	56 -- 72	[pos="156.9,365.55 156.56,344.74 156.01,311.1 155.67,290.43"];
	61 -- 73	[pos="717.73,120.3 685.62,150.51 613.2,218.62 581.02,248.89"];
	61 -- 63	[pos="759.49,99.737 784.98,94.17 823.66,85.722 849.09,80.168"];
}
