graph {
	graph [bb="0,0,354.16,472.82",
		outputorder=edgesfirst,
		overlap=prism,
		size="50,50!",
		start=2807
	];
	node [label="\N"];
	1	[height=0.5,
		pos="153.74,321.35",
		width=0.75];
	2	[height=0.5,
		pos="263.74,236.54",
		width=0.75];
	1 -- 2	[pos="171.41,307.72 191.82,291.99 225.2,266.25 245.75,250.41"];
	5	[height=0.5,
		pos="159.36,143.42",
		width=0.75];
	1 -- 5	[pos="154.31,303.31 155.39,269.21 157.71,195.65 158.79,161.51"];
	3	[height=0.5,
		pos="27,160.29",
		width=0.75];
	1 -- 3	[pos="141.12,305.32 116.83,274.44 63.817,207.07 39.564,176.25"];
	4	[height=0.5,
		pos="197.16,187.42",
		width=0.75];
	1 -- 4	[pos="159.5,303.56 167.81,277.95 183.05,230.94 191.37,205.28"];
	8	[height=0.5,
		pos="62.921,454.82",
		width=0.75];
	1 -- 8	[pos="142.42,337.98 124.92,363.7 91.507,412.8 74.097,438.39"];
	2 -- 5	[pos="247.43,221.99 227.82,204.5 195.12,175.32 175.56,157.87"];
	2 -- 4	[pos="245.55,223.12 236.15,216.19 224.72,207.76 215.33,200.83"];
	7	[height=0.5,
		pos="118.08,18",
		width=0.75];
	2 -- 7	[pos="252.56,219.75 225.37,178.98 156.12,75.072 129.11,34.544"];
	6	[height=0.5,
		pos="327.16,67.621",
		width=0.75];
	5 -- 6	[pos="181.99,133.2 214.11,118.69 272.56,92.287 304.62,77.802"];
	3 -- 5	[pos="53.786,156.87 76.75,153.95 109.67,149.75 132.62,146.83"];
	3 -- 4	[pos="53.587,164.53 85.553,169.62 138.87,178.13 170.76,183.21"];
	3 -- 7	[pos="37.626,143.69 55.083,116.42 89.644,62.424 107.24,34.936"];
	4 -- 6	[pos="213.1,172.73 238.05,149.74 286.06,105.5 311.09,82.431"];
	0	[height=0.5,
		pos="72.78,286.22",
		width=0.75];
	0 -- 2	[pos="98.139,279.62 134.76,270.09 202.07,252.58 238.58,243.09"];
	0 -- 5	[pos="83.053,269.28 99.716,241.79 132.45,187.81 149.11,160.34"];
	0 -- 3	[pos="66.415,268.71 57.717,244.78 42.205,202.11 33.459,178.05"];
	0 -- 4	[pos="90.336,272.27 114.04,253.45 156.03,220.09 179.69,201.3"];
	0 -- 8	[pos="71.725,304.26 69.833,336.63 65.882,404.19 63.984,436.65"];
}
