graph {
	graph [bb="0,0,1124,984.32",
		outputorder=edgesfirst,
		overlap=prism,
		size="50,50!",
		start=5074
	];
	node [label="\N"];
	0	[height=0.5,
		pos="627.73,560.42",
		width=0.75];
	20	[height=0.5,
		pos="851.33,770.77",
		width=0.75];
	0 -- 20	[pos="643.45,575.21 684.51,613.84 794.59,717.39 835.63,755.99"];
	2	[height=0.5,
		pos="491.07,511.89",
		width=0.75];
	0 -- 2	[pos="603.61,551.86 578.63,542.99 539.84,529.21 514.95,520.37"];
	22	[height=0.5,
		pos="668.19,921.18",
		width=0.75];
	0 -- 22	[pos="629.79,578.81 636.73,640.69 659.2,841 666.13,902.83"];
	24	[height=0.5,
		pos="813.2,709.62",
		width=0.75];
	0 -- 24	[pos="645.18,574.46 680.62,602.97 760.65,667.35 795.93,695.73"];
	25	[height=0.5,
		pos="332.1,626.63",
		width=0.75];
	0 -- 25	[pos="602.01,566.18 546.1,578.7 414.01,608.28 357.97,620.83"];
	6	[height=0.5,
		pos="441.29,467.77",
		width=0.75];
	0 -- 6	[pos="605.98,549.61 570.15,531.81 499.12,496.51 463.19,478.66"];
	7	[height=0.5,
		pos="638.45,432.33",
		width=0.75];
	0 -- 7	[pos="629.24,542.34 631.29,517.93 634.91,474.68 636.95,450.31"];
	26	[height=0.5,
		pos="690.27,788.82",
		width=0.75];
	0 -- 26	[pos="632.64,578.35 644.33,621.04 673.72,728.37 685.39,770.98"];
	9	[height=0.5,
		pos="522.12,599.98",
		width=0.75];
	0 -- 9	[pos="604.03,569.3 586.64,575.82 563.12,584.63 545.75,591.14"];
	27	[height=0.5,
		pos="751.83,560.54",
		width=0.75];
	0 -- 27	[pos="654.96,560.45 675.65,560.47 703.98,560.5 724.66,560.51"];
	28	[height=0.5,
		pos="972.9,673.3",
		width=0.75];
	0 -- 28	[pos="652,568.36 715.38,589.09 885.31,644.66 948.65,665.37"];
	12	[height=0.5,
		pos="459.03,584.72",
		width=0.75];
	0 -- 12	[pos="601,564.27 569.41,568.82 517.17,576.34 485.63,580.88"];
	13	[height=0.5,
		pos="512.35,466.39",
		width=0.75];
	0 -- 13	[pos="610.21,546.14 588.4,528.37 551.38,498.19 529.66,480.5"];
	30	[height=0.5,
		pos="734.12,403",
		width=0.75];
	0 -- 30	[pos="638.92,543.87 659.3,513.72 702.26,450.15 722.77,419.81"];
	31	[height=0.5,
		pos="392.57,379.63",
		width=0.75];
	0 -- 31	[pos="609.67,546.54 565.79,512.8 453.98,426.84 410.37,393.31"];
	16	[height=0.5,
		pos="542.81,555.93",
		width=0.75];
	0 -- 16	[pos="600.4,558.98 590.6,558.46 579.57,557.88 569.81,557.36"];
	32	[height=0.5,
		pos="588.44,204.86",
		width=0.75];
	0 -- 32	[pos="625.73,542.3 618.99,481.31 597.18,283.88 590.44,222.94"];
	34	[height=0.5,
		pos="392.85,757.28",
		width=0.75];
	0 -- 34	[pos="610.84,574.58 567.61,610.81 453.31,706.6 409.9,742.98"];
	19	[height=0.5,
		pos="584.29,606.92",
		width=0.75];
	0 -- 19	[pos="613.27,575.91 608.63,580.87 603.49,586.38 598.84,591.35"];
	21	[height=0.5,
		pos="1032.3,609.34",
		width=0.75];
	20 -- 21	[pos="867.71,756.16 902.16,725.43 981.76,654.41 1016.1,623.81"];
	2 -- 6	[pos="474.77,497.44 469.33,492.62 463.26,487.24 457.79,482.4"];
	2 -- 9	[pos="497.36,529.72 502.74,545 510.47,566.91 515.85,582.18"];
	2 -- 12	[pos="483.31,529.52 478.28,540.97 471.74,555.83 466.71,567.25"];
	2 -- 19	[pos="506.05,527.16 523.45,544.89 551.97,573.97 569.35,591.69"];
	3	[height=0.5,
		pos="681.76,604.46",
		width=0.75];
	2 -- 3	[pos="512.95,522.51 549.63,540.32 623.14,576 659.85,593.82"];
	8	[height=0.5,
		pos="639.39,650.96",
		width=0.75];
	2 -- 8	[pos="506.95,526.77 535.49,553.54 595.17,609.5 623.63,636.19"];
	15	[height=0.5,
		pos="492.83,422.38",
		width=0.75];
	2 -- 15	[pos="491.43,493.78 491.73,478.25 492.17,455.99 492.47,440.47"];
	46	[height=0.5,
		pos="492.8,757.27",
		width=0.75];
	2 -- 46	[pos="491.2,529.93 491.52,575.31 492.35,693.79 492.67,739.2"];
	48	[height=0.5,
		pos="247.24,522.21",
		width=0.75];
	2 -- 48	[pos="464.05,513.03 417.18,515.02 321.34,519.08 274.39,521.06"];
	49	[height=0.5,
		pos="669.78,340.61",
		width=0.75];
	2 -- 49	[pos="506.62,496.99 540.42,464.6 620.27,388.07 654.15,355.6"];
	50	[height=0.5,
		pos="373.97,215.04",
		width=0.75];
	2 -- 50	[pos="484.1,494.21 463.27,441.41 401.69,285.31 380.91,232.63"];
	52	[height=0.5,
		pos="839.23,413.69",
		width=0.75];
	2 -- 52	[pos="516.11,504.83 580.19,486.75 749.61,438.97 813.95,420.82"];
	53	[height=0.5,
		pos="218.76,432.26",
		width=0.75];
	2 -- 53	[pos="465.94,504.54 414.07,489.37 295.66,454.75 243.83,439.59"];
	14	[height=0.5,
		pos="531.89,377.66",
		width=0.75];
	2 -- 14	[pos="496.49,494.06 504.3,468.39 518.63,421.27 526.45,395.56"];
	55	[height=0.5,
		pos="169.62,564.34",
		width=0.75];
	2 -- 55	[pos="464.77,516.18 404.49,526.02 256.92,550.1 196.29,559.99"];
	17	[height=0.5,
		pos="465.86,288.97",
		width=0.75];
	2 -- 17	[pos="489.01,493.65 484.27,451.74 472.65,349 467.91,307.15"];
	57	[height=0.5,
		pos="199.55,610.29",
		width=0.75];
	2 -- 57	[pos="466.72,520.11 411.84,538.63 279.04,583.46 224.04,602.03"];
	23	[height=0.5,
		pos="916.34,821.46",
		width=0.75];
	22 -- 23	[pos="691.53,911.8 738.83,892.79 845.48,849.93 892.88,830.89"];
	6 -- 7	[pos="467.47,463.07 505.18,456.29 574.39,443.84 612.16,437.05"];
	6 -- 9	[pos="451.52,484.52 466.99,509.81 496.15,557.5 511.71,582.96"];
	36	[height=0.5,
		pos="487.22,333.34",
		width=0.75];
	6 -- 36	[pos="447.29,450.2 456.09,424.43 472.41,376.69 481.21,350.92"];
	6 -- 17	[pos="443.78,449.64 448.49,415.37 458.64,341.46 463.36,307.15"];
	10	[height=0.5,
		pos="574.37,474.15",
		width=0.75];
	6 -- 10	[pos="468.22,469.06 491.16,470.16 523.97,471.74 547.02,472.84"];
	75	[height=0.5,
		pos="577.32,669.36",
		width=0.75];
	6 -- 75	[pos="452.42,484.27 477.99,522.17 540.69,615.08 566.23,652.92"];
	103	[height=0.5,
		pos="387.26,670.63",
		width=0.75];
	6 -- 103	[pos="436.49,485.78 426.24,524.27 402.28,614.21 392.04,652.67"];
	104	[height=0.5,
		pos="731.82,358.99",
		width=0.75];
	6 -- 104	[pos="465.06,458.87 519.68,438.42 653.59,388.29 708.13,367.87"];
	105	[height=0.5,
		pos="185.13,520.3",
		width=0.75];
	6 -- 105	[pos="415.31,473.1 366.22,483.17 260.32,504.88 211.17,514.96"];
	106	[height=0.5,
		pos="342.88,478.55",
		width=0.75];
	6 -- 106	[pos="414.39,470.72 400.51,472.24 383.61,474.09 369.73,475.61"];
	107	[height=0.5,
		pos="279.64,257.98",
		width=0.75];
	6 -- 107	[pos="428.87,451.66 398.78,412.61 322.23,313.26 292.1,274.15"];
	108	[height=0.5,
		pos="341.66,259.09",
		width=0.75];
	6 -- 108	[pos="432.96,450.34 414.16,410.96 368.6,315.52 349.89,276.32"];
	109	[height=0.5,
		pos="327.09,538.61",
		width=0.75];
	6 -- 109	[pos="421.39,480.11 400.56,493.03 368.03,513.21 347.13,526.17"];
	110	[height=0.5,
		pos="57.168,437.55",
		width=0.75];
	6 -- 110	[pos="414.27,465.65 343.75,460.1 154.64,445.22 84.149,439.67"];
	112	[height=0.5,
		pos="90.362,529.5",
		width=0.75];
	6 -- 112	[pos="414.91,472.41 349.72,483.88 181.58,513.46 116.57,524.89"];
	63	[height=0.5,
		pos="198.93,698.33",
		width=0.75];
	6 -- 63	[pos="425.76,482.55 382.09,524.09 258.54,641.62 214.64,683.38"];
	7 -- 12	[pos="621.57,446.66 587.29,475.78 509.87,541.54 475.73,570.53"];
	7 -- 19	[pos="632.96,450.03 622.58,483.49 600.19,555.67 589.8,589.18"];
	37	[height=0.5,
		pos="865.25,369.67",
		width=0.75];
	7 -- 37	[pos="663.59,425.38 707.19,413.34 796.33,388.71 840,376.64"];
	7 -- 49	[pos="644.49,414.64 650.04,398.4 658.22,374.46 663.76,358.24"];
	64	[height=0.5,
		pos="937.92,517.42",
		width=0.75];
	7 -- 64	[pos="663.47,439.43 719.84,455.45 856.26,494.21 912.77,510.27"];
	7 -- 10	[pos="618.88,445.1 610.93,450.29 601.76,456.27 593.83,461.45"];
	11	[height=0.5,
		pos="884.75,473.41",
		width=0.75];
	7 -- 11	[pos="664.81,436.72 712.09,444.61 810.8,461.08 858.21,468.99"];
	89	[height=0.5,
		pos="502.28,244.4",
		width=0.75];
	7 -- 89	[pos="626.61,415.98 600.85,380.44 540.01,296.47 514.19,260.84"];
	114	[height=0.5,
		pos="896.69,636.41",
		width=0.75];
	7 -- 114	[pos="656.2,446.35 703.49,483.73 832.12,585.38 879.16,622.55"];
	115	[height=0.5,
		pos="776.83,457.13",
		width=0.75];
	7 -- 115	[pos="664.81,437.05 689.43,441.46 725.98,448.01 750.58,452.42"];
	116	[height=0.5,
		pos="774.59,237.6",
		width=0.75];
	7 -- 116	[pos="650.06,415.72 675.78,378.93 737.32,290.91 763.01,254.16"];
	117	[height=0.5,
		pos="889.57,122.75",
		width=0.75];
	7 -- 117	[pos="651.6,416.12 694.99,362.62 833.35,192.06 876.55,138.8"];
	119	[height=0.5,
		pos="650.5,237.89",
		width=0.75];
	7 -- 119	[pos="639.59,414.03 641.89,376.88 647.09,292.99 649.38,255.99"];
	120	[height=0.5,
		pos="826.34,110.89",
		width=0.75];
	7 -- 120	[pos="648.29,415.5 680.68,360.08 783.79,183.68 816.37,127.94"];
	122	[height=0.5,
		pos="657.59,100.57",
		width=0.75];
	7 -- 122	[pos="639.51,414.02 642.85,356.01 653.19,176.74 656.53,118.82"];
	123	[height=0.5,
		pos="595.5,115.09",
		width=0.75];
	7 -- 123	[pos="636.02,414.36 628.48,358.65 605.54,189.22 597.96,133.25"];
	77	[height=0.5,
		pos="942.27,306.31",
		width=0.75];
	7 -- 77	[pos="661.79,422.65 718.48,399.13 862.93,339.22 919.27,315.85"];
	9 -- 12	[pos="496.46,593.77 492.5,592.82 488.42,591.83 484.46,590.87"];
	9 -- 16	[pos="530.3,582.57 531.75,579.5 533.25,576.29 534.7,573.22"];
	9 -- 15	[pos="519.15,581.98 513.54,547.94 501.43,474.51 495.81,440.43"];
	9 -- 14	[pos="522.92,581.79 524.76,540 529.26,437.53 531.1,395.79"];
	9 -- 10	[pos="529.39,582.49 539.37,558.45 557.22,515.46 567.17,491.5"];
	9 -- 115	[pos="542.97,588.29 590.85,561.44 708.24,495.6 756.06,468.78"];
	135	[height=0.5,
		pos="875.9,561.38",
		width=0.75];
	9 -- 135	[pos="549.01,597.05 614.79,589.87 783.31,571.49 849.06,564.31"];
	136	[height=0.5,
		pos="396.86,614.9",
		width=0.75];
	9 -- 136	[pos="495.25,603.18 474.12,605.7 444.81,609.19 423.69,611.7"];
	137	[height=0.5,
		pos="248.1,388.24",
		width=0.75];
	9 -- 137	[pos="504.14,586.09 454.37,547.63 315.21,440.1 265.79,401.91"];
	139	[height=0.5,
		pos="261.6,665.67",
		width=0.75];
	9 -- 139	[pos="496.67,606.4 446.86,618.96 337.05,646.65 287.16,659.23"];
	140	[height=0.5,
		pos="241.15,827.45",
		width=0.75];
	9 -- 140	[pos="504.55,614.21 453.97,655.16 308.48,772.95 258.36,813.52"];
	66	[height=0.5,
		pos="500.75,867.46",
		width=0.75];
	9 -- 66	[pos="520.65,618.37 516.74,667.35 506.09,800.58 502.2,849.3"];
	29	[height=0.5,
		pos="1062,505.88",
		width=0.75];
	28 -- 29	[pos="981.93,656.32 999,624.24 1035.8,555.02 1052.9,522.9"];
	12 -- 13	[pos="466.89,567.26 476.98,544.88 494.35,506.33 504.45,483.92"];
	12 -- 16	[pos="483.26,576.39 494.38,572.57 507.52,568.06 518.63,564.24"];
	12 -- 19	[pos="485.29,589.37 506.66,593.16 536.7,598.49 558.07,602.27"];
	40	[height=0.5,
		pos="700.47,472.5",
		width=0.75];
	12 -- 40	[pos="481.31,574.36 527.3,552.98 632.29,504.19 678.24,482.83"];
	12 -- 15	[pos="462.77,566.72 469.27,535.52 482.56,471.71 489.07,440.45"];
	18	[height=0.5,
		pos="395.36,568.4",
		width=0.75];
	12 -- 18	[pos="433.5,578.17 429.35,577.11 425.04,576.01 420.89,574.94"];
	12 -- 14	[pos="465.24,567.06 479,527.94 511.94,434.35 525.7,395.27"];
	80	[height=0.5,
		pos="706.99,709.64",
		width=0.75];
	12 -- 80	[pos="480.6,595.58 527.49,619.21 638.28,675.02 685.3,698.7"];
	12 -- 105	[pos="433.26,578.66 380.92,566.35 262.74,538.56 210.63,526.3"];
	161	[height=0.5,
		pos="151.55,473.98",
		width=0.75];
	12 -- 161	[pos="435.15,576.12 377.87,555.49 233.11,503.35 175.62,482.65"];
	68	[height=0.5,
		pos="438.73,830.73",
		width=0.75];
	12 -- 68	[pos="457.53,602.81 453.78,648.3 443.98,767.09 440.23,812.62"];
	127	[height=0.5,
		pos="365.52,841.79",
		width=0.75];
	12 -- 127	[pos="452.6,602.38 435.52,649.35 389.12,776.89 371.99,823.99"];
	145	[height=0.5,
		pos="203.1,742.65",
		width=0.75];
	12 -- 145	[pos="438.94,597.11 391.1,626.63 270.84,700.85 223.09,730.32"];
	150	[height=0.5,
		pos="770.03,753.64",
		width=0.75];
	12 -- 150	[pos="480.4,596.33 537.35,627.26 692.26,711.4 748.91,742.17"];
	13 -- 16	[pos="518.37,484.08 523.71,499.78 531.47,522.59 536.81,538.28"];
	13 -- 19	[pos="521.17,483.62 534.98,510.59 561.55,562.49 575.4,589.55"];
	13 -- 15	[pos="504.64,449 503.27,445.92 501.85,442.72 500.49,439.65"];
	81	[height=0.5,
		pos="813.86,600.14",
		width=0.75];
	13 -- 81	[pos="535.02,476.44 591.03,501.29 735.49,565.37 791.34,590.15"];
	94	[height=0.5,
		pos="330.53,406.92",
		width=0.75];
	13 -- 94	[pos="487.83,458.37 453.03,446.99 389.7,426.27 354.95,414.91"];
	13 -- 106	[pos="485.5,468.32 453.86,470.59 401.59,474.34 369.88,476.61"];
	13 -- 116	[pos="528.76,452.08 575.85,410.99 711.11,292.99 758.19,251.9"];
	128	[height=0.5,
		pos="631.89,713.4",
		width=0.75];
	13 -- 128	[pos="520.76,483.76 542.71,529.11 601.56,650.72 623.5,696.05"];
	13 -- 136	[pos="499.77,482.57 477.56,511.13 431.63,570.19 409.42,598.74"];
	146	[height=0.5,
		pos="430.77,423.63",
		width=0.75];
	13 -- 146	[pos="490.92,455.16 478.93,448.87 464.03,441.07 452.06,434.79"];
	163	[height=0.5,
		pos="217.61,298.13",
		width=0.75];
	13 -- 163	[pos="491.63,454.56 437.51,423.67 292.4,340.83 238.31,309.95"];
	165	[height=0.5,
		pos="508.12,101.83",
		width=0.75];
	13 -- 165	[pos="512.14,448.31 511.42,386.25 509.05,182.25 508.33,120.02"];
	167	[height=0.5,
		pos="246.89,566.25",
		width=0.75];
	13 -- 167	[pos="488.8,475.25 438.55,494.16 321.32,538.26 270.78,557.27"];
	54	[height=0.5,
		pos="322.05,169.92",
		width=0.75];
	13 -- 54	[pos="501.58,449.6 468.08,397.42 366.04,238.46 332.71,186.53"];
	152	[height=0.5,
		pos="857.67,237.59",
		width=0.75];
	13 -- 152	[pos="531.91,453.43 592.69,413.16 777.84,290.48 838.33,250.4"];
	16 -- 19	[pos="555.71,571.79 560.66,577.87 566.3,584.81 571.26,590.9"];
	42	[height=0.5,
		pos="631.07,388.29",
		width=0.75];
	16 -- 42	[pos="551.76,538.94 568.68,506.81 605.16,437.5 622.1,405.33"];
	16 -- 18	[pos="515.77,558.22 489.16,560.47 448.78,563.88 422.23,566.13"];
	16 -- 109	[pos="515.93,553.77 474.48,550.45 395.42,544.1 353.97,540.77"];
	131	[height=0.5,
		pos="531.33,801.3",
		width=0.75];
	16 -- 131	[pos="541.97,573.98 539.85,619.35 534.3,737.83 532.18,783.23"];
	169	[height=0.5,
		pos="403.76,291.55",
		width=0.75];
	16 -- 169	[pos="533.69,538.59 508.43,490.57 437.82,356.3 412.74,308.62"];
	56	[height=0.5,
		pos="266.96,760.57",
		width=0.75];
	16 -- 56	[pos="524.71,569.36 474.73,606.44 335.19,709.96 285.13,747.09"];
	98	[height=0.5,
		pos="196.48,654.32",
		width=0.75];
	16 -- 98	[pos="517.91,563.01 454.16,581.12 285.63,628.99 221.62,647.17"];
	121	[height=0.5,
		pos="583,255.23",
		width=0.75];
	16 -- 121	[pos="545.27,537.58 552.46,483.76 573.43,326.85 580.58,273.34"];
	157	[height=0.5,
		pos="875.24,699.9",
		width=0.75];
	16 -- 157	[pos="565.66,565.83 626.39,592.13 791.32,663.56 852.23,689.93"];
	33	[height=0.5,
		pos="505.58,30.723",
		width=0.75];
	32 -- 33	[pos="580.2,187.52 564.31,154.14 529.66,81.309 513.8,47.986"];
	102	[height=0.5,
		pos="308.96,582.62",
		width=0.75];
	19 -- 102	[pos="557.39,604.55 504.75,599.9 388.69,589.66 335.97,585.01"];
	134	[height=0.5,
		pos="628.25,797.28",
		width=0.75];
	19 -- 134	[pos="588.43,624.83 596.8,661.11 615.7,742.92 624.09,779.28"];
	148	[height=0.5,
		pos="515.31,681.15",
		width=0.75];
	19 -- 148	[pos="570,622.3 558.16,635.04 541.42,653.06 529.58,665.79"];
	160	[height=0.5,
		pos="970.17,611.44",
		width=0.75];
	19 -- 160	[pos="611.43,607.24 682.28,608.07 872.25,610.3 943.07,611.13"];
	173	[height=0.5,
		pos="324.42,696.61",
		width=0.75];
	19 -- 173	[pos="560.31,615.2 510.93,632.24 398.38,671.08 348.72,688.22"];
	45	[height=0.5,
		pos="937.91,563.14",
		width=0.75];
	19 -- 45	[pos="610.87,603.63 676.4,595.52 845.17,574.62 911.03,566.46"];
	88	[height=0.5,
		pos="730.05,834.14",
		width=0.75];
	19 -- 88	[pos="595.01,623.63 621.96,665.65 692.34,775.36 719.32,817.41"];
	113	[height=0.5,
		pos="303.48,808.45",
		width=0.75];
	19 -- 113	[pos="565.87,620.15 514.98,656.66 372.93,758.61 321.97,795.18"];
	141	[height=0.5,
		pos="421.53,885.82",
		width=0.75];
	19 -- 141	[pos="574.35,623.95 545.23,673.86 460.3,819.4 431.34,869.02"];
	172	[height=0.5,
		pos="328.96,346.42",
		width=0.75];
	19 -- 172	[pos="569.46,591.79 524.33,545.75 389.01,407.7 343.83,361.6"];
	1	[height=0.5,
		pos="636.43,477.26",
		width=0.75];
	1 -- 2	[pos="610.78,483.37 584.37,489.66 543.45,499.41 516.96,505.72"];
	1 -- 9	[pos="622.18,492.55 600.28,516.07 558.56,560.86 536.55,584.5"];
	1 -- 13	[pos="609.51,474.9 588.69,473.08 560.02,470.57 539.22,468.74"];
	1 -- 3	[pos="642.73,494.95 651.39,519.25 666.88,562.7 675.51,586.92"];
	4	[height=0.5,
		pos="689.8,552.2",
		width=0.75];
	1 -- 4	[pos="648.01,493.52 656.9,506.01 669.13,523.17 678.06,535.72"];
	35	[height=0.5,
		pos="422.7,335.59",
		width=0.75];
	1 -- 35	[pos="617.08,464.44 576.49,437.53 482.84,375.46 442.15,348.49"];
	1 -- 36	[pos="621.02,462.4 592.43,434.82 531.46,376.01 502.76,348.34"];
	1 -- 37	[pos="658.79,466.75 702.64,446.12 799.48,400.59 843.14,380.06"];
	1 -- 8	[pos="636.74,495.52 637.31,528.97 638.52,599.68 639.08,632.95"];
	38	[height=0.5,
		pos="707.11,296.6",
		width=0.75];
	1 -- 38	[pos="643.33,459.61 656.88,424.98 686.79,348.53 700.28,314.06"];
	39	[height=0.5,
		pos="1009.7,397.26",
		width=0.75];
	1 -- 39	[pos="662.38,471.7 730.82,457.03 915.64,417.41 983.89,402.79"];
	1 -- 40	[pos="663.59,475.24 666.86,475 670.2,474.75 673.47,474.51"];
	41	[height=0.5,
		pos="645.06,281.9",
		width=0.75];
	1 -- 41	[pos="637.22,459.23 638.86,422.11 642.6,337.5 644.25,300.17"];
	1 -- 15	[pos="612.72,468.2 586.11,458.03 543.2,441.63 516.58,431.45"];
	1 -- 42	[pos="635.34,459.25 634.42,443.92 633.1,421.99 632.17,406.57"];
	43	[height=0.5,
		pos="572.26,159.17",
		width=0.75];
	1 -- 43	[pos="632.79,459.24 621.53,403.39 587.25,233.5 575.93,177.38"];
	1 -- 18	[pos="612.87,486.16 566.79,503.59 465.17,542.01 419.01,559.46"];
	44	[height=0.5,
		pos="964.86,352.69",
		width=0.75];
	1 -- 44	[pos="660.05,468.3 720.5,445.37 880.32,384.76 941.02,361.74"];
	1 -- 21	[pos="660.59,485.32 731.26,508.9 937.01,577.56 1007.9,601.22"];
	3 -- 13	[pos="664.59,590.46 632.12,564 562.08,506.92 529.57,480.43"];
	3 -- 16	[pos="657.56,596.01 632.06,587.1 592.14,573.16 566.74,564.29"];
	3 -- 19	[pos="654.61,605.15 641.09,605.49 624.8,605.9 611.3,606.24"];
	3 -- 8	[pos="667.65,619.95 663.13,624.91 658.11,630.41 653.58,635.39"];
	59	[height=0.5,
		pos="937.6,720.22",
		width=0.75];
	3 -- 59	[pos="704.47,614.73 753.02,636.7 866.45,688.02 914.95,709.97"];
	60	[height=0.5,
		pos="624.85,877.08",
		width=0.75];
	3 -- 60	[pos="678.03,622.35 667.72,671.74 638.93,809.65 628.6,859.12"];
	62	[height=0.5,
		pos="562.8,900.38",
		width=0.75];
	3 -- 62	[pos="674.68,622.09 653.52,674.72 590.95,830.34 569.84,882.85"];
	3 -- 64	[pos="705.86,596.27 754.68,579.68 864.78,542.27 913.7,525.65"];
	65	[height=0.5,
		pos="792.25,895.15",
		width=0.75];
	3 -- 65	[pos="688.51,622.21 708.28,674.23 765.93,825.92 785.59,877.64"];
	3 -- 10	[pos="668.59,588.48 647.98,563.47 608.33,515.35 587.65,490.26"];
	3 -- 11	[pos="701.23,591.9 740.03,566.85 826.6,510.96 865.35,485.94"];
	67	[height=0.5,
		pos="854.31,858.86",
		width=0.75];
	3 -- 67	[pos="693.08,621.15 724.42,667.36 812.05,796.56 843.17,842.44"];
	69	[height=0.5,
		pos="821.41,501.14",
		width=0.75];
	3 -- 69	[pos="700.02,590.95 726.78,571.15 776.38,534.46 803.15,514.65"];
	70	[height=0.5,
		pos="758.88,516.52",
		width=0.75];
	3 -- 70	[pos="695.55,588.74 709.59,572.73 731.22,548.06 745.21,532.1"];
	71	[height=0.5,
		pos="946.83,434.09",
		width=0.75];
	3 -- 71	[pos="701.25,591.93 750.27,560.43 878.26,478.16 927.31,446.64"];
	73	[height=0.5,
		pos="730.24,921.46",
		width=0.75];
	3 -- 73	[pos="684.51,622.41 693.02,678.08 718.91,847.38 727.46,903.31"];
	3 -- 23	[pos="697.89,619.38 740.84,659.11 857.69,767.2 900.42,806.73"];
	4 -- 24	[pos="702.31,568.17 725.96,598.34 776.98,663.42 800.66,693.62"];
	4 -- 9	[pos="664.7,559.36 632.99,568.39 578.78,583.84 547.12,592.86"];
	4 -- 16	[pos="662.5,552.9 636.1,553.57 596.32,554.58 569.97,555.25"];
	4 -- 59	[pos="708.83,565.11 754.96,596.38 872.31,675.95 918.51,707.27"];
	4 -- 10	[pos="670.74,539.32 649.35,524.85 614.86,501.53 593.46,487.06"];
	4 -- 11	[pos="712.93,542.86 750.45,527.69 824.15,497.91 861.65,482.75"];
	5	[height=0.5,
		pos="389.85,522.57",
		width=0.75];
	4 -- 5	[pos="662.92,549.55 605.97,543.92 473.76,530.86 416.78,525.23"];
	4 -- 75	[pos="675.09,567.52 653.54,589.97 613.59,631.59 592.03,654.04"];
	76	[height=0.5,
		pos="999.93,536.07",
		width=0.75];
	4 -- 76	[pos="716.78,550.8 775.43,547.75 914,540.54 972.8,537.49"];
	78	[height=0.5,
		pos="978.4,781.73",
		width=0.75];
	4 -- 78	[pos="707.42,566.22 759.06,607.29 909.66,727.06 961.01,767.9"];
	4 -- 80	[pos="691.77,570.26 695.07,600.47 701.67,660.91 704.99,691.3"];
	4 -- 81	[pos="713.42,561.33 735.5,569.86 768.27,582.52 790.32,591.04"];
	82	[height=0.5,
		pos="793.88,325.63",
		width=0.75];
	4 -- 82	[pos="697.79,534.8 717.17,492.63 766.46,385.32 785.86,343.09"];
	83	[height=0.5,
		pos="1023.7,453.55",
		width=0.75];
	4 -- 83	[pos="714.62,544.87 776.43,526.61 936.7,479.25 998.69,460.93"];
	85	[height=0.5,
		pos="712.55,212.76",
		width=0.75];
	4 -- 85	[pos="691.02,533.95 694.97,475.02 707.36,290.16 711.32,231.1"];
	86	[height=0.5,
		pos="566.94,753.27",
		width=0.75];
	4 -- 86	[pos="679.53,569 656.41,606.85 600.44,698.44 577.26,736.38"];
	87	[height=0.5,
		pos="1005.8,737.71",
		width=0.75];
	4 -- 87	[pos="710.53,564.38 767.94,598.07 928.44,692.28 985.44,725.73"];
	47	[height=0.5,
		pos="854.27,814.8",
		width=0.75];
	4 -- 47	[pos="700.34,569.03 730.04,616.46 814.22,750.86 843.82,798.12"];
	8 -- 26	[pos="645.94,668.7 655.71,695.17 673.99,744.72 683.75,771.15"];
	8 -- 9	[pos="616.5,641.01 595.84,632.03 565.6,618.88 544.95,609.91"];
	8 -- 10	[pos="632.92,633.36 620.46,599.47 593.26,525.52 580.82,491.68"];
	90	[height=0.5,
		pos="330.06,764.43",
		width=0.75];
	8 -- 90	[pos="615.63,659.68 558.05,680.8 411.56,734.54 353.9,755.69"];
	8 -- 103	[pos="612.41,653.07 564.01,656.84 462.96,664.73 414.43,668.51"];
	8 -- 114	[pos="666.44,649.43 715.86,646.64 820.18,640.74 869.62,637.94"];
	125	[height=0.5,
		pos="1035,654.27",
		width=0.75];
	8 -- 125	[pos="666.58,651.19 738.93,651.8 935.57,653.44 1007.8,654.04"];
	126	[height=0.5,
		pos="559.36,966.32",
		width=0.75];
	8 -- 126	[pos="634.86,668.82 620.81,724.2 578.06,892.62 563.94,948.26"];
	8 -- 128	[pos="637.22,669.02 636.24,677.23 635.07,686.93 634.08,695.16"];
	129	[height=0.5,
		pos="703.64,648.5",
		width=0.75];
	8 -- 129	[pos="666.64,649.92 669.92,649.79 673.27,649.66 676.56,649.54"];
	130	[height=0.5,
		pos="458.9,637.12",
		width=0.75];
	8 -- 130	[pos="612.37,648.89 578.24,646.27 519.88,641.8 485.81,639.18"];
	8 -- 131	[pos="627.62,667.34 606.83,696.26 563.86,756.04 543.09,784.95"];
	132	[height=0.5,
		pos="593.96,343.45",
		width=0.75];
	8 -- 132	[pos="636.68,632.65 628.6,577.95 604.71,416.23 596.65,361.66"];
	133	[height=0.5,
		pos="303.42,882.45",
		width=0.75];
	8 -- 133	[pos="620.36,664.07 561.23,704.82 381.08,828.94 322.23,869.49"];
	8 -- 134	[pos="638,669.2 635.86,697.39 631.76,751.22 629.62,779.27"];
	79	[height=0.5,
		pos="779.18,965.49",
		width=0.75];
	8 -- 79	[pos="647.1,668.32 671.54,723.31 747.08,893.27 771.49,948.18"];
	15 -- 31	[pos="470.08,412.68 453.79,405.73 431.93,396.41 415.58,389.44"];
	15 -- 16	[pos="499.47,440.11 509.03,465.66 526.57,512.54 536.15,538.13"];
	15 -- 19	[pos="501.43,439.74 518.91,475 558.38,554.63 575.78,589.74"];
	15 -- 18	[pos="481.84,438.85 463.12,466.89 425.25,523.61 406.46,551.77"];
	15 -- 17	[pos="489.19,404.39 484.04,378.93 474.69,332.64 469.52,307.1"];
	15 -- 70	[pos="516.91,430.9 567.43,448.78 684.02,490.03 734.66,507.95"];
	96	[height=0.5,
		pos="263.71,342.15",
		width=0.75];
	15 -- 96	[pos="468.74,413.94 424.74,398.54 331.84,366.01 287.82,350.59"];
	15 -- 108	[pos="478.61,407.02 449.8,375.89 384.82,305.71 355.95,274.53"];
	15 -- 119	[pos="506.27,406.65 536.06,371.8 607.34,288.4 637.09,253.58"];
	15 -- 130	[pos="489.99,440.32 483.61,480.74 468.15,578.56 461.75,619.08"];
	147	[height=0.5,
		pos="559.04,299.39",
		width=0.75];
	15 -- 147	[pos="502.04,405.28 514.69,381.78 537.3,339.77 549.91,316.35"];
	84	[height=0.5,
		pos="774.71,193.54",
		width=0.75];
	15 -- 84	[pos="510.04,408.41 560.36,367.56 706.87,248.61 757.37,207.62"];
	155	[height=0.5,
		pos="713.31,145.53",
		width=0.75];
	15 -- 155	[pos="505.64,406.3 544.6,357.37 661.45,210.64 700.46,161.65"];
	18 -- 34	[pos="395.12,586.51 394.64,622.61 393.57,703.17 393.09,739.22"];
	18 -- 86	[pos="409.69,583.84 441.99,618.64 520.15,702.86 552.52,737.74"];
	101	[height=0.5,
		pos="89.539,483.08",
		width=0.75];
	18 -- 101	[pos="370.33,561.42 312.84,545.38 171.89,506.06 114.48,490.04"];
	18 -- 133	[pos="390.15,586.18 374.01,641.33 324.9,809.06 308.68,864.47"];
	18 -- 139	[pos="377.04,581.72 351.57,600.25 305.71,633.6 280.12,652.2"];
	159	[height=0.5,
		pos="765.69,665.58",
		width=0.75];
	18 -- 159	[pos="420.52,575 488.08,592.73 672.89,641.23 740.49,658.97"];
	18 -- 167	[pos="368.13,568.01 341.34,567.62 300.68,567.03 273.95,566.65"];
	168	[height=0.5,
		pos="214.07,476.28",
		width=0.75];
	18 -- 168	[pos="373.85,557.47 338.96,539.74 270.42,504.92 235.55,487.2"];
	170	[height=0.5,
		pos="188.67,254.1",
		width=0.75];
	18 -- 170	[pos="384.25,551.5 348.28,496.8 235.28,324.97 199.59,270.7"];
	18 -- 173	[pos="385.94,585.43 372.37,609.95 347.47,654.95 333.88,679.51"];
	58	[height=0.5,
		pos="101.8,677.29",
		width=0.75];
	18 -- 58	[pos="371.34,577.31 316.15,597.78 180.85,647.97 125.74,668.41"];
	74	[height=0.5,
		pos="240.88,899.02",
		width=0.75];
	18 -- 74	[pos="387.27,585.71 360.64,642.71 275.86,824.15 249.08,881.48"];
	111	[height=0.5,
		pos="27,569.53",
		width=0.75];
	18 -- 111	[pos="368.27,568.48 300.15,568.69 122.29,569.24 54.126,569.45"];
	124	[height=0.5,
		pos="192.63,210.06",
		width=0.75];
	18 -- 124	[pos="385.58,551.12 351.26,490.44 236.49,287.57 202.31,227.17"];
	44 -- 45	[pos="962.57,370.64 957.49,410.3 945.35,505.05 940.24,544.94"];
	46 -- 47	[pos="519.09,761.45 585.7,772.06 760.56,799.89 827.59,810.56"];
	51	[height=0.5,
		pos="446.1,187.82",
		width=0.75];
	50 -- 51	[pos="397.59,206.13 405.48,203.15 414.27,199.84 422.18,196.85"];
	53 -- 54	[pos="225.7,414.64 244.52,366.85 296.36,235.17 315.15,187.47"];
	14 -- 30	[pos="558.75,381.02 597.53,385.89 668.81,394.82 707.48,399.67"];
	14 -- 16	[pos="533,395.73 535.09,429.9 539.61,503.61 541.7,537.81"];
	14 -- 19	[pos="536,395.65 545.8,438.51 570.42,546.24 580.2,589.02"];
	14 -- 41	[pos="549.08,363.12 570.47,345.01 606.78,314.29 628.08,296.27"];
	14 -- 15	[pos="518.23,393.3 514.45,397.63 510.34,402.34 506.55,406.67"];
	14 -- 17	[pos="519.78,361.39 507.87,345.39 489.78,321.1 477.89,305.14"];
	14 -- 69	[pos="555.1,387.56 609.44,410.73 744.44,468.32 798.5,491.37"];
	14 -- 82	[pos="557.97,372.48 608.19,362.51 717.77,340.74 767.91,330.78"];
	95	[height=0.5,
		pos="282.48,213.96",
		width=0.75];
	14 -- 95	[pos="512.32,364.81 465.7,334.21 348.49,257.29 301.96,226.75"];
	14 -- 107	[pos="509.51,367.04 461.64,344.33 349.8,291.27 301.98,268.58"];
	14 -- 129	[pos="542.64,394.6 573.55,443.36 662.49,583.6 693.12,631.91"];
	153	[height=0.5,
		pos="824.69,281.61",
		width=0.75];
	14 -- 153	[pos="556.35,369.63 611.47,351.55 744.85,307.8 800.09,289.68"];
	14 -- 168	[pos="507.22,385.32 448,403.69 298.37,450.12 238.95,468.56"];
	118	[height=0.5,
		pos="570.14,66.647",
		width=0.75];
	14 -- 118	[pos="534.11,359.59 540.88,304.62 561.15,139.8 567.92,84.763"];
	164	[height=0.5,
		pos="384.06,143.82",
		width=0.75];
	14 -- 164	[pos="521.26,360.84 493.98,317.7 421.76,203.46 394.59,160.48"];
	55 -- 56	[pos="178.26,581.76 196.78,619.09 240.11,706.43 258.48,743.48"];
	17 -- 43	[pos="478.9,273.06 499.32,248.14 538.62,200.21 559.11,175.22"];
	17 -- 85	[pos="490.41,281.39 537.58,266.81 640.35,235.06 687.73,220.43"];
	17 -- 122	[pos="481.22,273.87 517.21,238.51 606.62,150.65 642.41,115.48"];
	17 -- 132	[pos="488.76,298.71 511.93,308.56 547.57,323.72 570.82,333.61"];
	158	[height=0.5,
		pos="836.79,167.16",
		width=0.75];
	17 -- 158	[pos="490.19,280.98 557.4,258.91 745.04,197.29 812.36,175.18"];
	17 -- 169	[pos="438.8,290.1 436.19,290.2 433.53,290.31 430.92,290.42"];
	17 -- 170	[pos="439.28,285.63 386.43,278.98 268.69,264.17 215.58,257.49"];
	171	[height=0.5,
		pos="378.89,62.783",
		width=0.75];
	17 -- 171	[pos="459.03,271.22 442.77,228.94 401.91,122.65 385.68,80.449"];
	17 -- 33	[pos="468.65,270.81 475.94,223.4 495.5,96.257 502.79,48.863"];
	72	[height=0.5,
		pos="632.17,41.786",
		width=0.75];
	17 -- 72	[pos="477.03,272.37 507.32,227.34 590.81,103.26 621.05,58.317"];
	100	[height=0.5,
		pos="310.16,59.06",
		width=0.75];
	17 -- 100	[pos="454.66,272.44 426,230.12 350.24,118.25 321.46,75.754"];
	138	[height=0.5,
		pos="313.74,103.15",
		width=0.75];
	17 -- 138	[pos="452.89,273.13 424.15,238.02 355.38,154.03 326.67,118.96"];
	162	[height=0.5,
		pos="239.4,155.4",
		width=0.75];
	17 -- 162	[pos="445.36,276.88 402.25,251.45 302.62,192.69 259.69,167.37"];
	166	[height=0.5,
		pos="439.5,18",
		width=0.75];
	17 -- 166	[pos="464.08,270.77 459.28,221.41 446.05,85.392 441.26,36.121"];
	57 -- 58	[pos="180.7,623.21 163.5,635 138.21,652.34 120.92,664.18"];
	61	[height=0.5,
		pos="178.97,812.97",
		width=0.75];
	60 -- 61	[pos="598.29,873.26 518.99,861.85 284.51,828.14 205.39,816.76"];
	62 -- 63	[pos="541.93,888.79 477.75,853.16 283.78,745.45 219.71,709.87"];
	65 -- 66	[pos="765.35,892.6 709.82,887.32 583.06,875.28 527.58,870.01"];
	10 -- 27	[pos="596.49,484.92 630.68,501.56 695.97,533.35 729.99,549.91"];
	10 -- 16	[pos="567.52,491.9 562.23,505.62 554.94,524.52 549.65,538.22"];
	10 -- 38	[pos="586.62,457.77 611.91,423.94 669.62,346.74 694.89,312.95"];
	10 -- 18	[pos="553.13,485.34 518.68,503.47 451,539.1 416.57,557.23"];
	10 -- 14	[pos="566.58,456.46 558.92,439.04 547.28,412.62 539.63,395.25"];
	10 -- 17	[pos="564.36,457.06 543.63,421.7 496.26,340.85 475.69,305.75"];
	91	[height=0.5,
		pos="280.82,450.95",
		width=0.75];
	10 -- 91	[pos="547.54,472.03 491.78,467.62 363.89,457.51 307.91,453.09"];
	142	[height=0.5,
		pos="880.23,325.63",
		width=0.75];
	10 -- 142	[pos="596.37,463.47 652.67,436.13 801.5,363.86 858.02,336.41"];
	144	[height=0.5,
		pos="449.31,713.24",
		width=0.75];
	10 -- 144	[pos="565.38,491.35 542.3,535.46 481.21,652.26 458.22,696.2"];
	10 -- 146	[pos="550.34,465.7 523.83,456.37 481.42,441.45 454.88,432.12"];
	10 -- 147	[pos="572.79,456.11 569.85,422.62 563.59,351.21 560.64,317.6"];
	10 -- 148	[pos="569.23,492.16 558.04,531.41 531.54,624.26 520.39,663.33"];
	10 -- 51	[pos="566.54,456.67 543.59,405.43 476.65,256.02 453.82,205.08"];
	11 -- 39	[pos="904.82,461.18 928.13,446.97 966.36,423.66 989.64,409.47"];
	11 -- 52	[pos="872.31,457.09 865.89,448.67 858.08,438.41 851.66,429.99"];
	11 -- 104	[pos="866.61,459.84 837.18,437.82 779.36,394.56 749.94,372.55"];
	11 -- 125	[pos="898.08,489.46 926.66,523.87 993.51,604.37 1021.9,638.51"];
	11 -- 135	[pos="882.92,491.64 881.4,506.74 879.25,528.09 877.73,543.18"];
	149	[height=0.5,
		pos="1097,610.86",
		width=0.75];
	11 -- 149	[pos="904.34,486.1 944.77,512.28 1037.1,572.05 1077.4,598.21"];
	151	[height=0.5,
		pos="1056.5,347.23",
		width=0.75];
	11 -- 151	[pos="903.13,459.91 936.17,435.62 1005.3,384.85 1038.2,360.64"];
	11 -- 153	[pos="879.21,455.71 867.77,419.17 841.65,335.77 830.22,299.26"];
	154	[height=0.5,
		pos="1004.3,275.33",
		width=0.75];
	11 -- 154	[pos="894.95,456.53 917.54,419.1 971.59,329.56 994.16,292.18"];
	156	[height=0.5,
		pos="1062,565.31",
		width=0.75];
	11 -- 156	[pos="906.13,484.5 940.2,502.16 1006.4,536.5 1040.5,554.18"];
	11 -- 158	[pos="881.89,455.17 873.36,400.7 848.14,239.65 839.63,185.3"];
	11 -- 159	[pos="874.39,490.13 851.88,526.47 798.68,612.33 776.11,648.77"];
	11 -- 160	[pos="895.06,490.06 911.47,516.59 943.39,568.17 959.83,594.73"];
	11 -- 29	[pos="910.9,478.2 944.4,484.34 1002.1,494.92 1035.7,501.07"];
	93	[height=0.5,
		pos="937.37,218.64",
		width=0.75];
	11 -- 93	[pos="888.45,455.5 898.11,408.72 924.02,283.29 933.68,236.53"];
	143	[height=0.5,
		pos="1080.1,402.68",
		width=0.75];
	11 -- 143	[pos="908.7,464.74 946.3,451.13 1018.7,424.9 1056.3,411.31"];
	67 -- 68	[pos="827.36,857.04 752.18,851.95 540.73,837.64 465.62,832.55"];
	71 -- 72	[pos="933.71,417.73 882.42,353.78 695.78,121.09 645,57.78"];
	73 -- 74	[pos="703.23,920.22 617.78,916.3 353.86,904.2 268.11,900.26"];
	5 -- 25	[pos="380.31,539.75 369.61,559.03 352.35,590.13 341.65,609.42"];
	5 -- 6	[pos="404.18,507.3 411.19,499.83 419.62,490.85 426.68,483.33"];
	5 -- 9	[pos="410.23,534.49 435.01,549 476.61,573.35 501.5,587.92"];
	5 -- 12	[pos="406.24,537.29 417.27,547.2 431.75,560.21 442.75,570.09"];
	5 -- 35	[pos="393,504.64 399.26,468.99 413.21,389.57 419.51,353.74"];
	5 -- 48	[pos="362.69,522.5 337.32,522.44 299.64,522.34 274.3,522.28"];
	5 -- 89	[pos="396.88,505.17 417.07,455.21 475.06,311.74 495.25,261.79"];
	5 -- 90	[pos="385.45,540.35 374.39,585.08 345.53,701.87 334.46,746.62"];
	5 -- 91	[pos="370.61,509.93 350.8,496.92 320.11,476.75 300.24,463.7"];
	92	[height=0.5,
		pos="446.07,134.14",
		width=0.75];
	5 -- 92	[pos="392.45,504.61 401.84,439.71 433.98,217.67 443.43,152.36"];
	5 -- 94	[pos="381.1,505.5 369.88,483.64 350.55,445.95 339.32,424.05"];
	5 -- 95	[pos="383.61,504.64 364.59,449.97 307.47,285.77 288.6,231.55"];
	5 -- 96	[pos="378.43,506.24 354.48,471.97 299.2,392.91 275.19,358.57"];
	97	[height=0.5,
		pos="27.538,518.99",
		width=0.75];
	5 -- 97	[pos="362.62,522.3 295.31,521.63 121.71,519.92 54.592,519.26"];
	99	[height=0.5,
		pos="119.85,289.4",
		width=0.75];
	5 -- 99	[pos="372.96,507.98 324.36,466.01 184.55,345.28 136.39,303.68"];
	5 -- 101	[pos="363.2,519.06 306.21,511.57 173.07,494.06 116.13,486.58"];
	5 -- 102	[pos="371.49,536.19 358.25,546.02 340.46,559.23 327.24,569.05"];
	5 -- 61	[pos="377.91,539.01 340.79,590.12 227.72,745.83 190.78,796.7"];
	76 -- 77	[pos="995.41,518.04 984.63,475.09 957.53,367.12 946.77,324.25"];
	78 -- 79	[pos="962.43,796.46 925.13,830.86 832.6,916.21 795.22,950.69"];
	83 -- 84	[pos="1008.8,438.06 964.56,391.82 833.64,255.08 789.46,208.95"];
	87 -- 88	[pos="981.85,746.1 929.69,764.34 806.47,807.42 754.18,825.7"];
	92 -- 93	[pos="472.48,138.69 557.89,153.37 825.96,199.48 911.13,214.12"];
	97 -- 98	[pos="44.982,532.96 77.354,558.89 146.38,614.19 178.88,640.22"];
	99 -- 100	[pos="132.93,273.57 167.7,231.49 262.12,117.21 296.99,75.003"];
	110 -- 111	[pos="53.1,455.35 47.342,480.54 36.876,526.33 31.101,551.59"];
	112 -- 113	[pos="102.74,545.7 140.41,595.01 253.35,742.84 291.06,792.2"];
	117 -- 118	[pos="863.43,118.16 803.53,107.64 656.89,81.883 596.65,71.302"];
	120 -- 121	[pos="806.01,122.95 760.21,150.12 649.35,215.87 603.44,243.1"];
	123 -- 124	[pos="569.99,121.1 497.52,138.18 290.94,186.88 218.29,204.01"];
	126 -- 127	[pos="539.71,953.69 502.56,929.82 422.42,878.34 385.22,854.44"];
	137 -- 138	[pos="252.21,370.41 263.99,319.21 297.85,172.17 309.63,120.98"];
	140 -- 141	[pos="265.48,835.33 299.91,846.47 362.49,866.72 397.02,877.89"];
	142 -- 143	[pos="903.95,334.77 942.41,349.6 1018,378.73 1056.4,393.55"];
	144 -- 145	[pos="422.49,716.44 375.13,722.1 277.22,733.8 229.88,739.45"];
	149 -- 150	[pos="1074.3,620.79 1014.4,646.91 853.17,717.33 793.04,743.59"];
	151 -- 152	[pos="1035.6,335.71 997.38,314.65 916.78,270.19 878.58,249.12"];
	154 -- 155	[pos="981.49,265.15 927.09,240.88 790.33,179.88 736.04,155.66"];
	156 -- 157	[pos="1043.4,578.71 1007.6,604.5 929.49,660.8 893.75,686.56"];
	161 -- 162	[pos="156.53,455.94 171.99,399.87 219.09,229.05 234.48,173.25"];
	163 -- 164	[pos="233.57,283.34 265.3,253.91 336.01,188.36 367.9,158.79"];
	165 -- 166	[pos="494.89,85.669 482.66,70.729 464.6,48.663 452.45,33.83"];
	171 -- 172	[pos="375.69,80.957 366.67,132.19 341.12,277.36 332.13,328.4"];
}
