graph {
	graph [bb="0,0,699.55,677.06",
		outputorder=edgesfirst,
		overlap=prism,
		size="50,50!",
		start=6069
	];
	node [label="\N"];
	0	[height=0.5,
		pos="487.52,659.06",
		width=0.75];
	1	[height=0.5,
		pos="418.01,580.74",
		width=0.75];
	0 -- 1	[pos="473.45,643.21 461.31,629.53 443.88,609.89 431.82,596.3"];
	10	[height=0.5,
		pos="558.35,583.78",
		width=0.75];
	0 -- 10	[pos="502.19,643.46 514.43,630.46 531.77,612.03 543.93,599.1"];
	2	[height=0.5,
		pos="330.41,477.35",
		width=0.75];
	1 -- 2	[pos="404.7,565.04 388.24,545.61 360.36,512.7 343.84,493.2"];
	11	[height=0.5,
		pos="504.61,520.87",
		width=0.75];
	1 -- 11	[pos="436.8,567.75 451.33,557.71 471.34,543.87 485.86,533.84"];
	13	[height=0.5,
		pos="521.73,476.83",
		width=0.75];
	10 -- 13	[pos="552.3,566.12 545.52,546.3 534.57,514.34 527.79,494.52"];
	10 -- 11	[pos="544.79,567.91 536.58,558.3 526.16,546.09 517.98,536.52"];
	3	[height=0.5,
		pos="283.97,358.01",
		width=0.75];
	2 -- 3	[pos="323.56,459.74 314.78,437.17 299.65,398.29 290.85,375.69"];
	37	[height=0.5,
		pos="225.49,441.81",
		width=0.75];
	2 -- 37	[pos="306.34,469.19 289.4,463.46 266.81,455.8 249.81,450.05"];
	16	[height=0.5,
		pos="390.41,536.7",
		width=0.75];
	13 -- 16	[pos="499.15,487.12 475.1,498.09 437.24,515.35 413.13,526.34"];
	14	[height=0.5,
		pos="540.15,343.01",
		width=0.75];
	13 -- 14	[pos="524.21,458.78 527.73,433.24 534.12,386.82 537.65,361.2"];
	4	[height=0.5,
		pos="291.81,239.65",
		width=0.75];
	3 -- 4	[pos="285.18,339.77 286.66,317.47 289.14,279.94 290.61,257.71"];
	24	[height=0.5,
		pos="172.86,376.57",
		width=0.75];
	3 -- 24	[pos="257.64,362.41 240.06,365.34 217.01,369.19 199.39,372.14"];
	20	[height=0.5,
		pos="246.87,567.39",
		width=0.75];
	16 -- 20	[pos="364.41,542.26 338.4,547.82 298.61,556.32 272.67,561.87"];
	17	[height=0.5,
		pos="415.26,451.25",
		width=0.75];
	16 -- 17	[pos="395.56,518.99 399.82,504.33 405.85,483.59 410.11,468.93"];
	5	[height=0.5,
		pos="333.69,110.25",
		width=0.75];
	4 -- 5	[pos="297.54,221.93 305.52,197.29 319.88,152.92 327.89,128.17"];
	31	[height=0.5,
		pos="233.65,192.95",
		width=0.75];
	4 -- 31	[pos="274.36,225.64 267,219.73 258.45,212.86 251.09,206.95"];
	23	[height=0.5,
		pos="118.94,485.26",
		width=0.75];
	20 -- 23	[pos="227.16,554.74 203.05,539.26 162.48,513.22 138.46,497.79"];
	21	[height=0.5,
		pos="290.33,521.39",
		width=0.75];
	20 -- 21	[pos="261.34,552.07 265.98,547.16 271.12,541.72 275.77,536.8"];
	6	[height=0.5,
		pos="454.32,133",
		width=0.75];
	5 -- 6	[pos="359.87,115.18 380.1,119 407.98,124.26 428.2,128.07"];
	40	[height=0.5,
		pos="251.21,62.043",
		width=0.75];
	5 -- 40	[pos="313.3,98.333 300.61,90.916 284.35,81.411 271.65,73.989"];
	26	[height=0.5,
		pos="27,390.85",
		width=0.75];
	23 -- 26	[pos="104.17,470.09 87.01,452.48 58.876,423.58 41.735,405.98"];
	23 -- 24	[pos="127.6,467.8 137.66,447.51 154.16,414.25 164.22,393.99"];
	7	[height=0.5,
		pos="558.52,150.19",
		width=0.75];
	6 -- 7	[pos="480.61,137.33 496.41,139.94 516.44,143.25 532.23,145.85"];
	32	[height=0.5,
		pos="357.22,154.25",
		width=0.75];
	6 -- 32	[pos="428.55,138.64 414.51,141.71 397.17,145.51 383.1,148.58"];
	28	[height=0.5,
		pos="28.313,252.9",
		width=0.75];
	26 -- 28	[pos="27.172,372.82 27.423,346.38 27.89,297.38 28.142,270.94"];
	27	[height=0.5,
		pos="77.421,318.68",
		width=0.75];
	26 -- 27	[pos="38.441,374.47 46.635,362.75 57.628,347.01 65.85,335.24"];
	8	[height=0.5,
		pos="606.15,258.35",
		width=0.75];
	7 -- 8	[pos="566.17,167.57 575.06,187.75 589.64,220.85 598.52,241.01"];
	42	[height=0.5,
		pos="500.03,54.701",
		width=0.75];
	7 -- 42	[pos="548.06,133.12 537.42,115.74 521.01,88.952 510.39,71.625"];
	30	[height=0.5,
		pos="114.38,251.7",
		width=0.75];
	28 -- 30	[pos="55.547,252.52 65.693,252.38 77.199,252.22 87.329,252.07"];
	29	[height=0.5,
		pos="109.54,185.07",
		width=0.75];
	28 -- 29	[pos="45.539,238.51 59.417,226.92 78.82,210.72 92.616,199.2"];
	9	[height=0.5,
		pos="672.55,344.12",
		width=0.75];
	8 -- 9	[pos="618.64,274.48 630.51,289.81 648.26,312.75 660.12,328.06"];
	8 -- 14	[pos="593.43,274.67 581.66,289.76 564.29,312.04 552.62,327.02"];
	35	[height=0.5,
		pos="96.957,392.57",
		width=0.75];
	30 -- 35	[pos="112.14,269.83 108.8,296.87 102.53,347.5 99.191,374.51"];
	30 -- 31	[pos="136.26,240.92 157.78,230.32 190.44,214.23 211.91,203.65"];
	12	[height=0.5,
		pos="618.97,456.93",
		width=0.75];
	9 -- 12	[pos="664.18,361.75 654.11,382.94 637.32,418.29 627.28,439.43"];
	36	[height=0.5,
		pos="180.97,505.92",
		width=0.75];
	35 -- 36	[pos="108.99,408.81 124.97,430.36 153,468.18 168.96,489.71"];
	11 -- 17	[pos="486.96,507.12 471.29,494.91 448.53,477.17 432.87,464.98"];
	11 -- 12	[pos="525.32,509.29 545.92,497.78 577.35,480.2 598.03,468.64"];
	17 -- 21	[pos="394.35,462.99 371.29,475.94 334.4,496.65 311.31,509.61"];
	18	[height=0.5,
		pos="439.39,318.65",
		width=0.75];
	17 -- 18	[pos="418.51,433.37 423.12,408.06 431.49,362.06 436.11,336.68"];
	21 -- 36	[pos="263.86,517.64 246.79,515.23 224.67,512.1 207.58,509.69"];
	22	[height=0.5,
		pos="306.97,428.7",
		width=0.75];
	21 -- 22	[pos="293.62,503.08 296.55,486.72 300.83,462.91 303.75,446.66"];
	15	[height=0.5,
		pos="563.11,401.43",
		width=0.75];
	12 -- 15	[pos="603.7,441.76 595.82,433.93 586.23,424.41 578.35,416.58"];
	36 -- 37	[pos="192.44,489.41 199.03,479.92 207.29,468.01 213.91,458.49"];
	14 -- 15	[pos="547.04,360.54 549.94,367.93 553.32,376.52 556.22,383.91"];
	14 -- 18	[pos="514.73,336.86 499.45,333.17 480.08,328.49 464.81,324.8"];
	19	[height=0.5,
		pos="432.7,385.89",
		width=0.75];
	15 -- 19	[pos="536.4,398.25 513.9,395.56 481.86,391.75 459.37,389.06"];
	38	[height=0.5,
		pos="182.92,302.31",
		width=0.75];
	37 -- 38	[pos="220.1,424.14 211.95,397.45 196.6,347.13 188.4,320.27"];
	24 -- 38	[pos="175.29,358.59 176.86,347 178.9,331.98 180.47,320.38"];
	25	[height=0.5,
		pos="163.43,420.61",
		width=0.75];
	24 -- 25	[pos="169.02,394.48 168.45,397.15 167.86,399.9 167.29,402.57"];
	18 -- 19	[pos="437.6,336.67 436.64,346.32 435.46,358.16 434.5,367.82"];
	33	[height=0.5,
		pos="386.38,211.9",
		width=0.75];
	18 -- 33	[pos="430.87,301.5 420.98,281.58 404.76,248.91 394.87,229.01"];
	19 -- 22	[pos="408.46,394.14 386.2,401.72 353.38,412.9 331.14,420.47"];
	39	[height=0.5,
		pos="171.59,155.81",
		width=0.75];
	38 -- 39	[pos="181.5,284.05 179.32,255.83 175.16,201.93 172.99,173.84"];
	31 -- 39	[pos="213.33,180.79 206.4,176.64 198.66,172.01 191.75,167.87"];
	31 -- 32	[pos="258.36,185.21 279.91,178.46 311.01,168.72 332.55,161.98"];
	22 -- 25	[pos="279.97,427.18 254.47,425.74 216.41,423.6 190.79,422.15"];
	39 -- 40	[pos="185.1,139.91 199.83,122.56 223.25,94.97 237.9,77.715"];
	25 -- 27	[pos="149.99,404.68 133.83,385.53 106.88,353.59 90.765,334.49"];
	41	[height=0.5,
		pos="376.47,35.589",
		width=0.75];
	40 -- 41	[pos="277.16,56.562 298.66,52.022 329.06,45.602 350.55,41.063"];
	32 -- 41	[pos="360.14,136.23 363.76,113.93 369.88,76.162 373.51,53.781"];
	32 -- 33	[pos="365.97,171.55 369.66,178.85 373.94,187.32 377.63,194.62"];
	27 -- 29	[pos="81.753,300.66 87.882,275.16 99.025,228.8 105.17,203.23"];
	41 -- 42	[pos="402.97,39.689 423.82,42.914 452.73,47.385 473.56,50.608"];
	34	[height=0.5,
		pos="250.58,140.82",
		width=0.75];
	29 -- 34	[pos="134.11,177.36 159.84,169.29 200.02,156.68 225.82,148.59"];
	43	[height=0.5,
		pos="427.43,87.159",
		width=0.75];
	42 -- 43	[pos="477.45,64.793 468.8,68.664 458.92,73.081 450.24,76.962"];
	33 -- 34	[pos="364.86,200.64 339.43,187.33 297.38,165.32 272,152.03"];
	33 -- 43	[pos="392.17,194.3 399.95,170.66 413.7,128.88 421.53,105.08"];
	44	[height=0.5,
		pos="310.2,18",
		width=0.75];
	34 -- 44	[pos="259,123.48 270.36,100.08 290.49,58.611 301.83,35.249"];
	43 -- 44	[pos="407.01,75.113 385.62,62.496 352.23,42.792 330.78,30.141"];
}
