graph {
	graph [bb="0,0,925.4,624.71",
		outputorder=edgesfirst,
		overlap=prism,
		size="50,50!",
		start=4585
	];
	node [label="\N"];
	0	[height=0.5,
		pos="464.79,381.87",
		width=0.75];
	37	[height=0.5,
		pos="309.02,440.18",
		width=0.75];
	0 -- 37	[pos="441.13,390.72 411.77,401.71 361.99,420.35 332.65,431.33"];
	2	[height=0.5,
		pos="513.82,252.98",
		width=0.75];
	0 -- 2	[pos="471.5,364.22 480.84,339.67 497.65,295.48 507.03,270.83"];
	25	[height=0.5,
		pos="387.66,264.1",
		width=0.75];
	0 -- 25	[pos="453.9,365.24 439.2,342.8 413.16,303.04 398.49,280.64"];
	3	[height=0.5,
		pos="513.87,208.66",
		width=0.75];
	0 -- 3	[pos="469.85,363.98 479.28,330.71 499.42,259.65 508.83,226.45"];
	4	[height=0.5,
		pos="407.37,337.81",
		width=0.75];
	0 -- 4	[pos="446.93,368.17 440.09,362.91 432.27,356.92 425.41,351.65"];
	5	[height=0.5,
		pos="429,444.66",
		width=0.75];
	0 -- 5	[pos="455.19,398.7 450.06,407.7 443.75,418.77 438.61,427.79"];
	18	[height=0.5,
		pos="485.66,512.6",
		width=0.75];
	0 -- 18	[pos="467.64,399.77 471.62,424.67 478.78,469.49 482.77,494.49"];
	62	[height=0.5,
		pos="371.33,398.08",
		width=0.75];
	0 -- 62	[pos="438.26,386.47 425.52,388.68 410.31,391.32 397.61,393.52"];
	9	[height=0.5,
		pos="538.76,468.53",
		width=0.75];
	0 -- 9	[pos="478.35,397.76 491.7,413.4 511.96,437.13 525.28,452.74"];
	34	[height=0.5,
		pos="585.71,321.11",
		width=0.75];
	0 -- 34	[pos="486.4,371.01 508.28,360.02 541.92,343.12 563.87,332.09"];
	12	[height=0.5,
		pos="278.65,396.16",
		width=0.75];
	0 -- 12	[pos="437.72,383.95 402.43,386.65 341.06,391.37 305.75,394.08"];
	20	[height=0.5,
		pos="307.4,352.11",
		width=0.75];
	0 -- 20	[pos="438.8,376.95 409.63,371.44 362.6,362.55 333.43,357.03"];
	39	[height=0.5,
		pos="495.33,572.14",
		width=0.75];
	0 -- 39	[pos="467.66,399.77 473.48,436.03 486.61,517.81 492.44,554.15"];
	49	[height=0.5,
		pos="345.29,308.11",
		width=0.75];
	0 -- 49	[pos="444.78,369.52 422.73,355.91 387.44,334.13 365.35,320.49"];
	64	[height=0.5,
		pos="451.8,225.65",
		width=0.75];
	0 -- 64	[pos="463.27,363.64 460.77,333.54 455.8,273.79 453.31,243.76"];
	28	[height=0.5,
		pos="356.71,484.18",
		width=0.75];
	0 -- 28	[pos="448.84,396.96 428.29,416.42 392.78,450.03 372.37,469.36"];
	71	[height=0.5,
		pos="371.29,528.22",
		width=0.75];
	0 -- 71	[pos="454.06,398.66 436.02,426.89 399.84,483.53 381.89,511.63"];
	54	[height=0.5,
		pos="558.6,519.34",
		width=0.75];
	0 -- 54	[pos="476.1,398.45 494.13,424.87 529.18,476.24 547.24,502.7"];
	35	[height=0.5,
		pos="431.45,602.54",
		width=0.75];
	0 -- 35	[pos="462.06,399.93 455.79,441.41 440.43,543.12 434.17,584.54"];
	57	[height=0.5,
		pos="449.72,269.69",
		width=0.75];
	0 -- 57	[pos="462.36,363.84 459.55,342.91 454.94,308.58 452.13,287.67"];
	77	[height=0.5,
		pos="640.95,394.27",
		width=0.75];
	0 -- 77	[pos="491.92,383.78 525.13,386.12 580.98,390.05 614.07,392.38"];
	37 -- 62	[pos="328.06,427.32 335.64,422.19 344.37,416.3 351.99,411.15"];
	1	[height=0.5,
		pos="647.77,345.25",
		width=0.75];
	67	[height=0.5,
		pos="575.88,277.09",
		width=0.75];
	1 -- 67	[pos="632.17,330.46 620.11,319.03 603.5,303.28 591.44,291.85"];
	1 -- 2	[pos="628.86,332.22 603.33,314.64 558.11,283.49 532.63,265.93"];
	1 -- 3	[pos="632.93,330.11 607.19,303.86 554.56,250.17 528.78,223.87"];
	8	[height=0.5,
		pos="640.14,235.76",
		width=0.75];
	1 -- 8	[pos="646.51,327.17 645.1,306.88 642.81,274.16 641.4,253.87"];
	1 -- 4	[pos="620.66,344.41 574.37,342.98 480.61,340.07 434.38,338.64"];
	36	[height=0.5,
		pos="526.83,366.03",
		width=0.75];
	1 -- 36	[pos="621.53,349.76 601.24,353.24 573.29,358.05 553.02,361.53"];
	10	[height=0.5,
		pos="731.73,236.26",
		width=0.75];
	1 -- 10	[pos="660.16,329.17 676.03,308.56 703.39,273.05 719.29,252.41"];
	1 -- 9	[pos="633.96,360.86 613.11,384.45 573.79,428.92 552.8,452.65"];
	1 -- 34	[pos="624.31,336.12 619.37,334.2 614.15,332.17 609.21,330.25"];
	41	[height=0.5,
		pos="771.86,336.23",
		width=0.75];
	1 -- 41	[pos="674.69,343.29 695.51,341.78 724.18,339.69 744.99,338.18"];
	43	[height=0.5,
		pos="785.83,284.32",
		width=0.75];
	1 -- 43	[pos="670.57,335.19 696.15,323.9 737.41,305.69 763,294.39"];
	52	[height=0.5,
		pos="709.82,324.31",
		width=0.75];
	1 -- 52	[pos="671.94,337.09 676.43,335.58 681.12,333.99 685.61,332.48"];
	23	[height=0.5,
		pos="631.61,528.18",
		width=0.75];
	1 -- 23	[pos="646.16,363.46 643.06,398.52 636.31,475.04 633.21,510.04"];
	50	[height=0.5,
		pos="696.64,512.28",
		width=0.75];
	1 -- 50	[pos="653,363.12 662.41,395.27 682.07,462.48 691.45,494.53"];
	73	[height=0.5,
		pos="603.65,438.28",
		width=0.75];
	1 -- 73	[pos="639.47,362.75 631.58,379.38 619.79,404.25 611.91,420.86"];
	29	[height=0.5,
		pos="675.77,280.27",
		width=0.75];
	1 -- 29	[pos="655.27,327.84 659.29,318.51 664.22,307.06 668.24,297.73"];
	44	[height=0.5,
		pos="526.94,412.57",
		width=0.75];
	1 -- 44	[pos="627,356.82 604.86,369.15 570.02,388.56 547.84,400.92"];
	53	[height=0.5,
		pos="793.42,380.25",
		width=0.75];
	1 -- 53	[pos="673.47,351.43 700.1,357.82 741.45,367.76 767.98,374.13"];
	74	[height=0.5,
		pos="512.37,297.52",
		width=0.75];
	1 -- 74	[pos="623.87,336.82 599.28,328.15 561.16,314.72 536.48,306.02"];
	58	[height=0.5,
		pos="791.95,424.25",
		width=0.75];
	1 -- 58	[pos="668.74,356.74 696.07,371.72 743.61,397.77 770.96,412.75"];
	1 -- 77	[pos="645.27,363.22 644.68,367.49 644.04,372.03 643.45,376.3"];
	65	[height=0.5,
		pos="740.23,468.25",
		width=0.75];
	1 -- 65	[pos="660.05,361.58 677.73,385.11 710.19,428.29 727.9,451.85"];
	79	[height=0.5,
		pos="669.6,457.47",
		width=0.75];
	1 -- 79	[pos="651.28,363.28 655.35,384.22 662.03,418.56 666.1,439.48"];
	2 -- 25	[pos="486.76,255.36 465.47,257.24 435.95,259.84 414.68,261.72"];
	2 -- 3	[pos="513.84,234.95 513.84,232.27 513.85,229.5 513.85,226.82"];
	2 -- 4	[pos="496.24,266.98 476.52,282.7 444.71,308.05 424.98,323.78"];
	7	[height=0.5,
		pos="693.67,191.72",
		width=0.75];
	2 -- 7	[pos="538.08,244.71 572.5,232.99 635.15,211.65 669.52,199.95"];
	17	[height=0.5,
		pos="382.19,175.51",
		width=0.75];
	2 -- 17	[pos="493.54,241.04 468.88,226.53 427.48,202.16 402.71,187.59"];
	2 -- 52	[pos="537.85,261.72 575.57,275.45 648.24,301.9 685.89,315.6"];
	22	[height=0.5,
		pos="444.29,181.63",
		width=0.75];
	2 -- 22	[pos="499.07,237.85 487.27,225.74 470.81,208.84 459.01,196.74"];
	26	[height=0.5,
		pos="524.74,157.08",
		width=0.75];
	2 -- 26	[pos="515.87,234.94 517.83,217.8 520.75,192.16 522.7,175.04"];
	46	[height=0.5,
		pos="367.36,220.04",
		width=0.75];
	2 -- 46	[pos="487.97,247.16 461.2,241.14 419.63,231.79 392.95,225.79"];
	2 -- 64	[pos="491.08,242.96 485.68,240.58 479.93,238.05 474.54,235.67"];
	2 -- 29	[pos="540.2,257.42 570.31,262.5 619.29,270.75 649.4,275.82"];
	2 -- 74	[pos="513.23,271.09 513.14,273.79 513.05,276.57 512.96,279.27"];
	2 -- 57	[pos="488.48,259.58 484,260.75 479.34,261.97 474.87,263.13"];
	25 -- 49	[pos="372.84,279.49 368.64,283.85 364.07,288.6 359.89,292.95"];
	25 -- 46	[pos="379.64,246.68 378.22,243.6 376.74,240.4 375.33,237.32"];
	25 -- 57	[pos="414.7,266.53 417.31,266.77 419.96,267.01 422.58,267.24"];
	3 -- 67	[pos="527.94,224.19 538.09,235.39 551.73,250.44 561.86,261.63"];
	3 -- 8	[pos="539.73,214.21 561.52,218.89 592.54,225.55 614.32,230.22"];
	3 -- 7	[pos="540.79,206.13 574.78,202.92 632.92,197.45 666.87,194.25"];
	3 -- 10	[pos="540.58,212.05 582.51,217.36 663.29,227.59 705.14,232.9"];
	3 -- 17	[pos="488.48,202.27 465.16,196.4 430.79,187.75 407.5,181.88"];
	3 -- 34	[pos="524.47,225.26 538.05,246.52 561.46,283.16 575.07,304.45"];
	19	[height=0.5,
		pos="726.7,147.56",
		width=0.75];
	3 -- 19	[pos="538.7,201.54 579.6,189.79 660.68,166.51 701.69,154.74"];
	13	[height=0.5,
		pos="376.62,126.35",
		width=0.75];
	3 -- 13	[pos="493.62,196.52 467.67,180.95 422.95,154.13 396.96,138.54"];
	42	[height=0.5,
		pos="439.42,131.48",
		width=0.75];
	3 -- 42	[pos="499.16,193.42 486.11,179.88 467.14,160.22 454.1,146.7"];
	3 -- 22	[pos="490.31,199.51 483.06,196.7 475.07,193.59 467.82,190.78"];
	24	[height=0.5,
		pos="549.91,69.02",
		width=0.75];
	3 -- 24	[pos="518.51,190.69 525.43,163.88 538.38,113.69 545.29,86.921"];
	3 -- 26	[pos="517.67,190.62 518.73,185.63 519.87,180.2 520.92,175.2"];
	31	[height=0.5,
		pos="652.02,147.69",
		width=0.75];
	3 -- 31	[pos="536.68,198.6 562.28,187.3 603.56,169.08 629.17,157.77"];
	3 -- 64	[pos="488.62,215.57 484.73,216.64 480.71,217.74 476.82,218.8"];
	38	[height=0.5,
		pos="611.97,59.612",
		width=0.75];
	3 -- 38	[pos="524.74,192.14 543.6,163.49 582.16,104.91 601.05,76.207"];
	47	[height=0.5,
		pos="503,113.04",
		width=0.75];
	3 -- 47	[pos="511.82,190.68 509.89,173.69 507.01,148.34 505.07,131.27"];
	40	[height=0.5,
		pos="664.52,103.66",
		width=0.75];
	3 -- 40	[pos="532.64,195.58 561.51,175.46 616.5,137.13 645.51,116.91"];
	48	[height=0.5,
		pos="440.99,77.09",
		width=0.75];
	3 -- 48	[pos="504.49,191.73 490.57,166.61 464.59,119.7 450.56,94.375"];
	8 -- 67	[pos="620.51,248.39 612.53,253.51 603.35,259.42 595.39,264.54"];
	8 -- 10	[pos="667.62,235.91 679.32,235.98 692.92,236.05 704.59,236.11"];
	4 -- 25	[pos="402.6,319.96 399.52,308.46 395.54,293.55 392.46,282.03"];
	4 -- 5	[pos="411.04,355.93 415.04,375.7 421.4,407.14 425.38,426.8"];
	4 -- 36	[pos="433,343.86 453.15,348.62 481.1,355.23 501.24,359.99"];
	6	[height=0.5,
		pos="245.33,328.6",
		width=0.75];
	4 -- 6	[pos="380.25,336.26 350.25,334.56 302.2,331.83 272.27,330.13"];
	4 -- 62	[pos="397.33,354.6 392.42,362.82 386.51,372.7 381.57,380.96"];
	4 -- 9	[pos="422.44,352.8 447.66,377.88 498.1,428.07 523.46,453.31"];
	4 -- 12	[pos="384.95,347.97 361.47,358.61 324.8,375.24 301.25,385.91"];
	4 -- 20	[pos="380.84,341.6 366.38,343.67 348.53,346.23 334.05,348.3"];
	32	[height=0.5,
		pos="433.33,558.51",
		width=0.75];
	4 -- 32	[pos="409.5,355.87 414.38,397.36 426.34,499.08 431.21,540.51"];
	4 -- 49	[pos="385.31,327.25 379.45,324.45 373.13,321.43 367.28,318.63"];
	4 -- 46	[pos="401.38,320.17 393.84,297.97 380.96,260.05 373.39,237.79"];
	4 -- 73	[pos="429.13,348.94 466.96,368.31 544.41,407.95 582.09,427.25"];
	4 -- 44	[pos="427.12,350.15 449.27,364 485,386.34 507.16,400.2"];
	4 -- 74	[pos="430.94,328.76 448.23,322.13 471.61,313.16 488.88,306.53"];
	5 -- 18	[pos="442.14,460.42 451.16,471.24 463.1,485.55 472.19,496.46"];
	5 -- 62	[pos="411.7,430.69 404.4,424.79 395.92,417.94 388.62,412.05"];
	5 -- 9	[pos="454.73,450.26 472.22,454.06 495.27,459.07 512.81,462.89"];
	5 -- 32	[pos="429.68,462.7 430.49,483.89 431.82,518.86 432.63,540.18"];
	5 -- 71	[pos="417.59,461.17 407.48,475.82 392.77,497.11 382.66,511.75"];
	18 -- 32	[pos="469.1,527.13 462.99,532.48 456.07,538.56 449.96,543.92"];
	18 -- 28	[pos="459.87,506.92 437.38,501.96 404.93,494.81 382.45,489.85"];
	18 -- 71	[pos="459.13,516.22 440.79,518.73 416.46,522.05 398.06,524.56"];
	18 -- 35	[pos="475.46,529.52 465.77,545.6 451.28,569.64 441.6,585.7"];
	36 -- 73	[pos="542.74,381 556.02,393.48 574.82,411.17 588.01,423.58"];
	36 -- 44	[pos="526.87,384.16 526.88,387.52 526.88,391.04 526.89,394.41"];
	6 -- 12	[pos="253.91,346 258.93,356.16 265.23,368.94 270.22,379.05"];
	6 -- 20	[pos="269.15,337.63 273.94,339.44 278.96,341.34 283.75,343.15"];
	15	[height=0.5,
		pos="216.64,375.6",
		width=0.75];
	6 -- 15	[pos="235.14,345.31 232.49,349.63 229.65,354.3 227,358.64"];
	68	[height=0.5,
		pos="183.32,293.62",
		width=0.75];
	6 -- 68	[pos="224.68,316.95 218.06,313.22 210.72,309.08 204.09,305.34"];
	30	[height=0.5,
		pos="195.25,420.42",
		width=0.75];
	6 -- 30	[pos="235.91,345.87 226.96,362.29 213.57,386.84 204.63,403.23"];
	21	[height=0.5,
		pos="226.71,464.49",
		width=0.75];
	6 -- 21	[pos="242.86,346.65 239.3,372.64 232.76,420.34 229.19,446.37"];
	45	[height=0.5,
		pos="121.19,303.57",
		width=0.75];
	6 -- 45	[pos="219.31,323.35 198.12,319.08 168.36,313.08 147.18,308.81"];
	72	[height=0.5,
		pos="139.74,249.6",
		width=0.75];
	6 -- 72	[pos="226.94,314.84 207.56,300.34 177.22,277.64 157.92,263.2"];
	56	[height=0.5,
		pos="150.89,205.56",
		width=0.75];
	6 -- 56	[pos="232.98,312.52 214.89,288.94 181.34,245.23 163.24,221.65"];
	78	[height=0.5,
		pos="135.96,359.36",
		width=0.75];
	6 -- 78	[pos="220.24,335.66 202.46,340.66 178.7,347.34 160.94,352.34"];
	7 -- 10	[pos="707.41,207.8 710.91,211.89 714.66,216.28 718.14,220.36"];
	7 -- 19	[pos="705.78,175.53 708.65,171.69 711.72,167.59 714.59,163.75"];
	14	[height=0.5,
		pos="793.78,211.21",
		width=0.75];
	7 -- 14	[pos="719.72,196.79 734.43,199.65 752.77,203.22 767.53,206.09"];
	11	[height=0.5,
		pos="800.04,167.2",
		width=0.75];
	7 -- 11	[pos="719.42,185.78 736.02,181.96 757.53,177 774.16,173.16"];
	27	[height=0.5,
		pos="759.58,79.122",
		width=0.75];
	7 -- 27	[pos="703.68,174.62 716.14,153.33 737.29,117.2 749.69,96.015"];
	55	[height=0.5,
		pos="788.75,123.15",
		width=0.75];
	7 -- 55	[pos="712.01,178.5 728.74,166.44 753.34,148.69 770.15,136.57"];
	7 -- 26	[pos="667.65,186.38 635.9,179.88 582.56,168.94 550.8,162.43"];
	7 -- 31	[pos="679.11,176.32 675.07,172.05 670.69,167.42 666.65,163.15"];
	7 -- 29	[pos="690.05,209.64 686.94,225 682.49,247.02 679.38,262.38"];
	51	[height=0.5,
		pos="696.85,26.84",
		width=0.75];
	7 -- 51	[pos="694.03,173.45 694.64,141.67 695.89,76.604 696.5,44.946"];
	10 -- 14	[pos="754.84,226.93 759.94,224.87 765.34,222.69 770.45,220.63"];
	10 -- 11	[pos="746.89,220.94 758.21,209.49 773.61,193.92 784.92,182.48"];
	10 -- 43	[pos="747.97,250.68 754.81,256.76 762.77,263.83 769.61,269.91"];
	69	[height=0.5,
		pos="855.98,239.8",
		width=0.75];
	10 -- 69	[pos="759,237.04 779.71,237.63 808.07,238.43 828.77,239.02"];
	10 -- 53	[pos="739.17,253.63 751.03,281.31 774.08,335.1 785.96,362.82"];
	76	[height=0.5,
		pos="855.05,298.45",
		width=0.75];
	10 -- 76	[pos="753.5,247.24 776.04,258.6 811.04,276.26 833.5,287.58"];
	9 -- 18	[pos="521.67,482.72 515.6,487.75 508.78,493.41 502.72,498.44"];
	59	[height=0.5,
		pos="636.08,592.21",
		width=0.75];
	9 -- 59	[pos="551.49,484.7 570.14,508.4 604.7,552.33 623.36,576.03"];
	9 -- 32	[pos="521.82,482.99 502.15,499.78 469.88,527.31 450.23,544.09"];
	9 -- 23	[pos="558.45,481.18 574.21,491.3 596.2,505.43 611.95,515.55"];
	9 -- 50	[pos="563.78,475.46 593.26,483.63 641.95,497.12 671.48,505.31"];
	9 -- 73	[pos="561.09,458.12 567.69,455.04 574.91,451.68 581.5,448.61"];
	9 -- 54	[pos="545.59,486.02 547.56,491.07 549.71,496.58 551.69,501.65"];
	9 -- 77	[pos="557.03,455.25 575.52,441.82 603.94,421.16 622.49,407.68"];
	61	[height=0.5,
		pos="574.02,584.86",
		width=0.75];
	9 -- 61	[pos="544.12,486.2 550.75,508.06 561.97,545.08 568.62,567.02"];
	59 -- 61	[pos="609.4,589.05 606.51,588.7 603.57,588.36 600.68,588.01"];
	63	[height=0.5,
		pos="735.05,606.71",
		width=0.75];
	59 -- 63	[pos="662.6,596.09 676.8,598.18 694.24,600.73 708.45,602.82"];
	70	[height=0.5,
		pos="426.29,18",
		width=0.75];
	17 -- 70	[pos="387.16,157.75 395.63,127.5 412.76,66.31 421.27,35.939"];
	17 -- 22	[pos="409.24,178.18 411.99,178.45 414.78,178.72 417.52,178.99"];
	17 -- 26	[pos="409,172.05 434.49,168.75 472.6,163.82 498.05,160.53"];
	34 -- 54	[pos="583.26,339.05 578.11,376.7 566.23,463.56 561.06,501.29"];
	34 -- 77	[pos="597.97,337.35 607.12,349.47 619.58,365.97 628.72,378.08"];
	34 -- 79	[pos="596,337.83 612.1,364 643.08,414.36 659.23,440.61"];
	41 -- 43	[pos="776.67,318.36 778.09,313.08 779.64,307.31 781.06,302.04"];
	41 -- 52	[pos="745.91,331.24 742.59,330.6 739.19,329.95 735.86,329.31"];
	41 -- 58	[pos="775.92,354.04 779.39,369.21 784.34,390.91 787.82,406.16"];
	19 -- 31	[pos="699.31,147.61 692.74,147.62 685.71,147.63 679.15,147.64"];
	19 -- 38	[pos="708.77,133.82 687.22,117.3 651.27,89.737 629.77,73.258"];
	19 -- 40	[pos="708.04,134.39 700.17,128.83 691.03,122.38 683.16,116.82"];
	19 -- 51	[pos="722.29,129.75 716.65,106.92 706.92,67.585 701.27,44.726"];
	14 -- 41	[pos="790.64,229.12 786.47,252.89 779.16,294.6 774.99,318.35"];
	14 -- 27	[pos="789.17,193.39 782.64,168.18 770.78,122.36 764.23,97.075"];
	75	[height=0.5,
		pos="898.4,147.25",
		width=0.75];
	14 -- 75	[pos="813.95,198.87 832.48,187.55 859.78,170.86 878.29,159.54"];
	14 -- 43	[pos="791.82,229.28 790.6,240.53 789.03,254.94 787.8,266.2"];
	14 -- 69	[pos="816.24,221.53 821.8,224.09 827.77,226.83 833.35,229.39"];
	14 -- 55	[pos="792.74,192.96 791.88,177.85 790.66,156.48 789.8,141.38"];
	14 -- 29	[pos="773.23,223.24 751.57,235.91 717.66,255.75 696.09,268.38"];
	14 -- 76	[pos="805.31,227.62 816.26,243.21 832.64,266.54 843.58,282.11"];
	11 -- 14	[pos="797.46,185.35 797.1,187.91 796.72,190.54 796.36,193.09"];
	11 -- 27	[pos="792.05,149.8 784.95,134.36 774.64,111.92 767.56,96.486"];
	11 -- 75	[pos="825.88,161.96 840.22,159.05 858.02,155.44 872.39,152.52"];
	11 -- 69	[pos="812.45,183.31 821.72,195.34 834.33,211.71 843.6,223.73"];
	27 -- 75	[pos="781.57,89.916 807.57,102.67 850.56,123.77 876.5,136.5"];
	27 -- 55	[pos="770.61,95.769 772.93,99.276 775.38,102.98 777.71,106.48"];
	12 -- 37	[pos="289.96,412.55 292.46,416.16 295.1,420 297.6,423.62"];
	12 -- 62	[pos="305.96,396.72 318.03,396.97 332.18,397.27 344.22,397.52"];
	12 -- 20	[pos="289.52,379.51 291.81,376 294.23,372.3 296.52,368.79"];
	12 -- 15	[pos="254.15,388.03 249.81,386.6 245.3,385.1 240.97,383.67"];
	12 -- 30	[pos="253.63,403.44 243.07,406.51 230.81,410.08 220.26,413.15"];
	12 -- 21	[pos="266.34,412.35 258.06,423.24 247.19,437.54 238.93,448.41"];
	60	[height=0.5,
		pos="282.54,554.24",
		width=0.75];
	12 -- 60	[pos="279.1,414.29 279.84,444.62 281.34,505.31 282.09,535.83"];
	33	[height=0.5,
		pos="282.63,509.8",
		width=0.75];
	12 -- 33	[pos="279.28,414.16 280.02,435.32 281.25,470.22 281.99,491.5"];
	20 -- 68	[pos="285.22,341.66 262.77,331.07 228.26,314.8 205.73,304.18"];
	20 -- 33	[pos="304.56,370.2 299.81,400.46 290.3,461 285.52,491.44"];
	13 -- 42	[pos="403.62,128.55 406.55,128.79 409.52,129.03 412.45,129.27"];
	13 -- 70	[pos="384.6,108.94 393.87,88.72 409.07,55.565 418.33,35.365"];
	13 -- 22	[pos="393.7,140.3 403.88,148.62 416.76,159.14 426.98,167.49"];
	13 -- 26	[pos="402.43,131.7 429.45,137.31 471.65,146.07 498.74,151.69"];
	42 -- 48	[pos="439.94,113.37 440.11,107.56 440.29,101.12 440.46,95.306"];
	15 -- 20	[pos="241.92,369.06 254.41,365.83 269.43,361.94 281.94,358.7"];
	15 -- 68	[pos="209.58,358.21 203.96,344.4 196.14,325.15 190.5,311.26"];
	15 -- 30	[pos="208.43,392.8 206.83,396.16 205.15,399.68 203.54,403.05"];
	15 -- 21	[pos="218.68,393.59 220.43,409.01 222.93,431.11 224.67,446.53"];
	15 -- 60	[pos="223.2,393.38 235.83,427.62 263.4,502.34 276.01,536.53"];
	15 -- 33	[pos="225.14,392.87 237.81,418.64 261.52,466.87 274.17,492.6"];
	15 -- 45	[pos="198.69,362.05 181.73,349.25 156.42,330.16 139.39,317.3"];
	68 -- 72	[pos="168.08,278.22 163.76,273.86 159.06,269.11 154.75,264.76"];
	68 -- 78	[pos="171.62,309.87 164.39,319.91 155.13,332.75 147.86,342.84"];
	16	[height=0.5,
		pos="27,279.15",
		width=0.75];
	66	[height=0.5,
		pos="51.894,205.73",
		width=0.75];
	16 -- 66	[pos="33.026,261.38 36.94,249.84 42.02,234.85 45.923,223.34"];
	16 -- 45	[pos="52.241,285.69 65.755,289.2 82.353,293.5 95.878,297"];
	16 -- 56	[pos="47.181,267.16 70.22,253.48 107.69,231.23 130.72,217.54"];
	66 -- 72	[pos="73.608,216.58 87.122,223.33 104.44,231.97 117.97,238.73"];
	43 -- 53	[pos="787.26,302.36 788.61,319.4 790.62,344.83 791.98,361.96"];
	43 -- 58	[pos="786.62,302.32 787.79,329.05 789.97,378.93 791.15,405.87"];
	43 -- 76	[pos="812,289.66 817.51,290.78 823.33,291.97 828.85,293.1"];
	69 -- 75	[pos="863.95,222.39 871.54,205.84 882.88,181.1 890.45,164.58"];
	22 -- 70	[pos="442.29,163.5 438.83,132.04 431.76,67.728 428.29,36.218"];
	22 -- 26	[pos="468.86,174.13 478.75,171.12 490.14,167.64 500.04,164.62"];
	22 -- 64	[pos="447.34,199.54 447.8,202.2 448.27,204.95 448.72,207.62"];
	21 -- 30	[pos="214.99,448.08 212.34,444.36 209.52,440.41 206.87,436.7"];
	39 -- 71	[pos="471.41,563.67 449.59,555.94 417.49,544.58 395.55,536.81"];
	23 -- 59	[pos="632.88,546.36 633.49,555.08 634.22,565.5 634.82,574.21"];
	23 -- 50	[pos="657.31,521.9 661.86,520.78 666.59,519.63 671.13,518.52"];
	23 -- 73	[pos="626.09,510.42 621.18,494.66 614.06,471.75 609.16,456"];
	23 -- 61	[pos="616.18,543.37 607.92,551.5 597.77,561.49 589.5,569.63"];
	23 -- 63	[pos="649.63,541.86 668.5,556.19 697.97,578.56 716.89,592.93"];
	50 -- 59	[pos="684.39,528.45 673.88,542.32 658.82,562.2 648.32,576.06"];
	50 -- 61	[pos="676.4,524.26 653.68,537.71 617.03,559.4 594.3,572.85"];
	50 -- 63	[pos="703.87,530.04 710.73,546.93 721,572.17 727.86,589.03"];
	24 -- 42	[pos="529.13,80.768 509.38,91.934 479.83,108.63 460.11,119.78"];
	24 -- 26	[pos="544.82,86.841 540.45,102.12 534.19,124.02 529.83,139.29"];
	24 -- 48	[pos="522.99,71.015 506.23,72.257 484.75,73.848 467.98,75.09"];
	26 -- 42	[pos="500.07,149.68 488.74,146.28 475.36,142.26 464.04,138.87"];
	26 -- 70	[pos="513.06,140.58 494.12,113.82 456.89,61.234 437.96,34.48"];
	26 -- 31	[pos="551.74,155.09 573.33,153.5 603.48,151.27 625.07,149.68"];
	31 -- 38	[pos="644.11,130.29 637.08,114.85 626.88,92.407 619.86,76.977"];
	31 -- 47	[pos="626.4,141.73 599.1,135.39 556.14,125.4 528.78,119.04"];
	31 -- 51	[pos="658.54,130.12 667.04,107.2 681.82,67.356 690.32,44.434"];
	49 -- 57	[pos="368.98,299.39 385.95,293.15 408.72,284.77 425.75,278.51"];
	46 -- 57	[pos="387.72,232.31 400.48,240.01 416.87,249.89 429.59,257.56"];
	28 -- 35	[pos="367.26,500.89 381.5,523.45 406.74,563.41 420.96,585.92"];
	29 -- 41	[pos="696.14,292.14 712.45,301.63 735.21,314.89 751.51,324.38"];
	29 -- 43	[pos="702.97,281.27 719.91,281.89 741.61,282.69 758.56,283.31"];
	29 -- 52	[pos="688.25,296.42 691.21,300.25 694.37,304.33 697.33,308.16"];
	38 -- 47	[pos="590.18,70.297 571.17,79.616 543.74,93.064 524.75,102.38"];
	38 -- 40	[pos="628.89,73.793 634.89,78.823 641.64,84.481 647.64,89.509"];
	38 -- 51	[pos="635.61,50.483 647.38,45.938 661.58,40.459 673.33,35.92"];
	33 -- 60	[pos="282.6,527.88 282.59,530.57 282.58,533.34 282.58,536.04"];
	54 -- 77	[pos="569.53,502.73 585.28,478.81 614.19,434.91 629.97,410.95"];
	54 -- 79	[pos="579.47,507.7 599.32,496.64 629,480.1 648.81,469.05"];
	35 -- 39	[pos="453.44,592.08 459.79,589.06 466.72,585.75 473.09,582.72"];
	35 -- 71	[pos="418.4,586.42 408.3,573.95 394.4,556.77 384.32,544.32"];
	40 -- 51	[pos="671.86,86.231 677.15,73.658 684.26,56.76 689.54,44.203"];
	53 -- 58	[pos="792.82,398.4 792.73,400.96 792.64,403.58 792.56,406.14"];
	53 -- 76	[pos="805.6,364.09 816.4,349.74 832.1,328.9 842.9,314.57"];
	53 -- 65	[pos="783.17,397.21 773.75,412.8 759.87,435.77 750.46,451.34"];
	45 -- 68	[pos="147.54,299.35 150.58,298.86 153.69,298.36 156.73,297.87"];
	45 -- 66	[pos="109.43,286.97 96.614,268.87 76.226,240.09 63.475,222.09"];
	45 -- 72	[pos="127.26,285.89 129.29,279.99 131.55,273.41 133.59,267.49"];
	45 -- 56	[pos="126.64,285.59 132,267.91 140.13,241.07 145.48,223.42"];
	45 -- 78	[pos="125.94,321.53 127.63,327.9 129.53,335.06 131.22,341.43"];
	72 -- 78	[pos="139.11,267.72 138.41,288.06 137.29,320.86 136.59,341.21"];
	58 -- 65	[pos="775.02,438.66 769.24,443.57 762.79,449.06 757.03,453.96"];
	77 -- 79	[pos="648.78,411.54 652.82,420.46 657.74,431.31 661.78,440.22"];
	56 -- 66	[pos="123.84,205.61 109.87,205.63 92.877,205.66 78.913,205.69"];
	56 -- 72	[pos="146.36,223.47 145.66,226.23 144.93,229.09 144.23,231.84"];
	61 -- 73	[pos="577.65,566.88 583.34,538.75 594.28,484.62 599.98,456.4"];
	61 -- 63	[pos="600.61,588.47 630.45,592.52 678.57,599.05 708.42,603.1"];
}
