graph {
	graph [bb="0,0,402.36,435.53",
		outputorder=edgesfirst,
		overlap=prism,
		size="50,50!",
		start=791
	];
	node [label="\N"];
	1	[height=0.5,
		pos="133.91,125.44",
		width=0.75];
	2	[height=0.5,
		pos="75.215,268.96",
		width=0.75];
	1 -- 2	[pos="126.71,143.04 115.45,170.58 93.773,223.58 82.472,251.21"];
	5	[height=0.5,
		pos="228.19,246.81",
		width=0.75];
	1 -- 5	[pos="146.43,141.55 164.46,164.77 197.56,207.37 215.62,230.62"];
	3	[height=0.5,
		pos="139.74,302.7",
		width=0.75];
	1 -- 3	[pos="134.51,143.74 135.63,177.8 138.03,250.51 139.15,284.49"];
	4	[height=0.5,
		pos="227.17,174.79",
		width=0.75];
	1 -- 4	[pos="155.07,136.64 170.23,144.66 190.56,155.42 205.77,163.47"];
	8	[height=0.5,
		pos="27,18",
		width=0.75];
	1 -- 8	[pos="118.59,110.04 98.155,89.504 62.193,53.366 41.945,33.018"];
	2 -- 5	[pos="101.86,265.1 129.85,261.04 173.62,254.71 201.59,250.66"];
	2 -- 4	[pos="95.081,256.64 124.2,238.6 178.18,205.15 207.3,187.1"];
	7	[height=0.5,
		pos="40.94,417.53",
		width=0.75];
	2 -- 7	[pos="71.081,286.88 64.493,315.43 51.686,370.95 45.089,399.55"];
	6	[height=0.5,
		pos="375.36,212.59",
		width=0.75];
	5 -- 6	[pos="253.83,240.85 280.67,234.6 322.6,224.85 349.53,218.59"];
	3 -- 5	[pos="159.37,290.29 173.93,281.09 193.7,268.6 208.31,259.37"];
	3 -- 4	[pos="151,286.24 167.78,261.68 199.2,215.71 215.97,191.19"];
	3 -- 7	[pos="126.01,318.66 107.13,340.6 73.377,379.83 54.561,401.7"];
	4 -- 6	[pos="252.65,181.29 279.79,188.21 322.52,199.11 349.72,206.05"];
	0	[height=0.5,
		pos="71.906,163.54",
		width=0.75];
	0 -- 2	[pos="72.482,181.9 73.09,201.25 74.041,231.53 74.645,250.8"];
	0 -- 5	[pos="93.309,174.94 123.24,190.89 177.26,219.67 207.05,235.54"];
	0 -- 3	[pos="80.361,180.88 93.431,207.69 118.39,258.89 131.4,285.57"];
	0 -- 4	[pos="98.952,165.5 127.36,167.56 171.79,170.78 200.18,172.83"];
	0 -- 8	[pos="66.4,145.69 57.781,117.76 41.198,64.014 32.551,35.992"];
}
