graph {
	graph [bb="0,0,725.26,715.19",
		outputorder=edgesfirst,
		overlap=prism,
		size="50,50!",
		start=6168
	];
	node [label="\N"];
	0	[height=0.5,
		pos="150.49,360.65",
		width=0.75];
	17	[height=0.5,
		pos="219.36,398.6",
		width=0.75];
	0 -- 17	[pos="171.53,372.24 180.08,376.95 189.92,382.38 198.46,387.08"];
	36	[height=0.5,
		pos="43.032,482.07",
		width=0.75];
	0 -- 36	[pos="136.45,376.52 115.85,399.79 77.682,442.92 57.085,466.19"];
	47	[height=0.5,
		pos="68.506,301.13",
		width=0.75];
	0 -- 47	[pos="131.89,347.14 118.47,337.4 100.44,324.31 87.037,314.58"];
	51	[height=0.5,
		pos="184.6,169.51",
		width=0.75];
	0 -- 51	[pos="153.7,342.67 160.2,306.24 174.86,224.09 181.38,187.58"];
	53	[height=0.5,
		pos="240.09,466.6",
		width=0.75];
	0 -- 53	[pos="164.1,376.74 181.04,396.77 209.79,430.77 226.65,450.7"];
	61	[height=0.5,
		pos="85.4,255.85",
		width=0.75];
	0 -- 61	[pos="140.04,343.81 127.89,324.25 107.97,292.18 95.832,272.64"];
	72	[height=0.5,
		pos="149.65,272.29",
		width=0.75];
	0 -- 72	[pos="150.32,342.34 150.17,327.18 149.97,305.73 149.82,290.57"];
	73	[height=0.5,
		pos="27,434.92",
		width=0.75];
	0 -- 73	[pos="130.38,372.75 107.41,386.56 70.069,409.02 47.108,422.83"];
	1	[height=0.5,
		pos="445.43,270.29",
		width=0.75];
	18	[height=0.5,
		pos="571.75,335.28",
		width=0.75];
	1 -- 18	[pos="466.85,281.32 490.08,293.27 526.94,312.23 550.21,324.2"];
	20	[height=0.5,
		pos="473.56,347.02",
		width=0.75];
	1 -- 20	[pos="451.95,288.09 456.5,300.48 462.53,316.94 467.07,329.32"];
	32	[height=0.5,
		pos="298.76,300.81",
		width=0.75];
	1 -- 32	[pos="419.54,275.68 392.9,281.22 351.61,289.82 324.88,295.38"];
	35	[height=0.5,
		pos="434.81,198.47",
		width=0.75];
	1 -- 35	[pos="442.75,252.17 441.15,241.36 439.13,227.69 437.53,216.84"];
	40	[height=0.5,
		pos="509.08,291.61",
		width=0.75];
	1 -- 40	[pos="469.85,278.47 474.76,280.12 479.92,281.84 484.82,283.48"];
	52	[height=0.5,
		pos="399.47,317.22",
		width=0.75];
	1 -- 52	[pos="430.63,285.4 425.38,290.76 419.48,296.79 414.23,302.14"];
	62	[height=0.5,
		pos="331.25,168.55",
		width=0.75];
	1 -- 62	[pos="429.07,255.72 407.36,236.37 369.27,202.43 347.58,183.1"];
	66	[height=0.5,
		pos="393.3,154.1",
		width=0.75];
	1 -- 66	[pos="437.62,252.9 427.79,230.99 411.01,193.57 401.15,171.61"];
	70	[height=0.5,
		pos="337.96,361.23",
		width=0.75];
	1 -- 70	[pos="428.63,284.5 408.56,301.49 375.16,329.75 354.99,346.82"];
	75	[height=0.5,
		pos="298.76,245.64",
		width=0.75];
	1 -- 75	[pos="419.2,265.89 392.67,261.43 351.87,254.57 325.25,250.09"];
	77	[height=0.5,
		pos="246.65,201.6",
		width=0.75];
	1 -- 77	[pos="421.45,262.01 383.24,248.8 308.97,223.14 270.71,209.92"];
	79	[height=0.5,
		pos="535.73,440.63",
		width=0.75];
	1 -- 79	[pos="454.58,287.56 471.94,320.3 509.42,391 526.69,423.57"];
	80	[height=0.5,
		pos="571.16,291.27",
		width=0.75];
	1 -- 80	[pos="471.78,274.69 493.24,278.27 523.38,283.3 544.83,286.88"];
	2	[height=0.5,
		pos="401.37,511.6",
		width=0.75];
	19	[height=0.5,
		pos="295.75,565.61",
		width=0.75];
	2 -- 19	[pos="379.74,522.66 361.52,531.98 335.57,545.25 317.35,554.56"];
	21	[height=0.5,
		pos="473.4,405.32",
		width=0.75];
	2 -- 21	[pos="412.63,494.99 426.16,475.02 448.73,441.72 462.23,421.81"];
	23	[height=0.5,
		pos="295.38,634.85",
		width=0.75];
	2 -- 23	[pos="387.73,527.46 367.38,551.12 329.29,595.42 308.97,619.05"];
	26	[height=0.5,
		pos="490.71,618.75",
		width=0.75];
	2 -- 26	[pos="414.55,527.41 431.45,547.67 460.56,582.58 477.47,602.87"];
	33	[height=0.5,
		pos="385.08,467.57",
		width=0.75];
	2 -- 33	[pos="394.84,493.94 393.78,491.07 392.68,488.1 391.62,485.23"];
	39	[height=0.5,
		pos="463.43,482.66",
		width=0.75];
	2 -- 39	[pos="423.78,501.15 429.47,498.49 435.58,495.64 441.27,492.99"];
	44	[height=0.5,
		pos="498.95,574.33",
		width=0.75];
	2 -- 44	[pos="421.12,524.29 438.05,535.18 462.32,550.78 479.24,561.66"];
	46	[height=0.5,
		pos="428.7,634.74",
		width=0.75];
	2 -- 46	[pos="405.35,529.5 410.53,552.85 419.54,593.45 424.72,616.81"];
	48	[height=0.5,
		pos="287.24,414.69",
		width=0.75];
	2 -- 48	[pos="384.53,497.3 362.95,478.98 325.76,447.4 304.15,429.05"];
	2 -- 53	[pos="376.17,504.57 345.87,496.11 295.33,482.01 265.11,473.58"];
	59	[height=0.5,
		pos="232.62,605.89",
		width=0.75];
	2 -- 59	[pos="380.34,523.35 347.83,541.51 285.74,576.21 253.39,594.28"];
	63	[height=0.5,
		pos="366.64,629.02",
		width=0.75];
	2 -- 63	[pos="396.1,529.43 389.57,551.5 378.52,588.87 371.96,611.02"];
	3	[height=0.5,
		pos="349.3,409.06",
		width=0.75];
	3 -- 17	[pos="322.37,406.89 300.08,405.1 268.54,402.56 246.25,400.77"];
	3 -- 20	[pos="370.94,398.25 393.61,386.93 429.01,369.26 451.75,357.91"];
	22	[height=0.5,
		pos="360.81,273.18",
		width=0.75];
	3 -- 22	[pos="350.83,391.01 353.03,365.02 357.07,317.33 359.28,291.3"];
	31	[height=0.5,
		pos="411.36,423.56",
		width=0.75];
	3 -- 31	[pos="374.9,415.04 378.5,415.88 382.21,416.75 385.82,417.59"];
	3 -- 33	[pos="359.65,425.98 364.44,433.81 370.11,443.09 374.88,450.89"];
	34	[height=0.5,
		pos="233.72,537.41",
		width=0.75];
	3 -- 34	[pos="335.36,424.54 313.14,449.21 269.96,497.17 247.71,521.88"];
	3 -- 52	[pos="358.73,391.78 367.7,375.37 381.12,350.81 390.07,334.42"];
	54	[height=0.5,
		pos="357.79,555.61",
		width=0.75];
	3 -- 54	[pos="350.36,427.32 351.99,455.56 355.12,509.48 356.75,537.57"];
	74	[height=0.5,
		pos="466.5,529.1",
		width=0.75];
	3 -- 74	[pos="364.14,424.26 386.56,447.22 428.84,490.52 451.41,513.64"];
	4	[height=0.5,
		pos="619.84,247.12",
		width=0.75];
	4 -- 21	[pos="605.54,262.57 577.61,292.74 516.13,359.16 487.98,389.56"];
	25	[height=0.5,
		pos="661.1,203.07",
		width=0.75];
	4 -- 25	[pos="634.27,231.71 638.27,227.45 642.61,222.81 646.61,218.54"];
	28	[height=0.5,
		pos="635.65,356.57",
		width=0.75];
	4 -- 28	[pos="622.45,265.19 625.38,285.47 630.1,318.18 633.03,338.47"];
	37	[height=0.5,
		pos="496.85,203.23",
		width=0.75];
	4 -- 37	[pos="595.84,238.55 574.16,230.82 542.45,219.5 520.79,211.78"];
	38	[height=0.5,
		pos="698.26,330.73",
		width=0.75];
	4 -- 38	[pos="634.23,262.45 648.29,277.44 669.58,300.15 683.7,315.21"];
	42	[height=0.5,
		pos="570.54,141.17",
		width=0.75];
	4 -- 42	[pos="611.7,229.62 602.57,209.99 587.83,178.33 578.69,158.69"];
	55	[height=0.5,
		pos="644.79,158.98",
		width=0.75];
	4 -- 55	[pos="624.89,229.28 629.22,213.99 635.42,192.07 639.75,176.79"];
	56	[height=0.5,
		pos="498.58,159.21",
		width=0.75];
	4 -- 56	[pos="601.43,233.77 578.63,217.24 540.04,189.27 517.17,172.69"];
	58	[height=0.5,
		pos="633.76,308.7",
		width=0.75];
	4 -- 58	[pos="623.87,264.93 625.7,273.03 627.86,282.59 629.69,290.71"];
	71	[height=0.5,
		pos="580.7,189.82",
		width=0.75];
	4 -- 71	[pos="608.52,230.55 603.37,223.01 597.29,214.11 592.13,206.56"];
	76	[height=0.5,
		pos="696.27,280.39",
		width=0.75];
	4 -- 76	[pos="642.77,257.1 652.54,261.35 663.89,266.29 673.62,270.53"];
	5	[height=0.5,
		pos="267.68,153.84",
		width=0.75];
	5 -- 22	[pos="280.24,169.93 298.02,192.71 330.33,234.11 348.15,256.96"];
	24	[height=0.5,
		pos="345.51,102.09",
		width=0.75];
	5 -- 24	[pos="286.92,141.05 298.89,133.09 314.24,122.88 326.22,114.92"];
	5 -- 37	[pos="293.53,159.41 337.66,168.92 427.03,188.19 471.1,197.68"];
	5 -- 51	[pos="241.4,158.79 231.6,160.64 220.5,162.74 210.72,164.58"];
	5 -- 56	[pos="295.08,154.47 339.63,155.51 427.28,157.55 471.58,158.59"];
	68	[height=0.5,
		pos="400.8,51.682",
		width=0.75];
	5 -- 68	[pos="285.64,140.06 311.04,120.56 357.22,85.123 382.7,65.567"];
	6	[height=0.5,
		pos="525.02,71.168",
		width=0.75];
	6 -- 25	[pos="540.36,86.043 566.5,111.38 619.36,162.62 645.6,188.05"];
	29	[height=0.5,
		pos="502.13,18",
		width=0.75];
	6 -- 29	[pos="517.52,53.759 515.02,47.944 512.23,41.462 509.72,35.63"];
	6 -- 35	[pos="513.41,87.55 496.09,111.99 463.67,157.74 446.37,182.15"];
	6 -- 55	[pos="543.21,84.505 565.72,101.01 603.83,128.96 626.42,145.52"];
	57	[height=0.5,
		pos="572.95,27.164",
		width=0.75];
	6 -- 57	[pos="540.98,56.515 546.1,51.815 551.77,46.609 556.89,41.903"];
	6 -- 66	[pos="505.3,83.583 480.46,99.217 438.05,125.92 413.15,141.6"];
	6 -- 68	[pos="498.67,67.036 477.59,63.729 448.17,59.114 427.1,55.808"];
	7	[height=0.5,
		pos="535.59,379.3",
		width=0.75];
	27	[height=0.5,
		pos="411.51,361.31",
		width=0.75];
	7 -- 27	[pos="508.97,375.44 488.04,372.4 459.01,368.2 438.09,365.16"];
	7 -- 28	[pos="561.36,373.44 576.29,370.05 595.04,365.79 609.97,362.4"];
	30	[height=0.5,
		pos="529.24,516.38",
		width=0.75];
	7 -- 30	[pos="534.74,397.5 533.53,423.72 531.3,471.84 530.09,498.1"];
	7 -- 31	[pos="511.63,387.83 489.64,395.67 457.21,407.22 435.24,415.05"];
	7 -- 39	[pos="523.99,395.9 510.53,415.19 488.45,446.82 474.99,466.09"];
	7 -- 40	[pos="530.22,361.55 525.62,346.34 519.03,324.53 514.44,309.33"];
	7 -- 58	[pos="554.05,366.02 571.6,353.4 597.85,334.52 615.37,321.92"];
	60	[height=0.5,
		pos="625.74,444.64",
		width=0.75];
	7 -- 60	[pos="554.27,392.84 569.84,404.13 591.91,420.12 607.39,431.34"];
	78	[height=0.5,
		pos="547.21,247.25",
		width=0.75];
	7 -- 78	[pos="537.18,361.21 539.39,336.07 543.37,290.79 545.6,265.54"];
	8	[height=0.5,
		pos="464.63,115.17",
		width=0.75];
	8 -- 24	[pos="437.9,112.24 418.28,110.08 391.75,107.17 372.15,105.02"];
	8 -- 29	[pos="471.51,97.351 478.27,79.818 488.54,53.205 495.29,35.71"];
	8 -- 42	[pos="490,121.4 506.64,125.49 528.33,130.81 545.01,134.9"];
	8 -- 57	[pos="482.03,101.03 502.25,84.61 535.39,57.678 555.59,41.269"];
	8 -- 62	[pos="441.4,124.47 417.07,134.21 379.06,149.41 354.66,159.18"];
	8 -- 71	[pos="484.32,127.84 505.66,141.56 539.53,163.35 560.92,177.1"];
	8 -- 78	[pos="475.09,131.9 490.89,157.17 520.67,204.81 536.57,230.24"];
	9	[height=0.5,
		pos="425.38,584.74",
		width=0.75];
	9 -- 30	[pos="444.91,571.88 463.48,559.66 491.25,541.38 509.79,529.18"];
	41	[height=0.5,
		pos="518.01,697.19",
		width=0.75];
	9 -- 41	[pos="438.65,600.85 456.26,622.23 487.16,659.75 504.76,681.11"];
	45	[height=0.5,
		pos="552.73,647.49",
		width=0.75];
	9 -- 45	[pos="447.27,595.53 470.6,607.02 507.32,625.12 530.7,636.64"];
	9 -- 46	[pos="426.58,602.79 426.87,607.27 427.19,612.06 427.49,616.55"];
	9 -- 54	[pos="402.5,574.88 395.45,571.84 387.7,568.5 380.65,565.46"];
	9 -- 63	[pos="407.44,598.27 400.28,603.66 392.06,609.86 384.88,615.27"];
	82	[height=0.5,
		pos="295.66,678.88",
		width=0.75];
	9 -- 82	[pos="407.07,598.03 382.48,615.87 339.05,647.39 314.3,665.35"];
	84	[height=0.5,
		pos="295.93,511.01",
		width=0.75];
	9 -- 84	[pos="404.58,572.9 380.42,559.14 340.81,536.58 316.67,522.83"];
	10	[height=0.5,
		pos="275.86,354.56",
		width=0.75];
	10 -- 27	[pos="302.99,355.91 326.65,357.09 360.79,358.79 384.44,359.96"];
	10 -- 32	[pos="283.36,336.96 285.92,330.96 288.77,324.26 291.32,318.27"];
	64	[height=0.5,
		pos="157.34,425.19",
		width=0.75];
	10 -- 64	[pos="255.49,366.7 233.78,379.64 199.6,400 177.84,412.97"];
	65	[height=0.5,
		pos="151.06,469.21",
		width=0.75];
	10 -- 65	[pos="259.8,369.32 235.84,391.33 190.99,432.53 167.06,454.51"];
	10 -- 72	[pos="256.42,341.89 232.77,326.47 193.07,300.6 169.32,285.12"];
	10 -- 75	[pos="279.64,336.58 283.89,316.39 290.73,283.84 294.97,263.65"];
	81	[height=0.5,
		pos="158.84,224.21",
		width=0.75];
	10 -- 81	[pos="261.98,339.1 239.58,314.15 195.69,265.26 173.07,240.07"];
	10 -- 84	[pos="278.17,372.51 282.01,402.53 289.72,462.6 293.59,492.79"];
	11	[height=0.5,
		pos="109.66,553.3",
		width=0.75];
	11 -- 23	[pos="132.44,563.3 168.18,579 237.04,609.23 272.71,624.9"];
	11 -- 34	[pos="136.28,549.89 157.21,547.21 186.23,543.5 207.15,540.82"];
	11 -- 36	[pos="95.206,537.85 84.029,525.9 68.631,509.44 57.462,497.5"];
	50	[height=0.5,
		pos="94.445,600.9",
		width=0.75];
	11 -- 50	[pos="104,571.03 102.75,574.94 101.42,579.09 100.17,583"];
	11 -- 59	[pos="132.5,563.07 154.45,572.46 187.44,586.57 209.49,595.99"];
	11 -- 65	[pos="118.24,535.88 125.39,521.35 135.53,500.77 142.64,486.32"];
	11 -- 73	[pos="98.17,536.84 82.376,514.23 54.138,473.79 38.396,451.24"];
	12	[height=0.5,
		pos="663.47,400.62",
		width=0.75];
	12 -- 18	[pos="644.91,387.4 629,376.06 606.19,359.81 590.28,348.48"];
	12 -- 38	[pos="672.07,383.34 677.38,372.67 684.18,359.02 689.52,348.29"];
	12 -- 60	[pos="649.85,416.51 646.39,420.55 642.67,424.89 639.21,428.92"];
	67	[height=0.5,
		pos="682.22,538.59",
		width=0.75];
	12 -- 67	[pos="665.92,418.66 669.52,445.1 676.18,494.11 679.77,520.55"];
	12 -- 76	[pos="668.31,382.88 674.51,360.15 685.2,320.97 691.41,298.2"];
	12 -- 80	[pos="649.85,384.48 632.3,363.69 601.97,327.77 584.53,307.11"];
	83	[height=0.5,
		pos="674.96,492.32",
		width=0.75];
	12 -- 83	[pos="665.74,418.73 667.76,434.81 670.68,458.17 672.7,474.24"];
	13	[height=0.5,
		pos="614.75,651.26",
		width=0.75];
	13 -- 26	[pos="589.35,644.6 567.94,638.99 537.47,631.01 516.08,625.4"];
	13 -- 41	[pos="592.31,661.92 576.68,669.34 555.92,679.19 540.32,686.6"];
	49	[height=0.5,
		pos="697.32,600.45",
		width=0.75];
	13 -- 49	[pos="634.74,638.96 647.62,631.03 664.32,620.76 677.23,612.82"];
	13 -- 67	[pos="624.99,634.15 637.75,612.85 659.4,576.7 672.1,555.5"];
	69	[height=0.5,
		pos="677.63,646.45",
		width=0.75];
	13 -- 69	[pos="641.78,649.2 644.71,648.97 647.69,648.74 650.62,648.52"];
	14	[height=0.5,
		pos="171.68,513.5",
		width=0.75];
	14 -- 19	[pos="194.73,523.18 217.01,532.54 250.58,546.64 272.83,555.98"];
	43	[height=0.5,
		pos="89.039,438.05",
		width=0.75];
	14 -- 43	[pos="155.75,498.95 141.21,485.67 119.82,466.15 105.21,452.81"];
	14 -- 50	[pos="157.87,529.12 143.9,544.93 122.42,569.25 108.39,585.11"];
	14 -- 64	[pos="168.71,495.2 166.23,479.94 162.72,458.33 160.26,443.16"];
	14 -- 70	[pos="187.63,498.9 219.33,469.87 289.96,405.19 321.82,376.01"];
	14 -- 82	[pos="183.8,529.65 207.44,561.19 259.49,630.63 283.31,662.41"];
	15	[height=0.5,
		pos="591.05,564.22",
		width=0.75];
	15 -- 44	[pos="563.92,567.2 551.93,568.51 537.87,570.06 525.9,571.37"];
	15 -- 45	[pos="583.11,581.47 576.54,595.76 567.24,615.97 560.66,630.26"];
	15 -- 49	[pos="615.17,572.44 632.44,578.33 655.61,586.23 672.94,592.14"];
	15 -- 69	[pos="606.93,579.3 622.55,594.14 646.26,616.66 661.85,631.47"];
	15 -- 74	[pos="566.15,557.19 544.57,551.11 513.48,542.34 491.79,536.23"];
	15 -- 79	[pos="583.25,546.77 572.7,523.22 554.02,481.5 543.5,457.99"];
	15 -- 83	[pos="608.04,549.67 622.69,537.11 643.73,519.08 658.3,506.6"];
	16	[height=0.5,
		pos="212.76,316.47",
		width=0.75];
	16 -- 43	[pos="197.59,331.37 173.85,354.71 128.16,399.61 104.33,423.02"];
	16 -- 47	[pos="185.97,313.62 160.22,310.88 121.51,306.76 95.647,304.01"];
	16 -- 48	[pos="225.06,332.69 238.86,350.88 261.11,380.24 274.92,398.44"];
	16 -- 61	[pos="190.58,305.91 167.34,294.85 131.06,277.58 107.76,266.49"];
	16 -- 77	[pos="218.06,298.52 224.42,276.94 235.04,240.95 241.39,219.42"];
	16 -- 81	[pos="202.87,299.55 193.14,282.9 178.37,257.64 168.67,241.03"];
}
