graph {
	graph [bb="0,0,694.29,601.5",
		outputorder=edgesfirst,
		overlap=prism,
		size="50,50!",
		start=1550
	];
	node [label="\N"];
	0	[height=0.5,
		pos="544.65,240.54",
		width=0.75];
	1	[height=0.5,
		pos="532.95,330.85",
		width=0.75];
	0 -- 1	[pos="542.28,258.82 540.24,274.59 537.31,297.24 535.28,312.91"];
	3	[height=0.5,
		pos="423.73,278.66",
		width=0.75];
	0 -- 3	[pos="520.18,248.26 499.2,254.87 469.13,264.35 448.17,270.96"];
	2	[height=0.5,
		pos="354.88,278.95",
		width=0.75];
	0 -- 2	[pos="518.66,245.8 482.42,253.14 417.09,266.36 380.86,273.7"];
	16	[height=0.5,
		pos="520.64,454.66",
		width=0.75];
	0 -- 16	[pos="542.6,258.8 538.07,299.25 527.21,396.04 522.68,436.45"];
	7	[height=0.5,
		pos="667.29,232",
		width=0.75];
	0 -- 7	[pos="571.56,238.67 591.87,237.25 619.62,235.32 640.02,233.9"];
	18	[height=0.5,
		pos="646.57,322.88",
		width=0.75];
	0 -- 18	[pos="561.94,254.51 580.68,269.65 610.42,293.68 629.19,308.85"];
	10	[height=0.5,
		pos="504.36,106.97",
		width=0.75];
	0 -- 10	[pos="539.3,222.8 531.59,197.26 517.45,150.37 509.74,124.78"];
	11	[height=0.5,
		pos="437.69,108.25",
		width=0.75];
	0 -- 11	[pos="531.75,224.58 511.19,199.16 471.23,149.73 450.64,124.26"];
	20	[height=0.5,
		pos="624.11,145.69",
		width=0.75];
	0 -- 20	[pos="558.13,224.45 572.83,206.9 596.21,179 610.83,161.54"];
	23	[height=0.5,
		pos="593.14,395.42",
		width=0.75];
	0 -- 23	[pos="550.21,258.31 559.52,288.03 578.13,347.49 587.49,377.39"];
	1 -- 3	[pos="510.85,320.29 491.9,311.24 464.74,298.26 445.8,289.21"];
	1 -- 2	[pos="508.19,323.64 474.27,313.75 413.68,296.09 379.71,286.19"];
	1 -- 16	[pos="531.16,348.86 528.83,372.33 524.77,413.15 522.43,436.64"];
	12	[height=0.5,
		pos="483.83,397.63",
		width=0.75];
	1 -- 12	[pos="521.06,347.02 513.45,357.36 503.61,370.74 495.95,381.15"];
	1 -- 18	[pos="559.88,328.96 577.86,327.7 601.42,326.05 619.44,324.79"];
	1 -- 23	[pos="547.22,346.15 556.67,356.3 569.04,369.57 578.56,379.78"];
	25	[height=0.5,
		pos="337.61,103.2",
		width=0.75];
	3 -- 25	[pos="415.32,261.52 398.85,227.97 362.55,154.01 346.05,120.41"];
	3 -- 7	[pos="449.8,273.67 496.56,264.71 594.16,246.01 641.05,237.03"];
	4	[height=0.5,
		pos="214.18,200.72",
		width=0.75];
	3 -- 4	[pos="400.1,269.87 359.86,254.9 278.46,224.63 238.05,209.6"];
	19	[height=0.5,
		pos="249.89,398.32",
		width=0.75];
	3 -- 19	[pos="404.8,291.7 371.36,314.71 302.22,362.3 268.8,385.3"];
	6	[height=0.5,
		pos="459.86,200.92",
		width=0.75];
	3 -- 6	[pos="431.75,261.41 437.74,248.53 445.88,231 451.86,218.13"];
	5	[height=0.5,
		pos="331.74,184.37",
		width=0.75];
	3 -- 5	[pos="408.95,263.51 391.79,245.92 363.63,217.06 346.48,199.48"];
	3 -- 12	[pos="432.47,295.96 443.87,318.52 463.68,357.74 475.08,380.31"];
	8	[height=0.5,
		pos="383.81,379.78",
		width=0.75];
	3 -- 8	[pos="416.78,296.28 409.45,314.84 397.98,343.89 390.68,362.37"];
	3 -- 18	[pos="449.73,283.82 492.56,292.32 577.45,309.17 620.39,317.69"];
	3 -- 10	[pos="431.91,261.26 447.4,228.26 480.87,157 496.29,124.17"];
	3 -- 11	[pos="425.23,260.43 427.91,227.63 433.53,159.06 436.21,126.35"];
	14	[height=0.5,
		pos="308.81,457.73",
		width=0.75];
	3 -- 14	[pos="412.92,295.51 390.96,329.73 341.37,406.99 319.51,441.06"];
	3 -- 20	[pos="442.95,265.91 481.25,240.5 566.71,183.79 604.96,158.4"];
	22	[height=0.5,
		pos="350.76,533.57",
		width=0.75];
	3 -- 22	[pos="418.6,296.59 405.21,343.39 369.28,468.88 355.89,515.66"];
	29	[height=0.5,
		pos="230.53,310.27",
		width=0.75];
	3 -- 29	[pos="397.28,282.99 360.38,289.03 293.87,299.91 256.98,305.95"];
	2 -- 3	[pos="382.09,278.84 386.9,278.82 391.91,278.8 396.72,278.78"];
	2 -- 16	[pos="369.3,294.24 400.65,327.47 474.71,405.98 506.14,439.29"];
	2 -- 25	[pos="353.09,260.81 349.77,227.04 342.69,154.94 339.38,121.24"];
	2 -- 19	[pos="341.15,294.56 321.03,317.44 283.74,359.83 263.62,382.71"];
	2 -- 6	[pos="373.16,265.36 392.43,251.04 422.59,228.62 441.78,214.36"];
	2 -- 5	[pos="350.52,261.16 346.41,244.36 340.28,219.28 336.15,202.4"];
	2 -- 12	[pos="370.95,293.75 395.79,316.61 443.24,360.27 467.96,383.02"];
	2 -- 8	[pos="360.05,296.98 365.32,315.33 373.43,343.62 378.68,361.91"];
	13	[height=0.5,
		pos="412.77,512.96",
		width=0.75];
	2 -- 13	[pos="359.32,296.93 370.1,340.49 397.52,451.3 408.31,494.92"];
	9	[height=0.5,
		pos="132.88,206.33",
		width=0.75];
	2 -- 9	[pos="330.27,270.91 287.49,256.91 199.88,228.25 157.26,214.31"];
	24	[height=0.5,
		pos="149.34,294.88",
		width=0.75];
	2 -- 24	[pos="328.01,281.04 288.61,284.09 215.61,289.74 176.21,292.79"];
	2 -- 10	[pos="368.67,263.08 397.15,230.32 462.15,155.53 490.6,122.8"];
	15	[height=0.5,
		pos="386.36,18",
		width=0.75];
	2 -- 15	[pos="357.09,260.61 362.88,212.58 378.44,83.598 384.19,35.983"];
	2 -- 11	[pos="363.27,261.65 379.15,228.93 413.38,158.36 429.27,125.6"];
	2 -- 14	[pos="350.29,296.75 341.48,330.93 322.29,405.41 313.44,439.75"];
	28	[height=0.5,
		pos="144.37,369.49",
		width=0.75];
	2 -- 28	[pos="331.95,288.82 291.46,306.23 207.74,342.24 167.27,359.64"];
	17	[height=0.5,
		pos="204.28,110.61",
		width=0.75];
	2 -- 17	[pos="340.98,263.42 312.29,231.35 246.81,158.15 218.15,126.11"];
	2 -- 23	[pos="376.86,289.7 422.25,311.89 525.86,362.53 571.2,384.7"];
	16 -- 23	[pos="537.82,440.62 549.21,431.32 564.11,419.14 575.58,409.77"];
	7 -- 20	[pos="658.56,214.53 651.02,199.46 640.19,177.81 632.69,162.83"];
	4 -- 25	[pos="231.61,186.95 255,168.47 296.33,135.81 319.87,117.21"];
	4 -- 19	[pos="217.42,218.6 224.2,256.13 239.84,342.72 246.64,380.33"];
	4 -- 5	[pos="240.86,197.01 260.1,194.33 285.95,190.73 305.17,188.06"];
	4 -- 9	[pos="187.11,202.59 178.34,203.19 168.6,203.87 159.84,204.47"];
	21	[height=0.5,
		pos="100.27,36.241",
		width=0.75];
	4 -- 21	[pos="202.84,184.35 181.12,152.98 133.85,84.73 111.9,53.036"];
	4 -- 24	[pos="202.89,217.12 191.06,234.3 172.58,261.12 160.72,278.35"];
	4 -- 28	[pos="206.98,218.14 193.6,250.49 165.07,319.45 151.64,351.91"];
	4 -- 17	[pos="212.18,182.48 210.46,166.85 208,144.44 206.28,128.82"];
	27	[height=0.5,
		pos="27,130.02",
		width=0.75];
	4 -- 27	[pos="190.48,191.76 154.47,178.16 86.406,152.45 50.514,138.9"];
	4 -- 29	[pos="216.88,218.81 219.91,239.11 224.8,271.85 227.83,292.16"];
	19 -- 24	[pos="235.05,383.06 216.04,363.5 183.27,329.79 164.23,310.2"];
	19 -- 28	[pos="224.88,391.49 208.18,386.93 186.3,380.95 169.56,376.38"];
	26	[height=0.5,
		pos="179.6,583.5",
		width=0.75];
	19 -- 26	[pos="243.15,416.08 229.71,451.47 199.74,530.45 186.32,565.8"];
	19 -- 22	[pos="262.06,414.63 281.45,440.63 319.14,491.16 338.55,517.2"];
	19 -- 29	[pos="245.97,380.5 242.64,365.33 237.86,343.62 234.51,328.37"];
	6 -- 25	[pos="442.34,186.92 419.1,168.34 378.31,135.74 355.09,117.17"];
	6 -- 12	[pos="462.07,219.08 466.63,256.55 477.06,342.08 481.62,379.52"];
	6 -- 8	[pos="452.43,218.4 437.89,252.59 405.83,327.99 391.27,362.24"];
	5 -- 25	[pos="333.04,166.35 334.01,152.99 335.32,134.85 336.29,121.44"];
	5 -- 6	[pos="358.28,187.8 380.27,190.64 411.36,194.66 433.34,197.5"];
	5 -- 8	[pos="336.54,202.4 346.46,239.63 369.11,324.6 379.01,361.79"];
	12 -- 13	[pos="473.34,414.65 459.83,436.58 436.49,474.46 423.07,496.24"];
	12 -- 18	[pos="506.12,387.39 537.19,373.12 593.22,347.39 624.29,333.12"];
	8 -- 12	[pos="410.09,384.47 424.79,387.09 443.05,390.35 457.73,392.97"];
	8 -- 13	[pos="387.71,397.74 393.24,423.16 403.29,469.36 408.83,494.85"];
	9 -- 21	[pos="129.45,188.45 123.19,155.78 109.96,86.816 103.7,54.138"];
	9 -- 24	[pos="136.21,224.25 139.07,239.61 143.16,261.63 146.01,276.98"];
	9 -- 28	[pos="134.16,224.42 136.36,255.78 140.88,319.91 143.09,351.33"];
	9 -- 17	[pos="144.99,190.09 158.12,172.49 178.96,144.56 192.11,126.93"];
	21 -- 27	[pos="87.503,52.575 74.056,69.787 53.008,96.728 39.616,113.87"];
	18 -- 20	[pos="644.29,304.92 639.99,270.96 630.71,197.7 626.4,163.7"];
	24 -- 28	[pos="148.13,312.94 147.36,324.58 146.36,339.67 145.58,351.34"];
	10 -- 15	[pos="486.44,93.454 464.26,76.733 426.71,48.419 404.45,31.639"];
	10 -- 11	[pos="477.25,107.49 473.21,107.57 469.04,107.65 465,107.72"];
	11 -- 15	[pos="428.04,91.273 418.86,75.138 405.13,51.009 395.97,34.899"];
	14 -- 19	[pos="293.64,442.43 284.77,433.49 273.63,422.26 264.81,413.36"];
	14 -- 26	[pos="293.48,472.66 268.61,496.86 219.76,544.41 194.91,568.6"];
	14 -- 22	[pos="318.33,474.94 325.19,487.35 334.42,504.03 341.28,516.43"];
	28 -- 29	[pos="163.49,356.35 177.77,346.54 197.2,333.18 211.47,323.38"];
	17 -- 25	[pos="231.26,109.11 254.39,107.82 287.55,105.98 310.67,104.69"];
	17 -- 21	[pos="185.69,97.314 166.75,83.778 137.58,62.916 118.7,49.421"];
	17 -- 24	[pos="199.01,128.28 188.54,163.41 165.2,241.68 154.67,276.99"];
	17 -- 27	[pos="177.36,113.56 143.94,117.22 87.289,123.42 53.888,127.07"];
	22 -- 26	[pos="325.87,540.83 293.42,550.3 236.98,566.76 204.52,576.23"];
}
