graph {
	graph [bb="0,0,704.7,763.39",
		outputorder=edgesfirst,
		overlap=prism,
		size="50,50!",
		start=2503
	];
	node [label="\N"];
	0	[height=0.5,
		pos="500.84,595.14",
		width=0.75];
	1	[height=0.5,
		pos="555.82,522.98",
		width=0.75];
	0 -- 1	[pos="513.32,578.76 522.38,566.87 534.58,550.86 543.58,539.04"];
	3	[height=0.5,
		pos="409.28,489.77",
		width=0.75];
	0 -- 3	[pos="486.94,579.14 469.63,559.22 440.25,525.41 423.02,505.58"];
	2	[height=0.5,
		pos="413.84,397.59",
		width=0.75];
	0 -- 2	[pos="493.12,577.61 476.61,540.12 438.03,452.53 421.54,415.08"];
	16	[height=0.5,
		pos="666.55,529.78",
		width=0.75];
	0 -- 16	[pos="524.23,585.91 555.81,573.46 611.76,551.39 643.28,538.96"];
	7	[height=0.5,
		pos="418.56,745.39",
		width=0.75];
	0 -- 7	[pos="491.56,612.08 475.76,640.94 443.79,699.3 427.93,728.27"];
	18	[height=0.5,
		pos="628.08,634.52",
		width=0.75];
	0 -- 18	[pos="525.38,602.73 547.76,609.66 580.69,619.85 603.19,626.82"];
	10	[height=0.5,
		pos="340.63,571.63",
		width=0.75];
	0 -- 10	[pos="474.39,591.26 444.7,586.9 396.83,579.88 367.13,575.52"];
	11	[height=0.5,
		pos="362.28,640.43",
		width=0.75];
	0 -- 11	[pos="476.39,603.13 451.22,611.36 412.21,624.11 386.96,632.36"];
	20	[height=0.5,
		pos="532.02,727.05",
		width=0.75];
	0 -- 20	[pos="505.05,612.93 511,638.11 521.81,683.87 527.78,709.12"];
	23	[height=0.5,
		pos="677.7,427.7",
		width=0.75];
	0 -- 23	[pos="516.54,580.28 550.1,548.51 628.51,474.27 662.04,442.53"];
	1 -- 3	[pos="529.96,517.12 503.17,511.05 461.57,501.62 434.88,495.57"];
	1 -- 2	[pos="539.53,508.59 512.29,484.53 457.78,436.39 430.37,412.19"];
	1 -- 16	[pos="582.9,524.64 600.06,525.69 622.18,527.05 639.35,528.11"];
	12	[height=0.5,
		pos="604.66,434.17",
		width=0.75];
	1 -- 12	[pos="565.23,505.85 573.88,490.13 586.63,466.95 595.27,451.24"];
	1 -- 18	[pos="566.79,539.92 580.45,561 603.64,596.79 617.24,617.78"];
	1 -- 23	[pos="573.54,509.12 596.65,491.06 636.83,459.64 659.95,441.57"];
	25	[height=0.5,
		pos="421.63,284.52",
		width=0.75];
	3 -- 25	[pos="410.37,471.56 412.72,432.61 418.2,341.61 420.54,302.7"];
	3 -- 7	[pos="409.95,508.16 411.66,555.32 416.19,680.19 417.89,727.17"];
	4	[height=0.5,
		pos="302.77,276.11",
		width=0.75];
	3 -- 4	[pos="400.74,472.65 380.8,432.64 331.33,333.4 311.34,293.31"];
	19	[height=0.5,
		pos="235.9,435.65",
		width=0.75];
	3 -- 19	[pos="384.81,482.13 351.86,471.85 293.56,453.65 260.53,443.34"];
	6	[height=0.5,
		pos="522.36,371.2",
		width=0.75];
	3 -- 6	[pos="424.06,474.27 445.73,451.55 485.9,409.43 507.57,386.71"];
	5	[height=0.5,
		pos="497.66,253.15",
		width=0.75];
	3 -- 5	[pos="415.92,471.99 432.34,428.03 474.68,314.66 491.06,270.82"];
	3 -- 12	[pos="434.42,482.62 471.94,471.94 542.15,451.96 579.61,441.3"];
	8	[height=0.5,
		pos="596.54,326.01",
		width=0.75];
	3 -- 8	[pos="425.9,475.24 461.43,444.16 544.45,371.55 579.96,340.51"];
	3 -- 18	[pos="428.7,502.62 470.22,530.09 567.22,594.26 608.71,621.7"];
	3 -- 10	[pos="396.04,505.56 383.89,520.05 365.97,541.42 353.83,555.9"];
	3 -- 11	[pos="403.7,507.65 394.66,536.64 376.89,593.6 367.85,622.58"];
	14	[height=0.5,
		pos="255.94,564.56",
		width=0.75];
	3 -- 14	[pos="387.31,500.49 358.16,514.71 307,539.66 277.87,553.87"];
	3 -- 20	[pos="418.11,506.84 440.7,550.51 500.42,665.97 523.11,709.82"];
	22	[height=0.5,
		pos="189.03,645.45",
		width=0.75];
	3 -- 22	[pos="390.5,503.05 348.89,532.46 249.33,602.83 207.76,632.21"];
	29	[height=0.5,
		pos="146.38,409.67",
		width=0.75];
	3 -- 29	[pos="384.55,482.24 334.44,466.97 221.45,432.54 171.24,417.24"];
	2 -- 3	[pos="412.94,415.8 412.14,431.96 410.98,455.45 410.18,471.6"];
	2 -- 16	[pos="435.38,408.86 483.13,433.83 597.36,493.59 645.05,518.53"];
	2 -- 25	[pos="415.09,379.42 416.54,358.32 418.93,323.72 420.38,302.64"];
	2 -- 19	[pos="387.96,403.12 354.23,410.34 295.56,422.89 261.81,430.11"];
	2 -- 6	[pos="439.28,391.4 456.57,387.2 479.36,381.66 496.7,377.44"];
	2 -- 5	[pos="423.61,380.73 439.68,353.05 471.49,298.25 487.68,270.34"];
	2 -- 12	[pos="439.97,402.6 476.41,409.58 542.1,422.18 578.54,429.16"];
	2 -- 8	[pos="437.35,388.37 472.43,374.63 538.09,348.9 573.12,335.18"];
	13	[height=0.5,
		pos="637.9,232.82",
		width=0.75];
	2 -- 13	[pos="432.17,384.1 474.29,353.13 577.56,277.19 619.62,246.26"];
	9	[height=0.5,
		pos="299.05,174.73",
		width=0.75];
	2 -- 9	[pos="405.02,380.47 383.65,338.99 329.29,233.45 307.89,191.9"];
	24	[height=0.5,
		pos="231.06,257.93",
		width=0.75];
	2 -- 24	[pos="395.98,383.94 361.04,357.24 283.99,298.37 248.99,271.63"];
	2 -- 10	[pos="406.41,415.23 392.35,448.68 361.96,520.92 347.96,554.2"];
	15	[height=0.5,
		pos="198.35,520.56",
		width=0.75];
	2 -- 15	[pos="393.17,409.38 351.99,432.88 260.09,485.33 218.95,508.8"];
	2 -- 11	[pos="410.04,415.44 400.51,460.35 375.62,577.61 366.08,622.54"];
	2 -- 14	[pos="399.26,413 369.18,444.8 300.52,517.41 270.47,549.19"];
	28	[height=0.5,
		pos="170.75,303.65",
		width=0.75];
	2 -- 28	[pos="390.08,388.41 343.49,370.4 240.62,330.65 194.24,312.73"];
	17	[height=0.5,
		pos="397.84,151.07",
		width=0.75];
	2 -- 17	[pos="412.66,379.46 409.7,333.87 401.97,214.84 399.01,169.23"];
	2 -- 23	[pos="440.59,400.64 491.16,406.41 600.25,418.86 650.87,424.64"];
	16 -- 23	[pos="668.54,511.53 670.57,492.95 673.7,464.31 675.72,445.79"];
	7 -- 20	[pos="444.87,741.13 463.07,738.19 487.2,734.29 505.45,731.34"];
	4 -- 25	[pos="329.74,278.02 349.19,279.4 375.34,281.25 394.77,282.62"];
	4 -- 19	[pos="295.48,293.49 282.62,324.17 256.03,387.62 243.18,418.29"];
	4 -- 5	[pos="329.46,272.97 366.67,268.58 433.77,260.68 470.98,256.3"];
	4 -- 9	[pos="302.1,257.98 301.43,239.64 300.39,211.44 299.72,193.04"];
	21	[height=0.5,
		pos="198.22,69.111",
		width=0.75];
	4 -- 21	[pos="294.03,258.82 274.3,219.76 226.49,125.08 206.86,86.208"];
	4 -- 24	[pos="277.28,269.65 270.52,267.93 263.22,266.08 256.46,264.37"];
	4 -- 28	[pos="277,281.49 253.89,286.31 220.13,293.35 196.9,298.19"];
	4 -- 17	[pos="315,260.02 333.15,236.14 367.05,191.57 385.35,167.5"];
	27	[height=0.5,
		pos="330.34,18",
		width=0.75];
	4 -- 27	[pos="304.7,257.96 309.77,210.57 323.34,83.498 328.4,36.13"];
	4 -- 29	[pos="286.03,290.4 255.93,316.11 193.01,369.85 163,395.48"];
	19 -- 24	[pos="235.41,417.63 234.48,383.57 232.48,310.09 231.56,276"];
	19 -- 28	[pos="227.38,418.39 214.9,393.09 191.75,346.21 179.27,320.91"];
	26	[height=0.5,
		pos="27,564.23",
		width=0.75];
	19 -- 26	[pos="215.87,447.98 175.94,472.55 86.85,527.39 46.97,551.94"];
	19 -- 22	[pos="231.91,453.53 223.05,493.17 201.86,588.01 193.02,627.61"];
	19 -- 29	[pos="210.97,428.41 198.55,424.81 183.58,420.46 171.18,416.87"];
	6 -- 25	[pos="505.72,356.89 487.06,340.83 456.96,314.93 438.29,298.86"];
	6 -- 12	[pos="540.22,384.87 554.02,395.43 573.04,409.98 586.84,420.53"];
	6 -- 8	[pos="542.63,358.85 553.18,352.42 566.04,344.59 576.55,338.18"];
	5 -- 25	[pos="474.43,262.73 465,266.63 454.13,271.11 444.71,275"];
	5 -- 6	[pos="501.41,271.08 506.05,293.27 513.91,330.84 518.57,353.11"];
	5 -- 8	[pos="515.79,266.51 533.52,279.58 560.38,299.36 578.18,312.48"];
	12 -- 13	[pos="607.67,415.95 614,377.61 628.62,289.03 634.92,250.86"];
	12 -- 18	[pos="606.78,452.3 611.24,490.45 621.54,578.59 625.98,616.57"];
	8 -- 12	[pos="597.92,344.35 599.42,364.36 601.81,396.19 603.3,416.09"];
	8 -- 13	[pos="604.32,308.48 611.71,291.82 622.77,266.9 630.15,250.27"];
	9 -- 21	[pos="284.17,159.14 265,139.06 231.87,104.36 212.83,84.415"];
	9 -- 24	[pos="285.94,190.77 273.9,205.5 256.16,227.22 244.13,241.94"];
	9 -- 28	[pos="284.08,189.77 259.49,214.48 210.8,263.4 186.02,288.31"];
	9 -- 17	[pos="324.49,168.63 339.12,165.13 357.46,160.74 372.14,157.23"];
	21 -- 27	[pos="221.84,59.973 245.89,50.67 282.95,36.333 306.92,27.058"];
	18 -- 20	[pos="612.65,649.39 594.72,666.65 565.32,694.97 547.41,712.22"];
	24 -- 28	[pos="212.97,271.65 205.33,277.43 196.46,284.16 188.83,289.94"];
	10 -- 15	[pos="316.82,563.09 290.55,553.66 248.54,538.57 222.24,529.13"];
	10 -- 11	[pos="346.21,589.35 349.41,599.54 353.43,612.31 356.65,622.53"];
	11 -- 15	[pos="343.8,626.91 312.31,603.89 248.63,557.32 217.02,534.21"];
	14 -- 19	[pos="253.15,546.64 249.35,522.15 242.56,478.46 238.73,453.83"];
	14 -- 26	[pos="228.78,564.52 184.72,564.46 98.164,564.33 54.126,564.27"];
	14 -- 22	[pos="242.72,580.54 230.99,594.72 213.94,615.33 202.22,629.5"];
	28 -- 29	[pos="166.61,321.64 162.13,341.13 155.02,372.07 150.54,391.6"];
	17 -- 25	[pos="401.05,169.07 405.59,194.54 413.84,240.84 418.4,266.38"];
	17 -- 21	[pos="374.55,141.51 336.08,125.72 259.73,94.365 221.36,78.612"];
	17 -- 24	[pos="378.05,163.75 345.87,184.37 282.57,224.93 250.57,245.43"];
	17 -- 27	[pos="389.15,133.95 376.19,108.4 351.93,60.572 338.99,35.059"];
	22 -- 26	[pos="167.18,634.5 136.17,618.95 79.727,590.66 48.764,575.14"];
}
