graph {
	graph [bb="0,0,1579.3,1143.9",
		outputorder=edgesfirst,
		overlap=prism,
		size="50,50!",
		start=4963
	];
	node [label="\N"];
	0	[height=0.5,
		pos="722.24,524.72",
		width=0.75];
	42	[height=0.5,
		pos="749.72,604.33",
		width=0.75];
	0 -- 42	[pos="728.34,542.39 732.89,555.58 739.09,573.53 743.64,586.71"];
	1	[height=0.5,
		pos="698.31,712.51",
		width=0.75];
	0 -- 1	[pos="719.95,542.72 715.37,578.62 705.16,658.71 700.59,694.56"];
	2	[height=0.5,
		pos="918.97,497.52",
		width=0.75];
	0 -- 2	[pos="748.77,521.05 786.32,515.86 854.57,506.43 892.23,501.22"];
	153	[height=0.5,
		pos="862.36,409.47",
		width=0.75];
	0 -- 153	[pos="739.42,510.58 766.31,488.47 818.06,445.91 845.04,423.72"];
	3	[height=0.5,
		pos="636.28,717.56",
		width=0.75];
	0 -- 3	[pos="714.46,542.17 698.09,578.89 660.27,663.73 643.98,700.29"];
	6	[height=0.5,
		pos="622.26,589.65",
		width=0.75];
	0 -- 6	[pos="702.49,537.55 684.84,549 659.15,565.69 641.63,577.07"];
	4	[height=0.5,
		pos="962.93,339.77",
		width=0.75];
	0 -- 4	[pos="739.94,511.12 784.45,476.91 900.67,387.61 945.21,353.39"];
	5	[height=0.5,
		pos="904.85,681.68",
		width=0.75];
	0 -- 5	[pos="739.09,539.2 773.97,569.18 853.69,637.7 888.3,667.46"];
	7	[height=0.5,
		pos="1036.1,578.12",
		width=0.75];
	0 -- 7	[pos="748.46,529.18 807.54,539.23 950.51,563.56 1009.7,573.64"];
	201	[height=0.5,
		pos="638.27,343.15",
		width=0.75];
	0 -- 201	[pos="714.19,507.31 698.14,472.6 662.33,395.17 646.3,360.51"];
	12	[height=0.5,
		pos="476.79,500.23",
		width=0.75];
	0 -- 12	[pos="695.51,522.05 648.41,517.35 551.19,507.65 503.86,502.93"];
	19	[height=0.5,
		pos="1003.2,674.88",
		width=0.75];
	0 -- 19	[pos="743.36,536 795.43,563.83 929.53,635.5 981.86,663.46"];
	229	[height=0.5,
		pos="904.89,586.97",
		width=0.75];
	0 -- 229	[pos="746.49,532.98 781.53,544.92 845.9,566.86 880.83,578.77"];
	11	[height=0.5,
		pos="456.3,560.4",
		width=0.75];
	0 -- 11	[pos="695.77,528.27 644.92,535.09 534.13,549.95 483.06,556.81"];
	113	[height=0.5,
		pos="560.16,508.8",
		width=0.75];
	0 -- 113	[pos="695.48,522.09 665.45,519.14 617.01,514.38 586.96,511.43"];
	255	[height=0.5,
		pos="878.14,542.74",
		width=0.75];
	0 -- 255	[pos="749.04,527.82 777.68,531.13 822.82,536.35 851.43,539.65"];
	138	[height=0.5,
		pos="579.79,387.36",
		width=0.75];
	0 -- 138	[pos="706.72,509.76 679.32,483.33 622.68,428.71 595.29,402.3"];
	13	[height=0.5,
		pos="875.65,249.87",
		width=0.75];
	0 -- 13	[pos="731.84,507.52 759.39,458.17 838.51,316.41 866.06,267.06"];
	120	[height=0.5,
		pos="866.93,346.1",
		width=0.75];
	0 -- 120	[pos="735.08,508.87 762.47,475.06 826.36,396.18 853.91,362.18"];
	152	[height=0.5,
		pos="790.13,378.18",
		width=0.75];
	0 -- 152	[pos="730.29,507.33 743.36,479.13 769.03,423.73 782.09,395.55"];
	17	[height=0.5,
		pos="627.52,238.14",
		width=0.75];
	0 -- 17	[pos="716.31,506.79 699.3,455.32 650.45,307.52 633.44,256.06"];
	144	[height=0.5,
		pos="974.05,541.53",
		width=0.75];
	0 -- 144	[pos="749.19,526.52 797.53,529.74 898.44,536.48 946.92,539.72"];
	39	[height=0.5,
		pos="575.03,633.67",
		width=0.75];
	0 -- 39	[pos="703.89,538.3 675.53,559.29 621.37,599.38 593.15,620.27"];
	29	[height=0.5,
		pos="684.32,568.74",
		width=0.75];
	0 -- 29	[pos="708.55,540.61 705.07,544.65 701.33,548.99 697.86,553.02"];
	31	[height=0.5,
		pos="598.03,464.56",
		width=0.75];
	0 -- 31	[pos="700.32,514.1 677.76,503.17 642.79,486.23 620.15,475.27"];
	32	[height=0.5,
		pos="660.06,490.94",
		width=0.75];
	0 -- 32	[pos="701.19,513.28 694.71,509.76 687.57,505.88 681.09,502.36"];
	54	[height=0.5,
		pos="728.01,354.17",
		width=0.75];
	0 -- 54	[pos="722.86,506.47 723.97,473.64 726.29,405.02 727.39,372.29"];
	36	[height=0.5,
		pos="756.82,668.51",
		width=0.75];
	0 -- 36	[pos="726.55,542.64 733.18,570.19 745.8,622.67 752.46,650.36"];
	38	[height=0.5,
		pos="751.58,212.73",
		width=0.75];
	0 -- 38	[pos="723.94,506.59 729.13,451.45 744.68,286.11 749.87,230.91"];
	155	[height=0.5,
		pos="639.96,299.13",
		width=0.75];
	0 -- 155	[pos="715.78,507.01 700.4,464.84 661.73,358.84 646.38,316.75"];
	237	[height=0.5,
		pos="897.66,453.48",
		width=0.75];
	0 -- 237	[pos="745.54,515.26 779.18,501.59 841.01,476.49 874.55,462.87"];
	283	[height=0.5,
		pos="622.23,535.05",
		width=0.75];
	0 -- 283	[pos="695.44,527.48 681.09,528.97 663.46,530.79 649.1,532.27"];
	146	[height=0.5,
		pos="752.01,475.21",
		width=0.75];
	0 -- 146	[pos="732.32,507.96 735.42,502.8 738.84,497.11 741.94,491.95"];
	49	[height=0.5,
		pos="505.43,372.1",
		width=0.75];
	0 -- 49	[pos="703.38,511.44 662.27,482.5 565.02,414.05 524.09,385.24"];
	106	[height=0.5,
		pos="749.16,263.25",
		width=0.75];
	0 -- 106	[pos="724.09,506.74 729.01,458.98 742.36,329.25 747.29,281.34"];
	140	[height=0.5,
		pos="652.45,387.15",
		width=0.75];
	0 -- 140	[pos="713.54,507.57 700.17,481.21 674.69,431 661.25,404.51"];
	86	[height=0.5,
		pos="692.6,431.18",
		width=0.75];
	0 -- 86	[pos="716.53,506.68 711.24,490.01 703.44,465.39 698.2,448.85"];
	242	[height=0.5,
		pos="536.03,431.77",
		width=0.75];
	0 -- 242	[pos="700.52,513.87 664.73,496.01 593.79,460.6 557.9,442.69"];
	95	[height=0.5,
		pos="564.36,253.94",
		width=0.75];
	0 -- 95	[pos="712.36,507.78 684.01,459.15 602.58,319.49 574.23,270.87"];
	104	[height=0.5,
		pos="928.97,383.8",
		width=0.75];
	0 -- 104	[pos="741.32,511.71 780.7,484.87 870.6,423.59 909.94,396.77"];
	193	[height=0.5,
		pos="856.92,498.73",
		width=0.75];
	0 -- 193	[pos="748.21,519.71 771.9,515.13 806.76,508.41 830.57,503.81"];
	262	[height=0.5,
		pos="814.06,454.71",
		width=0.75];
	0 -- 262	[pos="740.38,510.88 756.58,498.53 780.17,480.54 796.27,468.27"];
	161	[height=0.5,
		pos="702.04,310.1",
		width=0.75];
	0 -- 161	[pos="720.52,506.42 716.7,465.87 707.57,368.86 703.75,328.35"];
	176	[height=0.5,
		pos="637.28,663.54",
		width=0.75];
	0 -- 176	[pos="711.99,541.46 695.66,568.15 663.92,620.02 647.57,646.74"];
	42 -- 146	[pos="750.04,586.1 750.48,561.5 751.25,517.91 751.69,493.34"];
	42 -- 86	[pos="743.82,586.45 732.85,553.19 709.42,482.16 698.47,448.96"];
	158	[height=0.5,
		pos="750.86,1014.1",
		width=0.75];
	42 -- 158	[pos="749.77,622.47 749.96,690.16 750.62,927.63 750.8,995.75"];
	195	[height=0.5,
		pos="812.88,976.12",
		width=0.75];
	42 -- 195	[pos="752.77,622.26 763.44,685.07 799.06,894.73 809.79,957.94"];
	1 -- 42	[pos="706.57,695.13 716.16,674.94 731.9,641.84 741.48,621.67"];
	10	[height=0.5,
		pos="696.42,761.61",
		width=0.75];
	1 -- 10	[pos="697.61,730.52 697.45,734.79 697.27,739.34 697.11,743.61"];
	1 -- 3	[pos="671.28,714.71 668.67,714.92 666.02,715.14 663.4,715.35"];
	1 -- 6	[pos="687.89,695.69 673.41,672.29 647.33,630.16 632.79,606.67"];
	1 -- 5	[pos="724.89,708.54 764.54,702.62 838.77,691.54 878.37,685.63"];
	167	[height=0.5,
		pos="574.24,719.38",
		width=0.75];
	1 -- 167	[pos="671.39,714 650.72,715.15 622.3,716.72 601.54,717.87"];
	1 -- 229	[pos="718.49,700.25 758.09,676.18 845.51,623.05 884.93,599.1"];
	37	[height=0.5,
		pos="815.53,741.26",
		width=0.75];
	1 -- 37	[pos="723.74,718.75 743.4,723.57 770.49,730.22 790.14,735.04"];
	1 -- 255	[pos="713.95,697.74 747.96,665.64 828.31,589.78 862.4,557.6"];
	23	[height=0.5,
		pos="830.45,873.3",
		width=0.75];
	1 -- 23	[pos="711.46,728.52 736.79,759.34 792.06,826.59 817.35,857.36"];
	269	[height=0.5,
		pos="629.11,1017.5",
		width=0.75];
	1 -- 269	[pos="694.19,730.68 681.88,784.93 645.49,945.32 633.21,999.44"];
	137	[height=0.5,
		pos="473.97,446.74",
		width=0.75];
	1 -- 137	[pos="684.95,696.68 645.04,649.41 527.07,509.65 487.26,462.49"];
	1 -- 32	[pos="695.18,694.38 687.99,652.73 670.36,550.61 663.18,509.01"];
	1 -- 146	[pos="702.34,694.68 712.29,650.7 737.92,537.45 747.92,493.25"];
	1 -- 86	[pos="697.94,694.49 696.91,643.79 694.01,500.38 692.97,449.42"];
	1 -- 158	[pos="701.44,730.48 710.76,784 738.29,942 747.68,995.89"];
	1 -- 195	[pos="705.82,729.81 726.58,777.57 784.54,910.92 805.34,958.76"];
	233	[height=0.5,
		pos="634.31,797.73",
		width=0.75];
	1 -- 233	[pos="685.97,728.94 674.64,744.03 657.93,766.28 646.61,781.35"];
	10 -- 37	[pos="722.85,757.1 742.59,753.72 769.45,749.14 789.17,745.77"];
	10 -- 255	[pos="709.78,745.52 743.47,704.94 831.56,598.85 865,558.57"];
	2 -- 153	[pos="908.32,480.96 898.26,465.32 883.25,441.97 873.15,426.26"];
	2 -- 3	[pos="901.28,511.29 850.52,550.8 704.71,664.29 653.95,703.8"];
	66	[height=0.5,
		pos="1103.6,685.19",
		width=0.75];
	2 -- 66	[pos="934.08,512.88 968.79,548.16 1053.9,634.65 1088.6,669.88"];
	2 -- 4	[pos="923.92,479.73 932.37,449.44 949.45,388.15 957.92,357.74"];
	79	[height=0.5,
		pos="1036.7,509.78",
		width=0.75];
	2 -- 79	[pos="945.67,500.3 964.8,502.3 990.46,504.97 1009.7,506.97"];
	2 -- 7	[pos="937.78,510.47 959.51,525.43 995.05,549.89 1016.9,564.94"];
	198	[height=0.5,
		pos="1087.3,338.56",
		width=0.75];
	2 -- 198	[pos="934.8,482.57 966.89,452.27 1039.2,383.96 1071.4,353.6"];
	9	[height=0.5,
		pos="1160.1,634.36",
		width=0.75];
	2 -- 9	[pos="939.94,509.43 985.66,535.37 1093.8,596.75 1139.3,622.58"];
	157	[height=0.5,
		pos="1102.8,577.3",
		width=0.75];
	2 -- 157	[pos="941.88,507.47 977.21,522.79 1044.6,552.03 1079.9,567.35"];
	2 -- 13	[pos="915.78,479.31 907.75,433.4 886.75,313.35 878.78,267.78"];
	15	[height=0.5,
		pos="999.72,295.77",
		width=0.75];
	2 -- 15	[pos="925.99,479.97 941.26,441.82 977.34,351.67 992.65,313.42"];
	2 -- 120	[pos="912.89,479.86 902.87,450.68 882.96,392.76 872.96,363.66"];
	20	[height=0.5,
		pos="818.89,638.75",
		width=0.75];
	2 -- 20	[pos="907.29,514 888.01,541.21 849.72,595.24 830.49,622.38"];
	57	[height=0.5,
		pos="842.88,594.71",
		width=0.75];
	2 -- 57	[pos="906.4,513.57 892.3,531.58 869.57,560.62 855.46,578.64"];
	71	[height=0.5,
		pos="1163,438.23",
		width=0.75];
	2 -- 71	[pos="944.62,491.29 991.48,479.9 1090.4,455.86 1137.3,444.47"];
	46	[height=0.5,
		pos="1225.1,432.66",
		width=0.75];
	2 -- 46	[pos="944.8,492.05 1002.5,479.83 1141.1,450.46 1199,438.19"];
	27	[height=0.5,
		pos="961.01,725.9",
		width=0.75];
	2 -- 27	[pos="922.26,515.44 930.11,558.03 949.79,664.92 957.67,707.74"];
	33	[height=0.5,
		pos="1165.6,555.8",
		width=0.75];
	2 -- 33	[pos="944.43,503.54 991.68,514.71 1092.4,538.52 1139.9,549.73"];
	2 -- 237	[pos="910.67,480.37 909.13,477.18 907.52,473.85 905.97,470.66"];
	53	[height=0.5,
		pos="1098.1,621.83",
		width=0.75];
	2 -- 53	[pos="937.8,510.59 972.2,534.47 1044.8,584.87 1079.2,608.75"];
	210	[height=0.5,
		pos="797.05,549.85",
		width=0.75];
	2 -- 210	[pos="896.03,507.37 874.24,516.72 841.64,530.71 819.87,540.05"];
	126	[height=0.5,
		pos="830.64,682.99",
		width=0.75];
	2 -- 126	[pos="910.66,514.97 893.78,550.41 855.67,630.44 838.86,665.72"];
	72	[height=0.5,
		pos="1025.1,343.89",
		width=0.75];
	2 -- 72	[pos="930.33,481.08 950.65,451.67 993.03,390.34 1013.5,360.68"];
	88	[height=0.5,
		pos="1015.3,462.14",
		width=0.75];
	2 -- 88	[pos="942.77,488.78 957.59,483.34 976.58,476.36 991.41,470.91"];
	217	[height=0.5,
		pos="1098.1,401.54",
		width=0.75];
	2 -- 217	[pos="940.22,486.14 974.69,467.66 1042.4,431.38 1076.9,412.91"];
	2 -- 262	[pos="895.68,488.02 878.3,480.93 854.64,471.27 837.28,464.18"];
	177	[height=0.5,
		pos="1099,476.18",
		width=0.75];
	2 -- 177	[pos="945.91,494.33 979.94,490.29 1038.1,483.39 1072.1,479.36"];
	197	[height=0.5,
		pos="1099,523.53",
		width=0.75];
	2 -- 197	[pos="945.53,501.36 979.56,506.28 1038.2,514.75 1072.3,519.67"];
	215	[height=0.5,
		pos="1163.1,385.27",
		width=0.75];
	2 -- 215	[pos="941.5,487.16 988.01,465.78 1094.2,416.97 1140.6,395.61"];
	273	[height=0.5,
		pos="1161.2,511.12",
		width=0.75];
	2 -- 273	[pos="946.28,499.06 992.94,501.68 1087.4,506.98 1134,509.59"];
	153 -- 262	[pos="846.54,424.28 841.15,429.33 835.13,434.97 829.74,440.02"];
	3 -- 10	[pos="654.65,731.02 662.11,736.48 670.71,742.78 678.16,748.24"];
	47	[height=0.5,
		pos="756.89,893.19",
		width=0.75];
	3 -- 47	[pos="647.62,734.08 670.61,767.56 722.45,843.04 745.49,876.58"];
	3 -- 6	[pos="634.3,699.51 631.63,675.13 626.89,631.94 624.23,607.61"];
	3 -- 5	[pos="663.01,713.99 714.49,707.11 826.83,692.1 878.22,685.24"];
	204	[height=0.5,
		pos="883.63,813.96",
		width=0.75];
	3 -- 204	[pos="659.99,726.8 707.27,745.23 812.76,786.34 859.98,804.74"];
	3 -- 12	[pos="624.29,701.23 594.66,660.85 518.24,556.72 488.7,516.46"];
	3 -- 167	[pos="609.25,718.36 606.64,718.43 603.99,718.51 601.37,718.59"];
	3 -- 37	[pos="663.11,721.11 697,725.59 754.96,733.25 788.8,737.73"];
	3 -- 11	[pos="619.67,703.06 585.38,673.12 507.12,604.78 472.87,574.86"];
	35	[height=0.5,
		pos="572.3,763.39",
		width=0.75];
	3 -- 35	[pos="617.77,730.82 609.36,736.84 599.42,743.96 590.99,750"];
	151	[height=0.5,
		pos="426.31,653",
		width=0.75];
	3 -- 151	[pos="611.37,709.9 570.85,697.44 491.15,672.94 450.87,660.55"];
	21	[height=0.5,
		pos="415.01,822.98",
		width=0.75];
	3 -- 21	[pos="614.25,728.05 571.95,748.21 479.76,792.13 437.27,812.37"];
	16	[height=0.5,
		pos="388.19,742.99",
		width=0.75];
	3 -- 16	[pos="609.25,720.33 561.53,725.22 462.87,735.34 415.17,740.23"];
	3 -- 20	[pos="659.04,707.74 694.12,692.6 761.04,663.72 796.13,648.57"];
	3 -- 57	[pos="656.46,705.56 695.96,682.07 783.05,630.29 822.61,606.77"];
	123	[height=0.5,
		pos="436.48,608.96",
		width=0.75];
	3 -- 123	[pos="615.27,706.14 576.9,685.29 495.89,641.25 457.5,620.39"];
	40	[height=0.5,
		pos="482.51,791.55",
		width=0.75];
	3 -- 40	[pos="614.25,728.16 585.01,742.23 533.71,766.92 504.5,780.97"];
	84	[height=0.5,
		pos="485.46,840.05",
		width=0.75];
	3 -- 84	[pos="618.98,731.61 590.04,755.11 532.13,802.14 503.02,825.79"];
	111	[height=0.5,
		pos="450.2,700.4",
		width=0.75];
	3 -- 111	[pos="609.22,715.07 573.84,711.8 512.24,706.12 476.99,702.87"];
	3 -- 27	[pos="663.4,718.26 724.53,719.83 872.46,723.62 933.73,725.2"];
	98	[height=0.5,
		pos="877.65,728.05",
		width=0.75];
	3 -- 98	[pos="663.5,718.74 709.98,720.76 804.12,724.85 850.53,726.87"];
	3 -- 29	[pos="641.98,699.91 651.22,671.26 669.38,615 678.62,586.37"];
	68	[height=0.5,
		pos="509.98,631.71",
		width=0.75];
	3 -- 68	[pos="617.37,704.71 593.56,688.52 552.89,660.88 529.02,644.65"];
	3 -- 36	[pos="659.52,708.1 680.87,699.42 712.33,686.61 733.65,677.93"];
	78	[height=0.5,
		pos="552.4,944.3",
		width=0.75];
	3 -- 78	[pos="629.7,735.35 614.02,777.74 574.6,884.29 558.95,926.59"];
	3 -- 283	[pos="634.88,699.39 632.18,664.41 626.31,588.07 623.62,553.14"];
	170	[height=0.5,
		pos="547.48,807.4",
		width=0.75];
	3 -- 170	[pos="621.21,732.8 604.89,749.32 578.98,775.54 562.62,792.09"];
	45	[height=0.5,
		pos="821.31,829.26",
		width=0.75];
	3 -- 45	[pos="656.43,729.73 692.02,751.21 765.6,795.63 801.18,817.11"];
	166	[height=0.5,
		pos="583.34,853.69",
		width=0.75];
	3 -- 166	[pos="629.46,735.08 619.3,761.22 600.28,810.14 590.13,836.24"];
	80	[height=0.5,
		pos="423.44,868.42",
		width=0.75];
	3 -- 80	[pos="617.76,730.69 577.51,759.22 482.42,826.62 442.07,855.22"];
	3 -- 210	[pos="650.83,702.38 681.28,670.61 751.45,597.41 782.18,565.36"];
	59	[height=0.5,
		pos="758.9,785.94",
		width=0.75];
	3 -- 59	[pos="657.08,729.16 679.63,741.73 715.41,761.68 737.99,774.28"];
	69	[height=0.5,
		pos="733.8,847.97",
		width=0.75];
	3 -- 69	[pos="648.43,733.81 667.12,758.8 702.71,806.4 721.49,831.51"];
	65	[height=0.5,
		pos="688.8,972.5",
		width=0.75];
	3 -- 65	[pos="639.97,735.49 649.62,782.3 675.48,907.8 685.12,954.59"];
	3 -- 126	[pos="662.49,712.9 699.69,706.28 767.39,694.24 804.53,687.63"];
	116	[height=0.5,
		pos="618.86,902.57",
		width=0.75];
	3 -- 116	[pos="634.58,735.64 631.25,771.01 623.91,848.99 620.57,884.42"];
	188	[height=0.5,
		pos="506.96,744.75",
		width=0.75];
	3 -- 188	[pos="610.42,723 587.86,727.74 555.31,734.58 532.77,739.32"];
	134	[height=0.5,
		pos="487.82,897.35",
		width=0.75];
	3 -- 134	[pos="623.1,733.52 594.93,767.63 529.11,847.34 500.97,881.43"];
	125	[height=0.5,
		pos="512.2,675.73",
		width=0.75];
	3 -- 125	[pos="612.06,709.4 590.2,702.02 558.2,691.24 536.36,683.87"];
	294	[height=0.5,
		pos="682.69,928.45",
		width=0.75];
	3 -- 294	[pos="640.23,735.54 649,775.39 669.98,870.72 678.74,910.52"];
	3 -- 233	[pos="635.83,735.75 635.51,748.87 635.08,766.51 634.76,779.61"];
	3 -- 176	[pos="636.62,699.27 636.72,693.64 636.84,687.44 636.94,681.81"];
	200	[height=0.5,
		pos="622.83,973.06",
		width=0.75];
	3 -- 200	[pos="635.31,735.94 632.83,783.08 626.26,907.89 623.78,954.85"];
	275	[height=0.5,
		pos="553.49,899.06",
		width=0.75];
	3 -- 275	[pos="628.34,734.96 612.51,769.66 577.21,847.06 561.4,881.71"];
	169	[height=0.5,
		pos="824.01,1036.1",
		width=0.75];
	47 -- 169	[pos="764.99,910.43 777.89,937.89 802.97,991.29 815.89,1018.8"];
	149	[height=0.5,
		pos="848.77,1080.2",
		width=0.75];
	47 -- 149	[pos="765.37,910.44 782.87,946.06 822.83,1027.4 840.31,1062.9"];
	241	[height=0.5,
		pos="760.86,1069.6",
		width=0.75];
	47 -- 241	[pos="757.3,911.4 758.06,945.29 759.69,1017.7 760.45,1051.5"];
	47 -- 200	[pos="736.53,905.32 711.33,920.33 668.67,945.75 643.38,960.82"];
	47 -- 275	[pos="729.88,893.97 690.98,895.09 619.58,897.16 580.61,898.28"];
	131	[height=0.5,
		pos="1154.1,787.16",
		width=0.75];
	66 -- 131	[pos="1112.2,702.49 1121.5,721.24 1136.2,750.99 1145.5,769.78"];
	247	[height=0.5,
		pos="1313.5,874.32",
		width=0.75];
	66 -- 247	[pos="1119.7,699.71 1158.8,734.92 1258.2,824.49 1297.4,859.74"];
	66 -- 126	[pos="1076.4,684.97 1024.1,684.55 909.94,683.63 857.7,683.21"];
	100	[height=0.5,
		pos="1183.5,921.33",
		width=0.75];
	66 -- 100	[pos="1109.6,702.94 1124.5,746.81 1162.7,859.95 1177.5,903.7"];
	133	[height=0.5,
		pos="1183.6,999.46",
		width=0.75];
	66 -- 133	[pos="1108.1,702.98 1122.2,758.17 1164.9,926.02 1179,981.47"];
	299	[height=0.5,
		pos="1307.6,920.67",
		width=0.75];
	66 -- 299	[pos="1117.3,701 1154.5,743.9 1256.9,862.11 1294,904.93"];
	297	[height=0.5,
		pos="1091.7,919.22",
		width=0.75];
	66 -- 297	[pos="1102.7,703.55 1100.4,747.3 1094.8,857.28 1092.6,900.94"];
	6 -- 167	[pos="615.78,607.15 606.62,631.91 589.96,676.92 580.77,701.75"];
	6 -- 35	[pos="617.1,607.59 607.5,640.97 587.01,712.24 577.43,745.55"];
	6 -- 137	[pos="606.67,574.63 578.11,547.11 517.75,488.93 489.35,461.56"];
	6 -- 29	[pos="646.43,581.51 650.92,579.99 655.62,578.41 660.11,576.9"];
	6 -- 32	[pos="629.02,572 635.9,554.04 646.5,526.35 653.36,508.43"];
	6 -- 68	[pos="598.45,598.57 579.39,605.71 552.8,615.67 533.76,622.8"];
	6 -- 283	[pos="622.25,571.47 622.24,565.64 622.24,559.18 622.24,553.34"];
	6 -- 140	[pos="624.94,571.68 630.66,533.25 644.05,443.47 649.77,405.08"];
	6 -- 233	[pos="623.31,607.75 625.59,647.1 630.97,740.07 633.26,779.52"];
	4 -- 79	[pos="970.54,357.32 984.71,389.99 1015,459.73 1029.1,492.32"];
	4 -- 15	[pos="976.21,323.88 979.5,319.95 983.04,315.72 986.33,311.78"];
	18	[height=0.5,
		pos="1174.3,252.15",
		width=0.75];
	4 -- 18	[pos="985.95,330.23 1026.6,313.37 1110.6,278.53 1151.3,261.68"];
	261	[height=0.5,
		pos="1236.3,278.12",
		width=0.75];
	4 -- 261	[pos="988.65,333.97 1040.7,322.22 1158.2,295.72 1210.4,283.95"];
	4 -- 152	[pos="937.06,345.52 904.39,352.78 848.51,365.21 815.89,372.46"];
	194	[height=0.5,
		pos="1211.6,339.16",
		width=0.75];
	4 -- 194	[pos="990.02,339.7 1037.9,339.59 1136.8,339.34 1184.6,339.22"];
	94	[height=0.5,
		pos="1149.6,298.41",
		width=0.75];
	4 -- 94	[pos="988.88,334.02 1024.5,326.12 1088.3,311.99 1123.8,304.12"];
	4 -- 36	[pos="952.43,356.52 917.07,412.92 802.63,595.44 767.31,651.78"];
	4 -- 38	[pos="942.67,327.59 902.27,303.31 812.13,249.13 771.79,224.88"];
	58	[height=0.5,
		pos="1112.3,247.45",
		width=0.75];
	4 -- 58	[pos="982.76,327.51 1011.3,309.85 1063.7,277.45 1092.3,259.76"];
	224	[height=0.5,
		pos="937.69,266.27",
		width=0.75];
	4 -- 224	[pos="956.82,321.98 952.85,310.42 947.7,295.42 943.74,283.9"];
	4 -- 72	[pos="990.03,341.57 992.65,341.74 995.31,341.91 997.93,342.09"];
	213	[height=0.5,
		pos="1061.8,291.51",
		width=0.75];
	4 -- 213	[pos="984.86,329.06 1001.2,321.06 1023.5,310.18 1039.9,302.19"];
	196	[height=0.5,
		pos="804.91,307.28",
		width=0.75];
	79 -- 196	[pos="1020,495.21 977.23,457.85 864.02,358.93 821.43,321.71"];
	79 -- 88	[pos="1028.8,492.31 1027,488.17 1025,483.75 1023.1,479.61"];
	5 -- 204	[pos="901.94,699.8 897.9,724.98 890.63,770.34 886.57,795.64"];
	5 -- 7	[pos="922.28,667.93 947.38,648.12 993.45,611.77 1018.6,591.93"];
	5 -- 19	[pos="931.73,679.82 945.5,678.87 962.22,677.72 976.03,676.76"];
	8	[height=0.5,
		pos="1022.7,770.12",
		width=0.75];
	5 -- 8	[pos="923,695.3 945.2,711.97 982.55,740.01 1004.7,756.62"];
	5 -- 229	[pos="904.86,663.42 904.87,646.65 904.88,621.93 904.88,605.18"];
	5 -- 9	[pos="931.2,676.79 980.24,667.7 1085,648.29 1133.9,639.22"];
	44	[height=0.5,
		pos="997.52,940.66",
		width=0.75];
	5 -- 44	[pos="911.22,699.48 928.19,746.91 974.35,875.9 991.23,923.08"];
	5 -- 37	[pos="885.47,694.61 870.49,704.6 849.84,718.37 834.87,728.36"];
	5 -- 255	[pos="901.41,663.8 896.31,637.27 886.79,587.74 881.65,560.99"];
	22	[height=0.5,
		pos="1035.5,860.1",
		width=0.75];
	5 -- 22	[pos="916.9,698.15 941.79,732.14 998.59,809.72 1023.4,843.68"];
	5 -- 27	[pos="922.31,695.43 929.01,700.7 936.65,706.72 943.37,712.01"];
	5 -- 98	[pos="894.88,698.68 892.51,702.71 889.99,707.01 887.62,711.05"];
	253	[height=0.5,
		pos="1002.1,814.44",
		width=0.75];
	5 -- 253	[pos="916.78,697.96 935.44,723.44 971.36,772.46 990.09,798.03"];
	127	[height=0.5,
		pos="971.2,873.59",
		width=0.75];
	5 -- 127	[pos="910.97,699.39 923.61,735.95 952.47,819.4 965.09,855.92"];
	230	[height=0.5,
		pos="1088,816.07",
		width=0.75];
	5 -- 230	[pos="923.09,695.06 958.2,720.82 1034.8,777.03 1069.9,802.75"];
	109	[height=0.5,
		pos="896.03,903.95",
		width=0.75];
	5 -- 109	[pos="904.13,699.87 902.47,741.65 898.4,844.1 896.75,885.82"];
	238	[height=0.5,
		pos="935.5,948.01",
		width=0.75];
	5 -- 238	[pos="906.96,699.99 912.57,748.76 927.83,881.41 933.41,929.93"];
	204 -- 253	[pos="910.81,814.07 930.07,814.14 955.81,814.25 975.05,814.33"];
	7 -- 19	[pos="1030.1,595.87 1024.1,613.33 1015.1,639.83 1009.2,657.25"];
	7 -- 9	[pos="1058.5,588.31 1080.9,598.44 1115,613.89 1137.4,624.06"];
	7 -- 157	[pos="1063.2,577.79 1067.3,577.74 1071.4,577.69 1075.5,577.64"];
	7 -- 144	[pos="1015.8,566.14 1009,562.14 1001.4,557.68 994.62,553.67"];
	25	[height=0.5,
		pos="1268,476.68",
		width=0.75];
	7 -- 25	[pos="1058.7,568.21 1103.1,548.82 1200.8,506.05 1245.2,486.63"];
	30	[height=0.5,
		pos="1284.2,655.1",
		width=0.75];
	7 -- 30	[pos="1060.8,585.79 1108.3,600.54 1212.1,632.74 1259.6,647.47"];
	7 -- 33	[pos="1062.3,573.61 1084.8,569.73 1116.9,564.18 1139.4,560.31"];
	96	[height=0.5,
		pos="1284.2,609.69",
		width=0.75];
	7 -- 96	[pos="1062.6,581.5 1110.3,587.56 1209.7,600.21 1257.4,606.29"];
	263	[height=0.5,
		pos="1291.8,322.16",
		width=0.75];
	7 -- 263	[pos="1051.3,562.88 1096.8,517.35 1231.2,382.75 1276.6,337.32"];
	7 -- 237	[pos="1019.9,563.58 993.41,539.69 940.88,492.4 914.14,468.32"];
	212	[height=0.5,
		pos="1167.5,695.78",
		width=0.75];
	7 -- 212	[pos="1052.5,592.79 1077.8,615.46 1126.2,658.75 1151.4,681.3"];
	7 -- 53	[pos="1054.7,591.24 1062.5,596.77 1071.7,603.19 1079.5,608.72"];
	101	[height=0.5,
		pos="1241.6,699.14",
		width=0.75];
	7 -- 101	[pos="1056.5,590.17 1095.9,613.37 1181.9,663.99 1221.2,687.15"];
	7 -- 104	[pos="1026.8,561.22 1006.5,524.47 958.65,437.64 938.34,400.8"];
	277	[height=0.5,
		pos="1222.1,618.8",
		width=0.75];
	7 -- 277	[pos="1062,583.78 1097.4,591.53 1160.7,605.37 1196.2,613.13"];
	132	[height=0.5,
		pos="1229.8,565.66",
		width=0.75];
	7 -- 132	[pos="1063,576.39 1099.9,574.01 1165.8,569.77 1202.8,567.39"];
	145	[height=0.5,
		pos="1249.6,383.17",
		width=0.75];
	7 -- 145	[pos="1052.1,563.47 1091.8,527.25 1194.1,433.84 1233.7,397.73"];
	7 -- 197	[pos="1052.6,563.78 1061.8,555.82 1073.2,545.94 1082.4,537.96"];
	257	[height=0.5,
		pos="1231.5,521.65",
		width=0.75];
	7 -- 257	[pos="1061.2,570.86 1098.8,560.01 1169,539.72 1206.5,528.89"];
	12 -- 151	[pos="470.9,518.05 461.17,547.49 441.87,605.93 432.16,635.29"];
	12 -- 138	[pos="491.11,484.53 510.79,462.97 545.98,424.42 565.59,402.92"];
	12 -- 16	[pos="470.27,518.08 453.85,563.08 410.9,680.77 394.59,725.44"];
	28	[height=0.5,
		pos="275.17,556.18",
		width=0.75];
	12 -- 28	[pos="451.66,507.2 412.92,517.95 339.04,538.46 300.3,549.21"];
	181	[height=0.5,
		pos="151.09,552.88",
		width=0.75];
	12 -- 181	[pos="450.41,504.49 389.38,514.36 238.98,538.67 177.71,548.57"];
	12 -- 283	[pos="502.45,506.37 528.88,512.7 569.82,522.5 596.33,528.85"];
	12 -- 49	[pos="480.77,482.41 486.21,458.07 495.92,414.65 501.39,390.18"];
	67	[height=0.5,
		pos="357.85,307.74",
		width=0.75];
	12 -- 67	[pos="466.44,483.48 443.95,447.08 390.8,361.08 368.26,324.58"];
	64	[height=0.5,
		pos="278.99,336.06",
		width=0.75];
	12 -- 64	[pos="459.58,485.95 422.08,454.82 333.35,381.18 296.02,350.19"];
	136	[height=0.5,
		pos="426.92,318.9",
		width=0.75];
	12 -- 136	[pos="471.92,482.51 462.38,447.85 441.36,371.41 431.81,336.69"];
	185	[height=0.5,
		pos="356.03,355.13",
		width=0.75];
	12 -- 185	[pos="463.63,484.42 440.4,456.51 392.38,398.81 369.16,370.91"];
	118	[height=0.5,
		pos="236.79,380.06",
		width=0.75];
	12 -- 118	[pos="455.07,489.35 409.49,466.53 304.32,413.87 258.64,391"];
	73	[height=0.5,
		pos="316.21,248",
		width=0.75];
	12 -- 73	[pos="466,483.29 436.75,437.34 356.15,310.73 326.95,264.87"];
	218	[height=0.5,
		pos="288.72,292.03",
		width=0.75];
	12 -- 218	[pos="462.65,484.58 427.71,445.9 337.6,346.15 302.76,307.58"];
	288	[height=0.5,
		pos="470.18,250.85",
		width=0.75];
	12 -- 288	[pos="476.3,481.89 475.08,435.66 471.87,314.77 470.66,268.88"];
	216	[height=0.5,
		pos="408.13,263.38",
		width=0.75];
	12 -- 216	[pos="471.63,482.43 458.87,438.43 425.98,324.95 413.26,281.07"];
	286	[height=0.5,
		pos="209.25,424.07",
		width=0.75];
	12 -- 286	[pos="451.62,493.06 400.5,478.51 285.06,445.65 234.16,431.16"];
	19 -- 229	[pos="986.98,660.36 968.76,644.08 939.38,617.81 921.15,601.51"];
	19 -- 144	[pos="999.29,656.9 993.72,631.45 983.6,585.18 978.02,559.66"];
	19 -- 22	[pos="1006.4,692.98 1012.6,728.48 1026.2,806.87 1032.4,842.21"];
	150	[height=0.5,
		pos="1154.1,831.17",
		width=0.75];
	19 -- 150	[pos="1018,690.15 1046.7,719.95 1110.1,785.57 1139.1,815.6"];
	52	[height=0.5,
		pos="1245.6,964.17",
		width=0.75];
	19 -- 52	[pos="1016.6,690.85 1059,741.43 1190,897.75 1232.3,948.26"];
	251	[height=0.5,
		pos="1239.6,863.82",
		width=0.75];
	19 -- 251	[pos="1020.6,688.77 1064.3,723.71 1178.4,814.94 1222.2,849.9"];
	248	[height=0.5,
		pos="1231.2,801.65",
		width=0.75];
	19 -- 248	[pos="1024.3,686.58 1067.7,710.73 1166.8,765.85 1210.2,789.98"];
	245	[height=0.5,
		pos="1059.5,963.23",
		width=0.75];
	19 -- 245	[pos="1006.7,692.92 1016.9,744.7 1045.9,893.42 1056,945.2"];
	19 -- 193	[pos="989.98,658.94 962.13,625.4 897.76,547.9 870.03,514.51"];
	164	[height=0.5,
		pos="1121.5,969.44",
		width=0.75];
	19 -- 164	[pos="1010.3,692.43 1031.3,744.82 1093.5,899.72 1114.5,951.99"];
	171	[height=0.5,
		pos="1144.7,875.2",
		width=0.75];
	19 -- 171	[pos="1014.8,691.27 1041.4,728.93 1106.6,821.26 1133.2,858.86"];
	276	[height=0.5,
		pos="1204,743.15",
		width=0.75];
	19 -- 276	[pos="1027.4,683.12 1066,696.24 1141.1,721.74 1179.7,734.88"];
	270	[height=0.5,
		pos="896.25,1036.1",
		width=0.75];
	19 -- 270	[pos="997.92,692.8 979.7,754.3 919.85,956.43 901.59,1018.1"];
	198 -- 215	[pos="1107.2,350.84 1118.3,357.65 1132,366.1 1143.1,372.92"];
	198 -- 273	[pos="1094.8,356.06 1109,389.13 1139.5,460.47 1153.7,493.58"];
	167 -- 233	[pos="586.69,735.62 597,749.06 611.58,768.08 621.88,781.52"];
	8 -- 19	[pos="1019,752.2 1015.5,735.28 1010.4,710.04 1006.9,693.04"];
	8 -- 229	[pos="1012,753.54 989.63,718.76 938.03,638.5 915.61,603.64"];
	8 -- 22	[pos="1025.2,788.33 1027.5,803.94 1030.7,826.32 1032.9,841.92"];
	8 -- 150	[pos="1045,780.47 1069.1,791.7 1107.5,809.51 1131.7,820.76"];
	8 -- 230	[pos="1041.6,783.41 1050.3,789.56 1060.7,796.84 1069.4,802.97"];
	8 -- 248	[pos="1049.1,774.11 1089.1,780.16 1164.6,791.58 1204.7,797.64"];
	9 -- 66	[pos="1143.8,649.06 1136.2,655.86 1127.2,663.92 1119.7,670.69"];
	14	[height=0.5,
		pos="1305.3,427.68",
		width=0.75];
	9 -- 14	[pos="1171.7,617.79 1199,579 1266.7,482.62 1293.8,444.04"];
	43	[height=0.5,
		pos="1406.5,476.47",
		width=0.75];
	9 -- 43	[pos="1179.8,621.7 1226.1,592.07 1341,518.45 1387,488.97"];
	9 -- 25	[pos="1171.4,617.78 1192.1,587.58 1235.7,523.9 1256.4,493.5"];
	9 -- 27	[pos="1137.6,644.68 1099.3,662.31 1021.7,698.01 983.38,715.61"];
	9 -- 98	[pos="1135.5,642.51 1082,660.27 955.28,702.3 901.96,719.98"];
	9 -- 131	[pos="1159.4,652.49 1158.2,681.89 1156,739.66 1154.8,769.05"];
	81	[height=0.5,
		pos="1295.9,520.71",
		width=0.75];
	9 -- 81	[pos="1177,620.19 1203,598.42 1252.6,556.94 1278.7,535.06"];
	50	[height=0.5,
		pos="1390.8,520.69",
		width=0.75];
	9 -- 50	[pos="1182.2,623.46 1226.4,601.68 1325.2,553.01 1369.1,531.39"];
	190	[height=0.5,
		pos="1333.2,564.74",
		width=0.75];
	9 -- 190	[pos="1183.4,624.97 1216.6,611.64 1276.9,587.39 1310,574.09"];
	77	[height=0.5,
		pos="1346.2,637.36",
		width=0.75];
	9 -- 77	[pos="1187.2,634.79 1222.4,635.36 1283.8,636.35 1319.1,636.92"];
	228	[height=0.5,
		pos="1326.3,802.37",
		width=0.75];
	9 -- 228	[pos="1175.1,649.56 1206.8,681.55 1279.9,755.47 1311.4,787.32"];
	82	[height=0.5,
		pos="1365.6,738.77",
		width=0.75];
	9 -- 82	[pos="1181.7,645.33 1221.2,665.39 1304.5,707.72 1343.9,727.78"];
	281	[height=0.5,
		pos="1432.4,686.01",
		width=0.75];
	9 -- 281	[pos="1186.2,639.31 1238.2,649.18 1354.4,671.21 1406.4,681.07"];
	121	[height=0.5,
		pos="1427.5,595.39",
		width=0.75];
	9 -- 121	[pos="1186.7,630.48 1238,623.01 1349.8,606.71 1401,599.25"];
	227	[height=0.5,
		pos="1341.9,476.65",
		width=0.75];
	9 -- 227	[pos="1176.5,620.08 1211.1,590.13 1290.7,521.03 1325.3,491.01"];
	221	[height=0.5,
		pos="1361.2,694.45",
		width=0.75];
	9 -- 221	[pos="1184.8,641.73 1223.4,653.26 1297.6,675.45 1336.3,687.02"];
	9 -- 273	[pos="1160.3,616.17 1160.5,592.87 1160.8,552.72 1161.1,529.38"];
	265	[height=0.5,
		pos="1408.2,641.97",
		width=0.75];
	9 -- 265	[pos="1187.1,635.19 1234.8,636.65 1333.5,639.68 1381.2,641.14"];
	55	[height=0.5,
		pos="921.01,1125.9",
		width=0.75];
	44 -- 55	[pos="990.32,958.09 975.74,993.38 942.86,1073 928.25,1108.4"];
	44 -- 127	[pos="990.61,923.04 986.77,913.26 982.01,901.12 978.16,891.32"];
	44 -- 109	[pos="973.72,932.05 957.55,926.21 936.24,918.5 920.02,912.63"];
	44 -- 238	[pos="970.86,943.82 967.97,944.16 965.03,944.51 962.14,944.85"];
	162	[height=0.5,
		pos="1009.6,1102.1",
		width=0.75];
	44 -- 162	[pos="998.88,958.87 1001.2,989.89 1005.9,1052.6 1008.2,1083.8"];
	37 -- 204	[pos="829.97,756.68 841.53,769.02 857.65,786.23 869.2,798.56"];
	37 -- 255	[pos="821.08,723.65 832.94,686.07 860.58,598.4 872.5,560.61"];
	37 -- 253	[pos="839.16,750.53 875.05,764.61 942.89,791.21 978.67,805.24"];
	11 -- 113	[pos="478.07,549.58 495.8,540.77 520.7,528.4 538.42,519.6"];
	11 -- 21	[pos="453.46,578.44 445.92,626.41 425.43,756.69 417.87,804.8"];
	11 -- 16	[pos="449.77,577.9 436.78,612.72 407.85,690.28 394.8,725.27"];
	93	[height=0.5,
		pos="244.44,690.52",
		width=0.75];
	11 -- 93	[pos="436.37,572.64 395.99,597.44 304.94,653.36 264.48,678.21"];
	249	[height=0.5,
		pos="192.9,503.29",
		width=0.75];
	11 -- 249	[pos="430.56,554.82 380.21,543.9 269.18,519.83 218.74,508.89"];
	108	[height=0.5,
		pos="264.56,734.84",
		width=0.75];
	11 -- 108	[pos="440.28,574.97 404.19,607.8 316.84,687.27 280.66,720.19"];
	159	[height=0.5,
		pos="213.13,555.8",
		width=0.75];
	11 -- 159	[pos="428.88,559.88 382.05,558.99 287.21,557.2 240.45,556.31"];
	24	[height=0.5,
		pos="293.53,512.12",
		width=0.75];
	11 -- 24	[pos="431.58,553.06 400.89,543.96 348.88,528.54 318.21,519.44"];
	11 -- 123	[pos="449.14,577.93 447.37,582.27 445.47,586.94 443.69,591.29"];
	11 -- 40	[pos="458.36,578.53 463.25,621.75 475.57,730.37 480.46,773.5"];
	11 -- 39	[pos="476.17,572.66 498.09,586.19 533.15,607.83 555.09,621.37"];
	11 -- 84	[pos="458.21,578.74 463.51,629.54 478.32,771.56 483.57,822"];
	11 -- 111	[pos="455.51,578.41 454.35,605.15 452.18,655.06 451,682.01"];
	11 -- 28	[pos="429.18,559.76 394.94,558.97 336.37,557.61 302.18,556.81"];
	11 -- 31	[pos="475.41,547.47 502.46,529.18 551.63,495.93 578.77,477.58"];
	173	[height=0.5,
		pos="226.59,601.12",
		width=0.75];
	11 -- 173	[pos="429.95,565.07 385.76,572.9 297.21,588.6 252.99,596.44"];
	70	[height=0.5,
		pos="344.33,694.33",
		width=0.75];
	11 -- 70	[pos="443.01,576.29 421.46,602.06 379.13,652.7 357.6,678.46"];
	115	[height=0.5,
		pos="359.18,867.09",
		width=0.75];
	11 -- 115	[pos="450.66,578.21 433.49,632.42 382.02,794.95 364.83,849.22"];
	63	[height=0.5,
		pos="307.33,412.76",
		width=0.75];
	11 -- 63	[pos="441.19,545.43 412.64,517.13 351.05,456.09 322.47,427.77"];
	11 -- 242	[pos="466.72,543.58 482,518.93 510.32,473.24 525.6,448.59"];
	211	[height=0.5,
		pos="326.16,778.87",
		width=0.75];
	11 -- 211	[pos="446.3,577.18 422.08,617.84 360.45,721.31 336.19,762.04"];
	220	[height=0.5,
		pos="299.41,646.51",
		width=0.75];
	11 -- 220	[pos="435.14,572.01 405.11,588.49 350.46,618.49 320.48,634.94"];
	156	[height=0.5,
		pos="322.99,822.87",
		width=0.75];
	11 -- 156	[pos="447.55,577.62 423.4,625.18 355.96,757.95 331.77,805.59"];
	11 -- 188	[pos="461.25,578.41 470.96,613.74 492.4,691.76 502.06,726.93"];
	128	[height=0.5,
		pos="400.85,513.05",
		width=0.75];
	11 -- 128	[pos="439.66,546.19 432.64,540.2 424.49,533.24 417.47,527.24"];
	11 -- 125	[pos="464.79,577.91 475.36,599.71 493.3,636.72 503.82,658.42"];
	287	[height=0.5,
		pos="264.31,468.1",
		width=0.75];
	11 -- 287	[pos="434.27,549.81 397.34,532.05 323.33,496.48 286.37,478.71"];
	239	[height=0.5,
		pos="354.51,467.79",
		width=0.75];
	11 -- 239	[pos="439.94,545.52 420.84,528.13 389.43,499.56 370.49,482.33"];
	186	[height=0.5,
		pos="345.92,602.48",
		width=0.75];
	11 -- 186	[pos="432.62,569.42 413.99,576.53 388.17,586.37 369.56,593.47"];
	274	[height=0.5,
		pos="337.23,556.92",
		width=0.75];
	11 -- 274	[pos="429.28,559.61 409.93,559.04 383.97,558.29 364.56,557.72"];
	292	[height=0.5,
		pos="426.69,379.65",
		width=0.75];
	11 -- 292	[pos="453.35,542.4 447.68,507.76 435.29,432.15 429.63,397.57"];
	271	[height=0.5,
		pos="411.91,423.68",
		width=0.75];
	11 -- 271	[pos="450.59,542.8 442.11,516.7 426.29,467.96 417.74,441.64"];
	272	[height=0.5,
		pos="224.73,645.98",
		width=0.75];
	11 -- 272	[pos="432.39,569.23 387.9,585.68 292.9,620.79 248.51,637.19"];
	35 -- 68	[pos="564.15,746.17 552.21,720.94 530.07,674.17 518.13,648.93"];
	138 -- 283	[pos="584.91,405.18 593.07,433.56 608.92,488.74 617.09,517.17"];
	138 -- 288	[pos="567.01,371.44 546,345.27 504.4,293.47 483.23,267.1"];
	157 -- 177	[pos="1102.1,559.22 1101.4,540.93 1100.4,512.8 1099.7,494.44"];
	157 -- 197	[pos="1101.5,559.09 1101.1,553.49 1100.7,547.32 1100.3,541.71"];
	21 -- 108	[pos="394.72,811.09 366,794.27 313.81,763.69 285.01,746.82"];
	74	[height=0.5,
		pos="279.99,925.36",
		width=0.75];
	21 -- 74	[pos="397.08,836.57 371.25,856.15 323.86,892.09 297.99,911.71"];
	51	[height=0.5,
		pos="194.88,823.57",
		width=0.75];
	21 -- 51	[pos="387.57,823.05 345.16,823.16 264.17,823.38 221.97,823.5"];
	219	[height=0.5,
		pos="341.99,924.55",
		width=0.75];
	21 -- 219	[pos="403.28,839.3 389.65,858.25 367.31,889.34 353.69,908.27"];
	21 -- 80	[pos="418.34,840.94 418.91,844.01 419.51,847.21 420.08,850.29"];
	295	[height=0.5,
		pos="402.92,1012.6",
		width=0.75];
	21 -- 295	[pos="413.85,841.16 411.54,877.4 406.38,958.26 404.08,994.46"];
	117	[height=0.5,
		pos="476.43,1037.6",
		width=0.75];
	21 -- 117	[pos="420.14,840.91 431.73,881.42 459.82,979.59 471.35,1019.9"];
	105	[height=0.5,
		pos="265.56,876.04",
		width=0.75];
	21 -- 105	[pos="391,831.5 363.11,841.4 317.38,857.64 289.52,867.54"];
	21 -- 220	[pos="404.13,806.37 382.1,772.74 332.42,696.9 310.34,663.2"];
	21 -- 134	[pos="430.09,838.39 442.67,851.24 460.5,869.44 473,882.21"];
	13 -- 15	[pos="899.28,258.61 921.21,266.73 953.71,278.75 975.76,286.9"];
	13 -- 120	[pos="874.01,267.97 872.45,285.18 870.12,310.91 868.56,328.09"];
	13 -- 17	[pos="848.62,248.6 800.89,246.34 702.22,241.67 654.51,239.42"];
	34	[height=0.5,
		pos="733.1,106.04",
		width=0.75];
	13 -- 34	[pos="860.66,234.75 833.36,207.2 775.79,149.11 748.32,121.39"];
	91	[height=0.5,
		pos="999.81,223.01",
		width=0.75];
	13 -- 91	[pos="901.38,244.31 922.69,239.7 952.82,233.17 974.12,228.57"];
	85	[height=0.5,
		pos="919.25,108.89",
		width=0.75];
	13 -- 85	[pos="881.17,232.02 889.56,204.9 905.41,153.63 913.78,126.6"];
	13 -- 38	[pos="850.84,242.45 829.2,235.97 797.97,226.62 776.35,220.15"];
	48	[height=0.5,
		pos="756.64,165.4",
		width=0.75];
	13 -- 48	[pos="857.05,236.68 834.83,220.9 797.84,194.64 775.5,178.78"];
	13 -- 106	[pos="848.82,252.71 827.36,254.98 797.4,258.15 775.94,260.41"];
	129	[height=0.5,
		pos="937.75,220.57",
		width=0.75];
	13 -- 129	[pos="897.72,239.46 903.44,236.76 909.6,233.85 915.33,231.15"];
	62	[height=0.5,
		pos="795.16,121.37",
		width=0.75];
	13 -- 62	[pos="865.13,233.07 849.7,208.45 821.11,162.8 805.68,138.17"];
	189	[height=0.5,
		pos="684.45,150.06",
		width=0.75];
	13 -- 189	[pos="854.09,238.62 817.27,219.4 742.7,180.47 705.93,161.28"];
	83	[height=0.5,
		pos="689.53,218.89",
		width=0.75];
	13 -- 83	[pos="849.38,245.5 814,239.61 751.42,229.19 715.97,223.29"];
	165	[height=0.5,
		pos="938.28,173.24",
		width=0.75];
	13 -- 165	[pos="888.63,233.99 899.38,220.84 914.58,202.24 925.32,189.09"];
	103	[height=0.5,
		pos="1106.5,161.56",
		width=0.75];
	13 -- 103	[pos="899.49,240.76 943.84,223.79 1038.6,187.56 1082.8,170.63"];
	214	[height=0.5,
		pos="1044.2,139.2",
		width=0.75];
	13 -- 214	[pos="894.99,237.18 927.42,215.89 992.4,173.23 1024.9,151.92"];
	223	[height=0.5,
		pos="1169.5,203.42",
		width=0.75];
	13 -- 223	[pos="901.98,245.71 957.76,236.89 1087.3,216.41 1143.1,207.59"];
	142	[height=0.5,
		pos="857.19,118.94",
		width=0.75];
	13 -- 142	[pos="873.12,231.94 869.61,207.01 863.28,162.11 859.75,137.07"];
	119	[height=0.5,
		pos="982,114.02",
		width=0.75];
	13 -- 119	[pos="888.27,233.76 908.74,207.61 948.94,156.25 969.4,130.12"];
	122	[height=0.5,
		pos="813.61,218.21",
		width=0.75];
	13 -- 122	[pos="853.95,238.8 847.94,235.73 841.42,232.4 835.4,229.33"];
	222	[height=0.5,
		pos="627.02,194.1",
		width=0.75];
	13 -- 222	[pos="849.98,244.12 802.33,233.43 700.74,210.64 652.92,199.91"];
	192	[height=0.5,
		pos="875.69,195.17",
		width=0.75];
	13 -- 192	[pos="875.66,231.66 875.67,225.81 875.67,219.34 875.67,213.49"];
	15 -- 18	[pos="1025.1,289.43 1058.2,281.16 1115.8,266.77 1148.9,258.5"];
	15 -- 194	[pos="1025.7,301.09 1066.5,309.44 1145.1,325.53 1185.8,333.86"];
	15 -- 94	[pos="1026.9,296.25 1053.9,296.73 1095.3,297.46 1122.4,297.93"];
	15 -- 58	[pos="1022.5,285.99 1042,277.61 1070,265.59 1089.5,257.21"];
	15 -- 129	[pos="986.58,279.82 976.06,267.06 961.38,249.25 950.87,236.49"];
	15 -- 224	[pos="977.67,285.29 971.96,282.57 965.81,279.64 960.08,276.92"];
	15 -- 72	[pos="1008.7,312.87 1011.1,317.41 1013.7,322.31 1016.1,326.84"];
	15 -- 213	[pos="1026.8,293.91 1029.4,293.74 1032,293.55 1034.6,293.37"];
	14 -- 43	[pos="1327.2,438.27 1344.2,446.45 1367.6,457.73 1384.6,465.91"];
	14 -- 46	[pos="1278.1,429.37 1269.8,429.89 1260.6,430.46 1252.2,430.98"];
	14 -- 81	[pos="1303.4,446.06 1301.8,462.48 1299.3,486.38 1297.7,502.69"];
	114	[height=0.5,
		pos="1478.8,362.8",
		width=0.75];
	14 -- 114	[pos="1329,418.79 1362.2,406.41 1421.9,384.07 1455,371.68"];
	14 -- 227	[pos="1317.5,443.99 1321.4,449.22 1325.7,455.01 1329.6,460.25"];
	147	[height=0.5,
		pos="1433.6,310.45",
		width=0.75];
	14 -- 147	[pos="1321.3,413.07 1345.9,390.6 1392.7,347.82 1417.4,325.24"];
	284	[height=0.5,
		pos="1284.6,190.02",
		width=0.75];
	14 -- 284	[pos="1303.7,409.43 1299.8,365.08 1290,252.08 1286.2,208.01"];
	182	[height=0.5,
		pos="1476.5,440.05",
		width=0.75];
	14 -- 182	[pos="1332.4,429.64 1364.5,431.96 1417.5,435.79 1449.5,438.1"];
	14 -- 215	[pos="1280.5,420.29 1254.6,412.56 1214.1,400.47 1188.1,392.72"];
	14 -- 273	[pos="1284.6,439.64 1257.3,455.5 1209.2,483.34 1181.8,499.19"];
	18 -- 194	[pos="1181.8,269.76 1188.3,284.85 1197.6,306.49 1204.1,321.58"];
	18 -- 213	[pos="1150.1,260.6 1131.2,267.24 1104.8,276.45 1085.9,283.08"];
	43 -- 46	[pos="1380.9,470.29 1346.3,461.94 1285.1,447.15 1250.6,438.81"];
	141	[height=0.5,
		pos="1521.1,484.64",
		width=0.75];
	43 -- 141	[pos="1433.4,478.39 1451.6,479.69 1475.7,481.41 1494,482.71"];
	43 -- 81	[pos="1383.3,485.75 1364.4,493.3 1337.9,503.91 1319,511.45"];
	43 -- 50	[pos="1400.2,494.21 1399.2,497.09 1398.1,500.08 1397.1,502.96"];
	252	[height=0.5,
		pos="1353.9,338.46",
		width=0.75];
	43 -- 252	[pos="1399.8,459 1389.8,432.59 1370.8,382.81 1360.7,356.24"];
	43 -- 190	[pos="1393.4,492.26 1380.1,508.22 1359.8,532.78 1346.5,548.8"];
	60	[height=0.5,
		pos="1413.6,414.77",
		width=0.75];
	43 -- 60	[pos="1408.6,458.3 1409.5,450.33 1410.6,441.01 1411.5,433.04"];
	43 -- 77	[pos="1399.9,494 1388.3,524.95 1364.4,588.92 1352.8,619.86"];
	43 -- 114	[pos="1417.2,459.7 1430.8,438.21 1454.4,401.17 1468.1,379.64"];
	43 -- 82	[pos="1403.7,494.5 1396.2,542.42 1375.9,672.55 1368.4,720.62"];
	43 -- 281	[pos="1408.8,494.7 1413.7,534.43 1425.3,628.42 1430.2,667.97"];
	43 -- 121	[pos="1409.7,494.54 1413.6,516.89 1420.3,554.73 1424.3,577.16"];
	293	[height=0.5,
		pos="1495.8,314.26",
		width=0.75];
	43 -- 293	[pos="1415.9,459.42 1433,428.35 1469,362.84 1486.3,331.57"];
	43 -- 227	[pos="1379.5,476.55 1376,476.56 1372.5,476.57 1369,476.58"];
	172	[height=0.5,
		pos="1408.7,261.14",
		width=0.75];
	43 -- 172	[pos="1406.7,458.12 1407.1,417.33 1408.1,319.61 1408.6,279.15"];
	43 -- 147	[pos="1409.5,458.39 1414.7,426.45 1425.4,360.43 1430.7,328.51"];
	168	[height=0.5,
		pos="1503.8,530.22",
		width=0.75];
	43 -- 168	[pos="1427.6,488.14 1443.9,497.15 1466.4,509.57 1482.7,518.58"];
	148	[height=0.5,
		pos="1416.2,354.83",
		width=0.75];
	43 -- 148	[pos="1408,458.26 1409.8,435.33 1412.9,396.16 1414.7,373.17"];
	260	[height=0.5,
		pos="1346.6,249.58",
		width=0.75];
	43 -- 260	[pos="1401.8,458.67 1390.6,416.36 1362.6,310.16 1351.3,267.62"];
	43 -- 182	[pos="1427.9,465.35 1436.4,460.91 1446.2,455.81 1454.7,451.36"];
	43 -- 221	[pos="1402.8,494.31 1394.3,535.19 1373.5,635.25 1365,676.36"];
	43 -- 265	[pos="1406.7,494.5 1407,526.33 1407.7,592.15 1408,623.96"];
	290	[height=0.5,
		pos="1552.3,602.96",
		width=0.75];
	43 -- 290	[pos="1423.2,490.98 1451.4,515.38 1507.8,564.33 1535.8,588.62"];
	16 -- 151	[pos="395.54,725.64 402.24,709.81 412.11,686.52 418.85,670.61"];
	16 -- 21	[pos="394.14,760.74 398.58,774 404.63,792.03 409.07,805.28"];
	16 -- 93	[pos="364.45,734.33 337.82,724.6 294.86,708.92 268.21,699.2"];
	16 -- 74	[pos="378.2,759.82 357.59,794.56 310.54,873.86 289.95,908.57"];
	16 -- 28	[pos="377.96,726.09 356.44,690.52 306.72,608.33 285.3,572.92"];
	16 -- 181	[pos="370.75,729.01 326.9,693.86 212.42,602.06 168.55,566.88"];
	16 -- 173	[pos="371.8,728.61 340.83,701.42 274.02,642.76 243.02,615.54"];
	16 -- 51	[pos="365.25,752.55 328.05,768.06 254.97,798.52 217.79,814.02"];
	16 -- 219	[pos="383.59,761.07 374.73,795.87 355.41,871.81 346.57,906.56"];
	16 -- 80	[pos="393.16,760.7 399.84,784.47 411.65,826.47 418.38,850.4"];
	163	[height=0.5,
		pos="89.054,557.73",
		width=0.75];
	16 -- 163	[pos="368.09,730.55 313.6,696.8 163.45,603.81 109.06,570.12"];
	76	[height=0.5,
		pos="217.96,923.36",
		width=0.75];
	16 -- 76	[pos="373.67,758.37 341.51,792.45 264.56,873.98 232.43,908.02"];
	102	[height=0.5,
		pos="132.83,788.68",
		width=0.75];
	16 -- 102	[pos="361.82,747.71 312.76,756.49 208,775.23 159.05,783.99"];
	296	[height=0.5,
		pos="234.62,779.13",
		width=0.75];
	16 -- 296	[pos="362.48,749.04 334.05,755.73 288.51,766.45 260.15,773.12"];
	16 -- 105	[pos="373.88,758.52 350.25,784.15 303.35,835.04 279.78,860.62"];
	16 -- 220	[pos="373.92,727.49 357.35,709.49 330.19,679.96 313.64,661.97"];
	231	[height=0.5,
		pos="142.56,689.8",
		width=0.75];
	16 -- 231	[pos="362.36,737.4 315.19,727.19 215.6,705.62 168.41,695.4"];
	226	[height=0.5,
		pos="171.57,733.85",
		width=0.75];
	16 -- 226	[pos="361.19,741.85 319.56,740.1 240.18,736.74 198.56,734.99"];
	180	[height=0.5,
		pos="202.96,870.55",
		width=0.75];
	16 -- 180	[pos="369.41,755.93 333.9,780.37 257.33,833.11 221.79,857.58"];
	254	[height=0.5,
		pos="356.33,968.56",
		width=0.75];
	16 -- 254	[pos="385.63,761.07 379.67,803.31 364.87,908.07 358.9,950.39"];
	264	[height=0.5,
		pos="109.8,601.74",
		width=0.75];
	16 -- 264	[pos="366.34,731.91 314.3,705.5 183.48,639.13 131.55,612.77"];
	240	[height=0.5,
		pos="125.39,645.76",
		width=0.75];
	16 -- 240	[pos="364.4,734.19 314.49,715.73 199.34,673.12 149.31,654.61"];
	16 -- 272	[pos="367.81,730.9 336.41,712.26 276.51,676.71 245.1,658.07"];
	93 -- 173	[pos="240.83,672.43 237.73,656.92 233.29,634.69 230.2,619.18"];
	93 -- 296	[pos="242.41,708.88 240.71,724.19 238.31,745.88 236.62,761.1"];
	93 -- 272	[pos="236.76,673.17 235.34,669.95 233.85,666.58 232.42,663.35"];
	152 -- 161	[pos="772.3,364.41 757.02,352.59 735.11,335.66 719.84,323.86"];
	17 -- 201	[pos="629.39,256.43 631.36,275.71 634.45,305.87 636.42,325.07"];
	17 -- 34	[pos="640.26,222.21 660.55,196.82 700,147.46 720.32,122.03"];
	41	[height=0.5,
		pos="554.79,127.03",
		width=0.75];
	17 -- 41	[pos="616.47,221.27 602.72,200.26 579.39,164.61 565.7,143.7"];
	17 -- 48	[pos="648.26,226.45 672.36,212.88 711.87,190.62 735.94,177.06"];
	56	[height=0.5,
		pos="564.99,171.07",
		width=0.75];
	17 -- 56	[pos="613.02,222.58 602.92,211.75 589.5,197.36 579.41,186.54"];
	17 -- 106	[pos="653.32,243.46 673.82,247.7 702.38,253.59 722.98,257.84"];
	17 -- 95	[pos="602.19,244.48 598.08,245.51 593.81,246.57 589.69,247.6"];
	203	[height=0.5,
		pos="368.68,172.47",
		width=0.75];
	17 -- 203	[pos="602.23,231.72 552.75,219.17 443.64,191.49 394.07,178.91"];
	110	[height=0.5,
		pos="430.74,183.73",
		width=0.75];
	17 -- 110	[pos="602.2,231.14 564.41,220.69 493.69,201.14 455.96,190.7"];
	135	[height=0.5,
		pos="430.72,129.51",
		width=0.75];
	17 -- 135	[pos="606.46,226.52 568.58,205.61 489.4,161.9 451.63,141.05"];
	34 -- 85	[pos="760.17,106.46 795.46,107 856.84,107.93 892.15,108.47"];
	34 -- 38	[pos="736.24,124.14 739.64,143.76 745.03,174.89 748.43,194.55"];
	34 -- 41	[pos="706.41,109.18 672.79,113.14 615.37,119.9 581.66,123.87"];
	139	[height=0.5,
		pos="781.63,62.029",
		width=0.75];
	34 -- 139	[pos="749.26,91.387 754.45,86.685 760.19,81.479 765.38,76.771"];
	34 -- 48	[pos="740.04,123.53 743.07,131.19 746.63,140.16 749.67,147.83"];
	34 -- 56	[pos="709.73,115.08 677.7,127.47 620.5,149.6 588.44,162"];
	61	[height=0.5,
		pos="1010.1,69.983",
		width=0.75];
	34 -- 61	[pos="759.66,102.58 812.47,95.71 930.13,80.393 983.2,73.483"];
	75	[height=0.5,
		pos="617.24,126.14",
		width=0.75];
	34 -- 75	[pos="706.81,110.6 687.85,113.89 662.36,118.31 643.42,121.6"];
	184	[height=0.5,
		pos="573.53,82.069",
		width=0.75];
	34 -- 184	[pos="706.75,102.08 677.18,97.642 629.5,90.478 599.92,86.033"];
	92	[height=0.5,
		pos="940.45,49.387",
		width=0.75];
	34 -- 92	[pos="758.11,99.209 797.97,88.319 875.44,67.15 915.35,56.245"];
	34 -- 142	[pos="760.03,108.84 780.84,111 809.52,113.98 830.32,116.14"];
	34 -- 119	[pos="760.21,106.91 808.09,108.45 907.07,111.62 954.93,113.15"];
	112	[height=0.5,
		pos="669.08,80.793",
		width=0.75];
	34 -- 112	[pos="709.63,96.784 704.06,94.588 698.12,92.246 692.55,90.051"];
	206	[height=0.5,
		pos="873.85,27.857",
		width=0.75];
	34 -- 206	[pos="753.87,94.506 780.48,79.724 826.34,54.246 853,39.441"];
	175	[height=0.5,
		pos="1073.1,84.342",
		width=0.75];
	34 -- 175	[pos="760.07,104.32 823.68,100.26 982.53,90.123 1046.1,86.063"];
	154	[height=0.5,
		pos="630.34,36.739",
		width=0.75];
	34 -- 154	[pos="713.77,93.007 695.4,80.617 667.93,62.087 649.58,49.716"];
	178	[height=0.5,
		pos="702.19,36.287",
		width=0.75];
	34 -- 178	[pos="725.3,88.44 720.58,77.785 714.58,64.252 709.88,53.642"];
	183	[height=0.5,
		pos="809.04,18",
		width=0.75];
	34 -- 183	[pos="746.68,90.302 760.41,74.376 781.54,49.885 795.32,33.901"];
	249 -- 292	[pos="214.06,492.1 258.46,468.62 360.91,414.44 405.41,390.9"];
	249 -- 271	[pos="216.75,494.62 258.88,479.3 345.98,447.65 388.09,432.34"];
	91 -- 223	[pos="1026.7,219.9 1058.5,216.23 1111,210.17 1142.7,206.51"];
	91 -- 122	[pos="972.74,222.31 937.44,221.4 876.04,219.82 840.72,218.91"];
	91 -- 192	[pos="974.09,217.24 952.79,212.46 922.67,205.7 901.37,200.93"];
	20 -- 79	[pos="839.38,626.62 880.99,601.98 974.95,546.32 1016.4,521.79"];
	20 -- 57	[pos="828.23,621.6 829.97,618.41 831.78,615.08 833.52,611.89"];
	20 -- 36	[pos="796.83,649.33 790.98,652.13 784.66,655.16 778.81,657.97"];
	20 -- 45	[pos="819.12,657.02 819.58,693.43 820.61,774.68 821.08,811.05"];
	256	[height=0.5,
		pos="944.63,769.92",
		width=0.75];
	20 -- 256	[pos="833.56,654.06 857.79,679.33 905.88,729.5 930.05,754.72"];
	20 -- 59	[pos="811.77,656.22 800.22,684.54 777.54,740.19 766.01,768.5"];
	20 -- 69	[pos="811.78,656.23 795.76,695.61 757,790.92 740.94,830.39"];
	20 -- 196	[pos="818.12,620.46 815.67,562.51 808.12,383.39 805.68,325.52"];
	20 -- 88	[pos="835.29,624 872.35,590.67 962.17,509.9 999.05,476.73"];
	199	[height=0.5,
		pos="907.03,859.91",
		width=0.75];
	20 -- 199	[pos="825.95,656.48 842.5,697.99 883.59,801.12 900.05,842.41"];
	266	[height=0.5,
		pos="1035.7,725.71",
		width=0.75];
	20 -- 266	[pos="842.09,648.06 883.71,664.75 970.6,699.6 1012.3,716.34"];
	194 -- 213	[pos="1187.2,331.4 1159.4,322.54 1114,308.13 1086.2,299.27"];
	108 -- 220	[pos="271.44,717.39 277.55,701.9 286.43,679.4 292.54,663.92"];
	22 -- 44	[pos="1027.2,877.58 1020.9,891.1 1012.1,909.71 1005.7,923.22"];
	22 -- 150	[pos="1060.9,853.9 1080.9,849.01 1108.7,842.25 1128.7,837.37"];
	22 -- 55	[pos="1028,877.54 1007.2,925.7 949.32,1060.1 928.55,1108.4"];
	22 -- 127	[pos="1009.7,865.51 1005.5,866.39 1001.2,867.3 996.98,868.18"];
	22 -- 230	[pos="1052.4,845.93 1058.4,840.9 1065.2,835.25 1071.2,830.22"];
	22 -- 52	[pos="1057.2,870.85 1097.4,890.79 1183.3,933.31 1223.7,953.33"];
	22 -- 248	[pos="1060.3,852.7 1097.8,841.49 1168.7,820.32 1206.3,809.09"];
	22 -- 109	[pos="1010.9,867.84 985.53,875.81 946.27,888.15 920.86,896.14"];
	22 -- 238	[pos="1019,874.62 1000.4,890.91 970.56,917.18 952.03,933.47"];
	22 -- 162	[pos="1033.5,878.3 1028.7,923.26 1016.3,1039.2 1011.5,1084.1"];
	22 -- 171	[pos="1061.9,863.76 1079,866.11 1101.1,869.17 1118.2,871.52"];
	22 -- 276	[pos="1054.5,846.92 1086.9,824.39 1152.7,778.78 1185.1,756.29"];
	57 -- 210	[pos="827.62,579.78 822.72,574.98 817.3,569.68 812.4,564.88"];
	74 -- 80	[pos="303.36,916.08 330.03,905.49 373.41,888.28 400.09,877.69"];
	187	[height=0.5,
		pos="228.97,969.38",
		width=0.75];
	74 -- 187	[pos="263.28,939.77 257.59,944.69 251.23,950.18 245.54,955.08"];
	74 -- 76	[pos="252.96,924.49 250.35,924.4 247.7,924.32 245.09,924.23"];
	74 -- 102	[pos="264.24,910.73 236.06,884.56 177.32,830 148.91,803.61"];
	74 -- 295	[pos="298.66,938.6 321.77,955 360.89,982.76 384.07,999.21"];
	289	[height=0.5,
		pos="347.29,1056.6",
		width=0.75];
	74 -- 289	[pos="288.79,942.52 301.68,967.67 325.59,1014.3 338.49,1039.5"];
	74 -- 254	[pos="300.85,937.16 311.62,943.26 324.73,950.67 335.5,956.77"];
	267	[height=0.5,
		pos="304.85,1012.6",
		width=0.75];
	74 -- 267	[pos="285.14,943.43 289.43,958.5 295.52,979.86 299.79,994.84"];
	159 -- 287	[pos="223,538.89 232.06,523.36 245.42,500.47 254.47,484.96"];
	159 -- 186	[pos="237.18,564.25 261.09,572.66 297.59,585.49 321.6,593.94"];
	159 -- 274	[pos="240.37,556.04 261.06,556.23 289.39,556.49 310.06,556.68"];
	150 -- 248	[pos="1177.7,822.15 1187.1,818.52 1198,814.35 1207.5,810.71"];
	150 -- 164	[pos="1149.9,848.96 1143.7,875.37 1132.1,924.66 1125.8,951.28"];
	23 -- 42	[pos="825.03,855.23 810.32,806.23 769.8,671.22 755.12,622.32"];
	23 -- 269	[pos="811.87,886.61 773.52,914.08 685.97,976.79 647.65,1004.2"];
	23 -- 146	[pos="826.93,855.42 813.93,789.46 768.74,560.13 755.61,493.5"];
	23 -- 158	[pos="820.85,890.29 805.55,917.36 775.81,969.98 760.49,997.09"];
	23 -- 195	[pos="827.39,891.21 824.19,909.97 819.18,939.26 815.97,958.07"];
	24 -- 123	[pos="312.51,524.98 339.85,543.5 390.03,577.49 417.42,596.05"];
	24 -- 186	[pos="303.38,529.12 312.75,545.27 326.75,569.43 336.11,585.56"];
	123 -- 188	[pos="445.41,626.16 458.96,652.28 484.59,701.65 498.1,727.69"];
	123 -- 128	[pos="429.94,591.37 423.52,574.06 413.76,547.8 407.34,530.53"];
	123 -- 125	[pos="452.91,623.45 465.61,634.65 483.11,650.08 495.81,661.27"];
	123 -- 287	[pos="419.34,594.94 386.34,567.94 314.32,509.02 281.38,482.07"];
	123 -- 239	[pos="426.59,591.93 410.84,564.8 380.21,512.05 364.43,484.88"];
	123 -- 186	[pos="409.31,607.02 397.85,606.2 384.53,605.25 373.07,604.43"];
	123 -- 274	[pos="414.95,597.67 398.3,588.94 375.36,576.92 358.73,568.19"];
	40 -- 84	[pos="483.6,809.61 483.85,813.6 484.1,817.82 484.35,821.82"];
	40 -- 78	[pos="490.39,808.78 503.81,838.11 530.96,897.45 544.44,926.9"];
	40 -- 70	[pos="463.87,778.44 437.5,759.89 389.56,726.16 363.11,707.55"];
	40 -- 115	[pos="462.42,803.86 439.48,817.9 402.19,840.74 379.26,854.79"];
	40 -- 211	[pos="455.63,789.37 426.99,787.05 381.91,783.39 353.21,781.07"];
	143	[height=0.5,
		pos="470.19,945.99",
		width=0.75];
	40 -- 143	[pos="481.07,809.57 478.71,839.17 474.04,897.77 471.66,927.6"];
	40 -- 156	[pos="456.52,796.65 426.86,802.48 378.62,811.95 348.96,817.77"];
	235	[height=0.5,
		pos="465.82,992.75",
		width=0.75];
	40 -- 235	[pos="481,809.76 477.82,848.07 470.48,936.58 467.31,974.73"];
	25 -- 71	[pos="1244.1,467.95 1227,461.66 1203.9,453.2 1186.7,446.92"];
	25 -- 46	[pos="1253,461.28 1248.7,456.92 1244.1,452.17 1239.9,447.82"];
	25 -- 30	[pos="1269.6,494.77 1272.7,528.96 1279.4,602.73 1282.5,636.97"];
	25 -- 33	[pos="1250.1,490.46 1231.4,504.89 1202.3,527.43 1183.5,541.91"];
	25 -- 96	[pos="1270.2,494.89 1273.3,520.36 1278.9,566.34 1282,591.69"];
	25 -- 50	[pos="1291.9,485.27 1313.6,493.02 1345.3,504.38 1366.9,512.12"];
	25 -- 252	[pos="1278.3,460 1294.9,433.44 1327,381.8 1343.5,355.19"];
	25 -- 60	[pos="1291,466.87 1318.3,455.28 1363.4,436.11 1390.6,424.54"];
	97	[height=0.5,
		pos="1343.2,383.66",
		width=0.75];
	25 -- 97	[pos="1281.1,460.47 1294.9,443.4 1316.5,416.68 1330.3,399.68"];
	90	[height=0.5,
		pos="1284.5,234.08",
		width=0.75];
	25 -- 90	[pos="1269.2,458.44 1272.3,413.37 1280.2,297.13 1283.3,252.19"];
	25 -- 132	[pos="1260.4,494.26 1253.7,509.85 1244,532.52 1237.3,548.11"];
	25 -- 148	[pos="1285.3,462.46 1313.8,438.98 1370.5,392.38 1399,368.96"];
	71 -- 97	[pos="1187.7,430.76 1222.1,420.34 1284.1,401.55 1318.6,391.13"];
	71 -- 90	[pos="1173.1,421.18 1196.1,382.65 1251.6,289.28 1274.5,250.94"];
	71 -- 217	[pos="1142.1,426.42 1134.7,422.23 1126.3,417.52 1118.9,413.33"];
	26	[height=0.5,
		pos="532.25,989.44",
		width=0.75];
	26 -- 39	[pos="534.43,971.31 541.77,910.28 565.52,712.74 572.85,651.77"];
	26 -- 78	[pos="539.98,972.11 541.49,968.73 543.08,965.19 544.59,961.8"];
	191	[height=0.5,
		pos="691.15,1058.2",
		width=0.75];
	26 -- 191	[pos="555.02,999.29 585.22,1012.4 638.24,1035.3 668.43,1048.4"];
	26 -- 143	[pos="513.63,976.4 505.92,971 496.98,964.74 489.23,959.31"];
	207	[height=0.5,
		pos="404.04,912.43",
		width=0.75];
	26 -- 207	[pos="511.93,977.24 487.93,962.82 448.22,938.97 424.26,924.58"];
	26 -- 116	[pos="547.34,974.31 563.14,958.46 587.81,933.71 603.66,917.82"];
	39 -- 113	[pos="572.87,615.52 570.05,591.84 565.15,550.67 562.33,526.98"];
	39 -- 170	[pos="572.19,651.61 566.91,684.9 555.65,755.89 550.35,789.3"];
	39 -- 70	[pos="549.9,640.28 505.64,651.92 414.26,675.94 369.78,687.64"];
	39 -- 211	[pos="554.66,645.56 507.99,672.78 393.74,739.44 346.8,766.83"];
	39 -- 143	[pos="569.09,651.36 550.68,706.2 494.69,873 476.2,928.11"];
	39 -- 207	[pos="564.59,650.69 533.99,700.58 444.76,846.04 414.34,895.64"];
	39 -- 116	[pos="577.97,651.73 585.96,700.72 607.96,835.69 615.93,884.59"];
	39 -- 176	[pos="597.15,644.29 603.02,647.11 609.36,650.15 615.23,652.96"];
	46 -- 71	[pos="1198,435.09 1195.3,435.33 1192.5,435.58 1189.7,435.83"];
	46 -- 252	[pos="1243.6,419.16 1268,401.26 1311,369.83 1335.5,351.94"];
	46 -- 60	[pos="1252.1,430.1 1287.9,426.7 1350.8,420.73 1386.6,417.33"];
	46 -- 172	[pos="1241.1,417.74 1275.9,385.22 1358.3,308.28 1392.9,275.9"];
	46 -- 147	[pos="1245.5,420.72 1285.3,397.36 1373.2,345.84 1413.2,322.44"];
	46 -- 284	[pos="1229.5,414.82 1240.5,369.95 1269.2,252.79 1280.3,207.89"];
	46 -- 148	[pos="1248.1,423.27 1284.9,408.31 1356.3,379.23 1393,364.26"];
	46 -- 260	[pos="1236.1,416.09 1259.2,381.32 1312.4,301.1 1335.5,266.25"];
	46 -- 215	[pos="1207.2,418.95 1199,412.72 1189.4,405.36 1181.2,399.11"];
	84 -- 111	[pos="480.92,822.08 474.15,795.27 461.48,745.08 454.72,718.3"];
	84 -- 156	[pos="458.63,837.22 428.53,834.03 379.98,828.9 349.86,825.71"];
	84 -- 235	[pos="483.13,858.17 479.35,887.56 471.92,945.29 468.15,974.66"];
	282	[height=0.5,
		pos="426.47,1082",
		width=0.75];
	84 -- 282	[pos="481.12,857.84 470.21,902.59 441.73,1019.4 430.81,1064.2"];
	111 -- 123	[pos="447.49,682.33 445.09,666.3 441.59,643.01 439.19,626.99"];
	111 -- 156	[pos="434.61,715.42 410.19,738.92 363.21,784.15 338.72,807.73"];
	111 -- 128	[pos="445.47,682.44 436.04,646.63 414.99,566.72 405.57,530.96"];
	111 -- 125	[pos="473.64,691.07 478.58,689.11 483.79,687.03 488.73,685.07"];
	111 -- 239	[pos="443.01,682.92 425.23,639.7 379.38,528.25 361.66,485.16"];
	27 -- 66	[pos="985.85,718.81 1011.9,711.38 1052.5,699.78 1078.6,692.33"];
	27 -- 98	[pos="933.72,726.6 924.41,726.84 914.01,727.11 904.72,727.35"];
	27 -- 131	[pos="985.47,733.66 1022.5,745.41 1092.5,767.59 1129.6,779.37"];
	27 -- 126	[pos="936.79,717.93 913.52,710.27 878.54,698.76 855.17,691.06"];
	89	[height=0.5,
		pos="1080,1013.5",
		width=0.75];
	27 -- 89	[pos="968.28,743.46 989.52,794.8 1051.4,944.3 1072.7,995.82"];
	27 -- 100	[pos="977.37,740.27 1018.5,776.41 1126,870.77 1167.1,906.94"];
	234	[height=0.5,
		pos="915.62,1080.6",
		width=0.75];
	27 -- 234	[pos="958.7,743.97 950.91,804.82 925.71,1001.8 917.93,1062.5"];
	27 -- 133	[pos="973.94,741.79 1013.3,790.14 1131.2,935.12 1170.6,983.53"];
	202	[height=0.5,
		pos="993.68,1056.2",
		width=0.75];
	27 -- 202	[pos="962.81,744.12 968.53,801.87 986.18,980.34 991.88,1038"];
	27 -- 297	[pos="972.15,742.38 996.84,778.9 1055.9,866.29 1080.6,902.78"];
	28 -- 181	[pos="247.94,555.46 227.25,554.91 198.93,554.15 178.25,553.6"];
	28 -- 49	[pos="292.48,542.35 335.15,508.23 445.04,420.38 487.92,386.1"];
	28 -- 67	[pos="281.12,538.32 296.37,492.48 336.76,371.11 351.96,325.45"];
	28 -- 63	[pos="279.18,538.31 285.34,510.83 297.08,458.48 303.27,430.86"];
	99	[height=0.5,
		pos="112.56,404.52",
		width=0.75];
	28 -- 99	[pos="259.29,541.37 228.12,512.3 159.3,448.11 128.27,419.17"];
	28 -- 185	[pos="282.21,538.69 297.5,500.67 333.62,410.84 348.95,372.72"];
	124	[height=0.5,
		pos="244.54,247.99",
		width=0.75];
	28 -- 124	[pos="273.35,537.83 267.9,483.01 251.79,320.94 246.35,266.25"];
	28 -- 286	[pos="266.56,538.91 253.92,513.59 230.51,466.67 217.87,441.35"];
	28 -- 271	[pos="290.59,541.24 316.86,515.79 369.97,464.32 396.34,438.77"];
	28 -- 272	[pos="265.69,573.07 256.72,589.03 243.35,612.83 234.34,628.86"];
	29 -- 35	[pos="674.57,585.67 653.39,622.49 603.34,709.45 582.1,746.36"];
	29 -- 283	[pos="663.3,557.33 656.82,553.82 649.7,549.95 643.23,546.44"];
	30 -- 96	[pos="1284.2,636.89 1284.2,633.93 1284.2,630.86 1284.2,627.9"];
	30 -- 212	[pos="1260,663.53 1240,670.51 1211.7,680.39 1191.7,687.36"];
	30 -- 101	[pos="1269.3,670.51 1265,674.87 1260.5,679.62 1256.2,683.97"];
	208	[height=0.5,
		pos="1494.4,710.55",
		width=0.75];
	30 -- 208	[pos="1309.5,661.79 1350.1,672.48 1428.9,693.28 1469.3,703.93"];
	30 -- 277	[pos="1263.9,643.22 1257.1,639.25 1249.5,634.82 1242.7,630.84"];
	30 -- 132	[pos="1273.9,638.28 1264.2,622.29 1249.7,598.37 1240,582.4"];
	174	[height=0.5,
		pos="1494.4,646.98",
		width=0.75];
	30 -- 174	[pos="1311.2,654.06 1351.5,652.5 1426.7,649.6 1467.1,648.03"];
	232	[height=0.5,
		pos="1489.9,582.81",
		width=0.75];
	30 -- 232	[pos="1308.2,646.67 1347.7,632.78 1426.1,605.23 1465.7,591.3"];
	225	[height=0.5,
		pos="1375.6,853.49",
		width=0.75];
	30 -- 225	[pos="1292.1,672.36 1309.4,709.88 1350.3,798.52 1367.6,836.13"];
	298	[height=0.5,
		pos="1455.5,798.6",
		width=0.75];
	30 -- 298	[pos="1301.2,669.39 1334.1,696.89 1405.7,756.91 1438.5,784.37"];
	30 -- 257	[pos="1277.3,637.66 1267.2,612.08 1248.5,564.68 1238.4,539.1"];
	31 -- 113	[pos="584.36,480.53 580.88,484.59 577.15,488.95 573.69,493"];
	32 -- 137	[pos="634.58,484.89 599.04,476.45 534.98,461.23 499.45,452.79"];
	32 -- 54	[pos="668.67,473.62 681.74,447.31 706.44,397.58 719.47,371.35"];
	32 -- 146	[pos="686.66,486.39 698.96,484.29 713.53,481.79 725.79,479.7"];
	32 -- 140	[pos="658.74,472.86 657.35,453.93 655.18,424.36 653.78,405.37"];
	32 -- 86	[pos="669.3,473.98 673.66,465.97 678.85,456.43 683.23,448.4"];
	54 -- 140	[pos="705.34,364.07 695.77,368.24 684.66,373.09 675.1,377.26"];
	33 -- 71	[pos="1165.2,537.69 1164.7,515.66 1163.9,478.68 1163.4,456.56"];
	33 -- 96	[pos="1188.2,566.06 1209.3,575.65 1240.6,589.89 1261.7,599.46"];
	33 -- 263	[pos="1174.8,538.62 1198.2,495.41 1259.1,382.6 1282.5,339.36"];
	33 -- 53	[pos="1150.3,570.78 1139.2,581.59 1124.4,596.11 1113.3,606.9"];
	33 -- 97	[pos="1181,540.82 1214.6,508.27 1294,431.36 1327.7,398.72"];
	33 -- 217	[pos="1158,538.4 1145,508.78 1118.8,448.85 1105.8,419.11"];
	33 -- 101	[pos="1174.6,572.8 1189.2,600.39 1217.9,654.59 1232.6,682.16"];
	33 -- 277	[pos="1179.5,571.37 1188.2,580.99 1199.2,593.3 1207.9,602.97"];
	33 -- 145	[pos="1173.9,538.61 1190,505.61 1225,433.69 1241.2,400.54"];
	33 -- 177	[pos="1152.4,540.07 1140.8,526.2 1124,506.09 1112.3,492.15"];
	96 -- 97	[pos="1288.8,591.95 1299.8,549.8 1327.5,444.01 1338.5,401.63"];
	179	[height=0.5,
		pos="1393,809.44",
		width=0.75];
	96 -- 179	[pos="1293.5,626.72 1314,664.45 1363.2,754.75 1383.8,792.45"];
	96 -- 101	[pos="1276,626.93 1268.4,642.78 1257.3,666.12 1249.8,681.95"];
	96 -- 174	[pos="1310.4,614.33 1350.8,621.5 1427.8,635.17 1468.2,642.33"];
	209	[height=0.5,
		pos="1465.5,754.56",
		width=0.75];
	96 -- 209	[pos="1301.6,623.58 1336.2,651.27 1413.6,713.05 1448.2,740.71"];
	96 -- 225	[pos="1290.8,627.22 1307.6,672.09 1352.1,790.73 1369,835.78"];
	85 -- 103	[pos="944.51,115.99 980.35,126.07 1045.6,144.42 1081.4,154.49"];
	85 -- 119	[pos="946.23,111.09 949.15,111.33 952.13,111.58 955.05,111.82"];
	85 -- 175	[pos="945.7,104.67 973.97,100.16 1018.5,93.052 1046.8,88.547"];
	68 -- 167	[pos="522.07,648.2 533.56,663.88 550.74,687.32 562.21,702.97"];
	36 -- 47	[pos="756.83,686.51 756.84,728.58 756.87,832.94 756.88,875.1"];
	36 -- 79	[pos="777.4,656.83 829.15,627.48 964.27,550.84 1016.1,521.47"];
	36 -- 152	[pos="758.91,650.34 764.89,598.21 782.07,448.47 788.05,396.34"];
	130	[height=0.5,
		pos="874.91,992.04",
		width=0.75];
	36 -- 130	[pos="763.34,686.36 783.99,742.93 847.8,917.75 868.41,974.24"];
	36 -- 45	[pos="763.85,686.01 776.25,716.94 801.89,780.86 814.29,811.77"];
	36 -- 256	[pos="778,679.94 814.17,699.47 887.41,739.03 923.52,758.53"];
	36 -- 169	[pos="760.11,686.48 771.52,748.9 809.34,955.79 820.73,1018.1"];
	36 -- 199	[pos="769.37,684.5 797.65,720.52 866.07,807.72 894.41,843.83"];
	36 -- 266	[pos="782.81,673.84 835.95,684.74 956.51,709.47 1009.7,720.37"];
	131 -- 297	[pos="1146,804.42 1134,829.73 1111.8,876.64 1099.9,901.95"];
	38 -- 152	[pos="755.78,230.76 763.2,262.58 778.52,328.38 785.94,360.19"];
	38 -- 91	[pos="778.62,213.85 826.37,215.83 925.08,219.91 972.81,221.89"];
	38 -- 155	[pos="733.65,226.61 712.82,242.74 678.66,269.18 657.85,285.28"];
	38 -- 56	[pos="725.64,206.94 689.99,198.98 626.25,184.75 590.72,176.81"];
	38 -- 129	[pos="778.65,213.87 813.95,215.36 875.34,217.94 910.65,219.43"];
	38 -- 62	[pos="759.78,195.55 767.52,179.32 779.07,155.1 786.85,138.79"];
	38 -- 75	[pos="732.05,200.14 706.58,183.72 662.28,155.17 636.79,138.75"];
	38 -- 224	[pos="776.68,219.95 812.3,230.2 877.13,248.85 912.69,259.08"];
	38 -- 184	[pos="733.2,199.24 698.99,174.14 625.94,120.53 591.81,95.486"];
	38 -- 95	[pos="725.94,218.38 690.29,226.22 626.1,240.35 590.29,248.24"];
	38 -- 112	[pos="741.13,196.02 725.35,170.78 695.59,123.19 679.71,97.785"];
	38 -- 122	[pos="778.61,215.12 781.22,215.35 783.87,215.58 786.48,215.81"];
	38 -- 161	[pos="742.73,230.14 733.71,247.86 719.81,275.18 710.82,292.84"];
	278	[height=0.5,
		pos="492.76,141.77",
		width=0.75];
	38 -- 278	[pos="726.3,205.8 676.69,192.2 567.16,162.17 517.77,148.63"];
	38 -- 192	[pos="778.21,208.97 799.15,206 828.18,201.89 849.11,198.93"];
	155 -- 161	[pos="666.28,303.78 669.46,304.34 672.7,304.92 675.87,305.48"];
	41 -- 48	[pos="580.76,131.97 619.41,139.32 691.66,153.05 730.44,160.42"];
	41 -- 106	[pos="573.42,140.09 610.48,166.06 693.05,223.92 730.29,250.02"];
	139 -- 154	[pos="755.28,57.624 727.6,52.996 684.31,45.761 656.64,41.136"];
	139 -- 178	[pos="756.93,54.026 747.28,50.897 736.23,47.318 726.6,44.198"];
	205	[height=0.5,
		pos="567.48,20.573",
		width=0.75];
	139 -- 205	[pos="755.37,56.946 714.16,48.968 634.75,33.596 593.61,25.633"];
	237 -- 262	[pos="870.29,453.88 860.95,454.02 850.53,454.17 841.21,454.31"];
	130 -- 199	[pos="879.24,974.22 885.37,949 896.51,903.16 902.66,877.87"];
	78 -- 84	[pos="541.64,927.55 529.15,908.1 508.67,876.19 496.19,856.76"];
	78 -- 191	[pos="569.69,958.49 596.43,980.44 647.48,1022.3 674.08,1044.2"];
	78 -- 143	[pos="525.03,944.86 516.15,945.04 506.31,945.24 497.45,945.43"];
	78 -- 207	[pos="526.56,938.75 499.41,932.92 456.96,923.8 429.83,917.97"];
	78 -- 116	[pos="572.34,931.78 580.75,926.5 590.52,920.36 598.94,915.08"];
	250	[height=0.5,
		pos="567.11,1044.2",
		width=0.75];
	78 -- 250	[pos="555.1,962.62 557.75,980.65 561.78,1008 564.43,1026"];
	48 -- 85	[pos="780.63,157.06 811.38,146.38 864.37,127.96 895.16,117.26"];
	48 -- 61	[pos="780.48,156.42 828.91,138.19 938.27,97.02 986.49,78.866"];
	48 -- 106	[pos="755.23,183.8 753.89,201.41 751.87,227.79 750.53,245.26"];
	48 -- 103	[pos="783.8,165.1 848.99,164.39 1013.7,162.58 1079.1,161.86"];
	212 -- 277	[pos="1179.1,679.46 1188.4,666.39 1201.3,648.16 1210.6,635.1"];
	107	[height=0.5,
		pos="306.61,150.21",
		width=0.75];
	56 -- 107	[pos="537.83,168.88 488.2,164.87 383.44,156.41 333.8,152.41"];
	56 -- 95	[pos="564.85,189.46 564.75,203.29 564.6,222.14 564.5,235.89"];
	56 -- 110	[pos="538.14,173.6 514.73,175.81 480.94,178.99 457.53,181.2"];
	236	[height=0.5,
		pos="366.4,105.91",
		width=0.75];
	56 -- 236	[pos="540.64,163.08 502.42,150.54 428.79,126.38 390.64,113.86"];
	170 -- 176	[pos="557.96,790.62 575.26,762.9 609.61,707.87 626.87,680.22"];
	70 -- 115	[pos="345.89,712.49 348.74,745.67 354.76,815.72 357.61,848.91"];
	70 -- 211	[pos="340.47,712.26 337.39,726.61 333.09,746.63 330,760.97"];
	70 -- 143	[pos="352.98,711.63 376.03,757.71 438.72,883.06 461.65,928.9"];
	115 -- 156	[pos="346.11,851.12 342.87,847.17 339.4,842.92 336.16,838.96"];
	115 -- 235	[pos="372.68,883 393.2,907.17 431.97,952.87 452.42,976.97"];
	191 -- 250	[pos="664.24,1055.2 643.43,1052.8 614.77,1049.6 593.97,1047.2"];
	141 -- 168	[pos="1514.4,502.13 1513.1,505.55 1511.8,509.13 1510.5,512.55"];
	141 -- 148	[pos="1508.2,468.73 1488.1,443.81 1449.3,395.88 1429.1,370.88"];
	81 -- 121	[pos="1316.4,532.38 1341,546.33 1381.9,569.54 1406.6,583.56"];
	81 -- 227	[pos="1311.4,505.8 1316.2,501.2 1321.5,496.15 1326.3,491.55"];
	81 -- 273	[pos="1268.9,518.8 1245.5,517.12 1211.6,514.71 1188.1,513.04"];
	50 -- 252	[pos="1387.2,502.56 1380.1,467.63 1364.7,391.4 1357.6,356.53"];
	50 -- 190	[pos="1372.9,534.39 1366.1,539.64 1358.2,545.64 1351.3,550.9"];
	50 -- 60	[pos="1394.7,502.73 1398.9,483.25 1405.5,452.34 1409.7,432.83"];
	55 -- 238	[pos="922.48,1107.8 925.26,1073.7 931.24,1000.2 934.02,966.09"];
	55 -- 162	[pos="946.15,1119.1 958.12,1115.9 972.4,1112.1 984.37,1108.9"];
	230 -- 248	[pos="1115,813.36 1140.6,810.78 1178.8,806.93 1204.4,804.35"];
	230 -- 238	[pos="1071.4,830.44 1042.1,855.82 981.42,908.29 952.09,933.66"];
	45 -- 47	[pos="806.04,844.41 795.77,854.6 782.29,867.98 772.05,878.15"];
	45 -- 130	[pos="827.15,846.99 837.46,878.3 858.77,943.03 869.08,974.33"];
	45 -- 169	[pos="821.55,847.61 822.06,886.96 823.27,979.03 823.78,1018.1"];
	45 -- 69	[pos="795.52,834.77 784.23,837.19 771,840.01 759.7,842.43"];
	45 -- 65	[pos="807.13,844.59 781.76,872.01 728.87,929.19 703.28,956.84"];
	45 -- 149	[pos="823.28,847.3 828.34,893.48 841.7,1015.6 846.78,1061.9"];
	45 -- 199	[pos="845.18,837.8 856.97,842.01 871.17,847.09 882.98,851.31"];
	45 -- 294	[pos="802.9,842.43 776.39,861.4 727.72,896.23 701.17,915.23"];
	166 -- 294	[pos="601.56,867.4 619.49,880.89 646.69,901.37 664.58,914.83"];
	166 -- 200	[pos="589.17,871.3 596.63,893.87 609.5,932.77 616.98,955.38"];
	256 -- 266	[pos="966.67,759.22 980.99,752.27 999.58,743.25 1013.9,736.31"];
	61 -- 85	[pos="987.16,79.8 973.39,85.698 955.93,93.177 942.17,99.074"];
	49 -- 138	[pos="531.44,377.44 538.73,378.93 546.65,380.56 553.93,382.05"];
	49 -- 67	[pos="482.69,362.18 455.04,350.13 408.63,329.89 380.85,317.77"];
	49 -- 63	[pos="479.53,377.41 441.56,385.21 371.2,399.65 333.23,407.44"];
	49 -- 242	[pos="514.28,389.36 518.3,397.2 523.06,406.47 527.09,414.34"];
	49 -- 64	[pos="479.01,367.89 435.49,360.97 349.22,347.24 305.59,340.29"];
	49 -- 136	[pos="486.42,359.22 474.17,350.92 458.29,340.16 446.02,331.84"];
	49 -- 185	[pos="478.72,369.06 451.61,365.99 409.87,361.24 382.76,358.16"];
	49 -- 124	[pos="483.18,361.52 433.89,338.07 315.96,281.97 266.72,258.54"];
	49 -- 288	[pos="500.23,354.21 493.56,331.28 482.08,291.77 475.4,268.81"];
	49 -- 216	[pos="491.49,356.52 472.99,335.86 440.53,299.58 422.04,278.93"];
	243	[height=0.5,
		pos="306.65,203.98",
		width=0.75];
	49 -- 243	[pos="488.48,357.77 450.93,326 361.07,250.01 323.55,218.28"];
	67 -- 185	[pos="357.15,325.93 357.01,329.58 356.86,333.42 356.72,337.07"];
	67 -- 118	[pos="337.59,319.85 315.24,333.2 279.49,354.55 257.12,367.92"];
	67 -- 73	[pos="346.25,291.1 340.47,282.82 333.51,272.83 327.75,264.55"];
	67 -- 218	[pos="332.11,301.89 326.42,300.6 320.4,299.23 314.71,297.94"];
	67 -- 286	[pos="340.22,321.54 311.62,343.93 255.44,387.91 226.86,410.29"];
	259	[height=0.5,
		pos="178.61,239.15",
		width=0.75];
	67 -- 259	[pos="334.42,298.77 300.06,285.63 236.4,261.27 202.05,248.12"];
	51 -- 74	[pos="208.18,839.47 224.17,858.6 250.84,890.49 266.78,909.56"];
	51 -- 219	[pos="213.81,836.56 242.06,855.95 294.93,892.25 323.13,911.61"];
	51 -- 163	[pos="187.94,806.13 168.76,757.96 115.23,623.48 96.024,575.24"];
	51 -- 102	[pos="174.22,811.95 167.59,808.22 160.25,804.1 153.61,800.36"];
	51 -- 105	[pos="213.09,837.08 223.56,844.86 236.68,854.59 247.18,862.39"];
	160	[height=0.5,
		pos="137.52,868.66",
		width=0.75];
	51 -- 160	[pos="177.36,837.34 170.38,842.83 162.35,849.15 155.33,854.66"];
	285	[height=0.5,
		pos="76.613,715.27",
		width=0.75];
	51 -- 285	[pos="178.93,808.96 156.36,788.3 115.33,750.72 92.688,729.99"];
	279	[height=0.5,
		pos="155.94,915.26",
		width=0.75];
	51 -- 279	[pos="187.38,841.25 180.48,857.48 170.32,881.42 163.43,897.63"];
	51 -- 231	[pos="188.04,806.08 178.02,780.44 159.43,732.93 149.4,707.29"];
	51 -- 226	[pos="190.17,805.41 186.09,789.74 180.24,767.24 176.2,751.67"];
	51 -- 180	[pos="197.98,841.6 198.61,845.22 199.26,849.03 199.88,852.65"];
	244	[height=0.5,
		pos="70.806,805.3",
		width=0.75];
	51 -- 244	[pos="168.27,819.65 147.33,816.57 118.3,812.3 97.38,809.22"];
	51 -- 264	[pos="188.07,805.79 172.1,764.15 132.42,660.71 116.54,619.29"];
	51 -- 240	[pos="187.97,805.87 174.65,771.79 145.58,697.42 132.28,663.39"];
	190 -- 221	[pos="1337.1,582.78 1342.5,607.56 1352,651.87 1357.4,676.57"];
	52 -- 150	[pos="1234.2,947.6 1216.6,921.97 1182.9,873.03 1165.4,847.54"];
	52 -- 251	[pos="1244.5,945.77 1243.4,927.66 1241.8,900.17 1240.7,882.11"];
	52 -- 248	[pos="1244,946.16 1241.2,914.92 1235.6,851.04 1232.8,819.75"];
	52 -- 245	[pos="1218.5,964.03 1183.3,963.86 1121.9,963.54 1086.6,963.36"];
	52 -- 164	[pos="1218.4,965.33 1197.7,966.21 1169.4,967.41 1148.7,968.29"];
	52 -- 171	[pos="1229,949.48 1210.1,932.9 1179.8,906.09 1161.1,889.62"];
	258	[height=0.5,
		pos="1234,1043.5",
		width=0.75];
	52 -- 258	[pos="1243,982.17 1241.1,995.15 1238.5,1012.6 1236.6,1025.6"];
	251 -- 258	[pos="1239,882.03 1238,916.56 1235.6,991.14 1234.6,1025.5"];
	53 -- 157	[pos="1100,603.72 1100.3,601.02 1100.6,598.24 1100.9,595.54"];
	53 -- 145	[pos="1108.7,605.05 1136.6,561.23 1211.2,443.73 1239,399.93"];
	53 -- 177	[pos="1098.2,603.68 1098.4,575.77 1098.7,522.61 1098.9,494.56"];
	80 -- 295	[pos="420.89,886.39 416.95,914.01 409.46,966.63 405.51,994.39"];
	80 -- 117	[pos="429.01,886.21 439.19,918.71 460.67,987.32 470.85,1019.8"];
	80 -- 134	[pos="445.96,878.54 452.2,881.34 458.97,884.38 465.21,887.19"];
	245 -- 251	[pos="1080.5,951.63 1115.2,932.47 1184.1,894.45 1218.7,875.34"];
	245 -- 270	[pos="1036.8,973.36 1005.6,987.29 949.85,1012.2 918.76,1026.1"];
	109 -- 127	[pos="919.4,894.51 928.54,890.82 938.99,886.6 948.1,882.92"];
	86 -- 137	[pos="665.36,433.12 623.23,436.12 542.79,441.84 500.88,444.82"];
	86 -- 146	[pos="710.75,444.63 717.98,449.99 726.3,456.16 733.56,461.54"];
	107 -- 236	[pos="324.87,136.68 332.29,131.18 340.84,124.85 348.25,119.36"];
	59 -- 69	[pos="751.77,803.55 748.35,812 744.26,822.1 740.85,830.53"];
	58 -- 261	[pos="1137.7,253.73 1159.1,259.02 1189.5,266.56 1210.9,271.85"];
	58 -- 129	[pos="1085.8,243.37 1052.9,238.3 997.1,229.71 964.22,224.65"];
	58 -- 224	[pos="1085.4,250.35 1052.6,253.89 997.43,259.83 964.61,263.37"];
	58 -- 213	[pos="1095.7,261.88 1090.1,266.8 1083.8,272.29 1078.2,277.2"];
	129 -- 224	[pos="937.73,238.63 937.72,241.73 937.72,244.94 937.71,248.04"];
	129 -- 213	[pos="958.51,232.44 981.4,245.54 1018,266.49 1040.9,279.6"];
	69 -- 199	[pos="760.86,849.84 793.41,852.08 847.69,855.82 880.15,858.06"];
	69 -- 294	[pos="723.21,864.65 714.43,878.46 702.03,897.99 693.26,911.8"];
	60 -- 141	[pos="1433.3,427.59 1452.7,440.2 1482.1,459.33 1501.5,471.91"];
	60 -- 252	[pos="1400.9,398.59 1390.8,385.64 1376.7,367.57 1366.6,354.62"];
	60 -- 168	[pos="1426.1,430.83 1443.3,452.76 1473.8,491.88 1491,513.93"];
	60 -- 148	[pos="1414.4,396.46 1414.7,389.03 1415.1,380.46 1415.4,373.03"];
	62 -- 139	[pos="791.1,103.57 789.42,96.192 787.47,87.647 785.78,80.232"];
	62 -- 189	[pos="769.76,127.95 751.76,132.62 727.71,138.85 709.73,143.51"];
	62 -- 214	[pos="822.29,123.31 870.2,126.74 969.24,133.83 1017.1,137.26"];
	87	[height=0.5,
		pos="1143,90.808",
		width=0.75];
	62 -- 87	[pos="822.16,119 886.97,113.3 1050.7,98.915 1115.8,93.201"];
	62 -- 92	[pos="816.91,110.59 844.3,97.024 891.09,73.842 918.55,60.237"];
	62 -- 112	[pos="770.55,113.45 748.34,106.3 715.82,95.837 693.63,88.693"];
	62 -- 122	[pos="798.63,139.58 801.93,156.9 806.86,182.79 810.16,200.08"];
	189 -- 214	[pos="711.49,149.25 778.17,147.23 949.87,142.05 1016.9,140.03"];
	63 -- 249	[pos="289.45,426.9 267.95,443.91 232.09,472.28 210.65,489.24"];
	63 -- 99	[pos="280.24,411.61 243.14,410.04 176.87,407.24 139.72,405.67"];
	63 -- 242	[pos="334.46,415.01 378.48,418.67 464.94,425.86 508.93,429.51"];
	63 -- 124	[pos="300.61,395.13 288.52,363.41 263.26,297.12 251.21,265.49"];
	63 -- 243	[pos="307.27,394.6 307.14,355.11 306.84,261.83 306.71,222.25"];
	63 -- 292	[pos="332.35,405.82 352.72,400.17 381.34,392.23 401.7,386.58"];
	63 -- 271	[pos="334.26,415.57 349.87,417.2 369.47,419.25 385.07,420.88"];
	99 -- 124	[pos="125.94,388.65 151.24,358.64 205.8,293.93 231.12,263.9"];
	75 -- 184	[pos="601.95,110.73 597.62,106.36 592.9,101.61 588.58,97.251"];
	75 -- 112	[pos="633.64,111.79 639.69,106.5 646.55,100.5 652.6,95.204"];
	242 -- 243	[pos="520.98,416.82 479.42,375.55 363.38,260.32 321.75,218.98"];
	242 -- 292	[pos="513.9,421.22 494.94,412.18 467.75,399.22 448.79,390.18"];
	224 -- 261	[pos="964.71,267.35 1021.4,269.6 1152.3,274.79 1209.1,277.04"];
	64 -- 67	[pos="303.08,327.41 312.86,323.89 324.14,319.84 333.91,316.34"];
	64 -- 185	[pos="304.64,342.41 312.96,344.46 322.18,346.75 330.49,348.8"];
	64 -- 73	[pos="286.34,318.66 292.87,303.22 302.35,280.79 308.87,265.36"];
	64 -- 216	[pos="299.74,324.38 323.84,310.82 363.36,288.58 387.43,275.03"];
	64 -- 259	[pos="263.3,320.91 244.45,302.71 212.99,272.35 194.18,254.19"];
	65 -- 166	[pos="675.02,956.96 654.8,934.19 617.35,892 597.13,869.22"];
	65 -- 149	[pos="708.1,985.48 738.85,1006.2 798.62,1046.4 829.41,1067.1"];
	65 -- 241	[pos="701.03,988.97 714.36,1006.9 735.56,1035.5 748.82,1053.4"];
	65 -- 294	[pos="686.28,954.33 685.92,951.77 685.56,949.14 685.2,946.58"];
	65 -- 200	[pos="661.59,972.73 657.75,972.76 653.81,972.8 649.98,972.83"];
	268	[height=0.5,
		pos="656.31,1102.2",
		width=0.75];
	65 -- 268	[pos="684.35,990.26 678.17,1015 667.02,1059.4 660.81,1084.2"];
	136 -- 138	[pos="449.48,329 478.38,341.95 528.2,364.26 557.15,377.22"];
	136 -- 288	[pos="437.61,302.08 444.32,291.53 452.93,277.99 459.61,267.48"];
	149 -- 241	[pos="821.92,1076.9 811.01,1075.6 798.44,1074.1 787.55,1072.8"];
	149 -- 268	[pos="822.01,1083.2 785.34,1087.4 719.86,1094.9 683.15,1099.1"];
	185 -- 286	[pos="333.74,365.6 306.15,378.56 259.44,400.5 231.76,413.5"];
	291	[height=0.5,
		pos="1146.6,1082.1",
		width=0.75];
	247 -- 291	[pos="1300.7,890.28 1269.6,928.96 1190.6,1027.4 1159.4,1066.1"];
	247 -- 299	[pos="1311.2,892.37 1310.8,895.73 1310.4,899.24 1309.9,902.59"];
	118 -- 218	[pos="246.81,363.09 256,347.5 269.55,324.52 278.74,308.95"];
	118 -- 259	[pos="229.54,362.5 218.39,335.5 197.16,284.07 185.95,256.94"];
	72 -- 94	[pos="1048.8,335.23 1070.8,327.19 1103.4,315.28 1125.5,307.2"];
	73 -- 118	[pos="306.15,264.73 290.96,289.99 262.31,337.63 247.02,363.06"];
	73 -- 218	[pos="305.81,264.65 303.63,268.15 301.31,271.85 299.12,275.36"];
	73 -- 259	[pos="289.02,246.26 264.9,244.7 229.84,242.45 205.74,240.9"];
	187 -- 289	[pos="247.2,982.82 269.37,999.17 306.58,1026.6 328.84,1043"];
	163 -- 231	[pos="96.16,575.27 106.39,600.53 125.18,646.89 135.43,672.19"];
	163 -- 226	[pos="97.116,574.94 112.89,608.61 147.67,682.84 163.47,716.57"];
	163 -- 240	[pos="96.234,575.13 102.6,590.56 111.86,612.99 118.23,628.41"];
	76 -- 187	[pos="222.25,941.28 223.05,944.62 223.88,948.1 224.68,951.43"];
	76 -- 102	[pos="207.35,906.57 191.03,880.77 159.96,831.61 143.57,805.67"];
	76 -- 180	[pos="212.88,905.48 211.32,899.98 209.59,893.92 208.03,888.41"];
	76 -- 289	[pos="232.79,938.65 257.61,964.22 307.26,1015.4 332.23,1041.1"];
	76 -- 254	[pos="242.38,931.34 267.52,939.55 306.47,952.27 331.69,960.51"];
	76 -- 267	[pos="232.7,938.5 248.67,954.9 274.03,980.94 290.04,997.38"];
	102 -- 187	[pos="141.87,805.68 160.2,840.12 201.52,917.78 219.88,952.29"];
	246	[height=0.5,
		pos="27,592.7",
		width=0.75];
	102 -- 246	[pos="123.62,771.63 103.61,734.56 56.324,647 36.26,609.85"];
	102 -- 160	[pos="133.89,806.83 134.66,819.92 135.69,837.51 136.46,850.58"];
	102 -- 285	[pos="120.35,772.39 111.04,760.22 98.361,743.67 89.054,731.52"];
	102 -- 279	[pos="136.14,806.81 140.53,830.88 148.25,873.11 152.64,897.16"];
	102 -- 231	[pos="134.61,770.54 136.37,752.7 139.04,725.62 140.79,707.82"];
	102 -- 180	[pos="146.35,804.46 158.77,818.96 177.07,840.33 189.48,854.81"];
	102 -- 244	[pos="107.6,795.44 103.84,796.45 99.971,797.48 96.212,798.49"];
	280	[height=0.5,
		pos="49.091,656.7",
		width=0.75];
	102 -- 280	[pos="122.22,771.96 106.11,746.58 75.666,698.58 59.61,673.28"];
	184 -- 278	[pos="555.2,95.616 541.98,105.39 524.22,118.52 511.02,128.28"];
	77 -- 81	[pos="1338.7,619.89 1329.2,597.91 1313,560.34 1303.4,538.3"];
	77 -- 228	[pos="1344,655.33 1340.2,687.07 1332.3,752.7 1328.4,784.42"];
	77 -- 82	[pos="1349.7,655.49 1353.2,673.95 1358.6,702.39 1362.1,720.8"];
	77 -- 121	[pos="1367.5,626.33 1379.4,620.21 1394.1,612.62 1406,606.49"];
	228 -- 265	[pos="1335,785.21 1350.8,754.33 1383.8,689.79 1399.5,659.01"];
	117 -- 134	[pos="477.89,1019.6 480.08,992.64 484.18,942.23 486.36,915.33"];
	114 -- 293	[pos="1485,345 1486.5,340.78 1488.1,336.28 1489.5,332.06"];
	114 -- 172	[pos="1467.2,346.01 1454.2,327.06 1433.1,296.43 1420.1,277.61"];
	114 -- 147	[pos="1465.2,347.09 1459.5,340.47 1452.9,332.77 1447.1,326.15"];
	114 -- 182	[pos="1478.2,381.11 1477.9,393.42 1477.4,409.59 1477,421.87"];
	82 -- 228	[pos="1355.2,755.48 1349.5,764.76 1342.4,776.26 1336.7,785.55"];
	82 -- 281	[pos="1383.1,724.91 1392.9,717.21 1405,707.67 1414.7,699.96"];
	82 -- 121	[pos="1373.2,721.19 1385,693.67 1407.9,640.72 1419.8,613.11"];
	82 -- 265	[pos="1373.2,721.46 1380.9,703.95 1392.8,677.02 1400.5,659.45"];
	281 -- 290	[pos="1451.1,673.03 1473.5,657.52 1510.8,631.71 1533.3,616.12"];
	143 -- 207	[pos="448.53,935 441.3,931.33 433.23,927.24 425.97,923.56"];
	121 -- 228	[pos="1419,612.68 1400,651.64 1353.9,745.93 1334.8,784.99"];
	121 -- 281	[pos="1428.5,613.73 1429.3,629.55 1430.6,652.28 1431.4,668.01"];
	121 -- 290	[pos="1454.6,597.03 1475.5,598.3 1504.3,600.05 1525.3,601.32"];
	83 -- 189	[pos="688.19,200.8 687.45,190.77 686.53,178.32 685.79,168.26"];
	83 -- 165	[pos="715.68,214.09 763.45,205.32 864.31,186.81 912.11,178.04"];
	83 -- 122	[pos="716.76,218.74 737.45,218.62 765.77,218.47 786.44,218.36"];
	83 -- 222	[pos="666.25,209.66 661.11,207.62 655.67,205.46 650.52,203.42"];
	165 -- 222	[pos="911.2,175.05 852.34,179 713.27,188.32 654.25,192.27"];
	103 -- 119	[pos="1082.8,152.51 1060.6,144.05 1027.8,131.49 1005.6,123.04"];
	103 -- 175	[pos="1098.9,144.04 1093.5,131.4 1086.1,114.42 1080.7,101.8"];
	87 -- 214	[pos="1121.1,101.55 1104.7,109.57 1082.4,120.48 1066.1,128.49"];
	87 -- 92	[pos="1116.9,85.478 1078,77.525 1005.2,62.639 966.41,54.697"];
	87 -- 142	[pos="1116.1,93.455 1061.6,98.815 938.8,110.9 884.21,116.28"];
	92 -- 139	[pos="913.51,51.532 884.31,53.856 837.96,57.545 808.71,59.874"];
	92 -- 142	[pos="923.6,63.461 909.25,75.448 888.72,92.595 874.3,104.64"];
	88 -- 196	[pos="996.97,448.67 957.19,419.38 863.2,350.19 823.32,320.83"];
	89 -- 131	[pos="1085.8,995.75 1099.7,953.44 1134.5,847.07 1148.3,804.84"];
	89 -- 100	[pos="1096.6,998.7 1116.1,981.4 1148,952.96 1167.3,935.8"];
	89 -- 234	[pos="1056.8,1023 1025.5,1035.8 969.98,1058.4 938.71,1071.2"];
	89 -- 202	[pos="1058.2,1024.3 1045.1,1030.7 1028.5,1038.9 1015.5,1045.4"];
	90 -- 97	[pos="1291.4,251.53 1302.6,280.2 1324.9,336.96 1336.2,365.86"];
	95 -- 201	[pos="577.57,269.89 591.03,286.13 611.76,311.15 625.17,327.34"];
	95 -- 155	[pos="584.62,266.05 595.47,272.54 608.79,280.5 619.64,286.99"];
	95 -- 107	[pos="541.03,244.55 492.08,224.86 379.14,179.4 330.07,159.65"];
	95 -- 203	[pos="541.15,244.28 503.48,228.6 429.51,197.79 391.86,182.12"];
	95 -- 110	[pos="542.89,242.66 517.96,229.56 477.06,208.07 452.15,194.98"];
	95 -- 236	[pos="546.09,240.28 508.38,212.08 422.3,147.71 384.62,119.54"];
	95 -- 135	[pos="548.51,239.18 522.79,215.23 472.26,168.19 446.55,144.26"];
	95 -- 161	[pos="587.4,263.34 612.82,273.71 653.47,290.29 678.92,300.67"];
	100 -- 131	[pos="1179.6,903.51 1174,877.85 1163.7,830.75 1158,805.05"];
	100 -- 247	[pos="1207.4,912.71 1230.7,904.28 1266,891.51 1289.4,883.04"];
	100 -- 234	[pos="1162.9,933.56 1112.9,963.28 985.58,1039 935.9,1068.5"];
	100 -- 133	[pos="1183.5,939.45 1183.5,952.07 1183.6,968.84 1183.6,981.44"];
	100 -- 202	[pos="1165,934.5 1128.7,960.28 1048.7,1017.1 1012.3,1042.9"];
	100 -- 291	[pos="1179.4,939.15 1172.3,970.06 1157.8,1033.3 1150.7,1064.2"];
	100 -- 297	[pos="1156.5,920.71 1144.6,920.44 1130.7,920.12 1118.9,919.84"];
	179 -- 208	[pos="1408.4,794.42 1427.5,775.83 1459.8,744.36 1478.9,725.71"];
	179 -- 209	[pos="1411,795.87 1422.1,787.43 1436.4,776.6 1447.5,768.16"];
	179 -- 225	[pos="1386.2,826.85 1385,829.83 1383.7,832.93 1382.6,835.91"];
	142 -- 214	[pos="883.99,121.84 919.54,125.69 981.95,132.45 1017.5,136.3"];
	101 -- 179	[pos="1259.8,712.45 1289,733.65 1345.6,774.86 1374.7,796.08"];
	101 -- 208	[pos="1268.6,700.37 1317.2,702.56 1418.5,707.13 1467.2,709.32"];
	101 -- 277	[pos="1237.3,681.31 1234,668 1229.7,649.89 1226.4,636.58"];
	101 -- 209	[pos="1267.3,705.5 1310.5,716.19 1397.1,737.63 1440.1,748.27"];
	101 -- 257	[pos="1240.6,681.15 1238.6,647.13 1234.5,573.75 1232.6,539.69"];
	208 -- 232	[pos="1493.8,692.52 1492.9,668.31 1491.4,625.53 1490.5,601.16"];
	208 -- 298	[pos="1486.8,727.95 1479.9,743.38 1470,765.81 1463.2,781.24"];
	246 -- 280	[pos="33.154,610.53 36.218,619.4 39.911,630.1 42.971,638.97"];
	133 -- 247	[pos="1199,984.61 1224,960.53 1273.1,913.22 1298.1,889.14"];
	133 -- 234	[pos="1158.9,1006.9 1107.8,1022.4 991.29,1057.7 940.29,1073.1"];
	133 -- 202	[pos="1158.8,1006.9 1122.4,1017.7 1054.9,1037.9 1018.5,1048.8"];
	133 -- 291	[pos="1175.7,1017 1169.5,1031 1160.7,1050.6 1154.4,1064.6"];
	133 -- 299	[pos="1203.2,986.98 1226.5,972.22 1264.9,947.83 1288.1,933.1"];
	104 -- 144	[pos="934.06,401.58 942.71,431.88 960.23,493.15 968.92,523.57"];
	104 -- 237	[pos="921.07,401.38 916.29,412.03 910.22,425.55 905.45,436.14"];
	105 -- 219	[pos="285.25,888.53 296.66,895.78 310.98,904.87 322.38,912.1"];
	119 -- 175	[pos="1006.4,106.07 1019.5,101.81 1035.5,96.578 1048.6,92.317"];
	110 -- 236	[pos="417.41,167.6 406.29,154.16 390.54,135.11 379.49,121.74"];
	110 -- 135	[pos="430.73,165.67 430.73,159.88 430.73,153.47 430.73,147.67"];
	112 -- 139	[pos="695.47,76.394 713.53,73.383 737.38,69.406 755.41,66.401"];
	112 -- 184	[pos="641.95,81.155 629.04,81.328 613.64,81.533 600.72,81.706"];
	112 -- 206	[pos="694.6,74.196 734.05,63.996 809.39,44.52 848.65,34.371"];
	112 -- 178	[pos="681.22,64.474 684.1,60.604 687.17,56.475 690.05,52.605"];
	112 -- 205	[pos="648.52,68.607 630.78,58.09 605.29,42.987 587.66,32.535"];
	112 -- 183	[pos="691.57,70.704 717.68,58.987 760.51,39.771 786.61,28.064"];
	112 -- 278	[pos="644.93,89.144 611.26,100.79 550.57,121.78 516.9,133.42"];
	162 -- 238	[pos="1001.2,1084.8 986.99,1055.2 958.22,995.28 943.93,965.56"];
	156 -- 235	[pos="336.43,838.86 363.65,871.23 425.03,944.24 452.31,976.69"];
	156 -- 282	[pos="329.94,840.28 348.75,887.37 400.48,1016.9 419.41,1064.3"];
	116 -- 170	[pos="606.75,886.42 593.63,868.93 572.8,841.16 559.65,823.63"];
	116 -- 191	[pos="626.87,919.82 640.77,949.73 669.18,1010.9 683.1,1040.9"];
	116 -- 250	[pos="612.41,920.22 602.5,947.36 583.61,999.05 573.64,1026.3"];
	116 -- 176	[pos="620.28,884.21 623.71,839.61 632.47,725.97 635.89,681.64"];
	172 -- 293	[pos="1428.9,273.46 1443,282.04 1461.7,293.44 1475.7,302.01"];
	122 -- 189	[pos="792.28,206.96 768.35,194.33 729.75,173.97 705.81,161.33"];
	122 -- 165	[pos="837.65,209.54 859.72,201.57 892.26,189.84 914.32,181.88"];
	122 -- 222	[pos="786.88,214.75 751.4,210.17 689.15,202.13 653.7,197.55"];
	122 -- 192	[pos="837.43,209.37 842.22,207.59 847.25,205.72 852.03,203.95"];
	128 -- 287	[pos="376.44,505.01 351.74,496.88 313.76,484.38 288.97,476.22"];
	128 -- 239	[pos="385.42,497.98 380.47,493.15 374.99,487.79 370.03,482.95"];
	125 -- 188	[pos="510.83,693.86 510.06,703.93 509.11,716.41 508.34,726.49"];
	218 -- 259	[pos="266.7,281.46 247.49,272.23 219.78,258.93 200.59,249.71"];
	132 -- 212	[pos="1221.5,582.94 1209.6,607.82 1187.8,653.5 1175.8,678.43"];
	135 -- 203	[pos="411.77,142.63 404.07,147.96 395.2,154.11 387.51,159.43"];
	202 -- 234	[pos="968.98,1063.9 959.78,1066.8 949.35,1070 940.16,1072.9"];
	199 -- 256	[pos="914.27,842.56 920.89,826.73 930.62,803.44 937.27,787.53"];
	199 -- 266	[pos="921.79,844.52 946.61,818.63 996.41,766.69 1021.1,740.93"];
	145 -- 263	[pos="1261.1,366.5 1267.1,357.89 1274.3,347.42 1280.3,338.81"];
	154 -- 178	[pos="657.5,36.568 663.23,36.532 669.26,36.494 674.99,36.458"];
	154 -- 205	[pos="605.13,30.257 601.03,29.202 596.79,28.11 592.69,27.056"];
	147 -- 172	[pos="1424.9,293.2 1422.5,288.43 1419.9,283.24 1417.5,278.46"];
	147 -- 284	[pos="1416.2,296.4 1387.5,273.19 1330.5,227.13 1301.9,203.98"];
	147 -- 182	[pos="1439.5,328.2 1447.6,352.88 1462.3,397.31 1470.5,422.1"];
	193 -- 229	[pos="866.17,515.74 874.67,531.37 887.19,554.4 895.67,570.01"];
	148 -- 168	[pos="1424.7,371.97 1441.5,405.5 1478.4,479.43 1495.2,513.01"];
	148 -- 260	[pos="1405,337.92 1391.9,318.17 1370.5,285.69 1357.5,266.1"];
	241 -- 268	[pos="736.35,1077.2 719.69,1082.4 697.73,1089.3 681.03,1094.5"];
	164 -- 251	[pos="1137.9,954.76 1160.5,934.58 1200.8,898.49 1223.3,878.38"];
	164 -- 258	[pos="1140.9,982.17 1161.5,995.74 1193.9,1017.1 1214.6,1030.7"];
	178 -- 205	[pos="675.58,33.183 652.11,30.446 618.08,26.476 594.5,23.725"];
	178 -- 183	[pos="728.6,31.767 745.04,28.953 766.11,25.347 782.56,22.532"];
	235 -- 282	[pos="458.04,1010.4 451.1,1026.1 440.99,1049.1 434.09,1064.7"];
	158 -- 269	[pos="723.84,1014.9 703.8,1015.4 676.59,1016.2 656.48,1016.8"];
	158 -- 195	[pos="770.82,1001.9 777.91,997.56 785.87,992.68 792.95,988.34"];
	186 -- 274	[pos="342.48,584.48 341.88,581.29 341.25,577.98 340.64,574.8"];
	274 -- 287	[pos="324.2,541.05 311,524.98 290.72,500.27 277.48,484.14"];
	160 -- 285	[pos="130.54,851.07 118.85,821.63 95.464,762.74 83.706,733.14"];
	160 -- 244	[pos="121.71,853.65 111.08,843.55 97.116,830.29 86.504,820.21"];
	160 -- 280	[pos="130.29,851.31 113.7,811.57 73.107,714.26 56.428,674.28"];
	226 -- 264	[pos="163.49,716.58 151.65,691.26 129.72,644.33 117.88,619.01"];
	226 -- 240	[pos="162.44,716.44 154.3,700.9 142.43,678.27 134.34,662.83"];
	171 -- 245	[pos="1129.9,890.53 1114.3,906.69 1089.8,931.98 1074.2,948.07"];
	171 -- 276	[pos="1152.5,857.93 1163.9,832.63 1184.9,785.72 1196.3,760.41"];
	171 -- 270	[pos="1125.2,887.82 1078.8,917.91 962.02,993.53 915.66,1023.6"];
	174 -- 179	[pos="1483.9,663.75 1464.5,694.88 1423.1,761.27 1403.6,792.51"];
	174 -- 208	[pos="1494.4,665.03 1494.4,673.54 1494.4,683.69 1494.4,692.24"];
	174 -- 232	[pos="1493.1,628.76 1492.5,620.02 1491.8,609.57 1491.1,600.85"];
	174 -- 225	[pos="1484.7,663.88 1462.3,702.7 1407.6,797.88 1385.3,836.64"];
	232 -- 298	[pos="1487,600.83 1480.5,641.45 1464.9,739.76 1458.4,780.47"];
	183 -- 206	[pos="835.4,22.009 839.32,22.606 843.37,23.222 847.3,23.819"];
	209 -- 225	[pos="1451.5,770.01 1434.7,788.49 1406.7,819.24 1389.8,837.81"];
	180 -- 279	[pos="187.3,885.44 182.28,890.21 176.72,895.5 171.69,900.28"];
	180 -- 231	[pos="197.06,852.89 185.51,818.34 160.05,742.15 148.49,707.53"];
	180 -- 244	[pos="181.14,859.78 156.65,847.69 117.16,828.19 92.661,816.09"];
	182 -- 293	[pos="1479.2,422.03 1482.9,398.11 1489.3,356.14 1493,332.25"];
	182 -- 227	[pos="1451.1,446.93 1427.1,453.48 1391.1,463.26 1367.1,469.8"];
	244 -- 246	[pos="67.071,787.18 58.795,747.01 38.993,650.9 30.725,610.78"];
	244 -- 285	[pos="71.981,787.08 72.989,771.46 74.433,749.08 75.44,733.47"];
	244 -- 279	[pos="83.369,821.53 99.466,842.32 127.21,878.15 143.33,898.97"];
	244 -- 280	[pos="68.187,787.38 64.013,758.82 55.899,703.29 51.72,674.69"];
	192 -- 223	[pos="902.8,195.93 958.77,197.5 1086.5,201.09 1142.4,202.66"];
	254 -- 267	[pos="339.47,982.97 333.73,987.89 327.3,993.38 321.57,998.29"];
	215 -- 273	[pos="1162.9,403.3 1162.5,427.09 1161.9,468.74 1161.5,492.72"];
	200 -- 241	[pos="641.73,986.28 668.16,1004.8 715.87,1038.1 742.18,1056.5"];
	200 -- 275	[pos="608.46,957.73 596.56,945.03 579.73,927.07 567.84,914.38"];
	200 -- 268	[pos="627.48,991.02 633.88,1015.7 645.32,1059.8 651.69,1084.4"];
	243 -- 292	[pos="317.94,220.51 340.82,253.99 392.42,329.49 415.34,363.04"];
	257 -- 277	[pos="1229.8,539.92 1228.1,557.29 1225.6,583.27 1223.9,600.61"];
	272 -- 296	[pos="226.08,664.22 227.98,689.71 231.39,735.74 233.28,761.12"];
}
