graph {
	graph [bb="0,0,1043.4,669.53",
		outputorder=edgesfirst,
		overlap=prism,
		size="50,50!",
		start=3474
	];
	node [label="\N"];
	0	[height=0.5,
		pos="528.8,249.87",
		width=0.75];
	37	[height=0.5,
		pos="341.85,184.13",
		width=0.75];
	0 -- 37	[pos="504.74,241.41 468.85,228.79 401.66,205.16 365.81,192.56"];
	2	[height=0.5,
		pos="683.4,312.52",
		width=0.75];
	0 -- 2	[pos="551.95,259.25 581.09,271.06 630.88,291.24 660.1,303.08"];
	25	[height=0.5,
		pos="606.41,255.62",
		width=0.75];
	0 -- 25	[pos="555.94,251.88 563.55,252.44 571.81,253.05 579.41,253.62"];
	3	[height=0.5,
		pos="755.87,300.5",
		width=0.75];
	0 -- 3	[pos="554.41,255.58 598.02,265.3 686.22,284.97 730.01,294.74"];
	4	[height=0.5,
		pos="491.94,340.42",
		width=0.75];
	0 -- 4	[pos="521.7,267.33 515.17,283.36 505.55,306.99 499.03,323.01"];
	5	[height=0.5,
		pos="466.22,185.16",
		width=0.75];
	0 -- 5	[pos="513.97,234.53 504,224.22 490.9,210.68 480.94,200.39"];
	18	[height=0.5,
		pos="498.64,135.29",
		width=0.75];
	0 -- 18	[pos="524.09,231.97 518.43,210.44 508.97,174.53 503.32,153.06"];
	62	[height=0.5,
		pos="410.69,281.13",
		width=0.75];
	0 -- 62	[pos="503.46,256.57 483.54,261.85 455.9,269.16 435.98,274.43"];
	9	[height=0.5,
		pos="544.36,296.38",
		width=0.75];
	0 -- 9	[pos="534.68,267.45 535.92,271.16 537.23,275.07 538.47,278.77"];
	34	[height=0.5,
		pos="624.77,356.57",
		width=0.75];
	0 -- 34	[pos="542.96,265.61 561.21,285.9 592.74,320.96 610.86,341.11"];
	12	[height=0.5,
		pos="355.02,353.82",
		width=0.75];
	0 -- 12	[pos="508.53,262 475.04,282.03 408.57,321.79 375.17,341.77"];
	20	[height=0.5,
		pos="417.08,360.51",
		width=0.75];
	0 -- 20	[pos="513.27,265.25 491.92,286.39 453.76,324.19 432.49,345.26"];
	39	[height=0.5,
		pos="581.19,46.171",
		width=0.75];
	0 -- 39	[pos="533.45,231.79 543.42,193.04 566.74,102.37 576.63,63.916"];
	49	[height=0.5,
		pos="466.15,229.19",
		width=0.75];
	0 -- 49	[pos="504.4,241.81 499.87,240.32 495.13,238.75 490.59,237.26"];
	64	[height=0.5,
		pos="731.35,220.19",
		width=0.75];
	0 -- 64	[pos="555.28,245.99 594.1,240.3 666.04,229.76 704.87,224.07"];
	28	[height=0.5,
		pos="408.34,109.37",
		width=0.75];
	0 -- 28	[pos="515.22,234.03 492.08,207.04 445.29,152.46 422.06,125.37"];
	71	[height=0.5,
		pos="519.15,71.804",
		width=0.75];
	0 -- 71	[pos="527.82,231.82 525.97,197.69 521.99,124.07 520.13,89.905"];
	54	[height=0.5,
		pos="479.13,384.43",
		width=0.75];
	0 -- 54	[pos="522.31,267.46 512.79,293.25 495.14,341.04 485.62,366.83"];
	35	[height=0.5,
		pos="457.13,65.211",
		width=0.75];
	0 -- 35	[pos="521.93,232.16 508.23,196.87 477.67,118.11 463.98,82.863"];
	57	[height=0.5,
		pos="625.29,139.4",
		width=0.75];
	0 -- 57	[pos="542.63,234.04 560.97,213.04 593.16,176.18 611.49,155.2"];
	77	[height=0.5,
		pos="541.63,398.86",
		width=0.75];
	0 -- 77	[pos="530.35,267.84 532.82,296.48 537.61,352.14 540.08,380.82"];
	37 -- 62	[pos="353.53,200.58 366.18,218.42 386.27,246.72 398.95,264.59"];
	1	[height=0.5,
		pos="635.57,413.17",
		width=0.75];
	67	[height=0.5,
		pos="725.44,366.38",
		width=0.75];
	1 -- 67	[pos="656.87,402.08 671.09,394.68 689.73,384.97 703.98,377.55"];
	1 -- 2	[pos="643.9,395.64 652.68,377.17 666.42,348.25 675.17,329.86"];
	1 -- 3	[pos="651.3,398.44 674.35,376.85 717.08,336.83 740.14,315.24"];
	8	[height=0.5,
		pos="737.79,410.4",
		width=0.75];
	1 -- 8	[pos="662.7,412.44 677.48,412.03 695.73,411.54 710.54,411.14"];
	1 -- 4	[pos="614.07,402.28 586.99,388.56 540.74,365.13 513.59,351.38"];
	36	[height=0.5,
		pos="506.23,449.47",
		width=0.75];
	1 -- 36	[pos="610.63,420.17 587.88,426.56 554.41,435.95 531.54,442.37"];
	10	[height=0.5,
		pos="779.19,489.41",
		width=0.75];
	1 -- 10	[pos="656.76,424.42 683.92,438.83 730.72,463.68 757.91,478.11"];
	1 -- 9	[pos="622.89,396.93 605.46,374.62 574.3,334.73 556.94,312.49"];
	1 -- 34	[pos="632.15,395.26 630.89,388.66 629.46,381.17 628.2,374.56"];
	41	[height=0.5,
		pos="711.15,551.09",
		width=0.75];
	1 -- 41	[pos="644.84,430.08 659.35,456.55 687.26,507.48 701.81,534.04"];
	43	[height=0.5,
		pos="773.19,533.42",
		width=0.75];
	1 -- 43	[pos="652.17,427.68 678.62,450.79 730.04,495.72 756.53,518.86"];
	52	[height=0.5,
		pos="655.16,476.02",
		width=0.75];
	1 -- 52	[pos="641.13,431.01 643.8,439.58 646.99,449.81 649.65,458.35"];
	23	[height=0.5,
		pos="669.31,248.73",
		width=0.75];
	1 -- 23	[pos="639.25,395.26 645.74,363.63 659.15,298.23 665.64,266.62"];
	50	[height=0.5,
		pos="687.3,176.17",
		width=0.75];
	1 -- 50	[pos="639.46,395.36 649.05,351.44 673.73,238.33 683.37,194.19"];
	73	[height=0.5,
		pos="562.73,348.1",
		width=0.75];
	1 -- 73	[pos="619.41,398.73 607.42,388.02 591.14,373.48 579.1,362.72"];
	29	[height=0.5,
		pos="717.19,459.99",
		width=0.75];
	1 -- 29	[pos="656.17,424.99 668.54,432.08 684.23,441.08 696.6,448.18"];
	44	[height=0.5,
		pos="502.15,493.48",
		width=0.75];
	1 -- 44	[pos="615.31,425.37 590.23,440.46 547.77,466.02 522.6,481.16"];
	53	[height=0.5,
		pos="649.14,581.76",
		width=0.75];
	1 -- 53	[pos="637.02,431.21 639.63,463.58 645.07,531.14 647.68,563.59"];
	74	[height=0.5,
		pos="570.85,442.89",
		width=0.75];
	1 -- 74	[pos="613.3,423.4 606.86,426.36 599.84,429.58 593.38,432.54"];
	58	[height=0.5,
		pos="587.13,596.91",
		width=0.75];
	1 -- 58	[pos="630.84,431.12 621.55,466.34 601.05,544.1 591.81,579.16"];
	1 -- 77	[pos="609.15,409.15 596.35,407.19 581,404.86 568.18,402.9"];
	65	[height=0.5,
		pos="525.07,588.76",
		width=0.75];
	1 -- 65	[pos="624.98,430.01 603.86,463.57 556.73,538.46 535.63,571.98"];
	79	[height=0.5,
		pos="564.19,509.37",
		width=0.75];
	1 -- 79	[pos="623.46,429.49 610.34,447.18 589.51,475.25 576.36,492.97"];
	2 -- 25	[pos="665.16,299.04 652.88,289.97 636.77,278.06 624.52,269.01"];
	2 -- 3	[pos="709.97,308.12 716.28,307.07 723,305.96 729.3,304.91"];
	2 -- 4	[pos="656.78,316.4 620.2,321.73 554.8,331.26 518.34,336.57"];
	7	[height=0.5,
		pos="799.8,445.41",
		width=0.75];
	2 -- 7	[pos="697.21,328.29 719.62,353.86 763.62,404.1 786.01,429.66"];
	17	[height=0.5,
		pos="749.61,159.52",
		width=0.75];
	2 -- 17	[pos="691,294.97 703.77,265.46 729.39,206.24 742.11,176.86"];
	2 -- 52	[pos="680.27,330.65 674.84,362.07 663.74,426.33 658.3,457.82"];
	22	[height=0.5,
		pos="793.41,209.96",
		width=0.75];
	2 -- 22	[pos="699.16,297.83 720.08,278.33 756.78,244.11 777.68,224.63"];
	26	[height=0.5,
		pos="825.34,261.16",
		width=0.75];
	2 -- 26	[pos="707.16,303.93 733.36,294.44 775.27,279.28 801.5,269.78"];
	46	[height=0.5,
		pos="552.13,198.12",
		width=0.75];
	2 -- 46	[pos="666.78,298.03 641.53,276.03 593.79,234.43 568.62,212.49"];
	2 -- 64	[pos="692.42,295.16 700.99,278.65 713.81,253.96 722.37,237.48"];
	2 -- 29	[pos="687.54,330.61 694.03,358.91 706.5,413.36 713.01,441.76"];
	2 -- 74	[pos="669.83,328.25 648.19,353.31 606.14,402.02 584.48,427.11"];
	2 -- 57	[pos="677.4,294.65 666.24,261.39 642.4,190.36 631.26,157.18"];
	25 -- 49	[pos="580.35,250.71 555.32,245.99 517.69,238.9 492.54,234.16"];
	25 -- 46	[pos="591.86,240.21 584.07,231.96 574.51,221.83 566.72,213.57"];
	25 -- 57	[pos="609.32,237.71 612.85,215.94 618.79,179.39 622.35,157.51"];
	3 -- 67	[pos="747.87,317.81 743.44,327.42 737.93,339.33 733.49,348.96"];
	3 -- 8	[pos="752.88,318.65 749.53,339.01 744.13,371.85 740.78,392.22"];
	3 -- 7	[pos="761.25,318.27 769.69,346.08 785.91,399.59 794.37,427.49"];
	3 -- 10	[pos="758.1,318.62 762.56,354.72 772.51,435.29 776.96,471.35"];
	3 -- 17	[pos="755.06,282.36 753.86,255.29 751.61,204.62 750.42,177.59"];
	3 -- 34	[pos="733.03,310.27 709.12,320.5 671.76,336.47 647.78,346.73"];
	19	[height=0.5,
		pos="920.58,359.03",
		width=0.75];
	3 -- 19	[pos="779.82,309.01 811.05,320.11 865.36,339.41 896.6,350.51"];
	13	[height=0.5,
		pos="888.68,182.94",
		width=0.75];
	3 -- 13	[pos="772.15,286.09 797.64,263.52 846.69,220.11 872.26,197.47"];
	42	[height=0.5,
		pos="811.65,133.47",
		width=0.75];
	3 -- 42	[pos="761.84,282.63 772.57,250.48 795.02,183.28 805.73,151.22"];
	3 -- 22	[pos="763.11,283.05 769.75,267.01 779.55,243.38 786.19,227.37"];
	24	[height=0.5,
		pos="764.75,88.753",
		width=0.75];
	3 -- 24	[pos="756.62,282.45 758.3,242.45 762.32,146.72 763.99,106.76"];
	3 -- 26	[pos="776.71,288.7 785.5,283.72 795.72,277.93 804.51,272.95"];
	31	[height=0.5,
		pos="886.7,315",
		width=0.75];
	3 -- 31	[pos="782.66,303.47 805.24,305.98 837.38,309.54 859.94,312.04"];
	3 -- 64	[pos="750.43,282.68 746.36,269.37 740.84,251.26 736.78,237.96"];
	38	[height=0.5,
		pos="945.89,270.96",
		width=0.75];
	3 -- 38	[pos="782.29,296.4 818.49,290.77 883.14,280.72 919.39,275.08"];
	47	[height=0.5,
		pos="861.83,403.04",
		width=0.75];
	3 -- 47	[pos="771.5,315.63 791.65,335.13 826.47,368.82 846.48,388.19"];
	40	[height=0.5,
		pos="922.58,226.95",
		width=0.75];
	3 -- 40	[pos="778.7,290.43 810.62,276.35 868.25,250.92 900.02,236.9"];
	48	[height=0.5,
		pos="875.87,138.94",
		width=0.75];
	3 -- 48	[pos="768.03,284.12 791.03,253.16 840.64,186.36 863.67,155.36"];
	8 -- 67	[pos="732.77,392.49 731.99,389.73 731.19,386.88 730.42,384.12"];
	8 -- 10	[pos="746.77,427.54 753.72,440.79 763.28,459.05 770.22,472.3"];
	4 -- 25	[pos="510.08,326.98 531.39,311.19 566.54,285.15 587.97,269.27"];
	4 -- 5	[pos="488.94,322.3 483.98,292.39 474.15,233 469.2,203.16"];
	4 -- 36	[pos="494.3,358.42 496.95,378.63 501.22,411.22 503.87,431.44"];
	6	[height=0.5,
		pos="293,327.25",
		width=0.75];
	4 -- 6	[pos="464.7,338.61 426.6,336.09 357.84,331.54 319.92,329.04"];
	4 -- 62	[pos="473.5,326.96 460.21,317.26 442.33,304.22 429.05,294.53"];
	4 -- 9	[pos="508.82,326.24 514.8,321.21 521.53,315.56 527.52,310.53"];
	4 -- 12	[pos="465.22,343.03 441.25,345.38 406.24,348.81 382.15,351.17"];
	4 -- 20	[pos="466.6,347.22 458.71,349.34 450.02,351.67 442.15,353.78"];
	32	[height=0.5,
		pos="404.02,214.25",
		width=0.75];
	4 -- 32	[pos="480.45,323.92 463.6,299.74 432.37,254.93 415.52,230.75"];
	4 -- 49	[pos="487.8,322.55 482.99,301.79 475.09,267.75 470.29,247.01"];
	4 -- 46	[pos="499.32,322.97 510.88,295.66 533.1,243.11 544.69,215.71"];
	4 -- 73	[pos="518.7,343.32 524.34,343.93 530.29,344.58 535.93,345.19"];
	4 -- 44	[pos="493.15,358.57 495.12,388.03 498.98,445.9 500.94,475.34"];
	4 -- 74	[pos="504.62,356.88 519.43,376.12 543.78,407.73 558.46,426.81"];
	5 -- 18	[pos="477.02,168.55 480.48,163.23 484.32,157.33 487.78,151.99"];
	5 -- 62	[pos="456.29,202.32 446.18,219.79 430.61,246.7 420.53,264.12"];
	5 -- 9	[pos="477.75,201.57 492.52,222.6 517.99,258.84 532.78,279.91"];
	5 -- 32	[pos="444.11,195.5 438.39,198.18 432.22,201.06 426.47,203.75"];
	5 -- 71	[pos="474.26,167.94 484.21,146.64 501.05,110.56 511.04,89.182"];
	18 -- 32	[pos="481.73,149.4 464.61,163.69 438.29,185.65 421.11,199.99"];
	18 -- 28	[pos="473.49,128.07 460.96,124.47 445.87,120.14 433.36,116.55"];
	18 -- 71	[pos="504.36,117.6 507.15,108.94 510.52,98.538 513.33,89.834"];
	18 -- 35	[pos="488.6,118.32 482.07,107.31 473.6,93.004 467.09,82.018"];
	36 -- 73	[pos="515.82,432.28 526.27,413.52 542.89,383.69 553.29,365.04"];
	36 -- 44	[pos="504.55,467.62 504.31,470.18 504.07,472.81 503.83,475.37"];
	6 -- 12	[pos="315.74,337 321.14,339.31 326.89,341.77 332.28,344.08"];
	6 -- 20	[pos="318.11,333.98 339.64,339.75 370.49,348.02 392.01,353.79"];
	15	[height=0.5,
		pos="249.73,406.62",
		width=0.75];
	6 -- 15	[pos="283.61,344.48 276.35,357.79 266.35,376.13 259.1,389.43"];
	68	[height=0.5,
		pos="227.18,284.88",
		width=0.75];
	6 -- 68	[pos="273.25,314.54 264.92,309.18 255.24,302.95 246.91,297.59"];
	30	[height=0.5,
		pos="256.81,460.59",
		width=0.75];
	6 -- 30	[pos="288.12,345.24 281.21,370.69 268.66,416.94 261.73,442.47"];
	21	[height=0.5,
		pos="225.29,359.13",
		width=0.75];
	6 -- 21	[pos="270.83,337.69 263.42,341.18 255.17,345.07 247.74,348.56"];
	45	[height=0.5,
		pos="144.21,327.17",
		width=0.75];
	6 -- 45	[pos="265.71,327.24 238.86,327.22 198.11,327.2 171.32,327.19"];
	72	[height=0.5,
		pos="153.59,268.53",
		width=0.75];
	6 -- 72	[pos="269.98,317.56 244.15,306.68 202.49,289.13 176.64,278.24"];
	56	[height=0.5,
		pos="167.28,201.53",
		width=0.75];
	6 -- 56	[pos="277.58,311.84 253.32,287.58 206.52,240.77 182.43,216.68"];
	78	[height=0.5,
		pos="159.81,409.55",
		width=0.75];
	6 -- 78	[pos="273.06,339.58 247.95,355.09 205.06,381.59 179.89,397.14"];
	7 -- 10	[pos="791.66,462.8 790.22,465.87 788.72,469.07 787.28,472.14"];
	7 -- 19	[pos="818.41,432.1 841.17,415.82 879.47,388.43 902.15,372.21"];
	14	[height=0.5,
		pos="836.02,555.77",
		width=0.75];
	7 -- 14	[pos="805.62,463.14 812.38,483.73 823.46,517.51 830.21,538.08"];
	11	[height=0.5,
		pos="899.08,528.97",
		width=0.75];
	7 -- 11	[pos="816.65,459.58 834.9,474.95 863.87,499.33 882.16,514.72"];
	27	[height=0.5,
		pos="961.72,523.96",
		width=0.75];
	7 -- 27	[pos="821.64,456 852.54,470.99 908.72,498.24 939.71,513.28"];
	55	[height=0.5,
		pos="975.01,470.51",
		width=0.75];
	7 -- 55	[pos="826.42,449.22 859.44,453.95 915.43,461.98 948.44,466.71"];
	7 -- 26	[pos="802.3,427.4 807.18,392.18 817.94,314.51 822.83,279.23"];
	7 -- 31	[pos="810.81,428.89 827.43,403.94 858.78,356.91 875.51,331.8"];
	7 -- 29	[pos="773.66,450.02 764.02,451.72 753.09,453.65 743.44,455.35"];
	51	[height=0.5,
		pos="1016.4,345.44",
		width=0.75];
	7 -- 51	[pos="822.17,435.08 863.77,415.88 952.62,374.87 994.14,355.7"];
	10 -- 14	[pos="792.66,505.13 801.58,515.56 813.26,529.2 822.25,539.69"];
	10 -- 11	[pos="803.45,497.41 824.25,504.28 854.07,514.11 874.86,520.97"];
	10 -- 43	[pos="776.71,507.56 776.36,510.12 776,512.75 775.66,515.31"];
	69	[height=0.5,
		pos="844.13,625.05",
		width=0.75];
	10 -- 69	[pos="787.41,506.59 799.84,532.54 823.26,581.46 835.77,607.58"];
	10 -- 53	[pos="760.56,502.64 735.83,520.2 692.44,551.01 667.74,568.55"];
	76	[height=0.5,
		pos="778.47,640.96",
		width=0.75];
	10 -- 76	[pos="779.1,507.69 778.96,536.82 778.69,593.45 778.55,622.62"];
	9 -- 18	[pos="539.29,278.53 530.51,247.56 512.54,184.24 503.73,153.22"];
	59	[height=0.5,
		pos="643.29,51.368",
		width=0.75];
	9 -- 59	[pos="551.48,278.76 569.73,233.56 618.06,113.86 636.24,68.829"];
	9 -- 32	[pos="523.95,284.44 497.35,268.87 451.07,241.79 424.45,226.21"];
	9 -- 23	[pos="567.86,287.42 590.06,278.95 623.19,266.32 645.49,257.81"];
	9 -- 50	[pos="561.32,282.12 588.83,258.99 642.87,213.54 670.36,190.41"];
	9 -- 73	[pos="550.68,314.18 552.55,319.44 554.59,325.19 556.46,330.44"];
	9 -- 54	[pos="532.4,312.53 520.7,328.32 502.98,352.23 491.24,368.09"];
	9 -- 77	[pos="543.87,314.7 543.38,333.36 542.61,362.1 542.12,380.69"];
	61	[height=0.5,
		pos="593.94,95.379",
		width=0.75];
	9 -- 61	[pos="548.76,278.55 558.17,240.4 580.15,151.29 589.55,113.18"];
	59 -- 61	[pos="626.86,66.023 621.47,70.824 615.5,76.152 610.13,80.938"];
	63	[height=0.5,
		pos="708.46,18",
		width=0.75];
	59 -- 63	[pos="664.99,40.257 671.95,36.693 679.66,32.745 686.63,29.176"];
	70	[height=0.5,
		pos="931.25,94.899",
		width=0.75];
	17 -- 70	[pos="773.73,150.94 808.57,138.54 872.59,115.77 907.32,103.41"];
	17 -- 22	[pos="763.23,175.2 768.45,181.22 774.41,188.08 779.65,194.11"];
	17 -- 26	[pos="761.78,175.85 775.91,194.81 799.08,225.92 813.2,244.87"];
	34 -- 54	[pos="598.73,361.55 572.38,366.59 531.87,374.34 505.43,379.4"];
	34 -- 77	[pos="602.92,367.68 590.7,373.9 575.52,381.62 563.33,387.82"];
	34 -- 79	[pos="617.82,374.1 606.19,403.42 582.94,462.08 571.24,491.57"];
	41 -- 43	[pos="736.03,544 740.07,542.85 744.26,541.66 748.31,540.51"];
	41 -- 52	[pos="699,534.8 689.61,522.21 676.67,504.86 667.28,492.28"];
	41 -- 58	[pos="687.53,559.81 665.61,567.92 633.12,579.92 611.08,588.06"];
	19 -- 31	[pos="908.16,342.88 905.21,339.06 902.07,334.97 899.12,331.14"];
	19 -- 38	[pos="925.7,341.2 930.1,325.93 936.39,304.03 940.78,288.76"];
	19 -- 40	[pos="920.86,340.94 921.24,315.79 921.92,270.5 922.3,245.24"];
	19 -- 51	[pos="947.01,355.28 960.3,353.39 976.38,351.11 989.7,349.22"];
	14 -- 41	[pos="808.92,554.75 787.98,553.97 759.13,552.89 738.2,552.1"];
	14 -- 27	[pos="861.46,549.33 883.26,543.81 914.52,535.9 936.32,530.38"];
	75	[height=0.5,
		pos="959.31,651.53",
		width=0.75];
	14 -- 75	[pos="853.68,569.49 877.12,587.69 918.26,619.65 941.68,637.84"];
	14 -- 43	[pos="811.9,547.19 807.06,545.47 801.97,543.66 797.13,541.94"];
	14 -- 69	[pos="838.15,573.97 839.33,584.08 840.8,596.61 841.99,606.73"];
	14 -- 55	[pos="855.93,543.55 882.35,527.35 928.73,498.9 955.13,482.71"];
	14 -- 29	[pos="818.74,541.84 796.21,523.68 757.03,492.1 734.49,473.93"];
	14 -- 76	[pos="824.92,572.2 814.8,587.18 799.9,609.23 789.73,624.3"];
	11 -- 14	[pos="876.31,538.64 870.67,541.04 864.62,543.61 858.96,546.02"];
	11 -- 27	[pos="926.01,526.81 928.93,526.58 931.9,526.34 934.82,526.11"];
	11 -- 75	[pos="907.58,546.27 919.06,569.63 939.4,611.01 950.85,634.32"];
	11 -- 69	[pos="889.26,546.15 879.26,563.63 863.84,590.59 853.87,608.02"];
	27 -- 75	[pos="961.38,541.96 960.92,566.14 960.12,608.86 959.66,633.2"];
	27 -- 55	[pos="966.15,506.16 967.57,500.45 969.14,494.13 970.56,488.41"];
	12 -- 37	[pos="353.61,335.66 351.08,303 345.78,234.72 343.25,202.16"];
	12 -- 62	[pos="367.38,337.69 376.6,325.64 389.15,309.25 398.37,297.21"];
	12 -- 20	[pos="381.7,356.7 384.59,357.01 387.54,357.33 390.43,357.64"];
	12 -- 15	[pos="333.21,364.76 315.14,373.82 289.58,386.64 271.52,395.69"];
	12 -- 30	[pos="340.53,369.58 321.86,389.88 289.59,424.96 271.05,445.12"];
	12 -- 21	[pos="327.83,354.94 305.69,355.84 274.58,357.11 252.45,358.02"];
	60	[height=0.5,
		pos="320.3,533.27",
		width=0.75];
	12 -- 60	[pos="351.57,371.69 344.93,405.99 330.46,480.76 323.8,515.22"];
	33	[height=0.5,
		pos="320.75,487.66",
		width=0.75];
	12 -- 33	[pos="350.47,371.59 343.92,397.19 331.89,444.17 325.32,469.81"];
	20 -- 68	[pos="393.8,351.24 357.35,336.72 287.22,308.79 250.66,294.23"];
	20 -- 33	[pos="404.88,376.61 386.45,400.94 351.71,446.8 333.16,471.28"];
	13 -- 42	[pos="868.85,170.2 857.26,162.76 842.69,153.4 831.16,146"];
	13 -- 70	[pos="897.09,165.54 904.55,150.11 915.4,127.68 922.85,112.26"];
	13 -- 22	[pos="863.65,190.04 849.65,194.01 832.25,198.94 818.28,202.91"];
	13 -- 26	[pos="875.56,199.14 864.61,212.66 849.11,231.8 838.23,245.24"];
	42 -- 48	[pos="838.51,135.76 841.95,136.05 845.47,136.35 848.91,136.64"];
	15 -- 20	[pos="274.78,399.71 306.33,391.02 360.23,376.17 391.86,367.46"];
	15 -- 68	[pos="246.4,388.65 242.14,365.64 234.79,325.97 230.52,302.92"];
	15 -- 30	[pos="252.09,424.59 252.85,430.36 253.68,436.74 254.44,442.51"];
	15 -- 21	[pos="240.91,389.47 238.72,385.22 236.37,380.67 234.18,376.41"];
	15 -- 60	[pos="259.25,423.7 272.72,447.87 297.2,491.81 310.71,516.06"];
	15 -- 33	[pos="263.42,422.24 276,436.59 294.54,457.74 307.1,472.08"];
	15 -- 45	[pos="231.83,393.14 212.43,378.53 181.63,355.35 162.2,340.71"];
	68 -- 72	[pos="201.44,279.16 194.31,277.58 186.57,275.86 179.44,274.27"];
	68 -- 78	[pos="217.96,301.96 205.13,325.7 182.03,368.44 169.15,392.28"];
	16	[height=0.5,
		pos="42.282,197.39",
		width=0.75];
	66	[height=0.5,
		pos="27,287.77",
		width=0.75];
	16 -- 66	[pos="39.19,215.68 36.521,231.46 32.688,254.13 30.036,269.82"];
	16 -- 45	[pos="54.985,213.56 74.623,238.57 112.12,286.32 131.66,311.2"];
	16 -- 56	[pos="69.405,198.29 90.372,198.98 119.26,199.94 140.21,200.63"];
	66 -- 72	[pos="53.537,283.74 75.142,280.45 105.49,275.84 127.09,272.56"];
	43 -- 53	[pos="749.85,542.51 727.82,551.1 694.93,563.92 672.79,572.54"];
	43 -- 58	[pos="748.86,541.72 713.11,553.92 646.75,576.57 611.16,588.71"];
	43 -- 76	[pos="774.08,551.66 775.05,571.44 776.59,602.82 777.57,622.63"];
	69 -- 75	[pos="869.69,630.93 888.65,635.29 914.39,641.2 933.42,645.58"];
	22 -- 70	[pos="810.31,195.85 836.77,173.77 887.67,131.28 914.21,109.12"];
	22 -- 26	[pos="803.87,226.72 807.43,232.44 811.41,238.83 814.97,244.53"];
	22 -- 64	[pos="767.09,214.3 764.05,214.8 760.95,215.31 757.91,215.81"];
	21 -- 30	[pos="230.78,376.81 236.53,395.31 245.51,424.22 251.28,442.78"];
	39 -- 71	[pos="558.09,55.715 552.99,57.822 547.59,60.055 542.48,62.165"];
	23 -- 59	[pos="666.91,230.51 661.95,192.92 650.64,107.1 645.69,69.537"];
	23 -- 50	[pos="673.76,230.79 676.53,219.63 680.07,205.32 682.84,194.15"];
	23 -- 73	[pos="653.59,263.39 633.43,282.18 598.7,314.56 578.52,333.37"];
	23 -- 61	[pos="660.81,231.43 646.34,201.98 617.05,142.41 602.52,112.84"];
	23 -- 63	[pos="672.38,230.62 679.7,187.49 698.1,79.066 705.4,36.021"];
	50 -- 59	[pos="681.09,158.55 672.7,134.77 657.84,92.634 649.47,68.895"];
	50 -- 61	[pos="670.61,161.73 653.61,147.02 627.42,124.36 610.48,109.7"];
	50 -- 63	[pos="689.73,158.03 693.81,127.52 702,66.3 706.06,35.933"];
	24 -- 42	[pos="780.37,103.64 785.38,108.42 790.93,113.71 795.94,118.5"];
	24 -- 26	[pos="771.01,106.55 782.65,139.68 807.5,210.4 819.12,243.45"];
	24 -- 48	[pos="787.24,98.908 806.51,107.61 834.15,120.09 853.41,128.8"];
	26 -- 42	[pos="823.41,243.13 820.81,218.94 816.23,176.18 813.62,151.82"];
	26 -- 70	[pos="836.08,244.3 856.38,212.43 900.16,143.7 920.48,111.8"];
	26 -- 31	[pos="841.78,275.59 850.59,283.31 861.4,292.8 870.21,300.53"];
	31 -- 38	[pos="904.78,301.55 911.99,296.19 920.27,290.02 927.51,284.64"];
	31 -- 47	[pos="881.67,332.82 877.35,348.09 871.17,369.99 866.86,385.25"];
	31 -- 51	[pos="912.32,321.02 935.05,326.35 968.09,334.11 990.81,339.44"];
	49 -- 57	[pos="486.96,217.45 517.46,200.24 573.98,168.35 604.48,151.14"];
	46 -- 57	[pos="569.47,184.2 581.05,174.91 596.22,162.73 607.83,153.42"];
	28 -- 35	[pos="424.59,94.667 429.8,89.949 435.57,84.725 440.79,80.002"];
	29 -- 41	[pos="715.99,477.99 714.94,493.85 713.42,516.86 712.36,532.81"];
	29 -- 43	[pos="729.61,476.28 738.89,488.45 751.52,505.01 760.79,517.17"];
	29 -- 52	[pos="691.96,466.51 688.2,467.48 684.32,468.48 680.56,469.45"];
	38 -- 47	[pos="935.24,287.69 919.08,313.1 888.51,361.13 872.39,386.45"];
	38 -- 40	[pos="936.81,253.82 935.12,250.63 933.36,247.31 931.67,244.12"];
	38 -- 51	[pos="960.49,286.39 972.59,299.18 989.7,317.25 1001.8,330.03"];
	33 -- 60	[pos="320.57,505.68 320.54,508.77 320.51,511.98 320.48,515.08"];
	54 -- 77	[pos="504.91,390.38 508.54,391.22 512.28,392.08 515.91,392.92"];
	54 -- 79	[pos="490.42,401.02 506.69,424.92 536.55,468.77 552.85,492.71"];
	35 -- 39	[pos="483.75,61.126 504.68,57.913 533.7,53.459 554.62,50.248"];
	35 -- 71	[pos="484.15,68.083 486.9,68.375 489.68,68.671 492.42,68.962"];
	40 -- 51	[pos="935.23,242.93 953.13,265.54 985.67,306.65 1003.6,329.33"];
	53 -- 58	[pos="623.56,588.01 619.96,588.89 616.25,589.8 612.65,590.68"];
	53 -- 76	[pos="671.67,592.07 695.41,602.94 732.56,619.95 756.2,630.77"];
	53 -- 65	[pos="622.22,583.28 601.55,584.45 573.13,586.05 552.37,587.22"];
	45 -- 68	[pos="166.01,316.06 178.2,309.85 193.35,302.12 205.53,295.92"];
	45 -- 66	[pos="119.92,319.01 99.806,312.25 71.361,302.68 51.254,295.93"];
	45 -- 72	[pos="147.07,309.26 148.21,302.12 149.53,293.91 150.67,286.74"];
	45 -- 56	[pos="147.51,309.17 151.9,285.28 159.6,243.36 163.98,219.5"];
	45 -- 78	[pos="147.59,345.05 150.19,358.77 153.77,377.64 156.38,391.42"];
	72 -- 78	[pos="154.39,286.67 155.58,313.75 157.82,364.43 159.02,391.47"];
	58 -- 65	[pos="560.45,593.41 557.56,593.03 554.62,592.64 551.73,592.26"];
	77 -- 79	[pos="545.36,417.1 549.56,437.7 556.36,471 560.53,491.46"];
	56 -- 66	[pos="147.18,213.88 120.51,230.28 73.71,259.06 47.062,275.44"];
	56 -- 72	[pos="163.61,219.48 161.65,229.09 159.23,240.9 157.27,250.52"];
	61 -- 73	[pos="591.69,113.55 585.93,160.18 570.69,283.64 564.95,330.09"];
	61 -- 63	[pos="613.1,82.428 634.24,68.144 668.06,45.294 689.23,30.994"];
}
