graph {
	graph [bb="0,0,1012.6,689.67",
		outputorder=edgesfirst,
		overlap=prism,
		size="50,50!",
		start=9847
	];
	node [label="\N"];
	0	[height=0.5,
		pos="486.24,452.59",
		width=0.75];
	37	[height=0.5,
		pos="363.67,547.52",
		width=0.75];
	0 -- 37	[pos="468.42,466.39 445.18,484.39 404.77,515.69 381.52,533.7"];
	2	[height=0.5,
		pos="622.89,409.35",
		width=0.75];
	0 -- 2	[pos="510.67,444.86 535.39,437.04 573.4,425.01 598.21,417.16"];
	25	[height=0.5,
		pos="528.76,408.57",
		width=0.75];
	0 -- 25	[pos="501.11,437.19 505.33,432.83 509.91,428.08 514.11,423.73"];
	3	[height=0.5,
		pos="685.27,438.5",
		width=0.75];
	0 -- 3	[pos="513.5,450.66 551.61,447.96 620.41,443.09 658.34,440.4"];
	4	[height=0.5,
		pos="400.25,355.23",
		width=0.75];
	0 -- 4	[pos="472.43,436.95 456.38,418.78 430.06,388.99 414.03,370.84"];
	5	[height=0.5,
		pos="338.21,393.14",
		width=0.75];
	0 -- 5	[pos="463.11,443.3 435.47,432.2 389.46,413.72 361.67,402.56"];
	18	[height=0.5,
		pos="397.1,437.16",
		width=0.75];
	0 -- 18	[pos="459.98,448.04 448.48,446.05 435,443.72 423.49,441.73"];
	62	[height=0.5,
		pos="356.05,481.2",
		width=0.75];
	0 -- 62	[pos="460.52,458.24 437.7,463.26 404.53,470.55 381.72,475.56"];
	9	[height=0.5,
		pos="455.11,293.91",
		width=0.75];
	0 -- 9	[pos="482.73,434.69 476.75,404.22 464.66,342.58 458.66,311.98"];
	34	[height=0.5,
		pos="578.9,364.56",
		width=0.75];
	0 -- 34	[pos="501.96,437.66 519,421.47 546.04,395.78 563.1,379.57"];
	12	[height=0.5,
		pos="282.16,458.43",
		width=0.75];
	0 -- 12	[pos="459.14,453.36 420.11,454.48 348.47,456.53 309.37,457.65"];
	20	[height=0.5,
		pos="276.18,414.42",
		width=0.75];
	0 -- 20	[pos="460.07,447.83 419.7,440.5 342.73,426.51 302.36,419.18"];
	39	[height=0.5,
		pos="511.66,630.14",
		width=0.75];
	0 -- 39	[pos="488.82,470.59 493.69,504.62 504.2,578.02 509.08,612.09"];
	49	[height=0.5,
		pos="423.32,502.05",
		width=0.75];
	0 -- 49	[pos="468.72,466.37 460.13,473.11 449.82,481.22 441.19,488"];
	64	[height=0.5,
		pos="609.34,507.77",
		width=0.75];
	0 -- 64	[pos="508.82,462.71 531.03,472.67 564.74,487.78 586.9,497.71"];
	28	[height=0.5,
		pos="430.85,595.28",
		width=0.75];
	0 -- 28	[pos="479.45,470.09 468.82,497.47 448.36,550.17 437.7,577.64"];
	71	[height=0.5,
		pos="426.67,551.23",
		width=0.75];
	0 -- 71	[pos="476.14,469.32 465.18,487.46 447.8,516.24 436.83,534.41"];
	54	[height=0.5,
		pos="462.25,348.15",
		width=0.75];
	0 -- 54	[pos="482.06,434.4 477.66,415.23 470.76,385.23 466.38,366.14"];
	35	[height=0.5,
		pos="493.58,586.11",
		width=0.75];
	0 -- 35	[pos="487.23,470.6 488.63,496.08 491.18,542.4 492.59,567.96"];
	57	[height=0.5,
		pos="545.1,542.05",
		width=0.75];
	0 -- 57	[pos="497.32,469.42 507.84,485.41 523.58,509.33 534.08,525.3"];
	77	[height=0.5,
		pos="524.25,320.54",
		width=0.75];
	0 -- 77	[pos="491.37,434.78 498.62,409.58 511.81,363.77 519.09,338.49"];
	37 -- 62	[pos="361.59,529.4 360.52,520.04 359.21,508.65 358.13,499.3"];
	1	[height=0.5,
		pos="647.41,243.05",
		width=0.75];
	67	[height=0.5,
		pos="671.54,352.88",
		width=0.75];
	1 -- 67	[pos="651.4,261.18 655.87,281.53 663.08,314.35 667.55,334.72"];
	1 -- 2	[pos="644.74,261.16 640.02,293.15 630.27,359.29 625.56,391.26"];
	1 -- 3	[pos="650.91,261.08 658.12,298.32 674.58,383.31 681.78,420.5"];
	8	[height=0.5,
		pos="734.11,324.18",
		width=0.75];
	1 -- 8	[pos="663.31,257.93 678.96,272.56 702.7,294.78 718.31,309.39"];
	1 -- 4	[pos="625.04,253.2 578.1,274.5 469.79,323.67 422.74,345.02"];
	36	[height=0.5,
		pos="530.31,216.38",
		width=0.75];
	1 -- 36	[pos="621.71,237.19 602.19,232.75 575.46,226.66 555.95,222.22"];
	10	[height=0.5,
		pos="833.52,270.41",
		width=0.75];
	1 -- 10	[pos="674.08,246.97 709.45,252.17 771.55,261.3 806.9,266.49"];
	1 -- 9	[pos="622.27,249.69 585.42,259.44 517.12,277.51 480.26,287.26"];
	1 -- 34	[pos="637.89,259.94 624.87,283.03 601.65,324.2 588.56,347.42"];
	41	[height=0.5,
		pos="730.1,187.27",
		width=0.75];
	1 -- 41	[pos="666.59,230.11 679.95,221.1 697.69,209.13 711.03,200.13"];
	43	[height=0.5,
		pos="797.63,209.76",
		width=0.75];
	1 -- 43	[pos="673.24,237.32 700.75,231.23 744.06,221.63 771.64,215.52"];
	52	[height=0.5,
		pos="709.47,231.74",
		width=0.75];
	1 -- 52	[pos="673.73,238.25 676.9,237.67 680.14,237.08 683.31,236.51"];
	23	[height=0.5,
		pos="507.28,140.78",
		width=0.75];
	1 -- 23	[pos="629.09,229.68 602.24,210.08 552.46,173.75 525.6,154.15"];
	50	[height=0.5,
		pos="444.13,153.24",
		width=0.75];
	1 -- 50	[pos="624.88,233.09 585.81,215.83 505.91,180.53 466.76,163.24"];
	73	[height=0.5,
		pos="455.64,205.81",
		width=0.75];
	1 -- 73	[pos="621.15,237.95 584.43,230.81 518.14,217.94 481.59,210.85"];
	29	[height=0.5,
		pos="771.49,273.4",
		width=0.75];
	1 -- 29	[pos="672.82,249.26 694.23,254.5 724.72,261.96 746.12,267.2"];
	44	[height=0.5,
		pos="467.73,249.83",
		width=0.75];
	1 -- 44	[pos="620.12,244.08 586.15,245.36 528.5,247.53 494.69,248.81"];
	53	[height=0.5,
		pos="707,142.98",
		width=0.75];
	1 -- 53	[pos="657.52,226.07 668.48,207.67 685.86,178.47 696.84,160.03"];
	74	[height=0.5,
		pos="585.41,276.52",
		width=0.75];
	1 -- 74	[pos="626.42,254.38 620.1,257.79 613.15,261.54 606.8,264.97"];
	58	[height=0.5,
		pos="635.14,110.29",
		width=0.75];
	1 -- 58	[pos="645.73,224.86 643.4,199.58 639.19,154.07 636.84,128.68"];
	1 -- 77	[pos="627.62,255.5 604.64,269.96 566.95,293.67 543.99,308.12"];
	65	[height=0.5,
		pos="571.59,97.812",
		width=0.75];
	1 -- 65	[pos="638.42,225.81 623.82,197.86 595.16,142.96 580.58,115.02"];
	79	[height=0.5,
		pos="592.81,199.02",
		width=0.75];
	1 -- 79	[pos="630.14,229.11 623.76,223.98 616.54,218.15 610.16,213.01"];
	2 -- 25	[pos="595.66,409.13 583.17,409.02 568.4,408.9 555.92,408.79"];
	2 -- 3	[pos="645.06,419.71 650.8,422.39 656.99,425.29 662.75,427.98"];
	2 -- 4	[pos="597.35,403.15 554.52,392.73 468.69,371.87 425.83,361.45"];
	7	[height=0.5,
		pos="802.25,342.18",
		width=0.75];
	2 -- 7	[pos="646.71,400.43 681.11,387.55 744.32,363.88 778.62,351.03"];
	17	[height=0.5,
		pos="671.37,522.75",
		width=0.75];
	2 -- 17	[pos="630.46,427.07 639.57,448.38 654.76,483.91 663.85,505.16"];
	2 -- 52	[pos="631.35,392 647.94,357.96 684.58,282.79 701.1,248.9"];
	22	[height=0.5,
		pos="609.26,566.73",
		width=0.75];
	2 -- 22	[pos="621.32,427.41 618.71,457.6 613.48,518.03 610.85,548.4"];
	26	[height=0.5,
		pos="736.93,483.14",
		width=0.75];
	2 -- 26	[pos="642.49,422.04 663.38,435.55 696.26,456.83 717.2,470.38"];
	46	[height=0.5,
		pos="547.31,496.62",
		width=0.75];
	2 -- 46	[pos="609.38,424.96 595.7,440.74 574.68,465.02 560.96,480.86"];
	2 -- 64	[pos="620.4,427.41 617.96,445.16 614.25,472.12 611.81,489.83"];
	2 -- 29	[pos="638.79,394.81 667.24,368.78 726.56,314.51 755.25,288.26"];
	2 -- 74	[pos="617.83,391.44 610.68,366.09 597.68,320.01 590.5,294.58"];
	2 -- 57	[pos="613.04,426.16 598.16,451.55 570.1,499.41 555.12,524.96"];
	25 -- 49	[pos="512.28,423.17 492.47,440.73 459.43,470.03 439.67,487.54"];
	25 -- 46	[pos="532.6,426.81 535.81,442.03 540.35,463.58 543.53,478.7"];
	25 -- 57	[pos="530.96,426.57 534.08,452.04 539.75,498.35 542.88,523.91"];
	3 -- 67	[pos="682.36,420.34 680.03,405.81 676.78,385.53 674.45,371.01"];
	3 -- 8	[pos="692.69,421.13 701.87,399.65 717.41,363.26 726.62,341.7"];
	3 -- 7	[pos="702.28,424.49 724.46,406.23 763.03,374.47 785.22,356.2"];
	3 -- 10	[pos="699.22,422.68 727.47,390.65 791.19,318.4 819.5,286.3"];
	3 -- 17	[pos="682.25,456.78 679.91,471.01 676.66,490.65 674.33,504.79"];
	3 -- 34	[pos="666.25,425.28 646.89,411.82 617.05,391.08 597.75,377.66"];
	19	[height=0.5,
		pos="864.32,377.22",
		width=0.75];
	3 -- 19	[pos="709.42,430.23 743.69,418.5 806.06,397.16 840.27,385.45"];
	13	[height=0.5,
		pos="665.82,641.17",
		width=0.75];
	3 -- 13	[pos="683.54,456.48 679.86,494.85 671.27,584.35 667.57,622.94"];
	42	[height=0.5,
		pos="672.19,596.25",
		width=0.75];
	3 -- 42	[pos="683.77,456.59 681.26,486.86 676.24,547.43 673.71,577.88"];
	3 -- 22	[pos="675.33,455.26 660.76,479.84 633.77,525.38 619.2,549.96"];
	24	[height=0.5,
		pos="734.27,615.48",
		width=0.75];
	3 -- 24	[pos="690.24,456.44 699.65,490.45 719.99,563.91 729.36,597.75"];
	3 -- 26	[pos="701.9,452.87 707.8,457.97 714.43,463.7 720.33,468.8"];
	31	[height=0.5,
		pos="807.12,421.23",
		width=0.75];
	3 -- 31	[pos="711.71,434.75 732.01,431.87 759.92,427.92 780.31,425.03"];
	3 -- 64	[pos="669.17,453.19 656.28,464.94 638.3,481.35 625.42,493.1"];
	38	[height=0.5,
		pos="854.99,469.44",
		width=0.75];
	3 -- 38	[pos="711.42,443.26 743.31,449.08 796.91,458.85 828.81,464.67"];
	47	[height=0.5,
		pos="782.61,527.32",
		width=0.75];
	3 -- 47	[pos="701.34,453.16 719.38,469.62 748.47,496.16 766.51,512.63"];
	40	[height=0.5,
		pos="844.7,515.95",
		width=0.75];
	3 -- 40	[pos="707.1,449.1 737.55,463.89 792.43,490.56 822.87,505.34"];
	48	[height=0.5,
		pos="795.79,571.44",
		width=0.75];
	3 -- 48	[pos="698.38,454.27 719.65,479.85 761.44,530.11 782.7,555.68"];
	8 -- 67	[pos="711.52,334.54 705.78,337.17 699.61,340 693.88,342.63"];
	8 -- 10	[pos="755.19,312.77 772.06,303.65 795.6,290.91 812.47,281.79"];
	4 -- 25	[pos="423.22,364.77 446.47,374.42 482.22,389.25 505.55,398.93"];
	4 -- 5	[pos="380.28,367.44 373.19,371.77 365.22,376.64 358.14,380.96"];
	4 -- 36	[pos="414.66,339.84 439.66,313.15 490.79,258.58 515.83,231.84"];
	6	[height=0.5,
		pos="280.53,334.6",
		width=0.75];
	4 -- 6	[pos="373.97,350.7 354.01,347.26 326.69,342.55 306.74,339.11"];
	4 -- 62	[pos="394.01,373.01 385.59,397.02 370.67,439.55 362.26,463.51"];
	4 -- 9	[pos="414.09,339.76 422.34,330.53 432.79,318.85 441.08,309.59"];
	4 -- 12	[pos="383.83,369.58 361.39,389.19 321.38,424.15 298.82,443.87"];
	4 -- 20	[pos="378.07,365.82 355.48,376.59 320.68,393.19 298.17,403.93"];
	32	[height=0.5,
		pos="342.68,294",
		width=0.75];
	4 -- 32	[pos="385.72,339.78 377.06,330.57 366.1,318.91 357.4,309.66"];
	4 -- 49	[pos="403.07,373.24 407.5,401.41 416.02,455.63 420.46,483.9"];
	4 -- 46	[pos="415.71,370.1 443.88,397.18 503.27,454.28 531.61,481.53"];
	4 -- 73	[pos="406.82,337.51 417.48,308.75 438.42,252.26 449.08,223.51"];
	4 -- 44	[pos="411.09,338.3 423.68,318.63 444.33,286.37 456.92,266.72"];
	4 -- 74	[pos="423.32,345.42 459,330.26 527.12,301.3 562.62,286.21"];
	5 -- 18	[pos="356.2,406.59 363.37,411.95 371.62,418.11 378.82,423.49"];
	5 -- 62	[pos="341.91,411.39 344.99,426.6 349.36,448.16 352.42,463.28"];
	5 -- 9	[pos="354.96,378.93 377.18,360.06 416.19,326.95 438.39,308.1"];
	5 -- 32	[pos="339.03,374.96 339.84,357.07 341.06,329.92 341.87,312.07"];
	5 -- 71	[pos="347.68,410.06 364.61,440.33 399.92,503.43 417,533.95"];
	18 -- 32	[pos="390.43,419.6 379.99,392.13 359.89,339.26 349.41,311.69"];
	18 -- 28	[pos="400.91,454.99 407.39,485.36 420.5,546.79 427,577.28"];
	18 -- 71	[pos="401.72,454.98 407.25,476.29 416.43,511.74 421.99,533.15"];
	18 -- 35	[pos="407.98,453.96 426.51,482.56 463.99,540.43 482.59,569.15"];
	36 -- 73	[pos="503.78,212.63 496.74,211.63 489.13,210.55 482.09,209.55"];
	36 -- 44	[pos="509.13,227.71 502.6,231.19 495.42,235.03 488.9,238.52"];
	6 -- 12	[pos="280.77,352.6 281.08,376.08 281.61,416.91 281.92,440.4"];
	6 -- 20	[pos="279.54,352.71 278.83,365.77 277.88,383.33 277.17,396.38"];
	15	[height=0.5,
		pos="214.17,407.56",
		width=0.75];
	6 -- 15	[pos="266.46,350.07 255.2,362.45 239.48,379.73 228.23,392.11"];
	68	[height=0.5,
		pos="218.52,336.24",
		width=0.75];
	6 -- 68	[pos="253.51,335.31 250.9,335.38 248.25,335.45 245.64,335.52"];
	30	[height=0.5,
		pos="203.69,495.67",
		width=0.75];
	6 -- 30	[pos="272.31,351.83 257.6,382.67 226.93,446.97 212.09,478.07"];
	21	[height=0.5,
		pos="169.61,451.61",
		width=0.75];
	6 -- 21	[pos="266.03,349.89 244.77,372.32 205.37,413.88 184.11,436.31"];
	45	[height=0.5,
		pos="144.93,328.37",
		width=0.75];
	6 -- 45	[pos="253.42,333.35 229.77,332.27 195.64,330.7 172,329.61"];
	72	[height=0.5,
		pos="216.23,203.87",
		width=0.75];
	6 -- 72	[pos="271.99,317.24 259.69,292.23 237.12,246.35 224.8,221.3"];
	56	[height=0.5,
		pos="152.99,270.95",
		width=0.75];
	6 -- 56	[pos="258.9,323.8 235.44,312.1 198.23,293.53 174.73,281.8"];
	78	[height=0.5,
		pos="216.5,248.05",
		width=0.75];
	6 -- 78	[pos="268.49,318.32 257.04,302.84 239.92,279.7 228.49,264.25"];
	7 -- 10	[pos="809.82,324.81 814.7,313.61 821.02,299.09 825.91,287.87"];
	7 -- 19	[pos="822.92,353.85 829.55,357.59 836.89,361.74 843.53,365.49"];
	14	[height=0.5,
		pos="865.05,226.35",
		width=0.75];
	7 -- 14	[pos="811.52,325.09 823.39,303.19 843.85,265.45 855.74,243.51"];
	11	[height=0.5,
		pos="895.53,279.15",
		width=0.75];
	7 -- 11	[pos="821.58,329.12 837.7,318.23 860.53,302.8 876.55,291.97"];
	27	[height=0.5,
		pos="957.56,320.66",
		width=0.75];
	7 -- 27	[pos="828.95,338.48 857.48,334.53 902.45,328.3 930.95,324.35"];
	55	[height=0.5,
		pos="954.47,364.7",
		width=0.75];
	7 -- 55	[pos="828.77,346.11 856.62,350.23 900.17,356.67 928.01,360.78"];
	7 -- 26	[pos="794.24,359.47 781.7,386.52 757.58,438.58 745,465.72"];
	7 -- 31	[pos="803.38,360.52 804.17,373.29 805.21,390.25 805.99,403"];
	7 -- 29	[pos="794.49,324.83 789.86,314.48 784.01,301.38 779.36,290.99"];
	51	[height=0.5,
		pos="948.99,449.57",
		width=0.75];
	7 -- 51	[pos="820.54,355.57 848.66,376.14 902.21,415.34 930.47,436.02"];
	10 -- 14	[pos="845.26,254 847.92,250.28 850.74,246.34 853.4,242.62"];
	10 -- 11	[pos="860.18,274.16 863.07,274.57 866.01,274.98 868.89,275.39"];
	10 -- 43	[pos="823.52,253.51 818.54,245.1 812.54,234.96 807.57,226.56"];
	69	[height=0.5,
		pos="876.97,178.24",
		width=0.75];
	10 -- 69	[pos="841.69,253.07 849.46,236.59 861.08,211.95 868.84,195.5"];
	10 -- 53	[pos="818.51,255.29 794.16,230.76 746.33,182.59 721.99,158.07"];
	76	[height=0.5,
		pos="809.94,133.86",
		width=0.75];
	10 -- 76	[pos="830.39,252.27 825.88,226.16 817.6,178.23 813.09,152.07"];
	9 -- 18	[pos="448,311.47 436.87,338.97 415.44,391.87 404.27,419.45"];
	59	[height=0.5,
		pos="353.29,143.66",
		width=0.75];
	9 -- 59	[pos="443.83,277.26 424.25,248.37 384.23,189.32 364.62,160.39"];
	9 -- 32	[pos="427.9,293.93 410.35,293.94 387.61,293.96 370.04,293.97"];
	9 -- 23	[pos="461.1,276.34 471.11,246.96 491.14,188.17 501.21,158.61"];
	9 -- 50	[pos="453.7,275.81 451.59,248.8 447.64,198.24 445.54,171.28"];
	9 -- 73	[pos="455.22,275.65 455.31,260.53 455.44,239.15 455.53,224.04"];
	9 -- 54	[pos="457.49,311.97 458.25,317.77 459.09,324.18 459.86,329.99"];
	9 -- 77	[pos="478.52,302.93 485.73,305.7 493.66,308.76 500.87,311.54"];
	61	[height=0.5,
		pos="415.3,109.22",
		width=0.75];
	9 -- 61	[pos="451.22,275.86 443.59,240.47 426.75,162.31 419.15,127.07"];
	59 -- 61	[pos="374.28,132 380.75,128.41 387.86,124.46 394.33,120.87"];
	63	[height=0.5,
		pos="461.59,18",
		width=0.75];
	59 -- 63	[pos="366.79,128 387.54,103.92 427.07,58.056 447.92,33.858"];
	70	[height=0.5,
		pos="778.93,671.67",
		width=0.75];
	17 -- 70	[pos="683.08,538.97 703.67,567.47 746.1,626.22 766.9,655.02"];
	17 -- 22	[pos="652.73,535.95 644.87,541.51 635.74,547.98 627.88,553.55"];
	17 -- 26	[pos="691.39,510.65 699.38,505.83 708.55,500.28 716.57,495.44"];
	34 -- 54	[pos="552.43,360.84 533.47,358.17 508.04,354.59 489.01,351.92"];
	34 -- 77	[pos="561.61,350.63 555.23,345.5 548,339.68 541.62,334.53"];
	34 -- 79	[pos="580.41,346.53 583.09,314.69 588.62,248.85 591.3,217.03"];
	41 -- 43	[pos="754.48,195.39 760.53,197.4 767.01,199.56 773.06,201.58"];
	41 -- 52	[pos="722.06,204.59 720.57,207.81 719.01,211.17 717.51,214.39"];
	41 -- 58	[pos="712.68,173.15 695.55,159.26 669.54,138.18 652.45,124.32"];
	19 -- 31	[pos="846.54,390.91 839.71,396.15 831.93,402.14 825.09,407.4"];
	19 -- 38	[pos="862.48,395.44 860.84,411.61 858.47,435.1 856.83,451.26"];
	19 -- 40	[pos="861.76,395.36 858,421.94 851.03,471.22 847.26,497.81"];
	19 -- 51	[pos="881.05,391.52 895.89,404.2 917.46,422.63 932.3,435.3"];
	14 -- 41	[pos="839.98,219.09 815.74,212.07 779.22,201.5 755.03,194.49"];
	14 -- 27	[pos="879.91,241.51 897.17,259.11 925.48,287.97 942.73,305.55"];
	75	[height=0.5,
		pos="985.6,193.72",
		width=0.75];
	14 -- 75	[pos="890.32,219.51 910.89,213.94 939.79,206.12 960.36,200.55"];
	14 -- 43	[pos="839.56,220.08 834.19,218.76 828.53,217.36 823.15,216.04"];
	14 -- 69	[pos="869.49,208.44 870.49,204.38 871.56,200.07 872.57,196.01"];
	14 -- 55	[pos="875.83,243.04 893.02,269.63 926.44,321.32 943.65,347.95"];
	14 -- 29	[pos="843.35,237.27 828.23,244.87 808.16,254.96 793.07,262.55"];
	14 -- 76	[pos="854.94,209.39 845,192.7 829.9,167.37 819.98,150.72"];
	11 -- 14	[pos="885.72,262.15 882.24,256.12 878.32,249.34 874.84,243.32"];
	11 -- 27	[pos="914.82,292.05 922.35,297.1 930.98,302.87 938.5,307.91"];
	11 -- 75	[pos="911.22,264.27 927.65,248.68 953.31,224.34 969.79,208.72"];
	11 -- 69	[pos="892.21,261.11 888.84,242.74 883.63,214.44 880.26,196.13"];
	27 -- 75	[pos="961.51,302.75 966.86,278.55 976.32,235.69 981.66,211.55"];
	27 -- 55	[pos="956.28,338.83 956.11,341.39 955.92,344.02 955.74,346.58"];
	12 -- 37	[pos="296.36,473.95 311.23,490.2 334.45,515.58 349.36,531.88"];
	12 -- 62	[pos="306.76,466.01 314.66,468.44 323.4,471.14 331.3,473.57"];
	12 -- 20	[pos="279.69,440.28 279.35,437.72 278.99,435.09 278.64,432.53"];
	12 -- 15	[pos="263.94,444.8 254.18,437.5 242.2,428.53 232.44,421.23"];
	12 -- 30	[pos="259.88,469 249.19,474.08 236.42,480.14 225.75,485.2"];
	12 -- 21	[pos="255.2,456.8 237.51,455.72 214.46,454.33 196.73,453.26"];
	60	[height=0.5,
		pos="241.76,583.75",
		width=0.75];
	12 -- 60	[pos="276.45,476.12 268.75,500 255.11,542.31 247.43,566.15"];
	33	[height=0.5,
		pos="231.36,539.74",
		width=0.75];
	12 -- 33	[pos="271.63,475.28 262.91,489.23 250.58,508.97 241.87,522.92"];
	20 -- 68	[pos="264.24,398.22 254.34,384.81 240.34,365.83 230.45,352.42"];
	20 -- 33	[pos="269.86,432.11 261.31,456 246.18,498.31 237.65,522.14"];
	13 -- 42	[pos="668.37,623.16 668.79,620.23 669.22,617.19 669.63,614.27"];
	13 -- 70	[pos="690.92,647.94 709.66,653 735.17,659.87 753.9,664.92"];
	13 -- 22	[pos="653.54,625.02 644.06,612.53 630.99,595.33 621.51,582.85"];
	13 -- 26	[pos="673.7,623.66 687.37,593.28 715.31,531.17 729.01,500.74"];
	42 -- 48	[pos="698.1,591.05 719.2,586.81 748.83,580.86 769.91,576.63"];
	15 -- 20	[pos="240.83,410.51 243.59,410.81 246.39,411.12 249.15,411.43"];
	15 -- 68	[pos="215.27,389.56 215.92,378.83 216.75,365.25 217.41,354.48"];
	15 -- 30	[pos="212,425.81 210.2,440.94 207.66,462.32 205.86,477.44"];
	15 -- 21	[pos="198.59,422.97 194.17,427.33 189.36,432.08 184.96,436.44"];
	15 -- 60	[pos="217.02,425.75 222.32,459.6 233.64,531.88 238.92,565.66"];
	15 -- 33	[pos="216.53,425.66 219.8,450.83 225.69,496.15 228.98,521.43"];
	15 -- 45	[pos="200.49,391.91 188.36,378.03 170.72,357.86 158.59,343.98"];
	68 -- 72	[pos="218.21,318.11 217.77,292.91 216.98,247.52 216.55,222.21"];
	68 -- 78	[pos="218.1,317.97 217.75,302.83 217.27,281.43 216.92,266.3"];
	16	[height=0.5,
		pos="27,307.53",
		width=0.75];
	66	[height=0.5,
		pos="65.658,214.66",
		width=0.75];
	16 -- 66	[pos="34.271,290.06 41.183,273.46 51.519,248.63 58.419,232.05"];
	16 -- 45	[pos="53.173,312.15 72.717,315.61 99.308,320.31 118.83,323.76"];
	16 -- 56	[pos="51.892,300.3 73.98,293.89 106.08,284.57 128.15,278.16"];
	66 -- 72	[pos="92.577,212.73 119.9,210.77 161.96,207.76 189.29,205.8"];
	43 -- 53	[pos="779.29,196.24 763.57,184.66 741.03,168.05 725.31,156.47"];
	43 -- 58	[pos="777.71,197.56 746.52,178.47 686.52,141.74 655.23,122.58"];
	43 -- 76	[pos="800.55,191.77 802.5,179.76 805.05,164.02 807,151.98"];
	69 -- 75	[pos="903.55,182.03 920.38,184.43 942.07,187.52 958.92,189.92"];
	22 -- 70	[pos="629.05,578.98 661.66,599.14 726.3,639.12 759,659.35"];
	22 -- 26	[pos="628.65,554.04 652.64,538.33 693.27,511.72 717.35,495.96"];
	22 -- 64	[pos="609.28,548.72 609.29,541.54 609.3,533.29 609.31,526.08"];
	21 -- 30	[pos="182.11,467.77 185.07,471.6 188.23,475.69 191.2,479.52"];
	39 -- 71	[pos="495.67,615.29 480.48,601.19 457.76,580.09 442.58,566"];
	23 -- 59	[pos="480.1,141.29 452.04,141.81 408.51,142.63 380.45,143.15"];
	23 -- 50	[pos="481.23,145.92 477.56,146.65 473.79,147.39 470.12,148.11"];
	23 -- 73	[pos="494.52,156.86 486.63,166.78 476.54,179.49 468.62,189.47"];
	23 -- 61	[pos="483.11,132.49 469.7,127.89 453.06,122.18 439.63,117.57"];
	23 -- 63	[pos="500.73,123.19 492.05,99.849 476.8,58.883 468.13,35.559"];
	50 -- 59	[pos="417.36,150.42 405.64,149.18 391.91,147.73 380.17,146.49"];
	50 -- 61	[pos="433.23,136.6 430.94,133.1 428.51,129.4 426.22,125.89"];
	50 -- 63	[pos="446.45,135.28 449.79,109.42 455.92,61.942 459.26,36.033"];
	24 -- 42	[pos="709.73,607.88 705.53,606.57 701.16,605.22 696.95,603.92"];
	24 -- 26	[pos="734.63,597.35 735.14,572.15 736.05,526.78 736.56,501.47"];
	24 -- 48	[pos="752.73,602.26 760.51,596.69 769.56,590.21 777.34,584.64"];
	26 -- 42	[pos="727.09,500.32 714.85,521.7 694.08,557.99 681.9,579.28"];
	26 -- 70	[pos="740.95,501.22 748.98,537.26 766.9,617.66 774.92,653.65"];
	26 -- 31	[pos="753.56,468.47 764.75,458.6 779.44,445.65 790.6,435.8"];
	31 -- 38	[pos="822.26,436.48 827.85,442.11 834.18,448.49 839.78,454.12"];
	31 -- 47	[pos="802.96,439.23 798.45,458.74 791.3,489.69 786.79,509.23"];
	31 -- 51	[pos="833.14,426.43 858.58,431.51 897.1,439.2 922.65,444.31"];
	49 -- 57	[pos="447.67,510.05 468.91,517.02 499.56,527.09 520.79,534.06"];
	46 -- 57	[pos="546.42,514.84 546.28,517.8 546.13,520.87 545.99,523.83"];
	28 -- 35	[pos="457.45,591.39 460.66,590.93 463.93,590.45 467.14,589.98"];
	29 -- 41	[pos="763.12,255.97 755.94,241.03 745.64,219.61 738.46,204.67"];
	29 -- 43	[pos="778.64,256.01 782.32,247.03 786.81,236.11 790.5,227.13"];
	29 -- 52	[pos="752.21,260.45 744.67,255.39 736.04,249.59 728.53,244.55"];
	38 -- 47	[pos="837.47,483.45 826.09,492.55 811.32,504.36 799.97,513.44"];
	38 -- 40	[pos="851.04,487.29 850.27,490.77 849.46,494.43 848.69,497.92"];
	38 -- 51	[pos="880.93,463.96 894.08,461.18 910,457.81 923.14,455.03"];
	33 -- 60	[pos="235.59,557.64 236.22,560.31 236.87,563.06 237.5,565.73"];
	54 -- 77	[pos="484.98,338.03 490.37,335.63 496.13,333.07 501.52,330.67"];
	54 -- 79	[pos="475.97,332.48 500.98,303.91 553.71,243.68 578.88,214.93"];
	35 -- 39	[pos="500.73,603.51 501.95,606.49 503.22,609.59 504.45,612.57"];
	35 -- 71	[pos="472.04,574.88 464.4,570.9 455.81,566.42 448.17,562.44"];
	40 -- 51	[pos="864.31,503.46 882.84,491.67 910.49,474.07 929.1,462.22"];
	53 -- 58	[pos="684.66,132.81 676.09,128.91 666.31,124.47 657.72,120.56"];
	53 -- 76	[pos="733.78,140.61 748.91,139.27 767.77,137.6 782.94,136.25"];
	53 -- 65	[pos="682.79,134.9 658.3,126.73 620.63,114.17 596.05,105.97"];
	45 -- 68	[pos="171.92,331.26 178.32,331.94 185.14,332.67 191.54,333.36"];
	45 -- 66	[pos="133.24,311.59 118.16,289.97 92.118,252.61 77.146,231.14"];
	45 -- 72	[pos="154.7,311.32 168.35,287.48 192.99,244.45 206.58,220.72"];
	45 -- 56	[pos="147.48,310.2 148.42,303.5 149.49,295.91 150.43,289.2"];
	45 -- 78	[pos="158.73,312.88 171.32,298.75 189.85,277.96 202.5,263.76"];
	72 -- 78	[pos="216.34,222.1 216.36,224.66 216.37,227.3 216.39,229.87"];
	58 -- 65	[pos="608.93,105.14 605.24,104.42 601.44,103.67 597.75,102.95"];
	77 -- 79	[pos="533.78,303.65 546.81,280.56 570.04,239.38 583.14,216.16"];
	56 -- 66	[pos="133.17,258.18 118.78,248.9 99.401,236.41 85.096,227.19"];
	56 -- 72	[pos="167.66,255.4 177.88,244.56 191.44,230.17 201.64,219.35"];
	61 -- 73	[pos="422.7,126.94 429.98,144.37 441.03,170.82 448.29,188.21"];
	61 -- 63	[pos="424.01,92.066 432.28,75.756 444.66,51.366 452.92,35.082"];
}
