graph {
	graph [bb="0,0,775.22,768.81",
		outputorder=edgesfirst,
		overlap=prism,
		size="50,50!",
		start=3660
	];
	node [label="\N"];
	0	[height=0.5,
		pos="144.8,503.57",
		width=0.75];
	17	[height=0.5,
		pos="206.88,506.67",
		width=0.75];
	0 -- 17	[pos="171.85,504.92 174.47,505.05 177.12,505.19 179.73,505.32"];
	36	[height=0.5,
		pos="41.465,462.26",
		width=0.75];
	0 -- 36	[pos="121.61,494.3 104.71,487.54 81.902,478.42 64.937,471.64"];
	47	[height=0.5,
		pos="72.732,534.59",
		width=0.75];
	0 -- 47	[pos="122,513.39 113.59,517.01 104.06,521.11 95.635,524.74"];
	51	[height=0.5,
		pos="235.95,642.86",
		width=0.75];
	0 -- 51	[pos="155.62,520.1 173.16,546.9 207.62,599.56 225.15,626.35"];
	53	[height=0.5,
		pos="245.86,376.51",
		width=0.75];
	0 -- 53	[pos="157.6,487.48 177.04,463.04 213.79,416.84 233.16,392.48"];
	61	[height=0.5,
		pos="121.23,578.61",
		width=0.75];
	0 -- 61	[pos="139.22,521.36 135.46,533.32 130.53,549.02 126.78,560.96"];
	72	[height=0.5,
		pos="112.46,447.94",
		width=0.75];
	0 -- 72	[pos="134.92,486.58 130.91,479.68 126.29,471.72 122.28,464.83"];
	73	[height=0.5,
		pos="27,418.22",
		width=0.75];
	0 -- 73	[pos="126.4,490.24 104.4,474.29 67.783,447.77 45.666,431.74"];
	1	[height=0.5,
		pos="423.28,440.52",
		width=0.75];
	18	[height=0.5,
		pos="558.3,374.11",
		width=0.75];
	1 -- 18	[pos="445.27,429.7 470.38,417.35 511.21,397.27 536.31,384.93"];
	20	[height=0.5,
		pos="341.43,521.94",
		width=0.75];
	1 -- 20	[pos="407.88,455.83 393.16,470.48 371.09,492.44 356.48,506.97"];
	32	[height=0.5,
		pos="277.67,483.5",
		width=0.75];
	1 -- 32	[pos="398.58,447.81 371.8,455.71 329.31,468.25 302.49,476.17"];
	35	[height=0.5,
		pos="390.09,617.77",
		width=0.75];
	1 -- 35	[pos="419.91,458.49 413.55,492.46 399.83,565.74 393.47,599.75"];
	40	[height=0.5,
		pos="485.43,437.49",
		width=0.75];
	1 -- 40	[pos="450.36,439.2 452.98,439.07 455.63,438.94 458.25,438.82"];
	52	[height=0.5,
		pos="361.02,477.93",
		width=0.75];
	1 -- 52	[pos="402.89,452.77 395.94,456.94 388.18,461.61 381.24,465.78"];
	62	[height=0.5,
		pos="471.31,531.3",
		width=0.75];
	1 -- 62	[pos="432.31,457.59 440.9,473.82 453.74,498.09 462.32,514.3"];
	66	[height=0.5,
		pos="452.21,575.37",
		width=0.75];
	1 -- 66	[pos="427.12,458.42 432.65,484.22 442.81,531.56 448.35,557.39"];
	70	[height=0.5,
		pos="307.9,350.8",
		width=0.75];
	1 -- 70	[pos="405.25,426.5 383.57,409.64 347.42,381.53 325.8,364.72"];
	75	[height=0.5,
		pos="298.7,439.35",
		width=0.75];
	1 -- 75	[pos="396.25,440.26 375.49,440.07 346.96,439.8 326.11,439.6"];
	77	[height=0.5,
		pos="268.99,533.15",
		width=0.75];
	1 -- 77	[pos="403.11,452.63 373.54,470.38 318.74,503.28 289.17,521.03"];
	79	[height=0.5,
		pos="486.46,290.15",
		width=0.75];
	1 -- 79	[pos="430.65,422.97 442.82,394 466.99,336.48 479.13,307.58"];
	80	[height=0.5,
		pos="558.05,423.57",
		width=0.75];
	1 -- 80	[pos="449.9,437.17 473.53,434.2 507.86,429.88 531.47,426.91"];
	2	[height=0.5,
		pos="343.37,237.25",
		width=0.75];
	19	[height=0.5,
		pos="295.87,155.43",
		width=0.75];
	2 -- 19	[pos="333.53,220.3 325.38,206.26 313.85,186.4 305.7,172.36"];
	21	[height=0.5,
		pos="484.11,349.44",
		width=0.75];
	2 -- 21	[pos="360.91,251.24 387.88,272.73 439.25,313.68 466.35,335.28"];
	23	[height=0.5,
		pos="219.31,241.13",
		width=0.75];
	2 -- 23	[pos="316.15,238.1 295.46,238.75 267.14,239.64 246.48,240.28"];
	26	[height=0.5,
		pos="426.2,124.57",
		width=0.75];
	2 -- 26	[pos="355.59,220.63 371.34,199.2 398.56,162.18 414.2,140.9"];
	33	[height=0.5,
		pos="310.05,281.27",
		width=0.75];
	2 -- 33	[pos="331.15,253.4 328.25,257.22 325.16,261.31 322.26,265.13"];
	39	[height=0.5,
		pos="467.44,246.11",
		width=0.75];
	2 -- 39	[pos="370.29,239.18 391.1,240.66 419.77,242.71 440.57,244.19"];
	44	[height=0.5,
		pos="431.66,168.75",
		width=0.75];
	2 -- 44	[pos="361.24,223.39 376.55,211.5 398.51,194.47 413.82,182.59"];
	46	[height=0.5,
		pos="288.38,109.06",
		width=0.75];
	2 -- 46	[pos="335.84,219.7 325.31,195.15 306.3,150.84 295.82,126.4"];
	48	[height=0.5,
		pos="230.7,287.99",
		width=0.75];
	2 -- 48	[pos="320.84,247.4 301.19,256.25 272.83,269.02 253.19,277.86"];
	2 -- 53	[pos="331.8,253.78 313.04,280.58 276.17,333.23 257.41,360.01"];
	59	[height=0.5,
		pos="188.02,197.09",
		width=0.75];
	2 -- 59	[pos="318.07,230.71 289.18,223.24 242.2,211.1 213.31,203.63"];
	63	[height=0.5,
		pos="350.43,94.464",
		width=0.75];
	2 -- 63	[pos="344.26,219.17 345.61,191.85 348.16,140.35 349.52,112.85"];
	3	[height=0.5,
		pos="328.9,395.16",
		width=0.75];
	3 -- 17	[pos="312.95,409.73 289.56,431.11 246.22,470.72 222.84,492.09"];
	3 -- 20	[pos="330.7,413.32 333.08,437.42 337.26,479.73 339.64,503.81"];
	22	[height=0.5,
		pos="328.03,577.15",
		width=0.75];
	3 -- 22	[pos="328.81,413.27 328.65,448.16 328.28,524.28 328.12,559.11"];
	31	[height=0.5,
		pos="430.57,393.46",
		width=0.75];
	3 -- 31	[pos="356.15,394.7 370.73,394.46 388.65,394.16 403.25,393.91"];
	3 -- 33	[pos="325.91,377.11 322.38,355.79 316.54,320.52 313.02,299.23"];
	34	[height=0.5,
		pos="183.81,402.33",
		width=0.75];
	3 -- 34	[pos="301.95,396.49 276.05,397.77 237.12,399.69 211.11,400.98"];
	3 -- 52	[pos="335.71,412.71 341.16,426.76 348.77,446.36 354.22,460.4"];
	54	[height=0.5,
		pos="281.32,237.26",
		width=0.75];
	3 -- 54	[pos="323.54,377.35 314.4,347.02 295.91,285.69 286.74,255.24"];
	74	[height=0.5,
		pos="405.44,271.05",
		width=0.75];
	3 -- 74	[pos="339.22,378.42 353.83,354.73 380.38,311.68 395.04,287.92"];
	4	[height=0.5,
		pos="625.99,467.2",
		width=0.75];
	4 -- 21	[pos="608.87,452.99 581.6,430.36 528.59,386.36 501.28,363.69"];
	25	[height=0.5,
		pos="657.41,599.89",
		width=0.75];
	4 -- 25	[pos="630.22,485.09 636.22,510.42 647.12,556.46 653.14,581.86"];
	28	[height=0.5,
		pos="620.31,403.22",
		width=0.75];
	4 -- 28	[pos="624.37,449.03 623.6,440.32 622.68,429.9 621.91,421.21"];
	37	[height=0.5,
		pos="518.98,618.7",
		width=0.75];
	4 -- 37	[pos="614.33,483.7 593.75,512.84 551.2,573.09 530.62,602.22"];
	38	[height=0.5,
		pos="718.12,364.96",
		width=0.75];
	4 -- 38	[pos="639.98,451.67 657.3,432.45 686.62,399.91 704,380.63"];
	42	[height=0.5,
		pos="741.87,521.27",
		width=0.75];
	4 -- 42	[pos="648.33,477.62 668.85,487.2 699.1,501.31 719.59,510.87"];
	55	[height=0.5,
		pos="679.84,555.87",
		width=0.75];
	4 -- 55	[pos="636.37,484.29 645.97,500.09 660.14,523.43 669.67,539.12"];
	56	[height=0.5,
		pos="533.37,574.66",
		width=0.75];
	4 -- 56	[pos="612.32,483.05 594.81,503.37 564.63,538.39 547.09,558.74"];
	58	[height=0.5,
		pos="635.98,357.37",
		width=0.75];
	4 -- 58	[pos="627.64,449.06 629.49,428.71 632.47,395.9 634.33,375.54"];
	71	[height=0.5,
		pos="748.22,477.25",
		width=0.75];
	4 -- 71	[pos="652.81,469.4 673.05,471.07 700.71,473.34 721.03,475.01"];
	76	[height=0.5,
		pos="714.73,409.17",
		width=0.75];
	4 -- 76	[pos="645.68,454.32 660.49,444.64 680.67,431.44 695.39,421.82"];
	5	[height=0.5,
		pos="373.8,661.79",
		width=0.75];
	5 -- 22	[pos="364.54,644.66 356.6,629.98 345.22,608.93 337.28,594.25"];
	24	[height=0.5,
		pos="481.21,706.73",
		width=0.75];
	5 -- 24	[pos="396.84,671.43 414.96,679.01 440.09,689.53 458.2,697.11"];
	5 -- 37	[pos="398.76,654.38 425.35,646.49 467.21,634.07 493.86,626.16"];
	5 -- 51	[pos="347.22,658.14 322.81,654.79 286.83,649.85 262.45,646.5"];
	5 -- 56	[pos="394.99,650.22 425.59,633.51 481.84,602.8 512.35,586.14"];
	68	[height=0.5,
		pos="419.97,750.81",
		width=0.75];
	5 -- 68	[pos="382.7,678.95 390.88,694.72 402.93,717.95 411.09,733.7"];
	6	[height=0.5,
		pos="530.26,662.73",
		width=0.75];
	6 -- 25	[pos="552.12,651.93 575.41,640.42 612.07,622.3 635.41,610.77"];
	29	[height=0.5,
		pos="587.29,728.52",
		width=0.75];
	6 -- 29	[pos="543.77,678.32 552.73,688.66 564.45,702.18 573.48,712.59"];
	6 -- 35	[pos="505.84,654.9 480.27,646.7 440.34,633.89 414.7,625.67"];
	6 -- 55	[pos="548.9,649.41 577.56,628.94 632.16,589.93 660.96,569.35"];
	57	[height=0.5,
		pos="650.97,689.94",
		width=0.75];
	6 -- 57	[pos="555.86,668.5 576.2,673.09 604.54,679.48 624.99,684.08"];
	6 -- 66	[pos="516.3,647.11 502.1,631.21 480.2,606.71 466.04,590.86"];
	6 -- 68	[pos="512.54,676.88 491.83,693.42 457.81,720.59 437.28,736.98"];
	7	[height=0.5,
		pos="548.48,330.07",
		width=0.75];
	27	[height=0.5,
		pos="370,325.31",
		width=0.75];
	7 -- 27	[pos="521.38,329.35 487.73,328.45 430.7,326.93 397.07,326.04"];
	7 -- 28	[pos="563.37,345.23 575.69,357.78 593.12,375.54 605.45,388.08"];
	30	[height=0.5,
		pos="497.13,202.05",
		width=0.75];
	7 -- 30	[pos="541.45,312.54 531.67,288.16 514.06,244.27 504.24,219.78"];
	7 -- 31	[pos="527.4,341.4 506.07,352.87 473.27,370.5 451.86,382.01"];
	7 -- 39	[pos="533.62,314.67 519,299.52 496.8,276.53 482.21,261.41"];
	7 -- 40	[pos="538.63,346.86 526.86,366.92 507.26,400.3 495.42,420.47"];
	7 -- 58	[pos="573.32,337.82 585.25,341.54 599.49,345.99 611.38,349.7"];
	60	[height=0.5,
		pos="624.93,254.1",
		width=0.75];
	7 -- 60	[pos="563.59,315.06 576.99,301.74 596.46,282.39 609.86,269.08"];
	78	[height=0.5,
		pos="563.86,471.18",
		width=0.75];
	7 -- 78	[pos="550.46,348.23 553.41,375.33 558.94,426.04 561.89,453.1"];
	8	[height=0.5,
		pos="595.4,608.85",
		width=0.75];
	8 -- 24	[pos="578.55,623.29 556.96,641.8 519.75,673.7 498.13,692.23"];
	8 -- 29	[pos="594.17,627.03 592.65,649.52 590.06,687.6 588.53,710.17"];
	8 -- 42	[pos="615.77,596.67 643.75,579.94 693.79,550.02 721.68,533.34"];
	8 -- 57	[pos="606.65,625.26 616.29,639.33 630.11,659.49 639.74,673.55"];
	8 -- 62	[pos="575.47,596.39 552.31,581.92 514.34,558.19 491.2,543.73"];
	8 -- 71	[pos="612.05,594.52 641.44,569.2 702.21,516.87 731.59,491.57"];
	8 -- 78	[pos="591.28,590.85 585.23,564.47 574.03,515.57 567.98,489.19"];
	9	[height=0.5,
		pos="364.15,144.05",
		width=0.75];
	9 -- 30	[pos="387.01,154.02 411.37,164.64 449.71,181.37 474.12,192.02"];
	41	[height=0.5,
		pos="410.29,18",
		width=0.75];
	9 -- 41	[pos="370.56,126.52 379.33,102.58 394.96,59.865 403.78,35.784"];
	45	[height=0.5,
		pos="443.05,73.218",
		width=0.75];
	9 -- 45	[pos="380.5,129.37 394.04,117.22 413.18,100.03 426.72,87.875"];
	9 -- 46	[pos="341.82,133.74 332.05,129.23 320.59,123.94 310.81,119.42"];
	9 -- 54	[pos="350.1,159.86 334.77,177.1 310.4,204.53 295.16,221.68"];
	9 -- 63	[pos="359.19,126.15 357.94,121.6 356.58,116.71 355.33,112.17"];
	82	[height=0.5,
		pos="223.55,87.54",
		width=0.75];
	9 -- 82	[pos="340.93,134.72 314.88,124.25 272.86,107.36 246.8,96.885"];
	84	[height=0.5,
		pos="228.15,153.07",
		width=0.75];
	9 -- 84	[pos="337.28,145.83 313.59,147.4 279.24,149.68 255.43,151.26"];
	10	[height=0.5,
		pos="193.92,332.23",
		width=0.75];
	10 -- 27	[pos="221.05,331.16 254.13,329.86 309.74,327.68 342.84,326.38"];
	10 -- 32	[pos="203.36,349.28 219.45,378.34 251.98,437.1 268.13,466.27"];
	64	[height=0.5,
		pos="99.081,241.09",
		width=0.75];
	10 -- 64	[pos="178.26,317.18 160.69,300.29 132.35,273.06 114.76,256.16"];
	65	[height=0.5,
		pos="48.16,285.11",
		width=0.75];
	10 -- 65	[pos="169.52,324.34 142.62,315.64 99.574,301.73 72.637,293.02"];
	10 -- 72	[pos="182.25,348.8 166.76,370.8 139.58,409.41 124.11,431.39"];
	10 -- 75	[pos="208.93,347.57 228.85,367.94 263.81,403.68 283.72,424.03"];
	81	[height=0.5,
		pos="89.94,398.34",
		width=0.75];
	10 -- 81	[pos="174.36,344.66 155.89,356.41 128.32,373.93 109.76,385.73"];
	10 -- 84	[pos="197.39,314.06 203.97,279.64 218.17,205.27 224.72,171.02"];
	11	[height=0.5,
		pos="110.05,329.15",
		width=0.75];
	11 -- 23	[pos="127.61,315.01 148,298.58 181.43,271.65 201.8,255.24"];
	11 -- 34	[pos="125.34,344.31 137.99,356.87 155.89,374.63 168.55,387.19"];
	11 -- 36	[pos="101.23,346.28 88.058,371.84 63.408,419.67 50.258,445.19"];
	50	[height=0.5,
		pos="33.763,225.03",
		width=0.75];
	11 -- 50	[pos="98.134,312.88 83.885,293.44 60.175,261.08 45.852,241.53"];
	11 -- 59	[pos="120.09,312.16 135.06,286.8 163.08,239.34 178.02,214.02"];
	11 -- 65	[pos="91.484,315.94 83.65,310.37 74.55,303.89 66.718,298.32"];
	11 -- 73	[pos="95.587,344.67 80.343,361.01 56.482,386.6 41.301,402.88"];
	12	[height=0.5,
		pos="663.8,299.29",
		width=0.75];
	12 -- 18	[pos="644.94,312.67 625.73,326.29 596.14,347.28 577,360.85"];
	12 -- 38	[pos="676.95,315.19 685.36,325.36 696.25,338.52 704.72,348.75"];
	12 -- 60	[pos="650.2,283.48 646.44,279.11 642.35,274.35 638.58,269.97"];
	67	[height=0.5,
		pos="661.47,155.83",
		width=0.75];
	12 -- 67	[pos="663.5,281.12 663.06,253.52 662.21,201.36 661.76,173.85"];
	12 -- 76	[pos="671.98,316.94 681.54,337.57 697.25,371.48 706.73,391.93"];
	12 -- 80	[pos="650.4,315.03 630.17,338.81 592.03,383.64 571.66,407.57"];
	83	[height=0.5,
		pos="647.74,199.87",
		width=0.75];
	12 -- 83	[pos="660.85,281.05 657.96,263.12 653.56,235.89 650.67,217.99"];
	13	[height=0.5,
		pos="505.08,72.877",
		width=0.75];
	13 -- 26	[pos="485.58,85.655 473.35,93.668 457.66,103.95 445.48,111.94"];
	13 -- 41	[pos="484.51,60.97 468.61,51.765 446.7,39.083 430.81,29.884"];
	49	[height=0.5,
		pos="605.93,93.947",
		width=0.75];
	13 -- 49	[pos="531.05,78.303 546.11,81.449 565,85.396 580.05,88.539"];
	13 -- 67	[pos="526.49,84.237 556.44,100.12 610.5,128.79 640.31,144.6"];
	69	[height=0.5,
		pos="567.14,49.866",
		width=0.75];
	13 -- 69	[pos="528.89,64.046 533.68,62.272 538.71,60.408 543.49,58.635"];
	14	[height=0.5,
		pos="160.64,285.14",
		width=0.75];
	14 -- 19	[pos="176.16,270.26 202.1,245.37 254.02,195.57 280.13,170.54"];
	43	[height=0.5,
		pos="45.731,347.23",
		width=0.75];
	14 -- 43	[pos="139.57,296.53 118.96,307.66 87.754,324.52 67.063,335.7"];
	14 -- 50	[pos="138.54,274.67 115.4,263.7 79.247,246.58 56.037,235.58"];
	14 -- 64	[pos="142.17,271.92 134.38,266.35 125.33,259.87 117.54,254.29"];
	14 -- 70	[pos="183.33,295.25 211.08,307.63 257.77,328.45 285.43,340.78"];
	14 -- 82	[pos="166.34,267.25 178.31,229.63 205.99,142.7 217.91,105.24"];
	15	[height=0.5,
		pos="559.25,161.07",
		width=0.75];
	15 -- 44	[pos="532.19,162.7 510.54,164 480.32,165.82 458.68,167.12"];
	15 -- 45	[pos="541.35,147.54 519.57,131.08 483.03,103.45 461.16,86.913"];
	15 -- 49	[pos="570.79,144.48 578.02,134.07 587.31,120.72 594.52,110.35"];
	15 -- 69	[pos="560.55,142.71 562.02,121.98 564.4,88.474 565.86,67.888"];
	15 -- 74	[pos="540.69,174.34 511.13,195.48 453.66,236.57 424.06,257.74"];
	15 -- 79	[pos="549.73,177.95 535.78,202.68 509.93,248.53 495.97,273.27"];
	15 -- 83	[pos="582.04,171.06 595.25,176.86 611.83,184.13 625.03,189.91"];
	16	[height=0.5,
		pos="174.48,448.69",
		width=0.75];
	16 -- 43	[pos="156.85,434.8 132.33,415.48 88.187,380.69 63.563,361.28"];
	16 -- 47	[pos="157.68,462.88 138.83,478.79 108.42,504.46 89.558,520.39"];
	16 -- 48	[pos="180.71,430.88 191.52,399.99 213.61,336.83 224.44,305.88"];
	16 -- 61	[pos="167.3,466.22 157.13,491.01 138.66,536.08 128.47,560.96"];
	16 -- 77	[pos="190.94,463.4 208.29,478.91 235.44,503.17 252.72,518.6"];
	16 -- 81	[pos="154.01,436.5 140.72,428.59 123.47,418.31 110.22,410.42"];
}
