graph {
	graph [bb="0,0,830.26,705.84",
		outputorder=edgesfirst,
		overlap=prism,
		size="50,50!",
		start=7410
	];
	node [label="\N"];
	0	[height=0.5,
		pos="540.28,76.965",
		width=0.75];
	17	[height=0.5,
		pos="474.33,111.5",
		width=0.75];
	0 -- 17	[pos="518.68,88.274 511.32,92.13 503.1,96.438 495.75,100.29"];
	36	[height=0.5,
		pos="651.73,64.235",
		width=0.75];
	0 -- 36	[pos="566.97,73.916 584.49,71.915 607.32,69.308 624.87,67.303"];
	47	[height=0.5,
		pos="522.16,18",
		width=0.75];
	0 -- 47	[pos="534.84,59.274 532.55,51.811 529.88,43.141 527.59,35.679"];
	51	[height=0.5,
		pos="393.82,23.872",
		width=0.75];
	0 -- 51	[pos="516.42,68.317 489.19,58.444 444.9,42.388 417.67,32.517"];
	53	[height=0.5,
		pos="505.7,221.33",
		width=0.75];
	0 -- 53	[pos="535.97,94.957 529.34,122.62 516.72,175.31 510.06,203.11"];
	61	[height=0.5,
		pos="584.44,32.907",
		width=0.75];
	0 -- 61	[pos="555.72,61.556 560.1,57.188 564.86,52.438 569.23,48.085"];
	72	[height=0.5,
		pos="617.22,108.26",
		width=0.75];
	0 -- 72	[pos="563.36,86.354 573.1,90.315 584.42,94.917 594.15,98.877"];
	73	[height=0.5,
		pos="705.18,108.37",
		width=0.75];
	0 -- 73	[pos="566.41,81.941 597.28,87.821 648.35,97.545 679.17,103.41"];
	1	[height=0.5,
		pos="346.79,277.04",
		width=0.75];
	18	[height=0.5,
		pos="249.2,381.57",
		width=0.75];
	1 -- 18	[pos="332.39,292.46 313.94,312.22 282.14,346.29 263.66,366.08"];
	20	[height=0.5,
		pos="368.49,231.68",
		width=0.75];
	1 -- 20	[pos="355.11,259.63 356.79,256.13 358.55,252.46 360.22,248.96"];
	32	[height=0.5,
		pos="443.65,189.03",
		width=0.75];
	1 -- 32	[pos="362.78,262.5 380.73,246.2 409.67,219.9 427.63,203.58"];
	35	[height=0.5,
		pos="282.14,216.61",
		width=0.75];
	1 -- 35	[pos="330.81,262.1 320.79,252.73 307.92,240.71 297.94,231.37"];
	40	[height=0.5,
		pos="305.85,337.56",
		width=0.75];
	1 -- 40	[pos="335.6,293.57 329.82,302.11 322.8,312.5 317.02,321.04"];
	52	[height=0.5,
		pos="381.64,185.65",
		width=0.75];
	1 -- 52	[pos="353.51,259.42 359.68,243.23 368.78,219.38 374.94,203.22"];
	62	[height=0.5,
		pos="289.37,166.92",
		width=0.75];
	1 -- 62	[pos="337.82,259.83 327.03,239.14 309.04,204.64 298.28,184.01"];
	66	[height=0.5,
		pos="274.18,272.18",
		width=0.75];
	1 -- 66	[pos="319.75,275.23 313.78,274.83 307.46,274.4 301.48,274"];
	70	[height=0.5,
		pos="456.26,321.11",
		width=0.75];
	1 -- 70	[pos="370,286.38 388.58,293.86 414.51,304.3 433.07,311.77"];
	75	[height=0.5,
		pos="436.33,233.04",
		width=0.75];
	1 -- 75	[pos="368.92,266.16 382.8,259.34 400.62,250.59 414.45,243.79"];
	77	[height=0.5,
		pos="410.27,141.62",
		width=0.75];
	1 -- 77	[pos="354.96,259.61 367.15,233.61 389.96,184.94 402.13,158.98"];
	79	[height=0.5,
		pos="379.48,464.61",
		width=0.75];
	1 -- 79	[pos="349.92,295.02 356.17,330.87 370.12,410.87 376.36,446.68"];
	80	[height=0.5,
		pos="282.31,425.63",
		width=0.75];
	1 -- 80	[pos="339.26,294.37 326.91,322.85 302.44,379.23 289.98,407.94"];
	2	[height=0.5,
		pos="516.58,422",
		width=0.75];
	19	[height=0.5,
		pos="624.01,439.95",
		width=0.75];
	2 -- 19	[pos="542.86,426.39 559.51,429.17 580.96,432.76 597.63,435.54"];
	21	[height=0.5,
		pos="368.18,376.04",
		width=0.75];
	2 -- 21	[pos="492.07,414.41 464.58,405.89 420.23,392.16 392.72,383.64"];
	23	[height=0.5,
		pos="678.68,379.66",
		width=0.75];
	2 -- 23	[pos="541.9,415.38 572.36,407.43 623.15,394.16 653.53,386.23"];
	26	[height=0.5,
		pos="517.84,555.41",
		width=0.75];
	2 -- 26	[pos="516.75,440.27 516.99,465.82 517.43,511.93 517.67,537.36"];
	33	[height=0.5,
		pos="518.43,362.96",
		width=0.75];
	2 -- 33	[pos="517.14,403.96 517.37,396.77 517.63,388.51 517.86,381.29"];
	39	[height=0.5,
		pos="441.89,466.05",
		width=0.75];
	2 -- 39	[pos="496.17,434.03 485.63,440.25 472.81,447.81 462.27,454.02"];
	44	[height=0.5,
		pos="486.8,510.08",
		width=0.75];
	2 -- 44	[pos="510.55,439.82 505.39,455.1 497.98,477.01 492.82,492.28"];
	46	[height=0.5,
		pos="648.4,528.02",
		width=0.75];
	2 -- 46	[pos="533.81,435.86 559.07,456.18 605.9,493.84 631.17,514.16"];
	48	[height=0.5,
		pos="554.6,305.23",
		width=0.75];
	2 -- 48	[pos="522.35,404.26 529.5,382.31 541.6,345.15 548.77,323.13"];
	2 -- 53	[pos="515.59,403.83 513.53,365.73 508.76,277.79 506.69,239.6"];
	59	[height=0.5,
		pos="616.64,337.07",
		width=0.75];
	2 -- 59	[pos="533.55,407.59 552.06,391.88 581.5,366.89 599.91,351.27"];
	63	[height=0.5,
		pos="630.93,483.99",
		width=0.75];
	2 -- 63	[pos="537.55,433.37 558.05,444.48 589.11,461.32 609.7,472.48"];
	3	[height=0.5,
		pos="422.46,277.05",
		width=0.75];
	3 -- 17	[pos="428.01,259.34 437.97,227.56 458.75,161.21 468.74,129.34"];
	3 -- 20	[pos="405.68,262.95 399.24,257.53 391.9,251.36 385.44,245.93"];
	22	[height=0.5,
		pos="348.18,118.46",
		width=0.75];
	3 -- 22	[pos="414.37,259.78 400.08,229.27 370.54,166.21 356.26,135.71"];
	31	[height=0.5,
		pos="367.89,321.07",
		width=0.75];
	3 -- 31	[pos="405.19,290.98 398.82,296.12 391.61,301.94 385.23,307.08"];
	3 -- 33	[pos="438.74,291.63 456.39,307.42 484.39,332.49 502.07,348.31"];
	34	[height=0.5,
		pos="563.01,177.29",
		width=0.75];
	3 -- 34	[pos="441.12,263.81 468,244.73 517.34,209.71 544.27,190.59"];
	3 -- 52	[pos="414.59,259.43 407.31,243.14 396.57,219.08 389.35,202.91"];
	54	[height=0.5,
		pos="580.44,395.95",
		width=0.75];
	3 -- 54	[pos="440.58,290.69 471.05,313.63 532.2,359.64 562.53,382.47"];
	74	[height=0.5,
		pos="441.8,422.01",
		width=0.75];
	3 -- 74	[pos="424.87,295.12 428.58,322.9 435.64,375.8 439.36,403.71"];
	4	[height=0.5,
		pos="187.02,360.36",
		width=0.75];
	4 -- 21	[pos="214.15,362.71 248.4,365.67 306.97,370.74 341.17,373.7"];
	25	[height=0.5,
		pos="72.903,324.46",
		width=0.75];
	4 -- 25	[pos="162.54,352.66 143.29,346.6 116.59,338.2 97.345,332.15"];
	28	[height=0.5,
		pos="187.17,423.63",
		width=0.75];
	4 -- 28	[pos="187.07,378.66 187.09,387.13 187.11,397.16 187.13,405.59"];
	37	[height=0.5,
		pos="212.09,236.08",
		width=0.75];
	4 -- 37	[pos="190.67,342.29 195.42,318.73 203.68,277.75 208.44,254.17"];
	38	[height=0.5,
		pos="144.83,504.92",
		width=0.75];
	4 -- 38	[pos="181.85,378.09 173.75,405.83 158.17,459.22 150.05,487.05"];
	42	[height=0.5,
		pos="108.09,261.15",
		width=0.75];
	4 -- 42	[pos="174.34,344.42 159.7,326.02 135.75,295.91 121.01,277.38"];
	55	[height=0.5,
		pos="98.587,369.17",
		width=0.75];
	4 -- 55	[pos="160.01,363.05 149.04,364.15 136.39,365.41 125.44,366.5"];
	56	[height=0.5,
		pos="219.67,190.02",
		width=0.75];
	4 -- 56	[pos="190.46,342.46 196.73,309.74 209.97,240.67 216.24,207.94"];
	58	[height=0.5,
		pos="207.38,467.66",
		width=0.75];
	4 -- 58	[pos="190.48,378.56 194.24,398.41 200.23,429.98 203.98,449.72"];
	71	[height=0.5,
		pos="134.96,306.06",
		width=0.75];
	4 -- 71	[pos="172.24,344.95 165.15,337.55 156.67,328.71 149.59,321.33"];
	76	[height=0.5,
		pos="125.15,457.96",
		width=0.75];
	4 -- 76	[pos="176.25,377.36 164.89,395.28 147.11,423.31 135.8,441.15"];
	5	[height=0.5,
		pos="286.15,85.639",
		width=0.75];
	5 -- 22	[pos="307.5,96.934 313.8,100.27 320.71,103.92 327,107.26"];
	24	[height=0.5,
		pos="224.09,62.968",
		width=0.75];
	5 -- 24	[pos="262.33,76.938 257.68,75.24 252.81,73.458 248.15,71.757"];
	5 -- 37	[pos="277.65,102.9 263.44,131.76 235.01,189.52 220.71,218.56"];
	5 -- 51	[pos="306.65,73.875 325.69,62.955 353.89,46.776 373.02,35.802"];
	5 -- 56	[pos="275.47,102.41 263.06,121.89 242.72,153.83 230.33,173.29"];
	68	[height=0.5,
		pos="160.38,74.706",
		width=0.75];
	5 -- 68	[pos="259.17,83.293 237.95,81.449 208.53,78.891 187.32,77.047"];
	6	[height=0.5,
		pos="89.078,205.21",
		width=0.75];
	6 -- 25	[pos="86.622,223.32 83.582,245.73 78.434,283.68 75.383,306.17"];
	29	[height=0.5,
		pos="54.121,133.25",
		width=0.75];
	6 -- 29	[pos="80.616,187.79 75.12,176.48 67.986,161.79 62.505,150.51"];
	6 -- 35	[pos="116.33,206.82 153.12,208.99 218.3,212.84 255.03,215.01"];
	6 -- 55	[pos="90.132,223.38 91.96,254.9 95.697,319.34 97.528,350.92"];
	57	[height=0.5,
		pos="27,177.69",
		width=0.75];
	6 -- 57	[pos="66.315,195.12 60.917,192.73 55.158,190.17 49.76,187.78"];
	6 -- 66	[pos="112.9,213.83 148.34,226.65 214.6,250.62 250.16,263.49"];
	6 -- 68	[pos="98.4,188.15 112.07,163.14 137.39,116.79 151.06,91.771"];
	7	[height=0.5,
		pos="345.28,420.56",
		width=0.75];
	27	[height=0.5,
		pos="456.32,377.95",
		width=0.75];
	7 -- 27	[pos="368.83,411.52 387.67,404.29 413.97,394.2 432.8,386.97"];
	7 -- 28	[pos="318.1,421.09 289.06,421.65 243.28,422.54 214.26,423.11"];
	30	[height=0.5,
		pos="424.66,527.39",
		width=0.75];
	7 -- 30	[pos="357.34,436.78 372.26,456.86 397.52,490.86 412.5,511.01"];
	7 -- 31	[pos="349.43,402.31 353.53,384.25 359.78,356.77 363.84,338.87"];
	7 -- 39	[pos="367.69,431.11 383.3,438.46 404.03,448.22 419.61,455.55"];
	7 -- 40	[pos="337.11,403.36 330.34,389.12 320.77,368.98 314.01,354.74"];
	7 -- 58	[pos="320.95,428.87 295.74,437.48 256.59,450.85 231.48,459.43"];
	60	[height=0.5,
		pos="293.85,532.3",
		width=0.75];
	7 -- 60	[pos="337.25,438.02 327.59,459.01 311.47,494.03 301.83,514.96"];
	78	[height=0.5,
		pos="233.6,316.25",
		width=0.75];
	7 -- 78	[pos="329.28,405.62 308.05,385.79 270.79,350.98 249.57,331.17"];
	8	[height=0.5,
		pos="151.14,192.01",
		width=0.75];
	8 -- 24	[pos="160.67,175.14 174.66,150.41 200.57,104.58 214.55,79.843"];
	8 -- 29	[pos="131.04,179.84 114.39,169.75 90.84,155.49 74.197,145.41"];
	8 -- 42	[pos="140.72,208.75 134.05,219.46 125.42,233.31 118.72,244.09"];
	8 -- 57	[pos="124.51,188.94 103.7,186.54 74.915,183.22 54.015,180.81"];
	8 -- 62	[pos="177.46,187.24 202.06,182.77 238.58,176.14 263.14,171.68"];
	8 -- 71	[pos="148.57,210.08 145.54,231.44 140.53,266.75 137.51,288.07"];
	8 -- 78	[pos="162.09,208.51 177.86,232.27 206.81,275.88 222.61,299.68"];
	9	[height=0.5,
		pos="562.62,511.39",
		width=0.75];
	9 -- 30	[pos="535.69,514.51 511.38,517.33 475.81,521.45 451.52,524.27"];
	41	[height=0.5,
		pos="605.31,627.41",
		width=0.75];
	9 -- 41	[pos="569.1,529.01 577.13,550.81 590.71,587.74 598.77,609.62"];
	45	[height=0.5,
		pos="541.09,599.46",
		width=0.75];
	9 -- 45	[pos="558.26,529.21 554.53,544.49 549.18,566.39 545.44,581.66"];
	9 -- 46	[pos="588.82,516.47 599.47,518.53 611.73,520.91 622.36,522.97"];
	9 -- 54	[pos="565.4,493.35 568.75,471.66 574.33,435.49 577.67,413.86"];
	9 -- 63	[pos="586.13,501.96 593.07,499.17 600.67,496.12 607.61,493.34"];
	82	[height=0.5,
		pos="715.26,483.72",
		width=0.75];
	9 -- 82	[pos="588.86,506.63 616.9,501.55 661.1,493.53 689.11,488.46"];
	84	[height=0.5,
		pos="686.12,423.68",
		width=0.75];
	9 -- 84	[pos="581.11,498.25 604.39,481.72 644.16,453.47 667.51,436.9"];
	10	[height=0.5,
		pos="567.77,261.2",
		width=0.75];
	10 -- 27	[pos="553.2,276.46 531.84,298.84 492.25,340.3 470.89,362.68"];
	10 -- 32	[pos="547.27,249.28 524.27,235.91 487.18,214.34 464.17,200.96"];
	64	[height=0.5,
		pos="745.38,343.84",
		width=0.75];
	10 -- 64	[pos="590.26,271.66 624.42,287.56 689.01,317.62 723.07,333.46"];
	65	[height=0.5,
		pos="740.79,257.27",
		width=0.75];
	10 -- 65	[pos="594.8,260.58 627.21,259.85 681.21,258.62 713.66,257.88"];
	10 -- 72	[pos="573.54,243.35 583.07,213.88 601.98,155.38 611.49,125.99"];
	10 -- 75	[pos="541.8,255.63 518.76,250.7 485.27,243.52 462.24,238.59"];
	81	[height=0.5,
		pos="676.3,152.69",
		width=0.75];
	10 -- 81	[pos="582.86,246.11 603.47,225.5 640.25,188.73 660.98,168"];
	10 -- 84	[pos="579.77,277.67 602.45,308.81 651.38,375.98 674.09,407.16"];
	11	[height=0.5,
		pos="678.65,213.61",
		width=0.75];
	11 -- 23	[pos="678.65,231.7 678.65,263.64 678.67,329.67 678.67,361.59"];
	11 -- 34	[pos="654.12,205.91 634.5,199.74 607.11,191.14 587.5,184.98"];
	11 -- 36	[pos="675.4,195.59 670.23,166.88 660.17,111.07 654.99,82.317"];
	50	[height=0.5,
		pos="803.26,293.95",
		width=0.75];
	11 -- 50	[pos="698.12,226.16 721.39,241.17 760.12,266.13 783.51,281.22"];
	11 -- 59	[pos="670.02,230.78 658.24,254.23 637.23,296.07 625.39,319.65"];
	11 -- 65	[pos="697.29,226.71 705.16,232.23 714.29,238.65 722.16,244.18"];
	11 -- 73	[pos="683.15,195.76 688.03,176.4 695.77,145.69 700.66,126.31"];
	12	[height=0.5,
		pos="231.73,523.89",
		width=0.75];
	12 -- 18	[pos="233.94,505.87 237.28,478.64 243.59,427.3 246.95,399.9"];
	12 -- 38	[pos="205.66,518.2 194.56,515.78 181.65,512.96 170.59,510.54"];
	12 -- 60	[pos="258.43,527.51 261.33,527.9 264.27,528.3 267.17,528.69"];
	67	[height=0.5,
		pos="299.88,636.9",
		width=0.75];
	12 -- 67	[pos="242.08,541.06 254.96,562.42 276.83,598.68 289.65,619.94"];
	12 -- 76	[pos="211.68,511.49 192.63,499.7 164.13,482.07 145.1,470.3"];
	12 -- 80	[pos="240.54,506.78 249.76,488.85 264.18,460.85 273.43,442.88"];
	83	[height=0.5,
		pos="275.88,591.96",
		width=0.75];
	12 -- 83	[pos="242.64,540.72 249.49,551.27 258.27,564.82 265.09,575.33"];
	13	[height=0.5,
		pos="482.53,643.51",
		width=0.75];
	13 -- 26	[pos="489.51,626.11 495.66,610.76 504.58,588.51 510.76,573.08"];
	13 -- 41	[pos="509.18,640.02 529.77,637.32 558.14,633.6 578.72,630.9"];
	49	[height=0.5,
		pos="424.55,687.84",
		width=0.75];
	13 -- 49	[pos="464.5,657.3 457.46,662.68 449.39,668.85 442.37,674.22"];
	13 -- 67	[pos="455.19,642.52 420.66,641.27 361.59,639.13 327.11,637.88"];
	69	[height=0.5,
		pos="362.31,662.42",
		width=0.75];
	13 -- 69	[pos="456.15,647.66 436.1,650.81 408.66,655.13 388.63,658.28"];
	14	[height=0.5,
		pos="678.73,298.13",
		width=0.75];
	14 -- 19	[pos="671.91,315.8 661.37,343.13 641.24,395.31 630.75,422.5"];
	43	[height=0.5,
		pos="745.65,175.79",
		width=0.75];
	14 -- 43	[pos="688.04,281.12 700.75,257.88 723.43,216.42 736.21,193.05"];
	14 -- 50	[pos="705.75,297.22 726.64,296.52 755.41,295.55 776.29,294.85"];
	14 -- 64	[pos="697.65,311.11 706.58,317.23 717.22,324.53 726.18,330.68"];
	14 -- 70	[pos="651.9,300.9 609.14,305.32 526.01,313.9 483.19,318.32"];
	14 -- 82	[pos="682.3,316.26 689.3,351.83 704.76,430.37 711.73,465.78"];
	15	[height=0.5,
		pos="398.19,571.43",
		width=0.75];
	15 -- 44	[pos="416.99,558.42 432.02,548.01 453.01,533.48 468.04,523.08"];
	15 -- 45	[pos="424.4,576.57 450.19,581.63 489.32,589.31 515.05,594.35"];
	15 -- 49	[pos="402.25,589.36 407.19,611.17 415.48,647.79 420.44,669.69"];
	15 -- 69	[pos="391.27,588.97 384.92,605.08 375.55,628.83 369.21,644.93"];
	15 -- 74	[pos="403.37,553.7 411.76,524.94 428.25,468.45 436.63,439.71"];
	15 -- 79	[pos="395.02,553.31 391.58,533.67 386.12,502.5 382.67,482.82"];
	15 -- 83	[pos="371.96,575.83 351.32,579.3 322.7,584.1 302.08,587.57"];
	16	[height=0.5,
		pos="555.14,133.27",
		width=0.75];
	16 -- 43	[pos="580.83,139.01 617.19,147.12 683.29,161.87 719.76,170.01"];
	16 -- 47	[pos="549.99,115.26 543.79,93.607 533.46,57.485 527.28,35.885"];
	16 -- 48	[pos="555.08,151.35 554.98,184.38 554.76,254.1 554.66,287.13"];
	16 -- 61	[pos="560.38,115.33 565.71,97.062 573.93,68.908 579.25,50.696"];
	16 -- 77	[pos="528.23,134.82 502.37,136.31 463.5,138.55 437.53,140.05"];
	16 -- 81	[pos="581.43,137.49 601.61,140.72 629.37,145.17 649.64,148.42"];
}
