graph {
	graph [bb="0,0,623.93,657.91",
		outputorder=edgesfirst,
		overlap=prism,
		size="50,50!",
		start=3709
	];
	node [label="\N"];
	0	[height=0.5,
		pos="39.184,62.425",
		width=0.75];
	1	[height=0.5,
		pos="73.504,156.54",
		width=0.75];
	0 -- 1	[pos="45.639,80.129 51.775,96.955 60.951,122.12 67.078,138.92"];
	10	[height=0.5,
		pos="140.63,31.406",
		width=0.75];
	0 -- 10	[pos="63.742,54.916 79.575,50.075 100.09,43.802 115.95,38.953"];
	2	[height=0.5,
		pos="87.304,275.75",
		width=0.75];
	1 -- 2	[pos="75.6,174.65 78.194,197.06 82.586,234.99 85.189,257.48"];
	11	[height=0.5,
		pos="170.51,106.46",
		width=0.75];
	1 -- 11	[pos="95.033,145.43 111.11,137.13 132.98,125.84 149.04,117.54"];
	13	[height=0.5,
		pos="232.56,102.75",
		width=0.75];
	10 -- 13	[pos="158.36,45.162 174.64,57.796 198.63,76.418 214.89,89.038"];
	10 -- 11	[pos="147.56,48.813 152.35,60.851 158.71,76.811 163.51,88.886"];
	3	[height=0.5,
		pos="204.71,364.07",
		width=0.75];
	2 -- 3	[pos="105.39,289.36 127.52,306 164.75,334.01 186.79,350.59"];
	37	[height=0.5,
		pos="112.34,388.27",
		width=0.75];
	2 -- 37	[pos="91.272,293.58 95.933,314.53 103.62,349.08 108.31,370.15"];
	16	[height=0.5,
		pos="131.84,200.56",
		width=0.75];
	13 -- 16	[pos="217.26,117.61 198.33,135.99 166.28,167.12 147.28,185.56"];
	14	[height=0.5,
		pos="357.18,137.86",
		width=0.75];
	13 -- 14	[pos="257.48,109.77 279.21,115.9 310.58,124.74 332.3,130.86"];
	4	[height=0.5,
		pos="326.59,397.21",
		width=0.75];
	3 -- 4	[pos="229.96,370.93 250.88,376.62 280.46,384.66 301.37,390.35"];
	24	[height=0.5,
		pos="140.13,458.08",
		width=0.75];
	3 -- 24	[pos="193.46,380.44 181.68,397.59 163.28,424.38 151.47,441.57"];
	20	[height=0.5,
		pos="27,319.84",
		width=0.75];
	16 -- 20	[pos="118.13,216.15 98.042,239.01 60.804,281.38 40.709,304.24"];
	17	[height=0.5,
		pos="215.49,212.2",
		width=0.75];
	16 -- 17	[pos="158.31,204.24 168.07,205.6 179.13,207.14 188.91,208.5"];
	5	[height=0.5,
		pos="456.43,419.13",
		width=0.75];
	4 -- 5	[pos="352.87,401.64 375.39,405.45 407.68,410.9 430.2,414.7"];
	31	[height=0.5,
		pos="358.83,469.82",
		width=0.75];
	4 -- 31	[pos="334.4,414.78 339.46,426.2 346.05,441.02 351.1,452.4"];
	23	[height=0.5,
		pos="55.356,468.03",
		width=0.75];
	20 -- 23	[pos="30.42,337.71 35.871,366.19 46.466,421.57 51.924,450.09"];
	21	[height=0.5,
		pos="149.36,304.46",
		width=0.75];
	20 -- 21	[pos="53.549,316.5 73.932,313.94 101.96,310.42 122.44,307.85"];
	6	[height=0.5,
		pos="503.26,299.3",
		width=0.75];
	5 -- 6	[pos="463.24,401.71 472.12,378.99 487.56,339.48 496.44,316.75"];
	40	[height=0.5,
		pos="490.93,510.75",
		width=0.75];
	5 -- 40	[pos="463.08,436.8 469.19,453.02 478.19,476.94 484.3,493.14"];
	26	[height=0.5,
		pos="122.85,589.26",
		width=0.75];
	23 -- 26	[pos="64.883,485.14 77.746,508.24 100.53,549.17 113.37,572.23"];
	23 -- 24	[pos="82.18,464.88 92.173,463.71 103.51,462.38 113.48,461.2"];
	7	[height=0.5,
		pos="533.76,199.89",
		width=0.75];
	6 -- 7	[pos="508.71,281.53 514.23,263.55 522.72,235.89 528.25,217.85"];
	32	[height=0.5,
		pos="452.79,375.1",
		width=0.75];
	6 -- 32	[pos="492.06,316.12 483.64,328.77 472.16,346.01 463.79,358.58"];
	28	[height=0.5,
		pos="246.58,639.91",
		width=0.75];
	26 -- 28	[pos="146.12,598.78 168.24,607.84 201.32,621.38 223.41,630.42"];
	27	[height=0.5,
		pos="212.05,569.52",
		width=0.75];
	26 -- 27	[pos="148.65,583.55 160.48,580.93 174.48,577.84 186.31,575.22"];
	8	[height=0.5,
		pos="458.19,111.62",
		width=0.75];
	7 -- 8	[pos="520.25,184.11 506.49,168.04 485.3,143.28 471.58,127.26"];
	42	[height=0.5,
		pos="596.93,289.76",
		width=0.75];
	7 -- 42	[pos="545.35,216.38 556.75,232.59 574.05,257.2 585.42,273.38"];
	30	[height=0.5,
		pos="274.1,556.32",
		width=0.75];
	28 -- 30	[pos="252.41,622.18 257.08,608 263.6,588.2 268.27,574.02"];
	29	[height=0.5,
		pos="349.07,592.79",
		width=0.75];
	28 -- 29	[pos="268.81,629.69 285.89,621.84 309.37,611.04 326.52,603.16"];
	9	[height=0.5,
		pos="402.62,18",
		width=0.75];
	8 -- 9	[pos="448,94.445 437.91,77.448 422.56,51.595 412.56,34.747"];
	8 -- 14	[pos="432.96,118.17 417.53,122.18 397.87,127.29 382.44,131.3"];
	35	[height=0.5,
		pos="127.45,523.21",
		width=0.75];
	30 -- 35	[pos="248.22,550.48 221.41,544.42 179.78,535.02 153.07,528.99"];
	30 -- 31	[pos="289.25,540.86 304.67,525.11 328.44,500.85 343.82,485.15"];
	12	[height=0.5,
		pos="279.56,24.106",
		width=0.75];
	9 -- 12	[pos="375.61,19.34 355.1,20.358 327.01,21.752 306.5,22.769"];
	36	[height=0.5,
		pos="50.337,407.62",
		width=0.75];
	35 -- 36	[pos="116.4,506.65 101.74,484.67 76.013,446.11 61.365,424.15"];
	11 -- 17	[pos="177.94,123.92 186.27,143.51 199.71,175.11 208.05,194.71"];
	11 -- 12	[pos="188.52,92.86 208.72,77.601 241.31,52.992 261.53,37.725"];
	17 -- 21	[pos="203.67,228.7 191.63,245.49 173.08,271.37 161.08,288.11"];
	18	[height=0.5,
		pos="346.84,240.7",
		width=0.75];
	17 -- 18	[pos="241.44,217.83 264.47,222.83 297.93,230.09 320.94,235.08"];
	21 -- 36	[pos="134.75,319.68 116.02,339.19 83.758,372.8 65.008,392.33"];
	22	[height=0.5,
		pos="216.87,313.36",
		width=0.75];
	21 -- 22	[pos="176.04,307.98 180.76,308.6 185.67,309.25 190.38,309.87"];
	15	[height=0.5,
		pos="317.59,90.986",
		width=0.75];
	12 -- 15	[pos="289.16,40.983 294.88,51.044 302.12,63.781 307.86,73.882"];
	36 -- 37	[pos="74.844,399.97 79.041,398.66 83.405,397.3 87.609,395.99"];
	14 -- 15	[pos="343.78,121.99 339.65,117.11 335.11,111.73 330.98,106.84"];
	14 -- 18	[pos="355.33,156.25 353.45,174.97 350.55,203.82 348.67,222.48"];
	19	[height=0.5,
		pos="284.78,212.25",
		width=0.75];
	15 -- 19	[pos="312.75,108.88 306.55,131.8 295.86,171.32 289.64,194.28"];
	38	[height=0.5,
		pos="220.51,485.57",
		width=0.75];
	37 -- 38	[pos="128.77,403.05 149.22,421.44 183.93,452.66 204.28,470.97"];
	24 -- 38	[pos="164.25,466.32 174.42,469.8 186.24,473.84 196.41,477.32"];
	25	[height=0.5,
		pos="203.48,440.3",
		width=0.75];
	24 -- 25	[pos="165.17,451.05 169.46,449.85 173.91,448.6 178.21,447.39"];
	18 -- 19	[pos="324.43,230.43 318.88,227.88 312.93,225.15 307.36,222.6"];
	33	[height=0.5,
		pos="419.31,326.82",
		width=0.75];
	18 -- 33	[pos="360.13,256.5 373.12,271.94 392.81,295.33 405.86,310.84"];
	19 -- 22	[pos="273.57,228.94 260.99,247.68 240.69,277.89 228.11,296.64"];
	39	[height=0.5,
		pos="357.29,533.62",
		width=0.75];
	38 -- 39	[pos="244.65,494.05 269.65,502.83 308.48,516.47 333.39,525.23"];
	31 -- 39	[pos="358.4,487.93 358.19,496.48 357.94,506.66 357.74,515.24"];
	31 -- 32	[pos="373.93,454.6 391.46,436.93 420.22,407.94 437.74,390.28"];
	22 -- 25	[pos="214.96,331.55 212.41,355.68 207.94,398.03 205.39,422.15"];
	39 -- 40	[pos="383.69,529.1 407.12,525.1 441.17,519.27 464.58,515.26"];
	25 -- 27	[pos="204.69,458.54 206.32,483.17 209.21,526.8 210.84,551.38"];
	41	[height=0.5,
		pos="558.29,411.13",
		width=0.75];
	40 -- 41	[pos="502.05,494.3 514.53,475.84 534.66,446.07 547.15,427.61"];
	32 -- 41	[pos="477,383.36 494.15,389.22 517.07,397.05 534.2,402.9"];
	32 -- 33	[pos="441.46,358.75 438.04,353.83 434.29,348.42 430.86,343.48"];
	27 -- 29	[pos="238.47,574.01 262.73,578.13 298.49,584.2 322.73,588.32"];
	41 -- 42	[pos="563.91,393.48 571.23,370.47 583.98,330.45 591.3,307.43"];
	34	[height=0.5,
		pos="428.87,480.56",
		width=0.75];
	29 -- 34	[pos="360.84,576.23 375.93,555.01 401.94,518.44 417.05,497.19"];
	43	[height=0.5,
		pos="549.8,344.79",
		width=0.75];
	42 -- 43	[pos="583.3,305.68 576.99,313.04 569.52,321.76 563.24,329.1"];
	33 -- 34	[pos="420.45,345.06 422.29,374.65 425.9,432.77 427.74,462.35"];
	33 -- 43	[pos="446.03,330.5 468.55,333.6 500.61,338.02 523.12,341.12"];
	44	[height=0.5,
		pos="567.39,479.98",
		width=0.75];
	34 -- 44	[pos="455.91,480.45 480.16,480.35 515.57,480.2 539.95,480.09"];
	43 -- 44	[pos="552.14,362.74 555.5,388.6 561.67,436.06 565.04,461.95"];
}
