graph {
	graph [bb="0,0,1573.5,1295",
		outputorder=edgesfirst,
		overlap=prism,
		size="50,50!",
		start=1462
	];
	node [label="\N"];
	0	[height=0.5,
		pos="915.17,661.33",
		width=0.75];
	42	[height=0.5,
		pos="692.83,718.23",
		width=0.75];
	0 -- 42	[pos="889.66,667.86 846.77,678.83 760.72,700.85 718.03,711.78"];
	1	[height=0.5,
		pos="652.12,762.23",
		width=0.75];
	0 -- 1	[pos="891.36,670.46 841.28,689.67 725.55,734.07 675.68,753.19"];
	2	[height=0.5,
		pos="791.08,481.29",
		width=0.75];
	0 -- 2	[pos="903.72,644.71 880.08,610.42 826.12,532.13 802.51,497.87"];
	153	[height=0.5,
		pos="905.22,529.28",
		width=0.75];
	0 -- 153	[pos="913.81,643.24 911.91,618.1 908.5,572.82 906.6,547.57"];
	3	[height=0.5,
		pos="774.98,809.55",
		width=0.75];
	0 -- 3	[pos="900.69,676.63 873.83,705.03 816.55,765.6 789.58,794.11"];
	6	[height=0.5,
		pos="816.36,765.53",
		width=0.75];
	0 -- 6	[pos="900.59,676.7 881.91,696.4 849.71,730.36 831,750.09"];
	4	[height=0.5,
		pos="986.35,509.45",
		width=0.75];
	0 -- 4	[pos="923.33,643.91 937.06,614.61 964.61,555.83 978.28,526.67"];
	5	[height=0.5,
		pos="615.45,614.35",
		width=0.75];
	0 -- 5	[pos="888.83,657.2 832.12,648.31 698.99,627.44 642.05,618.52"];
	7	[height=0.5,
		pos="641.99,536.73",
		width=0.75];
	0 -- 7	[pos="892.81,651.13 841.59,627.77 716.18,570.57 664.65,547.07"];
	201	[height=0.5,
		pos="1024,726.98",
		width=0.75];
	0 -- 201	[pos="935.38,673.52 954.93,685.32 984.38,703.08 1003.9,714.85"];
	12	[height=0.5,
		pos="1078.2,866.18",
		width=0.75];
	0 -- 12	[pos="927.96,677.4 958.43,715.7 1035,811.96 1065.4,850.18"];
	19	[height=0.5,
		pos="504.14,637.95",
		width=0.75];
	0 -- 19	[pos="888.2,659.79 813.73,655.56 605.81,643.73 531.21,639.49"];
	229	[height=0.5,
		pos="678.1,625.29",
		width=0.75];
	0 -- 229	[pos="888.43,657.26 842.78,650.32 750.32,636.27 704.73,629.34"];
	11	[height=0.5,
		pos="1025.2,910.33",
		width=0.75];
	0 -- 11	[pos="922.9,678.84 943.1,724.56 997.26,847.14 1017.4,892.84"];
	113	[height=0.5,
		pos="1016.1,837.4",
		width=0.75];
	0 -- 113	[pos="924.85,678.21 944.14,711.86 987.2,786.95 1006.5,820.57"];
	255	[height=0.5,
		pos="744.64,574.39",
		width=0.75];
	0 -- 255	[pos="893.57,650.32 860.86,633.64 799.1,602.16 766.33,585.45"];
	138	[height=0.5,
		pos="1148.2,737.39",
		width=0.75];
	0 -- 138	[pos="939.66,669.32 984.41,683.93 1078.9,714.77 1123.6,729.38"];
	13	[height=0.5,
		pos="1057.6,491.14",
		width=0.75];
	0 -- 13	[pos="928.57,645.32 955.71,612.88 1016.9,539.74 1044.1,507.23"];
	120	[height=0.5,
		pos="977.81,465.35",
		width=0.75];
	0 -- 120	[pos="920.84,643.59 932.74,606.37 960.19,520.49 972.11,483.18"];
	152	[height=0.5,
		pos="933.25,705.35",
		width=0.75];
	0 -- 152	[pos="922.31,678.73 923.54,681.71 924.81,684.8 926.04,687.79"];
	17	[height=0.5,
		pos="1137.2,627.12",
		width=0.75];
	0 -- 17	[pos="941.51,657.27 984.25,650.69 1068.2,637.75 1110.9,631.17"];
	144	[height=0.5,
		pos="682.58,580.81",
		width=0.75];
	0 -- 144	[pos="891.15,653.01 846.58,637.58 751.54,604.68 706.81,589.2"];
	39	[height=0.5,
		pos="819.09,880.98",
		width=0.75];
	0 -- 39	[pos="907.47,678.93 889.43,720.16 844.63,822.58 826.69,863.59"];
	29	[height=0.5,
		pos="934.3,793.4",
		width=0.75];
	0 -- 29	[pos="917.79,679.42 921.43,704.57 927.99,749.85 931.65,775.11"];
	31	[height=0.5,
		pos="1058.6,771.01",
		width=0.75];
	0 -- 31	[pos="933.04,675 960.52,696.02 1012.9,736.05 1040.5,757.17"];
	32	[height=0.5,
		pos="831.84,680.51",
		width=0.75];
	0 -- 32	[pos="889.26,667.29 879.13,669.62 867.55,672.29 857.45,674.61"];
	54	[height=0.5,
		pos="925.2,617.32",
		width=0.75];
	0 -- 54	[pos="919.25,643.43 919.86,640.76 920.48,638.02 921.09,635.35"];
	36	[height=0.5,
		pos="730.96,763.93",
		width=0.75];
	0 -- 36	[pos="894.4,672.9 859.02,692.6 787.46,732.46 751.94,752.24"];
	38	[height=0.5,
		pos="1112.1,574.71",
		width=0.75];
	0 -- 38	[pos="937.76,651.39 975.65,634.73 1051.6,601.34 1089.5,584.66"];
	155	[height=0.5,
		pos="1086.1,709.18",
		width=0.75];
	0 -- 155	[pos="940.39,668.39 972.8,677.46 1028.7,693.12 1061,702.17"];
	237	[height=0.5,
		pos="853.3,463.42",
		width=0.75];
	0 -- 237	[pos="909.57,643.42 897.79,605.74 870.57,518.67 858.84,481.15"];
	283	[height=0.5,
		pos="996.57,793.39",
		width=0.75];
	0 -- 283	[pos="925.48,678.05 941.05,703.32 970.41,750.95 986.09,776.38"];
	146	[height=0.5,
		pos="889.88,749.39",
		width=0.75];
	0 -- 146	[pos="910.05,679.15 905.66,694.43 899.37,716.32 894.99,731.59"];
	49	[height=0.5,
		pos="1142.5,783.29",
		width=0.75];
	0 -- 49	[pos="936.56,672.8 980,696.11 1078.1,748.73 1121.4,771.93"];
	106	[height=0.5,
		pos="1043,588.98",
		width=0.75];
	0 -- 106	[pos="935.99,649.54 959.76,636.09 998.42,614.21 1022.2,600.76"];
	140	[height=0.5,
		pos="956.01,749.38",
		width=0.75];
	0 -- 140	[pos="923.24,678.72 930.4,694.16 940.8,716.59 947.96,732.02"];
	86	[height=0.5,
		pos="868.67,573.29",
		width=0.75];
	0 -- 86	[pos="905.98,643.94 897.78,628.4 885.83,605.78 877.68,590.35"];
	242	[height=0.5,
		pos="1080.5,815.03",
		width=0.75];
	0 -- 242	[pos="931.02,676.07 962.54,705.37 1032.8,770.66 1064.4,800.11"];
	95	[height=0.5,
		pos="1202.9,689.8",
		width=0.75];
	0 -- 95	[pos="941.98,663.98 996.81,669.41 1121.2,681.72 1176.1,687.15"];
	104	[height=0.5,
		pos="802.38,526.1",
		width=0.75];
	0 -- 104	[pos="902.01,645.55 880.39,619.63 837.59,568.32 815.81,542.2"];
	193	[height=0.5,
		pos="740.4,629.93",
		width=0.75];
	0 -- 193	[pos="889,656.63 856.06,650.71 799.77,640.6 766.74,634.67"];
	262	[height=0.5,
		pos="915.79,485.24",
		width=0.75];
	0 -- 262	[pos="915.23,643.15 915.35,609.32 915.61,537.08 915.73,503.32"];
	161	[height=0.5,
		pos="1050.1,651.23",
		width=0.75];
	0 -- 161	[pos="942.15,659.31 965.68,657.55 999.64,655 1023.2,653.24"];
	176	[height=0.5,
		pos="872.24,836.97",
		width=0.75];
	0 -- 176	[pos="910.82,679.14 902.59,712.8 884.84,785.41 876.61,819.11"];
	42 -- 146	[pos="719.4,722.43 757.12,728.39 825.75,739.25 863.41,745.2"];
	42 -- 86	[pos="710.01,704.07 743.71,676.29 818.13,614.95 851.68,587.3"];
	158	[height=0.5,
		pos="331.87,811.5",
		width=0.75];
	42 -- 158	[pos="667.44,724.79 601.17,741.91 423.47,787.83 357.22,804.95"];
	195	[height=0.5,
		pos="281.35,855.55",
		width=0.75];
	42 -- 195	[pos="668.62,726.31 595.67,750.65 378.44,823.15 305.52,847.49"];
	1 -- 42	[pos="666.36,746.84 670.3,742.58 674.58,737.95 678.53,733.68"];
	10	[height=0.5,
		pos="650.78,806.25",
		width=0.75];
	1 -- 10	[pos="651.57,780.39 651.49,782.95 651.41,785.58 651.33,788.13"];
	1 -- 3	[pos="675.52,771.25 697.24,779.61 729.42,792 751.25,800.41"];
	1 -- 6	[pos="679.24,762.78 709.67,763.39 758.75,764.37 789.2,764.98"];
	1 -- 5	[pos="647.7,744.4 640.65,715.97 626.95,660.71 619.89,632.25"];
	167	[height=0.5,
		pos="670.77,885.88",
		width=0.75];
	1 -- 167	[pos="654.83,780.21 658.37,803.66 664.52,844.43 668.05,867.88"];
	1 -- 229	[pos="655.51,744.33 660.49,718.08 669.72,669.44 674.7,643.19"];
	37	[height=0.5,
		pos="588.68,738.6",
		width=0.75];
	1 -- 37	[pos="628.5,753.43 623.28,751.49 617.76,749.43 612.54,747.49"];
	1 -- 255	[pos="660.66,744.9 678.28,709.12 718.51,627.44 736.12,591.69"];
	23	[height=0.5,
		pos="398.9,869.89",
		width=0.75];
	1 -- 23	[pos="629.2,771.98 581.11,792.42 470.15,839.6 421.95,860.09"];
	269	[height=0.5,
		pos="314.45,943.6",
		width=0.75];
	1 -- 269	[pos="631,773.58 570.35,806.15 396.2,899.69 335.56,932.26"];
	137	[height=0.5,
		pos="464.55,796.97",
		width=0.75];
	1 -- 137	[pos="626.04,767.06 590.3,773.68 526.49,785.5 490.71,792.12"];
	1 -- 32	[pos="674.52,752.05 709.05,736.34 774.91,706.4 809.44,690.69"];
	1 -- 146	[pos="679.39,760.76 725.26,758.28 817.27,753.31 862.92,750.84"];
	1 -- 86	[pos="668.75,747.72 709.16,712.47 812.12,622.64 852.28,587.6"];
	1 -- 158	[pos="625.64,766.31 565.4,775.57 418.65,798.15 358.38,807.42"];
	1 -- 195	[pos="626.63,768.65 558.9,785.7 374.95,832 307.01,849.09"];
	233	[height=0.5,
		pos="588.67,802.57",
		width=0.75];
	1 -- 233	[pos="632.39,774.78 624.82,779.59 616.19,785.08 608.6,789.9"];
	10 -- 37	[pos="636.38,790.56 626.34,779.63 613.02,765.11 603.01,754.2"];
	10 -- 255	[pos="657.83,788.82 675.23,745.85 720.02,635.2 737.5,592.02"];
	2 -- 153	[pos="814.18,491 833.98,499.33 862.37,511.26 882.16,519.58"];
	2 -- 3	[pos="790.19,499.41 787.38,556.8 778.67,734.18 775.86,791.49"];
	66	[height=0.5,
		pos="926.86,342.51",
		width=0.75];
	2 -- 66	[pos="805.87,466.17 831.99,439.48 885.98,384.29 912.09,357.6"];
	2 -- 4	[pos="817.82,485.15 855.22,490.54 922.71,500.27 959.93,505.64"];
	79	[height=0.5,
		pos="728.77,486.36",
		width=0.75];
	2 -- 79	[pos="763.93,483.5 761.18,483.73 758.38,483.95 755.63,484.18"];
	2 -- 7	[pos="767.46,490.07 739.7,500.39 693.91,517.42 666,527.8"];
	198	[height=0.5,
		pos="1026.2,332.48",
		width=0.75];
	2 -- 198	[pos="810.73,468.86 854.99,440.85 962.11,373.06 1006.5,344.98"];
	9	[height=0.5,
		pos="659.41,346.97",
		width=0.75];
	2 -- 9	[pos="776.23,466.14 750.95,440.35 699.8,388.17 674.41,362.27"];
	157	[height=0.5,
		pos="773.63,437.24",
		width=0.75];
	2 -- 157	[pos="784.18,463.88 783,460.9 781.77,457.8 780.59,454.81"];
	2 -- 13	[pos="818.1,482.29 869.18,484.18 979.35,488.25 1030.5,490.14"];
	15	[height=0.5,
		pos="1024.5,421.34",
		width=0.75];
	2 -- 15	[pos="816.51,474.76 861.41,463.23 954.23,439.39 999.11,427.86"];
	2 -- 120	[pos="818.23,478.97 853.74,475.94 915.56,470.66 950.93,467.64"];
	20	[height=0.5,
		pos="629.18,692.84",
		width=0.75];
	2 -- 20	[pos="778.65,497.54 748.51,536.92 671.84,637.1 641.66,676.53"];
	57	[height=0.5,
		pos="744.6,674.09",
		width=0.75];
	2 -- 57	[pos="786.79,499.08 777.96,535.72 757.83,619.22 748.94,656.06"];
	71	[height=0.5,
		pos="689.7,398.33",
		width=0.75];
	2 -- 71	[pos="773.88,467.22 755.24,451.96 725.66,427.76 706.98,412.47"];
	46	[height=0.5,
		pos="747.79,254.37",
		width=0.75];
	2 -- 46	[pos="787.61,463.1 779.49,420.51 759.3,314.69 751.21,272.33"];
	27	[height=0.5,
		pos="736.37,530.37",
		width=0.75];
	2 -- 27	[pos="774.96,495.75 767.9,502.08 759.63,509.5 752.57,515.84"];
	33	[height=0.5,
		pos="604.42,480.57",
		width=0.75];
	2 -- 33	[pos="763.94,481.19 728.55,481.05 667,480.81 631.6,480.68"];
	2 -- 237	[pos="816.03,474.12 820.09,472.96 824.29,471.75 828.34,470.59"];
	53	[height=0.5,
		pos="709.25,442.34",
		width=0.75];
	2 -- 53	[pos="768.72,470.65 757.08,465.1 742.9,458.35 731.3,452.83"];
	210	[height=0.5,
		pos="815.17,628.81",
		width=0.75];
	2 -- 210	[pos="794.04,499.38 798.66,527.69 807.55,582.17 812.19,610.57"];
	126	[height=0.5,
		pos="806.65,584.41",
		width=0.75];
	2 -- 126	[pos="793.79,499.25 796.63,518.06 801.07,547.44 803.91,566.31"];
	72	[height=0.5,
		pos="1086.5,397.51",
		width=0.75];
	2 -- 72	[pos="816.02,474.22 871.66,458.44 1005.5,420.49 1061.3,404.65"];
	88	[height=0.5,
		pos="579.99,554.63",
		width=0.75];
	2 -- 88	[pos="766.87,489.7 726.26,503.81 644.88,532.08 604.25,546.2"];
	217	[height=0.5,
		pos="835.63,399.64",
		width=0.75];
	2 -- 217	[pos="800.31,464.37 807.91,450.45 818.63,430.81 826.26,416.82"];
	2 -- 262	[pos="818.14,482.15 839.06,482.81 867.88,483.72 888.79,484.39"];
	177	[height=0.5,
		pos="897.68,386.55",
		width=0.75];
	2 -- 177	[pos="807.74,466.49 827.77,448.69 861.17,419 881.14,401.25"];
	197	[height=0.5,
		pos="666.43,492.67",
		width=0.75];
	2 -- 197	[pos="764.03,483.76 743.13,485.67 714.32,488.3 693.42,490.21"];
	215	[height=0.5,
		pos="884.29,298.48",
		width=0.75];
	2 -- 215	[pos="799.85,464.09 817.62,429.25 857.68,350.68 875.48,315.77"];
	273	[height=0.5,
		pos="822.25,302.82",
		width=0.75];
	2 -- 273	[pos="794.24,463.2 800.22,428.99 813.1,355.21 819.08,320.96"];
	153 -- 262	[pos="909.52,511.37 910.16,508.7 910.82,505.95 911.46,503.28"];
	3 -- 10	[pos="747.72,808.82 727.01,808.27 698.66,807.52 677.97,806.97"];
	47	[height=0.5,
		pos="522.95,916.7",
		width=0.75];
	3 -- 47	[pos="752.17,819.25 704.3,839.6 593.86,886.55 545.89,906.95"];
	3 -- 6	[pos="789.45,794.15 793.46,789.89 797.81,785.26 801.83,780.99"];
	3 -- 5	[pos="761.92,793.57 731.93,756.88 658.41,666.91 628.46,630.27"];
	204	[height=0.5,
		pos="526.58,772.77",
		width=0.75];
	3 -- 204	[pos="748.39,805.61 700.58,798.53 600.64,783.74 552.97,776.68"];
	3 -- 12	[pos="801.09,814.43 858.4,825.13 994.65,850.58 1052,861.29"];
	3 -- 167	[pos="756.35,823.2 737.38,837.09 708.15,858.5 689.24,872.35"];
	3 -- 37	[pos="751.38,800.56 715.65,786.95 648.18,761.26 612.38,747.63"];
	3 -- 11	[pos="798.51,819.03 846.32,838.29 954.28,881.77 1001.9,900.95"];
	35	[height=0.5,
		pos="732.86,888.59",
		width=0.75];
	3 -- 35	[pos="765.84,826.7 758.78,839.96 749.04,858.22 741.98,871.47"];
	151	[height=0.5,
		pos="929,968.16",
		width=0.75];
	3 -- 151	[pos="789.75,824.76 819.11,855 884.54,922.38 914.05,952.77"];
	21	[height=0.5,
		pos="795.18,1025.4",
		width=0.75];
	3 -- 21	[pos="776.66,827.58 780.47,868.21 789.67,966.53 793.48,1007.3"];
	16	[height=0.5,
		pos="871.2,1025.4",
		width=0.75];
	3 -- 16	[pos="782.69,826.85 800.7,867.26 845.4,967.5 863.45,1008"];
	3 -- 20	[pos="757.68,795.7 729.77,773.36 675.1,729.59 646.91,707.03"];
	3 -- 57	[pos="770.94,791.56 765.13,765.65 754.47,718.1 748.65,692.15"];
	123	[height=0.5,
		pos="963.16,923.87",
		width=0.75];
	3 -- 123	[pos="795.12,821.78 831.33,843.79 907.05,889.78 943.16,911.72"];
	40	[height=0.5,
		pos="761.29,969",
		width=0.75];
	3 -- 40	[pos="773.43,827.53 770.8,858.15 765.49,920.09 762.85,950.84"];
	84	[height=0.5,
		pos="699.28,982.43",
		width=0.75];
	3 -- 84	[pos="767.3,827.08 752.76,860.3 721.34,932.06 706.87,965.12"];
	111	[height=0.5,
		pos="866.93,937",
		width=0.75];
	3 -- 111	[pos="786.81,825.95 804.46,850.42 837.51,896.23 855.14,920.66"];
	3 -- 27	[pos="772.44,791.23 765.43,740.52 745.83,598.74 738.86,548.39"];
	98	[height=0.5,
		pos="566.18,659.09",
		width=0.75];
	3 -- 98	[pos="756.45,796.2 716.82,767.64 624.25,700.94 584.67,672.41"];
	3 -- 29	[pos="802,806.81 831.39,803.83 878.07,799.1 907.4,796.13"];
	68	[height=0.5,
		pos="545.78,870.26",
		width=0.75];
	3 -- 68	[pos="749.57,816.28 705.4,827.98 614.96,851.93 570.95,863.59"];
	3 -- 36	[pos="760.32,794.36 755.62,789.48 750.41,784.09 745.7,779.21"];
	78	[height=0.5,
		pos="513.2,1006.4",
		width=0.75];
	3 -- 78	[pos="756.98,823.08 709.16,859.05 579.29,956.72 531.32,992.79"];
	3 -- 283	[pos="802.15,807.57 844.79,804.46 926.95,798.47 969.52,795.36"];
	170	[height=0.5,
		pos="680.59,937.22",
		width=0.75];
	3 -- 170	[pos="763.02,825.72 744.97,850.14 710.92,896.2 692.75,920.78"];
	45	[height=0.5,
		pos="526.62,821.25",
		width=0.75];
	3 -- 45	[pos="747.92,810.82 700.15,813.07 601.38,817.73 553.63,819.98"];
	166	[height=0.5,
		pos="584.99,926.23",
		width=0.75];
	3 -- 166	[pos="755,821.82 718.51,844.23 641.48,891.54 604.98,913.95"];
	80	[height=0.5,
		pos="823.33,981.36",
		width=0.75];
	3 -- 80	[pos="779.97,827.29 789.23,860.21 808.99,930.42 818.29,963.46"];
	3 -- 210	[pos="778.98,791.56 786.68,756.91 803.49,681.31 811.18,646.72"];
	59	[height=0.5,
		pos="712.86,838.7",
		width=0.75];
	3 -- 59	[pos="752.55,820.07 746.85,822.75 740.73,825.62 735.05,828.29"];
	69	[height=0.5,
		pos="607.9,850.36",
		width=0.75];
	3 -- 69	[pos="749.6,815.75 718.2,823.42 665.03,836.41 633.52,844.1"];
	65	[height=0.5,
		pos="438.81,943.1",
		width=0.75];
	3 -- 65	[pos="751.61,818.83 689.96,843.32 523.5,909.46 462.03,933.88"];
	3 -- 126	[pos="777.51,791.51 783.44,749.35 798.15,644.78 804.1,602.54"];
	116	[height=0.5,
		pos="575.23,1025.7",
		width=0.75];
	3 -- 116	[pos="760.61,825.09 723.76,864.97 626.18,970.54 589.47,1010.3"];
	188	[height=0.5,
		pos="794.93,924.99",
		width=0.75];
	3 -- 188	[pos="778.09,827.59 781.84,849.27 788.09,885.45 791.83,907.08"];
	134	[height=0.5,
		pos="637.27,1014.3",
		width=0.75];
	3 -- 134	[pos="763.71,826.3 737.82,864.8 674.35,959.17 648.5,997.6"];
	125	[height=0.5,
		pos="953.65,879.84",
		width=0.75];
	3 -- 125	[pos="798.33,818.74 832.58,832.21 896.04,857.18 930.28,870.65"];
	294	[height=0.5,
		pos="460.91,893.52",
		width=0.75];
	3 -- 294	[pos="749.81,816.28 691,832 545.12,871.01 486.2,886.76"];
	3 -- 233	[pos="747.89,808.53 712.56,807.21 651.13,804.91 615.79,803.59"];
	3 -- 176	[pos="800.03,816.61 814.55,820.7 832.77,825.84 847.28,829.93"];
	200	[height=0.5,
		pos="451.17,990.94",
		width=0.75];
	3 -- 200	[pos="754.23,821.17 695.88,853.86 530.81,946.33 472.16,979.18"];
	275	[height=0.5,
		pos="606.57,970.26",
		width=0.75];
	3 -- 275	[pos="759.43,824.38 727.35,855 654.12,924.88 622.07,955.47"];
	169	[height=0.5,
		pos="376.7,951.54",
		width=0.75];
	47 -- 169	[pos="497.47,922.77 470.79,929.12 429.13,939.05 402.37,945.42"];
	149	[height=0.5,
		pos="244.99,953.48",
		width=0.75];
	47 -- 149	[pos="496.3,920.23 443.17,927.26 324.63,942.94 271.56,949.97"];
	241	[height=0.5,
		pos="171.19,919.96",
		width=0.75];
	47 -- 241	[pos="495.93,916.95 430.45,917.56 263.87,919.1 198.3,919.71"];
	47 -- 200	[pos="508.08,932.08 495.76,944.82 478.34,962.84 466.02,975.58"];
	47 -- 275	[pos="542.76,929.39 556.09,937.93 573.59,949.14 586.89,957.66"];
	131	[height=0.5,
		pos="721.47,328.4",
		width=0.75];
	66 -- 131	[pos="899.58,340.63 860.19,337.93 787.8,332.96 748.53,330.26"];
	247	[height=0.5,
		pos="1051.4,114.73",
		width=0.75];
	66 -- 247	[pos="936.21,325.39 959.35,283.07 1019,173.93 1042.1,131.74"];
	66 -- 126	[pos="918.21,359.9 896.03,404.54 837.31,522.71 815.21,567.17"];
	100	[height=0.5,
		pos="882.33,254.46",
		width=0.75];
	66 -- 100	[pos="918.06,325.11 910.2,309.57 898.76,286.95 890.95,271.52"];
	133	[height=0.5,
		pos="946.36,290.83",
		width=0.75];
	66 -- 133	[pos="933.46,325.01 935.49,319.62 937.73,313.69 939.76,308.31"];
	299	[height=0.5,
		pos="990.55,70.722",
		width=0.75];
	66 -- 299	[pos="931.04,324.67 942.58,275.43 974.8,137.94 986.35,88.62"];
	297	[height=0.5,
		pos="1112,323.87",
		width=0.75];
	66 -- 297	[pos="953.78,339.8 988.89,336.26 1050,330.11 1085.1,326.58"];
	6 -- 167	[pos="799.37,779.57 771.47,802.64 716.22,848.31 688.1,871.56"];
	6 -- 35	[pos="805.1,782.12 789.16,805.61 760.2,848.3 744.21,871.86"];
	6 -- 137	[pos="789.34,767.94 723.85,773.79 557.24,788.68 491.66,794.54"];
	6 -- 29	[pos="841.95,771.57 861.73,776.25 888.99,782.69 908.76,787.36"];
	6 -- 32	[pos="819.64,747.49 822.27,733.07 825.94,712.93 828.56,698.51"];
	6 -- 68	[pos="792.82,774.64 741.65,794.44 620.76,841.24 569.46,861.09"];
	6 -- 283	[pos="842.95,769.64 877.12,774.92 936.08,784.04 970.16,789.31"];
	6 -- 140	[pos="843.29,762.41 868.02,759.55 904.47,755.34 929.17,752.48"];
	6 -- 233	[pos="789.8,769.85 745.92,776.99 658.83,791.16 615.07,798.28"];
	4 -- 79	[pos="959.27,507.02 909.8,502.59 805.36,493.23 755.87,488.79"];
	4 -- 15	[pos="993.89,492.04 1000.6,476.59 1010.3,454.15 1017,438.71"];
	18	[height=0.5,
		pos="1209.1,571.69",
		width=0.75];
	4 -- 18	[pos="1011.5,516.47 1054.4,528.46 1141.3,552.73 1184.1,564.7"];
	261	[height=0.5,
		pos="1058.9,264.11",
		width=0.75];
	4 -- 261	[pos="991.69,491.41 1005.1,445.93 1040.3,326.99 1053.7,281.84"];
	4 -- 152	[pos="981.54,527.18 971.46,564.38 948.19,650.23 938.08,687.52"];
	194	[height=0.5,
		pos="1142.3,525.02",
		width=0.75];
	4 -- 194	[pos="1013.2,512.13 1041.8,514.99 1087,519.49 1115.6,522.35"];
	94	[height=0.5,
		pos="979.68,246.8",
		width=0.75];
	4 -- 94	[pos="985.89,491.4 984.67,443.41 981.36,313.1 980.14,264.98"];
	4 -- 36	[pos="971.14,524.61 925.72,569.87 791.41,703.69 746.09,748.85"];
	4 -- 38	[pos="1007.7,520.52 1030.8,532.52 1067.5,551.56 1090.7,563.58"];
	58	[height=0.5,
		pos="1119.6,450.48",
		width=0.75];
	4 -- 58	[pos="1009,499.45 1033.5,488.6 1072.3,471.4 1096.9,460.54"];
	224	[height=0.5,
		pos="1148.6,367.9",
		width=0.75];
	4 -- 224	[pos="1002.8,495.1 1033.9,467.97 1100.9,409.45 1132.1,382.29"];
	4 -- 72	[pos="1000.3,493.88 1019.3,472.62 1053.3,434.69 1072.4,413.3"];
	213	[height=0.5,
		pos="1210.6,391.43",
		width=0.75];
	4 -- 213	[pos="1007.8,498.13 1050.7,475.58 1146.3,425.24 1189.1,402.71"];
	196	[height=0.5,
		pos="364.24,637.63",
		width=0.75];
	79 -- 196	[pos="705.69,495.94 640.11,523.15 453.19,600.72 387.45,628"];
	79 -- 88	[pos="706.5,496.58 678.45,509.45 630.54,531.44 602.41,544.34"];
	5 -- 204	[pos="605.94,631.3 588.93,661.63 553.45,724.87 536.29,755.46"];
	5 -- 7	[pos="621.47,596.73 625.79,584.12 631.57,567.2 635.9,554.54"];
	5 -- 19	[pos="589.64,619.82 571.78,623.61 548.11,628.63 530.21,632.43"];
	8	[height=0.5,
		pos="486.75,580.57",
		width=0.75];
	5 -- 8	[pos="590.03,607.67 567.46,601.75 534.67,593.15 512.13,587.23"];
	5 -- 229	[pos="641.66,618.92 645.01,619.51 648.44,620.11 651.8,620.69"];
	5 -- 9	[pos="618.4,596.39 626.39,547.8 648.37,414.11 656.41,365.2"];
	44	[height=0.5,
		pos="302.02,734.19",
		width=0.75];
	5 -- 44	[pos="591.89,623.36 533.81,645.57 384.22,702.76 325.85,725.08"];
	5 -- 37	[pos="611.56,632.42 606.48,655.97 597.66,696.94 592.58,720.51"];
	5 -- 255	[pos="640.05,606.74 663.04,599.63 697.17,589.08 720.13,581.97"];
	22	[height=0.5,
		pos="302.19,645.01",
		width=0.75];
	5 -- 22	[pos="588.47,616.99 529.26,622.79 388.47,636.57 329.21,642.37"];
	5 -- 27	[pos="634.35,601.23 657.06,585.45 694.95,559.13 717.61,543.4"];
	5 -- 98	[pos="599.32,629 593.82,633.99 587.67,639.57 582.18,644.56"];
	253	[height=0.5,
		pos="429.22,645.71",
		width=0.75];
	5 -- 253	[pos="589.17,618.77 553.77,624.73 491.16,635.28 455.68,641.25"];
	127	[height=0.5,
		pos="383.81,689.76",
		width=0.75];
	5 -- 127	[pos="591.1,622.28 546.61,636.76 452.69,667.34 408.18,681.83"];
	230	[height=0.5,
		pos="350.34,592.93",
		width=0.75];
	5 -- 230	[pos="588.57,612.18 537.76,608.07 428.16,599.21 377.29,595.1"];
	109	[height=0.5,
		pos="424.74,593.6",
		width=0.75];
	5 -- 109	[pos="588.53,611.42 552.18,607.46 487.8,600.46 451.52,596.51"];
	238	[height=0.5,
		pos="284.45,689.74",
		width=0.75];
	5 -- 238	[pos="589.75,620.2 528.08,634.25 372.24,669.74 310.36,683.83"];
	204 -- 253	[pos="514.25,756.68 495.63,732.37 460.51,686.54 441.76,662.07"];
	7 -- 19	[pos="623.68,550.17 597.32,569.53 548.93,605.06 522.52,624.45"];
	7 -- 9	[pos="643.66,518.53 646.99,482.26 654.42,401.33 657.75,365.11"];
	7 -- 157	[pos="660.02,523.1 685.08,504.16 730.22,470.04 755.39,451.02"];
	7 -- 144	[pos="656.18,552.14 660.12,556.41 664.38,561.05 668.32,565.32"];
	25	[height=0.5,
		pos="584.57,267.13",
		width=0.75];
	7 -- 25	[pos="638.13,518.62 627.67,469.51 598.85,334.18 588.41,285.16"];
	30	[height=0.5,
		pos="299.04,497.45",
		width=0.75];
	7 -- 30	[pos="615.36,533.68 551.47,526.36 390,507.87 325.88,500.53"];
	7 -- 33	[pos="630.92,520.18 626.07,512.94 620.39,504.45 615.54,497.19"];
	96	[height=0.5,
		pos="366.85,441.53",
		width=0.75];
	7 -- 96	[pos="617.57,528.28 565.23,510.17 442.76,467.79 390.82,449.82"];
	263	[height=0.5,
		pos="454.82,536.21",
		width=0.75];
	7 -- 263	[pos="614.77,536.65 579.29,536.55 517.57,536.38 482.07,536.29"];
	7 -- 237	[pos="666.23,528.32 706.99,514.18 788.77,485.81 829.34,471.73"];
	212	[height=0.5,
		pos="349.56,548.49",
		width=0.75];
	7 -- 212	[pos="615,537.81 559.43,540.05 432.78,545.15 376.91,547.39"];
	7 -- 53	[pos="653.71,520.29 665.98,503.07 685.14,476.17 697.45,458.91"];
	101	[height=0.5,
		pos="420.16,397.51",
		width=0.75];
	7 -- 101	[pos="622.3,524.37 580.31,498.02 482.36,436.54 440.12,410.03"];
	7 -- 104	[pos="669.2,534.93 698.78,532.97 745.78,529.85 775.31,527.9"];
	277	[height=0.5,
		pos="470.99,490.34",
		width=0.75];
	7 -- 277	[pos="616.76,529.88 584.34,521.09 528.39,505.91 496.05,497.14"];
	132	[height=0.5,
		pos="454.57,441.59",
		width=0.75];
	7 -- 132	[pos="620.49,525.81 584.43,507.51 512.19,470.83 476.1,452.52"];
	145	[height=0.5,
		pos="507.21,392.5",
		width=0.75];
	7 -- 145	[pos="627.56,521.29 601.62,493.53 547.4,435.5 521.53,407.83"];
	7 -- 197	[pos="651.37,519.82 653.2,516.52 655.12,513.06 656.95,509.75"];
	257	[height=0.5,
		pos="502.61,347.52",
		width=0.75];
	7 -- 257	[pos="629.86,520.27 603.44,484.39 540.92,399.52 514.61,363.8"];
	12 -- 151	[pos="1059.3,879.09 1030.7,898.6 976.93,935.39 948.21,955.03"];
	12 -- 138	[pos="1087.4,849.07 1100.8,824.44 1125.4,779.23 1138.8,754.56"];
	12 -- 16	[pos="1060.1,880.03 1020.9,910.21 928.08,981.62 889.01,1011.7"];
	28	[height=0.5,
		pos="1129.3,1003.7",
		width=0.75];
	12 -- 28	[pos="1084.7,883.88 1094.6,910.29 1112.9,959.72 1122.7,986.09"];
	181	[height=0.5,
		pos="1184.7,1047.7",
		width=0.75];
	12 -- 181	[pos="1088.2,883.26 1108.5,917.95 1154.5,996.29 1174.7,1030.8"];
	12 -- 283	[pos="1061.6,851.45 1047.4,838.74 1026.9,820.48 1012.8,807.85"];
	12 -- 49	[pos="1090.9,849.8 1102.2,835.17 1118.8,813.88 1130.1,799.35"];
	67	[height=0.5,
		pos="1290.3,873.51",
		width=0.75];
	12 -- 67	[pos="1105.5,867.12 1146.2,868.53 1222.5,871.17 1263.1,872.57"];
	64	[height=0.5,
		pos="1360.2,776.73",
		width=0.75];
	12 -- 64	[pos="1102.7,858.4 1156,841.48 1282,801.51 1335.5,784.55"];
	136	[height=0.5,
		pos="1265.1,690.17",
		width=0.75];
	12 -- 136	[pos="1093.8,851.47 1128.9,818.34 1214.1,738.16 1249.4,704.96"];
	185	[height=0.5,
		pos="1208.5,783.46",
		width=0.75];
	12 -- 185	[pos="1098,853.61 1122.6,837.98 1164.4,811.44 1189,795.87"];
	118	[height=0.5,
		pos="1310.1,940.49",
		width=0.75];
	12 -- 118	[pos="1102.5,873.99 1147.1,888.26 1241.1,918.39 1285.7,932.67"];
	73	[height=0.5,
		pos="1353.7,895.44",
		width=0.75];
	12 -- 73	[pos="1104.8,869.01 1157.5,874.6 1274.3,887.01 1327,892.6"];
	218	[height=0.5,
		pos="1270.3,1015.4",
		width=0.75];
	12 -- 218	[pos="1095.9,879.95 1132.5,908.39 1216,973.3 1252.6,1001.7"];
	288	[height=0.5,
		pos="1255.4,736.24",
		width=0.75];
	12 -- 288	[pos="1096.4,852.76 1130.5,827.8 1203.2,774.49 1237.2,749.58"];
	216	[height=0.5,
		pos="1236.1,829.48",
		width=0.75];
	12 -- 216	[pos="1103.9,860.2 1133.3,853.38 1181,842.28 1210.4,835.46"];
	286	[height=0.5,
		pos="1298.1,788.43",
		width=0.75];
	12 -- 286	[pos="1102.1,857.71 1144.4,842.75 1231.9,811.84 1274.2,796.89"];
	19 -- 229	[pos="531.32,635.97 564,633.59 618.51,629.62 651.11,627.25"];
	19 -- 144	[pos="528.58,630.13 562.65,619.21 624.08,599.54 658.15,588.63"];
	19 -- 22	[pos="476.91,638.9 438.25,640.26 367.91,642.72 329.32,644.07"];
	150	[height=0.5,
		pos="237.02,534.35",
		width=0.75];
	19 -- 150	[pos="480.44,628.76 429.75,609.1 311.31,563.16 260.67,543.52"];
	52	[height=0.5,
		pos="151.92,710.41",
		width=0.75];
	19 -- 52	[pos="478.24,643.28 413.11,656.68 243.03,691.66 177.85,705.07"];
	251	[height=0.5,
		pos="143.41,754.41",
		width=0.75];
	19 -- 251	[pos="479.63,645.87 413.82,667.11 233.8,725.23 167.95,746.48"];
	248	[height=0.5,
		pos="221.87,578.35",
		width=0.75];
	19 -- 248	[pos="478.09,632.45 424.32,621.1 301.58,595.18 247.86,583.84"];
	245	[height=0.5,
		pos="226.58,749.41",
		width=0.75];
	19 -- 245	[pos="480.96,647.26 428.71,668.24 302.26,719.02 249.89,740.05"];
	19 -- 193	[pos="531.24,637.03 576.7,635.49 667.77,632.4 713.25,630.86"];
	164	[height=0.5,
		pos="177.28,622.36",
		width=0.75];
	19 -- 164	[pos="477.12,636.66 415.63,633.73 265.85,626.59 204.33,623.65"];
	171	[height=0.5,
		pos="162.82,798.44",
		width=0.75];
	19 -- 171	[pos="482.01,648.36 420.26,677.39 246.59,759.05 184.9,788.05"];
	276	[height=0.5,
		pos="191.46,666.37",
		width=0.75];
	19 -- 276	[pos="477.21,640.4 418.11,645.77 277.59,658.54 218.44,663.91"];
	270	[height=0.5,
		pos="219.34,842.48",
		width=0.75];
	19 -- 270	[pos="485.46,651.37 433.73,688.52 289.09,792.39 237.73,829.27"];
	198 -- 215	[pos="1000.5,326.32 974.81,320.16 935.46,310.74 909.8,304.6"];
	198 -- 273	[pos="999.57,328.6 960.48,322.92 888.02,312.38 848.93,306.7"];
	167 -- 233	[pos="655.71,870.6 640.9,855.57 618.41,832.76 603.63,817.76"];
	8 -- 19	[pos="492.16,598.41 494.23,605.26 496.6,613.06 498.68,619.92"];
	8 -- 229	[pos="512.56,586.6 549.18,595.16 615.83,610.74 652.39,619.28"];
	8 -- 22	[pos="462.62,589 427.25,601.35 361.7,624.24 326.32,636.59"];
	8 -- 150	[pos="460.5,575.71 412.53,566.83 311.27,548.09 263.29,539.21"];
	8 -- 230	[pos="459.8,583.01 435.89,585.18 401.13,588.33 377.23,590.49"];
	8 -- 248	[pos="459.4,580.34 408.51,579.92 299.85,579.01 249.07,578.58"];
	9 -- 66	[pos="686.53,346.52 737.79,345.66 848.35,343.82 899.67,342.96"];
	14	[height=0.5,
		pos="741.25,203.36",
		width=0.75];
	9 -- 14	[pos="669.12,329.93 684.87,302.29 715.81,248 731.55,220.37"];
	43	[height=0.5,
		pos="665.42,131.83",
		width=0.75];
	9 -- 43	[pos="659.92,328.63 661.06,287.98 663.77,190.73 664.91,150.13"];
	9 -- 25	[pos="644.98,331.58 631.73,317.44 612.2,296.6 598.96,282.48"];
	9 -- 27	[pos="666.79,364.55 681.5,399.61 714.32,477.82 729.02,512.83"];
	9 -- 98	[pos="654.13,364.65 637.76,419.45 587.97,586.15 571.52,641.22"];
	9 -- 131	[pos="684.3,339.52 688.34,338.31 692.54,337.06 696.58,335.85"];
	81	[height=0.5,
		pos="915.6,210.42",
		width=0.75];
	9 -- 81	[pos="680.81,335.56 729.16,309.79 846.32,247.34 894.44,221.69"];
	50	[height=0.5,
		pos="597.38,311.14",
		width=0.75];
	9 -- 50	[pos="638.76,335.04 632.13,331.21 624.79,326.97 618.16,323.14"];
	190	[height=0.5,
		pos="397.2,327.23",
		width=0.75];
	9 -- 190	[pos="632.34,344.93 581.96,341.14 474.39,333.04 424.13,329.25"];
	77	[height=0.5,
		pos="810.21,212.11",
		width=0.75];
	9 -- 77	[pos="675.55,332.54 704.42,306.72 764.61,252.89 793.73,226.84"];
	228	[height=0.5,
		pos="610.14,223.09",
		width=0.75];
	9 -- 228	[pos="652.46,329.48 643.12,306.01 626.62,264.52 617.22,240.89"];
	82	[height=0.5,
		pos="678.77,239.89",
		width=0.75];
	9 -- 82	[pos="662.7,328.81 666.28,309 671.97,277.49 675.53,257.79"];
	281	[height=0.5,
		pos="851.52,152.65",
		width=0.75];
	9 -- 281	[pos="674.49,331.72 710.4,295.4 800.67,204.08 836.52,167.82"];
	121	[height=0.5,
		pos="727.44,145.43",
		width=0.75];
	9 -- 121	[pos="665.45,329.09 678.36,290.84 708.52,201.49 721.41,163.28"];
	227	[height=0.5,
		pos="789.46,132.73",
		width=0.75];
	9 -- 227	[pos="669.62,330.16 693.93,290.11 755.04,189.44 779.31,149.47"];
	221	[height=0.5,
		pos="503.34,241.7",
		width=0.75];
	9 -- 221	[pos="640.28,334.06 610.32,313.86 552.69,274.98 522.64,254.71"];
	9 -- 273	[pos="684.5,340.17 715.1,331.87 766.52,317.93 797.14,309.63"];
	265	[height=0.5,
		pos="441.3,283.2",
		width=0.75];
	9 -- 265	[pos="634.39,339.65 592.32,327.35 507.9,302.67 466.03,290.43"];
	55	[height=0.5,
		pos="98.244,798.46",
		width=0.75];
	44 -- 55	[pos="277.44,741.94 238.27,754.29 162.13,778.31 122.91,790.68"];
	44 -- 127	[pos="323.08,722.75 335.29,716.12 350.62,707.79 362.82,701.16"];
	44 -- 109	[pos="315.62,718.61 339.21,691.58 387.44,636.32 411.07,609.25"];
	44 -- 238	[pos="295.07,716.62 293.84,713.51 292.57,710.28 291.34,707.18"];
	162	[height=0.5,
		pos="89.316,686.47",
		width=0.75];
	44 -- 162	[pos="276.36,728.44 235.48,719.26 156,701.43 115.06,692.25"];
	37 -- 204	[pos="567.66,750.17 561.18,753.73 554.06,757.65 547.58,761.21"];
	37 -- 255	[pos="603.36,723.15 633.08,691.86 700.1,621.28 729.89,589.92"];
	37 -- 253	[pos="568.16,726.65 537.55,708.81 480.24,675.43 449.66,657.62"];
	11 -- 113	[pos="1022.9,892.3 1021.5,881.08 1019.8,866.7 1018.4,855.47"];
	11 -- 21	[pos="1003.5,921.15 959.7,943.08 860.85,992.53 816.92,1014.5"];
	11 -- 16	[pos="1006.9,923.98 977.27,946.12 919.06,989.61 889.44,1011.7"];
	93	[height=0.5,
		pos="925.52,1107.6",
		width=0.75];
	11 -- 93	[pos="1016.5,927.49 997.66,964.8 953.13,1052.9 934.24,1090.3"];
	249	[height=0.5,
		pos="1238.4,917.54",
		width=0.75];
	11 -- 249	[pos="1052.2,911.24 1093.1,912.63 1170.3,915.24 1211.3,916.62"];
	108	[height=0.5,
		pos="987.56,1100.7",
		width=0.75];
	11 -- 108	[pos="1021.6,928.24 1014.5,964.53 998.3,1046.4 991.12,1082.7"];
	159	[height=0.5,
		pos="863.47,1113.4",
		width=0.75];
	11 -- 159	[pos="1012.5,926.27 982.33,964.14 906.64,1059.2 876.32,1097.3"];
	24	[height=0.5,
		pos="1158.9,947.98",
		width=0.75];
	11 -- 24	[pos="1050.3,917.41 1074.2,924.14 1110,934.21 1133.8,940.93"];
	11 -- 123	[pos="999.23,915.99 995.91,916.72 992.52,917.46 989.19,918.19"];
	11 -- 40	[pos="999.39,916.06 948.94,927.28 837.71,952.01 787.18,963.24"];
	11 -- 39	[pos="998.65,906.55 959.08,900.92 885.02,890.37 845.51,884.74"];
	11 -- 84	[pos="999.33,916.05 938.36,929.54 786.11,963.22 725.13,976.72"];
	11 -- 111	[pos="998.69,914.79 969.39,919.73 922.46,927.64 893.24,932.57"];
	11 -- 28	[pos="1041.4,924.92 1061,942.47 1093.6,971.73 1113.1,989.23"];
	11 -- 31	[pos="1029.5,892.4 1035.9,865.65 1047.9,815.58 1054.3,788.87"];
	173	[height=0.5,
		pos="1112.8,1060.8",
		width=0.75];
	11 -- 173	[pos="1035.1,927.29 1051.9,956.18 1085.9,1014.6 1102.8,1043.6"];
	70	[height=0.5,
		pos="675.74,1058.3",
		width=0.75];
	11 -- 70	[pos="1002.2,920.04 938.93,946.86 762.17,1021.7 698.75,1048.6"];
	115	[height=0.5,
		pos="677.24,1128.9",
		width=0.75];
	11 -- 115	[pos="1005.5,922.71 944.38,961.09 758.55,1077.8 697.16,1116.4"];
	63	[height=0.5,
		pos="1234.2,967.88",
		width=0.75];
	11 -- 63	[pos="1050.4,917.27 1090.7,928.36 1169.1,949.95 1209.2,961"];
	11 -- 242	[pos="1035.1,893.29 1045.1,875.94 1060.6,849.21 1070.7,831.92"];
	211	[height=0.5,
		pos="834.45,1069.4",
		width=0.75];
	11 -- 211	[pos="1008.2,924.45 972.06,954.64 887.5,1025.2 851.34,1055.3"];
	220	[height=0.5,
		pos="1022.5,1056.6",
		width=0.75];
	11 -- 220	[pos="1024.8,928.56 1024.3,956.75 1023.3,1010.6 1022.8,1038.6"];
	156	[height=0.5,
		pos="580.81,1069.7",
		width=0.75];
	11 -- 156	[pos="1001.3,918.9 924.13,946.56 682.14,1033.3 604.81,1061.1"];
	11 -- 188	[pos="997.86,912.07 953.43,914.9 866.03,920.46 821.85,923.27"];
	128	[height=0.5,
		pos="1079,959.71",
		width=0.75];
	11 -- 128	[pos="1041.3,925.14 1048.1,931.4 1056,938.66 1062.8,944.91"];
	11 -- 125	[pos="1002.1,900.51 993.98,897.03 984.79,893.12 976.63,889.64"];
	287	[height=0.5,
		pos="1001.6,1012.5",
		width=0.75];
	11 -- 287	[pos="1021.1,928.13 1016.8,946.78 1010.1,975.9 1005.7,994.6"];
	239	[height=0.5,
		pos="1096.3,915.68",
		width=0.75];
	11 -- 239	[pos="1052.1,912.35 1057.7,912.78 1063.7,913.23 1069.4,913.66"];
	186	[height=0.5,
		pos="1063.7,1003.7",
		width=0.75];
	11 -- 186	[pos="1032.4,927.9 1039.3,944.59 1049.6,969.56 1056.5,986.24"];
	274	[height=0.5,
		pos="939.58,1056.6",
		width=0.75];
	11 -- 274	[pos="1015.4,927.1 998.93,955.16 966.07,1011.3 949.55,1039.5"];
	292	[height=0.5,
		pos="1174,827.49",
		width=0.75];
	11 -- 292	[pos="1046.2,898.64 1074.6,882.85 1124.8,854.88 1153.1,839.13"];
	271	[height=0.5,
		pos="1140.2,871.67",
		width=0.75];
	11 -- 271	[pos="1049.3,902.22 1068.8,895.67 1096.1,886.48 1115.7,879.9"];
	272	[height=0.5,
		pos="1050.7,1100.7",
		width=0.75];
	11 -- 272	[pos="1027.6,928.58 1032.5,964.96 1043.4,1046.1 1048.3,1082.5"];
	35 -- 68	[pos="706.06,885.96 670.49,882.48 608.07,876.36 572.53,872.88"];
	138 -- 283	[pos="1124.5,746.14 1096.1,756.63 1048.8,774.1 1020.3,784.61"];
	138 -- 288	[pos="1175.2,737.1 1191.5,736.92 1212.1,736.7 1228.3,736.53"];
	157 -- 177	[pos="796.67,427.82 818.81,418.77 852.1,405.17 874.34,396.08"];
	157 -- 197	[pos="752.19,448.32 733.49,457.99 706.51,471.94 687.83,481.6"];
	21 -- 108	[pos="818.77,1034.6 855.79,1049.1 927.12,1077.1 964.08,1091.5"];
	74	[height=0.5,
		pos="1070.3,1144.7",
		width=0.75];
	21 -- 74	[pos="818.16,1035.4 870.09,1057.9 995.93,1112.4 1047.6,1134.9"];
	51	[height=0.5,
		pos="857.97,1201.5",
		width=0.75];
	21 -- 51	[pos="801.43,1042.9 813.43,1076.6 839.6,1149.9 851.66,1183.8"];
	219	[height=0.5,
		pos="611.23,1115.3",
		width=0.75];
	21 -- 219	[pos="773.35,1036.1 737.95,1053.4 668.41,1087.4 633.03,1104.6"];
	21 -- 80	[pos="805.82,1008.7 808.06,1005.2 810.43,1001.5 812.67,998.03"];
	295	[height=0.5,
		pos="1132.6,1104.9",
		width=0.75];
	21 -- 295	[pos="820.81,1031.4 883.56,1046.2 1044.3,1084.1 1107,1098.8"];
	117	[height=0.5,
		pos="450.11,1101.1",
		width=0.75];
	21 -- 117	[pos="769.52,1031 705.64,1045 539.99,1081.4 475.93,1095.5"];
	105	[height=0.5,
		pos="800.85,1144.5",
		width=0.75];
	21 -- 105	[pos="796.04,1043.5 797.1,1065.9 798.91,1103.8 799.98,1126.2"];
	21 -- 220	[pos="821.7,1029 865.38,1035 951.99,1046.9 995.8,1053"];
	21 -- 134	[pos="768.03,1023.5 739.02,1021.4 693.3,1018.2 664.32,1016.2"];
	13 -- 15	[pos="1049.4,473.89 1044.3,463.23 1037.9,449.59 1032.8,438.88"];
	13 -- 120	[pos="1033.2,483.26 1023.4,480.09 1012.1,476.44 1002.3,473.27"];
	13 -- 17	[pos="1067.5,508.09 1082.8,534.15 1111.8,583.78 1127.2,609.96"];
	34	[height=0.5,
		pos="1365,455.85",
		width=0.75];
	13 -- 34	[pos="1084.3,488.07 1142.5,481.4 1279.8,465.63 1338.1,458.94"];
	91	[height=0.5,
		pos="1250.3,439.78",
		width=0.75];
	13 -- 91	[pos="1082.8,484.43 1119.7,474.58 1188.2,456.34 1225.1,446.5"];
	85	[height=0.5,
		pos="1303.7,275.89",
		width=0.75];
	13 -- 85	[pos="1074.1,476.68 1118.9,437.47 1242.5,329.43 1287.3,290.29"];
	13 -- 38	[pos="1068.3,507.65 1077.8,522.21 1091.6,543.32 1101.2,557.95"];
	48	[height=0.5,
		pos="1232.4,496.54",
		width=0.75];
	13 -- 48	[pos="1084.9,491.98 1117.7,493 1172.5,494.69 1205.3,495.7"];
	13 -- 106	[pos="1054.9,509.09 1052.3,526.63 1048.3,553.2 1045.7,570.82"];
	129	[height=0.5,
		pos="1312.3,401.8",
		width=0.75];
	13 -- 129	[pos="1081.5,482.74 1130.1,465.71 1239.6,427.31 1288.3,410.24"];
	62	[height=0.5,
		pos="1374.4,409.21",
		width=0.75];
	13 -- 62	[pos="1083,484.57 1142.3,469.23 1289.4,431.18 1348.8,415.81"];
	189	[height=0.5,
		pos="1182.1,227.53",
		width=0.75];
	13 -- 189	[pos="1065.7,473.84 1088.3,426.08 1151.3,292.73 1173.9,244.89"];
	83	[height=0.5,
		pos="1174.7,169.32",
		width=0.75];
	13 -- 83	[pos="1064,473.38 1084.5,417.11 1147.8,243.21 1168.2,187.02"];
	165	[height=0.5,
		pos="1038.7,202.78",
		width=0.75];
	13 -- 165	[pos="1056.4,473.1 1053,421.32 1043.3,272.59 1039.9,220.81"];
	103	[height=0.5,
		pos="1294.4,518.77",
		width=0.75];
	13 -- 103	[pos="1084.3,494.26 1129.9,499.58 1222.3,510.36 1267.8,515.67"];
	214	[height=0.5,
		pos="1232.6,271.54",
		width=0.75];
	13 -- 214	[pos="1070.4,474.99 1102.8,434.38 1187.3,328.35 1219.7,287.71"];
	223	[height=0.5,
		pos="1110.1,208.18",
		width=0.75];
	13 -- 223	[pos="1060.9,473.01 1070.4,421.9 1097.3,277.08 1106.8,226.16"];
	142	[height=0.5,
		pos="1377.6,308.81",
		width=0.75];
	13 -- 142	[pos="1078.6,479.18 1136.7,446.06 1299.2,353.47 1356.9,320.58"];
	119	[height=0.5,
		pos="1379.9,355.86",
		width=0.75];
	13 -- 119	[pos="1080.5,481.52 1139.8,456.65 1297.5,390.44 1356.9,365.53"];
	122	[height=0.5,
		pos="1288.8,357.76",
		width=0.75];
	13 -- 122	[pos="1078.1,479.3 1122,453.99 1224.5,394.86 1268.3,369.57"];
	222	[height=0.5,
		pos="1085.2,158.74",
		width=0.75];
	13 -- 222	[pos="1059.1,472.8 1063.9,414.68 1078.9,235.07 1083.7,177.03"];
	192	[height=0.5,
		pos="1205.9,323.87",
		width=0.75];
	13 -- 192	[pos="1071.5,475.4 1099.8,443.52 1163.6,371.64 1191.9,339.69"];
	15 -- 18	[pos="1041.9,435.48 1077.1,464.21 1156.8,529.09 1191.9,557.69"];
	15 -- 194	[pos="1040.9,435.76 1063.3,455.45 1103.2,490.58 1125.7,510.39"];
	15 -- 94	[pos="1019.9,403.32 1011.3,369.78 992.87,298.18 984.28,264.72"];
	15 -- 58	[pos="1049.5,429 1063.5,433.28 1080.8,438.6 1094.8,442.88"];
	15 -- 129	[pos="1051.6,419.5 1106.4,415.78 1230.2,407.38 1285.1,403.64"];
	15 -- 224	[pos="1047.3,411.54 1069.5,401.96 1103.2,387.45 1125.5,377.82"];
	15 -- 72	[pos="1047.9,412.33 1052.9,410.43 1058.1,408.43 1063,406.53"];
	15 -- 213	[pos="1050.8,417.12 1086.1,411.43 1148.7,401.38 1184.1,395.68"];
	14 -- 43	[pos="725.53,188.54 712.52,176.26 694.12,158.9 681.11,146.63"];
	14 -- 46	[pos="743.57,221.49 744.19,226.3 744.85,231.49 745.47,236.3"];
	14 -- 81	[pos="768.49,204.46 801.24,205.79 855.88,208 888.55,209.32"];
	114	[height=0.5,
		pos="603.4,91.795",
		width=0.75];
	14 -- 114	[pos="724.07,189.45 697.65,168.08 647.34,127.36 620.79,105.87"];
	14 -- 227	[pos="752.67,186.62 760.36,175.36 770.45,160.58 778.12,149.35"];
	147	[height=0.5,
		pos="804.44,66.974",
		width=0.75];
	14 -- 147	[pos="749.25,186.08 761.34,159.99 784.13,110.8 796.3,84.537"];
	284	[height=0.5,
		pos="928.51,68.212",
		width=0.75];
	14 -- 284	[pos="759.89,189.91 795.78,164 874.11,107.47 909.95,81.61"];
	182	[height=0.5,
		pos="665.56,62.294",
		width=0.75];
	14 -- 182	[pos="732.12,186.34 717.57,159.23 689.29,106.52 674.72,79.37"];
	14 -- 215	[pos="760.54,216.19 787.84,234.34 837.46,267.34 864.85,285.55"];
	14 -- 273	[pos="754.26,219.34 769.38,237.9 794.17,268.34 809.27,286.88"];
	18 -- 194	[pos="1190.2,558.44 1181.1,552.08 1170.2,544.48 1161.1,538.14"];
	18 -- 213	[pos="1209.3,553.42 1209.5,518.78 1210.1,443.96 1210.4,409.49"];
	43 -- 46	[pos="676.52,148.36 692.25,171.75 720.82,214.26 736.59,237.71"];
	141	[height=0.5,
		pos="416.37,123.15",
		width=0.75];
	43 -- 141	[pos="638.29,130.89 590.38,129.22 491.34,125.76 443.46,124.1"];
	43 -- 81	[pos="689.86,139.51 737.69,154.53 843.15,187.66 891.05,202.71"];
	43 -- 50	[pos="658.77,149.35 645.76,183.63 617.08,259.21 604.06,293.55"];
	252	[height=0.5,
		pos="664.85,177.96",
		width=0.75];
	43 -- 252	[pos="665.19,150.06 665.16,153.29 665.11,156.64 665.08,159.86"];
	43 -- 190	[pos="646.98,145.26 597.98,180.96 464.91,277.9 415.77,313.7"];
	60	[height=0.5,
		pos="592.77,135.84",
		width=0.75];
	43 -- 60	[pos="638.37,133.32 632.4,133.65 626.07,134 620.09,134.33"];
	43 -- 77	[pos="686.47,143.51 713.92,158.72 761.66,185.19 789.13,200.42"];
	43 -- 114	[pos="645.79,119.16 638.55,114.49 630.35,109.2 623.11,104.52"];
	43 -- 82	[pos="667.68,150.16 670.15,170.15 674.08,201.95 676.54,221.83"];
	43 -- 281	[pos="692.08,134.81 727.36,138.76 789.2,145.68 824.6,149.64"];
	43 -- 121	[pos="691.36,137.52 694.68,138.25 698.08,139 701.4,139.72"];
	293	[height=0.5,
		pos="745.6,18",
		width=0.75];
	43 -- 293	[pos="676.91,115.52 692.06,94.007 718.6,56.335 733.88,34.649"];
	43 -- 227	[pos="692.64,132.03 713.32,132.18 741.64,132.39 762.31,132.54"];
	172	[height=0.5,
		pos="866.48,66.376",
		width=0.75];
	43 -- 172	[pos="690.07,123.81 728.76,111.21 803.31,86.939 841.94,74.365"];
	43 -- 147	[pos="687.75,121.41 713.7,109.31 756.24,89.461 782.16,77.368"];
	168	[height=0.5,
		pos="494.41,77.891",
		width=0.75];
	43 -- 168	[pos="640.92,124.1 608.41,113.85 551.35,95.852 518.86,85.605"];
	148	[height=0.5,
		pos="548.11,179.86",
		width=0.75];
	43 -- 148	[pos="642.24,141.32 621.67,149.74 591.79,161.98 571.24,170.39"];
	260	[height=0.5,
		pos="471.64,178.56",
		width=0.75];
	43 -- 260	[pos="639.68,138.04 602.52,147 534.22,163.47 497.17,172.4"];
	43 -- 182	[pos="665.45,113.56 665.47,103.42 665.5,90.843 665.52,80.684"];
	43 -- 221	[pos="646.19,144.87 614.91,166.07 553.39,207.77 522.3,228.85"];
	43 -- 265	[pos="646.31,144.74 603.97,173.33 502.65,241.76 460.36,270.32"];
	290	[height=0.5,
		pos="680.14,18.239",
		width=0.75];
	43 -- 290	[pos="667.75,113.83 670.49,92.688 675.01,57.801 677.77,36.53"];
	16 -- 151	[pos="886.38,1010.3 894.81,1002 905.27,991.65 913.72,983.29"];
	16 -- 21	[pos="844.18,1025.4 837.1,1025.4 829.45,1025.4 822.36,1025.4"];
	16 -- 93	[pos="882.19,1042 891.61,1056.3 905.12,1076.7 914.54,1091"];
	16 -- 74	[pos="891.39,1037.5 929.55,1060.3 1011.9,1109.7 1050.1,1132.6"];
	16 -- 28	[pos="898.33,1023.1 947.9,1018.9 1052.5,1010.2 1102.1,1006"];
	16 -- 181	[pos="898.19,1027.3 957.45,1031.5 1098.3,1041.6 1157.6,1045.8"];
	16 -- 173	[pos="897.97,1029.3 944.54,1036.1 1039.9,1050.1 1086.3,1056.9"];
	16 -- 51	[pos="869.83,1043.6 867.29,1077.4 861.87,1149.6 859.33,1183.4"];
	16 -- 219	[pos="847.21,1033.7 797.81,1050.8 685.21,1089.7 635.54,1106.9"];
	16 -- 80	[pos="855.26,1010.7 850.14,1006 844.48,1000.8 839.36,996.1"];
	163	[height=0.5,
		pos="880.93,1157.5",
		width=0.75];
	16 -- 163	[pos="872.53,1043.5 874.38,1068.6 877.72,1113.9 879.58,1139.2"];
	76	[height=0.5,
		pos="1138,1153.4",
		width=0.75];
	16 -- 76	[pos="893.48,1036.1 943.82,1060.2 1065.8,1118.7 1115.9,1142.8"];
	102	[height=0.5,
		pos="950.89,1211.4",
		width=0.75];
	16 -- 102	[pos="878.69,1042.9 893.92,1078.4 928.31,1158.7 943.47,1194.1"];
	296	[height=0.5,
		pos="739.27,1099.4",
		width=0.75];
	16 -- 296	[pos="850.29,1037.1 825.59,1050.9 784.74,1073.9 760.08,1087.7"];
	16 -- 105	[pos="861.27,1042.2 847.94,1064.8 824.38,1104.6 810.96,1127.4"];
	16 -- 220	[pos="897.21,1030.7 925.01,1036.5 968.81,1045.5 996.58,1051.3"];
	231	[height=0.5,
		pos="727.36,1191.5",
		width=0.75];
	16 -- 231	[pos="857.66,1041 830.25,1072.7 768.43,1144.1 740.96,1175.8"];
	226	[height=0.5,
		pos="619.83,1172.9",
		width=0.75];
	16 -- 226	[pos="850.63,1037.5 803.37,1065.2 687.52,1133.2 640.33,1160.9"];
	180	[height=0.5,
		pos="1013,1189.4",
		width=0.75];
	16 -- 180	[pos="884.8,1041.1 911.84,1072.4 972.09,1142.1 999.27,1173.5"];
	254	[height=0.5,
		pos="1208.9,1091.7",
		width=0.75];
	16 -- 254	[pos="897.13,1030.5 959.99,1042.8 1119.9,1074.3 1182.9,1086.6"];
	264	[height=0.5,
		pos="951,1151.6",
		width=0.75];
	16 -- 264	[pos="881.79,1042.1 897.06,1066.3 925.07,1110.6 940.36,1134.8"];
	240	[height=0.5,
		pos="549.14,1141.9",
		width=0.75];
	16 -- 240	[pos="847.25,1034 787.63,1055.6 633.03,1111.5 573.24,1133.1"];
	16 -- 272	[pos="894.3,1035.1 928.78,1049.5 993.3,1076.6 1027.7,1091"];
	93 -- 173	[pos="951.16,1101.2 987.03,1092.2 1051.8,1076 1087.5,1067.1"];
	93 -- 296	[pos="898.44,1106.4 863.13,1104.8 801.71,1102.1 766.39,1100.6"];
	93 -- 272	[pos="952.69,1106.1 973.69,1104.9 1002.6,1103.3 1023.6,1102.2"];
	152 -- 161	[pos="955.5,695.04 976.16,685.47 1006.8,671.29 1027.5,661.68"];
	17 -- 201	[pos="1120.5,641.86 1099,660.85 1061.8,693.65 1040.4,712.51"];
	17 -- 34	[pos="1155.5,613.4 1198.2,581.25 1304.4,501.38 1347,469.41"];
	41	[height=0.5,
		pos="1362.3,565.87",
		width=0.75];
	17 -- 41	[pos="1162.6,620.21 1205.9,608.42 1293.7,584.53 1337,572.75"];
	17 -- 48	[pos="1149.1,610.85 1167.3,585.83 1202.1,538.17 1220.4,513.02"];
	56	[height=0.5,
		pos="1297.3,610.42",
		width=0.75];
	17 -- 56	[pos="1164,624.33 1193.6,621.24 1240.9,616.31 1270.5,613.22"];
	17 -- 106	[pos="1113.9,617.69 1099.4,611.83 1080.9,604.31 1066.3,598.43"];
	17 -- 95	[pos="1152.8,641.98 1163.1,651.82 1176.6,664.71 1187,674.62"];
	203	[height=0.5,
		pos="1375.9,686.58",
		width=0.75];
	17 -- 203	[pos="1162.8,633.49 1208.7,644.93 1304.7,668.85 1350.5,680.27"];
	110	[height=0.5,
		pos="1343.9,732.05",
		width=0.75];
	17 -- 110	[pos="1158.9,638.15 1198.7,658.3 1282.5,700.85 1322.2,721.01"];
	135	[height=0.5,
		pos="1427.2,628.94",
		width=0.75];
	17 -- 135	[pos="1164.2,627.29 1219.5,627.64 1344.8,628.43 1400.1,628.77"];
	34 -- 85	[pos="1359,438.27 1347.3,403.87 1321.5,328.01 1309.7,293.55"];
	34 -- 38	[pos="1342.6,466.4 1294.6,488.96 1182.5,541.65 1134.5,564.18"];
	34 -- 41	[pos="1364.6,474.02 1364,494.41 1363.2,527.28 1362.7,547.68"];
	139	[height=0.5,
		pos="1504.9,430.65",
		width=0.75];
	34 -- 139	[pos="1391.3,451.11 1416.3,446.61 1453.7,439.87 1478.7,435.37"];
	34 -- 48	[pos="1340.4,463.41 1316.7,470.67 1281.1,481.59 1257.4,488.89"];
	34 -- 56	[pos="1357.4,473.28 1344.4,502.97 1318.1,563.01 1305,592.81"];
	61	[height=0.5,
		pos="1339.5,205.58",
		width=0.75];
	34 -- 61	[pos="1363.2,437.86 1358.5,391.79 1346,270.01 1341.3,223.75"];
	75	[height=0.5,
		pos="1356.5,502.36",
		width=0.75];
	34 -- 75	[pos="1361.7,473.97 1361.1,477.34 1360.4,480.85 1359.8,484.22"];
	184	[height=0.5,
		pos="1432.4,583.32",
		width=0.75];
	34 -- 184	[pos="1374.1,473.04 1386.9,497.37 1410.3,541.59 1423.2,565.99"];
	92	[height=0.5,
		pos="1450.9,294.06",
		width=0.75];
	34 -- 92	[pos="1374,438.85 1390.5,407.85 1425.2,342.51 1441.7,311.33"];
	34 -- 142	[pos="1366.5,437.82 1369,409.6 1373.6,355.3 1376,326.99"];
	34 -- 119	[pos="1367.7,437.51 1370.4,419.47 1374.5,392.09 1377.2,374.09"];
	112	[height=0.5,
		pos="1431,453.43",
		width=0.75];
	34 -- 112	[pos="1392.2,454.85 1396.1,454.71 1400,454.57 1403.8,454.43"];
	206	[height=0.5,
		pos="1486,338.87",
		width=0.75];
	34 -- 206	[pos="1380.8,440.56 1404.2,418.02 1447.5,376.13 1470.6,353.79"];
	175	[height=0.5,
		pos="1388.7,250",
		width=0.75];
	34 -- 175	[pos="1367.1,437.59 1371.6,398.52 1382.1,307.25 1386.6,268.22"];
	154	[height=0.5,
		pos="1487.2,536.7",
		width=0.75];
	34 -- 154	[pos="1384.4,468.67 1407.2,483.8 1445.1,508.84 1467.9,523.95"];
	178	[height=0.5,
		pos="1425.2,499.89",
		width=0.75];
	34 -- 178	[pos="1383.4,469.31 1390.9,474.77 1399.5,481.07 1406.9,486.52"];
	183	[height=0.5,
		pos="1546.5,385.57",
		width=0.75];
	34 -- 183	[pos="1388.4,446.81 1423.1,433.35 1488.1,408.2 1523,394.7"];
	249 -- 292	[pos="1226.6,901.02 1215,884.78 1197.4,860.12 1185.8,843.91"];
	249 -- 271	[pos="1216.1,907.13 1200.1,899.62 1178.5,889.53 1162.4,882.04"];
	91 -- 223	[pos="1240,422.75 1214,379.82 1146.1,267.55 1120.3,224.92"];
	91 -- 122	[pos="1258.5,422.39 1265,408.47 1274.1,389.04 1280.7,375.13"];
	91 -- 192	[pos="1243.6,422.18 1235.2,400.39 1221.1,363.51 1212.7,341.64"];
	20 -- 79	[pos="637.5,675.59 656.25,636.72 701.62,542.66 720.41,503.71"];
	20 -- 57	[pos="655.66,688.53 674.43,685.48 699.5,681.41 718.24,678.37"];
	20 -- 36	[pos="647.85,705.87 666.1,718.62 693.74,737.93 712.07,750.73"];
	20 -- 45	[pos="616.4,708.84 596.75,733.45 559.31,780.32 539.56,805.04"];
	256	[height=0.5,
		pos="456.47,702.75",
		width=0.75];
	20 -- 256	[pos="602.2,694.38 569.84,696.24 515.94,699.34 483.55,701.2"];
	20 -- 59	[pos="638.95,709.85 655.07,737.96 687.08,793.76 703.16,821.79"];
	20 -- 69	[pos="626.74,710.91 622.66,741.13 614.49,801.61 610.38,832.01"];
	20 -- 196	[pos="603.3,687.44 552.65,676.89 440.96,653.62 390.23,643.05"];
	20 -- 88	[pos="622.85,675.05 613.41,648.51 595.73,598.84 586.29,572.35"];
	199	[height=0.5,
		pos="433.85,752.06",
		width=0.75];
	20 -- 199	[pos="604.45,700.34 566.97,711.7 496.23,733.15 458.7,744.53"];
	266	[height=0.5,
		pos="371.55,756.11",
		width=0.75];
	20 -- 266	[pos="603.54,699.13 554.16,711.26 446.39,737.73 397.09,749.84"];
	194 -- 213	[pos="1151.1,507.83 1164.2,482.18 1188.7,434.17 1201.8,408.56"];
	108 -- 220	[pos="1000.2,1084.8 1003.3,1080.9 1006.7,1076.6 1009.8,1072.7"];
	22 -- 44	[pos="302.15,663.06 302.12,678.53 302.08,700.71 302.05,716.17"];
	22 -- 150	[pos="292.29,628.21 280.04,607.41 259.3,572.19 247.01,551.31"];
	22 -- 55	[pos="284.09,658.63 245.39,687.75 154.97,755.78 116.3,784.87"];
	22 -- 127	[pos="323.21,656.54 335.39,663.22 350.69,671.6 362.86,678.28"];
	22 -- 230	[pos="316.37,629.67 322.59,622.95 329.87,615.07 336.09,608.34"];
	22 -- 52	[pos="279.37,654.95 251.12,667.24 203.3,688.05 174.95,700.38"];
	22 -- 248	[pos="285.16,630.88 271.53,619.56 252.5,603.78 238.88,592.47"];
	22 -- 109	[pos="325.24,635.34 347.15,626.15 379.91,612.4 401.79,603.22"];
	22 -- 238	[pos="295.28,662.43 293.99,665.67 292.65,669.05 291.37,672.29"];
	22 -- 162	[pos="276.09,650.1 235.12,658.08 156.19,673.45 115.3,681.41"];
	22 -- 171	[pos="288.06,660.57 261.35,689.98 203.73,753.4 176.98,782.84"];
	22 -- 276	[pos="276.23,650.02 258.59,653.42 235.33,657.91 217.64,661.32"];
	57 -- 210	[pos="764.26,661.47 774.04,655.19 785.84,647.62 795.62,641.35"];
	74 -- 80	[pos="1051,1131.9 1004.8,1101.4 888.7,1024.6 842.62,994.12"];
	187	[height=0.5,
		pos="1076.7,1230.7",
		width=0.75];
	74 -- 187	[pos="1071.7,1162.9 1072.8,1177.5 1074.3,1197.9 1075.4,1212.5"];
	74 -- 76	[pos="1097.1,1148.1 1101.8,1148.7 1106.7,1149.4 1111.4,1150"];
	74 -- 102	[pos="1049.5,1156.3 1027.7,1168.5 993.71,1187.5 971.85,1199.7"];
	74 -- 295	[pos="1090,1132.1 1097.3,1127.5 1105.5,1122.2 1112.8,1117.5"];
	289	[height=0.5,
		pos="1141.2,1197.7",
		width=0.75];
	74 -- 289	[pos="1088.6,1158.3 1099.1,1166.2 1112.2,1176 1122.8,1183.9"];
	74 -- 254	[pos="1093.8,1135.7 1119.3,1126 1159.7,1110.5 1185.3,1100.8"];
	267	[height=0.5,
		pos="1202.2,1135.8",
		width=0.75];
	74 -- 267	[pos="1097.3,1142.9 1120.1,1141.3 1152.5,1139.1 1175.2,1137.6"];
	159 -- 287	[pos="881.81,1100 908.23,1080.7 956.72,1045.3 983.19,1026"];
	159 -- 186	[pos="884.52,1101.9 922.97,1080.8 1004.1,1036.3 1042.6,1015.3"];
	159 -- 274	[pos="881.51,1100 893.55,1091 909.34,1079.2 921.41,1070.2"];
	150 -- 248	[pos="230.94,551.99 229.96,554.86 228.93,557.83 227.95,560.7"];
	150 -- 164	[pos="225.78,550.9 215.1,566.64 199.13,590.17 188.46,605.88"];
	23 -- 42	[pos="420.51,858.74 474.87,830.69 616.79,757.46 671.18,729.4"];
	23 -- 269	[pos="382.22,884.45 367.41,897.37 345.89,916.15 331.1,929.07"];
	23 -- 146	[pos="424.26,863.66 508.7,842.94 779.72,776.42 864.37,755.65"];
	23 -- 158	[pos="382.33,855.46 372.1,846.54 359,835.13 348.71,826.17"];
	23 -- 195	[pos="372.23,866.64 352.99,864.29 327.13,861.14 307.92,858.79"];
	24 -- 123	[pos="1132.1,944.68 1094.7,940.08 1027.3,931.78 989.95,927.17"];
	24 -- 186	[pos="1138.2,960.08 1122.1,969.49 1099.9,982.49 1084,991.84"];
	123 -- 188	[pos="936.13,924.05 904.83,924.26 853.56,924.6 822.17,924.81"];
	123 -- 128	[pos="987.72,931.47 1007.4,937.55 1034.8,946.04 1054.5,952.12"];
	123 -- 125	[pos="959.29,905.96 958.71,903.3 958.12,900.55 957.54,897.88"];
	123 -- 287	[pos="970.75,941.39 977.5,956.94 987.29,979.53 994.03,995.06"];
	123 -- 239	[pos="990.1,922.21 1013.2,920.79 1046.3,918.76 1069.4,917.34"];
	123 -- 186	[pos="980.67,937.78 999,952.35 1027.6,975.1 1046,989.71"];
	123 -- 274	[pos="959.98,941.77 955.48,967.09 947.3,1013.1 942.79,1038.5"];
	40 -- 84	[pos="735.35,974.62 732.04,975.34 728.64,976.07 725.32,976.79"];
	40 -- 78	[pos="734.74,973 686.99,980.2 587.17,995.26 539.56,1002.4"];
	40 -- 70	[pos="746.39,984.56 730.69,1001 706.11,1026.6 690.47,1043"];
	40 -- 115	[pos="752.3,986.11 736.12,1016.9 702.3,1081.2 686.17,1111.9"];
	40 -- 211	[pos="773.37,985.58 787.01,1004.3 809.05,1034.6 822.6,1053.1"];
	143	[height=0.5,
		pos="371.6,1002.8",
		width=0.75];
	40 -- 143	[pos="734.51,971.32 663.32,977.5 469.98,994.27 398.57,1000.5"];
	40 -- 156	[pos="740.23,980.74 705.46,1000.1 636.42,1038.7 601.73,1058"];
	235	[height=0.5,
		pos="388.08,1090.9",
		width=0.75];
	40 -- 235	[pos="736.8,977 669.18,999.09 480.39,1060.8 412.65,1082.9"];
	25 -- 71	[pos="597.46,283.22 617.64,308.4 656.46,356.85 676.7,382.11"];
	25 -- 46	[pos="611.52,265.02 641.76,262.66 690.54,258.85 720.79,256.48"];
	25 -- 30	[pos="567.14,281.19 516.04,322.41 367.05,442.6 316.24,483.58"];
	25 -- 33	[pos="586.26,285.33 590.01,325.65 598.99,422.14 602.73,462.42"];
	25 -- 96	[pos="567.12,281.11 526.35,313.76 425.23,394.77 384.38,427.49"];
	25 -- 50	[pos="589.78,285.03 590.58,287.79 591.41,290.64 592.22,293.4"];
	25 -- 252	[pos="598.55,251.6 613.2,235.33 636.07,209.92 650.76,193.61"];
	25 -- 60	[pos="585.71,248.87 587.28,223.79 590.08,178.94 591.64,153.94"];
	97	[height=0.5,
		pos="358.04,371.23",
		width=0.75];
	25 -- 97	[pos="562.02,277.49 518.6,297.45 423.85,340.99 380.5,360.91"];
	90	[height=0.5,
		pos="299.8,452.93",
		width=0.75];
	25 -- 90	[pos="565,279.9 512.85,313.93 371.01,406.47 319.14,440.31"];
	25 -- 132	[pos="572.34,283.54 547.5,316.88 491.4,392.15 466.67,425.34"];
	25 -- 148	[pos="577.19,249.47 570.87,234.33 561.8,212.63 555.48,197.5"];
	71 -- 97	[pos="662.84,396.14 600.69,391.06 447.54,378.55 385.15,373.45"];
	71 -- 90	[pos="663.2,402.04 592.07,412 397.5,439.25 326.33,449.21"];
	71 -- 217	[pos="716.8,398.58 742.85,398.81 782.01,399.16 808.18,399.39"];
	26	[height=0.5,
		pos="512.16,1088.8",
		width=0.75];
	26 -- 39	[pos="531.36,1075.8 586.48,1038.5 744.79,931.29 799.9,893.97"];
	26 -- 78	[pos="512.39,1070.5 512.56,1056.9 512.8,1038.3 512.97,1024.7"];
	191	[height=0.5,
		pos="254.91,1035",
		width=0.75];
	26 -- 191	[pos="486.08,1083.4 436.64,1073 329.87,1050.7 280.68,1040.4"];
	26 -- 143	[pos="492.02,1076.5 465.3,1060.1 418.4,1031.4 391.7,1015.1"];
	207	[height=0.5,
		pos="382.71,1046.8",
		width=0.75];
	26 -- 207	[pos="487.81,1080.9 464.81,1073.5 430.5,1062.3 407.39,1054.9"];
	26 -- 116	[pos="527.43,1073.5 537.34,1063.6 550.22,1050.7 560.11,1040.8"];
	39 -- 113	[pos="844.85,875.28 882.61,866.93 952.59,851.45 990.35,843.1"];
	39 -- 170	[pos="795.91,890.39 770.34,900.77 729.45,917.38 703.85,927.78"];
	39 -- 70	[pos="806.12,897.03 778.82,930.8 715.75,1008.8 688.58,1042.4"];
	39 -- 211	[pos="820.56,899.04 823.5,935.06 830.05,1015.4 832.99,1051.4"];
	39 -- 143	[pos="794.07,887.79 715.66,909.14 475.26,974.59 396.72,995.97"];
	39 -- 207	[pos="795.63,889.89 719.86,918.7 482.22,1009 406.29,1037.9"];
	39 -- 116	[pos="798.72,893.06 752.82,920.3 641.73,986.21 595.72,1013.5"];
	39 -- 176	[pos="836.2,866.81 842.27,861.78 849.1,856.13 855.16,851.11"];
	46 -- 71	[pos="740.66,272.02 729.51,299.65 708.06,352.82 696.88,380.54"];
	46 -- 252	[pos="731.8,239.64 717.11,226.11 695.47,206.16 680.8,192.64"];
	46 -- 60	[pos="730,240.77 700.26,218.03 640.75,172.52 610.83,149.64"];
	46 -- 172	[pos="758.32,237.69 780.84,202.01 833.46,118.66 855.97,83.021"];
	46 -- 147	[pos="753.22,236.4 764.05,200.58 788.21,120.66 799.02,84.887"];
	46 -- 284	[pos="762.57,239.14 796.55,204.14 879.84,118.34 913.77,83.396"];
	46 -- 148	[pos="724.1,245.53 685.67,231.19 610.18,203.02 571.77,188.69"];
	46 -- 260	[pos="722.79,247.51 670.35,233.11 549.34,199.89 496.78,185.46"];
	46 -- 215	[pos="772.19,262.26 796.88,270.24 834.86,282.51 859.64,290.52"];
	84 -- 111	[pos="724.38,975.63 755.99,967.07 809.97,952.44 841.66,943.85"];
	84 -- 156	[pos="681.03,995.88 658.83,1012.2 621.57,1039.7 599.27,1056.1"];
	84 -- 235	[pos="675.12,990.86 617,1011.1 469.9,1062.4 412.01,1082.6"];
	282	[height=0.5,
		pos="317.08,1055.9",
		width=0.75];
	84 -- 282	[pos="673.31,987.42 603.59,1000.8 412.85,1037.5 343.08,1050.9"];
	111 -- 123	[pos="893.48,933.38 906.94,931.54 923.24,929.32 936.69,927.48"];
	111 -- 156	[pos="844.48,947.41 790.99,972.22 656.53,1034.6 603.15,1059.3"];
	111 -- 128	[pos="893.78,939.88 934.46,944.24 1011.3,952.46 1052,956.82"];
	111 -- 125	[pos="886.17,924.32 900.44,914.91 919.83,902.14 934.16,892.69"];
	111 -- 239	[pos="893.69,934.52 937.76,930.42 1025.1,922.3 1069.3,918.19"];
	27 -- 66	[pos="751.64,515.31 787.31,480.14 875.78,392.88 911.52,357.63"];
	27 -- 98	[pos="718.48,543.9 685.79,568.62 616.79,620.81 584.09,645.54"];
	27 -- 131	[pos="735.02,512.09 732.19,473.64 725.63,384.78 722.81,346.49"];
	27 -- 126	[pos="754.11,544 764.68,552.13 778.06,562.43 788.67,570.59"];
	89	[height=0.5,
		pos="555,436.55",
		width=0.75];
	27 -- 89	[pos="714.85,519.24 679.95,501.18 611.38,465.71 576.49,447.67"];
	27 -- 100	[pos="745.5,513.11 771.71,463.56 846.99,321.25 873.2,271.71"];
	234	[height=0.5,
		pos="961.76,386.54",
		width=0.75];
	27 -- 234	[pos="755.98,517.85 798.61,490.65 899.31,426.4 942.04,399.13"];
	27 -- 133	[pos="750.15,514.65 788.2,471.25 894.42,350.08 932.53,306.61"];
	202	[height=0.5,
		pos="783.49,355.52",
		width=0.75];
	27 -- 202	[pos="741.15,512.64 750.18,479.13 769.66,406.84 778.7,373.29"];
	27 -- 297	[pos="757.38,518.82 823.2,482.64 1025,371.7 1091,335.46"];
	28 -- 181	[pos="1146.8,1017.6 1153.3,1022.8 1160.6,1028.6 1167.1,1033.7"];
	28 -- 49	[pos="1130.4,985.68 1132.9,944.35 1138.9,843.15 1141.4,801.58"];
	28 -- 67	[pos="1146.5,989.79 1177.4,964.86 1241.6,912.88 1272.7,887.74"];
	28 -- 63	[pos="1153.3,995.5 1170.3,989.71 1192.9,981.99 1209.9,976.19"];
	99	[height=0.5,
		pos="1346.4,1053.4",
		width=0.75];
	28 -- 99	[pos="1155,1009.6 1196.8,1019.2 1278.9,1037.9 1320.7,1047.5"];
	28 -- 185	[pos="1135.6,986.07 1150.5,944.83 1187.3,842.52 1202.2,801.2"];
	124	[height=0.5,
		pos="1416,910.86",
		width=0.75];
	28 -- 124	[pos="1153.7,995.81 1207.9,978.26 1337.5,936.28 1391.6,918.76"];
	28 -- 286	[pos="1142,987.54 1173.3,947.55 1254.2,844.39 1285.5,804.51"];
	28 -- 271	[pos="1130.8,985.64 1132.9,960.49 1136.6,915.22 1138.7,889.96"];
	28 -- 272	[pos="1116.3,1019.7 1101.8,1037.7 1078.3,1066.7 1063.7,1084.6"];
	29 -- 35	[pos="911.97,803.95 873.15,822.3 793.66,859.86 754.98,878.14"];
	29 -- 283	[pos="961.43,793.4 964.05,793.4 966.71,793.39 969.34,793.39"];
	30 -- 96	[pos="316.15,483.34 326.35,474.93 339.27,464.28 349.51,455.83"];
	30 -- 212	[pos="313.92,512.49 320.44,519.08 328.08,526.79 334.61,533.39"];
	30 -- 101	[pos="316.14,483.34 339.22,464.3 380.11,430.55 403.15,411.54"];
	208	[height=0.5,
		pos="236.95,481.69",
		width=0.75];
	30 -- 208	[pos="273.78,491.04 270.02,490.09 266.15,489.1 262.38,488.15"];
	30 -- 277	[pos="326.29,496.33 358.48,494.99 411.73,492.79 443.87,491.46"];
	30 -- 132	[pos="323,488.85 352.23,478.35 401.34,460.71 430.58,450.2"];
	174	[height=0.5,
		pos="225.6,435.76",
		width=0.75];
	30 -- 174	[pos="282.01,483.14 270.14,473.18 254.39,459.94 242.54,449.99"];
	232	[height=0.5,
		pos="165.91,524.97",
		width=0.75];
	30 -- 232	[pos="273.06,502.82 249.6,507.67 215.27,514.77 191.83,519.61"];
	225	[height=0.5,
		pos="296.02,327.75",
		width=0.75];
	30 -- 225	[pos="298.72,479.29 298.14,446.63 296.92,378.35 296.35,345.78"];
	298	[height=0.5,
		pos="109.71,569.57",
		width=0.75];
	30 -- 298	[pos="275.44,506.44 239.06,520.3 169.68,546.73 133.31,560.59"];
	30 -- 257	[pos="317.46,483.88 356.22,455.34 445.78,389.37 484.38,360.95"];
	31 -- 113	[pos="1047.9,787.76 1041.5,797.75 1033.4,810.39 1027,820.42"];
	32 -- 137	[pos="807.46,688.24 740.81,709.37 556.09,767.94 489.16,789.16"];
	32 -- 54	[pos="851.19,667.41 867.31,656.5 890.17,641.03 906.2,630.18"];
	32 -- 146	[pos="845.3,696.48 854.68,707.61 867.13,722.39 876.49,733.5"];
	32 -- 140	[pos="852.63,692.03 875.55,704.75 912.21,725.09 935.16,737.81"];
	32 -- 86	[pos="837.92,662.8 844.75,642.94 855.75,610.9 862.58,591.02"];
	54 -- 140	[pos="929.35,635.13 935.23,660.34 945.93,706.15 951.82,731.43"];
	33 -- 71	[pos="620.06,465.49 635.45,450.65 658.8,428.13 674.16,413.32"];
	33 -- 96	[pos="578.09,476.24 532.42,468.74 439.05,453.39 393.3,445.88"];
	33 -- 263	[pos="580.72,489.39 552.7,499.81 506.38,517.04 478.41,527.44"];
	33 -- 53	[pos="628.21,471.9 645.37,465.64 668.42,457.23 685.56,450.98"];
	33 -- 97	[pos="581.68,470.48 534.75,449.65 427.61,402.11 380.73,381.3"];
	33 -- 217	[pos="628.73,472.06 673.25,456.48 767.37,423.53 811.65,408.04"];
	33 -- 101	[pos="581.83,470.39 546.37,454.4 478.05,423.6 442.65,407.64"];
	33 -- 277	[pos="577.42,482.55 554.27,484.24 521.09,486.67 497.95,488.37"];
	33 -- 145	[pos="588.37,466.03 570.36,449.71 541.31,423.39 523.29,407.07"];
	33 -- 177	[pos="628.92,472.72 684.12,455.02 817.72,412.18 873.05,394.44"];
	96 -- 97	[pos="364.58,423.43 363.28,413.01 361.64,399.96 360.33,389.52"];
	179	[height=0.5,
		pos="273.94,388.85",
		width=0.75];
	96 -- 179	[pos="346.23,429.84 330.94,421.17 310.18,409.39 294.82,400.69"];
	96 -- 101	[pos="384.01,427.36 390.1,422.33 396.95,416.68 403.03,411.65"];
	96 -- 174	[pos="339.61,440.42 314.6,439.4 277.74,437.89 252.75,436.87"];
	209	[height=0.5,
		pos="336.72,270.79",
		width=0.75];
	96 -- 209	[pos="363.68,423.58 357.9,390.79 345.68,321.56 339.89,288.75"];
	96 -- 225	[pos="356.4,424.74 343.01,403.23 319.93,366.15 306.52,344.61"];
	85 -- 103	[pos="1303,294.15 1301.3,339.27 1296.8,455.64 1295.1,500.64"];
	85 -- 119	[pos="1318.4,291.31 1331.9,305.47 1351.8,326.35 1365.3,340.49"];
	85 -- 175	[pos="1328.3,268.4 1339.5,265 1352.7,260.97 1363.9,257.56"];
	68 -- 167	[pos="572.59,873.61 593.68,876.24 622.92,879.9 644,882.54"];
	36 -- 47	[pos="712.5,777.48 673.03,806.47 580.8,874.21 541.37,903.17"];
	36 -- 79	[pos="730.82,745.71 730.42,695.42 729.31,555.02 728.92,504.64"];
	36 -- 152	[pos="755.77,756.74 794.59,745.5 869.29,723.87 908.24,712.59"];
	130	[height=0.5,
		pos="336.88,899.58",
		width=0.75];
	36 -- 130	[pos="706.9,772.21 636.47,796.45 431.23,867.1 360.88,891.32"];
	36 -- 45	[pos="705.9,770.96 666.58,781.99 590.81,803.24 551.56,814.25"];
	36 -- 256	[pos="705.14,758.17 652.82,746.51 534.85,720.22 482.42,708.54"];
	36 -- 169	[pos="709.6,775.24 646.47,808.67 461.25,906.76 398.09,940.21"];
	36 -- 199	[pos="703.81,762.84 647.22,760.58 517.27,755.39 460.83,753.14"];
	36 -- 266	[pos="703.95,763.34 637.34,761.89 465.81,758.16 398.87,756.71"];
	131 -- 297	[pos="748.63,328.09 820.16,327.26 1013.2,325.01 1084.8,324.18"];
	38 -- 152	[pos="1093.6,588.2 1059.3,613.3 985.9,666.89 951.62,691.93"];
	38 -- 91	[pos="1127.4,559.75 1154,533.82 1208.3,480.79 1234.9,454.8"];
	38 -- 155	[pos="1108.7,592.56 1103.7,618.28 1094.5,665.49 1089.6,691.25"];
	38 -- 56	[pos="1138.3,579.75 1173.6,586.55 1236.1,598.61 1271.3,605.4"];
	38 -- 129	[pos="1128.8,560.26 1166.6,527.63 1258.2,448.55 1295.8,416.08"];
	38 -- 62	[pos="1131.8,562.27 1180.4,531.6 1305.6,452.62 1354.4,421.8"];
	38 -- 75	[pos="1136.9,567.37 1183.7,553.51 1284.8,523.6 1331.6,509.72"];
	38 -- 224	[pos="1115.3,556.72 1122.2,517.61 1138.5,425.21 1145.4,386"];
	38 -- 184	[pos="1139.1,575.43 1199.5,577.06 1344.5,580.95 1405.1,582.58"];
	38 -- 95	[pos="1124.7,590.71 1142,612.58 1172.8,651.58 1190.1,673.56"];
	38 -- 112	[pos="1135.8,565.69 1194.9,543.24 1347.9,485.02 1407.1,462.5"];
	38 -- 122	[pos="1125.1,558.75 1157.8,518.63 1243.1,413.88 1275.8,373.74"];
	38 -- 161	[pos="1099.3,590.56 1088.7,603.61 1073.8,622.02 1063.1,635.13"];
	278	[height=0.5,
		pos="1362.2,642.58",
		width=0.75];
	38 -- 278	[pos="1137.5,581.59 1185.5,594.63 1289.3,622.8 1337.1,635.78"];
	38 -- 192	[pos="1118.7,557.07 1135.9,511.01 1182.1,387.53 1199.3,341.49"];
	155 -- 161	[pos="1075.7,692.42 1070.9,684.8 1065.4,675.79 1060.6,668.15"];
	41 -- 48	[pos="1341.1,554.58 1317,541.69 1277.7,520.72 1253.6,507.83"];
	41 -- 106	[pos="1335.3,567.82 1275.2,572.18 1130.6,582.64 1070.2,587.01"];
	139 -- 154	[pos="1501.9,448.64 1498.6,468.14 1493.5,499.09 1490.2,518.62"];
	139 -- 178	[pos="1488.4,445 1474.7,456.88 1455.3,473.68 1441.7,485.56"];
	205	[height=0.5,
		pos="1527.9,580.74",
		width=0.75];
	139 -- 205	[pos="1507.6,448.75 1512.1,477.6 1520.6,533.68 1525.1,562.57"];
	237 -- 262	[pos="877.28,471.79 881.96,473.43 886.87,475.14 891.56,476.78"];
	130 -- 199	[pos="347.82,882.95 366.44,854.61 404.11,797.31 422.81,768.86"];
	78 -- 84	[pos="539.86,1003 575.24,998.42 637.32,990.42 672.67,985.86"];
	78 -- 191	[pos="486.53,1009.4 437.04,1014.8 331.5,1026.5 281.82,1032"];
	78 -- 143	[pos="485.9,1005.7 460.82,1005.1 423.87,1004.1 398.82,1003.5"];
	78 -- 207	[pos="488.66,1014 465.48,1021.2 430.88,1031.9 407.59,1039.1"];
	78 -- 116	[pos="537.72,1014 541.92,1015.3 546.28,1016.7 550.49,1018"];
	250	[height=0.5,
		pos="182.31,998.01",
		width=0.75];
	78 -- 250	[pos="486.12,1005.7 423.92,1004.2 271.41,1000.3 209.3,998.69"];
	48 -- 85	[pos="1238.1,478.86 1251.5,437.54 1284.6,335.06 1298,293.66"];
	48 -- 61	[pos="1238.9,478.78 1258.1,426.71 1314,274.88 1333,223.11"];
	48 -- 106	[pos="1210.3,507.33 1173.8,525.14 1101.4,560.5 1065,578.27"];
	48 -- 103	[pos="1256.2,505.07 1260.9,506.74 1265.7,508.49 1270.4,510.15"];
	212 -- 277	[pos="371.55,537.96 393.42,527.49 426.8,511.51 448.76,500.99"];
	107	[height=0.5,
		pos="1422.3,774.76",
		width=0.75];
	56 -- 107	[pos="1309.5,626.48 1333.4,657.81 1385.8,726.81 1409.8,758.4"];
	56 -- 95	[pos="1280.5,624.61 1263.4,638.97 1237.1,661.05 1220,675.46"];
	56 -- 110	[pos="1304.1,628.1 1313,651.16 1328.3,691.27 1337.2,714.34"];
	236	[height=0.5,
		pos="1487.8,713.09",
		width=0.75];
	56 -- 236	[pos="1318.4,621.8 1355.1,641.53 1429.9,681.89 1466.6,701.66"];
	170 -- 176	[pos="701.84,926.11 738.67,906.84 814,867.44 850.91,848.13"];
	70 -- 115	[pos="676.12,1076.5 676.35,1087 676.63,1100.1 676.85,1110.6"];
	70 -- 211	[pos="702.66,1060.2 731.85,1062.3 778.16,1065.5 807.4,1067.5"];
	70 -- 143	[pos="649.54,1053.6 592.05,1043.1 455.37,1018.1 397.84,1007.6"];
	115 -- 156	[pos="657.26,1116.6 640.71,1106.5 617.31,1092.1 600.76,1081.9"];
	115 -- 235	[pos="650.56,1125.4 595.47,1118.2 469.73,1101.7 414.7,1094.4"];
	191 -- 250	[pos="233.13,1023.9 223.86,1019.2 213.07,1013.7 203.83,1009"];
	141 -- 168	[pos="436.87,111.26 448.25,104.66 462.37,96.473 473.77,89.86"];
	141 -- 148	[pos="439.31,133.03 463.49,143.44 501.34,159.73 525.42,170.1"];
	81 -- 121	[pos="891.38,202.05 855.25,189.58 787.63,166.22 751.56,153.76"];
	81 -- 227	[pos="895.61,198.11 871.99,183.56 832.93,159.51 809.36,144.99"];
	81 -- 273	[pos="900.18,225.67 882.78,242.9 854.66,270.74 837.38,287.84"];
	50 -- 252	[pos="606.06,294 619.02,268.43 643.27,220.56 656.21,195.03"];
	50 -- 190	[pos="570.38,313.31 532.07,316.39 462.34,321.99 424.09,325.07"];
	50 -- 60	[pos="596.91,293.04 596.02,259.36 594.13,187.44 593.25,153.84"];
	55 -- 238	[pos="118.88,786.4 154.77,765.45 228.25,722.55 264,701.67"];
	55 -- 162	[pos="96.809,780.46 95.153,759.69 92.444,725.7 90.777,704.79"];
	230 -- 248	[pos="323.72,589.91 301.82,587.42 270.91,583.92 248.9,581.42"];
	230 -- 238	[pos="339.16,609.35 327.04,627.15 307.82,655.4 295.68,673.23"];
	45 -- 47	[pos="525.91,839.65 525.25,856.66 524.29,881.79 523.64,898.68"];
	45 -- 130	[pos="503.35,830.86 466.84,845.93 396.49,874.97 360.04,890.02"];
	45 -- 169	[pos="510,835.69 481.18,860.73 422.26,911.94 393.39,937.03"];
	45 -- 69	[pos="550.56,829.83 561.05,833.58 573.34,837.98 583.84,841.74"];
	45 -- 65	[pos="514.77,837.68 498.02,860.94 467.56,903.21 450.75,926.54"];
	45 -- 149	[pos="504.52,831.63 452,856.28 320.18,918.18 267.38,942.97"];
	45 -- 199	[pos="508.29,807.58 492.02,795.45 468.39,777.82 452.14,765.7"];
	45 -- 294	[pos="512.36,836.93 501.34,849.06 486.15,865.76 475.14,877.87"];
	166 -- 294	[pos="559.88,919.61 538.49,913.98 507.9,905.91 486.41,900.25"];
	166 -- 200	[pos="562.89,936.92 538.09,948.91 498.11,968.24 473.3,980.24"];
	256 -- 266	[pos="436.77,715.13 423.15,723.69 405.09,735.04 391.43,743.62"];
	61 -- 85	[pos="1330.6,222.96 1325.1,233.86 1318,247.85 1312.5,258.71"];
	49 -- 138	[pos="1144.8,765.15 1145.1,761.94 1145.6,758.6 1145.9,755.4"];
	49 -- 67	[pos="1162.5,795.46 1190.7,812.68 1242,843.98 1270.3,861.25"];
	49 -- 63	[pos="1151.2,800.65 1168.7,835.92 1208.2,915.57 1225.6,950.69"];
	49 -- 242	[pos="1120.8,794.39 1114.8,797.46 1108.3,800.8 1102.3,803.88"];
	49 -- 64	[pos="1169.7,782.47 1211.5,781.21 1291.2,778.8 1333,777.54"];
	49 -- 136	[pos="1160.4,769.75 1183.6,752.09 1224,721.39 1247.2,703.73"];
	49 -- 185	[pos="1169.8,783.36 1173.6,783.37 1177.5,783.38 1181.4,783.39"];
	49 -- 124	[pos="1164.9,793.73 1216.3,817.71 1342.4,876.51 1393.7,900.46"];
	49 -- 288	[pos="1165.6,773.65 1185.1,765.53 1212.8,753.97 1232.3,745.86"];
	49 -- 216	[pos="1164.2,794 1179.2,801.41 1199.1,811.23 1214.2,818.66"];
	243	[height=0.5,
		pos="1423.6,730.62",
		width=0.75];
	49 -- 243	[pos="1168.7,778.38 1222.3,768.34 1343.8,745.58 1397.4,735.54"];
	67 -- 185	[pos="1276.1,857.83 1261.1,841.3 1237.6,815.43 1222.6,798.97"];
	67 -- 118	[pos="1295.6,891.46 1298.5,901.07 1302,912.88 1304.8,922.49"];
	67 -- 73	[pos="1314.6,881.93 1319.5,883.62 1324.7,885.39 1329.5,887.08"];
	67 -- 218	[pos="1287.8,891.49 1284,918.64 1276.7,969.84 1272.8,997.17"];
	67 -- 286	[pos="1292,855.47 1293.3,841.03 1295.2,820.88 1296.5,806.45"];
	259	[height=0.5,
		pos="1458.2,955.13",
		width=0.75];
	67 -- 259	[pos="1312.3,884.18 1344.5,899.82 1404.1,928.81 1436.2,944.45"];
	51 -- 74	[pos="883.17,1194.7 924.04,1183.8 1004.3,1162.4 1045.2,1151.4"];
	51 -- 219	[pos="833.87,1193.1 786.69,1176.6 682.69,1140.3 635.44,1123.8"];
	51 -- 163	[pos="866.91,1184.3 868.58,1181.2 870.31,1177.8 871.97,1174.6"];
	51 -- 102	[pos="884.85,1204.3 897.17,1205.7 911.75,1207.2 924.07,1208.5"];
	51 -- 105	[pos="842.97,1186.5 834.64,1178.2 824.3,1167.9 815.96,1159.5"];
	160	[height=0.5,
		pos="788.69,1251.7",
		width=0.75];
	51 -- 160	[pos="839.41,1214.9 829.47,1222.1 817.26,1231 807.31,1238.2"];
	285	[height=0.5,
		pos="599.66,1226.6",
		width=0.75];
	51 -- 285	[pos="830.82,1204.1 781.08,1209 675.92,1219.2 626.45,1224"];
	279	[height=0.5,
		pos="943.85,1255.4",
		width=0.75];
	51 -- 279	[pos="877.89,1214 891.77,1222.7 910.19,1234.3 924.04,1243"];
	51 -- 231	[pos="830.91,1199.4 808.49,1197.7 776.8,1195.3 754.39,1193.6"];
	51 -- 226	[pos="831.12,1198.3 785.26,1192.8 692.38,1181.6 646.58,1176.1"];
	51 -- 180	[pos="884.98,1199.4 913.36,1197.2 957.72,1193.7 986.08,1191.5"];
	244	[height=0.5,
		pos="881.15,1249.6",
		width=0.75];
	51 -- 244	[pos="866.34,1218.9 868.47,1223.3 870.75,1228 872.87,1232.4"];
	51 -- 264	[pos="879.08,1190.2 894.2,1182.1 914.48,1171.2 929.65,1163.1"];
	51 -- 240	[pos="831.91,1196.4 773.74,1185.2 633.87,1158.2 575.47,1146.9"];
	190 -- 221	[pos="414.73,313.1 434.4,297.25 466.11,271.7 485.79,255.84"];
	52 -- 150	[pos="160.23,693.2 176.5,659.55 212.37,585.33 228.67,551.62"];
	52 -- 251	[pos="148.46,728.3 147.94,730.97 147.41,733.72 146.89,736.38"];
	52 -- 248	[pos="160.92,693.41 174.28,668.2 199.22,621.12 212.68,595.7"];
	52 -- 245	[pos="173.51,721.69 183.5,726.91 195.33,733.09 205.29,738.29"];
	52 -- 164	[pos="157.05,692.59 161.45,677.31 167.75,655.42 172.15,640.15"];
	52 -- 171	[pos="154.17,728.65 156.04,743.75 158.69,765.12 160.56,780.22"];
	258	[height=0.5,
		pos="27,729.46",
		width=0.75];
	52 -- 258	[pos="125.42,714.45 104.23,717.68 74.642,722.19 53.453,725.43"];
	251 -- 258	[pos="117.57,748.87 98.284,744.74 72.037,739.11 52.763,734.98"];
	53 -- 157	[pos="736.18,440.2 739.63,439.93 743.15,439.65 746.6,439.38"];
	53 -- 145	[pos="683.66,436.02 644.8,426.44 571.33,408.32 532.59,398.76"];
	53 -- 177	[pos="734.28,434.93 770.42,424.23 836.83,404.56 872.86,393.9"];
	80 -- 295	[pos="846.57,990.65 903.89,1013.5 1051.5,1072.5 1109.1,1095.5"];
	80 -- 117	[pos="798.84,989.22 731.21,1010.9 542.42,1071.5 474.68,1093.2"];
	80 -- 134	[pos="797.06,986.01 761.6,992.29 698.79,1003.4 663.4,1009.7"];
	245 -- 251	[pos="199.34,751.05 190.06,751.6 179.69,752.23 170.42,752.78"];
	245 -- 270	[pos="225.15,767.8 223.87,784.22 222.01,808.13 220.74,824.44"];
	109 -- 127	[pos="417.23,611.23 409.84,628.59 398.64,654.92 391.27,672.23"];
	86 -- 137	[pos="847.8,584.85 778.3,623.31 555.21,746.78 485.54,785.35"];
	86 -- 146	[pos="870.86,591.48 874.94,625.31 883.64,697.55 887.7,731.3"];
	107 -- 236	[pos="1438.1,759.83 1448.4,750.14 1461.8,737.55 1472.1,727.88"];
	59 -- 69	[pos="686.11,841.68 670.31,843.43 650.39,845.64 634.61,847.39"];
	58 -- 261	[pos="1113.8,432.61 1102.2,396.99 1076.3,317.5 1064.7,281.92"];
	58 -- 129	[pos="1145.2,444.02 1182.2,434.68 1250.1,417.52 1287,408.21"];
	58 -- 224	[pos="1125.9,432.56 1130.8,418.62 1137.5,399.37 1142.4,385.5"];
	58 -- 213	[pos="1139.3,437.67 1154.7,427.7 1175.9,413.93 1191.2,404.02"];
	129 -- 224	[pos="1286.4,396.43 1255.7,390.08 1205,379.58 1174.4,373.25"];
	129 -- 213	[pos="1285.6,399.07 1270.8,397.56 1252.4,395.69 1237.5,394.17"];
	69 -- 199	[pos="587.25,838.7 553.75,819.78 487.95,782.61 454.47,763.71"];
	69 -- 294	[pos="582.97,857.68 555.94,865.62 513.04,878.21 485.97,886.17"];
	60 -- 141	[pos="565.6,133.88 532.35,131.49 476.41,127.47 443.28,125.09"];
	60 -- 252	[pos="613.24,147.79 622.89,153.44 634.4,160.16 644.09,165.82"];
	60 -- 168	[pos="572.39,123.83 555.51,113.89 531.64,99.823 514.76,89.882"];
	60 -- 148	[pos="577.4,150.99 572.86,155.47 567.89,160.36 563.36,164.83"];
	62 -- 139	[pos="1400.8,413.55 1423.4,417.27 1455.9,422.6 1478.5,426.32"];
	62 -- 189	[pos="1358.6,394.34 1322.5,360.19 1233.9,276.45 1197.8,242.35"];
	62 -- 214	[pos="1358.9,394.22 1331.7,367.73 1275.3,312.99 1248.1,286.52"];
	87	[height=0.5,
		pos="1277,169.54",
		width=0.75];
	62 -- 87	[pos="1367.2,391.59 1349.2,347.27 1302.2,231.54 1284.2,187.19"];
	62 -- 92	[pos="1385.3,392.71 1399.9,370.82 1425.4,332.4 1439.9,310.53"];
	62 -- 112	[pos="1392,422.96 1398.7,428.23 1406.4,434.25 1413.2,439.54"];
	62 -- 122	[pos="1354.1,397.02 1340.4,388.82 1322.5,378.05 1308.9,369.87"];
	189 -- 214	[pos="1198.7,241.94 1204.2,246.75 1210.4,252.12 1215.9,256.95"];
	63 -- 249	[pos="1235.7,949.7 1236.1,945.09 1236.5,940.13 1236.9,935.52"];
	63 -- 99	[pos="1252,981.42 1272.8,997.34 1307.3,1023.6 1328.3,1039.6"];
	63 -- 242	[pos="1218.9,952.66 1189.4,923.36 1125.1,859.43 1095.7,830.18"];
	63 -- 124	[pos="1258.7,960.19 1293.4,949.31 1356.5,929.53 1391.3,918.61"];
	63 -- 243	[pos="1246.9,951.94 1281.3,908.82 1376,790.2 1410.7,746.8"];
	63 -- 292	[pos="1226.7,950.38 1215.1,923.48 1193.2,872.24 1181.6,845.21"];
	63 -- 271	[pos="1219.1,952.42 1201.4,934.36 1172.5,904.68 1155,886.77"];
	99 -- 124	[pos="1354.8,1036.2 1368.2,1008.8 1394.2,955.54 1407.6,928.11"];
	75 -- 184	[pos="1371.1,517.97 1384.6,532.4 1404.6,553.71 1418,568.03"];
	75 -- 112	[pos="1376.1,489.51 1387,482.31 1400.6,473.38 1411.6,466.2"];
	242 -- 243	[pos="1106,808.75 1169.5,793.13 1334.2,752.61 1397.9,736.94"];
	242 -- 292	[pos="1107,818.57 1119.7,820.25 1134.8,822.26 1147.4,823.95"];
	224 -- 261	[pos="1134.9,352.14 1118.1,332.63 1089.6,299.6 1072.7,280.02"];
	64 -- 67	[pos="1348.3,793.14 1335.5,810.94 1315.1,839.18 1302.2,857.01"];
	64 -- 185	[pos="1333.1,777.93 1305.5,779.15 1263.2,781.03 1235.7,782.26"];
	64 -- 73	[pos="1359.2,794.76 1358,817.07 1355.9,854.85 1354.7,877.24"];
	64 -- 216	[pos="1337.1,786.52 1314.8,796 1281.3,810.28 1259,819.73"];
	64 -- 259	[pos="1369.6,793.83 1388.3,827.93 1430.1,904.01 1448.8,938.07"];
	65 -- 166	[pos="465.62,940.01 492,936.96 532.03,932.34 558.35,929.31"];
	65 -- 149	[pos="411.86,944.55 374.94,946.52 309,950.06 272.03,952.04"];
	65 -- 241	[pos="411.68,940.76 360.25,936.31 249.17,926.71 197.99,922.28"];
	65 -- 294	[pos="446.54,925.76 448.68,920.96 451.01,915.75 453.15,910.94"];
	65 -- 200	[pos="443.41,960.92 444.43,964.85 445.51,969.01 446.52,972.95"];
	268	[height=0.5,
		pos="89.384,908.73",
		width=0.75];
	65 -- 268	[pos="411.98,940.46 346.93,934.07 181.45,917.79 116.31,911.38"];
	136 -- 138	[pos="1242,699.5 1221.6,707.72 1192.1,719.65 1171.6,727.92"];
	136 -- 288	[pos="1261.3,708.11 1260.6,711.45 1259.8,714.93 1259.1,718.27"];
	149 -- 241	[pos="222.45,943.24 213.29,939.08 202.74,934.29 193.59,930.14"];
	149 -- 268	[pos="219.99,946.29 190.95,937.94 143.33,924.25 114.32,915.9"];
	185 -- 286	[pos="1235.9,784.98 1247,785.6 1259.8,786.31 1270.9,786.92"];
	291	[height=0.5,
		pos="1113.4,70.772",
		width=0.75];
	247 -- 291	[pos="1070,101.54 1077.8,95.977 1087,89.514 1094.8,83.951"];
	247 -- 299	[pos="1032.8,101.29 1025.2,95.826 1016.5,89.533 1009,84.082"];
	118 -- 218	[pos="1301.1,957.5 1294.6,969.68 1285.9,986.02 1279.4,998.25"];
	118 -- 259	[pos="1336.9,943.14 1363.6,945.78 1404.3,949.8 1431.1,952.45"];
	72 -- 94	[pos="1074.9,381.09 1054.3,352.1 1011.8,292.17 991.3,263.19"];
	73 -- 118	[pos="1338.9,910.69 1334.4,915.39 1329.4,920.56 1324.8,925.25"];
	73 -- 218	[pos="1342.1,912.12 1326.1,935.05 1297.6,976.05 1281.8,998.9"];
	73 -- 259	[pos="1374.3,907.23 1392.6,917.69 1419.3,932.9 1437.6,943.36"];
	187 -- 289	[pos="1098.2,1219.7 1105.1,1216.2 1112.7,1212.3 1119.6,1208.7"];
	163 -- 231	[pos="855.22,1163.2 826.88,1169.5 781.53,1179.5 753.15,1185.8"];
	163 -- 226	[pos="853.97,1159.1 803.93,1162 697.25,1168.4 647.03,1171.3"];
	163 -- 240	[pos="853.78,1156.2 791.41,1153.3 638.49,1146.1 576.2,1143.1"];
	76 -- 187	[pos="1125.3,1169.4 1114.8,1182.7 1099.9,1201.4 1089.4,1214.7"];
	76 -- 102	[pos="1113.1,1161.1 1077.2,1172.2 1011.3,1192.6 975.53,1203.7"];
	76 -- 180	[pos="1113,1160.6 1091.2,1166.9 1059.8,1175.9 1038,1182.2"];
	76 -- 289	[pos="1139.3,1171.4 1139.5,1174.1 1139.7,1176.8 1139.9,1179.5"];
	76 -- 254	[pos="1154.4,1139.1 1165.7,1129.3 1180.7,1116.3 1192,1106.4"];
	76 -- 267	[pos="1163,1146.5 1167.6,1145.2 1172.5,1143.9 1177.1,1142.6"];
	102 -- 187	[pos="977.26,1215.4 998.73,1218.7 1028.9,1223.4 1050.4,1226.7"];
	246	[height=0.5,
		pos="1009.7,1277",
		width=0.75];
	102 -- 246	[pos="964.82,1226.9 974.06,1237.2 986.14,1250.7 995.44,1261.1"];
	102 -- 160	[pos="925.54,1217.7 895.16,1225.2 844.54,1237.8 814.12,1245.4"];
	102 -- 285	[pos="923.91,1212.5 858.53,1215.4 692.2,1222.6 626.73,1225.4"];
	102 -- 279	[pos="948.02,1229.3 947.6,1232 947.16,1234.7 946.73,1237.4"];
	102 -- 231	[pos="923.92,1209 880.96,1205.2 797.44,1197.8 754.42,1193.9"];
	102 -- 180	[pos="975.09,1202.8 979.59,1201.2 984.29,1199.6 988.79,1198"];
	102 -- 244	[pos="929.96,1222.8 921.13,1227.7 910.88,1233.3 902.05,1238.2"];
	280	[height=0.5,
		pos="700.13,1269.8",
		width=0.75];
	102 -- 280	[pos="924.99,1217.4 876.82,1228.6 773.95,1252.6 725.88,1263.8"];
	184 -- 278	[pos="1415.4,597.66 1404.3,606.98 1390,619.07 1379,628.37"];
	77 -- 81	[pos="837.35,211.67 853.08,211.42 872.83,211.1 888.55,210.85"];
	77 -- 228	[pos="783.23,213.59 745.04,215.68 675.64,219.49 637.34,221.6"];
	77 -- 82	[pos="784.24,217.6 761.2,222.47 727.71,229.55 704.68,234.41"];
	77 -- 121	[pos="792.65,197.97 778.51,186.58 758.74,170.65 744.68,159.32"];
	228 -- 265	[pos="586.31,231.57 554.22,243 497.45,263.21 465.28,274.66"];
	117 -- 134	[pos="472.31,1090.8 508.33,1074.1 579.09,1041.3 615.09,1024.6"];
	114 -- 293	[pos="625,80.587 651.88,66.636 697.51,42.959 724.27,29.072"];
	114 -- 172	[pos="630.56,89.17 681.1,84.287 789.03,73.859 839.46,68.986"];
	114 -- 147	[pos="630.09,88.499 668.55,83.751 739.12,75.038 777.63,70.283"];
	114 -- 182	[pos="625.49,81.311 631.35,78.528 637.68,75.525 643.54,72.744"];
	82 -- 228	[pos="653.21,233.63 647.42,232.22 641.27,230.71 635.49,229.29"];
	82 -- 281	[pos="700.3,229.02 733.49,212.25 796.8,180.28 829.99,163.52"];
	82 -- 121	[pos="687.69,222.57 696.47,205.52 709.8,179.65 718.57,162.65"];
	82 -- 265	[pos="652.45,244.69 606.68,253.04 512.97,270.12 467.37,278.44"];
	281 -- 290	[pos="833.82,138.77 800.9,112.95 730.59,57.807 697.74,32.041"];
	143 -- 207	[pos="376.12,1020.7 376.82,1023.5 377.54,1026.3 378.23,1029.1"];
	121 -- 228	[pos="708.07,158.26 686.34,172.65 651.29,195.85 629.54,210.25"];
	121 -- 281	[pos="754.36,147 775.03,148.2 803.46,149.85 824.22,151.06"];
	121 -- 290	[pos="720.86,127.75 711.82,103.45 695.67,59.996 686.66,35.775"];
	83 -- 189	[pos="1177,187.42 1177.9,194.36 1178.9,202.28 1179.8,209.24"];
	83 -- 165	[pos="1149.1,175.61 1124.8,181.59 1088.4,190.54 1064.2,196.51"];
	83 -- 122	[pos="1184.8,186.04 1206.4,221.71 1256.8,304.93 1278.5,340.8"];
	83 -- 222	[pos="1147.8,166.14 1136.5,164.81 1123.4,163.25 1112.1,161.91"];
	165 -- 222	[pos="1054.5,187.87 1059.3,183.28 1064.7,178.22 1069.5,173.63"];
	103 -- 119	[pos="1303.4,501.65 1319.8,470.44 1354.3,404.65 1370.8,373.25"];
	103 -- 175	[pos="1300.6,501.14 1317.7,452.44 1365.3,316.47 1382.5,267.7"];
	87 -- 214	[pos="1269.5,186.84 1261.3,205.6 1248.4,235.36 1240.2,254.15"];
	87 -- 92	[pos="1295.6,182.87 1329.1,206.83 1399,256.93 1432.4,280.83"];
	87 -- 142	[pos="1288.8,185.79 1308,212.48 1346.2,265.33 1365.6,292.24"];
	92 -- 139	[pos="1457.8,311.63 1468.2,337.86 1487.6,386.95 1497.9,413.14"];
	92 -- 142	[pos="1424.8,299.3 1417.9,300.69 1410.5,302.19 1403.5,303.59"];
	88 -- 196	[pos="556.49,563.67 514.99,579.64 429.19,612.65 387.71,628.6"];
	89 -- 131	[pos="574.42,423.93 606.41,403.15 669.84,361.95 701.92,341.11"];
	89 -- 100	[pos="575.97,424.88 635.09,391.99 802.62,298.8 861.53,266.03"];
	89 -- 234	[pos="581.69,433.27 655.39,424.21 861.15,398.91 934.97,389.84"];
	89 -- 202	[pos="579.02,428.03 622.9,412.47 715.55,379.61 759.45,364.04"];
	90 -- 97	[pos="311.59,436.4 321.69,422.22 336.18,401.91 346.28,387.74"];
	95 -- 201	[pos="1176.9,695.21 1143,702.26 1084,714.52 1050.1,721.57"];
	95 -- 155	[pos="1176.7,694.15 1157.6,697.32 1131.8,701.6 1112.6,704.78"];
	95 -- 107	[pos="1226.4,698.89 1268.5,715.2 1356.4,749.25 1398.6,765.61"];
	95 -- 203	[pos="1229.9,689.3 1262.3,688.7 1316.3,687.69 1348.7,687.09"];
	95 -- 110	[pos="1227.8,697.26 1253.6,704.98 1293.6,716.97 1319.3,724.67"];
	95 -- 236	[pos="1230,692.01 1284.4,696.47 1406.6,706.46 1460.9,710.9"];
	95 -- 135	[pos="1228.2,682.94 1271.4,671.22 1358.9,647.48 1402,635.78"];
	95 -- 161	[pos="1177.3,683.35 1149,676.2 1103.7,664.76 1075.5,657.64"];
	100 -- 131	[pos="859.96,264.74 829.32,278.83 774.59,303.98 743.91,318.09"];
	100 -- 247	[pos="899.47,240.29 931.87,213.51 1001.8,155.74 1034.2,128.93"];
	100 -- 234	[pos="892.39,271.19 907.58,296.46 936.23,344.1 951.53,369.53"];
	100 -- 133	[pos="902.94,266.17 910.25,270.32 918.47,274.99 925.78,279.14"];
	100 -- 202	[pos="867.32,269.81 848.63,288.91 816.92,321.34 798.32,340.35"];
	100 -- 291	[pos="899.7,240.65 942.52,206.61 1052.8,118.95 1095.8,84.738"];
	100 -- 297	[pos="907.35,262.02 951.65,275.4 1043.4,303.12 1087.4,316.42"];
	179 -- 208	[pos="266.98,406.31 260.41,422.8 250.6,447.42 244,463.99"];
	179 -- 209	[pos="283.07,371.68 294.97,349.3 315.68,310.37 327.58,287.97"];
	179 -- 225	[pos="280.33,371.18 283.23,363.14 286.66,353.65 289.58,345.6"];
	142 -- 214	[pos="1352.3,302.32 1325.9,295.52 1284.6,284.9 1258.1,278.08"];
	101 -- 179	[pos="393,395.9 366.74,394.34 327.17,392 300.96,390.45"];
	101 -- 208	[pos="397.7,407.83 362.44,424.03 294.51,455.24 259.31,471.41"];
	101 -- 277	[pos="429.49,414.53 438.66,431.28 452.58,456.71 461.73,473.42"];
	101 -- 209	[pos="409.26,380.94 393.26,356.65 363.63,311.64 347.63,287.36"];
	101 -- 257	[pos="440.54,385.15 453.32,377.4 469.73,367.45 482.47,359.73"];
	208 -- 232	[pos="216.78,493.98 207.1,499.87 195.54,506.92 185.88,512.8"];
	208 -- 298	[pos="218.17,494.66 194.12,511.27 152.65,539.91 128.56,556.55"];
	246 -- 280	[pos="982.48,1276.4 923.76,1275 785.72,1271.8 727.15,1270.4"];
	133 -- 247	[pos="956.43,273.95 976.5,240.29 1021.3,165.18 1041.3,131.56"];
	133 -- 234	[pos="949.25,308.83 952.01,325.95 956.13,351.54 958.87,368.62"];
	133 -- 202	[pos="923.02,300.1 892.06,312.4 837.72,333.98 806.78,346.26"];
	133 -- 291	[pos="958.64,274.65 989.54,233.95 1070.2,127.7 1101.1,86.977"];
	133 -- 299	[pos="949.97,272.82 958.28,231.44 978.65,129.99 986.94,88.674"];
	104 -- 144	[pos="779.85,536.39 758.43,546.17 726.39,560.8 705.01,570.56"];
	104 -- 237	[pos="815.49,509.96 823.15,500.53 832.78,488.68 840.4,479.29"];
	105 -- 219	[pos="774.48,1140.4 738.36,1134.9 673.85,1124.9 637.68,1119.4"];
	119 -- 175	[pos="1381.5,337.42 1383.1,317.99 1385.6,287.58 1387.2,268.23"];
	110 -- 236	[pos="1370.7,728.53 1396.5,725.12 1435.4,719.99 1461.2,716.59"];
	110 -- 135	[pos="1357,715.94 1372.6,696.57 1398.7,664.26 1414.3,644.94"];
	112 -- 139	[pos="1455.6,445.84 1463.5,443.41 1472.2,440.71 1480.1,438.28"];
	112 -- 184	[pos="1431.2,471.49 1431.5,496.16 1431.9,540.18 1432.2,564.99"];
	112 -- 206	[pos="1439.4,436.03 1449.8,414.37 1467.4,377.61 1477.8,356.05"];
	112 -- 178	[pos="1428.7,471.52 1428.3,474.89 1427.9,478.4 1427.5,481.77"];
	112 -- 205	[pos="1443.3,469.55 1461.8,493.91 1496.7,539.83 1515.4,564.35"];
	112 -- 183	[pos="1451.4,441.45 1472.4,429.13 1504.9,410.02 1525.9,397.66"];
	112 -- 278	[pos="1424.5,471.22 1411.4,507.36 1381.7,588.98 1368.6,624.97"];
	162 -- 238	[pos="116.45,686.93 153.62,687.55 220.01,688.66 257.23,689.28"];
	156 -- 235	[pos="554.01,1072.6 517.29,1076.7 451.72,1083.9 414.96,1088"];
	156 -- 282	[pos="553.58,1068.3 502.91,1065.6 394.71,1059.9 344.16,1057.3"];
	116 -- 170	[pos="592.16,1011.5 611.82,994.95 644.06,967.89 663.71,951.4"];
	116 -- 191	[pos="548.2,1026.5 487.87,1028.2 342.79,1032.4 282.21,1034.2"];
	116 -- 250	[pos="548.23,1023.8 476.36,1018.7 281.03,1005 209.25,999.9"];
	116 -- 176	[pos="595.18,1013 649.29,978.62 798.38,883.9 852.38,849.59"];
	172 -- 293	[pos="843.17,57.048 821.77,48.482 790.22,35.856 768.84,27.299"];
	122 -- 189	[pos="1275.7,341.79 1255.3,316.8 1215.9,268.7 1195.3,243.63"];
	122 -- 165	[pos="1268.8,345.34 1221.8,316.25 1105.2,243.98 1058.5,215.04"];
	122 -- 222	[pos="1273.5,342.8 1235.8,305.92 1138.6,210.94 1100.7,173.87"];
	122 -- 192	[pos="1265.7,348.32 1254.3,343.66 1240.6,338.05 1229.2,333.38"];
	128 -- 287	[pos="1059.9,972.77 1047.9,980.96 1032.5,991.48 1020.5,999.64"];
	128 -- 239	[pos="1085.9,942.06 1087,939.19 1088.2,936.21 1089.3,933.34"];
	125 -- 188	[pos="928.5,887 898.78,895.45 849.63,909.43 819.96,917.87"];
	218 -- 259	[pos="1294.8,1007.6 1330.8,996 1397.6,974.58 1433.6,963.01"];
	132 -- 212	[pos="439.52,456.9 419.56,477.23 384.53,512.9 364.58,533.21"];
	135 -- 203	[pos="1413.1,644.69 1405.9,652.83 1397.1,662.72 1389.9,670.85"];
	202 -- 234	[pos="809.79,360.09 843.5,365.96 901.59,376.07 935.35,381.95"];
	199 -- 256	[pos="441.76,734.81 443.95,730.04 446.33,724.85 448.52,720.07"];
	199 -- 266	[pos="406.7,753.83 404.08,754 401.42,754.17 398.79,754.34"];
	145 -- 263	[pos="500.79,410.12 490.73,437.71 471.38,490.78 461.29,518.45"];
	154 -- 178	[pos="1466.9,524.65 1460.1,520.62 1452.5,516.13 1445.7,512.1"];
	154 -- 205	[pos="1501.4,552.1 1505.4,556.37 1509.6,561 1513.6,565.27"];
	147 -- 172	[pos="831.47,66.713 834.08,66.688 836.73,66.662 839.34,66.637"];
	147 -- 284	[pos="831.67,67.245 852.35,67.452 880.67,67.735 901.35,67.941"];
	147 -- 182	[pos="777.33,66.06 752.86,65.236 717.05,64.029 692.6,63.205"];
	193 -- 229	[pos="713.25,627.91 710.5,627.7 707.7,627.5 704.95,627.29"];
	148 -- 168	[pos="539,162.57 529.06,143.7 513.26,113.7 503.38,94.934"];
	148 -- 260	[pos="520.93,179.4 513.72,179.28 505.93,179.14 498.73,179.02"];
	241 -- 268	[pos="144.4,916.29 135.27,915.03 125.07,913.63 115.95,912.38"];
	164 -- 251	[pos="172.71,640.17 166.24,665.37 154.5,711.18 148.01,736.46"];
	164 -- 258	[pos="158.55,635.71 129.59,656.35 74.303,695.75 45.493,716.28"];
	178 -- 205	[pos="1443.1,513.97 1461.9,528.81 1491.4,552.04 1510.2,566.82"];
	178 -- 183	[pos="1441,484.94 1464.3,463.04 1507.4,422.43 1530.6,400.52"];
	235 -- 282	[pos="366,1080 357.37,1075.8 347.5,1070.9 338.89,1066.6"];
	158 -- 269	[pos="329.49,829.59 326.17,854.74 320.19,900.04 316.86,925.3"];
	158 -- 195	[pos="315.33,825.92 309.69,830.84 303.39,836.34 297.76,841.25"];
	186 -- 274	[pos="1040.9,1013.4 1018.7,1022.9 984.96,1037.2 962.62,1046.8"];
	274 -- 287	[pos="958.19,1043.4 966.04,1037.8 975.16,1031.3 983.01,1025.7"];
	160 -- 285	[pos="762.01,1248.1 725.98,1243.4 662.16,1234.9 626.21,1230.1"];
	160 -- 244	[pos="815.93,1251.1 827.97,1250.8 842.08,1250.5 854.1,1250.2"];
	160 -- 280	[pos="762.6,1257 751.07,1259.4 737.54,1262.2 726.03,1264.5"];
	226 -- 264	[pos="646.93,1171.2 709.18,1167.2 861.82,1157.4 923.99,1153.4"];
	226 -- 240	[pos="597.07,1162.9 589,1159.4 579.92,1155.4 571.85,1151.8"];
	171 -- 245	[pos="180.58,784.78 189.27,778.09 199.72,770.06 208.47,763.33"];
	171 -- 276	[pos="166.74,780.35 172.23,755.06 182.13,709.41 187.59,684.23"];
	171 -- 270	[pos="180.39,812.13 187.13,817.38 194.82,823.38 201.58,828.64"];
	174 -- 179	[pos="240.9,420.92 246.54,415.44 252.93,409.24 258.58,403.76"];
	174 -- 208	[pos="230.02,453.65 230.84,456.97 231.7,460.45 232.52,463.77"];
	174 -- 232	[pos="214.38,452.54 203.7,468.49 187.74,492.34 177.09,508.27"];
	174 -- 225	[pos="236.61,418.89 249.84,398.59 271.9,364.75 285.1,344.51"];
	232 -- 298	[pos="148.44,538.84 141.73,544.16 134.09,550.23 127.37,555.56"];
	183 -- 206	[pos="1528.7,371.81 1520.9,365.79 1511.7,358.73 1503.9,352.69"];
	209 -- 225	[pos="324.95,287.26 319.6,294.76 313.28,303.6 307.91,311.12"];
	180 -- 279	[pos="997.34,1204.4 986.01,1215.2 970.8,1229.7 959.49,1240.5"];
	180 -- 231	[pos="985.9,1189.6 931.45,1190 809.38,1190.9 754.73,1191.3"];
	180 -- 244	[pos="990.66,1199.6 966.41,1210.7 927.92,1228.3 903.63,1239.4"];
	182 -- 293	[pos="686.59,50.656 698.35,44.146 712.97,36.058 724.71,29.56"];
	182 -- 227	[pos="686.3,74.084 709.17,87.087 745.76,107.89 768.66,120.91"];
	244 -- 246	[pos="907.16,1255.2 929.46,1259.9 961.42,1266.7 983.71,1271.5"];
	244 -- 285	[pos="854.16,1247.4 800.35,1243 680.31,1233.2 626.57,1228.8"];
	244 -- 279	[pos="908.1,1252.1 911.02,1252.4 914,1252.7 916.92,1252.9"];
	244 -- 280	[pos="854.44,1252.6 820.21,1256.4 761.22,1263 726.95,1266.8"];
	192 -- 223	[pos="1192.6,307.79 1174.3,285.68 1141.6,246.16 1123.3,224.13"];
	254 -- 267	[pos="1206.1,1109.9 1205.7,1112.5 1205.3,1115.1 1205,1117.7"];
	215 -- 273	[pos="857.26,300.37 854.65,300.56 852,300.74 849.38,300.92"];
	200 -- 241	[pos="425.83,984.52 372.66,971.04 249.97,939.93 196.67,926.42"];
	200 -- 275	[pos="477.88,987.38 506.43,983.59 551.43,977.6 579.94,973.8"];
	200 -- 268	[pos="425.44,985.09 358.93,969.98 181.86,929.74 115.22,914.6"];
	243 -- 292	[pos="1400.1,739.74 1352.6,758.2 1245.3,799.83 1197.6,818.33"];
	257 -- 277	[pos="498.61,365.61 492.53,393.08 481.03,445.01 474.97,472.4"];
	272 -- 296	[pos="1023.6,1100.6 964.74,1100.3 825.58,1099.7 766.53,1099.5"];
}
