graph {
	graph [bb="0,0,785.44,695.27",
		outputorder=edgesfirst,
		overlap=prism,
		size="50,50!",
		start=4393
	];
	node [label="\N"];
	0	[height=0.5,
		pos="446.49,564.25",
		width=0.75];
	17	[height=0.5,
		pos="494.67,518.33",
		width=0.75];
	0 -- 17	[pos="462,549.47 467.5,544.23 473.69,538.33 479.19,533.09"];
	36	[height=0.5,
		pos="369.79,675.29",
		width=0.75];
	0 -- 36	[pos="435.17,580.64 420.67,601.63 395.68,637.81 381.15,658.84"];
	47	[height=0.5,
		pos="463.46,652.37",
		width=0.75];
	0 -- 47	[pos="450.01,582.51 452.94,597.74 457.09,619.3 460,634.44"];
	51	[height=0.5,
		pos="610.85,510.73",
		width=0.75];
	0 -- 51	[pos="471.1,556.24 502.17,546.12 555.32,528.81 586.34,518.71"];
	53	[height=0.5,
		pos="348.91,463.77",
		width=0.75];
	0 -- 53	[pos="431.67,548.99 413.33,530.11 382.28,498.13 363.87,479.18"];
	61	[height=0.5,
		pos="536.19,614.06",
		width=0.75];
	0 -- 61	[pos="467.29,575.8 481.68,583.79 500.76,594.38 515.19,602.4"];
	72	[height=0.5,
		pos="527.9,562.34",
		width=0.75];
	0 -- 72	[pos="473.6,563.62 482.39,563.41 492.13,563.18 500.91,562.97"];
	73	[height=0.5,
		pos="306.94,677.27",
		width=0.75];
	0 -- 73	[pos="429.1,578.34 402.21,600.12 350.87,641.7 324.11,663.37"];
	1	[height=0.5,
		pos="524.03,272.13",
		width=0.75];
	18	[height=0.5,
		pos="422.8,155.8",
		width=0.75];
	1 -- 18	[pos="510.38,256.44 491.06,234.24 455.94,193.88 436.56,171.61"];
	20	[height=0.5,
		pos="500.69,362.95",
		width=0.75];
	1 -- 20	[pos="519.42,290.07 515.33,305.99 509.38,329.13 505.29,345.05"];
	32	[height=0.5,
		pos="516.59,430.06",
		width=0.75];
	1 -- 32	[pos="523.18,290.24 521.75,320.55 518.9,381.19 517.46,411.67"];
	35	[height=0.5,
		pos="636.66,346.64",
		width=0.75];
	1 -- 35	[pos="543.4,284.94 564.03,298.58 596.5,320.07 617.18,333.75"];
	40	[height=0.5,
		pos="460.12,229.32",
		width=0.75];
	1 -- 40	[pos="504.86,259.28 496.77,253.86 487.37,247.57 479.29,242.15"];
	52	[height=0.5,
		pos="463.97,316.13",
		width=0.75];
	1 -- 52	[pos="505.69,285.57 498.23,291.03 489.64,297.32 482.2,302.77"];
	62	[height=0.5,
		pos="586.06,257.46",
		width=0.75];
	1 -- 62	[pos="549.62,266.08 553.23,265.22 556.93,264.35 560.53,263.5"];
	66	[height=0.5,
		pos="638.77,302.34",
		width=0.75];
	1 -- 66	[pos="549.21,278.76 568.34,283.79 594.54,290.69 613.65,295.72"];
	70	[height=0.5,
		pos="389.15,419.76",
		width=0.75];
	1 -- 70	[pos="509.85,287.65 484.02,315.93 429.54,375.55 403.55,404"];
	75	[height=0.5,
		pos="454.39,424.03",
		width=0.75];
	1 -- 75	[pos="516.05,289.55 502.61,318.85 475.66,377.64 462.29,406.81"];
	77	[height=0.5,
		pos="524.44,474.22",
		width=0.75];
	1 -- 77	[pos="524.07,290.42 524.15,328.89 524.32,417.8 524.4,456.12"];
	79	[height=0.5,
		pos="298.71,198.98",
		width=0.75];
	1 -- 79	[pos="499.49,264.16 456.15,250.09 366.55,221 323.22,206.94"];
	80	[height=0.5,
		pos="484.85,158.65",
		width=0.75];
	1 -- 80	[pos="517.91,254.4 510.55,233.08 498.27,197.52 490.93,176.26"];
	2	[height=0.5,
		pos="233.99,322.47",
		width=0.75];
	19	[height=0.5,
		pos="145.46,399.64",
		width=0.75];
	2 -- 19	[pos="217.34,336.99 201.51,350.78 177.84,371.42 162.04,385.19"];
	21	[height=0.5,
		pos="348.74,243.06",
		width=0.75];
	2 -- 21	[pos="252.94,309.36 274.2,294.65 308.49,270.92 329.76,256.2"];
	23	[height=0.5,
		pos="89.046,443.7",
		width=0.75];
	2 -- 23	[pos="217.08,336.62 189.3,359.85 134.3,405.85 106.3,429.27"];
	26	[height=0.5,
		pos="124.31,251.82",
		width=0.75];
	2 -- 26	[pos="214.38,309.84 194.42,296.98 163.65,277.16 143.75,264.34"];
	33	[height=0.5,
		pos="296.02,352.77",
		width=0.75];
	2 -- 33	[pos="256.04,333.24 261.89,336.1 268.2,339.18 274.05,342.04"];
	39	[height=0.5,
		pos="282.03,254.86",
		width=0.75];
	2 -- 39	[pos="245.62,306.11 253.06,295.63 262.69,282.08 270.17,271.55"];
	44	[height=0.5,
		pos="186.32,234.08",
		width=0.75];
	2 -- 44	[pos="224.8,305.43 216.36,289.78 203.91,266.71 195.48,251.07"];
	46	[height=0.5,
		pos="76.704,317.85",
		width=0.75];
	2 -- 46	[pos="206.95,321.68 178.14,320.83 132.79,319.5 103.92,318.65"];
	48	[height=0.5,
		pos="273.85,447.78",
		width=0.75];
	2 -- 48	[pos="239.62,340.16 247.17,363.91 260.52,405.87 268.12,429.77"];
	2 -- 53	[pos="246.95,338.41 269.02,365.54 313.66,420.43 335.82,447.68"];
	59	[height=0.5,
		pos="151.26,476.38",
		width=0.75];
	2 -- 59	[pos="224.82,339.53 208.92,369.11 176.4,429.61 160.47,459.24"];
	63	[height=0.5,
		pos="83.414,362.31",
		width=0.75];
	2 -- 63	[pos="208.79,329.14 180.99,336.49 136.53,348.26 108.7,355.62"];
	3	[height=0.5,
		pos="358.02,375.74",
		width=0.75];
	3 -- 17	[pos="372.65,391 398.81,418.3 453.35,475.22 479.73,502.75"];
	3 -- 20	[pos="384.86,373.33 410.2,371.06 448.03,367.67 473.49,365.39"];
	22	[height=0.5,
		pos="573.7,385.6",
		width=0.75];
	3 -- 22	[pos="385.34,376.98 426.83,378.88 505.25,382.47 546.61,384.36"];
	31	[height=0.5,
		pos="350.45,287.31",
		width=0.75];
	3 -- 31	[pos="356.45,357.41 355.14,342.14 353.29,320.49 351.99,305.31"];
	3 -- 33	[pos="334.23,366.92 329.45,365.15 324.43,363.29 319.65,361.52"];
	34	[height=0.5,
		pos="322.06,507.81",
		width=0.75];
	3 -- 34	[pos="353.17,393.55 346.31,418.75 333.83,464.57 326.94,489.86"];
	3 -- 52	[pos="378.7,364.1 397.25,353.67 424.34,338.43 442.98,327.94"];
	54	[height=0.5,
		pos="212.67,366.75",
		width=0.75];
	3 -- 54	[pos="331.02,374.07 305.08,372.46 266.08,370.05 240.02,368.44"];
	74	[height=0.5,
		pos="219.95,278.34",
		width=0.75];
	3 -- 74	[pos="339.4,362.6 313.05,344.01 265.15,310.22 238.71,291.58"];
	4	[height=0.5,
		pos="505.57,114.41",
		width=0.75];
	4 -- 21	[pos="488.49,128.42 458.32,153.17 395.95,204.33 365.8,229.07"];
	25	[height=0.5,
		pos="625.72,136.95",
		width=0.75];
	4 -- 25	[pos="531.64,119.3 551.79,123.08 579.56,128.29 599.7,132.07"];
	28	[height=0.5,
		pos="381.44,84.062",
		width=0.75];
	4 -- 28	[pos="480.15,108.2 458.73,102.96 428.23,95.504 406.82,90.269"];
	37	[height=0.5,
		pos="648.07,225.01",
		width=0.75];
	4 -- 37	[pos="523.33,128.2 550.64,149.39 602.64,189.75 630.08,211.05"];
	38	[height=0.5,
		pos="443.51,32.444",
		width=0.75];
	4 -- 38	[pos="493.31,98.218 482.43,83.848 466.62,62.965 455.75,48.605"];
	42	[height=0.5,
		pos="511.48,33.933",
		width=0.75];
	4 -- 42	[pos="506.91,96.15 507.88,82.979 509.18,65.277 510.15,52.123"];
	55	[height=0.5,
		pos="603.99,92.95",
		width=0.75];
	4 -- 55	[pos="531.43,108.77 545.9,105.62 563.87,101.7 578.31,98.551"];
	56	[height=0.5,
		pos="583.39,211.2",
		width=0.75];
	4 -- 56	[pos="518.42,130.39 532.84,148.33 556.09,177.25 570.52,195.19"];
	58	[height=0.5,
		pos="443.46,105.41",
		width=0.75];
	4 -- 58	[pos="478.87,110.54 475.98,110.12 473.03,109.69 470.14,109.28"];
	71	[height=0.5,
		pos="581.42,48.949",
		width=0.75];
	4 -- 71	[pos="522.41,99.884 535.06,88.96 552.31,74.07 564.89,63.212"];
	76	[height=0.5,
		pos="381.45,18",
		width=0.75];
	4 -- 76	[pos="487.79,100.6 464.19,82.271 422.78,50.103 399.2,31.788"];
	5	[height=0.5,
		pos="658.12,394.89",
		width=0.75];
	5 -- 22	[pos="631.41,391.95 621.56,390.86 610.39,389.63 600.53,388.55"];
	24	[height=0.5,
		pos="729.66,312.48",
		width=0.75];
	5 -- 24	[pos="671.91,379 684.58,364.41 703.25,342.9 715.91,328.32"];
	5 -- 37	[pos="657.04,376.71 655.11,344.01 651.06,275.66 649.13,243.06"];
	5 -- 51	[pos="650.94,412.48 642.01,434.38 626.84,471.55 617.94,493.35"];
	5 -- 56	[pos="650.95,377.28 636.67,342.17 604.8,263.83 590.53,228.76"];
	68	[height=0.5,
		pos="747.94,365.45",
		width=0.75];
	5 -- 68	[pos="682.67,386.85 695.34,382.69 710.76,377.64 723.43,373.49"];
	6	[height=0.5,
		pos="710.13,249.5",
		width=0.75];
	6 -- 25	[pos="698.03,233.38 682.08,212.1 654.14,174.86 638.06,153.41"];
	29	[height=0.5,
		pos="758.44,205.33",
		width=0.75];
	6 -- 29	[pos="726.21,234.79 731.38,230.08 737.09,224.85 742.26,220.13"];
	6 -- 35	[pos="697.66,265.98 684.07,283.95 662.46,312.53 648.94,330.4"];
	6 -- 55	[pos="698.97,233.04 678.64,203.06 635.78,139.83 615.32,109.66"];
	57	[height=0.5,
		pos="733.92,157.51",
		width=0.75];
	6 -- 57	[pos="714.83,231.33 719.02,215.1 725.14,191.46 729.31,175.34"];
	6 -- 66	[pos="691.75,263.11 681.18,270.94 667.93,280.74 657.33,288.59"];
	6 -- 68	[pos="715.87,267.11 722.98,288.91 735.01,325.81 742.15,347.68"];
	7	[height=0.5,
		pos="360.79,172.95",
		width=0.75];
	27	[height=0.5,
		pos="401.95,331.72",
		width=0.75];
	7 -- 27	[pos="365.43,190.85 373.34,221.35 389.32,283.03 397.26,313.64"];
	7 -- 28	[pos="364.97,154.96 368.55,139.54 373.68,117.44 377.26,102.02"];
	30	[height=0.5,
		pos="229.56,190.04",
		width=0.75];
	7 -- 30	[pos="334.23,176.41 311.47,179.37 278.83,183.62 256.08,186.59"];
	7 -- 31	[pos="359.15,191.07 357.21,212.48 354.01,247.9 352.08,269.28"];
	7 -- 39	[pos="345.98,188.35 331.89,203 310.84,224.9 296.78,239.52"];
	7 -- 40	[pos="381.37,184.63 398.31,194.24 422.21,207.8 439.23,217.46"];
	7 -- 58	[pos="377.92,158.95 392.11,147.36 412.17,130.97 426.35,119.38"];
	60	[height=0.5,
		pos="305.75,105.58",
		width=0.75];
	7 -- 60	[pos="347.75,156.98 338.97,146.24 327.46,132.14 318.7,121.43"];
	78	[height=0.5,
		pos="546.87,167.14",
		width=0.75];
	7 -- 78	[pos="387.85,172.1 423.13,171 484.48,169.09 519.78,167.99"];
	8	[height=0.5,
		pos="671.86,180.98",
		width=0.75];
	8 -- 24	[pos="679.53,198.44 690.59,223.59 710.88,269.75 721.95,294.95"];
	8 -- 29	[pos="696.9,188.02 708.39,191.25 721.98,195.07 733.46,198.3"];
	8 -- 42	[pos="655.9,166.34 625.15,138.16 558.07,76.65 527.38,48.511"];
	8 -- 57	[pos="695.67,171.97 700.46,170.16 705.49,168.26 710.27,166.45"];
	8 -- 62	[pos="655.32,195.72 640.03,209.35 617.44,229.49 602.26,243.02"];
	8 -- 71	[pos="660.59,164.52 643.26,139.22 610.25,91.036 592.83,65.611"];
	8 -- 78	[pos="645.04,178.01 623.96,175.68 594.71,172.44 573.64,170.11"];
	9	[height=0.5,
		pos="148.52,302.18",
		width=0.75];
	9 -- 30	[pos="160.48,285.64 175.89,264.31 202.51,227.47 217.82,206.29"];
	41	[height=0.5,
		pos="35.863,248.25",
		width=0.75];
	9 -- 41	[pos="126.53,291.66 106.68,282.15 77.63,268.24 57.797,258.75"];
	45	[height=0.5,
		pos="98.583,207.64",
		width=0.75];
	9 -- 45	[pos="139.36,284.84 130.35,267.78 116.67,241.89 107.68,224.87"];
	9 -- 46	[pos="122.59,307.84 116.16,309.24 109.27,310.74 102.83,312.15"];
	9 -- 54	[pos="163.72,317.48 173.95,327.78 187.37,341.29 197.57,351.55"];
	9 -- 63	[pos="132.43,317.05 122.33,326.37 109.38,338.33 99.322,347.62"];
	82	[height=0.5,
		pos="27,416.47",
		width=0.75];
	9 -- 82	[pos="132.63,317.12 109.34,339.03 66.182,379.62 42.891,401.52"];
	84	[height=0.5,
		pos="207.51,432.29",
		width=0.75];
	9 -- 84	[pos="156.35,319.46 167.64,344.35 188.35,390.02 199.65,414.94"];
	10	[height=0.5,
		pos="430.05,479.33",
		width=0.75];
	10 -- 27	[pos="426.6,461.23 421.21,432.9 410.83,378.39 405.42,349.97"];
	10 -- 32	[pos="451,467.41 464.61,459.66 482.27,449.61 495.84,441.88"];
	64	[height=0.5,
		pos="265.18,551.82",
		width=0.75];
	10 -- 64	[pos="407.47,489.26 375.99,503.1 319.23,528.06 287.75,541.9"];
	65	[height=0.5,
		pos="306.27,595.83",
		width=0.75];
	10 -- 65	[pos="414.37,494.09 390.69,516.38 346.04,558.4 322.21,580.83"];
	10 -- 72	[pos="447.09,493.79 465.05,509.03 493.16,532.87 511.05,548.05"];
	10 -- 75	[pos="437.75,461.84 440.59,455.38 443.81,448.07 446.66,441.61"];
	81	[height=0.5,
		pos="421.4,608.36",
		width=0.75];
	10 -- 81	[pos="428.83,497.55 427.18,522.14 424.26,565.7 422.62,590.24"];
	10 -- 84	[pos="404.09,473.85 361.21,464.78 276.08,446.79 233.31,437.75"];
	11	[height=0.5,
		pos="198.21,565.58",
		width=0.75];
	11 -- 23	[pos="183.94,549.64 162.9,526.16 123.82,482.52 102.98,459.25"];
	11 -- 34	[pos="220.35,555.25 242.75,544.8 277.21,528.73 299.69,518.24"];
	11 -- 36	[pos="217.89,578.16 250.9,599.27 317.04,641.56 350.07,662.68"];
	50	[height=0.5,
		pos="135.33,592.27",
		width=0.75];
	11 -- 50	[pos="175.15,575.36 169.69,577.69 163.85,580.16 158.39,582.48"];
	11 -- 59	[pos="189.16,548.38 180.85,532.58 168.59,509.3 160.29,493.52"];
	11 -- 65	[pos="223.27,572.59 240.73,577.48 263.91,583.97 281.34,588.85"];
	11 -- 73	[pos="213.33,581.11 234.1,602.45 271.25,640.6 291.95,661.87"];
	12	[height=0.5,
		pos="319.38,42.109",
		width=0.75];
	12 -- 18	[pos="333.76,57.918 353.51,79.639 388.84,118.48 408.54,140.13"];
	12 -- 38	[pos="346.31,40.012 367.13,38.391 395.82,36.158 416.63,34.537"];
	12 -- 60	[pos="315.51,60.126 313.65,68.775 311.43,79.107 309.58,87.733"];
	67	[height=0.5,
		pos="185.15,47.5",
		width=0.75];
	12 -- 67	[pos="292.21,43.2 268.92,44.135 235.55,45.476 212.27,46.41"];
	12 -- 76	[pos="342.84,32.995 347.79,31.075 353.01,29.048 357.95,27.128"];
	12 -- 80	[pos="338.04,55.252 369.9,77.695 434.44,123.15 466.26,145.56"];
	83	[height=0.5,
		pos="247.17,61.532",
		width=0.75];
	12 -- 83	[pos="294.12,48.903 287.13,50.784 279.53,52.827 272.53,54.71"];
	13	[height=0.5,
		pos="108.19,163.62",
		width=0.75];
	13 -- 26	[pos="111.53,181.9 114.31,197.13 118.26,218.72 121.03,233.87"];
	13 -- 41	[pos="94.584,179.54 81.653,194.67 62.316,217.3 49.406,232.4"];
	49	[height=0.5,
		pos="163.95,91.589",
		width=0.75];
	13 -- 49	[pos="120.84,147.28 129.97,135.49 142.23,119.64 151.35,107.87"];
	13 -- 67	[pos="119.21,146.98 133.84,124.91 159.52,86.165 174.14,64.106"];
	69	[height=0.5,
		pos="101.5,119.56",
		width=0.75];
	13 -- 69	[pos="105.47,145.7 105.06,143.03 104.64,140.28 104.24,137.61"];
	14	[height=0.5,
		pos="203.17,520.84",
		width=0.75];
	14 -- 19	[pos="194.9,503.47 183.93,480.43 164.67,440 153.71,416.97"];
	43	[height=0.5,
		pos="244.16,639.09",
		width=0.75];
	14 -- 43	[pos="209.3,538.54 217.03,560.84 230.23,598.92 237.98,621.27"];
	14 -- 50	[pos="188.45,536.34 177.07,548.32 161.39,564.83 150.02,576.8"];
	14 -- 64	[pos="224.85,531.68 230.86,534.68 237.38,537.94 243.4,540.94"];
	14 -- 70	[pos="224.14,509.44 259.86,490.03 332.11,450.76 367.97,431.27"];
	14 -- 82	[pos="182.96,508.87 149.07,488.79 81.158,448.55 47.243,428.46"];
	15	[height=0.5,
		pos="196.22,146.02",
		width=0.75];
	15 -- 44	[pos="194.17,164.26 192.47,179.38 190.07,200.75 188.37,215.86"];
	15 -- 45	[pos="176.46,158.49 159.52,169.18 135.24,184.5 118.31,195.18"];
	15 -- 49	[pos="186.19,129.09 182.34,122.6 177.95,115.2 174.09,108.69"];
	15 -- 69	[pos="170.83,138.93 157.13,135.1 140.28,130.4 126.62,126.58"];
	15 -- 74	[pos="199.47,164.14 204.01,189.48 212.21,235.21 216.74,260.43"];
	15 -- 79	[pos="217.95,157.25 235.46,166.3 259.95,178.95 277.36,187.95"];
	15 -- 83	[pos="206.53,128.92 215.43,114.17 228.2,92.977 237.05,78.315"];
	16	[height=0.5,
		pos="384.32,523.84",
		width=0.75];
	16 -- 43	[pos="367.14,537.97 340.24,560.09 288.47,602.65 261.49,624.85"];
	16 -- 47	[pos="394.67,540.65 409.84,565.28 437.94,610.93 453.11,635.56"];
	16 -- 48	[pos="365.08,510.59 344.8,496.63 313.06,474.78 292.87,460.87"];
	16 -- 61	[pos="404.49,535.82 433.54,553.08 486.85,584.74 515.94,602.03"];
	16 -- 77	[pos="408.41,515.31 434.07,506.22 474.47,491.91 500.19,482.8"];
	16 -- 81	[pos="392.01,541.36 398.37,555.86 407.37,576.37 413.73,590.87"];
}
