graph {
	graph [bb="0,0,1089.5,1010.3",
		outputorder=edgesfirst,
		overlap=prism,
		size="50,50!",
		start=6930
	];
	node [label="\N"];
	0	[height=0.5,
		pos="721.68,566.24",
		width=0.75];
	20	[height=0.5,
		pos="970.31,568.28",
		width=0.75];
	0 -- 20	[pos="748.76,566.46 796.59,566.86 895.46,567.67 943.26,568.06"];
	2	[height=0.5,
		pos="665.44,459.57",
		width=0.75];
	0 -- 2	[pos="712.65,549.1 702.15,529.19 684.94,496.55 674.45,476.66"];
	22	[height=0.5,
		pos="994.66,392.19",
		width=0.75];
	0 -- 22	[pos="741.31,553.72 791.56,521.69 924.39,436.99 974.84,404.82"];
	24	[height=0.5,
		pos="605.79,757.55",
		width=0.75];
	0 -- 24	[pos="711.4,583.22 689.41,619.52 638.03,704.34 616.05,740.61"];
	25	[height=0.5,
		pos="420.44,713.56",
		width=0.75];
	0 -- 25	[pos="699.53,577.07 643.69,604.38 497.66,675.8 442.22,702.91"];
	6	[height=0.5,
		pos="472.02,497.49",
		width=0.75];
	0 -- 6	[pos="696.37,559.27 648.39,546.06 544.77,517.52 497.03,504.38"];
	7	[height=0.5,
		pos="414.79,541.5",
		width=0.75];
	0 -- 7	[pos="694.72,564.07 636.65,559.38 500.33,548.39 442.03,543.69"];
	26	[height=0.5,
		pos="726.09,222.61",
		width=0.75];
	0 -- 26	[pos="721.92,547.76 722.69,487.96 725.1,300.1 725.86,240.76"];
	9	[height=0.5,
		pos="561.32,532.1",
		width=0.75];
	0 -- 9	[pos="695.92,560.76 666.08,554.4 617.21,544 587.29,537.63"];
	27	[height=0.5,
		pos="817.08,544.96",
		width=0.75];
	0 -- 27	[pos="747.5,560.48 761.07,557.45 777.67,553.75 791.25,550.72"];
	28	[height=0.5,
		pos="695.98,889.6",
		width=0.75];
	0 -- 28	[pos="720.23,584.55 715.7,641.47 701.92,814.85 697.42,871.49"];
	12	[height=0.5,
		pos="596.09,463.09",
		width=0.75];
	0 -- 12	[pos="704.48,552.11 680.57,532.47 637.51,497.1 613.49,477.37"];
	13	[height=0.5,
		pos="804.17,500.9",
		width=0.75];
	0 -- 13	[pos="739.18,552.38 753.18,541.29 772.71,525.82 786.7,514.73"];
	30	[height=0.5,
		pos="930.08,524.04",
		width=0.75];
	0 -- 30	[pos="747.66,560.98 787.7,552.87 864.07,537.41 904.11,529.3"];
	31	[height=0.5,
		pos="775.81,693.34",
		width=0.75];
	0 -- 31	[pos="729.1,583.65 739.4,607.85 757.96,651.43 768.32,675.74"];
	16	[height=0.5,
		pos="723.7,522.18",
		width=0.75];
	0 -- 16	[pos="722.52,548.06 722.63,545.5 722.75,542.87 722.87,540.31"];
	32	[height=0.5,
		pos="844.79,781.52",
		width=0.75];
	0 -- 32	[pos="731.34,583.13 754.3,623.28 811.92,724.05 835.01,764.41"];
	34	[height=0.5,
		pos="536.94,239.64",
		width=0.75];
	0 -- 34	[pos="712.01,549.14 680.09,492.7 578.3,312.76 546.52,256.57"];
	19	[height=0.5,
		pos="742.15,470.45",
		width=0.75];
	0 -- 19	[pos="725.53,548.22 729.19,531.1 734.66,505.48 738.31,488.38"];
	21	[height=0.5,
		pos="917.49,340.72",
		width=0.75];
	20 -- 21	[pos="966.16,550.43 956.31,507.99 931.59,401.47 921.68,358.81"];
	2 -- 6	[pos="639.35,464.68 602.33,471.94 534.96,485.15 498,492.39"];
	2 -- 9	[pos="646.34,472.87 627.56,485.96 599.04,505.83 580.3,518.88"];
	2 -- 12	[pos="638.43,460.94 633.41,461.19 628.16,461.46 623.14,461.71"];
	2 -- 19	[pos="692.27,463.37 699.87,464.45 708.14,465.62 715.72,466.7"];
	3	[height=0.5,
		pos="672.42,415.53",
		width=0.75];
	2 -- 3	[pos="668.28,441.65 668.7,438.99 669.14,436.24 669.56,433.57"];
	8	[height=0.5,
		pos="577.27,327.68",
		width=0.75];
	2 -- 8	[pos="654.27,442.86 637.31,417.49 605.25,369.53 588.35,344.25"];
	15	[height=0.5,
		pos="633.19,561.42",
		width=0.75];
	2 -- 15	[pos="659.82,477.31 653.94,495.89 644.75,524.91 638.85,543.54"];
	46	[height=0.5,
		pos="912.26,612.31",
		width=0.75];
	2 -- 46	[pos="685.64,472.07 732.04,500.78 845.8,571.18 892.13,599.85"];
	48	[height=0.5,
		pos="404.1,413.74",
		width=0.75];
	2 -- 48	[pos="638.94,454.92 588.72,446.11 480.25,427.09 430.28,418.33"];
	49	[height=0.5,
		pos="336.41,451.11",
		width=0.75];
	2 -- 49	[pos="638.23,458.87 576.34,457.28 425.57,453.4 363.65,451.81"];
	50	[height=0.5,
		pos="620.15,106.13",
		width=0.75];
	2 -- 50	[pos="663.13,441.55 655.36,380.92 630.22,184.68 622.45,124.1"];
	52	[height=0.5,
		pos="540.15,667.48",
		width=0.75];
	2 -- 52	[pos="655.19,476.58 631.63,515.67 573.89,611.49 550.37,650.53"];
	53	[height=0.5,
		pos="913.29,296.58",
		width=0.75];
	2 -- 53	[pos="684.89,446.78 731.22,416.31 847.69,339.72 893.93,309.31"];
	14	[height=0.5,
		pos="658.09,506.53",
		width=0.75];
	2 -- 14	[pos="662.62,477.59 662.07,481.11 661.49,484.8 660.94,488.32"];
	55	[height=0.5,
		pos="851.37,207.12",
		width=0.75];
	2 -- 55	[pos="677.35,443.39 710.86,397.9 805.64,269.21 839.32,223.48"];
	17	[height=0.5,
		pos="660.14,651.71",
		width=0.75];
	2 -- 17	[pos="664.94,477.64 663.93,514.26 661.65,596.84 660.64,633.54"];
	57	[height=0.5,
		pos="557.95,104.23",
		width=0.75];
	2 -- 57	[pos="659.96,441.46 641.48,380.36 581.57,182.29 563.29,121.88"];
	23	[height=0.5,
		pos="904.69,145.9",
		width=0.75];
	22 -- 23	[pos="988.19,374.47 971.59,329.03 927.64,208.72 911.11,163.45"];
	6 -- 7	[pos="454.22,511.17 447.4,516.42 439.61,522.41 432.77,527.67"];
	6 -- 9	[pos="495.48,506.58 508.5,511.63 524.66,517.89 537.7,522.95"];
	36	[height=0.5,
		pos="376.45,279.84",
		width=0.75];
	6 -- 36	[pos="464.36,480.05 446.46,439.29 402.08,338.2 384.14,297.37"];
	6 -- 17	[pos="489.38,511.72 525.31,541.17 607.43,608.5 643.09,637.73"];
	10	[height=0.5,
		pos="534.05,459.74",
		width=0.75];
	6 -- 10	[pos="491.99,485.34 498.93,481.11 506.72,476.37 513.69,472.13"];
	75	[height=0.5,
		pos="280.6,719.38",
		width=0.75];
	6 -- 75	[pos="458.25,513.45 422.93,554.39 329.42,662.78 294.24,703.56"];
	103	[height=0.5,
		pos="403.26,195.13",
		width=0.75];
	6 -- 103	[pos="467.92,479.48 455.69,425.7 419.53,266.7 407.33,213.05"];
	104	[height=0.5,
		pos="203.64,689.87",
		width=0.75];
	6 -- 104	[pos="453.57,510.71 404.54,545.86 271.39,641.3 222.21,676.56"];
	105	[height=0.5,
		pos="539.99,283.68",
		width=0.75];
	6 -- 105	[pos="477.7,479.63 490.52,439.28 521.61,341.49 534.38,301.34"];
	106	[height=0.5,
		pos="784.3,590.25",
		width=0.75];
	6 -- 106	[pos="496.78,504.84 555.21,522.2 701.1,565.53 759.53,582.89"];
	107	[height=0.5,
		pos="439.17,325.18",
		width=0.75];
	6 -- 107	[pos="468.56,479.37 462.24,446.2 448.87,376.05 442.58,343.05"];
	108	[height=0.5,
		pos="352.72,507.9",
		width=0.75];
	6 -- 108	[pos="445.24,499.83 425.73,501.53 399.4,503.83 379.81,505.54"];
	109	[height=0.5,
		pos="578.21,371.68",
		width=0.75];
	6 -- 109	[pos="485.47,481.55 505.89,457.35 544.51,411.61 564.87,387.48"];
	110	[height=0.5,
		pos="159.95,326.8",
		width=0.75];
	6 -- 110	[pos="451.06,486.02 394.34,455 238.31,369.66 181.23,338.44"];
	112	[height=0.5,
		pos="279.13,212.47",
		width=0.75];
	6 -- 112	[pos="460.81,480.93 426.72,430.56 324.49,279.5 290.36,229.07"];
	63	[height=0.5,
		pos="402.2,113.96",
		width=0.75];
	6 -- 63	[pos="468.74,479.5 457.02,415.08 417.18,196.27 405.47,131.91"];
	7 -- 12	[pos="437.75,531.56 472.63,516.48 538.55,487.97 573.32,472.94"];
	7 -- 19	[pos="440.48,535.92 501.52,522.67 654.75,489.42 716.13,476.09"];
	37	[height=0.5,
		pos="346.33,369.7",
		width=0.75];
	7 -- 37	[pos="407.85,524.08 394.73,491.15 366.43,420.13 353.29,387.17"];
	7 -- 49	[pos="401.14,525.75 386.84,509.26 364.51,483.51 350.17,466.97"];
	64	[height=0.5,
		pos="471.74,278.57",
		width=0.75];
	7 -- 64	[pos="418.71,523.42 429.13,475.28 457.5,344.31 467.87,296.42"];
	7 -- 10	[pos="433.69,528.54 455.89,513.32 492.51,488.21 514.85,472.9"];
	11	[height=0.5,
		pos="415.16,669.55",
		width=0.75];
	7 -- 11	[pos="414.84,559.57 414.91,583.84 415.03,626.72 415.1,651.15"];
	89	[height=0.5,
		pos="121.47,640.58",
		width=0.75];
	7 -- 89	[pos="390.54,549.69 335.36,568.33 200.95,613.73 145.75,632.38"];
	114	[height=0.5,
		pos="314.31,257.98",
		width=0.75];
	7 -- 114	[pos="408.51,523.76 390.46,472.84 338.63,326.61 320.59,275.7"];
	115	[height=0.5,
		pos="262.89,645.86",
		width=0.75];
	7 -- 115	[pos="395.86,554.5 366.75,574.5 311.31,612.59 282.06,632.69"];
	116	[height=0.5,
		pos="524.49,415.72",
		width=0.75];
	7 -- 116	[pos="428.46,525.82 449.48,501.72 489.52,455.81 510.65,431.59"];
	117	[height=0.5,
		pos="87.911,499.57",
		width=0.75];
	7 -- 117	[pos="388.04,538.06 326.59,530.18 175.93,510.86 114.57,502.99"];
	119	[height=0.5,
		pos="353.15,645.85",
		width=0.75];
	7 -- 119	[pos="404.89,558.26 393.45,577.62 374.74,609.29 363.23,628.77"];
	120	[height=0.5,
		pos="357.62,783.52",
		width=0.75];
	7 -- 120	[pos="410.59,559.29 400.01,604.05 372.41,720.91 361.83,765.7"];
	122	[height=0.5,
		pos="499.1,820.04",
		width=0.75];
	7 -- 122	[pos="420.19,559.34 435.42,609.65 478.57,752.21 493.74,802.34"];
	123	[height=0.5,
		pos="84.94,427.62",
		width=0.75];
	7 -- 123	[pos="390.8,533.21 330.02,512.23 170.45,457.14 109.28,436.03"];
	77	[height=0.5,
		pos="89.047,684.59",
		width=0.75];
	7 -- 77	[pos="392.14,551.44 332.56,577.62 171.88,648.2 111.98,674.52"];
	9 -- 12	[pos="570.1,514.69 575.41,504.15 582.15,490.76 587.44,480.26"];
	9 -- 16	[pos="588.5,530.44 618.57,528.61 666.71,525.66 696.71,523.83"];
	9 -- 15	[pos="584.46,541.54 592.66,544.89 601.89,548.65 610.1,552"];
	9 -- 14	[pos="586.49,525.45 600.72,521.69 618.45,517.01 632.71,513.24"];
	9 -- 10	[pos="554.72,514.59 550.46,503.29 544.95,488.66 540.69,477.34"];
	9 -- 115	[pos="537.65,541.13 481.82,562.41 342.39,615.55 286.56,636.84"];
	135	[height=0.5,
		pos="419.65,796.39",
		width=0.75];
	9 -- 135	[pos="552.03,549.44 526.3,597.45 454.35,731.66 428.8,779.33"];
	136	[height=0.5,
		pos="904.36,568.12",
		width=0.75];
	9 -- 136	[pos="588.24,534.93 652.36,541.66 813.57,558.59 877.56,565.31"];
	137	[height=0.5,
		pos="715.13,786.34",
		width=0.75];
	9 -- 137	[pos="571.65,549.18 599.67,595.49 676.88,723.11 704.85,769.34"];
	139	[height=0.5,
		pos="303.59,303.87",
		width=0.75];
	9 -- 139	[pos="544.81,517.48 498.26,476.26 366.35,359.44 319.97,318.37"];
	140	[height=0.5,
		pos="858.81,386.19",
		width=0.75];
	9 -- 140	[pos="583.2,521.37 638.21,494.39 781.85,423.93 836.9,396.93"];
	66	[height=0.5,
		pos="930.77,455.17",
		width=0.75];
	9 -- 66	[pos="587.3,526.69 655.13,512.57 837.02,474.69 904.82,460.57"];
	29	[height=0.5,
		pos="371.46,948.42",
		width=0.75];
	28 -- 29	[pos="669.7,894.36 608.74,905.41 458.29,932.68 397.53,943.69"];
	12 -- 13	[pos="622.44,467.88 662.47,475.15 738.13,488.9 778.03,496.15"];
	12 -- 16	[pos="618.32,473.38 641.6,484.16 677.96,501 701.3,511.81"];
	12 -- 19	[pos="623.22,464.45 649.45,465.78 688.98,467.77 715.16,469.09"];
	40	[height=0.5,
		pos="733.77,352.36",
		width=0.75];
	12 -- 40	[pos="613.53,449.06 640.01,427.76 690.08,387.5 716.48,366.27"];
	12 -- 15	[pos="602.72,480.67 609.43,498.45 619.75,525.81 626.49,543.66"];
	18	[height=0.5,
		pos="462.68,369.6",
		width=0.75];
	12 -- 18	[pos="577.26,449.89 551.83,432.07 506.79,400.51 481.41,382.73"];
	12 -- 14	[pos="615.03,476.36 622.72,481.75 631.59,487.96 639.27,493.34"];
	80	[height=0.5,
		pos="542.59,711.52",
		width=0.75];
	12 -- 80	[pos="592.24,480.95 582.4,526.68 556.37,647.57 546.48,693.48"];
	12 -- 105	[pos="590.51,445.23 579.75,410.84 556.29,335.79 545.55,301.46"];
	161	[height=0.5,
		pos="846.43,693.45",
		width=0.75];
	12 -- 161	[pos="612.13,477.85 657.35,519.45 785.47,637.35 830.52,678.81"];
	68	[height=0.5,
		pos="826.32,296.52",
		width=0.75];
	12 -- 68	[pos="614.54,449.74 657.65,418.55 764.59,341.18 807.78,309.93"];
	127	[height=0.5,
		pos="682.62,119.46",
		width=0.75];
	12 -- 127	[pos="600.62,445.1 615.57,385.71 663.25,196.39 678.14,137.27"];
	145	[height=0.5,
		pos="465.28,157.14",
		width=0.75];
	12 -- 145	[pos="588.68,445.76 565.71,392.04 495.85,228.64 472.77,174.66"];
	150	[height=0.5,
		pos="233.01,593.52",
		width=0.75];
	12 -- 150	[pos="572.27,471.64 506.48,495.28 322.82,561.26 256.92,584.93"];
	13 -- 16	[pos="778.71,507.63 769.23,510.14 758.47,512.99 749,515.49"];
	13 -- 19	[pos="782.13,490.08 776.28,487.2 769.96,484.1 764.12,481.23"];
	13 -- 15	[pos="780.04,509.44 747.45,520.97 689.72,541.41 657.2,552.92"];
	81	[height=0.5,
		pos="729.83,741.81",
		width=0.75];
	13 -- 81	[pos="798.71,518.61 784.96,563.16 749.06,679.49 735.3,724.06"];
	94	[height=0.5,
		pos="604.95,695.78",
		width=0.75];
	13 -- 94	[pos="788.87,515.87 751.79,552.14 657.44,644.43 620.31,680.76"];
	13 -- 106	[pos="800.15,518.98 796.7,534.48 791.76,556.7 788.32,572.19"];
	13 -- 116	[pos="779.35,493.34 726.28,477.17 602.28,439.41 549.26,423.26"];
	128	[height=0.5,
		pos="887.03,252.46",
		width=0.75];
	13 -- 128	[pos="810.13,483.03 825.42,437.19 865.89,315.82 881.12,270.16"];
	13 -- 136	[pos="823.49,513.86 841.23,525.76 867.38,543.31 885.1,555.2"];
	146	[height=0.5,
		pos="734.5,396.43",
		width=0.75];
	13 -- 146	[pos="792.98,484.11 779.97,464.62 758.65,432.65 745.66,413.17"];
	163	[height=0.5,
		pos="1062.5,478.59",
		width=0.75];
	13 -- 163	[pos="831.33,498.55 881.06,494.26 986.21,485.17 1035.7,480.9"];
	165	[height=0.5,
		pos="1029.3,612.67",
		width=0.75];
	13 -- 165	[pos="826.17,511.82 869.32,533.24 964.61,580.54 1007.6,601.87"];
	167	[height=0.5,
		pos="706.86,178.6",
		width=0.75];
	13 -- 167	[pos="798.8,483.11 781.79,426.76 729.21,252.6 712.21,196.33"];
	54	[height=0.5,
		pos="1056.7,399.3",
		width=0.75];
	13 -- 54	[pos="827.48,491.52 875.59,472.17 985.41,427.99 1033.5,408.66"];
	152	[height=0.5,
		pos="915.22,700.41",
		width=0.75];
	13 -- 152	[pos="813.64,517.91 834.62,555.6 884.82,645.79 905.77,683.45"];
	16 -- 19	[pos="729.95,504.67 731.83,499.39 733.89,493.59 735.78,488.3"];
	42	[height=0.5,
		pos="859.58,437.05",
		width=0.75];
	16 -- 42	[pos="743.46,509.8 769.22,493.66 814.02,465.59 839.8,449.45"];
	16 -- 18	[pos="703.22,510.21 654.43,481.69 531.76,409.99 483.06,381.52"];
	16 -- 109	[pos="708.95,506.92 681.07,478.08 620.91,415.86 593,386.98"];
	131	[height=0.5,
		pos="764.28,266.63",
		width=0.75];
	16 -- 131	[pos="726.56,504.21 734.01,457.29 753.99,331.48 761.43,284.58"];
	169	[height=0.5,
		pos="908.44,656.34",
		width=0.75];
	16 -- 169	[pos="742.09,535.53 777.5,561.25 854.78,617.36 890.13,643.04"];
	56	[height=0.5,
		pos="928.03,385.29",
		width=0.75];
	16 -- 56	[pos="742.93,509.3 781.87,483.21 869.69,424.38 908.71,398.23"];
	98	[height=0.5,
		pos="651.18,801.58",
		width=0.75];
	16 -- 98	[pos="719.06,540.08 705.96,590.55 668.84,733.55 655.79,783.83"];
	121	[height=0.5,
		pos="791.86,737.46",
		width=0.75];
	16 -- 121	[pos="729.28,539.8 742.06,580.17 773.35,679 786.21,719.6"];
	157	[height=0.5,
		pos="778.66,820.07",
		width=0.75];
	16 -- 157	[pos="727.06,540.37 736.89,593.67 765.57,749.12 775.35,802.12"];
	33	[height=0.5,
		pos="721.88,933.64",
		width=0.75];
	32 -- 33	[pos="831.87,797.52 808.32,826.66 758.69,888.09 735,917.41"];
	102	[height=0.5,
		pos="555.9,588.29",
		width=0.75];
	19 -- 102	[pos="722.21,483.06 686.37,505.74 611.43,553.15 575.69,575.77"];
	134	[height=0.5,
		pos="788,178.61",
		width=0.75];
	19 -- 134	[pos="745.01,452.19 753.25,399.78 776.9,249.26 785.13,196.86"];
	148	[height=0.5,
		pos="640.21,340.58",
		width=0.75];
	19 -- 148	[pos="729.44,454.26 709.8,429.24 672.3,381.46 652.75,356.57"];
	160	[height=0.5,
		pos="667.83,714.97",
		width=0.75];
	19 -- 160	[pos="736.68,488.43 722.9,533.76 686.88,652.29 673.2,697.29"];
	173	[height=0.5,
		pos="562.39,151.63",
		width=0.75];
	19 -- 173	[pos="732.48,453.31 701.27,397.95 603.38,224.34 572.1,168.86"];
	45	[height=0.5,
		pos="949.06,247.41",
		width=0.75];
	19 -- 45	[pos="756.37,455.12 794.17,414.37 896.83,303.72 934.74,262.85"];
	88	[height=0.5,
		pos="977.26,659.81",
		width=0.75];
	19 -- 88	[pos="759.43,484.37 802.92,519.39 916.44,610.82 959.95,645.86"];
	113	[height=0.5,
		pos="745.63,134.59",
		width=0.75];
	19 -- 113	[pos="742.33,452.39 742.94,394.07 744.83,211.18 745.44,152.74"];
	141	[height=0.5,
		pos="990.08,348.13",
		width=0.75];
	19 -- 141	[pos="764.15,459.59 811.2,436.38 921.12,382.15 968.13,358.96"];
	172	[height=0.5,
		pos="1002.8,524.25",
		width=0.75];
	19 -- 172	[pos="768.09,475.8 818.06,486.12 927.1,508.62 976.99,518.91"];
	1	[height=0.5,
		pos="602.57,417.91",
		width=0.75];
	1 -- 2	[pos="621.77,430.64 629.43,435.71 638.23,441.54 645.92,446.63"];
	1 -- 9	[pos="596.12,435.76 588.37,457.21 575.45,492.99 567.72,514.39"];
	1 -- 13	[pos="625.69,427.43 664.48,443.4 742.19,475.39 781.01,491.36"];
	1 -- 3	[pos="629.77,416.98 634.83,416.81 640.11,416.63 645.17,416.46"];
	4	[height=0.5,
		pos="477.35,626.22",
		width=0.75];
	1 -- 4	[pos="592.32,434.96 568.78,474.12 511.07,570.13 487.56,609.23"];
	35	[height=0.5,
		pos="284.21,367.96",
		width=0.75];
	1 -- 35	[pos="576.24,413.78 516.35,404.39 370.48,381.5 310.56,372.1"];
	1 -- 36	[pos="582.5,405.66 539.59,379.46 439.34,318.24 396.47,292.07"];
	1 -- 37	[pos="576.11,412.94 526.88,403.67 421.76,383.9 372.64,374.65"];
	1 -- 8	[pos="597.57,400.09 593.13,384.27 586.69,361.28 582.26,345.47"];
	38	[height=0.5,
		pos="527.94,195.64",
		width=0.75];
	1 -- 38	[pos="596.58,400.1 582.58,358.38 547.78,254.73 533.85,213.23"];
	39	[height=0.5,
		pos="295.05,601.82",
		width=0.75];
	1 -- 39	[pos="582.39,429.98 526.67,463.3 371.11,556.33 315.3,589.71"];
	1 -- 40	[pos="624.23,407.09 648.54,394.94 687.75,375.35 712.07,363.2"];
	41	[height=0.5,
		pos="633.43,272.7",
		width=0.75];
	1 -- 41	[pos="606.41,399.82 612.36,371.84 623.72,318.41 629.63,290.57"];
	1 -- 15	[pos="606.38,435.8 612.25,463.3 623.43,515.67 629.32,543.31"];
	1 -- 42	[pos="629.58,419.93 678.95,423.6 783.16,431.36 832.53,435.04"];
	43	[height=0.5,
		pos="846.36,612.43",
		width=0.75];
	1 -- 43	[pos="620.1,431.9 665.08,467.79 784.18,562.82 828.99,598.57"];
	1 -- 18	[pos="578.52,409.61 552.9,400.76 512.56,386.83 486.88,377.96"];
	44	[height=0.5,
		pos="807.91,130.17",
		width=0.75];
	1 -- 44	[pos="614.19,401.62 650.25,351.09 759.92,197.41 796.15,146.64"];
	1 -- 21	[pos="628.07,411.66 687.08,397.2 832.5,361.55 891.74,347.03"];
	3 -- 13	[pos="691.86,428.12 716.77,444.26 759.7,472.08 784.65,488.25"];
	3 -- 16	[pos="680.89,433.14 690.45,453.02 705.9,485.15 715.39,504.9"];
	3 -- 19	[pos="690.02,429.39 700.5,437.65 713.78,448.11 724.31,456.4"];
	3 -- 8	[pos="656.28,400.62 638.68,384.37 610.68,358.52 593.18,342.36"];
	59	[height=0.5,
		pos="722.3,632.7",
		width=0.75];
	3 -- 59	[pos="676.59,433.67 686,474.65 708.81,573.98 718.18,614.76"];
	60	[height=0.5,
		pos="495.8,113.1",
		width=0.75];
	3 -- 60	[pos="662.42,398.4 631.33,345.17 536.63,183.01 505.69,130.04"];
	62	[height=0.5,
		pos="732.97,72.767",
		width=0.75];
	3 -- 62	[pos="675.59,397.58 686.03,338.49 719.26,150.38 729.75,90.948"];
	3 -- 64	[pos="653.54,402.64 615.29,376.54 529.04,317.68 490.71,291.52"];
	65	[height=0.5,
		pos="915.12,203.38",
		width=0.75];
	3 -- 65	[pos="689.1,400.95 733.55,362.1 854.43,256.43 898.64,217.78"];
	3 -- 10	[pos="648,423.33 622.86,431.36 583.91,443.81 558.69,451.86"];
	3 -- 11	[pos="657.1,430.66 611.34,475.84 476.05,609.42 430.4,654.5"];
	67	[height=0.5,
		pos="977.14,166.91",
		width=0.75];
	3 -- 67	[pos="689.68,401.45 743.18,357.79 905.93,225.01 959.69,181.14"];
	69	[height=0.5,
		pos="797.24,341.04",
		width=0.75];
	3 -- 69	[pos="692.75,403.39 715.96,389.54 753.71,367.01 776.92,353.16"];
	70	[height=0.5,
		pos="796.62,396.9",
		width=0.75];
	3 -- 70	[pos="699.06,411.53 720.02,408.39 749.08,404.03 770.02,400.89"];
	71	[height=0.5,
		pos="995.44,480.23",
		width=0.75];
	3 -- 71	[pos="698.31,420.71 758.79,432.83 908.82,462.88 969.43,475.02"];
	73	[height=0.5,
		pos="636.54,62.042",
		width=0.75];
	3 -- 73	[pos="670.59,397.51 664.44,336.87 644.52,140.6 638.37,80.021"];
	3 -- 23	[pos="685.91,399.87 726.96,352.21 850.06,209.32 891.17,161.6"];
	4 -- 24	[pos="492.34,641.54 517.08,666.85 566.22,717.09 590.9,742.33"];
	4 -- 9	[pos="491.22,610.68 506.77,593.24 531.87,565.12 547.43,547.67"];
	4 -- 16	[pos="500.53,616.43 547.6,596.55 653.9,551.66 700.77,531.87"];
	4 -- 59	[pos="504.5,626.94 551.58,628.18 647.86,630.73 695.03,631.98"];
	4 -- 10	[pos="483.42,608.4 494.33,576.36 517.14,509.37 528.03,477.42"];
	4 -- 11	[pos="458.35,639.46 450.64,644.83 441.74,651.03 434.04,656.4"];
	5	[height=0.5,
		pos="352.78,557.81",
		width=0.75];
	4 -- 5	[pos="456.5,614.77 433.5,602.14 396.72,581.94 373.7,569.3"];
	4 -- 75	[pos="455.16,636.73 417.27,654.66 340.54,691 302.7,708.91"];
	76	[height=0.5,
		pos="295.57,818.95",
		width=0.75];
	4 -- 76	[pos="462.78,641.67 428.66,677.84 343.9,767.71 309.96,803.69"];
	78	[height=0.5,
		pos="108.96,595.49",
		width=0.75];
	4 -- 78	[pos="450.26,623.96 382.14,618.28 204.26,603.44 136.09,597.75"];
	4 -- 80	[pos="489.62,642.26 501.21,657.42 518.51,680.03 530.16,695.26"];
	4 -- 81	[pos="499.76,636.48 547.67,658.41 659.6,709.66 707.47,731.57"];
	82	[height=0.5,
		pos="481.73,757.59",
		width=0.75];
	4 -- 82	[pos="477.96,644.49 478.79,669.59 480.29,714.46 481.12,739.48"];
	83	[height=0.5,
		pos="433.9,904.14",
		width=0.75];
	4 -- 83	[pos="474.5,644.46 466.61,694.93 444.54,836.08 436.71,886.2"];
	85	[height=0.5,
		pos="560.66,866.56",
		width=0.75];
	4 -- 85	[pos="483.48,643.89 498.88,688.34 539.11,804.39 554.52,848.87"];
	86	[height=0.5,
		pos="152.94,493.69",
		width=0.75];
	4 -- 86	[pos="454.28,616.8 394.64,592.43 235.86,527.56 176.11,503.15"];
	87	[height=0.5,
		pos="659.74,948.23",
		width=0.75];
	4 -- 87	[pos="486.9,643.08 518.34,698.6 618.44,875.32 650.06,931.15"];
	47	[height=0.5,
		pos="535,911.11",
		width=0.75];
	4 -- 47	[pos="481.04,644.47 491.46,695.93 520.96,841.74 531.34,893.01"];
	8 -- 26	[pos="595.82,314.58 624.34,294.45 678.66,256.1 707.31,235.87"];
	8 -- 9	[pos="575.86,345.82 572.83,384.61 565.76,475.25 562.73,514"];
	8 -- 10	[pos="571.44,345.49 563.19,370.69 548.2,416.51 539.92,441.79"];
	90	[height=0.5,
		pos="238.07,300.6",
		width=0.75];
	8 -- 90	[pos="550.37,325.53 486.91,320.46 328.44,307.81 264.97,302.75"];
	8 -- 103	[pos="559.31,313.99 525.87,288.53 454.49,234.15 421.13,208.75"];
	8 -- 114	[pos="552.06,320.99 501.8,307.67 389.65,277.94 339.45,264.64"];
	125	[height=0.5,
		pos="270.88,458.82",
		width=0.75];
	8 -- 125	[pos="554.24,337.53 497.32,361.9 350.52,424.73 293.76,449.03"];
	126	[height=0.5,
		pos="579.67,18",
		width=0.75];
	8 -- 126	[pos="577.42,309.23 577.84,254.15 579.11,91.3 579.53,36.348"];
	8 -- 128	[pos="602.89,321.46 661.15,307.31 803.09,272.84 861.38,258.68"];
	129	[height=0.5,
		pos="640.59,163.48",
		width=0.75];
	8 -- 129	[pos="584.05,310.1 596.24,278.5 621.71,212.43 633.87,180.92"];
	130	[height=0.5,
		pos="702.26,306.24",
		width=0.75];
	8 -- 130	[pos="603.48,323.18 624.81,319.52 654.77,314.38 676.1,310.73"];
	8 -- 131	[pos="601.72,319.7 637.56,308 703.99,286.31 739.83,274.61"];
	132	[height=0.5,
		pos="866.33,486.73",
		width=0.75];
	8 -- 132	[pos="598.53,339.37 652.12,368.86 792.24,445.96 845.44,475.23"];
	133	[height=0.5,
		pos="437.74,69.087",
		width=0.75];
	8 -- 133	[pos="568.12,310.71 542.83,263.86 472.25,133.05 446.92,86.116"];
	8 -- 134	[pos="595.97,314.45 635.96,286.16 729.39,220.07 769.34,191.81"];
	79	[height=0.5,
		pos="301.28,140.17",
		width=0.75];
	8 -- 79	[pos="558.3,314.79 507.89,280.53 370.96,187.51 320.39,153.15"];
	15 -- 31	[pos="649,576.04 676.41,601.4 732.47,653.25 759.93,678.65"];
	15 -- 16	[pos="656.03,551.52 669.75,545.57 687.15,538.03 700.87,532.08"];
	15 -- 19	[pos="650.21,547.2 670.68,530.11 704.82,501.61 725.24,484.56"];
	15 -- 18	[pos="619.23,545.72 587.18,509.66 508.59,421.26 476.58,385.25"];
	15 -- 17	[pos="638.51,579.25 643.24,595.08 650.1,618.09 654.82,633.9"];
	15 -- 70	[pos="648.27,546.23 679.4,514.89 750.47,443.36 781.58,412.05"];
	96	[height=0.5,
		pos="352.3,714.4",
		width=0.75];
	15 -- 96	[pos="612.07,572.92 559.89,601.34 425.31,674.64 373.27,702.98"];
	15 -- 108	[pos="607.05,556.43 553.61,546.23 432.36,523.1 378.89,512.9"];
	15 -- 119	[pos="608.34,568.91 555.19,584.93 431.04,622.36 377.95,638.37"];
	15 -- 130	[pos="638.04,543.47 650.73,496.62 684.73,370.99 697.41,324.16"];
	147	[height=0.5,
		pos="409.89,457.82",
		width=0.75];
	15 -- 147	[pos="610.96,551.1 568.27,531.3 475.24,488.14 432.36,468.24"];
	84	[height=0.5,
		pos="714.82,844.99",
		width=0.75];
	15 -- 84	[pos="638.29,579.16 652.95,630.08 695.05,776.34 709.71,827.26"];
	155	[height=0.5,
		pos="638.64,845.59",
		width=0.75];
	15 -- 155	[pos="633.54,579.63 634.52,630.95 637.31,776.39 638.29,827.53"];
	18 -- 34	[pos="472.39,352.61 486.62,327.71 513,281.55 527.23,256.64"];
	18 -- 86	[pos="439.4,378.93 382,401.93 234.18,461.14 176.49,484.25"];
	101	[height=0.5,
		pos="160.79,399.14",
		width=0.75];
	18 -- 101	[pos="435.89,372.22 378.6,377.83 244.75,390.92 187.52,396.52"];
	18 -- 133	[pos="461.15,351.26 456.69,297.48 443.68,140.66 439.24,87.193"];
	18 -- 139	[pos="439.54,360.05 409.38,347.58 356.92,325.91 326.75,313.44"];
	159	[height=0.5,
		pos="169.36,550.82",
		width=0.75];
	18 -- 159	[pos="442.51,382.06 388.8,415.24 242.7,505.5 189.27,538.51"];
	18 -- 167	[pos="480.24,355.87 525.18,320.71 644,227.77 689.13,192.47"];
	168	[height=0.5,
		pos="465.28,234.52",
		width=0.75];
	18 -- 168	[pos="463.03,351.39 463.52,325.61 464.43,278.74 464.92,252.88"];
	170	[height=0.5,
		pos="415.01,599.08",
		width=0.75];
	18 -- 170	[pos="458.94,387.61 450.02,430.51 427.62,538.34 418.73,581.15"];
	18 -- 173	[pos="470.67,352.13 489.38,311.22 535.88,209.58 554.5,168.88"];
	58	[height=0.5,
		pos="285.01,95.814",
		width=0.75];
	18 -- 58	[pos="451.83,352.89 420.11,304.01 327.77,161.7 295.94,112.66"];
	74	[height=0.5,
		pos="363.22,49.763",
		width=0.75];
	18 -- 74	[pos="457.19,351.95 439.84,296.16 386.31,124.01 368.82,67.754"];
	111	[height=0.5,
		pos="201.25,191.17",
		width=0.75];
	18 -- 111	[pos="443.45,356.48 394.99,323.41 268.26,236.91 220.15,204.07"];
	124	[height=0.5,
		pos="164.52,245.84",
		width=0.75];
	18 -- 124	[pos="439.28,359.89 383.54,336.76 243.43,278.6 187.81,255.51"];
	44 -- 45	[pos="824.94,144.31 852.07,166.85 904.81,210.65 931.97,233.22"];
	46 -- 47	[pos="894.57,626.32 831.2,676.51 615.96,846.99 552.65,897.13"];
	51	[height=0.5,
		pos="341.2,184.2",
		width=0.75];
	50 -- 51	[pos="594.9,113.19 541.8,128.06 419.07,162.41 366.19,177.21"];
	53 -- 54	[pos="931.74,309.8 959.13,329.41 1010.3,366.04 1037.9,385.81"];
	14 -- 30	[pos="685.17,508.27 737.3,511.63 851.07,518.95 903.12,522.3"];
	14 -- 16	[pos="683.65,512.63 688.4,513.76 693.36,514.94 698.11,516.08"];
	14 -- 19	[pos="681.06,496.67 692.92,491.58 707.35,485.38 719.21,480.3"];
	14 -- 41	[pos="656.2,488.57 651.61,445.04 639.93,334.31 635.33,290.72"];
	14 -- 15	[pos="650.21,523.9 647.31,530.3 644.01,537.56 641.1,543.97"];
	14 -- 17	[pos="658.35,524.62 658.74,552.44 659.48,605.43 659.88,633.38"];
	14 -- 69	[pos="671.44,490.66 697.97,459.11 757.07,388.81 783.74,357.1"];
	14 -- 82	[pos="646.52,523 614.57,568.49 525.35,695.5 493.34,741.06"];
	95	[height=0.5,
		pos="277.24,549.25",
		width=0.75];
	14 -- 95	[pos="631.31,509.53 561.38,517.38 373.88,538.41 303.99,546.25"];
	14 -- 107	[pos="640.92,492.3 599.99,458.4 497.11,373.18 456.27,339.35"];
	14 -- 129	[pos="657.15,488.09 654.11,428.38 644.54,240.83 641.52,181.6"];
	153	[height=0.5,
		pos="543.75,755.56",
		width=0.75];
	14 -- 153	[pos="650.05,524.04 629.06,569.76 572.77,692.36 551.78,738.07"];
	14 -- 168	[pos="646.32,489.92 611.82,441.25 511.2,299.31 476.89,250.91"];
	118	[height=0.5,
		pos="222.07,344.71",
		width=0.75];
	14 -- 118	[pos="634.34,497.71 558.37,469.52 321.84,381.74 245.84,353.54"];
	164	[height=0.5,
		pos="992.91,436.22",
		width=0.75];
	14 -- 164	[pos="684.09,501.07 746.47,487.97 904.1,454.87 966.7,441.72"];
	55 -- 56	[pos="858.86,224.52 873.52,258.59 905.83,333.69 920.51,367.81"];
	17 -- 43	[pos="686.03,646.25 721.51,638.76 784.87,625.4 820.39,617.91"];
	17 -- 85	[pos="652.16,668.93 633.54,709.16 587.33,808.95 568.67,849.26"];
	17 -- 122	[pos="645.56,666.94 615.06,698.83 544.77,772.3 513.99,804.48"];
	17 -- 132	[pos="677.72,637.64 716.67,606.47 809.88,531.9 848.8,500.76"];
	158	[height=0.5,
		pos="496.54,864.13",
		width=0.75];
	17 -- 158	[pos="647.57,668.02 617.04,707.66 539.26,808.66 508.93,848.05"];
	17 -- 169	[pos="687.18,652.21 734.95,653.1 833.69,654.94 881.43,655.83"];
	17 -- 170	[pos="634.37,646.17 587.29,636.06 487.9,614.72 440.8,604.61"];
	171	[height=0.5,
		pos="985.52,759.84",
		width=0.75];
	17 -- 171	[pos="684.33,659.74 744.56,679.76 900.76,731.67 961.17,751.75"];
	17 -- 33	[pos="664.09,669.77 675.24,720.69 706.84,864.99 717.95,915.73"];
	72	[height=0.5,
		pos="923.46,744.72",
		width=0.75];
	17 -- 72	[pos="684.44,660.29 734.73,678.05 849.68,718.66 899.59,736.29"];
	100	[height=0.5,
		pos="597.13,944.59",
		width=0.75];
	17 -- 100	[pos="656.29,669.59 645.04,721.87 612.29,874.11 601.01,926.57"];
	138	[height=0.5,
		pos="838.9,895.1",
		width=0.75];
	17 -- 138	[pos="672.14,668.05 704.71,712.39 794.44,834.57 826.95,878.83"];
	162	[height=0.5,
		pos="776.86,879.36",
		width=0.75];
	17 -- 162	[pos="668.91,668.82 690.54,711.01 746.25,819.66 767.99,862.05"];
	166	[height=0.5,
		pos="849.81,848.96",
		width=0.75];
	17 -- 166	[pos="675.02,667.18 710.47,704.06 799.61,796.75 834.99,833.55"];
	57 -- 58	[pos="530.79,103.39 478.47,101.78 364.3,98.259 312.07,96.648"];
	61	[height=0.5,
		pos="98.712,371.8",
		width=0.75];
	60 -- 61	[pos="476.38,125.75 408.95,169.68 185.46,315.28 118.1,359.17"];
	62 -- 63	[pos="706.18,76.103 644.04,83.842 490.7,102.94 428.78,110.65"];
	65 -- 66	[pos="916.25,221.49 919.13,267.83 926.74,390.35 929.63,436.89"];
	10 -- 27	[pos="558.67,467.15 612.2,483.27 738.66,521.34 792.32,537.5"];
	10 -- 16	[pos="558.46,467.77 594.87,479.76 663.03,502.2 699.39,514.18"];
	10 -- 38	[pos="533.63,441.58 532.51,393.34 529.48,262.31 528.36,213.92"];
	10 -- 18	[pos="521.29,443.62 508.3,427.22 488.28,401.93 475.33,385.58"];
	10 -- 14	[pos="557.67,468.65 579.75,476.97 612.51,489.34 634.56,497.65"];
	10 -- 17	[pos="545.02,476.44 568.92,512.83 625.48,598.94 649.28,635.18"];
	91	[height=0.5,
		pos="215.13,506",
		width=0.75];
	10 -- 91	[pos="507.41,463.6 447.38,472.31 302.09,493.39 241.92,502.12"];
	142	[height=0.5,
		pos="170.98,596.52",
		width=0.75];
	10 -- 142	[pos="510.51,468.61 444.98,493.29 260.97,562.62 194.94,587.49"];
	144	[height=0.5,
		pos="251.89,256.52",
		width=0.75];
	10 -- 144	[pos="515.54,446.4 464.41,409.58 321.68,306.78 270.48,269.9"];
	10 -- 146	[pos="558.63,451.97 597.2,439.79 671.52,416.32 710.03,404.16"];
	10 -- 147	[pos="506.8,459.32 486.1,459 457.76,458.56 437.07,458.24"];
	10 -- 148	[pos="547.93,444.16 568.27,421.32 605.98,379 626.33,356.17"];
	10 -- 51	[pos="522.56,443.33 488.26,394.32 386.85,249.42 352.63,200.53"];
	11 -- 39	[pos="394.51,657.91 372.51,645.5 337.88,625.97 315.83,613.54"];
	11 -- 52	[pos="442.28,669.1 463.24,668.76 492.13,668.28 513.08,667.93"];
	11 -- 104	[pos="388.37,672.12 347.79,676.02 271.19,683.38 230.54,687.29"];
	11 -- 125	[pos="403.84,653.02 376.86,613.62 309.06,514.6 282.15,475.28"];
	11 -- 135	[pos="415.8,687.72 416.66,711.84 418.16,754.15 419.01,778.25"];
	149	[height=0.5,
		pos="158.38,739.3",
		width=0.75];
	11 -- 149	[pos="390.07,676.37 340.98,689.7 232.74,719.1 183.57,732.45"];
	151	[height=0.5,
		pos="649.47,992.28",
		width=0.75];
	11 -- 151	[pos="427.1,686 467.29,741.36 597.39,920.55 637.55,975.86"];
	11 -- 153	[pos="434.41,682.43 458.65,698.64 500.06,726.34 524.37,742.59"];
	154	[height=0.5,
		pos="309,931.07",
		width=0.75];
	11 -- 154	[pos="408.03,687.12 388.69,734.76 335.4,866.03 316.1,913.58"];
	156	[height=0.5,
		pos="460.61,956.63",
		width=0.75];
	11 -- 156	[pos="418,687.51 426.16,739.07 449.61,887.13 457.77,938.68"];
	11 -- 158	[pos="422.52,687.16 438.02,724.21 473.82,809.81 489.25,846.7"];
	11 -- 159	[pos="392.91,658.8 346.11,636.2 237.97,583.96 191.37,561.45"];
	11 -- 160	[pos="441.24,674.24 489.66,682.94 592.9,701.5 641.5,710.24"];
	11 -- 29	[pos="412.29,687.85 404.35,738.5 382.16,880.12 374.28,930.41"];
	93	[height=0.5,
		pos="227.44,829.23",
		width=0.75];
	11 -- 93	[pos="398.5,683.72 362.96,713.95 280.07,784.46 244.33,814.86"];
	143	[height=0.5,
		pos="203.15,784.3",
		width=0.75];
	11 -- 143	[pos="394.05,680.97 353.42,702.97 264.74,750.97 224.17,772.93"];
	67 -- 68	[pos="960.42,181.28 931.43,206.19 872.15,257.13 843.11,282.09"];
	71 -- 72	[pos="990.6,498 977.52,546.06 941.53,678.31 928.36,726.69"];
	73 -- 74	[pos="609.34,60.82 556.95,58.466 442.62,53.33 390.32,50.98"];
	5 -- 25	[pos="360.41,575.37 373.4,605.29 399.69,665.79 412.74,695.82"];
	5 -- 6	[pos="374.37,546.89 395.85,536.02 428.62,519.44 450.18,508.53"];
	5 -- 9	[pos="379.61,554.5 419.66,549.57 494.6,540.33 534.59,535.4"];
	5 -- 12	[pos="376.11,548.73 422.5,530.67 525.85,490.43 572.47,472.28"];
	5 -- 35	[pos="346.45,540.29 333.42,504.22 303.72,421.99 290.62,385.72"];
	5 -- 48	[pos="359.07,540.14 368.92,512.49 387.87,459.29 397.76,431.55"];
	5 -- 89	[pos="328.89,566.36 284.57,582.22 190.05,616.04 145.57,631.96"];
	5 -- 90	[pos="345.07,540.53 324.23,493.79 266.87,365.19 245.89,318.14"];
	5 -- 91	[pos="329.12,548.9 303.9,539.42 264.22,524.48 238.95,514.97"];
	92	[height=0.5,
		pos="27,711.34",
		width=0.75];
	5 -- 92	[pos="330.64,568.24 271.21,596.25 108.63,672.87 49.166,700.9"];
	5 -- 94	[pos="373.84,569.34 421.31,595.31 536.19,658.16 583.77,684.19"];
	5 -- 95	[pos="325.93,554.77 318.81,553.96 311.12,553.09 304,552.28"];
	5 -- 96	[pos="352.72,576.08 352.63,606.25 352.45,666.15 352.35,696.25"];
	97	[height=0.5,
		pos="265.43,763.63",
		width=0.75];
	5 -- 97	[pos="345.33,575.36 328.83,614.24 289.35,707.28 272.86,746.13"];
	99	[height=0.5,
		pos="331.72,862.95",
		width=0.75];
	5 -- 99	[pos="351.52,575.98 347.78,630.26 336.71,790.72 332.97,844.87"];
	5 -- 101	[pos="335.74,543.73 299.31,513.62 214.19,443.27 177.79,413.19"];
	5 -- 102	[pos="379.33,561.79 418.26,567.63 490.41,578.46 529.34,584.3"];
	5 -- 61	[pos="334.51,544.43 287.74,510.2 164.11,419.68 117.16,385.31"];
	76 -- 77	[pos="276.14,806.31 236.78,780.7 148.02,722.95 108.58,697.29"];
	78 -- 79	[pos="116.39,577.92 146.97,505.52 263.05,230.69 293.78,157.93"];
	83 -- 84	[pos="459.83,898.69 513.34,887.42 635.49,861.7 688.95,850.44"];
	87 -- 88	[pos="675.92,933.53 730.39,884.06 906.69,723.91 961.11,674.48"];
	92 -- 93	[pos="47.322,723.29 85.739,745.89 168.6,794.62 207.06,817.24"];
	97 -- 98	[pos="292.25,766.27 362.9,773.22 553.55,791.98 624.29,798.94"];
	99 -- 100	[pos="356.69,870.63 407.41,886.23 521.93,921.46 572.42,936.99"];
	110 -- 111	[pos="165.35,309.07 173.26,283.08 187.93,234.9 195.85,208.91"];
	112 -- 113	[pos="305.54,208.06 387.56,194.36 637.2,152.69 719.21,139"];
	117 -- 118	[pos="101.51,483.87 127.23,454.19 182.69,390.17 208.43,360.46"];
	120 -- 121	[pos="384.46,780.67 462.21,772.42 687.05,748.58 764.93,740.32"];
	123 -- 124	[pos="92.571,410.19 107.78,375.45 141.72,297.92 156.91,263.22"];
	126 -- 127	[pos="594.86,32.97 614.33,52.152 647.88,85.212 667.37,104.42"];
	137 -- 138	[pos="731.57,800.78 755.24,821.58 798.69,859.76 822.4,880.6"];
	140 -- 141	[pos="883.81,378.94 907.17,372.17 941.85,362.11 965.18,355.35"];
	142 -- 143	[pos="174.07,614.52 180.21,650.42 193.93,730.5 200.08,766.35"];
	144 -- 145	[pos="274.33,246.07 315.31,226.99 401.83,186.69 442.83,167.6"];
	149 -- 150	[pos="167.24,722 181.6,693.95 209.81,638.83 224.17,610.79"];
	151 -- 152	[pos="663.76,976.59 710.01,925.79 855.29,766.23 901.18,715.83"];
	154 -- 155	[pos="334.32,924.5 395.68,908.59 551.79,868.11 613.23,852.17"];
	156 -- 157	[pos="483.48,946.81 542.02,921.68 696.79,855.22 755.57,829.98"];
	161 -- 162	[pos="839.89,710.94 826.63,746.37 796.73,826.28 783.44,861.78"];
	163 -- 164	[pos="1042.3,466.33 1033.2,460.76 1022.4,454.18 1013.2,448.59"];
	165 -- 166	[pos="1017,628.91 984.19,672.08 895.13,789.31 862.23,832.6"];
	171 -- 172	[pos="986.85,741.74 990.07,697.89 998.27,586.32 1001.5,542.4"];
}
