graph {
	graph [bb="0,0,1066.2,982.19",
		outputorder=edgesfirst,
		overlap=prism,
		size="50,50!",
		start=3688
	];
	node [label="\N"];
	0	[height=0.5,
		pos="115.59,232.19",
		width=0.75];
	1	[height=0.5,
		pos="271.72,137.47",
		width=0.75];
	0 -- 1	[pos="135.68,220 165.66,201.82 221.78,167.77 251.71,149.61"];
	20	[height=0.5,
		pos="37.892,337.03",
		width=0.75];
	0 -- 20	[pos="103.45,248.57 88.855,268.27 64.507,301.12 49.947,320.76"];
	2	[height=0.5,
		pos="343.24,106",
		width=0.75];
	1 -- 2	[pos="294.35,127.51 302.7,123.84 312.16,119.68 320.51,116"];
	59	[height=0.5,
		pos="342.12,163.57",
		width=0.75];
	1 -- 59	[pos="295.56,146.31 302.9,149.03 310.98,152.02 318.31,154.74"];
	26	[height=0.5,
		pos="89.037,410.31",
		width=0.75];
	20 -- 26	[pos="49.497,353.66 57.868,365.65 69.118,381.77 77.477,393.75"];
	21	[height=0.5,
		pos="151.05,430.09",
		width=0.75];
	20 -- 21	[pos="55.077,351.16 76.346,368.65 112.36,398.27 133.7,415.82"];
	3	[height=0.5,
		pos="406.13,118.73",
		width=0.75];
	2 -- 3	[pos="369.18,111.25 372.84,111.99 376.6,112.75 380.25,113.49"];
	42	[height=0.5,
		pos="305.69,207.61",
		width=0.75];
	2 -- 42	[pos="336.7,123.7 329.81,142.35 319.02,171.54 312.15,190.12"];
	34	[height=0.5,
		pos="99.924,364.36",
		width=0.75];
	26 -- 34	[pos="93.278,392.42 94.066,389.09 94.889,385.62 95.678,382.29"];
	27	[height=0.5,
		pos="213.09,439.34",
		width=0.75];
	26 -- 27	[pos="114.74,416.33 136.03,421.31 166.14,428.36 187.42,433.33"];
	4	[height=0.5,
		pos="232.39,203.46",
		width=0.75];
	3 -- 4	[pos="384.13,129.46 350.71,145.76 287.53,176.57 254.21,192.82"];
	93	[height=0.5,
		pos="539.19,163.55",
		width=0.75];
	3 -- 93	[pos="430.54,126.95 454.55,135.04 490.99,147.31 514.94,155.38"];
	41	[height=0.5,
		pos="181.63,291.11",
		width=0.75];
	34 -- 41	[pos="116.07,349.89 130.3,337.13 150.94,318.63 165.24,305.8"];
	35	[height=0.5,
		pos="112.61,492.19",
		width=0.75];
	34 -- 35	[pos="101.72,382.41 104.12,406.63 108.37,449.44 110.79,473.82"];
	5	[height=0.5,
		pos="161.96,342.37",
		width=0.75];
	4 -- 5	[pos="223.61,220.77 210.04,247.54 184.13,298.64 170.63,325.27"];
	60	[height=0.5,
		pos="354.62,278.43",
		width=0.75];
	4 -- 60	[pos="252.3,215.67 275.03,229.62 311.99,252.29 334.71,266.22"];
	49	[height=0.5,
		pos="213.12,393.55",
		width=0.75];
	41 -- 49	[pos="187.11,308.95 192.89,327.76 201.94,357.19 207.69,375.91"];
	41 -- 42	[pos="200.74,278.25 223.99,262.6 263,236.34 286.35,220.63"];
	6	[height=0.5,
		pos="27,417.19",
		width=0.75];
	5 -- 6	[pos="141.17,353.89 115.88,367.91 73.436,391.45 48.038,405.53"];
	5 -- 27	[pos="171.1,359.7 180.41,377.35 194.75,404.56 204.03,422.15"];
	53	[height=0.5,
		pos="297.39,336.37",
		width=0.75];
	49 -- 53	[pos="232.24,380.58 246.03,371.22 264.57,358.64 278.34,349.29"];
	50	[height=0.5,
		pos="275.12,473.84",
		width=0.75];
	49 -- 50	[pos="225.66,409.8 236.42,423.73 251.84,443.69 262.59,457.62"];
	7	[height=0.5,
		pos="112.6,537.55",
		width=0.75];
	6 -- 7	[pos="38.902,433.93 55.257,456.92 84.498,498.03 100.8,520.95"];
	6 -- 21	[pos="53.916,419.99 74.723,422.15 103.39,425.13 124.18,427.3"];
	58	[height=0.5,
		pos="243.67,247.48",
		width=0.75];
	53 -- 58	[pos="287.29,319.65 277.74,303.86 263.5,280.29 253.91,264.42"];
	54	[height=0.5,
		pos="446.62,395.78",
		width=0.75];
	53 -- 54	[pos="320.71,345.65 348.58,356.75 394.96,375.21 422.98,386.37"];
	8	[height=0.5,
		pos="50.591,506.17",
		width=0.75];
	7 -- 8	[pos="90.912,526.57 84.905,523.53 78.384,520.23 72.371,517.19"];
	22	[height=0.5,
		pos="213.03,487.85",
		width=0.75];
	7 -- 22	[pos="134.39,526.76 151.24,518.42 174.44,506.94 191.28,498.61"];
	67	[height=0.5,
		pos="367.74,233.8",
		width=0.75];
	58 -- 67	[pos="270.59,244.51 291.4,242.21 320.07,239.05 340.87,236.76"];
	58 -- 59	[pos="260.37,233.24 278.48,217.82 307.2,193.33 325.34,177.88"];
	9	[height=0.5,
		pos="90.991,584.98",
		width=0.75];
	8 -- 9	[pos="59.357,523.27 66.133,536.49 75.47,554.7 82.242,567.91"];
	8 -- 35	[pos="76.175,500.4 79.645,499.62 83.209,498.82 86.685,498.03"];
	75	[height=0.5,
		pos="487.06,351.77",
		width=0.75];
	67 -- 75	[pos="382.85,248.74 405.68,271.31 448.72,313.86 471.69,336.57"];
	68	[height=0.5,
		pos="429.76,234.8",
		width=0.75];
	67 -- 68	[pos="394.76,234.23 397.37,234.28 400.02,234.32 402.64,234.36"];
	10	[height=0.5,
		pos="132.75,641.26",
		width=0.75];
	9 -- 10	[pos="103.07,601.26 108.56,608.66 115.05,617.4 120.56,624.82"];
	36	[height=0.5,
		pos="174.66,531.99",
		width=0.75];
	9 -- 36	[pos="110.82,572.42 124.16,563.97 141.67,552.88 154.98,544.46"];
	81	[height=0.5,
		pos="553.79,263.47",
		width=0.75];
	75 -- 81	[pos="499.3,335.57 511.34,319.64 529.61,295.46 541.63,279.56"];
	76	[height=0.5,
		pos="541.98,493.03",
		width=0.75];
	75 -- 76	[pos="493.9,369.37 504.43,396.44 524.47,448 535.05,475.2"];
	11	[height=0.5,
		pos="232.57,710.4",
		width=0.75];
	10 -- 11	[pos="151.53,654.27 169.26,666.55 195.72,684.88 213.54,697.22"];
	37	[height=0.5,
		pos="264.36,563.69",
		width=0.75];
	10 -- 37	[pos="153.03,629.31 177.69,614.78 219.08,590.38 243.85,575.78"];
	86	[height=0.5,
		pos="503.76,100.2",
		width=0.75];
	81 -- 86	[pos="548.34,245.69 538.71,214.28 518.82,149.36 509.2,117.97"];
	82	[height=0.5,
		pos="654.87,307.5",
		width=0.75];
	81 -- 82	[pos="576.47,273.35 593.12,280.6 615.63,290.41 632.26,297.65"];
	12	[height=0.5,
		pos="232.7,654.41",
		width=0.75];
	11 -- 12	[pos="232.61,692.38 232.63,686.11 232.64,679.08 232.66,672.79"];
	38	[height=0.5,
		pos="356.84,653.28",
		width=0.75];
	11 -- 38	[pos="255.07,700.06 277.59,689.71 312.04,673.88 334.5,663.55"];
	91	[height=0.5,
		pos="630.7,83.63",
		width=0.75];
	86 -- 91	[pos="530.37,96.73 552.04,93.901 582.47,89.927 604.13,87.1"];
	87	[height=0.5,
		pos="474.72,181.06",
		width=0.75];
	86 -- 87	[pos="497.46,117.75 492.59,131.31 485.88,150 481.01,163.55"];
	13	[height=0.5,
		pos="294.79,651.72",
		width=0.75];
	12 -- 13	[pos="259.75,653.24 262.37,653.13 265.02,653.01 267.64,652.9"];
	23	[height=0.5,
		pos="319,607.72",
		width=0.75];
	12 -- 23	[pos="254.04,642.87 267.41,635.63 284.59,626.34 297.92,619.13"];
	97	[height=0.5,
		pos="801.56,62.025",
		width=0.75];
	91 -- 97	[pos="657.4,80.254 689.41,76.207 742.73,69.465 774.77,65.413"];
	92	[height=0.5,
		pos="714.82,212.95",
		width=0.75];
	91 -- 92	[pos="641.53,100.27 657.68,125.1 687.91,171.58 704.04,196.37"];
	14	[height=0.5,
		pos="419.99,754.98",
		width=0.75];
	13 -- 14	[pos="311.93,665.87 335.78,685.53 378.7,720.93 402.65,740.68"];
	28	[height=0.5,
		pos="299.95,519.68",
		width=0.75];
	13 -- 28	[pos="295.49,633.64 296.48,608.5 298.25,563.22 299.23,537.97"];
	100	[height=0.5,
		pos="838.91,202.07",
		width=0.75];
	97 -- 100	[pos="806.29,79.762 813.44,106.55 826.91,157.07 834.1,184.04"];
	98	[height=0.5,
		pos="776.86,194.1",
		width=0.75];
	97 -- 98	[pos="798.18,80.113 793.45,105.41 784.91,151.06 780.2,176.23"];
	15	[height=0.5,
		pos="332.03,832.1",
		width=0.75];
	14 -- 15	[pos="403.45,769.49 387.72,783.27 364.2,803.89 348.5,817.66"];
	73	[height=0.5,
		pos="545.96,692.77",
		width=0.75];
	14 -- 73	[pos="441.93,744.15 464.91,732.8 500.8,715.07 523.85,703.69"];
	109	[height=0.5,
		pos="892.6,260.6",
		width=0.75];
	100 -- 109	[pos="853.02,217.45 860.85,225.99 870.56,236.57 878.4,245.13"];
	101	[height=0.5,
		pos="702.71,263.47",
		width=0.75];
	100 -- 101	[pos="816.42,212.21 791.19,223.59 750.49,241.93 725.24,253.31"];
	16	[height=0.5,
		pos="466.75,855.71",
		width=0.75];
	15 -- 16	[pos="358.33,836.71 382.07,840.87 416.81,846.96 440.52,851.11"];
	29	[height=0.5,
		pos="420.2,620.83",
		width=0.75];
	15 -- 29	[pos="339.4,814.45 356.04,774.58 396.36,677.96 412.92,638.28"];
	114	[height=0.5,
		pos="900.97,198.34",
		width=0.75];
	109 -- 114	[pos="895.02,242.59 896.12,234.41 897.42,224.73 898.53,216.52"];
	110	[height=0.5,
		pos="757.55,360.41",
		width=0.75];
	109 -- 110	[pos="874.38,274.07 848.61,293.11 801.76,327.74 775.91,346.85"];
	17	[height=0.5,
		pos="528.43,899.98",
		width=0.75];
	16 -- 17	[pos="485.26,868.99 493.07,874.6 502.13,881.1 509.94,886.71"];
	30	[height=0.5,
		pos="493.25,767.69",
		width=0.75];
	16 -- 30	[pos="472.11,837.9 476.71,822.63 483.3,800.74 487.89,785.48"];
	118	[height=0.5,
		pos="868.91,109.51",
		width=0.75];
	114 -- 118	[pos="894.64,180.79 889.02,165.22 880.85,142.58 875.23,127.02"];
	115	[height=0.5,
		pos="826.74,246.1",
		width=0.75];
	114 -- 115	[pos="881.47,210.89 870.64,217.85 857.22,226.49 846.37,233.47"];
	18	[height=0.5,
		pos="282.07,920.14",
		width=0.75];
	17 -- 18	[pos="501.6,902.17 454.21,906.05 356.23,914.07 308.87,917.95"];
	31	[height=0.5,
		pos="554.84,820",
		width=0.75];
	17 -- 31	[pos="534.29,882.23 538.67,868.98 544.62,850.94 548.99,837.7"];
	124	[height=0.5,
		pos="692.78,106.63",
		width=0.75];
	118 -- 124	[pos="841.77,109.07 808.68,108.52 753.06,107.61 719.95,107.07"];
	119	[height=0.5,
		pos="779.53,150.06",
		width=0.75];
	118 -- 119	[pos="846.35,119.74 832.81,125.89 815.63,133.69 802.08,139.83"];
	19	[height=0.5,
		pos="242.52,964.19",
		width=0.75];
	18 -- 19	[pos="267.79,936.05 264.16,940.09 260.27,944.43 256.65,948.46"];
	24	[height=0.5,
		pos="269.89,804.48",
		width=0.75];
	18 -- 24	[pos="280.16,902.07 277.89,880.47 274.1,844.52 271.82,822.8"];
	129	[height=0.5,
		pos="756.27,18",
		width=0.75];
	124 -- 129	[pos="704.43,90.374 715.81,74.482 733.05,50.412 744.48,34.453"];
	125	[height=0.5,
		pos="616.01,263.46",
		width=0.75];
	124 -- 125	[pos="684.28,124.01 669.52,154.16 639.34,215.8 624.56,246"];
	25	[height=0.5,
		pos="229.46,860.35",
		width=0.75];
	19 -- 25	[pos="240.25,946.1 237.87,927.16 234.15,897.58 231.76,878.58"];
	130	[height=0.5,
		pos="754.83,106.05",
		width=0.75];
	129 -- 130	[pos="755.97,36.244 755.73,51.355 755.38,72.724 755.13,87.829"];
	21 -- 22	[pos="167.01,444.96 176.19,453.52 187.7,464.24 196.9,472.82"];
	44	[height=0.5,
		pos="285.89,381.87",
		width=0.75];
	21 -- 44	[pos="174.84,421.58 199.34,412.82 237.3,399.24 261.88,390.46"];
	22 -- 23	[pos="226.88,503.52 247.19,526.49 284.83,569.07 305.14,592.05"];
	22 -- 50	[pos="238.64,482.07 242.11,481.28 245.68,480.48 249.16,479.69"];
	59 -- 68	[pos="359.44,177.65 374.8,190.13 397.13,208.28 412.48,220.76"];
	59 -- 60	[pos="344.1,181.77 346.44,203.28 350.31,238.85 352.65,260.32"];
	68 -- 82	[pos="454.28,242.72 497.58,256.7 587.1,285.61 630.38,299.59"];
	69	[height=0.5,
		pos="420.32,282.52",
		width=0.75];
	68 -- 69	[pos="426.19,252.84 425.44,256.64 424.65,260.65 423.89,264.45"];
	82 -- 92	[pos="665.59,290.6 676.5,273.39 693.32,246.86 704.19,229.71"];
	83	[height=0.5,
		pos="604.1,506.32",
		width=0.75];
	82 -- 83	[pos="650.28,325.5 640.61,363.35 618.27,450.82 608.65,488.51"];
	23 -- 24	[pos="314.56,625.53 305.23,662.9 283.71,749.11 274.36,786.57"];
	104	[height=0.5,
		pos="455.55,576.78",
		width=0.75];
	23 -- 104	[pos="344.69,601.9 369.1,596.37 405.61,588.1 429.98,582.57"];
	92 -- 101	[pos="710.52,230.9 709.37,235.67 708.14,240.81 707,245.57"];
	92 -- 93	[pos="689.65,205.87 656.27,196.48 597.67,180 564.3,170.61"];
	101 -- 115	[pos="729.32,259.74 750.25,256.81 779.26,252.75 800.18,249.82"];
	102	[height=0.5,
		pos="549.08,395.3",
		width=0.75];
	101 -- 102	[pos="685.98,277.83 656.43,303.19 595.33,355.61 565.8,380.96"];
	115 -- 130	[pos="817.92,228.92 804.12,202.05 777.57,150.33 763.72,123.36"];
	116	[height=0.5,
		pos="889.23,347.83",
		width=0.75];
	115 -- 116	[pos="837.06,262.9 848.63,281.75 867.31,312.15 878.89,331.01"];
	24 -- 25	[pos="257.98,820.94 252.76,828.15 246.65,836.59 241.43,843.81"];
	32	[height=0.5,
		pos="357.91,788.06",
		width=0.75];
	24 -- 32	[pos="296.3,799.55 307.54,797.45 320.62,795.01 331.82,792.92"];
	33	[height=0.5,
		pos="312.94,876.13",
		width=0.75];
	25 -- 33	[pos="255.87,865.34 265.71,867.2 276.87,869.31 286.7,871.17"];
	131	[height=0.5,
		pos="561.54,52.236",
		width=0.75];
	130 -- 131	[pos="729.56,99.014 692.42,88.673 623.49,69.482 586.51,59.188"];
	42 -- 87	[pos="332.1,203.46 363.76,198.49 416.51,190.2 448.21,185.22"];
	43	[height=0.5,
		pos="292.44,292.08",
		width=0.75];
	42 -- 43	[pos="302.88,225.53 300.64,239.76 297.53,259.59 295.29,273.9"];
	27 -- 28	[pos="229.02,454.08 244.69,468.57 268.48,490.57 284.12,505.04"];
	27 -- 43	[pos="222.35,422.16 237.64,393.78 267.99,337.45 283.24,309.15"];
	87 -- 131	[pos="485.89,164.48 502.56,139.75 533.76,93.449 550.41,68.75"];
	88	[height=0.5,
		pos="586.07,307.51",
		width=0.75];
	87 -- 88	[pos="488.6,196.82 510.05,221.18 551.02,267.71 572.36,291.95"];
	28 -- 29	[pos="316.92,533.96 339.84,553.24 380.44,587.39 403.32,606.63"];
	55	[height=0.5,
		pos="417.01,487",
		width=0.75];
	28 -- 55	[pos="325.06,512.67 344.81,507.16 372.2,499.51 391.94,494"];
	29 -- 30	[pos="428.73,637.97 442.72,666.12 470.44,721.84 484.55,750.21"];
	63	[height=0.5,
		pos="491.94,622.44",
		width=0.75];
	29 -- 63	[pos="447.32,621.44 453.04,621.57 459.06,621.71 464.78,621.83"];
	30 -- 31	[pos="510.08,781.99 518.77,789.37 529.34,798.35 538.03,805.73"];
	39	[height=0.5,
		pos="483.93,719.25",
		width=0.75];
	30 -- 39	[pos="489.78,749.65 488.99,745.57 488.15,741.22 487.37,737.14"];
	31 -- 32	[pos="528.28,815.7 490.59,809.58 422,798.45 384.37,792.35"];
	65	[height=0.5,
		pos="661.72,766.83",
		width=0.75];
	31 -- 65	[pos="576.72,809.11 595.17,799.94 621.43,786.87 639.86,777.7"];
	32 -- 33	[pos="349.03,805.46 341.09,821 329.53,843.63 321.65,859.06"];
	51	[height=0.5,
		pos="385.12,576.83",
		width=0.75];
	32 -- 51	[pos="360.23,770.05 365.37,730.14 377.67,634.66 382.81,594.79"];
	40	[height=0.5,
		pos="492.03,811.71",
		width=0.75];
	33 -- 40	[pos="336.72,867.57 370.97,855.25 433.84,832.64 468.15,820.3"];
	132	[height=0.5,
		pos="630.6,19.639",
		width=0.75];
	131 -- 132	[pos="583.77,41.743 591.66,38.02 600.53,33.833 608.41,30.113"];
	35 -- 36	[pos="132.24,504.78 139.49,509.43 147.69,514.69 154.94,519.34"];
	45	[height=0.5,
		pos="286.01,429.24",
		width=0.75];
	35 -- 45	[pos="136.36,483.57 169.47,471.55 229.17,449.88 262.27,437.86"];
	36 -- 37	[pos="198.7,540.49 211.57,545.03 227.38,550.62 240.26,555.17"];
	46	[height=0.5,
		pos="337.49,475.65",
		width=0.75];
	36 -- 46	[pos="198.69,523.68 229.47,513.03 282.53,494.67 313.36,484"];
	37 -- 38	[pos="280.05,578.89 297.16,595.46 324.36,621.82 341.38,638.31"];
	72	[height=0.5,
		pos="432.16,532.21",
		width=0.75];
	37 -- 72	[pos="290.58,558.77 322.1,552.86 374.69,542.99 406.13,537.09"];
	38 -- 39	[pos="378.4,664.47 401.77,676.6 438.85,695.85 462.26,708"];
	47	[height=0.5,
		pos="369.92,532.77",
		width=0.75];
	38 -- 47	[pos="358.8,635.24 361.26,612.52 365.48,573.71 367.95,550.93"];
	93 -- 98	[pos="565.99,166.99 611.76,172.88 704.46,184.79 750.16,190.67"];
	94	[height=0.5,
		pos="491.77,225.08",
		width=0.75];
	93 -- 94	[pos="526.73,179.72 519.81,188.69 511.24,199.82 504.31,208.81"];
	98 -- 119	[pos="777.96,175.94 778.12,173.38 778.28,170.75 778.43,168.19"];
	99	[height=0.5,
		pos="827.77,290.41",
		width=0.75];
	98 -- 99	[pos="785.96,211.32 795.23,228.85 809.51,255.87 818.75,273.34"];
	39 -- 40	[pos="485.53,737.51 486.95,753.73 489.01,777.28 490.43,793.48"];
	64	[height=0.5,
		pos="577.99,648.74",
		width=0.75];
	39 -- 64	[pos="502.06,705.65 518.72,693.17 543.27,674.77 559.91,662.29"];
	119 -- 132	[pos="763.02,135.61 734.4,110.54 675.86,59.275 647.18,34.16"];
	120	[height=0.5,
		pos="764.72,261.09",
		width=0.75];
	119 -- 120	[pos="777.09,168.4 774.32,189.09 769.86,222.54 767.12,243.1"];
	48	[height=0.5,
		pos="418.85,666.94",
		width=0.75];
	40 -- 48	[pos="483.34,794.53 469.26,766.67 441.6,711.94 427.52,684.09"];
	133	[height=0.5,
		pos="485.51,55.942",
		width=0.75];
	132 -- 133	[pos="604.99,26.046 578.47,32.682 537.29,42.987 510.86,49.6"];
	43 -- 44	[pos="291.11,310.25 289.98,325.83 288.35,348.15 287.21,363.73"];
	43 -- 69	[pos="319.56,290.05 341.26,288.43 371.55,286.16 393.24,284.54"];
	44 -- 45	[pos="285.94,400.05 285.95,403.7 285.96,407.54 285.97,411.19"];
	44 -- 54	[pos="312.79,384.2 342.46,386.77 389.93,390.87 419.63,393.45"];
	60 -- 94	[pos="378.19,269.26 403.32,259.49 442.86,244.1 468.04,234.31"];
	61	[height=0.5,
		pos="384.59,431.63",
		width=0.75];
	60 -- 61	[pos="358.11,296.3 363.86,325.67 375.23,383.8 381.02,413.39"];
	45 -- 46	[pos="302.3,443.93 308.31,449.35 315.11,455.48 321.13,460.91"];
	70	[height=0.5,
		pos="407.6,350.02",
		width=0.75];
	45 -- 70	[pos="305.55,416.52 328.24,401.73 365.44,377.49 388.11,362.71"];
	46 -- 47	[pos="347.22,492.79 351.32,500.02 356.09,508.42 360.2,515.64"];
	71	[height=0.5,
		pos="449.64,442.84",
		width=0.75];
	46 -- 71	[pos="362.38,468.37 380.96,462.93 406.25,455.53 424.82,450.1"];
	47 -- 48	[pos="376.32,550.31 385.7,576.02 403.07,623.68 412.45,649.39"];
	103	[height=0.5,
		pos="527.04,442.23",
		width=0.75];
	47 -- 103	[pos="390.46,520.93 420.58,503.58 476.38,471.42 506.5,454.07"];
	94 -- 133	[pos="491.1,206.98 489.9,174.51 487.39,106.73 486.19,74.168"];
	95	[height=0.5,
		pos="611.12,351.52",
		width=0.75];
	94 -- 95	[pos="506.41,240.58 529.44,264.98 573.87,312.05 596.74,336.29"];
	52	[height=0.5,
		pos="396.49,710.94",
		width=0.75];
	48 -- 52	[pos="410.14,684.08 408.52,687.26 406.83,690.59 405.21,693.78"];
	134	[height=0.5,
		pos="568.69,119.51",
		width=0.75];
	133 -- 134	[pos="503.56,69.736 517.51,80.398 536.74,95.089 550.68,105.74"];
	50 -- 51	[pos="290.88,488.6 311.79,508.17 348.49,542.54 369.39,562.1"];
	50 -- 61	[pos="298.6,464.78 317.07,457.66 342.68,447.79 361.14,440.67"];
	69 -- 125	[pos="447.12,279.91 484.49,276.27 551.86,269.71 589.22,266.07"];
	69 -- 70	[pos="416.91,300.61 415.09,310.29 412.84,322.19 411.02,331.88"];
	51 -- 52	[pos="386.65,594.92 388.83,620.51 392.77,667.04 394.95,692.71"];
	56	[height=0.5,
		pos="480.85,666.47",
		width=0.75];
	51 -- 56	[pos="400.93,591.63 418.67,608.24 447.27,635.03 465.02,651.64"];
	125 -- 134	[pos="610.21,245.81 601.13,218.18 583.65,165.02 574.54,137.31"];
	126	[height=0.5,
		pos="653.07,439.56",
		width=0.75];
	125 -- 126	[pos="619.77,281.32 626.87,315.07 642.19,387.87 649.3,421.66"];
	57	[height=0.5,
		pos="588.77,764.18",
		width=0.75];
	52 -- 57	[pos="421.63,717.9 458.48,728.11 526.78,747.02 563.63,757.22"];
	135	[height=0.5,
		pos="652.78,219.45",
		width=0.75];
	134 -- 135	[pos="582.2,135.57 597.89,154.22 623.62,184.8 639.3,203.44"];
	54 -- 88	[pos="466.31,383.32 492.88,366.5 539.96,336.7 566.48,319.91"];
	54 -- 55	[pos="440.77,413.8 435.55,429.9 427.94,453.34 422.74,469.33"];
	88 -- 120	[pos="611.28,300.96 645.24,292.14 705.31,276.53 739.34,267.69"];
	89	[height=0.5,
		pos="715.08,449.31",
		width=0.75];
	88 -- 89	[pos="600.12,322.96 624.93,350.23 676.24,406.62 701.04,433.89"];
	55 -- 56	[pos="423.24,504.54 435.45,538.85 462.36,614.5 474.59,648.86"];
	62	[height=0.5,
		pos="479.84,487.36",
		width=0.75];
	55 -- 62	[pos="444.02,487.16 446.81,487.17 449.65,487.19 452.45,487.21"];
	120 -- 135	[pos="740.98,252.26 721.98,245.19 695.47,235.33 676.48,228.27"];
	121	[height=0.5,
		pos="826.2,334.94",
		width=0.75];
	120 -- 121	[pos="778.06,277.12 788.44,289.59 802.78,306.81 813.1,319.2"];
	56 -- 57	[pos="497.24,681.31 517.65,699.78 552.27,731.14 572.58,749.52"];
	107	[height=0.5,
		pos="774.81,598.03",
		width=0.75];
	56 -- 107	[pos="506.43,660.51 562.02,647.57 693.36,616.99 749.09,604.02"];
	66	[height=0.5,
		pos="663.31,855.57",
		width=0.75];
	57 -- 66	[pos="601.76,780.1 615.35,796.77 636.59,822.81 650.22,839.53"];
	136	[height=0.5,
		pos="496.72,307.75",
		width=0.75];
	135 -- 136	[pos="632.05,231.18 602.2,248.07 547.42,279.06 517.53,295.98"];
	61 -- 62	[pos="405.26,443.72 421.34,453.13 443.55,466.13 459.54,475.49"];
	61 -- 136	[pos="398.56,416.19 420.05,392.45 460.97,347.24 482.57,323.38"];
	62 -- 63	[pos="481.47,505.58 483.78,531.36 487.98,578.22 490.29,604.08"];
	105	[height=0.5,
		pos="553.99,594.36",
		width=0.75];
	62 -- 105	[pos="491.42,504.08 505.36,524.18 528.59,557.71 542.49,577.76"];
	63 -- 64	[pos="516.83,630.05 528.24,633.54 541.74,637.66 553.15,641.15"];
	78	[height=0.5,
		pos="710.18,640.83",
		width=0.75];
	63 -- 78	[pos="519.14,624.73 561.18,628.28 641.48,635.04 683.32,638.57"];
	64 -- 65	[pos="589.63,665.16 605.63,687.72 634.23,728.06 650.18,750.55"];
	64 -- 83	[pos="581.29,630.7 586.32,603.31 595.81,551.52 600.82,524.22"];
	65 -- 66	[pos="662.05,785.22 662.32,800.55 662.71,822.27 662.98,837.51"];
	79	[height=0.5,
		pos="727.18,729.18",
		width=0.75];
	65 -- 79	[pos="682.43,754.92 690.07,750.52 698.73,745.54 706.38,741.15"];
	74	[height=0.5,
		pos="704.53,811.01",
		width=0.75];
	66 -- 74	[pos="677.72,839.99 681.81,835.57 686.25,830.77 690.33,826.36"];
	137	[height=0.5,
		pos="632.62,395.55",
		width=0.75];
	136 -- 137	[pos="516.19,320.33 542.02,337.02 587.37,366.31 613.18,382.99"];
	70 -- 71	[pos="415.51,367.48 423.02,384.07 434.26,408.89 441.77,425.46"];
	70 -- 102	[pos="432.24,357.91 458.21,366.22 498.86,379.23 524.72,387.51"];
	71 -- 72	[pos="446.11,460.92 443.07,476.43 438.73,498.65 435.7,514.15"];
	71 -- 95	[pos="470.42,431.09 501.43,413.55 559.46,380.73 590.42,363.23"];
	72 -- 73	[pos="443.7,548.48 465.51,579.26 512.56,645.64 534.39,676.45"];
	72 -- 76	[pos="455.99,523.71 474.28,517.18 499.44,508.21 517.82,501.65"];
	73 -- 74	[pos="564.15,706.33 594.57,729.02 655.45,774.42 686.06,797.24"];
	77	[height=0.5,
		pos="646.09,638.42",
		width=0.75];
	73 -- 77	[pos="567.19,681.24 584.19,672.02 607.9,659.15 624.89,649.93"];
	102 -- 137	[pos="576.44,395.38 585.76,395.41 596.18,395.44 605.49,395.47"];
	102 -- 103	[pos="541,412.51 539.09,416.59 537.04,420.94 535.12,425.02"];
	80	[height=0.5,
		pos="767.27,773.25",
		width=0.75];
	74 -- 80	[pos="724.73,798.86 731.89,794.54 739.95,789.69 747.11,785.38"];
	138	[height=0.5,
		pos="716.8,404.45",
		width=0.75];
	137 -- 138	[pos="659.72,398.42 669.43,399.44 680.36,400.6 690.04,401.62"];
	76 -- 77	[pos="553.72,509.43 573.71,537.35 614.16,593.83 634.23,621.86"];
	139	[height=0.5,
		pos="666.11,493.33",
		width=0.75];
	76 -- 139	[pos="569.22,493.1 589.91,493.15 618.25,493.21 638.93,493.26"];
	95 -- 110	[pos="638.32,353.17 664.62,354.77 704.24,357.18 730.5,358.77"];
	96	[height=0.5,
		pos="717.02,307.61",
		width=0.75];
	95 -- 96	[pos="634.1,341.99 651.86,334.63 676.33,324.48 694.08,317.12"];
	77 -- 78	[pos="673.27,639.44 676.54,639.57 679.89,639.69 683.16,639.81"];
	106	[height=0.5,
		pos="642.38,594.38",
		width=0.75];
	77 -- 106	[pos="644.56,620.25 644.34,617.69 644.12,615.06 643.91,612.5"];
	78 -- 79	[pos="713.62,658.71 716.55,673.94 720.74,695.72 723.68,711.03"];
	112	[height=0.5,
		pos="818.87,531.07",
		width=0.75];
	78 -- 112	[pos="725.29,625.57 746.06,604.6 783.19,567.1 803.89,546.2"];
	110 -- 138	[pos="743.3,375.82 739.35,380.08 735.06,384.71 731.11,388.98"];
	111	[height=0.5,
		pos="751.46,515.13",
		width=0.75];
	110 -- 111	[pos="756.84,378.47 755.67,408.12 753.36,466.83 752.18,496.72"];
	79 -- 80	[pos="741.2,744.6 745.08,748.86 749.3,753.5 753.19,757.77"];
	84	[height=0.5,
		pos="712.75,559.41",
		width=0.75];
	79 -- 84	[pos="725.63,711.01 722.86,678.34 717.05,610.03 714.28,577.45"];
	85	[height=0.5,
		pos="797.75,642.06",
		width=0.75];
	80 -- 85	[pos="771.45,755.28 777.25,730.3 787.7,685.32 793.53,660.23"];
	138 -- 139	[pos="707.03,421.59 698.05,437.33 684.82,460.52 675.85,476.24"];
	83 -- 84	[pos="626.09,517.07 644.94,526.28 671.95,539.48 690.8,548.68"];
	122	[height=0.5,
		pos="840.91,442.79",
		width=0.75];
	83 -- 122	[pos="629.44,499.53 675.02,487.3 770.3,461.74 815.75,449.54"];
	84 -- 85	[pos="728.34,574.57 743.68,589.48 766.96,612.12 782.26,627"];
	84 -- 89	[pos="713.13,541.23 713.57,520.83 714.26,487.93 714.69,467.52"];
	90	[height=0.5,
		pos="777.09,469.64",
		width=0.75];
	85 -- 90	[pos="795.58,623.93 791.61,590.82 783.23,520.91 779.26,487.79"];
	140	[height=0.5,
		pos="604.35,550.33",
		width=0.75];
	139 -- 140	[pos="650.2,508.01 641.06,516.45 629.59,527.03 620.41,535.5"];
	103 -- 126	[pos="554.08,441.66 575.34,441.21 604.83,440.58 626.08,440.13"];
	103 -- 104	[pos="517.99,459.27 504.31,485.01 478.52,533.54 464.76,559.45"];
	89 -- 90	[pos="739.59,457.35 743.92,458.77 748.43,460.25 752.76,461.67"];
	146	[height=0.5,
		pos="880.9,571.07",
		width=0.75];
	89 -- 146	[pos="733.46,462.81 765.42,486.27 830.85,534.32 862.69,557.7"];
	126 -- 140	[pos="645.46,456.87 636.36,477.56 621.22,511.98 612.07,532.78"];
	127	[height=0.5,
		pos="822.34,398.66",
		width=0.75];
	126 -- 127	[pos="678.78,433.35 710.78,425.62 765.09,412.49 796.94,404.8"];
	90 -- 96	[pos="770.54,451.99 758.99,420.83 735.1,356.39 723.55,325.23"];
	141	[height=0.5,
		pos="640.31,682.44",
		width=0.75];
	140 -- 141	[pos="609.2,568.15 616.06,593.36 628.54,639.19 635.42,664.48"];
	104 -- 141	[pos="476.38,588.69 511.96,609.04 584.02,650.25 619.55,670.56"];
	104 -- 105	[pos="481.67,581.44 495.91,583.99 513.49,587.13 527.75,589.67"];
	96 -- 99	[pos="743.55,303.49 761.08,300.77 783.97,297.21 801.46,294.5"];
	142	[height=0.5,
		pos="735.71,685",
		width=0.75];
	141 -- 142	[pos="667.39,683.16 680.28,683.51 695.66,683.92 708.56,684.27"];
	105 -- 142	[pos="575.91,605.29 610.93,622.76 679.11,656.77 714,674.17"];
	105 -- 106	[pos="581.47,594.36 592.22,594.37 604.51,594.37 615.22,594.37"];
	108	[height=0.5,
		pos="839.13,487.05",
		width=0.75];
	99 -- 108	[pos="828.82,308.56 830.99,346.02 835.93,431.53 838.09,468.95"];
	143	[height=0.5,
		pos="887.96,615.11",
		width=0.75];
	142 -- 143	[pos="758.18,674.69 786.96,661.48 836.58,638.7 865.41,625.47"];
	106 -- 111	[pos="660.88,580.93 680.94,566.36 712.77,543.24 732.86,528.64"];
	106 -- 107	[pos="669.5,595.12 692.35,595.75 724.88,596.65 747.73,597.28"];
	111 -- 143	[pos="769.87,528.62 795.92,547.7 843.28,582.38 869.41,601.52"];
	111 -- 112	[pos="776.95,521.16 782.31,522.43 787.98,523.77 793.35,525.03"];
	107 -- 108	[pos="784.58,581.17 796.67,560.31 817.14,525 829.27,504.07"];
	147	[height=0.5,
		pos="865.79,662.51",
		width=0.75];
	107 -- 147	[pos="793.66,611.39 809.38,622.53 831.65,638.31 847.27,649.38"];
	113	[height=0.5,
		pos="1004.9,525.95",
		width=0.75];
	108 -- 113	[pos="864.68,493.05 895.83,500.36 948.19,512.64 979.36,519.95"];
	144	[height=0.5,
		pos="963.59,481.86",
		width=0.75];
	143 -- 144	[pos="897.54,598.23 912.01,572.74 939.29,524.68 953.85,499.02"];
	112 -- 116	[pos="825.62,513.5 839.07,478.47 869.07,400.33 882.5,365.35"];
	112 -- 113	[pos="845.93,530.32 881.2,529.35 942.55,527.67 977.84,526.7"];
	116 -- 121	[pos="863.23,342.52 859.57,341.77 855.8,341 852.14,340.25"];
	117	[height=0.5,
		pos="1004.5,393.11",
		width=0.75];
	116 -- 117	[pos="912.55,357 932.55,364.85 961.22,376.11 981.21,383.96"];
	121 -- 127	[pos="825.1,353.03 824.59,361.57 823.97,371.74 823.45,380.31"];
	121 -- 122	[pos="828.7,353.24 831.42,373.19 835.75,404.92 838.45,424.77"];
	127 -- 144	[pos="842.57,410.58 869.27,426.31 916.02,453.84 942.93,469.69"];
	128	[height=0.5,
		pos="977.12,437.14",
		width=0.75];
	127 -- 128	[pos="847.89,405.01 876.66,412.17 923.1,423.71 951.78,430.84"];
	113 -- 117	[pos="1004.9,507.76 1004.8,482.46 1004.6,436.91 1004.6,411.51"];
	145	[height=0.5,
		pos="942.91,555.12",
		width=0.75];
	144 -- 145	[pos="958.58,499.59 955.35,511.03 951.17,525.84 947.94,537.29"];
	122 -- 145	[pos="855.09,458.41 874.58,479.87 909.42,518.24 928.85,539.63"];
	123	[height=0.5,
		pos="1039.2,454.64",
		width=0.75];
	122 -- 123	[pos="868.06,444.42 905.93,446.68 974.19,450.76 1012.1,453.02"];
	117 -- 123	[pos="1014.2,410.25 1019,418.78 1024.8,429.07 1029.6,437.59"];
	145 -- 146	[pos="917.69,561.6 913.93,562.57 910.06,563.57 906.3,564.53"];
	123 -- 128	[pos="1014.3,447.62 1010.3,446.48 1006.1,445.3 1002,444.16"];
	146 -- 147	[pos="877.92,589.13 875.27,605.16 871.41,628.46 868.77,644.48"];
	148	[height=0.5,
		pos="986.53,599.8",
		width=0.75];
	128 -- 148	[pos="978.16,455.17 979.97,486.44 983.67,550.37 985.49,581.69"];
	147 -- 148	[pos="887.09,651.44 909.03,640.05 943.03,622.39 965.03,610.96"];
}
