graph {
	graph [bb="0,0,1234.8,899.93",
		outputorder=edgesfirst,
		overlap=prism,
		size="50,50!",
		start=3449
	];
	node [label="\N"];
	0	[height=0.5,
		pos="723.84,881.93",
		width=0.75];
	1	[height=0.5,
		pos="869.74,824.63",
		width=0.75];
	0 -- 1	[pos="747.28,872.72 774.51,862.03 819.15,844.49 846.36,833.81"];
	20	[height=0.5,
		pos="597.25,878.59",
		width=0.75];
	0 -- 20	[pos="696.68,881.21 675.32,880.65 645.71,879.87 624.36,879.31"];
	2	[height=0.5,
		pos="945.26,775.54",
		width=0.75];
	1 -- 2	[pos="889.19,811.99 900.46,804.66 914.61,795.46 925.88,788.14"];
	59	[height=0.5,
		pos="903.12,727.89",
		width=0.75];
	1 -- 59	[pos="875.86,806.89 881.88,789.43 891.03,762.94 897.04,745.52"];
	26	[height=0.5,
		pos="538.58,812.52",
		width=0.75];
	20 -- 26	[pos="583.34,862.93 573.99,852.4 561.71,838.57 552.38,828.07"];
	21	[height=0.5,
		pos="552.24,768.46",
		width=0.75];
	20 -- 21	[pos="590.01,860.9 581.62,840.35 567.84,806.65 559.45,786.11"];
	3	[height=0.5,
		pos="967.39,722.94",
		width=0.75];
	2 -- 3	[pos="952.63,758.02 954.99,752.4 957.61,746.18 959.98,740.56"];
	42	[height=0.5,
		pos="839.41,729.85",
		width=0.75];
	2 -- 42	[pos="922.55,765.74 904.69,758.03 879.93,747.34 862.08,739.64"];
	34	[height=0.5,
		pos="601.04,833.49",
		width=0.75];
	26 -- 34	[pos="562.91,820.69 567.43,822.2 572.15,823.79 576.67,825.31"];
	27	[height=0.5,
		pos="537.19,700.05",
		width=0.75];
	26 -- 27	[pos="538.36,794.45 538.1,773.46 537.67,739.05 537.41,718.08"];
	4	[height=0.5,
		pos="835.61,778.88",
		width=0.75];
	3 -- 4	[pos="944.44,732.68 920.4,742.89 882.85,758.83 858.75,769.06"];
	93	[height=0.5,
		pos="983.93,604.98",
		width=0.75];
	3 -- 93	[pos="969.94,704.76 973.06,682.53 978.3,645.13 981.41,622.98"];
	41	[height=0.5,
		pos="709.66,790.38",
		width=0.75];
	34 -- 41	[pos="624.34,824.24 642.67,816.97 668.08,806.88 686.39,799.62"];
	35	[height=0.5,
		pos="489.25,765.57",
		width=0.75];
	34 -- 35	[pos="581.05,821.35 560.83,809.06 529.73,790.17 509.44,777.84"];
	5	[height=0.5,
		pos="646.52,789.49",
		width=0.75];
	4 -- 5	[pos="808.52,780.4 772.58,782.42 709.49,785.96 673.57,787.97"];
	60	[height=0.5,
		pos="760.4,659.64",
		width=0.75];
	4 -- 60	[pos="825,762.05 810.66,739.33 785.27,699.07 770.97,676.39"];
	49	[height=0.5,
		pos="610.09,724.4",
		width=0.75];
	41 -- 49	[pos="690.46,777.66 672.94,766.05 647.17,748.97 629.57,737.31"];
	41 -- 42	[pos="731.96,779.98 755.73,768.89 793.14,751.44 816.96,740.33"];
	6	[height=0.5,
		pos="517.55,856.58",
		width=0.75];
	5 -- 6	[pos="625.23,800.57 601.33,813 562.79,833.05 538.88,845.49"];
	5 -- 27	[pos="629.44,775.51 609.02,758.81 575.04,731.01 554.51,714.23"];
	53	[height=0.5,
		pos="697.76,674.55",
		width=0.75];
	49 -- 53	[pos="630.87,712.59 644.84,704.64 663.19,694.21 677.13,686.28"];
	50	[height=0.5,
		pos="558.98,611.99",
		width=0.75];
	49 -- 50	[pos="602.11,706.83 592.5,685.72 576.49,650.49 566.91,629.43"];
	7	[height=0.5,
		pos="424.83,764.28",
		width=0.75];
	6 -- 7	[pos="502.24,841.34 484.96,824.13 457.02,796.32 439.86,779.23"];
	6 -- 21	[pos="524.57,838.75 530.63,823.36 539.33,801.26 545.35,785.97"];
	58	[height=0.5,
		pos="772.42,749.4",
		width=0.75];
	53 -- 58	[pos="712.87,689.7 725.82,702.69 744.39,721.3 757.34,734.28"];
	54	[height=0.5,
		pos="703.81,559.69",
		width=0.75];
	53 -- 54	[pos="698.72,656.35 699.85,634.85 701.72,599.28 702.85,577.81"];
	8	[height=0.5,
		pos="449.69,809.75",
		width=0.75];
	7 -- 8	[pos="434.09,781.21 436.13,784.95 438.3,788.91 440.35,792.65"];
	22	[height=0.5,
		pos="475.12,660.77",
		width=0.75];
	7 -- 22	[pos="433.36,746.72 442.67,727.57 457.47,697.12 466.72,678.07"];
	67	[height=0.5,
		pos="822.64,685.85",
		width=0.75];
	58 -- 67	[pos="785.1,733.36 792.65,723.8 802.21,711.7 809.8,702.1"];
	58 -- 59	[pos="798.87,745.05 821.55,741.31 854.05,735.97 876.71,732.24"];
	9	[height=0.5,
		pos="361.01,747.97",
		width=0.75];
	8 -- 9	[pos="430.89,796.65 415.84,786.16 394.84,771.53 379.79,761.05"];
	8 -- 35	[pos="463.97,793.8 467.69,789.65 471.69,785.18 475.39,781.05"];
	75	[height=0.5,
		pos="766.98,538.63",
		width=0.75];
	67 -- 75	[pos="816.04,668.38 805.38,640.2 784.51,584.99 773.75,556.53"];
	68	[height=0.5,
		pos="856.79,641.83",
		width=0.75];
	67 -- 68	[pos="835.16,669.71 838.13,665.88 841.3,661.8 844.27,657.97"];
	10	[height=0.5,
		pos="350.92,670.39",
		width=0.75];
	9 -- 10	[pos="358.67,729.98 357.06,717.53 354.91,701.04 353.29,688.56"];
	36	[height=0.5,
		pos="413.07,696.56",
		width=0.75];
	9 -- 36	[pos="376.35,732.82 383.07,726.19 390.93,718.42 397.66,711.78"];
	81	[height=0.5,
		pos="891.03,553.78",
		width=0.75];
	75 -- 81	[pos="793.6,541.88 814.52,544.44 843.54,547.98 864.46,550.54"];
	76	[height=0.5,
		pos="654.3,409.41",
		width=0.75];
	75 -- 76	[pos="753.39,523.04 731.73,498.2 689.63,449.92 667.94,425.05"];
	11	[height=0.5,
		pos="286.58,585.35",
		width=0.75];
	10 -- 11	[pos="338.52,654 327.12,638.94 310.33,616.74 298.95,601.69"];
	37	[height=0.5,
		pos="439.37,614.63",
		width=0.75];
	10 -- 37	[pos="370.55,658.02 385.11,648.84 404.88,636.38 419.49,627.16"];
	86	[height=0.5,
		pos="983.92,663.71",
		width=0.75];
	81 -- 86	[pos="904.34,569.53 922,590.43 952.99,627.11 970.63,647.99"];
	82	[height=0.5,
		pos="834.04,448.21",
		width=0.75];
	81 -- 82	[pos="881.87,536.82 871.3,517.24 854.01,485.19 843.37,465.48"];
	12	[height=0.5,
		pos="370.59,624.51",
		width=0.75];
	11 -- 12	[pos="309.09,595.84 321.25,601.51 336.19,608.48 348.31,614.12"];
	38	[height=0.5,
		pos="367.41,526.45",
		width=0.75];
	11 -- 38	[pos="304.92,571.98 318.15,562.34 335.93,549.39 349.14,539.76"];
	91	[height=0.5,
		pos="1061.7,553.34",
		width=0.75];
	86 -- 91	[pos="995.73,646.95 1010.4,626.08 1035.4,590.67 1050,569.9"];
	87	[height=0.5,
		pos="921.91,641.84",
		width=0.75];
	86 -- 87	[pos="959.77,655.19 955.28,653.61 950.59,651.96 946.1,650.37"];
	13	[height=0.5,
		pos="349.37,580",
		width=0.75];
	12 -- 13	[pos="362.33,607.18 360.79,603.95 359.19,600.59 357.65,597.36"];
	23	[height=0.5,
		pos="412.41,570.6",
		width=0.75];
	12 -- 23	[pos="383.14,608.34 388.43,601.51 394.58,593.58 399.87,586.76"];
	97	[height=0.5,
		pos="1144.6,476.04",
		width=0.75];
	91 -- 97	[pos="1077.7,538.44 1092.3,524.75 1114,504.58 1128.7,490.9"];
	92	[height=0.5,
		pos="965.72,514.28",
		width=0.75];
	91 -- 92	[pos="1038.4,543.89 1023.5,537.79 1004.1,529.89 989.07,523.78"];
	14	[height=0.5,
		pos="297.5,438.42",
		width=0.75];
	13 -- 14	[pos="342.91,562.35 332.97,535.22 314.04,483.55 304.05,456.28"];
	28	[height=0.5,
		pos="496.86,570.37",
		width=0.75];
	13 -- 28	[pos="376.43,578.23 403.04,576.5 443.43,573.86 469.98,572.12"];
	100	[height=0.5,
		pos="1070.1,379.98",
		width=0.75];
	97 -- 100	[pos="1132,459.75 1118.2,441.98 1096.3,413.71 1082.6,396.04"];
	98	[height=0.5,
		pos="1020.2,465.1",
		width=0.75];
	97 -- 98	[pos="1117.6,473.67 1096.7,471.83 1068,469.3 1047.1,467.47"];
	15	[height=0.5,
		pos="214.9,417.31",
		width=0.75];
	14 -- 15	[pos="272.27,431.97 262.12,429.37 250.43,426.39 240.26,423.79"];
	73	[height=0.5,
		pos="422.46,310.94",
		width=0.75];
	14 -- 73	[pos="312.32,423.29 336.37,398.76 383.61,350.57 407.65,326.05"];
	109	[height=0.5,
		pos="1023.3,278.72",
		width=0.75];
	100 -- 109	[pos="1062,362.34 1053.4,343.76 1039.9,314.66 1031.3,296.15"];
	101	[height=0.5,
		pos="947.85,423.75",
		width=0.75];
	100 -- 101	[pos="1046.2,388.52 1024.7,396.24 993.17,407.52 971.65,415.23"];
	16	[height=0.5,
		pos="187.07,328.21",
		width=0.75];
	15 -- 16	[pos="209.27,399.28 204.41,383.72 197.43,361.37 192.6,345.91"];
	29	[height=0.5,
		pos="409.02,441.41",
		width=0.75];
	15 -- 29	[pos="241.49,420.61 278.56,425.21 345.38,433.51 382.45,438.11"];
	114	[height=0.5,
		pos="1085.5,300.51",
		width=0.75];
	109 -- 114	[pos="1047.5,287.21 1052,288.78 1056.7,290.43 1061.2,292.01"];
	110	[height=0.5,
		pos="891.24,305.92",
		width=0.75];
	109 -- 110	[pos="997.19,284.09 974.04,288.86 940.4,295.79 917.27,300.56"];
	17	[height=0.5,
		pos="125,347.99",
		width=0.75];
	16 -- 17	[pos="162.54,336.03 158.34,337.37 153.97,338.76 149.76,340.1"];
	30	[height=0.5,
		pos="285.65,347.87",
		width=0.75];
	16 -- 30	[pos="212.97,333.38 227.35,336.24 245.18,339.8 259.58,342.67"];
	118	[height=0.5,
		pos="1145.4,381.91",
		width=0.75];
	114 -- 118	[pos="1097.6,316.99 1108.1,331.2 1123.1,351.62 1133.5,365.74"];
	115	[height=0.5,
		pos="1017.5,335.68",
		width=0.75];
	114 -- 115	[pos="1064,311.64 1056,315.74 1047.1,320.39 1039.1,324.5"];
	18	[height=0.5,
		pos="90.821,435.12",
		width=0.75];
	17 -- 18	[pos="118.09,365.63 112.16,380.74 103.66,402.41 97.728,417.52"];
	31	[height=0.5,
		pos="266.75,299",
		width=0.75];
	17 -- 31	[pos="149.05,339.68 175.12,330.67 216.48,316.38 242.59,307.35"];
	124	[height=0.5,
		pos="1063.7,509.28",
		width=0.75];
	118 -- 124	[pos="1134.7,398.56 1119.1,422.97 1090.1,468.21 1074.4,492.62"];
	119	[height=0.5,
		pos="1083.3,424.14",
		width=0.75];
	118 -- 119	[pos="1126.5,394.81 1118.9,399.96 1110.2,405.87 1102.6,411.03"];
	19	[height=0.5,
		pos="27,462.27",
		width=0.75];
	18 -- 19	[pos="67.78,444.92 61.925,447.41 55.636,450.09 49.793,452.57"];
	24	[height=0.5,
		pos="227.33,514.67",
		width=0.75];
	18 -- 24	[pos="111.26,447.03 136.99,462.03 180.95,487.65 206.75,502.68"];
	129	[height=0.5,
		pos="1207.8,489.65",
		width=0.75];
	124 -- 129	[pos="1090.5,505.63 1116.4,502.11 1155.4,496.79 1181.2,493.27"];
	125	[height=0.5,
		pos="896.09,485.64",
		width=0.75];
	124 -- 125	[pos="1037.2,505.53 1005.8,501.1 953.86,493.78 922.53,489.37"];
	25	[height=0.5,
		pos="122.39,502.72",
		width=0.75];
	19 -- 25	[pos="50.091,472.06 65.089,478.42 84.556,486.68 99.511,493.02"];
	130	[height=0.5,
		pos="1145.4,431.99",
		width=0.75];
	129 -- 130	[pos="1191.7,474.8 1182.3,466.13 1170.5,455.22 1161.2,446.59"];
	21 -- 22	[pos="540.52,752.11 526.03,731.87 501.49,697.59 486.95,677.28"];
	44	[height=0.5,
		pos="628.77,653.96",
		width=0.75];
	21 -- 44	[pos="563.53,751.57 578.08,729.79 603.22,692.17 617.68,670.55"];
	22 -- 23	[pos="463.62,644.23 452.3,627.96 435.13,603.27 423.84,587.03"];
	22 -- 50	[pos="495.85,648.71 508.85,641.15 525.54,631.44 538.49,623.91"];
	59 -- 68	[pos="893.97,710.89 885.85,695.8 874.04,673.87 865.93,658.8"];
	59 -- 60	[pos="881.13,717.38 854.39,704.59 809.51,683.12 782.65,670.28"];
	68 -- 82	[pos="854.65,623.61 850.31,586.62 840.49,503.07 836.16,466.23"];
	69	[height=0.5,
		pos="794.78,610.89",
		width=0.75];
	68 -- 69	[pos="835.1,631.01 829.1,628.01 822.57,624.76 816.56,621.76"];
	82 -- 92	[pos="855.79,459.12 880.19,471.36 919.53,491.1 943.94,503.35"];
	83	[height=0.5,
		pos="690.44,321.35",
		width=0.75];
	82 -- 83	[pos="817.57,433.66 789.87,409.19 734.29,360.09 706.72,335.73"];
	23 -- 24	[pos="387.45,563.05 352.02,552.35 287.55,532.87 252.19,522.18"];
	104	[height=0.5,
		pos="526.28,422.2",
		width=0.75];
	23 -- 104	[pos="424.81,554.43 446.72,525.89 492,466.87 513.89,438.34"];
	92 -- 101	[pos="962.19,496.39 959.05,480.52 954.5,457.46 951.37,441.6"];
	92 -- 93	[pos="969.32,532.2 972.51,548.1 977.15,571.21 980.34,587.1"];
	101 -- 115	[pos="960.62,407.59 973.19,391.7 992.27,367.58 1004.8,351.73"];
	102	[height=0.5,
		pos="761.74,494.58",
		width=0.75];
	101 -- 102	[pos="924.28,432.72 888.57,446.31 821.17,471.96 785.41,485.57"];
	115 -- 130	[pos="1035.6,349.27 1059.9,367.63 1103.1,400.15 1127.4,418.47"];
	116	[height=0.5,
		pos="980.84,212.31",
		width=0.75];
	115 -- 116	[pos="1012.3,318 1005.3,294.68 993.19,253.85 986.21,230.35"];
	24 -- 25	[pos="200.57,511.63 184.79,509.83 164.87,507.56 149.09,505.76"];
	32	[height=0.5,
		pos="235.45,465.74",
		width=0.75];
	24 -- 32	[pos="230.3,496.73 231.01,492.48 231.76,487.94 232.47,483.68"];
	33	[height=0.5,
		pos="152.88,429.38",
		width=0.75];
	25 -- 33	[pos="129.61,485.34 134.44,473.73 140.76,458.52 145.6,446.89"];
	131	[height=0.5,
		pos="1068.3,598.4",
		width=0.75];
	130 -- 131	[pos="1137.3,449.49 1122.4,481.53 1091,549.27 1076.3,581.14"];
	42 -- 87	[pos="853.78,714.52 868.83,698.47 892.34,673.39 907.43,657.29"];
	43	[height=0.5,
		pos="759.81,705.35",
		width=0.75];
	42 -- 43	[pos="814.66,722.23 805.08,719.28 794.13,715.91 784.55,712.97"];
	27 -- 28	[pos="531.66,682.29 523.99,657.6 510.16,613.13 502.45,588.33"];
	27 -- 43	[pos="564.49,700.7 607.33,701.72 689.87,703.69 732.64,704.71"];
	87 -- 131	[pos="946.74,634.47 973.65,626.48 1016.4,613.81 1043.3,605.81"];
	88	[height=0.5,
		pos="823.75,494.05",
		width=0.75];
	87 -- 88	[pos="910.84,625.18 891.99,596.79 853.86,539.38 834.93,510.88"];
	28 -- 29	[pos="485.56,553.77 468.69,529.01 437.12,482.67 420.28,457.94"];
	55	[height=0.5,
		pos="587.39,511.07",
		width=0.75];
	28 -- 55	[pos="516.51,557.5 531.79,547.49 552.9,533.67 568.09,523.71"];
	29 -- 30	[pos="391.08,427.81 367.69,410.08 327.01,379.23 303.61,361.49"];
	63	[height=0.5,
		pos="548.36,377.89",
		width=0.75];
	29 -- 63	[pos="431.41,431.2 457.41,419.35 500.05,399.91 526.03,388.07"];
	30 -- 31	[pos="278.83,330.23 277.1,325.75 275.23,320.93 273.5,316.46"];
	39	[height=0.5,
		pos="360.4,349.6",
		width=0.75];
	30 -- 39	[pos="312.64,348.5 319.33,348.65 326.5,348.82 333.2,348.97"];
	31 -- 32	[pos="263.34,317.16 257.31,349.32 244.81,415.9 238.81,447.86"];
	65	[height=0.5,
		pos="421.24,222.89",
		width=0.75];
	31 -- 65	[pos="288.56,288.26 317.84,273.84 369.57,248.35 399.05,233.83"];
	32 -- 33	[pos="212.88,455.81 201.23,450.67 187.06,444.43 175.41,439.3"];
	51	[height=0.5,
		pos="438.5,485.43",
		width=0.75];
	32 -- 51	[pos="262.41,468.36 301.36,472.13 372.92,479.07 411.75,482.83"];
	40	[height=0.5,
		pos="223.64,373.29",
		width=0.75];
	33 -- 40	[pos="170.37,415.51 181.17,406.95 195,395.99 205.86,387.38"];
	132	[height=0.5,
		pos="1131.7,554.4",
		width=0.75];
	131 -- 132	[pos="1087.3,585.2 1095.3,579.63 1104.7,573.16 1112.7,567.59"];
	35 -- 36	[pos="473.09,750.93 460.16,739.22 442.12,722.88 429.2,711.17"];
	45	[height=0.5,
		pos="552.58,656.02",
		width=0.75];
	35 -- 45	[pos="499.14,748.45 511.04,727.87 530.88,693.54 542.75,673.01"];
	36 -- 37	[pos="418.77,678.78 423.19,665.04 429.26,646.1 433.67,632.37"];
	46	[height=0.5,
		pos="579.62,567.96",
		width=0.75];
	36 -- 46	[pos="430.89,682.8 462.95,658.05 529.96,606.3 561.92,581.63"];
	37 -- 38	[pos="426.17,598.45 413.19,582.55 393.48,558.4 380.52,542.52"];
	72	[height=0.5,
		pos="531.76,466.88",
		width=0.75];
	37 -- 72	[pos="449.79,597.97 467.53,569.59 503.42,512.2 521.24,483.71"];
	38 -- 39	[pos="366.68,508.19 365.34,474.22 362.46,401.67 361.12,367.77"];
	47	[height=0.5,
		pos="500.65,514.39",
		width=0.75];
	38 -- 47	[pos="394.37,524.01 417.49,521.92 450.62,518.92 473.72,516.82"];
	93 -- 98	[pos="988.6,586.98 995.56,560.12 1008.6,509.85 1015.6,483.03"];
	94	[height=0.5,
		pos="871.36,597.81",
		width=0.75];
	93 -- 94	[pos="956.97,603.26 939.27,602.13 916.22,600.67 898.49,599.54"];
	98 -- 119	[pos="1039.8,452.36 1047.5,447.39 1056.3,441.69 1063.9,436.73"];
	99	[height=0.5,
		pos="955.22,313.79",
		width=0.75];
	98 -- 99	[pos="1012.8,447.74 1000.3,418.71 975.34,360.61 962.79,331.41"];
	39 -- 40	[pos="334.03,354.17 309.81,358.37 274.12,364.55 249.93,368.74"];
	64	[height=0.5,
		pos="484.46,304.36",
		width=0.75];
	39 -- 64	[pos="384.32,340.88 406.29,332.87 438.67,321.06 460.62,313.06"];
	119 -- 132	[pos="1089.9,441.71 1099.1,466.57 1115.9,511.76 1125.2,536.69"];
	120	[height=0.5,
		pos="961.92,379.71",
		width=0.75];
	119 -- 120	[pos="1059.6,415.47 1038.4,407.69 1007.3,396.33 985.98,388.52"];
	48	[height=0.5,
		pos="335.8,482.44",
		width=0.75];
	40 -- 48	[pos="239.24,388.47 260.66,409.32 298.98,446.6 320.34,467.39"];
	133	[height=0.5,
		pos="1046,664.4",
		width=0.75];
	132 -- 133	[pos="1119.1,570.63 1102.9,591.43 1074.9,627.27 1058.7,648.1"];
	43 -- 44	[pos="736.38,696.16 712.68,686.87 676.22,672.57 652.43,663.24"];
	43 -- 69	[pos="766.39,687.58 772.64,670.69 781.99,645.44 788.23,628.58"];
	44 -- 45	[pos="601.69,654.69 594.5,654.88 586.75,655.09 579.57,655.29"];
	44 -- 54	[pos="641.5,637.97 655.29,620.63 677.19,593.12 691.02,575.76"];
	60 -- 94	[pos="781.27,648.01 801.11,636.96 830.78,620.42 850.58,609.39"];
	61	[height=0.5,
		pos="641.69,583.56",
		width=0.75];
	60 -- 61	[pos="740.8,647.08 718.8,632.98 683.33,610.24 661.32,596.14"];
	45 -- 46	[pos="558.05,638.2 562.74,622.92 569.47,601.02 574.16,585.75"];
	70	[height=0.5,
		pos="732.77,603.8",
		width=0.75];
	45 -- 70	[pos="577.63,648.76 612.06,638.78 673.61,620.94 707.93,611"];
	46 -- 47	[pos="560.5,554.99 548.09,546.57 531.97,535.64 519.59,527.24"];
	71	[height=0.5,
		pos="649.47,512.32",
		width=0.75];
	46 -- 71	[pos="597.25,553.92 607.92,545.42 621.47,534.63 632.09,526.16"];
	47 -- 48	[pos="474.52,509.32 443.66,503.34 392.61,493.45 361.8,487.48"];
	103	[height=0.5,
		pos="699.7,453.41",
		width=0.75];
	47 -- 103	[pos="525.45,506.79 563.7,495.07 636.65,472.73 674.9,461.01"];
	94 -- 133	[pos="894.91,606.79 928.33,619.53 989.15,642.73 1022.5,655.46"];
	95	[height=0.5,
		pos="772,442.73",
		width=0.75];
	94 -- 95	[pos="860.73,581.21 841.7,551.52 802.04,489.62 782.85,459.68"];
	52	[height=0.5,
		pos="316.4,394.29",
		width=0.75];
	48 -- 52	[pos="331.87,464.6 328.51,449.31 323.68,427.39 320.32,412.1"];
	134	[height=0.5,
		pos="998.69,558.42",
		width=0.75];
	133 -- 134	[pos="1038.2,646.9 1029.4,627.26 1015.3,595.59 1006.5,575.95"];
	50 -- 51	[pos="544.21,596.47 520.96,572.05 476.11,524.93 453.02,500.68"];
	50 -- 61	[pos="583.35,603.61 594.12,599.91 606.75,595.57 617.49,591.87"];
	69 -- 125	[pos="807.61,595.02 826.99,571.06 863.53,525.88 883.04,501.77"];
	69 -- 70	[pos="768.12,607.84 765.23,607.51 762.29,607.17 759.41,606.84"];
	51 -- 52	[pos="420.48,471.98 397.4,454.75 357.61,425.05 334.49,407.79"];
	56	[height=0.5,
		pos="486.11,349.53",
		width=0.75];
	51 -- 56	[pos="444.73,467.66 453.85,441.62 470.76,393.35 479.89,367.3"];
	125 -- 134	[pos="914.9,498.99 933.42,512.12 961.52,532.05 979.99,545.15"];
	126	[height=0.5,
		pos="747.66,366",
		width=0.75];
	125 -- 126	[pos="878.77,471.68 850.32,448.75 794,403.35 765.33,380.24"];
	57	[height=0.5,
		pos="406.02,266.92",
		width=0.75];
	52 -- 57	[pos="327.93,377.9 345.14,353.44 377.35,307.67 394.53,283.25"];
	135	[height=0.5,
		pos="958.13,467.78",
		width=0.75];
	134 -- 135	[pos="990.87,540.94 983.68,524.89 973.1,501.24 965.93,485.2"];
	54 -- 88	[pos="724.7,548.26 746.58,536.28 780.75,517.58 802.7,505.57"];
	54 -- 55	[pos="680.81,550.08 660.4,541.56 630.74,529.18 610.34,520.66"];
	88 -- 120	[pos="840.69,480.03 867.21,458.09 918.24,415.86 944.84,393.85"];
	89	[height=0.5,
		pos="762.18,305.22",
		width=0.75];
	88 -- 89	[pos="817.96,476.28 806.22,440.29 779.76,359.14 768,323.07"];
	55 -- 56	[pos="576.93,494.39 557.52,463.44 516.14,397.43 496.66,366.37"];
	62	[height=0.5,
		pos="602.75,464.05",
		width=0.75];
	55 -- 62	[pos="593.2,493.3 594.42,489.55 595.71,485.6 596.94,481.86"];
	120 -- 135	[pos="961.14,397.96 960.48,413.08 959.56,434.45 958.91,449.56"];
	121	[height=0.5,
		pos="961.16,269.67",
		width=0.75];
	120 -- 121	[pos="961.8,361.54 961.66,341.15 961.43,308.27 961.29,287.87"];
	56 -- 57	[pos="471.42,334.38 457.06,319.57 435.31,297.13 420.89,282.26"];
	107	[height=0.5,
		pos="608.02,181.48",
		width=0.75];
	56 -- 107	[pos="498.02,333.12 521.39,300.91 572.98,229.79 596.24,197.72"];
	66	[height=0.5,
		pos="339.26,191.42",
		width=0.75];
	57 -- 66	[pos="392.19,251.28 380.73,238.32 364.53,220 353.07,207.04"];
	136	[height=0.5,
		pos="829,538.09",
		width=0.75];
	135 -- 136	[pos="937.1,479.23 913.08,492.31 874.04,513.57 850.03,526.64"];
	61 -- 62	[pos="635.94,565.92 628.58,543.33 615.89,504.39 608.52,481.76"];
	61 -- 136	[pos="667.34,577.33 703.11,568.65 767.59,553 803.36,544.32"];
	62 -- 63	[pos="592.27,447.44 582.7,432.28 568.62,409.98 559,394.74"];
	105	[height=0.5,
		pos="596.49,324.1",
		width=0.75];
	62 -- 105	[pos="601.95,446.04 600.75,419.32 598.52,369.43 597.32,342.49"];
	63 -- 64	[pos="534.81,362.29 524.04,349.9 509.04,332.64 498.22,320.19"];
	78	[height=0.5,
		pos="544.43,203.44",
		width=0.75];
	63 -- 78	[pos="547.96,359.87 547.21,326.45 545.6,255.17 544.84,221.62"];
	64 -- 65	[pos="471.97,288.27 460.89,273.98 444.78,253.23 433.71,238.96"];
	64 -- 83	[pos="511.39,306.58 550.87,309.84 624.03,315.87 663.51,319.13"];
	65 -- 66	[pos="397.53,213.79 386.65,209.61 373.79,204.68 362.92,200.5"];
	79	[height=0.5,
		pos="467.56,156.76",
		width=0.75];
	65 -- 79	[pos="432.69,206.55 439.76,196.45 448.81,183.53 455.92,173.38"];
	74	[height=0.5,
		pos="401.47,178.89",
		width=0.75];
	66 -- 74	[pos="365.28,186.18 368.61,185.51 372.02,184.82 375.35,184.15"];
	137	[height=0.5,
		pos="810.02,396.99",
		width=0.75];
	136 -- 137	[pos="826.56,519.93 822.91,492.84 816.09,442.13 812.45,415.07"];
	70 -- 71	[pos="718.64,588.28 703.32,571.46 679.02,544.77 663.67,527.92"];
	70 -- 102	[pos="737.55,585.76 742.92,565.53 751.58,532.89 756.95,512.65"];
	71 -- 72	[pos="625.93,503.23 605.4,495.31 575.78,483.87 555.26,475.95"];
	71 -- 95	[pos="670.26,500.52 692.79,487.72 728.54,467.41 751.11,454.59"];
	72 -- 73	[pos="520.27,450.49 499.33,420.62 455.19,357.64 434.12,327.59"];
	72 -- 76	[pos="553.95,456.47 576.02,446.12 609.7,430.32 631.86,419.93"];
	73 -- 74	[pos="419.58,292.86 415.59,267.71 408.39,222.43 404.38,197.18"];
	77	[height=0.5,
		pos="546.49,276.93",
		width=0.75];
	73 -- 77	[pos="447.56,304.06 469.07,298.16 499.92,289.7 521.43,283.8"];
	102 -- 137	[pos="770.37,477.14 779.16,459.37 792.7,431.99 801.46,414.28"];
	102 -- 103	[pos="742.45,481.78 735.05,476.87 726.61,471.27 719.19,466.35"];
	80	[height=0.5,
		pos="465.72,103.8",
		width=0.75];
	74 -- 80	[pos="415.1,162.96 426.07,150.13 441.42,132.2 452.33,119.44"];
	138	[height=0.5,
		pos="827.31,339.38",
		width=0.75];
	137 -- 138	[pos="815.39,379.08 817.5,372.07 819.9,364.07 822,357.08"];
	76 -- 77	[pos="641.29,393.43 620.57,367.96 580.29,318.46 559.54,292.96"];
	139	[height=0.5,
		pos="683.09,365.4",
		width=0.75];
	76 -- 139	[pos="665.18,392.77 667.47,389.26 669.89,385.56 672.19,382.06"];
	95 -- 110	[pos="785.67,427.04 808.55,400.79 854.33,348.26 877.35,321.85"];
	96	[height=0.5,
		pos="890.14,355.03",
		width=0.75];
	95 -- 96	[pos="790.2,429.22 812.33,412.79 849.49,385.21 871.73,368.7"];
	77 -- 78	[pos="545.98,258.76 545.66,247.46 545.26,232.97 544.94,221.65"];
	106	[height=0.5,
		pos="608.53,247.5",
		width=0.75];
	77 -- 106	[pos="568.53,266.47 574.25,263.76 580.4,260.84 586.13,258.12"];
	78 -- 79	[pos="524.24,191.18 512.94,184.32 498.9,175.79 487.62,168.95"];
	112	[height=0.5,
		pos="740.31,170.92",
		width=0.75];
	78 -- 112	[pos="570.85,199.06 608.34,192.83 676.57,181.5 714,175.29"];
	110 -- 138	[pos="869.95,317.06 863.12,320.64 855.56,324.6 848.72,328.18"];
	111	[height=0.5,
		pos="732.69,219.83",
		width=0.75];
	110 -- 111	[pos="870.18,294.49 839.86,278.02 784.21,247.8 753.83,231.31"];
	79 -- 80	[pos="466.92,138.54 466.74,133.15 466.53,127.26 466.35,121.88"];
	84	[height=0.5,
		pos="670.61,222.52",
		width=0.75];
	79 -- 84	[pos="492.05,164.7 531.08,177.34 606.95,201.91 646.03,214.56"];
	85	[height=0.5,
		pos="595.89,120.92",
		width=0.75];
	80 -- 85	[pos="492.37,107.3 514.84,110.26 546.82,114.47 569.27,117.42"];
	138 -- 139	[pos="801.19,344.09 775.22,348.78 735.58,355.93 709.5,360.63"];
	83 -- 84	[pos="686.8,303.23 683.23,285.39 677.8,258.33 674.23,240.54"];
	122	[height=0.5,
		pos="858.62,166.65",
		width=0.75];
	83 -- 122	[pos="706.57,306.52 738.63,277.02 810.07,211.31 842.29,181.67"];
	84 -- 85	[pos="658.61,206.2 644.66,187.24 621.8,156.15 607.87,137.21"];
	84 -- 89	[pos="686.98,237.31 703.65,252.36 729.33,275.56 745.95,290.56"];
	90	[height=0.5,
		pos="794.72,252.95",
		width=0.75];
	85 -- 90	[pos="615.32,133.82 653.43,159.13 737.57,215 775.5,240.19"];
	140	[height=0.5,
		pos="670.55,277.35",
		width=0.75];
	139 -- 140	[pos="680.49,347.15 678.34,332.04 675.3,310.67 673.15,295.57"];
	103 -- 126	[pos="709.18,436.14 717.64,420.72 729.96,398.26 738.37,382.94"];
	103 -- 104	[pos="673.36,448.67 640.67,442.79 585.26,432.81 552.58,426.93"];
	89 -- 90	[pos="772.65,288.39 776.37,282.42 780.55,275.71 784.26,269.74"];
	146	[height=0.5,
		pos="724.19,119.78",
		width=0.75];
	89 -- 146	[pos="758.46,287.1 751.18,251.56 735.11,173.08 727.86,137.7"];
	126 -- 140	[pos="733.87,350.15 719.84,334.02 698.21,309.15 684.22,293.06"];
	127	[height=0.5,
		pos="918.78,225.01",
		width=0.75];
	126 -- 127	[pos="764.69,351.97 797.41,325.01 868.7,266.27 901.56,239.2"];
	90 -- 96	[pos="809.21,268.45 827.25,287.75 857.87,320.51 875.83,339.72"];
	141	[height=0.5,
		pos="483.73,247.55",
		width=0.75];
	140 -- 141	[pos="644.18,273.14 608.67,267.48 545.86,257.46 510.27,251.78"];
	104 -- 141	[pos="521.89,404.17 513.71,370.61 496.25,298.96 488.1,265.48"];
	104 -- 105	[pos="538.19,405.56 551.18,387.41 571.84,358.55 584.76,340.5"];
	96 -- 99	[pos="910.02,342.43 918.1,337.32 927.4,331.42 935.47,326.31"];
	142	[height=0.5,
		pos="533.16,159.38",
		width=0.75];
	141 -- 142	[pos="493.26,230.55 502.01,214.93 514.91,191.92 523.66,176.33"];
	105 -- 142	[pos="589.72,306.47 577.53,274.77 552.04,208.49 539.89,176.88"];
	105 -- 106	[pos="599.35,305.95 601.26,293.74 603.78,277.71 605.7,265.52"];
	108	[height=0.5,
		pos="856.77,210.69",
		width=0.75];
	99 -- 108	[pos="940.7,298.57 922.08,279.08 890,245.49 871.36,225.97"];
	143	[height=0.5,
		pos="658.17,87.433",
		width=0.75];
	142 -- 143	[pos="553.8,147.5 576.96,134.17 614.32,112.67 637.49,99.331"];
	106 -- 111	[pos="634.25,241.77 655.56,237.02 685.7,230.3 707,225.56"];
	106 -- 107	[pos="608.39,229.46 608.31,220.15 608.23,208.81 608.16,199.5"];
	111 -- 143	[pos="723.1,202.79 708.79,177.37 682.01,129.79 667.72,104.41"];
	111 -- 112	[pos="735.49,201.9 736.15,197.64 736.86,193.11 737.52,188.85"];
	107 -- 108	[pos="634.64,184.61 682.39,190.22 782.08,201.92 829.96,207.54"];
	147	[height=0.5,
		pos="595.55,58.061",
		width=0.75];
	107 -- 147	[pos="606.18,163.27 603.82,139.94 599.76,99.719 597.4,76.347"];
	113	[height=0.5,
		pos="849.92,122.65",
		width=0.75];
	108 -- 113	[pos="855.35,192.45 854.17,177.34 852.51,155.97 851.34,140.87"];
	144	[height=0.5,
		pos="787.53,109.79",
		width=0.75];
	143 -- 144	[pos="684.35,91.957 706.79,95.836 738.96,101.39 761.39,105.27"];
	112 -- 116	[pos="766.51,175.43 812.78,183.39 908.43,199.85 954.68,207.8"];
	112 -- 113	[pos="763.02,160.92 781.83,152.64 808.43,140.92 827.24,132.64"];
	116 -- 121	[pos="974.73,230.14 972.33,237.12 969.6,245.09 967.21,252.04"];
	117	[height=0.5,
		pos="1030.3,128.83",
		width=0.75];
	116 -- 117	[pos="990.85,195.41 999.42,180.93 1011.7,160.17 1020.3,145.7"];
	121 -- 127	[pos="946.58,254.3 942.27,249.76 937.55,244.79 933.25,240.26"];
	121 -- 122	[pos="946.03,254.47 926.65,234.99 893.23,201.42 873.81,181.91"];
	127 -- 144	[pos="902.42,210.65 877.27,188.57 829.37,146.52 804.09,124.33"];
	128	[height=0.5,
		pos="906.15,78.613",
		width=0.75];
	127 -- 128	[pos="917.21,206.77 914.77,178.56 910.12,124.7 907.7,96.628"];
	113 -- 117	[pos="876.92,123.58 910.92,124.74 969,126.73 1003.1,127.9"];
	145	[height=0.5,
		pos="724.13,75.455",
		width=0.75];
	144 -- 145	[pos="766.42,98.356 759.65,94.688 752.15,90.627 745.37,86.955"];
	122 -- 145	[pos="839.63,153.78 814.15,136.5 769.11,105.96 743.45,88.558"];
	123	[height=0.5,
		pos="968.18,95.239",
		width=0.75];
	122 -- 123	[pos="877.95,154.05 897.86,141.07 928.7,120.97 948.67,107.96"];
	117 -- 123	[pos="1009.2,117.46 1002.8,113.95 995.65,110.1 989.18,106.6"];
	145 -- 146	[pos="724.16,93.483 724.16,96.168 724.16,98.936 724.17,101.62"];
	123 -- 128	[pos="942.95,88.476 939.19,87.469 935.32,86.431 931.56,85.423"];
	146 -- 147	[pos="702.08,109.17 678.52,97.865 641.43,80.069 617.81,68.739"];
	148	[height=0.5,
		pos="703.87,18",
		width=0.75];
	128 -- 148	[pos="881.34,71.18 842.41,59.516 767.41,37.042 728.56,25.398"];
	147 -- 148	[pos="619.32,49.27 637.38,42.59 662.11,33.445 680.15,26.771"];
}
