graph {
	graph [bb="0,0,1874.3,1440.3",
		outputorder=edgesfirst,
		overlap=prism,
		size="50,50!",
		start=1417
	];
	node [label="\N"];
	0	[height=0.5,
		pos="901.93,1023.7",
		width=0.75];
	20	[height=0.5,
		pos="849.08,1313.8",
		width=0.75];
	0 -- 20	[pos="898.62,1041.9 889.13,1094 861.87,1243.6 852.38,1295.7"];
	23	[height=0.5,
		pos="1043.7,1316.2",
		width=0.75];
	0 -- 23	[pos="910.37,1041.2 935.6,1093.2 1010.2,1247 1035.3,1298.9"];
	27	[height=0.5,
		pos="626.19,1155.5",
		width=0.75];
	0 -- 27	[pos="879.83,1034.3 828.2,1059 700.13,1120.2 648.4,1144.9"];
	30	[height=0.5,
		pos="1154.5,1074.1",
		width=0.75];
	0 -- 30	[pos="928,1028.9 976.52,1038.6 1080.1,1059.3 1128.5,1068.9"];
	31	[height=0.5,
		pos="1101.4,1200.4",
		width=0.75];
	0 -- 31	[pos="918.25,1038.2 955.75,1071.4 1047.7,1152.8 1085.1,1186"];
	6	[height=0.5,
		pos="789.11,974.39",
		width=0.75];
	0 -- 6	[pos="879.1,1013.8 859.53,1005.2 831.47,992.92 811.91,984.36"];
	33	[height=0.5,
		pos="1186.6,1233.9",
		width=0.75];
	0 -- 33	[pos="920.17,1037.2 971.47,1075.1 1116.6,1182.2 1168.2,1220.3"];
	36	[height=0.5,
		pos="536.6,836.4",
		width=0.75];
	0 -- 36	[pos="880.44,1012.7 815.74,979.54 623.26,880.83 558.29,847.52"];
	37	[height=0.5,
		pos="1222.3,979.78",
		width=0.75];
	0 -- 37	[pos="928.42,1020.1 988.68,1011.8 1135.5,991.69 1195.8,983.41"];
	38	[height=0.5,
		pos="1285.4,997.77",
		width=0.75];
	0 -- 38	[pos="928.89,1021.9 999.3,1017.1 1188.1,1004.4 1258.5,999.6"];
	39	[height=0.5,
		pos="1183.8,929.23",
		width=0.75];
	0 -- 39	[pos="926.45,1015.5 979.9,997.6 1106.3,955.2 1159.5,937.36"];
	40	[height=0.5,
		pos="727.07,948.53",
		width=0.75];
	0 -- 40	[pos="879.07,1013.9 845.56,999.49 783.45,972.78 749.93,958.37"];
	41	[height=0.5,
		pos="936.46,1121.8",
		width=0.75];
	0 -- 41	[pos="908.1,1041.3 914.35,1059 923.95,1086.3 930.22,1104.1"];
	43	[height=0.5,
		pos="947.38,1284.5",
		width=0.75];
	0 -- 43	[pos="905.05,1041.7 913.36,1089.3 935.91,1218.7 944.24,1266.5"];
	45	[height=0.5,
		pos="738.77,1018.4",
		width=0.75];
	0 -- 45	[pos="874.62,1022.8 844.41,1021.9 796.03,1020.3 765.89,1019.3"];
	47	[height=0.5,
		pos="723.13,835.8",
		width=0.75];
	0 -- 47	[pos="887.3,1008.4 853.69,973.03 771.28,886.41 737.72,851.13"];
	17	[height=0.5,
		pos="923.29,940.86",
		width=0.75];
	0 -- 17	[pos="906.56,1005.8 910.15,991.85 915.09,972.7 918.67,958.8"];
	48	[height=0.5,
		pos="825.1,1225.7",
		width=0.75];
	0 -- 48	[pos="895.24,1041.3 880.72,1079.5 846.39,1169.8 831.82,1208.1"];
	51	[height=0.5,
		pos="1101.2,1263.4",
		width=0.75];
	0 -- 51	[pos="915.31,1039.8 951.6,1083.5 1051.6,1203.8 1087.8,1247.4"];
	21	[height=0.5,
		pos="361.21,1080.4",
		width=0.75];
	20 -- 21	[pos="826.85,1303.2 745.48,1264.2 464.41,1129.8 383.29,1091"];
	24	[height=0.5,
		pos="1168.2,1376.2",
		width=0.75];
	23 -- 24	[pos="1065.7,1326.8 1088.3,1337.7 1123.4,1354.6 1146.1,1365.5"];
	28	[height=0.5,
		pos="237.15,1072.8",
		width=0.75];
	27 -- 28	[pos="600.36,1150.1 529.68,1135 333.64,1093.4 262.97,1078.3"];
	32	[height=0.5,
		pos="1251,876.07",
		width=0.75];
	31 -- 32	[pos="1109.5,1182.9 1135.4,1126.6 1216.9,950.02 1242.9,893.59"];
	6 -- 17	[pos="814.67,968 838.54,962.04 873.99,953.18 897.84,947.22"];
	55	[height=0.5,
		pos="598.66,880.05",
		width=0.75];
	6 -- 55	[pos="767.27,963.57 730.63,945.42 657.21,909.05 620.54,890.89"];
	12	[height=0.5,
		pos="660.69,842.72",
		width=0.75];
	6 -- 12	[pos="774.38,959.29 749.74,934.02 700.44,883.47 675.65,858.06"];
	87	[height=0.5,
		pos="785.17,850.21",
		width=0.75];
	6 -- 87	[pos="788.54,956.33 787.79,932.79 786.5,891.84 785.75,868.29"];
	188	[height=0.5,
		pos="847.18,861.09",
		width=0.75];
	6 -- 188	[pos="797.93,957.18 808.85,935.89 827.33,899.83 838.28,878.46"];
	14	[height=0.5,
		pos="736.96,894.66",
		width=0.75];
	6 -- 14	[pos="778.31,957.87 769.42,944.28 756.87,925.09 747.93,911.43"];
	219	[height=0.5,
		pos="751.33,1203.1",
		width=0.75];
	6 -- 219	[pos="786.15,992.34 779.1,1035 761.42,1142 754.34,1184.9"];
	222	[height=0.5,
		pos="423.22,1081.5",
		width=0.75];
	6 -- 222	[pos="764.25,981.67 697.5,1001.2 514.91,1054.6 448.12,1074.2"];
	225	[height=0.5,
		pos="721.41,1294",
		width=0.75];
	6 -- 225	[pos="785.28,992.49 773.36,1048.7 737.06,1220.1 725.2,1276.1"];
	229	[height=0.5,
		pos="885.1,1269.8",
		width=0.75];
	6 -- 229	[pos="794.83,991.98 811.86,1044.4 862.15,1199.1 879.3,1251.9"];
	232	[height=0.5,
		pos="874.34,1111.8",
		width=0.75];
	6 -- 232	[pos="799.56,991.24 815.92,1017.6 847.39,1068.3 863.8,1094.8"];
	234	[height=0.5,
		pos="549.78,1019.6",
		width=0.75];
	6 -- 234	[pos="763.05,979.31 717.01,988 621.83,1006 575.82,1014.6"];
	236	[height=0.5,
		pos="423.95,1011.8",
		width=0.75];
	6 -- 236	[pos="762.26,977.14 694.73,984.06 518.41,1002.1 450.84,1009"];
	238	[height=0.5,
		pos="506.32,1140.3",
		width=0.75];
	6 -- 238	[pos="768.78,986.32 716.73,1016.8 579.12,1097.6 526.86,1128.2"];
	242	[height=0.5,
		pos="598.04,1200.2",
		width=0.75];
	6 -- 242	[pos="775.68,990.27 740.59,1031.7 646.52,1142.9 611.46,1184.3"];
	246	[height=0.5,
		pos="976.66,1058.8",
		width=0.75];
	6 -- 246	[pos="811.74,984.58 847.88,1000.9 918.24,1032.5 954.25,1048.7"];
	120	[height=0.5,
		pos="444.12,1126.8",
		width=0.75];
	6 -- 120	[pos="766.48,984.39 703.97,1012 529.45,1089.1 466.84,1116.8"];
	157	[height=0.5,
		pos="659.5,1249.9",
		width=0.75];
	6 -- 157	[pos="781.01,991.63 757.73,1041.1 690.88,1183.2 667.61,1232.7"];
	34	[height=0.5,
		pos="1546.5,1092.7",
		width=0.75];
	33 -- 34	[pos="1210,1224.8 1275.1,1199.2 1458.2,1127.4 1523.2,1101.9"];
	42	[height=0.5,
		pos="870.46,766.94",
		width=0.75];
	41 -- 42	[pos="933.09,1103.7 921.77,1042.9 885.13,845.81 873.82,784.99"];
	44	[height=0.5,
		pos="615.19,1067.1",
		width=0.75];
	43 -- 44	[pos="928.09,1271.9 869.37,1233.5 693.32,1118.3 634.54,1079.8"];
	46	[height=0.5,
		pos="489.47,738.98",
		width=0.75];
	45 -- 46	[pos="724.65,1002.6 680.77,953.41 547.1,803.58 503.44,754.64"];
	105	[height=0.5,
		pos="859.35,817.07",
		width=0.75];
	17 -- 105	[pos="914.4,923.64 902.19,900 880.34,857.71 868.16,834.14"];
	19	[height=0.5,
		pos="1189,885.19",
		width=0.75];
	17 -- 19	[pos="949.26,935.42 1000.1,924.77 1112.1,901.31 1162.9,890.65"];
	325	[height=0.5,
		pos="1247,929.95",
		width=0.75];
	17 -- 325	[pos="950.33,939.95 1011.3,937.89 1158.7,932.93 1219.8,930.87"];
	339	[height=0.5,
		pos="1064.9,889.66",
		width=0.75];
	17 -- 339	[pos="947.32,932.17 973.36,922.76 1014.7,907.82 1040.8,898.39"];
	385	[height=0.5,
		pos="703.33,791.77",
		width=0.75];
	17 -- 385	[pos="904.16,927.89 862.45,899.62 763.78,832.74 722.26,804.6"];
	388	[height=0.5,
		pos="961.06,811.41",
		width=0.75];
	17 -- 388	[pos="928.47,923.13 935.66,898.48 948.61,854.09 955.83,829.34"];
	81	[height=0.5,
		pos="706.11,1062.4",
		width=0.75];
	17 -- 81	[pos="902.47,952.51 860.96,975.75 768.33,1027.6 726.87,1050.8"];
	144	[height=0.5,
		pos="661.73,977.71",
		width=0.75];
	17 -- 144	[pos="896.78,944.59 846.64,951.66 738.51,966.89 688.32,973.97"];
	184	[height=0.5,
		pos="1037.6,1168.2",
		width=0.75];
	17 -- 184	[pos="931.89,957.95 953.07,1000.1 1007.6,1108.6 1028.9,1151"];
	216	[height=0.5,
		pos="999.2,1103.1",
		width=0.75];
	17 -- 216	[pos="931.42,958.22 946.03,989.44 976.57,1054.7 991.14,1085.8"];
	266	[height=0.5,
		pos="1092.4,1047.2",
		width=0.75];
	17 -- 266	[pos="943.03,953.27 975.54,973.72 1040,1014.2 1072.6,1034.8"];
	290	[height=0.5,
		pos="613.14,1023.1",
		width=0.75];
	17 -- 290	[pos="898.18,947.52 840.06,962.93 696.84,1000.9 638.49,1016.4"];
	310	[height=0.5,
		pos="1039.4,1219.4",
		width=0.75];
	17 -- 310	[pos="930.56,958.28 951.4,1008.3 1011.3,1152 1032.1,1202"];
	362	[height=0.5,
		pos="862.72,1181.7",
		width=0.75];
	17 -- 362	[pos="918.74,958.96 907.49,1003.7 878.47,1119.1 867.25,1163.7"];
	373	[height=0.5,
		pos="750.23,1107.1",
		width=0.75];
	17 -- 373	[pos="907.63,955.9 874.68,987.55 798.54,1060.7 765.73,1092.2"];
	381	[height=0.5,
		pos="665.05,932.48",
		width=0.75];
	17 -- 381	[pos="896.15,939.98 846.55,938.37 741.84,934.97 692.22,933.37"];
	49	[height=0.5,
		pos="486.09,1015.4",
		width=0.75];
	48 -- 49	[pos="804.91,1213.2 744.61,1175.8 566.33,1065.2 506.18,1027.8"];
	52	[height=0.5,
		pos="1457.1,1056.1",
		width=0.75];
	51 -- 52	[pos="1121.6,1251.5 1184.4,1215 1374.1,1104.4 1436.8,1067.9"];
	1	[height=0.5,
		pos="759.68,659.71",
		width=0.75];
	2	[height=0.5,
		pos="925.8,634.86",
		width=0.75];
	1 -- 2	[pos="786.37,655.72 817.46,651.07 868.5,643.43 899.45,638.8"];
	3	[height=0.5,
		pos="481.5,694.96",
		width=0.75];
	1 -- 3	[pos="733,663.09 679.83,669.83 561.2,684.86 508.09,691.59"];
	53	[height=0.5,
		pos="899.61,722.91",
		width=0.75];
	1 -- 53	[pos="782.16,669.86 808.27,681.66 851.09,701 877.18,712.78"];
	54	[height=0.5,
		pos="801.38,578.06",
		width=0.75];
	1 -- 54	[pos="768.52,642.39 775.6,628.54 785.48,609.2 792.55,595.35"];
	1 -- 55	[pos="747.84,675.91 718.06,716.66 640.31,823.05 610.51,863.82"];
	56	[height=0.5,
		pos="644.86,363.29",
		width=0.75];
	1 -- 56	[pos="752.84,642.05 732.42,589.33 672.03,433.45 651.66,380.85"];
	60	[height=0.5,
		pos="554.94,446.33",
		width=0.75];
	1 -- 60	[pos="744.95,644.36 707.18,604.99 607.16,500.75 569.53,461.54"];
	64	[height=0.5,
		pos="818.67,501.49",
		width=0.75];
	1 -- 64	[pos="766.21,642.17 777.55,611.76 800.74,549.57 812.1,519.1"];
	66	[height=0.5,
		pos="1060,611.37",
		width=0.75];
	1 -- 66	[pos="786.07,655.46 842.9,646.31 976.32,624.84 1033.4,615.66"];
	67	[height=0.5,
		pos="722.94,328.52",
		width=0.75];
	1 -- 67	[pos="757.65,641.43 751.23,583.53 731.38,404.56 724.96,346.74"];
	1 -- 12	[pos="750.36,676.93 731.45,711.9 688.74,790.87 669.91,825.69"];
	71	[height=0.5,
		pos="617.07,407.32",
		width=0.75];
	1 -- 71	[pos="750.1,642.76 724.12,596.78 652.54,470.09 626.61,424.2"];
	75	[height=0.5,
		pos="597.13,792.35",
		width=0.75];
	1 -- 75	[pos="742.59,673.65 711.45,699.06 645.81,752.63 614.48,778.19"];
	76	[height=0.5,
		pos="558.17,490.36",
		width=0.75];
	1 -- 76	[pos="742.84,645.56 704.91,613.68 613.12,536.54 575.1,504.59"];
	16	[height=0.5,
		pos="738.85,615.46",
		width=0.75];
	1 -- 16	[pos="751.56,642.48 750.06,639.27 748.48,635.93 746.97,632.72"];
	79	[height=0.5,
		pos="412.42,666.25",
		width=0.75];
	1 -- 79	[pos="732.43,660.22 667.51,661.44 504.33,664.52 439.55,665.74"];
	18	[height=0.5,
		pos="992.01,636.09",
		width=0.75];
	1 -- 18	[pos="786.78,656.95 831.55,652.4 920.42,643.37 965.08,638.83"];
	82	[height=0.5,
		pos="679.14,689.48",
		width=0.75];
	1 -- 82	[pos="735.95,668.48 725.55,672.32 713.38,676.82 702.97,680.67"];
	22	[height=0.5,
		pos="473.07,782.99",
		width=0.75];
	1 -- 22	[pos="736.71,669.59 683.04,692.67 549.92,749.94 496.15,773.07"];
	2 -- 16	[pos="899.01,632.08 863.47,628.39 801.1,621.92 765.59,618.24"];
	84	[height=0.5,
		pos="599.05,659.89",
		width=0.75];
	2 -- 84	[pos="898.78,636.93 837.31,641.64 687.6,653.11 626.1,657.82"];
	4	[height=0.5,
		pos="1127,872.37",
		width=0.75];
	2 -- 4	[pos="939.31,650.81 975.96,694.08 1076.9,813.3 1113.5,856.48"];
	85	[height=0.5,
		pos="1015.3,545.06",
		width=0.75];
	2 -- 85	[pos="940.97,619.63 957.53,603.01 983.85,576.59 1000.3,560.07"];
	2 -- 87	[pos="914.99,651.4 888.82,691.49 822.23,793.47 796.01,833.61"];
	7	[height=0.5,
		pos="1166.6,605.29",
		width=0.75];
	2 -- 7	[pos="952.48,631.58 998.77,625.9 1093.4,614.28 1139.8,608.59"];
	88	[height=0.5,
		pos="663.98,615.74",
		width=0.75];
	2 -- 88	[pos="898.76,632.89 848.46,629.21 741.05,621.37 690.86,617.71"];
	89	[height=0.5,
		pos="998.98,415.53",
		width=0.75];
	2 -- 89	[pos="931.66,617.28 945.36,576.21 979.35,474.34 993.08,433.19"];
	93	[height=0.5,
		pos="1061,479.27",
		width=0.75];
	2 -- 93	[pos="939.51,619.08 965.43,589.26 1021.3,524.94 1047.3,495.09"];
	97	[height=0.5,
		pos="1122.1,654.4",
		width=0.75];
	2 -- 97	[pos="952.68,637.54 990.16,641.27 1057.7,647.99 1095.2,651.73"];
	101	[height=0.5,
		pos="606.96,703.91",
		width=0.75];
	2 -- 101	[pos="899.97,640.45 840.23,653.39 693,685.27 633.02,698.26"];
	13	[height=0.5,
		pos="863.6,606.8",
		width=0.75];
	2 -- 13	[pos="903.34,624.73 897.77,622.22 891.8,619.52 886.23,617.01"];
	104	[height=0.5,
		pos="787.89,794.73",
		width=0.75];
	2 -- 104	[pos="912.32,650.48 886.03,680.96 828.13,748.09 801.63,778.81"];
	15	[height=0.5,
		pos="737.57,548.87",
		width=0.75];
	2 -- 15	[pos="903.47,624.66 867.24,608.11 796.08,575.6 759.88,559.06"];
	2 -- 105	[pos="919.3,652.66 906.57,687.59 878.45,764.7 865.77,799.47"];
	106	[height=0.5,
		pos="874.3,369.89",
		width=0.75];
	2 -- 106	[pos="922.26,616.65 912.83,568.12 887.18,436.14 877.8,387.88"];
	110	[height=0.5,
		pos="808.41,748.08",
		width=0.75];
	2 -- 110	[pos="909.96,650.13 887.43,671.86 846.38,711.46 823.99,733.06"];
	26	[height=0.5,
		pos="1084.4,742.5",
		width=0.75];
	2 -- 26	[pos="944.92,647.84 975.4,668.53 1034.6,708.75 1065.2,729.47"];
	3 -- 12	[pos="498.68,709.13 532.93,737.37 609.35,800.39 643.56,828.6"];
	3 -- 16	[pos="506.18,687.34 555.37,672.14 665.12,638.24 714.25,623.06"];
	3 -- 84	[pos="506.43,687.52 526.38,681.57 554.22,673.27 574.16,667.32"];
	113	[height=0.5,
		pos="294.76,866.17",
		width=0.75];
	3 -- 113	[pos="465.58,709.56 430.3,741.9 345.88,819.3 310.64,851.61"];
	115	[height=0.5,
		pos="398.5,608.48",
		width=0.75];
	3 -- 115	[pos="466.66,679.5 451.56,663.76 428.27,639.5 413.21,623.81"];
	117	[height=0.5,
		pos="179.02,690.9",
		width=0.75];
	3 -- 117	[pos="454.39,694.6 396.97,693.83 263.64,692.04 206.18,691.26"];
	121	[height=0.5,
		pos="263.36,488.6",
		width=0.75];
	3 -- 121	[pos="465.81,680.12 425.66,642.14 319.52,541.72 279.2,503.58"];
	8	[height=0.5,
		pos="559.69,578.42",
		width=0.75];
	3 -- 8	[pos="492.71,678.26 507.57,656.11 533.66,617.23 548.51,595.09"];
	125	[height=0.5,
		pos="196.43,795.89",
		width=0.75];
	3 -- 125	[pos="457.2,703.57 403.34,722.63 274.47,768.26 220.67,787.3"];
	129	[height=0.5,
		pos="430.9,446.3",
		width=0.75];
	3 -- 129	[pos="477.86,677.08 468.55,631.31 443.93,510.31 434.58,464.36"];
	132	[height=0.5,
		pos="368.86,464.98",
		width=0.75];
	3 -- 132	[pos="473.04,677.68 452.11,634.95 398.14,524.76 377.27,482.16"];
	135	[height=0.5,
		pos="217.13,588.56",
		width=0.75];
	3 -- 135	[pos="458.04,685.52 407.87,665.33 290.66,618.16 240.54,597.98"];
	138	[height=0.5,
		pos="286.56,732.56",
		width=0.75];
	3 -- 138	[pos="455.21,700.03 417.9,707.23 349.99,720.32 312.74,727.51"];
	140	[height=0.5,
		pos="195.17,639.36",
		width=0.75];
	3 -- 140	[pos="455.33,689.88 400.8,679.29 275.57,654.97 221.18,644.41"];
	143	[height=0.5,
		pos="260.23,777.15",
		width=0.75];
	3 -- 143	[pos="457.82,703.76 415.35,719.53 326.67,752.47 284.08,768.29"];
	145	[height=0.5,
		pos="232.81,538.66",
		width=0.75];
	3 -- 145	[pos="461.57,682.43 414.89,653.1 298.92,580.21 252.49,551.03"];
	149	[height=0.5,
		pos="183.89,742.24",
		width=0.75];
	3 -- 149	[pos="455.09,699.16 398.61,708.13 266.67,729.09 210.24,738.06"];
	29	[height=0.5,
		pos="196.08,842",
		width=0.75];
	3 -- 29	[pos="460.05,706.01 407.16,733.26 270.94,803.44 217.79,830.82"];
	57	[height=0.5,
		pos="821.58,108.63",
		width=0.75];
	56 -- 57	[pos="656.45,346.58 688.55,300.33 778.3,171 810.17,125.07"];
	61	[height=0.5,
		pos="504.41,173.46",
		width=0.75];
	60 -- 61	[pos="551.63,428.43 542.47,378.98 516.91,240.95 507.74,191.43"];
	65	[height=0.5,
		pos="1319.1,625.27",
		width=0.75];
	64 -- 65	[pos="844.17,507.79 930.02,529.03 1207.9,597.76 1293.7,618.98"];
	68	[height=0.5,
		pos="947.65,106.06",
		width=0.75];
	67 -- 68	[pos="738.04,313.58 778.87,273.15 891.22,161.92 932.33,121.23"];
	12 -- 40	[pos="671.36,859.72 683.82,879.59 704.29,912.23 716.65,931.92"];
	12 -- 17	[pos="684.46,851.61 734.33,870.24 849.4,913.24 899.39,931.92"];
	12 -- 13	[pos="674.32,826.88 711.28,783.9 813.13,665.47 850.03,622.58"];
	12 -- 14	[pos="679.94,855.83 691.59,863.76 706.38,873.84 717.98,881.74"];
	278	[height=0.5,
		pos="410.62,814.45",
		width=0.75];
	12 -- 278	[pos="633.93,839.7 585.92,834.27 485.71,822.94 437.57,817.5"];
	332	[height=0.5,
		pos="932.52,767.35",
		width=0.75];
	12 -- 332	[pos="685.78,835.77 737.56,821.41 855.76,788.64 907.49,774.29"];
	343	[height=0.5,
		pos="551.63,748.34",
		width=0.75];
	12 -- 343	[pos="644.13,828.39 623.63,810.65 588.92,780.61 568.35,762.81"];
	344	[height=0.5,
		pos="258.5,821.52",
		width=0.75];
	12 -- 344	[pos="633.68,841.3 560.5,837.44 359.01,826.82 285.66,822.95"];
	348	[height=0.5,
		pos="782.38,703.74",
		width=0.75];
	12 -- 348	[pos="674.41,827.05 697.79,800.36 745.06,746.37 768.52,719.57"];
	349	[height=0.5,
		pos="498.89,948.45",
		width=0.75];
	12 -- 349	[pos="641.17,855.48 609.99,875.85 549.29,915.52 518.22,935.82"];
	103	[height=0.5,
		pos="368.35,858.47",
		width=0.75];
	12 -- 103	[pos="633.71,844.18 578.02,847.18 450.9,854.03 395.26,857.02"];
	171	[height=0.5,
		pos="588.5,924.08",
		width=0.75];
	12 -- 171	[pos="646.77,858.41 633.99,872.82 615.15,894.05 602.38,908.44"];
	207	[height=0.5,
		pos="428.12,932.47",
		width=0.75];
	12 -- 207	[pos="637.11,851.82 592.54,869.03 496.39,906.13 451.76,923.35"];
	256	[height=0.5,
		pos="574.92,968.09",
		width=0.75];
	12 -- 256	[pos="649.48,859.11 633.04,883.14 602.57,927.67 586.13,951.7"];
	295	[height=0.5,
		pos="799.24,929.93",
		width=0.75];
	12 -- 295	[pos="680.54,855.22 706.88,871.8 753.11,900.89 779.43,917.46"];
	315	[height=0.5,
		pos="861.28,905.11",
		width=0.75];
	12 -- 315	[pos="685.29,850.37 723.89,862.38 798.26,885.51 836.79,897.5"];
	72	[height=0.5,
		pos="658.23,127.62",
		width=0.75];
	71 -- 72	[pos="619.71,389.4 627.13,339 648.11,196.41 655.56,145.75"];
	77	[height=0.5,
		pos="494.44,245",
		width=0.75];
	76 -- 77	[pos="553.48,472.32 541.67,426.83 510.78,307.9 499.05,262.74"];
	16 -- 47	[pos="737.57,633.49 734.62,674.81 727.4,775.96 724.44,817.52"];
	16 -- 18	[pos="765.95,617.67 814.67,621.64 916.53,629.94 965.11,633.9"];
	264	[height=0.5,
		pos="952.25,532.93",
		width=0.75];
	16 -- 264	[pos="762.51,606.31 803.63,590.41 887.84,557.84 928.82,541.99"];
	338	[height=0.5,
		pos="997.99,590.32",
		width=0.75];
	16 -- 338	[pos="765.61,612.87 815.27,608.05 921.15,597.77 970.99,592.94"];
	16 -- 385	[pos="735.25,633.34 728.44,667.13 713.76,740.02 706.94,773.84"];
	386	[height=0.5,
		pos="613.54,534.4",
		width=0.75];
	16 -- 386	[pos="719.27,602.8 695.73,587.57 656.47,562.17 632.99,546.98"];
	182	[height=0.5,
		pos="433.57,511.88",
		width=0.75];
	16 -- 182	[pos="714.64,607.25 657.53,587.87 514.9,539.48 457.79,520.1"];
	214	[height=0.5,
		pos="660.93,296.34",
		width=0.75];
	16 -- 214	[pos="734.44,597.39 720.73,541.22 678.95,370.11 665.3,314.21"];
	241	[height=0.5,
		pos="377.94,563.85",
		width=0.75];
	16 -- 241	[pos="712.31,611.67 645.57,602.12 471.3,577.2 404.52,567.65"];
	286	[height=0.5,
		pos="598.89,319.28",
		width=0.75];
	16 -- 286	[pos="730.72,598.26 705.99,545.91 631.81,388.94 607.04,336.53"];
	306	[height=0.5,
		pos="536.5,622.42",
		width=0.75];
	16 -- 306	[pos="711.56,616.4 672.83,617.73 602.35,620.16 563.68,621.49"];
	324	[height=0.5,
		pos="844.98,319.87",
		width=0.75];
	16 -- 324	[pos="745.17,597.86 764.05,545.28 819.86,389.83 838.69,337.38"];
	347	[height=0.5,
		pos="492.93,432.18",
		width=0.75];
	16 -- 347	[pos="720.77,601.98 675.29,568.09 556.55,479.59 511.04,445.68"];
	358	[height=0.5,
		pos="571.58,363.29",
		width=0.75];
	16 -- 358	[pos="727.88,598.92 697.57,553.23 612.96,425.66 582.6,379.9"];
	369	[height=0.5,
		pos="450.64,559.69",
		width=0.75];
	16 -- 369	[pos="712.77,610.41 658.03,599.82 531.74,575.39 476.87,564.77"];
	80	[height=0.5,
		pos="253.66,984.75",
		width=0.75];
	79 -- 80	[pos="403.89,683.37 376.32,738.67 289.86,912.12 262.24,967.54"];
	291	[height=0.5,
		pos="756.61,504.68",
		width=0.75];
	18 -- 291	[pos="971.12,624.43 926.45,599.49 822.08,541.23 777.45,516.32"];
	18 -- 348	[pos="967.55,643.98 927.27,656.98 847.4,682.76 807.01,695.8"];
	18 -- 388	[pos="988.82,654.19 982.87,687.88 970.17,759.8 964.24,793.4"];
	389	[height=0.5,
		pos="1169.1,423.38",
		width=0.75];
	18 -- 389	[pos="1005.3,620.1 1038.2,580.59 1123.1,478.67 1155.9,439.27"];
	50	[height=0.5,
		pos="935.98,577.2",
		width=0.75];
	18 -- 50	[pos="977.29,620.62 969.12,612.03 958.99,601.38 950.8,592.78"];
	109	[height=0.5,
		pos="1049.2,267.65",
		width=0.75];
	18 -- 109	[pos="994.81,618.07 1004.5,555.51 1036.7,348.14 1046.4,285.63"];
	148	[height=0.5,
		pos="954.19,207.12",
		width=0.75];
	18 -- 148	[pos="990.41,617.93 984.24,547.93 962.02,295.95 955.82,225.52"];
	186	[height=0.5,
		pos="1198.6,559.71",
		width=0.75];
	18 -- 186	[pos="1015.7,627.33 1055.4,612.64 1135.1,583.19 1174.8,568.49"];
	245	[height=0.5,
		pos="1126.4,698.42",
		width=0.75];
	18 -- 245	[pos="1014.2,646.38 1039.1,657.93 1079.2,676.56 1104.2,688.12"];
	268	[height=0.5,
		pos="1083,386.63",
		width=0.75];
	18 -- 268	[pos="998.41,618.55 1015.1,572.75 1059.9,449.94 1076.7,404.16"];
	328	[height=0.5,
		pos="1162.3,335.32",
		width=0.75];
	18 -- 328	[pos="1001.7,619.06 1031.6,566.12 1122.9,404.85 1152.7,352.16"];
	342	[height=0.5,
		pos="1100,311.67",
		width=0.75];
	18 -- 342	[pos="997.97,618.19 1016.9,561.47 1075.2,386.17 1094.1,329.52"];
	377	[height=0.5,
		pos="1123.3,479.3",
		width=0.75];
	18 -- 377	[pos="1005.3,620.19 1030.5,590.14 1084.8,525.32 1110,495.24"];
	383	[height=0.5,
		pos="1037.4,318.21",
		width=0.75];
	18 -- 383	[pos="994.58,618.09 1002.6,562.27 1026.8,392.5 1034.8,336.41"];
	83	[height=0.5,
		pos="1109.3,933.7",
		width=0.75];
	82 -- 83	[pos="699.89,701.26 772.65,742.56 1015.7,880.56 1088.6,921.9"];
	4 -- 30	[pos="1129.5,890.62 1134.7,929.03 1146.8,1017.8 1152,1056"];
	4 -- 53	[pos="1107.6,859.62 1064.6,831.39 961.86,763.83 918.95,735.62"];
	153	[height=0.5,
		pos="1201.6,784.34",
		width=0.75];
	4 -- 153	[pos="1140.3,856.63 1153.8,840.71 1174.6,816.22 1188.1,800.24"];
	154	[height=0.5,
		pos="1405.4,1100.1",
		width=0.75];
	4 -- 154	[pos="1144.4,886.61 1194.4,927.51 1338,1045 1388,1085.8"];
	158	[height=0.5,
		pos="1326,731.2",
		width=0.75];
	4 -- 158	[pos="1145.7,859.09 1183.7,832.11 1269.6,771.2 1307.5,744.34"];
	159	[height=0.5,
		pos="1046.7,1003.2",
		width=0.75];
	4 -- 159	[pos="1116.6,889.21 1101.2,914.33 1072.4,961.36 1057,986.45"];
	9	[height=0.5,
		pos="1263.6,757.23",
		width=0.75];
	4 -- 9	[pos="1143.7,858.25 1170,836.15 1220.4,793.63 1246.7,771.46"];
	162	[height=0.5,
		pos="1496.5,1012.1",
		width=0.75];
	4 -- 162	[pos="1150.7,881.32 1217.2,906.49 1405.6,977.7 1472.6,1003"];
	166	[height=0.5,
		pos="1538.9,965.85",
		width=0.75];
	4 -- 166	[pos="1152.7,878.22 1226.7,895 1439.1,943.22 1513.1,960"];
	170	[height=0.5,
		pos="1156,1012.5",
		width=0.75];
	4 -- 170	[pos="1130.7,890.4 1136.3,917.31 1146.7,967.67 1152.3,994.54"];
	172	[height=0.5,
		pos="1279.5,1122",
		width=0.75];
	4 -- 172	[pos="1137.2,889.13 1165,934.6 1241.5,1059.9 1269.3,1105.3"];
	176	[height=0.5,
		pos="985.32,958.1",
		width=0.75];
	4 -- 176	[pos="1107,884.47 1080.1,900.72 1032.7,929.42 1005.7,945.78"];
	177	[height=0.5,
		pos="1188.5,740.32",
		width=0.75];
	4 -- 177	[pos="1135,855.1 1146.8,829.8 1168.7,782.9 1180.5,757.59"];
	179	[height=0.5,
		pos="1092.1,1123.2",
		width=0.75];
	4 -- 179	[pos="1124.5,890.4 1118.1,936.57 1101.1,1058.6 1094.7,1105"];
	183	[height=0.5,
		pos="1280.5,1063",
		width=0.75];
	4 -- 183	[pos="1139.8,888.29 1168.7,924.17 1238.6,1011 1267.6,1047"];
	185	[height=0.5,
		pos="1419.5,808.44",
		width=0.75];
	4 -- 185	[pos="1152.7,866.75 1208,854.66 1337.9,826.26 1393.5,814.12"];
	187	[height=0.5,
		pos="1331.3,933.06",
		width=0.75];
	4 -- 187	[pos="1152,879.81 1191.4,891.49 1267.1,913.99 1306.4,925.65"];
	114	[height=0.5,
		pos="861.15,979.7",
		width=0.75];
	4 -- 114	[pos="1103.8,881.7 1053.6,902 934.81,949.96 884.41,970.3"];
	86	[height=0.5,
		pos="1101.4,523.31",
		width=0.75];
	85 -- 86	[pos="1040.6,538.65 1051.8,535.85 1064.8,532.56 1075.9,529.75"];
	7 -- 158	[pos="1184.3,619.25 1214.9,643.45 1277.5,692.93 1308.2,717.18"];
	247	[height=0.5,
		pos="820.32,457.12",
		width=0.75];
	7 -- 247	[pos="1143.6,595.46 1080.6,568.5 905.78,493.69 843.08,466.85"];
	248	[height=0.5,
		pos="1498.5,536.89",
		width=0.75];
	7 -- 248	[pos="1192.6,599.93 1254.7,587.14 1410.6,554.99 1472.6,542.23"];
	250	[height=0.5,
		pos="1495.5,467.72",
		width=0.75];
	7 -- 250	[pos="1189.7,595.62 1250.1,570.36 1412,502.63 1472.4,477.39"];
	11	[height=0.5,
		pos="1188.4,696.29",
		width=0.75];
	7 -- 11	[pos="1170.9,623.27 1174.7,639.23 1180.3,662.41 1184.1,678.35"];
	253	[height=0.5,
		pos="1513.5,606.99",
		width=0.75];
	7 -- 253	[pos="1193.8,605.43 1258.7,605.74 1421.7,606.54 1486.4,606.85"];
	257	[height=0.5,
		pos="1334.3,358.82",
		width=0.75];
	7 -- 257	[pos="1177.9,588.74 1208.4,543.84 1292.6,420.12 1323.1,375.3"];
	260	[height=0.5,
		pos="1227.1,379.17",
		width=0.75];
	7 -- 260	[pos="1171.3,587.55 1182.6,545.38 1211,439.54 1222.3,397.14"];
	263	[height=0.5,
		pos="944.54,459.9",
		width=0.75];
	7 -- 263	[pos="1147.3,592.65 1105.3,565.15 1006.1,500.18 963.97,472.62"];
	7 -- 264	[pos="1142.4,597.13 1101.3,583.24 1018,555.13 976.66,541.17"];
	265	[height=0.5,
		pos="1312.5,670.7",
		width=0.75];
	7 -- 265	[pos="1189.1,615.37 1216.4,627.63 1262.3,648.19 1289.8,660.5"];
	267	[height=0.5,
		pos="1338.2,402.83",
		width=0.75];
	7 -- 267	[pos="1180.1,589.41 1212.1,551.56 1292.8,456.42 1324.8,418.65"];
	7 -- 19	[pos="1168.1,623.66 1172.1,674.5 1183.5,816.64 1187.6,867.12"];
	35	[height=0.5,
		pos="1497.1,651",
		width=0.75];
	7 -- 35	[pos="1193.1,608.96 1255,617.52 1408.5,638.75 1470.5,647.32"];
	59	[height=0.5,
		pos="1271,318.21",
		width=0.75];
	7 -- 59	[pos="1173,587.77 1191.6,536.52 1245.9,387.3 1264.6,335.88"];
	124	[height=0.5,
		pos="1183.5,281.85",
		width=0.75];
	7 -- 124	[pos="1167.5,586.98 1170.5,530.05 1179.6,356.62 1182.6,299.96"];
	191	[height=0.5,
		pos="1412.3,410.24",
		width=0.75];
	7 -- 191	[pos="1184.3,591.27 1229.6,555.28 1349.6,459.99 1394.8,424.14"];
	221	[height=0.5,
		pos="1459.2,758.34",
		width=0.75];
	7 -- 221	[pos="1188.1,616.55 1242.2,644.85 1383.5,718.75 1437.7,747.07"];
	90	[height=0.5,
		pos="1275.3,245.75",
		width=0.75];
	89 -- 90	[pos="1018.8,403.32 1069.7,372.07 1204.2,289.46 1255.2,258.08"];
	94	[height=0.5,
		pos="1340.8,270.77",
		width=0.75];
	93 -- 94	[pos="1079.4,465.59 1130.2,427.72 1272.3,321.83 1322.7,284.23"];
	98	[height=0.5,
		pos="1662.2,806.54",
		width=0.75];
	97 -- 98	[pos="1147,661.43 1237.4,686.88 1546.8,774.02 1637.2,799.49"];
	102	[height=0.5,
		pos="228.56,907.11",
		width=0.75];
	101 -- 102	[pos="585.8,715.27 519.5,750.87 316.22,860.04 249.8,895.71"];
	13 -- 18	[pos="889.28,612.66 911.67,617.76 943.99,625.14 966.38,630.24"];
	13 -- 15	[pos="841.36,596.58 818.46,586.05 782.98,569.74 760.02,559.19"];
	316	[height=0.5,
		pos="1225.9,649.31",
		width=0.75];
	13 -- 316	[pos="890.24,609.92 957.23,617.79 1132.1,638.31 1199.2,646.18"];
	352	[height=0.5,
		pos="1002.9,855.89",
		width=0.75];
	13 -- 352	[pos="873.17,623.92 898.67,669.53 968.03,793.6 993.4,838.98"];
	356	[height=0.5,
		pos="757.88,457.48",
		width=0.75];
	13 -- 356	[pos="851.88,590.25 831.56,561.55 790.01,502.86 769.65,474.1"];
	359	[height=0.5,
		pos="921.39,855.41",
		width=0.75];
	13 -- 359	[pos="867.75,624.68 878.39,670.44 906.51,791.41 917.2,837.36"];
	363	[height=0.5,
		pos="1058.2,674.13",
		width=0.75];
	13 -- 363	[pos="887.85,615.19 925.23,628.13 996.54,652.8 1033.9,665.74"];
	13 -- 42	[pos="864.37,624.86 865.69,655.61 868.35,717.82 869.68,748.7"];
	74	[height=0.5,
		pos="810.9,369.08",
		width=0.75];
	13 -- 74	[pos="859.64,588.93 849.87,544.88 824.72,431.43 814.9,387.16"];
	137	[height=0.5,
		pos="681.48,495.46",
		width=0.75];
	13 -- 137	[pos="843.41,594.46 808.31,573 736.45,529.06 701.48,507.68"];
	175	[height=0.5,
		pos="668.97,745.13",
		width=0.75];
	13 -- 175	[pos="844.94,620.06 807.73,646.5 724.73,705.5 687.58,731.9"];
	209	[height=0.5,
		pos="881.93,501.15",
		width=0.75];
	13 -- 209	[pos="866.71,588.88 870.08,569.45 875.43,538.62 878.81,519.16"];
	235	[height=0.5,
		pos="731.03,747.76",
		width=0.75];
	13 -- 235	[pos="849.16,622.15 823.66,649.27 770.94,705.32 745.45,732.43"];
	259	[height=0.5,
		pos="936.44,372.31",
		width=0.75];
	13 -- 259	[pos="869.19,588.79 882.78,545.03 917.42,433.54 930.92,390.06"];
	281	[height=0.5,
		pos="812.03,413.1",
		width=0.75];
	13 -- 281	[pos="858.84,588.92 849.02,552.02 826.59,467.79 816.78,430.93"];
	297	[height=0.5,
		pos="1103.8,567.36",
		width=0.75];
	13 -- 297	[pos="890.22,602.43 936.52,594.82 1031.3,579.26 1077.4,571.69"];
	15 -- 16	[pos="737.92,567.07 738.1,576.46 738.32,587.9 738.5,597.29"];
	15 -- 263	[pos="760.51,539.01 800.4,521.86 882.07,486.75 921.81,469.67"];
	15 -- 343	[pos="723.29,564.19 688.68,601.32 600.62,695.78 565.96,732.97"];
	380	[height=0.5,
		pos="474.49,650.95",
		width=0.75];
	15 -- 380	[pos="714.23,557.93 664.43,577.25 548.25,622.33 498.16,641.77"];
	382	[height=0.5,
		pos="856.47,231.83",
		width=0.75];
	15 -- 382	[pos="744.14,531.37 764.88,476.07 828.87,305.43 849.78,249.66"];
	384	[height=0.5,
		pos="922.58,678.89",
		width=0.75];
	15 -- 384	[pos="756.33,562.05 791.79,586.97 868.27,640.73 903.77,665.67"];
	15 -- 46	[pos="719.73,562.54 674.07,597.54 553.34,690.04 507.49,725.18"];
	78	[height=0.5,
		pos="636.49,252.32",
		width=0.75];
	15 -- 78	[pos="731.55,531.21 713.58,478.46 660.42,322.51 642.48,269.89"];
	142	[height=0.5,
		pos="508.53,326.27",
		width=0.75];
	15 -- 142	[pos="722.19,533.92 680.47,493.37 565.49,381.63 523.85,341.16"];
	178	[height=0.5,
		pos="748.85,372.53",
		width=0.75];
	15 -- 178	[pos="738.74,530.66 740.9,496.78 745.53,424.44 747.69,390.63"];
	211	[height=0.5,
		pos="758.61,284.49",
		width=0.75];
	15 -- 211	[pos="739.02,530.7 742.86,482.4 753.3,351.23 757.16,302.79"];
	237	[height=0.5,
		pos="400.45,731.12",
		width=0.75];
	15 -- 237	[pos="716.49,560.27 655.94,593 482.06,687 421.53,719.72"];
	303	[height=0.5,
		pos="975.41,295.81",
		width=0.75];
	15 -- 303	[pos="752.09,533.42 794.55,488.24 918.17,356.71 960.78,311.38"];
	322	[height=0.5,
		pos="892.14,186.95",
		width=0.75];
	15 -- 322	[pos="745.03,531.42 771.14,470.27 858.3,266.18 884.58,204.65"];
	337	[height=0.5,
		pos="790.23,201.55",
		width=0.75];
	15 -- 337	[pos="740.33,530.69 749.43,470.67 778.44,279.31 787.5,219.55"];
	366	[height=0.5,
		pos="462.02,606.92",
		width=0.75];
	15 -- 366	[pos="711.65,554.33 659.13,565.4 540.7,590.34 488.08,601.43"];
	107	[height=0.5,
		pos="1023.7,108.29",
		width=0.75];
	106 -- 107	[pos="884.11,352.72 911.25,305.21 987.14,172.36 1014.1,125.18"];
	111	[height=0.5,
		pos="977.29,1228.1",
		width=0.75];
	110 -- 111	[pos="814.62,765.74 841.13,841.09 944.66,1135.4 971.11,1210.5"];
	113 -- 114	[pos="320.94,871.42 415.8,890.43 740.84,955.58 835.24,974.5"];
	116	[height=0.5,
		pos="666.55,451.42",
		width=0.75];
	115 -- 116	[pos="419.09,596.42 469.11,567.11 596.55,492.44 646.26,463.31"];
	118	[height=0.5,
		pos="31.834,908.54",
		width=0.75];
	117 -- 118	[pos="167.71,707.62 140.25,748.23 70.271,851.7 42.976,892.07"];
	122	[height=0.5,
		pos="373.5,212.64",
		width=0.75];
	121 -- 122	[pos="270.42,470.92 290.31,421.07 346.68,279.83 366.5,230.17"];
	8 -- 36	[pos="558.07,596.56 553.83,643.93 542.46,770.93 538.22,818.28"];
	8 -- 88	[pos="583.62,586.98 600.58,593.05 623.23,601.16 640.16,607.22"];
	8 -- 15	[pos="585.94,574.06 619.57,568.47 677.54,558.85 711.22,553.25"];
	192	[height=0.5,
		pos="675.57,567.67",
		width=0.75];
	8 -- 192	[pos="586.57,575.93 605.15,574.2 629.79,571.92 648.44,570.19"];
	8 -- 247	[pos="581.91,568.08 631.15,545.16 748.97,490.33 798.16,467.43"];
	269	[height=0.5,
		pos="315.88,556.18",
		width=0.75];
	8 -- 269	[pos="532.67,575.96 485.68,571.67 389.47,562.89 342.65,558.62"];
	273	[height=0.5,
		pos="556.49,275.24",
		width=0.75];
	8 -- 273	[pos="559.5,560.36 558.93,506.57 557.25,347.76 556.68,293.59"];
	277	[height=0.5,
		pos="873.96,545.5",
		width=0.75];
	8 -- 277	[pos="586.49,575.61 645.86,569.39 787.92,554.52 847.23,548.3"];
	8 -- 278	[pos="549.21,595.02 521.91,638.25 448.81,754 421.29,797.56"];
	279	[height=0.5,
		pos="446.28,289.89",
		width=0.75];
	8 -- 279	[pos="552.77,560.81 532.52,509.29 473.57,359.32 453.26,307.64"];
	282	[height=0.5,
		pos="348.59,687.06",
		width=0.75];
	8 -- 282	[pos="538.29,589.44 497.83,610.26 410.56,655.17 370.05,676.02"];
	284	[height=0.5,
		pos="392.36,395.42",
		width=0.75];
	8 -- 284	[pos="545.42,562.82 513.81,528.24 438.17,445.52 406.59,410.98"];
	287	[height=0.5,
		pos="306.82,435.76",
		width=0.75];
	8 -- 287	[pos="539,566.75 491.46,539.93 374.92,474.18 327.45,447.4"];
	8 -- 291	[pos="583.44,569.53 621.29,555.35 694.87,527.8 732.77,513.61"];
	292	[height=0.5,
		pos="495.61,490.37",
		width=0.75];
	8 -- 292	[pos="547.64,561.86 536.18,546.12 519.05,522.57 507.61,506.86"];
	63	[height=0.5,
		pos="416.74,347.19",
		width=0.75];
	8 -- 63	[pos="549.18,561.42 522.68,518.55 453.38,406.46 427.08,363.91"];
	161	[height=0.5,
		pos="360.74,510.38",
		width=0.75];
	8 -- 161	[pos="535.3,570.08 497.01,556.98 423.24,531.75 385.02,518.68"];
	224	[height=0.5,
		pos="279.2,619.88",
		width=0.75];
	8 -- 224	[pos="533.3,582.32 479.84,590.22 359.29,608.04 305.72,615.96"];
	126	[height=0.5,
		pos="299.18,1090",
		width=0.75];
	125 -- 126	[pos="202.7,813.84 221.09,866.48 274.71,1020 292.99,1072.3"];
	130	[height=0.5,
		pos="1003.3,152.39",
		width=0.75];
	129 -- 130	[pos="452.3,435.32 542.51,388.99 891.39,209.86 981.81,163.43"];
	133	[height=0.5,
		pos="823.56,157.51",
		width=0.75];
	132 -- 133	[pos="387.82,452.16 461.77,402.15 730.42,220.49 804.52,170.38"];
	136	[height=0.5,
		pos="333.67,349.22",
		width=0.75];
	135 -- 136	[pos="225.52,571.35 246.97,527.3 303.67,410.84 325.21,366.6"];
	139	[height=0.5,
		pos="361.14,972.1",
		width=0.75];
	138 -- 139	[pos="292.16,750.56 306.02,795.06 341.76,909.84 355.57,954.22"];
	141	[height=0.5,
		pos="232.76,395.95",
		width=0.75];
	140 -- 141	[pos="198,621.07 204.98,575.85 222.99,459.22 229.95,414.13"];
	143 -- 144	[pos="282.11,788.07 352.14,823.06 570.37,932.07 640.08,966.9"];
	146	[height=0.5,
		pos="354.61,303.33",
		width=0.75];
	145 -- 146	[pos="241.77,521.35 264.29,477.83 323.1,364.2 345.64,320.66"];
	150	[height=0.5,
		pos="116.88,995.82",
		width=0.75];
	149 -- 150	[pos="179.18,760.07 166.87,806.63 133.88,931.47 121.59,978.01"];
	155	[height=0.5,
		pos="1218.1,1327.2",
		width=0.75];
	154 -- 155	[pos="1392.2,1116 1357.8,1157.7 1265.6,1269.5 1231.2,1311.2"];
	160	[height=0.5,
		pos="293.51,940.72",
		width=0.75];
	159 -- 160	[pos="1019.9,1001 902.9,991.29 437.54,952.67 320.39,942.95"];
	9 -- 37	[pos="1260.2,775.44 1252.5,817.27 1233.4,919.85 1225.6,961.62"];
	9 -- 18	[pos="1240.9,747.11 1189.8,724.3 1066.1,669.12 1014.8,646.27"];
	9 -- 11	[pos="1246.2,743.09 1234,733.25 1217.9,720.18 1205.8,710.35"];
	10	[height=0.5,
		pos="1388,733.93",
		width=0.75];
	9 -- 10	[pos="1289.7,752.34 1310.9,748.37 1340.7,742.78 1362,738.81"];
	294	[height=0.5,
		pos="1375.1,889.02",
		width=0.75];
	9 -- 294	[pos="1277.1,773.12 1298.5,798.46 1340.1,847.7 1361.6,873.07"];
	296	[height=0.5,
		pos="1450,695.04",
		width=0.75];
	9 -- 296	[pos="1288,749.1 1323.7,737.18 1389.9,715.09 1425.6,703.17"];
	298	[height=0.5,
		pos="1600.2,820.87",
		width=0.75];
	9 -- 298	[pos="1289.8,762.17 1352.5,774.03 1510.9,803.99 1573.9,815.89"];
	302	[height=0.5,
		pos="1373.3,580.34",
		width=0.75];
	9 -- 302	[pos="1273.9,740.59 1294.9,706.87 1342,630.85 1362.9,597.07"];
	304	[height=0.5,
		pos="1522.4,801.67",
		width=0.75];
	9 -- 304	[pos="1289.9,761.73 1339.5,770.25 1446.4,788.62 1496.1,797.15"];
	307	[height=0.5,
		pos="1623.2,866.47",
		width=0.75];
	9 -- 307	[pos="1288.3,764.73 1354,784.69 1532.5,838.89 1598.3,858.91"];
	311	[height=0.5,
		pos="1584.4,775.97",
		width=0.75];
	9 -- 311	[pos="1290.7,758.81 1351.1,762.34 1496.4,770.83 1557.1,774.37"];
	9 -- 65	[pos="1271,739.7 1281.6,714.47 1301.1,668.15 1311.7,642.87"];
	92	[height=0.5,
		pos="1612.4,626.61",
		width=0.75];
	9 -- 92	[pos="1287.3,748.35 1351,724.52 1525,659.34 1588.7,635.5"];
	128	[height=0.5,
		pos="1556.5,920.44",
		width=0.75];
	9 -- 128	[pos="1284.7,768.96 1338.7,799.08 1481.8,878.81 1535.6,908.81"];
	196	[height=0.5,
		pos="1646.5,754.89",
		width=0.75];
	9 -- 196	[pos="1290.9,757.06 1361.3,756.63 1549.1,755.49 1619.4,755.06"];
	228	[height=0.5,
		pos="1618.5,910.51",
		width=0.75];
	9 -- 228	[pos="1286.4,767.05 1350.3,794.67 1531.2,872.81 1595.5,900.57"];
	249	[height=0.5,
		pos="1622.8,707.46",
		width=0.75];
	9 -- 249	[pos="1290.3,753.53 1356.8,744.31 1529.3,720.42 1596,711.18"];
	272	[height=0.5,
		pos="1561.2,865.71",
		width=0.75];
	9 -- 272	[pos="1287.5,765.92 1343.2,786.23 1481.4,836.62 1537.2,856.98"];
	163	[height=0.5,
		pos="1709.1,1039.2",
		width=0.75];
	162 -- 163	[pos="1523.4,1015.5 1564.3,1020.7 1641.6,1030.6 1682.4,1035.8"];
	167	[height=0.5,
		pos="1742.6,914.94",
		width=0.75];
	166 -- 167	[pos="1564.2,959.51 1603.4,949.72 1678.1,931.07 1717.2,921.29"];
	170 -- 171	[pos="1129.4,1008.4 1034.1,993.51 710.29,943.06 615.06,928.22"];
	173	[height=0.5,
		pos="1106.1,1307.5",
		width=0.75];
	172 -- 173	[pos="1265,1137.5 1232.3,1172.5 1153,1257.4 1120.4,1292.2"];
	177 -- 178	[pos="1171.5,726.13 1101.6,667.64 836.26,445.65 766,386.87"];
	180	[height=0.5,
		pos="526.51,1187.9",
		width=0.75];
	179 -- 180	[pos="1065.2,1126.2 969.83,1137.2 648.38,1173.9 553.24,1184.8"];
	183 -- 184	[pos="1257.6,1072.9 1211.3,1092.9 1107,1138.2 1060.6,1158.3"];
	185 -- 186	[pos="1405.7,792.88 1366,748.22 1252.1,619.93 1212.4,575.27"];
	5	[height=0.5,
		pos="985.12,688.43",
		width=0.75];
	5 -- 54	[pos="964.76,676.2 929.35,654.93 856.84,611.37 821.56,590.18"];
	5 -- 18	[pos="987.49,670.42 988.18,665.21 988.93,659.53 989.61,654.31"];
	5 -- 153	[pos="1007.9,698.51 1049.5,716.93 1137.2,755.82 1178.8,774.25"];
	5 -- 188	[pos="972.39,704.36 946.11,737.26 886.13,812.34 859.88,845.2"];
	189	[height=0.5,
		pos="1145.2,379.35",
		width=0.75];
	5 -- 189	[pos="993.96,671.37 1021.9,617.46 1108,451.1 1136.2,396.74"];
	5 -- 192	[pos="961.6,679.25 904.04,656.8 756.58,599.28 699.05,576.83"];
	193	[height=0.5,
		pos="1306.4,575.95",
		width=0.75];
	5 -- 193	[pos="1009.3,679.98 1068.9,659.08 1222.9,605.19 1282.4,584.35"];
	197	[height=0.5,
		pos="1247.4,452.38",
		width=0.75];
	5 -- 197	[pos="1001.5,673.66 1048.6,631.27 1183.9,509.52 1231,467.14"];
	201	[height=0.5,
		pos="1270.3,527.19",
		width=0.75];
	5 -- 201	[pos="1006.1,676.57 1059,646.68 1197.2,568.52 1249.7,538.84"];
	204	[height=0.5,
		pos="1047.3,959.19",
		width=0.75];
	5 -- 204	[pos="989.3,706.62 1000.6,755.94 1031.9,891.85 1043.2,941.08"];
	208	[height=0.5,
		pos="1061.1,432.61",
		width=0.75];
	5 -- 208	[pos="990.46,670.44 1004.4,623.47 1041.8,497.52 1055.8,450.58"];
	5 -- 14	[pos="968.07,702.6 922.73,740.28 799.61,842.6 754.14,880.38"];
	210	[height=0.5,
		pos="908.73,325.14",
		width=0.75];
	5 -- 210	[pos="981.33,670.41 968.33,608.56 925.58,405.28 912.54,343.27"];
	212	[height=0.5,
		pos="987.17,251.29",
		width=0.75];
	5 -- 212	[pos="985.21,670.2 985.54,599.1 986.75,340.83 987.08,269.59"];
	215	[height=0.5,
		pos="1144,828.35",
		width=0.75];
	5 -- 215	[pos="1001.5,702.88 1032,729.69 1096.9,786.86 1127.4,813.77"];
	217	[height=0.5,
		pos="1250.5,693.33",
		width=0.75];
	5 -- 217	[pos="1012.5,688.94 1063.5,689.88 1172.4,691.89 1223.2,692.83"];
	5 -- 32	[pos="1003.8,701.62 1052.6,736.08 1183.5,828.45 1232.3,862.89"];
	5 -- 86	[pos="996.7,671.99 1019,640.34 1067.6,571.28 1089.9,539.68"];
	5 -- 116	[pos="967.08,675.01 911.14,633.39 740.99,506.81 684.78,464.99"];
	190	[height=0.5,
		pos="1437.4,331.77",
		width=0.75];
	189 -- 190	[pos="1171.6,375.04 1227.1,366.01 1355.2,345.16 1410.8,336.1"];
	194	[height=0.5,
		pos="1682.7,459.21",
		width=0.75];
	193 -- 194	[pos="1331.1,568.29 1399.2,547.14 1589.6,488.09 1657.9,466.9"];
	198	[height=0.5,
		pos="1606.4,384.94",
		width=0.75];
	197 -- 198	[pos="1273.5,447.47 1339.8,435.02 1514.2,402.26 1580.4,389.83"];
	202	[height=0.5,
		pos="1575,430.43",
		width=0.75];
	201 -- 202	[pos="1294.7,519.43 1351.8,501.32 1493.3,456.38 1550.5,438.22"];
	205	[height=0.5,
		pos="714.4,1338",
		width=0.75];
	204 -- 205	[pos="1033.4,974.98 979.3,1036.6 782.59,1260.4 728.34,1322.1"];
	208 -- 209	[pos="1037.7,441.57 1003.3,454.7 939.7,479.05 905.36,492.19"];
	14 -- 75	[pos="718.68,881.28 691.88,861.68 642.21,825.34 615.41,805.73"];
	14 -- 104	[pos="745.83,877.25 755.18,858.91 769.81,830.2 779.12,811.94"];
	14 -- 176	[pos="762.6,901.21 810.32,913.4 912.21,939.42 959.81,951.58"];
	365	[height=0.5,
		pos="444.35,880.15",
		width=0.75];
	14 -- 365	[pos="709.96,893.32 654.21,890.56 526.98,884.24 471.29,881.48"];
	367	[height=0.5,
		pos="358.35,1018.2",
		width=0.75];
	14 -- 367	[pos="712.7,902.57 644.48,924.83 451.47,987.8 382.9,1010.2"];
	370	[height=0.5,
		pos="485.23,1067.4",
		width=0.75];
	14 -- 370	[pos="718.04,907.64 671.39,939.65 551.25,1022.1 504.37,1054.3"];
	374	[height=0.5,
		pos="812.25,1137.7",
		width=0.75];
	14 -- 374	[pos="742.5,912.53 756.42,957.47 792.78,1074.8 806.71,1119.8"];
	378	[height=0.5,
		pos="802.2,1049.5",
		width=0.75];
	14 -- 378	[pos="744.32,912.12 756.85,941.86 782.19,1002 794.77,1031.9"];
	14 -- 44	[pos="725.28,911.2 702.01,944.16 650.08,1017.7 626.83,1050.6"];
	14 -- 139	[pos="711.13,899.98 642.47,914.13 456.02,952.55 387.16,966.74"];
	262	[height=0.5,
		pos="474.54,827.03",
		width=0.75];
	14 -- 262	[pos="711.32,888.05 661.02,875.09 549.97,846.47 499.9,833.56"];
	283	[height=0.5,
		pos="356.92,902.51",
		width=0.75];
	14 -- 283	[pos="709.93,895.22 640.07,896.66 454.06,900.5 384.06,901.95"];
	301	[height=0.5,
		pos="688.21,1120.8",
		width=0.75];
	14 -- 301	[pos="733.05,912.79 723.9,955.24 701.17,1060.7 692.07,1102.9"];
	319	[height=0.5,
		pos="974.88,1165.9",
		width=0.75];
	14 -- 319	[pos="750.78,910.41 792.83,958.35 918.92,1102.1 961.02,1150.1"];
	334	[height=0.5,
		pos="879.35,1067.8",
		width=0.75];
	14 -- 334	[pos="750.1,910.63 777.23,943.61 839.15,1018.9 866.25,1051.8"];
	355	[height=0.5,
		pos="547.24,1096.2",
		width=0.75];
	14 -- 355	[pos="722.39,910.14 686.99,947.75 596.78,1043.6 561.6,1081"];
	210 -- 211	[pos="883.6,318.34 855.89,310.83 811.56,298.83 783.82,291.31"];
	213	[height=0.5,
		pos="755.47,89.577",
		width=0.75];
	212 -- 213	[pos="968.21,238.05 924.65,207.65 817.86,133.12 774.37,102.77"];
	215 -- 216	[pos="1134.9,845.53 1108.9,894.87 1034.2,1036.6 1008.3,1085.9"];
	218	[height=0.5,
		pos="1437.1,868.88",
		width=0.75];
	217 -- 218	[pos="1266.4,708.3 1301.7,741.46 1386,820.82 1421.3,853.95"];
	220	[height=0.5,
		pos="1332.5,1196.3",
		width=0.75];
	219 -- 220	[pos="778.59,1202.8 876.21,1201.6 1207.8,1197.7 1305.3,1196.6"];
	223	[height=0.5,
		pos="189.57,970.55",
		width=0.75];
	222 -- 223	[pos="400.82,1070.8 356.04,1049.6 256,1002.1 211.57,980.99"];
	226	[height=0.5,
		pos="1034.4,1417.2",
		width=0.75];
	225 -- 226	[pos="744.68,1303.1 802.63,1325.9 952.89,1385.1 1011,1408"];
	230	[height=0.5,
		pos="1415.9,1285",
		width=0.75];
	229 -- 230	[pos="912.15,1270.6 1003.2,1273.2 1297.9,1281.6 1388.9,1284.2"];
	233	[height=0.5,
		pos="1313.1,869.48",
		width=0.75];
	232 -- 233	[pos="895.21,1100.3 969.11,1059.4 1218,922 1292.1,881.07"];
	234 -- 235	[pos="560.85,1003 593.2,954.44 687.41,813.17 719.88,764.48"];
	236 -- 237	[pos="422.44,993.82 418.21,943.24 406.23,800.15 401.97,749.32"];
	239	[height=0.5,
		pos="166.28,1118.2",
		width=0.75];
	238 -- 239	[pos="479.36,1138.5 415.74,1134.4 256.87,1124 193.25,1119.9"];
	243	[height=0.5,
		pos="768.79,1396.3",
		width=0.75];
	242 -- 243	[pos="611.72,1215.9 643.69,1252.6 723,1343.7 755.04,1380.5"];
	248 -- 249	[pos="1510.4,553.24 1534.2,585.84 1587.2,658.59 1611,691.15"];
	251	[height=0.5,
		pos="1749.6,511.63",
		width=0.75];
	250 -- 251	[pos="1521.7,472.26 1570.4,480.67 1674.3,498.61 1723.1,507.06"];
	11 -- 39	[pos="1188,714.57 1187.2,758.11 1185,867.58 1184.2,911.03"];
	11 -- 13	[pos="1163.2,689.35 1102.5,672.63 948.99,630.33 888.58,613.68"];
	11 -- 19	[pos="1188.5,714.41 1188.6,750.51 1188.8,831.07 1188.9,867.13"];
	11 -- 277	[pos="1166.3,685.69 1108.6,658 953.75,583.77 896.04,556.09"];
	313	[height=0.5,
		pos="1384,644.51",
		width=0.75];
	11 -- 313	[pos="1213.6,689.63 1251,679.71 1321.1,661.18 1358.6,651.23"];
	11 -- 332	[pos="1163.4,703.24 1114.5,716.82 1006.6,746.77 957.62,760.38"];
	333	[height=0.5,
		pos="1280.5,818.68",
		width=0.75];
	11 -- 333	[pos="1200.6,712.55 1218.2,735.95 1250.6,778.92 1268.2,802.36"];
	335	[height=0.5,
		pos="1309.4,446.84",
		width=0.75];
	11 -- 335	[pos="1196.7,679.15 1218.8,633.58 1278.8,509.82 1301,464.11"];
	11 -- 338	[pos="1167.7,684.75 1131.1,664.42 1055.7,622.44 1019,602.01"];
	11 -- 339	[pos="1177.7,713.12 1154.2,749.78 1098.8,836.52 1075.5,873.02"];
	340	[height=0.5,
		pos="1420.7,536.31",
		width=0.75];
	11 -- 340	[pos="1207.4,683.2 1251.1,653.13 1358.2,579.39 1401.8,549.35"];
	70	[height=0.5,
		pos="1371.4,464.04",
		width=0.75];
	11 -- 70	[pos="1201,680.33 1234.4,637.9 1325.2,522.67 1358.8,480.12"];
	100	[height=0.5,
		pos="1525.6,731.94",
		width=0.75];
	11 -- 100	[pos="1215.1,699.12 1278.2,705.79 1435.7,722.45 1498.8,729.12"];
	134	[height=0.5,
		pos="1185.4,467.43",
		width=0.75];
	11 -- 134	[pos="1188.2,677.95 1187.6,634.99 1186.2,528.27 1185.6,485.54"];
	169	[height=0.5,
		pos="1560.6,670.63",
		width=0.75];
	11 -- 169	[pos="1215.5,694.43 1284.2,689.69 1465,677.22 1533.7,672.49"];
	203	[height=0.5,
		pos="1450.5,580.92",
		width=0.75];
	11 -- 203	[pos="1211.2,686.26 1260.9,664.38 1378.5,612.63 1428,590.85"];
	11 -- 233	[pos="1200.1,712.59 1223.9,745.59 1277.5,820.02 1301.3,853.1"];
	254	[height=0.5,
		pos="1623.5,1044.6",
		width=0.75];
	253 -- 254	[pos="1518,624.95 1535.9,695.88 1601.2,955.92 1619,1026.7"];
	258	[height=0.5,
		pos="1148,182.33",
		width=0.75];
	257 -- 258	[pos="1318.7,344.08 1283.7,310.86 1198.8,230.46 1163.7,197.16"];
	261	[height=0.5,
		pos="820.65,275.83",
		width=0.75];
	260 -- 261	[pos="1201.7,372.7 1128.7,354.15 919.06,300.85 846.07,282.29"];
	265 -- 266	[pos="1302.5,687.86 1265.8,750.73 1138.7,968.09 1102.3,1030.4"];
	267 -- 268	[pos="1310.9,401.1 1261.8,397.98 1159.1,391.46 1110.2,388.35"];
	19 -- 187	[pos="1213.1,893.31 1239.3,902.11 1280.9,916.08 1307.1,924.9"];
	19 -- 246	[pos="1171.6,899.4 1131.7,932.04 1033.8,1012.1 993.98,1044.7"];
	19 -- 384	[pos="1171.1,871.33 1122.6,833.75 988.84,730.2 940.39,692.69"];
	19 -- 52	[pos="1208.7,897.75 1258.3,929.35 1387.8,1011.9 1437.4,1043.5"];
	19 -- 83	[pos="1168.9,897.43 1156.8,904.78 1141.5,914.11 1129.4,921.46"];
	112	[height=0.5,
		pos="1343.1,1087.8",
		width=0.75];
	19 -- 112	[pos="1201.3,901.42 1230.2,939.35 1301.8,1033.4 1330.7,1071.4"];
	152	[height=0.5,
		pos="1154.1,1152.4",
		width=0.75];
	19 -- 152	[pos="1186.7,903.13 1180.3,951.69 1162.9,1085.3 1156.5,1134.1"];
	19 -- 218	[pos="1216,883.41 1263.8,880.27 1362.4,873.79 1410.1,870.66"];
	293	[height=0.5,
		pos="1011.6,746.35",
		width=0.75];
	19 -- 293	[pos="1171.3,871.37 1137.4,844.75 1063.2,786.68 1029.2,760.11"];
	312	[height=0.5,
		pos="1476.6,968.03",
		width=0.75];
	19 -- 312	[pos="1214,892.39 1268.4,908.06 1396.9,945.07 1451.4,960.78"];
	331	[height=0.5,
		pos="1560.6,1017.3",
		width=0.75];
	19 -- 331	[pos="1213.1,893.75 1280.3,917.65 1469.4,984.86 1536.5,1008.7"];
	351	[height=0.5,
		pos="1216.2,1165.2",
		width=0.75];
	19 -- 351	[pos="1190.8,903.56 1195.7,954.42 1209.5,1096.6 1214.4,1147.1"];
	364	[height=0.5,
		pos="1414.6,933.07",
		width=0.75];
	19 -- 364	[pos="1214.9,890.68 1258.3,899.89 1345.2,918.35 1388.6,927.56"];
	379	[height=0.5,
		pos="1217,1081.7",
		width=0.75];
	19 -- 379	[pos="1191.6,903.32 1196.9,940.75 1209.1,1026.2 1214.4,1063.6"];
	387	[height=0.5,
		pos="1065.1,828.02",
		width=0.75];
	19 -- 387	[pos="1166.6,874.83 1144.1,864.47 1109.8,848.63 1087.4,838.29"];
	391	[height=0.5,
		pos="1499.2,845.67",
		width=0.75];
	19 -- 391	[pos="1215.7,881.78 1274.3,874.31 1413.7,856.55 1472.4,849.08"];
	270	[height=0.5,
		pos="277.89,1028.8",
		width=0.75];
	269 -- 270	[pos="314.42,574.42 308.37,649.65 285.39,935.48 279.35,1010.6"];
	274	[height=0.5,
		pos="939.37,18",
		width=0.75];
	273 -- 274	[pos="575.74,262.31 641.25,218.3 855.08,74.628 920.31,30.806"];
	280	[height=0.5,
		pos="687.02,171.67",
		width=0.75];
	279 -- 280	[pos="468.07,279.19 513.79,256.74 619.28,204.94 665.11,182.43"];
	282 -- 283	[pos="349.29,705.06 350.86,745.62 354.65,843.76 356.22,884.41"];
	285	[height=0.5,
		pos="435.56,200.97",
		width=0.75];
	284 -- 285	[pos="396.34,377.48 404.57,340.43 423.36,255.88 431.58,218.87"];
	288	[height=0.5,
		pos="27,689.79",
		width=0.75];
	287 -- 288	[pos="290.57,450.52 241.11,495.41 92.815,630.04 43.299,674.99"];
	292 -- 293	[pos="517.46,501.2 601.77,543.03 905.48,693.68 989.8,735.51"];
	10 -- 38	[pos="1381.1,751.65 1362.4,799.72 1310.9,932.15 1292.3,980.13"];
	10 -- 66	[pos="1364.4,725.12 1304,702.56 1144.5,642.92 1083.9,620.27"];
	10 -- 313	[pos="1387.2,715.84 1386.5,700.32 1385.5,678.08 1384.8,662.58"];
	314	[height=0.5,
		pos="1477.6,920.69",
		width=0.75];
	10 -- 314	[pos="1396.3,751.17 1413.3,786.75 1452.3,867.95 1469.3,903.49"];
	10 -- 316	[pos="1366.5,722.7 1335.4,706.47 1278.2,676.64 1247.2,660.46"];
	317	[height=0.5,
		pos="1680.6,911.96",
		width=0.75];
	10 -- 317	[pos="1408.1,746.17 1461.6,778.69 1606.7,867.02 1660.3,899.64"];
	320	[height=0.5,
		pos="1591.1,582.6",
		width=0.75];
	10 -- 320	[pos="1406,720.5 1444.5,691.86 1534.2,625.03 1572.8,596.22"];
	323	[height=0.5,
		pos="1433.5,487.32",
		width=0.75];
	10 -- 323	[pos="1391.3,715.8 1399.7,670.19 1421.7,551.12 1430.1,505.48"];
	10 -- 325	[pos="1376.2,750.31 1349.7,787.21 1285.4,876.5 1258.8,913.49"];
	326	[height=0.5,
		pos="1703.8,584.17",
		width=0.75];
	10 -- 326	[pos="1410.2,723.4 1468.2,695.91 1623.7,622.18 1681.6,594.69"];
	329	[height=0.5,
		pos="1724.3,820.79",
		width=0.75];
	10 -- 329	[pos="1413.3,740.46 1475.6,756.56 1636.1,798.01 1698.7,814.19"];
	96	[height=0.5,
		pos="1741.3,629.43",
		width=0.75];
	10 -- 96	[pos="1412.8,726.59 1477.7,707.4 1651.6,655.95 1716.5,636.77"];
	131	[height=0.5,
		pos="1557.5,492.88",
		width=0.75];
	10 -- 131	[pos="1399.6,717.37 1430.7,673.22 1515.1,553.15 1546,509.24"];
	165	[height=0.5,
		pos="1737.9,776.79",
		width=0.75];
	10 -- 165	[pos="1414.6,737.19 1479.5,745.14 1645.5,765.47 1710.8,773.48"];
	200	[height=0.5,
		pos="1744.3,732.76",
		width=0.75];
	10 -- 200	[pos="1415.1,733.84 1481.3,733.63 1651,733.07 1717.2,732.85"];
	231	[height=0.5,
		pos="1648.5,956.52",
		width=0.75];
	10 -- 231	[pos="1404.7,748.2 1451.6,788.31 1584.4,901.78 1631.6,942.09"];
	252	[height=0.5,
		pos="1746.9,688.71",
		width=0.75];
	10 -- 252	[pos="1414.7,730.57 1481.1,722.2 1653.4,700.49 1720.1,692.1"];
	276	[height=0.5,
		pos="1622.6,503.25",
		width=0.75];
	10 -- 276	[pos="1403.4,718.8 1445.9,677 1564.6,560.3 1607.1,518.44"];
	294 -- 295	[pos="1348.1,890.94 1251.3,897.81 922.81,921.15 826.18,928.01"];
	296 -- 297	[pos="1426.2,686.26 1363,662.94 1191.2,599.59 1127.8,576.19"];
	299	[height=0.5,
		pos="1574.5,1139.5",
		width=0.75];
	298 -- 299	[pos="1598.8,838.92 1594.2,894.87 1580.5,1065 1576,1121.3"];
	302 -- 303	[pos="1354.6,567 1287.8,519.21 1060.8,356.87 994.02,309.12"];
	305	[height=0.5,
		pos="984.02,1010.1",
		width=0.75];
	304 -- 305	[pos="1498.9,810.76 1410.3,845.08 1096.5,966.57 1007.6,1001"];
	308	[height=0.5,
		pos="1660.7,1088.6",
		width=0.75];
	307 -- 308	[pos="1626.3,884.65 1633.3,926.4 1650.6,1028.8 1657.6,1070.5"];
	311 -- 312	[pos="1574.9,793.01 1554.4,829.46 1506.6,914.61 1486.1,951.02"];
	314 -- 315	[pos="1450.3,920 1348.4,917.42 990.57,908.38 888.59,905.8"];
	318	[height=0.5,
		pos="1485,1189.3",
		width=0.75];
	317 -- 318	[pos="1668.9,928.48 1634.1,977.8 1531.3,1123.6 1496.6,1172.8"];
	321	[height=0.5,
		pos="1210.2,224.24",
		width=0.75];
	320 -- 321	[pos="1575.2,567.66 1513.3,509.38 1288.2,297.64 1226.1,239.25"];
	323 -- 324	[pos="1408.6,480.23 1312.4,452.87 966.05,354.32 869.9,326.96"];
	327	[height=0.5,
		pos="1509.5,385.48",
		width=0.75];
	326 -- 327	[pos="1688.9,568.91 1652.7,531.93 1560.7,437.83 1524.5,400.8"];
	330	[height=0.5,
		pos="1711.2,962.18",
		width=0.75];
	329 -- 330	[pos="1722.6,838.99 1720.1,866.14 1715.4,916.95 1712.9,944.06"];
	333 -- 334	[pos="1260.6,831.03 1192.3,873.44 967.84,1012.8 899.37,1055.3"];
	336	[height=0.5,
		pos="1085.9,138.38",
		width=0.75];
	335 -- 336	[pos="1297.4,430.26 1258.5,376.57 1136.3,207.93 1097.7,154.67"];
	341	[height=0.5,
		pos="1374.3,314.78",
		width=0.75];
	340 -- 341	[pos="1416.9,518.18 1408.2,476.53 1386.8,374.43 1378,332.85"];
	345	[height=0.5,
		pos="71.848,864.38",
		width=0.75];
	344 -- 345	[pos="232.94,827.39 197.3,835.57 133.04,850.33 97.4,858.51"];
	350	[height=0.5,
		pos="784.87,1308.5",
		width=0.75];
	349 -- 350	[pos="511.55,964.39 558.78,1023.9 724.5,1232.5 772.03,1292.4"];
	353	[height=0.5,
		pos="1009.5,1272.1",
		width=0.75];
	352 -- 353	[pos="1003.1,874.04 1004.2,942.58 1008.1,1185.2 1009.2,1253.9"];
	357	[height=0.5,
		pos="619.85,208.29",
		width=0.75];
	356 -- 357	[pos="748.39,440.35 723.12,394.72 654.36,270.6 629.22,225.2"];
	360	[height=0.5,
		pos="967.37,1328.6",
		width=0.75];
	359 -- 360	[pos="923.14,873.38 930.42,948.33 958.34,1235.6 965.62,1310.6"];
	363 -- 364	[pos="1076.8,687.68 1138.4,732.43 1334.8,875.09 1396.1,919.64"];
	365 -- 366	[pos="445.54,861.8 448.76,812.02 457.62,674.87 460.84,625.19"];
	368	[height=0.5,
		pos="133.86,881.19",
		width=0.75];
	367 -- 368	[pos="338.43,1006 295.93,980.09 196.8,919.6 154.06,893.52"];
	371	[height=0.5,
		pos="436.94,1264.4",
		width=0.75];
	370 -- 371	[pos="480.86,1085.2 471.69,1122.6 450.53,1209 441.34,1246.5"];
	375	[height=0.5,
		pos="1393.9,1240.9",
		width=0.75];
	374 -- 375	[pos="838.38,1142.3 934.87,1159.5 1270.6,1219 1367.6,1236.2"];
	378 -- 379	[pos="829.1,1051.6 904.13,1057.4 1115.2,1073.8 1190.1,1079.6"];
	380 -- 381	[pos="485.84,667.72 519.73,717.79 619.94,865.85 653.76,915.8"];
	382 -- 383	[pos="878.66,242.42 913.49,259.04 980.58,291.07 1015.3,307.67"];
	386 -- 387	[pos="632.95,547.02 707.06,595.21 971.81,767.34 1045.8,815.45"];
	390	[height=0.5,
		pos="1560.5,538.57",
		width=0.75];
	389 -- 390	[pos="1193.9,430.68 1264.3,451.4 1465,510.46 1535.6,531.24"];
	21 -- 22	[pos="367.87,1062.7 387.76,1009.8 446.59,853.39 466.44,800.62"];
	25	[height=0.5,
		pos="1467.5,1142.2",
		width=0.75];
	24 -- 25	[pos="1186,1362.3 1239.3,1320.6 1396.7,1197.6 1449.8,1156"];
	25 -- 26	[pos="1453,1127 1392.3,1063.7 1159.6,821.03 1098.9,757.69"];
	28 -- 29	[pos="233.93,1054.7 226.25,1011.6 206.95,903.1 199.29,860.03"];
	34 -- 35	[pos="1544.5,1074.6 1536.5,1003 1507.1,740.48 1499.1,669.05"];
	49 -- 50	[pos="501.58,1000.3 570.8,932.87 851.47,659.51 920.56,592.22"];
	58	[height=0.5,
		pos="1149.7,75.526",
		width=0.75];
	57 -- 58	[pos="848.44,105.92 910.13,99.698 1061.4,84.44 1123,78.226"];
	58 -- 59	[pos="1158.5,92.979 1180.8,137.76 1240.1,256.32 1262.4,300.92"];
	62	[height=0.5,
		pos="314.14,259.27",
		width=0.75];
	61 -- 62	[pos="481.84,183.64 445.22,200.15 373.29,232.59 336.69,249.1"];
	62 -- 63	[pos="331.08,273.79 350.21,290.17 381.12,316.67 400.12,332.94"];
	69	[height=0.5,
		pos="1251.4,180.04",
		width=0.75];
	68 -- 69	[pos="973.02,112.24 1030.2,126.17 1168.5,159.86 1225.9,173.82"];
	69 -- 70	[pos="1258.7,197.37 1280.1,248.08 1342.5,395.7 1364,446.57"];
	73	[height=0.5,
		pos="885.61,134.37",
		width=0.75];
	72 -- 73	[pos="685.21,128.42 728.85,129.72 814.47,132.26 858.32,133.56"];
	73 -- 74	[pos="880,152.01 866.15,195.51 830.49,307.53 816.58,351.24"];
	77 -- 78	[pos="521.49,246.4 546.77,247.7 584.3,249.63 609.54,250.93"];
	80 -- 81	[pos="279.94,989.27 359.91,1003 599.69,1044.2 679.75,1057.9"];
	91	[height=0.5,
		pos="1681.4,415.19",
		width=0.75];
	90 -- 91	[pos="1298.3,255.35 1369.7,285.14 1587,375.81 1658.4,405.6"];
	91 -- 92	[pos="1675.6,432.85 1662.6,472.65 1631.2,568.96 1618.2,608.85"];
	95	[height=0.5,
		pos="1728.5,371.15",
		width=0.75];
	94 -- 95	[pos="1366.2,277.36 1436.6,295.57 1633.1,346.45 1703.2,364.61"];
	95 -- 96	[pos="1729.4,389.31 1731.7,436.74 1738,563.89 1740.4,611.29"];
	99	[height=0.5,
		pos="1806.3,762.35",
		width=0.75];
	98 -- 99	[pos="1687,798.94 1713.4,790.85 1755,778.11 1781.4,770"];
	99 -- 100	[pos="1779.7,759.47 1726.1,753.67 1606.2,740.67 1552.5,734.86"];
	102 -- 103	[pos="252.59,898.75 278.2,889.84 318.5,875.82 344.16,866.89"];
	108	[height=0.5,
		pos="1087.3,78.983",
		width=0.75];
	107 -- 108	[pos="1046,98.043 1052.1,95.203 1058.8,92.121 1065,89.279"];
	108 -- 109	[pos="1083.6,97.073 1076.4,133.13 1060.1,213.59 1052.8,249.61"];
	111 -- 112	[pos="1000.7,1219.1 1066.6,1193.8 1253.1,1122.3 1319.4,1096.9"];
	119	[height=0.5,
		pos="185.46,1164.5",
		width=0.75];
	118 -- 119	[pos="41.914,925.34 69.749,971.72 147.46,1101.2 175.34,1147.7"];
	119 -- 120	[pos="212.17,1160.6 261.86,1153.4 367.97,1137.9 417.56,1130.7"];
	123	[height=0.5,
		pos="951.76,62.025",
		width=0.75];
	122 -- 123	[pos="398.72,206.07 493.93,181.27 830.98,93.485 926.41,68.628"];
	123 -- 124	[pos="967.33,76.789 1009.4,116.74 1125.3,226.65 1167.7,266.86"];
	127	[height=0.5,
		pos="1251.2,1253.3",
		width=0.75];
	126 -- 127	[pos="325.64,1094.6 462.42,1118 1088.4,1225.4 1224.8,1248.8"];
	127 -- 128	[pos="1265.5,1237.7 1316.8,1181.8 1491,991.87 1542.2,936.02"];
	130 -- 131	[pos="1023.4,164.71 1109.9,217.88 1451,427.43 1537.5,480.57"];
	133 -- 134	[pos="840.52,172.04 901.29,224.1 1107.7,400.92 1168.4,452.93"];
	136 -- 137	[pos="356.76,358.93 420.03,385.53 595.64,459.36 658.62,485.85"];
	141 -- 142	[pos="258.21,389.52 310.74,376.25 430.66,345.95 483.14,332.69"];
	147	[height=0.5,
		pos="726.98,45.473",
		width=0.75];
	146 -- 147	[pos="373.59,290.19 437.47,245.95 644.22,102.78 708.04,58.588"];
	147 -- 148	[pos="745.57,58.701 788.29,89.088 893.01,163.59 935.66,193.93"];
	151	[height=0.5,
		pos="535.47,1237.5",
		width=0.75];
	150 -- 151	[pos="137.35,1007.6 208.43,1048.7 444.03,1184.7 515.04,1225.7"];
	151 -- 152	[pos="562.06,1233.9 663.59,1219.9 1026.3,1170 1127.6,1156"];
	156	[height=0.5,
		pos="889.01,1422.3",
		width=0.75];
	155 -- 156	[pos="1193.1,1334.4 1131.9,1352.1 975.13,1397.4 913.97,1415.1"];
	156 -- 157	[pos="871,1408.8 828.09,1376.6 720.25,1295.6 677.43,1263.4"];
	160 -- 161	[pos="296.31,922.78 307.25,852.78 346.97,598.52 357.93,528.4"];
	164	[height=0.5,
		pos="1817.9,887.09",
		width=0.75];
	163 -- 164	[pos="1720.7,1023 1741.5,993.83 1785,933.1 1806,903.72"];
	164 -- 165	[pos="1806,870.82 1790.9,849.96 1764.9,814.02 1749.7,793.13"];
	168	[height=0.5,
		pos="1847.3,718.29",
		width=0.75];
	167 -- 168	[pos="1751.7,897.83 1771.5,860.64 1818.3,772.78 1838.2,735.49"];
	168 -- 169	[pos="1821.1,713.93 1766.7,704.88 1641.8,684.11 1587.1,675.02"];
	174	[height=0.5,
		pos="609.26,1111.2",
		width=0.75];
	173 -- 174	[pos="1082.8,1298.3 999.36,1265.3 715.89,1153.3 632.51,1120.4"];
	174 -- 175	[pos="612.18,1093.3 622.3,1031.3 655.77,826.04 665.99,763.43"];
	181	[height=0.5,
		pos="134.28,796.04",
		width=0.75];
	180 -- 181	[pos="511.13,1172.5 448.39,1109.8 212.09,873.78 149.55,811.29"];
	181 -- 182	[pos="149.95,781.16 201.55,732.17 365.8,576.23 417.7,526.95"];
	190 -- 191	[pos="1431.7,349.58 1427.6,362.42 1422.1,379.68 1418,392.51"];
	195	[height=0.5,
		pos="1816.5,645.18",
		width=0.75];
	194 -- 195	[pos="1694.6,475.71 1720,511 1779.3,593.45 1804.7,628.71"];
	195 -- 196	[pos="1797,657.76 1764.3,678.87 1698.7,721.16 1666,742.29"];
	199	[height=0.5,
		pos="1830.1,564.36",
		width=0.75];
	198 -- 199	[pos="1624,399.02 1665.8,432.56 1770.9,516.87 1812.6,550.34"];
	199 -- 200	[pos="1821.4,581.43 1805,613.71 1769.5,683.33 1753,715.64"];
	202 -- 203	[pos="1561.9,446.25 1538.1,475.08 1487.8,535.85 1463.8,564.85"];
	206	[height=0.5,
		pos="269.74,1162.1",
		width=0.75];
	205 -- 206	[pos="691.12,1328.8 614.37,1298.4 369.86,1201.7 293.06,1171.3"];
	206 -- 207	[pos="281.13,1145.6 310.35,1103.2 387.73,991.03 416.83,948.84"];
	213 -- 214	[pos="747.57,106.85 729.78,145.77 686.71,239.96 668.87,278.97"];
	220 -- 221	[pos="1337.7,1178.5 1358.1,1108 1433.5,847.23 1454,776.27"];
	223 -- 224	[pos="194.14,952.68 209.52,892.52 259.28,697.82 274.64,637.72"];
	227	[height=0.5,
		pos="1548.6,1206.7",
		width=0.75];
	226 -- 227	[pos="1057.5,1407.7 1142.9,1372.8 1440.3,1251 1525.6,1216.1"];
	227 -- 228	[pos="1552.9,1188.6 1565.4,1135.6 1601.9,981.05 1614.3,928.36"];
	230 -- 231	[pos="1427.4,1268.7 1467,1212.8 1597.1,1029 1636.8,972.91"];
	240	[height=0.5,
		pos="85.907,748.47",
		width=0.75];
	239 -- 240	[pos="162.4,1100.3 148.83,1037.9 103.5,829.4 89.839,766.56"];
	240 -- 241	[pos="105.52,736.07 158.59,702.52 304.61,610.21 358.03,576.44"];
	244	[height=0.5,
		pos="1270.5,1209.2",
		width=0.75];
	243 -- 244	[pos="792.65,1387.4 877.27,1355.8 1162.4,1249.5 1246.8,1218.1"];
	244 -- 245	[pos="1265.5,1191.4 1243.2,1112.3 1153.6,794.89 1131.4,716.16"];
	251 -- 252	[pos="1749.3,529.92 1748.8,563.94 1747.7,636.58 1747.2,670.53"];
	255	[height=0.5,
		pos="992.26,1372.6",
		width=0.75];
	254 -- 255	[pos="1602.1,1055.7 1505.5,1105.9 1110.2,1311.3 1013.6,1361.5"];
	255 -- 256	[pos="976.91,1357.7 911.47,1294.3 656.11,1046.8 590.4,983.1"];
	258 -- 259	[pos="1131.8,196.92 1092.4,232.29 992.19,322.25 952.75,357.66"];
	261 -- 262	[pos="810.11,292.63 758.84,374.27 536.09,729.01 485.01,810.36"];
	271	[height=0.5,
		pos="1416.7,1186.2",
		width=0.75];
	270 -- 271	[pos="304.36,1032.5 458.23,1053.7 1235.9,1161.2 1390.1,1182.5"];
	271 -- 272	[pos="1424.6,1168.5 1450,1112.3 1528.4,938.48 1553.4,882.95"];
	275	[height=0.5,
		pos="1360.8,217.14",
		width=0.75];
	274 -- 275	[pos="961.43,28.426 1034.2,62.799 1265.9,172.3 1338.7,206.7"];
	275 -- 276	[pos="1374.9,232.53 1420.3,282.2 1562.9,438 1608.5,487.79"];
	280 -- 281	[pos="696.01,189.04 719.08,233.58 780.15,351.52 803.12,395.89"];
	285 -- 286	[pos="453.98,214.31 485.35,237.04 548.8,282.99 580.29,305.8"];
	289	[height=0.5,
		pos="175.1,1056.1",
		width=0.75];
	288 -- 289	[pos="34.143,707.46 59.22,769.49 143.07,976.89 168.03,1038.6"];
	289 -- 290	[pos="202.17,1054.1 280.7,1048.2 507.95,1031 586.25,1025.1"];
	300	[height=0.5,
		pos="1106,1358.1",
		width=0.75];
	299 -- 300	[pos="1552.2,1149.9 1473.2,1186.8 1206.9,1311 1128.2,1347.8"];
	300 -- 301	[pos="1085.3,1346.3 1014.2,1305.9 780.37,1173.2 709.05,1132.7"];
	305 -- 306	[pos="967.29,995.62 896.68,934.45 623.39,697.7 553.07,636.78"];
	309	[height=0.5,
		pos="1284.4,1297.3",
		width=0.75];
	308 -- 309	[pos="1639.9,1100.1 1574.3,1136.5 1371.8,1248.9 1305.6,1285.6"];
	309 -- 310	[pos="1260,1289.6 1213.2,1274.7 1111.1,1242.2 1064,1227.2"];
	318 -- 319	[pos="1458,1188 1369.6,1184 1090.2,1171.2 1001.9,1167.1"];
	321 -- 322	[pos="1183.3,221.09 1123.3,214.05 978.67,197.09 918.79,190.07"];
	327 -- 328	[pos="1482.8,381.63 1418.2,372.29 1253.7,348.53 1189,339.18"];
	330 -- 331	[pos="1687.4,970.91 1659.1,981.23 1612.5,998.29 1584.3,1008.6"];
	336 -- 337	[pos="1060.2,143.87 1004.3,155.82 872.16,184.04 816.1,196.02"];
	341 -- 342	[pos="1347,314.47 1294.4,313.87 1179.7,312.58 1127.2,311.98"];
	346	[height=0.5,
		pos="170.74,508.43",
		width=0.75];
	345 -- 346	[pos="76.888,846.24 93.853,785.18 148.76,587.54 165.71,526.53"];
	346 -- 347	[pos="196.3,502.38 256.57,488.12 407.1,452.49 467.38,438.23"];
	350 -- 351	[pos="809.29,1300.4 885.12,1275.2 1115.9,1198.5 1191.8,1173.3"];
	354	[height=0.5,
		pos="680.06,1382.1",
		width=0.75];
	353 -- 354	[pos="985.25,1280.2 924.33,1300.5 765.27,1353.6 704.32,1374"];
	354 -- 355	[pos="671.95,1364.6 648.18,1313.5 578.87,1164.3 555.24,1113.5"];
	357 -- 358	[pos="614.31,226.07 605.05,255.81 586.52,315.32 577.2,345.24"];
	361	[height=0.5,
		pos="863.56,1378.3",
		width=0.75];
	360 -- 361	[pos="945.35,1339.1 927.74,1347.5 903.15,1359.3 885.54,1367.7"];
	361 -- 362	[pos="863.48,1360.1 863.32,1322.7 862.96,1237.2 862.8,1199.8"];
	368 -- 369	[pos="148.71,866.11 201.8,812.24 381.83,629.53 435.45,575.11"];
	372	[height=0.5,
		pos="614.09,1377.3",
		width=0.75];
	371 -- 372	[pos="456.58,1276.9 490.63,1298.6 560.25,1343 594.37,1364.7"];
	372 -- 373	[pos="622.81,1360 647.4,1311.2 717.08,1172.9 741.58,1124.3"];
	376	[height=0.5,
		pos="1684.9,673.68",
		width=0.75];
	375 -- 376	[pos="1402.8,1223.6 1445.9,1139.6 1633.2,774.54 1676.1,690.83"];
	376 -- 377	[pos="1660.8,665.32 1568.6,633.42 1239.4,519.47 1147.4,487.62"];
	390 -- 391	[pos="1556.9,556.86 1546,611.48 1513.7,772.98 1502.8,827.48"];
}
