graph {
	graph [bb="0,0,660.78,692.83",
		outputorder=edgesfirst,
		overlap=prism,
		size="50,50!",
		start=114
	];
	node [label="\N"];
	0	[height=0.5,
		pos="424.04,18",
		width=0.75];
	1	[height=0.5,
		pos="355.82,85.203",
		width=0.75];
	0 -- 1	[pos="408.9,32.914 397.75,43.896 382.64,58.783 371.39,69.864"];
	10	[height=0.5,
		pos="497.47,92.023",
		width=0.75];
	0 -- 10	[pos="439.25,33.338 451.94,46.127 469.91,64.246 482.52,76.958"];
	2	[height=0.5,
		pos="247.97,125.46",
		width=0.75];
	1 -- 2	[pos="332.15,94.036 314.17,100.75 289.55,109.94 271.59,116.64"];
	11	[height=0.5,
		pos="449.97,154.4",
		width=0.75];
	1 -- 11	[pos="373.97,98.545 390.54,110.72 414.9,128.63 431.55,140.87"];
	13	[height=0.5,
		pos="484.65,199.29",
		width=0.75];
	10 -- 13	[pos="495.29,110.22 492.94,129.94 489.19,161.24 486.83,181"];
	10 -- 11	[pos="485.24,108.09 478.2,117.33 469.38,128.91 462.33,138.18"];
	3	[height=0.5,
		pos="233.88,262.21",
		width=0.75];
	2 -- 3	[pos="246.1,143.62 243.41,169.77 238.46,217.78 235.76,243.98"];
	37	[height=0.5,
		pos="135.94,170.14",
		width=0.75];
	2 -- 37	[pos="224.76,134.71 205.53,142.38 178.35,153.23 159.13,160.9"];
	16	[height=0.5,
		pos="363.87,168.66",
		width=0.75];
	13 -- 16	[pos="459.33,192.86 438.72,187.64 409.76,180.29 389.16,175.07"];
	14	[height=0.5,
		pos="517.39,325.49",
		width=0.75];
	13 -- 14	[pos="489.27,217.1 495.47,241.02 506.44,283.28 512.69,307.36"];
	4	[height=0.5,
		pos="273.49,384.58",
		width=0.75];
	3 -- 4	[pos="239.64,280.01 247.15,303.21 260.21,343.56 267.73,366.77"];
	24	[height=0.5,
		pos="154.42,279.24",
		width=0.75];
	3 -- 24	[pos="207.86,267.79 198.99,269.69 189.08,271.81 180.22,273.71"];
	20	[height=0.5,
		pos="227.41,169.46",
		width=0.75];
	16 -- 20	[pos="336.58,168.82 312.78,168.96 278.44,169.16 254.65,169.3"];
	17	[height=0.5,
		pos="390.55,244.58",
		width=0.75];
	16 -- 17	[pos="370.06,186.27 374.34,198.44 380.01,214.59 384.3,226.8"];
	5	[height=0.5,
		pos="317.07,474.52",
		width=0.75];
	4 -- 5	[pos="281.9,401.92 289.61,417.85 300.99,441.32 308.7,457.23"];
	31	[height=0.5,
		pos="243.33,473.14",
		width=0.75];
	4 -- 31	[pos="267.39,402.5 262.12,417.97 254.55,440.18 249.32,455.55"];
	23	[height=0.5,
		pos="94.102,235.09",
		width=0.75];
	20 -- 23	[pos="205.4,180.3 180.7,192.46 140.86,212.07 116.15,224.24"];
	21	[height=0.5,
		pos="286.06,218.18",
		width=0.75];
	20 -- 21	[pos="244.37,183.55 252.09,189.96 261.2,197.53 268.93,203.95"];
	6	[height=0.5,
		pos="451.48,511.67",
		width=0.75];
	5 -- 6	[pos="342.04,481.42 366.03,488.05 402.09,498.02 426.19,504.68"];
	40	[height=0.5,
		pos="229.55,550.32",
		width=0.75];
	5 -- 40	[pos="300.2,489.13 284.6,502.64 261.56,522.59 246.08,536.01"];
	26	[height=0.5,
		pos="27,356.2",
		width=0.75];
	23 -- 26	[pos="84.63,252.18 71.842,275.27 49.188,316.15 36.424,339.19"];
	23 -- 24	[pos="112.53,248.58 120.01,254.05 128.63,260.37 136.11,265.84"];
	7	[height=0.5,
		pos="541.65,497.31",
		width=0.75];
	6 -- 7	[pos="478.04,507.44 489.79,505.57 503.55,503.38 515.27,501.51"];
	32	[height=0.5,
		pos="329.6,518.52",
		width=0.75];
	6 -- 32	[pos="424.43,513.19 404.23,514.33 376.75,515.87 356.58,517.01"];
	28	[height=0.5,
		pos="43.087,479.84",
		width=0.75];
	26 -- 28	[pos="29.339,374.17 32.389,397.62 37.694,438.38 40.745,461.84"];
	27	[height=0.5,
		pos="119.25,446.09",
		width=0.75];
	26 -- 27	[pos="42.649,371.45 59.715,388.08 86.857,414.53 103.83,431.07"];
	8	[height=0.5,
		pos="585.42,395.35",
		width=0.75];
	7 -- 8	[pos="549.28,479.55 557.31,460.83 569.88,431.54 577.88,412.9"];
	42	[height=0.5,
		pos="490.17,586.39",
		width=0.75];
	7 -- 42	[pos="531.73,514.49 522.55,530.36 509,553.81 499.89,569.57"];
	30	[height=0.5,
		pos="75.848,402.05",
		width=0.75];
	28 -- 30	[pos="50.521,462.19 55.882,449.46 63.089,432.35 68.444,419.63"];
	29	[height=0.5,
		pos="151.72,552.17",
		width=0.75];
	28 -- 29	[pos="62.259,492.6 81.994,505.74 112.58,526.11 132.38,539.29"];
	9	[height=0.5,
		pos="633.78,301.02",
		width=0.75];
	8 -- 9	[pos="594.29,378.05 603.01,361.03 616.26,335.2 624.96,318.21"];
	8 -- 14	[pos="570.66,380.19 559.25,368.47 543.53,352.33 532.12,340.62"];
	35	[height=0.5,
		pos="64.416,297.68",
		width=0.75];
	30 -- 35	[pos="73.857,383.87 71.759,364.71 68.474,334.73 66.384,315.65"];
	30 -- 31	[pos="98.784,411.79 130.77,425.36 188.42,449.84 220.4,463.41"];
	12	[height=0.5,
		pos="566.5,199.56",
		width=0.75];
	9 -- 12	[pos="622.67,284.27 610.2,265.47 590.1,235.15 577.63,216.34"];
	36	[height=0.5,
		pos="166.94,214.18",
		width=0.75];
	35 -- 36	[pos="81.807,283.51 100.77,268.07 130.94,243.5 149.8,228.14"];
	11 -- 17	[pos="439.07,170.94 428.42,187.11 412.28,211.6 401.58,227.84"];
	11 -- 12	[pos="473.55,163.54 493.77,171.38 522.75,182.6 542.96,190.43"];
	17 -- 21	[pos="365.25,238.19 348.94,234.07 327.81,228.73 311.48,224.61"];
	18	[height=0.5,
		pos="429.72,367.98",
		width=0.75];
	17 -- 18	[pos="396.16,262.26 403.61,285.72 416.68,326.89 424.12,350.33"];
	21 -- 36	[pos="259.03,217.28 239.67,216.62 213.7,215.75 194.27,215.1"];
	22	[height=0.5,
		pos="308.58,303.65",
		width=0.75];
	21 -- 22	[pos="290.83,236.31 294.68,250.91 300.06,271.33 303.89,285.84"];
	15	[height=0.5,
		pos="536.93,269.88",
		width=0.75];
	12 -- 15	[pos="559.19,216.94 554.68,227.68 548.9,241.42 544.36,252.21"];
	36 -- 37	[pos="155.4,197.78 152.85,194.16 150.15,190.33 147.6,186.7"];
	14 -- 15	[pos="523.58,307.9 525.86,301.41 528.44,294.05 530.72,287.55"];
	14 -- 18	[pos="495.27,336.21 481.98,342.66 465.13,350.82 451.84,357.26"];
	19	[height=0.5,
		pos="425.36,309.6",
		width=0.75];
	15 -- 19	[pos="513,278.4 494.17,285.1 468.07,294.4 449.25,301.09"];
	38	[height=0.5,
		pos="126.47,330.96",
		width=0.75];
	37 -- 38	[pos="134.88,188.28 133.06,219.16 129.38,281.63 127.55,312.64"];
	24 -- 38	[pos="145.11,296.46 142.06,302.1 138.68,308.37 135.64,313.99"];
	25	[height=0.5,
		pos="200.57,355.76",
		width=0.75];
	24 -- 25	[pos="164.66,296.22 172.31,308.9 182.72,326.16 190.36,338.83"];
	18 -- 19	[pos="428.37,349.83 427.85,342.87 427.25,334.92 426.73,327.94"];
	33	[height=0.5,
		pos="389.44,474.21",
		width=0.75];
	18 -- 33	[pos="423.07,385.52 415.61,405.21 403.57,436.95 396.1,456.65"];
	19 -- 22	[pos="398.27,308.22 379.41,307.26 354.35,305.98 335.52,305.02"];
	39	[height=0.5,
		pos="181.28,478.95",
		width=0.75];
	38 -- 39	[pos="132.97,348.52 143.52,377 164.24,432.95 174.78,461.42"];
	31 -- 39	[pos="216.29,475.67 213.55,475.93 210.76,476.19 208.02,476.45"];
	31 -- 32	[pos="264.65,484.36 277.93,491.34 294.94,500.29 308.22,507.28"];
	22 -- 25	[pos="286.46,314.32 267.83,323.31 241.29,336.12 222.66,345.1"];
	39 -- 40	[pos="192.47,495.51 200.27,507.04 210.63,522.35 218.42,533.86"];
	25 -- 27	[pos="186.41,371.5 171.48,388.08 148.12,414.03 133.25,430.54"];
	41	[height=0.5,
		pos="363.48,604.92",
		width=0.75];
	40 -- 41	[pos="252.88,559.83 277.46,569.85 315.94,585.54 340.42,595.52"];
	32 -- 41	[pos="336.46,536.01 342.34,550.99 350.76,572.48 356.64,587.46"];
	32 -- 33	[pos="347.88,504.99 355.31,499.49 363.86,493.15 371.27,487.67"];
	27 -- 29	[pos="124.76,464.09 130.77,483.71 140.32,514.92 146.3,534.44"];
	41 -- 42	[pos="390.04,601.03 411.66,597.87 442.03,593.43 463.65,590.27"];
	34	[height=0.5,
		pos="291.58,585",
		width=0.75];
	29 -- 34	[pos="177.37,558.2 202.61,564.12 240.91,573.11 266.09,579.02"];
	43	[height=0.5,
		pos="428.16,595.49",
		width=0.75];
	42 -- 43	[pos="463.51,590.3 460.62,590.73 457.68,591.16 454.79,591.58"];
	33 -- 34	[pos="375.42,490.09 356.82,511.15 324.17,548.11 305.58,569.16"];
	33 -- 43	[pos="395.07,491.85 402.41,514.84 415.18,554.83 422.52,577.84"];
	44	[height=0.5,
		pos="345.86,674.83",
		width=0.75];
	34 -- 44	[pos="301.79,601.89 311.49,617.95 326,641.97 335.69,658.01"];
	43 -- 44	[pos="412.68,610.42 397.97,624.6 375.96,645.81 361.27,659.97"];
}
