graph {
	graph [bb="0,0,1420.8,1193.4",
		outputorder=edgesfirst,
		overlap=prism,
		size="50,50!",
		start=2371
	];
	node [label="\N"];
	0	[height=0.5,
		pos="675.87,803.86",
		width=0.75];
	50	[height=0.5,
		pos="438.01,756.89",
		width=0.75];
	0 -- 50	[pos="649.96,798.74 604.33,789.73 510.11,771.13 464.25,762.07"];
	81	[height=0.5,
		pos="723.04,997.25",
		width=0.75];
	0 -- 81	[pos="680.22,821.71 689.21,858.55 709.72,942.64 718.69,979.44"];
	85	[height=0.5,
		pos="787.01,987.24",
		width=0.75];
	0 -- 85	[pos="686.13,820.78 707.3,855.72 755.63,935.46 776.78,970.36"];
	88	[height=0.5,
		pos="849.14,985.83",
		width=0.75];
	0 -- 88	[pos="690.35,819.06 722.96,853.31 801.9,936.21 834.59,970.54"];
	104	[height=0.5,
		pos="530.28,841.15",
		width=0.75];
	0 -- 104	[pos="650.51,810.35 623.95,817.16 582.47,827.78 555.84,834.6"];
	108	[height=0.5,
		pos="899.8,902.62",
		width=0.75];
	0 -- 108	[pos="698.57,813.87 741.49,832.8 834.07,873.63 877.03,892.58"];
	112	[height=0.5,
		pos="543.66,902.4",
		width=0.75];
	0 -- 112	[pos="657.77,817.35 632.59,836.12 587.26,869.9 561.97,888.75"];
	114	[height=0.5,
		pos="412.02,800.89",
		width=0.75];
	0 -- 114	[pos="648.63,803.55 597.94,802.98 489.7,801.77 439.12,801.2"];
	119	[height=0.5,
		pos="693.35,729.8",
		width=0.75];
	0 -- 119	[pos="680.1,785.93 682.83,774.37 686.36,759.4 689.09,747.82"];
	128	[height=0.5,
		pos="508.91,946.43",
		width=0.75];
	0 -- 128	[pos="659.25,818.05 627.41,845.24 558.13,904.4 525.96,931.87"];
	129	[height=0.5,
		pos="413.97,613.99",
		width=0.75];
	0 -- 129	[pos="657.45,790.51 609.37,755.65 480.43,662.17 432.37,627.33"];
	135	[height=0.5,
		pos="640.57,632.04",
		width=0.75];
	0 -- 135	[pos="672.16,785.8 665.38,752.8 651.06,683.13 644.28,650.12"];
	150	[height=0.5,
		pos="742.22,796.43",
		width=0.75];
	0 -- 150	[pos="702.86,800.84 707.02,800.37 711.32,799.89 715.47,799.43"];
	153	[height=0.5,
		pos="592.26,586.64",
		width=0.75];
	0 -- 153	[pos="669.03,786.08 653.31,745.25 614.77,645.13 599.08,604.35"];
	188	[height=0.5,
		pos="733.19,1060.6",
		width=0.75];
	0 -- 188	[pos="679.9,821.91 690.43,869.04 718.64,995.42 729.16,1042.5"];
	190	[height=0.5,
		pos="652.6,1018.5",
		width=0.75];
	0 -- 190	[pos="673.89,822.16 669.49,862.7 658.97,959.72 654.58,1000.2"];
	204	[height=0.5,
		pos="856.62,792.49",
		width=0.75];
	0 -- 204	[pos="702.93,802.16 737.1,800.01 795.55,796.33 829.67,794.18"];
	245	[height=0.5,
		pos="527.63,550.96",
		width=0.75];
	0 -- 245	[pos="665.91,786.87 638.91,740.8 564.5,613.86 537.54,567.87"];
	246	[height=0.5,
		pos="475.89,889.01",
		width=0.75];
	0 -- 246	[pos="652.93,813.63 614.46,830.01 537.37,862.83 498.87,879.22"];
	1	[height=0.5,
		pos="780.41,700.36",
		width=0.75];
	51	[height=0.5,
		pos="668.71,587.03",
		width=0.75];
	1 -- 51	[pos="765.35,685.08 744.03,663.45 705.27,624.13 683.89,602.44"];
	62	[height=0.5,
		pos="771.48,558.64",
		width=0.75];
	1 -- 62	[pos="779.26,682.12 777.55,654.91 774.34,603.98 772.63,576.81"];
	72	[height=0.5,
		pos="1020.8,659.96",
		width=0.75];
	1 -- 72	[pos="806.59,695.96 852.71,688.21 947.92,672.2 994.27,664.41"];
	74	[height=0.5,
		pos="951.64,810.6",
		width=0.75];
	1 -- 74	[pos="800.05,713.01 833,734.21 899,776.71 931.96,797.93"];
	76	[height=0.5,
		pos="706.91,949.55",
		width=0.75];
	1 -- 76	[pos="775.13,718.28 761.56,764.26 725.66,885.99 712.15,931.79"];
	77	[height=0.5,
		pos="592.36,836.88",
		width=0.75];
	1 -- 77	[pos="762.04,713.7 726.09,739.8 646.82,797.34 610.81,823.49"];
	80	[height=0.5,
		pos="1063.8,703.99",
		width=0.75];
	1 -- 80	[pos="807.59,700.71 861.76,701.4 982.64,702.95 1036.7,703.65"];
	84	[height=0.5,
		pos="775.54,840.96",
		width=0.75];
	1 -- 84	[pos="779.78,718.45 778.85,745.45 777.1,795.98 776.17,822.93"];
	87	[height=0.5,
		pos="837.78,866.76",
		width=0.75];
	1 -- 87	[pos="786.55,718.17 797.59,750.19 820.67,817.14 831.68,849.08"];
	90	[height=0.5,
		pos="609.92,718.7",
		width=0.75];
	1 -- 90	[pos="753.4,703.27 721.47,706.7 668.67,712.38 636.81,715.81"];
	96	[height=0.5,
		pos="564.93,674.66",
		width=0.75];
	1 -- 96	[pos="753.56,697.16 712.15,692.22 633.19,682.8 591.78,677.86"];
	102	[height=0.5,
		pos="982.14,705.05",
		width=0.75];
	1 -- 102	[pos="807.62,700.99 846.22,701.89 916.49,703.52 955.04,704.42"];
	117	[height=0.5,
		pos="657.71,847.88",
		width=0.75];
	1 -- 117	[pos="767.28,716.15 743.79,744.39 694.81,803.28 671.12,831.76"];
	1 -- 119	[pos="756.16,708.56 744.08,712.65 729.53,717.57 717.47,721.65"];
	139	[height=0.5,
		pos="1003.2,756.99",
		width=0.75];
	1 -- 139	[pos="805.97,706.86 848.95,717.78 935.17,739.7 977.95,750.57"];
	1 -- 150	[pos="773.41,717.98 766.52,735.32 756.06,761.63 749.18,778.92"];
	151	[height=0.5,
		pos="771.36,943.22",
		width=0.75];
	1 -- 151	[pos="779.73,718.61 778.05,763.73 773.72,880.09 772.04,925.08"];
	164	[height=0.5,
		pos="652,542.62",
		width=0.75];
	1 -- 164	[pos="767.39,684.37 742.78,654.13 689.69,588.92 665.05,558.65"];
	167	[height=0.5,
		pos="965.85,579.17",
		width=0.75];
	1 -- 167	[pos="799.91,687.62 835.52,664.34 910.71,615.21 946.34,591.92"];
	173	[height=0.5,
		pos="613.83,762.85",
		width=0.75];
	1 -- 173	[pos="756.54,709.31 724.79,721.23 668.98,742.16 637.39,754.02"];
	177	[height=0.5,
		pos="896.73,635.69",
		width=0.75];
	1 -- 177	[pos="801.21,688.8 822.25,677.1 854.6,659.11 875.72,647.37"];
	178	[height=0.5,
		pos="773.38,468.57",
		width=0.75];
	1 -- 178	[pos="779.86,682.17 778.55,638.84 775.24,529.92 773.93,486.67"];
	181	[height=0.5,
		pos="730.77,606.75",
		width=0.75];
	1 -- 181	[pos="771.31,683.19 762.35,666.3 748.75,640.66 739.81,623.81"];
	191	[height=0.5,
		pos="910.19,858.5",
		width=0.75];
	1 -- 191	[pos="793.57,716.39 818.44,746.7 872.09,812.08 897,842.42"];
	200	[height=0.5,
		pos="775.77,897.13",
		width=0.75];
	1 -- 200	[pos="779.98,718.52 779.1,756 777.08,841.57 776.2,879.02"];
	223	[height=0.5,
		pos="551.7,762.74",
		width=0.75];
	1 -- 223	[pos="755.06,707.27 710.98,719.3 620.73,743.91 576.81,755.89"];
	226	[height=0.5,
		pos="837.78,920.65",
		width=0.75];
	1 -- 226	[pos="785.11,718.39 795.89,759.8 822.33,861.33 833.1,902.68"];
	227	[height=0.5,
		pos="958.77,641.48",
		width=0.75];
	1 -- 227	[pos="804.84,692.3 838.9,681.05 900.3,660.78 934.36,649.54"];
	232	[height=0.5,
		pos="918.67,749.76",
		width=0.75];
	1 -- 232	[pos="804.49,708.96 829.87,718.03 869.59,732.22 894.86,741.25"];
	235	[height=0.5,
		pos="542.22,718.69",
		width=0.75];
	1 -- 235	[pos="753.55,702.43 707.8,705.95 615.27,713.07 569.34,716.6"];
	242	[height=0.5,
		pos="901.72,547.63",
		width=0.75];
	1 -- 242	[pos="793.16,684.3 816.4,655.05 865.39,593.37 888.77,563.93"];
	249	[height=0.5,
		pos="713.72,891.89",
		width=0.75];
	1 -- 249	[pos="774.26,718.04 761.55,754.52 732.55,837.81 719.86,874.26"];
	2	[height=0.5,
		pos="461.45,365.49",
		width=0.75];
	52	[height=0.5,
		pos="650.74,285.04",
		width=0.75];
	2 -- 52	[pos="484.29,355.78 520.67,340.32 591.39,310.26 627.82,294.77"];
	61	[height=0.5,
		pos="588.7,322.56",
		width=0.75];
	2 -- 61	[pos="485.69,357.31 508.33,349.67 541.95,338.33 564.56,330.7"];
	63	[height=0.5,
		pos="272.49,526.51",
		width=0.75];
	2 -- 63	[pos="444.68,379.78 408.82,410.33 325.05,481.72 289.22,512.25"];
	93	[height=0.5,
		pos="327.28,309.19",
		width=0.75];
	2 -- 93	[pos="438.39,355.81 413.81,345.5 375.13,329.26 350.5,318.93"];
	103	[height=0.5,
		pos="586.6,264.57",
		width=0.75];
	2 -- 103	[pos="478.85,351.45 502.76,332.17 545.51,297.7 569.35,278.48"];
	118	[height=0.5,
		pos="453.5,237.72",
		width=0.75];
	2 -- 118	[pos="460.33,347.45 458.82,323.24 456.16,280.45 454.65,256.07"];
	122	[height=0.5,
		pos="215.76,377.98",
		width=0.75];
	2 -- 122	[pos="434.22,366.87 386.87,369.28 289.92,374.21 242.74,376.61"];
	144	[height=0.5,
		pos="319.71,358.07",
		width=0.75];
	2 -- 144	[pos="434.46,364.07 409.4,362.76 372.27,360.82 347.08,359.5"];
	152	[height=0.5,
		pos="389.4,312.17",
		width=0.75];
	2 -- 152	[pos="443.27,352.03 432.35,343.95 418.5,333.7 407.57,325.62"];
	2 -- 164	[pos="477.37,380.28 513.33,413.71 600.47,494.72 636.26,527.99"];
	179	[height=0.5,
		pos="213.32,422.14",
		width=0.75];
	2 -- 179	[pos="435.83,371.34 388.29,382.19 286.9,405.34 239.17,416.24"];
	193	[height=0.5,
		pos="433.37,438.47",
		width=0.75];
	2 -- 193	[pos="454.66,383.15 450.24,394.63 444.51,409.52 440.11,420.97"];
	208	[height=0.5,
		pos="203.81,500.14",
		width=0.75];
	2 -- 208	[pos="439.93,376.73 391.31,402.14 273.48,463.73 225.09,489.02"];
	3	[height=0.5,
		pos="682.68,498.61",
		width=0.75];
	53	[height=0.5,
		pos="910.41,445.45",
		width=0.75];
	3 -- 53	[pos="708.36,492.62 752.21,482.38 841.03,461.64 884.82,451.42"];
	54	[height=0.5,
		pos="460.55,527.23",
		width=0.75];
	3 -- 54	[pos="655.89,502.06 613.07,507.58 529.74,518.31 487.09,523.81"];
	3 -- 62	[pos="701.95,511.64 716.84,521.71 737.37,535.58 752.25,545.64"];
	73	[height=0.5,
		pos="497.86,410.1",
		width=0.75];
	3 -- 73	[pos="660.39,487.93 624.77,470.88 555.43,437.67 519.95,420.68"];
	78	[height=0.5,
		pos="854.83,591.64",
		width=0.75];
	3 -- 78	[pos="703.79,510.02 736.92,527.92 800.75,562.42 833.81,580.29"];
	98	[height=0.5,
		pos="544.81,463.15",
		width=0.75];
	3 -- 98	[pos="657.39,492.11 632.67,485.75 595.23,476.12 570.41,469.73"];
	99	[height=0.5,
		pos="830.35,370.53",
		width=0.75];
	3 -- 99	[pos="699.33,484.17 727.69,459.57 785.06,409.81 813.53,385.12"];
	101	[height=0.5,
		pos="585.54,372.6",
		width=0.75];
	3 -- 101	[pos="670.18,482.4 651.53,458.2 616.62,412.91 597.99,388.75"];
	105	[height=0.5,
		pos="476.02,594.99",
		width=0.75];
	3 -- 105	[pos="660.17,509.11 620.31,527.7 537.8,566.18 498.19,584.65"];
	3 -- 135	[pos="677.09,516.33 669.03,541.85 654.25,588.69 646.18,614.25"];
	137	[height=0.5,
		pos="399.02,483.22",
		width=0.75];
	3 -- 137	[pos="655.74,497.15 601.67,494.22 480.47,487.64 426.2,484.69"];
	3 -- 153	[pos="667.34,513.54 650.71,529.73 624.33,555.42 607.67,571.63"];
	155	[height=0.5,
		pos="751.88,400.04",
		width=0.75];
	3 -- 155	[pos="694.42,481.89 707.22,463.65 727.58,434.65 740.32,416.52"];
	166	[height=0.5,
		pos="608.04,444.67",
		width=0.75];
	3 -- 166	[pos="664.23,485.28 652.75,476.98 638.03,466.34 626.53,458.04"];
	171	[height=0.5,
		pos="523.51,361.27",
		width=0.75];
	3 -- 171	[pos="665.95,484.17 635.3,457.73 570.5,401.81 540.02,375.51"];
	217	[height=0.5,
		pos="943.16,401.32",
		width=0.75];
	3 -- 217	[pos="706.26,489.81 755.72,471.33 869.87,428.7 919.45,410.17"];
	243	[height=0.5,
		pos="943.42,503.62",
		width=0.75];
	3 -- 243	[pos="710.09,499.14 760.3,500.1 866.44,502.14 916.38,503.1"];
	4	[height=0.5,
		pos="589.86,507.21",
		width=0.75];
	4 -- 51	[pos="605.07,522.6 619.12,536.83 639.87,557.84 653.82,571.96"];
	55	[height=0.5,
		pos="450.05,668.83",
		width=0.75];
	4 -- 55	[pos="576.2,523 549.41,553.98 490.24,622.37 463.56,653.21"];
	68	[height=0.5,
		pos="337.39,402.15",
		width=0.75];
	4 -- 68	[pos="566.56,497.52 518.47,477.5 408.68,431.82 360.63,411.83"];
	89	[height=0.5,
		pos="843.26,465.27",
		width=0.75];
	4 -- 89	[pos="616.5,502.8 665.3,494.73 768.45,477.65 816.98,469.62"];
	4 -- 98	[pos="574.61,492.29 569.92,487.7 564.75,482.64 560.05,478.05"];
	141	[height=0.5,
		pos="688.88,410.58",
		width=0.75];
	4 -- 141	[pos="605.34,492.11 623.94,473.96 654.97,443.68 673.52,425.57"];
	154	[height=0.5,
		pos="294.75,614.55",
		width=0.75];
	4 -- 154	[pos="565.71,516 510.24,536.18 374.22,585.65 318.82,605.8"];
	156	[height=0.5,
		pos="708.37,670.77",
		width=0.75];
	4 -- 156	[pos="601.66,523.49 624.38,554.84 673.95,623.26 696.62,654.55"];
	4 -- 166	[pos="595.02,489.46 597.46,481.08 600.36,471.1 602.8,462.69"];
	170	[height=0.5,
		pos="814.16,421.23",
		width=0.75];
	4 -- 170	[pos="613.44,498.17 656.52,481.66 747.46,446.8 790.56,430.28"];
	174	[height=0.5,
		pos="353.73,658.59",
		width=0.75];
	4 -- 174	[pos="570.14,519.86 525.58,548.43 417.58,617.66 373.24,646.09"];
	176	[height=0.5,
		pos="399.44,358.23",
		width=0.75];
	4 -- 176	[pos="572.29,493.46 536.01,465.08 453.21,400.3 416.97,371.95"];
	4 -- 181	[pos="608.58,520.43 635.52,539.47 684.99,574.41 711.98,593.47"];
	182	[height=0.5,
		pos="270.37,482.41",
		width=0.75];
	4 -- 182	[pos="562.9,505.12 502.72,500.45 358.03,489.21 297.6,484.52"];
	189	[height=0.5,
		pos="538.03,630.66",
		width=0.75];
	4 -- 189	[pos="582.55,524.64 572.67,548.16 555.17,589.84 545.31,613.32"];
	4 -- 193	[pos="567.11,497.22 537.44,484.18 485.84,461.52 456.16,448.48"];
	195	[height=0.5,
		pos="682.51,454.6",
		width=0.75];
	4 -- 195	[pos="610.42,495.54 625.67,486.88 646.38,475.12 661.68,466.43"];
	231	[height=0.5,
		pos="298.35,570.54",
		width=0.75];
	4 -- 231	[pos="563.99,512.83 508.67,524.85 379.43,552.93 324.16,564.93"];
	241	[height=0.5,
		pos="839.41,509.33",
		width=0.75];
	4 -- 241	[pos="617.05,507.44 665.05,507.85 764.29,508.69 812.27,509.1"];
	5	[height=0.5,
		pos="1082.8,616.98",
		width=0.75];
	56	[height=0.5,
		pos="1073.4,924.11",
		width=0.75];
	5 -- 56	[pos="1082.2,635.27 1080.6,689.9 1075.6,851.41 1074,905.91"];
	65	[height=0.5,
		pos="1128.4,555.6",
		width=0.75];
	5 -- 65	[pos="1095,600.53 1101.6,591.73 1109.6,580.91 1116.1,572.09"];
	5 -- 72	[pos="1063.9,630.11 1056.2,635.44 1047.3,641.59 1039.6,646.91"];
	95	[height=0.5,
		pos="1194.2,841.48",
		width=0.75];
	5 -- 95	[pos="1091.4,634.22 1112.1,676.01 1164.9,782.33 1185.6,824.18"];
	113	[height=0.5,
		pos="1229.3,736.34",
		width=0.75];
	5 -- 113	[pos="1100.2,631.14 1128.4,654.11 1183.8,699.24 1211.9,722.2"];
	132	[height=0.5,
		pos="1240.1,789.12",
		width=0.75];
	5 -- 132	[pos="1097,632.56 1127,665.33 1196.2,741.06 1226,773.7"];
	157	[height=0.5,
		pos="1331.7,582.47",
		width=0.75];
	5 -- 157	[pos="1109.4,613.29 1157.4,606.64 1257.5,592.76 1305.3,586.13"];
	158	[height=0.5,
		pos="1070.2,836.04",
		width=0.75];
	5 -- 158	[pos="1081.7,635.28 1079.4,676.62 1073.6,776.81 1071.2,817.95"];
	165	[height=0.5,
		pos="1193,600.07",
		width=0.75];
	5 -- 165	[pos="1109.2,612.93 1126.5,610.27 1149.1,606.81 1166.4,604.15"];
	203	[height=0.5,
		pos="1207.2,688.87",
		width=0.75];
	5 -- 203	[pos="1103.3,628.85 1126.4,642.17 1163.6,663.66 1186.7,676.98"];
	5 -- 204	[pos="1065.1,630.75 1022.8,663.56 916.48,746.03 874.28,778.78"];
	219	[height=0.5,
		pos="1005.8,463.7",
		width=0.75];
	5 -- 219	[pos="1074.1,599.7 1059.3,570.26 1029.4,510.71 1014.5,481.15"];
	5 -- 227	[pos="1056.8,622.12 1035.6,626.3 1005.9,632.17 984.74,636.35"];
	5 -- 243	[pos="1065.4,602.85 1038.6,581.01 987.29,539.3 960.57,517.57"];
	248	[height=0.5,
		pos="1172.4,511.57",
		width=0.75];
	5 -- 248	[pos="1096.4,600.97 1113.4,581.05 1142.1,547.22 1159,527.39"];
	6	[height=0.5,
		pos="469.58,712.88",
		width=0.75];
	57	[height=0.5,
		pos="792.8,617.73",
		width=0.75];
	6 -- 57	[pos="494.41,705.57 554.57,687.86 707.64,642.8 767.89,625.07"];
	60	[height=0.5,
		pos="201.3,656.67",
		width=0.75];
	6 -- 60	[pos="443.37,707.39 391.95,696.62 278.41,672.83 227.22,662.1"];
	6 -- 63	[pos="453.79,697.94 416.79,662.96 324.88,576.05 288.09,541.26"];
	6 -- 104	[pos="477.77,730.18 489.35,754.66 510.41,799.16 522.03,823.71"];
	125	[height=0.5,
		pos="278.69,703.42",
		width=0.75];
	6 -- 125	[pos="442.64,711.55 406.36,709.75 342.17,706.57 305.81,704.77"];
	159	[height=0.5,
		pos="216.62,700.7",
		width=0.75];
	6 -- 159	[pos="442.51,711.58 393.95,709.24 292.58,704.36 243.88,702.01"];
	6 -- 173	[pos="493.73,721.25 520.35,730.47 562.95,745.23 589.61,754.46"];
	175	[height=0.5,
		pos="366.3,923.75",
		width=0.75];
	6 -- 175	[pos="461.13,730.14 441.71,769.78 394.11,866.97 374.72,906.56"];
	183	[height=0.5,
		pos="306.18,791.51",
		width=0.75];
	6 -- 183	[pos="447.54,723.49 416.27,738.53 359.36,765.92 328.13,780.95"];
	202	[height=0.5,
		pos="499.78,990.46",
		width=0.75];
	6 -- 202	[pos="471.56,731.09 477.03,781.39 492.31,921.81 497.79,972.18"];
	210	[height=0.5,
		pos="582.63,984.77",
		width=0.75];
	6 -- 210	[pos="476.82,730.3 497.19,779.29 554.82,917.9 575.3,967.14"];
	7	[height=0.5,
		pos="904.87,235.04",
		width=0.75];
	58	[height=0.5,
		pos="981.91,62.012",
		width=0.75];
	7 -- 58	[pos="912.68,217.5 927.48,184.25 959.46,112.43 974.19,79.345"];
	59	[height=0.5,
		pos="673.17,188.91",
		width=0.75];
	7 -- 59	[pos="878.74,229.84 834.12,220.96 743.76,202.97 699.2,194.09"];
	82	[height=0.5,
		pos="1221,307",
		width=0.75];
	7 -- 82	[pos="930.48,240.87 989.72,254.35 1135.7,287.58 1195.2,301.12"];
	7 -- 99	[pos="895.43,252.2 881.1,278.26 854,327.53 839.71,353.51"];
	133	[height=0.5,
		pos="1022.9,285.37",
		width=0.75];
	7 -- 133	[pos="927.62,244.75 948.39,253.6 978.93,266.62 999.79,275.52"];
	146	[height=0.5,
		pos="1073.1,90.176",
		width=0.75];
	7 -- 146	[pos="921.62,220.62 953.87,192.85 1024.2,132.26 1056.4,104.54"];
	147	[height=0.5,
		pos="931.38,106.05",
		width=0.75];
	7 -- 147	[pos="908.56,217.11 913.59,192.6 922.57,148.89 927.64,124.25"];
	160	[height=0.5,
		pos="1003.6,147",
		width=0.75];
	7 -- 160	[pos="921.17,220.5 939.46,204.19 968.95,177.88 987.25,161.56"];
	169	[height=0.5,
		pos="1197.8,262.97",
		width=0.75];
	7 -- 169	[pos="931.64,237.59 987.29,242.9 1114.9,255.06 1170.8,260.39"];
	198	[height=0.5,
		pos="1121.3,164.5",
		width=0.75];
	7 -- 198	[pos="929.27,227.09 970.94,213.5 1055.3,185.99 1096.9,172.43"];
	213	[height=0.5,
		pos="804.07,103.73",
		width=0.75];
	7 -- 213	[pos="892.51,218.94 873.16,193.74 835.94,145.24 816.53,119.96"];
	234	[height=0.5,
		pos="1073.7,352.47",
		width=0.75];
	7 -- 234	[pos="923.59,248.06 956.05,270.63 1022.4,316.79 1054.9,339.4"];
	239	[height=0.5,
		pos="869.25,80.229",
		width=0.75];
	7 -- 239	[pos="900.72,216.98 893.85,187.15 880.23,127.93 873.38,98.176"];
	8	[height=0.5,
		pos="712.78,276.95",
		width=0.75];
	8 -- 61	[pos="688.86,285.74 666.89,293.82 634.5,305.72 612.55,313.79"];
	115	[height=0.5,
		pos="708.88,65.659",
		width=0.75];
	8 -- 115	[pos="712.45,258.93 711.71,219.12 709.96,123.98 709.22,83.928"];
	8 -- 160	[pos="735.6,266.75 789.96,242.46 926.61,181.4 980.86,157.15"];
	161	[height=0.5,
		pos="515.14,105.68",
		width=0.75];
	8 -- 161	[pos="696.27,262.64 659.07,230.4 569.03,152.38 531.74,120.07"];
	162	[height=0.5,
		pos="1106.5,484.58",
		width=0.75];
	8 -- 162	[pos="734.23,288.26 802.9,324.48 1016.9,437.33 1085.2,473.39"];
	212	[height=0.5,
		pos="1068,396.52",
		width=0.75];
	8 -- 212	[pos="736.92,285.07 801.72,306.89 978.97,366.56 1043.8,388.39"];
	9	[height=0.5,
		pos="468.05,844.98",
		width=0.75];
	9 -- 55	[pos="466.19,826.79 462.73,792.95 455.35,720.68 451.9,686.92"];
	64	[height=0.5,
		pos="422.02,997.16",
		width=0.75];
	9 -- 64	[pos="462.68,862.74 453.86,891.9 436.39,949.64 427.5,979.04"];
	9 -- 105	[pos="468.64,826.6 470.12,780.26 473.98,659.07 475.45,613.06"];
	9 -- 117	[pos="495.23,845.4 531.28,845.95 594.56,846.92 630.59,847.47"];
	126	[height=0.5,
		pos="546.31,1077.4",
		width=0.75];
	9 -- 126	[pos="474.06,862.83 488.67,906.2 525.87,1016.7 540.39,1059.8"];
	163	[height=0.5,
		pos="259.98,747.43",
		width=0.75];
	9 -- 163	[pos="445.78,834.54 405.74,815.77 322.02,776.51 282.09,757.79"];
	9 -- 174	[pos="457.7,828.11 435.94,792.63 385.65,710.62 363.97,675.29"];
	197	[height=0.5,
		pos="670.93,1082.2",
		width=0.75];
	9 -- 197	[pos="481.68,860.92 518.64,904.13 620.48,1023.2 657.37,1066.3"];
	218	[height=0.5,
		pos="297.82,899.14",
		width=0.75];
	9 -- 218	[pos="443.66,852.74 411.39,863.01 354.83,881 322.44,891.3"];
	221	[height=0.5,
		pos="358.4,967.79",
		width=0.75];
	9 -- 221	[pos="454.16,860.54 433.19,884.03 393.64,928.33 372.52,951.98"];
	236	[height=0.5,
		pos="190.47,744.71",
		width=0.75];
	9 -- 236	[pos="443.9,836.26 391.27,817.25 266.76,772.27 214.36,753.34"];
	9 -- 249	[pos="494.34,850 541.63,859.03 640.47,877.9 687.62,886.91"];
	10	[height=0.5,
		pos="1074.5,440.56",
		width=0.75];
	10 -- 65	[pos="1082.7,458.04 1092.9,479.78 1110.2,516.69 1120.3,538.34"];
	10 -- 82	[pos="1090.5,426.02 1118.7,400.32 1176.9,347.21 1205.1,321.53"];
	10 -- 89	[pos="1047.6,443.45 1003,448.21 914.52,457.65 870.07,462.4"];
	91	[height=0.5,
		pos="1312.1,538.09",
		width=0.75];
	10 -- 91	[pos="1097.7,450.09 1143.2,468.74 1243.3,509.84 1288.8,528.52"];
	116	[height=0.5,
		pos="1181.1,351.04",
		width=0.75];
	10 -- 116	[pos="1091.7,426.18 1111.5,409.48 1144.2,382.08 1164,365.39"];
	121	[height=0.5,
		pos="1282.2,351.04",
		width=0.75];
	10 -- 121	[pos="1097.6,430.64 1137.6,413.39 1219.5,378.06 1259.4,360.87"];
	134	[height=0.5,
		pos="1225.2,395.06",
		width=0.75];
	10 -- 134	[pos="1099.4,433.05 1127.4,424.59 1172.6,410.94 1200.5,402.51"];
	10 -- 165	[pos="1086.5,456.74 1109.3,487.31 1158.2,553.25 1181,583.86"];
	168	[height=0.5,
		pos="1207,644.21",
		width=0.75];
	10 -- 168	[pos="1085.4,457.23 1110.3,495.51 1171.3,589.37 1196.2,627.6"];
	10 -- 169	[pos="1085.9,424.17 1109.4,390.34 1163,313.11 1186.5,279.32"];
	10 -- 170	[pos="1047.7,438.57 997.76,434.86 891.36,426.96 841.29,423.25"];
	192	[height=0.5,
		pos="1269.5,600.95",
		width=0.75];
	10 -- 192	[pos="1091.8,454.8 1128.8,485.23 1215.3,556.34 1252.3,586.75"];
	205	[height=0.5,
		pos="1250,555.86",
		width=0.75];
	10 -- 205	[pos="1094,453.34 1127.8,475.56 1197,521.06 1230.7,543.2"];
	10 -- 217	[pos="1049.8,433.18 1026.5,426.21 991.66,415.81 968.21,408.8"];
	11	[height=0.5,
		pos="389.41,267.55",
		width=0.75];
	66	[height=0.5,
		pos="202.79,260.1",
		width=0.75];
	11 -- 66	[pos="362.27,266.47 326.89,265.05 265.36,262.6 229.96,261.19"];
	83	[height=0.5,
		pos="577.11,220.56",
		width=0.75];
	11 -- 83	[pos="414.72,261.21 450.55,252.24 515.67,235.94 551.6,226.95"];
	11 -- 144	[pos="376.95,283.73 364.26,300.21 344.71,325.6 332.06,342.03"];
	145	[height=0.5,
		pos="452.56,92.283",
		width=0.75];
	11 -- 145	[pos="395.81,249.78 407.95,216.1 434.16,143.35 446.23,109.84"];
	11 -- 171	[pos="408.06,280.58 433.53,298.38 478.97,330.14 504.59,348.04"];
	196	[height=0.5,
		pos="151.3,456.01",
		width=0.75];
	11 -- 196	[pos="371.9,281.41 327.87,316.26 212.89,407.26 168.83,442.13"];
	12	[height=0.5,
		pos="396.19,149.31",
		width=0.75];
	67	[height=0.5,
		pos="399.14,193.7",
		width=0.75];
	12 -- 67	[pos="397.39,167.36 397.57,170.05 397.75,172.82 397.93,175.52"];
	71	[height=0.5,
		pos="195.16,308.42",
		width=0.75];
	12 -- 71	[pos="378.7,163.15 340.68,193.24 250.87,264.33 212.76,294.5"];
	12 -- 93	[pos="388.68,166.72 375.43,197.48 348.03,261.06 334.78,291.8"];
	142	[height=0.5,
		pos="389.36,50.815",
		width=0.75];
	12 -- 142	[pos="394.94,131.24 393.71,113.58 391.86,86.833 390.62,69.099"];
	12 -- 161	[pos="419.97,140.58 440.72,132.97 470.66,121.99 491.39,114.39"];
	172	[height=0.5,
		pos="523.19,61.611",
		width=0.75];
	12 -- 172	[pos="415.2,136.18 439.15,119.65 480.05,91.404 504.05,74.83"];
	229	[height=0.5,
		pos="257.68,315.72",
		width=0.75];
	12 -- 229	[pos="382.91,165.26 356.5,196.99 297.66,267.68 271.12,299.57"];
	13	[height=0.5,
		pos="515.6,268.66",
		width=0.75];
	13 -- 59	[pos="537.18,257.73 567.27,242.51 621.51,215.05 651.6,199.83"];
	13 -- 68	[pos="497.53,282.19 463.37,307.78 389.7,362.97 355.5,388.58"];
	13 -- 101	[pos="526.83,285.36 539.89,304.75 561.29,336.56 574.33,355.94"];
	120	[height=0.5,
		pos="610.51,176.54",
		width=0.75];
	13 -- 120	[pos="531.27,253.44 548.96,236.28 577.56,208.52 595.13,191.47"];
	13 -- 152	[pos="491.56,276.94 469.25,284.64 436.19,296.04 413.77,303.77"];
	13 -- 176	[pos="497.7,282.46 475.81,299.34 438.98,327.74 417.16,344.56"];
	187	[height=0.5,
		pos="304.05,208.98",
		width=0.75];
	13 -- 187	[pos="490.5,261.58 449.78,250.09 369.81,227.53 329.11,216.05"];
	14	[height=0.5,
		pos="1066.3,572.97",
		width=0.75];
	14 -- 53	[pos="1049,558.84 1019.1,534.32 957.79,484.2 927.77,459.65"];
	69	[height=0.5,
		pos="1163.1,395.73",
		width=0.75];
	14 -- 69	[pos="1075.6,555.98 1094.1,522.1 1135.4,446.51 1153.9,412.68"];
	127	[height=0.5,
		pos="1163.6,439.78",
		width=0.75];
	14 -- 127	[pos="1078.3,556.64 1096.9,531.07 1132.8,481.89 1151.6,456.24"];
	14 -- 177	[pos="1042.4,581.82 1010.1,593.78 952.81,614.95 920.55,626.88"];
	186	[height=0.5,
		pos="1132.2,834.35",
		width=0.75];
	14 -- 186	[pos="1070.9,590.94 1082.9,638.69 1115.6,768.36 1127.6,816.26"];
	201	[height=0.5,
		pos="1315.3,657.28",
		width=0.75];
	14 -- 201	[pos="1090.6,581.21 1138.2,597.32 1243.2,632.86 1290.8,649.01"];
	211	[height=0.5,
		pos="1178,783.48",
		width=0.75];
	14 -- 211	[pos="1075.5,590.2 1096.5,629.77 1147.9,726.79 1168.9,766.31"];
	233	[height=0.5,
		pos="1234.7,511.68",
		width=0.75];
	14 -- 233	[pos="1090.1,564.32 1122.1,552.67 1178.7,532.06 1210.8,520.38"];
	15	[height=0.5,
		pos="774.79,292.2",
		width=0.75];
	70	[height=0.5,
		pos="866,191.01",
		width=0.75];
	15 -- 70	[pos="789.04,276.39 806.17,257.38 834.75,225.67 851.85,206.71"];
	15 -- 83	[pos="750.94,283.56 712.95,269.79 639.09,243.02 601.04,229.23"];
	15 -- 103	[pos="748.22,288.3 712.36,283.03 648.82,273.71 613.03,268.45"];
	110	[height=0.5,
		pos="1084.9,262.97",
		width=0.75];
	15 -- 110	[pos="801.76,289.66 860.41,284.13 998.97,271.07 1057.8,265.53"];
	140	[height=0.5,
		pos="960.85,279.06",
		width=0.75];
	15 -- 140	[pos="801.84,290.29 837.12,287.8 898.47,283.47 933.76,280.97"];
	148	[height=0.5,
		pos="736.88,153.69",
		width=0.75];
	15 -- 148	[pos="769.91,274.38 762.63,247.78 749.01,198 741.74,171.45"];
	15 -- 178	[pos="774.64,310.41 774.37,344.3 773.79,416.65 773.52,450.46"];
	180	[height=0.5,
		pos="948.05,191.02",
		width=0.75];
	15 -- 180	[pos="795.34,280.2 828.69,260.72 894.19,222.47 927.52,203.01"];
	207	[height=0.5,
		pos="767.56,202.39",
		width=0.75];
	15 -- 207	[pos="773.32,274.03 772.07,258.44 770.27,236.11 769.02,220.54"];
	220	[height=0.5,
		pos="526.68,312.69",
		width=0.75];
	15 -- 220	[pos="747.76,294.43 700.04,298.37 601.37,306.52 553.67,310.46"];
	16	[height=0.5,
		pos="89.266,486.54",
		width=0.75];
	16 -- 60	[pos="100.21,503.17 121.63,535.69 168.86,607.4 190.31,639.98"];
	16 -- 71	[pos="99.229,469.79 119.41,435.84 164.93,359.28 185.15,325.26"];
	16 -- 179	[pos="110.59,475.47 133.31,463.68 169.08,445.11 191.86,433.29"];
	16 -- 182	[pos="116.38,485.92 150.62,485.14 209.18,483.81 243.37,483.03"];
	17	[height=0.5,
		pos="350.01,835.7",
		width=0.75];
	75	[height=0.5,
		pos="338.36,1011.8",
		width=0.75];
	17 -- 75	[pos="348.81,853.88 346.57,887.72 341.79,959.96 339.56,993.72"];
	17 -- 77	[pos="377.34,835.83 424.01,836.06 518.53,836.52 565.13,836.75"];
	86	[height=0.5,
		pos="128.12,762.95",
		width=0.75];
	17 -- 86	[pos="325.42,827.64 282.65,813.62 195.09,784.91 152.49,770.94"];
	17 -- 112	[pos="374.15,844.01 411.36,856.83 482.32,881.27 519.53,894.09"];
	130	[height=0.5,
		pos="145.81,700.71",
		width=0.75];
	17 -- 130	[pos="330.8,823 291.88,797.27 204.12,739.25 165.12,713.47"];
	17 -- 154	[pos="345.49,817.6 335.1,776.03 309.63,674.11 299.26,632.59"];
	17 -- 183	[pos="334.68,820.24 330.34,815.86 325.61,811.1 321.28,806.73"];
	194	[height=0.5,
		pos="223.34,922.61",
		width=0.75];
	17 -- 194	[pos="331.05,848.71 307.17,865.1 266.37,893.08 242.43,909.51"];
	17 -- 218	[pos="336.84,851.71 328.87,861.4 318.75,873.7 310.81,883.35"];
	225	[height=0.5,
		pos="287.5,953.49",
		width=0.75];
	17 -- 225	[pos="340.92,852.83 329.07,875.16 308.46,914 296.6,936.34"];
	247	[height=0.5,
		pos="398.03,1055.8",
		width=0.75];
	17 -- 247	[pos="353.94,853.72 362.97,895.1 385.1,996.56 394.12,1037.9"];
	18	[height=0.5,
		pos="608.63,1115",
		width=0.75];
	18 -- 75	[pos="585.12,1106 534.01,1086.5 413.25,1040.4 362.01,1020.8"];
	18 -- 76	[pos="618.6,1098.2 637.43,1066.5 678.06,998.12 696.92,966.37"];
	18 -- 175	[pos="591.2,1101.3 546.6,1066.1 428.68,972.99 383.89,937.64"];
	184	[height=0.5,
		pos="656.65,1175.4",
		width=0.75];
	18 -- 184	[pos="621.5,1131.2 628.39,1139.9 636.85,1150.5 643.75,1159.2"];
	222	[height=0.5,
		pos="725.59,1173.3",
		width=0.75];
	18 -- 222	[pos="630.36,1125.8 651.23,1136.2 682.62,1151.9 703.59,1162.3"];
	230	[height=0.5,
		pos="441.94,1142.3",
		width=0.75];
	18 -- 230	[pos="582.22,1119.3 551.01,1124.4 499.39,1132.9 468.23,1138"];
	18 -- 247	[pos="583.65,1108 543.12,1096.6 463.5,1074.2 422.99,1062.9"];
	19	[height=0.5,
		pos="972.22,880.46",
		width=0.75];
	19 -- 78	[pos="965.05,862.83 944.04,811.15 882.79,660.43 861.9,609.05"];
	79	[height=0.5,
		pos="933.14,1033.1",
		width=0.75];
	19 -- 79	[pos="967.66,898.27 960.17,927.52 945.34,985.43 937.79,1014.9"];
	19 -- 87	[pos="945.34,877.72 921.89,875.33 888.05,871.88 864.61,869.49"];
	109	[height=0.5,
		pos="1061.1,968.14",
		width=0.75];
	19 -- 109	[pos="987.69,895.74 1004,911.83 1029.5,937.02 1045.8,953.04"];
	124	[height=0.5,
		pos="816.3,1119.4",
		width=0.75];
	19 -- 124	[pos="961.25,897.26 932.63,941.12 855.86,1058.7 827.25,1102.6"];
	19 -- 156	[pos="954.5,866.38 906.43,828.18 773.99,722.92 726.02,684.79"];
	185	[height=0.5,
		pos="1135.7,922.84",
		width=0.75];
	19 -- 185	[pos="997.4,886.99 1028.1,894.96 1079.7,908.34 1110.4,916.3"];
	19 -- 211	[pos="994.63,869.9 1034.3,851.2 1116.5,812.47 1155.9,793.88"];
	20	[height=0.5,
		pos="935.93,947.12",
		width=0.75];
	20 -- 81	[pos="910.25,953.17 869.33,962.8 789.78,981.53 748.81,991.18"];
	106	[height=0.5,
		pos="891.08,1094.4",
		width=0.75];
	20 -- 106	[pos="930.52,964.89 921.9,993.2 905.14,1048.2 896.51,1076.6"];
	20 -- 186	[pos="956.56,935.26 994.25,913.61 1073.8,867.88 1111.5,846.22"];
	20 -- 189	[pos="918.58,933.32 853.06,881.21 621.14,696.76 555.47,644.53"];
	21	[height=0.5,
		pos="795.36,1031.3",
		width=0.75];
	21 -- 79	[pos="822.58,1031.6 846.73,1031.9 881.83,1032.4 905.97,1032.7"];
	21 -- 84	[pos="793.46,1013 789.67,976.64 781.22,895.48 777.44,859.15"];
	94	[height=0.5,
		pos="376.24,879.73",
		width=0.75];
	21 -- 94	[pos="771.62,1022.7 698.03,996.07 474.18,915.14 400.23,888.41"];
	21 -- 158	[pos="814.25,1017.8 864.57,982.09 1001.4,884.86 1051.5,849.3"];
	21 -- 190	[pos="768.51,1028.9 743.14,1026.6 705.3,1023.2 679.81,1020.9"];
	21 -- 200	[pos="792.72,1013.2 788.98,987.57 782.19,941.04 778.44,915.36"];
	22	[height=0.5,
		pos="1034.2,880.09",
		width=0.75];
	22 -- 85	[pos="1011.4,889.98 964.33,910.39 856.83,956.98 809.78,977.38"];
	92	[height=0.5,
		pos="1029.3,1035.1",
		width=0.75];
	22 -- 92	[pos="1033.7,898.17 1032.7,927.88 1030.8,986.7 1029.9,1016.6"];
	22 -- 95	[pos="1059.9,873.88 1089.8,866.68 1138.8,854.86 1168.6,847.67"];
	22 -- 168	[pos="1046.1,863.87 1077.7,820.78 1163.4,703.76 1195.1,660.53"];
	22 -- 191	[pos="1007.9,875.51 986.88,871.85 957.5,866.73 936.46,863.07"];
	23	[height=0.5,
		pos="232.66,608.98",
		width=0.75];
	23 -- 50	[pos="251.25,622.36 290.35,650.52 380.69,715.6 419.61,743.64"];
	23 -- 86	[pos="221.48,625.45 201.46,654.93 159.73,716.4 139.55,746.13"];
	23 -- 96	[pos="258.74,614.13 320.85,626.41 476.99,657.27 538.98,669.53"];
	23 -- 159	[pos="229.5,627.1 226.68,643.18 222.6,666.55 219.79,682.61"];
	23 -- 196	[pos="223.49,591.73 207.86,562.35 176.25,502.93 160.56,473.43"];
	23 -- 231	[pos="253.09,597.02 260.92,592.44 269.86,587.21 277.71,582.62"];
	24	[height=0.5,
		pos="870.09,1049.8",
		width=0.75];
	24 -- 56	[pos="889.96,1037.5 928.83,1013.5 1014.5,960.5 1053.5,936.44"];
	24 -- 92	[pos="897.1,1047.3 926.46,1044.6 973.1,1040.3 1002.4,1037.6"];
	24 -- 151	[pos="855.52,1034 836.75,1013.8 804.32,978.78 785.67,958.66"];
	24 -- 197	[pos="843.65,1054.1 805.45,1060.3 735.25,1071.7 697.17,1077.9"];
	24 -- 210	[pos="844.33,1043.9 789.76,1031.6 663.05,1003 608.44,990.61"];
	228	[height=0.5,
		pos="895.98,1139.4",
		width=0.75];
	24 -- 228	[pos="875.21,1067.5 879.74,1083.2 886.34,1106 890.87,1121.8"];
	25	[height=0.5,
		pos="1141.9,306.99",
		width=0.75];
	25 -- 52	[pos="1114.8,305.78 1028.9,301.94 763.51,290.08 677.76,286.24"];
	97	[height=0.5,
		pos="1290.4,262.66",
		width=0.75];
	25 -- 97	[pos="1166.7,299.57 1194.1,291.39 1238,278.3 1265.4,270.1"];
	25 -- 134	[pos="1156.4,322.33 1171.6,338.4 1195.3,363.49 1210.5,379.6"];
	25 -- 140	[pos="1115.6,302.93 1081.2,297.63 1021.5,288.42 987.2,283.13"];
	25 -- 198	[pos="1139.3,288.95 1135.3,261.69 1127.9,210.29 1123.9,182.85"];
	206	[height=0.5,
		pos="1325.8,306.73",
		width=0.75];
	25 -- 206	[pos="1169,306.95 1203.8,306.9 1263.7,306.82 1298.5,306.77"];
	237	[height=0.5,
		pos="1225.7,467.57",
		width=0.75];
	25 -- 237	[pos="1150.8,324.18 1167,355.08 1200.7,419.69 1216.8,450.51"];
	25 -- 248	[pos="1144.6,325.15 1150.4,363.97 1163.9,454.67 1169.7,493.46"];
	26	[height=0.5,
		pos="1067.2,792.02",
		width=0.75];
	26 -- 74	[pos="1040.7,796.28 1021.9,799.3 996.79,803.34 978.03,806.36"];
	100	[height=0.5,
		pos="989.74,1079.1",
		width=0.75];
	26 -- 100	[pos="1062.4,809.98 1048.4,861.54 1008.5,1009.6 994.58,1061.2"];
	26 -- 109	[pos="1066.6,810.2 1065.4,844.04 1062.9,916.29 1061.7,950.05"];
	26 -- 162	[pos="1069.5,773.7 1076.5,719.02 1097.2,557.35 1104.1,502.8"];
	199	[height=0.5,
		pos="1217.1,917.83",
		width=0.75];
	26 -- 199	[pos="1084.1,806.2 1112.9,830.37 1171.1,879.24 1200,903.5"];
	27	[height=0.5,
		pos="1144.9,654.9",
		width=0.75];
	27 -- 91	[pos="1163.7,641.73 1195.9,619.23 1261.2,573.67 1293.3,551.21"];
	27 -- 102	[pos="1120.2,662.52 1089.5,671.97 1037.5,687.99 1006.8,697.44"];
	27 -- 113	[pos="1160.4,669.84 1175.6,684.53 1198.7,706.84 1213.9,721.5"];
	27 -- 185	[pos="1144.3,672.9 1142.6,721.59 1138,855.56 1136.3,904.57"];
	27 -- 201	[pos="1171.9,655.28 1203.7,655.72 1256.2,656.45 1288.1,656.9"];
	27 -- 241	[pos="1122.9,644.43 1066.7,617.64 918.05,546.8 861.59,519.9"];
	28	[height=0.5,
		pos="807.61,1075.3",
		width=0.75];
	28 -- 106	[pos="833.57,1081.3 843.71,1083.6 855.32,1086.2 865.43,1088.6"];
	143	[height=0.5,
		pos="1123.5,992.53",
		width=0.75];
	28 -- 143	[pos="832.93,1068.7 892.07,1053.2 1038.8,1014.7 1098,999.2"];
	28 -- 188	[pos="781.58,1070.2 774.29,1068.7 766.37,1067.1 759.08,1065.7"];
	28 -- 202	[pos="782.42,1068.4 724.56,1052.4 582.68,1013.3 524.89,997.38"];
	224	[height=0.5,
		pos="484.06,1034.5",
		width=0.75];
	28 -- 224	[pos="780.86,1071.9 720,1064.3 571.74,1045.6 510.84,1037.9"];
	28 -- 226	[pos="811.13,1057.3 816.95,1027.5 828.48,968.31 834.28,938.58"];
	29	[height=0.5,
		pos="1046.5,528.61",
		width=0.75];
	29 -- 57	[pos="1022.1,537.16 973.65,554.19 865.47,592.2 817.05,609.21"];
	107	[height=0.5,
		pos="1393.8,613.38",
		width=0.75];
	29 -- 107	[pos="1072,534.84 1136.2,550.52 1303.9,591.45 1368.2,607.14"];
	29 -- 167	[pos="1026.5,541.11 1014,548.95 998,559.01 985.55,566.82"];
	29 -- 203	[pos="1061.6,543.69 1092.2,574.23 1161.3,643.11 1192,673.72"];
	29 -- 234	[pos="1049.3,510.43 1054.5,476.59 1065.7,404.33 1070.9,370.56"];
	29 -- 237	[pos="1070.6,520.38 1104.9,508.7 1167.4,487.43 1201.6,475.77"];
	240	[height=0.5,
		pos="1375.3,496.12",
		width=0.75];
	29 -- 240	[pos="1073.4,525.95 1135.2,519.85 1286.7,504.87 1348.5,498.77"];
	30	[height=0.5,
		pos="1126,701.17",
		width=0.75];
	30 -- 80	[pos="1098.9,702.4 1096.3,702.52 1093.6,702.64 1091,702.76"];
	30 -- 108	[pos="1109.7,715.66 1068.1,752.74 958.02,850.76 916.22,887.99"];
	138	[height=0.5,
		pos="1256.3,873.71",
		width=0.75];
	30 -- 138	[pos="1138.2,717.4 1163.1,750.29 1219.1,824.44 1244,857.4"];
	30 -- 199	[pos="1133.3,718.53 1150.3,759.1 1192.7,859.74 1209.8,900.39"];
	30 -- 205	[pos="1139.5,685.34 1163.3,657.39 1212.6,599.6 1236.5,571.67"];
	209	[height=0.5,
		pos="1302.2,800.71",
		width=0.75];
	30 -- 209	[pos="1146.9,712.98 1180.9,732.19 1247.8,769.97 1281.6,789.07"];
	30 -- 212	[pos="1122.5,683.03 1112.2,628.84 1081.7,468.63 1071.4,414.57"];
	31	[height=0.5,
		pos="1349.2,400.19",
		width=0.75];
	31 -- 97	[pos="1341.8,382.78 1330.5,356.46 1309.3,306.85 1297.9,280.37"];
	31 -- 110	[pos="1327.6,388.96 1277.9,363.17 1156.1,299.92 1106.5,274.16"];
	149	[height=0.5,
		pos="1389.1,291.17",
		width=0.75];
	31 -- 149	[pos="1355.6,382.68 1363,362.45 1375.1,329.37 1382.6,309.01"];
	31 -- 157	[pos="1347.5,418.34 1344.1,453.28 1336.8,529.52 1333.5,564.4"];
	31 -- 206	[pos="1344.7,382.17 1340.5,365.62 1334.4,341.23 1330.3,324.7"];
	31 -- 240	[pos="1354.1,418.24 1358.8,435.39 1365.7,461.04 1370.4,478.16"];
	32	[height=0.5,
		pos="868.28,146.98",
		width=0.75];
	32 -- 69	[pos="885.41,161.43 937.64,205.5 1094.5,337.85 1146.3,381.55"];
	111	[height=0.5,
		pos="1060.7,218.93",
		width=0.75];
	32 -- 111	[pos="891.88,155.8 928.82,169.61 999.89,196.18 1037,210.04"];
	32 -- 172	[pos="842.9,140.7 779.09,124.92 612.46,83.695 548.61,67.898"];
	32 -- 207	[pos="847.41,158.46 830.12,167.97 805.68,181.42 788.4,190.92"];
	33	[height=0.5,
		pos="288.36,659.37",
		width=0.75];
	33 -- 90	[pos="314.4,664.17 374.66,675.29 523.14,702.69 583.63,713.85"];
	33 -- 114	[pos="302.07,675.05 325.84,702.26 374.44,757.88 398.25,785.14"];
	33 -- 130	[pos="263.53,666.57 237.53,674.11 196.91,685.89 170.83,693.45"];
	33 -- 163	[pos="282.62,677.19 277.7,692.47 270.64,714.36 265.72,729.63"];
	33 -- 208	[pos="279.31,642.33 263.13,611.84 229.38,548.28 213.05,517.54"];
	33 -- 235	[pos="314.1,665.38 362.76,676.75 467.7,701.28 516.41,712.66"];
	34	[height=0.5,
		pos="577.96,132.53",
		width=0.75];
	34 -- 115	[pos="599.58,121.48 623.84,109.09 662.96,89.113 687.23,76.717"];
	34 -- 118	[pos="561.18,146.71 537.43,166.79 494.25,203.28 470.42,223.42"];
	123	[height=0.5,
		pos="518.49,176.53",
		width=0.75];
	34 -- 123	[pos="559.8,145.97 552.55,151.33 544.23,157.49 536.96,162.87"];
	34 -- 142	[pos="555.21,122.67 518.96,106.96 448.49,76.433 412.19,60.706"];
	34 -- 213	[pos="604.79,129.11 648.31,123.57 733.79,112.68 777.28,107.14"];
	214	[height=0.5,
		pos="740.2,109.68",
		width=0.75];
	34 -- 214	[pos="604.39,128.8 634.47,124.57 683.33,117.69 713.51,113.44"];
	35	[height=0.5,
		pos="836.81,326.49",
		width=0.75];
	35 -- 116	[pos="863.83,328.41 928.19,333 1090,344.54 1154.2,349.13"];
	35 -- 120	[pos="817.52,313.7 774.76,285.37 672.47,217.59 629.76,189.29"];
	35 -- 141	[pos="816.25,338.18 788.14,354.16 738.02,382.65 709.75,398.72"];
	35 -- 147	[pos="844.39,308.82 862.14,267.44 906.24,164.65 923.9,123.5"];
	35 -- 214	[pos="829.07,309.11 810.98,268.52 766.1,167.82 747.98,127.14"];
	238	[height=0.5,
		pos="1287.2,411.26",
		width=0.75];
	35 -- 238	[pos="862.97,331.41 942.57,346.39 1181.3,391.32 1260.9,406.32"];
	36	[height=0.5,
		pos="1189.8,157.94",
		width=0.75];
	36 -- 70	[pos="1163,160.68 1102.1,166.9 953.75,182.05 892.8,188.27"];
	36 -- 121	[pos="1198.2,175.42 1215.8,212.18 1256.4,297.13 1273.9,333.74"];
	36 -- 149	[pos="1208.9,170.72 1246.9,196.12 1331.6,252.71 1369.7,278.24"];
	36 -- 180	[pos="1163,161.61 1116.4,167.98 1021,181.04 974.59,187.39"];
	215	[height=0.5,
		pos="1038.9,18",
		width=0.75];
	36 -- 215	[pos="1174,143.23 1145.1,116.42 1084.1,59.907 1055,32.936"];
	37	[height=0.5,
		pos="144.77,353.69",
		width=0.75];
	37 -- 66	[pos="155.14,336.96 165.64,320.03 181.78,294 192.31,277.01"];
	37 -- 122	[pos="168.8,361.91 176.05,364.39 184,367.11 191.27,369.6"];
	37 -- 187	[pos="160.92,339.02 191.45,311.28 257.29,251.45 287.86,223.69"];
	216	[height=0.5,
		pos="27,480.49",
		width=0.75];
	37 -- 216	[pos="130.33,369.24 107.73,393.57 64.235,440.4 41.559,464.81"];
	38	[height=0.5,
		pos="647.59,366.57",
		width=0.75];
	38 -- 67	[pos="628.51,353.3 582.15,321.04 464.02,238.85 417.94,206.79"];
	38 -- 123	[pos="636.36,350.04 611.95,314.1 554.26,229.19 529.79,193.16"];
	38 -- 219	[pos="672.78,373.4 738.54,391.24 914.88,439.05 980.61,456.87"];
	244	[height=0.5,
		pos="650.74,232.93",
		width=0.75];
	38 -- 244	[pos="648.02,348.55 648.62,323.04 649.71,276.68 650.31,251.09"];
	38 -- 245	[pos="636.74,383.26 613.9,418.37 561.12,499.49 538.37,534.44"];
	39	[height=0.5,
		pos="504.3,1121.4",
		width=0.75];
	39 -- 64	[pos="493.37,1104.9 477.64,1081.1 448.76,1037.5 432.99,1013.7"];
	39 -- 124	[pos="531.44,1121.2 590.45,1120.8 729.84,1119.9 788.99,1119.5"];
	39 -- 184	[pos="528.44,1130 556.97,1140.1 604.15,1156.8 632.62,1166.9"];
	39 -- 221	[pos="489.78,1106.1 461.81,1076.7 400.79,1012.4 372.87,983.02"];
	39 -- 225	[pos="486.56,1107.7 445.8,1076.1 345.88,998.7 305.19,967.18"];
	40	[height=0.5,
		pos="391.7,712.84",
		width=0.75];
	40 -- 54	[pos="398.3,695.05 411.46,659.57 440.82,580.4 453.96,544.97"];
	40 -- 125	[pos="364.63,710.59 346.74,709.1 323.39,707.15 305.54,705.66"];
	131	[height=0.5,
		pos="252.33,846.67",
		width=0.75];
	40 -- 131	[pos="376.26,727.68 349.47,753.4 294.69,806 267.85,831.77"];
	136	[height=0.5,
		pos="136.19,542.69",
		width=0.75];
	40 -- 136	[pos="372.5,700.06 325.15,668.52 203.2,587.31 155.62,555.62"];
	40 -- 223	[pos="416.35,720.53 446.42,729.91 496.94,745.66 527.02,755.04"];
	40 -- 224	[pos="396.8,730.6 412.95,786.83 462.85,960.64 478.98,1016.8"];
	40 -- 246	[pos="399.93,730.06 416.02,763.73 451.51,837.99 467.63,871.72"];
	41	[height=0.5,
		pos="789.03,1163.4",
		width=0.75];
	41 -- 100	[pos="812.05,1153.7 850.67,1137.5 928.04,1105 966.67,1088.8"];
	41 -- 126	[pos="764.87,1154.8 718.35,1138.3 616.82,1102.4 570.37,1085.9"];
	41 -- 222	[pos="762.5,1167.5 759.1,1168.1 755.62,1168.6 752.23,1169.1"];
	41 -- 228	[pos="814.65,1157.7 831.46,1153.9 853.36,1149 870.2,1145.2"];
	42	[height=0.5,
		pos="275.36,438.38",
		width=0.75];
	42 -- 73	[pos="302.2,434.97 345.08,429.52 428.55,418.91 471.28,413.48"];
	42 -- 129	[pos="288.15,454.58 314.56,488.04 374.83,564.4 401.21,597.82"];
	42 -- 136	[pos="257.17,452.01 230.49,472 181.06,509.05 154.39,529.05"];
	42 -- 220	[pos="297.22,427.44 344.87,403.61 457.61,347.23 505.05,323.51"];
	42 -- 229	[pos="272.75,420.28 269.41,397.09 263.65,357.12 260.3,333.89"];
	43	[height=0.5,
		pos="276.08,1003.2",
		width=0.75];
	43 -- 128	[pos="301.44,997 346.11,986.12 438.33,963.64 483.22,952.69"];
	43 -- 131	[pos="273.36,985.23 268.8,955.2 259.68,895.11 255.1,864.9"];
	43 -- 194	[pos="265.15,986.49 256.1,972.66 243.3,953.11 234.25,939.28"];
	43 -- 230	[pos="292.9,1017.3 324.69,1043.9 393.26,1101.4 425.08,1128.1"];
	44	[height=0.5,
		pos="1069.4,748",
		width=0.75];
	44 -- 88	[pos="1055,763.6 1015,806.8 903.09,927.58 863.36,970.47"];
	44 -- 132	[pos="1095,754.15 1127.2,761.93 1182.4,775.22 1214.6,782.99"];
	44 -- 138	[pos="1088.7,760.98 1124.6,785.13 1201.3,836.7 1237.1,860.8"];
	44 -- 139	[pos="1042.9,751.6 1038.6,752.19 1034.1,752.8 1029.8,753.38"];
	44 -- 192	[pos="1087.9,734.43 1126,706.41 1213,642.47 1251.1,614.49"];
	44 -- 232	[pos="1042.1,748.32 1014.8,748.64 973.01,749.12 945.77,749.44"];
	45	[height=0.5,
		pos="1005.9,361.79",
		width=0.75];
	45 -- 111	[pos="1012.6,344.28 1023.2,316.86 1043.4,264.1 1054,236.59"];
	45 -- 133	[pos="1009.9,343.68 1012.6,331.5 1016.2,315.51 1018.9,303.35"];
	45 -- 195	[pos="981.08,368.92 920.88,386.2 767.72,430.15 707.43,447.45"];
	45 -- 233	[pos="1025.4,374.57 1068.6,402.89 1172,470.64 1215.2,498.93"];
	45 -- 242	[pos="996.3,378.94 976.45,414.35 931.14,495.16 911.31,530.52"];
	46	[height=0.5,
		pos="169.22,591.84",
		width=0.75];
	46 -- 94	[pos="180.95,608.15 217.3,658.7 327.86,812.46 364.39,863.25"];
	46 -- 137	[pos="191.26,581.43 235.07,560.72 332.68,514.58 376.72,493.76"];
	46 -- 216	[pos="151.5,577.97 124.24,556.63 72.336,515.98 44.948,494.54"];
	46 -- 236	[pos="171.74,609.98 175.83,639.4 183.86,697.19 187.95,726.6"];
	47	[height=0.5,
		pos="1347.6,710.28",
		width=0.75];
	47 -- 107	[pos="1355.8,692.96 1364.2,675.32 1377.2,648.14 1385.6,630.56"];
	47 -- 143	[pos="1334.9,726.27 1295.5,775.83 1175.8,926.58 1136.3,976.38"];
	47 -- 209	[pos="1338.8,727.72 1330.7,743.84 1318.8,767.64 1310.8,783.64"];
	47 -- 238	[pos="1343.9,692.03 1333.1,638.52 1301.6,482.48 1290.8,429.28"];
	48	[height=0.5,
		pos="743.12,21.415",
		width=0.75];
	48 -- 58	[pos="769.59,25.914 815.61,33.739 909.84,49.759 955.68,57.554"];
	48 -- 145	[pos="717.59,27.642 662.48,41.084 532.9,72.688 477.93,86.095"];
	48 -- 148	[pos="742.27,39.529 741.08,64.718 738.94,110.07 737.75,135.37"];
	48 -- 215	[pos="770.16,21.103 826.35,20.454 955.22,18.966 1011.6,18.315"];
	48 -- 239	[pos="765.38,31.794 788.3,42.479 823.81,59.036 846.79,69.755"];
	49	[height=0.5,
		pos="898.84,283.2",
		width=0.75];
	49 -- 127	[pos="919.18,295.23 968.46,324.37 1093.8,398.52 1143.2,427.71"];
	49 -- 146	[pos="912.81,267.73 945.44,231.59 1026.4,141.93 1059.1,105.72"];
	49 -- 155	[pos="881.41,297.06 853.12,319.55 797.56,363.72 769.29,386.2"];
	49 -- 244	[pos="872.76,277.92 825.11,268.26 724.51,247.88 676.85,238.22"];
}
