graph {
	graph [bb="0,0,1198.2,847.92",
		outputorder=edgesfirst,
		overlap=prism,
		size="50,50!",
		start=2232
	];
	node [label="\N"];
	0	[height=0.5,
		pos="876.88,801.4",
		width=0.75];
	1	[height=0.5,
		pos="988.51,718.01",
		width=0.75];
	0 -- 1	[pos="895.31,787.63 916.12,772.08 949.75,746.96 970.42,731.52"];
	20	[height=0.5,
		pos="739.86,822.24",
		width=0.75];
	0 -- 20	[pos="850.46,805.41 826.2,809.1 790.43,814.54 766.19,818.23"];
	2	[height=0.5,
		pos="1054,640.59",
		width=0.75];
	1 -- 2	[pos="1002.1,701.97 1013.4,688.59 1029.4,669.64 1040.7,656.35"];
	59	[height=0.5,
		pos="991.94,598.87",
		width=0.75];
	1 -- 59	[pos="989.03,699.91 989.68,677.52 990.77,639.6 991.41,617.13"];
	26	[height=0.5,
		pos="655.94,776.77",
		width=0.75];
	20 -- 26	[pos="718.68,810.76 705.96,803.87 689.83,795.13 677.11,788.24"];
	21	[height=0.5,
		pos="658.52,722.9",
		width=0.75];
	20 -- 21	[pos="726.79,806.28 711.61,787.74 686.72,757.34 671.56,738.82"];
	3	[height=0.5,
		pos="1058.4,574.8",
		width=0.75];
	2 -- 3	[pos="1055.2,622.27 1055.8,613.14 1056.6,602.14 1057.2,593.03"];
	42	[height=0.5,
		pos="925.21,620.76",
		width=0.75];
	2 -- 42	[pos="1027.6,636.53 1005.4,633.11 973.75,628.24 951.54,624.82"];
	34	[height=0.5,
		pos="722.2,776.63",
		width=0.75];
	26 -- 34	[pos="683.27,776.71 687.12,776.71 691.08,776.7 694.93,776.69"];
	27	[height=0.5,
		pos="630.13,672.96",
		width=0.75];
	26 -- 27	[pos="651.44,758.69 646.71,739.63 639.29,709.81 634.57,690.84"];
	4	[height=0.5,
		pos="907.05,714.04",
		width=0.75];
	3 -- 4	[pos="1042.5,589.44 1013.5,616.11 952.39,672.34 923.21,699.18"];
	93	[height=0.5,
		pos="1049,467.92",
		width=0.75];
	3 -- 93	[pos="1056.8,556.67 1055.1,537.02 1052.3,505.83 1050.6,486.14"];
	41	[height=0.5,
		pos="822.1,727.75",
		width=0.75];
	34 -- 41	[pos="744.37,765.79 760.92,757.69 783.45,746.66 799.99,738.57"];
	35	[height=0.5,
		pos="593.38,741.88",
		width=0.75];
	34 -- 35	[pos="697.06,769.85 674.36,763.73 641.14,754.77 618.46,748.65"];
	5	[height=0.5,
		pos="742.87,732.59",
		width=0.75];
	4 -- 5	[pos="880.31,717.06 849.78,720.51 800.13,726.12 769.6,729.57"];
	60	[height=0.5,
		pos="859.56,583.62",
		width=0.75];
	4 -- 60	[pos="900.65,696.45 891.58,671.56 875.11,626.31 866.02,601.34"];
	49	[height=0.5,
		pos="692.15,678.86",
		width=0.75];
	41 -- 49	[pos="798.56,718.9 775.16,710.09 739.44,696.65 715.94,687.81"];
	41 -- 42	[pos="836.87,712.42 856.47,692.08 890.87,656.39 910.46,636.06"];
	6	[height=0.5,
		pos="660.62,820.79",
		width=0.75];
	5 -- 6	[pos="728.54,747.96 713.54,764.04 690.1,789.17 675.06,805.31"];
	5 -- 27	[pos="721.66,721.38 701.63,710.78 671.74,694.97 651.62,684.33"];
	53	[height=0.5,
		pos="756.4,632.37",
		width=0.75];
	49 -- 53	[pos="710.73,665.42 719.33,659.19 729.51,651.83 738.08,645.63"];
	50	[height=0.5,
		pos="568.6,628.29",
		width=0.75];
	49 -- 50	[pos="668.91,669.35 646.82,660.31 613.79,646.79 591.73,637.76"];
	7	[height=0.5,
		pos="524.23,784.22",
		width=0.75];
	6 -- 7	[pos="635.29,814 610.79,807.43 573.88,797.53 549.43,790.97"];
	6 -- 21	[pos="660.23,802.38 659.85,784.77 659.28,758.37 658.91,740.9"];
	58	[height=0.5,
		pos="880.55,670.01",
		width=0.75];
	53 -- 58	[pos="781.23,639.9 802.88,646.46 834.13,655.94 855.77,662.5"];
	54	[height=0.5,
		pos="715.05,540.48",
		width=0.75];
	53 -- 54	[pos="748.62,615.09 741.28,598.76 730.31,574.4 722.93,558"];
	8	[height=0.5,
		pos="522.5,829.92",
		width=0.75];
	7 -- 8	[pos="523.55,802.28 523.43,805.37 523.31,808.59 523.19,811.69"];
	22	[height=0.5,
		pos="568.07,674.87",
		width=0.75];
	7 -- 22	[pos="531.27,766.65 539.45,746.24 552.87,712.78 561.04,692.4"];
	67	[height=0.5,
		pos="921.61,566.12",
		width=0.75];
	58 -- 67	[pos="887.51,652.39 895.06,633.28 907.04,602.97 914.61,583.83"];
	58 -- 59	[pos="900.21,657.46 920.44,644.53 951.8,624.5 972.1,611.54"];
	9	[height=0.5,
		pos="460.48,792.89",
		width=0.75];
	8 -- 9	[pos="502.19,817.79 495.27,813.66 487.53,809.04 480.62,804.92"];
	8 -- 35	[pos="535.5,813.77 548.29,797.88 567.7,773.77 580.46,757.92"];
	75	[height=0.5,
		pos="776.68,493.63",
		width=0.75];
	67 -- 75	[pos="899.91,555.27 872.59,541.6 825.92,518.26 798.52,504.56"];
	68	[height=0.5,
		pos="918.58,522.1",
		width=0.75];
	67 -- 68	[pos="920.36,547.96 920.18,545.41 920,542.78 919.83,540.22"];
	10	[height=0.5,
		pos="401.85,748.87",
		width=0.75];
	9 -- 10	[pos="442.25,779.21 435.12,773.85 426.97,767.73 419.87,762.4"];
	36	[height=0.5,
		pos="506.05,705.56",
		width=0.75];
	9 -- 36	[pos="469.48,775.64 477.47,760.33 489.08,738.08 497.07,722.78"];
	81	[height=0.5,
		pos="921.45,434.06",
		width=0.75];
	75 -- 81	[pos="799.94,484.06 826.95,472.94 871.25,454.71 898.24,443.61"];
	76	[height=0.5,
		pos="623.05,379.66",
		width=0.75];
	75 -- 76	[pos="758.45,480.11 728.88,458.17 670.8,415.08 641.25,393.16"];
	11	[height=0.5,
		pos="303.02,704.55",
		width=0.75];
	10 -- 11	[pos="379.42,738.81 363.36,731.61 341.81,721.95 325.7,714.72"];
	37	[height=0.5,
		pos="476.16,661.25",
		width=0.75];
	10 -- 37	[pos="415.48,732.8 428.97,716.89 449.49,692.69 462.87,676.92"];
	86	[height=0.5,
		pos="1096.2,512.24",
		width=0.75];
	81 -- 86	[pos="943.94,444.12 977.41,459.09 1040,487.08 1073.5,502.1"];
	82	[height=0.5,
		pos="820.73,386.79",
		width=0.75];
	81 -- 82	[pos="899.09,423.57 882.4,415.74 859.69,405.08 843.02,397.25"];
	12	[height=0.5,
		pos="388.6,704.84",
		width=0.75];
	11 -- 12	[pos="330.1,704.64 340.09,704.68 351.4,704.72 361.41,704.75"];
	38	[height=0.5,
		pos="376.94,565.89",
		width=0.75];
	11 -- 38	[pos="312.08,687.55 326.27,660.94 353.57,609.73 367.8,583.03"];
	91	[height=0.5,
		pos="1106.1,368.01",
		width=0.75];
	86 -- 91	[pos="1097.5,493.98 1099.4,466.23 1102.9,413.78 1104.8,386.13"];
	87	[height=0.5,
		pos="1007.6,513.26",
		width=0.75];
	86 -- 87	[pos="1069.2,512.55 1058.3,512.68 1045.7,512.82 1034.8,512.95"];
	13	[height=0.5,
		pos="367.32,660.82",
		width=0.75];
	12 -- 13	[pos="380.31,687.69 378.77,684.51 377.16,681.18 375.62,677.99"];
	23	[height=0.5,
		pos="425.71,616.8",
		width=0.75];
	12 -- 23	[pos="395.93,687.45 402.44,672.01 411.89,649.58 418.39,634.16"];
	97	[height=0.5,
		pos="1105.5,281.66",
		width=0.75];
	91 -- 97	[pos="1105.9,349.69 1105.8,335.04 1105.7,314.59 1105.6,299.95"];
	92	[height=0.5,
		pos="1007.6,385.01",
		width=0.75];
	91 -- 92	[pos="1079.7,372.56 1065.5,375 1048.2,378 1034,380.44"];
	14	[height=0.5,
		pos="261.62,505.44",
		width=0.75];
	13 -- 14	[pos="356.01,644.19 335.66,614.28 293.14,551.77 272.85,521.95"];
	28	[height=0.5,
		pos="502.41,597.13",
		width=0.75];
	13 -- 28	[pos="389.62,650.3 414.65,638.5 455.02,619.47 480.07,607.67"];
	100	[height=0.5,
		pos="999.64,216.01",
		width=0.75];
	97 -- 100	[pos="1085.6,269.31 1066.7,257.57 1038.4,240.02 1019.5,228.3"];
	98	[height=0.5,
		pos="980.23,306.69",
		width=0.75];
	97 -- 98	[pos="1079.5,286.85 1058,291.14 1027.6,297.21 1006.1,301.51"];
	15	[height=0.5,
		pos="166.77,547.75",
		width=0.75];
	14 -- 15	[pos="239.15,515.47 224.14,522.16 204.46,530.94 189.42,537.65"];
	73	[height=0.5,
		pos="377.59,374.42",
		width=0.75];
	14 -- 73	[pos="275.38,489.9 297.7,464.68 341.54,415.15 363.85,389.95"];
	109	[height=0.5,
		pos="914.12,140.82",
		width=0.75];
	100 -- 109	[pos="983.15,201.51 968.01,188.2 945.69,168.57 930.56,155.28"];
	101	[height=0.5,
		pos="895.25,306.69",
		width=0.75];
	100 -- 101	[pos="982.87,230.58 963.39,247.5 931.44,275.25 911.98,292.15"];
	16	[height=0.5,
		pos="110.33,479.83",
		width=0.75];
	15 -- 16	[pos="153.68,532 144.7,521.18 132.8,506.86 123.74,495.97"];
	29	[height=0.5,
		pos="391.82,510.42",
		width=0.75];
	15 -- 29	[pos="193.03,543.39 236.28,536.22 322.02,522 365.38,514.8"];
	114	[height=0.5,
		pos="980.13,124.46",
		width=0.75];
	109 -- 114	[pos="939.45,134.54 944.4,133.32 949.58,132.03 954.54,130.8"];
	110	[height=0.5,
		pos="782.62,204.53",
		width=0.75];
	109 -- 110	[pos="892.11,151.49 867.84,163.25 829.01,182.06 804.7,193.83"];
	17	[height=0.5,
		pos="60.996,526.34",
		width=0.75];
	16 -- 17	[pos="94.721,494.54 88.962,499.97 82.438,506.12 76.674,511.56"];
	30	[height=0.5,
		pos="261.67,460.85",
		width=0.75];
	16 -- 30	[pos="137.04,476.48 164.62,473.02 207.4,467.65 234.98,464.2"];
	118	[height=0.5,
		pos="1068,190.82",
		width=0.75];
	114 -- 118	[pos="998.34,138.21 1013.5,149.68 1035,165.92 1050.1,177.32"];
	115	[height=0.5,
		pos="937.08,184.84",
		width=0.75];
	114 -- 115	[pos="968.36,140.96 962.29,149.48 954.9,159.84 948.83,168.36"];
	18	[height=0.5,
		pos="77.129,625.14",
		width=0.75];
	17 -- 18	[pos="63.955,544.46 66.866,562.29 71.284,589.35 74.189,607.13"];
	31	[height=0.5,
		pos="203.65,410.81",
		width=0.75];
	17 -- 31	[pos="78.203,512.4 105.62,490.2 158.93,447.03 186.38,424.8"];
	124	[height=0.5,
		pos="1042.7,307.34",
		width=0.75];
	118 -- 124	[pos="1064.1,208.77 1059.4,230.61 1051.4,267.25 1046.6,289.18"];
	119	[height=0.5,
		pos="1018.2,262.65",
		width=0.75];
	118 -- 119	[pos="1056.5,207.48 1048.4,219.08 1037.7,234.5 1029.7,246.08"];
	19	[height=0.5,
		pos="27,670.65",
		width=0.75];
	18 -- 19	[pos="60.992,639.79 55.268,644.99 48.829,650.83 43.107,656.03"];
	24	[height=0.5,
		pos="282.1,643.81",
		width=0.75];
	18 -- 24	[pos="103.93,627.58 143.21,631.16 216.01,637.79 255.3,641.37"];
	129	[height=0.5,
		pos="1167.6,247.82",
		width=0.75];
	124 -- 129	[pos="1064.7,296.84 1087.4,286.02 1122.6,269.27 1145.4,258.42"];
	125	[height=0.5,
		pos="882.74,390.03",
		width=0.75];
	124 -- 125	[pos="1021.1,318.49 990.49,334.32 934.78,363.12 904.23,378.92"];
	25	[height=0.5,
		pos="128.24,673.94",
		width=0.75];
	19 -- 25	[pos="54.132,671.53 68.658,672 86.5,672.59 101.04,673.06"];
	130	[height=0.5,
		pos="1080.6,234.85",
		width=0.75];
	129 -- 130	[pos="1141,243.86 1130.2,242.25 1117.8,240.39 1107,238.79"];
	21 -- 22	[pos="637.09,711.52 622.67,703.86 603.74,693.81 589.35,686.17"];
	44	[height=0.5,
		pos="694.37,634.84",
		width=0.75];
	21 -- 44	[pos="665.6,705.5 671.85,690.17 680.9,667.92 687.18,652.5"];
	22 -- 23	[pos="544.88,665.41 518.4,654.61 475.35,637.05 448.88,626.26"];
	22 -- 50	[pos="568.28,656.73 568.31,653.36 568.35,649.83 568.39,646.46"];
	59 -- 68	[pos="977.09,583.33 964.28,569.93 945.88,550.67 933.15,537.35"];
	59 -- 60	[pos="965.15,595.78 942.18,593.13 909.26,589.34 886.31,586.7"];
	68 -- 82	[pos="906.78,505.78 887.97,479.77 851.41,429.21 832.57,403.17"];
	69	[height=0.5,
		pos="846.23,539.6",
		width=0.75];
	68 -- 69	[pos="892.87,528.32 886.05,529.97 878.68,531.75 871.86,533.4"];
	82 -- 92	[pos="847.89,386.53 883.32,386.19 944.93,385.61 980.37,385.27"];
	83	[height=0.5,
		pos="572.64,307.23",
		width=0.75];
	82 -- 83	[pos="796.03,378.87 748.48,363.62 644.71,330.34 597.24,315.12"];
	23 -- 24	[pos="399.7,621.69 373.83,626.56 334.36,633.98 308.4,638.87"];
	104	[height=0.5,
		pos="461.76,469.53",
		width=0.75];
	23 -- 104	[pos="430.13,598.74 437.05,570.48 450.36,516.09 457.31,487.73"];
	92 -- 101	[pos="988.77,371.9 968.04,357.44 934.87,334.31 914.11,319.84"];
	92 -- 93	[pos="1016.1,402.19 1023.2,416.42 1033.3,436.54 1040.4,450.77"];
	101 -- 115	[pos="901.33,288.97 909.26,265.87 923.05,225.69 930.99,202.58"];
	102	[height=0.5,
		pos="713.44,449.81",
		width=0.75];
	101 -- 102	[pos="877.49,320.67 842.64,348.1 765.7,408.67 731.01,435.98"];
	115 -- 130	[pos="961.09,193.21 987.58,202.44 1029.9,217.21 1056.5,226.45"];
	116	[height=0.5,
		pos="853.27,96.8",
		width=0.75];
	115 -- 116	[pos="922.48,169.5 907.19,153.44 883.31,128.36 867.98,112.25"];
	24 -- 25	[pos="256,648.92 227.62,654.48 182.54,663.31 154.21,668.86"];
	32	[height=0.5,
		pos="244,579.44",
		width=0.75];
	24 -- 32	[pos="272.09,626.9 266.53,617.51 259.64,605.87 254.08,596.46"];
	33	[height=0.5,
		pos="96.898,571.76",
		width=0.75];
	25 -- 33	[pos="122.78,656.14 117.07,637.5 108.13,608.39 102.4,589.69"];
	131	[height=0.5,
		pos="1137.9,415.73",
		width=0.75];
	130 -- 131	[pos="1086.2,252.52 1097.1,287.1 1121.3,363.35 1132.3,397.98"];
	42 -- 87	[pos="937.72,604.44 953.31,584.11 979.75,549.62 995.26,529.39"];
	43	[height=0.5,
		pos="818.44,627.63",
		width=0.75];
	42 -- 43	[pos="898.26,622.5 882.08,623.54 861.56,624.86 845.37,625.9"];
	27 -- 28	[pos="609.89,660.95 586.11,646.83 546.89,623.54 522.97,609.34"];
	27 -- 43	[pos="655.52,666.85 691.47,658.19 756.8,642.47 792.85,633.79"];
	87 -- 131	[pos="1025.7,499.7 1050.6,481.07 1095.2,447.75 1120,429.18"];
	88	[height=0.5,
		pos="808.58,430.8",
		width=0.75];
	87 -- 88	[pos="984.4,503.64 946.05,487.75 869.91,456.21 831.66,440.36"];
	28 -- 29	[pos="484.64,583.2 464,567.02 430.16,540.48 409.54,524.31"];
	55	[height=0.5,
		pos="590.93,532.2",
		width=0.75];
	28 -- 55	[pos="520.75,583.68 535.94,572.54 557.42,556.78 572.61,545.64"];
	29 -- 30	[pos="368.25,501.44 344.81,492.51 309.04,478.89 285.5,469.93"];
	63	[height=0.5,
		pos="475.15,377.8",
		width=0.75];
	29 -- 63	[pos="402.37,493.62 418.4,468.11 448.7,419.89 464.68,394.46"];
	30 -- 31	[pos="244.89,446.38 237.13,439.68 227.93,431.75 220.2,425.08"];
	39	[height=0.5,
		pos="357.62,418.46",
		width=0.75];
	30 -- 39	[pos="284.41,450.81 299.7,444.05 319.78,435.18 335.04,428.44"];
	31 -- 32	[pos="207.97,428.86 215.74,461.31 231.97,529.16 239.71,561.52"];
	65	[height=0.5,
		pos="277.65,341.71",
		width=0.75];
	31 -- 65	[pos="219.34,396.16 231.82,384.51 249.19,368.29 261.72,356.58"];
	32 -- 33	[pos="217.02,578.03 190.56,576.65 150.44,574.55 123.96,573.17"];
	51	[height=0.5,
		pos="439.09,572.76",
		width=0.75];
	32 -- 51	[pos="271.13,578.51 308.29,577.24 374.67,574.97 411.88,573.69"];
	40	[height=0.5,
		pos="199.26,454.94",
		width=0.75];
	33 -- 40	[pos="110.7,556 130.24,533.71 165.75,493.18 185.35,470.82"];
	132	[height=0.5,
		pos="1171.2,349.38",
		width=0.75];
	131 -- 132	[pos="1146.5,398.64 1151.4,388.81 1157.6,376.5 1162.6,366.64"];
	35 -- 36	[pos="570.43,732.34 557.7,727.04 541.91,720.47 529.15,715.17"];
	45	[height=0.5,
		pos="632.29,628.67",
		width=0.75];
	35 -- 45	[pos="599.46,724.19 606.77,702.92 618.96,667.45 626.25,646.24"];
	36 -- 37	[pos="494.92,689.06 492.47,685.42 489.86,681.56 487.4,677.91"];
	46	[height=0.5,
		pos="564.46,584.05",
		width=0.75];
	36 -- 46	[pos="514.3,688.41 525.36,665.38 544.92,624.69 556.06,601.51"];
	37 -- 38	[pos="460.66,646.35 442.02,628.43 410.92,598.55 392.33,580.68"];
	72	[height=0.5,
		pos="524.97,507.45",
		width=0.75];
	37 -- 72	[pos="481.76,643.61 491.13,614.1 509.87,555.05 519.29,525.36"];
	38 -- 39	[pos="374.57,547.81 370.86,519.52 363.73,465.07 360.01,436.69"];
	47	[height=0.5,
		pos="501.14,551.5",
		width=0.75];
	38 -- 47	[pos="403.58,562.8 424.4,560.39 453.2,557.05 474.11,554.63"];
	93 -- 98	[pos="1041.5,450.36 1028.2,419.35 1000.9,355.23 987.7,324.23"];
	94	[height=0.5,
		pos="945.59,478.08",
		width=0.75];
	93 -- 94	[pos="1022.1,470.57 1006.8,472.07 987.63,473.95 972.34,475.45"];
	98 -- 119	[pos="993.95,290.79 997.43,286.75 1001.2,282.41 1004.7,278.38"];
	99	[height=0.5,
		pos="874.1,200.65",
		width=0.75];
	98 -- 99	[pos="965.02,291.49 944.85,271.34 909.44,235.96 889.28,215.81"];
	39 -- 40	[pos="331.82,424.41 302.29,431.21 254.2,442.29 224.78,449.06"];
	64	[height=0.5,
		pos="424.04,330.41",
		width=0.75];
	39 -- 64	[pos="369.8,402.31 381.71,386.53 399.75,362.61 411.71,346.76"];
	119 -- 132	[pos="1038.9,274.34 1068.1,290.9 1121.2,320.99 1150.5,337.59"];
	120	[height=0.5,
		pos="882.28,262.21",
		width=0.75];
	119 -- 120	[pos="991.05,262.56 967.33,262.48 933.12,262.38 909.42,262.3"];
	48	[height=0.5,
		pos="323.7,462.48",
		width=0.75];
	40 -- 48	[pos="226.26,456.58 247.14,457.84 275.89,459.59 296.75,460.85"];
	133	[height=0.5,
		pos="1158.2,481.05",
		width=0.75];
	132 -- 133	[pos="1169.5,367.41 1167,392.48 1162.5,437.63 1160,462.81"];
	43 -- 44	[pos="791.52,629.19 770.85,630.39 742.43,632.04 721.66,633.25"];
	43 -- 69	[pos="824.07,609.81 828.89,594.54 835.8,572.65 840.62,557.39"];
	44 -- 45	[pos="667.32,632.15 664.57,631.88 661.79,631.6 659.05,631.33"];
	44 -- 54	[pos="698.35,616.64 702.04,599.83 707.48,574.99 711.14,558.3"];
	60 -- 94	[pos="872.63,567.59 888.89,547.64 916.49,513.78 932.68,493.92"];
	61	[height=0.5,
		pos="673.71,584.64",
		width=0.75];
	60 -- 61	[pos="832.54,583.77 797.3,583.96 736.02,584.3 700.77,584.49"];
	45 -- 46	[pos="613.03,616.01 603.95,610.03 593.12,602.91 584,596.9"];
	70	[height=0.5,
		pos="777.99,567.23",
		width=0.75];
	45 -- 70	[pos="655.38,618.94 682.66,607.43 727.77,588.41 755.01,576.92"];
	46 -- 47	[pos="543.02,573.03 536.42,569.63 529.15,565.9 522.55,562.51"];
	71	[height=0.5,
		pos="652.98,511.75",
		width=0.75];
	46 -- 71	[pos="581.94,569.77 597.57,557.01 620.31,538.43 635.83,525.76"];
	47 -- 48	[pos="479.38,540.58 445.24,523.45 379.45,490.45 345.36,473.35"];
	103	[height=0.5,
		pos="651.19,423.71",
		width=0.75];
	47 -- 103	[pos="518.06,537.09 546.88,512.54 605.17,462.91 634.1,438.27"];
	94 -- 133	[pos="972.96,478.46 1013.8,479.03 1090.2,480.1 1131,480.67"];
	95	[height=0.5,
		pos="746.2,400.73",
		width=0.75];
	94 -- 95	[pos="921.94,468.9 883.56,454.02 808.18,424.77 769.82,409.9"];
	52	[height=0.5,
		pos="314.75,549.46",
		width=0.75];
	48 -- 52	[pos="321.85,480.5 320.31,495.43 318.14,516.54 316.6,531.46"];
	134	[height=0.5,
		pos="1070.4,423.4",
		width=0.75];
	133 -- 134	[pos="1138.7,468.25 1124.2,458.7 1104.4,445.7 1089.8,436.15"];
	50 -- 51	[pos="545.74,618.49 522.22,608.41 485.75,592.77 462.15,582.65"];
	50 -- 61	[pos="591.67,618.71 609.19,611.44 633.19,601.47 650.7,594.2"];
	69 -- 125	[pos="850.64,521.56 857.66,492.81 871.3,436.93 878.33,408.14"];
	69 -- 70	[pos="823.13,548.96 816.01,551.84 808.18,555.01 801.07,557.89"];
	51 -- 52	[pos="413.02,567.88 391.8,563.9 361.99,558.31 340.78,554.34"];
	56	[height=0.5,
		pos="420.25,425.42",
		width=0.75];
	51 -- 56	[pos="436.78,554.7 433.16,526.42 426.2,472 422.58,443.63"];
	125 -- 134	[pos="908.84,394.67 944.58,401.03 1008.4,412.38 1044.2,418.74"];
	126	[height=0.5,
		pos="696.69,307.49",
		width=0.75];
	125 -- 126	[pos="859.93,379.91 824.13,364.03 755.14,333.42 719.4,317.57"];
	57	[height=0.5,
		pos="265.72,385.96",
		width=0.75];
	52 -- 57	[pos="309.41,531.65 299.98,500.2 280.48,435.18 271.06,403.74"];
	135	[height=0.5,
		pos="944.77,350.72",
		width=0.75];
	134 -- 135	[pos="1049.9,411.56 1026.6,398.04 988.58,376.07 965.22,362.56"];
	54 -- 88	[pos="728.45,524.77 746.23,503.92 777.44,467.32 795.21,446.49"];
	54 -- 55	[pos="688.12,538.68 667.3,537.3 638.61,535.38 617.81,534"];
	88 -- 120	[pos="816.19,413.4 830.32,381.09 860.43,312.2 874.61,279.78"];
	89	[height=0.5,
		pos="671.3,262.79",
		width=0.75];
	88 -- 89	[pos="795.42,414.69 769.11,382.5 710.33,310.56 684.22,278.61"];
	55 -- 56	[pos="571.02,519.75 538.13,499.17 472.84,458.32 440.03,437.79"];
	62	[height=0.5,
		pos="590.54,467.8",
		width=0.75];
	55 -- 62	[pos="590.82,513.92 590.77,505.15 590.7,494.66 590.65,485.91"];
	120 -- 135	[pos="894.04,278.86 905.21,294.69 921.92,318.35 933.07,334.15"];
	121	[height=0.5,
		pos="831.11,148.18",
		width=0.75];
	120 -- 121	[pos="874.51,244.89 864.89,223.46 848.6,187.17 838.95,165.66"];
	56 -- 57	[pos="394.73,418.9 366.02,411.57 319.65,399.73 291.02,392.42"];
	107	[height=0.5,
		pos="448.55,239.9",
		width=0.75];
	56 -- 107	[pos="423.01,407.29 428.44,371.73 440.42,293.22 445.82,257.83"];
	66	[height=0.5,
		pos="199.42,339.66",
		width=0.75];
	57 -- 66	[pos="246.9,372.81 238.02,366.61 227.44,359.22 218.52,353"];
	136	[height=0.5,
		pos="840.93,474.81",
		width=0.75];
	135 -- 136	[pos="931.41,366.69 911.47,390.52 874.15,435.11 854.24,458.9"];
	61 -- 62	[pos="661.8,567.9 645.89,545.57 617.92,506.26 602.17,484.14"];
	61 -- 136	[pos="693.22,571.83 725.44,550.66 789.4,508.65 821.54,487.54"];
	62 -- 63	[pos="572.51,453.74 550.83,436.83 514.67,408.63 493.05,391.77"];
	105	[height=0.5,
		pos="510.56,326.54",
		width=0.75];
	62 -- 105	[pos="580.89,450.76 565.52,423.61 535.63,370.83 520.24,343.64"];
	63 -- 64	[pos="459.26,363.07 453.16,357.41 446.21,350.96 440.1,345.3"];
	78	[height=0.5,
		pos="277.49,281",
		width=0.75];
	63 -- 78	[pos="453.24,367.07 415.25,348.46 337.56,310.42 299.49,291.77"];
	64 -- 65	[pos="397.19,332.48 370.94,334.51 331.18,337.58 304.82,339.61"];
	64 -- 83	[pos="450.61,326.27 477.66,322.05 519.34,315.54 546.31,311.34"];
	65 -- 66	[pos="250.29,340.99 242.62,340.79 234.29,340.58 226.64,340.37"];
	79	[height=0.5,
		pos="219.07,236.96",
		width=0.75];
	65 -- 79	[pos="267.97,324.41 257.06,304.89 239.41,273.33 228.56,253.93"];
	74	[height=0.5,
		pos="214.36,291.87",
		width=0.75];
	66 -- 74	[pos="204.99,321.87 206.25,317.83 207.58,313.55 208.84,309.52"];
	137	[height=0.5,
		pos="758.7,350.6",
		width=0.75];
	136 -- 137	[pos="830.01,458.31 814.28,434.56 785.42,390.96 769.67,367.16"];
	70 -- 71	[pos="755.35,557.19 732.83,547.19 698.48,531.94 675.87,521.91"];
	70 -- 102	[pos="768.6,550.16 756.36,527.9 735.08,489.18 722.84,466.91"];
	71 -- 72	[pos="625.83,510.84 604.11,510.11 573.79,509.09 552.08,508.36"];
	71 -- 95	[pos="666.34,495.84 684.06,474.74 715.16,437.7 732.87,416.61"];
	72 -- 73	[pos="508.92,492.96 480.72,467.51 422.58,415.03 394.07,389.3"];
	72 -- 76	[pos="537.39,491.27 556.26,466.68 591.92,420.21 610.73,395.71"];
	73 -- 74	[pos="355.91,363.46 324.69,347.67 267.39,318.69 236.12,302.88"];
	77	[height=0.5,
		pos="447.61,285.53",
		width=0.75];
	73 -- 77	[pos="390.43,358.12 403.07,342.08 422.25,317.73 434.85,301.73"];
	102 -- 137	[pos="721.33,432.53 729.58,414.43 742.48,386.17 750.76,368.02"];
	102 -- 103	[pos="690.26,440.09 685.01,437.89 679.43,435.55 674.19,433.35"];
	80	[height=0.5,
		pos="189.45,192.93",
		width=0.75];
	74 -- 80	[pos="209.79,273.72 205.3,255.87 198.48,228.77 193.99,210.96"];
	138	[height=0.5,
		pos="743.25,251.59",
		width=0.75];
	137 -- 138	[pos="755.87,332.44 753.08,314.58 748.85,287.46 746.06,269.63"];
	76 -- 77	[pos="601.88,368.3 568.17,350.21 502.62,315.04 468.85,296.92"];
	139	[height=0.5,
		pos="634.67,335.06",
		width=0.75];
	76 -- 139	[pos="627.71,361.77 628.46,358.86 629.25,355.85 630.01,352.94"];
	95 -- 110	[pos="749.56,382.62 756.5,345.25 772.34,259.93 779.27,222.59"];
	96	[height=0.5,
		pos="816.9,251.42",
		width=0.75];
	95 -- 96	[pos="754.45,383.31 768.07,354.54 795.11,297.43 808.7,268.73"];
	77 -- 78	[pos="420.28,284.8 388.44,283.95 336.16,282.56 304.47,281.72"];
	106	[height=0.5,
		pos="385.6,257.95",
		width=0.75];
	77 -- 106	[pos="424.87,275.42 419.48,273.02 413.73,270.46 408.33,268.06"];
	78 -- 79	[pos="259.32,267.3 252.22,261.95 244.1,255.83 237.02,250.49"];
	112	[height=0.5,
		pos="595.6,143.55",
		width=0.75];
	78 -- 112	[pos="300.36,271.11 359.06,245.75 514.46,178.6 572.93,153.34"];
	110 -- 138	[pos="769.29,220.46 765.19,225.37 760.67,230.77 756.56,235.67"];
	111	[height=0.5,
		pos="586.52,187.59",
		width=0.75];
	110 -- 111	[pos="755.77,202.21 718.32,198.97 650.81,193.14 613.36,189.91"];
	79 -- 80	[pos="207.87,220.31 205.51,216.8 203.03,213.1 200.67,209.6"];
	84	[height=0.5,
		pos="524.47,213.65",
		width=0.75];
	79 -- 84	[pos="245.9,234.91 303.69,230.5 439.34,220.15 497.37,215.72"];
	85	[height=0.5,
		pos="473.95,169.61",
		width=0.75];
	80 -- 85	[pos="216.47,190.71 270.85,186.25 392.89,176.25 447.11,171.81"];
	138 -- 139	[pos="725.32,265.37 705.2,280.84 672.75,305.78 652.62,321.25"];
	83 -- 84	[pos="563.81,290.07 555.11,273.18 541.92,247.55 533.25,230.7"];
	122	[height=0.5,
		pos="706.86,119.04",
		width=0.75];
	83 -- 122	[pos="584.32,290.86 609.7,255.27 669.67,171.19 695.11,135.51"];
	84 -- 85	[pos="507.93,199.23 502.29,194.31 495.99,188.82 490.36,183.91"];
	84 -- 89	[pos="548.71,221.76 575.92,230.87 619.8,245.55 647.02,254.66"];
	90	[height=0.5,
		pos="648.58,201.13",
		width=0.75];
	85 -- 90	[pos="500.09,174.33 533.01,180.27 589.25,190.42 622.26,196.38"];
	140	[height=0.5,
		pos="510.61,274.63",
		width=0.75];
	139 -- 140	[pos="612.77,324.39 590.24,313.41 555.31,296.4 532.7,285.39"];
	103 -- 126	[pos="658.1,406.06 666.7,384.09 681.3,346.8 689.87,324.93"];
	103 -- 104	[pos="625.65,429.89 589.39,438.66 523.41,454.62 487.21,463.37"];
	89 -- 90	[pos="664.85,245.29 661.81,237.03 658.18,227.19 655.12,218.9"];
	146	[height=0.5,
		pos="599.75,99.509",
		width=0.75];
	89 -- 146	[pos="663.64,245.32 649.87,213.89 621.08,148.19 607.35,116.86"];
	126 -- 140	[pos="670.43,302.85 634.96,296.59 572.14,285.5 536.74,279.24"];
	127	[height=0.5,
		pos="769.05,110.91",
		width=0.75];
	126 -- 127	[pos="703.24,289.7 717.02,252.27 748.85,165.79 762.57,128.52"];
	90 -- 96	[pos="673.42,208.55 705.33,218.09 760.4,234.54 792.23,244.05"];
	141	[height=0.5,
		pos="339.71,306.48",
		width=0.75];
	140 -- 141	[pos="484.28,279.54 452.07,285.54 397.88,295.64 365.79,301.62"];
	104 -- 141	[pos="449.61,453.3 426.22,422.04 375.17,353.84 351.81,322.64"];
	104 -- 105	[pos="467.84,451.71 477.25,424.16 495.2,371.55 504.55,344.14"];
	96 -- 99	[pos="833.14,237.01 840.8,230.21 849.93,222.1 857.62,215.28"];
	142	[height=0.5,
		pos="310.61,198.82",
		width=0.75];
	141 -- 142	[pos="334.91,288.7 329.52,268.75 320.82,236.58 315.43,216.62"];
	105 -- 142	[pos="491.02,314.06 452.8,289.64 368.52,235.81 330.23,211.35"];
	105 -- 106	[pos="489.64,315.06 466.57,302.4 429.67,282.14 406.58,269.47"];
	108	[height=0.5,
		pos="711.17,163.08",
		width=0.75];
	99 -- 108	[pos="848.28,194.7 817.77,187.66 767.32,176.03 736.86,169.01"];
	143	[height=0.5,
		pos="528.22,112.59",
		width=0.75];
	142 -- 143	[pos="333.9,189.59 375.68,173.04 462.88,138.48 504.77,121.88"];
	106 -- 111	[pos="409.83,249.46 448.55,235.9 523.93,209.51 562.51,196"];
	106 -- 107	[pos="410.48,250.82 414.74,249.59 419.17,248.32 423.44,247.1"];
	111 -- 143	[pos="573.87,171.32 564.02,158.65 550.43,141.17 540.65,128.58"];
	111 -- 112	[pos="590.21,169.68 590.76,167.01 591.33,164.26 591.88,161.59"];
	107 -- 108	[pos="473.73,232.54 523.93,217.85 635.93,185.09 686.06,170.43"];
	147	[height=0.5,
		pos="454.86,125.57",
		width=0.75];
	107 -- 147	[pos="449.55,221.79 450.73,200.38 452.69,164.97 453.87,143.6"];
	113	[height=0.5,
		pos="666.5,71.22",
		width=0.75];
	108 -- 113	[pos="702.76,145.8 694.78,129.38 682.84,104.82 674.86,88.421"];
	144	[height=0.5,
		pos="592.8,55.469",
		width=0.75];
	143 -- 144	[pos="544.52,98.178 554.23,89.585 566.53,78.706 576.28,70.078"];
	112 -- 116	[pos="621.72,138.81 671.11,129.85 777.63,110.52 827.07,101.55"];
	112 -- 113	[pos="610.63,128.21 622.66,115.93 639.46,98.805 651.48,86.537"];
	116 -- 121	[pos="845.76,114.2 843.45,119.55 840.91,125.45 838.6,130.8"];
	117	[height=0.5,
		pos="834.56,24.91",
		width=0.75];
	116 -- 117	[pos="848.64,79.03 845.79,68.053 842.13,54.007 839.26,42.976"];
	121 -- 127	[pos="810.79,135.98 803.86,131.82 796.12,127.17 789.2,123.02"];
	121 -- 122	[pos="805.36,142.14 784.04,137.14 753.88,130.07 732.57,125.07"];
	127 -- 144	[pos="744.54,103.2 710.96,92.64 651,73.777 617.38,63.202"];
	128	[height=0.5,
		pos="656.51,18",
		width=0.75];
	127 -- 128	[pos="751.96,96.8 730.81,79.337 694.99,49.768 673.76,32.244"];
	113 -- 117	[pos="691.66,64.287 723.43,55.531 777.78,40.557 809.5,31.815"];
	145	[height=0.5,
		pos="736.09,66.897",
		width=0.75];
	144 -- 145	[pos="619.75,57.619 645.37,59.662 683.68,62.717 709.26,64.757"];
	122 -- 145	[pos="716.43,101.97 719.69,96.145 723.34,89.641 726.59,83.831"];
	123	[height=0.5,
		pos="772.52,22.877",
		width=0.75];
	122 -- 123	[pos="718.29,102.29 730.34,84.639 749.21,57.012 761.21,39.435"];
	117 -- 123	[pos="807.53,24.024 804.91,23.939 802.26,23.852 799.65,23.766"];
	145 -- 146	[pos="710.44,73.031 686.07,78.862 649.62,87.581 625.28,93.403"];
	123 -- 128	[pos="745.32,21.733 726.7,20.951 702.12,19.917 683.54,19.136"];
	146 -- 147	[pos="573.51,104.23 547.42,108.92 507.59,116.09 481.4,120.8"];
	148	[height=0.5,
		pos="519.15,31.723",
		width=0.75];
	128 -- 148	[pos="629.7,20.678 605.5,23.096 570.07,26.635 545.89,29.051"];
	147 -- 148	[pos="466.36,108.79 478.06,91.711 496.09,65.386 507.76,48.356"];
}
