graph {
	graph [bb="0,0,1995.8,1622.4",
		outputorder=edgesfirst,
		overlap=prism,
		size="50,50!",
		start=2027
	];
	node [label="\N"];
	0	[height=0.5,
		pos="1755.4,661.38",
		width=0.75];
	1	[height=0.5,
		pos="1603.6,842.1",
		width=0.75];
	0 -- 1	[pos="1742.2,677.1 1713.5,711.28 1645.6,792.02 1616.8,826.28"];
	100	[height=0.5,
		pos="1588.4,520.31",
		width=0.75];
	0 -- 100	[pos="1738.5,647.08 1706.5,620.04 1637.4,561.72 1605.4,534.65"];
	2	[height=0.5,
		pos="1250.3,989.14",
		width=0.75];
	1 -- 2	[pos="1580.7,851.63 1516.9,878.17 1337.9,952.7 1273.7,979.44"];
	292	[height=0.5,
		pos="1652.9,898.63",
		width=0.75];
	1 -- 292	[pos="1617.3,857.85 1624.1,865.69 1632.4,875.14 1639.2,882.97"];
	104	[height=0.5,
		pos="1523.7,640.06",
		width=0.75];
	100 -- 104	[pos="1579.1,537.46 1566.8,560.23 1545.2,600.18 1532.9,622.93"];
	101	[height=0.5,
		pos="1313.4,545.96",
		width=0.75];
	100 -- 101	[pos="1561.6,522.81 1509,527.72 1393.1,538.53 1340.4,543.44"];
	3	[height=0.5,
		pos="1483.1,1073.5",
		width=0.75];
	2 -- 3	[pos="1274.4,997.85 1319.1,1014.1 1414.6,1048.7 1459.2,1064.8"];
	213	[height=0.5,
		pos="899.31,1016.9",
		width=0.75];
	2 -- 213	[pos="1223.4,991.27 1158,996.44 991.8,1009.6 926.36,1014.7"];
	107	[height=0.5,
		pos="1479.3,830.07",
		width=0.75];
	104 -- 107	[pos="1519.5,657.94 1511,694.15 1492,775.81 1483.5,812.1"];
	105	[height=0.5,
		pos="1313,501.91",
		width=0.75];
	104 -- 105	[pos="1504.2,627.31 1464.1,600.99 1372.5,540.92 1332.4,514.63"];
	4	[height=0.5,
		pos="1669.2,1095.7",
		width=0.75];
	3 -- 4	[pos="1509.8,1076.7 1545.1,1080.9 1607.2,1088.3 1642.6,1092.5"];
	189	[height=0.5,
		pos="1261.4,1054.2",
		width=0.75];
	3 -- 189	[pos="1455.9,1071.1 1413.2,1067.4 1331,1060.2 1288.4,1056.5"];
	110	[height=0.5,
		pos="1779.5,876.87",
		width=0.75];
	107 -- 110	[pos="1505.7,834.18 1562.5,843.04 1695.8,863.83 1752.8,872.72"];
	108	[height=0.5,
		pos="1174.8,1101.9",
		width=0.75];
	107 -- 108	[pos="1462.9,844.68 1410,891.88 1244.2,1039.9 1191.3,1087.2"];
	5	[height=0.5,
		pos="1869.3,1009.4",
		width=0.75];
	4 -- 5	[pos="1692.1,1085.8 1730.7,1069.2 1808.2,1035.8 1846.6,1019.2"];
	414	[height=0.5,
		pos="1614.1,1160",
		width=0.75];
	4 -- 414	[pos="1655.6,1111.6 1647,1121.6 1636,1134.3 1627.5,1144.3"];
	113	[height=0.5,
		pos="1729.4,738.42",
		width=0.75];
	110 -- 113	[pos="1773.1,859.34 1763.6,832.85 1745.5,782.91 1735.9,756.25"];
	111	[height=0.5,
		pos="1844,812.12",
		width=0.75];
	110 -- 111	[pos="1794.4,861.85 1804.7,851.54 1818.3,837.89 1828.6,827.5"];
	6	[height=0.5,
		pos="1830.4,953.07",
		width=0.75];
	5 -- 6	[pos="1857.8,992.81 1852.8,985.54 1846.9,977.02 1841.9,969.75"];
	335	[height=0.5,
		pos="1968.8,904.52",
		width=0.75];
	5 -- 335	[pos="1884,993.93 1902.8,974.1 1935.2,939.92 1954.1,920.06"];
	116	[height=0.5,
		pos="1842.8,738.42",
		width=0.75];
	113 -- 116	[pos="1756.6,738.42 1774.4,738.42 1797.7,738.42 1815.5,738.42"];
	114	[height=0.5,
		pos="1490.7,703.36",
		width=0.75];
	113 -- 114	[pos="1703,734.54 1657.1,727.8 1563.3,714.02 1517.3,707.27"];
	7	[height=0.5,
		pos="1747.7,1117.2",
		width=0.75];
	6 -- 7	[pos="1821.7,970.33 1805.9,1001.8 1772.5,1068.1 1756.6,1099.7"];
	6 -- 111	[pos="1832.2,934.93 1834.8,907.87 1839.6,857.21 1842.2,830.18"];
	118	[height=0.5,
		pos="1620,942.66",
		width=0.75];
	116 -- 118	[pos="1826.8,753.11 1785.7,790.79 1676.8,890.56 1635.8,928.1"];
	117	[height=0.5,
		pos="1821.6,635.56",
		width=0.75];
	116 -- 117	[pos="1839.2,720.5 1835.3,701.74 1829.2,672.43 1825.4,653.61"];
	8	[height=0.5,
		pos="1773.4,1281.5",
		width=0.75];
	7 -- 8	[pos="1750.6,1135.4 1755.5,1167 1765.6,1231.6 1770.5,1263.2"];
	417	[height=0.5,
		pos="1733.6,1183.8",
		width=0.75];
	7 -- 417	[pos="1744,1135.1 1741.9,1144.6 1739.5,1156.3 1737.4,1165.9"];
	122	[height=0.5,
		pos="1386.8,1148.2",
		width=0.75];
	118 -- 122	[pos="1603.6,957.11 1560.7,994.85 1446,1096 1403.2,1133.7"];
	119	[height=0.5,
		pos="1587.2,753.12",
		width=0.75];
	118 -- 119	[pos="1616.8,924.48 1610.6,888.25 1596.6,807.42 1590.4,771.24"];
	9	[height=0.5,
		pos="1611.9,1305.5",
		width=0.75];
	8 -- 9	[pos="1746.7,1285.5 1716.7,1289.9 1668.3,1297.1 1638.3,1301.6"];
	418	[height=0.5,
		pos="1675,1315.8",
		width=0.75];
	8 -- 418	[pos="1749.3,1289.9 1734.1,1295.2 1714.4,1302.1 1699.1,1307.4"];
	124	[height=0.5,
		pos="906.31,1239.3",
		width=0.75];
	122 -- 124	[pos="1360.6,1153.1 1276.9,1169 1016.3,1218.5 932.51,1234.4"];
	123	[height=0.5,
		pos="1417.7,986.94",
		width=0.75];
	122 -- 123	[pos="1390.2,1130.3 1396.2,1099.3 1408.3,1035.9 1414.3,1004.9"];
	10	[height=0.5,
		pos="1450.8,1413.8",
		width=0.75];
	9 -- 10	[pos="1592.8,1318.4 1561.8,1339.2 1500.8,1380.2 1469.8,1401"];
	324	[height=0.5,
		pos="1473.8,1211.4",
		width=0.75];
	9 -- 324	[pos="1593,1292.6 1566.7,1274.7 1519.4,1242.5 1493,1224.5"];
	128	[height=0.5,
		pos="868.47,1460.9",
		width=0.75];
	124 -- 128	[pos="903.22,1257.5 896.1,1299.1 878.66,1401.2 871.56,1442.8"];
	125	[height=0.5,
		pos="872.42,1068.2",
		width=0.75];
	124 -- 125	[pos="902.75,1221.3 896.24,1188.5 882.5,1119.1 875.99,1086.2"];
	11	[height=0.5,
		pos="1221.8,1423.6",
		width=0.75];
	10 -- 11	[pos="1423.6,1415 1379.5,1416.9 1293,1420.5 1249,1422.4"];
	156	[height=0.5,
		pos="1566.6,1415.4",
		width=0.75];
	10 -- 156	[pos="1477.9,1414.2 1496.4,1414.4 1520.7,1414.8 1539.2,1415"];
	130	[height=0.5,
		pos="625.35,1560.5",
		width=0.75];
	128 -- 130	[pos="845.16,1470.4 798.69,1489.5 695,1531.9 648.59,1551"];
	129	[height=0.5,
		pos="967,1469.4",
		width=0.75];
	128 -- 129	[pos="895.39,1463.2 909.3,1464.4 926.21,1465.9 940.11,1467.1"];
	12	[height=0.5,
		pos="1017.5,1287.7",
		width=0.75];
	11 -- 12	[pos="1202.6,1410.8 1163.7,1384.9 1075.8,1326.5 1036.8,1300.6"];
	302	[height=0.5,
		pos="1201.9,1557.7",
		width=0.75];
	11 -- 302	[pos="1219.1,1441.7 1215.3,1467.3 1208.4,1513.8 1204.6,1539.5"];
	132	[height=0.5,
		pos="488.54,1475.7",
		width=0.75];
	130 -- 132	[pos="605.46,1548.1 579.52,1532.1 534.41,1504.1 508.46,1488"];
	131	[height=0.5,
		pos="732.78,1560.4",
		width=0.75];
	130 -- 131	[pos="652.46,1560.5 668.74,1560.4 689.4,1560.4 705.68,1560.4"];
	13	[height=0.5,
		pos="783.37,1293.2",
		width=0.75];
	12 -- 13	[pos="990.16,1288.4 945.05,1289.4 855.5,1291.5 810.51,1292.6"];
	185	[height=0.5,
		pos="1095.3,992.51",
		width=0.75];
	12 -- 185	[pos="1022.2,1269.7 1036.2,1216.9 1076.8,1062.8 1090.6,1010.3"];
	135	[height=0.5,
		pos="238.34,1298.5",
		width=0.75];
	132 -- 135	[pos="469.74,1462.3 423.26,1429.4 303.37,1344.5 257.02,1311.7"];
	133	[height=0.5,
		pos="744.39,1492.9",
		width=0.75];
	132 -- 133	[pos="515.44,1477.5 564.58,1480.8 668.32,1487.8 717.47,1491.1"];
	14	[height=0.5,
		pos="409.54,1222.3",
		width=0.75];
	13 -- 14	[pos="757.38,1288.3 689,1275.3 504.61,1240.3 435.86,1227.3"];
	144	[height=0.5,
		pos="782.28,1205.2",
		width=0.75];
	13 -- 144	[pos="783.14,1275 782.96,1259.8 782.69,1238.5 782.5,1223.4"];
	138	[height=0.5,
		pos="449.03,1399.8",
		width=0.75];
	135 -- 138	[pos="260.49,1309.2 300.95,1328.6 386.38,1369.7 426.86,1389.1"];
	136	[height=0.5,
		pos="188.36,1115.3",
		width=0.75];
	135 -- 136	[pos="233.45,1280.6 223.9,1245.6 202.84,1168.3 193.27,1133.2"];
	15	[height=0.5,
		pos="613.75,1340.3",
		width=0.75];
	14 -- 15	[pos="430.25,1234.3 469.49,1256.9 554.25,1305.9 593.29,1328.5"];
	222	[height=0.5,
		pos="347.12,1095.9",
		width=0.75];
	14 -- 222	[pos="400.99,1205 389.04,1180.8 367.46,1137.1 355.57,1113"];
	140	[height=0.5,
		pos="807.17,1337.2",
		width=0.75];
	138 -- 140	[pos="475.37,1395.2 541.6,1383.6 714.52,1353.4 780.79,1341.8"];
	139	[height=0.5,
		pos="515.97,1354.4",
		width=0.75];
	138 -- 139	[pos="468.04,1386.9 477,1380.8 487.69,1373.6 496.69,1367.5"];
	16	[height=0.5,
		pos="810.9,1156.2",
		width=0.75];
	15 -- 16	[pos="629.55,1325.5 666.46,1291.1 758.03,1205.6 795.02,1171.1"];
	305	[height=0.5,
		pos="682.34,1516.4",
		width=0.75];
	15 -- 305	[pos="620.58,1357.8 633.72,1391.6 662.42,1465.2 675.54,1498.9"];
	143	[height=0.5,
		pos="902.45,1337.4",
		width=0.75];
	140 -- 143	[pos="834.22,1337.2 847.09,1337.3 862.45,1337.3 875.34,1337.3"];
	141	[height=0.5,
		pos="969.4,1243.7",
		width=0.75];
	140 -- 141	[pos="827.71,1325.4 858.83,1307.4 917.59,1273.6 948.76,1255.6"];
	17	[height=0.5,
		pos="1013.9,1095.1",
		width=0.75];
	16 -- 17	[pos="835.78,1148.8 874.84,1137 950.1,1114.3 989.08,1102.6"];
	145	[height=0.5,
		pos="830.46,1023.9",
		width=0.75];
	16 -- 145	[pos="813.58,1138.1 817.3,1112.9 824.01,1067.5 827.75,1042.2"];
	149	[height=0.5,
		pos="1052.8,1380.5",
		width=0.75];
	143 -- 149	[pos="927.29,1344.5 955.15,1352.5 1000.1,1365.4 1028,1373.4"];
	143 -- 144	[pos="888.43,1321.9 865.4,1296.6 819.8,1246.4 796.58,1220.9"];
	18	[height=0.5,
		pos="1010.7,935.07",
		width=0.75];
	17 -- 18	[pos="1013.5,1077.1 1012.9,1046.3 1011.7,984.16 1011.1,953.3"];
	17 -- 108	[pos="1041.2,1096.3 1070.9,1097.5 1118,1099.5 1147.6,1100.7"];
	152	[height=0.5,
		pos="1199.7,1467.8",
		width=0.75];
	149 -- 152	[pos="1073.3,1392.7 1101.3,1409.3 1151.5,1439.2 1179.5,1455.8"];
	150	[height=0.5,
		pos="1167.4,1248.4",
		width=0.75];
	149 -- 150	[pos="1066.4,1364.9 1088.5,1339.4 1131.8,1289.5 1153.8,1264"];
	19	[height=0.5,
		pos="1306.5,793.61",
		width=0.75];
	18 -- 19	[pos="1032.9,924.43 1087.9,898.16 1229.6,830.38 1284.4,804.18"];
	232	[height=0.5,
		pos="912.49,909.4",
		width=0.75];
	18 -- 232	[pos="985.41,928.46 970.75,924.63 952.35,919.82 937.7,915.99"];
	155	[height=0.5,
		pos="1520.8,1317.6",
		width=0.75];
	152 -- 155	[pos="1222,1457.4 1280.9,1429.8 1439.9,1355.4 1498.7,1327.9"];
	153	[height=0.5,
		pos="986.72,1513.5",
		width=0.75];
	152 -- 153	[pos="1173.6,1473.4 1132.6,1482.2 1053.6,1499.1 1012.7,1507.9"];
	20	[height=0.5,
		pos="1614.8,652.4",
		width=0.75];
	19 -- 20	[pos="1328.9,783.34 1385.8,757.26 1535.6,688.67 1592.4,662.63"];
	330	[height=0.5,
		pos="1302.9,925.7",
		width=0.75];
	19 -- 330	[pos="1306,811.7 1305.3,836.86 1304,882.14 1303.4,907.41"];
	158	[height=0.5,
		pos="1676.1,1139.7",
		width=0.75];
	155 -- 158	[pos="1534.6,1301.8 1564.1,1268 1632.9,1189.2 1662.4,1155.5"];
	155 -- 156	[pos="1529,1335 1537.3,1352.9 1550.2,1380.3 1558.5,1398.1"];
	21	[height=0.5,
		pos="1654.4,506.94",
		width=0.75];
	20 -- 21	[pos="1619.6,634.56 1627.2,606.64 1641.9,552.93 1649.5,524.92"];
	430	[height=0.5,
		pos="1602.3,608.36",
		width=0.75];
	20 -- 430	[pos="1609.7,634.48 1608.9,631.72 1608.1,628.87 1607.3,626.11"];
	161	[height=0.5,
		pos="1899.2,937.44",
		width=0.75];
	158 -- 161	[pos="1692.2,1125.2 1733.2,1087.9 1841.8,989.51 1883,952.12"];
	159	[height=0.5,
		pos="1604,986.78",
		width=0.75];
	158 -- 159	[pos="1668,1122.5 1654.1,1093.1 1626.1,1033.7 1612.2,1004.2"];
	22	[height=0.5,
		pos="1516.9,462.48",
		width=0.75];
	21 -- 22	[pos="1629.8,498.99 1604.8,490.9 1566.2,478.43 1541.2,470.36"];
	431	[height=0.5,
		pos="1729.9,560.07",
		width=0.75];
	21 -- 431	[pos="1673.1,520.07 1684.7,528.24 1699.5,538.72 1711.2,546.9"];
	164	[height=0.5,
		pos="1927.1,1054.2",
		width=0.75];
	161 -- 164	[pos="1903.5,955.42 1908.8,977.43 1917.6,1014.4 1922.8,1036.4"];
	162	[height=0.5,
		pos="1904.9,706.99",
		width=0.75];
	161 -- 162	[pos="1899.7,919.35 1900.7,876.27 1903.4,767.98 1904.5,724.99"];
	23	[height=0.5,
		pos="1414.4,321.19",
		width=0.75];
	22 -- 23	[pos="1505.1,446.28 1485.5,419.17 1446.1,364.92 1426.3,337.65"];
	22 -- 101	[pos="1493.5,472.06 1454.3,488.16 1375.5,520.47 1336.5,536.49"];
	166	[height=0.5,
		pos="1801.1,1167.6",
		width=0.75];
	164 -- 166	[pos="1910.9,1068.8 1886.7,1090.5 1841.4,1131.3 1817.2,1153"];
	165	[height=0.5,
		pos="1953.6,989.85",
		width=0.75];
	164 -- 165	[pos="1934.3,1036.6 1938.1,1027.5 1942.6,1016.5 1946.4,1007.4"];
	24	[height=0.5,
		pos="1488.9,176.71",
		width=0.75];
	23 -- 24	[pos="1423.2,304.05 1437.6,276.25 1465.7,221.62 1480.1,193.83"];
	358	[height=0.5,
		pos="1279.1,368.25",
		width=0.75];
	23 -- 358	[pos="1390.2,329.61 1365.6,338.17 1327.6,351.37 1303.1,359.91"];
	168	[height=0.5,
		pos="1711.2,1271.8",
		width=0.75];
	166 -- 168	[pos="1787.4,1183.4 1770.4,1203.1 1741.6,1236.5 1724.7,1256.2"];
	167	[height=0.5,
		pos="1831.4,1110",
		width=0.75];
	166 -- 167	[pos="1810.2,1150.3 1814,1143 1818.5,1134.6 1822.3,1127.3"];
	25	[height=0.5,
		pos="1569.8,201.86",
		width=0.75];
	24 -- 25	[pos="1513.6,184.39 1523.7,187.51 1535.2,191.11 1545.3,194.23"];
	251	[height=0.5,
		pos="1302.8,111.33",
		width=0.75];
	24 -- 251	[pos="1465,168.3 1429.3,155.78 1362.7,132.38 1326.9,119.82"];
	170	[height=0.5,
		pos="1486.4,1260.3",
		width=0.75];
	168 -- 170	[pos="1684.1,1270.4 1640.9,1268.2 1556.9,1263.9 1513.6,1261.7"];
	169	[height=0.5,
		pos="1718.1,1227.8",
		width=0.75];
	168 -- 169	[pos="1714,1253.9 1714.4,1251.2 1714.8,1248.5 1715.3,1245.8"];
	26	[height=0.5,
		pos="1655.7,305.6",
		width=0.75];
	25 -- 26	[pos="1583.3,218.07 1599.4,237.56 1626.3,270.07 1642.4,289.5"];
	435	[height=0.5,
		pos="1586.6,265.21",
		width=0.75];
	25 -- 435	[pos="1574.6,219.84 1576.9,228.48 1579.6,238.79 1581.9,247.4"];
	172	[height=0.5,
		pos="1229.6,1238.8",
		width=0.75];
	170 -- 172	[pos="1459.4,1258 1410.1,1253.9 1306,1245.2 1256.6,1241"];
	171	[height=0.5,
		pos="1535.9,1206.2",
		width=0.75];
	170 -- 171	[pos="1500.7,1244.7 1507.3,1237.4 1515.2,1228.9 1521.8,1221.6"];
	27	[height=0.5,
		pos="1808.8,453.17",
		width=0.75];
	26 -- 27	[pos="1671.3,320.56 1700.6,348.85 1763.9,409.85 1793.2,438.17"];
	436	[height=0.5,
		pos="1713.1,351.6",
		width=0.75];
	26 -- 436	[pos="1673.3,319.65 1680.4,325.36 1688.6,331.94 1695.7,337.63"];
	175	[height=0.5,
		pos="1133.9,1057.8",
		width=0.75];
	172 -- 175	[pos="1220.6,1221.7 1202.4,1187.3 1161.2,1109.5 1143,1074.9"];
	173	[height=0.5,
		pos="881.26,1140.4",
		width=0.75];
	172 -- 173	[pos="1204.6,1231.7 1140.4,1213.6 970.93,1165.8 906.55,1147.6"];
	28	[height=0.5,
		pos="1842.7,547.5",
		width=0.75];
	27 -- 28	[pos="1815.2,470.91 1821.2,487.78 1830.3,513 1836.3,529.83"];
	342	[height=0.5,
		pos="1721.9,516.04",
		width=0.75];
	27 -- 342	[pos="1790.4,466.5 1775.6,477.17 1755.1,492.06 1740.3,502.72"];
	180	[height=0.5,
		pos="1368.5,782.69",
		width=0.75];
	175 -- 180	[pos="1147.5,1041.9 1189.1,993.11 1313.9,846.72 1355.1,798.37"];
	176	[height=0.5,
		pos="934.47,1064.2",
		width=0.75];
	175 -- 176	[pos="1106.6,1058.7 1068.4,1059.9 999.47,1062.1 961.45,1063.3"];
	29	[height=0.5,
		pos="1702.8,396.32",
		width=0.75];
	28 -- 29	[pos="1828.5,532.17 1801.7,503.19 1743.9,440.69 1717,411.69"];
	28 -- 162	[pos="1849.6,565.17 1861.5,595.83 1886,658.52 1898,689.23"];
	184	[height=0.5,
		pos="1202.4,899.98",
		width=0.75];
	180 -- 184	[pos="1349.8,795.91 1317.8,818.5 1253,864.25 1221,886.8"];
	181	[height=0.5,
		pos="1446,606.92",
		width=0.75];
	180 -- 181	[pos="1376.2,765.19 1391.1,731.5 1423.5,657.98 1438.3,624.35"];
	30	[height=0.5,
		pos="1571.9,366.06",
		width=0.75];
	29 -- 30	[pos="1677.3,390.41 1654.4,385.11 1620.9,377.38 1597.9,372.05"];
	439	[height=0.5,
		pos="1737.5,459.41",
		width=0.75];
	29 -- 439	[pos="1712.1,413.23 1717.1,422.28 1723.2,433.4 1728.2,442.46"];
	188	[height=0.5,
		pos="1032.1,890.41",
		width=0.75];
	184 -- 188	[pos="1175.4,898.47 1143.6,896.68 1091.1,893.73 1059.2,891.94"];
	184 -- 185	[pos="1185.7,914.44 1165.5,931.82 1132,960.82 1111.9,978.15"];
	31	[height=0.5,
		pos="1381,428.62",
		width=0.75];
	30 -- 31	[pos="1547.4,374.11 1510.7,386.12 1442.1,408.61 1405.4,420.6"];
	284	[height=0.5,
		pos="1437.3,365.2",
		width=0.75];
	30 -- 284	[pos="1544.7,365.89 1521.3,365.74 1487.9,365.52 1464.5,365.38"];
	191	[height=0.5,
		pos="759.12,814.56",
		width=0.75];
	188 -- 191	[pos="1006.9,883.41 954.89,868.96 836.2,835.98 784.25,821.54"];
	188 -- 189	[pos="1050.8,903.82 1094,934.6 1199.6,1010.1 1242.7,1040.8"];
	32	[height=0.5,
		pos="1096.8,427.09",
		width=0.75];
	31 -- 32	[pos="1353.7,428.48 1299.4,428.18 1178.2,427.53 1124,427.23"];
	182	[height=0.5,
		pos="1449.6,516.67",
		width=0.75];
	31 -- 182	[pos="1393.5,444.77 1405.9,460.66 1424.7,484.77 1437.1,500.62"];
	194	[height=0.5,
		pos="827.52,567.8",
		width=0.75];
	191 -- 194	[pos="764.04,796.81 776.63,751.39 809.91,631.32 822.56,585.71"];
	192	[height=0.5,
		pos="478.58,849.69",
		width=0.75];
	191 -- 192	[pos="732.47,817.89 678.99,824.59 559.13,839.6 505.46,846.32"];
	33	[height=0.5,
		pos="753.76,432.54",
		width=0.75];
	32 -- 33	[pos="1069.6,427.52 1005.4,428.54 845.15,431.09 780.96,432.11"];
	32 -- 105	[pos="1121.2,435.52 1162.8,449.93 1247.1,479.12 1288.7,493.5"];
	198	[height=0.5,
		pos="1052.7,471.11",
		width=0.75];
	194 -- 198	[pos="850.35,557.99 893.51,539.46 986.59,499.49 1029.8,480.94"];
	195	[height=0.5,
		pos="699.37,563.99",
		width=0.75];
	194 -- 195	[pos="800.35,566.99 778.6,566.34 748.25,565.44 726.51,564.79"];
	34	[height=0.5,
		pos="479.04,500.88",
		width=0.75];
	33 -- 34	[pos="728.4,438.84 676.2,451.83 557.22,481.43 504.73,494.49"];
	383	[height=0.5,
		pos="510.26,580.46",
		width=0.75];
	33 -- 383	[pos="733.41,444.89 687.46,472.81 576.1,540.46 530.37,568.24"];
	201	[height=0.5,
		pos="1006.6,385.85",
		width=0.75];
	198 -- 201	[pos="1043.4,453.86 1035.3,438.97 1023.7,417.59 1015.7,402.79"];
	199	[height=0.5,
		pos="1240.3,587.39",
		width=0.75];
	198 -- 199	[pos="1072.8,483.56 1108.9,505.94 1184.4,552.72 1220.4,575.04"];
	35	[height=0.5,
		pos="506.4,634.91",
		width=0.75];
	34 -- 35	[pos="482.73,518.96 487.95,544.54 497.44,591.04 502.68,616.7"];
	444	[height=0.5,
		pos="589.65,343.73",
		width=0.75];
	34 -- 444	[pos="490.66,484.36 511.96,454.1 556.99,390.12 578.18,360.03"];
	204	[height=0.5,
		pos="881.41,382.42",
		width=0.75];
	201 -- 204	[pos="979.43,385.11 958.43,384.53 929.5,383.74 908.52,383.17"];
	202	[height=0.5,
		pos="1314.9,456.95",
		width=0.75];
	201 -- 202	[pos="1032.4,391.79 1090.4,405.17 1230.8,437.56 1289,450.98"];
	36	[height=0.5,
		pos="336.41,454.43",
		width=0.75];
	35 -- 36	[pos="491.91,619.53 459.79,585.43 382.95,503.84 350.86,469.78"];
	177	[height=0.5,
		pos="713.23,902.62",
		width=0.75];
	35 -- 177	[pos="519.03,651.26 556.04,699.16 663.97,838.86 700.77,886.49"];
	206	[height=0.5,
		pos="615.7,475.97",
		width=0.75];
	204 -- 206	[pos="857.36,390.89 806.9,408.65 690.46,449.65 639.88,467.45"];
	205	[height=0.5,
		pos="838.61,476.1",
		width=0.75];
	204 -- 205	[pos="873.36,400.04 865.66,416.9 854.12,442.15 846.48,458.88"];
	37	[height=0.5,
		pos="356.97,401.17",
		width=0.75];
	36 -- 37	[pos="343.14,436.99 345.39,431.17 347.89,424.68 350.15,418.83"];
	207	[height=0.5,
		pos="522.89,391.33",
		width=0.75];
	36 -- 207	[pos="360.79,446.18 396.63,434.06 463.13,411.55 498.8,399.48"];
	212	[height=0.5,
		pos="484.61,801.95",
		width=0.75];
	206 -- 212	[pos="608.65,493.49 585.89,550.1 514.5,727.62 491.69,784.34"];
	206 -- 207	[pos="599.53,461.22 582.5,445.69 555.84,421.37 538.87,405.9"];
	38	[height=0.5,
		pos="198.29,471.44",
		width=0.75];
	37 -- 38	[pos="334.23,411.24 304.07,424.6 251.12,448.05 220.98,461.39"];
	447	[height=0.5,
		pos="397.23,302.6",
		width=0.75];
	37 -- 447	[pos="364.16,383.55 371.49,365.61 382.79,337.96 390.09,320.07"];
	215	[height=0.5,
		pos="227.86,895.81",
		width=0.75];
	212 -- 215	[pos="460.91,810.62 412.13,828.45 300.92,869.1 251.87,887.04"];
	212 -- 213	[pos="506.03,813.06 577.35,850.02 806.27,968.66 877.77,1005.7"];
	39	[height=0.5,
		pos="113.03,742.75",
		width=0.75];
	38 -- 39	[pos="192.69,489.24 177.25,538.4 134.12,675.65 118.65,724.88"];
	362	[height=0.5,
		pos="531.36,299.31",
		width=0.75];
	38 -- 362	[pos="219.63,460.41 279.65,429.4 449.44,341.65 509.76,310.47"];
	218	[height=0.5,
		pos="165.5,926.98",
		width=0.75];
	215 -- 218	[pos="206.05,906.71 200.01,909.73 193.45,913.01 187.4,916.03"];
	216	[height=0.5,
		pos="150.51,804.95",
		width=0.75];
	215 -- 216	[pos="214.38,879.99 200.27,863.41 178.24,837.52 164.09,820.9"];
	40	[height=0.5,
		pos="27,1034.6",
		width=0.75];
	39 -- 40	[pos="107.78,760.57 92.422,812.67 47.704,964.36 32.293,1016.6"];
	371	[height=0.5,
		pos="28.501,874.52",
		width=0.75];
	39 -- 371	[pos="102.33,759.44 86.067,784.79 55.328,832.7 39.12,857.97"];
	221	[height=0.5,
		pos="292.47,1003.4",
		width=0.75];
	218 -- 221	[pos="185.62,939.09 209.25,953.31 248.25,976.78 272.03,991.09"];
	219	[height=0.5,
		pos="248.59,681.04",
		width=0.75];
	218 -- 219	[pos="171.47,909.3 186.77,864.03 227.2,744.35 242.56,698.9"];
	41	[height=0.5,
		pos="90.656,856.37",
		width=0.75];
	40 -- 41	[pos="33.336,1016.9 45.538,982.69 72.164,908.15 84.345,874.04"];
	40 -- 136	[pos="48.762,1045.5 79.645,1060.9 135.85,1089 166.69,1104.4"];
	227	[height=0.5,
		pos="398.17,918.74",
		width=0.75];
	221 -- 227	[pos="309.93,989.41 329.51,973.73 361.09,948.43 380.69,932.74"];
	221 -- 222	[pos="302.5,1020.4 312.36,1037 327.32,1062.4 337.16,1079"];
	42	[height=0.5,
		pos="273.74,725.08",
		width=0.75];
	41 -- 42	[pos="109.22,843.06 144.31,817.9 220,763.62 255.13,738.43"];
	451	[height=0.5,
		pos="103.27,900.7",
		width=0.75];
	41 -- 451	[pos="95.712,874.15 96.534,877.04 97.386,880.03 98.208,882.92"];
	231	[height=0.5,
		pos="593.36,927.17",
		width=0.75];
	227 -- 231	[pos="425.31,919.91 462.5,921.52 528.91,924.38 566.14,925.99"];
	228	[height=0.5,
		pos="417.95,764.96",
		width=0.75];
	227 -- 228	[pos="400.48,900.8 404.27,871.32 411.77,812.97 415.59,783.27"];
	43	[height=0.5,
		pos="442.06,676.96",
		width=0.75];
	42 -- 43	[pos="298.58,717.98 330.4,708.88 385.25,693.2 417.12,684.09"];
	208	[height=0.5,
		pos="358.48,553.26",
		width=0.75];
	42 -- 208	[pos="282.17,707.98 298.37,675.13 333.68,603.55 349.95,570.55"];
	236	[height=0.5,
		pos="540.64,883.13",
		width=0.75];
	231 -- 236	[pos="576.39,912.99 570.37,907.97 563.6,902.31 557.58,897.28"];
	231 -- 232	[pos="620.29,925.67 680.4,922.32 824.93,914.28 885.29,910.92"];
	44	[height=0.5,
		pos="365.08,509.13",
		width=0.75];
	43 -- 44	[pos="434.11,659.63 419.36,627.47 387.9,558.9 373.1,526.62"];
	395	[height=0.5,
		pos="720.42,858.59",
		width=0.75];
	43 -- 395	[pos="461.64,689.73 512.75,723.08 649.79,812.5 700.87,845.83"];
	242	[height=0.5,
		pos="424.37,588.9",
		width=0.75];
	236 -- 242	[pos="533.71,865.61 513.03,813.28 451.89,658.55 431.26,606.34"];
	237	[height=0.5,
		pos="663.09,946.62",
		width=0.75];
	236 -- 237	[pos="561.97,894.19 584.31,905.77 619.2,923.86 641.6,935.47"];
	45	[height=0.5,
		pos="713.73,316.91",
		width=0.75];
	44 -- 45	[pos="386.1,497.54 448.23,463.29 630.51,362.79 692.68,328.52"];
	44 -- 219	[pos="353.91,525.62 331.64,558.48 281.96,631.79 259.73,664.6"];
	244	[height=0.5,
		pos="616.23,387.76",
		width=0.75];
	242 -- 244	[pos="439.11,573.46 474.91,535.92 566.13,440.29 601.71,402.99"];
	243	[height=0.5,
		pos="416.96,465.01",
		width=0.75];
	242 -- 243	[pos="423.29,570.89 421.89,547.4 419.44,506.54 418.04,483.04"];
	46	[height=0.5,
		pos="541.04,464.36",
		width=0.75];
	45 -- 46	[pos="696.86,331.32 663.76,359.58 590.68,421.98 557.73,450.11"];
	346	[height=0.5,
		pos="992.83,252.45",
		width=0.75];
	45 -- 346	[pos="739.49,310.97 792.66,298.69 914.02,270.66 967.13,258.39"];
	247	[height=0.5,
		pos="746.35,228.82",
		width=0.75];
	244 -- 247	[pos="629.18,371.94 654,341.63 707.99,275.68 733.06,245.05"];
	245	[height=0.5,
		pos="776.09,512.68",
		width=0.75];
	244 -- 245	[pos="633.95,401.61 664.68,425.62 727.51,474.72 758.29,498.77"];
	47	[height=0.5,
		pos="234.38,515.52",
		width=0.75];
	46 -- 47	[pos="514.63,468.76 456.66,478.43 318.85,501.43 260.84,511.1"];
	238	[height=0.5,
		pos="700.48,652.05",
		width=0.75];
	46 -- 238	[pos="554.36,480.04 584.38,515.37 657,600.87 687.09,636.28"];
	250	[height=0.5,
		pos="984.17,114.12",
		width=0.75];
	247 -- 250	[pos="768.29,218.24 813.6,196.39 917.02,146.51 962.28,124.68"];
	248	[height=0.5,
		pos="518.65,254.74",
		width=0.75];
	247 -- 248	[pos="719.33,231.9 675.39,236.9 588.96,246.74 545.27,251.71"];
	48	[height=0.5,
		pos="186.54,713.62",
		width=0.75];
	47 -- 48	[pos="230.05,533.45 220.97,571.07 200,657.88 190.9,695.59"];
	384	[height=0.5,
		pos="239.31,592.96",
		width=0.75];
	47 -- 384	[pos="235.55,533.87 236.34,546.22 237.37,562.42 238.15,574.74"];
	253	[height=0.5,
		pos="1181.5,59.522",
		width=0.75];
	250 -- 253	[pos="1009.2,107.21 1047,96.732 1118.5,76.958 1156.4,66.467"];
	250 -- 251	[pos="1011.3,113.88 1071.5,113.36 1215.5,112.1 1275.7,111.57"];
	49	[height=0.5,
		pos="212.76,779.15",
		width=0.75];
	48 -- 49	[pos="193.57,731.18 197.33,740.58 201.95,752.13 205.71,761.54"];
	48 -- 216	[pos="179.6,731.23 173.21,747.4 163.81,771.24 157.44,787.39"];
	255	[height=0.5,
		pos="1239.7,103.57",
		width=0.75];
	253 -- 255	[pos="1199.6,73.216 1206.7,78.57 1214.8,84.693 1221.8,90.031"];
	254	[height=0.5,
		pos="1070.3,26.448",
		width=0.75];
	253 -- 254	[pos="1156.9,52.182 1138.6,46.739 1113.7,39.347 1095.3,33.882"];
	50	[height=0.5,
		pos="115.25,628.45",
		width=0.75];
	49 -- 50	[pos="201.95,762.45 183.21,733.48 144.88,674.25 126.11,645.23"];
	49 -- 192	[pos="238.25,785.91 289.06,799.39 402.42,829.48 453.17,842.94"];
	258	[height=0.5,
		pos="985.21,18",
		width=0.75];
	255 -- 258	[pos="1215.3,95.362 1166.7,79.006 1058.1,42.514 1009.5,26.18"];
	256	[height=0.5,
		pos="1240.9,236.14",
		width=0.75];
	255 -- 256	[pos="1239.9,121.72 1240.1,146.97 1240.5,192.42 1240.8,217.78"];
	51	[height=0.5,
		pos="132.63,460.2",
		width=0.75];
	50 -- 51	[pos="117.11,610.44 120.45,578.15 127.41,510.72 130.75,478.33"];
	460	[height=0.5,
		pos="107.57,521.46",
		width=0.75];
	50 -- 460	[pos="113.95,610.3 112.53,590.63 110.29,559.41 108.88,539.7"];
	260	[height=0.5,
		pos="805.81,94.755",
		width=0.75];
	258 -- 260	[pos="962.12,27.877 927.67,42.615 863.2,70.2 828.81,84.915"];
	259	[height=0.5,
		pos="911.12,35.255",
		width=0.75];
	258 -- 259	[pos="959.71,23.938 952.26,25.674 944.12,27.57 936.66,29.306"];
	52	[height=0.5,
		pos="390.2,355.98",
		width=0.75];
	51 -- 52	[pos="155.94,450.77 204.85,430.97 317.72,385.3 366.75,365.47"];
	461	[height=0.5,
		pos="145.45,409.1",
		width=0.75];
	51 -- 461	[pos="137.11,442.33 138.36,437.38 139.7,432 140.95,427.05"];
	263	[height=0.5,
		pos="638.42,139.66",
		width=0.75];
	260 -- 263	[pos="780.75,101.48 749.19,109.94 695.29,124.4 663.65,132.89"];
	261	[height=0.5,
		pos="652.18,227.78",
		width=0.75];
	260 -- 261	[pos="789.08,109.24 759.52,134.83 698.43,187.73 668.89,213.31"];
	53	[height=0.5,
		pos="296.46,548.92",
		width=0.75];
	52 -- 53	[pos="381.71,373.44 363.87,410.18 322.62,495.06 304.85,531.64"];
	52 -- 248	[pos="407.79,342.12 432.25,322.84 476.29,288.13 500.85,268.77"];
	265	[height=0.5,
		pos="774.54,272.87",
		width=0.75];
	263 -- 265	[pos="653.77,154.68 679.91,180.27 732.79,232.01 759.04,257.7"];
	264	[height=0.5,
		pos="590.1,212.92",
		width=0.75];
	263 -- 264	[pos="627.46,156.28 619.55,168.27 608.92,184.38 601.02,196.36"];
	54	[height=0.5,
		pos="577.95,790.59",
		width=0.75];
	53 -- 54	[pos="313.22,563.31 363.29,606.3 511.32,733.39 561.27,776.27"];
	463	[height=0.5,
		pos="172,551.07",
		width=0.75];
	53 -- 463	[pos="269.45,549.39 248.72,549.74 220.21,550.24 199.38,550.6"];
	267	[height=0.5,
		pos="841.01,520.1",
		width=0.75];
	265 -- 267	[pos="779.32,290.65 791.56,336.16 823.9,456.46 836.18,502.15"];
	266	[height=0.5,
		pos="678.31,361.21",
		width=0.75];
	265 -- 266	[pos="758.65,287.46 740.82,303.83 712.06,330.22 694.22,346.6"];
	55	[height=0.5,
		pos="638.39,634.53",
		width=0.75];
	54 -- 55	[pos="584.76,772.99 596.37,743.02 619.85,682.4 631.51,652.31"];
	54 -- 125	[pos="593.78,805.52 644.91,853.72 805.27,1004.9 856.51,1053.2"];
	271	[height=0.5,
		pos="1093.1,535.76",
		width=0.75];
	267 -- 271	[pos="867.98,521.78 916.38,524.78 1017.4,531.06 1065.9,534.08"];
	268	[height=0.5,
		pos="683.11,740.08",
		width=0.75];
	267 -- 268	[pos="829.14,536.64 799.81,577.5 724.15,682.9 694.9,723.65"];
	56	[height=0.5,
		pos="839.99,432.07",
		width=0.75];
	55 -- 56	[pos="653.54,619.31 691,581.7 787.59,484.7 824.94,447.19"];
	55 -- 195	[pos="651.92,618.88 662.03,607.19 675.78,591.28 685.88,579.6"];
	274	[height=0.5,
		pos="1109,338.69",
		width=0.75];
	271 -- 274	[pos="1094.6,517.58 1097.6,480.03 1104.5,394.34 1107.6,356.83"];
	272	[height=0.5,
		pos="1069.2,808.86",
		width=0.75];
	271 -- 272	[pos="1091.5,554.11 1087.1,603.86 1075.2,740.94 1070.8,790.6"];
	57	[height=0.5,
		pos="664.37,271.81",
		width=0.75];
	56 -- 57	[pos="823.79,417.28 790.33,386.75 713.96,317.06 680.54,286.56"];
	102	[height=0.5,
		pos="1042.3,623.8",
		width=0.75];
	56 -- 102	[pos="855.53,446.8 893.2,482.49 989.02,573.28 1026.7,609.02"];
	277	[height=0.5,
		pos="1116.9,245.66",
		width=0.75];
	274 -- 277	[pos="1110.6,320.31 1112,303.9 1114,279.99 1115.3,263.69"];
	275	[height=0.5,
		pos="1301.2,324.21",
		width=0.75];
	274 -- 275	[pos="1136.2,336.65 1172.8,333.89 1237.7,329 1274.2,326.25"];
	58	[height=0.5,
		pos="528.07,190.9",
		width=0.75];
	57 -- 58	[pos="643.97,259.7 618.27,244.44 574.38,218.39 548.61,203.1"];
	467	[height=0.5,
		pos="455.99,367.51",
		width=0.75];
	57 -- 467	[pos="642.07,282.05 602.07,300.42 518.56,338.78 478.44,357.2"];
	280	[height=0.5,
		pos="1371.7,232.05",
		width=0.75];
	277 -- 280	[pos="1144.1,244.21 1193.2,241.59 1295.7,236.11 1344.6,233.5"];
	278	[height=0.5,
		pos="885.75,215.21",
		width=0.75];
	277 -- 278	[pos="1090.3,242.17 1045.9,236.31 956.79,224.57 912.3,218.71"];
	59	[height=0.5,
		pos="557.86,137.78",
		width=0.75];
	58 -- 59	[pos="537.66,173.8 541.06,167.74 544.89,160.91 548.29,154.85"];
	468	[height=0.5,
		pos="456.61,229.84",
		width=0.75];
	58 -- 468	[pos="507.02,202.37 497.79,207.4 486.99,213.28 477.76,218.32"];
	283	[height=0.5,
		pos="1517.4,412.51",
		width=0.75];
	280 -- 283	[pos="1384.6,248.06 1412.2,282.31 1476.9,362.31 1504.5,396.53"];
	281	[height=0.5,
		pos="1426.8,162.89",
		width=0.75];
	280 -- 281	[pos="1384.5,216.01 1393.4,204.84 1405.2,190 1414.1,178.85"];
	60	[height=0.5,
		pos="683.59,52.702",
		width=0.75];
	59 -- 60	[pos="576.96,124.86 600.59,108.87 640.6,81.793 664.32,65.746"];
	469	[height=0.5,
		pos="465.84,174.96",
		width=0.75];
	59 -- 469	[pos="534.64,147.16 520.69,152.8 503,159.94 489.05,165.58"];
	288	[height=0.5,
		pos="1667.8,566.24",
		width=0.75];
	283 -- 288	[pos="1532.4,427.81 1561.2,457.28 1624.1,521.58 1652.9,551"];
	283 -- 284	[pos="1497.2,400.57 1485.1,393.45 1469.9,384.44 1457.8,377.3"];
	61	[height=0.5,
		pos="743.43,96.756",
		width=0.75];
	60 -- 61	[pos="701.87,66.159 709.3,71.625 717.85,77.924 725.26,83.381"];
	470	[height=0.5,
		pos="620.26,95.357",
		width=0.75];
	60 -- 470	[pos="664.59,65.5 656.72,70.801 647.6,76.943 639.69,82.273"];
	291	[height=0.5,
		pos="1781.9,782.44",
		width=0.75];
	288 -- 291	[pos="1677,583.57 1698.4,624.15 1751.6,724.97 1772.9,765.33"];
	289	[height=0.5,
		pos="1552.7,694.36",
		width=0.75];
	288 -- 289	[pos="1654,581.7 1631.8,606.32 1588.8,654.19 1566.7,678.85"];
	62	[height=0.5,
		pos="827.13,167.33",
		width=0.75];
	61 -- 62	[pos="760.37,111.04 774.89,123.28 795.7,140.83 810.21,153.07"];
	471	[height=0.5,
		pos="848.71,50.738",
		width=0.75];
	61 -- 471	[pos="766.02,86.884 783.66,79.172 808.08,68.5 825.8,60.752"];
	294	[height=0.5,
		pos="1545.1,1088.9",
		width=0.75];
	291 -- 294	[pos="1769.5,798.49 1728.7,851.33 1598.8,1019.5 1557.7,1072.7"];
	291 -- 292	[pos="1765.9,796.92 1741.1,819.19 1694,861.6 1669.2,883.97"];
	63	[height=0.5,
		pos="931.83,158.12",
		width=0.75];
	62 -- 63	[pos="854.09,164.96 869.72,163.59 889.34,161.86 904.96,160.49"];
	363	[height=0.5,
		pos="682.47,183.73",
		width=0.75];
	62 -- 363	[pos="800.26,170.38 774.27,173.33 735.13,177.76 709.2,180.7"];
	299	[height=0.5,
		pos="1408.7,1280",
		width=0.75];
	294 -- 299	[pos="1533.5,1105.2 1507.8,1141.2 1446.4,1227.3 1420.5,1263.5"];
	295	[height=0.5,
		pos="1479.7,1029.5",
		width=0.75];
	294 -- 295	[pos="1529,1074.2 1518.8,1065 1505.8,1053.2 1495.7,1044"];
	64	[height=0.5,
		pos="961.82,296.48",
		width=0.75];
	63 -- 64	[pos="935.75,176.21 941.5,202.73 952.15,251.87 957.9,278.39"];
	347	[height=0.5,
		pos="1124.9,179.55",
		width=0.75];
	63 -- 347	[pos="958.69,161.1 995.48,165.18 1061.2,172.47 1098,176.56"];
	301	[height=0.5,
		pos="1139.9,1550.6",
		width=0.75];
	299 -- 301	[pos="1393.5,1295.3 1346.2,1343 1202,1488.1 1154.9,1535.5"];
	300	[height=0.5,
		pos="1305,1246.3",
		width=0.75];
	299 -- 300	[pos="1384.4,1272.1 1367.9,1266.7 1346.1,1259.7 1329.5,1254.3"];
	65	[height=0.5,
		pos="994,202.86",
		width=0.75];
	64 -- 65	[pos="967.87,278.87 973.59,262.24 982.12,237.42 987.87,220.71"];
	239	[height=0.5,
		pos="939.14,426.62",
		width=0.75];
	64 -- 239	[pos="958.67,314.58 954.33,339.44 946.59,383.9 942.27,408.68"];
	304	[height=0.5,
		pos="924.68,1549.8",
		width=0.75];
	301 -- 304	[pos="1112.6,1550.5 1071.2,1550.4 992.98,1550.1 951.71,1549.9"];
	301 -- 302	[pos="1166.5,1553.7 1169.4,1554 1172.4,1554.3 1175.3,1554.7"];
	66	[height=0.5,
		pos="823.03,228.84",
		width=0.75];
	65 -- 66	[pos="967.66,206.86 935.54,211.74 881.55,219.95 849.4,224.83"];
	350	[height=0.5,
		pos="1223.9,180.61",
		width=0.75];
	65 -- 350	[pos="1020.8,200.26 1065,195.99 1152.6,187.51 1196.9,183.23"];
	307	[height=0.5,
		pos="806.45,1450.6",
		width=0.75];
	304 -- 307	[pos="907.74,1535.6 885.27,1516.8 845.82,1483.7 823.36,1464.8"];
	304 -- 305	[pos="897.82,1546.1 851.11,1539.7 755.48,1526.5 708.95,1520"];
	67	[height=0.5,
		pos="681.16,414.19",
		width=0.75];
	66 -- 67	[pos="810.69,244.97 783.86,280.02 720.47,362.83 693.58,397.97"];
	476	[height=0.5,
		pos="874.48,280.89",
		width=0.75];
	66 -- 476	[pos="837.91,243.9 844.68,250.74 852.67,258.83 859.46,265.69"];
	310	[height=0.5,
		pos="770.24,1604.4",
		width=0.75];
	307 -- 310	[pos="802.23,1468.6 795.25,1498.2 781.4,1557 774.44,1586.6"];
	308	[height=0.5,
		pos="655.43,1223.8",
		width=0.75];
	307 -- 308	[pos="795.35,1433.9 767.42,1392 694.5,1282.5 666.55,1240.5"];
	68	[height=0.5,
		pos="908.9,470.67",
		width=0.75];
	67 -- 68	[pos="706.84,420.56 750.7,431.44 839.52,453.46 883.31,464.32"];
	209	[height=0.5,
		pos="572.41,594.21",
		width=0.75];
	67 -- 209	[pos="670.93,431.13 650.15,465.53 603.23,543.2 582.54,577.45"];
	312	[height=0.5,
		pos="989.07,1557.5",
		width=0.75];
	310 -- 312	[pos="796.21,1598.9 838.32,1589.8 921.05,1572.1 963.14,1563.1"];
	311	[height=0.5,
		pos="832.28,1600.5",
		width=0.75];
	310 -- 311	[pos="797.27,1602.7 799.88,1602.6 802.53,1602.4 805.15,1602.2"];
	69	[height=0.5,
		pos="1048.5,667.82",
		width=0.75];
	68 -- 69	[pos="920.56,487.14 946.9,524.34 1010.7,614.51 1036.9,651.53"];
	68 -- 245	[pos="884.23,478.47 860.38,486.02 824.44,497.39 800.62,504.92"];
	314	[height=0.5,
		pos="1266.1,1556.6",
		width=0.75];
	312 -- 314	[pos="1016.1,1557.4 1069.1,1557.2 1185.9,1556.9 1238.9,1556.7"];
	313	[height=0.5,
		pos="1049.6,1601.5",
		width=0.75];
	312 -- 313	[pos="1007.6,1571 1015.1,1576.4 1023.7,1582.7 1031.3,1588.2"];
	70	[height=0.5,
		pos="1240.8,944.85",
		width=0.75];
	69 -- 70	[pos="1059.9,684.32 1094.1,733.59 1195.3,879.27 1229.4,928.43"];
	196	[height=0.5,
		pos="891.03,601.46",
		width=0.75];
	69 -- 196	[pos="1025.6,658.17 995.73,645.59 943.81,623.71 913.95,611.12"];
	316	[height=0.5,
		pos="1388.7,1453.8",
		width=0.75];
	314 -- 316	[pos="1283.1,1542.3 1306.6,1522.7 1348.5,1487.6 1371.8,1468"];
	315	[height=0.5,
		pos="1196.8,1602.1",
		width=0.75];
	314 -- 315	[pos="1246.8,1569.3 1237.3,1575.5 1225.9,1582.9 1216.4,1589.2"];
	71	[height=0.5,
		pos="1339.9,1080.9",
		width=0.75];
	70 -- 71	[pos="1252.8,961.25 1271.8,987.39 1308.8,1038.2 1327.9,1064.4"];
	325	[height=0.5,
		pos="1211.5,1194.8",
		width=0.75];
	70 -- 325	[pos="1238.7,962.82 1233.3,1008.8 1219,1130.4 1213.6,1176.6"];
	319	[height=0.5,
		pos="1411.8,1220.1",
		width=0.75];
	316 -- 319	[pos="1390.5,1435.5 1394.8,1391.8 1405.7,1282 1410,1238.3"];
	317	[height=0.5,
		pos="1517.9,1459.5",
		width=0.75];
	316 -- 317	[pos="1415.8,1455 1437.8,1456 1468.8,1457.4 1490.8,1458.3"];
	72	[height=0.5,
		pos="1556.4,925.16",
		width=0.75];
	71 -- 72	[pos="1358.3,1067.6 1399.3,1038.2 1497.2,967.78 1538,938.4"];
	326	[height=0.5,
		pos="1105.5,1311.5",
		width=0.75];
	71 -- 326	[pos="1324.5,1096 1282,1137.8 1163.5,1254.4 1120.9,1296.3"];
	323	[height=0.5,
		pos="1552,1162.2",
		width=0.75];
	319 -- 323	[pos="1435,1210.5 1460.9,1199.8 1502.8,1182.5 1528.8,1171.8"];
	320	[height=0.5,
		pos="1228.1,1150.8",
		width=0.75];
	319 -- 320	[pos="1388.2,1211.2 1352.9,1197.9 1286.9,1172.9 1251.6,1159.6"];
	73	[height=0.5,
		pos="1428.7,738.67",
		width=0.75];
	72 -- 73	[pos="1545.1,908.61 1520.9,873.22 1464.2,790.54 1440,755.18"];
	72 -- 159	[pos="1568.9,941.35 1575.9,950.33 1584.5,961.48 1591.4,970.48"];
	329	[height=0.5,
		pos="1542,995.58",
		width=0.75];
	323 -- 329	[pos="1550.9,1144 1549,1112 1545,1045.7 1543,1013.7"];
	323 -- 324	[pos="1532.3,1174.6 1520.4,1182.1 1505.4,1191.6 1493.6,1199"];
	74	[height=0.5,
		pos="1336.1,668.45",
		width=0.75];
	73 -- 74	[pos="1410.8,725.13 1394.6,712.78 1370.6,694.6 1354.3,682.19"];
	73 -- 199	[pos="1411.3,724.71 1375.4,695.89 1293.5,630.11 1257.7,601.32"];
	332	[height=0.5,
		pos="1768.1,930.4",
		width=0.75];
	329 -- 332	[pos="1567,988.35 1610.6,975.79 1699.9,950.07 1743.3,937.55"];
	329 -- 330	[pos="1516.8,988.23 1470.8,974.78 1373.4,946.33 1327.7,932.95"];
	75	[height=0.5,
		pos="1153.3,621.64",
		width=0.75];
	74 -- 75	[pos="1310.7,661.94 1275.8,653 1213.3,637.01 1178.5,628.09"];
	186	[height=0.5,
		pos="1272.5,749.57",
		width=0.75];
	74 -- 186	[pos="1323.6,684.48 1312.4,698.7 1296.2,719.36 1285,733.58"];
	334	[height=0.5,
		pos="1906.1,776.79",
		width=0.75];
	332 -- 334	[pos="1782.1,914.82 1808.6,885.38 1865.6,821.88 1892.1,792.41"];
	333	[height=0.5,
		pos="1745.2,1008",
		width=0.75];
	332 -- 333	[pos="1762.8,948.39 1759.1,960.93 1754.2,977.58 1750.5,990.09"];
	76	[height=0.5,
		pos="1375.7,557.01",
		width=0.75];
	75 -- 76	[pos="1178.4,614.35 1221.2,601.91 1308,576.7 1350.7,564.27"];
	229	[height=0.5,
		pos="764.03,659.54",
		width=0.75];
	75 -- 229	[pos="1126.6,624.24 1055.4,631.17 862.31,649.97 790.98,656.92"];
	337	[height=0.5,
		pos="1924.9,618.92",
		width=0.75];
	334 -- 337	[pos="1908.3,758.68 1911.9,728.39 1919.1,667.78 1922.7,637.3"];
	334 -- 335	[pos="1914.6,794.02 1926.5,818.39 1948.3,862.7 1960.3,887.16"];
	77	[height=0.5,
		pos="1516.1,512.54",
		width=0.75];
	76 -- 77	[pos="1400.2,549.27 1425.8,541.15 1465.8,528.48 1491.5,520.35"];
	120	[height=0.5,
		pos="1513.2,594.33",
		width=0.75];
	76 -- 120	[pos="1400.9,563.86 1425.7,570.59 1463.4,580.81 1488.1,587.53"];
	339	[height=0.5,
		pos="1764.8,409.13",
		width=0.75];
	337 -- 339	[pos="1912.6,602.81 1882.8,563.76 1807,464.41 1777.2,425.3"];
	338	[height=0.5,
		pos="1885.3,662.96",
		width=0.75];
	337 -- 338	[pos="1910.6,634.82 1907,638.86 1903.1,643.2 1899.5,647.23"];
	78	[height=0.5,
		pos="1392.8,472.64",
		width=0.75];
	77 -- 78	[pos="1491.7,504.66 1470.1,497.66 1438.7,487.5 1417.1,480.51"];
	77 -- 114	[pos="1513.7,530.49 1508.9,566.86 1498,648.88 1493.1,685.32"];
	341	[height=0.5,
		pos="1640.8,373.18",
		width=0.75];
	339 -- 341	[pos="1740,401.94 1718.4,395.67 1687.2,386.62 1665.5,380.36"];
	340	[height=0.5,
		pos="1784,503.46",
		width=0.75];
	339 -- 340	[pos="1768.5,427.32 1771.9,444.02 1776.9,468.64 1780.3,485.33"];
	79	[height=0.5,
		pos="1252.6,455.12",
		width=0.75];
	78 -- 79	[pos="1366.1,469.3 1341.1,466.19 1304.1,461.56 1279.2,458.44"];
	78 -- 275	[pos="1382.4,455.9 1364.9,427.4 1329.3,369.74 1311.6,341.12"];
	345	[height=0.5,
		pos="1357.3,276.73",
		width=0.75];
	341 -- 345	[pos="1616.6,364.96 1563.1,346.74 1434.9,303.14 1381.4,284.94"];
	341 -- 342	[pos="1650.4,390.13 1666,417.62 1696.7,471.63 1712.3,499.11"];
	80	[height=0.5,
		pos="953.17,692.87",
		width=0.75];
	79 -- 80	[pos="1235.2,468.93 1182.3,510.95 1023.6,636.95 970.61,679.02"];
	489	[height=0.5,
		pos="943.87,369.83",
		width=0.75];
	79 -- 489	[pos="1227.6,448.21 1169.7,432.23 1027.2,392.84 969.11,376.8"];
	349	[height=0.5,
		pos="1364.8,148.27",
		width=0.75];
	345 -- 349	[pos="1358.4,258.6 1359.8,234.12 1362.3,190.75 1363.8,166.31"];
	345 -- 346	[pos="1330.2,274.93 1262.8,270.43 1087.8,258.78 1020.1,254.27"];
	81	[height=0.5,
		pos="749.97,1072.6",
		width=0.75];
	80 -- 81	[pos="943.91,710.17 909.98,773.58 792.68,992.76 759.05,1055.6"];
	490	[height=0.5,
		pos="676.7,696.07",
		width=0.75];
	80 -- 490	[pos="926.16,693.19 873.3,693.8 756.76,695.14 703.82,695.75"];
	353	[height=0.5,
		pos="1352.3,67.306",
		width=0.75];
	349 -- 353	[pos="1362,130.3 1360,116.89 1357.1,98.631 1355.1,85.225"];
	349 -- 350	[pos="1339,154.2 1313.5,160.04 1274.9,168.9 1249.6,174.72"];
	82	[height=0.5,
		pos="630.77,1296.3",
		width=0.75];
	81 -- 82	[pos="740.81,1089.8 718.62,1131.4 662.18,1237.3 639.96,1279"];
	178	[height=0.5,
		pos="837.31,975.32",
		width=0.75];
	81 -- 178	[pos="764,1057 780.3,1038.8 807.02,1009 823.31,990.91"];
	355	[height=0.5,
		pos="1176.5,105.16",
		width=0.75];
	353 -- 355	[pos="1326.3,72.891 1293,80.067 1235.5,92.452 1202.3,99.61"];
	354	[height=0.5,
		pos="1427,111.57",
		width=0.75];
	353 -- 354	[pos="1372.7,79.401 1383.2,85.646 1396,93.244 1406.6,99.488"];
	83	[height=0.5,
		pos="758.05,1406.6",
		width=0.75];
	82 -- 83	[pos="647.41,1310.7 671.81,1331.8 717.01,1371 741.41,1392.2"];
	492	[height=0.5,
		pos="461.88,1310.4",
		width=0.75];
	82 -- 492	[pos="603.64,1298.5 572.12,1301.2 520.44,1305.5 488.95,1308.1"];
	357	[height=0.5,
		pos="1085.2,294.46",
		width=0.75];
	355 -- 357	[pos="1168.1,122.63 1150.7,158.78 1110.8,241.42 1093.5,277.31"];
	356	[height=0.5,
		pos="1285.9,155.35",
		width=0.75];
	355 -- 356	[pos="1198.9,115.43 1217.8,124.1 1244.7,136.43 1263.5,145.08"];
	84	[height=0.5,
		pos="471.04,1266.3",
		width=0.75];
	83 -- 84	[pos="736.01,1395.8 682.58,1369.7 546.66,1303.3 493.16,1277.2"];
	83 -- 153	[pos="780.39,1417.1 824.11,1437.5 920.5,1482.5 964.29,1503"];
	361	[height=0.5,
		pos="837.77,325.06",
		width=0.75];
	357 -- 361	[pos="1058.2,297.79 1010.6,303.68 912.26,315.85 864.69,321.73"];
	357 -- 358	[pos="1109,303.51 1146.3,317.71 1218.2,345.07 1255.4,359.24"];
	85	[height=0.5,
		pos="302.92,1322.1",
		width=0.75];
	84 -- 85	[pos="446.59,1274.5 414.62,1285.1 358.96,1303.5 327.12,1314.1"];
	234	[height=0.5,
		pos="531.08,1103.8",
		width=0.75];
	84 -- 234	[pos="477.58,1248.6 489.13,1217.4 513.01,1152.7 524.55,1121.5"];
	365	[height=0.5,
		pos="706.96,608.03",
		width=0.75];
	361 -- 365	[pos="829.78,342.34 806.43,392.85 738.44,539.93 715.01,590.62"];
	361 -- 362	[pos="810.85,322.8 752.87,317.93 616.77,306.49 558.55,301.59"];
	86	[height=0.5,
		pos="578.03,1389",
		width=0.75];
	85 -- 86	[pos="328.31,1328.3 380.58,1341 499.73,1369.9 552.3,1382.7"];
	374	[height=0.5,
		pos="247.42,1226.2",
		width=0.75];
	85 -- 374	[pos="293,1304.9 282.89,1287.5 267.33,1260.6 257.26,1243.2"];
	368	[height=0.5,
		pos="416.57,809.01",
		width=0.75];
	365 -- 368	[pos="687.91,621.22 635.16,657.72 487.69,759.79 435.31,796.03"];
	366	[height=0.5,
		pos="1015.2,711.85",
		width=0.75];
	365 -- 366	[pos="731.15,616.18 788.63,635.54 932.91,684.13 990.7,703.6"];
	87	[height=0.5,
		pos="754.84,1249.2",
		width=0.75];
	86 -- 87	[pos="595.63,1375.1 629.52,1348.3 703.48,1289.8 737.31,1263"];
	86 -- 133	[pos="597.76,1401.3 629.78,1421.3 692.68,1460.6 724.68,1480.6"];
	370	[height=0.5,
		pos="92.184,1056.2",
		width=0.75];
	368 -- 370	[pos="398.67,822.65 341.95,865.87 166.67,999.45 110.03,1042.6"];
	369	[height=0.5,
		pos="352.53,739.3",
		width=0.75];
	368 -- 369	[pos="402.35,793.54 391.74,781.99 377.3,766.27 366.7,754.73"];
	88	[height=0.5,
		pos="593.13,1195",
		width=0.75];
	87 -- 88	[pos="730.63,1241.1 700.15,1230.9 648.07,1213.4 617.5,1203.2"];
	87 -- 173	[pos="771.63,1234.7 795.81,1213.9 840.19,1175.8 864.4,1154.9"];
	373	[height=0.5,
		pos="119.04,1115",
		width=0.75];
	370 -- 373	[pos="100.1,1073.5 103.56,1081.1 107.62,1090 111.09,1097.6"];
	370 -- 371	[pos="85.961,1038.5 73.755,1003.6 46.805,926.75 34.654,892.08"];
	89	[height=0.5,
		pos="945.72,1381.4",
		width=0.75];
	88 -- 89	[pos="614.39,1206.2 677.22,1239.5 861.56,1336.9 924.43,1370.1"];
	210	[height=0.5,
		pos="532.87,971.2",
		width=0.75];
	88 -- 210	[pos="588.3,1177.1 577.01,1135.2 549.03,1031.2 537.72,989.23"];
	376	[height=0.5,
		pos="270.8,1123",
		width=0.75];
	373 -- 376	[pos="146.17,1116.5 173.71,1117.9 216.1,1120.2 243.65,1121.6"];
	373 -- 374	[pos="135.56,1129.3 160.08,1150.6 205.84,1190.2 230.56,1211.6"];
	90	[height=0.5,
		pos="1215.8,1512.1",
		width=0.75];
	89 -- 90	[pos="967.82,1392.1 1018.6,1416.7 1143.1,1476.9 1193.7,1501.5"];
	499	[height=0.5,
		pos="823.12,1381.2",
		width=0.75];
	89 -- 499	[pos="918.51,1381.3 898.19,1381.3 870.55,1381.3 850.25,1381.3"];
	379	[height=0.5,
		pos="278.35,1057",
		width=0.75];
	376 -- 379	[pos="272.86,1105 273.93,1095.7 275.22,1084.4 276.29,1075.1"];
	377	[height=0.5,
		pos="340.35,1153.1",
		width=0.75];
	376 -- 377	[pos="293.57,1132.9 301.18,1136.2 309.66,1139.8 317.28,1143.1"];
	91	[height=0.5,
		pos="1548.5,1273.5",
		width=0.75];
	90 -- 91	[pos="1234.6,1498.6 1293.2,1456.6 1471.5,1328.7 1529.8,1286.9"];
	500	[height=0.5,
		pos="1137.3,1506.3",
		width=0.75];
	90 -- 500	[pos="1188.8,1510.1 1180.9,1509.5 1172.3,1508.9 1164.4,1508.3"];
	382	[height=0.5,
		pos="295.85,895.89",
		width=0.75];
	379 -- 382	[pos="280.32,1038.9 283.69,1007.9 290.48,945.32 293.86,914.25"];
	380	[height=0.5,
		pos="354.54,1014.3",
		width=0.75];
	379 -- 380	[pos="299.17,1045.4 309.92,1039.3 323,1032 333.74,1025.9"];
	92	[height=0.5,
		pos="1582.5,1042.5",
		width=0.75];
	91 -- 92	[pos="1551.1,1255.4 1557.5,1212.2 1573.5,1103.7 1579.9,1060.6"];
	91 -- 317	[pos="1545.5,1291.7 1539.6,1327.3 1526.7,1406.1 1520.8,1441.6"];
	386	[height=0.5,
		pos="409.19,1058.7",
		width=0.75];
	382 -- 386	[pos="307.34,912.4 329.06,943.6 375.92,1010.9 397.66,1042.1"];
	382 -- 383	[pos="307.07,879.38 344.04,824.99 461.71,651.88 498.88,597.19"];
	93	[height=0.5,
		pos="1554.7,797.16",
		width=0.75];
	92 -- 93	[pos="1580.5,1024.5 1575.3,979.11 1561.9,860.63 1556.7,815.23"];
	502	[height=0.5,
		pos="1607.1,1089.8",
		width=0.75];
	92 -- 502	[pos="1591.4,1059.6 1593.6,1063.8 1596,1068.4 1598.2,1072.6"];
	388	[height=0.5,
		pos="708.34,1172.7",
		width=0.75];
	386 -- 388	[pos="432.66,1067.6 488.44,1088.9 628.47,1142.3 684.56,1163.7"];
	387	[height=0.5,
		pos="389.01,970.08",
		width=0.75];
	386 -- 387	[pos="405.1,1040.8 401.6,1025.4 396.59,1003.4 393.09,987.99"];
	94	[height=0.5,
		pos="1255.3,837.62",
		width=0.75];
	93 -- 94	[pos="1528.1,800.75 1471.3,808.43 1338.6,826.36 1281.8,834.03"];
	343	[height=0.5,
		pos="1693.4,618.4",
		width=0.75];
	93 -- 343	[pos="1567.2,780.98 1593.6,746.95 1654.6,668.3 1680.9,634.41"];
	393	[height=0.5,
		pos="594.07,1086.1",
		width=0.75];
	388 -- 393	[pos="690.48,1159.2 669.14,1143 633.63,1116.1 612.17,1099.8"];
	389	[height=0.5,
		pos="962.29,1141.2",
		width=0.75];
	388 -- 389	[pos="735.03,1169.4 783.81,1163.4 886.78,1150.6 935.57,1144.5"];
	95	[height=0.5,
		pos="1147.4,727.65",
		width=0.75];
	94 -- 95	[pos="1240.3,822.33 1219.7,801.32 1182.8,763.75 1162.3,742.81"];
	126	[height=0.5,
		pos="1071.8,1036.6",
		width=0.75];
	94 -- 126	[pos="1240.9,853.23 1206.6,890.42 1120.4,983.92 1086.1,1021"];
	399	[height=0.5,
		pos="755.96,1009.6",
		width=0.75];
	393 -- 399	[pos="616.24,1075.6 647.15,1061 702.88,1034.7 733.79,1020.1"];
	394	[height=0.5,
		pos="812.01,1112.2",
		width=0.75];
	393 -- 394	[pos="620.79,1089.3 662.73,1094.3 743.54,1104 785.41,1109"];
	96	[height=0.5,
		pos="807.74,893.4",
		width=0.75];
	95 -- 96	[pos="1125.3,738.4 1063.9,768.38 891.1,852.72 829.71,882.67"];
	359	[height=0.5,
		pos="1217.4,543.36",
		width=0.75];
	95 -- 359	[pos="1154.1,709.98 1167.5,674.75 1197.3,596.16 1210.7,560.97"];
	402	[height=0.5,
		pos="996.48,1024",
		width=0.75];
	399 -- 402	[pos="783.08,1011.2 829.4,1014 923.21,1019.6 969.45,1022.4"];
	400	[height=0.5,
		pos="697.07,784.09",
		width=0.75];
	399 -- 400	[pos="751.24,991.51 740.18,949.19 712.72,844.04 701.73,801.94"];
	97	[height=0.5,
		pos="468.44,1103.8",
		width=0.75];
	96 -- 97	[pos="787.53,905.93 727.18,943.35 548.75,1054 488.54,1091.3"];
	225	[height=0.5,
		pos="601.08,981.48",
		width=0.75];
	96 -- 225	[pos="784.84,903.16 745.11,920.09 663.89,954.71 624.09,971.67"];
	404	[height=0.5,
		pos="1323.4,1036.8",
		width=0.75];
	402 -- 404	[pos="1023.5,1025.1 1085,1027.5 1234.8,1033.3 1296.3,1035.7"];
	403	[height=0.5,
		pos="1122.9,891.97",
		width=0.75];
	402 -- 403	[pos="1011.2,1008.6 1035.6,983.15 1084,932.65 1108.3,907.28"];
	98	[height=0.5,
		pos="491.53,1147.8",
		width=0.75];
	97 -- 98	[pos="477.43,1120.9 479.11,1124.1 480.85,1127.4 482.52,1130.6"];
	507	[height=0.5,
		pos="582.37,1239.7",
		width=0.75];
	97 -- 507	[pos="481.73,1119.6 503.68,1145.8 547.26,1197.8 569.16,1224"];
	407	[height=0.5,
		pos="1167.5,1292.4",
		width=0.75];
	404 -- 407	[pos="1313.2,1053.6 1284.9,1099.9 1206.1,1229.2 1177.8,1275.6"];
	405	[height=0.5,
		pos="1492.6,763.69",
		width=0.75];
	404 -- 405	[pos="1333.7,1020.1 1363.9,971.38 1451.9,829.42 1482.2,780.5"];
	99	[height=0.5,
		pos="687.92,1086.5",
		width=0.75];
	98 -- 99	[pos="516.01,1140.2 553.74,1128.4 625.71,1105.9 663.45,1094.1"];
	508	[height=0.5,
		pos="643.35,1384.3",
		width=0.75];
	98 -- 508	[pos="502.21,1164.4 530.08,1207.9 604.83,1324.3 632.69,1367.7"];
	410	[height=0.5,
		pos="1007.7,1424.6",
		width=0.75];
	407 -- 410	[pos="1150.4,1306.5 1119.7,1332 1055.4,1385.2 1024.7,1410.6"];
	408	[height=0.5,
		pos="1040.8,1224.2",
		width=0.75];
	407 -- 408	[pos="1146.3,1281 1122.9,1268.4 1085.5,1248.3 1062.1,1235.7"];
	103	[height=0.5,
		pos="1131.5,785.23",
		width=0.75];
	99 -- 103	[pos="706.98,1073.5 779.78,1024.1 1039.8,847.48 1112.5,798.13"];
	411	[height=0.5,
		pos="954.93,1293.3",
		width=0.75];
	410 -- 411	[pos="1000.7,1407.2 990.63,1382.1 972.09,1336 961.97,1310.8"];
	101 -- 102	[pos="1288.4,553.14 1236.8,567.97 1118.9,601.82 1067.3,616.63"];
	101 -- 181	[pos="1335.9,556.3 1360.3,567.51 1399,585.3 1423.4,596.53"];
	102 -- 103	[pos="1051.7,640.77 1068.8,671.69 1104.8,736.89 1122,768"];
	146	[height=0.5,
		pos="958.92,847.51",
		width=0.75];
	102 -- 146	[pos="1035.8,641.35 1020.2,683.17 981,788.3 965.43,830.04"];
	292 -- 295	[pos="1635,912.14 1601.8,937.21 1531.1,990.67 1497.8,1015.8"];
	293	[height=0.5,
		pos="1654.1,779.32",
		width=0.75];
	292 -- 293	[pos="1653.1,880.51 1653.3,858.09 1653.7,820.12 1653.9,797.61"];
	295 -- 320	[pos="1457.9,1040 1410.3,1063 1297.8,1117.1 1250.1,1140.1"];
	296	[height=0.5,
		pos="1485.4,883.42",
		width=0.75];
	295 -- 296	[pos="1480.4,1011.3 1481.5,983.27 1483.6,929.97 1484.6,901.85"];
	320 -- 389	[pos="1200.6,1149.8 1149.6,1147.9 1040.5,1144 989.58,1142.2"];
	321	[height=0.5,
		pos="1311.4,1156.1",
		width=0.75];
	320 -- 321	[pos="1255.4,1152.5 1264.7,1153.1 1275.1,1153.8 1284.4,1154.4"];
	389 -- 411	[pos="961.42,1159.2 960,1188.5 957.22,1246 955.8,1275.3"];
	390	[height=0.5,
		pos="1033.3,979.99",
		width=0.75];
	389 -- 390	[pos="970.02,1123.6 983.68,1092.6 1011.9,1028.5 1025.6,997.53"];
	106	[height=0.5,
		pos="1368.6,624.41",
		width=0.75];
	103 -- 106	[pos="1150.5,772.35 1194.9,742.23 1305,667.54 1349.5,637.36"];
	412	[height=0.5,
		pos="974.97,1199.7",
		width=0.75];
	411 -- 412	[pos="958.79,1275.3 962.34,1258.7 967.57,1234.2 971.12,1217.7"];
	105 -- 106	[pos="1320.8,519.2 1331.4,542.42 1350,583.44 1360.6,606.81"];
	442	[height=0.5,
		pos="1187.8,427.08",
		width=0.75];
	105 -- 442	[pos="1292.9,489.89 1269.6,476 1231.6,453.29 1208.3,439.32"];
	213 -- 412	[pos="906.57,1034.4 921.03,1069.3 953.29,1147.3 967.74,1182.2"];
	214	[height=0.5,
		pos="471.25,1015.5",
		width=0.75];
	213 -- 214	[pos="872.21,1016.8 795.21,1016.5 575.71,1015.8 498.51,1015.6"];
	109	[height=0.5,
		pos="1416.6,847.04",
		width=0.75];
	106 -- 109	[pos="1372.5,642.26 1381.5,683.94 1403.7,787.35 1412.7,829.11"];
	413	[height=0.5,
		pos="1349.8,1200.1",
		width=0.75];
	412 -- 413	[pos="1002.2,1199.7 1071.5,1199.8 1253.5,1200 1322.6,1200.1"];
	108 -- 109	[pos="1189.6,1086.3 1232.8,1040.7 1359,907.74 1402,862.4"];
	108 -- 141	[pos="1155.9,1115 1116.7,1142 1027.4,1203.6 988.31,1230.6"];
	189 -- 413	[pos="1271.5,1070.9 1288.5,1098.9 1322.4,1155 1339.5,1183.1"];
	190	[height=0.5,
		pos="1193.3,847.36",
		width=0.75];
	189 -- 190	[pos="1255.6,1036.5 1242.7,997.47 1211.9,903.98 1199.1,864.95"];
	112	[height=0.5,
		pos="1727.6,826.47",
		width=0.75];
	109 -- 112	[pos="1443.6,845.25 1502.5,841.36 1641.4,832.17 1700.4,828.27"];
	413 -- 414	[pos="1376.6,1196.1 1427.4,1188.3 1537.1,1171.7 1587.6,1164"];
	111 -- 112	[pos="1817.3,815.41 1798.3,817.74 1773.1,820.86 1754.2,823.19"];
	111 -- 119	[pos="1818.4,806.24 1769.3,794.96 1662.4,770.38 1613.1,759.05"];
	115	[height=0.5,
		pos="1692.1,694.3",
		width=0.75];
	112 -- 115	[pos="1722.8,808.65 1716,783.42 1703.7,737.57 1696.9,712.27"];
	415	[height=0.5,
		pos="1807.2,997.11",
		width=0.75];
	414 -- 415	[pos="1630.9,1145.8 1667.4,1115 1753.7,1042.2 1790.3,1011.4"];
	335 -- 415	[pos="1948,916.43 1917,934.21 1858.9,967.49 1827.9,985.24"];
	336	[height=0.5,
		pos="1936.2,824.88",
		width=0.75];
	335 -- 336	[pos="1961.6,886.84 1956.2,873.64 1948.8,855.69 1943.4,842.5"];
	114 -- 115	[pos="1517.9,702.14 1556.4,700.41 1626.6,697.25 1665,695.52"];
	147	[height=0.5,
		pos="1131.3,847.96",
		width=0.75];
	114 -- 147	[pos="1467.4,712.74 1402.4,738.9 1219.5,812.48 1154.5,838.61"];
	115 -- 117	[pos="1714.6,684.07 1738.3,673.35 1775.2,656.62 1798.9,645.87"];
	416	[height=0.5,
		pos="1682.1,983.96",
		width=0.75];
	415 -- 416	[pos="1780.4,994.29 1759.3,992.07 1730,988.99 1708.9,986.78"];
	119 -- 296	[pos="1574.8,769.1 1555.2,794.1 1517.6,842.22 1497.9,867.31"];
	119 -- 120	[pos="1579.2,735.82 1564.9,705.28 1535.5,642.13 1521.2,611.6"];
	296 -- 416	[pos="1506.8,894.37 1544.5,913.66 1622.5,953.48 1660.4,972.87"];
	297	[height=0.5,
		pos="1287.5,881.66",
		width=0.75];
	296 -- 297	[pos="1458.3,883.18 1420.5,882.84 1352.4,882.24 1314.6,881.9"];
	121	[height=0.5,
		pos="1622.1,709.09",
		width=0.75];
	117 -- 121	[pos="1798,644.28 1759.6,658.43 1684.1,686.23 1645.7,700.38"];
	416 -- 417	[pos="1686.8,1002 1696.6,1040.1 1719.3,1128 1729,1165.9"];
	120 -- 121	[pos="1527.8,609.81 1548.7,631.83 1586.8,671.97 1607.6,693.86"];
	120 -- 202	[pos="1494.1,581.16 1456.3,554.9 1371.7,496.31 1333.9,470.08"];
	121 -- 123	[pos="1609.9,725.64 1573.5,775.06 1466.1,921.17 1429.8,970.48"];
	417 -- 418	[pos="1726,1201 1714.7,1226.3 1693.9,1273.2 1682.6,1298.6"];
	127	[height=0.5,
		pos="1102.9,1216.2",
		width=0.75];
	123 -- 127	[pos="1399.4,1000.3 1343.8,1040.8 1176.9,1162.3 1121.2,1202.9"];
	419	[height=0.5,
		pos="1497.7,1369.8",
		width=0.75];
	418 -- 419	[pos="1650.3,1323.3 1616.5,1333.6 1556.2,1352 1522.4,1362.3"];
	125 -- 126	[pos="898.9,1064 937.14,1057.9 1007.4,1046.8 1045.5,1040.7"];
	233	[height=0.5,
		pos="629.53,1041.1",
		width=0.75];
	125 -- 233	[pos="845.5,1065.2 798.69,1060 702.84,1049.3 656.2,1044.1"];
	324 -- 419	[pos="1476.6,1229.6 1481.2,1260.2 1490.4,1321.4 1495,1351.8"];
	324 -- 325	[pos="1446.7,1209.7 1396.3,1206.5 1288.7,1199.7 1238.4,1196.5"];
	126 -- 127	[pos="1074.9,1054.5 1080.8,1088.8 1093.8,1163.7 1099.8,1198.2"];
	126 -- 150	[pos="1079.6,1053.9 1097.6,1093.7 1141.6,1191.3 1159.6,1231.1"];
	127 -- 129	[pos="1093.8,1233.2 1069.1,1279.2 1001.1,1405.8 976.27,1452.2"];
	420	[height=0.5,
		pos="1326.7,1465.5",
		width=0.75];
	419 -- 420	[pos="1476.7,1381.5 1443.8,1400 1380.4,1435.5 1347.6,1453.9"];
	156 -- 420	[pos="1540.4,1420.9 1494.3,1430.5 1398.9,1450.5 1352.8,1460.1"];
	157	[height=0.5,
		pos="1600.2,1229.5",
		width=0.75];
	156 -- 157	[pos="1569.9,1397.3 1576.3,1361.6 1590.6,1282.9 1597,1247.5"];
	129 -- 131	[pos="943.25,1478.6 898.24,1496.1 801.03,1533.9 756.24,1551.3"];
	421	[height=0.5,
		pos="1058.1,1468.7",
		width=0.75];
	420 -- 421	[pos="1299.5,1465.9 1248,1466.5 1136.9,1467.8 1085.4,1468.4"];
	302 -- 421	[pos="1181.9,1545.3 1154.4,1528.3 1105.3,1497.9 1077.9,1480.9"];
	303	[height=0.5,
		pos="1075.3,1512.7",
		width=0.75];
	302 -- 303	[pos="1177.8,1549.1 1155.3,1541.1 1121.8,1529.2 1099.3,1521.3"];
	134	[height=0.5,
		pos="578,1470.3",
		width=0.75];
	131 -- 134	[pos="712.23,1548.4 682.62,1531.2 628.29,1499.6 598.64,1482.3"];
	422	[height=0.5,
		pos="849,1293.1",
		width=0.75];
	421 -- 422	[pos="1041,1454.3 1001.7,1421.3 905.31,1340.4 866.05,1307.4"];
	185 -- 390	[pos="1069.4,987.27 1066.1,986.6 1062.7,985.92 1059.3,985.25"];
	185 -- 186	[pos="1107.2,976.19 1139.5,931.94 1228.4,809.99 1260.6,765.82"];
	133 -- 134	[pos="717.66,1489.3 686.61,1485.1 635.69,1478.2 604.67,1474"];
	327	[height=0.5,
		pos="967.92,1337.4",
		width=0.75];
	133 -- 327	[pos="763.45,1479.6 805.79,1450.2 907.23,1379.6 949.23,1350.4"];
	390 -- 394	[pos="1012.9,992.19 970.71,1017.4 874.49,1074.9 832.38,1100"];
	391	[height=0.5,
		pos="821.12,780.71",
		width=0.75];
	390 -- 391	[pos="1017.3,965.01 977.92,927.99 876.26,832.51 836.96,795.59"];
	394 -- 422	[pos="815.69,1130.2 822.78,1164.9 838.25,1240.5 845.33,1275.2"];
	394 -- 395	[pos="805.57,1094.4 788.75,1047.8 743.66,922.95 726.86,876.41"];
	137	[height=0.5,
		pos="309.56,1241.7",
		width=0.75];
	134 -- 137	[pos="561.21,1456 513,1415 374.55,1297 326.35,1256"];
	423	[height=0.5,
		pos="568.25,1293.3",
		width=0.75];
	422 -- 423	[pos="821.82,1293.1 768.16,1293.2 649.12,1293.3 595.44,1293.3"];
	144 -- 423	[pos="758.96,1214.8 717.79,1231.7 632.68,1266.8 591.53,1283.7"];
	144 -- 145	[pos="787.07,1187.1 796.31,1152.4 816.46,1076.5 825.68,1041.8"];
	136 -- 137	[pos="203.22,1130.8 226.61,1155.2 271.73,1202.2 294.96,1226.4"];
	450	[height=0.5,
		pos="47.88,985.68",
		width=0.75];
	136 -- 450	[pos="172.52,1100.6 145.54,1075.8 90.967,1025.4 63.879,1000.4"];
	137 -- 139	[pos="330.49,1253.1 370.05,1274.7 455.39,1321.3 494.99,1342.9"];
	424	[height=0.5,
		pos="366.14,1319.1",
		width=0.75];
	423 -- 424	[pos="541.41,1296.7 502.64,1301.7 431.41,1310.8 392.76,1315.7"];
	222 -- 377	[pos="344.98,1114 344.19,1120.7 343.29,1128.2 342.5,1134.9"];
	223	[height=0.5,
		pos="458.16,971.47",
		width=0.75];
	222 -- 223	[pos="360.96,1080.4 382.24,1056.5 422.76,1011.1 444.15,987.17"];
	377 -- 424	[pos="343.16,1171.2 348.12,1203.1 358.37,1269.1 363.33,1301"];
	378	[height=0.5,
		pos="216.28,1067.7",
		width=0.75];
	377 -- 378	[pos="321.5,1140.1 298.18,1124.1 258.7,1096.9 235.3,1080.8"];
	142	[height=0.5,
		pos="844.3,1249.1",
		width=0.75];
	139 -- 142	[pos="540.38,1346.5 601.17,1327 758.78,1276.5 819.73,1256.9"];
	425	[height=0.5,
		pos="515.95,1431.6",
		width=0.75];
	424 -- 425	[pos="384.21,1332.7 413,1354.3 468.98,1396.3 497.82,1418"];
	141 -- 142	[pos="942.25,1244.9 921.27,1245.8 892.36,1247 871.39,1247.9"];
	141 -- 176	[pos="965.92,1225.8 959.24,1191.5 944.69,1116.7 937.98,1082.3"];
	305 -- 425	[pos="660.59,1505.3 628.61,1489 569.28,1458.8 537.45,1442.6"];
	306	[height=0.5,
		pos="867.6,1504.9",
		width=0.75];
	305 -- 306	[pos="709.28,1514.7 744.4,1512.5 805.49,1508.7 840.63,1506.6"];
	148	[height=0.5,
		pos="1076.4,1101.9",
		width=0.75];
	142 -- 148	[pos="864.09,1236.5 907.93,1208.7 1012.8,1142.2 1056.6,1114.4"];
	426	[height=0.5,
		pos="692.83,1268.5",
		width=0.75];
	425 -- 426	[pos="531.96,1416.9 565.64,1385.8 643.45,1314.1 676.98,1283.1"];
	145 -- 237	[pos="808.23,1013.6 776.22,998.84 717.47,971.72 685.41,956.92"];
	145 -- 146	[pos="842.31,1007.6 866.79,974 922.65,897.31 947.09,863.75"];
	237 -- 308	[pos="662.59,964.8 661.2,1015 657.33,1155.2 655.94,1205.5"];
	237 -- 238	[pos="665.38,928.64 672.05,876.05 691.48,722.94 698.18,670.17"];
	146 -- 147	[pos="986.23,847.58 1018.5,847.67 1071.9,847.81 1104.1,847.89"];
	146 -- 400	[pos="933.34,841.32 883.28,829.19 772.9,802.46 722.76,790.32"];
	308 -- 426	[pos="668.72,1239.7 672.25,1243.9 676.06,1248.5 679.58,1252.7"];
	309	[height=0.5,
		pos="663.01,1472.3",
		width=0.75];
	308 -- 309	[pos="655.99,1242.1 657.39,1288 661.05,1408 662.46,1454"];
	147 -- 148	[pos="1127.4,865.82 1117.3,912.44 1090.3,1037.4 1080.2,1084"];
	397	[height=0.5,
		pos="1110.5,683.61",
		width=0.75];
	147 -- 397	[pos="1129,829.75 1125,798.16 1116.8,733.56 1112.8,701.91"];
	151	[height=0.5,
		pos="1229.5,1313.1",
		width=0.75];
	148 -- 151	[pos="1088.1,1118.1 1116.6,1157.4 1189.2,1257.5 1217.7,1296.8"];
	427	[height=0.5,
		pos="900.27,1184.5",
		width=0.75];
	426 -- 427	[pos="716.22,1259 756.17,1242.9 837.07,1210.1 876.96,1193.9"];
	176 -- 408	[pos="945.45,1080.7 965.83,1111.4 1009.3,1176.8 1029.8,1207.6"];
	176 -- 177	[pos="915.98,1050.7 874.23,1020.2 773.05,946.31 731.5,915.96"];
	150 -- 151	[pos="1182.1,1263.7 1192,1274 1205,1287.6 1214.9,1297.9"];
	150 -- 321	[pos="1187.1,1235.7 1214.7,1218.1 1264.5,1186.2 1291.9,1168.6"];
	408 -- 427	[pos="1015.7,1217.1 990.12,1209.9 950.69,1198.7 925.18,1191.5"];
	409	[height=0.5,
		pos="1043.5,1336.5",
		width=0.75];
	408 -- 409	[pos="1041.3,1242.3 1041.8,1263.1 1042.6,1297.2 1043,1318.1"];
	154	[height=0.5,
		pos="1246.2,1379.4",
		width=0.75];
	151 -- 154	[pos="1234.1,1331.2 1236.5,1340.6 1239.3,1351.9 1241.7,1361.3"];
	428	[height=0.5,
		pos="1149.8,947.62",
		width=0.75];
	427 -- 428	[pos="915.88,1169.7 960.69,1127.1 1089.4,1005 1134.2,962.43"];
	232 -- 272	[pos="932.03,896.87 962.07,877.61 1019.3,840.91 1049.5,821.55"];
	232 -- 233	[pos="890.29,919.74 837.52,944.29 705.07,1005.9 652.02,1030.6"];
	272 -- 297	[pos="1093.4,816.93 1135.4,830.93 1221.2,859.54 1263.2,873.56"];
	273	[height=0.5,
		pos="1067.9,579.79",
		width=0.75];
	272 -- 273	[pos="1069.1,790.51 1068.9,747.51 1068.3,640.69 1068,597.92"];
	297 -- 428	[pos="1265.4,892.26 1239.7,904.57 1197.5,924.75 1171.9,937.05"];
	298	[height=0.5,
		pos="1385.5,1035.9",
		width=0.75];
	297 -- 298	[pos="1298.2,898.46 1317,928.13 1356,989.46 1374.8,1019.1"];
	153 -- 154	[pos="1008.4,1502.3 1057.4,1477 1176.1,1415.6 1224.8,1390.4"];
	493	[height=0.5,
		pos="640.05,1428.3",
		width=0.75];
	153 -- 493	[pos="961.23,1507.2 897.12,1491.5 729.73,1450.4 665.58,1434.6"];
	154 -- 157	[pos="1269.2,1369.6 1333.2,1342.5 1513.4,1266.3 1577.3,1239.2"];
	429	[height=0.5,
		pos="1274.1,705.55",
		width=0.75];
	428 -- 429	[pos="1158.7,930.21 1181.7,885.55 1242.4,767.29 1265.2,722.8"];
	330 -- 366	[pos="1284.4,912 1232.5,873.37 1085.2,763.92 1033.5,725.44"];
	331	[height=0.5,
		pos="1462,1140.1",
		width=0.75];
	330 -- 331	[pos="1315.1,942.17 1344.8,982.18 1420.4,1084.1 1449.9,1123.9"];
	366 -- 429	[pos="1042.4,711.19 1092.1,709.98 1197.1,707.42 1246.8,706.21"];
	367	[height=0.5,
		pos="761.38,556.7",
		width=0.75];
	366 -- 367	[pos="995.29,699.67 947.95,670.74 829.14,598.12 781.55,569.03"];
	160	[height=0.5,
		pos="1683.1,1051.7",
		width=0.75];
	157 -- 160	[pos="1608.3,1212.1 1624.2,1178.1 1659.1,1103.2 1675,1069.1"];
	429 -- 430	[pos="1299,698.16 1360,680.09 1516.4,633.79 1577.4,615.73"];
	159 -- 160	[pos="1621.2,1000.9 1634.5,1011.8 1652.7,1026.8 1666,1037.6"];
	482	[height=0.5,
		pos="1422.9,942.91",
		width=0.75];
	159 -- 482	[pos="1578.5,980.58 1543.9,972.22 1482.8,957.42 1448.4,949.07"];
	163	[height=0.5,
		pos="1906.8,868.89",
		width=0.75];
	160 -- 163	[pos="1700.3,1037.7 1742,1003.6 1847.9,917.05 1889.5,882.98"];
	430 -- 431	[pos="1626,599.39 1648.9,590.71 1683.4,577.65 1706.3,568.99"];
	162 -- 163	[pos="1905.1,725.24 1905.5,756.34 1906.2,819.23 1906.6,850.45"];
	438	[height=0.5,
		pos="1859.2,591.52",
		width=0.75];
	162 -- 438	[pos="1898,689.45 1889.4,667.75 1874.8,631 1866.2,609.22"];
	163 -- 165	[pos="1913.6,886.48 1922.5,909.41 1937.9,949.3 1946.8,972.24"];
	432	[height=0.5,
		pos="1579,476.28",
		width=0.75];
	431 -- 432	[pos="1708.9,548.42 1680,532.41 1628.5,503.78 1599.8,487.83"];
	181 -- 432	[pos="1461.2,591.93 1486.7,566.87 1537.8,516.71 1563.5,491.49"];
	181 -- 182	[pos="1446.7,588.66 1447.3,573 1448.2,550.55 1448.8,534.9"];
	165 -- 167	[pos="1938.1,1005.1 1914.6,1028.2 1870.2,1071.9 1846.8,1094.9"];
	433	[height=0.5,
		pos="1499.4,335.7",
		width=0.75];
	432 -- 433	[pos="1569.4,459.32 1554.1,432.3 1524.3,379.77 1509,352.72"];
	358 -- 433	[pos="1305.7,364.32 1348,358.07 1430.3,345.9 1472.7,339.64"];
	358 -- 359	[pos="1272.9,386 1261,419.65 1235.4,492.33 1223.6,525.82"];
	167 -- 169	[pos="1816.6,1125.4 1794.9,1148 1754.6,1189.8 1732.9,1212.4"];
	434	[height=0.5,
		pos="1507.2,244.41",
		width=0.75];
	433 -- 434	[pos="1500.9,317.66 1502.3,301.66 1504.3,278.4 1505.7,262.4"];
	251 -- 281	[pos="1325.8,120.91 1348.1,130.17 1381.7,144.12 1403.9,153.37"];
	252	[height=0.5,
		pos="1000.6,68.233",
		width=0.75];
	251 -- 252	[pos="1276.2,107.55 1219,99.391 1084.9,80.247 1027.5,72.058"];
	281 -- 434	[pos="1442,178.23 1456.3,192.8 1477.8,214.59 1492.2,229.14"];
	282	[height=0.5,
		pos="1304.3,230.61",
		width=0.75];
	281 -- 282	[pos="1406.1,174.38 1383.5,186.83 1347.7,206.59 1325.2,219.06"];
	169 -- 171	[pos="1691.2,1224.6 1656.6,1220.5 1597,1213.5 1562.6,1209.4"];
	434 -- 435	[pos="1532.3,250.99 1541.6,253.41 1552.1,256.17 1561.4,258.6"];
	174	[height=0.5,
		pos="1149.4,1172.2",
		width=0.75];
	171 -- 174	[pos="1509,1203.9 1438.2,1197.6 1247.2,1180.8 1176.3,1174.6"];
	435 -- 436	[pos="1605.6,278.14 1629.4,294.43 1670.1,322.25 1694,338.58"];
	173 -- 174	[pos="907.95,1143.6 959.21,1149.7 1070.9,1162.9 1122.4,1169"];
	269	[height=0.5,
		pos="775.28,942.97",
		width=0.75];
	173 -- 269	[pos="872.04,1123.3 851.94,1085.8 804.4,997.24 784.4,959.96"];
	179	[height=0.5,
		pos="1079.6,935.99",
		width=0.75];
	174 -- 179	[pos="1144.1,1154.4 1131.2,1110.7 1097.9,997.94 1084.9,953.95"];
	437	[height=0.5,
		pos="1846.1,497.19",
		width=0.75];
	436 -- 437	[pos="1727.3,367.18 1752.9,395.2 1806.5,453.78 1832,481.72"];
	177 -- 178	[pos="733.72,914.62 756.71,928.09 793.78,949.82 816.79,963.3"];
	177 -- 268	[pos="709.89,884.6 704.1,853.36 692.26,789.48 686.46,758.18"];
	342 -- 437	[pos="1748.3,512.04 1769.2,508.86 1798.4,504.44 1819.4,501.24"];
	342 -- 343	[pos="1717,533.87 1711.7,552.54 1703.6,581.7 1698.4,600.43"];
	178 -- 179	[pos="863.7,971.03 910.3,963.47 1006.6,947.83 1053.2,940.27"];
	224	[height=0.5,
		pos="563.71,1025.5",
		width=0.75];
	178 -- 224	[pos="811.07,980.13 758.78,989.72 642.09,1011.1 589.86,1020.7"];
	183	[height=0.5,
		pos="1365.5,716.26",
		width=0.75];
	179 -- 183	[pos="1097.5,922.24 1148.8,882.78 1296.3,769.45 1347.6,730"];
	437 -- 438	[pos="1848.6,515.38 1851,532.08 1854.4,556.7 1856.7,573.38"];
	182 -- 183	[pos="1442.2,534.03 1426.4,571.78 1388.8,660.95 1372.9,698.79"];
	441	[height=0.5,
		pos="1454.8,453.28",
		width=0.75];
	182 -- 441	[pos="1451,498.67 1451.7,490.18 1452.6,480.06 1453.3,471.54"];
	187	[height=0.5,
		pos="1430.6,784.19",
		width=0.75];
	183 -- 187	[pos="1380.3,731.67 1390.9,742.79 1405.2,757.73 1415.9,768.84"];
	438 -- 439	[pos="1845,576.1 1821.7,550.78 1775.5,500.66 1752,475.14"];
	186 -- 187	[pos="1298.2,755.21 1327.6,761.65 1375.4,772.12 1404.8,778.56"];
	186 -- 289	[pos="1298.6,744.43 1352,733.91 1473.2,710.04 1526.6,699.51"];
	187 -- 190	[pos="1405.2,790.95 1359.5,803.11 1264,828.52 1218.5,840.65"];
	440	[height=0.5,
		pos="1579.4,417.23",
		width=0.75];
	439 -- 440	[pos="1712.1,452.64 1682.5,444.74 1633.9,431.78 1604.5,423.92"];
	284 -- 440	[pos="1461.1,373.91 1487.3,383.51 1529.3,398.88 1555.5,408.49"];
	285	[height=0.5,
		pos="1181.8,328.59",
		width=0.75];
	284 -- 285	[pos="1410.5,361.35 1361.3,354.3 1257.3,339.4 1208.3,332.39"];
	193	[height=0.5,
		pos="883.14,806.89",
		width=0.75];
	190 -- 193	[pos="1166.6,843.87 1108,836.22 968.57,818.04 909.9,810.38"];
	440 -- 441	[pos="1554.5,424.44 1532.8,430.73 1501.4,439.8 1479.7,446.08"];
	192 -- 193	[pos="505.44,846.84 578.94,839.07 782.8,817.5 856.3,809.73"];
	192 -- 223	[pos="475.57,867.66 471.7,890.68 465.05,930.37 461.18,953.43"];
	197	[height=0.5,
		pos="965.09,558",
		width=0.75];
	193 -- 197	[pos="889.04,788.99 904.16,743.07 944.19,621.48 959.25,575.74"];
	441 -- 442	[pos="1427.7,450.62 1376.4,445.59 1265.6,434.71 1214.5,429.7"];
	195 -- 196	[pos="725.62,569.12 762.32,576.29 828.57,589.25 865.1,596.39"];
	465	[height=0.5,
		pos="389.3,632.92",
		width=0.75];
	195 -- 465	[pos="673.73,569.69 615.41,582.65 473.33,614.24 414.97,627.21"];
	196 -- 197	[pos="911.66,589.35 921.93,583.33 934.31,576.06 944.57,570.04"];
	240	[height=0.5,
		pos="903.07,557.42",
		width=0.75];
	196 -- 240	[pos="895.93,583.54 896.68,580.78 897.46,577.93 898.21,575.17"];
	200	[height=0.5,
		pos="1155.4,517.94",
		width=0.75];
	197 -- 200	[pos="991.15,552.52 1027.5,544.87 1093,531.08 1129.3,523.43"];
	443	[height=0.5,
		pos="785.51,388.03",
		width=0.75];
	442 -- 443	[pos="1160.8,424.45 1087.5,417.34 885.56,397.74 812.41,390.64"];
	199 -- 200	[pos="1223.1,573.34 1208.4,561.29 1187.3,544.02 1172.5,531.98"];
	396	[height=0.5,
		pos="1007.2,799.92",
		width=0.75];
	199 -- 396	[pos="1224.3,602 1181.7,640.83 1066.1,746.27 1023.4,785.21"];
	383 -- 443	[pos="529.18,567.23 579.58,531.99 716.69,436.15 766.83,401.1"];
	383 -- 384	[pos="483.29,581.7 431.49,584.09 318.61,589.3 266.58,591.7"];
	203	[height=0.5,
		pos="1152.2,471.11",
		width=0.75];
	200 -- 203	[pos="1154.2,499.7 1153.9,496.31 1153.7,492.77 1153.5,489.38"];
	443 -- 444	[pos="759.91,382.24 722.37,373.75 652.8,358.01 615.26,349.52"];
	202 -- 203	[pos="1288.1,459.29 1257.9,461.91 1209.3,466.14 1179.1,468.77"];
	202 -- 256	[pos="1309,439.25 1295.1,397.91 1260.8,295.35 1246.9,253.92"];
	203 -- 205	[pos="1125.2,471.54 1065.9,472.48 924.99,474.72 865.67,475.67"];
	445	[height=0.5,
		pos="644.44,519.98",
		width=0.75];
	444 -- 445	[pos="595.21,361.6 605.74,395.47 628.48,468.62 638.96,502.33"];
	268 -- 445	[pos="679.95,722.07 672.68,680.69 654.86,579.25 647.6,537.93"];
	268 -- 269	[pos="690.97,757.38 708.38,795.71 750.04,887.42 767.44,925.71"];
	211	[height=0.5,
		pos="602.68,875.95",
		width=0.75];
	205 -- 211	[pos="828.63,493.02 790.12,558.28 651.54,793.15 612.8,858.79"];
	446	[height=0.5,
		pos="595.9,271.81",
		width=0.75];
	445 -- 446	[pos="640.87,501.73 631.88,455.73 608.34,335.42 599.41,289.75"];
	207 -- 208	[pos="507.72,406.27 476.4,437.12 404.91,507.54 373.62,538.35"];
	207 -- 261	[pos="535.52,375.35 560.18,344.16 614.46,275.49 639.3,244.06"];
	208 -- 209	[pos="384.71,558.28 425.88,566.16 505.2,581.35 546.3,589.21"];
	452	[height=0.5,
		pos="284.8,769.12",
		width=0.75];
	208 -- 452	[pos="352.45,570.93 338.6,611.5 304.64,710.99 290.81,751.51"];
	261 -- 278	[pos="679.43,226.31 724.44,223.89 813.78,219.08 858.67,216.67"];
	262	[height=0.5,
		pos="746.76,140.76",
		width=0.75];
	261 -- 262	[pos="668.22,213.02 685.61,197.01 713.21,171.62 730.63,155.59"];
	278 -- 446	[pos="859.77,220.28 804.74,231.03 676.99,255.98 621.92,266.73"];
	279	[height=0.5,
		pos="1054.8,250.21",
		width=0.75];
	278 -- 279	[pos="911.79,220.6 943.66,227.2 997.28,238.29 1029,244.87"];
	209 -- 210	[pos="570.5,612.39 563.81,676.23 541.42,889.66 534.76,953.2"];
	477	[height=0.5,
		pos="708.9,476.7",
		width=0.75];
	209 -- 477	[pos="589.15,579.8 615.34,557.25 665.75,513.86 692.03,491.23"];
	210 -- 211	[pos="545.03,954.61 557.84,937.13 577.9,909.76 590.66,892.35"];
	498	[height=0.5,
		pos="553.57,1151",
		width=0.75];
	210 -- 498	[pos="534.97,989.43 538.95,1024 547.54,1098.6 551.5,1133"];
	211 -- 214	[pos="588.11,891.41 562.85,918.23 511.19,973.07 485.89,999.94"];
	446 -- 447	[pos="569.52,275.9 531.52,281.79 461.78,292.6 423.72,298.49"];
	217	[height=0.5,
		pos="212.39,983.94",
		width=0.75];
	214 -- 217	[pos="444.53,1012.2 394.79,1006.2 288.6,993.22 238.98,987.17"];
	448	[height=0.5,
		pos="237,425.51",
		width=0.75];
	447 -- 448	[pos="379.47,316.22 348.67,339.85 285.69,388.15 254.84,411.82"];
	216 -- 217	[pos="156.67,822.77 168.53,857.07 194.42,931.94 206.26,966.19"];
	458	[height=0.5,
		pos="177.3,628.74",
		width=0.75];
	216 -- 458	[pos="153.27,786.76 158.42,752.9 169.41,680.61 174.55,646.83"];
	362 -- 448	[pos="508.26,309.21 453.24,332.8 314.91,392.1 259.99,415.65"];
	362 -- 363	[pos="549.29,285.6 578.37,263.35 635.5,219.66 664.57,197.43"];
	220	[height=0.5,
		pos="354.54,851.87",
		width=0.75];
	217 -- 220	[pos="228.15,969.3 255.47,943.91 311.34,892.01 338.72,866.57"];
	449	[height=0.5,
		pos="124.51,690.86",
		width=0.75];
	448 -- 449	[pos="229.62,442.92 209.24,491 152.34,625.22 131.92,673.38"];
	219 -- 220	[pos="258.94,697.73 279.2,730.39 323.86,802.4 344.15,835.11"];
	454	[height=0.5,
		pos="447.9,544.89",
		width=0.75];
	219 -- 454	[pos="267.7,667.98 305.8,641.96 390.8,583.89 428.84,557.9"];
	371 -- 449	[pos="37.533,857.25 55.879,822.15 97.308,742.9 115.57,707.96"];
	372	[height=0.5,
		pos="109.95,983.18",
		width=0.75];
	371 -- 372	[pos="40.871,891.03 56.27,911.57 82.404,946.43 97.732,966.88"];
	226	[height=0.5,
		pos="416.55,874.7",
		width=0.75];
	220 -- 226	[pos="378.34,860.63 382.99,862.34 387.86,864.14 392.51,865.85"];
	449 -- 450	[pos="119.83,708.85 106.12,761.61 66.132,915.46 52.497,967.92"];
	223 -- 224	[pos="479.77,982.53 497.99,991.86 523.92,1005.1 542.12,1014.4"];
	223 -- 228	[pos="454.66,953.5 447.06,914.45 429.09,822.18 421.47,783.03"];
	224 -- 225	[pos="577.2,1009.6 580.63,1005.6 584.31,1001.2 587.74,997.2"];
	491	[height=0.5,
		pos="501.69,1059.8",
		width=0.75];
	224 -- 491	[pos="542.71,1037.1 536.25,1040.7 529.13,1044.6 522.67,1048.2"];
	225 -- 226	[pos="580.63,969.65 545.16,949.12 472.63,907.15 437.1,886.59"];
	506	[height=0.5,
		pos="948.64,955.66",
		width=0.75];
	225 -- 506	[pos="628.07,979.48 692.82,974.66 856.45,962.51 921.43,957.68"];
	230	[height=0.5,
		pos="583.86,739.91",
		width=0.75];
	226 -- 230	[pos="433.83,860.78 465.89,834.95 534.25,779.87 566.43,753.95"];
	450 -- 451	[pos="58.822,968.89 68.532,954 82.643,932.34 92.346,917.46"];
	228 -- 229	[pos="442.56,757.47 506.18,738.09 675.57,686.49 739.31,667.07"];
	459	[height=0.5,
		pos="280.01,636.99",
		width=0.75];
	228 -- 459	[pos="402.13,750.28 375.66,725.73 322.7,676.6 296.08,651.89"];
	229 -- 230	[pos="741.58,669.56 706.96,685 640.94,714.45 606.32,729.89"];
	485	[height=0.5,
		pos="1030.9,515.14",
		width=0.75];
	229 -- 485	[pos="785.42,647.97 835.51,620.87 959.96,553.53 1009.8,526.57"];
	235	[height=0.5,
		pos="524.58,927.18",
		width=0.75];
	230 -- 235	[pos="578.29,757.52 566.99,793.22 541.51,873.7 530.19,909.47"];
	451 -- 452	[pos="121.67,887.36 156.47,862.14 231.52,807.74 266.35,782.5"];
	233 -- 234	[pos="609.61,1053.8 592.41,1064.7 567.72,1080.5 550.64,1091.3"];
	233 -- 380	[pos="602.66,1038.5 550.09,1033.3 434.17,1022 381.51,1016.9"];
	234 -- 235	[pos="530.41,1085.6 529.16,1051.6 526.49,979.17 525.25,945.32"];
	494	[height=0.5,
		pos="428.91,1178.3",
		width=0.75];
	234 -- 494	[pos="512.82,1117.1 494.33,1130.6 465.91,1151.3 447.36,1164.8"];
	241	[height=0.5,
		pos="634.49,570.57",
		width=0.75];
	235 -- 241	[pos="530.03,909.49 548.74,848.78 610.24,649.23 629,588.36"];
	453	[height=0.5,
		pos="441.38,720.96",
		width=0.75];
	452 -- 453	[pos="309.61,761.49 338.93,752.47 387.42,737.56 416.69,728.56"];
	238 -- 239	[pos="716.14,637.26 759.38,596.41 880.11,482.38 923.43,441.47"];
	456	[height=0.5,
		pos="603.07,431.77",
		width=0.75];
	238 -- 456	[pos="692.84,634.76 674.67,593.69 629.08,490.58 610.82,449.28"];
	239 -- 240	[pos="934.2,444.54 927.33,469.44 914.96,514.29 908.07,539.3"];
	239 -- 285	[pos="962.41,417.22 1008.8,398.49 1112.3,356.68 1158.6,337.96"];
	240 -- 241	[pos="876.09,558.74 824.61,561.26 712.92,566.73 661.45,569.25"];
	479	[height=0.5,
		pos="1036.4,755.86",
		width=0.75];
	240 -- 479	[pos="914.21,573.99 939.3,611.35 1000,701.75 1025.2,739.19"];
	395 -- 453	[pos="698.53,847.79 646.37,822.06 515.24,757.39 463.18,731.71"];
	395 -- 396	[pos="746.38,853.28 800.85,842.14 926.53,816.43 981.12,805.26"];
	241 -- 243	[pos="612.43,559.86 570.74,539.63 480.81,495.99 439.07,475.74"];
	453 -- 454	[pos="442.05,702.78 443.31,668.96 445.98,596.72 447.23,562.97"];
	246	[height=0.5,
		pos="651.71,315.83",
		width=0.75];
	243 -- 246	[pos="436.57,452.54 480.76,424.46 587.7,356.5 631.99,328.36"];
	455	[height=0.5,
		pos="775.74,330.99",
		width=0.75];
	454 -- 455	[pos="467.42,532.15 525.73,494.11 698.14,381.62 756.32,343.66"];
	245 -- 246	[pos="765.48,495.9 741.99,458.7 685.76,369.72 662.29,332.57"];
	245 -- 391	[pos="779.11,530.68 787.31,579.51 809.92,714.05 818.11,762.79"];
	346 -- 455	[pos="968.76,261.16 926.93,276.29 841.26,307.29 799.58,322.37"];
	346 -- 347	[pos="1013.8,240.9 1038.5,227.25 1079.4,204.67 1104.1,191.05"];
	249	[height=0.5,
		pos="759.08,184.8",
		width=0.75];
	246 -- 249	[pos="664.66,300.02 685.3,274.84 725.42,225.88 746.08,200.66"];
	455 -- 456	[pos="755.26,342.95 722.02,362.34 656.75,400.44 623.53,419.83"];
	248 -- 249	[pos="543.47,247.52 589.54,234.12 687.79,205.54 734.03,192.08"];
	462	[height=0.5,
		pos="318.18,327.85",
		width=0.75];
	248 -- 462	[pos="494.86,263.42 456.28,277.49 380.49,305.12 341.93,319.19"];
	249 -- 252	[pos="781.37,174.04 827.51,151.78 932.96,100.89 978.75,78.796"];
	457	[height=0.5,
		pos="264.61,469.9",
		width=0.75];
	456 -- 457	[pos="576.23,434.79 512.91,441.93 354.78,459.74 291.46,466.87"];
	384 -- 457	[pos="242.99,575.07 247.79,551.73 256.13,511.15 260.93,487.81"];
	385	[height=0.5,
		pos="268.34,939.92",
		width=0.75];
	384 -- 385	[pos="240.83,611.13 245.85,671.08 261.85,862.24 266.84,921.93"];
	252 -- 254	[pos="1020.8,56.147 1030,50.652 1040.8,44.161 1050,38.652"];
	457 -- 458	[pos="255.27,486.89 238.55,517.31 203.7,580.71 186.84,611.38"];
	257	[height=0.5,
		pos="1113.6,119.27",
		width=0.75];
	254 -- 257	[pos="1078.5,43.907 1086.2,60.501 1097.8,85.319 1105.5,101.89"];
	458 -- 459	[pos="204.29,630.91 219.38,632.12 238.14,633.63 253.21,634.84"];
	256 -- 257	[pos="1225.1,221.58 1200.7,199.18 1154.2,156.52 1129.7,134.02"];
	351	[height=0.5,
		pos="1280.1,280.18",
		width=0.75];
	256 -- 351	[pos="1255.1,252.04 1258.7,256.08 1262.5,260.42 1266.1,264.45"];
	257 -- 259	[pos="1090.4,109.63 1051.3,93.425 972.96,60.91 934.08,44.78"];
	459 -- 460	[pos="260.9,624.19 227.75,601.98 159.97,556.57 126.77,534.32"];
	259 -- 262	[pos="891.62,47.772 859.98,68.078 797.85,107.96 766.23,128.26"];
	460 -- 461	[pos="113.57,503.65 120.67,482.62 132.4,447.82 139.48,426.82"];
	262 -- 264	[pos="724.31,151.1 694.53,164.82 642.26,188.89 612.5,202.6"];
	461 -- 462	[pos="167.68,398.64 200.85,383.04 262.92,353.84 296.04,338.26"];
	264 -- 266	[pos="600.22,229.93 617.23,258.53 651.37,315.92 668.31,344.39"];
	462 -- 463	[pos="307.19,344.63 280.03,386.1 209.99,493.05 182.91,534.4"];
	270	[height=0.5,
		pos="828.94,644.45",
		width=0.75];
	266 -- 270	[pos="687.5,378.5 714.46,429.18 793.06,576.99 819.86,627.38"];
	464	[height=0.5,
		pos="278.85,814.79",
		width=0.75];
	463 -- 464	[pos="179.17,568.78 198.64,616.82 252.28,749.2 271.71,797.15"];
	269 -- 270	[pos="778.55,924.74 788.15,871.32 816.16,715.55 825.7,662.43"];
	497	[height=0.5,
		pos="644.06,1130.5",
		width=0.75];
	269 -- 497	[pos="763.86,959.28 739.04,994.75 680.42,1078.5 655.54,1114.1"];
	380 -- 464	[pos="347.82,996.55 333.46,958.7 299.9,870.27 285.55,832.45"];
	381	[height=0.5,
		pos="154.23,1027.9",
		width=0.75];
	380 -- 381	[pos="327.52,1016.1 289.18,1018.7 219.41,1023.5 181.13,1026.1"];
	270 -- 273	[pos="854.06,637.65 899.95,625.23 996.84,599.02 1042.7,586.59"];
	464 -- 465	[pos="289.04,798 310.09,763.35 358.11,684.27 379.13,649.66"];
	276	[height=0.5,
		pos="1084.9,383.08",
		width=0.75];
	273 -- 276	[pos="1069.5,561.64 1072.7,524.16 1080.1,438.63 1083.4,401.19"];
	466	[height=0.5,
		pos="572.43,541.86",
		width=0.75];
	465 -- 466	[pos="411.03,622.11 446.27,604.59 515.51,570.17 550.73,552.65"];
	275 -- 276	[pos="1276,331.08 1234.3,342.42 1151.6,364.94 1110,376.26"];
	286	[height=0.5,
		pos="1341.1,384.61",
		width=0.75];
	275 -- 286	[pos="1312.1,340.72 1317.8,349.24 1324.6,359.61 1330.2,368.13"];
	400 -- 466	[pos="688.3,767.06 665.48,722.69 604.36,603.91 581.35,559.2"];
	401	[height=0.5,
		pos="945.17,774.18",
		width=0.75];
	400 -- 401	[pos="724.09,783.01 771.82,781.11 870.48,777.16 918.18,775.26"];
	276 -- 279	[pos="1080.9,365.16 1075.1,339.8 1064.7,293.7 1058.9,268.27"];
	466 -- 467	[pos="561.27,525.15 539.01,491.82 489.35,417.47 467.12,384.18"];
	279 -- 282	[pos="1082,248.07 1130,244.3 1229.2,236.51 1277.1,232.74"];
	467 -- 468	[pos="456.07,349.23 456.19,322.9 456.41,274.57 456.53,248.2"];
	287	[height=0.5,
		pos="1455.4,409.25",
		width=0.75];
	282 -- 287	[pos="1317.7,246.46 1346.3,280.36 1413.3,359.56 1442,393.43"];
	468 -- 469	[pos="459.63,211.87 460.64,205.87 461.77,199.18 462.78,193.16"];
	285 -- 286	[pos="1206,337.1 1236.2,347.69 1287.3,365.67 1317.2,376.21"];
	474	[height=0.5,
		pos="1178.9,224.63",
		width=0.75];
	285 -- 474	[pos="1181.3,310.48 1180.8,291.52 1180,261.9 1179.4,242.88"];
	286 -- 287	[pos="1367.1,390.2 1385.8,394.23 1410.9,399.65 1429.5,403.68"];
	488	[height=0.5,
		pos="1217.1,372.65",
		width=0.75];
	286 -- 488	[pos="1314.2,382.02 1293.4,380.01 1264.7,377.25 1244,375.24"];
	290	[height=0.5,
		pos="1605.8,564.32",
		width=0.75];
	287 -- 290	[pos="1470.1,424.4 1498.7,453.97 1561.9,519.07 1590.8,548.87"];
	469 -- 470	[pos="487.31,163.89 516.65,148.77 568.97,121.79 598.47,106.59"];
	289 -- 290	[pos="1559.9,676.82 1570,652 1588.4,606.89 1598.6,581.99"];
	289 -- 405	[pos="1539.1,710.1 1529.3,721.44 1516,736.69 1506.2,748.02"];
	290 -- 293	[pos="1609.8,582.28 1618.9,622.75 1641,720.7 1650.1,761.26"];
	470 -- 471	[pos="646.46,90.239 690.41,81.655 778.48,64.455 822.46,55.865"];
	293 -- 298	[pos="1638.5,794.23 1591,839.57 1448.7,975.55 1401.1,1020.9"];
	472	[height=0.5,
		pos="917.8,110.2",
		width=0.75];
	471 -- 472	[pos="865.44,65.132 876.3,74.482 890.4,86.617 901.23,95.94"];
	363 -- 472	[pos="707.21,176 752.41,161.88 847.83,132.07 893.04,117.94"];
	364	[height=0.5,
		pos="899.82,325.36",
		width=0.75];
	363 -- 364	[pos="702.14,196.55 743.52,223.52 839.14,285.82 880.35,312.67"];
	298 -- 300	[pos="1378.7,1053.5 1363.6,1093.1 1327,1188.9 1311.8,1228.6"];
	473	[height=0.5,
		pos="1046.5,113.96",
		width=0.75];
	472 -- 473	[pos="944.79,110.99 966.62,111.63 997.22,112.52 1019.2,113.16"];
	347 -- 473	[pos="1107.9,165.32 1094.8,154.31 1076.7,139.16 1063.5,128.16"];
	348	[height=0.5,
		pos="1438.4,277.16",
		width=0.75];
	347 -- 348	[pos="1149.5,187.21 1208.1,205.45 1355.5,251.33 1413.9,269.54"];
	300 -- 303	[pos="1291.3,1262.2 1250.5,1309.6 1129.7,1449.7 1088.9,1496.9"];
	473 -- 474	[pos="1063.6,128.2 1089,149.45 1136.6,189.23 1161.9,210.45"];
	303 -- 306	[pos="1048.2,1511.7 1008.4,1510.2 934.57,1507.4 894.76,1505.9"];
	475	[height=0.5,
		pos="1058.8,164.95",
		width=0.75];
	474 -- 475	[pos="1157.1,213.83 1135.5,203.08 1102.5,186.67 1080.8,175.88"];
	350 -- 475	[pos="1197,178.06 1166.3,175.15 1116.4,170.41 1085.6,167.5"];
	350 -- 351	[pos="1233.4,197.5 1243.8,215.81 1260.2,244.86 1270.5,263.2"];
	306 -- 309	[pos="841.27,1500.7 802.1,1494.5 728.87,1482.8 689.56,1476.6"];
	475 -- 476	[pos="1039,177.36 1003.7,199.61 929.81,246.08 894.34,268.39"];
	309 -- 311	[pos="681.13,1486.1 713.71,1510.7 781.81,1562.3 814.29,1586.9"];
	476 -- 477	[pos="861.21,296.58 830.21,333.25 753.3,424.2 722.24,460.94"];
	311 -- 313	[pos="859.37,1600.7 901.13,1600.9 980.79,1601.2 1022.6,1601.4"];
	478	[height=0.5,
		pos="891.12,658",
		width=0.75];
	477 -- 478	[pos="724.12,491.85 758.51,526.06 841.84,608.98 876.06,643.03"];
	391 -- 478	[pos="830.85,763.65 844.22,740.21 868.14,698.29 881.47,674.92"];
	392	[height=0.5,
		pos="654.86,829.56",
		width=0.75];
	391 -- 392	[pos="796.23,788.02 764.79,797.26 711.03,813.05 679.65,822.27"];
	313 -- 315	[pos="1077,1601.6 1103.4,1601.7 1143.2,1601.9 1169.6,1602"];
	478 -- 479	[pos="910.41,671 938.2,689.72 989.19,724.07 1017,742.81"];
	318	[height=0.5,
		pos="1328.1,1515.2",
		width=0.75];
	315 -- 318	[pos="1216.1,1589.3 1241,1572.9 1283.8,1544.6 1308.7,1528.1"];
	480	[height=0.5,
		pos="1166.9,1008.4",
		width=0.75];
	479 -- 480	[pos="1045.4,773.22 1069.3,819.47 1134.2,945.27 1158,991.28"];
	325 -- 480	[pos="1207.2,1176.9 1198.7,1141.3 1179.6,1061.8 1171.1,1026.2"];
	325 -- 326	[pos="1197.2,1210.5 1176.8,1232.9 1139.8,1273.7 1119.6,1296"];
	317 -- 318	[pos="1493.1,1466.8 1456.7,1477.5 1389.3,1497.3 1352.9,1508"];
	501	[height=0.5,
		pos="1457.2,1325.8",
		width=0.75];
	317 -- 501	[pos="1509.9,1442 1498.3,1416.4 1476.8,1368.9 1465.1,1343.3"];
	322	[height=0.5,
		pos="1291.6,1323.9",
		width=0.75];
	318 -- 322	[pos="1324.7,1497.2 1317.7,1460.8 1302,1378.5 1295,1342"];
	481	[height=0.5,
		pos="1270.5,1106.7",
		width=0.75];
	480 -- 481	[pos="1182.6,1023.4 1202.2,1041.9 1235.4,1073.5 1254.9,1092"];
	326 -- 481	[pos="1118.4,1295.4 1149.3,1257.1 1226.8,1160.9 1257.6,1122.7"];
	326 -- 327	[pos="1079.3,1316.4 1054.8,1321 1018.5,1327.8 994.03,1332.4"];
	321 -- 322	[pos="1309.3,1174.1 1305.5,1206.3 1297.5,1273.5 1293.7,1305.8"];
	504	[height=0.5,
		pos="1364.9,898.9",
		width=0.75];
	321 -- 504	[pos="1315.2,1138 1325,1090.8 1351.3,964.17 1361.1,916.97"];
	328	[height=0.5,
		pos="1184.2,1357.2",
		width=0.75];
	322 -- 328	[pos="1267,1331.6 1249.5,1337 1226.2,1344.2 1208.7,1349.6"];
	481 -- 482	[pos="1284.8,1091.3 1313.9,1060.1 1379.4,989.68 1408.5,958.4"];
	327 -- 328	[pos="994.88,1339.8 1036.4,1343.7 1115.7,1350.9 1157.2,1354.8"];
	496	[height=0.5,
		pos="708.05,1312.9",
		width=0.75];
	327 -- 496	[pos="941.09,1334.8 891.29,1330.1 785.1,1320.1 735.12,1315.4"];
	328 -- 331	[pos="1202,1343.3 1252.2,1304.1 1394.3,1193 1444.3,1153.9"];
	483	[height=0.5,
		pos="1209.8,731.95",
		width=0.75];
	482 -- 483	[pos="1407.6,927.74 1368.3,888.82 1264.2,785.76 1225,746.99"];
	396 -- 483	[pos="1031.7,791.73 1070.7,778.63 1146.7,753.13 1185.6,740.08"];
	396 -- 397	[pos="1021.2,784.24 1040.9,762.04 1076.7,721.68 1096.5,699.42"];
	331 -- 333	[pos="1484.2,1129.8 1537,1105.1 1669.6,1043.3 1722.7,1018.5"];
	484	[height=0.5,
		pos="1302.6,619.82",
		width=0.75];
	483 -- 484	[pos="1223.1,715.89 1240.7,694.57 1271.7,657.16 1289.3,635.86"];
	405 -- 484	[pos="1474.7,750.16 1438.5,722.74 1356.8,660.9 1320.5,633.43"];
	406	[height=0.5,
		pos="1199.4,1055.5",
		width=0.75];
	405 -- 406	[pos="1477.3,778.97 1426.6,829.41 1265,990.2 1214.6,1040.4"];
	333 -- 336	[pos="1760.8,993.01 1796.7,958.59 1884.8,874.19 1920.6,839.81"];
	484 -- 485	[pos="1278.9,610.71 1227.4,590.87 1105.6,543.91 1054.3,524.15"];
	336 -- 338	[pos="1930.7,807.24 1920.9,776.26 1900.9,712.38 1891,681.07"];
	486	[height=0.5,
		pos="1155.1,383.03",
		width=0.75];
	485 -- 486	[pos="1045.4,499.73 1069.3,474.27 1116.8,423.74 1140.7,398.35"];
	351 -- 486	[pos="1263,294.26 1239.2,313.85 1196.3,349.11 1172.4,368.79"];
	352	[height=0.5,
		pos="1434,221.25",
		width=0.75];
	351 -- 352	[pos="1303.8,271.1 1332.8,259.99 1381.6,241.31 1410.5,230.24"];
	338 -- 340	[pos="1874.7,646.19 1855.3,615.64 1814.3,551.23 1794.8,520.49"];
	487	[height=0.5,
		pos="1226.8,499.18",
		width=0.75];
	486 -- 487	[pos="1165.6,400.17 1179.3,422.26 1202.8,460.42 1216.4,482.35"];
	397 -- 487	[pos="1121.1,666.92 1143.1,631.89 1194.1,551.08 1216.2,515.97"];
	398	[height=0.5,
		pos="882.83,730.92",
		width=0.75];
	397 -- 398	[pos="1084.4,689.03 1040.5,698.16 952.36,716.47 908.65,725.55"];
	344	[height=0.5,
		pos="1641.6,461.25",
		width=0.75];
	340 -- 344	[pos="1759.2,496.11 1733.2,488.41 1692.7,476.38 1666.6,468.66"];
	487 -- 488	[pos="1225.4,481.05 1223.5,457 1220.3,414.78 1218.5,390.75"];
	343 -- 344	[pos="1687.5,600.68 1677.6,570.5 1657.5,509.45 1647.5,479.15"];
	503	[height=0.5,
		pos="1665.6,854.62",
		width=0.75];
	343 -- 503	[pos="1691.2,636.54 1686,680.51 1672.9,792.38 1667.7,836.41"];
	344 -- 348	[pos="1625.3,446.49 1587.2,411.94 1492.4,326.1 1454.5,291.73"];
	488 -- 489	[pos="1189.9,372.37 1137.5,371.83 1023.2,370.65 970.96,370.11"];
	348 -- 352	[pos="1437,259.16 1436.5,252.91 1435.9,245.88 1435.4,239.6"];
	489 -- 490	[pos="930.62,386.01 885.03,441.68 734.94,624.95 689.71,680.18"];
	352 -- 354	[pos="1432.8,203.14 1431.5,182.82 1429.4,150.04 1428.1,129.71"];
	490 -- 491	[pos="668.26,713.61 638.62,775.19 539.55,981.09 510.05,1042.4"];
	354 -- 356	[pos="1402.4,119.19 1376.7,127.18 1336.5,139.65 1310.7,147.66"];
	491 -- 492	[pos="498.83,1077.8 491.5,1123.9 472.13,1245.8 464.77,1292.2"];
	360	[height=0.5,
		pos="1023.8,339.05",
		width=0.75];
	356 -- 360	[pos="1267.1,168.56 1218.7,202.46 1090.7,292.2 1042.5,325.96"];
	492 -- 493	[pos="481.28,1323.2 515.56,1345.9 586.41,1392.8 620.67,1415.5"];
	359 -- 360	[pos="1202.9,528 1166.9,490.05 1074.1,392.16 1038.3,354.31"];
	505	[height=0.5,
		pos="1193.6,790.41",
		width=0.75];
	359 -- 505	[pos="1215.7,561.52 1211.2,607.21 1199.8,726.5 1195.3,772.22"];
	360 -- 364	[pos="996.91,336.08 976.11,333.78 947.46,330.62 926.67,328.32"];
	493 -- 494	[pos="626.52,1412.3 588.39,1367.1 480.32,1239.2 442.32,1194.2"];
	364 -- 367	[pos="889.64,342.37 863.97,385.25 796.86,497.4 771.39,539.97"];
	495	[height=0.5,
		pos="371.72,1266.4",
		width=0.75];
	494 -- 495	[pos="418.15,1194.9 407.99,1210.5 392.83,1233.9 382.63,1249.6"];
	374 -- 495	[pos="271.98,1234.1 293.77,1241.2 325.44,1251.4 347.22,1258.5"];
	375	[height=0.5,
		pos="53.988,1100.2",
		width=0.75];
	374 -- 375	[pos="227.81,1213.4 190.64,1189.2 110.35,1136.9 73.364,1112.8"];
	367 -- 369	[pos="738.81,566.78 667.33,598.7 446.41,697.37 375.02,729.26"];
	495 -- 496	[pos="398.4,1270.1 461.32,1278.8 618.45,1300.5 681.37,1309.2"];
	369 -- 372	[pos="337.35,754.56 293.79,798.36 168.68,924.14 125.12,967.93"];
	496 -- 497	[pos="701.79,1295.1 689.53,1260.1 662.45,1182.9 650.24,1148.1"];
	372 -- 375	[pos="101.69,1000.5 91.114,1022.6 72.877,1060.7 62.279,1082.9"];
	497 -- 498	[pos="618.37,1136.3 606.14,1139.1 591.56,1142.4 579.32,1145.2"];
	375 -- 378	[pos="80.062,1095 110.35,1089 160.01,1079 190.27,1073"];
	498 -- 499	[pos="570.43,1165.4 618.84,1206.7 757.86,1325.5 806.26,1366.8"];
	378 -- 381	[pos="196.64,1055.2 189.4,1050.5 181.19,1045.2 173.94,1040.6"];
	499 -- 500	[pos="846.48,1390.5 904.65,1413.7 1055.5,1473.7 1113.8,1496.9"];
	381 -- 385	[pos="172.06,1014.2 193.5,997.65 229.26,970.07 250.64,953.57"];
	500 -- 501	[pos="1158.3,1494.4 1216.4,1461.7 1378.8,1370 1436.5,1337.4"];
	385 -- 387	[pos="293.64,946.24 314.1,951.35 342.78,958.52 363.33,963.66"];
	501 -- 502	[pos="1467.7,1309.2 1495.3,1265.9 1569.1,1149.7 1596.6,1106.4"];
	387 -- 392	[pos="410.32,958.82 460.1,932.51 583.58,867.24 633.45,840.87"];
	502 -- 503	[pos="1611.6,1071.8 1622.5,1027.9 1650.3,916.04 1661.1,872.42"];
	392 -- 398	[pos="677.55,819.74 721.14,800.88 816.11,759.78 859.89,740.84"];
	503 -- 504	[pos="1639.1,858.51 1582.3,866.89 1448.7,886.56 1391.6,894.97"];
	398 -- 401	[pos="901.87,744.13 909.61,749.5 918.52,755.69 926.24,761.04"];
	504 -- 505	[pos="1345.2,886.45 1312.3,865.58 1246.3,823.77 1213.3,802.88"];
	401 -- 403	[pos="964.53,787.01 998.73,809.67 1069.4,856.51 1103.6,879.16"];
	505 -- 506	[pos="1174.4,803.38 1128.6,834.27 1013.5,911.92 967.77,942.75"];
	403 -- 406	[pos="1131,909.17 1145.6,940.5 1176.5,1006.6 1191.2,1038.1"];
	506 -- 507	[pos="930.97,969.36 869.1,1017.3 662.55,1177.5 600.28,1225.8"];
	406 -- 409	[pos="1189.8,1072.7 1161.9,1123 1080.6,1269.6 1052.9,1319.6"];
	507 -- 508	[pos="589.72,1257.2 601.44,1284.9 624.23,1339 635.97,1366.8"];
	509	[height=0.5,
		pos="930.48,1425.4",
		width=0.75];
	409 -- 509	[pos="1025.8,1350.4 1004.6,1367.1 969.19,1394.9 948.02,1411.6"];
	508 -- 509	[pos="669.85,1388.1 724.55,1395.9 849.4,1413.8 904.05,1421.6"];
}
