graph {
	graph [bb="0,0,1201.4,918.77",
		outputorder=edgesfirst,
		overlap=prism,
		size="50,50!",
		start=5099
	];
	node [label="\N"];
	0	[height=0.5,
		pos="882.14,60.669",
		width=0.75];
	1	[height=0.5,
		pos="952.73,155.04",
		width=0.75];
	0 -- 1	[pos="894.43,77.107 907.39,94.428 927.67,121.54 940.58,138.79"];
	20	[height=0.5,
		pos="752.2,21.152",
		width=0.75];
	0 -- 20	[pos="857.39,53.143 834.27,46.111 799.94,35.672 776.85,28.649"];
	2	[height=0.5,
		pos="1006.7,219.02",
		width=0.75];
	1 -- 2	[pos="966.07,170.86 974.31,180.62 984.86,193.12 993.14,202.94"];
	59	[height=0.5,
		pos="936.52,255.98",
		width=0.75];
	1 -- 59	[pos="949.83,173.09 946.9,191.35 942.39,219.43 939.45,237.75"];
	26	[height=0.5,
		pos="692.05,65.152",
		width=0.75];
	20 -- 26	[pos="733.82,34.592 726.36,40.051 717.76,46.343 710.31,51.794"];
	21	[height=0.5,
		pos="618.85,122.75",
		width=0.75];
	20 -- 21	[pos="734.22,34.854 708.77,54.245 662.5,89.493 636.98,108.94"];
	3	[height=0.5,
		pos="1006.7,287.66",
		width=0.75];
	2 -- 3	[pos="1006.7,237.05 1006.7,247.06 1006.7,259.48 1006.7,269.51"];
	42	[height=0.5,
		pos="874.48,245.57",
		width=0.75];
	2 -- 42	[pos="980.58,224.26 957.4,228.92 923.71,235.68 900.55,240.33"];
	34	[height=0.5,
		pos="777.83,65.926",
		width=0.75];
	26 -- 34	[pos="719.19,65.397 729.2,65.487 740.55,65.589 750.57,65.68"];
	27	[height=0.5,
		pos="603.11,221.72",
		width=0.75];
	26 -- 27	[pos="682.36,82.206 665.25,112.32 629.88,174.59 612.78,204.69"];
	4	[height=0.5,
		pos="891.93,199.12",
		width=0.75];
	3 -- 4	[pos="988.8,273.83 967.23,257.19 931.25,229.45 909.74,212.86"];
	93	[height=0.5,
		pos="1009.8,426.23",
		width=0.75];
	3 -- 93	[pos="1007.1,305.78 1007.7,332.33 1008.8,381.55 1009.4,408.11"];
	41	[height=0.5,
		pos="835.76,152.15",
		width=0.75];
	34 -- 41	[pos="789,82.551 799.26,97.819 814.38,120.32 824.62,135.58"];
	35	[height=0.5,
		pos="629.93,78.744",
		width=0.75];
	34 -- 35	[pos="751.05,68.247 724.41,70.556 683.76,74.079 657.02,76.397"];
	5	[height=0.5,
		pos="772.71,120.74",
		width=0.75];
	4 -- 5	[pos="872.51,186.35 850.34,171.78 814.29,148.08 792.12,133.5"];
	60	[height=0.5,
		pos="827.06,298.44",
		width=0.75];
	4 -- 60	[pos="880.93,215.97 868.93,234.34 849.84,263.56 837.91,281.84"];
	49	[height=0.5,
		pos="668.42,166.76",
		width=0.75];
	41 -- 49	[pos="808.87,154.5 777.65,157.23 726.44,161.7 695.24,164.42"];
	41 -- 42	[pos="843.04,169.72 849.96,186.42 860.32,211.4 867.23,228.07"];
	6	[height=0.5,
		pos="650.23,18",
		width=0.75];
	5 -- 6	[pos="755.68,106.46 732.28,86.828 690.44,51.73 667.12,32.165"];
	5 -- 27	[pos="752.25,132.92 719.56,152.38 655.94,190.27 623.37,209.66"];
	53	[height=0.5,
		pos="750.45,258.02",
		width=0.75];
	49 -- 53	[pos="682.34,182.24 697.42,199.02 721.36,225.65 736.47,242.46"];
	50	[height=0.5,
		pos="616.84,265.74",
		width=0.75];
	49 -- 50	[pos="659.44,184.01 649.97,202.17 635.15,230.61 625.72,248.7"];
	7	[height=0.5,
		pos="535.43,90.396",
		width=0.75];
	6 -- 7	[pos="630.5,30.445 609.47,43.706 576.37,64.58 555.29,77.871"];
	6 -- 21	[pos="644.91,35.77 639.14,55.032 629.98,85.599 624.2,104.9"];
	58	[height=0.5,
		pos="827.86,200.28",
		width=0.75];
	53 -- 58	[pos="768.8,244.33 781.14,235.13 797.34,223.05 809.65,213.87"];
	54	[height=0.5,
		pos="697.78,386.89",
		width=0.75];
	53 -- 54	[pos="743.35,275.4 733.29,299.99 715.02,344.7 704.94,369.37"];
	8	[height=0.5,
		pos="567.84,34.97",
		width=0.75];
	7 -- 8	[pos="545.33,73.466 549.35,66.589 553.98,58.663 558,51.797"];
	22	[height=0.5,
		pos="541.06,199.19",
		width=0.75];
	7 -- 22	[pos="536.38,108.85 537.43,128.98 539.08,160.99 540.12,181"];
	67	[height=0.5,
		pos="889.21,299.99",
		width=0.75];
	58 -- 67	[pos="838.27,217.2 849.62,235.64 867.67,264.98 878.96,283.33"];
	58 -- 59	[pos="849.33,211.29 868.38,221.05 896.06,235.24 915.1,245"];
	9	[height=0.5,
		pos="473.33,75.583",
		width=0.75];
	8 -- 9	[pos="544.96,44.802 530.21,51.14 511.1,59.354 496.33,65.702"];
	8 -- 35	[pos="586.47,48.104 594.33,53.644 603.46,60.08 611.32,65.62"];
	75	[height=0.5,
		pos="762.29,385.22",
		width=0.75];
	67 -- 75	[pos="869.94,312.94 845.94,329.05 805.22,356.39 781.33,372.43"];
	68	[height=0.5,
		pos="903.1,347.82",
		width=0.75];
	67 -- 68	[pos="894.38,317.8 895.52,321.73 896.73,325.9 897.88,329.83"];
	10	[height=0.5,
		pos="391.93,138.08",
		width=0.75];
	9 -- 10	[pos="455.27,89.453 441.68,99.881 423.17,114.1 409.67,124.46"];
	36	[height=0.5,
		pos="556.83,155.17",
		width=0.75];
	9 -- 36	[pos="489.04,90.552 503.97,104.78 526.29,126.06 541.2,140.26"];
	81	[height=0.5,
		pos="909.72,446.62",
		width=0.75];
	75 -- 81	[pos="785.33,394.81 812.86,406.28 858.68,425.36 886.36,436.89"];
	76	[height=0.5,
		pos="609.05,515.29",
		width=0.75];
	75 -- 76	[pos="745.6,399.39 716.28,424.28 655.83,475.59 626.19,500.74"];
	11	[height=0.5,
		pos="337.35,183.38",
		width=0.75];
	10 -- 11	[pos="374.96,152.16 368.45,157.57 361.02,163.73 354.5,169.15"];
	37	[height=0.5,
		pos="504.22,243.19",
		width=0.75];
	10 -- 37	[pos="408.02,153.14 429.49,173.23 467.26,208.59 488.52,228.5"];
	86	[height=0.5,
		pos="1037.5,382.19",
		width=0.75];
	81 -- 86	[pos="931.4,435.69 954.89,423.84 992.18,405.04 1015.7,393.17"];
	82	[height=0.5,
		pos="857.06,508.68",
		width=0.75];
	81 -- 82	[pos="896.16,462.6 888.24,471.94 878.28,483.67 870.39,492.96"];
	12	[height=0.5,
		pos="373.06,228.39",
		width=0.75];
	11 -- 12	[pos="350.04,199.38 353.41,203.62 357.04,208.2 360.41,212.45"];
	38	[height=0.5,
		pos="410.93,331.24",
		width=0.75];
	11 -- 38	[pos="345.93,200.63 360.11,229.12 388.26,285.68 402.4,314.1"];
	91	[height=0.5,
		pos="1062.5,517.04",
		width=0.75];
	86 -- 91	[pos="1040.8,400.09 1045.6,425.89 1054.3,473.23 1059.1,499.06"];
	87	[height=0.5,
		pos="969.73,382.15",
		width=0.75];
	86 -- 87	[pos="1010.3,382.17 1005.9,382.17 1001.3,382.17 996.91,382.16"];
	13	[height=0.5,
		pos="389.26,272.39",
		width=0.75];
	12 -- 13	[pos="379.55,246.03 380.61,248.9 381.7,251.87 382.76,254.74"];
	23	[height=0.5,
		pos="451.34,287.22",
		width=0.75];
	12 -- 23	[pos="391.22,242.03 403.86,251.54 420.66,264.16 433.28,273.65"];
	97	[height=0.5,
		pos="1111.2,594.85",
		width=0.75];
	91 -- 97	[pos="1073,533.93 1081.2,546.98 1092.5,564.96 1100.6,578"];
	92	[height=0.5,
		pos="981.17,519.48",
		width=0.75];
	91 -- 92	[pos="1035.4,517.85 1026.7,518.12 1017.1,518.4 1008.4,518.66"];
	14	[height=0.5,
		pos="298.21,373.2",
		width=0.75];
	13 -- 14	[pos="375.03,288.14 357.93,307.08 329.4,338.67 312.34,357.56"];
	28	[height=0.5,
		pos="544.37,288.75",
		width=0.75];
	13 -- 28	[pos="416.28,275.24 444.75,278.24 489.31,282.94 517.66,285.93"];
	100	[height=0.5,
		pos="1034.8,664.78",
		width=0.75];
	97 -- 100	[pos="1095,609.68 1081.9,621.63 1063.7,638.33 1050.7,650.21"];
	98	[height=0.5,
		pos="977.88,576.75",
		width=0.75];
	97 -- 98	[pos="1084.5,591.23 1061.3,588.07 1027.7,583.52 1004.5,580.36"];
	15	[height=0.5,
		pos="191.78,405.91",
		width=0.75];
	14 -- 15	[pos="273.53,380.79 256.33,386.07 233.49,393.09 216.33,398.36"];
	73	[height=0.5,
		pos="354.74,507.29",
		width=0.75];
	14 -- 73	[pos="305.6,390.73 316.44,416.43 336.51,464.06 347.35,489.76"];
	109	[height=0.5,
		pos="961.68,742.03",
		width=0.75];
	100 -- 109	[pos="1020.3,680.04 1007.5,693.59 988.89,713.27 976.09,726.8"];
	101	[height=0.5,
		pos="882.65,605.02",
		width=0.75];
	100 -- 101	[pos="1011.3,655.57 982.74,644.34 934.7,625.47 906.11,614.24"];
	16	[height=0.5,
		pos="168.63,483.98",
		width=0.75];
	15 -- 16	[pos="186.53,423.62 182.77,436.31 177.72,453.33 173.95,466.06"];
	29	[height=0.5,
		pos="381.19,419.27",
		width=0.75];
	15 -- 29	[pos="218.92,407.82 254.92,410.36 318.12,414.82 354.1,417.36"];
	114	[height=0.5,
		pos="1030.3,743.81",
		width=0.75];
	109 -- 114	[pos="988.8,742.74 993.44,742.86 998.27,742.98 1002.9,743.1"];
	110	[height=0.5,
		pos="806.7,678.11",
		width=0.75];
	109 -- 110	[pos="938.47,732.46 909.17,720.38 859.06,699.71 829.8,687.64"];
	17	[height=0.5,
		pos="123.05,439.97",
		width=0.75];
	16 -- 17	[pos="153.2,469.08 148.45,464.49 143.22,459.44 138.47,454.85"];
	30	[height=0.5,
		pos="252.08,464.89",
		width=0.75];
	16 -- 30	[pos="194.58,478.04 204.72,475.72 216.33,473.07 226.44,470.76"];
	118	[height=0.5,
		pos="1096.8,684.48",
		width=0.75];
	114 -- 118	[pos="1046.7,729.14 1057,719.95 1070.3,708.14 1080.6,698.98"];
	115	[height=0.5,
		pos="972.73,691.29",
		width=0.75];
	114 -- 115	[pos="1014.3,729.18 1006.3,721.9 996.65,713.12 988.68,705.84"];
	18	[height=0.5,
		pos="56.174,294",
		width=0.75];
	17 -- 18	[pos="115.12,422.65 102.25,394.55 76.963,339.37 64.098,311.29"];
	31	[height=0.5,
		pos="230.67,510.72",
		width=0.75];
	17 -- 31	[pos="142.29,452.61 161.76,465.41 191.7,485.1 211.23,497.94"];
	124	[height=0.5,
		pos="1045.7,561.05",
		width=0.75];
	118 -- 124	[pos="1089.6,667.06 1079.9,643.67 1062.8,602.33 1053,578.78"];
	119	[height=0.5,
		pos="1032.7,620.76",
		width=0.75];
	118 -- 119	[pos="1081.6,669.38 1071.4,659.22 1058,645.89 1047.8,635.75"];
	19	[height=0.5,
		pos="27,249.96",
		width=0.75];
	18 -- 19	[pos="45.145,277.35 42.821,273.84 40.369,270.14 38.045,266.63"];
	24	[height=0.5,
		pos="217.36,268.3",
		width=0.75];
	18 -- 24	[pos="82.791,289.75 112.75,284.98 161.11,277.27 190.98,272.51"];
	129	[height=0.5,
		pos="1174.4,586.8",
		width=0.75];
	124 -- 129	[pos="1071.7,566.26 1094.1,570.73 1126.1,577.13 1148.4,581.6"];
	125	[height=0.5,
		pos="919.14,491.69",
		width=0.75];
	124 -- 125	[pos="1024.8,549.59 1001.3,536.74 963.52,516.02 940.06,503.16"];
	25	[height=0.5,
		pos="120.77,221.23",
		width=0.75];
	19 -- 25	[pos="51.638,242.41 65.312,238.22 82.274,233.02 95.974,228.83"];
	130	[height=0.5,
		pos="1096.8,638.86",
		width=0.75];
	129 -- 130	[pos="1155.2,599.67 1143.3,607.68 1128,617.95 1116,625.96"];
	21 -- 22	[pos="603.48,137.85 589.85,151.25 570.03,170.73 556.4,184.12"];
	44	[height=0.5,
		pos="678.88,298.84",
		width=0.75];
	21 -- 44	[pos="624.94,140.61 636.47,174.44 661.39,247.53 672.87,281.2"];
	22 -- 23	[pos="525.84,214.12 509.34,230.31 483.16,256 466.63,272.22"];
	22 -- 50	[pos="557.5,213.63 570.22,224.79 587.73,240.17 600.43,251.33"];
	59 -- 68	[pos="930.08,273.69 924.16,289.95 915.43,313.92 909.52,330.16"];
	59 -- 60	[pos="913.04,265.09 894.57,272.25 868.96,282.19 850.51,289.35"];
	68 -- 82	[pos="898,365.65 889.15,396.57 871.05,459.79 862.19,490.77"];
	69	[height=0.5,
		pos="836.34,344.03",
		width=0.75];
	68 -- 69	[pos="875.94,346.27 871.76,346.04 867.43,345.79 863.25,345.55"];
	82 -- 92	[pos="883.99,511.02 904.81,512.83 933.49,515.33 954.29,517.14"];
	83	[height=0.5,
		pos="640.67,569.7",
		width=0.75];
	82 -- 83	[pos="831.82,515.8 790.12,527.55 707.35,550.9 665.76,562.62"];
	23 -- 24	[pos="424.5,285.05 379.49,281.41 289.29,274.12 244.25,270.47"];
	104	[height=0.5,
		pos="484.5,458.54",
		width=0.75];
	23 -- 104	[pos="454.83,305.23 461.19,338.13 474.64,407.6 481.01,440.51"];
	92 -- 101	[pos="964.46,533.99 946.23,549.82 917.24,574.98 899.11,590.72"];
	92 -- 93	[pos="986.68,501.5 991.74,484.99 999.21,460.65 1004.3,444.15"];
	101 -- 115	[pos="898.34,620.05 914.87,635.88 940.75,660.67 957.22,676.44"];
	102	[height=0.5,
		pos="743.98,430.89",
		width=0.75];
	101 -- 102	[pos="869.85,588.95 843.43,555.78 783.14,480.06 756.75,446.92"];
	115 -- 130	[pos="995.78,681.55 1018.1,672.14 1051.6,657.95 1073.9,648.55"];
	116	[height=0.5,
		pos="843.36,778.38",
		width=0.75];
	115 -- 116	[pos="953.64,704.14 929.18,720.61 887.02,748.99 862.52,765.48"];
	24 -- 25	[pos="195.45,257.62 179.64,249.91 158.39,239.56 142.6,231.87"];
	32	[height=0.5,
		pos="236.15,361.9",
		width=0.75];
	24 -- 32	[pos="220.99,286.35 224.31,302.92 229.22,327.35 232.54,343.91"];
	33	[height=0.5,
		pos="118.22,287.86",
		width=0.75];
	25 -- 33	[pos="120.07,239.43 119.71,248.84 119.28,260.28 118.91,269.67"];
	131	[height=0.5,
		pos="1094.9,471.3",
		width=0.75];
	130 -- 131	[pos="1096.6,620.61 1096.2,588.38 1095.5,521.74 1095.1,489.53"];
	42 -- 87	[pos="885.97,262.04 904.28,288.29 939.87,339.33 958.2,365.62"];
	43	[height=0.5,
		pos="812.45,244.32",
		width=0.75];
	42 -- 43	[pos="847.46,245.02 844.84,244.97 842.19,244.92 839.58,244.87"];
	27 -- 28	[pos="589.48,237.27 580.13,247.94 567.75,262.07 558.33,272.82"];
	27 -- 43	[pos="630.05,224.63 670.24,228.97 745.48,237.09 785.62,241.42"];
	87 -- 131	[pos="988.21,395.3 1011.9,412.16 1052.7,441.21 1076.4,458.09"];
	88	[height=0.5,
		pos="794.99,474.9",
		width=0.75];
	87 -- 88	[pos="948.31,393.52 914.68,411.37 849.89,445.77 816.32,463.58"];
	28 -- 29	[pos="526.91,302.71 495.5,327.84 429.84,380.35 398.53,405.4"];
	55	[height=0.5,
		pos="572.92,417.18",
		width=0.75];
	28 -- 55	[pos="548.34,306.6 553.76,331 563.44,374.52 568.89,399.06"];
	29 -- 30	[pos="357.21,427.75 334.17,435.89 299.52,448.13 276.37,456.31"];
	63	[height=0.5,
		pos="478.8,503.36",
		width=0.75];
	29 -- 63	[pos="397.75,433.54 415.7,449 444.18,473.54 462.16,489.03"];
	30 -- 31	[pos="243.99,482.22 242.28,485.87 240.48,489.72 238.78,493.37"];
	39	[height=0.5,
		pos="332.58,463.29",
		width=0.75];
	30 -- 39	[pos="279.34,464.35 287.73,464.18 296.97,464 305.36,463.83"];
	31 -- 32	[pos="231.34,492.47 232.39,463.91 234.42,408.95 235.48,380.3"];
	65	[height=0.5,
		pos="354.76,576.66",
		width=0.75];
	31 -- 65	[pos="252,522.06 274.73,534.13 310.51,553.15 333.29,565.25"];
	32 -- 33	[pos="216.41,349.51 194.64,335.84 159.82,313.98 138.02,300.29"];
	51	[height=0.5,
		pos="434.21,375.26",
		width=0.75];
	32 -- 51	[pos="263.28,363.73 301.1,366.28 369.28,370.88 407.1,373.43"];
	40	[height=0.5,
		pos="180.25,317.84",
		width=0.75];
	33 -- 40	[pos="140.26,298.52 146.11,301.34 152.43,304.4 158.27,307.22"];
	132	[height=0.5,
		pos="1137.5,529.02",
		width=0.75];
	131 -- 132	[pos="1107,487.68 1112.8,495.55 1119.7,504.95 1125.5,512.79"];
	35 -- 36	[pos="615.14,94.209 602.37,107.56 584.04,126.72 571.35,139.99"];
	45	[height=0.5,
		pos="679.76,210.8",
		width=0.75];
	35 -- 45	[pos="636.55,96.28 646.08,121.54 663.57,167.89 673.12,193.19"];
	36 -- 37	[pos="546.69,172.14 537.37,187.73 523.64,210.7 514.33,226.27"];
	46	[height=0.5,
		pos="688.43,254.81",
		width=0.75];
	36 -- 46	[pos="574.86,168.81 599.91,187.79 645.03,221.95 670.2,241.01"];
	37 -- 38	[pos="488.39,258.13 471.13,274.42 443.69,300.32 426.52,316.52"];
	72	[height=0.5,
		pos="510.62,414.5",
		width=0.75];
	37 -- 72	[pos="504.89,261.2 506.12,294.1 508.72,363.56 509.95,396.47"];
	38 -- 39	[pos="400.85,348.23 385.8,373.59 357.65,421.04 342.62,446.36"];
	47	[height=0.5,
		pos="510.11,368.26",
		width=0.75];
	38 -- 47	[pos="434.69,340.11 450.39,345.97 470.88,353.62 486.55,359.47"];
	93 -- 98	[pos="1006,444.09 999.84,473.05 987.79,529.96 981.66,558.91"];
	94	[height=0.5,
		pos="907.66,395.28",
		width=0.75];
	93 -- 94	[pos="985.04,418.74 969.11,413.91 948.46,407.65 932.5,402.81"];
	98 -- 119	[pos="995.23,590.68 1001.6,595.81 1008.9,601.63 1015.3,606.78"];
	99	[height=0.5,
		pos="910.71,696.92",
		width=0.75];
	98 -- 99	[pos="968.4,593.71 955.6,616.61 932.92,657.18 920.14,680.04"];
	39 -- 40	[pos="316.85,448.27 287.66,420.4 225.42,360.97 196.12,333"];
	64	[height=0.5,
		pos="418.49,547.83",
		width=0.75];
	39 -- 64	[pos="347.94,478.4 363.58,493.79 387.67,517.5 403.26,532.84"];
	119 -- 132	[pos="1049.1,606.43 1068.6,589.29 1101.2,560.78 1120.9,543.56"];
	120	[height=0.5,
		pos="878.33,649.08",
		width=0.75];
	119 -- 120	[pos="1006.5,625.57 978.04,630.79 932.81,639.08 904.39,644.3"];
	48	[height=0.5,
		pos="348.87,327.94",
		width=0.75];
	40 -- 48	[pos="207.34,319.46 238.8,321.35 290.4,324.44 321.84,326.32"];
	133	[height=0.5,
		pos="1100,387.98",
		width=0.75];
	132 -- 133	[pos="1132.7,511.16 1125.6,484.17 1112,433.3 1104.8,406.14"];
	43 -- 44	[pos="789.19,253.82 764.82,263.76 726.76,279.29 702.33,289.27"];
	43 -- 69	[pos="816.72,262.15 821.04,280.18 827.69,307.92 832.02,326.02"];
	44 -- 45	[pos="679.06,280.6 679.21,265.49 679.43,244.12 679.58,229.01"];
	44 -- 54	[pos="682.7,316.66 685.96,331.83 690.62,353.54 693.9,368.8"];
	60 -- 94	[pos="840.37,314.43 855.31,332.38 879.39,361.31 894.33,379.27"];
	61	[height=0.5,
		pos="659.45,342.85",
		width=0.75];
	60 -- 61	[pos="801.97,305.09 770.37,313.46 716.4,327.76 684.72,336.16"];
	45 -- 46	[pos="683.29,228.7 683.81,231.36 684.35,234.11 684.88,236.78"];
	70	[height=0.5,
		pos="762.03,334.98",
		width=0.75];
	45 -- 70	[pos="690.69,227.29 706.42,251.04 735.3,294.63 751.06,318.42"];
	46 -- 47	[pos="668.66,267.39 634.3,289.25 563.93,334.02 529.69,355.8"];
	71	[height=0.5,
		pos="635.71,418.23",
		width=0.75];
	46 -- 71	[pos="682.69,272.61 672.55,304.05 651.58,369.03 641.44,400.45"];
	47 -- 48	[pos="484.56,361.87 454.37,354.32 404.44,341.83 374.3,334.3"];
	103	[height=0.5,
		pos="638.09,469.56",
		width=0.75];
	47 -- 103	[pos="527.64,382.13 552.01,401.42 595.89,436.16 620.37,455.53"];
	94 -- 133	[pos="934.81,394.25 971.46,392.86 1036.4,390.39 1073,389"];
	95	[height=0.5,
		pos="732.09,514.85",
		width=0.75];
	94 -- 95	[pos="888.54,408.31 854.77,431.31 784.94,478.85 751.19,501.84"];
	52	[height=0.5,
		pos="290.44,418.61",
		width=0.75];
	48 -- 52	[pos="338.15,344.57 327.67,360.83 311.8,385.45 301.28,401.78"];
	134	[height=0.5,
		pos="1032.1,470.24",
		width=0.75];
	133 -- 134	[pos="1086.9,403.84 1074.9,418.41 1057.2,439.88 1045.2,454.43"];
	50 -- 51	[pos="596.6,277.88 561.49,298.93 489.71,341.98 454.54,363.07"];
	50 -- 61	[pos="626.3,282.86 633.36,295.64 642.97,313.02 650.02,325.79"];
	69 -- 125	[pos="845.84,360.96 861.72,389.3 893.51,445.99 909.5,474.49"];
	69 -- 70	[pos="809.51,340.76 802.86,339.95 795.73,339.08 789.07,338.27"];
	51 -- 52	[pos="409.5,382.71 383.16,390.65 341.71,403.15 315.31,411.11"];
	56	[height=0.5,
		pos="416.76,503.76",
		width=0.75];
	51 -- 56	[pos="431.75,393.4 428.42,417.89 422.53,461.27 419.21,485.71"];
	125 -- 134	[pos="945.34,486.71 963.59,483.25 987.83,478.65 1006,475.19"];
	126	[height=0.5,
		pos="788.37,559.64",
		width=0.75];
	125 -- 126	[pos="897.84,502.76 873.67,515.32 834.45,535.7 810.1,548.35"];
	57	[height=0.5,
		pos="292.7,533.85",
		width=0.75];
	52 -- 57	[pos="290.79,436.62 291.21,458.14 291.92,493.95 292.34,515.59"];
	135	[height=0.5,
		pos="913.13,556.92",
		width=0.75];
	134 -- 135	[pos="1013.8,483.59 991.48,499.83 954.06,527.1 931.67,543.41"];
	54 -- 88	[pos="713.83,401.42 731.85,417.73 760.9,444.03 778.92,460.35"];
	54 -- 55	[pos="672.21,393.09 650.66,398.32 619.99,405.76 598.45,410.99"];
	88 -- 120	[pos="803.29,492.24 819.26,525.63 854.12,598.48 870.07,631.81"];
	89	[height=0.5,
		pos="697.89,613.78",
		width=0.75];
	88 -- 89	[pos="783.47,491.38 764.78,518.11 728.07,570.61 709.39,597.33"];
	55 -- 56	[pos="551.86,428.86 521.97,445.43 467.57,475.58 437.73,492.13"];
	62	[height=0.5,
		pos="556.96,463.3",
		width=0.75];
	55 -- 62	[pos="566.79,434.88 565.56,438.43 564.27,442.17 563.04,445.72"];
	120 -- 135	[pos="885.04,631.31 891.2,614.99 900.28,590.94 906.44,574.63"];
	121	[height=0.5,
		pos="848.66,722.14",
		width=0.75];
	120 -- 121	[pos="871.15,666.77 866.48,678.25 860.43,693.16 855.77,704.62"];
	56 -- 57	[pos="391.35,509.92 370.09,515.08 339.87,522.41 318.5,527.59"];
	107	[height=0.5,
		pos="476.5,693.14",
		width=0.75];
	56 -- 107	[pos="422.38,521.57 433.79,557.76 459.57,639.48 470.93,675.51"];
	66	[height=0.5,
		pos="230.15,561.21",
		width=0.75];
	57 -- 66	[pos="270.12,543.73 264.52,546.17 258.52,548.8 252.91,551.25"];
	136	[height=0.5,
		pos="841.45,416.38",
		width=0.75];
	135 -- 136	[pos="904.34,539.69 890.58,512.71 864.11,460.81 850.31,433.75"];
	61 -- 62	[pos="646.05,358.6 626.41,381.68 590,424.46 570.36,447.55"];
	61 -- 136	[pos="682.87,352.31 717.82,366.43 783.22,392.86 818.12,406.95"];
	62 -- 63	[pos="535.19,474.46 524.35,480.01 511.28,486.71 500.46,492.26"];
	105	[height=0.5,
		pos="514.28,547.37",
		width=0.75];
	62 -- 105	[pos="548.11,480.72 540.74,495.24 530.3,515.82 522.97,530.26"];
	63 -- 64	[pos="460.38,516.94 452.9,522.46 444.27,528.82 436.8,534.33"];
	78	[height=0.5,
		pos="428.37,640.84",
		width=0.75];
	63 -- 78	[pos="472.31,521.05 462.63,547.45 444.5,596.86 434.83,623.22"];
	64 -- 65	[pos="395.84,558.07 389.83,560.79 383.34,563.73 377.33,566.44"];
	64 -- 83	[pos="445.29,550.46 487.99,554.67 571.01,562.84 613.78,567.05"];
	65 -- 66	[pos="328.03,573.34 307,570.74 277.85,567.12 256.84,564.52"];
	79	[height=0.5,
		pos="352.47,664.73",
		width=0.75];
	65 -- 79	[pos="354.29,594.91 353.89,610.02 353.34,631.4 352.94,646.51"];
	74	[height=0.5,
		pos="299.97,620.7",
		width=0.75];
	66 -- 74	[pos="247.06,575.61 258.03,584.96 272.28,597.1 283.23,606.43"];
	137	[height=0.5,
		pos="850.86,553.73",
		width=0.75];
	136 -- 137	[pos="842.7,434.62 844.5,460.89 847.8,509.11 849.61,535.42"];
	70 -- 71	[pos="742.57,347.81 718.76,363.5 678.71,389.89 654.99,405.52"];
	70 -- 102	[pos="758.64,353.02 755.41,370.17 750.58,395.81 747.36,412.93"];
	71 -- 72	[pos="608.57,417.42 587.59,416.79 558.68,415.93 537.71,415.3"];
	71 -- 95	[pos="650.77,433.32 668.87,451.48 699.08,481.75 717.13,499.86"];
	72 -- 73	[pos="490.24,426.63 460.37,444.41 405,477.37 375.12,495.16"];
	72 -- 76	[pos="525.57,429.81 544.18,448.86 575.76,481.2 594.28,500.17"];
	73 -- 74	[pos="346.42,524.52 336.13,545.83 318.7,581.92 308.37,603.31"];
	77	[height=0.5,
		pos="480.51,591.41",
		width=0.75];
	73 -- 77	[pos="373.84,520.07 397.48,535.88 437.5,562.65 461.23,578.52"];
	102 -- 137	[pos="757.74,446.7 778.26,470.29 816.67,514.44 837.16,537.99"];
	102 -- 103	[pos="720.22,439.57 702.78,445.94 679.2,454.55 661.78,460.91"];
	80	[height=0.5,
		pos="326.98,717.98",
		width=0.75];
	74 -- 80	[pos="304.92,638.54 309.8,656.09 317.19,682.73 322.05,700.25"];
	138	[height=0.5,
		pos="760.09,606.34",
		width=0.75];
	137 -- 138	[pos="830.26,565.67 815.41,574.28 795.44,585.85 780.61,594.45"];
	76 -- 77	[pos="588.68,527.35 564.61,541.61 524.81,565.18 500.78,579.41"];
	139	[height=0.5,
		pos="703.55,558.86",
		width=0.75];
	76 -- 139	[pos="631.45,525.62 646.51,532.56 666.29,541.68 681.32,548.61"];
	95 -- 110	[pos="740.07,532.32 754.43,563.74 784.45,629.43 798.77,660.76"];
	96	[height=0.5,
		pos="738.43,657.85",
		width=0.75];
	95 -- 96	[pos="732.89,532.96 734.11,560.32 736.39,611.9 737.62,639.44"];
	77 -- 78	[pos="464.86,606.24 458.26,612.5 450.6,619.77 444,626.02"];
	106	[height=0.5,
		pos="519.72,635.43",
		width=0.75];
	77 -- 106	[pos="494.66,607.3 498.26,611.34 502.12,615.68 505.71,619.71"];
	78 -- 79	[pos="403.94,648.53 395.36,651.23 385.71,654.27 377.12,656.98"];
	112	[height=0.5,
		pos="589.98,772.36",
		width=0.75];
	78 -- 112	[pos="445.66,654.92 476.77,680.23 541.79,733.15 572.81,758.39"];
	110 -- 138	[pos="795.89,661.46 788.36,649.87 778.36,634.47 770.84,622.89"];
	111	[height=0.5,
		pos="600.54,697.92",
		width=0.75];
	110 -- 111	[pos="779.75,680.7 740.24,684.5 667.01,691.53 627.5,695.33"];
	79 -- 80	[pos="344.12,682.17 341.28,688.11 338.1,694.75 335.26,700.69"];
	84	[height=0.5,
		pos="538.51,679.46",
		width=0.75];
	79 -- 84	[pos="379.52,666.87 414.79,669.67 476.14,674.52 511.43,677.31"];
	85	[height=0.5,
		pos="442.1,760.53",
		width=0.75];
	80 -- 85	[pos="350.83,726.79 370.59,734.1 398.53,744.42 418.28,751.72"];
	138 -- 139	[pos="743.13,592.09 735.97,586.08 727.66,579.1 720.51,573.09"];
	83 -- 84	[pos="626.04,585.42 606.5,606.41 572.14,643.33 552.79,664.11"];
	122	[height=0.5,
		pos="724.59,758.44",
		width=0.75];
	83 -- 122	[pos="648.42,587.12 664.41,623.07 700.9,705.15 716.87,741.07"];
	84 -- 85	[pos="521.72,693.58 504.13,708.37 476.66,731.46 459.03,746.3"];
	84 -- 89	[pos="561.69,669.91 591.9,657.45 644.45,635.8 674.68,623.34"];
	90	[height=0.5,
		pos="662.57,730.75",
		width=0.75];
	85 -- 90	[pos="468.7,756.93 511.07,751.21 593.45,740.08 635.88,734.35"];
	140	[height=0.5,
		pos="577.15,585.87",
		width=0.75];
	139 -- 140	[pos="677.67,564.39 655.86,569.05 624.81,575.69 603,580.35"];
	103 -- 126	[pos="658.36,481.71 687.04,498.9 739.18,530.15 767.95,547.4"];
	103 -- 104	[pos="610.99,467.62 583,465.61 539.57,462.49 511.59,460.48"];
	89 -- 90	[pos="692.52,631.55 685.88,653.53 674.64,690.75 667.98,712.82"];
	146	[height=0.5,
		pos="553.01,829.43",
		width=0.75];
	89 -- 146	[pos="686.76,630.34 659.79,670.49 591.18,772.61 564.17,812.81"];
	126 -- 140	[pos="761.62,562.96 721.1,568 644.61,577.5 604.02,582.54"];
	127	[height=0.5,
		pos="786.65,734.32",
		width=0.75];
	126 -- 127	[pos="788.2,577.68 787.87,611.15 787.16,682.53 786.83,716.12"];
	90 -- 96	[pos="678.29,715.64 691.39,703.05 709.97,685.21 722.99,672.69"];
	141	[height=0.5,
		pos="418.48,596.44",
		width=0.75];
	140 -- 141	[pos="550.24,587.66 521.06,589.61 474.76,592.69 445.53,594.64"];
	104 -- 141	[pos="476.27,475.72 463.62,502.15 439.52,552.48 426.81,579.03"];
	104 -- 105	[pos="490.52,476.51 495.73,492.03 503.2,514.31 508.37,529.72"];
	96 -- 99	[pos="764.23,663.7 796.8,671.09 852.5,683.72 885.02,691.09"];
	142	[height=0.5,
		pos="414.49,685.71",
		width=0.75];
	141 -- 142	[pos="417.67,614.5 416.98,629.99 415.98,652.19 415.29,667.67"];
	105 -- 142	[pos="502.44,563.78 483.24,590.41 445.51,642.71 426.31,669.32"];
	105 -- 106	[pos="515.41,565.62 516.34,580.73 517.66,602.1 518.59,617.21"];
	108	[height=0.5,
		pos="652.38,774.77",
		width=0.75];
	99 -- 108	[pos="885.94,704.38 836.56,719.26 726.39,752.46 677.08,767.33"];
	143	[height=0.5,
		pos="489.71,837.32",
		width=0.75];
	142 -- 143	[pos="422.97,702.81 437.42,731.93 466.64,790.82 481.14,820.05"];
	106 -- 111	[pos="537.65,649.3 551.05,659.65 569.27,673.75 582.65,684.09"];
	106 -- 107	[pos="507.45,651.81 501.56,659.68 494.52,669.07 488.65,676.91"];
	111 -- 143	[pos="587.83,713.91 566.56,740.66 524.01,794.18 502.62,821.08"];
	111 -- 112	[pos="597.98,715.94 596.33,727.56 594.2,742.62 592.55,754.25"];
	107 -- 108	[pos="498.77,703.48 532.51,719.13 596.21,748.7 630.01,764.38"];
	147	[height=0.5,
		pos="426.77,807.11",
		width=0.75];
	107 -- 147	[pos="468.94,710.45 459.6,731.87 443.77,768.14 434.4,789.64"];
	113	[height=0.5,
		pos="617.1,862.85",
		width=0.75];
	108 -- 113	[pos="645.41,792.17 639.27,807.51 630.36,829.76 624.18,845.18"];
	144	[height=0.5,
		pos="710.2,818.8",
		width=0.75];
	143 -- 144	[pos="516.75,835.05 559.18,831.48 640.93,824.62 683.28,821.06"];
	112 -- 116	[pos="617.1,773.01 665.74,774.16 767.28,776.57 816.05,777.73"];
	112 -- 113	[pos="595.34,790.24 600.09,806.1 607,829.16 611.75,845.01"];
	116 -- 121	[pos="845.06,760.28 845.67,753.85 846.35,746.63 846.95,740.21"];
	117	[height=0.5,
		pos="852.33,857.99",
		width=0.75];
	116 -- 117	[pos="845.39,796.44 846.86,809.47 848.84,826.99 850.31,840"];
	121 -- 127	[pos="822.72,727.24 819.4,727.89 816,728.56 812.68,729.21"];
	121 -- 122	[pos="823.85,729.4 802.21,735.73 770.98,744.87 749.36,751.2"];
	127 -- 144	[pos="772.63,749.82 758.92,764.96 738.16,787.91 724.39,803.12"];
	128	[height=0.5,
		pos="683.53,899.91",
		width=0.75];
	127 -- 128	[pos="776.2,751.11 756.43,782.85 713.8,851.3 694.02,883.07"];
	113 -- 117	[pos="644.55,862.28 689.87,861.34 779.85,859.49 825.06,858.56"];
	145	[height=0.5,
		pos="629.42,818.79",
		width=0.75];
	144 -- 145	[pos="682.85,818.8 674.34,818.8 664.96,818.8 656.47,818.8"];
	122 -- 145	[pos="704.87,770.95 688.54,781.31 665.44,795.95 649.12,806.31"];
	123	[height=0.5,
		pos="770.64,862.84",
		width=0.75];
	122 -- 123	[pos="732.4,776.15 740.92,795.47 754.47,826.18 762.94,845.39"];
	117 -- 123	[pos="825.13,859.61 816.31,860.13 806.53,860.71 797.72,861.23"];
	145 -- 146	[pos="602.7,822.51 595.21,823.56 587.07,824.69 579.59,825.73"];
	123 -- 128	[pos="747.75,872.58 735.05,877.99 719.29,884.69 706.57,890.11"];
	146 -- 147	[pos="526.85,824.81 505.19,820.98 474.55,815.56 452.89,811.73"];
	148	[height=0.5,
		pos="512.24,900.77",
		width=0.75];
	128 -- 148	[pos="656.39,900.04 624.31,900.2 571.27,900.47 539.25,900.63"];
	147 -- 148	[pos="440.88,822.58 456.72,839.93 482.26,867.92 498.1,885.28"];
}
