graph {
	graph [bb="0,0,1647.1,1442.1",
		outputorder=edgesfirst,
		overlap=prism,
		size="50,50!",
		start=3795
	];
	node [label="\N"];
	0	[height=0.5,
		pos="1011.1,610.78",
		width=0.75];
	20	[height=0.5,
		pos="928.48,394.46",
		width=0.75];
	0 -- 20	[pos="1004.3,593.08 988.81,552.41 950.73,452.71 935.22,412.11"];
	23	[height=0.5,
		pos="1373.2,440.93",
		width=0.75];
	0 -- 23	[pos="1033.2,600.41 1097.9,570.09 1286.1,481.8 1351,451.38"];
	27	[height=0.5,
		pos="1084.7,250.78",
		width=0.75];
	0 -- 27	[pos="1014.8,592.93 1027.3,531.63 1068.5,330.19 1081,268.74"];
	30	[height=0.5,
		pos="1056.5,820.35",
		width=0.75];
	0 -- 30	[pos="1015,628.65 1023.6,668.24 1044.1,762.98 1052.7,802.53"];
	31	[height=0.5,
		pos="821.88,812.66",
		width=0.75];
	0 -- 31	[pos="996.57,626.28 961.26,663.96 871.3,759.94 836.21,797.38"];
	6	[height=0.5,
		pos="683.12,517.28",
		width=0.75];
	0 -- 6	[pos="986.18,603.67 925.19,586.29 768.96,541.75 708.01,524.37"];
	33	[height=0.5,
		pos="1367.9,391.73",
		width=0.75];
	0 -- 33	[pos="1031,598.53 1093.6,560.15 1285.2,442.47 1347.8,404.02"];
	36	[height=0.5,
		pos="911.79,452.25",
		width=0.75];
	0 -- 36	[pos="1000.7,594.11 981.64,563.74 941.53,499.72 922.39,469.17"];
	37	[height=0.5,
		pos="1046.1,908.42",
		width=0.75];
	0 -- 37	[pos="1013.2,628.95 1019.5,682.08 1037.7,836.79 1044,890.1"];
	38	[height=0.5,
		pos="995.34,952.45",
		width=0.75];
	0 -- 38	[pos="1010.3,629.15 1007.5,688.61 998.9,875.4 996.17,934.4"];
	39	[height=0.5,
		pos="1283.1,720.09",
		width=0.75];
	0 -- 39	[pos="1034.3,620.1 1085.7,640.75 1208.6,690.17 1259.9,710.8"];
	40	[height=0.5,
		pos="818.3,480.9",
		width=0.75];
	0 -- 40	[pos="991.91,597.85 954.95,572.96 874.31,518.63 837.41,493.78"];
	41	[height=0.5,
		pos="1294.6,456.04",
		width=0.75];
	0 -- 41	[pos="1032.4,599.15 1085.1,570.4 1220.9,496.26 1273.4,467.6"];
	43	[height=0.5,
		pos="779.39,410.51",
		width=0.75];
	0 -- 43	[pos="994.44,596.38 951.68,559.42 838.49,461.59 795.9,424.78"];
	45	[height=0.5,
		pos="1266.4,324.01",
		width=0.75];
	0 -- 45	[pos="1025.2,594.95 1069.8,544.81 1207.8,389.86 1252.3,339.79"];
	47	[height=0.5,
		pos="809.75,635.84",
		width=0.75];
	0 -- 47	[pos="984.36,614.11 945.85,618.9 875.17,627.7 836.6,632.5"];
	17	[height=0.5,
		pos="972.57,540.38",
		width=0.75];
	0 -- 17	[pos="1001.8,593.74 995.8,582.83 988.08,568.72 982.08,557.76"];
	48	[height=0.5,
		pos="1370.7,647.53",
		width=0.75];
	0 -- 48	[pos="1037.8,613.51 1104.4,620.31 1277.1,637.95 1343.8,644.78"];
	51	[height=0.5,
		pos="1362.4,332.66",
		width=0.75];
	0 -- 51	[pos="1028.5,596.99 1088.3,549.64 1284.9,394.01 1344.9,346.53"];
	21	[height=0.5,
		pos="238.33,437.47",
		width=0.75];
	20 -- 21	[pos="901.42,396.15 791.15,403.02 376.2,428.88 265.58,435.77"];
	24	[height=0.5,
		pos="1582.7,355.8",
		width=0.75];
	23 -- 24	[pos="1396.5,431.5 1436.7,415.13 1519.1,381.67 1559.4,365.28"];
	28	[height=0.5,
		pos="859.13,128.76",
		width=0.75];
	27 -- 28	[pos="1063.5,239.3 1020.4,215.98 923.05,163.33 880.14,140.12"];
	32	[height=0.5,
		pos="379.81,941.31",
		width=0.75];
	31 -- 32	[pos="796.85,819.95 719.04,842.59 482.01,911.57 404.57,934.1"];
	6 -- 17	[pos="710.09,519.43 765.25,523.83 890.37,533.82 945.56,538.23"];
	55	[height=0.5,
		pos="633.41,606.94",
		width=0.75];
	6 -- 55	[pos="673.54,534.56 664.68,550.54 651.59,574.15 642.8,590.01"];
	12	[height=0.5,
		pos="713.28,605.31",
		width=0.75];
	6 -- 12	[pos="689.23,535.09 694.46,550.36 701.96,572.25 707.18,587.52"];
	87	[height=0.5,
		pos="860.9,685.95",
		width=0.75];
	6 -- 87	[pos="698.9,532.24 732.64,564.25 811.45,639.04 845.16,671.02"];
	188	[height=0.5,
		pos="483.5,646.7",
		width=0.75];
	6 -- 188	[pos="663.62,529.92 625.46,554.66 541.31,609.22 503.08,634"];
	14	[height=0.5,
		pos="547.57,688.4",
		width=0.75];
	6 -- 14	[pos="670.37,533.37 644.54,565.99 586.28,639.54 560.39,672.22"];
	219	[height=0.5,
		pos="852.1,263.67",
		width=0.75];
	6 -- 219	[pos="694.21,500.64 724.83,454.68 810.3,326.4 840.97,280.37"];
	222	[height=0.5,
		pos="689.3,182.51",
		width=0.75];
	6 -- 222	[pos="683.46,498.8 684.55,440.13 687.9,258.53 688.97,200.52"];
	225	[height=0.5,
		pos="397.59,426.28",
		width=0.75];
	6 -- 225	[pos="658.28,509.36 604.15,492.11 476.06,451.29 422.16,434.12"];
	229	[height=0.5,
		pos="490.22,508.86",
		width=0.75];
	6 -- 229	[pos="655.9,516.09 619.13,514.48 554.01,511.64 517.31,510.04"];
	232	[height=0.5,
		pos="849.74,409.4",
		width=0.75];
	6 -- 232	[pos="702.56,504.69 734.58,483.96 798.06,442.86 830.16,422.08"];
	234	[height=0.5,
		pos="746.62,366.5",
		width=0.75];
	6 -- 234	[pos="690.53,499.68 702.77,470.63 727.06,412.96 739.26,383.98"];
	236	[height=0.5,
		pos="735.02,277.35",
		width=0.75];
	6 -- 236	[pos="687.02,499.24 696.67,454.67 721.53,339.71 731.15,295.27"];
	238	[height=0.5,
		pos="564.8,179.6",
		width=0.75];
	6 -- 238	[pos="676.93,499.6 656.53,441.38 591.59,256.07 571.07,197.51"];
	242	[height=0.5,
		pos="455.2,332.97",
		width=0.75];
	6 -- 242	[pos="665.62,503.12 623.09,468.73 514.72,381.1 472.46,346.92"];
	246	[height=0.5,
		pos="1034,467.06",
		width=0.75];
	6 -- 246	[pos="709.78,513.46 775.03,504.12 942.15,480.2 1007.4,470.87"];
	120	[height=0.5,
		pos="502.76,212.69",
		width=0.75];
	6 -- 120	[pos="673.17,500.47 641.64,447.21 544.18,282.63 512.69,229.45"];
	157	[height=0.5,
		pos="459.29,376.99",
		width=0.75];
	6 -- 157	[pos="663.26,504.83 620.78,478.21 521.55,416.01 479.11,389.42"];
	34	[height=0.5,
		pos="1605.6,445.6",
		width=0.75];
	33 -- 34	[pos="1393.8,397.6 1439.5,407.96 1534.1,429.38 1579.8,439.74"];
	42	[height=0.5,
		pos="1134.1,684.99",
		width=0.75];
	41 -- 42	[pos="1283,472.51 1253.4,514.75 1175,626.6 1145.5,668.67"];
	44	[height=0.5,
		pos="380.42,514.34",
		width=0.75];
	43 -- 44	[pos="754.13,417.09 682.36,435.76 477.78,489.01 405.82,507.73"];
	46	[height=0.5,
		pos="1123.2,378.62",
		width=0.75];
	45 -- 46	[pos="1242.7,333.03 1216.2,343.15 1173.4,359.47 1146.9,369.59"];
	105	[height=0.5,
		pos="1068.6,694.43",
		width=0.75];
	17 -- 105	[pos="983.02,557.16 1001.5,586.79 1039.7,648.06 1058.1,677.67"];
	19	[height=0.5,
		pos="1287.5,676.09",
		width=0.75];
	17 -- 19	[pos="995.47,550.25 1053.6,575.32 1206.6,641.23 1264.7,666.26"];
	325	[height=0.5,
		pos="961.24,905.89",
		width=0.75];
	17 -- 325	[pos="972,558.51 970.08,620.74 963.74,825.26 961.81,887.66"];
	339	[height=0.5,
		pos="1201.9,631.65",
		width=0.75];
	17 -- 339	[pos="995.82,549.64 1039.8,567.13 1134.6,604.86 1178.6,622.38"];
	385	[height=0.5,
		pos="838,590.94",
		width=0.75];
	17 -- 385	[pos="948.82,549.3 924.37,558.49 886.49,572.72 861.96,581.94"];
	388	[height=0.5,
		pos="884.1,809.01",
		width=0.75];
	17 -- 388	[pos="966.76,558.01 950.73,606.68 905.98,742.57 889.92,791.32"];
	81	[height=0.5,
		pos="1041.2,313.99",
		width=0.75];
	17 -- 81	[pos="977.95,522.62 990.78,480.3 1023,373.91 1035.8,331.67"];
	144	[height=0.5,
		pos="977.42,344.42",
		width=0.75];
	17 -- 144	[pos="973.01,522.3 973.94,484.97 976.05,399.75 976.98,362.46"];
	184	[height=0.5,
		pos="1177.4,587.05",
		width=0.75];
	17 -- 184	[pos="998.51,546.29 1037.9,555.27 1112.4,572.24 1151.7,581.19"];
	216	[height=0.5,
		pos="771.04,530.18",
		width=0.75];
	17 -- 216	[pos="945.39,539.01 906.82,537.06 836.62,533.5 798.11,531.55"];
	266	[height=0.5,
		pos="1238.1,412.03",
		width=0.75];
	17 -- 266	[pos="994.75,529.66 1044.9,505.44 1166.3,446.74 1216.2,422.63"];
	290	[height=0.5,
		pos="1208.7,276.74",
		width=0.75];
	17 -- 290	[pos="986.63,524.68 1028.6,477.79 1152.8,339.15 1194.7,292.36"];
	310	[height=0.5,
		pos="1304.7,376.68",
		width=0.75];
	17 -- 310	[pos="994.36,529.64 1054.5,499.98 1222.5,417.17 1282.8,387.47"];
	362	[height=0.5,
		pos="1146.7,282.2",
		width=0.75];
	17 -- 362	[pos="983.72,523.84 1015.1,477.32 1103.9,345.7 1135.4,298.94"];
	373	[height=0.5,
		pos="960.62,262.12",
		width=0.75];
	17 -- 373	[pos="971.78,522.12 969.62,471.7 963.58,330.94 961.41,280.44"];
	381	[height=0.5,
		pos="1154.4,326.21",
		width=0.75];
	17 -- 381	[pos="985.94,524.63 1019.6,485.03 1107.4,381.61 1141.1,341.98"];
	49	[height=0.5,
		pos="1207.2,1034.9",
		width=0.75];
	48 -- 49	[pos="1363.4,664.92 1336.2,729.25 1241.6,953.27 1214.5,1017.5"];
	52	[height=0.5,
		pos="1498.7,448.6",
		width=0.75];
	51 -- 52	[pos="1379.1,346.88 1405.3,369.13 1455.6,411.94 1481.9,434.27"];
	1	[height=0.5,
		pos="653.76,765.44",
		width=0.75];
	2	[height=0.5,
		pos="947.35,766.08",
		width=0.75];
	1 -- 2	[pos="680.85,765.5 736.78,765.62 864.44,765.9 920.32,766.02"];
	3	[height=0.5,
		pos="557.24,509.13",
		width=0.75];
	1 -- 3	[pos="647.12,747.82 629.49,701 581.61,573.83 563.92,526.87"];
	53	[height=0.5,
		pos="756.64,953.22",
		width=0.75];
	1 -- 53	[pos="663.07,782.43 682.61,818.09 727.69,900.38 747.27,936.13"];
	54	[height=0.5,
		pos="434.48,865.04",
		width=0.75];
	1 -- 54	[pos="631.12,775.72 588.99,794.86 499.03,835.72 457,854.81"];
	1 -- 55	[pos="651.42,747.26 647.5,716.68 639.62,655.34 635.71,624.91"];
	56	[height=0.5,
		pos="449.62,910.46",
		width=0.75];
	1 -- 56	[pos="634.92,778.82 595.93,806.52 506.81,869.83 468.12,897.32"];
	60	[height=0.5,
		pos="341.04,648.91",
		width=0.75];
	1 -- 60	[pos="630,756.58 571.84,734.91 422.88,679.41 364.76,657.75"];
	64	[height=0.5,
		pos="579.79,908.51",
		width=0.75];
	1 -- 64	[pos="644.84,782.7 630.62,810.19 602.98,863.65 588.75,891.19"];
	66	[height=0.5,
		pos="740.99,1001",
		width=0.75];
	1 -- 66	[pos="660.31,783.14 676.52,826.9 718.32,939.75 734.48,983.39"];
	67	[height=0.5,
		pos="672.84,561.3",
		width=0.75];
	1 -- 67	[pos="655.45,747.32 659.07,708.58 667.53,618.08 671.15,579.38"];
	1 -- 12	[pos="660.36,747.69 671.8,716.91 695.19,653.97 706.65,623.14"];
	71	[height=0.5,
		pos="407.63,582.67",
		width=0.75];
	1 -- 71	[pos="635.66,752 590.14,718.2 471.3,629.95 425.75,596.13"];
	75	[height=0.5,
		pos="487.23,732.44",
		width=0.75];
	1 -- 75	[pos="627.74,760.28 596.54,754.1 544.57,743.8 513.34,737.61"];
	76	[height=0.5,
		pos="363.15,705.05",
		width=0.75];
	1 -- 76	[pos="627.97,760.08 572.96,748.65 444.63,721.98 389.3,710.48"];
	16	[height=0.5,
		pos="755.51,763.03",
		width=0.75];
	1 -- 16	[pos="680.76,764.8 695.48,764.45 713.64,764.02 728.38,763.67"];
	79	[height=0.5,
		pos="553.84,600.58",
		width=0.75];
	1 -- 79	[pos="643.63,748.72 624.48,717.12 583.17,648.97 564,617.34"];
	18	[height=0.5,
		pos="734.31,909",
		width=0.75];
	1 -- 18	[pos="663.32,782.47 678.82,810.1 709.27,864.38 724.77,891.99"];
	82	[height=0.5,
		pos="885.27,729.98",
		width=0.75];
	1 -- 82	[pos="680.32,761.37 724.86,754.55 814.1,740.88 858.67,734.05"];
	22	[height=0.5,
		pos="386.8,761.4",
		width=0.75];
	1 -- 22	[pos="626.69,765.03 575.52,764.25 465.16,762.58 413.93,761.81"];
	2 -- 16	[pos="920.27,765.65 883.81,765.07 819.3,764.04 782.76,763.46"];
	84	[height=0.5,
		pos="747.72,649.33",
		width=0.75];
	2 -- 84	[pos="926.73,754.03 888.38,731.6 806.48,683.7 768.22,661.32"];
	4	[height=0.5,
		pos="887.77,997.75",
		width=0.75];
	2 -- 4	[pos="942.77,783.87 931.68,827 903.47,936.71 892.36,979.9"];
	85	[height=0.5,
		pos="818.94,949.21",
		width=0.75];
	2 -- 85	[pos="935.72,782.65 911.28,817.52 854.79,898.09 830.45,932.81"];
	2 -- 87	[pos="931.49,751.38 915.99,737.02 892.51,715.26 876.95,700.83"];
	7	[height=0.5,
		pos="1253.4,771.71",
		width=0.75];
	2 -- 7	[pos="974.5,766.58 1032.6,767.65 1168.3,770.14 1226.3,771.21"];
	88	[height=0.5,
		pos="880.12,641.94",
		width=0.75];
	2 -- 88	[pos="938.14,749.08 925.34,725.44 902.29,682.88 889.43,659.13"];
	89	[height=0.5,
		pos="996.75,996.67",
		width=0.75];
	2 -- 89	[pos="951.22,784.17 960.46,827.28 983.67,935.64 992.89,978.66"];
	93	[height=0.5,
		pos="898.16,1046.9",
		width=0.75];
	2 -- 93	[pos="944.19,784.07 935.33,834.66 910.26,977.8 901.35,1028.6"];
	97	[height=0.5,
		pos="1119.5,921.97",
		width=0.75];
	2 -- 97	[pos="963.54,780.75 996.35,810.46 1070.3,877.46 1103.2,907.23"];
	101	[height=0.5,
		pos="1139.4,637.79",
		width=0.75];
	2 -- 101	[pos="966.46,753.31 1003.2,728.78 1083.2,675.33 1120.1,650.7"];
	13	[height=0.5,
		pos="983.47,721.94",
		width=0.75];
	2 -- 13	[pos="960.39,750.14 963.62,746.19 967.09,741.96 970.33,738"];
	104	[height=0.5,
		pos="717.36,864.82",
		width=0.75];
	2 -- 104	[pos="924.45,775.91 880.37,794.84 784.17,836.14 740.16,855.03"];
	15	[height=0.5,
		pos="945.86,604.05",
		width=0.75];
	2 -- 15	[pos="947.18,747.81 946.89,716.69 946.32,653.74 946.03,622.5"];
	2 -- 105	[pos="967.63,754.09 990.01,740.86 1025.8,719.71 1048.2,706.46"];
	106	[height=0.5,
		pos="814.38,997.52",
		width=0.75];
	2 -- 106	[pos="937.57,783.1 912.98,825.9 848.77,937.65 824.17,980.47"];
	110	[height=0.5,
		pos="1180.6,766.56",
		width=0.75];
	2 -- 110	[pos="974.56,766.14 1019.5,766.23 1108.7,766.41 1153.5,766.5"];
	26	[height=0.5,
		pos="1134.4,857.3",
		width=0.75];
	2 -- 26	[pos="969.17,776.72 1005.1,794.25 1076.4,829 1112.4,846.58"];
	3 -- 12	[pos="577.32,521.51 607.28,539.97 663.36,574.54 693.27,592.98"];
	3 -- 16	[pos="569.95,525.4 605.76,571.26 707.23,701.2 742.91,746.89"];
	3 -- 84	[pos="575.51,522.57 611.91,549.37 693.15,609.17 729.51,635.93"];
	113	[height=0.5,
		pos="337.66,604.88",
		width=0.75];
	3 -- 113	[pos="534.57,519.02 492.49,537.36 402.77,576.49 360.54,594.9"];
	115	[height=0.5,
		pos="300.38,470.1",
		width=0.75];
	3 -- 115	[pos="530.72,505.1 481.37,497.6 376,481.59 326.76,474.11"];
	117	[height=0.5,
		pos="337.67,338.03",
		width=0.75];
	3 -- 117	[pos="539.65,495.42 498.53,463.38 396.55,383.91 355.35,351.8"];
	121	[height=0.5,
		pos="335.37,426.05",
		width=0.75];
	3 -- 121	[pos="533.5,500.24 490.79,484.25 401.52,450.82 358.94,434.88"];
	8	[height=0.5,
		pos="745.18,483.63",
		width=0.75];
	3 -- 8	[pos="583.77,505.53 619.49,500.68 682.68,492.11 718.48,487.26"];
	125	[height=0.5,
		pos="561.18,258.64",
		width=0.75];
	3 -- 125	[pos="557.53,491.11 558.25,445.01 560.17,323.12 560.89,276.83"];
	129	[height=0.5,
		pos="237.9,525.51",
		width=0.75];
	3 -- 129	[pos="530.29,510.51 470.14,513.6 325.52,521.02 265.12,524.12"];
	132	[height=0.5,
		pos="688.83,233.33",
		width=0.75];
	3 -- 132	[pos="565.47,491.88 589.11,442.35 656.98,300.1 680.6,250.58"];
	135	[height=0.5,
		pos="413.22,272.4",
		width=0.75];
	3 -- 135	[pos="546.89,492.1 520.31,448.43 449.96,332.78 423.49,289.27"];
	138	[height=0.5,
		pos="387.07,382.03",
		width=0.75];
	3 -- 138	[pos="539.03,495.53 506.28,471.06 437.81,419.92 405.15,395.53"];
	140	[height=0.5,
		pos="351.18,294",
		width=0.75];
	3 -- 140	[pos="542.42,493.66 504.4,453.96 403.74,348.87 365.87,309.33"];
	143	[height=0.5,
		pos="589.71,303.11",
		width=0.75];
	3 -- 143	[pos="560.07,491.21 566.21,452.24 580.71,360.2 586.87,321.14"];
	145	[height=0.5,
		pos="298.66,382.03",
		width=0.75];
	3 -- 145	[pos="535.2,498.29 486.34,474.28 369.45,416.83 320.65,392.84"];
	149	[height=0.5,
		pos="502.07,158.67",
		width=0.75];
	3 -- 149	[pos="554.35,490.78 544.82,430.22 514.42,237.13 504.93,176.83"];
	29	[height=0.5,
		pos="440.73,227.75",
		width=0.75];
	3 -- 29	[pos="549.95,491.53 529.03,441 468.93,295.87 448.01,245.35"];
	57	[height=0.5,
		pos="554.63,1246.5",
		width=0.75];
	56 -- 57	[pos="455.26,928.53 473.54,987.02 530.95,1170.8 549.09,1228.8"];
	61	[height=0.5,
		pos="175.63,404.98",
		width=0.75];
	60 -- 61	[pos="329.67,632.15 299.38,587.47 216.99,465.97 186.86,421.54"];
	65	[height=0.5,
		pos="860.74,1160.9",
		width=0.75];
	64 -- 65	[pos="596.11,923.17 645.77,967.77 794.66,1101.5 844.37,1146.2"];
	68	[height=0.5,
		pos="1302.1,235.96",
		width=0.75];
	67 -- 68	[pos="694.5,550.1 791.32,500.04 1183.9,297.07 1280.5,247.11"];
	12 -- 40	[pos="726.58,589.55 746.67,565.75 784.55,520.88 804.77,496.92"];
	12 -- 17	[pos="738.61,598.96 788.18,586.55 897.48,559.18 947.13,546.75"];
	12 -- 13	[pos="736.31,615.25 787.36,637.29 909.5,690.01 960.49,712.02"];
	12 -- 14	[pos="691.61,616.17 659.86,632.1 601,661.61 569.24,677.53"];
	278	[height=0.5,
		pos="655.81,388.54",
		width=0.75];
	12 -- 278	[pos="708.57,587.57 697.8,546.92 671.41,447.41 660.57,406.53"];
	332	[height=0.5,
		pos="991.82,677.8",
		width=0.75];
	12 -- 332	[pos="738.49,611.87 791.39,625.64 913.45,657.4 966.47,671.2"];
	343	[height=0.5,
		pos="717.34,439.6",
		width=0.75];
	12 -- 343	[pos="713.72,587.26 714.5,555.38 716.12,489.49 716.9,457.63"];
	344	[height=0.5,
		pos="567.12,405.82",
		width=0.75];
	12 -- 344	[pos="701.32,588.98 673.84,551.48 606.48,459.54 579.04,422.09"];
	348	[height=0.5,
		pos="635.66,843.44",
		width=0.75];
	12 -- 348	[pos="707.44,623.21 693.02,667.45 655.83,781.54 641.45,825.66"];
	349	[height=0.5,
		pos="873.2,350.38",
		width=0.75];
	12 -- 349	[pos="723.77,588.58 752.75,542.39 833.64,413.43 862.67,367.17"];
	103	[height=0.5,
		pos="652.84,344.36",
		width=0.75];
	12 -- 103	[pos="709.12,587.37 698.08,539.7 668.09,410.23 657.02,362.42"];
	171	[height=0.5,
		pos="666.74,707.06",
		width=0.75];
	12 -- 171	[pos="705.38,622.57 696.83,641.28 683.25,670.97 674.67,689.72"];
	207	[height=0.5,
		pos="503.2,421.03",
		width=0.75];
	12 -- 207	[pos="696.79,590.85 657.52,556.4 558.8,469.8 519.6,435.42"];
	256	[height=0.5,
		pos="790.58,321.38",
		width=0.75];
	12 -- 256	[pos="718.11,587.55 731.99,536.56 771.86,390.12 785.74,339.14"];
	295	[height=0.5,
		pos="759.69,820.73",
		width=0.75];
	12 -- 295	[pos="717.15,623.3 725.89,663.85 747.04,761.99 755.79,802.63"];
	315	[height=0.5,
		pos="527.45,776.44",
		width=0.75];
	12 -- 315	[pos="697.43,619.9 662.41,652.15 578.74,729.2 543.51,761.65"];
	72	[height=0.5,
		pos="378.02,119.48",
		width=0.75];
	71 -- 72	[pos="406.47,564.51 401.73,490.41 383.89,211.37 379.17,137.51"];
	77	[height=0.5,
		pos="269.9,337.97",
		width=0.75];
	76 -- 77	[pos="358.59,687.1 342.76,624.77 290.28,418.16 274.46,355.89"];
	16 -- 47	[pos="762.94,745.61 773.27,721.39 791.87,677.78 802.24,653.46"];
	16 -- 18	[pos="752.87,781.22 748.78,809.34 740.99,863.05 736.92,891.04"];
	264	[height=0.5,
		pos="1021.2,771.37",
		width=0.75];
	16 -- 264	[pos="782.94,763.89 833.99,765.49 942.99,768.92 993.92,770.52"];
	338	[height=0.5,
		pos="994.49,861.79",
		width=0.75];
	16 -- 338	[pos="778.86,772.68 824.66,791.61 925.8,833.4 971.4,852.25"];
	16 -- 385	[pos="763.87,745.58 779.72,712.51 813.96,641.09 829.74,608.18"];
	386	[height=0.5,
		pos="905.67,545.5",
		width=0.75];
	16 -- 386	[pos="767.04,746.32 795.06,705.73 866.45,602.31 894.3,561.97"];
	182	[height=0.5,
		pos="836.89,542.58",
		width=0.75];
	16 -- 182	[pos="762.03,745.36 777.27,704.08 815.07,601.69 830.33,560.33"];
	214	[height=0.5,
		pos="479.31,820.75",
		width=0.75];
	16 -- 214	[pos="729.52,768.46 676.88,779.46 558.18,804.27 505.43,815.29"];
	241	[height=0.5,
		pos="506.86,553.18",
		width=0.75];
	16 -- 241	[pos="738.42,748.6 692.88,710.18 569.04,605.65 523.74,567.43"];
	286	[height=0.5,
		pos="475.53,602.69",
		width=0.75];
	16 -- 286	[pos="734.92,751.24 683.14,721.59 547.95,644.17 496.14,614.5"];
	306	[height=0.5,
		pos="559.53,864.48",
		width=0.75];
	16 -- 306	[pos="734.16,774.08 696.56,793.54 618.94,833.72 581.15,853.29"];
	324	[height=0.5,
		pos="658.61,913.08",
		width=0.75];
	16 -- 324	[pos="744.77,779.66 726.14,808.5 688.05,867.48 669.4,896.37"];
	347	[height=0.5,
		pos="403.05,646.84",
		width=0.75];
	16 -- 347	[pos="731.28,755.04 666.89,733.81 492.03,676.17 427.44,654.88"];
	358	[height=0.5,
		pos="621.06,481.71",
		width=0.75];
	16 -- 358	[pos="747.3,745.85 723.3,695.63 653.42,549.41 629.33,499.02"];
	369	[height=0.5,
		pos="425.17,690.86",
		width=0.75];
	16 -- 369	[pos="729.59,757.36 667.84,743.87 512.6,709.96 450.97,696.5"];
	80	[height=0.5,
		pos="784.96,129.35",
		width=0.75];
	79 -- 80	[pos="562.34,583.25 598.58,509.36 739.99,221.03 776.38,146.84"];
	291	[height=0.5,
		pos="697.69,811.79",
		width=0.75];
	18 -- 291	[pos="727.6,891.17 720.99,873.63 710.96,847.01 704.37,829.51"];
	18 -- 348	[pos="714.82,896.05 697.53,884.55 672.39,867.85 655.11,856.37"];
	18 -- 388	[pos="753.59,896.13 782.35,876.93 836.18,841 864.9,821.83"];
	389	[height=0.5,
		pos="835.39,1085.8",
		width=0.75];
	18 -- 389	[pos="744.01,925.95 763.33,959.75 806.43,1035.1 825.73,1068.9"];
	50	[height=0.5,
		pos="696.37,1048.7",
		width=0.75];
	18 -- 50	[pos="729.43,926.98 722.14,953.8 708.51,1004 701.23,1030.8"];
	109	[height=0.5,
		pos="476.16,1091.9",
		width=0.75];
	18 -- 109	[pos="715.75,922.15 668.23,955.81 542.62,1044.8 494.91,1078.6"];
	148	[height=0.5,
		pos="457.38,1000.6",
		width=0.75];
	18 -- 148	[pos="709.74,917.13 657.19,934.52 534.41,975.15 481.9,992.52"];
	186	[height=0.5,
		pos="538.18,1092.6",
		width=0.75];
	18 -- 186	[pos="718.6,923.72 681.87,958.1 590.77,1043.4 553.98,1077.9"];
	245	[height=0.5,
		pos="441.9,954.47",
		width=0.75];
	18 -- 245	[pos="707.85,913.12 652.32,921.75 524.18,941.68 468.52,950.33"];
	268	[height=0.5,
		pos="829.3,1041.8",
		width=0.75];
	18 -- 268	[pos="745.96,925.28 764.19,950.77 799.27,999.8 817.56,1025.4"];
	328	[height=0.5,
		pos="522.66,1136.7",
		width=0.75];
	18 -- 328	[pos="719.77,924.65 681.01,966.34 575.59,1079.7 537.03,1121.2"];
	342	[height=0.5,
		pos="724.27,1100.4",
		width=0.75];
	18 -- 342	[pos="733.37,927.01 731.46,963.49 727.14,1045.8 725.22,1082.3"];
	377	[height=0.5,
		pos="462.17,1046",
		width=0.75];
	18 -- 377	[pos="712.5,919.98 661.55,945.62 535.14,1009.2 484.08,1034.9"];
	383	[height=0.5,
		pos="560.46,952.68",
		width=0.75];
	18 -- 383	[pos="709.03,915.35 676.07,923.63 618.75,938.03 585.77,946.32"];
	83	[height=0.5,
		pos="1367.6,548.12",
		width=0.75];
	82 -- 83	[pos="908.86,721.08 990.75,690.21 1262.2,587.85 1344,557"];
	4 -- 30	[pos="902.45,982.32 934.45,948.68 1010.2,869.11 1042,835.62"];
	4 -- 53	[pos="863.41,989.48 839.86,981.48 804.37,969.43 780.86,961.45"];
	153	[height=0.5,
		pos="600.24,1102.5",
		width=0.75];
	4 -- 153	[pos="863.75,1006.5 809.49,1026.3 677.99,1074.2 623.99,1093.8"];
	154	[height=0.5,
		pos="651.3,1190.5",
		width=0.75];
	4 -- 154	[pos="870.38,1011.9 826.54,1047.7 711.91,1141.1 668.39,1176.6"];
	158	[height=0.5,
		pos="1153.6,973.83",
		width=0.75];
	4 -- 158	[pos="914.72,995.33 965.67,990.74 1075.6,980.85 1126.6,976.26"];
	159	[height=0.5,
		pos="662.27,1136.6",
		width=0.75];
	4 -- 159	[pos="867.76,1010.1 824.97,1036.4 724.99,1098 682.24,1124.3"];
	9	[height=0.5,
		pos="961.01,1067",
		width=0.75];
	4 -- 9	[pos="903.66,1012.8 916.03,1024.5 933.1,1040.6 945.4,1052.3"];
	162	[height=0.5,
		pos="909.1,1233.9",
		width=0.75];
	4 -- 162	[pos="889.41,1015.9 893.38,1059.9 903.48,1171.7 907.46,1215.7"];
	166	[height=0.5,
		pos="1096.5,1186.5",
		width=0.75];
	4 -- 166	[pos="903.8,1012.2 942.66,1047.4 1041.5,1136.7 1080.4,1171.9"];
	170	[height=0.5,
		pos="767.26,1056.4",
		width=0.75];
	4 -- 170	[pos="865.95,1008.4 844.24,1018.9 811.12,1035 789.33,1045.6"];
	172	[height=0.5,
		pos="1033.4,1187.4",
		width=0.75];
	4 -- 172	[pos="900.19,1013.9 927.7,1049.8 993.54,1135.5 1021,1171.3"];
	176	[height=0.5,
		pos="678.94,959.94",
		width=0.75];
	4 -- 176	[pos="861.32,992.96 821.15,985.69 745.22,971.94 705.18,964.69"];
	177	[height=0.5,
		pos="1005.3,1114.3",
		width=0.75];
	4 -- 177	[pos="903.14,1013 925.66,1035.3 967.41,1076.7 989.94,1099.1"];
	179	[height=0.5,
		pos="1170.7,1112.2",
		width=0.75];
	4 -- 179	[pos="910.93,1007.1 963.98,1028.6 1093.9,1081.1 1147.2,1102.7"];
	183	[height=0.5,
		pos="1063.6,1001.3",
		width=0.75];
	4 -- 183	[pos="914.86,998.29 947.9,998.96 1003.4,1000.1 1036.5,1000.7"];
	185	[height=0.5,
		pos="784.35,1176.6",
		width=0.75];
	4 -- 185	[pos="878.04,1014.6 858.33,1048.7 813.88,1125.5 794.13,1159.7"];
	187	[height=0.5,
		pos="1181.5,902.77",
		width=0.75];
	4 -- 187	[pos="912.31,989.82 967.61,971.94 1101.4,928.67 1156.8,910.75"];
	114	[height=0.5,
		pos="616.91,996.88",
		width=0.75];
	4 -- 114	[pos="860.56,997.66 808.64,997.5 696.01,997.14 644.1,996.97"];
	86	[height=0.5,
		pos="400.12,1069.5",
		width=0.75];
	85 -- 86	[pos="794,956.38 719.51,977.77 499.25,1041 424.93,1062.4"];
	7 -- 158	[pos="1244.9,788.94 1226,827.12 1180.9,918.49 1162.1,956.64"];
	247	[height=0.5,
		pos="1139.1,541.63",
		width=0.75];
	7 -- 247	[pos="1244.8,754.41 1223.6,711.67 1168.8,601.43 1147.6,558.81"];
	248	[height=0.5,
		pos="1353,986.81",
		width=0.75];
	7 -- 248	[pos="1261.4,788.94 1280,829.22 1326.3,929.13 1344.9,969.49"];
	250	[height=0.5,
		pos="1475.3,942.05",
		width=0.75];
	7 -- 250	[pos="1271.2,785.36 1312.7,817.25 1415.8,896.38 1457.4,928.34"];
	11	[height=0.5,
		pos="1118.6,794.04",
		width=0.75];
	7 -- 11	[pos="1227.1,776.06 1203.3,780 1168.6,785.76 1144.8,789.69"];
	253	[height=0.5,
		pos="1516.2,591.54",
		width=0.75];
	7 -- 253	[pos="1272.3,758.75 1320.7,725.59 1448.6,637.92 1497.1,604.62"];
	257	[height=0.5,
		pos="1571.7,726.22",
		width=0.75];
	7 -- 257	[pos="1280,767.91 1339.9,759.34 1484.9,738.63 1544.9,730.04"];
	260	[height=0.5,
		pos="1290.7,903.43",
		width=0.75];
	7 -- 260	[pos="1258.4,789.47 1265.5,814.61 1278.5,860.31 1285.6,885.52"];
	263	[height=0.5,
		pos="1264.1,588.07",
		width=0.75];
	7 -- 263	[pos="1254.5,753.43 1256.5,718.23 1261,641.42 1263.1,606.27"];
	7 -- 264	[pos="1226.3,771.67 1181.7,771.6 1093.2,771.48 1048.5,771.41"];
	265	[height=0.5,
		pos="1430.7,603.48",
		width=0.75];
	7 -- 265	[pos="1269.1,756.78 1302.8,724.85 1381.4,650.27 1415,618.37"];
	267	[height=0.5,
		pos="1223.8,946.81",
		width=0.75];
	7 -- 267	[pos="1250.3,789.79 1244.7,823.43 1232.5,895.26 1226.9,928.83"];
	7 -- 19	[pos="1259.6,754.17 1265.8,737.02 1275,711.06 1281.2,693.84"];
	35	[height=0.5,
		pos="1520.6,770.31",
		width=0.75];
	7 -- 35	[pos="1280.5,771.56 1331.7,771.3 1442.2,770.72 1493.4,770.45"];
	59	[height=0.5,
		pos="1475.8,896.62",
		width=0.75];
	7 -- 59	[pos="1274.3,783.46 1316.8,807.33 1412.7,861.23 1455,884.99"];
	124	[height=0.5,
		pos="1412.6,942.18",
		width=0.75];
	7 -- 124	[pos="1267.8,787.13 1298,819.43 1367.4,893.83 1397.9,926.41"];
	191	[height=0.5,
		pos="1294.2,1030.9",
		width=0.75];
	7 -- 191	[pos="1256.3,789.93 1263.7,837.53 1283.8,965.16 1291.3,1012.7"];
	221	[height=0.5,
		pos="1450.5,559.47",
		width=0.75];
	7 -- 221	[pos="1267.9,756.1 1304.4,716.75 1400,613.87 1436.3,574.81"];
	90	[height=0.5,
		pos="1101.5,1319.5",
		width=0.75];
	89 -- 90	[pos="1002.5,1014.5 1020.8,1070.9 1077.4,1245.4 1095.7,1301.8"];
	94	[height=0.5,
		pos="717,1364.9",
		width=0.75];
	93 -- 94	[pos="888.42,1064 856.97,1119.2 758.32,1292.4 726.79,1347.7"];
	98	[height=0.5,
		pos="1358.9,1082",
		width=0.75];
	97 -- 98	[pos="1138.7,934.8 1183.5,964.76 1294.7,1039.1 1339.7,1069.1"];
	102	[height=0.5,
		pos="983.23,180.13",
		width=0.75];
	101 -- 102	[pos="1133.4,620.13 1108.5,547.35 1014.3,271.12 989.32,197.99"];
	13 -- 18	[pos="965.15,735.69 918.96,770.37 798.18,861.05 752.33,895.48"];
	13 -- 15	[pos="977.84,704.29 970.75,682.06 958.64,644.1 951.53,621.82"];
	316	[height=0.5,
		pos="933.29,953.74",
		width=0.75];
	13 -- 316	[pos="979.53,740.13 970.15,783.46 946.57,892.39 937.21,935.63"];
	352	[height=0.5,
		pos="890.29,498.47",
		width=0.75];
	13 -- 352	[pos="976.16,704.4 958.74,662.63 914.95,557.61 897.57,515.92"];
	356	[height=0.5,
		pos="1096,497.62",
		width=0.75];
	13 -- 356	[pos="992.12,704.71 1013.1,662.95 1066.4,556.72 1087.3,514.91"];
	359	[height=0.5,
		pos="1254.6,544.06",
		width=0.75];
	13 -- 359	[pos="1003,709.15 1053,676.33 1185.5,589.43 1235.3,556.73"];
	363	[height=0.5,
		pos="1202.8,678.41",
		width=0.75];
	13 -- 363	[pos="1009.5,716.77 1051.7,708.4 1134.6,691.94 1176.8,683.57"];
	13 -- 42	[pos="1009,715.67 1036.8,708.86 1080.9,698.03 1108.7,691.23"];
	74	[height=0.5,
		pos="1096,425.7",
		width=0.75];
	13 -- 74	[pos="990.17,704.29 1010.2,651.61 1069.4,495.82 1089.4,443.25"];
	137	[height=0.5,
		pos="971.96,496.25",
		width=0.75];
	13 -- 137	[pos="982.55,703.85 980.39,661.59 975.05,556.77 972.89,514.43"];
	175	[height=0.5,
		pos="1197.4,816.26",
		width=0.75];
	13 -- 175	[pos="1006.4,732.03 1047.5,750.19 1133.6,788.14 1174.7,806.24"];
	209	[height=0.5,
		pos="815.32,884.55",
		width=0.75];
	13 -- 209	[pos="967.95,736.95 935.92,767.92 862.8,838.63 830.8,869.58"];
	235	[height=0.5,
		pos="1035.8,566.6",
		width=0.75];
	13 -- 235	[pos="989.48,704.12 999.57,674.15 1019.8,614.03 1029.9,584.21"];
	259	[height=0.5,
		pos="1308.7,632.09",
		width=0.75];
	13 -- 259	[pos="1008.5,715.04 1069,698.31 1223,655.76 1283.7,639.01"];
	281	[height=0.5,
		pos="1158,453.9",
		width=0.75];
	13 -- 281	[pos="994.39,705.17 1025.7,657.03 1115.8,518.79 1147.1,470.66"];
	297	[height=0.5,
		pos="1062,864.39",
		width=0.75];
	13 -- 297	[pos="992.79,738.84 1007.8,766.11 1037.3,819.53 1052.4,847.07"];
	15 -- 16	[pos="928.97,618.15 892.85,648.32 808.45,718.81 772.36,748.95"];
	15 -- 263	[pos="973,602.68 1033.1,599.66 1177,592.44 1237.1,589.43"];
	15 -- 343	[pos="927.16,590.59 884.2,559.67 778.88,483.88 735.98,453.01"];
	380	[height=0.5,
		pos="1052.9,373.74",
		width=0.75];
	15 -- 380	[pos="953.91,586.73 973.79,543.95 1025.1,433.6 1044.9,390.93"];
	382	[height=0.5,
		pos="728.96,693.38",
		width=0.75];
	15 -- 382	[pos="922.65,613.61 880.9,630.8 793.63,666.74 752,683.89"];
	384	[height=0.5,
		pos="1203.7,497.96",
		width=0.75];
	15 -- 384	[pos="969.2,594.44 1018.3,574.25 1131.7,527.58 1180.6,507.46"];
	15 -- 46	[pos="958.62,587.83 991.34,546.24 1078,436.12 1110.6,394.69"];
	78	[height=0.5,
		pos="808.69,365.39",
		width=0.75];
	15 -- 78	[pos="936,586.88 910.69,542.85 843.68,426.26 818.47,382.4"];
	142	[height=0.5,
		pos="914.14,306.2",
		width=0.75];
	15 -- 142	[pos="943.93,585.86 938.26,532.69 921.77,377.88 916.09,324.53"];
	178	[height=0.5,
		pos="946.27,812.02",
		width=0.75];
	15 -- 178	[pos="945.9,622.14 945.98,661.47 946.16,754.39 946.24,793.82"];
	211	[height=0.5,
		pos="794.33,718.98",
		width=0.75];
	15 -- 211	[pos="927.89,617.68 898.72,639.8 841.43,683.25 812.29,705.36"];
	237	[height=0.5,
		pos="990.75,394.22",
		width=0.75];
	15 -- 237	[pos="949.69,586.16 958.17,546.51 978.46,451.66 986.93,412.06"];
	303	[height=0.5,
		pos="1113.3,738.67",
		width=0.75];
	15 -- 303	[pos="963.15,617.95 995.23,643.74 1063.6,698.75 1095.8,724.65"];
	322	[height=0.5,
		pos="1221,722.53",
		width=0.75];
	15 -- 322	[pos="968.85,613.94 1020.8,636.3 1146.6,690.49 1198.3,712.74"];
	337	[height=0.5,
		pos="1242.5,368.01",
		width=0.75];
	15 -- 337	[pos="963.53,589.99 1016.3,548.01 1172.3,423.88 1224.9,382"];
	366	[height=0.5,
		pos="654.27,432.64",
		width=0.75];
	15 -- 366	[pos="925.36,591.99 871.82,560.52 728.26,476.14 674.75,444.68"];
	107	[height=0.5,
		pos="497.48,1290.5",
		width=0.75];
	106 -- 107	[pos="798.23,1012.5 743.87,1062.7 567.91,1225.4 513.6,1275.6"];
	111	[height=0.5,
		pos="1579.2,632.94",
		width=0.75];
	110 -- 111	[pos="1204.9,758.4 1276.2,734.52 1483.7,664.93 1554.9,641.08"];
	113 -- 114	[pos="349.31,621.22 394.72,684.98 559.71,916.59 605.22,980.47"];
	116	[height=0.5,
		pos="241.21,841.65",
		width=0.75];
	115 -- 116	[pos="297.53,488.02 287.53,550.79 254.16,760.31 244.1,823.47"];
	118	[height=0.5,
		pos="281.46,150.62",
		width=0.75];
	117 -- 118	[pos="332.28,320.06 321.54,284.24 297.57,204.31 286.84,168.53"];
	122	[height=0.5,
		pos="236.97,887.2",
		width=0.75];
	121 -- 122	[pos="331.51,444.13 315.77,517.9 256.49,795.71 240.8,869.25"];
	8 -- 36	[pos="771.21,478.73 802.42,472.85 854.42,463.05 885.67,457.17"];
	8 -- 88	[pos="758.61,499.39 784.48,529.74 840.92,595.95 866.74,626.25"];
	8 -- 15	[pos="765.53,495.84 804.09,518.98 887.39,568.96 925.76,591.98"];
	192	[height=0.5,
		pos="591.07,739.52",
		width=0.75];
	8 -- 192	[pos="735.07,500.42 707.14,546.79 629.19,676.23 601.22,722.67"];
	8 -- 247	[pos="771.63,487.53 843.3,498.08 1040.6,527.14 1112.5,537.71"];
	269	[height=0.5,
		pos="1022.7,225.11",
		width=0.75];
	8 -- 269	[pos="760.89,468.99 809.62,423.6 957.83,285.52 1006.8,239.91"];
	273	[height=0.5,
		pos="419.7,470.33",
		width=0.75];
	8 -- 273	[pos="717.99,482.52 656.72,480.02 508.45,473.96 447.04,471.44"];
	277	[height=0.5,
		pos="1073.9,640.96",
		width=0.75];
	8 -- 277	[pos="767.26,494.2 827.14,522.86 992.15,601.83 1051.9,630.44"];
	8 -- 278	[pos="730.82,468.36 714.24,450.72 687.12,421.85 670.43,404.1"];
	279	[height=0.5,
		pos="842.73,218.4",
		width=0.75];
	8 -- 279	[pos="751.73,465.82 769.5,417.5 818.47,284.36 836.21,236.14"];
	282	[height=0.5,
		pos="526.67,345.08",
		width=0.75];
	8 -- 282	[pos="725.4,471.09 683.8,444.71 587.67,383.76 546.24,357.49"];
	284	[height=0.5,
		pos="626.82,206.08",
		width=0.75];
	8 -- 284	[pos="737.78,466.27 716.52,416.43 655.48,273.27 634.22,223.43"];
	287	[height=0.5,
		pos="813.38,173.42",
		width=0.75];
	8 -- 287	[pos="749.14,465.61 761.19,410.79 797.34,246.38 809.4,191.49"];
	8 -- 291	[pos="742.56,501.74 734.26,559.12 708.6,736.44 700.3,793.74"];
	292	[height=0.5,
		pos="908.53,218.07",
		width=0.75];
	8 -- 292	[pos="755.65,466.62 785.15,418.65 868.75,282.74 898.15,234.95"];
	63	[height=0.5,
		pos="707.67,138.5",
		width=0.75];
	8 -- 63	[pos="743.22,465.56 736.75,406.06 716.17,216.65 709.66,156.81"];
	161	[height=0.5,
		pos="559.04,465.05",
		width=0.75];
	8 -- 161	[pos="718.11,480.93 682.72,477.4 621.09,471.25 585.84,467.73"];
	224	[height=0.5,
		pos="751.34,198.43",
		width=0.75];
	8 -- 224	[pos="745.57,465.36 746.69,413.85 749.84,267.88 750.95,216.55"];
	126	[height=0.5,
		pos="1168.7,230.03",
		width=0.75];
	125 -- 126	[pos="588.46,257.36 689.36,252.6 1040.7,236.06 1141.5,231.31"];
	130	[height=0.5,
		pos="273.93,1026.2",
		width=0.75];
	129 -- 130	[pos="239.21,543.63 244.83,621.82 267,929.96 272.63,1008.1"];
	133	[height=0.5,
		pos="1270.7,280",
		width=0.75];
	132 -- 133	[pos="715.73,235.49 813.08,243.29 1146.4,270.02 1243.8,277.84"];
	136	[height=0.5,
		pos="701.77,94.479",
		width=0.75];
	135 -- 136	[pos="433.06,260.17 485.77,227.67 628.93,139.39 681.8,106.79"];
	139	[height=0.5,
		pos="213.58,595.74",
		width=0.75];
	138 -- 139	[pos="374.03,398.09 341.8,437.79 258.68,540.19 226.54,579.78"];
	141	[height=0.5,
		pos="634.87,106.07",
		width=0.75];
	140 -- 141	[pos="370.68,281.08 422.63,246.67 563.93,153.06 615.61,118.83"];
	143 -- 144	[pos="616.67,305.98 687.76,313.56 879.75,334.01 950.65,341.56"];
	146	[height=0.5,
		pos="90.565,565.61",
		width=0.75];
	145 -- 146	[pos="282.33,396.43 243.52,430.67 146.12,516.6 107.11,551.02"];
	150	[height=0.5,
		pos="855.84,79.08",
		width=0.75];
	149 -- 150	[pos="527.8,152.88 593.15,138.18 764.96,99.524 830.21,84.847"];
	155	[height=0.5,
		pos="336.55,1158.8",
		width=0.75];
	154 -- 155	[pos="624.46,1187.8 565,1181.8 422.72,1167.5 363.32,1161.5"];
	160	[height=0.5,
		pos="317.75,982.16",
		width=0.75];
	159 -- 160	[pos="639.66,1126.4 577.24,1098.5 402.96,1020.3 340.44,992.33"];
	9 -- 37	[pos="970.12,1050.1 986.41,1019.7 1020.4,956.38 1036.8,925.75"];
	9 -- 18	[pos="942.07,1053.8 899.29,1024 795.61,951.74 753.04,922.06"];
	9 -- 11	[pos="970.87,1050 999.16,1000.9 1080.4,860.13 1108.7,811.11"];
	10	[height=0.5,
		pos="924.97,1136",
		width=0.75];
	9 -- 10	[pos="952.1,1084.1 946.6,1094.6 939.55,1108.1 934.02,1118.7"];
	294	[height=0.5,
		pos="898.14,1092",
		width=0.75];
	9 -- 294	[pos="937.6,1076.3 932.29,1078.4 926.66,1080.7 921.36,1082.8"];
	296	[height=0.5,
		pos="1080.1,1119.9",
		width=0.75];
	9 -- 296	[pos="983.68,1077.1 1004.9,1086.5 1036.3,1100.5 1057.5,1109.9"];
	298	[height=0.5,
		pos="837.6,1259.3",
		width=0.75];
	9 -- 298	[pos="950.27,1083.8 926.87,1120.2 871.52,1206.5 848.22,1242.8"];
	302	[height=0.5,
		pos="1071.8,1070.8",
		width=0.75];
	9 -- 302	[pos="988.11,1068 1005.3,1068.5 1027.4,1069.3 1044.6,1069.9"];
	304	[height=0.5,
		pos="971.32,1210.8",
		width=0.75];
	9 -- 304	[pos="962.32,1085.2 964.3,1112.9 968.05,1165.2 970.03,1192.7"];
	307	[height=0.5,
		pos="1284.2,1167",
		width=0.75];
	9 -- 307	[pos="985.56,1074.6 1045.7,1093.2 1199.6,1140.8 1259.6,1159.4"];
	311	[height=0.5,
		pos="1234.8,1078.9",
		width=0.75];
	9 -- 311	[pos="988.26,1068.2 1040.7,1070.5 1155.2,1075.5 1207.6,1077.7"];
	9 -- 65	[pos="944.9,1082.1 926.08,1099.7 895.14,1128.7 876.48,1146.1"];
	92	[height=0.5,
		pos="1075.1,1231.5",
		width=0.75];
	9 -- 92	[pos="972.36,1083.4 994.12,1114.8 1041.4,1183 1063.4,1214.7"];
	128	[height=0.5,
		pos="1242.5,1122.9",
		width=0.75];
	9 -- 128	[pos="986.98,1072.2 1040.6,1082.8 1163,1107.1 1216.5,1117.8"];
	196	[height=0.5,
		pos="974.69,1264.1",
		width=0.75];
	9 -- 196	[pos="962.27,1085.2 964.88,1122.8 970.83,1208.5 973.43,1246"];
	228	[height=0.5,
		pos="847.02,1215.3",
		width=0.75];
	9 -- 228	[pos="948.59,1083.2 926.67,1111.7 881.34,1170.7 859.42,1199.2"];
	249	[height=0.5,
		pos="1160,1156.3",
		width=0.75];
	9 -- 249	[pos="983.45,1077.1 1021.7,1094.3 1099,1128.9 1137.4,1146.1"];
	272	[height=0.5,
		pos="1222.1,1184.9",
		width=0.75];
	9 -- 272	[pos="983.72,1077.3 1033.2,1099.6 1150.3,1152.5 1199.6,1174.7"];
	163	[height=0.5,
		pos="912.54,1347.3",
		width=0.75];
	162 -- 163	[pos="909.65,1252.2 910.29,1273.3 911.35,1308 911.99,1329.2"];
	167	[height=0.5,
		pos="1416.3,1235.4",
		width=0.75];
	166 -- 167	[pos="1123,1190.5 1183.1,1199.7 1329.6,1222.1 1389.8,1231.4"];
	170 -- 171	[pos="762.14,1038.6 744.9,978.66 689.08,784.7 671.85,724.83"];
	173	[height=0.5,
		pos="1354.2,1255",
		width=0.75];
	172 -- 173	[pos="1059.4,1192.9 1119.6,1205.6 1268.4,1236.9 1328.4,1249.6"];
	177 -- 178	[pos="1001.8,1096.3 991.29,1042.5 960.25,883.57 949.77,829.93"];
	180	[height=0.5,
		pos="1469.3,1030.8",
		width=0.75];
	179 -- 180	[pos="1195.9,1105.4 1252.3,1090 1388.1,1053 1444.3,1037.6"];
	183 -- 184	[pos="1068.5,983.48 1087.2,915.5 1153.9,672.65 1172.5,604.78"];
	185 -- 186	[pos="760.3,1168.4 713.24,1152.4 609.47,1117 562.33,1100.9"];
	5	[height=0.5,
		pos="511.64,908.49",
		width=0.75];
	5 -- 54	[pos="490.96,896.85 479.89,890.61 466.29,882.95 455.21,876.71"];
	5 -- 18	[pos="538.94,908.56 581.8,908.65 664.36,908.84 707.14,908.94"];
	5 -- 153	[pos="519.66,926.05 536.52,962.99 575.5,1048.3 592.3,1085.1"];
	5 -- 188	[pos="509.7,890.5 504.56,842.67 490.6,712.79 485.45,664.82"];
	189	[height=0.5,
		pos="460.64,1174",
		width=0.75];
	5 -- 189	[pos="508.13,926.74 498.79,975.37 473.39,1107.6 464.1,1156"];
	5 -- 192	[pos="519.84,891.05 535.06,858.67 567.52,789.63 582.8,757.13"];
	193	[height=0.5,
		pos="302.53,1114.2",
		width=0.75];
	5 -- 193	[pos="496.26,923.62 457.59,961.67 356.62,1061 317.93,1099.1"];
	197	[height=0.5,
		pos="259.8,1070.2",
		width=0.75];
	5 -- 197	[pos="491.88,921.18 444.8,951.42 326.46,1027.4 279.47,1057.6"];
	201	[height=0.5,
		pos="398.61,1152.3",
		width=0.75];
	5 -- 201	[pos="503.51,926.03 482.65,971.02 427.44,1090.1 406.66,1135"];
	204	[height=0.5,
		pos="229.33,934.82",
		width=0.75];
	5 -- 204	[pos="484.82,910.99 431.01,916.01 310.38,927.26 256.38,932.3"];
	208	[height=0.5,
		pos="379.8,993.32",
		width=0.75];
	5 -- 208	[pos="492.18,921.01 467.26,937.05 424.3,964.69 399.34,980.75"];
	5 -- 14	[pos="514.58,890.48 521.33,849.11 537.9,747.67 544.64,706.35"];
	210	[height=0.5,
		pos="312.09,912.51",
		width=0.75];
	5 -- 210	[pos="484.31,909.04 446.1,909.81 377.12,911.2 339.09,911.97"];
	212	[height=0.5,
		pos="248.77,981.04",
		width=0.75];
	5 -- 212	[pos="486.43,915.45 436.19,929.32 324.08,960.25 273.9,974.1"];
	215	[height=0.5,
		pos="372.31,851.57",
		width=0.75];
	5 -- 215	[pos="488.32,898.97 462.6,888.46 421.46,871.65 395.71,861.13"];
	217	[height=0.5,
		pos="561.16,1044.8",
		width=0.75];
	5 -- 217	[pos="518.01,926.04 527.47,952.07 545.12,1000.7 554.66,1026.9"];
	5 -- 32	[pos="486.22,914.82 462.88,920.63 428.47,929.2 405.15,935"];
	5 -- 86	[pos="500.12,925.12 478.75,955.98 433.19,1021.8 411.74,1052.7"];
	5 -- 116	[pos="486.2,902.21 434.65,889.47 318.43,860.74 266.78,847.97"];
	190	[height=0.5,
		pos="896.1,1303.3",
		width=0.75];
	189 -- 190	[pos="485.61,1181.4 562.42,1204.2 794.55,1273.2 871.22,1295.9"];
	194	[height=0.5,
		pos="320.63,1291",
		width=0.75];
	193 -- 194	[pos="304.4,1132.5 307.88,1166.4 315.3,1239 318.77,1272.8"];
	198	[height=0.5,
		pos="248.24,1245.9",
		width=0.75];
	197 -- 198	[pos="258.61,1088.4 256.39,1122.1 251.65,1194.2 249.43,1227.9"];
	202	[height=0.5,
		pos="767.09,1270.5",
		width=0.75];
	201 -- 202	[pos="423.07,1160.2 489.94,1181.6 675.25,1241 742.39,1262.5"];
	205	[height=0.5,
		pos="27,810.08",
		width=0.75];
	204 -- 205	[pos="209.19,922.4 170.41,898.49 85.776,846.32 47.058,822.45"];
	208 -- 209	[pos="405.1,987 482.08,967.78 712.88,910.13 789.95,890.89"];
	14 -- 75	[pos="529.14,701.85 521.65,707.32 513.02,713.61 505.55,719.07"];
	14 -- 104	[pos="562.34,703.75 594.53,737.2 670.69,816.33 702.74,849.63"];
	14 -- 176	[pos="555.99,705.8 579.72,754.84 646.95,893.82 670.59,942.68"];
	365	[height=0.5,
		pos="275.64,569.56",
		width=0.75];
	14 -- 365	[pos="524.86,678.47 473.67,656.1 349.79,601.96 298.49,579.54"];
	367	[height=0.5,
		pos="275.62,638.56",
		width=0.75];
	14 -- 367	[pos="521.5,683.62 469.65,674.12 354.13,652.95 302.02,643.4"];
	370	[height=0.5,
		pos="189.59,481.49",
		width=0.75];
	14 -- 370	[pos="527.04,676.53 463.9,640.04 273.07,529.74 210.04,493.31"];
	374	[height=0.5,
		pos="243.15,748.15",
		width=0.75];
	14 -- 374	[pos="521.62,693.49 464.25,704.75 327.18,731.66 269.47,742.98"];
	378	[height=0.5,
		pos="610.81,556.58",
		width=0.75];
	14 -- 378	[pos="555.84,671.17 567.96,645.9 590.42,599.08 602.54,573.81"];
	14 -- 44	[pos="532.74,672.95 500.94,639.84 426.54,562.37 394.98,529.51"];
	14 -- 139	[pos="522.47,681.44 460.42,664.22 300.4,619.82 238.52,602.66"];
	262	[height=0.5,
		pos="326.18,807.54",
		width=0.75];
	14 -- 262	[pos="526.35,699.82 484.03,722.6 389.61,773.41 347.34,796.15"];
	283	[height=0.5,
		pos="302.58,514.12",
		width=0.75];
	14 -- 283	[pos="528.76,675.01 483.04,642.49 366.56,559.63 321.13,527.31"];
	301	[height=0.5,
		pos="264.14,797.5",
		width=0.75];
	14 -- 301	[pos="523.9,697.51 470.41,718.1 340.79,768 287.55,788.48"];
	319	[height=0.5,
		pos="303.26,860.38",
		width=0.75];
	14 -- 319	[pos="528.81,701.61 483.33,733.62 367.63,815.07 322.09,847.13"];
	334	[height=0.5,
		pos="573.64,820.46",
		width=0.75];
	14 -- 334	[pos="551.14,706.49 556.14,731.78 565.15,777.42 570.12,802.6"];
	355	[height=0.5,
		pos="175.89,551.62",
		width=0.75];
	14 -- 355	[pos="523.76,679.64 456.78,654.99 267.31,585.26 199.99,560.49"];
	210 -- 211	[pos="335.35,903.18 416.91,870.45 689.39,761.1 771.02,728.34"];
	213	[height=0.5,
		pos="112.83,870.47",
		width=0.75];
	212 -- 213	[pos="231.55,967.03 205.55,945.88 156.51,906 130.34,884.71"];
	215 -- 216	[pos="389.7,837.55 455.35,784.64 687.75,597.32 753.56,544.27"];
	218	[height=0.5,
		pos="1259.4,859.14",
		width=0.75];
	217 -- 218	[pos="586.43,1038.1 695.48,1009.1 1125.2,894.83 1234.2,865.85"];
	220	[height=0.5,
		pos="1364.1,235.59",
		width=0.75];
	219 -- 220	[pos="879.27,262.18 967.96,257.32 1248.4,241.94 1337,237.08"];
	223	[height=0.5,
		pos="628.04,18",
		width=0.75];
	222 -- 223	[pos="682.75,164.91 670.96,133.24 646.31,67.051 634.55,35.479"];
	226	[height=0.5,
		pos="174.91,871.36",
		width=0.75];
	225 -- 226	[pos="388.99,443.46 353.58,514.23 219.18,782.88 183.59,854"];
	230	[height=0.5,
		pos="337.99,1066.7",
		width=0.75];
	229 -- 230	[pos="485.33,526.78 462.4,610.79 365.75,964.95 342.86,1048.8"];
	233	[height=0.5,
		pos="1345.1,722.29",
		width=0.75];
	232 -- 233	[pos="869.46,421.86 949,472.1 1245.7,659.49 1325.3,709.79"];
	234 -- 235	[pos="765.6,379.63 818,415.89 964.28,517.11 1016.8,553.42"];
	236 -- 237	[pos="757.72,287.72 806.37,309.95 920.19,361.97 968.47,384.04"];
	239	[height=0.5,
		pos="440.05,136.66",
		width=0.75];
	238 -- 239	[pos="540.74,171.32 518.79,163.77 486.51,152.66 464.45,145.06"];
	243	[height=0.5,
		pos="111.22,401.69",
		width=0.75];
	242 -- 243	[pos="429.06,338.19 365.1,350.97 201.24,383.71 137.31,396.48"];
	248 -- 249	[pos="1336.5,1001.3 1300.1,1033.3 1212.9,1109.9 1176.5,1141.9"];
	251	[height=0.5,
		pos="1489.1,1169.7",
		width=0.75];
	250 -- 251	[pos="1476.4,960.3 1479,1003 1485.4,1109.2 1488,1151.7"];
	11 -- 39	[pos="1141.1,783.91 1172.5,769.79 1229.1,744.33 1260.5,730.22"];
	11 -- 13	[pos="1097.5,782.77 1072.2,769.3 1030.2,746.9 1004.9,733.36"];
	11 -- 19	[pos="1137.3,780.96 1169.8,758.29 1236.2,711.93 1268.7,689.22"];
	11 -- 277	[pos="1113.4,776.18 1104.8,746.68 1087.7,688.12 1079.1,658.7"];
	313	[height=0.5,
		pos="1134.7,1020.6",
		width=0.75];
	11 -- 313	[pos="1119.9,812.19 1122.9,854.6 1130.4,959.82 1133.4,1002.3"];
	11 -- 332	[pos="1102.5,779.31 1078.1,756.96 1032,714.69 1007.7,692.4"];
	333	[height=0.5,
		pos="1057.5,952.51",
		width=0.75];
	11 -- 333	[pos="1111.8,811.6 1100.1,842.06 1076,904.35 1064.3,934.86"];
	335	[height=0.5,
		pos="1407.2,721.24",
		width=0.75];
	11 -- 335	[pos="1143.9,787.64 1198.5,773.86 1326.7,741.53 1381.5,727.7"];
	11 -- 338	[pos="1097.5,805.53 1074.7,817.99 1038.5,837.76 1015.6,850.24"];
	11 -- 339	[pos="1127.3,776.96 1143.3,745.86 1177,680.28 1193,648.98"];
	340	[height=0.5,
		pos="1290.9,947.58",
		width=0.75];
	11 -- 340	[pos="1134.8,808.48 1167.6,837.74 1241.7,903.73 1274.6,933.06"];
	70	[height=0.5,
		pos="1420.8,765.32",
		width=0.75];
	11 -- 70	[pos="1145.4,791.49 1202.8,786.04 1336.8,773.31 1394.1,767.86"];
	100	[height=0.5,
		pos="1369.5,853.47",
		width=0.75];
	11 -- 100	[pos="1144.5,800.17 1192.7,811.59 1295.6,835.98 1343.7,847.37"];
	134	[height=0.5,
		pos="1447.6,677.19",
		width=0.75];
	11 -- 134	[pos="1142.5,785.54 1203.3,763.95 1363.1,707.21 1423.8,685.66"];
	169	[height=0.5,
		pos="1382.9,897.65",
		width=0.75];
	11 -- 169	[pos="1142,803.23 1192.2,822.89 1309.4,868.83 1359.5,888.48"];
	203	[height=0.5,
		pos="1228.8,990.85",
		width=0.75];
	11 -- 203	[pos="1128.2,811.16 1149.1,848.47 1198.5,936.75 1219.3,973.91"];
	11 -- 233	[pos="1143.3,786.22 1186.8,772.42 1276.9,743.89 1320.5,730.09"];
	254	[height=0.5,
		pos="1507.6,265.23",
		width=0.75];
	253 -- 254	[pos="1515.7,573.53 1514.2,516.62 1509.6,340.98 1508.1,283.59"];
	258	[height=0.5,
		pos="1574.6,544.03",
		width=0.75];
	257 -- 258	[pos="1571.9,708.09 1572.5,673.16 1573.7,596.96 1574.3,562.09"];
	261	[height=0.5,
		pos="797.81,1129.8",
		width=0.75];
	260 -- 261	[pos="1268.2,913.74 1186,951.5 902.07,1081.9 820.11,1119.6"];
	265 -- 266	[pos="1415.6,588.45 1379.6,552.67 1289.1,462.7 1253.1,426.98"];
	267 -- 268	[pos="1198.3,952.97 1126.9,970.15 926.13,1018.5 854.83,1035.6"];
	19 -- 187	[pos="1279.3,693.5 1259.6,735.69 1209.4,843.04 1189.7,885.3"];
	19 -- 246	[pos="1270.5,662.05 1224.4,624.06 1097.6,519.55 1051.3,481.32"];
	19 -- 384	[pos="1279.3,658.69 1263.2,624.54 1227.8,549.16 1211.8,515.17"];
	19 -- 52	[pos="1302,660.45 1340.7,618.79 1445.9,505.48 1484.4,464.04"];
	19 -- 83	[pos="1298,659.36 1313.3,634.83 1341.7,589.38 1357.1,564.85"];
	112	[height=0.5,
		pos="1512.6,532.63",
		width=0.75];
	19 -- 112	[pos="1307.1,663.61 1349.6,636.48 1450.2,572.38 1492.9,545.19"];
	152	[height=0.5,
		pos="1490.9,354.87",
		width=0.75];
	19 -- 152	[pos="1298.1,659.27 1333.3,603.76 1445.4,426.79 1480.4,371.52"];
	19 -- 218	[pos="1284.7,694.31 1279.3,729.4 1267.6,805.97 1262.2,841"];
	293	[height=0.5,
		pos="1428.3,347.7",
		width=0.75];
	19 -- 293	[pos="1295.1,658.43 1319.6,601.28 1396.6,421.75 1420.9,365.05"];
	312	[height=0.5,
		pos="1379.4,809.33",
		width=0.75];
	19 -- 312	[pos="1298.9,692.7 1316.7,718.37 1350.5,767.39 1368.1,792.94"];
	331	[height=0.5,
		pos="1509.6,699.52",
		width=0.75];
	19 -- 331	[pos="1314.3,678.92 1357,683.42 1440,692.17 1482.7,696.68"];
	351	[height=0.5,
		pos="1487.2,404.49",
		width=0.75];
	19 -- 351	[pos="1299.4,659.91 1334.8,611.72 1439.4,469.45 1475.1,420.92"];
	364	[height=0.5,
		pos="1445.4,515.42",
		width=0.75];
	19 -- 364	[pos="1302.3,660.97 1332.4,630.35 1400.3,561.3 1430.5,530.61"];
	379	[height=0.5,
		pos="1275.2,500.05",
		width=0.75];
	19 -- 379	[pos="1286.2,657.91 1283.8,624.09 1278.8,551.87 1276.4,518.13"];
	387	[height=0.5,
		pos="1374.4,489.03",
		width=0.75];
	19 -- 387	[pos="1295.5,658.83 1312.1,623.19 1349.8,541.85 1366.4,506.25"];
	391	[height=0.5,
		pos="1513.9,636.17",
		width=0.75];
	19 -- 391	[pos="1313.9,671.43 1357.5,663.74 1444.1,648.47 1487.6,640.8"];
	270	[height=0.5,
		pos="1526.8,309.9",
		width=0.75];
	269 -- 270	[pos="1049.1,229.55 1136.1,244.18 1413.3,290.81 1500.4,305.46"];
	274	[height=0.5,
		pos="165.57,976.12",
		width=0.75];
	273 -- 274	[pos="411.1,487.44 372.21,564.84 213.05,881.62 174.17,959"];
	280	[height=0.5,
		pos="1159.6,185.27",
		width=0.75];
	279 -- 280	[pos="869.47,215.6 929.15,209.36 1072.7,194.36 1132.6,188.09"];
	282 -- 283	[pos="508.71,358.63 466.75,390.28 362.67,468.79 320.63,500.5"];
	285	[height=0.5,
		pos="242.84,288.72",
		width=0.75];
	284 -- 285	[pos="601.03,211.63 531.17,226.66 338.8,268.06 268.77,283.14"];
	288	[height=0.5,
		pos="934.39,47.749",
		width=0.75];
	287 -- 288	[pos="828.21,158.01 851.44,133.89 896.13,87.482 919.43,63.285"];
	292 -- 293	[pos="933.95,224.41 1022.2,246.42 1314.8,319.38 1402.9,341.38"];
	10 -- 38	[pos="931.71,1118.4 945.17,1083.3 975.18,1005 988.61,969.99"];
	10 -- 66	[pos="906.65,1122.6 871.39,1096.7 794.44,1040.2 759.23,1014.4"];
	10 -- 313	[pos="945.84,1124.5 985.93,1102.4 1073.3,1054.3 1113.6,1032.2"];
	314	[height=0.5,
		pos="586.71,1157.5",
		width=0.75];
	10 -- 314	[pos="897.86,1137.7 834.52,1141.8 677.41,1151.8 613.94,1155.8"];
	10 -- 316	[pos="925.8,1117.9 927.39,1082.9 930.87,1006.7 932.47,971.81"];
	317	[height=0.5,
		pos="621.32,1295.7",
		width=0.75];
	10 -- 317	[pos="903.62,1147.2 847.86,1176.6 698.38,1255.2 642.65,1284.5"];
	320	[height=0.5,
		pos="1120.3,1275.5",
		width=0.75];
	10 -- 320	[pos="943.69,1149.4 981.02,1176 1064.3,1235.5 1101.6,1262.2"];
	323	[height=0.5,
		pos="713.37,1180.6",
		width=0.75];
	10 -- 323	[pos="899.02,1141.5 858.3,1150 779.85,1166.6 739.2,1175.1"];
	10 -- 325	[pos="927.81,1117.9 934.59,1074.9 951.64,966.79 958.41,923.86"];
	326	[height=0.5,
		pos="784.92,1358.8",
		width=0.75];
	10 -- 326	[pos="914.44,1152.7 888.42,1194.1 821.33,1300.9 795.38,1342.2"];
	329	[height=0.5,
		pos="1249.4,1238.4",
		width=0.75];
	10 -- 329	[pos="949.62,1143.8 1009.9,1162.8 1164.5,1211.6 1224.8,1230.7"];
	96	[height=0.5,
		pos="974.62,1365.3",
		width=0.75];
	10 -- 96	[pos="928.86,1154 938.15,1196.9 961.48,1304.6 970.74,1347.4"];
	131	[height=0.5,
		pos="589.24,1202.5",
		width=0.75];
	10 -- 131	[pos="898.9,1141.2 836.35,1153.6 678.29,1184.9 615.52,1197.3"];
	165	[height=0.5,
		pos="1037.8,1349.1",
		width=0.75];
	10 -- 165	[pos="934.01,1153.1 955.15,1193 1007.6,1292 1028.7,1331.9"];
	200	[height=0.5,
		pos="784.09,1403.5",
		width=0.75];
	10 -- 200	[pos="915.94,1153.1 890.49,1201.4 818.39,1338.3 793.04,1386.5"];
	231	[height=0.5,
		pos="674.47,1249.2",
		width=0.75];
	10 -- 231	[pos="902.3,1146.2 854.6,1167.8 744.4,1217.6 696.91,1239.1"];
	252	[height=0.5,
		pos="1182.7,1281.1",
		width=0.75];
	10 -- 252	[pos="945.62,1147.6 993.87,1174.8 1113.6,1242.2 1161.9,1269.4"];
	276	[height=0.5,
		pos="813.06,1314.5",
		width=0.75];
	10 -- 276	[pos="914.44,1152.8 893.06,1186.9 844.77,1263.9 823.48,1297.9"];
	294 -- 295	[pos="889.27,1074.6 864.27,1025.6 793.41,886.78 768.49,837.97"];
	296 -- 297	[pos="1078.8,1101.5 1075.4,1054.4 1066.6,929.55 1063.3,882.6"];
	299	[height=0.5,
		pos="503.32,1378.7",
		width=0.75];
	298 -- 299	[pos="813.56,1267.9 751.88,1289.9 588.58,1348.2 527.14,1370.2"];
	302 -- 303	[pos="1074.1,1052.5 1081.3,994.41 1103.8,814.94 1111,756.95"];
	305	[height=0.5,
		pos="457.51,1218",
		width=0.75];
	304 -- 305	[pos="944.06,1211.2 855.06,1212.4 573.62,1216.4 484.71,1217.7"];
	308	[height=0.5,
		pos="1452.8,1085.9",
		width=0.75];
	307 -- 308	[pos="1306.2,1156.4 1338.5,1140.8 1398.4,1112 1430.7,1096.5"];
	311 -- 312	[pos="1244,1061.6 1270.2,1012.9 1344.2,874.98 1370.2,826.46"];
	314 -- 315	[pos="583.89,1139.4 573.9,1075.2 540.29,859.05 530.28,794.68"];
	318	[height=0.5,
		pos="310.28,1202.9",
		width=0.75];
	317 -- 318	[pos="596.66,1288.4 538.46,1271 393.15,1227.6 334.95,1210.2"];
	321	[height=0.5,
		pos="1352.5,1126.5",
		width=0.75];
	320 -- 321	[pos="1140.1,1262.8 1183.9,1234.6 1288.9,1167.3 1332.8,1139.1"];
	323 -- 324	[pos="709.7,1162.6 699.72,1113.9 672.23,979.61 662.27,930.97"];
	327	[height=0.5,
		pos="475.34,1334.5",
		width=0.75];
	326 -- 327	[pos="757.99,1356.7 699.44,1352.1 561.13,1341.3 502.43,1336.7"];
	330	[height=0.5,
		pos="1414.6,1130",
		width=0.75];
	329 -- 330	[pos="1268.6,1225.8 1300.4,1205 1363.4,1163.7 1395.2,1142.8"];
	333 -- 334	[pos="1032.5,945.69 949.28,922.98 682.19,850.09 598.78,827.32"];
	336	[height=0.5,
		pos="1549.3,399.85",
		width=0.75];
	335 -- 336	[pos="1414.8,703.96 1439.5,648.15 1516.9,473.14 1541.6,417.21"];
	341	[height=0.5,
		pos="1169.4,1231.3",
		width=0.75];
	340 -- 341	[pos="1283.5,964.9 1261.8,1015.5 1198.6,1163 1176.9,1213.8"];
	345	[height=0.5,
		pos="210.94,237.09",
		width=0.75];
	344 -- 345	[pos="545.11,395.39 481.41,365.22 297.35,278.03 233.26,247.66"];
	350	[height=0.5,
		pos="1281.5,191.94",
		width=0.75];
	349 -- 350	[pos="896.62,341.29 968.55,313.38 1185.8,229.09 1257.9,201.09"];
	353	[height=0.5,
		pos="519.66,114.58",
		width=0.75];
	352 -- 353	[pos="875.3,482.94 815.44,420.94 593.89,191.47 534.43,129.88"];
	357	[height=0.5,
		pos="921.19,167.75",
		width=0.75];
	356 -- 357	[pos="1086.9,480.35 1056.7,423.35 960.33,241.61 930.25,184.85"];
	360	[height=0.5,
		pos="1445.5,259.69",
		width=0.75];
	359 -- 360	[pos="1265.7,527.54 1299.5,477.28 1400.6,326.57 1434.4,276.25"];
	363 -- 364	[pos="1221.8,665.62 1267,635.23 1380.6,558.94 1426.1,528.38"];
	365 -- 366	[pos="299.62,560.89 367.73,536.26 561.87,466.05 630.16,441.36"];
	368	[height=0.5,
		pos="243.19,703.32",
		width=0.75];
	367 -- 368	[pos="266.93,655.92 262.28,665.21 256.56,676.62 251.9,685.92"];
	371	[height=0.5,
		pos="216.79,188.59",
		width=0.75];
	370 -- 371	[pos="191.29,463.16 196.17,410.56 210.2,259.5 215.09,206.91"];
	375	[height=0.5,
		pos="48.603,857.62",
		width=0.75];
	374 -- 375	[pos="222.33,759.86 184.89,780.93 106.61,824.98 69.273,845.99"];
	378 -- 379	[pos="637.68,554.29 744.85,545.17 1141.2,511.45 1248.3,502.33"];
	380 -- 381	[pos="1075.2,363.31 1092.1,355.38 1115.3,344.53 1132.2,336.62"];
	382 -- 383	[pos="718.16,709.99 687.8,756.72 601.9,888.9 571.38,935.86"];
	386 -- 387	[pos="932.55,542.27 1015.2,532.31 1265.1,502.2 1347.6,492.26"];
	390	[height=0.5,
		pos="1296.9,1075.1",
		width=0.75];
	389 -- 390	[pos="862.54,1085.2 944.36,1083.3 1188,1077.6 1269.7,1075.8"];
	21 -- 22	[pos="246.32,454.88 272.09,511.13 352.94,687.53 378.77,743.89"];
	25	[height=0.5,
		pos="1601.4,678.86",
		width=0.75];
	24 -- 25	[pos="1583.8,374.1 1587.1,430.96 1597.1,604.18 1600.3,660.77"];
	25 -- 26	[pos="1577.9,687.83 1498.1,718.33 1237.8,817.79 1157.9,848.31"];
	28 -- 29	[pos="833.59,134.8 758.81,152.49 540.9,204.05 466.2,221.73"];
	34 -- 35	[pos="1600.9,463.52 1586.1,520.29 1540.1,695.75 1525.3,752.44"];
	49 -- 50	[pos="1180.1,1035.6 1091.6,1038 811.79,1045.6 723.4,1048"];
	58	[height=0.5,
		pos="1425.2,1174.1",
		width=0.75];
	57 -- 58	[pos="581.64,1244.3 711.23,1233.5 1268.3,1187.2 1398.1,1176.4"];
	58 -- 59	[pos="1428.6,1155.9 1437.7,1105.5 1463.4,964.58 1472.5,914.53"];
	62	[height=0.5,
		pos="344.98,166.67",
		width=0.75];
	61 -- 62	[pos="187.27,388.6 218.21,345.06 302.23,226.83 333.26,183.16"];
	62 -- 63	[pos="371.94,164.57 439.09,159.36 613.2,145.84 680.53,140.61"];
	69	[height=0.5,
		pos="1620.1,499.33",
		width=0.75];
	68 -- 69	[pos="1319.2,250.12 1374.4,295.85 1547.6,439.27 1603,485.1"];
	69 -- 70	[pos="1608,515.57 1572.4,563.05 1468.8,701.31 1433.1,748.96"];
	73	[height=0.5,
		pos="921.22,120.86",
		width=0.75];
	72 -- 73	[pos="405.33,119.55 498.27,119.78 801.65,120.56 894.18,120.79"];
	73 -- 74	[pos="930.87,137.68 961.36,190.85 1055.4,354.93 1086.2,408.55"];
	77 -- 78	[pos="296.99,339.35 389.07,344.04 689.39,359.32 781.55,364.01"];
	80 -- 81	[pos="803.39,142.63 850.55,176.61 975.24,266.46 1022.6,300.58"];
	91	[height=0.5,
		pos="1163.5,1363.5",
		width=0.75];
	90 -- 91	[pos="1120.1,1332.7 1127.9,1338.3 1137.1,1344.8 1144.9,1350.3"];
	91 -- 92	[pos="1152.5,1347.1 1135.5,1321.8 1103.3,1273.6 1086.2,1248.1"];
	95	[height=0.5,
		pos="849.21,1399.7",
		width=0.75];
	94 -- 95	[pos="742.18,1371.6 765.56,1377.7 800.19,1386.8 823.67,1393"];
	95 -- 96	[pos="874.28,1392.9 896.16,1386.9 927.73,1378.2 949.59,1372.2"];
	99	[height=0.5,
		pos="1610.9,920.73",
		width=0.75];
	98 -- 99	[pos="1378.7,1069.3 1425.8,1039.2 1544.2,963.42 1591.2,933.33"];
	99 -- 100	[pos="1586,913.79 1539.7,900.9 1441.1,873.42 1394.6,860.48"];
	102 -- 103	[pos="961.55,190.91 901.68,220.66 734.55,303.74 674.59,333.54"];
	108	[height=0.5,
		pos="365.11,1246.9",
		width=0.75];
	107 -- 108	[pos="473.2,1282.5 449.47,1274.7 413.52,1262.9 389.69,1255"];
	108 -- 109	[pos="376.79,1230.6 398.06,1200.9 442.91,1138.3 464.31,1108.4"];
	111 -- 112	[pos="1568.2,616.38 1555.8,597.79 1535.9,567.82 1523.6,549.22"];
	119	[height=0.5,
		pos="465.66,68.276",
		width=0.75];
	118 -- 119	[pos="304.05,140.52 339.5,124.68 407.79,94.145 443.17,78.327"];
	119 -- 120	[pos="470.28,86.275 477.43,114.1 491.08,167.23 498.2,194.92"];
	123	[height=0.5,
		pos="1325,1211",
		width=0.75];
	122 -- 123	[pos="261.74,894.57 407.71,938.01 1154.4,1160.2 1300.2,1203.6"];
	123 -- 124	[pos="1330.7,1193.3 1346.6,1144.6 1390.9,1008.7 1406.8,959.88"];
	127	[height=0.5,
		pos="1541.7,911.6",
		width=0.75];
	126 -- 127	[pos="1178.1,247.22 1230,341.98 1480.5,799.81 1532.3,894.45"];
	127 -- 128	[pos="1523,924.81 1469.2,962.76 1314.9,1071.8 1261.2,1109.7"];
	130 -- 131	[pos="294.62,1037.8 351.75,1069.7 511.25,1158.9 568.47,1190.9"];
	133 -- 134	[pos="1278.5,297.32 1307.6,362.72 1410.7,594.23 1439.8,659.78"];
	136 -- 137	[pos="712.87,110.98 756.56,175.95 916.5,413.79 960.62,479.39"];
	141 -- 142	[pos="653.62,119.51 704.5,155.97 844.68,256.43 895.46,292.82"];
	147	[height=0.5,
		pos="103.53,944.98",
		width=0.75];
	146 -- 147	[pos="91.181,583.65 93.366,647.56 100.72,862.74 102.91,926.83"];
	147 -- 148	[pos="129.84,949.12 195.35,959.42 365.21,986.14 430.9,996.47"];
	151	[height=0.5,
		pos="1426.2,192.99",
		width=0.75];
	150 -- 151	[pos="881.82,84.271 976.83,103.25 1304.8,168.74 1400,187.77"];
	151 -- 152	[pos="1433.2,210.62 1445.7,241.76 1471.4,306.14 1483.9,337.26"];
	156	[height=0.5,
		pos="213.52,651.58",
		width=0.75];
	155 -- 156	[pos="332.17,1140.8 313.04,1061.9 236.87,747.87 217.84,669.42"];
	156 -- 157	[pos="227.44,636.03 270.59,587.81 401.86,441.16 445.22,392.71"];
	160 -- 161	[pos="325.78,964.95 362.49,886.27 514.2,561.14 550.98,482.32"];
	164	[height=0.5,
		pos="1040.1,1406.6",
		width=0.75];
	163 -- 164	[pos="934.76,1357.7 958.04,1368.5 994.39,1385.3 1017.7,1396.2"];
	164 -- 165	[pos="1039.4,1388.4 1039.1,1381.7 1038.8,1374.1 1038.6,1367.4"];
	168	[height=0.5,
		pos="1531.7,1045.3",
		width=0.75];
	167 -- 168	[pos="1426.5,1218.5 1448.4,1182.4 1499.6,1098.1 1521.4,1062.1"];
	168 -- 169	[pos="1516.6,1030.3 1488.1,1002 1426.6,940.98 1398.1,912.66"];
	174	[height=0.5,
		pos="1368.4,1030.8",
		width=0.75];
	173 -- 174	[pos="1355.4,1236.7 1358,1194.5 1364.6,1091.2 1367.2,1049.1"];
	174 -- 175	[pos="1355.6,1014.7 1323.8,974.85 1241.9,872.04 1210.2,832.28"];
	181	[height=0.5,
		pos="1436.6,471.41",
		width=0.75];
	180 -- 181	[pos="1468.3,1012.5 1463.3,927.78 1442.6,574 1437.7,489.56"];
	181 -- 182	[pos="1409.7,474.6 1310.1,486.42 963.23,527.59 863.75,539.39"];
	190 -- 191	[pos="915.03,1290.4 982.09,1244.5 1207.9,1090 1275.1,1044"];
	195	[height=0.5,
		pos="648.35,1424.1",
		width=0.75];
	194 -- 195	[pos="343.93,1300.5 404.18,1324.9 564.59,1390.1 624.94,1414.6"];
	195 -- 196	[pos="670.27,1413.4 729.72,1384.2 893.53,1303.9 952.87,1274.8"];
	199	[height=0.5,
		pos="485.47,1422.8",
		width=0.75];
	198 -- 199	[pos="266.46,1259.5 310.62,1292.4 422.96,1376.2 467.18,1409.1"];
	199 -- 200	[pos="512.49,1421 569.2,1417.3 700.06,1408.9 756.9,1405.2"];
	202 -- 203	[pos="787.22,1258.3 863.25,1212.2 1132.4,1049.3 1208.6,1003.1"];
	206	[height=0.5,
		pos="116.2,463.55",
		width=0.75];
	205 -- 206	[pos="31.67,791.94 47.084,732.05 96.227,541.13 111.57,481.51"];
	206 -- 207	[pos="143.1,460.59 214.07,452.8 405.71,431.74 476.47,423.96"];
	213 -- 214	[pos="139.48,866.85 207.18,857.67 385.17,833.52 452.76,824.35"];
	220 -- 221	[pos="1368.9,253.47 1384,310.09 1430.7,485.1 1445.8,541.65"];
	223 -- 224	[pos="639.42,34.651 662.91,69.024 716.52,147.48 739.99,181.82"];
	227	[height=0.5,
		pos="435.42,1285.2",
		width=0.75];
	226 -- 227	[pos="185.44,888.1 227.42,954.78 382.54,1201.2 424.75,1268.2"];
	227 -- 228	[pos="461.79,1280.7 536.05,1268.1 746.29,1232.4 820.6,1219.8"];
	230 -- 231	[pos="359.04,1078.1 419.46,1110.9 593.01,1205 653.43,1237.8"];
	240	[height=0.5,
		pos="180.23,292.97",
		width=0.75];
	239 -- 240	[pos="419.66,148.93 371.09,178.15 249,251.6 200.52,280.76"];
	240 -- 241	[pos="197.79,306.96 254.51,352.14 432.38,493.84 489.21,539.12"];
	244	[height=0.5,
		pos="112.55,826.38",
		width=0.75];
	243 -- 244	[pos="111.27,419.94 111.49,489.64 112.27,738.62 112.49,808.2"];
	244 -- 245	[pos="135.97,835.49 196.52,859.04 357.72,921.73 418.38,945.32"];
	251 -- 252	[pos="1465.3,1178.3 1408.2,1199.1 1264,1251.6 1206.7,1272.4"];
	255	[height=0.5,
		pos="1059,124.33",
		width=0.75];
	254 -- 255	[pos="1483.1,257.55 1405,233.01 1161.7,156.58 1083.5,132.02"];
	255 -- 256	[pos="1040.6,137.88 991.41,173.96 857.7,272.11 808.8,308"];
	258 -- 259	[pos="1550.1,552.15 1499.4,568.93 1383.8,607.22 1333.2,623.98"];
	261 -- 262	[pos="778.73,1116.8 702.65,1064.8 421.27,872.52 345.23,820.56"];
	271	[height=0.5,
		pos="1430.9,986.79",
		width=0.75];
	270 -- 271	[pos="1524.2,328.01 1510.6,423.98 1447.1,872.52 1433.4,968.63"];
	271 -- 272	[pos="1415.2,1001.7 1376.4,1038.5 1276.4,1133.4 1237.7,1170.1"];
	275	[height=0.5,
		pos="393.63,1329.4",
		width=0.75];
	274 -- 275	[pos="176.27,992.68 214.48,1051.9 344.09,1252.7 382.69,1312.5"];
	275 -- 276	[pos="420.82,1328.4 496.7,1325.7 710.12,1318.1 785.93,1315.4"];
	280 -- 281	[pos="1159.5,203.31 1159.2,252.13 1158.4,386.44 1158.1,435.58"];
	285 -- 286	[pos="255.03,305.16 295.23,359.41 423.43,532.4 463.46,586.41"];
	289	[height=0.5,
		pos="1180.2,107.87",
		width=0.75];
	288 -- 289	[pos="959.78,53.957 1006.9,65.477 1107.3,90.044 1154.6,101.61"];
	289 -- 290	[pos="1183.3,125.94 1188.8,158.45 1200.2,226.39 1205.7,258.8"];
	300	[height=0.5,
		pos="196,1135",
		width=0.75];
	299 -- 300	[pos="485.92,1364.9 431.95,1322.1 267.81,1192 213.59,1149"];
	300 -- 301	[pos="199.66,1116.9 211.49,1058.3 248.6,874.47 260.46,815.73"];
	305 -- 306	[pos="462.71,1200 480.21,1139.4 536.86,943.06 554.34,882.46"];
	309	[height=0.5,
		pos="1606.3,588.51",
		width=0.75];
	308 -- 309	[pos="1458.2,1068.2 1482.1,990.94 1576.9,683.62 1600.8,606.26"];
	309 -- 310	[pos="1587.4,575.26 1533.2,537.22 1377.7,427.96 1323.5,389.93"];
	318 -- 319	[pos="309.9,1184.4 308.68,1124.8 304.85,937.61 303.63,878.47"];
	321 -- 322	[pos="1346.8,1108.9 1325.1,1042.3 1248.5,806.9 1226.8,740.24"];
	327 -- 328	[pos="479.63,1316.6 488.61,1279.1 509.35,1192.4 518.35,1154.7"];
	330 -- 331	[pos="1418.6,1112.1 1434,1042.1 1490.2,787.7 1505.6,717.55"];
	336 -- 337	[pos="1522.6,397.08 1464.6,391.06 1327.5,376.83 1269.3,370.8"];
	341 -- 342	[pos="1144.5,1224 1066.4,1201 826.83,1130.6 748.98,1107.7"];
	346	[height=0.5,
		pos="126.3,507.59",
		width=0.75];
	345 -- 346	[pos="205.39,254.84 190.05,303.85 147.24,440.69 131.88,489.78"];
	346 -- 347	[pos="148.02,518.52 199.75,544.55 329.8,609.98 381.43,635.96"];
	350 -- 351	[pos="1296.3,207.23 1334.2,246.45 1434.7,350.28 1472.5,389.34"];
	354	[height=0.5,
		pos="117.99,307.14",
		width=0.75];
	353 -- 354	[pos="497.49,125.21 427.27,158.87 210.22,262.93 140.09,296.55"];
	354 -- 355	[pos="122.25,325.12 132.96,370.33 160.91,488.38 171.63,533.62"];
	357 -- 358	[pos="906.31,183.32 855.09,236.9 686.49,413.27 635.68,466.42"];
	361	[height=0.5,
		pos="1351.8,159.11",
		width=0.75];
	360 -- 361	[pos="1430.8,243.98 1413.2,225.08 1383.9,193.56 1366.4,174.71"];
	361 -- 362	[pos="1331.4,171.36 1292.1,194.95 1206.3,246.44 1167.1,270"];
	368 -- 369	[pos="270.43,701.45 304.84,699.1 363.69,695.07 398.04,692.72"];
	372	[height=0.5,
		pos="639.77,62.038",
		width=0.75];
	371 -- 372	[pos="241.67,181.15 316.66,158.71 539.96,91.898 614.92,69.472"];
	372 -- 373	[pos="659.84,74.553 717.46,110.48 882.95,213.68 940.56,249.61"];
	376	[height=0.5,
		pos="197.73,1091",
		width=0.75];
	375 -- 376	[pos="59.328,874.4 86.842,917.46 159.69,1031.5 187.1,1074.4"];
	376 -- 377	[pos="224.05,1086.5 274.74,1077.9 385.35,1059 435.95,1050.4"];
	390 -- 391	[pos="1305.4,1057.9 1340,987.86 1470.2,724.45 1505.2,653.74"];
}
