graph {
	graph [bb="0,0,1554.3,1231.9",
		outputorder=edgesfirst,
		overlap=prism,
		size="50,50!",
		start=2116
	];
	node [label="\N"];
	0	[height=0.5,
		pos="919.72,599.4",
		width=0.75];
	42	[height=0.5,
		pos="1113.2,666.25",
		width=0.75];
	0 -- 42	[pos="943.84,607.73 981.02,620.58 1051.9,645.08 1089.1,657.92"];
	1	[height=0.5,
		pos="856.5,642.2",
		width=0.75];
	0 -- 1	[pos="900.75,612.24 892.75,617.66 883.45,623.95 875.45,629.37"];
	2	[height=0.5,
		pos="756.96,465.45",
		width=0.75];
	0 -- 2	[pos="902.61,585.32 871.43,559.66 805.7,505.56 774.33,479.74"];
	153	[height=0.5,
		pos="840.21,506.78",
		width=0.75];
	0 -- 153	[pos="906.23,583.69 891.61,566.66 868.41,539.63 853.76,522.57"];
	3	[height=0.5,
		pos="704.43,653.45",
		width=0.75];
	0 -- 3	[pos="894.18,605.81 852.74,616.22 771.35,636.65 729.94,647.04"];
	6	[height=0.5,
		pos="794.36,617.88",
		width=0.75];
	0 -- 6	[pos="893.14,603.32 871.86,606.46 842.17,610.83 820.91,613.97"];
	4	[height=0.5,
		pos="964.28,466.21",
		width=0.75];
	0 -- 4	[pos="925.64,581.72 934.16,556.24 949.8,509.49 958.34,483.97"];
	5	[height=0.5,
		pos="722.44,511.35",
		width=0.75];
	0 -- 5	[pos="897.09,589.3 859.14,572.36 783.09,538.42 745.11,521.47"];
	7	[height=0.5,
		pos="836.93,418.76",
		width=0.75];
	0 -- 7	[pos="911.78,582.08 895.96,547.55 860.65,470.51 844.85,436.03"];
	201	[height=0.5,
		pos="1175.3,669.58",
		width=0.75];
	0 -- 201	[pos="944.69,606.26 993.54,619.68 1101.3,649.26 1150.2,662.69"];
	12	[height=0.5,
		pos="877.3,821.02",
		width=0.75];
	0 -- 12	[pos="916.25,617.54 908.28,659.2 888.73,761.34 880.76,802.95"];
	19	[height=0.5,
		pos="966.69,419.9",
		width=0.75];
	0 -- 19	[pos="924.4,581.54 933.4,547.13 953.05,472.05 962.03,437.7"];
	229	[height=0.5,
		pos="902.25,509.76",
		width=0.75];
	0 -- 229	[pos="916.18,581.26 913.15,565.71 908.81,543.42 905.78,527.88"];
	11	[height=0.5,
		pos="815.29,819.54",
		width=0.75];
	0 -- 11	[pos="911.53,616.68 892,657.83 842.93,761.27 823.44,802.34"];
	113	[height=0.5,
		pos="937.54,757.44",
		width=0.75];
	0 -- 113	[pos="921.76,617.53 925.18,647.86 932.02,708.53 935.46,739.04"];
	255	[height=0.5,
		pos="846.98,573.86",
		width=0.75];
	0 -- 255	[pos="895.5,590.9 887.73,588.17 879.13,585.15 871.35,582.42"];
	138	[height=0.5,
		pos="1069,755",
		width=0.75];
	0 -- 138	[pos="934.31,614.61 962.77,644.28 1025.4,709.61 1054.1,739.51"];
	13	[height=0.5,
		pos="1092.3,466.18",
		width=0.75];
	0 -- 13	[pos="937.54,585.65 970.7,560.05 1041.5,505.4 1074.6,479.86"];
	120	[height=0.5,
		pos="971.49,510.21",
		width=0.75];
	0 -- 120	[pos="929.7,582.21 938.93,566.31 952.56,542.83 961.72,527.05"];
	152	[height=0.5,
		pos="1014.8,554.25",
		width=0.75];
	0 -- 152	[pos="941.78,588.93 957.04,581.69 977.27,572.09 992.57,564.82"];
	17	[height=0.5,
		pos="1286.9,610.62",
		width=0.75];
	0 -- 17	[pos="946.72,600.23 1014.6,602.3 1191.9,607.72 1259.8,609.79"];
	144	[height=0.5,
		pos="1028.8,460.59",
		width=0.75];
	0 -- 144	[pos="932.44,583.21 953.45,556.46 995.16,503.36 1016.1,476.68"];
	39	[height=0.5,
		pos="939.36,808.96",
		width=0.75];
	0 -- 39	[pos="921.43,617.63 925.15,657.37 933.96,751.37 937.67,790.92"];
	29	[height=0.5,
		pos="771.53,661.9",
		width=0.75];
	0 -- 29	[pos="896.89,609.03 869.12,620.74 822.52,640.4 794.63,652.16"];
	31	[height=0.5,
		pos="999.58,750.41",
		width=0.75];
	0 -- 31	[pos="928.73,616.43 944.06,645.43 975.08,704.09 990.48,733.21"];
	32	[height=0.5,
		pos="978.33,682.56",
		width=0.75];
	0 -- 32	[pos="931.3,615.83 941.58,630.41 956.51,651.6 966.78,666.16"];
	54	[height=0.5,
		pos="1162.4,719.56",
		width=0.75];
	0 -- 54	[pos="941.68,610.28 987.88,633.15 1094.6,686.02 1140.6,708.79"];
	36	[height=0.5,
		pos="731.49,604.03",
		width=0.75];
	0 -- 36	[pos="892.35,600.08 856.56,600.95 794.24,602.48 758.59,603.36"];
	38	[height=0.5,
		pos="1264.4,521.09",
		width=0.75];
	0 -- 38	[pos="945.35,593.58 1009.2,579.08 1174.6,541.49 1238.6,526.95"];
	155	[height=0.5,
		pos="1132,605.16",
		width=0.75];
	0 -- 155	[pos="947.03,600.14 987.79,601.25 1064.1,603.31 1104.8,604.42"];
	237	[height=0.5,
		pos="834.05,462.76",
		width=0.75];
	0 -- 237	[pos="909.22,582.65 892.77,556.42 861.14,505.96 844.64,479.65"];
	283	[height=0.5,
		pos="873.55,733.15",
		width=0.75];
	0 -- 283	[pos="913.59,617.16 904.76,642.75 888.55,689.7 879.7,715.32"];
	146	[height=0.5,
		pos="1061.6,710.29",
		width=0.75];
	0 -- 146	[pos="937.4,613.22 964.59,634.47 1016.4,674.94 1043.7,696.3"];
	49	[height=0.5,
		pos="1072.5,821.4",
		width=0.75];
	0 -- 49	[pos="931.2,616.09 959.58,657.33 1032.8,763.7 1061.1,804.83"];
	106	[height=0.5,
		pos="1191,545.66",
		width=0.75];
	0 -- 106	[pos="945.73,594.25 997.57,583.98 1113.2,561.06 1165,550.8"];
	140	[height=0.5,
		pos="1042.7,642.28",
		width=0.75];
	0 -- 140	[pos="943.73,607.77 965.41,615.33 997.13,626.39 1018.8,633.93"];
	86	[height=0.5,
		pos="1013.3,598.27",
		width=0.75];
	0 -- 86	[pos="946.78,599.07 959.2,598.92 973.88,598.75 986.28,598.6"];
	242	[height=0.5,
		pos="1001.4,794.41",
		width=0.75];
	0 -- 242	[pos="927.11,617.05 942.66,654.18 978.59,739.97 994.07,776.94"];
	95	[height=0.5,
		pos="1237.3,711.66",
		width=0.75];
	0 -- 95	[pos="943.59,607.84 1002.4,628.64 1154,682.22 1213.1,703.12"];
	104	[height=0.5,
		pos="902.22,464.7",
		width=0.75];
	0 -- 104	[pos="917.36,581.24 914.02,555.53 907.95,508.79 904.6,483.01"];
	193	[height=0.5,
		pos="1055.2,510.2",
		width=0.75];
	0 -- 193	[pos="939.13,586.62 964.87,569.66 1010.1,539.9 1035.8,522.96"];
	262	[height=0.5,
		pos="784.49,550.8",
		width=0.75];
	0 -- 262	[pos="895.86,590.83 871.29,582 833.22,568.31 808.57,559.46"];
	161	[height=0.5,
		pos="1224.8,625.54",
		width=0.75];
	0 -- 161	[pos="946.53,601.7 1004.2,606.65 1139.7,618.26 1197.7,623.22"];
	176	[height=0.5,
		pos="809.39,709.24",
		width=0.75];
	0 -- 176	[pos="904.38,614.68 883.3,635.66 845.61,673.18 824.6,694.1"];
	42 -- 146	[pos="1096.3,680.67 1090.6,685.59 1084.1,691.08 1078.4,695.99"];
	42 -- 86	[pos="1093.9,653.15 1076.3,641.11 1050.2,623.36 1032.5,611.34"];
	158	[height=0.5,
		pos="1220.9,821.92",
		width=0.75];
	42 -- 158	[pos="1124.5,682.62 1145.2,712.44 1188.6,775.3 1209.4,805.3"];
	195	[height=0.5,
		pos="1233.9,777.89",
		width=0.75];
	42 -- 195	[pos="1129.5,681.31 1152.7,702.73 1194.9,741.78 1217.9,763.07"];
	1 -- 42	[pos="883.49,644.73 932.79,649.35 1036.9,659.1 1086.2,663.72"];
	10	[height=0.5,
		pos="735.85,705.91",
		width=0.75];
	1 -- 10	[pos="835.21,653.44 813.29,665.02 779.32,682.96 757.33,694.57"];
	1 -- 3	[pos="829.66,644.18 802.03,646.23 759.22,649.4 731.51,651.45"];
	1 -- 6	[pos="833.01,633 828.06,631.07 822.84,629.02 817.89,627.09"];
	1 -- 5	[pos="841.12,627.19 815.4,602.08 763.93,551.84 738.05,526.59"];
	167	[height=0.5,
		pos="668.84,703.1",
		width=0.75];
	1 -- 167	[pos="831.96,650.16 796,661.83 729.35,683.47 693.38,695.14"];
	1 -- 229	[pos="862.57,624.61 871.32,599.28 887.38,552.79 896.15,527.42"];
	37	[height=0.5,
		pos="650.19,603.06",
		width=0.75];
	1 -- 37	[pos="830.37,637.24 790.79,629.73 716.08,615.56 676.44,608.04"];
	1 -- 255	[pos="854,624.24 852.61,614.28 850.89,601.92 849.5,591.93"];
	23	[height=0.5,
		pos="1147.1,818.86",
		width=0.75];
	1 -- 23	[pos="876.47,654.34 929.55,686.61 1073.7,774.26 1127,806.63"];
	269	[height=0.5,
		pos="1299.3,741.58",
		width=0.75];
	1 -- 269	[pos="882.22,647.97 960.48,665.54 1195.2,718.21 1273.5,735.79"];
	137	[height=0.5,
		pos="1108.2,561.14",
		width=0.75];
	1 -- 137	[pos="881.09,634.28 929.32,618.74 1035.8,584.44 1083.8,568.97"];
	1 -- 32	[pos="880.86,650.27 902.11,657.31 932.77,667.47 954.01,674.5"];
	1 -- 146	[pos="880.83,650.28 920.3,663.38 997.84,689.12 1037.3,702.22"];
	1 -- 86	[pos="881.69,635.14 910.95,626.94 958.92,613.5 988.16,605.31"];
	1 -- 158	[pos="878.47,653.04 943.4,685.06 1133.9,779.02 1198.9,811.06"];
	1 -- 195	[pos="880.39,650.79 948.29,675.2 1141.8,744.78 1209.9,769.25"];
	233	[height=0.5,
		pos="624.99,659.07",
		width=0.75];
	1 -- 233	[pos="829.49,644.17 785,647.41 696.8,653.84 652.19,657.09"];
	10 -- 37	[pos="722.46,689.84 706.37,670.52 679.53,638.29 663.48,619.02"];
	10 -- 255	[pos="749.25,689.99 770.61,664.6 812.14,615.26 833.53,589.85"];
	2 -- 153	[pos="778.83,476.31 791.07,482.38 806.27,489.93 818.48,495.99"];
	2 -- 3	[pos="751.92,483.47 741.85,519.5 719.36,600 709.37,635.75"];
	66	[height=0.5,
		pos="381.35,458.89",
		width=0.75];
	2 -- 66	[pos="729.94,464.97 660.73,463.77 477.6,460.57 408.37,459.36"];
	2 -- 4	[pos="784.06,465.55 823.79,465.69 897.43,465.96 937.17,466.11"];
	79	[height=0.5,
		pos="672.96,461.18",
		width=0.75];
	2 -- 79	[pos="729.92,464.07 720.32,463.59 709.53,463.04 699.95,462.55"];
	2 -- 7	[pos="777.55,453.42 789.49,446.45 804.48,437.71 816.41,430.74"];
	198	[height=0.5,
		pos="580.84,441.72",
		width=0.75];
	2 -- 198	[pos="730.21,461.84 697.01,457.37 640.73,449.79 607.55,445.32"];
	9	[height=0.5,
		pos="521.58,334.26",
		width=0.75];
	2 -- 9	[pos="736.07,453.8 691.4,428.91 587.05,370.75 542.43,345.88"];
	157	[height=0.5,
		pos="763.01,372.76",
		width=0.75];
	2 -- 157	[pos="758.15,447.13 759.21,430.88 760.76,407.27 761.82,391.03"];
	2 -- 13	[pos="784.12,465.5 846.96,465.64 1001.8,465.98 1064.9,466.12"];
	15	[height=0.5,
		pos="961,375.19",
		width=0.75];
	2 -- 15	[pos="779.57,455.44 818.79,438.09 898.99,402.62 938.28,385.24"];
	2 -- 120	[pos="782.83,470.85 824.07,479.45 904.23,496.18 945.52,504.79"];
	20	[height=0.5,
		pos="532.03,558.96",
		width=0.75];
	2 -- 20	[pos="733.73,475.1 690.52,493.07 598.24,531.43 555.12,549.35"];
	57	[height=0.5,
		pos="692.69,555.39",
		width=0.75];
	2 -- 57	[pos="745.17,481.94 733.57,498.17 715.97,522.81 704.4,539"];
	71	[height=0.5,
		pos="626.19,246.26",
		width=0.75];
	2 -- 71	[pos="746.91,448.61 722.57,407.81 660.65,304.01 636.27,263.15"];
	46	[height=0.5,
		pos="515.31,290.24",
		width=0.75];
	2 -- 46	[pos="738.4,451.99 693.3,419.3 578.41,336 533.6,303.51"];
	27	[height=0.5,
		pos="476.87,514.93",
		width=0.75];
	2 -- 27	[pos="730.61,470.1 677.23,479.53 556.85,500.8 503.36,510.25"];
	33	[height=0.5,
		pos="756.92,240.42",
		width=0.75];
	2 -- 33	[pos="756.95,447.41 756.95,405.28 756.93,300.76 756.92,258.54"];
	2 -- 237	[pos="783.92,464.51 791.39,464.25 799.5,463.96 806.97,463.7"];
	53	[height=0.5,
		pos="752.97,284.44",
		width=0.75];
	2 -- 53	[pos="756.56,447.43 755.8,412.82 754.14,337.41 753.37,302.66"];
	210	[height=0.5,
		pos="630.63,557.93",
		width=0.75];
	2 -- 210	[pos="738.59,478.89 714.64,496.43 672.99,526.92 649.02,544.46"];
	126	[height=0.5,
		pos="569.01,513.5",
		width=0.75];
	2 -- 126	[pos="731.61,471.93 695.64,481.12 630.17,497.86 594.26,507.04"];
	72	[height=0.5,
		pos="898.98,407.75",
		width=0.75];
	2 -- 72	[pos="780.09,456.05 806.5,445.32 849.45,427.87 875.86,417.15"];
	88	[height=0.5,
		pos="506.44,470.91",
		width=0.75];
	2 -- 88	[pos="729.67,466.04 681.48,467.09 581.86,469.26 533.7,470.31"];
	217	[height=0.5,
		pos="697.51,328.45",
		width=0.75];
	2 -- 217	[pos="749.43,448.09 738.05,421.89 716.61,372.47 705.16,346.09"];
	2 -- 262	[pos="762.66,483.13 767.39,497.78 774.07,518.5 778.79,533.14"];
	177	[height=0.5,
		pos="635.45,348.92",
		width=0.75];
	2 -- 177	[pos="741.07,450.21 717.66,427.76 674.15,386.03 650.96,363.79"];
	197	[height=0.5,
		pos="814.91,328.48",
		width=0.75];
	2 -- 197	[pos="764.3,448.1 775.38,421.9 796.28,372.49 807.44,346.12"];
	215	[height=0.5,
		pos="454.75,422.31",
		width=0.75];
	2 -- 215	[pos="730.4,461.66 673.22,453.49 538.99,434.33 481.57,426.14"];
	273	[height=0.5,
		pos="488.84,378.28",
		width=0.75];
	2 -- 273	[pos="732.21,457.4 681.01,440.75 563.96,402.7 513.14,386.18"];
	153 -- 262	[pos="822.58,520.71 816.08,525.85 808.71,531.67 802.2,536.81"];
	3 -- 10	[pos="714.54,670.34 718.13,676.33 722.17,683.07 725.75,689.06"];
	47	[height=0.5,
		pos="504.7,735.04",
		width=0.75];
	3 -- 47	[pos="681.13,662.97 642.64,678.69 566.24,709.9 527.85,725.58"];
	3 -- 6	[pos="728.06,644.1 741.28,638.87 757.7,632.38 770.89,627.16"];
	3 -- 5	[pos="706.71,635.45 710.16,608.27 716.65,557.01 720.12,529.65"];
	204	[height=0.5,
		pos="477.45,602.99",
		width=0.75];
	3 -- 204	[pos="678.39,647.66 634.61,637.93 546.76,618.4 503.18,608.71"];
	3 -- 12	[pos="719.77,668.32 752.49,700.04 828.84,774.04 861.75,805.94"];
	3 -- 167	[pos="692.78,669.71 688.88,675.14 684.54,681.19 680.64,686.64"];
	3 -- 37	[pos="688.45,638.6 681.45,632.1 673.25,624.49 666.25,617.98"];
	3 -- 11	[pos="715.46,669.98 736.71,701.82 783.08,771.29 804.3,803.07"];
	35	[height=0.5,
		pos="560.96,688.93",
		width=0.75];
	3 -- 35	[pos="679.11,659.71 653.05,666.16 612.65,676.15 586.51,682.62"];
	151	[height=0.5,
		pos="629.24,836.01",
		width=0.75];
	3 -- 151	[pos="697.22,670.95 682.85,705.85 650.78,783.71 636.43,818.56"];
	21	[height=0.5,
		pos="540.04,853.58",
		width=0.75];
	3 -- 21	[pos="691.25,669.49 660.4,707.05 583.74,800.38 553.05,837.74"];
	16	[height=0.5,
		pos="567.94,919.23",
		width=0.75];
	3 -- 16	[pos="695.68,670.48 671.09,718.37 601.51,853.86 576.79,902"];
	3 -- 20	[pos="683.29,641.86 650.11,623.68 586.19,588.64 553.07,570.49"];
	3 -- 57	[pos="702.28,635.46 700.17,617.88 696.98,591.25 694.87,573.6"];
	123	[height=0.5,
		pos="692.74,875.38",
		width=0.75];
	3 -- 123	[pos="703.47,671.61 701.28,713.33 695.89,815.61 693.69,857.27"];
	40	[height=0.5,
		pos="788.63,866.04",
		width=0.75];
	3 -- 40	[pos="711.46,671.21 727.35,711.33 765.86,808.56 781.68,848.48"];
	84	[height=0.5,
		pos="630.05,910.02",
		width=0.75];
	3 -- 84	[pos="699.2,671.49 685.51,718.71 648.75,845.53 635.17,892.34"];
	111	[height=0.5,
		pos="691.25,794.06",
		width=0.75];
	3 -- 111	[pos="702.73,671.54 700.2,698.54 695.46,749.07 692.94,776.03"];
	3 -- 27	[pos="684.24,641.16 641.05,614.87 540.17,553.46 497.02,527.19"];
	98	[height=0.5,
		pos="442.95,558.97",
		width=0.75];
	3 -- 98	[pos="680.3,644.73 630.49,626.73 516.79,585.65 467.02,567.67"];
	3 -- 29	[pos="731.33,656.84 735.71,657.39 740.24,657.96 744.62,658.51"];
	68	[height=0.5,
		pos="489.24,691.01",
		width=0.75];
	3 -- 68	[pos="678.04,658.05 636.63,665.28 556.84,679.21 515.5,686.43"];
	3 -- 36	[pos="713.74,636.44 716.43,631.53 719.37,626.16 722.07,621.23"];
	78	[height=0.5,
		pos="857.1,865.13",
		width=0.75];
	3 -- 78	[pos="716.16,669.71 744.57,709.11 816.88,809.36 845.34,848.82"];
	3 -- 283	[pos="726.54,663.87 758.95,679.14 819.02,707.45 851.43,722.73"];
	170	[height=0.5,
		pos="705.04,749.98",
		width=0.75];
	3 -- 170	[pos="704.54,671.61 704.65,688.86 704.82,714.67 704.93,731.9"];
	45	[height=0.5,
		pos="491.03,647.01",
		width=0.75];
	3 -- 45	[pos="677.4,652.63 636.47,651.4 559.18,649.06 518.18,647.83"];
	166	[height=0.5,
		pos="292.69,732.91",
		width=0.75];
	3 -- 166	[pos="678.36,658.48 604.2,672.79 392.66,713.62 318.65,727.9"];
	80	[height=0.5,
		pos="435.72,870.63",
		width=0.75];
	3 -- 80	[pos="687.21,667.36 638.79,706.5 501.81,817.22 453.14,856.55"];
	3 -- 210	[pos="691.91,637.24 678.34,619.68 656.81,591.81 643.21,574.21"];
	59	[height=0.5,
		pos="416.33,647.2",
		width=0.75];
	3 -- 59	[pos="677.33,652.86 622.42,651.67 498.59,648.98 443.57,647.79"];
	69	[height=0.5,
		pos="354.32,688.89",
		width=0.75];
	3 -- 69	[pos="677.54,656.17 612.37,662.77 446.56,679.55 381.3,686.16"];
	65	[height=0.5,
		pos="360.05,820.95",
		width=0.75];
	3 -- 65	[pos="682.36,664.18 620.16,694.44 443.91,780.16 381.93,810.31"];
	3 -- 126	[pos="689.68,638.2 663.63,611.28 609.78,555.63 583.74,528.72"];
	116	[height=0.5,
		pos="753.26,822.03",
		width=0.75];
	3 -- 116	[pos="709.56,671.17 718.94,703.55 738.74,771.9 748.12,804.29"];
	188	[height=0.5,
		pos="630.17,747.92",
		width=0.75];
	3 -- 188	[pos="691.83,669.47 678.18,686.85 656.51,714.41 642.83,731.82"];
	134	[height=0.5,
		pos="409.5,776.95",
		width=0.75];
	3 -- 134	[pos="681.29,663.14 626.15,686.23 487.56,744.26 432.54,767.3"];
	125	[height=0.5,
		pos="566.71,765.06",
		width=0.75];
	3 -- 125	[pos="687.27,667.36 660.88,688.74 610.61,729.48 584.09,750.97"];
	294	[height=0.5,
		pos="471.56,780.95",
		width=0.75];
	3 -- 294	[pos="683.35,664.99 639.13,689.2 537.09,745.07 492.76,769.34"];
	3 -- 233	[pos="677.54,655.35 669.25,655.94 660.14,656.58 651.86,657.17"];
	3 -- 176	[pos="725.67,664.74 743.88,674.42 769.98,688.29 788.18,697.97"];
	200	[height=0.5,
		pos="312.96,776.93",
		width=0.75];
	3 -- 200	[pos="679.94,661.17 609.64,683.35 407.73,747.04 337.44,769.21"];
	275	[height=0.5,
		pos="388.13,732.94",
		width=0.75];
	3 -- 275	[pos="679.08,659.82 619.86,674.7 472.95,711.62 413.6,726.53"];
	169	[height=0.5,
		pos="628.77,791.99",
		width=0.75];
	47 -- 169	[pos="527.16,745.35 549.65,755.68 584.04,771.46 606.47,781.76"];
	149	[height=0.5,
		pos="106,723.58",
		width=0.75];
	47 -- 149	[pos="477.61,734.26 404.87,732.17 205.91,726.45 133.13,724.36"];
	241	[height=0.5,
		pos="166.84,767.71",
		width=0.75];
	47 -- 241	[pos="477.9,737.63 414.69,743.74 256.85,759.01 193.64,765.12"];
	47 -- 200	[pos="478.84,740.69 442.14,748.71 375.35,763.3 338.71,771.3"];
	47 -- 275	[pos="477.66,734.55 458.96,734.21 434.18,733.77 415.42,733.43"];
	131	[height=0.5,
		pos="275.58,509.42",
		width=0.75];
	66 -- 131	[pos="359.18,469.48 341.12,478.11 315.77,490.22 297.72,498.84"];
	247	[height=0.5,
		pos="92.699,524.21",
		width=0.75];
	66 -- 247	[pos="355.73,464.69 301.1,477.05 173.63,505.89 118.67,518.33"];
	66 -- 126	[pos="406.27,466.14 442.16,476.59 508.04,495.76 543.99,506.22"];
	100	[height=0.5,
		pos="137.21,570.75",
		width=0.75];
	66 -- 100	[pos="358.82,469.22 312.31,490.52 206.15,539.16 159.69,560.45"];
	133	[height=0.5,
		pos="184.83,526.22",
		width=0.75];
	66 -- 133	[pos="357.25,467.15 319.53,480.07 246.96,504.93 209.12,517.9"];
	299	[height=0.5,
		pos="125,479.25",
		width=0.75];
	66 -- 299	[pos="354.4,461.03 305.17,464.94 201.23,473.2 151.98,477.11"];
	297	[height=0.5,
		pos="186.84,650.89",
		width=0.75];
	66 -- 297	[pos="366.09,473.96 329.73,509.85 238.32,600.07 202.03,635.89"];
	6 -- 167	[pos="775.3,630.82 751.71,646.84 711.76,673.96 688.08,690.04"];
	6 -- 35	[pos="769.39,625.48 724.46,639.16 630.55,667.75 585.76,681.38"];
	6 -- 137	[pos="820.58,613.14 879.65,602.46 1022.6,576.61 1081.8,565.9"];
	6 -- 29	[pos="785.47,635.02 783.82,638.21 782.09,641.54 780.44,644.73"];
	6 -- 32	[pos="818.42,626.33 853.67,638.73 919.01,661.7 954.27,674.1"];
	6 -- 68	[pos="768.87,623.99 711.44,637.75 572.44,671.07 514.87,684.87"];
	6 -- 283	[pos="805.71,634.39 820.76,656.31 847.18,694.77 862.22,716.67"];
	6 -- 140	[pos="821.42,620.54 869.19,625.23 967.96,634.94 1015.7,639.63"];
	6 -- 233	[pos="768.64,624.13 736.62,631.92 682.28,645.14 650.4,652.89"];
	4 -- 79	[pos="937.13,465.74 881.62,464.78 755.68,462.61 700.14,461.65"];
	4 -- 15	[pos="963.62,447.79 963.04,431.89 962.22,409.07 961.65,393.27"];
	18	[height=0.5,
		pos="956.78,286.52",
		width=0.75];
	4 -- 18	[pos="963.52,447.99 962.08,413.46 958.97,338.88 957.53,304.52"];
	261	[height=0.5,
		pos="1068.6,250.77",
		width=0.75];
	4 -- 261	[pos="972.64,448.94 992.18,408.6 1040.6,308.54 1060.2,268.12"];
	4 -- 152	[pos="974.03,483.19 982.98,498.78 996.18,521.75 1005.1,537.33"];
	194	[height=0.5,
		pos="1003.1,241.98",
		width=0.75];
	4 -- 194	[pos="967.39,448.24 974.67,406.25 992.71,302.1 1000,260.03"];
	94	[height=0.5,
		pos="1006.4,331.16",
		width=0.75];
	4 -- 94	[pos="969.79,448.55 977.86,422.67 992.82,374.7 1000.9,348.82"];
	4 -- 36	[pos="944.03,478.2 900,504.26 795.99,565.84 751.86,591.97"];
	4 -- 38	[pos="990.39,470.98 1047.2,481.36 1181.3,505.89 1238.2,516.29"];
	58	[height=0.5,
		pos="1068.5,359.73",
		width=0.75];
	4 -- 58	[pos="979.21,450.95 999.02,430.71 1033.8,395.19 1053.6,374.96"];
	224	[height=0.5,
		pos="1126.9,403.8",
		width=0.75];
	4 -- 224	[pos="987.93,457.13 1018.9,445.27 1072.7,424.6 1103.5,412.78"];
	4 -- 72	[pos="948.14,451.76 938.17,442.83 925.41,431.41 915.39,422.44"];
	213	[height=0.5,
		pos="1068.4,299.84",
		width=0.75];
	4 -- 213	[pos="974.84,449.34 994.8,417.46 1037.9,348.68 1057.8,316.76"];
	196	[height=0.5,
		pos="264.44,569.03",
		width=0.75];
	79 -- 196	[pos="647.71,467.84 574.56,487.16 363.04,543 289.78,562.34"];
	79 -- 88	[pos="645.83,462.76 614.87,464.57 564.52,467.52 533.56,469.32"];
	5 -- 204	[pos="698.5,520.3 651.55,537.87 547.87,576.65 501.12,594.13"];
	5 -- 7	[pos="739.83,497.29 761.47,479.78 798.21,450.08 819.76,432.65"];
	5 -- 19	[pos="746.31,502.41 793.12,484.89 896.49,446.19 943.09,428.74"];
	8	[height=0.5,
		pos="876.93,352.15",
		width=0.75];
	5 -- 8	[pos="737.25,496.08 766.71,465.73 832.33,398.11 861.94,367.61"];
	5 -- 229	[pos="749.75,511.11 783.64,510.81 841.1,510.3 874.98,510"];
	5 -- 9	[pos="706,496.86 668.25,463.57 575.67,381.95 537.97,348.7"];
	44	[height=0.5,
		pos="611.81,302.8",
		width=0.75];
	5 -- 44	[pos="713.39,494.28 692.59,455.08 641.6,358.96 620.83,319.81"];
	5 -- 37	[pos="709.86,527.32 696.68,544.05 676.09,570.19 662.88,586.96"];
	5 -- 255	[pos="744.13,522.24 766.85,533.64 802.34,551.45 825.12,562.89"];
	22	[height=0.5,
		pos="833.09,284.44",
		width=0.75];
	5 -- 22	[pos="730.94,493.92 751.59,451.58 804.19,343.69 824.71,301.61"];
	5 -- 27	[pos="695.22,511.75 648.02,512.43 551.5,513.84 504.21,514.53"];
	5 -- 98	[pos="696.15,515.83 642.88,524.91 522.76,545.37 469.38,554.47"];
	253	[height=0.5,
		pos="414.83,502.9",
		width=0.75];
	5 -- 253	[pos="695.41,510.61 637.21,509.01 500.57,505.26 442.13,503.65"];
	127	[height=0.5,
		pos="579.43,392.92",
		width=0.75];
	5 -- 127	[pos="705.47,497.3 677.95,474.51 623.88,429.73 596.37,406.95"];
	230	[height=0.5,
		pos="698.03,380.73",
		width=0.75];
	5 -- 230	[pos="719.1,493.46 714.45,468.59 706.08,423.8 701.41,398.82"];
	109	[height=0.5,
		pos="517.41,426.9",
		width=0.75];
	5 -- 109	[pos="699.32,501.83 659.84,485.56 579.87,452.63 540.45,436.39"];
	238	[height=0.5,
		pos="688.59,263.4",
		width=0.75];
	5 -- 238	[pos="719.95,493.12 713.69,447.26 697.35,327.54 691.08,281.66"];
	204 -- 253	[pos="466.83,586.01 455.24,567.49 436.82,538.05 425.3,519.63"];
	7 -- 19	[pos="864.14,419 886.28,419.2 917.39,419.47 939.53,419.67"];
	7 -- 9	[pos="811.66,411.99 752.61,396.17 606.14,356.92 546.98,341.06"];
	7 -- 157	[pos="817.12,406.43 806.52,399.83 793.49,391.73 782.87,385.12"];
	7 -- 144	[pos="862.8,424.4 899.52,432.41 966.34,446.98 1003,454.97"];
	25	[height=0.5,
		pos="574.26,202.23",
		width=0.75];
	7 -- 25	[pos="819.7,404.55 772.1,365.32 639.23,255.79 591.56,216.49"];
	30	[height=0.5,
		pos="727.29,113.93",
		width=0.75];
	7 -- 30	[pos="830.57,401.05 811.19,347.18 753.08,185.63 733.68,131.69"];
	7 -- 33	[pos="829.12,401.34 813.82,367.24 780.09,292.07 764.77,257.92"];
	96	[height=0.5,
		pos="791.31,119.84",
		width=0.75];
	7 -- 96	[pos="834.15,400.51 825.98,347.02 802.18,191.04 794.06,137.85"];
	263	[height=0.5,
		pos="699.25,192.5",
		width=0.75];
	7 -- 263	[pos="826.59,401.75 801.01,359.72 735.04,251.31 709.53,209.39"];
	7 -- 237	[pos="835.75,436.91 835.58,439.47 835.41,442.1 835.24,444.65"];
	212	[height=0.5,
		pos="761.5,196.39",
		width=0.75];
	7 -- 212	[pos="830.89,400.94 816.73,359.2 781.55,255.51 767.47,213.99"];
	7 -- 53	[pos="826.47,402.02 810.38,376.28 779.74,327.26 763.57,301.39"];
	101	[height=0.5,
		pos="885.58,120.48",
		width=0.75];
	7 -- 101	[pos="839.9,400.55 848.61,347.17 873.99,191.53 882.65,138.45"];
	7 -- 104	[pos="855.82,432.05 864.55,438.19 874.9,445.47 883.6,451.6"];
	277	[height=0.5,
		pos="885.67,196.35",
		width=0.75];
	7 -- 277	[pos="840.84,400.94 849.97,359.29 872.6,255.98 881.75,214.26"];
	132	[height=0.5,
		pos="636.34,188.8",
		width=0.75];
	7 -- 132	[pos="823.15,402.95 786.41,360.84 686.5,246.3 649.96,204.42"];
	145	[height=0.5,
		pos="836.03,240.38",
		width=0.75];
	7 -- 145	[pos="836.84,400.68 836.67,366.49 836.3,292.74 836.12,258.52"];
	7 -- 197	[pos="832.58,400.92 828.72,385.1 823.11,362.1 819.25,346.28"];
	257	[height=0.5,
		pos="823.55,163.88",
		width=0.75];
	7 -- 257	[pos="835.97,400.43 833.5,353.4 826.97,228.89 824.51,182.05"];
	12 -- 151	[pos="850.28,822.65 802.57,825.54 703.92,831.5 656.23,834.38"];
	12 -- 138	[pos="901.58,812.66 938.45,799.96 1008.2,775.96 1044.9,763.3"];
	12 -- 16	[pos="852.77,828.81 794.89,847.19 650.36,893.07 592.48,911.44"];
	28	[height=0.5,
		pos="901.51,951.65",
		width=0.75];
	12 -- 28	[pos="880.62,838.91 885.23,863.79 893.53,908.57 898.16,933.56"];
	181	[height=0.5,
		pos="793.62,1046.7",
		width=0.75];
	12 -- 181	[pos="870.74,838.73 855.09,880.91 815.77,986.95 800.16,1029.1"];
	12 -- 283	[pos="876.52,802.82 875.88,787.74 874.97,766.41 874.32,751.34"];
	12 -- 49	[pos="904.44,821.08 941.62,821.15 1008,821.28 1045.2,821.35"];
	67	[height=0.5,
		pos="1166.6,1012",
		width=0.75];
	12 -- 67	[pos="896.73,833.85 949.43,868.64 1094.6,964.52 1147.2,999.24"];
	64	[height=0.5,
		pos="1228.6,1008.7",
		width=0.75];
	12 -- 64	[pos="898.49,832.34 961.08,865.79 1144.7,963.92 1207.4,997.39"];
	136	[height=0.5,
		pos="1226.9,865.93",
		width=0.75];
	12 -- 136	[pos="903.87,824.43 968.88,832.79 1135.4,854.17 1200.4,862.52"];
	185	[height=0.5,
		pos="994.59,1000.9",
		width=0.75];
	12 -- 185	[pos="888.13,837.63 910.47,871.9 961.47,950.14 983.79,984.38"];
	118	[height=0.5,
		pos="1123.5,1112.9",
		width=0.75];
	12 -- 118	[pos="890.54,836.72 933.29,887.4 1067.3,1046.4 1110.2,1097.2"];
	73	[height=0.5,
		pos="1207.3,1065.2",
		width=0.75];
	12 -- 73	[pos="895.52,834.5 953.22,877.19 1131.6,1009.1 1189.2,1051.8"];
	218	[height=0.5,
		pos="1290.7,992.55",
		width=0.75];
	12 -- 218	[pos="900.42,830.61 972.94,860.7 1195.5,953.03 1267.8,983.03"];
	288	[height=0.5,
		pos="1125.8,865.77",
		width=0.75];
	12 -- 288	[pos="903.43,825.73 951.17,834.32 1051.9,852.47 1099.7,861.06"];
	216	[height=0.5,
		pos="1239.8,915.97",
		width=0.75];
	12 -- 216	[pos="902.5,827.62 968.8,844.99 1147.6,891.82 1214.2,909.28"];
	286	[height=0.5,
		pos="1135.1,954.05",
		width=0.75];
	12 -- 286	[pos="898.84,832.14 947.35,857.18 1064.8,917.78 1113.4,942.88"];
	19 -- 229	[pos="954.87,436.39 943.24,452.6 925.59,477.21 913.99,493.39"];
	19 -- 144	[pos="985.99,432.55 993.39,437.41 1001.8,442.94 1009.3,447.8"];
	19 -- 22	[pos="951.63,404.63 925.97,378.61 874.07,325.99 848.31,299.87"];
	150	[height=0.5,
		pos="947.72,197.95",
		width=0.75];
	19 -- 150	[pos="965.14,401.74 961.57,360.02 952.83,257.72 949.26,216.05"];
	52	[height=0.5,
		pos="1029.1,136.41",
		width=0.75];
	19 -- 52	[pos="970.69,401.74 981.95,350.53 1013.9,205.44 1025.1,154.42"];
	251	[height=0.5,
		pos="1091.1,139.73",
		width=0.75];
	19 -- 251	[pos="974.47,402.38 996.81,352.06 1061,207.56 1083.3,157.25"];
	248	[height=0.5,
		pos="898.07,242.09",
		width=0.75];
	19 -- 248	[pos="959.86,402.21 946.71,368.12 918,293.74 904.87,259.72"];
	245	[height=0.5,
		pos="1140.7,194.68",
		width=0.75];
	19 -- 245	[pos="979.2,403.71 1011.3,362.15 1096.3,252.12 1128.3,210.73"];
	19 -- 193	[pos="981.7,435.22 998.07,451.93 1024.1,478.49 1040.4,495.11"];
	164	[height=0.5,
		pos="1153.7,150.65",
		width=0.75];
	19 -- 164	[pos="978.1,403.47 1011.5,355.4 1108.7,215.45 1142.1,167.22"];
	171	[height=0.5,
		pos="1056.7,190.28",
		width=0.75];
	19 -- 171	[pos="973.6,402.27 990.35,359.52 1033,250.78 1049.7,207.97"];
	276	[height=0.5,
		pos="967.05,153.85",
		width=0.75];
	19 -- 276	[pos="966.72,401.62 966.78,352.9 966.96,220.38 967.03,171.91"];
	270	[height=0.5,
		pos="1192.5,282.71",
		width=0.75];
	19 -- 270	[pos="986.73,407.73 1029.6,381.7 1129.7,320.87 1172.5,294.86"];
	198 -- 215	[pos="554.41,437.65 532.89,434.34 502.66,429.69 481.15,426.37"];
	198 -- 273	[pos="561.78,428.58 545.99,417.69 523.66,402.29 507.88,391.41"];
	167 -- 233	[pos="653.5,687.7 649.16,683.34 644.43,678.59 640.1,674.24"];
	8 -- 19	[pos="895.1,365.86 910.67,377.62 932.99,394.47 948.55,406.21"];
	8 -- 229	[pos="879.84,370.23 884.69,400.47 894.41,460.99 899.3,491.41"];
	8 -- 22	[pos="866.1,335.41 859.3,324.92 850.57,311.44 843.8,300.98"];
	8 -- 150	[pos="884.91,334.76 898.51,305.15 926.01,245.25 939.66,215.51"];
	8 -- 230	[pos="850.53,356.37 816.71,361.77 758.41,371.09 724.53,376.5"];
	8 -- 248	[pos="880.42,333.98 884.34,313.59 890.66,280.69 894.58,260.29"];
	9 -- 66	[pos="505.22,348.8 478.2,372.82 424.56,420.49 397.61,444.44"];
	14	[height=0.5,
		pos="319.32,445.77",
		width=0.75];
	9 -- 14	[pos="500.7,345.77 461.94,367.14 379.29,412.71 340.39,434.16"];
	43	[height=0.5,
		pos="307.42,227.33",
		width=0.75];
	9 -- 43	[pos="499.87,323.42 458.82,302.92 370.29,258.71 329.19,238.2"];
	9 -- 25	[pos="528.58,316.73 538.65,291.48 557.14,245.13 567.23,219.84"];
	9 -- 27	[pos="517.13,352.24 508.56,386.87 489.86,462.44 481.31,497.02"];
	9 -- 98	[pos="515.41,351.89 500.72,393.9 463.76,499.5 449.09,541.42"];
	9 -- 131	[pos="503.09,347.43 457.5,379.89 340.1,463.48 294.28,496.1"];
	81	[height=0.5,
		pos="390.98,396.19",
		width=0.75];
	9 -- 81	[pos="499.43,344.77 475.41,356.15 437.3,374.23 413.25,385.64"];
	50	[height=0.5,
		pos="506.38,202.21",
		width=0.75];
	9 -- 50	[pos="519.5,316.18 516.61,291.03 511.39,245.76 508.48,220.5"];
	190	[height=0.5,
		pos="389.15,350.12",
		width=0.75];
	9 -- 190	[pos="494.79,337.47 471.81,340.22 438.88,344.17 415.91,346.92"];
	77	[height=0.5,
		pos="477.22,246.24",
		width=0.75];
	9 -- 77	[pos="512.82,316.87 505.04,301.44 493.74,279.01 485.97,263.59"];
	228	[height=0.5,
		pos="535.99,158.2",
		width=0.75];
	9 -- 228	[pos="523.07,316.08 525.84,282.26 531.75,210.03 534.51,176.28"];
	82	[height=0.5,
		pos="434.47,195.56",
		width=0.75];
	9 -- 82	[pos="511.08,317.53 494.33,290.87 461.78,239.04 445.01,212.35"];
	281	[height=0.5,
		pos="326.91,401.77",
		width=0.75];
	9 -- 281	[pos="497.32,342.67 459.81,355.68 388.19,380.52 350.87,393.46"];
	121	[height=0.5,
		pos="371.75,266.83",
		width=0.75];
	9 -- 121	[pos="499.15,324.17 470.91,311.45 422.65,289.74 394.33,276.99"];
	227	[height=0.5,
		pos="275.23,357.73",
		width=0.75];
	9 -- 227	[pos="494.75,336.82 447.36,341.33 349.4,350.67 302.03,355.18"];
	221	[height=0.5,
		pos="257.26,465.37",
		width=0.75];
	9 -- 221	[pos="499.5,345.21 449.62,369.95 328.74,429.92 279.09,454.54"];
	9 -- 273	[pos="509.58,350.4 506.73,354.23 503.69,358.31 500.85,362.14"];
	265	[height=0.5,
		pos="442.06,306.07",
		width=0.75];
	9 -- 265	[pos="497.72,325.8 487.66,322.23 475.97,318.09 465.9,314.52"];
	55	[height=0.5,
		pos="616.18,117.91",
		width=0.75];
	44 -- 55	[pos="612.24,284.74 613.07,249.39 614.91,171.46 615.75,136.05"];
	44 -- 127	[pos="605.41,320.61 599.74,336.41 591.49,359.37 585.81,375.15"];
	44 -- 109	[pos="599.47,319.03 581.38,342.81 547.85,386.89 529.75,410.67"];
	44 -- 238	[pos="633.61,291.62 644.07,286.25 656.57,279.83 667,274.48"];
	162	[height=0.5,
		pos="732.72,67.534",
		width=0.75];
	44 -- 162	[pos="620.7,285.5 643.06,241.99 701.44,128.39 723.81,84.859"];
	37 -- 204	[pos="622.82,603.05 590.48,603.04 536.98,603.01 504.69,603"];
	37 -- 255	[pos="676.73,599.12 714.4,593.53 782.95,583.36 820.55,577.78"];
	37 -- 253	[pos="627.2,593.28 582.2,574.13 482.99,531.91 437.92,512.73"];
	11 -- 113	[pos="836.86,808.58 859.07,797.3 893.49,779.82 915.77,768.5"];
	11 -- 21	[pos="788.64,822.83 736.03,829.34 619.32,843.77 566.7,850.28"];
	11 -- 16	[pos="792.02,828.92 744.88,847.92 638.57,890.76 591.33,909.8"];
	93	[height=0.5,
		pos="593.77,981.24",
		width=0.75];
	11 -- 93	[pos="796.78,833.05 754.98,863.56 653.67,937.52 612.07,967.89"];
	249	[height=0.5,
		pos="1061.5,1080.9",
		width=0.75];
	11 -- 249	[pos="829.95,835.1 873.74,881.59 1003.2,1019 1046.9,1065.4"];
	108	[height=0.5,
		pos="718,1049.8",
		width=0.75];
	11 -- 108	[pos="807.81,837.23 789.66,880.2 743.4,989.7 725.36,1032.4"];
	159	[height=0.5,
		pos="1104.5,1024.7",
		width=0.75];
	11 -- 159	[pos="833.82,832.69 885.94,869.66 1033.4,974.27 1085.8,1011.4"];
	24	[height=0.5,
		pos="777.1,953.23",
		width=0.75];
	11 -- 24	[pos="810.22,837.29 802.91,862.86 789.51,909.79 782.19,935.41"];
	11 -- 123	[pos="792.81,829.78 770.7,839.85 737.14,855.15 715.07,865.2"];
	11 -- 40	[pos="805.51,836.59 803.19,840.63 800.72,844.95 798.4,848.99"];
	11 -- 39	[pos="842.21,817.24 863.02,815.47 891.69,813.02 912.49,811.25"];
	11 -- 84	[pos="793.31,830.27 757.66,847.69 687.63,881.9 652,899.3"];
	11 -- 111	[pos="789.28,814.2 768.11,809.85 738.38,803.74 717.21,799.39"];
	11 -- 28	[pos="826.21,836.27 842.79,861.68 874.15,909.72 890.68,935.05"];
	11 -- 31	[pos="839,810.64 874.39,797.37 940.62,772.52 975.95,759.27"];
	173	[height=0.5,
		pos="655.78,1032.2",
		width=0.75];
	11 -- 173	[pos="803.04,835.87 773.35,875.45 697.81,976.14 668.07,1015.8"];
	70	[height=0.5,
		pos="985.28,911.92",
		width=0.75];
	11 -- 70	[pos="836.47,831.05 869.14,848.8 931.43,882.65 964.09,900.41"];
	115	[height=0.5,
		pos="999.31,1067",
		width=0.75];
	11 -- 115	[pos="827.36,835.77 860.71,880.61 953.8,1005.8 987.2,1050.7"];
	63	[height=0.5,
		pos="1051.3,954.79",
		width=0.75];
	11 -- 63	[pos="835.82,831.3 880.47,856.88 985.93,917.31 1030.7,942.95"];
	11 -- 242	[pos="841.95,815.94 877.33,811.16 939.42,802.78 974.77,798.01"];
	211	[height=0.5,
		pos="1012,867.69",
		width=0.75];
	11 -- 211	[pos="841,825.83 878.79,835.09 948.93,852.26 986.55,861.47"];
	220	[height=0.5,
		pos="655.79,986.29",
		width=0.75];
	11 -- 220	[pos="800.57,834.93 770.18,866.69 700.83,939.2 670.47,970.94"];
	156	[height=0.5,
		pos="835.89,997.28",
		width=0.75];
	11 -- 156	[pos="817.38,837.56 821.32,871.62 829.84,945.11 833.79,979.21"];
	11 -- 188	[pos="791.84,810.47 756.33,796.73 689.28,770.79 653.71,757.03"];
	128	[height=0.5,
		pos="922.92,905.36",
		width=0.75];
	11 -- 128	[pos="833.06,833.71 853.12,849.71 885.55,875.56 905.48,891.45"];
	11 -- 125	[pos="789.62,813.91 741.99,803.47 640.42,781.21 592.61,770.73"];
	287	[height=0.5,
		pos="875.05,1041.3",
		width=0.75];
	11 -- 287	[pos="820.08,837.31 831.27,878.83 859.02,981.82 870.23,1023.4"];
	239	[height=0.5,
		pos="839.35,910.06",
		width=0.75];
	11 -- 239	[pos="820.04,837.42 824.26,853.29 830.39,876.36 834.61,892.22"];
	186	[height=0.5,
		pos="931.92,996.33",
		width=0.75];
	11 -- 186	[pos="826.26,836.17 848.49,869.86 898.61,945.85 920.89,979.61"];
	274	[height=0.5,
		pos="937.06,1077.1",
		width=0.75];
	11 -- 274	[pos="823.47,836.83 845.65,883.75 906.78,1013 928.92,1059.9"];
	292	[height=0.5,
		pos="1081.9,910.05",
		width=0.75];
	11 -- 292	[pos="839.42,827.73 890.06,844.92 1006.9,884.58 1057.7,901.81"];
	271	[height=0.5,
		pos="997.94,1121.1",
		width=0.75];
	11 -- 271	[pos="825.63,836.61 857.78,889.69 955.72,1051.4 987.71,1104.2"];
	272	[height=0.5,
		pos="717.84,997.31",
		width=0.75];
	11 -- 272	[pos="805.94,836.58 787.32,870.56 745.76,946.38 727.16,980.32"];
	35 -- 68	[pos="533.84,689.72 528.13,689.88 522.1,690.06 516.39,690.22"];
	138 -- 283	[pos="1042.2,752.01 1004.9,747.84 937.62,740.32 900.3,736.14"];
	138 -- 288	[pos="1077.9,772.31 1088.6,793.12 1106.4,827.83 1117,848.59"];
	157 -- 177	[pos="736.89,367.88 714.88,363.76 683.54,357.9 661.54,353.79"];
	157 -- 197	[pos="779.71,358.5 785.64,353.45 792.31,347.76 798.23,342.71"];
	21 -- 108	[pos="554.3,869.31 587.71,906.15 670.69,997.67 703.91,1034.3"];
	74	[height=0.5,
		pos="588.72,1046.5",
		width=0.75];
	21 -- 74	[pos="544.53,871.39 553.81,908.15 574.98,992.05 584.24,1028.8"];
	51	[height=0.5,
		pos="526.68,1056",
		width=0.75];
	21 -- 51	[pos="538.83,871.9 536.29,910.43 530.41,999.47 527.87,1037.8"];
	219	[height=0.5,
		pos="400.37,925.56",
		width=0.75];
	21 -- 219	[pos="518.52,864.67 492.35,878.16 448.43,900.8 422.15,914.34"];
	21 -- 80	[pos="513.71,857.88 497.9,860.47 477.85,863.75 462.03,866.33"];
	295	[height=0.5,
		pos="234.88,855.74",
		width=0.75];
	21 -- 295	[pos="512.96,853.77 455.05,854.18 319.75,855.14 261.9,855.55"];
	117	[height=0.5,
		pos="205.46,811.73",
		width=0.75];
	21 -- 117	[pos="513.23,850.23 450.58,842.39 295.18,822.95 232.41,815.1"];
	105	[height=0.5,
		pos="650.76,1076.2",
		width=0.75];
	21 -- 105	[pos="548.54,870.68 569.15,912.12 621.59,1017.5 642.23,1059"];
	21 -- 220	[pos="553.77,869.33 576.05,894.87 619.81,945.04 642.07,970.57"];
	21 -- 134	[pos="519.64,841.61 495.26,827.29 454.69,803.48 430.19,789.09"];
	13 -- 15	[pos="1073.5,453.14 1048.5,435.84 1004.7,405.48 979.78,388.2"];
	13 -- 120	[pos="1068.4,474.88 1047.3,482.6 1016.5,493.81 995.31,501.53"];
	13 -- 17	[pos="1110.6,479.76 1147.8,507.36 1231.7,569.69 1268.7,597.17"];
	34	[height=0.5,
		pos="1388.8,486.15",
		width=0.75];
	13 -- 34	[pos="1119.4,468 1175.9,471.81 1305.5,480.54 1361.9,484.34"];
	91	[height=0.5,
		pos="1249.2,477.07",
		width=0.75];
	13 -- 91	[pos="1119.3,468.05 1148.1,470.05 1193.6,473.21 1222.3,475.21"];
	85	[height=0.5,
		pos="1356.9,442.13",
		width=0.75];
	13 -- 85	[pos="1119.1,463.74 1169.9,459.13 1279.3,449.19 1330,444.58"];
	13 -- 38	[pos="1117,474.04 1149.7,484.48 1207.1,502.81 1239.8,513.24"];
	48	[height=0.5,
		pos="1326.7,525.74",
		width=0.75];
	13 -- 48	[pos="1117.8,472.66 1162.9,484.12 1256.1,507.81 1301.2,519.26"];
	13 -- 106	[pos="1110,480.39 1127.9,494.85 1155.6,517.15 1173.5,531.58"];
	129	[height=0.5,
		pos="1189,388.57",
		width=0.75];
	13 -- 129	[pos="1109.6,452.3 1127.1,438.26 1154,416.68 1171.6,402.59"];
	62	[height=0.5,
		pos="1339,398.11",
		width=0.75];
	13 -- 62	[pos="1117.3,459.27 1164.6,446.23 1266.6,418.09 1313.9,405.03"];
	189	[height=0.5,
		pos="1192.3,344.51",
		width=0.75];
	13 -- 189	[pos="1105.4,450.27 1124.6,426.95 1160.1,383.74 1179.3,360.42"];
	83	[height=0.5,
		pos="1254.5,320.92",
		width=0.75];
	13 -- 83	[pos="1108.5,451.72 1139.4,424.02 1206.7,363.74 1237.9,335.76"];
	165	[height=0.5,
		pos="1236,238.67",
		width=0.75];
	13 -- 165	[pos="1102.9,449.45 1129.4,407.37 1198.8,297.52 1225.4,255.42"];
	103	[height=0.5,
		pos="1351,618.14",
		width=0.75];
	13 -- 103	[pos="1112.6,478.1 1160.8,506.44 1281.9,577.57 1330.4,606.06"];
	214	[height=0.5,
		pos="1298.1,248.76",
		width=0.75];
	13 -- 214	[pos="1106.8,450.89 1144.6,410.97 1245.9,303.93 1283.6,264.03"];
	223	[height=0.5,
		pos="1130.5,298.63",
		width=0.75];
	13 -- 223	[pos="1096.4,448.25 1103.7,416 1119.1,348.59 1126.4,316.43"];
	142	[height=0.5,
		pos="1316.5,354.1",
		width=0.75];
	13 -- 142	[pos="1114.2,455.22 1157.2,433.74 1252.1,386.31 1294.9,364.93"];
	119	[height=0.5,
		pos="1349,569.8",
		width=0.75];
	13 -- 119	[pos="1115.6,475.55 1164.3,495.23 1276.8,540.64 1325.7,560.37"];
	122	[height=0.5,
		pos="1219,433.05",
		width=0.75];
	13 -- 122	[pos="1117.6,459.55 1139.7,453.77 1171.6,445.44 1193.7,439.66"];
	222	[height=0.5,
		pos="1147.5,238.71",
		width=0.75];
	13 -- 222	[pos="1096.6,448.33 1106.9,405.91 1132.8,299.44 1143.1,256.79"];
	192	[height=0.5,
		pos="1251.1,389",
		width=0.75];
	13 -- 192	[pos="1114.4,455.44 1144.7,440.7 1199,414.34 1229.2,399.64"];
	15 -- 18	[pos="960.13,356.82 959.4,341.5 958.36,319.79 957.64,304.56"];
	15 -- 194	[pos="966.59,357.5 974.65,332.02 989.44,285.26 997.51,259.74"];
	15 -- 94	[pos="976.37,360.28 981.1,355.69 986.31,350.64 991.04,346.05"];
	15 -- 58	[pos="987.57,371.37 1004.1,368.99 1025.3,365.94 1041.9,363.56"];
	15 -- 129	[pos="988.05,376.78 1031.9,379.35 1118.1,384.41 1162,386.98"];
	15 -- 224	[pos="987.29,379.72 1018.4,385.08 1069.7,393.94 1100.8,399.28"];
	15 -- 72	[pos="939.66,386.39 933.49,389.63 926.76,393.17 920.57,396.41"];
	15 -- 213	[pos="979.71,362.06 999.31,348.32 1029.9,326.85 1049.6,313.07"];
	14 -- 43	[pos="318.32,427.52 316.08,386.3 310.64,286.39 308.41,245.37"];
	14 -- 46	[pos="336.71,431.97 373.81,402.53 460.36,333.85 497.67,304.24"];
	14 -- 81	[pos="338.15,432.75 348.6,425.52 361.56,416.55 372.03,409.3"];
	114	[height=0.5,
		pos="151.18,337.85",
		width=0.75];
	14 -- 114	[pos="299.7,433.18 267.3,412.39 202.98,371.11 170.67,350.36"];
	14 -- 227	[pos="310.61,428.38 302.88,412.94 291.65,390.51 283.92,375.09"];
	147	[height=0.5,
		pos="194.94,384.26",
		width=0.75];
	14 -- 147	[pos="297.37,434.92 274.63,423.67 239.32,406.21 216.67,395.01"];
	284	[height=0.5,
		pos="183.58,431.13",
		width=0.75];
	14 -- 284	[pos="292.5,442.88 268.7,440.31 234.12,436.58 210.34,434.02"];
	182	[height=0.5,
		pos="179.73,287.67",
		width=0.75];
	14 -- 182	[pos="305.42,430.04 278.67,399.73 220.28,333.6 193.57,303.35"];
	14 -- 215	[pos="345.75,441.19 369.62,437.06 404.54,431.01 428.39,426.88"];
	14 -- 273	[pos="342.53,436.53 374.91,423.64 433.27,400.41 465.64,387.52"];
	18 -- 194	[pos="972.21,271.69 977.16,266.93 982.65,261.66 987.6,256.9"];
	18 -- 213	[pos="983.52,289.71 1001.1,291.8 1023.9,294.53 1041.5,296.63"];
	43 -- 46	[pos="332.09,234.79 372.1,246.9 450.69,270.68 490.68,282.79"];
	141	[height=0.5,
		pos="452.31,57.012",
		width=0.75];
	43 -- 141	[pos="320.79,211.61 348.4,179.16 411.4,105.1 438.97,72.691"];
	43 -- 81	[pos="315.89,244.45 331.91,276.81 366.46,346.63 382.49,379.03"];
	43 -- 50	[pos="334.25,223.94 372.33,219.13 441.63,210.38 479.65,205.58"];
	252	[height=0.5,
		pos="548.43,114.19",
		width=0.75];
	43 -- 252	[pos="329.66,216.88 375.58,195.33 480.37,146.13 526.24,124.6"];
	43 -- 190	[pos="318.45,243.89 334.04,267.32 362.4,309.93 378.05,333.43"];
	60	[height=0.5,
		pos="419.4,151.55",
		width=0.75];
	43 -- 60	[pos="326.42,214.47 347.01,200.54 379.68,178.43 400.31,164.47"];
	43 -- 77	[pos="334.33,230.32 366.12,233.86 418.7,239.72 450.44,243.26"];
	43 -- 114	[pos="288.89,240.44 258.98,261.6 200.38,303.05 170.18,324.41"];
	43 -- 82	[pos="332.83,220.97 354.99,215.43 386.96,207.44 409.11,201.9"];
	43 -- 281	[pos="309.43,245.34 313.17,278.76 321.13,350.04 324.88,383.59"];
	43 -- 121	[pos="327.42,239.61 335.09,244.32 343.85,249.69 351.54,254.42"];
	293	[height=0.5,
		pos="257.01,148.18",
		width=0.75];
	43 -- 293	[pos="296.73,210.54 288.18,197.11 276.24,178.36 267.69,164.94"];
	43 -- 227	[pos="303.01,245.18 296.88,270.02 285.85,314.73 279.69,339.67"];
	172	[height=0.5,
		pos="213.21,331.82",
		width=0.75];
	43 -- 172	[pos="293.11,243.2 275.3,262.95 245.07,296.48 227.34,316.14"];
	43 -- 147	[pos="295.6,243.82 273.94,274.04 228.15,337.93 206.61,367.98"];
	168	[height=0.5,
		pos="388.61,101.2",
		width=0.75];
	43 -- 168	[pos="318.2,210.58 333.73,186.45 362.23,142.18 377.78,118.02"];
	148	[height=0.5,
		pos="483.79,106.27",
		width=0.75];
	43 -- 148	[pos="326.3,214.37 360.15,191.13 430.83,142.62 464.78,119.31"];
	260	[height=0.5,
		pos="355.14,163.92",
		width=0.75];
	43 -- 260	[pos="319.71,211 326.78,201.6 335.64,189.83 342.73,180.41"];
	43 -- 182	[pos="285.18,237.84 261.89,248.85 225.51,266.04 202.15,277.08"];
	43 -- 221	[pos="303.65,245.22 294.36,289.33 270.42,402.94 261.07,447.27"];
	43 -- 265	[pos="327.87,239.28 353.18,254.09 396.02,279.14 421.42,294"];
	290	[height=0.5,
		pos="227.09,196.58",
		width=0.75];
	43 -- 290	[pos="283.75,218.27 273.29,214.26 261.03,209.57 250.59,205.57"];
	16 -- 151	[pos="580.05,902.79 590.8,888.2 606.42,867 617.16,852.42"];
	16 -- 21	[pos="560.47,901.64 556.46,892.22 551.54,880.65 547.54,871.22"];
	16 -- 93	[pos="575.28,936.84 578.8,945.29 583,955.38 586.51,963.81"];
	16 -- 74	[pos="570.88,937.2 574.81,961.33 581.77,1004 585.74,1028.2"];
	16 -- 28	[pos="594.68,921.83 657.13,927.9 812.07,942.96 874.65,949.04"];
	16 -- 181	[pos="588.77,930.99 631.76,955.27 729.9,1010.7 772.85,1034.9"];
	16 -- 173	[pos="580.53,935.41 597.23,956.88 626.53,994.56 643.22,1016"];
	16 -- 51	[pos="562.55,937.11 554.64,963.31 539.98,1011.9 532.07,1038.1"];
	16 -- 219	[pos="540.65,920.26 509.39,921.44 458.51,923.37 427.38,924.54"];
	16 -- 80	[pos="544,910.43 520.03,901.62 483.38,888.15 459.48,879.37"];
	163	[height=0.5,
		pos="297.92,849.63",
		width=0.75];
	16 -- 163	[pos="542.54,912.68 491.08,899.42 375.03,869.51 323.45,856.21"];
	76	[height=0.5,
		pos="620.1,1120.3",
		width=0.75];
	16 -- 76	[pos="572.57,937.07 582.47,975.22 605.59,1064.4 615.48,1102.5"];
	102	[height=0.5,
		pos="385.01,1025.7",
		width=0.75];
	16 -- 102	[pos="547.31,931.24 512.09,951.74 440.74,993.26 405.56,1013.7"];
	296	[height=0.5,
		pos="497.77,912.07",
		width=0.75];
	16 -- 296	[pos="541.01,916.48 535.6,915.93 529.92,915.35 524.51,914.8"];
	16 -- 105	[pos="576.96,936.33 592.9,966.52 625.83,1028.9 641.75,1059.1"];
	16 -- 220	[pos="585.72,932.8 600.86,944.36 622.52,960.89 637.74,972.51"];
	231	[height=0.5,
		pos="464.81,963.93",
		width=0.75];
	16 -- 231	[pos="545.05,929.15 527.96,936.56 504.71,946.64 487.63,954.04"];
	226	[height=0.5,
		pos="531.72,991.33",
		width=0.75];
	16 -- 226	[pos="559.36,936.32 553.67,947.64 546.22,962.46 540.49,973.86"];
	180	[height=0.5,
		pos="316,893.64",
		width=0.75];
	16 -- 180	[pos="540.98,916.49 492.49,911.57 391.12,901.27 342.77,896.36"];
	254	[height=0.5,
		pos="770.01,1135.1",
		width=0.75];
	16 -- 254	[pos="582.48,934.76 619.76,974.59 718.47,1080 755.61,1119.7"];
	264	[height=0.5,
		pos="691.5,1120.2",
		width=0.75];
	16 -- 264	[pos="578.27,936.02 601.52,973.86 657.81,1065.4 681.12,1103.3"];
	240	[height=0.5,
		pos="330.05,937.67",
		width=0.75];
	16 -- 240	[pos="541.12,921.31 495.43,924.85 403.02,932.02 357.14,935.57"];
	16 -- 272	[pos="589.42,930.42 617.92,945.26 667.93,971.31 696.41,986.15"];
	93 -- 173	[pos="611.05,995.43 619.65,1002.5 630.01,1011 638.6,1018.1"];
	93 -- 296	[pos="575.26,967.91 558.26,955.66 533.21,937.6 516.22,925.37"];
	93 -- 272	[pos="620.39,984.69 641.32,987.4 670.35,991.16 691.27,993.87"];
	152 -- 161	[pos="1038.9,562.43 1079.3,576.14 1160.2,603.62 1200.7,617.35"];
	17 -- 201	[pos="1265.6,621.85 1245.8,632.34 1216.3,647.91 1196.4,658.39"];
	17 -- 34	[pos="1300,594.6 1319.5,570.7 1356.2,525.97 1375.7,502.11"];
	41	[height=0.5,
		pos="1445.9,706.74",
		width=0.75];
	17 -- 41	[pos="1307,622.79 1337.5,641.23 1395.1,676.04 1425.7,694.51"];
	17 -- 48	[pos="1295.1,593.03 1302,578.37 1311.7,557.59 1318.6,543.01"];
	56	[height=0.5,
		pos="1361.4,706.21",
		width=0.75];
	17 -- 56	[pos="1299.5,626.83 1313.3,644.52 1335.2,672.64 1348.9,690.23"];
	17 -- 106	[pos="1267.9,597.78 1251.2,586.47 1227,570.06 1210.2,558.69"];
	17 -- 95	[pos="1278.5,627.76 1269.3,646.34 1254.9,675.82 1245.7,694.43"];
	203	[height=0.5,
		pos="1387.8,898.15",
		width=0.75];
	17 -- 203	[pos="1293,628.17 1311.1,679.5 1363.5,828.95 1381.6,880.46"];
	110	[height=0.5,
		pos="1386.9,849.97",
		width=0.75];
	17 -- 110	[pos="1294.2,628.22 1312.7,672.48 1361,788.06 1379.5,832.35"];
	135	[height=0.5,
		pos="1447.1,799.33",
		width=0.75];
	17 -- 135	[pos="1300.2,626.38 1330.4,661.9 1403.4,747.87 1433.6,783.48"];
	34 -- 85	[pos="1376.9,469.76 1374.2,466.05 1371.4,462.1 1368.7,458.39"];
	34 -- 38	[pos="1363.6,493.22 1342,499.28 1311.1,507.97 1289.6,514.03"];
	34 -- 41	[pos="1393.4,504.2 1404.2,545.67 1430.5,647.34 1441.2,688.75"];
	139	[height=0.5,
		pos="1378.6,348.64",
		width=0.75];
	34 -- 139	[pos="1387.4,467.89 1385.5,441.59 1381.9,393.32 1380,366.97"];
	34 -- 48	[pos="1369.1,498.68 1361.9,503.3 1353.7,508.53 1346.4,513.16"];
	34 -- 56	[pos="1386.5,504.16 1381.4,545.53 1368.7,646.95 1363.6,688.26"];
	61	[height=0.5,
		pos="1403.9,304.38",
		width=0.75];
	34 -- 61	[pos="1390.3,468.06 1393.2,433.22 1399.5,357.18 1402.4,322.4"];
	75	[height=0.5,
		pos="1444,618.19",
		width=0.75];
	34 -- 75	[pos="1396.1,503.69 1406.7,528.94 1426,575.29 1436.6,600.58"];
	184	[height=0.5,
		pos="1414.1,751.47",
		width=0.75];
	34 -- 184	[pos="1390.5,504.39 1395.1,552.98 1407.8,685.13 1412.4,733.46"];
	92	[height=0.5,
		pos="1390.8,258.03",
		width=0.75];
	34 -- 92	[pos="1388.9,467.87 1389.3,425.05 1390.3,318.67 1390.6,276.08"];
	34 -- 142	[pos="1379.5,469.16 1365.6,443.8 1339.6,396.34 1325.8,371.03"];
	34 -- 119	[pos="1380.5,503.48 1373.7,517.84 1364.1,538.14 1357.2,552.49"];
	112	[height=0.5,
		pos="1449.4,530.17",
		width=0.75];
	34 -- 112	[pos="1407.3,499.6 1414.8,505.06 1423.5,511.36 1431,516.81"];
	206	[height=0.5,
		pos="1511.4,502.15",
		width=0.75];
	34 -- 206	[pos="1415.4,489.62 1436,492.31 1464.3,496 1484.9,498.69"];
	175	[height=0.5,
		pos="1454.6,574.18",
		width=0.75];
	34 -- 175	[pos="1400.9,502.3 1412.7,518.08 1430.6,541.99 1442.4,557.84"];
	154	[height=0.5,
		pos="1470.2,412.39",
		width=0.75];
	34 -- 154	[pos="1404.9,471.58 1419.1,458.65 1439.9,439.86 1454.2,426.94"];
	178	[height=0.5,
		pos="1481.2,458.12",
		width=0.75];
	34 -- 178	[pos="1413.5,478.64 1426.8,474.62 1443.1,469.68 1456.4,465.65"];
	183	[height=0.5,
		pos="1440.8,364.33",
		width=0.75];
	34 -- 183	[pos="1396.2,468.7 1406.1,445.54 1423.5,404.9 1433.4,381.75"];
	249 -- 292	[pos="1063.6,1062.9 1067.6,1030.1 1075.9,960.85 1079.8,928.02"];
	249 -- 271	[pos="1041.7,1093.4 1034.1,1098.2 1025.5,1103.7 1017.9,1108.5"];
	91 -- 223	[pos="1238.3,460.61 1215.7,426.7 1164.3,349.41 1141.6,315.32"];
	91 -- 122	[pos="1238,460.68 1235.5,457.06 1232.8,453.23 1230.4,449.6"];
	91 -- 192	[pos="1249.6,458.82 1249.9,443.71 1250.4,422.33 1250.7,407.22"];
	20 -- 79	[pos="550.74,545.97 577.69,527.27 627.17,492.95 654.16,474.22"];
	20 -- 57	[pos="559.28,558.35 588.91,557.69 635.99,556.65 665.57,556"];
	20 -- 36	[pos="557.69,564.76 595.89,573.39 667.28,589.52 705.6,598.18"];
	20 -- 45	[pos="523.93,576.35 516.74,591.79 506.3,614.22 499.12,629.65"];
	256	[height=0.5,
		pos="355.08,550.29",
		width=0.75];
	20 -- 256	[pos="504.77,557.62 471.42,555.99 415.31,553.24 382.08,551.61"];
	20 -- 59	[pos="514.2,572.55 492.52,589.08 456.13,616.84 434.36,633.44"];
	20 -- 69	[pos="513.68,572.37 479.53,597.33 406.63,650.64 372.57,675.55"];
	20 -- 196	[pos="504.9,559.98 453.61,561.91 342.99,566.07 291.64,568"];
	20 -- 88	[pos="526.85,541.14 522.41,525.86 516.05,503.97 511.61,488.7"];
	199	[height=0.5,
		pos="295.99,643.38",
		width=0.75];
	20 -- 199	[pos="508.09,567.51 462.86,583.7 365.28,618.6 319.99,634.79"];
	266	[height=0.5,
		pos="326.52,594.39",
		width=0.75];
	20 -- 266	[pos="505.58,563.52 466.12,570.32 392.26,583.05 352.86,589.85"];
	194 -- 213	[pos="1019.6,256.58 1029.6,265.42 1042.2,276.64 1052.2,285.45"];
	108 -- 220	[pos="702.94,1034.5 693.16,1024.5 680.46,1011.5 670.71,1001.5"];
	22 -- 44	[pos="805.96,286.69 763.37,290.22 681.33,297.03 638.82,300.56"];
	22 -- 150	[pos="851,270.92 872.41,254.77 908.03,227.89 929.55,211.66"];
	22 -- 55	[pos="815.34,270.81 774.66,239.58 675.09,163.14 634.18,131.73"];
	22 -- 127	[pos="810.13,294.26 761.96,314.86 650.8,362.4 602.52,383.05"];
	22 -- 230	[pos="814.59,297.62 788.87,315.96 742.56,348.98 716.73,367.39"];
	22 -- 52	[pos="851.18,270.78 888.51,242.58 973.73,178.21 1011,150.04"];
	22 -- 248	[pos="852.59,271.73 860.81,266.37 870.37,260.14 878.59,254.78"];
	22 -- 109	[pos="810.64,294.57 752.61,320.76 598.1,390.49 539.96,416.72"];
	22 -- 238	[pos="806.59,280.58 780.68,276.81 741.43,271.1 715.41,267.31"];
	22 -- 162	[pos="825.05,267.05 806.25,226.44 759.63,125.69 740.8,85"];
	22 -- 171	[pos="856.17,274.71 899.13,256.62 990.85,218 1033.7,199.95"];
	22 -- 276	[pos="848.46,269.46 874.16,244.4 925.59,194.26 951.45,169.06"];
	57 -- 210	[pos="665.65,556.5 663.04,556.6 660.39,556.71 657.77,556.82"];
	74 -- 80	[pos="575.14,1030.9 546.11,997.54 478.27,919.56 449.26,886.21"];
	187	[height=0.5,
		pos="520.58,1154.7",
		width=0.75];
	74 -- 187	[pos="578.07,1063.4 565.27,1083.7 543.92,1117.6 531.15,1137.9"];
	74 -- 76	[pos="596.16,1064 601.16,1075.8 607.72,1091.2 612.71,1102.9"];
	74 -- 102	[pos="561.67,1043.8 522.6,1039.8 450.8,1032.4 411.85,1028.4"];
	74 -- 295	[pos="567.65,1035.2 504.86,1001.3 319.51,901.37 256.29,867.28"];
	289	[height=0.5,
		pos="447.05,1066.6",
		width=0.75];
	74 -- 289	[pos="562.07,1050.3 536.75,1053.9 498.87,1059.3 473.58,1062.9"];
	74 -- 254	[pos="610.59,1057.2 645.43,1074.2 713.17,1107.3 748.07,1124.4"];
	267	[height=0.5,
		pos="730.48,1180.1",
		width=0.75];
	74 -- 267	[pos="604.43,1061.3 631.68,1087 687.4,1139.5 714.7,1165.2"];
	159 -- 287	[pos="1077.3,1026.7 1033.1,1029.9 946.38,1036.1 902.23,1039.3"];
	159 -- 186	[pos="1078.3,1020.4 1045.9,1015.1 990.93,1006 958.38,1000.7"];
	159 -- 274	[pos="1079.8,1032.5 1048.1,1042.4 993.27,1059.5 961.6,1069.4"];
	150 -- 248	[pos="931.46,212.4 926.03,217.23 919.98,222.61 914.53,227.45"];
	150 -- 164	[pos="973.38,192.06 1013,182.97 1088.4,165.64 1128,156.55"];
	23 -- 42	[pos="1143.1,800.75 1136.5,771.38 1123.7,713.69 1117.2,684.33"];
	23 -- 269	[pos="1168.6,807.95 1197.4,793.3 1248.4,767.43 1277.4,752.68"];
	23 -- 146	[pos="1134.5,802.84 1118.3,782.31 1090.4,746.93 1074.3,726.38"];
	23 -- 158	[pos="1174.1,819.98 1180.6,820.24 1187.4,820.53 1193.8,820.79"];
	23 -- 195	[pos="1169.4,808.31 1182.4,802.19 1198.7,794.51 1211.6,788.4"];
	24 -- 123	[pos="761.23,938.59 746.24,924.76 723.88,904.12 708.82,890.22"];
	24 -- 186	[pos="802.32,960.25 831.19,968.29 878.2,981.38 906.96,989.38"];
	123 -- 188	[pos="684.3,858.19 672.36,833.86 650.65,789.65 638.67,765.25"];
	123 -- 128	[pos="719.59,878.87 763.95,884.65 851.99,896.12 896.24,901.88"];
	123 -- 125	[pos="676.26,860.95 652.11,839.81 607.35,800.63 583.19,779.48"];
	123 -- 287	[pos="708.92,890.1 743.51,921.58 824.34,995.14 858.9,1026.6"];
	123 -- 239	[pos="718.28,881.42 745.02,887.75 786.8,897.63 813.62,903.97"];
	123 -- 186	[pos="714.39,886.32 759.81,909.29 864.62,962.29 910.15,985.32"];
	123 -- 274	[pos="709.92,889.56 754.78,926.59 875.06,1025.9 919.9,1062.9"];
	40 -- 84	[pos="763.5,873.01 733.81,881.25 684.7,894.87 655.06,903.09"];
	40 -- 78	[pos="815.69,865.68 820.33,865.62 825.15,865.56 829.79,865.5"];
	40 -- 70	[pos="814.34,872.04 852.03,880.83 921.87,897.13 959.56,905.92"];
	40 -- 115	[pos="804.12,880.82 843.08,917.98 944.81,1015 983.8,1052.2"];
	40 -- 211	[pos="816.01,866.24 858.99,866.56 941.79,867.17 984.69,867.49"];
	143	[height=0.5,
		pos="1201.7,964.66",
		width=0.75];
	40 -- 143	[pos="814.16,872.14 888.11,889.8 1102,940.86 1176,958.54"];
	40 -- 156	[pos="795,883.74 804.02,908.79 820.42,954.32 829.46,979.44"];
	235	[height=0.5,
		pos="952.97,1165.1",
		width=0.75];
	40 -- 235	[pos="797.94,882.98 826.79,935.49 914.56,1095.2 943.56,1148"];
	25 -- 71	[pos="590.98,216.41 596.79,221.33 603.31,226.86 609.15,231.81"];
	25 -- 46	[pos="563.17,218.79 552.63,234.52 536.87,258.05 526.35,273.76"];
	25 -- 30	[pos="594.9,190.32 624.1,173.47 677.2,142.84 706.49,125.93"];
	25 -- 33	[pos="600.04,207.62 634.75,214.88 696.17,227.72 730.97,235"];
	25 -- 96	[pos="597.9,193.26 639.65,177.41 725.97,144.65 767.7,128.8"];
	25 -- 50	[pos="547.04,202.22 542.61,202.22 538.03,202.22 533.6,202.22"];
	25 -- 252	[pos="569.03,184.42 564.55,169.14 558.12,147.25 553.64,131.98"];
	25 -- 60	[pos="549.72,194.2 520.72,184.71 472.77,169.02 443.82,159.54"];
	97	[height=0.5,
		pos="665.29,70.121",
		width=0.75];
	25 -- 97	[pos="585.6,185.77 603.05,160.45 636.27,112.23 653.8,86.794"];
	90	[height=0.5,
		pos="592.84,70.172",
		width=0.75];
	25 -- 90	[pos="576.8,184.15 580.34,159 586.71,113.72 590.27,88.463"];
	25 -- 132	[pos="600.23,196.62 603.55,195.9 606.95,195.16 610.28,194.44"];
	25 -- 148	[pos="559.72,186.82 542.84,168.91 515.16,139.54 498.29,121.65"];
	71 -- 97	[pos="630.16,228.4 637.65,194.64 653.81,121.82 661.31,88.027"];
	71 -- 90	[pos="622.75,228.08 616.34,194.25 602.66,122.01 596.27,88.254"];
	71 -- 217	[pos="639.94,262.11 652.57,276.66 671.19,298.11 683.8,312.65"];
	26	[height=0.5,
		pos="1177.2,909.93",
		width=0.75];
	26 -- 39	[pos="1154.4,900.25 1109,881 1008,838.11 962.44,818.76"];
	26 -- 78	[pos="1150.7,906.23 1090.5,897.8 943.84,877.27 883.6,868.84"];
	191	[height=0.5,
		pos="1043.6,1165.1",
		width=0.75];
	26 -- 191	[pos="1168.2,927.07 1143.9,973.56 1076.9,1101.7 1052.6,1148.1"];
	26 -- 143	[pos="1184.9,927.25 1187.8,933.64 1191,940.87 1193.9,947.27"];
	207	[height=0.5,
		pos="1304.6,871.87",
		width=0.75];
	26 -- 207	[pos="1202.1,902.5 1224.5,895.8 1257.4,885.98 1279.8,879.28"];
	26 -- 116	[pos="1151.3,904.57 1075.5,888.86 854.75,843.08 779.07,827.38"];
	39 -- 113	[pos="938.72,790.94 938.55,785.95 938.35,780.53 938.18,775.54"];
	39 -- 170	[pos="913.84,802.54 868.76,791.19 775.58,767.74 730.53,756.4"];
	39 -- 70	[pos="947.15,826.43 955.59,845.36 968.99,875.4 977.45,894.37"];
	39 -- 211	[pos="956.56,822.88 967.97,832.1 982.89,844.18 994.37,853.46"];
	39 -- 143	[pos="959.94,821.18 1009,850.28 1132.2,923.45 1181.2,952.5"];
	39 -- 207	[pos="965.63,813.49 1032.9,825.07 1210.6,855.68 1278.1,867.3"];
	39 -- 116	[pos="912.3,810.86 877.02,813.34 815.65,817.65 780.35,820.13"];
	39 -- 176	[pos="921.56,795.3 896.81,776.31 852.25,742.12 827.39,723.05"];
	46 -- 71	[pos="538.55,281.02 557.48,273.52 584.06,262.97 602.98,255.47"];
	46 -- 252	[pos="518.73,272.06 525.09,238.24 538.68,166.02 545.02,132.27"];
	46 -- 60	[pos="503.93,273.79 485.47,247.1 449.21,194.66 430.77,167.98"];
	46 -- 172	[pos="488.76,293.9 431.6,301.76 297.41,320.23 240.02,328.13"];
	46 -- 147	[pos="490.43,297.54 430.75,315.06 279.91,359.32 220.02,376.9"];
	46 -- 284	[pos="492.51,299.93 431.9,325.66 267.32,395.56 206.54,421.38"];
	46 -- 148	[pos="512.23,272.27 506.2,237.1 492.92,159.55 486.88,124.32"];
	46 -- 260	[pos="497.86,276.48 467.21,252.31 404.03,202.48 373.06,178.05"];
	46 -- 215	[pos="507.39,307.51 495.79,332.82 474.28,379.73 462.67,405.04"];
	84 -- 111	[pos="639.08,892.91 650.65,870.99 670.59,833.2 682.18,811.24"];
	84 -- 156	[pos="652.86,919.69 692.43,936.47 773.33,970.76 812.97,987.56"];
	84 -- 235	[pos="647.87,924.1 704.33,968.7 878.82,1106.5 935.2,1151.1"];
	282	[height=0.5,
		pos="784.59,1090.7",
		width=0.75];
	84 -- 282	[pos="643.49,925.74 672.72,959.92 741.77,1040.6 771.07,1074.9"];
	111 -- 123	[pos="691.58,812.11 691.82,825.49 692.16,843.66 692.4,857.1"];
	111 -- 156	[pos="702.84,810.35 729.92,848.4 797.1,942.79 824.24,980.91"];
	111 -- 128	[pos="713.46,804.73 757.74,826 856.55,873.47 900.77,894.72"];
	111 -- 125	[pos="665.74,788.12 644.4,783.15 614.07,776.08 592.61,771.09"];
	111 -- 239	[pos="708.82,807.82 737.32,830.15 793.32,874 821.81,896.32"];
	27 -- 66	[pos="456.15,502.77 440.01,493.31 417.75,480.24 401.71,470.84"];
	27 -- 98	[pos="464.44,531.08 461.49,534.91 458.34,538.99 455.39,542.82"];
	27 -- 131	[pos="449.73,514.18 411.2,513.13 341.08,511.21 302.62,510.16"];
	27 -- 126	[pos="504.02,514.51 515.91,514.32 529.84,514.11 541.74,513.92"];
	89	[height=0.5,
		pos="168.62,723.69",
		width=0.75];
	27 -- 89	[pos="457.59,527.99 402.23,565.48 243.25,673.15 187.9,710.64"];
	27 -- 100	[pos="450.5,519.26 387.22,529.66 227.3,555.94 163.8,566.38"];
	234	[height=0.5,
		pos="202.29,606.81",
		width=0.75];
	27 -- 234	[pos="452.51,523.08 400.4,540.52 278.66,581.25 226.6,598.67"];
	27 -- 133	[pos="449.66,515.98 394.01,518.13 267.76,523.01 212.08,525.16"];
	202	[height=0.5,
		pos="61.387,679.43",
		width=0.75];
	27 -- 202	[pos="453.65,524.12 380.84,552.95 157.64,641.32 84.708,670.2"];
	27 -- 297	[pos="454.6,525.37 400.61,550.68 263.26,615.06 209.2,640.41"];
	28 -- 181	[pos="885.12,966.08 864.85,983.94 830.51,1014.2 810.16,1032.1"];
	28 -- 49	[pos="919.48,937.96 952.32,912.94 1021.6,860.13 1054.5,835.11"];
	28 -- 67	[pos="927.41,957.55 978.21,969.12 1090.4,994.67 1141,1006.2"];
	28 -- 63	[pos="928.64,952.22 955.71,952.78 997.07,953.65 1024.2,954.22"];
	99	[height=0.5,
		pos="1168,1213.9",
		width=0.75];
	28 -- 99	[pos="916.99,966.88 964.2,1013.3 1106,1152.8 1152.8,1198.9"];
	28 -- 185	[pos="923.1,963.08 938.24,971.1 958.39,981.77 973.44,989.74"];
	124	[height=0.5,
		pos="1279.6,1053.7",
		width=0.75];
	28 -- 124	[pos="926.61,958.43 995.23,976.95 1185.4,1028.3 1254.3,1046.9"];
	28 -- 286	[pos="928.76,951.93 973.76,952.39 1063.1,953.31 1108,953.78"];
	28 -- 271	[pos="911.11,968.52 929.55,1000.9 969.72,1071.5 988.24,1104"];
	28 -- 272	[pos="875.97,958 840.88,966.72 778.14,982.32 743.16,991.02"];
	29 -- 35	[pos="744.86,665.32 704.47,670.51 628.2,680.3 587.74,685.5"];
	29 -- 283	[pos="790.24,674.97 808.53,687.74 836.24,707.09 854.61,719.92"];
	30 -- 96	[pos="754.07,116.4 757.5,116.72 761,117.04 764.43,117.36"];
	30 -- 212	[pos="734.55,131.42 740.35,145.41 748.45,164.94 754.25,178.93"];
	30 -- 101	[pos="754.5,115.06 783.58,116.26 829.41,118.16 858.46,119.36"];
	208	[height=0.5,
		pos="874.86,67.094",
		width=0.75];
	30 -- 208	[pos="751.99,106.09 779.23,97.446 822.81,83.615 850.08,74.959"];
	30 -- 277	[pos="748.65,125.05 778.88,140.78 833.82,169.37 864.14,185.14"];
	30 -- 132	[pos="710.18,128.01 693.92,141.4 669.61,161.42 653.37,174.78"];
	174	[height=0.5,
		pos="812.34,58.248",
		width=0.75];
	30 -- 174	[pos="746.59,101.3 760.41,92.247 778.96,80.107 792.83,71.026"];
	232	[height=0.5,
		pos="748.67,18",
		width=0.75];
	30 -- 232	[pos="731.31,95.887 735.14,78.736 740.85,53.087 744.67,35.963"];
	225	[height=0.5,
		pos="943.36,70.249",
		width=0.75];
	30 -- 225	[pos="753.35,108.66 794.88,100.27 875.62,83.945 917.2,75.537"];
	298	[height=0.5,
		pos="662.62,26.078",
		width=0.75];
	30 -- 298	[pos="715.13,97.407 703.57,81.7 686.28,58.211 674.73,42.528"];
	30 -- 257	[pos="748.65,125.02 764.5,133.24 786.01,144.4 801.92,152.66"];
	31 -- 113	[pos="972.91,753.43 970.02,753.76 967.07,754.09 964.18,754.42"];
	32 -- 137	[pos="994.25,667.67 1019.2,644.37 1067.1,599.53 1092.1,576.15"];
	32 -- 54	[pos="1004.3,687.78 1039.3,694.81 1101.2,707.25 1136.2,714.3"];
	32 -- 146	[pos="1002.9,690.73 1013.7,694.34 1026.4,698.57 1037.2,702.18"];
	32 -- 140	[pos="998.36,670.04 1006.2,665.14 1015.1,659.54 1022.9,654.66"];
	32 -- 86	[pos="985.57,665.09 991.57,650.63 1000.1,630.17 1006.1,615.71"];
	54 -- 140	[pos="1142.9,706.97 1120.6,692.6 1084.5,669.23 1062.2,654.87"];
	33 -- 71	[pos="729.83,241.63 707.4,242.63 675.67,244.05 653.25,245.05"];
	33 -- 96	[pos="761.99,222.63 768.49,199.83 779.7,160.54 786.21,137.71"];
	33 -- 263	[pos="739.93,226.3 732.49,220.12 723.77,212.87 716.32,206.68"];
	33 -- 53	[pos="755.29,258.58 755.06,261.14 754.83,263.77 754.6,266.33"];
	33 -- 97	[pos="747.79,223.47 730.28,190.91 692.1,119.96 674.51,87.257"];
	33 -- 217	[pos="745.74,256.98 735.12,272.72 719.24,296.25 708.63,311.97"];
	33 -- 101	[pos="772.69,225.72 797.39,202.7 844.9,158.4 869.67,135.31"];
	33 -- 277	[pos="781.13,232.13 804.15,224.25 838.58,212.47 861.56,204.6"];
	33 -- 145	[pos="784.14,240.41 792.19,240.41 800.99,240.4 809.02,240.4"];
	33 -- 177	[pos="740.53,255.06 717.35,275.76 675.21,313.4 651.96,334.17"];
	96 -- 97	[pos="767.9,110.61 745.27,101.68 711.16,88.221 688.57,79.307"];
	179	[height=0.5,
		pos="1008.5,76.39",
		width=0.75];
	96 -- 179	[pos="817.51,114.6 859.37,106.23 940.85,89.925 982.55,81.582"];
	96 -- 101	[pos="818.32,120.03 830.94,120.11 845.94,120.21 858.56,120.3"];
	96 -- 174	[pos="797.39,102.03 800.21,93.783 803.54,84.022 806.35,75.811"];
	209	[height=0.5,
		pos="1078.8,92.342",
		width=0.75];
	96 -- 209	[pos="818.1,117.28 872.88,112.04 997.17,100.15 1052,94.908"];
	96 -- 225	[pos="815.74,111.87 844.11,102.62 890.64,87.443 918.99,78.197"];
	85 -- 103	[pos="1356.3,460.31 1355.2,494.12 1352.7,566.33 1351.6,600.07"];
	85 -- 119	[pos="1355.8,460.15 1354.3,484.35 1351.7,527.1 1350.2,551.46"];
	85 -- 175	[pos="1368.9,458.32 1387.7,483.67 1423.7,532.43 1442.6,557.85"];
	68 -- 167	[pos="516.13,692.82 549.98,695.1 607.82,698.99 641.77,701.28"];
	36 -- 47	[pos="710.96,615.88 667.89,640.76 568.51,698.18 525.34,723.12"];
	36 -- 79	[pos="724.31,586.51 713.08,559.09 691.46,506.34 680.19,478.84"];
	36 -- 152	[pos="757.64,599.43 811.48,589.97 934.21,568.42 988.34,558.91"];
	130	[height=0.5,
		pos="230.65,716.8",
		width=0.75];
	36 -- 130	[pos="705.61,609.85 619.38,629.27 342.37,691.64 256.37,711"];
	36 -- 45	[pos="705.3,608.71 659.04,616.98 563.42,634.07 517.19,642.33"];
	36 -- 256	[pos="705.02,600.25 635.91,590.38 450.6,563.93 381.52,554.07"];
	36 -- 169	[pos="722.19,621.04 702.68,656.73 657.67,739.1 638.12,774.88"];
	36 -- 199	[pos="704.57,606.46 626.59,613.5 401.11,633.88 323.01,640.94"];
	36 -- 266	[pos="704.29,603.38 630.51,601.62 427.23,596.79 353.6,595.04"];
	131 -- 297	[pos="265.05,526.2 247.97,553.43 214.43,606.91 197.36,634.12"];
	38 -- 152	[pos="1237.7,524.64 1189.7,531.02 1089.3,544.36 1041.4,550.73"];
	38 -- 91	[pos="1258.3,503.44 1257.3,500.57 1256.3,497.6 1255.3,494.73"];
	38 -- 155	[pos="1244.6,533.68 1219.6,549.53 1177,576.6 1151.9,592.48"];
	38 -- 56	[pos="1273.4,538.18 1291.8,573.44 1334,653.94 1352.4,689.17"];
	38 -- 129	[pos="1254.7,504.04 1240.2,478.59 1213.1,430.97 1198.7,405.56"];
	38 -- 62	[pos="1274.6,504.25 1288.8,480.83 1314.4,438.66 1328.6,415.14"];
	38 -- 75	[pos="1285.7,532.61 1320.4,551.35 1388.5,588.21 1423,606.84"];
	38 -- 224	[pos="1247.6,506.71 1221.2,484.2 1170.4,440.88 1143.9,418.3"];
	38 -- 184	[pos="1275.2,537.66 1302.7,580.07 1375.6,692.17 1403.2,734.75"];
	38 -- 95	[pos="1261.9,539.02 1256.7,575.34 1245,657.24 1239.9,693.64"];
	38 -- 112	[pos="1291.7,522.43 1326.8,524.15 1387.3,527.13 1422.3,528.84"];
	38 -- 122	[pos="1255.5,503.7 1247.4,488.16 1235.8,465.54 1227.8,450.11"];
	38 -- 161	[pos="1257.7,538.81 1250.4,558.13 1238.7,588.87 1231.4,608.08"];
	278	[height=0.5,
		pos="1410.5,662.2",
		width=0.75];
	38 -- 278	[pos="1279.8,535.93 1307.8,562.96 1366.7,619.94 1394.9,647.14"];
	38 -- 192	[pos="1262.6,503 1260.1,477.85 1255.5,432.56 1253,407.29"];
	155 -- 161	[pos="1157.8,610.83 1170.7,613.66 1186.2,617.07 1199.1,619.89"];
	41 -- 48	[pos="1434.9,690.04 1412.2,655.56 1360.3,576.85 1337.7,542.4"];
	41 -- 106	[pos="1425.9,694.1 1378.2,663.99 1258.4,588.3 1210.9,558.24"];
	139 -- 154	[pos="1397.6,361.85 1413.3,372.79 1435.5,388.26 1451.3,399.2"];
	139 -- 178	[pos="1393.3,364.32 1412.9,385.25 1447.4,422.08 1466.9,442.81"];
	205	[height=0.5,
		pos="1527.3,597.1",
		width=0.75];
	139 -- 205	[pos="1388.8,365.72 1416.1,411.22 1490.1,534.97 1517.2,580.23"];
	237 -- 262	[pos="824.5,479.74 815.72,495.33 802.79,518.31 794.02,533.88"];
	130 -- 199	[pos="244.51,701.23 255.6,688.77 271.07,671.38 282.16,658.92"];
	78 -- 84	[pos="831.06,870.28 787.37,878.92 699.85,896.22 656.14,904.87"];
	78 -- 191	[pos="867.67,882.12 900.5,934.93 1000.5,1095.8 1033.2,1148.3"];
	78 -- 143	[pos="881.88,872.29 945.3,890.61 1113,939.04 1176.6,957.43"];
	78 -- 207	[pos="884.42,865.54 964.41,866.75 1197.5,870.26 1277.4,871.46"];
	78 -- 116	[pos="834.06,855.57 816.85,848.42 793.43,838.71 776.24,831.57"];
	250	[height=0.5,
		pos="1106,1172",
		width=0.75];
	78 -- 250	[pos="870.13,881.2 913.14,934.23 1050.3,1103.3 1093.1,1156.1"];
	48 -- 85	[pos="1333.1,508.01 1338.2,493.82 1345.4,474.02 1350.5,459.84"];
	48 -- 61	[pos="1332.9,508 1347.3,466.55 1383.2,363.74 1397.7,322.2"];
	48 -- 106	[pos="1300.2,529.63 1276.3,533.14 1241.3,538.28 1217.4,541.79"];
	48 -- 103	[pos="1331.4,543.56 1335.7,559.92 1342,584.04 1346.3,600.38"];
	212 -- 277	[pos="788.75,196.38 809.45,196.37 837.8,196.36 858.48,196.35"];
	107	[height=0.5,
		pos="1416.7,962.81",
		width=0.75];
	56 -- 107	[pos="1365.3,724.25 1375.4,771.37 1402.7,897.69 1412.8,944.78"];
	56 -- 95	[pos="1334.1,707.41 1313.5,708.31 1285.1,709.56 1264.5,710.46"];
	56 -- 110	[pos="1364.5,724.13 1369.4,751.68 1378.7,804.15 1383.7,831.83"];
	236	[height=0.5,
		pos="1453.1,891.25",
		width=0.75];
	56 -- 236	[pos="1370,723.62 1387.5,758.98 1427.1,838.82 1444.5,874.02"];
	170 -- 176	[pos="728.46,740.84 745.64,734.13 768.88,725.05 786.05,718.35"];
	70 -- 115	[pos="986.92,930.01 989.62,959.89 994.99,1019.2 997.69,1049"];
	70 -- 211	[pos="995.36,895.2 997.49,891.67 999.73,887.96 1001.9,884.43"];
	70 -- 143	[pos="1010.9,918.18 1052.6,928.33 1134.4,948.27 1176,958.41"];
	115 -- 156	[pos="976.25,1057.2 945.1,1043.9 889.93,1020.3 858.84,1007.1"];
	115 -- 235	[pos="991.03,1084.5 982.59,1102.4 969.59,1129.9 961.18,1147.7"];
	191 -- 250	[pos="1070.4,1168.1 1073.3,1168.4 1076.3,1168.7 1079.2,1169.1"];
	141 -- 168	[pos="433.54,70.03 425.32,75.732 415.69,82.411 407.46,88.12"];
	141 -- 148	[pos="462.97,73.688 466.25,78.823 469.86,84.476 473.14,89.61"];
	81 -- 121	[pos="388.31,378.21 384.65,353.63 378.14,309.79 374.46,285.08"];
	81 -- 227	[pos="366.72,388.13 346.96,381.57 319.21,372.35 299.46,365.79"];
	81 -- 273	[pos="417.21,391.39 431.25,388.82 448.49,385.67 462.55,383.09"];
	50 -- 252	[pos="514.68,184.82 522.06,169.39 532.77,146.96 540.13,131.54"];
	50 -- 190	[pos="493.61,218.32 471.06,246.77 424.44,305.59 401.91,334.03"];
	50 -- 60	[pos="485.76,190.21 471.9,182.13 453.7,171.53 439.87,163.47"];
	55 -- 238	[pos="624.77,135.17 638.71,163.17 666.08,218.18 680.01,246.16"];
	55 -- 162	[pos="638.93,108.08 659.46,99.202 689.51,86.211 710.03,77.342"];
	230 -- 248	[pos="716.85,367.69 754.97,341.26 840.95,281.68 879.16,255.2"];
	230 -- 238	[pos="696.57,362.66 694.8,340.67 691.84,303.77 690.06,281.69"];
	45 -- 47	[pos="493.86,665.25 496.22,680.46 499.57,702.01 501.92,717.12"];
	45 -- 130	[pos="465.59,653.83 415.69,667.2 305.49,696.74 255.81,710.05"];
	45 -- 169	[pos="505.51,662.25 531.9,690.02 587.52,748.58 614.07,776.52"];
	45 -- 69	[pos="466.28,654.59 441.5,662.18 403.6,673.79 378.89,681.36"];
	45 -- 65	[pos="478.71,663.37 453.75,696.52 397.45,771.28 372.43,804.51"];
	45 -- 149	[pos="464.87,652.21 394.55,666.2 202.02,704.49 131.95,718.42"];
	45 -- 199	[pos="463.91,646.5 426.76,645.81 360.4,644.58 323.2,643.88"];
	45 -- 294	[pos="488.41,665.07 484.69,690.64 477.94,737.1 474.21,762.74"];
	166 -- 294	[pos="317.94,739.69 352.03,748.85 412.42,765.07 446.44,774.2"];
	166 -- 200	[pos="300.7,750.31 302.12,753.38 303.59,756.58 305.01,759.66"];
	256 -- 266	[pos="344.28,566.96 342.01,570.48 339.61,574.18 337.33,577.7"];
	61 -- 85	[pos="1397.9,322.11 1388.9,348.56 1372,398.06 1363,424.47"];
	49 -- 138	[pos="1071.5,803.26 1071,793.89 1070.4,782.49 1069.9,773.13"];
	49 -- 67	[pos="1081,838.65 1098.9,874.85 1140.1,958.38 1158,994.67"];
	49 -- 63	[pos="1069.6,839.39 1065.6,864.85 1058.3,911.12 1054.2,936.66"];
	49 -- 242	[pos="1048.8,812.42 1041.2,809.53 1032.8,806.34 1025.2,803.45"];
	49 -- 64	[pos="1085.8,837.37 1115.3,872.76 1185.8,957.44 1215.3,992.79"];
	49 -- 136	[pos="1097.3,828.56 1126,836.84 1173.1,850.41 1201.9,858.72"];
	49 -- 185	[pos="1064.9,838.95 1049.9,873.36 1017,949.34 1002.1,983.6"];
	49 -- 124	[pos="1086.4,837.01 1124.1,879.33 1228.1,995.94 1265.8,1038.2"];
	49 -- 288	[pos="1089.6,835.69 1095.7,840.75 1102.6,846.45 1108.7,851.52"];
	49 -- 216	[pos="1093.3,833.19 1125.5,851.36 1186.8,886.01 1218.9,904.18"];
	243	[height=0.5,
		pos="1350.4,948.54",
		width=0.75];
	49 -- 243	[pos="1094.7,831.59 1146.8,855.4 1275.9,914.45 1328.1,938.3"];
	67 -- 185	[pos="1139.3,1010.3 1107.1,1008.2 1053.9,1004.8 1021.7,1002.7"];
	67 -- 118	[pos="1159.1,1029.6 1151.2,1048.1 1138.8,1077.1 1130.9,1095.6"];
	67 -- 73	[pos="1179,1028.3 1184.1,1034.9 1189.9,1042.5 1195,1049.1"];
	67 -- 218	[pos="1192.9,1007.9 1214,1004.6 1243.4,999.97 1264.4,996.67"];
	67 -- 286	[pos="1157.3,994.94 1153.2,987.46 1148.5,978.7 1144.4,971.21"];
	259	[height=0.5,
		pos="1307.9,1138.7",
		width=0.75];
	67 -- 259	[pos="1182.8,1026.6 1209.9,1050.9 1264.2,1099.5 1291.5,1124"];
	51 -- 74	[pos="553.35,1051.9 556.24,1051.5 559.18,1051 562.07,1050.6"];
	51 -- 219	[pos="511.94,1040.8 487.73,1015.8 439.81,966.28 415.41,941.09"];
	51 -- 163	[pos="510.59,1041.5 468.59,1003.6 355.97,901.99 313.99,864.13"];
	51 -- 102	[pos="500.69,1050.4 475.13,1045 436.33,1036.7 410.83,1031.2"];
	51 -- 105	[pos="552.99,1060.3 574.05,1063.7 603.44,1068.5 624.48,1071.9"];
	160	[height=0.5,
		pos="331.05,981.68",
		width=0.75];
	51 -- 160	[pos="503.08,1047 465.48,1032.7 392.38,1005 354.73,990.68"];
	285	[height=0.5,
		pos="644.8,1193.2",
		width=0.75];
	51 -- 285	[pos="540.23,1071.7 562.89,1098 608.24,1150.7 631.04,1177.2"];
	279	[height=0.5,
		pos="582.59,1164.4",
		width=0.75];
	51 -- 279	[pos="535.66,1073.4 546.09,1093.6 563.2,1126.8 573.63,1147"];
	51 -- 231	[pos="515.62,1039.5 504.42,1022.9 487.21,997.26 475.98,980.55"];
	51 -- 226	[pos="528.08,1038 528.77,1029.1 529.59,1018.5 530.29,1009.7"];
	51 -- 180	[pos="508.71,1042.1 468.91,1011.5 373.68,938.08 333.92,907.44"];
	244	[height=0.5,
		pos="494.09,1110.6",
		width=0.75];
	51 -- 244	[pos="516.54,1073 512.58,1079.6 508.05,1087.2 504.1,1093.8"];
	51 -- 264	[pos="550.29,1065.2 581.62,1077.4 636.62,1098.8 667.93,1111"];
	51 -- 240	[pos="506.37,1043.8 468.6,1021 387.93,972.5 350.24,949.82"];
	190 -- 221	[pos="372.72,364.49 347.44,386.57 299.3,428.63 273.91,450.83"];
	52 -- 150	[pos="1011,150.07 997.53,160.27 979.19,174.14 965.72,184.33"];
	52 -- 251	[pos="1056.1,137.86 1058.7,138 1061.4,138.14 1064,138.28"];
	52 -- 248	[pos="1011.7,150.44 986.61,170.65 940.63,207.75 915.54,228"];
	52 -- 245	[pos="1050.6,147.64 1070.3,157.96 1099.5,173.17 1119.2,183.48"];
	52 -- 164	[pos="1055.8,139.46 1076.8,141.87 1106,145.2 1127,147.6"];
	52 -- 171	[pos="1037.8,153.45 1041,159.74 1044.7,166.86 1047.9,173.16"];
	258	[height=0.5,
		pos="1153.4,99.641",
		width=0.75];
	52 -- 258	[pos="1053.9,129.06 1075.6,122.64 1106.9,113.39 1128.6,106.98"];
	251 -- 258	[pos="1110.8,127.05 1118.1,122.37 1126.3,117.07 1133.6,112.38"];
	53 -- 157	[pos="755.05,302.74 756.79,318 759.24,339.62 760.97,354.78"];
	53 -- 145	[pos="774.36,273.1 786.76,266.52 802.33,258.26 814.71,251.69"];
	53 -- 177	[pos="731.96,295.97 710.7,307.63 678.01,325.57 656.68,337.27"];
	80 -- 295	[pos="408.63,868.63 370.19,865.77 300.23,860.59 261.86,857.74"];
	80 -- 117	[pos="410.2,864.11 365.82,852.75 274.96,829.51 230.75,818.19"];
	80 -- 134	[pos="430.66,852.57 426.02,835.98 419.18,811.53 414.54,794.96"];
	245 -- 251	[pos="1126.6,179.08 1119.8,171.59 1111.8,162.65 1105,155.18"];
	245 -- 270	[pos="1150.7,211.65 1159.8,227.24 1173.3,250.22 1182.5,265.79"];
	109 -- 127	[pos="538.41,415.4 544.87,411.85 551.99,407.95 558.45,404.41"];
	86 -- 137	[pos="1036.7,589.09 1051.3,583.38 1070,576.06 1084.6,570.34"];
	86 -- 146	[pos="1020.8,615.77 1029.9,636.82 1045,671.92 1054.1,692.91"];
	107 -- 236	[pos="1425.5,945.48 1431.2,934.23 1438.6,919.63 1444.3,908.41"];
	59 -- 69	[pos="397.05,660.16 389.51,665.23 380.89,671.03 373.37,676.08"];
	58 -- 261	[pos="1068.5,341.25 1068.5,321.09 1068.6,289.03 1068.6,268.98"];
	58 -- 129	[pos="1094.1,365.85 1114.5,370.74 1143.1,377.57 1163.5,382.46"];
	58 -- 224	[pos="1086.7,373.43 1093.8,378.79 1101.9,384.91 1109,390.26"];
	58 -- 213	[pos="1068.5,341.44 1068.5,334.01 1068.5,325.44 1068.4,318.02"];
	129 -- 224	[pos="1163.4,394.85 1159.8,395.74 1156.1,396.65 1152.5,397.53"];
	129 -- 213	[pos="1170.7,375.09 1148,358.42 1109.7,330.18 1086.9,313.45"];
	69 -- 199	[pos="336.5,674.99 329.27,669.34 320.93,662.83 313.7,657.19"];
	69 -- 294	[pos="371.87,702.67 393.97,720.03 431.73,749.67 453.89,767.07"];
	60 -- 141	[pos="425.59,133.77 431.48,116.87 440.27,91.59 446.15,74.714"];
	60 -- 252	[pos="444.28,144.35 467.13,137.73 500.8,127.98 523.62,121.37"];
	60 -- 168	[pos="409.15,134.78 405.86,129.41 402.22,123.45 398.92,118.06"];
	60 -- 148	[pos="438.03,138.45 446.49,132.5 456.49,125.46 464.98,119.49"];
	62 -- 139	[pos="1351.7,382.18 1356.2,376.53 1361.3,370.18 1365.9,364.53"];
	62 -- 189	[pos="1315.1,389.38 1287.8,379.41 1243.5,363.2 1216.2,353.23"];
	62 -- 214	[pos="1334.1,380.39 1326.3,351.8 1310.9,295.79 1303,266.92"];
	87	[height=0.5,
		pos="1362,203.98",
		width=0.75];
	62 -- 87	[pos="1341.1,379.84 1345.5,342.75 1355.5,258.99 1359.9,222.05"];
	62 -- 92	[pos="1345.5,380.36 1355.5,353.42 1374.3,302.48 1384.3,275.62"];
	62 -- 112	[pos="1352.3,414.04 1373.5,439.42 1414.8,488.77 1436,514.19"];
	62 -- 122	[pos="1314.1,405.35 1293.5,411.34 1264.4,419.83 1243.8,425.82"];
	189 -- 214	[pos="1208.4,329.97 1228.3,311.97 1261.9,281.5 1281.9,263.44"];
	63 -- 249	[pos="1052.8,972.85 1054.7,996.82 1058.1,1038.9 1060,1062.9"];
	63 -- 99	[pos="1059.2,972.19 1080.4,1019.4 1139,1149.4 1160.2,1196.5"];
	63 -- 242	[pos="1045.8,937.01 1036.2,906.18 1016.6,843.15 1006.9,812.27"];
	63 -- 124	[pos="1074.1,964.63 1117.7,983.55 1212.8,1024.8 1256.6,1043.8"];
	63 -- 243	[pos="1078.4,954.22 1135.2,953.03 1266.3,950.3 1323.2,949.11"];
	63 -- 292	[pos="1062.6,938.38 1065.2,934.49 1068.1,930.34 1070.7,926.45"];
	63 -- 271	[pos="1045.6,972.58 1035.4,1004.6 1013.9,1071.5 1003.6,1103.4"];
	99 -- 124	[pos="1179.5,1197.3 1200.9,1166.6 1246.5,1101.2 1268,1070.4"];
	75 -- 184	[pos="1439.9,636.17 1434.2,661.6 1423.9,707.84 1418.1,733.36"];
	75 -- 112	[pos="1445.1,599.95 1446,584.85 1447.3,563.49 1448.3,548.39"];
	242 -- 243	[pos="1024,804.41 1087.2,832.29 1264.8,910.71 1327.9,938.57"];
	242 -- 292	[pos="1012.9,810.98 1028.2,832.96 1055.1,871.54 1070.4,893.51"];
	224 -- 261	[pos="1120.2,386.24 1109.1,356.88 1086.7,298.13 1075.4,268.59"];
	64 -- 67	[pos="1201.6,1010.2 1198.9,1010.3 1196.3,1010.4 1193.7,1010.6"];
	64 -- 185	[pos="1201.3,1007.8 1156.2,1006.3 1066.7,1003.3 1021.7,1001.8"];
	64 -- 73	[pos="1222,1026.3 1219.4,1033 1216.6,1040.7 1214,1047.5"];
	64 -- 216	[pos="1230.8,990.4 1232.8,974.03 1235.6,950.2 1237.6,933.94"];
	64 -- 259	[pos="1238.8,1025.5 1253.9,1050.3 1282.2,1096.6 1297.5,1121.7"];
	65 -- 166	[pos="347.69,804.8 335.54,788.92 317.09,764.81 304.97,748.95"];
	65 -- 149	[pos="336.6,811.97 288.33,793.47 178.3,751.29 129.76,732.69"];
	65 -- 241	[pos="334.79,813.99 297.66,803.76 228.76,784.78 191.8,774.59"];
	65 -- 294	[pos="383.97,812.37 402.79,805.62 428.88,796.26 447.68,789.52"];
	65 -- 200	[pos="344.37,806.29 339.34,801.59 333.77,796.38 328.73,791.67"];
	268	[height=0.5,
		pos="43.962,764.54",
		width=0.75];
	65 -- 268	[pos="333.91,816.29 274.45,805.68 129.62,779.83 70.129,769.21"];
	136 -- 138	[pos="1208.2,852.77 1177.8,831.42 1118.1,789.48 1087.7,768.15"];
	136 -- 288	[pos="1199.8,865.89 1185.3,865.86 1167.5,865.84 1153,865.81"];
	149 -- 241	[pos="124.59,737.06 132.14,742.54 140.84,748.85 148.37,754.32"];
	149 -- 268	[pos="86.714,736.32 79.315,741.2 70.872,746.77 63.455,751.67"];
	185 -- 286	[pos="1018.7,992.88 1044.5,984.3 1085,970.78 1110.8,962.17"];
	291	[height=0.5,
		pos="27,583.76",
		width=0.75];
	247 -- 291	[pos="76.459,538.93 66.275,548.16 53.201,560.01 43.053,569.21"];
	247 -- 299	[pos="104.54,507.72 107.35,503.81 110.35,499.64 113.16,495.73"];
	118 -- 218	[pos="1142,1099.6 1174.3,1076.4 1240.3,1028.9 1272.4,1005.8"];
	118 -- 259	[pos="1149.9,1116.6 1184.9,1121.5 1246.2,1130.1 1281.3,1135"];
	72 -- 94	[pos="917.69,394.41 937.41,380.35 968.27,358.35 987.9,344.35"];
	73 -- 118	[pos="1186.6,1077 1173.7,1084.3 1157.2,1093.8 1144.3,1101.1"];
	73 -- 218	[pos="1223.8,1050.9 1238.4,1038.1 1259.7,1019.6 1274.3,1006.9"];
	73 -- 259	[pos="1225.8,1078.7 1243.9,1092 1271.5,1112.1 1289.6,1125.3"];
	187 -- 289	[pos="507.43,1138.9 494.13,1123 473.68,1098.5 460.33,1082.5"];
	163 -- 231	[pos="317.07,862.74 349.26,884.79 413.84,929.03 445.89,950.97"];
	163 -- 226	[pos="318.26,861.96 362.59,888.82 467.46,952.38 511.59,979.13"];
	163 -- 240	[pos="304.42,867.45 310,882.72 317.99,904.62 323.56,919.88"];
	76 -- 187	[pos="596.01,1128.6 580.47,1134 560.35,1140.9 544.79,1146.3"];
	76 -- 102	[pos="596.7,1110.9 551.63,1092.7 453.3,1053.2 408.32,1035.1"];
	76 -- 180	[pos="601.98,1106.8 547.9,1066.5 387.98,947.28 334.02,907.07"];
	76 -- 289	[pos="595.3,1112.6 562.41,1102.4 504.67,1084.5 471.8,1074.3"];
	76 -- 254	[pos="646.9,1122.9 674.1,1125.6 715.98,1129.8 743.19,1132.4"];
	76 -- 267	[pos="641.12,1131.7 660.64,1142.2 689.55,1157.9 709.16,1168.5"];
	102 -- 187	[pos="400.56,1040.5 426.57,1065.2 478.62,1114.8 504.79,1139.6"];
	246	[height=0.5,
		pos="243.63,915.71",
		width=0.75];
	102 -- 246	[pos="367.39,1012 340.3,990.91 288.7,950.77 261.47,929.59"];
	102 -- 160	[pos="367.64,1011.5 361.48,1006.5 354.55,1000.8 348.39,995.82"];
	102 -- 285	[pos="404.54,1038.3 452.68,1069.3 576.67,1149.3 625.05,1180.5"];
	102 -- 279	[pos="403.95,1039 441.82,1065.6 526.41,1124.9 563.99,1151.3"];
	102 -- 231	[pos="402.72,1012 415.94,1001.8 433.93,987.83 447.15,977.6"];
	102 -- 180	[pos="375.99,1008.4 362.76,983.12 338.25,936.22 325.03,910.91"];
	102 -- 244	[pos="403.02,1039.7 423.35,1055.6 456.22,1081.1 476.41,1096.9"];
	280	[height=0.5,
		pos="268.44,987.26",
		width=0.75];
	102 -- 280	[pos="360.57,1017.6 340.68,1011.1 312.73,1001.9 292.84,995.31"];
	184 -- 278	[pos="1413.3,733.41 1412.7,717.92 1411.8,695.72 1411.2,680.24"];
	77 -- 81	[pos="467.49,263.15 450.93,291.95 417.43,350.2 400.8,379.11"];
	77 -- 228	[pos="488.27,229.68 498.78,213.94 514.49,190.4 524.98,174.68"];
	77 -- 82	[pos="463.93,230.48 458.83,224.44 453.01,217.54 447.9,211.48"];
	77 -- 121	[pos="451.15,251.33 434.92,254.5 414.12,258.56 397.89,261.73"];
	228 -- 265	[pos="525.4,174.87 507.36,203.27 470.87,260.72 452.76,289.23"];
	117 -- 134	[pos="231.72,807.25 270.79,800.59 343.82,788.14 383.02,781.46"];
	114 -- 293	[pos="160.75,320.68 180.9,284.57 227.47,201.13 247.53,165.17"];
	114 -- 172	[pos="178.2,335.22 180.95,334.96 183.73,334.69 186.47,334.42"];
	114 -- 147	[pos="165.75,353.31 170.42,358.26 175.6,363.75 180.28,368.72"];
	114 -- 182	[pos="160.84,320.86 163.82,315.63 167.1,309.88 170.07,304.65"];
	82 -- 228	[pos="458.27,186.8 474.56,180.8 496.07,172.89 512.33,166.9"];
	82 -- 281	[pos="425.48,212.78 405.19,251.7 356,346.01 335.8,384.74"];
	82 -- 121	[pos="420.55,211.38 410.16,223.19 396.01,239.26 385.63,251.06"];
	82 -- 265	[pos="435.72,213.81 437.13,234.28 439.4,267.31 440.8,287.79"];
	281 -- 290	[pos="318.57,384.63 299.78,346 254.31,252.53 235.47,213.81"];
	143 -- 207	[pos="1217.7,950.16 1237,932.83 1269,903.99 1288.3,886.58"];
	121 -- 228	[pos="391.23,253.94 422.93,232.98 485.27,191.74 516.78,170.9"];
	121 -- 281	[pos="365.89,284.47 357.29,310.33 341.37,358.26 332.78,384.12"];
	121 -- 290	[pos="349.78,256.16 322.59,242.95 276.55,220.6 249.26,207.35"];
	83 -- 189	[pos="1231,329.84 1226.1,331.72 1220.8,333.7 1215.9,335.58"];
	83 -- 165	[pos="1250.5,303.08 1247.4,289.28 1243.1,270.27 1240,256.48"];
	83 -- 122	[pos="1248.9,338.69 1242.2,359.69 1231.2,394.41 1224.6,415.37"];
	83 -- 222	[pos="1236.4,306.98 1216.6,291.77 1185.1,267.58 1165.4,252.45"];
	165 -- 222	[pos="1208.9,238.68 1198.1,238.69 1185.6,238.69 1174.7,238.7"];
	103 -- 119	[pos="1350.2,600.14 1350.1,596.17 1349.9,591.96 1349.8,587.98"];
	103 -- 175	[pos="1374,608.39 1391.2,601.1 1414.5,591.19 1431.7,583.91"];
	87 -- 214	[pos="1343.2,217.17 1334.9,222.95 1325.3,229.72 1317,235.51"];
	87 -- 92	[pos="1371.1,221.08 1374.5,227.39 1378.3,234.54 1381.6,240.85"];
	87 -- 142	[pos="1356.6,221.79 1347.9,250.68 1330.7,307.43 1321.9,336.31"];
	92 -- 139	[pos="1388.3,276.36 1386.2,292.19 1383.1,314.91 1381,330.64"];
	92 -- 142	[pos="1378.2,274.32 1364.5,292.1 1342.6,320.36 1328.9,338.04"];
	88 -- 196	[pos="483.24,480.32 436.98,499.07 333.77,540.92 287.58,559.65"];
	89 -- 131	[pos="177.19,706.52 197.22,666.4 246.9,566.88 266.97,526.67"];
	89 -- 100	[pos="164.96,705.85 158.94,676.54 147.02,618.5 140.95,588.95"];
	89 -- 234	[pos="173.74,705.94 180.06,683.97 190.78,646.77 197.13,624.73"];
	89 -- 202	[pos="145.62,714.2 127.52,706.73 102.44,696.38 84.353,688.91"];
	90 -- 97	[pos="620.23,70.153 626,70.149 632.09,70.144 637.86,70.14"];
	95 -- 201	[pos="1218.3,698.8 1210.8,693.68 1202.1,687.79 1194.5,682.64"];
	95 -- 155	[pos="1222.2,696.4 1202.2,676.15 1167,640.62 1147,620.39"];
	95 -- 107	[pos="1249.1,728.14 1281.6,773.64 1372.3,900.69 1404.9,946.27"];
	95 -- 203	[pos="1250.1,727.56 1278.6,762.79 1346.6,847.09 1375,882.29"];
	95 -- 110	[pos="1253.3,726.46 1282.1,753.08 1342.3,808.73 1371,835.28"];
	95 -- 236	[pos="1254.2,725.75 1294.5,759.24 1395.5,843.3 1435.9,876.97"];
	95 -- 135	[pos="1260.5,721.37 1301,738.27 1383.8,772.87 1424,789.7"];
	95 -- 161	[pos="1234.6,693.39 1232.5,678.68 1229.5,658.11 1227.4,643.48"];
	100 -- 131	[pos="159.75,560.76 185.48,549.35 227.32,530.81 253.05,519.4"];
	100 -- 247	[pos="122.64,555.51 117.77,550.42 112.34,544.74 107.46,539.64"];
	100 -- 234	[pos="158.16,582.35 165.59,586.47 173.95,591.1 181.38,595.22"];
	100 -- 133	[pos="153.07,555.92 158.15,551.16 163.79,545.89 168.88,541.13"];
	100 -- 202	[pos="125.7,587.25 111.44,607.68 87.313,642.27 73.011,662.77"];
	100 -- 291	[pos="110.53,573.9 93.332,575.93 71.043,578.56 53.815,580.59"];
	100 -- 297	[pos="147.74,587.74 156.22,601.43 168.07,620.58 176.5,634.19"];
	179 -- 208	[pos="981.46,74.509 958.27,72.896 925.04,70.584 901.86,68.973"];
	179 -- 209	[pos="1034.3,82.239 1040.4,83.626 1046.9,85.106 1053,86.493"];
	179 -- 225	[pos="981.63,73.857 977.85,73.5 973.96,73.133 970.17,72.777"];
	142 -- 214	[pos="1313.3,335.75 1309.9,316.41 1304.6,286.15 1301.2,266.9"];
	101 -- 179	[pos="909.57,111.88 931.23,104.11 962.93,92.737 984.57,84.974"];
	101 -- 208	[pos="881.95,102.41 880.83,96.842 879.6,90.716 878.48,85.151"];
	101 -- 277	[pos="885.6,138.85 885.61,150.77 885.63,166.26 885.65,178.15"];
	101 -- 209	[pos="912.04,116.63 948.94,111.26 1015.5,101.57 1052.4,96.194"];
	101 -- 257	[pos="866.63,133.74 858.94,139.13 850.07,145.33 842.38,150.71"];
	208 -- 232	[pos="851.42,57.975 828.9,49.212 795.04,36.039 772.42,27.237"];
	208 -- 298	[pos="848.83,62.065 808.1,54.193 729.72,39.046 688.86,31.149"];
	246 -- 280	[pos="249.76,933.39 253.55,944.32 258.4,958.3 262.2,969.28"];
	133 -- 247	[pos="157.68,525.62 145.79,525.37 131.87,525.06 119.97,524.8"];
	133 -- 234	[pos="188.7,544.1 191.6,557.46 195.53,575.63 198.42,588.97"];
	133 -- 202	[pos="171.85,542.32 148.08,571.83 97.83,634.2 74.19,663.54"];
	133 -- 291	[pos="160.86,534.96 131.11,545.8 80.672,564.19 50.937,575.03"];
	133 -- 299	[pos="167.2,512.38 159.48,506.32 150.44,499.22 142.71,493.15"];
	104 -- 144	[pos="929.36,463.81 950.71,463.12 980.32,462.16 1001.7,461.47"];
	104 -- 237	[pos="874.89,463.92 870.44,463.79 865.84,463.66 861.39,463.54"];
	105 -- 219	[pos="630.7,1064.1 583.81,1035.9 467.51,965.96 420.54,937.69"];
	119 -- 175	[pos="1376.2,570.93 1392,571.58 1411.8,572.4 1427.5,573.05"];
	110 -- 236	[pos="1406.7,862.36 1415.1,867.58 1424.8,873.65 1433.2,878.87"];
	110 -- 135	[pos="1403.6,835.87 1411.9,828.96 1421.7,820.66 1430,813.71"];
	112 -- 139	[pos="1442.5,512.44 1428.9,477.64 1399,400.82 1385.4,366.18"];
	112 -- 184	[pos="1446.5,548.28 1439.9,589.89 1423.6,691.88 1417,733.42"];
	112 -- 206	[pos="1471.8,520.06 1477.3,517.55 1483.3,514.86 1488.8,512.35"];
	112 -- 178	[pos="1457.1,512.73 1462.1,501.4 1468.6,486.7 1473.6,475.4"];
	112 -- 205	[pos="1466.3,544.7 1479.4,556 1497.6,571.6 1510.7,582.84"];
	112 -- 183	[pos="1448.5,512.11 1446.8,480.21 1443.4,414.26 1441.8,382.37"];
	112 -- 278	[pos="1444.1,547.98 1436.7,573.18 1423.2,618.98 1415.7,644.25"];
	162 -- 238	[pos="728.65,85.61 720.24,122.92 701.05,208.09 692.65,245.37"];
	156 -- 235	[pos="847.33,1013.7 869.65,1045.7 918.81,1116.1 941.31,1148.4"];
	156 -- 282	[pos="826.48,1014.4 817.22,1031.3 803.17,1056.9 793.94,1073.7"];
	116 -- 170	[pos="742.08,805.32 734.29,793.68 723.94,778.22 716.16,766.6"];
	116 -- 191	[pos="766.87,838.12 815.65,895.75 981.33,1091.5 1030.1,1149.1"];
	116 -- 250	[pos="768.41,837.07 826.3,894.5 1033.1,1099.7 1090.9,1157"];
	116 -- 176	[pos="761.78,804.9 772.33,783.7 790.2,747.8 800.78,726.53"];
	172 -- 293	[pos="217.49,313.88 225.86,278.77 244.33,201.36 252.71,166.19"];
	122 -- 189	[pos="1213.6,415.13 1209,399.77 1202.3,377.75 1197.7,362.4"];
	122 -- 165	[pos="1220.6,414.76 1223.8,377.62 1231.2,293.75 1234.4,256.77"];
	122 -- 222	[pos="1212.5,415.46 1198.9,378.56 1167.6,293.39 1154,256.4"];
	122 -- 192	[pos="1231,416.65 1233.7,412.93 1236.5,408.98 1239.3,405.27"];
	128 -- 287	[pos="916.66,923.13 907.49,949.18 890.48,997.46 881.31,1023.5"];
	128 -- 239	[pos="895.56,906.9 886.23,907.43 875.8,908.01 866.49,908.54"];
	125 -- 188	[pos="591.79,758.28 596.09,757.12 600.55,755.92 604.85,754.76"];
	218 -- 259	[pos="1292.9,1010.8 1296.2,1038.9 1302.5,1092.7 1305.8,1120.8"];
	132 -- 212	[pos="663.5,190.45 684.49,191.72 713.41,193.48 734.39,194.75"];
	135 -- 203	[pos="1437,816.09 1426.1,834.26 1408.8,863.1 1397.9,881.3"];
	202 -- 234	[pos="82.787,668.4 109.27,654.75 154.11,631.64 180.69,617.94"];
	199 -- 256	[pos="306.56,626.73 317.25,609.9 333.69,584 344.41,567.1"];
	199 -- 266	[pos="306.5,626.52 309.6,621.54 313,616.09 316.1,611.11"];
	145 -- 263	[pos="811.89,231.93 787.04,223.23 748.54,209.75 723.61,201.02"];
	154 -- 178	[pos="1474.5,430.2 1475.3,433.51 1476.1,436.97 1476.9,440.28"];
	154 -- 205	[pos="1475.7,430.1 1486.6,465.41 1510.9,544.18 1521.8,579.44"];
	147 -- 172	[pos="201.12,366.51 203.03,361.04 205.13,355.02 207.03,349.56"];
	147 -- 284	[pos="190.58,402.25 189.7,405.86 188.78,409.66 187.91,413.27"];
	147 -- 182	[pos="192.08,366.09 189.36,348.83 185.29,323 182.58,305.76"];
	193 -- 229	[pos="1027.8,510.12 999.99,510.04 957.09,509.92 929.35,509.84"];
	148 -- 168	[pos="456.77,104.83 443.91,104.14 428.57,103.33 415.7,102.64"];
	148 -- 260	[pos="461.38,116.31 437.91,126.83 401.26,143.25 377.73,153.8"];
	241 -- 268	[pos="139.57,767.01 119.21,766.48 91.502,765.77 71.157,765.24"];
	164 -- 251	[pos="1127.5,146.08 1124.1,145.5 1120.7,144.9 1117.4,144.32"];
	164 -- 258	[pos="1153.6,132.53 1153.6,127.71 1153.5,122.52 1153.5,117.71"];
	178 -- 205	[pos="1487,475.72 1495.9,502.31 1512.5,552.44 1521.4,579.2"];
	178 -- 183	[pos="1473.6,440.48 1466.4,423.71 1455.6,398.64 1448.4,381.89"];
	235 -- 282	[pos="930.26,1155.1 898.03,1140.8 839.38,1114.9 807.21,1100.7"];
	158 -- 269	[pos="1235.6,806.81 1249.6,792.53 1270.4,771.24 1284.4,756.9"];
	158 -- 195	[pos="1226.2,804.01 1227,801.25 1227.8,798.4 1228.7,795.64"];
	186 -- 274	[pos="933.08,1014.6 933.93,1027.9 935.06,1045.6 935.9,1058.8"];
	274 -- 287	[pos="916.41,1065.2 909.79,1061.3 902.45,1057.1 895.82,1053.3"];
	160 -- 285	[pos="350.21,994.6 406.22,1032.4 569.3,1142.3 625.5,1180.2"];
	160 -- 244	[pos="348.5,995.48 379.71,1020.2 444.79,1071.6 476.27,1096.5"];
	160 -- 280	[pos="304.13,984.08 301.22,984.34 298.25,984.61 295.33,984.86"];
	226 -- 264	[pos="549.12,1005.4 579.86,1030.2 643.4,1081.4 674.11,1106.2"];
	226 -- 240	[pos="506.58,984.64 467.83,974.33 393.93,954.67 355.18,944.36"];
	171 -- 245	[pos="1083.7,191.69 1093.3,192.2 1104.1,192.76 1113.7,193.26"];
	171 -- 276	[pos="1033.6,180.9 1020.3,175.5 1003.7,168.74 990.36,163.33"];
	171 -- 270	[pos="1075.8,203.32 1101.7,220.94 1147.6,252.15 1173.4,269.73"];
	174 -- 179	[pos="839.21,60.732 876.67,64.197 944.2,70.442 981.65,73.906"];
	174 -- 208	[pos="838.86,62 841.92,62.433 845.04,62.875 848.11,63.309"];
	174 -- 232	[pos="792.55,45.734 784.95,40.934 776.29,35.457 768.68,30.645"];
	174 -- 225	[pos="839.17,60.706 861.78,62.777 893.97,65.725 916.57,67.795"];
	232 -- 298	[pos="721.92,20.512 711.56,21.484 699.72,22.595 689.36,23.568"];
	183 -- 206	[pos="1449.6,381.51 1463.2,407.92 1488.9,458.22 1502.5,484.76"];
	209 -- 225	[pos="1052.4,88.03 1028.5,84.137 993.58,78.44 969.73,74.551"];
	180 -- 279	[pos="331.1,908.97 378.02,956.62 520.96,1101.8 567.66,1149.2"];
	180 -- 231	[pos="338.28,904.16 366.33,917.41 414.25,940.05 442.38,953.33"];
	180 -- 244	[pos="329.1,909.59 362.03,949.72 448.02,1054.5 480.97,1094.7"];
	182 -- 293	[pos="189.21,270.57 204.04,243.8 232.58,192.28 247.46,165.42"];
	182 -- 227	[pos="198.15,301.18 215.06,313.59 239.98,331.87 256.87,344.27"];
	244 -- 246	[pos="476.47,1096.9 430.49,1061.1 307.19,965.17 261.22,929.4"];
	244 -- 285	[pos="515.04,1122.1 543.67,1137.8 594.74,1165.8 623.54,1181.5"];
	244 -- 279	[pos="514.17,1122.8 528.65,1131.6 548.12,1143.4 562.58,1152.2"];
	244 -- 280	[pos="472.86,1099 429.74,1075.5 332.38,1022.2 289.45,998.75"];
	192 -- 223	[pos="1233.1,375.47 1210.3,358.43 1171.5,329.33 1148.6,312.25"];
	254 -- 267	[pos="756.19,1150.8 752.36,1155.2 748.2,1159.9 744.37,1164.3"];
	215 -- 273	[pos="467.25,406.16 470.22,402.34 473.38,398.25 476.34,394.42"];
	200 -- 241	[pos="285.82,775.22 259.57,773.56 220.03,771.07 193.84,769.42"];
	200 -- 275	[pos="333.5,764.91 344.11,758.7 357.01,751.15 367.61,744.94"];
	200 -- 268	[pos="285.93,775.68 234.37,773.31 122.51,768.16 70.968,765.78"];
	243 -- 292	[pos="1323.7,944.71 1272.3,937.33 1159.9,921.23 1108.6,913.86"];
	257 -- 277	[pos="844.93,175.05 851.11,178.28 857.85,181.81 864.04,185.04"];
	272 -- 296	[pos="694.29,988.19 651.93,971.78 563.39,937.49 521.15,921.13"];
}
