graph {
	graph [bb="0,0,1445.3,1123",
		outputorder=edgesfirst,
		overlap=prism,
		size="50,50!",
		start=6490
	];
	node [label="\N"];
	0	[height=0.5,
		pos="407.15,548.32",
		width=0.75];
	50	[height=0.5,
		pos="431.71,776.11",
		width=0.75];
	0 -- 50	[pos="409.12,566.58 413.73,609.33 425.18,715.55 429.76,758.08"];
	81	[height=0.5,
		pos="301.43,552.38",
		width=0.75];
	0 -- 81	[pos="379.93,549.37 364.14,549.97 344.33,550.73 328.57,551.34"];
	85	[height=0.5,
		pos="231.13,498.58",
		width=0.75];
	0 -- 85	[pos="381.93,541.19 348.38,531.71 289.41,515.05 256.02,505.61"];
	88	[height=0.5,
		pos="223.89,454.53",
		width=0.75];
	0 -- 88	[pos="385.41,537.19 350.04,519.09 280.48,483.49 245.32,465.5"];
	104	[height=0.5,
		pos="388.4,688.07",
		width=0.75];
	0 -- 104	[pos="404.74,566.3 401.16,592.99 394.47,642.81 390.86,669.71"];
	108	[height=0.5,
		pos="259.82,407.4",
		width=0.75];
	0 -- 108	[pos="391.66,533.51 363.44,506.51 303.94,449.6 275.55,422.44"];
	112	[height=0.5,
		pos="331.57,776.13",
		width=0.75];
	0 -- 112	[pos="401.22,566.2 387.09,608.78 351.57,715.84 337.47,758.34"];
	114	[height=0.5,
		pos="387.85,732.1",
		width=0.75];
	0 -- 114	[pos="405.23,566.61 401.53,601.84 393.45,678.71 389.76,713.88"];
	119	[height=0.5,
		pos="475.91,595.91",
		width=0.75];
	0 -- 119	[pos="425.94,561.32 435.64,568.04 447.45,576.21 457.14,582.92"];
	128	[height=0.5,
		pos="197.61,667.97",
		width=0.75];
	0 -- 128	[pos="386.29,560.23 346.13,583.16 258.48,633.21 218.38,656.11"];
	129	[height=0.5,
		pos="508.71,418.33",
		width=0.75];
	0 -- 129	[pos="419.81,532.12 439.38,507.07 476.74,459.25 496.21,434.33"];
	135	[height=0.5,
		pos="657.94,532.05",
		width=0.75];
	0 -- 135	[pos="434.47,546.55 482.84,543.41 582.96,536.92 631.03,533.8"];
	150	[height=0.5,
		pos="537.92,604.09",
		width=0.75];
	0 -- 150	[pos="429.93,558.03 453.79,568.21 491.04,584.1 514.97,594.3"];
	153	[height=0.5,
		pos="599.93,580.6",
		width=0.75];
	0 -- 153	[pos="433.55,552.74 470.37,558.9 536.73,570.02 573.54,576.18"];
	188	[height=0.5,
		pos="132.53,527",
		width=0.75];
	0 -- 188	[pos="380.32,546.24 327.82,542.16 212.06,533.18 159.47,529.1"];
	190	[height=0.5,
		pos="267.84,651.57",
		width=0.75];
	0 -- 190	[pos="388.94,561.82 362.24,581.61 312.76,618.28 286.06,638.07"];
	204	[height=0.5,
		pos="409.83,436.57",
		width=0.75];
	0 -- 204	[pos="407.59,529.87 408.09,509.04 408.9,475.37 409.4,454.68"];
	245	[height=0.5,
		pos="390.7,345.82",
		width=0.75];
	0 -- 245	[pos="405.66,529.99 402.53,491.44 395.29,402.35 392.17,363.96"];
	246	[height=0.5,
		pos="195.1,542.6",
		width=0.75];
	0 -- 246	[pos="379.86,547.58 339.15,546.48 262.94,544.43 222.28,543.33"];
	1	[height=0.5,
		pos="650.55,625.48",
		width=0.75];
	51	[height=0.5,
		pos="830.97,708.68",
		width=0.75];
	1 -- 51	[pos="673.04,635.85 707.7,651.83 773.82,682.32 808.48,698.31"];
	62	[height=0.5,
		pos="757.08,627.57",
		width=0.75];
	1 -- 62	[pos="677.71,626.01 693.74,626.33 713.96,626.72 729.98,627.04"];
	72	[height=0.5,
		pos="720.35,482.85",
		width=0.75];
	1 -- 72	[pos="658.97,608.27 672.38,580.86 698.46,527.57 711.9,500.11"];
	74	[height=0.5,
		pos="469.21,549.85",
		width=0.75];
	1 -- 74	[pos="627.58,615.9 592.8,601.39 527.12,574 492.28,559.47"];
	76	[height=0.5,
		pos="516.11,781.48",
		width=0.75];
	1 -- 76	[pos="636.92,641.3 611.15,671.2 555.57,735.69 529.78,765.62"];
	77	[height=0.5,
		pos="578.51,793.97",
		width=0.75];
	1 -- 77	[pos="643.11,642.88 629.31,675.16 599.87,744.01 586.02,776.41"];
	80	[height=0.5,
		pos="570.78,460.87",
		width=0.75];
	1 -- 80	[pos="642.16,608.17 626.84,576.56 594.5,509.81 579.18,478.19"];
	84	[height=0.5,
		pos="557,737.41",
		width=0.75];
	1 -- 84	[pos="637.15,641.52 619.36,662.79 588.15,700.14 570.38,721.4"];
	87	[height=0.5,
		pos="620.72,740.87",
		width=0.75];
	1 -- 87	[pos="645.89,643.51 640.29,665.19 630.94,701.34 625.35,722.97"];
	90	[height=0.5,
		pos="768.74,745.1",
		width=0.75];
	1 -- 90	[pos="665.52,640.63 688.13,663.51 730.76,706.66 753.52,729.7"];
	96	[height=0.5,
		pos="813.49,796.76",
		width=0.75];
	1 -- 96	[pos="665.3,640.98 696.32,673.59 768,748.94 798.89,781.41"];
	102	[height=0.5,
		pos="661.95,581.44",
		width=0.75];
	1 -- 102	[pos="655.19,607.57 655.9,604.8 656.64,601.95 657.36,599.19"];
	117	[height=0.5,
		pos="766.68,840.8",
		width=0.75];
	1 -- 117	[pos="659.86,642.74 681.66,683.15 735.81,783.56 757.49,823.76"];
	1 -- 119	[pos="624.03,620.99 591.01,615.4 534.98,605.91 502.11,600.35"];
	139	[height=0.5,
		pos="595.94,507.93",
		width=0.75];
	1 -- 139	[pos="642.49,608.13 632.17,585.91 614.37,547.61 604.03,525.35"];
	1 -- 150	[pos="624.43,620.52 606.23,617.06 582.07,612.47 563.9,609.02"];
	151	[height=0.5,
		pos="450.5,668.24",
		width=0.75];
	1 -- 151	[pos="624.81,630.98 586.5,639.17 514.9,654.48 476.46,662.69"];
	164	[height=0.5,
		pos="893.52,672.47",
		width=0.75];
	1 -- 164	[pos="676.55,630.51 723.19,639.53 820.57,658.36 867.34,667.4"];
	167	[height=0.5,
		pos="787.65,481.38",
		width=0.75];
	1 -- 167	[pos="665.22,610.06 691.61,582.32 746.77,524.34 773.08,496.69"];
	173	[height=0.5,
		pos="682.94,736.11",
		width=0.75];
	1 -- 173	[pos="655.75,643.25 661.8,663.9 671.71,697.75 677.75,718.38"];
	177	[height=0.5,
		pos="783.98,525.4",
		width=0.75];
	1 -- 177	[pos="668.54,611.98 694.01,592.88 740.3,558.16 765.84,539"];
	178	[height=0.5,
		pos="910.08,606.65",
		width=0.75];
	1 -- 178	[pos="677.83,623.5 727.81,619.87 833.46,612.21 883.16,608.6"];
	181	[height=0.5,
		pos="856.67,752.72",
		width=0.75];
	1 -- 181	[pos="670.69,637.91 710.2,662.3 797.42,716.14 836.75,740.42"];
	191	[height=0.5,
		pos="531.26,551.9",
		width=0.75];
	1 -- 191	[pos="630.58,613.16 608.56,599.58 573.34,577.85 551.29,564.26"];
	200	[height=0.5,
		pos="589.81,693.32",
		width=0.75];
	1 -- 200	[pos="636.46,641.21 626.65,652.17 613.62,666.73 603.82,677.67"];
	223	[height=0.5,
		pos="522.97,648.94",
		width=0.75];
	1 -- 223	[pos="624.42,630.28 602.41,634.33 571.07,640.09 549.06,644.14"];
	226	[height=0.5,
		pos="413.88,624.21",
		width=0.75];
	1 -- 226	[pos="623.4,625.33 577.87,625.09 486.64,624.6 441.07,624.36"];
	227	[height=0.5,
		pos="658.18,463.41",
		width=0.75];
	1 -- 227	[pos="651.41,607.2 652.87,576.08 655.84,513.12 657.31,481.87"];
	232	[height=0.5,
		pos="533.9,505.36",
		width=0.75];
	1 -- 232	[pos="635.78,610.27 613.46,587.29 571.38,543.96 548.92,520.83"];
	235	[height=0.5,
		pos="706.58,780.25",
		width=0.75];
	1 -- 235	[pos="656.98,643.23 667.79,673.09 689.47,732.99 700.23,762.7"];
	242	[height=0.5,
		pos="825.86,654.66",
		width=0.75];
	1 -- 242	[pos="676.8,629.85 709.85,635.35 766.3,644.75 799.44,650.26"];
	249	[height=0.5,
		pos="704.63,838.61",
		width=0.75];
	1 -- 249	[pos="655.07,643.28 665.25,683.4 689.88,780.49 700.08,820.7"];
	2	[height=0.5,
		pos="1055.9,713.2",
		width=0.75];
	52	[height=0.5,
		pos="1153.7,513.57",
		width=0.75];
	2 -- 52	[pos="1064.4,695.84 1082.9,657.99 1126.8,568.44 1145.3,530.75"];
	61	[height=0.5,
		pos="1047,524.38",
		width=0.75];
	2 -- 61	[pos="1055,695.1 1053.3,659.01 1049.6,578.48 1047.9,542.43"];
	63	[height=0.5,
		pos="954.17,844.84",
		width=0.75];
	2 -- 63	[pos="1043.4,729.34 1023.9,754.61 986.32,803.22 966.74,828.56"];
	93	[height=0.5,
		pos="1231.1,571.59",
		width=0.75];
	2 -- 93	[pos="1073.3,699.11 1106.9,671.96 1180.2,612.73 1213.8,585.63"];
	103	[height=0.5,
		pos="1150.9,712.67",
		width=0.75];
	2 -- 103	[pos="1083.1,713.05 1095.8,712.98 1110.9,712.89 1123.6,712.82"];
	118	[height=0.5,
		pos="1221.6,514.85",
		width=0.75];
	2 -- 118	[pos="1069.1,697.31 1100.2,660.17 1177.1,568.04 1208.2,530.82"];
	122	[height=0.5,
		pos="1216,931.44",
		width=0.75];
	2 -- 122	[pos="1067.9,729.61 1097.6,770.15 1174.3,874.71 1204,915.14"];
	144	[height=0.5,
		pos="1196.2,799.42",
		width=0.75];
	2 -- 144	[pos="1076,725.56 1102.7,741.95 1149.5,770.71 1176.2,787.09"];
	152	[height=0.5,
		pos="1212.9,755.41",
		width=0.75];
	2 -- 152	[pos="1081.1,719.98 1110.4,727.86 1158.4,740.78 1187.7,748.65"];
	2 -- 164	[pos="1030.5,706.84 1000.1,699.21 949.42,686.49 918.98,678.85"];
	179	[height=0.5,
		pos="1240,843.43",
		width=0.75];
	2 -- 179	[pos="1074.5,726.41 1109.8,751.37 1185.9,805.21 1221.2,830.19"];
	193	[height=0.5,
		pos="1086.5,801.24",
		width=0.75];
	2 -- 193	[pos="1062.1,731.02 1067.4,746.29 1075,768.19 1080.3,783.45"];
	208	[height=0.5,
		pos="1047.2,903.99",
		width=0.75];
	2 -- 208	[pos="1055,731.5 1053.4,767.96 1049.7,849.33 1048,885.75"];
	3	[height=0.5,
		pos="848.02,567.15",
		width=0.75];
	53	[height=0.5,
		pos="850.95,481.07",
		width=0.75];
	3 -- 53	[pos="848.64,548.89 849.14,534.28 849.83,513.9 850.33,499.3"];
	54	[height=0.5,
		pos="723.96,569.42",
		width=0.75];
	3 -- 54	[pos="820.79,567.65 800.11,568.02 771.79,568.54 751.12,568.92"];
	3 -- 62	[pos="828.73,579.96 813.3,590.22 791.77,604.53 776.34,614.78"];
	73	[height=0.5,
		pos="915.81,513.57",
		width=0.75];
	3 -- 73	[pos="865.48,553.35 875.52,545.41 888.1,535.47 898.17,527.51"];
	78	[height=0.5,
		pos="758.17,681.43",
		width=0.75];
	3 -- 78	[pos="835.15,583.52 817.97,605.37 787.74,643.81 770.73,665.46"];
	98	[height=0.5,
		pos="990.42,747.27",
		width=0.75];
	3 -- 98	[pos="860.66,583.13 887.68,617.31 950.81,697.17 977.81,731.32"];
	99	[height=0.5,
		pos="984.97,524.18",
		width=0.75];
	3 -- 99	[pos="872.5,559.47 897.28,551.69 935.38,539.74 960.24,531.94"];
	101	[height=0.5,
		pos="1026.8,642.27",
		width=0.75];
	3 -- 101	[pos="871.03,576.82 905.35,591.24 969.6,618.24 1003.9,632.64"];
	105	[height=0.5,
		pos="891.58,832.68",
		width=0.75];
	3 -- 105	[pos="851.01,585.4 858.99,634.03 880.69,766.29 888.63,814.65"];
	3 -- 135	[pos="821.99,562.34 785.69,555.64 720.25,543.56 683.96,536.86"];
	137	[height=0.5,
		pos="1017.1,829.1",
		width=0.75];
	3 -- 137	[pos="858.85,583.93 889.4,631.25 975.95,765.31 1006.4,812.45"];
	3 -- 153	[pos="821,568.61 773.28,571.2 674.62,576.55 626.92,579.13"];
	155	[height=0.5,
		pos="914.08,400.14",
		width=0.75];
	3 -- 155	[pos="854.96,549.59 867.65,517.52 894.44,449.8 907.13,417.71"];
	166	[height=0.5,
		pos="957.53,703.23",
		width=0.75];
	3 -- 166	[pos="860.8,583.02 881.79,609.11 923.34,660.74 944.5,687.03"];
	171	[height=0.5,
		pos="1078.1,757.23",
		width=0.75];
	3 -- 171	[pos="865.31,581.44 908.06,616.75 1018.3,707.82 1060.9,743.04"];
	217	[height=0.5,
		pos="913.06,444.18",
		width=0.75];
	3 -- 217	[pos="857.06,550.05 869.42,526.69 891.46,485.02 903.88,461.53"];
	243	[height=0.5,
		pos="788.73,437.36",
		width=0.75];
	3 -- 243	[pos="840.15,549.91 828.81,525.09 807.99,479.53 796.64,454.67"];
	4	[height=0.5,
		pos="954.05,791.31",
		width=0.75];
	4 -- 51	[pos="934.81,778.4 911.69,762.87 873.13,736.98 850.06,721.5"];
	55	[height=0.5,
		pos="928.47,985.99",
		width=0.75];
	4 -- 55	[pos="951.68,809.27 946.82,846.27 935.74,930.58 930.86,967.78"];
	68	[height=0.5,
		pos="1148.4,860.94",
		width=0.75];
	4 -- 68	[pos="977.88,799.85 1015.2,813.21 1087,838.92 1124.4,852.33"];
	89	[height=0.5,
		pos="916.01,562.52",
		width=0.75];
	4 -- 89	[pos="951.06,773.36 943.97,730.69 926.17,623.6 919.04,580.7"];
	4 -- 98	[pos="967.18,775.41 970.43,771.47 973.92,767.24 977.18,763.29"];
	141	[height=0.5,
		pos="1088.8,669.15",
		width=0.75];
	4 -- 141	[pos="970.3,776.57 996.21,753.09 1046.6,707.45 1072.5,683.94"];
	154	[height=0.5,
		pos="865.99,946.32",
		width=0.75];
	4 -- 154	[pos="944.45,808.19 927.52,838.01 892.5,899.65 875.57,929.45"];
	156	[height=0.5,
		pos="869.42,886.17",
		width=0.75];
	4 -- 156	[pos="940.07,806.97 924.39,824.55 899.1,852.9 883.42,870.48"];
	4 -- 166	[pos="954.77,773.06 955.37,757.94 956.21,736.56 956.81,721.45"];
	170	[height=0.5,
		pos="978.02,568.36",
		width=0.75];
	4 -- 170	[pos="956.01,773.06 960.51,731.15 971.56,628.4 976.06,586.55"];
	174	[height=0.5,
		pos="990.77,1005.8",
		width=0.75];
	4 -- 174	[pos="957.11,809.23 964.03,849.61 980.75,947.33 987.68,987.81"];
	176	[height=0.5,
		pos="1123.8,904.96",
		width=0.75];
	4 -- 176	[pos="973.19,804.13 1005.9,826.01 1072.1,870.34 1104.7,892.19"];
	4 -- 181	[pos="930.47,781.97 915.16,775.9 895.29,768.02 880.02,761.97"];
	182	[height=0.5,
		pos="1073,959.53",
		width=0.75];
	4 -- 182	[pos="965.67,807.74 988.35,839.82 1038.3,910.45 1061.1,942.78"];
	189	[height=0.5,
		pos="829.53,840.82",
		width=0.75];
	4 -- 189	[pos="930.62,800.62 908.36,809.47 875.07,822.71 852.84,831.55"];
	4 -- 193	[pos="981.16,793.34 1004,795.06 1036.5,797.5 1059.4,799.21"];
	195	[height=0.5,
		pos="1084.5,853.29",
		width=0.75];
	4 -- 195	[pos="976.17,801.82 1000.1,813.22 1038.2,831.31 1062.2,842.73"];
	231	[height=0.5,
		pos="999.01,948",
		width=0.75];
	4 -- 231	[pos="959.2,809.28 967.88,839.51 985.28,900.15 993.91,930.23"];
	241	[height=0.5,
		pos="964.77,650.67",
		width=0.75];
	4 -- 241	[pos="955.43,773.21 957.49,746.21 961.34,695.66 963.4,668.7"];
	5	[height=0.5,
		pos="610.62,333.59",
		width=0.75];
	56	[height=0.5,
		pos="332.66,435.56",
		width=0.75];
	5 -- 56	[pos="586.92,342.28 534.53,361.5 409.38,407.41 356.69,426.74"];
	65	[height=0.5,
		pos="730.74,262.98",
		width=0.75];
	5 -- 65	[pos="630.99,321.61 653.08,308.63 688.14,288.02 710.27,275.02"];
	5 -- 72	[pos="622.57,349.85 643.67,378.56 687.31,437.91 708.41,466.61"];
	95	[height=0.5,
		pos="424.23,228.58",
		width=0.75];
	5 -- 95	[pos="589.96,321.95 554.13,301.77 480.88,260.49 444.99,240.27"];
	113	[height=0.5,
		pos="518.31,229.53",
		width=0.75];
	5 -- 113	[pos="596.6,317.79 579.15,298.11 549.53,264.73 532.16,245.14"];
	132	[height=0.5,
		pos="481.29,177.76",
		width=0.75];
	5 -- 132	[pos="597.5,317.79 572.72,287.92 519.25,223.5 494.44,193.6"];
	157	[height=0.5,
		pos="725.01,123.94",
		width=0.75];
	5 -- 157	[pos="619.98,316.43 641.48,277.02 694.2,180.4 715.68,141.04"];
	158	[height=0.5,
		pos="328.61,343.63",
		width=0.75];
	5 -- 158	[pos="583.57,334.55 529.81,336.47 410.02,340.73 355.98,342.65"];
	165	[height=0.5,
		pos="730.71,311.6",
		width=0.75];
	5 -- 165	[pos="636.67,328.82 656.68,325.16 684.19,320.12 704.29,316.44"];
	203	[height=0.5,
		pos="562.23,185.49",
		width=0.75];
	5 -- 203	[pos="604.78,315.73 595.48,287.26 577.4,231.93 568.09,203.42"];
	5 -- 204	[pos="589.13,344.61 550.58,364.38 470.12,405.65 431.47,425.47"];
	219	[height=0.5,
		pos="583.4,99.992",
		width=0.75];
	5 -- 219	[pos="608.48,315.26 603.39,271.59 590.61,161.82 585.53,118.24"];
	5 -- 227	[pos="617.03,351.1 626.11,375.88 642.61,420.92 651.71,445.77"];
	5 -- 243	[pos="631.05,345.49 665.31,365.46 733.97,405.46 768.26,425.44"];
	248	[height=0.5,
		pos="792.76,270.07",
		width=0.75];
	5 -- 248	[pos="634.8,325.16 669.74,312.97 733.94,290.58 768.76,278.44"];
	6	[height=0.5,
		pos="642.46,821.19",
		width=0.75];
	57	[height=0.5,
		pos="785.99,583.52",
		width=0.75];
	6 -- 57	[pos="652.55,804.47 678.84,760.94 749.23,644.4 775.72,600.53"];
	60	[height=0.5,
		pos="865.12,996.14",
		width=0.75];
	6 -- 60	[pos="659.93,834.91 701.45,867.54 805.67,949.43 847.42,982.23"];
	6 -- 63	[pos="669.3,823.22 728.23,827.69 868.31,838.32 927.28,842.8"];
	6 -- 104	[pos="620.8,809.84 572.68,784.62 457.38,724.21 409.64,699.2"];
	125	[height=0.5,
		pos="436.38,820.13",
		width=0.75];
	6 -- 125	[pos="615.09,821.05 575.57,820.84 502.93,820.47 463.53,820.27"];
	159	[height=0.5,
		pos="718.62,972.86",
		width=0.75];
	6 -- 159	[pos="651.05,838.29 665.67,867.42 695.26,926.34 709.95,955.59"];
	6 -- 173	[pos="650.65,803.97 657.67,789.21 667.74,768.05 674.76,753.3"];
	175	[height=0.5,
		pos="522.91,908.17",
		width=0.75];
	6 -- 175	[pos="624.04,834.59 601.51,850.98 563.61,878.56 541.16,894.9"];
	183	[height=0.5,
		pos="651.4,936.66",
		width=0.75];
	6 -- 183	[pos="643.85,839.23 645.53,860.8 648.3,896.68 649.98,918.36"];
	202	[height=0.5,
		pos="269.52,819.42",
		width=0.75];
	6 -- 202	[pos="615.34,821.06 546.45,820.73 365.32,819.87 296.54,819.55"];
	210	[height=0.5,
		pos="360.22,832.4",
		width=0.75];
	6 -- 210	[pos="615.4,822.26 561.45,824.41 441.08,829.19 387.2,831.33"];
	7	[height=0.5,
		pos="1072.1,379.77",
		width=0.75];
	58	[height=0.5,
		pos="1348.1,334.92",
		width=0.75];
	7 -- 58	[pos="1098.6,375.47 1151.3,366.9 1269,347.77 1321.7,339.21"];
	59	[height=0.5,
		pos="1286.4,467.61",
		width=0.75];
	7 -- 59	[pos="1095.5,389.34 1136.7,406.23 1221.9,441.17 1263.1,458.06"];
	82	[height=0.5,
		pos="1042.2,247.5",
		width=0.75];
	7 -- 82	[pos="1068.1,361.93 1062.4,336.69 1052,290.8 1046.3,265.48"];
	7 -- 99	[pos="1061.9,396.62 1045.2,424.44 1011.8,479.68 995.08,507.44"];
	133	[height=0.5,
		pos="1161.9,466.21",
		width=0.75];
	7 -- 133	[pos="1087.7,394.83 1104.2,410.69 1130,435.52 1146.4,451.32"];
	146	[height=0.5,
		pos="1134.8,146.65",
		width=0.75];
	7 -- 146	[pos="1076.9,361.86 1088.6,318.47 1118.3,208.07 1130,164.62"];
	147	[height=0.5,
		pos="1238.7,349.47",
		width=0.75];
	7 -- 147	[pos="1098.5,374.97 1129.7,369.29 1181.3,359.91 1212.4,354.25"];
	160	[height=0.5,
		pos="1131.8,190.72",
		width=0.75];
	7 -- 160	[pos="1077.7,361.98 1089.1,325.95 1114.8,244.7 1126.2,208.59"];
	169	[height=0.5,
		pos="1053.3,291.67",
		width=0.75];
	7 -- 169	[pos="1068.3,361.94 1065.1,346.76 1060.4,325.04 1057.2,309.78"];
	198	[height=0.5,
		pos="1210.7,263.85",
		width=0.75];
	7 -- 198	[pos="1089.1,365.56 1115.7,343.31 1166.9,300.5 1193.6,278.18"];
	213	[height=0.5,
		pos="1272.8,237.49",
		width=0.75];
	7 -- 213	[pos="1090.6,366.64 1128.8,339.6 1215.7,277.98 1254,250.8"];
	234	[height=0.5,
		pos="979.65,358.9",
		width=0.75];
	7 -- 234	[pos="1046.4,373.96 1033.5,371.06 1018.1,367.57 1005.3,364.68"];
	239	[height=0.5,
		pos="1354.1,379.13",
		width=0.75];
	7 -- 239	[pos="1099.1,379.71 1152.9,379.59 1272.7,379.32 1326.7,379.2"];
	8	[height=0.5,
		pos="917.55,267.01",
		width=0.75];
	8 -- 61	[pos="926.25,284.3 949.84,331.18 1014.8,460.37 1038.4,507.17"];
	115	[height=0.5,
		pos="999.5,64.286",
		width=0.75];
	8 -- 115	[pos="924.68,249.38 940.22,210.94 976.98,120 992.45,81.737"];
	8 -- 160	[pos="941.71,258.41 982.97,243.72 1066.5,213.96 1107.7,199.29"];
	161	[height=0.5,
		pos="1068.4,117.42",
		width=0.75];
	8 -- 161	[pos="932.85,251.85 961.76,223.17 1024.1,161.33 1053.1,132.63"];
	162	[height=0.5,
		pos="624.25,144.89",
		width=0.75];
	8 -- 162	[pos="894.54,257.43 839.71,234.6 701.88,177.21 647.16,154.42"];
	212	[height=0.5,
		pos="721.39,62.021",
		width=0.75];
	8 -- 212	[pos="902.81,251.61 866.37,213.52 772.38,115.3 736.04,77.328"];
	9	[height=0.5,
		pos="722.34,928.85",
		width=0.75];
	9 -- 55	[pos="747.62,935.86 787.28,946.85 863.71,968.04 903.31,979.01"];
	64	[height=0.5,
		pos="696.4,1105",
		width=0.75];
	9 -- 64	[pos="719.66,947.04 714.68,980.88 704.04,1053.1 699.06,1086.9"];
	9 -- 105	[pos="743.09,917.06 775.66,898.55 838.42,862.9 870.93,844.42"];
	9 -- 117	[pos="731.1,911.46 738.87,896.02 750.17,873.59 757.94,858.16"];
	126	[height=0.5,
		pos="497.14,952.18",
		width=0.75];
	9 -- 126	[pos="695.62,931.62 652.28,936.11 567.14,944.93 523.83,949.42"];
	163	[height=0.5,
		pos="834.05,1041.1",
		width=0.75];
	9 -- 163	[pos="737.41,944 758.73,965.42 797.48,1004.4 818.87,1025.9"];
	9 -- 174	[pos="747.59,936.1 798.88,950.8 914.71,984.02 965.78,998.66"];
	197	[height=0.5,
		pos="489.61,864.14",
		width=0.75];
	9 -- 197	[pos="696.99,921.81 652.11,909.32 559.19,883.48 514.58,871.08"];
	218	[height=0.5,
		pos="613.43,1002.8",
		width=0.75];
	9 -- 218	[pos="703.37,941.73 683.5,955.21 652.47,976.28 632.55,989.8"];
	221	[height=0.5,
		pos="630.31,1083",
		width=0.75];
	9 -- 221	[pos="712.32,945.65 694.61,975.31 658.02,1036.6 640.32,1066.3"];
	236	[height=0.5,
		pos="859.07,1086.7",
		width=0.75];
	9 -- 236	[pos="735.95,944.57 762.16,974.83 819.35,1040.9 845.51,1071.1"];
	9 -- 249	[pos="718.76,910.59 715.66,894.83 711.22,872.2 708.15,856.54"];
	10	[height=0.5,
		pos="914.96,356.11",
		width=0.75];
	10 -- 65	[pos="893.1,345.06 857.55,327.09 787.63,291.74 752.28,273.87"];
	10 -- 82	[pos="931.59,341.91 955.98,321.09 1001.2,282.52 1025.6,261.7"];
	10 -- 89	[pos="915.05,374.43 915.25,413.6 915.72,505.11 915.92,544.24"];
	91	[height=0.5,
		pos="854.93,305.28",
		width=0.75];
	10 -- 91	[pos="898.24,341.95 890.05,335.02 880.21,326.68 871.98,319.71"];
	116	[height=0.5,
		pos="917.7,178.97",
		width=0.75];
	10 -- 116	[pos="915.24,337.82 915.77,303.79 916.89,231.12 917.42,197.16"];
	121	[height=0.5,
		pos="1115.4,278.81",
		width=0.75];
	10 -- 121	[pos="938.34,347.09 976.86,332.23 1053.2,302.78 1091.8,287.89"];
	134	[height=0.5,
		pos="977.12,223",
		width=0.75];
	10 -- 134	[pos="923.08,338.71 935,313.2 957.08,265.92 968.99,240.4"];
	10 -- 165	[pos="889.34,349.92 854.14,341.42 791.2,326.21 756.11,317.74"];
	168	[height=0.5,
		pos="668.7,257.34",
		width=0.75];
	10 -- 168	[pos="891.79,346.82 844.85,327.99 739.02,285.54 691.98,266.68"];
	10 -- 169	[pos="937.19,345.76 963.01,333.73 1005.4,314.01 1031.1,302"];
	10 -- 170	[pos="920.23,373.84 932.1,413.79 960.82,510.48 972.72,550.53"];
	192	[height=0.5,
		pos="748.34,210.28",
		width=0.75];
	10 -- 192	[pos="898.37,341.59 866.43,313.64 796.74,252.65 764.86,224.74"];
	205	[height=0.5,
		pos="686.27,170.29",
		width=0.75];
	10 -- 205	[pos="897.77,342.14 855.39,307.71 746.25,219.02 703.66,184.42"];
	10 -- 217	[pos="914.56,374.36 914.24,389.47 913.78,410.84 913.45,425.95"];
	11	[height=0.5,
		pos="1221.7,887.44",
		width=0.75];
	66	[height=0.5,
		pos="1278.1,962.13",
		width=0.75];
	11 -- 66	[pos="1233.9,903.65 1243.4,916.17 1256.4,933.44 1265.8,945.96"];
	83	[height=0.5,
		pos="1281.7,754.16",
		width=0.75];
	11 -- 83	[pos="1229.5,870.01 1241,844.47 1262.4,797.13 1273.9,771.58"];
	11 -- 144	[pos="1216.5,869.63 1212.1,854.36 1205.8,832.47 1201.4,817.21"];
	145	[height=0.5,
		pos="1356.8,746.69",
		width=0.75];
	11 -- 145	[pos="1236.4,872.11 1262.4,845.03 1316.2,789.07 1342.1,762.01"];
	11 -- 171	[pos="1205.5,872.75 1177.9,847.75 1122.2,797.17 1094.5,772.06"];
	196	[height=0.5,
		pos="1061.7,1015.4",
		width=0.75];
	11 -- 196	[pos="1204.3,901.38 1173.5,926 1109.8,976.89 1079.1,1001.5"];
	12	[height=0.5,
		pos="1158.1,323.01",
		width=0.75];
	67	[height=0.5,
		pos="914.69,126.12",
		width=0.75];
	12 -- 67	[pos="1140.6,308.85 1095.7,272.52 976.78,176.34 932.04,140.15"];
	71	[height=0.5,
		pos="1256.2,626.41",
		width=0.75];
	12 -- 71	[pos="1163.8,340.63 1181.1,394.26 1233.1,555.05 1250.4,608.73"];
	12 -- 93	[pos="1163.4,340.89 1176.8,386.75 1212.5,508.19 1225.9,553.87"];
	142	[height=0.5,
		pos="1255.1,172.61",
		width=0.75];
	12 -- 142	[pos="1168.9,306.34 1187.5,277.43 1225.7,218.31 1244.3,189.35"];
	12 -- 161	[pos="1150.5,305.48 1133.5,266.64 1093,173.71 1076,134.91"];
	172	[height=0.5,
		pos="1357.9,290.79",
		width=0.75];
	12 -- 172	[pos="1184.6,318.73 1222.9,312.55 1293.3,301.2 1331.5,295.04"];
	229	[height=0.5,
		pos="979.65,296",
		width=0.75];
	12 -- 229	[pos="1131.8,319.02 1098,313.92 1039.9,305.11 1006.1,300"];
	13	[height=0.5,
		pos="1212.9,670.68",
		width=0.75];
	13 -- 59	[pos="1219.3,653.02 1233.2,614.61 1266,523.88 1280,485.38"];
	13 -- 68	[pos="1206.9,688.24 1194.7,724.39 1166.8,806.79 1154.4,843.14"];
	13 -- 101	[pos="1186.2,666.61 1150.9,661.21 1088.8,651.73 1053.4,646.34"];
	120	[height=0.5,
		pos="1348.7,555.69",
		width=0.75];
	13 -- 120	[pos="1229.8,656.35 1256,634.19 1306,591.89 1332,569.84"];
	13 -- 152	[pos="1212.9,689.07 1212.9,703.38 1212.9,723.13 1212.9,737.35"];
	13 -- 176	[pos="1206.2,688.29 1189.6,731.81 1147,844.06 1130.5,887.47"];
	187	[height=0.5,
		pos="1303.1,853.52",
		width=0.75];
	13 -- 187	[pos="1221.4,687.88 1238.6,722.73 1277.4,801.31 1294.6,836.23"];
	14	[height=0.5,
		pos="778.8,393.34",
		width=0.75];
	14 -- 53	[pos="792.03,409.43 805.05,425.26 824.81,449.29 837.8,465.08"];
	69	[height=0.5,
		pos="996.79,407.18",
		width=0.75];
	14 -- 69	[pos="805.97,395.07 847.85,397.73 927.74,402.8 969.62,405.46"];
	127	[height=0.5,
		pos="787.04,164.38",
		width=0.75];
	14 -- 127	[pos="779.46,374.99 781.01,332.01 784.85,225.24 786.39,182.5"];
	14 -- 177	[pos="779.51,411.43 780.49,436.57 782.27,481.85 783.26,507.11"];
	186	[height=0.5,
		pos="528.24,366.71",
		width=0.75];
	14 -- 186	[pos="751.98,390.49 703.89,385.38 603.47,374.71 555.24,369.58"];
	201	[height=0.5,
		pos="606.66,265.75",
		width=0.75];
	14 -- 201	[pos="760.7,379.93 727.64,355.42 657.85,303.69 624.77,279.18"];
	211	[height=0.5,
		pos="471.87,471.9",
		width=0.75];
	14 -- 211	[pos="753.42,399.84 695.68,414.61 555.04,450.61 497.28,465.4"];
	233	[height=0.5,
		pos="981.76,468.51",
		width=0.75];
	14 -- 233	[pos="802.48,402.11 841.48,416.56 918.8,445.2 957.91,459.68"];
	15	[height=0.5,
		pos="1150.8,559.35",
		width=0.75];
	70	[height=0.5,
		pos="1290.6,511.64",
		width=0.75];
	15 -- 70	[pos="1174.8,551.15 1200.4,542.41 1240.7,528.65 1266.4,519.9"];
	15 -- 83	[pos="1161.9,575.96 1186.7,612.76 1245.9,700.82 1270.6,737.59"];
	15 -- 103	[pos="1150.8,577.54 1150.8,607.05 1150.8,665.01 1150.9,694.5"];
	110	[height=0.5,
		pos="1166.2,367.12",
		width=0.75];
	15 -- 110	[pos="1152.2,541.27 1155.2,504.63 1161.8,422.01 1164.8,385.29"];
	140	[height=0.5,
		pos="1134.4,422.14",
		width=0.75];
	15 -- 140	[pos="1148.6,541.13 1145.5,514.89 1139.7,466.72 1136.6,440.44"];
	148	[height=0.5,
		pos="1365.6,650.43",
		width=0.75];
	15 -- 148	[pos="1173.8,569.1 1215.1,586.63 1301.5,623.27 1342.7,640.75"];
	15 -- 178	[pos="1124.6,564.5 1078.3,573.6 982.54,592.41 936.26,601.5"];
	180	[height=0.5,
		pos="1224.3,434.9",
		width=0.75];
	15 -- 180	[pos="1160.7,542.57 1174.7,518.81 1200.3,475.64 1214.3,451.82"];
	207	[height=0.5,
		pos="1318.2,599.72",
		width=0.75];
	15 -- 207	[pos="1176.2,565.48 1207.8,573.09 1261.3,585.99 1292.8,593.6"];
	220	[height=0.5,
		pos="1044.9,480.15",
		width=0.75];
	15 -- 220	[pos="1132.3,545.55 1112.9,531.02 1082.5,508.26 1063.2,493.79"];
	16	[height=0.5,
		pos="1148.5,954.99",
		width=0.75];
	16 -- 60	[pos="1122.1,958.82 1068.1,966.66 945.59,984.45 891.56,992.3"];
	16 -- 71	[pos="1154.3,937.32 1173,880.27 1231.6,701.34 1250.3,644.16"];
	16 -- 179	[pos="1161.6,939 1179,917.8 1209.5,880.58 1226.9,859.39"];
	16 -- 182	[pos="1121.2,956.63 1114.3,957.04 1106.9,957.49 1099.9,957.91"];
	17	[height=0.5,
		pos="579.77,852.62",
		width=0.75];
	75	[height=0.5,
		pos="412.99,957.15",
		width=0.75];
	17 -- 75	[pos="559.99,865.02 527.89,885.14 464.83,924.66 432.75,944.77"];
	17 -- 77	[pos="579.38,834.38 579.23,827.25 579.05,819.1 578.9,811.99"];
	86	[height=0.5,
		pos="733.89,1060.9",
		width=0.75];
	17 -- 86	[pos="591.87,868.97 620.68,907.9 693.1,1005.8 721.85,1044.7"];
	17 -- 112	[pos="555.07,845.01 507.49,830.34 403.67,798.35 356.17,783.71"];
	130	[height=0.5,
		pos="684.38,1016.9",
		width=0.75];
	17 -- 130	[pos="590.38,869.28 610.43,900.76 653.67,968.67 673.75,1000.2"];
	17 -- 154	[pos="604.18,860.61 658.25,878.31 787.63,920.66 841.65,938.35"];
	17 -- 183	[pos="593.25,868.43 606.05,883.45 625.2,905.92 637.99,920.92"];
	194	[height=0.5,
		pos="329.64,923.18",
		width=0.75];
	17 -- 194	[pos="554.88,859.64 507.05,873.13 402.85,902.53 354.81,916.08"];
	17 -- 218	[pos="583.77,870.43 590.21,899.18 602.83,955.49 609.34,984.51"];
	225	[height=0.5,
		pos="545.46,1033.8",
		width=0.75];
	17 -- 225	[pos="576.36,870.65 569.78,905.37 555.43,981.15 548.86,1015.8"];
	247	[height=0.5,
		pos="478.49,1000.5",
		width=0.75];
	17 -- 247	[pos="568.55,869.01 549.08,897.44 509.27,955.57 489.77,984.05"];
	18	[height=0.5,
		pos="361.87,877.74",
		width=0.75];
	18 -- 75	[pos="372.71,894.58 381.44,908.15 393.66,927.12 402.34,940.61"];
	18 -- 76	[pos="381.72,865.35 411.34,846.87 466.77,812.28 496.34,793.82"];
	18 -- 175	[pos="388.1,882.7 418.05,888.36 466.75,897.56 496.69,903.21"];
	184	[height=0.5,
		pos="367.15,1020.2",
		width=0.75];
	18 -- 184	[pos="362.54,895.78 363.55,923.04 365.46,974.43 366.47,1001.9"];
	222	[height=0.5,
		pos="227.2,901.05",
		width=0.75];
	18 -- 222	[pos="335.59,882.29 311.86,886.4 277.13,892.41 253.42,896.51"];
	230	[height=0.5,
		pos="170.21,837.12",
		width=0.75];
	18 -- 230	[pos="336.02,872.26 299.34,864.49 232.58,850.34 195.96,842.57"];
	18 -- 247	[pos="376.41,893.04 398.75,916.57 441.32,961.38 463.78,985.02"];
	19	[height=0.5,
		pos="493.12,719.54",
		width=0.75];
	19 -- 78	[pos="519.99,715.68 570.92,708.36 680.93,692.54 731.62,685.25"];
	79	[height=0.5,
		pos="259.63,770.53",
		width=0.75];
	19 -- 79	[pos="467.24,725.2 422.36,735 330.59,755.04 285.63,764.85"];
	19 -- 87	[pos="519.56,723.96 541.46,727.62 572.43,732.8 594.32,736.46"];
	109	[height=0.5,
		pos="286.37,607.53",
		width=0.75];
	19 -- 109	[pos="472.16,708.19 432.53,686.72 347.05,640.41 307.38,618.92"];
	124	[height=0.5,
		pos="425.48,876.42",
		width=0.75];
	19 -- 124	[pos="485.62,736.93 472.62,767.09 446.04,828.74 433.01,858.95"];
	19 -- 156	[pos="515.81,729.59 582.87,759.28 779.61,846.4 846.7,876.11"];
	185	[height=0.5,
		pos="360.15,504.26",
		width=0.75];
	19 -- 185	[pos="482.68,702.65 457.83,662.41 395.34,561.24 370.54,521.08"];
	19 -- 211	[pos="491.56,701.33 487.63,655.54 477.37,535.96 473.43,490.14"];
	20	[height=0.5,
		pos="351.81,644",
		width=0.75];
	20 -- 81	[pos="342.33,626.76 333.33,610.38 319.86,585.89 310.87,569.53"];
	106	[height=0.5,
		pos="99.905,649.84",
		width=0.75];
	20 -- 106	[pos="324.37,644.63 275.79,645.76 175.21,648.09 126.93,649.21"];
	20 -- 186	[pos="362.58,627.07 394.15,577.45 486.22,432.75 517.61,383.42"];
	20 -- 189	[pos="374.85,653.49 455.64,686.78 725.57,797.99 806.44,831.31"];
	21	[height=0.5,
		pos="325.83,695.78",
		width=0.75];
	21 -- 79	[pos="311.79,711.63 300.48,724.4 284.67,742.26 273.42,754.96"];
	21 -- 84	[pos="351.9,700.47 396.29,708.47 486.1,724.64 530.67,732.67"];
	94	[height=0.5,
		pos="587.47,897.83",
		width=0.75];
	21 -- 94	[pos="343.81,709.67 391.72,746.67 522.04,847.31 569.7,884.12"];
	21 -- 158	[pos="325.97,677.34 326.45,616.49 327.98,422.47 328.46,361.88"];
	21 -- 190	[pos="307.8,682.04 300.75,676.66 292.69,670.52 285.66,665.16"];
	21 -- 200	[pos="353.08,695.53 403.8,695.05 512.1,694.04 562.7,693.57"];
	22	[height=0.5,
		pos="394.66,392.54",
		width=0.75];
	22 -- 85	[pos="375.26,405.12 343.79,425.52 281.96,465.61 250.51,486.01"];
	92	[height=0.5,
		pos="70.195,514.29",
		width=0.75];
	22 -- 92	[pos="371.06,401.39 311.27,423.83 154.31,482.73 94.141,505.3"];
	22 -- 95	[pos="397.94,374.36 403.62,342.85 415.25,278.41 420.94,246.84"];
	22 -- 168	[pos="416.62,381.7 467.93,356.39 595.22,293.59 646.63,268.22"];
	22 -- 191	[pos="408.26,408.4 434.44,438.95 491.58,505.61 517.72,536.1"];
	23	[height=0.5,
		pos="802.98,928.82",
		width=0.75];
	23 -- 50	[pos="779.75,919.27 713.08,891.84 521.59,813.08 454.92,785.66"];
	23 -- 86	[pos="794.09,945.82 780.9,971.05 756.27,1018.1 742.97,1043.6"];
	23 -- 96	[pos="804.42,910.74 806.42,885.59 810.02,840.31 812.03,815.05"];
	23 -- 159	[pos="781.69,939.94 768.9,946.61 752.69,955.08 739.9,961.75"];
	23 -- 196	[pos="827.32,936.97 876.62,953.47 987.79,990.69 1037.2,1007.2"];
	23 -- 231	[pos="829.83,931.45 867.26,935.11 934.74,941.71 972.17,945.37"];
	24	[height=0.5,
		pos="259.66,700.17",
		width=0.75];
	24 -- 56	[pos="264.56,682.4 277.83,634.31 314.33,502.01 327.68,453.6"];
	24 -- 92	[pos="244.48,685.27 209,650.47 121,564.13 85.452,529.26"];
	24 -- 151	[pos="286.2,695.73 322.66,689.63 387.85,678.72 424.19,672.64"];
	24 -- 197	[pos="278.48,713.59 321.71,744.41 427.69,819.98 470.86,850.76"];
	24 -- 210	[pos="271.99,716.38 291.29,741.76 328.43,790.6 347.79,816.06"];
	228	[height=0.5,
		pos="111.22,694.01",
		width=0.75];
	24 -- 228	[pos="232.44,699.04 205.65,697.93 165,696.24 138.28,695.13"];
	25	[height=0.5,
		pos="1041.7,335.72",
		width=0.75];
	25 -- 52	[pos="1052.2,352.46 1073.6,386.35 1121.7,462.79 1143.1,496.75"];
	97	[height=0.5,
		pos="1130.5,100.22",
		width=0.75];
	25 -- 97	[pos="1048.4,318.02 1064.9,274.27 1107.4,161.43 1123.8,117.8"];
	25 -- 134	[pos="1031.9,318.6 1019.7,297.29 998.96,261.12 986.81,239.91"];
	25 -- 140	[pos="1057.4,350.38 1074.5,366.28 1101.5,391.49 1118.6,407.41"];
	25 -- 198	[pos="1064.5,326.03 1096.7,312.31 1155.4,287.38 1187.7,273.62"];
	206	[height=0.5,
		pos="1064,61.549",
		width=0.75];
	25 -- 206	[pos="1043.2,317.74 1047.2,268.06 1058.5,129.36 1062.6,79.605"];
	237	[height=0.5,
		pos="916.98,311.04",
		width=0.75];
	25 -- 237	[pos="1015.5,330.55 994.26,326.34 964.36,320.42 943.09,316.21"];
	25 -- 248	[pos="1016.5,329.07 968.74,316.48 865.83,289.34 818.07,276.74"];
	26	[height=0.5,
		pos="293.17,479.58",
		width=0.75];
	26 -- 74	[pos="316.55,488.91 350.31,502.39 412.36,527.16 446.02,540.59"];
	100	[height=0.5,
		pos="66.052,604.68",
		width=0.75];
	26 -- 100	[pos="272.21,491.12 228.94,514.96 130.18,569.35 86.96,593.16"];
	26 -- 109	[pos="292.21,497.64 290.92,521.89 288.64,564.73 287.34,589.15"];
	26 -- 162	[pos="308.25,464.33 363.41,408.57 553.78,216.13 609.08,160.23"];
	199	[height=0.5,
		pos="327.94,273.85",
		width=0.75];
	26 -- 199	[pos="296.19,461.68 302.77,422.77 318.3,330.86 324.9,291.85"];
	27	[height=0.5,
		pos="701.83,418.84",
		width=0.75];
	27 -- 91	[pos="719.99,405.37 749.46,383.51 807.34,340.58 836.79,318.73"];
	27 -- 102	[pos="697.41,436.87 689.74,468.12 674.07,532.03 666.39,563.34"];
	27 -- 113	[pos="687.12,403.67 652.76,368.23 567.52,280.29 533.09,244.78"];
	27 -- 185	[pos="676.42,425.2 613.17,441.01 449.15,482.01 385.72,497.87"];
	27 -- 201	[pos="691.46,402.17 673.16,372.72 635.31,311.84 617.02,282.41"];
	27 -- 241	[pos="718.27,433.35 765.5,474.98 901.12,594.55 948.33,636.17"];
	28	[height=0.5,
		pos="224.34,586.6",
		width=0.75];
	28 -- 106	[pos="202.67,597.62 179.97,609.16 144.51,627.17 121.75,638.74"];
	143	[height=0.5,
		pos="265.77,341.78",
		width=0.75];
	28 -- 143	[pos="227.39,568.6 235.05,523.33 255.06,405.12 262.72,359.81"];
	28 -- 188	[pos="204.87,573.96 189.29,563.85 167.54,549.74 151.97,539.63"];
	28 -- 202	[pos="227.81,604.49 236.22,647.82 257.62,758.08 266.04,801.48"];
	224	[height=0.5,
		pos="27,559.61",
		width=0.75];
	28 -- 224	[pos="197.73,582.96 159.96,577.8 91.218,568.4 53.507,563.24"];
	28 -- 226	[pos="250.3,591.75 286.49,598.94 351.74,611.88 387.93,619.06"];
	29	[height=0.5,
		pos="819.8,349.31",
		width=0.75];
	29 -- 57	[pos="817.2,367.3 810.91,410.9 794.9,521.81 788.6,565.47"];
	107	[height=0.5,
		pos="645.45,56.299",
		width=0.75];
	29 -- 107	[pos="809.67,332.29 778.85,280.5 686.46,125.22 655.6,73.366"];
	29 -- 167	[pos="815.46,367.12 809.32,392.33 798.17,438.15 792.02,463.43"];
	29 -- 203	[pos="800.01,336.73 752.07,306.24 630.09,228.66 582.08,198.12"];
	29 -- 234	[pos="846.91,350.94 876.4,352.71 923.23,355.52 952.66,357.28"];
	29 -- 237	[pos="843.32,340.05 858.6,334.03 878.43,326.22 893.67,320.22"];
	240	[height=0.5,
		pos="849.07,136.36",
		width=0.75];
	29 -- 240	[pos="822.29,331.16 827.82,290.92 841.06,194.66 846.58,154.47"];
	30	[height=0.5,
		pos="498.19,273.55",
		width=0.75];
	30 -- 80	[pos="505.02,291.17 518.89,326.97 550.21,407.79 564.02,443.43"];
	30 -- 108	[pos="477.46,285.2 432.38,310.51 325.87,370.31 280.68,395.69"];
	138	[height=0.5,
		pos="359.91,186.06",
		width=0.75];
	30 -- 138	[pos="478.38,261.02 452.09,244.38 405.96,215.19 379.69,198.57"];
	30 -- 199	[pos="470.84,273.6 438.97,273.66 386.66,273.75 354.94,273.8"];
	30 -- 205	[pos="519.04,262.11 555.19,242.26 629.12,201.67 665.33,181.79"];
	209	[height=0.5,
		pos="447.71,124.42",
		width=0.75];
	30 -- 209	[pos="492.2,255.86 482.49,227.16 463.41,170.78 453.7,142.09"];
	30 -- 212	[pos="513.89,258.68 554.87,219.84 664.75,115.7 705.71,76.879"];
	31	[height=0.5,
		pos="981.53,142.95",
		width=0.75];
	31 -- 97	[pos="1006.5,135.8 1034,127.91 1077.9,115.29 1105.5,107.39"];
	31 -- 110	[pos="994.82,159.07 1028.9,200.43 1119.1,309.94 1153.1,351.14"];
	149	[height=0.5,
		pos="1206.4,117.18",
		width=0.75];
	31 -- 149	[pos="1008.2,139.89 1051.5,134.93 1136.5,125.19 1179.8,120.23"];
	31 -- 157	[pos="954.56,140.95 905.3,137.3 801.28,129.59 752,125.94"];
	31 -- 206	[pos="996.66,128.02 1011.5,113.42 1033.9,91.318 1048.7,76.661"];
	31 -- 240	[pos="954.41,141.6 931.55,140.46 899.01,138.85 876.16,137.71"];
	32	[height=0.5,
		pos="1345.7,423.46",
		width=0.75];
	32 -- 69	[pos="1318.6,422.2 1253.6,419.16 1089.3,411.5 1024.1,408.46"];
	111	[height=0.5,
		pos="1292.5,695.87",
		width=0.75];
	32 -- 111	[pos="1342.2,441.33 1332.6,490.69 1305.6,628.49 1296,677.93"];
	32 -- 172	[pos="1347.4,405.29 1349.7,380.03 1353.9,334.54 1356.2,309.17"];
	32 -- 207	[pos="1342.9,441.66 1337.6,475.52 1326.3,547.83 1321,581.62"];
	33	[height=0.5,
		pos="756.62,884.82",
		width=0.75];
	33 -- 90	[pos="758.18,866.84 760.5,840.16 764.82,790.35 767.15,763.46"];
	33 -- 114	[pos="733.55,875.26 667.33,847.84 477.12,769.07 410.91,741.65"];
	33 -- 130	[pos="747.33,901.81 733.45,927.17 707.49,974.63 693.64,999.95"];
	33 -- 163	[pos="765.21,902.14 780.09,932.19 810.52,993.63 825.43,1023.7"];
	33 -- 208	[pos="783.7,886.6 839.07,890.26 964.68,898.55 1020.1,902.2"];
	33 -- 235	[pos="748.36,867.55 739.09,848.18 724.14,816.93 714.86,797.54"];
	34	[height=0.5,
		pos="1130.7,234.77",
		width=0.75];
	34 -- 115	[pos="1118.4,218.73 1093.4,186.24 1037,112.97 1011.9,80.406"];
	34 -- 118	[pos="1136.6,252.71 1153,303.3 1199.5,446.65 1215.8,497.05"];
	123	[height=0.5,
		pos="878.4,48.271",
		width=0.75];
	34 -- 123	[pos="1112.6,221.35 1066.2,187.03 943.36,96.28 896.72,61.813"];
	34 -- 142	[pos="1152.4,223.94 1175.1,212.6 1210.6,194.89 1233.3,183.52"];
	34 -- 213	[pos="1157.8,235.29 1182.9,235.77 1220.1,236.48 1245.3,236.97"];
	214	[height=0.5,
		pos="1193.9,218.12",
		width=0.75];
	34 -- 214	[pos="1156.1,228.09 1160.2,227 1164.4,225.88 1168.6,224.79"];
	35	[height=0.5,
		pos="1059.3,436.1",
		width=0.75];
	35 -- 116	[pos="1049.8,418.83 1024,371.99 952.91,242.92 927.17,196.17"];
	35 -- 120	[pos="1082.5,445.69 1136.7,468.08 1271.1,523.62 1325.4,546.06"];
	35 -- 141	[pos="1061.6,454.39 1067.1,497.95 1081,607.47 1086.5,650.95"];
	35 -- 147	[pos="1081.3,425.48 1115.8,408.81 1182.3,376.68 1216.8,360.04"];
	35 -- 214	[pos="1069.6,419.36 1094.7,378.78 1158.4,275.55 1183.5,234.92"];
	238	[height=0.5,
		pos="842.68,92.354",
		width=0.75];
	35 -- 238	[pos="1048.5,419.05 1011.6,360.4 889.9,167.29 853.24,109.1"];
	36	[height=0.5,
		pos="1283.8,283.29",
		width=0.75];
	36 -- 70	[pos="1284.4,301.59 1285.6,344.45 1288.8,450.94 1290,493.57"];
	36 -- 121	[pos="1256.8,282.57 1225.3,281.73 1173.8,280.36 1142.4,279.53"];
	36 -- 149	[pos="1275.7,265.83 1260.8,233.84 1229.3,166.22 1214.5,134.41"];
	36 -- 180	[pos="1276.9,300.98 1265.4,330.19 1242.7,388.18 1231.2,417.32"];
	215	[height=0.5,
		pos="1418.3,346.05",
		width=0.75];
	36 -- 215	[pos="1306,293.65 1331,305.28 1371.2,324.04 1396.1,335.67"];
	37	[height=0.5,
		pos="1213.4,1001.1",
		width=0.75];
	37 -- 66	[pos="1233.5,989 1241.2,984.35 1250,979.05 1257.8,974.38"];
	37 -- 122	[pos="1214.1,982.82 1214.5,972.65 1214.9,960.05 1215.3,949.87"];
	37 -- 187	[pos="1223.7,984.19 1241,955.72 1275.7,898.59 1293,870.26"];
	216	[height=0.5,
		pos="1109.2,1066.4",
		width=0.75];
	37 -- 216	[pos="1193.3,1013.7 1174.9,1025.3 1147.7,1042.3 1129.3,1053.8"];
	38	[height=0.5,
		pos="659.22,100.87",
		width=0.75];
	38 -- 67	[pos="686.08,103.52 735.14,108.37 838.73,118.61 887.81,123.46"];
	38 -- 123	[pos="684.79,94.733 727.02,84.597 810.86,64.478 852.99,54.369"];
	38 -- 219	[pos="631.85,100.55 624.89,100.47 617.42,100.39 610.48,100.31"];
	244	[height=0.5,
		pos="768.24,18",
		width=0.75];
	38 -- 244	[pos="677.22,87.185 697.42,71.831 730,47.067 750.21,31.704"];
	38 -- 245	[pos="643.23,115.46 595.58,158.92 454.92,287.23 406.94,331"];
	39	[height=0.5,
		pos="482.47,1072.4",
		width=0.75];
	39 -- 64	[pos="509.13,1076.5 550.35,1082.7 629.06,1094.7 670.07,1101"];
	39 -- 124	[pos="477.31,1054.7 466.49,1017.5 441.52,931.57 430.67,894.26"];
	39 -- 184	[pos="459.96,1062.2 439.64,1053 409.9,1039.6 389.6,1030.4"];
	39 -- 221	[pos="509.58,1074.4 536.26,1076.3 576.75,1079.2 603.36,1081.1"];
	39 -- 225	[pos="502.4,1060.2 509.75,1055.7 518.08,1050.6 525.44,1046"];
	40	[height=0.5,
		pos="351.82,596.38",
		width=0.75];
	40 -- 54	[pos="378.88,594.42 447.63,589.44 628.37,576.34 697,571.37"];
	40 -- 125	[pos="358.46,613.94 374.26,655.77 414,760.91 429.77,802.66"];
	131	[height=0.5,
		pos="162.17,623.95",
		width=0.75];
	40 -- 131	[pos="325.05,600.27 288.91,605.53 224.88,614.83 188.8,620.08"];
	136	[height=0.5,
		pos="453.37,348.52",
		width=0.75];
	40 -- 136	[pos="358.96,578.95 377.61,533.45 427.6,411.42 446.24,365.93"];
	40 -- 223	[pos="376.71,604.02 409.25,614.02 465.91,631.42 498.33,641.37"];
	40 -- 224	[pos="324.96,593.34 263.86,586.43 115.02,569.58 53.889,562.66"];
	40 -- 246	[pos="327.68,588.1 298.23,577.99 248.74,561 219.27,550.89"];
	41	[height=0.5,
		pos="197.59,783",
		width=0.75];
	41 -- 100	[pos="185.45,766.54 160.33,732.49 102.9,654.64 77.971,620.84"];
	41 -- 126	[pos="218.65,794.9 273.78,826.03 421.84,909.65 476.5,940.52"];
	41 -- 222	[pos="202.08,800.93 207.65,823.12 217.08,860.69 222.66,882.95"];
	41 -- 228	[pos="182.54,767.5 166.69,751.16 141.88,725.6 126.09,709.33"];
	42	[height=0.5,
		pos="846.06,393.32",
		width=0.75];
	42 -- 73	[pos="855.9,410.29 869.2,433.21 892.74,473.81 906.01,496.68"];
	42 -- 129	[pos="819.02,395.32 755.85,400.01 599.17,411.62 535.87,416.32"];
	42 -- 136	[pos="819.37,390.27 747.74,382.1 551.77,359.75 480.09,351.57"];
	42 -- 220	[pos="868.87,403.28 907.13,419.98 983.8,453.46 1022.1,470.17"];
	42 -- 229	[pos="864.35,379.99 889.79,361.46 935.6,328.09 961.15,309.48"];
	43	[height=0.5,
		pos="157.26,738.54",
		width=0.75];
	43 -- 128	[pos="167.03,721.45 173.37,710.36 181.61,695.96 187.93,684.89"];
	43 -- 131	[pos="158.04,720.38 158.95,698.92 160.47,663.44 161.39,642.02"];
	43 -- 194	[pos="171.66,753.96 204.11,788.72 282.64,872.83 315.16,907.67"];
	43 -- 230	[pos="159.63,756.62 161.97,774.4 165.52,801.4 167.85,819.15"];
	44	[height=0.5,
		pos="515.42,317.58",
		width=0.75];
	44 -- 88	[pos="493.03,328.1 438.76,353.59 300.7,418.45 246.36,443.98"];
	44 -- 132	[pos="511.03,299.59 504.48,272.74 492.21,222.49 485.67,195.68"];
	44 -- 138	[pos="498.48,303.26 468.57,277.96 406.73,225.65 376.83,200.36"];
	44 -- 139	[pos="522.85,335.15 538.19,371.41 573.2,454.18 588.52,490.41"];
	44 -- 192	[pos="537.75,307.29 582.27,286.78 681.61,241.02 726.07,220.54"];
	44 -- 232	[pos="517.19,335.59 520.72,371.39 528.57,451.15 532.11,487.13"];
	45	[height=0.5,
		pos="1105.9,603.45",
		width=0.75];
	45 -- 111	[pos="1127.6,614.23 1163.5,631.99 1234.6,667.2 1270.6,685.01"];
	45 -- 133	[pos="1113,586.07 1123.7,559.81 1143.9,510.31 1154.7,483.88"];
	45 -- 195	[pos="1104.3,621.82 1100.3,668.14 1089.9,789.25 1086,835.23"];
	45 -- 233	[pos="1091.6,587.97 1067.8,562.08 1020.2,510.27 996.21,484.23"];
	45 -- 242	[pos="1079.8,608.22 1026.4,617.98 905.38,640.12 851.99,649.88"];
	46	[height=0.5,
		pos="977.01,1050.1",
		width=0.75];
	46 -- 94	[pos="953.52,1041 884.11,1013.8 680.44,934.19 610.99,907.03"];
	46 -- 137	[pos="980.3,1032.1 987.84,990.5 1006.3,888.62 1013.9,847.12"];
	46 -- 216	[pos="1003.8,1053.4 1026.7,1056.2 1059.6,1060.3 1082.5,1063.1"];
	46 -- 236	[pos="952.29,1057.8 932.16,1064.1 903.88,1072.8 883.76,1079.1"];
	47	[height=0.5,
		pos="568.97,51.984",
		width=0.75];
	47 -- 107	[pos="596.15,53.518 603.36,53.925 611.15,54.364 618.36,54.771"];
	47 -- 143	[pos="553.51,66.754 501.62,116.35 333.94,276.63 281.56,326.7"];
	47 -- 209	[pos="548.67,64.108 526.29,77.479 490.48,98.868 468.08,112.26"];
	47 -- 238	[pos="595.71,55.929 648.17,63.666 764.01,80.75 816.24,88.453"];
	48	[height=0.5,
		pos="1410.7,512.61",
		width=0.75];
	48 -- 58	[pos="1404.5,494.92 1392.5,460.86 1366.3,386.54 1354.3,352.54"];
	48 -- 145	[pos="1406.6,530.58 1396.6,574.16 1371,685.02 1361,728.65"];
	48 -- 148	[pos="1404.9,530.34 1396.2,556.8 1380,606.34 1371.3,632.76"];
	48 -- 215	[pos="1411.6,494.46 1413,462.43 1416,396.19 1417.5,364.17"];
	48 -- 239	[pos="1403.3,495.16 1392.5,469.58 1372.3,422.17 1361.5,396.59"];
	49	[height=0.5,
		pos="855.68,180.38",
		width=0.75];
	49 -- 127	[pos="830.12,174.42 824.48,173.11 818.5,171.71 812.85,170.39"];
	49 -- 146	[pos="882.44,177.15 935.79,170.7 1054.8,156.32 1108.1,149.88"];
	49 -- 155	[pos="860.46,198.36 871.44,239.68 898.35,340.96 909.32,382.22"];
	49 -- 244	[pos="846.49,163.31 829.74,132.2 794.43,66.627 777.58,35.331"];
}
