graph {
	graph [bb="0,0,1175.2,984.72",
		outputorder=edgesfirst,
		overlap=prism,
		size="50,50!",
		start=1616
	];
	node [label="\N"];
	0	[height=0.5,
		pos="551.5,352.45",
		width=0.75];
	20	[height=0.5,
		pos="507.25,18",
		width=0.75];
	0 -- 20	[pos="549.12,334.47 541.44,276.39 517.34,94.268 509.64,36.07"];
	2	[height=0.5,
		pos="768.67,465.56",
		width=0.75];
	0 -- 2	[pos="573.12,363.71 614.75,385.39 705.58,432.7 747.14,454.34"];
	22	[height=0.5,
		pos="442.71,32.238",
		width=0.75];
	0 -- 22	[pos="545.5,334.78 526.48,278.79 467.69,105.76 448.7,49.855"];
	24	[height=0.5,
		pos="276.29,404.78",
		width=0.75];
	0 -- 24	[pos="525.11,357.46 472.51,367.47 355.13,389.78 302.59,399.77"];
	25	[height=0.5,
		pos="209.35,213.47",
		width=0.75];
	0 -- 25	[pos="528.25,343 465.83,317.65 295.09,248.29 232.63,222.92"];
	6	[height=0.5,
		pos="475.25,398.82",
		width=0.75];
	0 -- 6	[pos="531.47,364.63 520.35,371.39 506.56,379.78 495.42,386.56"];
	7	[height=0.5,
		pos="659.62,378.12",
		width=0.75];
	0 -- 7	[pos="577.13,358.53 594.36,362.62 616.99,367.99 634.18,372.08"];
	26	[height=0.5,
		pos="727.16,128.97",
		width=0.75];
	0 -- 26	[pos="564.14,336.38 596.47,295.24 681.94,186.5 714.4,145.2"];
	9	[height=0.5,
		pos="559.8,418.07",
		width=0.75];
	0 -- 9	[pos="553.81,370.73 554.96,379.83 556.35,390.8 557.5,399.89"];
	27	[height=0.5,
		pos="482.5,262.82",
		width=0.75];
	0 -- 27	[pos="539.17,336.42 526.68,320.21 507.49,295.28 494.96,279"];
	28	[height=0.5,
		pos="172.38,284.44",
		width=0.75];
	0 -- 28	[pos="525.15,347.72 455.63,335.25 267.89,301.57 198.57,289.13"];
	12	[height=0.5,
		pos="645.73,422.12",
		width=0.75];
	0 -- 12	[pos="569.67,365.88 586.36,378.22 610.95,396.4 627.62,408.72"];
	13	[height=0.5,
		pos="632.55,334.11",
		width=0.75];
	0 -- 13	[pos="577.15,346.65 586.61,344.51 597.32,342.08 606.79,339.94"];
	30	[height=0.5,
		pos="606.56,226.5",
		width=0.75];
	0 -- 30	[pos="559.16,334.93 569.68,310.87 588.49,267.85 598.97,243.86"];
	31	[height=0.5,
		pos="668.6,269.73",
		width=0.75];
	0 -- 31	[pos="570.06,339.34 591.86,323.94 627.82,298.54 649.75,283.05"];
	16	[height=0.5,
		pos="616.28,466.15",
		width=0.75];
	0 -- 16	[pos="561.34,369.72 573.59,391.21 594.37,427.69 606.56,449.09"];
	32	[height=0.5,
		pos="110.36,323.65",
		width=0.75];
	0 -- 32	[pos="524.57,350.69 445.82,345.55 216.52,330.58 137.5,325.42"];
	34	[height=0.5,
		pos="634.94,593.72",
		width=0.75];
	0 -- 34	[pos="557.64,370.19 573.07,414.81 613.36,531.31 628.8,575.96"];
	19	[height=0.5,
		pos="749.98,377.34",
		width=0.75];
	0 -- 19	[pos="578.27,355.8 616.26,360.57 685.39,369.24 723.32,374"];
	21	[height=0.5,
		pos="802.02,122.65",
		width=0.75];
	20 -- 21	[pos="531.37,26.564 586.78,46.237 722.64,94.47 777.98,114.11"];
	2 -- 6	[pos="742.89,459.69 687.23,447.03 556.38,417.27 500.87,404.65"];
	2 -- 9	[pos="743.06,459.74 702.97,450.62 625.83,433.08 585.62,423.94"];
	2 -- 12	[pos="744.67,457.08 723.01,449.42 691.31,438.22 669.66,430.57"];
	2 -- 19	[pos="764.89,447.71 761.64,432.4 757,410.47 753.76,395.17"];
	3	[height=0.5,
		pos="720.04,333.29",
		width=0.75];
	2 -- 3	[pos="762.21,447.99 752.91,422.7 735.84,376.26 726.52,350.93"];
	8	[height=0.5,
		pos="835.7,383.48",
		width=0.75];
	2 -- 8	[pos="781.59,449.73 793.39,435.29 810.74,414.05 822.59,399.54"];
	15	[height=0.5,
		pos="742.33,509.61",
		width=0.75];
	2 -- 15	[pos="758.56,482.47 756.53,485.86 754.39,489.43 752.36,492.83"];
	46	[height=0.5,
		pos="413.19,395.14",
		width=0.75];
	2 -- 46	[pos="742.53,460.38 676.79,447.36 505.15,413.35 439.37,400.32"];
	48	[height=0.5,
		pos="464.27,513.66",
		width=0.75];
	2 -- 48	[pos="742.19,469.74 684.62,478.84 548.61,500.33 490.91,509.45"];
	49	[height=0.5,
		pos="939.38,339.37",
		width=0.75];
	2 -- 49	[pos="786.94,452.05 819.79,427.76 888.48,376.99 921.24,352.77"];
	50	[height=0.5,
		pos="1026.9,339.52",
		width=0.75];
	2 -- 50	[pos="790.68,454.81 839.47,431 956.2,374.02 1004.9,350.23"];
	52	[height=0.5,
		pos="704.78,682.42",
		width=0.75];
	2 -- 52	[pos="763.44,483.3 751.43,524.07 721.98,624.02 709.99,664.73"];
	53	[height=0.5,
		pos="981.23,295.36",
		width=0.75];
	2 -- 53	[pos="786.06,451.63 826.02,419.64 923.99,341.19 963.9,309.24"];
	14	[height=0.5,
		pos="652.12,531.9",
		width=0.75];
	2 -- 14	[pos="748.1,477.27 726.93,489.32 694.12,508 672.87,520.09"];
	55	[height=0.5,
		pos="1081.5,534.78",
		width=0.75];
	2 -- 55	[pos="794.54,471.28 853.39,484.3 996.74,516.02 1055.6,529.05"];
	17	[height=0.5,
		pos="665.72,638.36",
		width=0.75];
	2 -- 17	[pos="758.61,482.44 738.93,515.48 695.53,588.32 675.82,621.41"];
	57	[height=0.5,
		pos="1008.4,625.45",
		width=0.75];
	2 -- 57	[pos="787.88,478.37 832.76,508.31 944.09,582.58 989.06,612.58"];
	23	[height=0.5,
		pos="758.02,40.921",
		width=0.75];
	22 -- 23	[pos="469.87,32.986 529.47,34.627 671.17,38.529 730.82,40.172"];
	6 -- 7	[pos="502.06,395.81 537.02,391.88 597.81,385.06 632.78,381.13"];
	6 -- 9	[pos="501.08,404.7 511.57,407.09 523.66,409.84 534.13,412.23"];
	36	[height=0.5,
		pos="524.78,307.75",
		width=0.75];
	6 -- 36	[pos="484.57,381.69 493.42,365.41 506.66,341.06 515.5,324.8"];
	6 -- 17	[pos="488.04,414.91 522.74,458.55 618.35,578.79 652.98,622.34"];
	10	[height=0.5,
		pos="679.71,466.13",
		width=0.75];
	6 -- 10	[pos="499.51,406.81 538.86,419.76 616.16,445.21 655.49,458.16"];
	75	[height=0.5,
		pos="176.27,535.92",
		width=0.75];
	6 -- 75	[pos="452.78,409.13 397.24,434.59 253.98,500.28 198.6,525.68"];
	103	[height=0.5,
		pos="702.03,225.58",
		width=0.75];
	6 -- 103	[pos="493.05,385.23 535.33,352.92 641.48,271.83 684,239.35"];
	104	[height=0.5,
		pos="238.34,554.55",
		width=0.75];
	6 -- 104	[pos="455.86,411.57 411.33,440.84 302.13,512.62 257.66,541.85"];
	105	[height=0.5,
		pos="358.46,259.61",
		width=0.75];
	6 -- 105	[pos="461.85,382.85 439.33,356 394.13,302.12 371.7,275.39"];
	106	[height=0.5,
		pos="449.72,218.09",
		width=0.75];
	6 -- 106	[pos="472.71,380.83 467.83,346.28 457.19,270.98 452.29,236.27"];
	107	[height=0.5,
		pos="272.97,315.44",
		width=0.75];
	6 -- 107	[pos="452.05,389.26 413.13,373.22 335.15,341.07 296.21,325.02"];
	108	[height=0.5,
		pos="401.67,489.69",
		width=0.75];
	6 -- 108	[pos="462.1,415.07 448.7,431.61 428.06,457.1 414.71,473.59"];
	109	[height=0.5,
		pos="385.37,349.96",
		width=0.75];
	6 -- 109	[pos="453.95,387.24 439.62,379.45 420.81,369.23 406.52,361.45"];
	110	[height=0.5,
		pos="114.09,528.33",
		width=0.75];
	6 -- 110	[pos="451.28,407.42 385.74,430.92 204.11,496.05 138.3,519.65"];
	112	[height=0.5,
		pos="307.56,64.174",
		width=0.75];
	6 -- 112	[pos="466.47,381.3 437.49,323.47 345.1,139.1 316.25,81.522"];
	63	[height=0.5,
		pos="245.25,137.92",
		width=0.75];
	6 -- 63	[pos="461.55,383.28 420.74,336.99 300.26,200.33 259.16,153.71"];
	7 -- 12	[pos="654.05,395.76 653.14,398.63 652.21,401.6 651.3,404.47"];
	7 -- 19	[pos="686.73,377.88 698.17,377.79 711.45,377.67 722.89,377.57"];
	37	[height=0.5,
		pos="792.62,251.45",
		width=0.75];
	7 -- 37	[pos="675.14,363.34 700.63,339.06 751.1,291 776.79,266.53"];
	7 -- 49	[pos="686.19,374.43 739.52,367.05 859.06,350.49 912.58,343.08"];
	64	[height=0.5,
		pos="851.37,180.13",
		width=0.75];
	7 -- 64	[pos="674.35,362.91 710.04,326.06 800.85,232.3 836.59,195.39"];
	7 -- 10	[pos="663.69,395.93 667.15,411.1 672.1,432.8 675.59,448.05"];
	11	[height=0.5,
		pos="572.89,633.35",
		width=0.75];
	7 -- 11	[pos="653.52,396.06 637.56,443.04 594.69,569.19 578.86,615.76"];
	89	[height=0.5,
		pos="296.42,240.28",
		width=0.75];
	7 -- 89	[pos="636.07,369.18 570.36,344.24 385.56,274.11 319.92,249.2"];
	114	[height=0.5,
		pos="958.63,224.51",
		width=0.75];
	7 -- 114	[pos="681.13,367.07 736.16,338.8 881.66,264.05 936.92,235.67"];
	115	[height=0.5,
		pos="606.58,277.38",
		width=0.75];
	7 -- 115	[pos="650.62,361.03 640.87,342.5 625.39,313.11 615.62,294.55"];
	116	[height=0.5,
		pos="688.49,173",
		width=0.75];
	7 -- 116	[pos="662.18,359.91 667.66,320.99 680.46,230.05 685.93,191.17"];
	117	[height=0.5,
		pos="529.29,62.546",
		width=0.75];
	7 -- 117	[pos="652.43,360.7 629.64,305.53 559.22,135.01 536.46,79.908"];
	119	[height=0.5,
		pos="854.81,427.49",
		width=0.75];
	7 -- 119	[pos="685.14,384.57 722.55,394.03 791.88,411.57 829.29,421.03"];
	120	[height=0.5,
		pos="609.2,32.769",
		width=0.75];
	7 -- 120	[pos="656.98,360.03 648.29,300.5 620.62,110.97 611.88,51.088"];
	122	[height=0.5,
		pos="806.47,603.57",
		width=0.75];
	7 -- 122	[pos="670.42,394.69 697.58,436.39 768.48,545.25 795.66,586.97"];
	123	[height=0.5,
		pos="1062.1,383.63",
		width=0.75];
	7 -- 123	[pos="686.65,378.49 759.89,379.49 961.52,382.25 1034.9,383.26"];
	77	[height=0.5,
		pos="928.53,559.58",
		width=0.75];
	7 -- 77	[pos="678.96,391.17 728.58,424.65 859.94,513.3 909.37,546.65"];
	9 -- 12	[pos="586.99,419.35 597.11,419.83 608.6,420.37 618.72,420.84"];
	9 -- 16	[pos="576.74,432.5 583.89,438.58 592.2,445.65 599.34,451.74"];
	9 -- 15	[pos="581.45,428.93 616.58,446.55 685.59,481.16 720.7,498.77"];
	9 -- 14	[pos="573.02,434.38 590.67,456.14 621.73,494.43 639.21,515.99"];
	9 -- 10	[pos="583.2,427.45 604.33,435.92 635.26,448.32 656.37,456.78"];
	9 -- 115	[pos="565.72,400.25 574.72,373.19 591.73,322.03 600.7,295.06"];
	135	[height=0.5,
		pos="401.5,539.86",
		width=0.75];
	9 -- 135	[pos="541.95,431.8 511.54,455.19 450.05,502.5 419.53,525.99"];
	136	[height=0.5,
		pos="624.67,182.49",
		width=0.75];
	9 -- 136	[pos="564.67,400.36 576.69,356.71 607.65,244.27 619.73,200.4"];
	137	[height=0.5,
		pos="454.44,706.94",
		width=0.75];
	9 -- 137	[pos="553.36,435.71 534.56,487.28 479.8,637.42 460.92,689.16"];
	139	[height=0.5,
		pos="640.57,682.37",
		width=0.75];
	9 -- 139	[pos="565.22,435.82 579.94,483.97 620.48,616.64 635.17,664.7"];
	140	[height=0.5,
		pos="537.42,122.85",
		width=0.75];
	9 -- 140	[pos="558.43,400.05 554.43,347.34 542.8,193.9 538.79,141.01"];
	66	[height=0.5,
		pos="415.65,152.22",
		width=0.75];
	9 -- 66	[pos="550.56,401.04 524.59,353.13 451.11,217.6 425,169.46"];
	29	[height=0.5,
		pos="176.02,629.27",
		width=0.75];
	28 -- 29	[pos="172.57,302.49 173.2,361.94 175.19,551.18 175.82,610.98"];
	12 -- 13	[pos="643,403.88 640.74,388.78 637.54,367.42 635.28,352.32"];
	12 -- 16	[pos="634.59,438.76 632.25,442.27 629.77,445.97 627.43,449.48"];
	12 -- 19	[pos="668.61,412.29 685.99,404.83 709.79,394.6 727.16,387.15"];
	40	[height=0.5,
		pos="877.33,339.47",
		width=0.75];
	12 -- 40	[pos="669.64,413.58 714.02,397.75 808.66,363.98 853.2,348.08"];
	12 -- 15	[pos="662.11,436.96 679.99,453.15 708.41,478.89 726.18,494.99"];
	18	[height=0.5,
		pos="724.13,554.5",
		width=0.75];
	12 -- 18	[pos="655.66,438.88 670.66,464.21 698.94,511.96 714.03,537.45"];
	12 -- 14	[pos="646.78,440.24 647.97,460.59 649.88,493.39 651.06,513.74"];
	80	[height=0.5,
		pos="510.84,627.58",
		width=0.75];
	12 -- 80	[pos="634.69,438.93 609.33,477.55 547.16,572.25 521.84,610.82"];
	12 -- 105	[pos="625.07,410.43 572.19,380.52 432.41,301.44 379.32,271.4"];
	161	[height=0.5,
		pos="767.38,704.42",
		width=0.75];
	12 -- 161	[pos="653.34,439.78 675.18,490.47 737.93,636.08 759.77,686.76"];
	68	[height=0.5,
		pos="789.17,172.67",
		width=0.75];
	12 -- 68	[pos="655.59,404.97 681.86,359.29 753.31,235.04 779.43,189.61"];
	127	[height=0.5,
		pos="896.32,224.51",
		width=0.75];
	12 -- 127	[pos="663.35,408.22 709.36,371.94 832.73,274.65 878.72,238.39"];
	145	[height=0.5,
		pos="609.9,138.45",
		width=0.75];
	12 -- 145	[pos="643.43,403.94 636.96,352.7 618.63,207.53 612.18,156.48"];
	150	[height=0.5,
		pos="277.43,493.02",
		width=0.75];
	12 -- 150	[pos="619.54,427.16 551.83,440.19 371.56,474.9 303.73,487.96"];
	13 -- 16	[pos="630.32,352.2 627.22,377.34 621.64,422.61 618.53,447.86"];
	13 -- 19	[pos="656.31,342.86 676.69,350.36 705.89,361.11 726.25,368.61"];
	13 -- 15	[pos="643.08,350.94 664.06,384.49 710.87,459.33 731.83,492.84"];
	81	[height=0.5,
		pos="338.35,448.79",
		width=0.75];
	13 -- 81	[pos="608.97,343.3 553.89,364.77 417.24,418.04 362.04,439.55"];
	94	[height=0.5,
		pos="234.42,271.42",
		width=0.75];
	13 -- 94	[pos="606.12,329.95 533.78,318.56 333.16,286.97 260.84,275.58"];
	13 -- 106	[pos="612.98,321.7 577.89,299.42 504.62,252.92 469.43,230.59"];
	13 -- 116	[pos="638.64,316.56 649.35,285.74 671.41,222.18 682.23,191.02"];
	128	[height=0.5,
		pos="913.61,180.48",
		width=0.75];
	13 -- 128	[pos="653.67,322.57 705.89,294.02 840.55,220.41 892.62,191.95"];
	13 -- 136	[pos="631.6,315.82 630.08,286.68 627.14,230.03 625.62,200.84"];
	146	[height=0.5,
		pos="730.6,269.8",
		width=0.75];
	13 -- 146	[pos="651.92,321.41 669.11,310.13 694.09,293.75 711.27,282.48"];
	163	[height=0.5,
		pos="359.19,108.2",
		width=0.75];
	13 -- 163	[pos="615.45,319.98 566.36,279.41 425.37,162.89 376.28,122.33"];
	165	[height=0.5,
		pos="464.25,578",
		width=0.75];
	13 -- 165	[pos="621.25,350.49 590.66,394.82 506.51,516.75 475.72,561.37"];
	167	[height=0.5,
		pos="915.34,471.53",
		width=0.75];
	13 -- 167	[pos="654.74,344.9 707.6,370.58 840.5,435.16 893.26,460.8"];
	54	[height=0.5,
		pos="882.15,84.839",
		width=0.75];
	13 -- 54	[pos="647.79,318.89 692.45,274.29 822.7,144.21 867.12,99.858"];
	152	[height=0.5,
		pos="932.26,603.62",
		width=0.75];
	13 -- 152	[pos="648.66,348.6 700.7,395.4 863.92,542.16 916.07,589.06"];
	16 -- 19	[pos="635.43,453.43 660.71,436.64 704.95,407.25 730.43,390.33"];
	42	[height=0.5,
		pos="589.77,528.56",
		width=0.75];
	16 -- 42	[pos="608.89,483.54 605.28,492.05 600.93,502.28 597.3,510.83"];
	16 -- 18	[pos="633.61,480.35 653.73,496.83 686.74,523.87 706.84,540.34"];
	16 -- 109	[pos="594.55,455.22 550.55,433.07 451.3,383.14 407.2,360.94"];
	131	[height=0.5,
		pos="913.57,293.52",
		width=0.75];
	16 -- 131	[pos="636.71,454.29 691.02,422.75 838.52,337.1 892.99,305.47"];
	169	[height=0.5,
		pos="578.54,704.85",
		width=0.75];
	16 -- 169	[pos="613.44,484.09 606.45,528.33 588.44,642.25 581.41,686.7"];
	56	[height=0.5,
		pos="868.53,640.74",
		width=0.75];
	16 -- 56	[pos="635.24,479.27 682.1,511.71 802.96,595.36 849.69,627.7"];
	98	[height=0.5,
		pos="139.37,367.66",
		width=0.75];
	16 -- 98	[pos="590.3,460.79 507.2,443.62 248.5,390.2 165.37,373.03"];
	121	[height=0.5,
		pos="495.35,166.86",
		width=0.75];
	16 -- 121	[pos="609.25,448.77 587.88,395.87 523.79,237.25 502.39,184.29"];
	157	[height=0.5,
		pos="392.38,683.35",
		width=0.75];
	16 -- 157	[pos="600.89,481.08 559.99,520.76 448.9,628.52 407.87,668.31"];
	33	[height=0.5,
		pos="373.14,728.27",
		width=0.75];
	32 -- 33	[pos="121.15,340.26 163.75,405.84 319.91,646.31 362.4,711.73"];
	102	[height=0.5,
		pos="420.47,284.03",
		width=0.75];
	19 -- 102	[pos="724.94,370.25 663.67,352.9 506.71,308.45 445.47,291.11"];
	134	[height=0.5,
		pos="1024,251.35",
		width=0.75];
	19 -- 134	[pos="772.41,367.03 823.93,343.35 950.24,285.28 1001.7,261.63"];
	148	[height=0.5,
		pos="832.52,295.46",
		width=0.75];
	19 -- 148	[pos="765.12,362.32 779.92,347.64 802.33,325.41 817.19,310.66"];
	160	[height=0.5,
		pos="727.74,599.29",
		width=0.75];
	19 -- 160	[pos="748.16,395.51 743.98,437.23 733.73,539.52 729.55,581.19"];
	173	[height=0.5,
		pos="963.89,515.56",
		width=0.75];
	19 -- 173	[pos="769.72,390.1 810.47,416.43 903.49,476.53 944.2,502.84"];
	45	[height=0.5,
		pos="940.37,134.69",
		width=0.75];
	19 -- 45	[pos="762.77,361.04 797.45,316.84 893.02,195.04 927.64,150.92"];
	88	[height=0.5,
		pos="994.46,560.38",
		width=0.75];
	19 -- 88	[pos="767.96,390.8 813.17,424.65 931.22,513.03 976.46,546.9"];
	113	[height=0.5,
		pos="671.21,40.443",
		width=0.75];
	19 -- 113	[pos="745.75,359.23 732.04,300.6 688.97,116.41 675.37,58.237"];
	141	[height=0.5,
		pos="820.08,76.595",
		width=0.75];
	19 -- 141	[pos="754.16,359.43 766.62,305.94 803.48,147.78 815.92,94.414"];
	172	[height=0.5,
		pos="1087.9,473.63",
		width=0.75];
	19 -- 172	[pos="774.83,384.42 837.33,402.23 1000.5,448.72 1063.1,466.54"];
	1	[height=0.5,
		pos="735.72,421.45",
		width=0.75];
	1 -- 2	[pos="747.8,437.63 750.66,441.46 753.72,445.55 756.59,449.39"];
	1 -- 9	[pos="708.62,420.93 675.56,420.3 620,419.23 586.93,418.59"];
	1 -- 13	[pos="718.68,407.03 699.45,390.75 668.37,364.44 649.27,348.27"];
	1 -- 3	[pos="732.47,403.19 729.76,387.95 725.92,366.37 723.23,351.23"];
	4	[height=0.5,
		pos="527.69,518.2",
		width=0.75];
	1 -- 4	[pos="713.46,431.81 673.52,450.38 590.16,489.15 550.11,507.78"];
	35	[height=0.5,
		pos="335.02,305.55",
		width=0.75];
	1 -- 35	[pos="710.65,414.2 638.61,393.37 431.53,333.47 359.82,312.72"];
	1 -- 36	[pos="714.72,410.14 674.39,388.4 586.51,341.02 546,319.19"];
	1 -- 37	[pos="741.7,403.58 752.66,370.85 775.82,301.64 786.72,269.09"];
	1 -- 8	[pos="759.41,412.46 775.35,406.4 796.28,398.46 812.18,392.42"];
	38	[height=0.5,
		pos="467.97,444.76",
		width=0.75];
	1 -- 38	[pos="708.57,423.82 657.12,428.3 545.99,437.97 494.79,442.42"];
	39	[height=0.5,
		pos="705.04,745.61",
		width=0.75];
	1 -- 39	[pos="733.98,439.81 728.58,496.87 712.13,670.67 706.76,727.45"];
	1 -- 40	[pos="756.31,409.53 783.16,393.99 829.86,366.96 856.72,351.41"];
	41	[height=0.5,
		pos="804.63,515.55",
		width=0.75];
	1 -- 41	[pos="747.72,437.84 760.37,455.11 780.16,482.15 792.76,499.34"];
	1 -- 15	[pos="737.09,439.72 738.22,454.85 739.82,476.25 740.96,491.37"];
	1 -- 42	[pos="717.53,434.8 689.56,455.33 636.29,494.42 608.19,515.04"];
	43	[height=0.5,
		pos="829.76,684.78",
		width=0.75];
	1 -- 43	[pos="742.03,439.14 759.17,487.11 806.37,619.29 823.47,667.17"];
	1 -- 18	[pos="734.13,439.68 731.91,465.15 727.91,511.14 725.7,536.5"];
	44	[height=0.5,
		pos="1086.1,275.71",
		width=0.75];
	1 -- 44	[pos="758.71,411.89 822.2,385.48 999.44,311.75 1063,285.3"];
	1 -- 21	[pos="739.77,403.21 751.63,349.74 786.23,193.82 798.02,140.65"];
	3 -- 13	[pos="692.84,333.55 682.3,333.64 670.27,333.76 659.73,333.86"];
	3 -- 16	[pos="707.52,349.32 687.58,374.85 648.81,424.5 628.84,450.07"];
	3 -- 19	[pos="731.19,349.69 733.65,353.31 736.26,357.15 738.72,360.78"];
	3 -- 8	[pos="742.89,343.21 763.17,352.01 792.64,364.79 812.9,373.59"];
	59	[height=0.5,
		pos="489.42,354.7",
		width=0.75];
	3 -- 59	[pos="693.13,335.79 648.81,339.9 560.95,348.06 516.51,352.19"];
	60	[height=0.5,
		pos="475.38,106.6",
		width=0.75];
	3 -- 60	[pos="703.98,318.42 659.55,277.24 535.3,162.12 491.17,121.23"];
	62	[height=0.5,
		pos="595.24,78.83",
		width=0.75];
	3 -- 62	[pos="711.46,315.8 688.61,269.2 626.44,142.46 603.71,96.106"];
	3 -- 64	[pos="733.6,317.48 758.76,288.13 812.43,225.54 837.69,196.09"];
	65	[height=0.5,
		pos="696.78,84.931",
		width=0.75];
	3 -- 65	[pos="718.33,315.03 714.03,269.1 702.8,149.18 698.5,103.22"];
	3 -- 10	[pos="714.6,351.21 706.9,376.56 692.91,422.65 685.2,448.08"];
	3 -- 11	[pos="711.49,350.72 685.48,403.75 607.5,562.78 581.46,615.88"];
	67	[height=0.5,
		pos="980,180.17",
		width=0.75];
	3 -- 67	[pos="740.44,321.27 789.03,292.65 911.2,220.7 959.7,192.13"];
	69	[height=0.5,
		pos="852.34,471.51",
		width=0.75];
	3 -- 69	[pos="734.7,348.61 760.13,375.18 812.13,429.5 837.61,456.12"];
	70	[height=0.5,
		pos="917.35,407.33",
		width=0.75];
	3 -- 70	[pos="743.84,342.22 781.87,356.49 855.89,384.27 893.78,398.48"];
	71	[height=0.5,
		pos="1106.1,429.54",
		width=0.75];
	3 -- 71	[pos="745.37,339.6 815.32,357.04 1010.6,405.73 1080.7,423.2"];
	73	[height=0.5,
		pos="1132.8,385.46",
		width=0.75];
	3 -- 73	[pos="746.8,336.67 821.48,346.11 1031.5,372.66 1106.1,382.08"];
	3 -- 23	[pos="722.41,315 729.23,262.49 748.82,111.7 755.64,59.203"];
	4 -- 24	[pos="504.94,507.93 457.08,486.34 346.47,436.44 298.81,414.94"];
	4 -- 9	[pos="533.43,500.3 539.28,482.07 548.28,453.99 554.11,435.82"];
	4 -- 16	[pos="548.24,506.13 562.55,497.72 581.56,486.55 595.84,478.16"];
	4 -- 59	[pos="523.53,500.39 516.16,468.94 500.94,403.92 493.58,372.49"];
	4 -- 10	[pos="551.78,509.95 580.16,500.23 627.05,484.17 655.49,474.43"];
	4 -- 11	[pos="534.56,535.69 543.05,557.33 557.44,593.98 565.96,615.7"];
	5	[height=0.5,
		pos="351.15,402.93",
		width=0.75];
	4 -- 5	[pos="508.13,505.42 474.1,483.21 404.44,437.72 370.54,415.59"];
	4 -- 75	[pos="500.7,519.56 435.29,522.86 268.86,531.25 203.35,534.55"];
	76	[height=0.5,
		pos="699.21,811.82",
		width=0.75];
	4 -- 76	[pos="537.66,535.26 567.97,587.15 658.87,742.76 689.22,794.72"];
	78	[height=0.5,
		pos="761.36,806.56",
		width=0.75];
	4 -- 78	[pos="540.59,534.11 581.44,584.53 707.71,740.35 748.5,790.7"];
	4 -- 80	[pos="524.91,536.26 521.79,556.53 516.75,589.22 513.63,609.49"];
	4 -- 81	[pos="503.71,509.41 467.29,496.06 398.44,470.82 362.14,457.51"];
	82	[height=0.5,
		pos="353.22,639.13",
		width=0.75];
	4 -- 82	[pos="508.69,531.37 475.13,554.63 405.74,602.72 372.2,625.97"];
	83	[height=0.5,
		pos="305.88,718.95",
		width=0.75];
	4 -- 83	[pos="511.38,532.96 470.26,570.18 362.74,667.49 321.92,704.44"];
	85	[height=0.5,
		pos="468.62,753.56",
		width=0.75];
	4 -- 85	[pos="523.16,536.28 512.13,580.2 484.05,692.09 473.09,735.74"];
	86	[height=0.5,
		pos="569.64,808.79",
		width=0.75];
	4 -- 86	[pos="530.32,536.38 537.85,588.56 559.48,738.44 567.02,790.62"];
	87	[height=0.5,
		pos="656.11,872.08",
		width=0.75];
	4 -- 87	[pos="534.06,535.75 555.92,596 627.78,794.01 649.7,854.42"];
	47	[height=0.5,
		pos="107.11,581",
		width=0.75];
	4 -- 47	[pos="501.07,522.18 425.32,533.49 209.23,565.75 133.62,577.04"];
	8 -- 26	[pos="828.24,365.99 808.41,319.5 754.56,193.22 734.67,146.59"];
	8 -- 9	[pos="809,386.83 756.26,393.44 639.27,408.11 586.52,414.72"];
	8 -- 10	[pos="814.34,394.8 784.55,410.59 730.85,439.04 701.07,454.82"];
	90	[height=0.5,
		pos="544.55,242.49",
		width=0.75];
	8 -- 90	[pos="813.82,372.89 759.86,346.76 620.91,279.47 566.69,253.21"];
	8 -- 103	[pos="822.4,367.77 796.91,337.66 741.44,272.13 715.68,241.71"];
	8 -- 114	[pos="848.17,367.37 871.73,336.9 922.55,271.18 946.13,240.67"];
	125	[height=0.5,
		pos="891.94,715.89",
		width=0.75];
	8 -- 125	[pos="838.81,401.83 848.64,459.95 879.03,639.57 888.84,697.61"];
	126	[height=0.5,
		pos="1148.2,280.02",
		width=0.75];
	8 -- 126	[pos="859.96,375.45 918.18,356.17 1065.3,307.46 1123.7,288.12"];
	8 -- 128	[pos="842.48,365.82 857.25,327.34 892.2,236.27 906.9,197.95"];
	129	[height=0.5,
		pos="981.7,440.81",
		width=0.75];
	8 -- 129	[pos="859.16,392.7 886.41,403.39 931.09,420.94 958.31,431.63"];
	130	[height=0.5,
		pos="1025.9,490.77",
		width=0.75];
	8 -- 130	[pos="856.42,395.17 893.01,415.81 968.65,458.47 1005.2,479.1"];
	8 -- 131	[pos="849.27,367.81 863.47,351.4 885.66,325.77 899.9,309.31"];
	132	[height=0.5,
		pos="943.79,669.07",
		width=0.75];
	8 -- 132	[pos="842.47,401.35 861.92,452.76 917.89,600.64 937.17,651.58"];
	133	[height=0.5,
		pos="1072.8,581.77",
		width=0.75];
	8 -- 133	[pos="852.76,397.75 896.51,434.33 1012.4,531.2 1055.9,567.64"];
	8 -- 134	[pos="854.45,370.33 890.55,345.01 969.33,289.74 1005.4,264.45"];
	79	[height=0.5,
		pos="1143.6,550.9",
		width=0.75];
	8 -- 79	[pos="856.87,394.99 913.11,425.58 1065.9,508.64 1122.3,539.31"];
	15 -- 31	[pos="736.9,491.98 723.27,447.61 687.67,331.78 674.03,287.39"];
	15 -- 16	[pos="718.32,501.34 696.03,493.65 663.02,482.27 640.62,474.55"];
	15 -- 19	[pos="743.37,491.5 744.83,466.31 747.46,420.96 748.92,395.66"];
	15 -- 18	[pos="735.24,527.1 733.92,530.35 732.54,533.74 731.23,536.99"];
	15 -- 17	[pos="732.31,526.45 717.63,551.12 690.42,596.85 675.73,621.53"];
	15 -- 70	[pos="762.75,497.68 796.38,478.03 863.07,439.06 896.79,419.35"];
	96	[height=0.5,
		pos="339.49,518.29",
		width=0.75];
	15 -- 96	[pos="715.27,510.2 641.97,511.78 440.16,516.12 366.69,517.7"];
	15 -- 108	[pos="715.31,508.04 651.58,504.31 492.42,495 428.69,491.27"];
	15 -- 119	[pos="760.65,496.24 781.57,480.96 815.58,456.13 836.5,440.86"];
	15 -- 130	[pos="769.26,507.83 823.32,504.23 944.49,496.18 998.75,492.58"];
	147	[height=0.5,
		pos="789.76,559.56",
		width=0.75];
	15 -- 147	[pos="756.82,524.87 762.59,530.95 769.23,537.94 775.03,544.05"];
	84	[height=0.5,
		pos="530.66,764.74",
		width=0.75];
	15 -- 84	[pos="729.08,525.57 691.07,571.39 581.9,702.98 543.9,748.79"];
	155	[height=0.5,
		pos="823.41,802.56",
		width=0.75];
	15 -- 155	[pos="747.28,527.5 761.75,579.8 803.9,732.06 818.42,784.53"];
	18 -- 34	[pos="701.16,564.6 687.74,570.5 670.88,577.92 657.53,583.79"];
	18 -- 86	[pos="713.99,571.18 686,617.26 607.85,745.89 579.81,792.04"];
	101	[height=0.5,
		pos="291.17,625.09",
		width=0.75];
	18 -- 101	[pos="697.7,558.81 620.31,571.42 394.82,608.19 317.53,620.79"];
	18 -- 133	[pos="751.2,556.62 816.33,561.71 981.16,574.6 1046,579.68"];
	18 -- 139	[pos="713.21,571.22 697.19,595.72 667.51,641.14 651.49,665.65"];
	159	[height=0.5,
		pos="718.13,855.84",
		width=0.75];
	18 -- 159	[pos="723.76,572.9 722.69,626.82 719.56,784.07 718.49,837.69"];
	18 -- 167	[pos="746.82,544.66 783.62,528.69 855.91,497.32 892.69,481.36"];
	168	[height=0.5,
		pos="829.18,758.07",
		width=0.75];
	18 -- 168	[pos="733.09,571.86 752.98,610.41 800.66,702.8 820.4,741.05"];
	170	[height=0.5,
		pos="831,847.55",
		width=0.75];
	18 -- 170	[pos="730.65,572.39 749.78,624.83 805.55,777.75 824.56,829.89"];
	18 -- 173	[pos="750.7,550.18 796.91,542.68 891.53,527.32 937.56,519.84"];
	58	[height=0.5,
		pos="960.66,806.54",
		width=0.75];
	18 -- 58	[pos="738.57,569.89 780.8,614.88 903.74,745.89 946.1,791.04"];
	74	[height=0.5,
		pos="1005.6,713.51",
		width=0.75];
	18 -- 74	[pos="744.83,566.19 796.88,595.6 932.79,672.37 984.88,701.8"];
	111	[height=0.5,
		pos="594.39,916.15",
		width=0.75];
	18 -- 111	[pos="717.7,572.43 695.56,634.15 622.68,837.31 600.71,898.53"];
	124	[height=0.5,
		pos="1056.7,669.49",
		width=0.75];
	18 -- 124	[pos="748.32,562.86 809.75,584.1 971.29,639.95 1032.6,661.16"];
	44 -- 45	[pos="1070.8,260.88 1042.9,233.87 984.01,176.92 955.93,149.74"];
	46 -- 47	[pos="393.11,407.33 337.65,441.01 182.81,535.03 127.26,568.76"];
	51	[height=0.5,
		pos="983.01,395.31",
		width=0.75];
	50 -- 51	[pos="1014.2,355.65 1008.4,362.99 1001.6,371.66 995.82,379.02"];
	53 -- 54	[pos="973.13,278.13 954.55,238.66 909.06,142.01 890.37,102.3"];
	14 -- 30	[pos="649.41,513.71 641.3,459.39 617.35,298.79 609.26,244.59"];
	14 -- 16	[pos="642.89,514.97 637.58,505.23 630.93,493.02 625.6,483.25"];
	14 -- 19	[pos="662.78,515.07 681.6,485.34 720.52,423.87 739.33,394.16"];
	14 -- 41	[pos="679.03,529.01 706.82,526.03 749.94,521.41 777.72,518.43"];
	14 -- 15	[pos="677.73,525.57 690.02,522.54 704.71,518.91 716.97,515.88"];
	14 -- 17	[pos="654.43,549.96 656.93,569.54 660.89,600.6 663.4,620.21"];
	14 -- 69	[pos="677.07,524.37 715.65,512.74 789.31,490.52 827.7,478.94"];
	14 -- 82	[pos="628.17,540.49 572.2,560.57 433.37,610.37 377.29,630.49"];
	95	[height=0.5,
		pos="167.03,484.29",
		width=0.75];
	14 -- 95	[pos="625.35,529.27 540.64,520.96 279.03,495.28 194.01,486.94"];
	14 -- 107	[pos="631.47,520.11 565.48,482.44 360.21,365.25 293.87,327.37"];
	14 -- 129	[pos="677.16,524.98 738.45,508.04 895.45,464.65 956.7,447.72"];
	153	[height=0.5,
		pos="516.48,709.55",
		width=0.75];
	14 -- 153	[pos="639.84,547.98 614.09,581.72 554.65,659.57 528.83,693.38"];
	14 -- 168	[pos="664.85,548.17 697.52,589.9 784.02,700.39 816.56,741.96"];
	118	[height=0.5,
		pos="358.36,196.24",
		width=0.75];
	14 -- 118	[pos="638.35,516.16 589,459.78 421.4,268.27 372.1,211.94"];
	164	[height=0.5,
		pos="160.93,411.67",
		width=0.75];
	14 -- 164	[pos="626.75,525.69 542.27,505.01 271.13,438.64 186.45,417.91"];
	55 -- 56	[pos="1059.5,545.72 1018.6,566.07 931.23,609.54 890.4,629.86"];
	17 -- 43	[pos="690.63,645.41 721.55,654.16 773.97,668.99 804.88,677.74"];
	17 -- 85	[pos="645.37,650.26 607.6,672.33 527.06,719.4 489.15,741.56"];
	17 -- 122	[pos="691.21,632.06 716.56,625.79 755.25,616.23 780.7,609.94"];
	17 -- 132	[pos="692.38,641.31 745.39,647.16 863.51,660.21 916.8,666.09"];
	158	[height=0.5,
		pos="594.04,852.83",
		width=0.75];
	17 -- 158	[pos="659.73,656.28 646.2,696.75 613.42,794.84 599.96,835.12"];
	17 -- 169	[pos="647.65,652.14 632.69,663.55 611.54,679.69 596.58,691.09"];
	17 -- 170	[pos="678.41,654.43 709.18,693.37 787.45,792.43 818.26,831.43"];
	171	[height=0.5,
		pos="893.04,803.93",
		width=0.75];
	17 -- 171	[pos="684.32,651.91 727.05,683.04 831.82,759.35 874.5,790.43"];
	17 -- 33	[pos="640.77,646.03 585.5,663.01 453.24,703.65 398.02,720.62"];
	72	[height=0.5,
		pos="950.56,759.9",
		width=0.75];
	17 -- 72	[pos="688.54,648.1 741.88,670.86 874.18,727.31 927.62,750.11"];
	100	[height=0.5,
		pos="406.57,796.9",
		width=0.75];
	17 -- 100	[pos="645.81,650.54 597.57,680.05 474.85,755.13 426.54,784.68"];
	138	[height=0.5,
		pos="743,944.01",
		width=0.75];
	17 -- 138	[pos="670.21,656.12 683.87,710.14 724.83,872.12 738.5,926.2"];
	162	[height=0.5,
		pos="842.16,933.64",
		width=0.75];
	17 -- 162	[pos="675.96,655.51 707.22,707.83 801.1,864.93 832.11,916.81"];
	166	[height=0.5,
		pos="672.87,918",
		width=0.75];
	17 -- 166	[pos="666.19,656.71 667.49,707.5 671.12,849.52 672.41,899.95"];
	57 -- 58	[pos="1003.6,643.48 994.47,678.19 974.52,753.94 965.39,788.59"];
	61	[height=0.5,
		pos="108.62,240.99",
		width=0.75];
	60 -- 61	[pos="451.59,115.31 385.24,139.63 198.63,208.01 132.35,232.3"];
	62 -- 63	[pos="568.93,83.272 504.07,94.223 337.04,122.43 271.86,133.43"];
	65 -- 66	[pos="671.34,91.021 617.95,103.8 494.76,133.28 441.24,146.09"];
	10 -- 27	[pos="664.89,450.85 628.25,413.08 533.76,315.66 497.22,278"];
	10 -- 16	[pos="652.44,466.14 649.49,466.14 646.48,466.14 643.53,466.14"];
	10 -- 38	[pos="652.9,463.43 612.28,459.33 535.59,451.58 494.9,447.48"];
	10 -- 18	[pos="688.49,483.59 696.33,499.18 707.74,521.89 715.52,537.38"];
	10 -- 14	[pos="672.32,483.76 668.36,493.19 663.5,504.78 659.54,514.23"];
	10 -- 17	[pos="678.24,484.24 675.55,517.32 669.88,587.15 667.19,620.24"];
	91	[height=0.5,
		pos="265.52,449",
		width=0.75];
	10 -- 91	[pos="652.54,465.01 577.4,461.9 367.46,453.22 292.53,450.12"];
	142	[height=0.5,
		pos="300.4,581.08",
		width=0.75];
	10 -- 142	[pos="655.12,473.59 586.66,494.33 394.42,552.59 325.44,573.5"];
	144	[height=0.5,
		pos="557.38,182.49",
		width=0.75];
	10 -- 144	[pos="672.25,448.82 650.41,398.18 586.82,250.75 564.9,199.94"];
	10 -- 146	[pos="684.32,448.37 693.99,411.08 716.29,325.04 725.97,287.67"];
	10 -- 147	[pos="696.43,480.32 717.11,497.88 752.13,527.61 772.89,545.23"];
	10 -- 148	[pos="693.82,450.38 722.93,417.87 789.37,343.65 818.45,311.17"];
	10 -- 51	[pos="705.31,460.16 762.44,446.82 899.8,414.74 957.16,401.35"];
	11 -- 39	[pos="589.62,647.57 614.91,669.04 662.57,709.53 688.02,731.15"];
	11 -- 52	[pos="596.47,642.13 620.33,651 657.01,664.65 680.96,673.56"];
	11 -- 104	[pos="547.19,627.3 484.92,612.63 326.48,575.32 264.12,560.63"];
	11 -- 125	[pos="598.19,639.9 657.88,655.34 806.94,693.9 866.63,709.35"];
	11 -- 135	[pos="551.87,621.89 518.89,603.9 455.34,569.23 422.42,551.27"];
	149	[height=0.5,
		pos="344.52,814.29",
		width=0.75];
	11 -- 149	[pos="555.35,647.25 512.84,680.93 404.69,766.62 362.12,800.35"];
	151	[height=0.5,
		pos="780.14,899.89",
		width=0.75];
	11 -- 151	[pos="585.54,649.63 622.63,697.32 730.78,836.41 767.65,883.83"];
	11 -- 153	[pos="560.93,649.51 551.42,662.36 538.18,680.25 528.62,693.15"];
	154	[height=0.5,
		pos="673.85,966.72",
		width=0.75];
	11 -- 154	[pos="578.32,651.28 595.85,709.16 650.83,890.7 668.4,948.7"];
	156	[height=0.5,
		pos="405.83,858.32",
		width=0.75];
	11 -- 156	[pos="560.87,649.53 530.12,690.94 448.83,800.41 417.96,841.99"];
	11 -- 158	[pos="574.65,651.69 578.65,693.11 588.32,793.48 592.3,834.7"];
	11 -- 159	[pos="583.8,650.08 610.79,691.41 680.37,798.01 707.28,839.23"];
	11 -- 160	[pos="598.81,627.65 627.48,621.34 673.39,611.24 701.99,604.95"];
	11 -- 29	[pos="545.61,633.07 473.02,632.33 275.73,630.3 203.22,629.55"];
	93	[height=0.5,
		pos="224.65,692.79",
		width=0.75];
	11 -- 93	[pos="546.71,637.82 482.18,648.84 315.98,677.2 251.12,688.27"];
	143	[height=0.5,
		pos="282.14,786.18",
		width=0.75];
	11 -- 143	[pos="551.51,644.59 497.74,672.85 357.35,746.65 303.55,774.93"];
	67 -- 68	[pos="952.66,179.1 916.28,177.67 852.35,175.15 816.16,173.73"];
	71 -- 72	[pos="1097.9,446.83 1071.1,503.79 985.77,685.09 958.81,742.38"];
	73 -- 74	[pos="1126,403.1 1103.9,460.06 1034.6,638.7 1012.5,695.78"];
	5 -- 25	[pos="339.06,386.78 312.27,350.98 248.17,265.34 221.41,229.58"];
	5 -- 6	[pos="378.39,402.03 399.08,401.34 427.41,400.41 448.08,399.72"];
	5 -- 9	[pos="378,404.88 417.95,407.78 492.64,413.2 532.72,416.11"];
	5 -- 12	[pos="378.08,404.69 434.04,408.33 562.37,416.69 618.55,420.35"];
	5 -- 35	[pos="348.12,384.62 345.22,367.1 340.87,340.84 337.99,323.46"];
	5 -- 48	[pos="366.41,417.87 388,439 427.24,477.41 448.89,498.61"];
	5 -- 89	[pos="345.19,385.22 334.66,353.93 312.9,289.25 302.37,257.97"];
	5 -- 90	[pos="368.32,388.69 405.02,358.25 490.76,287.11 527.43,256.69"];
	5 -- 91	[pos="329.99,414.32 316.81,421.41 299.93,430.49 286.74,437.58"];
	92	[height=0.5,
		pos="56.569,480.39",
		width=0.75];
	5 -- 92	[pos="325.78,409.6 270.1,424.24 137.71,459.05 81.983,473.7"];
	5 -- 94	[pos="337.3,387.33 314.84,362.02 270.7,312.3 248.25,287"];
	5 -- 95	[pos="328.58,412.91 293.24,428.52 225.24,458.57 189.79,474.23"];
	5 -- 96	[pos="349.33,420.96 347.15,442.5 343.53,478.35 341.34,500.01"];
	97	[height=0.5,
		pos="27,359.68",
		width=0.75];
	5 -- 97	[pos="324.63,399.39 263.84,391.28 115.03,371.43 53.893,363.27"];
	99	[height=0.5,
		pos="50.057,524.96",
		width=0.75];
	5 -- 99	[pos="328.03,412.31 271.98,435.02 129.39,492.81 73.262,515.56"];
	5 -- 101	[pos="346.35,420.74 335.11,462.33 307.25,565.52 296,607.2"];
	5 -- 102	[pos="360.94,386.15 374.07,363.62 397.29,323.8 410.51,301.11"];
	5 -- 61	[pos="331.72,389.95 286.19,359.56 173.1,284.04 127.81,253.81"];
	76 -- 77	[pos="713.21,796.42 754.15,751.39 873.34,620.28 914.42,575.1"];
	78 -- 79	[pos="780.58,793.71 845.82,750.07 1058.4,607.84 1124.1,563.93"];
	83 -- 84	[pos="332.11,724.3 375.42,733.12 461.4,750.63 504.61,759.44"];
	87 -- 88	[pos="671.97,857.46 728.8,805.11 921.85,627.27 978.63,574.96"];
	92 -- 93	[pos="69.202,496.35 100.35,535.71 180.56,637.08 211.87,676.64"];
	97 -- 98	[pos="53.915,361.59 71.575,362.85 94.588,364.48 112.28,365.74"];
	99 -- 100	[pos="68.227,538.82 129.38,585.47 327.34,736.46 388.44,783.07"];
	110 -- 111	[pos="131.47,542.36 206.48,602.93 502.08,841.61 577.04,902.14"];
	112 -- 113	[pos="334.59,62.41 401.92,58.016 576.48,46.624 644,42.219"];
	117 -- 118	[pos="511.64,76.35 478.8,102.03 408.68,156.88 375.91,182.51"];
	120 -- 121	[pos="595.7,48.677 573.78,74.483 530.74,125.18 508.84,150.97"];
	123 -- 124	[pos="1061.8,401.95 1060.8,453.58 1058,599.88 1057.1,651.33"];
	126 -- 127	[pos="1122.2,274.29 1073.8,263.62 970.46,240.85 922.18,230.21"];
	137 -- 138	[pos="471.63,721.06 522.95,763.22 674.7,887.89 725.91,929.96"];
	140 -- 141	[pos="563.76,118.54 617.62,109.73 739.81,89.731 793.7,80.912"];
	142 -- 143	[pos="298.78,599.28 295.31,638.21 287.22,729.14 283.75,768.02"];
	144 -- 145	[pos="574.28,168.32 580.28,163.29 587.03,157.63 593.03,152.6"];
	149 -- 150	[pos="340.72,796.1 328.91,739.55 292.94,567.29 281.18,511.01"];
	151 -- 152	[pos="788.98,882.68 815.86,830.32 896.48,673.31 923.4,620.88"];
	154 -- 155	[pos="687.92,951.27 716.43,919.98 780.71,849.43 809.27,818.08"];
	156 -- 157	[pos="404.44,840.26 401.86,806.73 396.37,735.23 393.78,701.58"];
	161 -- 162	[pos="773.12,722.02 787.04,764.69 822.46,873.25 836.4,915.98"];
	163 -- 164	[pos="348.25,124.95 313.58,178 206.45,341.99 171.84,394.97"];
	165 -- 166	[pos="474.59,594.86 510.11,652.74 626.85,843 662.47,901.04"];
	171 -- 172	[pos="902.97,787.1 936.41,730.44 1044.6,547.04 1078,490.43"];
}
