graph {
	graph [bb="0,0,426.78,431.6",
		outputorder=edgesfirst,
		overlap=prism,
		size="50,50!",
		start=5322
	];
	node [label="\N"];
	1	[height=0.5,
		pos="186.06,152.33",
		width=0.75];
	2	[height=0.5,
		pos="329.95,161.51",
		width=0.75];
	1 -- 2	[pos="213.12,154.06 238.85,155.7 277.32,158.15 303.01,159.79"];
	5	[height=0.5,
		pos="315.83,255.77",
		width=0.75];
	1 -- 5	[pos="203.56,166.28 228.33,186.02 273.35,221.91 298.19,241.71"];
	3	[height=0.5,
		pos="274.97,117.5",
		width=0.75];
	1 -- 3	[pos="209.42,143.18 222.39,138.1 238.47,131.8 251.46,126.71"];
	4	[height=0.5,
		pos="250.21,281.53",
		width=0.75];
	1 -- 4	[pos="194.58,169.49 206.85,194.2 229.37,239.55 241.66,264.3"];
	8	[height=0.5,
		pos="27,163.93",
		width=0.75];
	1 -- 8	[pos="159.08,154.3 129.74,156.44 83.134,159.84 53.849,161.97"];
	2 -- 5	[pos="327.23,179.68 324.73,196.37 321.04,220.98 318.55,237.65"];
	2 -- 4	[pos="318.86,178.19 303.63,201.12 276.39,242.13 261.21,264.98"];
	7	[height=0.5,
		pos="399.78,18",
		width=0.75];
	2 -- 7	[pos="338.37,144.2 351.8,116.61 377.89,62.992 391.33,35.371"];
	6	[height=0.5,
		pos="339.73,413.6",
		width=0.75];
	5 -- 6	[pos="318.57,273.88 323.16,304.16 332.33,364.75 336.94,395.22"];
	3 -- 5	[pos="280.23,135.29 288.07,161.84 302.76,211.54 310.59,238.05"];
	3 -- 4	[pos="272.23,135.68 267.47,167.21 257.74,231.68 252.97,263.27"];
	3 -- 7	[pos="292.32,103.67 316.04,84.762 358.33,51.047 382.17,32.038"];
	4 -- 6	[pos="261.37,297.99 278.52,323.3 311.19,371.5 328.43,396.93"];
	0	[height=0.5,
		pos="175.78,221.9",
		width=0.75];
	0 -- 2	[pos="199.2,212.72 228.26,201.34 277.52,182.04 306.57,170.66"];
	0 -- 5	[pos="201.47,228.11 226.74,234.22 265.09,243.5 290.31,249.6"];
	0 -- 3	[pos="190.42,206.49 209.17,186.75 241.49,152.74 260.28,132.97"];
	0 -- 4	[pos="193.42,236.03 205.29,245.53 220.86,258.01 232.7,267.5"];
	0 -- 8	[pos="152.21,212.71 124.35,201.86 78.276,183.91 50.465,173.07"];
}
