graph {
	graph [bb="0,0,1179.8,675.7",
		outputorder=edgesfirst,
		overlap=prism,
		size="50,50!",
		start=3947
	];
	node [label="\N"];
	0	[height=0.5,
		pos="566.15,352.85",
		width=0.75];
	37	[height=0.5,
		pos="497.42,382.4",
		width=0.75];
	0 -- 37	[pos="543.26,362.69 535.92,365.85 527.79,369.34 520.44,372.51"];
	2	[height=0.5,
		pos="755.23,437.32",
		width=0.75];
	0 -- 2	[pos="588.58,362.87 624.87,379.09 696.07,410.89 732.54,427.18"];
	25	[height=0.5,
		pos="621.53,396.87",
		width=0.75];
	0 -- 25	[pos="583.67,366.78 590.13,371.92 597.46,377.74 603.93,382.88"];
	3	[height=0.5,
		pos="831.39,462.04",
		width=0.75];
	0 -- 3	[pos="589.22,362.35 639.39,383 757.89,431.79 808.18,452.49"];
	4	[height=0.5,
		pos="522.81,308.82",
		width=0.75];
	0 -- 4	[pos="550.99,337.45 546.7,333.09 542.02,328.34 537.74,323.99"];
	5	[height=0.5,
		pos="582.23,264.81",
		width=0.75];
	0 -- 5	[pos="569.48,334.61 572.26,319.4 576.19,297.85 578.96,282.73"];
	18	[height=0.5,
		pos="540.34,220.8",
		width=0.75];
	0 -- 18	[pos="562.61,334.77 557.67,309.48 548.75,263.83 543.83,238.66"];
	62	[height=0.5,
		pos="457.72,338.36",
		width=0.75];
	0 -- 62	[pos="539.62,349.31 522.82,347.06 501.17,344.17 484.35,341.92"];
	9	[height=0.5,
		pos="612.61,194.34",
		width=0.75];
	0 -- 9	[pos="571.39,334.98 580.31,304.53 598.36,242.96 607.32,212.39"];
	34	[height=0.5,
		pos="755.19,369.04",
		width=0.75];
	0 -- 34	[pos="593.23,355.17 629.17,358.25 692.24,363.65 728.15,366.73"];
	12	[height=0.5,
		pos="388.71,354.66",
		width=0.75];
	0 -- 12	[pos="538.81,353.13 505.37,353.47 449.11,354.04 415.78,354.38"];
	20	[height=0.5,
		pos="435.41,398.72",
		width=0.75];
	0 -- 20	[pos="542.17,361.27 518.73,369.49 483.22,381.95 459.68,390.21"];
	39	[height=0.5,
		pos="398.09,294.33",
		width=0.75];
	0 -- 39	[pos="542.07,344.47 510.12,333.34 454.05,313.82 422.12,302.7"];
	49	[height=0.5,
		pos="559.48,420.32",
		width=0.75];
	0 -- 49	[pos="564.36,370.93 563.41,380.61 562.23,392.5 561.27,402.19"];
	64	[height=0.5,
		pos="722.96,484.9",
		width=0.75];
	0 -- 64	[pos="582.93,366.98 612.95,392.27 675.54,444.97 705.82,470.47"];
	28	[height=0.5,
		pos="450.75,182.7",
		width=0.75];
	0 -- 28	[pos="554.87,336.23 532.76,303.61 483.92,231.61 461.9,199.14"];
	71	[height=0.5,
		pos="460.81,270.74",
		width=0.75];
	0 -- 71	[pos="548.28,338.92 528.79,323.73 497.8,299.57 478.42,284.47"];
	54	[height=0.5,
		pos="631.12,326.42",
		width=0.75];
	0 -- 54	[pos="589.24,343.46 595.22,341.02 601.67,338.4 607.67,335.96"];
	35	[height=0.5,
		pos="422,226.73",
		width=0.75];
	0 -- 35	[pos="549.61,338.38 521.95,314.18 466.61,265.76 438.78,241.42"];
	57	[height=0.5,
		pos="623.7,484.99",
		width=0.75];
	0 -- 57	[pos="573.79,370.4 584.8,395.67 605,442.06 616.03,467.37"];
	77	[height=0.5,
		pos="709.44,307",
		width=0.75];
	0 -- 77	[pos="590.78,344.97 617.03,336.57 658.34,323.35 684.65,314.94"];
	37 -- 62	[pos="483.09,366.5 479.36,362.36 475.34,357.91 471.63,353.8"];
	1	[height=0.5,
		pos="798.79,277.28",
		width=0.75];
	67	[height=0.5,
		pos="817.24,400.27",
		width=0.75];
	1 -- 67	[pos="801.51,295.42 805,318.68 811.01,358.76 814.5,382.05"];
	1 -- 2	[pos="793.96,295.01 785.59,325.78 768.47,388.68 760.08,419.5"];
	1 -- 3	[pos="801.98,295.33 808.21,330.65 821.95,408.53 828.19,443.92"];
	8	[height=0.5,
		pos="879.29,376.79",
		width=0.75];
	1 -- 8	[pos="811.72,293.26 826.75,311.83 851.38,342.28 866.39,360.84"];
	1 -- 4	[pos="772.08,280.33 719.32,286.36 602.31,299.73 549.54,305.76"];
	36	[height=0.5,
		pos="662.82,238.39",
		width=0.75];
	1 -- 36	[pos="773.85,270.14 749.47,263.17 712.54,252.61 688.06,245.61"];
	10	[height=0.5,
		pos="966.46,320.74",
		width=0.75];
	1 -- 10	[pos="824.26,283.88 855.86,292.07 909.44,305.96 941.03,314.15"];
	1 -- 9	[pos="776.33,267.27 740.55,251.33 670.98,220.34 635.15,204.38"];
	1 -- 34	[pos="790.59,294.54 782.79,310.94 771.14,335.48 763.35,351.86"];
	41	[height=0.5,
		pos="903.99,277.83",
		width=0.75];
	1 -- 41	[pos="825.88,277.42 841.47,277.5 860.99,277.6 876.62,277.68"];
	43	[height=0.5,
		pos="966.54,256.18",
		width=0.75];
	1 -- 43	[pos="825.37,273.93 856.69,270 908.42,263.49 939.81,259.55"];
	52	[height=0.5,
		pos="841.68,321.52",
		width=0.75];
	1 -- 52	[pos="813.79,292.75 818.04,297.14 822.67,301.91 826.91,306.28"];
	23	[height=0.5,
		pos="736.79,150.05",
		width=0.75];
	1 -- 23	[pos="790.43,260.12 778.6,235.83 757.08,191.7 745.21,167.34"];
	50	[height=0.5,
		pos="797.41,105.7",
		width=0.75];
	1 -- 50	[pos="798.65,259.24 798.38,226.28 797.82,156.71 797.56,123.75"];
	73	[height=0.5,
		pos="674.73,182.88",
		width=0.75];
	1 -- 73	[pos="780.75,263.55 757.23,245.65 716.32,214.53 692.79,196.63"];
	29	[height=0.5,
		pos="904.41,332.65",
		width=0.75];
	1 -- 29	[pos="820.17,288.48 838.49,298.09 864.75,311.86 883.07,321.46"];
	44	[height=0.5,
		pos="647.42,282.41",
		width=0.75];
	1 -- 44	[pos="771.73,278.19 744.26,279.13 701.98,280.56 674.5,281.49"];
	53	[height=0.5,
		pos="941.65,212.13",
		width=0.75];
	1 -- 53	[pos="821.11,267.1 847.79,254.93 892.19,234.68 919.01,222.45"];
	74	[height=0.5,
		pos="693.18,365.47",
		width=0.75];
	1 -- 74	[pos="781.82,291.45 762.11,307.9 729.79,334.89 710.1,351.34"];
	58	[height=0.5,
		pos="881.56,167.49",
		width=0.75];
	1 -- 58	[pos="811,261.08 826.65,240.32 853.62,204.55 869.3,183.76"];
	1 -- 77	[pos="774.38,285.4 761.77,289.59 746.43,294.7 733.83,298.89"];
	65	[height=0.5,
		pos="859.66,121.79",
		width=0.75];
	1 -- 65	[pos="805.65,259.74 817.34,229.88 840.99,169.48 852.73,139.5"];
	79	[height=0.5,
		pos="736.74,256.75",
		width=0.75];
	1 -- 79	[pos="774.27,269.16 769.93,267.73 765.42,266.24 761.09,264.8"];
	2 -- 25	[pos="730.4,429.81 706.38,422.54 670.2,411.6 646.23,404.34"];
	2 -- 3	[pos="779.75,445.28 788.45,448.1 798.23,451.28 806.92,454.1"];
	2 -- 4	[pos="734.2,425.69 689.95,401.22 587.69,344.69 543.63,320.33"];
	7	[height=0.5,
		pos="968.32,406.73",
		width=0.75];
	2 -- 7	[pos="781.79,433.51 822.74,427.63 900.82,416.42 941.76,410.54"];
	17	[height=0.5,
		pos="794.86,528.07",
		width=0.75];
	2 -- 17	[pos="762.88,454.82 769.89,470.89 780.23,494.58 787.24,510.63"];
	2 -- 52	[pos="767.62,420.73 784.15,398.59 813.23,359.64 829.6,337.71"];
	22	[height=0.5,
		pos="732.83,528.92",
		width=0.75];
	2 -- 22	[pos="750.81,455.42 746.88,471.48 741.17,494.81 737.25,510.86"];
	26	[height=0.5,
		pos="858.59,506.94",
		width=0.75];
	2 -- 26	[pos="774.67,450.42 793.27,462.94 821.13,481.71 839.58,494.14"];
	46	[height=0.5,
		pos="680.85,440.88",
		width=0.75];
	2 -- 46	[pos="727.96,438.63 721.49,438.94 714.59,439.27 708.12,439.58"];
	2 -- 64	[pos="743.95,453.96 740.82,458.57 737.43,463.57 734.3,468.19"];
	2 -- 29	[pos="774.13,424.06 802.82,403.93 857.07,365.87 885.67,345.8"];
	2 -- 74	[pos="741.46,421.38 731.18,409.47 717.18,393.27 706.91,381.37"];
	2 -- 57	[pos="731.41,445.95 707.72,454.54 671.57,467.64 647.79,476.26"];
	25 -- 49	[pos="597.72,405.87 592.93,407.68 587.9,409.58 583.13,411.39"];
	25 -- 46	[pos="639.65,410.31 646.87,415.67 655.18,421.83 662.43,427.21"];
	25 -- 57	[pos="621.98,415.13 622.35,430.25 622.88,451.64 623.25,466.76"];
	3 -- 67	[pos="827.3,444.18 825.44,436.05 823.24,426.46 821.37,418.31"];
	3 -- 8	[pos="841.08,444.79 849.45,429.9 861.46,408.52 869.78,393.72"];
	3 -- 7	[pos="854.62,452.66 879.8,442.49 919.75,426.35 944.98,416.16"];
	3 -- 10	[pos="846.1,446.65 872.08,419.47 925.8,363.28 951.77,336.11"];
	3 -- 17	[pos="821.98,479.05 816.57,488.83 809.79,501.09 804.36,510.9"];
	3 -- 34	[pos="818.12,445.84 804.13,428.77 782.24,402.06 768.31,385.06"];
	19	[height=0.5,
		pos="993.75,456.57",
		width=0.75];
	3 -- 19	[pos="858.57,461.13 888.63,460.11 936.77,458.49 966.76,457.48"];
	13	[height=0.5,
		pos="757.07,572.94",
		width=0.75];
	3 -- 13	[pos="820.1,478.89 806.05,499.85 782.21,535.43 768.22,556.3"];
	42	[height=0.5,
		pos="819.08,613.69",
		width=0.75];
	3 -- 42	[pos="829.93,480.03 827.57,509.06 822.95,565.94 820.57,595.25"];
	3 -- 22	[pos="812.39,474.94 794.93,486.78 769.21,504.23 751.78,516.06"];
	24	[height=0.5,
		pos="881.13,596.51",
		width=0.75];
	3 -- 24	[pos="837.89,479.62 847.42,505.39 865.09,553.15 874.62,578.93"];
	3 -- 26	[pos="841.52,478.76 843.75,482.45 846.12,486.36 848.36,490.06"];
	31	[height=0.5,
		pos="931.71,472.74",
		width=0.75];
	3 -- 31	[pos="858.27,464.91 872.67,466.44 890.35,468.33 904.75,469.86"];
	3 -- 64	[pos="805.42,467.52 788.25,471.14 765.84,475.86 748.72,479.47"];
	38	[height=0.5,
		pos="966.27,517.26",
		width=0.75];
	3 -- 38	[pos="854.58,471.53 879.28,481.65 918.17,497.57 942.93,507.7"];
	47	[height=0.5,
		pos="943.16,565.92",
		width=0.75];
	3 -- 47	[pos="847.4,476.92 868.65,496.67 905.94,531.33 927.17,551.06"];
	40	[height=0.5,
		pos="1028.3,532.93",
		width=0.75];
	3 -- 40	[pos="855.54,470.74 893.44,484.38 966.46,510.66 1004.3,524.28"];
	48	[height=0.5,
		pos="868.15,657.7",
		width=0.75];
	3 -- 48	[pos="834.78,480.1 841.79,517.37 857.77,602.45 864.77,639.69"];
	8 -- 67	[pos="855.48,385.8 850.69,387.61 845.66,389.51 840.89,391.32"];
	8 -- 10	[pos="899.07,364.07 913.34,354.9 932.51,342.57 946.76,333.41"];
	4 -- 25	[pos="539.11,323.36 557.4,339.67 586.9,365.98 605.2,382.31"];
	4 -- 5	[pos="540.96,295.37 548.2,290.01 556.52,283.85 563.78,278.47"];
	4 -- 36	[pos="544.38,297.97 570.61,284.77 614.64,262.62 640.99,249.36"];
	6	[height=0.5,
		pos="378.34,442.73",
		width=0.75];
	4 -- 6	[pos="506.8,323.66 479.03,349.4 422.24,402.04 394.42,427.82"];
	4 -- 62	[pos="500.41,318.98 493.94,321.92 486.87,325.13 480.38,328.07"];
	4 -- 9	[pos="535.68,292.42 552.84,270.53 583.05,232.02 600.06,210.34"];
	4 -- 12	[pos="498.53,317.12 474.22,325.43 437.05,338.13 412.81,346.42"];
	4 -- 20	[pos="507.99,324.07 491.91,340.6 466.41,366.84 450.31,383.4"];
	32	[height=0.5,
		pos="547.28,176.77",
		width=0.75];
	4 -- 32	[pos="526.16,290.73 530.85,265.45 539.3,219.8 543.97,194.63"];
	4 -- 49	[pos="528.7,326.73 535.55,347.54 546.77,381.66 553.61,402.45"];
	4 -- 46	[pos="539.72,322.95 569.98,348.24 633.06,400.95 663.58,426.45"];
	4 -- 73	[pos="539.94,294.62 569.12,270.43 628.13,221.51 657.43,197.23"];
	4 -- 44	[pos="548.63,303.35 570.02,298.81 600.26,292.41 621.63,287.88"];
	4 -- 74	[pos="547.22,316.93 579.61,327.7 636.45,346.61 668.81,357.37"];
	5 -- 18	[pos="567.58,249.41 563.52,245.15 559.11,240.52 555.05,236.26"];
	5 -- 62	[pos="561.95,276.79 538.8,290.47 501.14,312.71 478,326.38"];
	5 -- 9	[pos="589.74,247.39 594.38,236.63 600.31,222.86 604.97,212.05"];
	5 -- 32	[pos="575.16,246.99 569.05,231.62 560.29,209.54 554.22,194.26"];
	5 -- 71	[pos="555.28,266.12 535.3,267.1 508.16,268.43 488.1,269.41"];
	18 -- 32	[pos="543.16,202.89 543.58,200.22 544.01,197.47 544.43,194.8"];
	18 -- 28	[pos="517.27,210.99 503.89,205.3 487.11,198.16 473.75,192.48"];
	18 -- 71	[pos="520.68,233.14 508.44,240.83 492.76,250.68 480.52,258.37"];
	18 -- 35	[pos="513.19,222.16 493.94,223.12 468.23,224.41 449.02,225.37"];
	36 -- 73	[pos="666.65,220.52 668.01,214.18 669.54,207.05 670.9,200.72"];
	36 -- 44	[pos="656.64,256.04 655.64,258.91 654.6,261.88 653.6,264.76"];
	6 -- 12	[pos="380.49,424.48 382.27,409.37 384.78,387.99 386.56,372.89"];
	6 -- 20	[pos="396.09,429.05 402.89,423.8 410.66,417.81 417.48,412.55"];
	15	[height=0.5,
		pos="326.66,394.56",
		width=0.75];
	6 -- 15	[pos="362.55,428.02 356.26,422.15 349.02,415.41 342.7,409.52"];
	68	[height=0.5,
		pos="316.3,476.91",
		width=0.75];
	6 -- 68	[pos="357.34,454.3 350.87,457.87 343.75,461.79 337.28,465.35"];
	30	[height=0.5,
		pos="274.04,306.31",
		width=0.75];
	6 -- 30	[pos="365.96,426.55 345.89,400.29 306.46,348.72 286.39,322.48"];
	21	[height=0.5,
		pos="264.65,350.43",
		width=0.75];
	6 -- 21	[pos="361.07,428.72 339.7,411.37 303.52,381.99 282.08,364.58"];
	45	[height=0.5,
		pos="214.81,454.59",
		width=0.75];
	6 -- 45	[pos="351.34,444.69 321.04,446.89 272.17,450.43 241.86,452.63"];
	72	[height=0.5,
		pos="211.09,524.25",
		width=0.75];
	6 -- 72	[pos="356.47,453.39 324.42,469.01 265.02,497.96 232.96,513.59"];
	56	[height=0.5,
		pos="148.97,489.32",
		width=0.75];
	6 -- 56	[pos="352.47,447.99 308.42,456.94 219.32,475.03 175.09,484.02"];
	78	[height=0.5,
		pos="273.18,520.98",
		width=0.75];
	6 -- 78	[pos="360.02,456.36 340.72,470.72 310.51,493.2 291.28,507.51"];
	7 -- 10	[pos="967.92,388.5 967.61,373.9 967.17,353.54 966.85,338.95"];
	7 -- 19	[pos="977.07,423.88 979.6,428.84 982.36,434.25 984.9,439.22"];
	14	[height=0.5,
		pos="1028.5,316.34",
		width=0.75];
	7 -- 14	[pos="979.36,390.15 990.22,373.84 1006.7,349.09 1017.5,332.82"];
	11	[height=0.5,
		pos="1090.6,356.35",
		width=0.75];
	7 -- 11	[pos="991.32,397.26 1013,388.3 1045.5,374.95 1067.3,365.95"];
	27	[height=0.5,
		pos="1124.4,400.37",
		width=0.75];
	7 -- 27	[pos="995.5,405.62 1024.1,404.46 1068.7,402.64 1097.2,401.47"];
	55	[height=0.5,
		pos="1098.6,444.38",
		width=0.75];
	7 -- 55	[pos="993.12,413.9 1016.1,420.56 1050.3,430.42 1073.4,437.11"];
	7 -- 26	[pos="952.13,421.52 931.38,440.47 895.62,473.12 874.84,492.1"];
	7 -- 31	[pos="958.89,423.73 953.47,433.51 946.67,445.76 941.23,455.57"];
	7 -- 29	[pos="954.77,391.02 943.92,378.45 928.79,360.91 917.95,348.34"];
	51	[height=0.5,
		pos="1055.8,488.41",
		width=0.75];
	7 -- 51	[pos="984.36,421.71 1000.1,436.45 1024.1,458.82 1039.9,473.52"];
	10 -- 14	[pos="993.49,318.83 996.11,318.64 998.76,318.45 1001.4,318.27"];
	10 -- 11	[pos="991.29,327.86 1012.8,334.03 1043.8,342.92 1065.4,349.12"];
	10 -- 43	[pos="966.48,302.42 966.49,293.62 966.51,283.11 966.52,274.33"];
	69	[height=0.5,
		pos="1090.6,293.18",
		width=0.75];
	10 -- 69	[pos="992.17,315.03 1013.5,310.3 1043.6,303.61 1064.9,298.89"];
	10 -- 53	[pos="962.36,302.81 957.77,282.68 950.35,250.23 945.75,230.09"];
	76	[height=0.5,
		pos="1028.7,238.82",
		width=0.75];
	10 -- 76	[pos="978.75,304.56 989.66,290.19 1005.5,269.32 1016.4,254.97"];
	9 -- 18	[pos="588.54,203.15 580.66,206.04 571.91,209.24 564.05,212.12"];
	59	[height=0.5,
		pos="703.73,62.004",
		width=0.75];
	9 -- 59	[pos="623.96,177.85 641.42,152.49 674.68,104.19 692.23,78.705"];
	9 -- 32	[pos="587.54,187.6 582.64,186.28 577.51,184.9 572.61,183.58"];
	9 -- 23	[pos="636.55,185.8 658.54,177.96 690.95,166.4 712.92,158.56"];
	9 -- 50	[pos="634.53,183.82 670,166.81 739.59,133.43 775.23,116.34"];
	9 -- 73	[pos="638.95,189.48 642.13,188.9 645.37,188.3 648.54,187.71"];
	9 -- 54	[pos="615.14,212.43 618.67,237.58 625.02,282.87 628.56,308.13"];
	9 -- 77	[pos="626.07,210.01 644.47,231.41 677.28,269.58 695.78,291.11"];
	61	[height=0.5,
		pos="690.28,106.04",
		width=0.75];
	9 -- 61	[pos="626.49,178.55 640.63,162.48 662.42,137.71 676.51,121.69"];
	59 -- 61	[pos="698.34,79.662 697.46,82.533 696.55,85.508 695.67,88.379"];
	63	[height=0.5,
		pos="739.24,18",
		width=0.75];
	59 -- 63	[pos="716.55,46.118 719.73,42.179 723.13,37.956 726.32,34.011"];
	70	[height=0.5,
		pos="730.57,617.97",
		width=0.75];
	17 -- 70	[pos="783.07,544.56 771.47,560.78 753.86,585.4 742.28,601.58"];
	17 -- 22	[pos="767.83,528.44 765.22,528.48 762.57,528.51 759.96,528.55"];
	17 -- 26	[pos="819.32,519.96 824.23,518.34 829.39,516.62 834.3,515"];
	34 -- 54	[pos="730.97,360.72 709.11,353.21 677.12,342.22 655.28,334.72"];
	34 -- 77	[pos="743.17,352.74 736.5,343.7 728.22,332.47 721.54,323.41"];
	34 -- 79	[pos="752.22,351 748.78,330.05 743.14,295.68 739.7,274.75"];
	41 -- 43	[pos="927.99,269.52 932.68,267.9 937.59,266.2 942.29,264.58"];
	41 -- 52	[pos="885.29,290.94 877.41,296.47 868.25,302.89 860.36,308.42"];
	41 -- 58	[pos="900.28,259.61 896.1,239.04 889.34,205.8 885.19,185.37"];
	19 -- 31	[pos="968.52,463.15 964.76,464.12 960.88,465.13 957.12,466.11"];
	19 -- 38	[pos="985.8,474.12 982.13,482.24 977.77,491.86 974.11,499.95"];
	19 -- 40	[pos="1001.6,473.9 1007.3,486.4 1014.9,503.19 1020.5,515.67"];
	19 -- 51	[pos="1015.5,467.71 1021.5,470.79 1028,474.14 1034,477.23"];
	14 -- 41	[pos="1003.9,308.73 982.07,301.98 950.35,292.17 928.54,285.42"];
	14 -- 27	[pos="1045.2,330.98 1062.8,346.4 1090.3,370.54 1107.9,385.9"];
	75	[height=0.5,
		pos="1152.8,335.15",
		width=0.75];
	14 -- 75	[pos="1054.9,320.33 1075.8,323.5 1105,327.92 1126,331.1"];
	14 -- 43	[pos="1013.2,301.47 1003.7,292.29 991.62,280.53 982.11,271.3"];
	14 -- 69	[pos="1052.3,307.46 1057.1,305.67 1062.1,303.79 1066.9,302.01"];
	14 -- 55	[pos="1037.8,333.35 1051.2,357.83 1075.8,402.78 1089.2,427.31"];
	14 -- 29	[pos="1001.9,319.84 980.95,322.59 951.92,326.41 930.99,329.16"];
	14 -- 76	[pos="1028.5,297.97 1028.6,285.61 1028.6,269.39 1028.6,257.06"];
	11 -- 14	[pos="1071,343.69 1063.7,339.02 1055.5,333.73 1048.2,329.06"];
	11 -- 27	[pos="1103,372.49 1105.9,376.32 1109.1,380.4 1112,384.23"];
	11 -- 75	[pos="1114.8,348.09 1119.3,346.56 1124,344.95 1128.5,343.42"];
	11 -- 69	[pos="1090.6,338.08 1090.6,329.63 1090.6,319.62 1090.6,311.19"];
	27 -- 75	[pos="1132,382.89 1136.1,373.53 1141.1,362.04 1145.1,352.68"];
	27 -- 55	[pos="1114.5,417.26 1112.5,420.65 1110.4,424.22 1108.4,427.61"];
	12 -- 37	[pos="414.19,361.16 431.64,365.62 454.68,371.5 472.09,375.94"];
	12 -- 62	[pos="414.41,348.59 420.23,347.22 426.42,345.75 432.23,344.38"];
	12 -- 20	[pos="404.52,369.58 409.39,374.17 414.75,379.23 419.62,383.82"];
	12 -- 15	[pos="369.07,367.28 361.83,371.94 353.63,377.22 346.37,381.88"];
	12 -- 30	[pos="365.78,344.99 345.78,336.56 316.91,324.39 296.93,315.96"];
	12 -- 21	[pos="361.48,353.73 340.8,353.03 312.48,352.06 291.81,351.36"];
	60	[height=0.5,
		pos="284.58,260.44",
		width=0.75];
	12 -- 60	[pos="372.44,339.94 352.88,322.24 320.25,292.71 300.74,275.06"];
	33	[height=0.5,
		pos="336.07,308.76",
		width=0.75];
	12 -- 33	[pos="372.05,340.14 365.91,334.78 358.95,328.71 352.8,323.34"];
	20 -- 68	[pos="416.01,411.46 393.86,426 357.84,449.64 335.69,464.18"];
	20 -- 33	[pos="419.01,383.87 400.49,367.1 370.56,339.99 352.17,323.34"];
	13 -- 42	[pos="776.35,585.61 783.75,590.47 792.18,596.02 799.6,600.89"];
	13 -- 70	[pos="747.2,589.71 745.02,593.41 742.72,597.33 740.53,601.04"];
	13 -- 22	[pos="747.63,555.79 745.88,552.61 744.04,549.28 742.29,546.09"];
	13 -- 26	[pos="776.65,560.21 794.62,548.53 821.12,531.3 839.07,519.63"];
	42 -- 48	[pos="835.42,628.35 840.66,633.05 846.46,638.25 851.71,642.96"];
	15 -- 20	[pos="353.82,395.6 370.43,396.23 391.6,397.05 408.22,397.68"];
	15 -- 68	[pos="324.36,412.83 322.63,426.58 320.27,445.31 318.56,458.97"];
	15 -- 30	[pos="316.51,377.54 307.19,361.92 293.46,338.88 284.15,323.27"];
	15 -- 21	[pos="308.05,381.32 300.2,375.73 291.09,369.25 283.24,363.66"];
	15 -- 60	[pos="321.07,376.75 313.02,351.1 298.25,304.02 290.19,278.32"];
	15 -- 33	[pos="328.65,376.36 330.25,361.8 332.48,341.48 334.08,326.93"];
	15 -- 45	[pos="305.62,405.85 285.75,416.51 256.1,432.43 236.14,443.14"];
	68 -- 72	[pos="293.73,487.06 275.98,495.05 251.36,506.13 233.62,514.11"];
	68 -- 78	[pos="301.22,492.32 296.94,496.69 292.29,501.44 288.03,505.8"];
	16	[height=0.5,
		pos="27,509.07",
		width=0.75];
	66	[height=0.5,
		pos="95.345,533.73",
		width=0.75];
	16 -- 66	[pos="50.904,517.69 57.525,520.08 64.712,522.68 71.339,525.07"];
	16 -- 45	[pos="51.94,501.83 87.862,491.41 153.79,472.29 189.77,461.85"];
	16 -- 56	[pos="53.465,504.78 73.923,501.47 102.11,496.91 122.55,493.6"];
	66 -- 72	[pos="122.19,531.53 140.75,530.01 165.37,527.99 183.99,526.47"];
	43 -- 53	[pos="956.99,239.28 955.12,235.98 953.17,232.52 951.3,229.21"];
	43 -- 58	[pos="951.74,240.74 936.14,224.46 911.72,198.98 896.19,182.76"];
	43 -- 76	[pos="991.45,249.22 995.5,248.09 999.7,246.92 1003.8,245.78"];
	69 -- 75	[pos="1109.6,306 1117.1,311.11 1125.8,316.99 1133.4,322.12"];
	22 -- 70	[pos="732.37,546.94 731.98,562.29 731.42,584.24 731.03,599.67"];
	22 -- 26	[pos="759.19,524.31 780.66,520.56 810.8,515.29 832.26,511.54"];
	22 -- 64	[pos="728.82,511.01 728.22,508.35 727.6,505.6 727,502.93"];
	21 -- 30	[pos="268.47,332.49 269.04,329.82 269.62,327.06 270.19,324.39"];
	39 -- 71	[pos="421.8,285.42 426.8,283.54 432.07,281.55 437.06,279.67"];
	23 -- 59	[pos="730.1,132.23 724.32,116.85 716.03,94.773 710.3,79.494"];
	23 -- 50	[pos="754.98,136.74 762.51,131.23 771.24,124.84 778.81,119.3"];
	23 -- 73	[pos="715.43,161.35 709.12,164.69 702.21,168.34 695.91,171.67"];
	23 -- 61	[pos="721.04,135.15 716.19,130.56 710.86,125.51 706.01,120.92"];
	23 -- 63	[pos="737.12,131.96 737.59,106.82 738.43,61.543 738.9,36.289"];
	50 -- 59	[pos="775.21,95.342 760.38,88.427 740.95,79.366 726.09,72.436"];
	50 -- 61	[pos="770.38,105.78 754.14,105.84 733.54,105.9 717.3,105.95"];
	50 -- 63	[pos="786.47,89.201 776.13,73.622 760.71,50.372 750.33,34.719"];
	24 -- 42	[pos="855.89,603.5 852,604.58 847.98,605.69 844.09,606.77"];
	24 -- 26	[pos="876.56,578.38 872.63,562.74 866.97,540.28 863.06,524.74"];
	24 -- 48	[pos="877.3,614.54 875.63,622.43 873.67,631.68 871.99,639.59"];
	26 -- 42	[pos="852.06,524.57 844.74,544.35 832.93,576.25 825.61,596.04"];
	26 -- 70	[pos="842.11,521.23 817.66,542.43 772.03,582.01 747.38,603.38"];
	26 -- 31	[pos="880.92,496.49 889.99,492.25 900.45,487.36 909.51,483.12"];
	31 -- 38	[pos="944.18,488.81 947.28,492.79 950.6,497.07 953.69,501.06"];
	31 -- 47	[pos="933.91,490.7 935.93,507.1 938.89,531.21 940.92,547.69"];
	31 -- 51	[pos="958.33,476.1 979.27,478.74 1008.3,482.41 1029.2,485.05"];
	49 -- 57	[pos="574.7,435.65 584.94,445.96 598.38,459.49 608.59,469.78"];
	46 -- 57	[pos="663.08,454.6 656.26,459.86 648.49,465.86 641.65,471.13"];
	28 -- 35	[pos="439.88,199.34 437.59,202.85 435.17,206.55 432.88,210.06"];
	29 -- 41	[pos="904.27,314.4 904.22,308.54 904.17,302.05 904.13,296.19"];
	29 -- 43	[pos="917.29,316.81 927.88,303.77 942.82,285.37 953.47,272.27"];
	29 -- 52	[pos="878.17,328 874.82,327.4 871.38,326.79 868.02,326.2"];
	38 -- 47	[pos="958.06,534.55 955.88,539.14 953.52,544.09 951.34,548.68"];
	38 -- 40	[pos="991.87,523.72 995.48,524.63 999.18,525.57 1002.8,526.48"];
	38 -- 51	[pos="990.74,509.37 1003.4,505.3 1018.7,500.35 1031.4,496.28"];
	33 -- 60	[pos="320.34,294 314.07,288.11 306.86,281.35 300.57,275.44"];
	54 -- 77	[pos="656.77,320.06 665.51,317.89 675.28,315.47 684.01,313.31"];
	54 -- 79	[pos="650.49,313.64 669.55,301.07 698.48,281.99 717.49,269.45"];
	35 -- 39	[pos="415.71,244.49 412.23,254.35 407.9,266.58 404.41,276.46"];
	35 -- 71	[pos="436.01,242.62 439.57,246.66 443.39,250.99 446.95,255.02"];
	40 -- 51	[pos="1038.7,516.1 1040.9,512.56 1043.2,508.81 1045.4,505.27"];
	53 -- 58	[pos="923.29,198.49 915.84,192.96 907.25,186.57 899.8,181.04"];
	53 -- 76	[pos="966.35,219.71 978.11,223.31 992.14,227.61 1003.9,231.22"];
	53 -- 65	[pos="927.37,196.39 912.32,179.81 888.76,153.86 873.78,137.35"];
	45 -- 68	[pos="240.69,460.28 255.95,463.64 275.21,467.87 290.48,471.23"];
	45 -- 66	[pos="195.62,467.3 173.46,481.98 137.2,506 114.89,520.78"];
	45 -- 72	[pos="213.83,472.89 213.29,483.05 212.62,495.65 212.07,505.82"];
	45 -- 56	[pos="193.62,465.77 186.25,469.66 177.98,474.02 170.58,477.92"];
	45 -- 78	[pos="228.64,470.32 237.95,480.9 250.16,494.8 259.44,505.36"];
	72 -- 78	[pos="238.14,522.82 240.75,522.69 243.41,522.55 246.02,522.41"];
	58 -- 65	[pos="873.28,150.22 871.53,146.58 869.69,142.74 867.95,139.1"];
	77 -- 79	[pos="718.68,289.99 721.53,284.75 724.66,278.98 727.51,273.75"];
	56 -- 66	[pos="132,503.37 125.74,508.56 118.65,514.43 112.39,519.62"];
	56 -- 72	[pos="169.65,500.95 176.29,504.68 183.64,508.81 190.28,512.55"];
	61 -- 73	[pos="686.59,124.25 684.11,136.5 680.86,152.58 678.39,164.8"];
	61 -- 63	[pos="699.72,89.066 708.39,73.476 721.17,50.497 729.83,34.923"];
}
