graph {
	graph [bb="0,0,1158.3,968.54",
		outputorder=edgesfirst,
		overlap=prism,
		size="50,50!",
		start=8168
	];
	node [label="\N"];
	0	[height=0.5,
		pos="636.44,594.48",
		width=0.75];
	20	[height=0.5,
		pos="956.68,757.26",
		width=0.75];
	0 -- 20	[pos="657.95,605.41 716.15,635 876.26,716.38 934.84,746.16"];
	2	[height=0.5,
		pos="512.43,566.57",
		width=0.75];
	0 -- 2	[pos="610.74,588.7 589.46,583.91 559.36,577.13 538.09,572.35"];
	22	[height=0.5,
		pos="410.54,462.19",
		width=0.75];
	0 -- 22	[pos="615.99,582.51 573.09,557.38 474.1,499.42 431.1,474.23"];
	24	[height=0.5,
		pos="556.05,413.22",
		width=0.75];
	0 -- 24	[pos="628.73,577.1 613.36,542.45 579.08,465.15 563.73,430.55"];
	25	[height=0.5,
		pos="744.54,826.27",
		width=0.75];
	0 -- 25	[pos="644.56,611.9 664.64,654.96 716.44,766.02 736.47,808.96"];
	6	[height=0.5,
		pos="624.51,330.67",
		width=0.75];
	0 -- 6	[pos="635.62,576.35 633.44,528.15 627.52,397.26 625.34,348.92"];
	7	[height=0.5,
		pos="509.9,610.83",
		width=0.75];
	0 -- 7	[pos="609.91,597.91 588.46,600.68 558.38,604.56 536.82,607.35"];
	26	[height=0.5,
		pos="680.13,789.39",
		width=0.75];
	0 -- 26	[pos="640.47,612.47 648.79,649.6 667.8,734.35 676.11,771.44"];
	9	[height=0.5,
		pos="472.58,440.32",
		width=0.75];
	0 -- 9	[pos="620.73,579.7 589.49,550.31 519.88,484.82 488.49,455.28"];
	27	[height=0.5,
		pos="861.17,669.35",
		width=0.75];
	0 -- 27	[pos="660.91,602.63 704.14,617.04 793.51,646.81 836.72,661.21"];
	28	[height=0.5,
		pos="1059.4,535.58",
		width=0.75];
	0 -- 28	[pos="662.89,590.79 738.85,580.22 957,549.84 1032.9,539.26"];
	12	[height=0.5,
		pos="721.11,436.44",
		width=0.75];
	0 -- 12	[pos="645.66,577.27 661.95,546.86 695.62,484.02 711.9,453.63"];
	13	[height=0.5,
		pos="451.89,395.08",
		width=0.75];
	0 -- 13	[pos="621.96,578.83 587.46,541.56 500.74,447.86 466.31,410.65"];
	30	[height=0.5,
		pos="919.29,531",
		width=0.75];
	0 -- 30	[pos="662.04,588.73 715.75,576.68 839.7,548.86 893.54,536.78"];
	31	[height=0.5,
		pos="873.27,465.23",
		width=0.75];
	0 -- 31	[pos="657.45,583.01 702.4,558.48 807.4,501.18 852.3,476.68"];
	16	[height=0.5,
		pos="574.43,603.56",
		width=0.75];
	0 -- 16	[pos="609.78,598.38 606.89,598.8 603.95,599.23 601.07,599.66"];
	32	[height=0.5,
		pos="408.41,838.8",
		width=0.75];
	0 -- 32	[pos="622.17,609.76 581.32,653.53 464.17,779.05 422.96,823.21"];
	34	[height=0.5,
		pos="390.75,575.29",
		width=0.75];
	0 -- 34	[pos="609.2,592.35 561.85,588.65 464.9,581.08 417.73,577.4"];
	19	[height=0.5,
		pos="578.88,285.93",
		width=0.75];
	0 -- 19	[pos="633.09,576.56 622.92,522.02 592.42,358.5 582.24,303.91"];
	21	[height=0.5,
		pos="992.74,669.12",
		width=0.75];
	20 -- 21	[pos="963.81,739.84 970.13,724.39 979.31,701.94 985.63,686.5"];
	2 -- 6	[pos="520.67,549.23 541.4,505.6 595.52,391.69 616.26,348.04"];
	2 -- 9	[pos="506.81,548.75 499.21,524.69 485.76,482.06 478.18,458.05"];
	2 -- 12	[pos="532.44,554.09 572.33,529.22 661.33,473.72 701.17,448.88"];
	2 -- 19	[pos="516.69,548.59 528.69,497.9 562.7,354.27 574.66,303.77"];
	3	[height=0.5,
		pos="454.82,350.94",
		width=0.75];
	2 -- 3	[pos="507.62,548.56 496.75,507.87 470.4,409.25 459.58,368.75"];
	8	[height=0.5,
		pos="568.49,662.5",
		width=0.75];
	2 -- 8	[pos="522.45,583.72 532.66,601.18 548.38,628.09 558.55,645.5"];
	15	[height=0.5,
		pos="627.03,374.67",
		width=0.75];
	2 -- 15	[pos="522.6,549.54 544.35,513.12 595.16,428.04 616.89,391.66"];
	46	[height=0.5,
		pos="376.81,328.84",
		width=0.75];
	2 -- 46	[pos="502.68,549.47 477.65,505.61 411.4,389.47 386.47,345.78"];
	48	[height=0.5,
		pos="547.25,772.15",
		width=0.75];
	2 -- 48	[pos="515.52,584.82 522.14,623.93 537.64,715.43 544.22,754.24"];
	49	[height=0.5,
		pos="426.57,750.75",
		width=0.75];
	2 -- 49	[pos="504.35,583.9 487.99,619 451.09,698.16 434.69,733.34"];
	50	[height=0.5,
		pos="661.56,833.43",
		width=0.75];
	2 -- 50	[pos="521.99,583.67 548.92,631.87 625.25,768.45 652.09,816.47"];
	52	[height=0.5,
		pos="834.36,517.57",
		width=0.75];
	2 -- 52	[pos="538.78,562.56 599.14,553.37 746.93,530.88 807.65,521.64"];
	53	[height=0.5,
		pos="212.43,670.07",
		width=0.75];
	2 -- 53	[pos="488.39,574.87 432.21,594.24 292.87,642.31 236.59,661.73"];
	14	[height=0.5,
		pos="703.75,392.4",
		width=0.75];
	2 -- 14	[pos="528.41,552.02 564.43,519.24 651.58,439.89 687.68,407.03"];
	55	[height=0.5,
		pos="471.59,861.9",
		width=0.75];
	2 -- 55	[pos="509.94,584.6 502.65,637.33 481.42,790.83 474.1,843.73"];
	17	[height=0.5,
		pos="328.74,582.38",
		width=0.75];
	2 -- 17	[pos="485.33,568.9 450.5,571.9 390.39,577.07 355.66,580.06"];
	57	[height=0.5,
		pos="151.08,626.05",
		width=0.75];
	2 -- 57	[pos="486.15,570.9 419.56,581.86 244.76,610.63 177.75,621.66"];
	23	[height=0.5,
		pos="308.45,327.44",
		width=0.75];
	22 -- 23	[pos="398.22,445.94 378.6,420.04 340.46,369.69 320.81,343.75"];
	6 -- 7	[pos="617.34,348.19 596.76,398.5 537.64,543 517.06,593.31"];
	6 -- 9	[pos="606.18,343.89 576.98,364.97 520.22,405.94 490.98,427.04"];
	36	[height=0.5,
		pos="812,271.5",
		width=0.75];
	6 -- 36	[pos="649.02,322.93 684.95,311.59 751.55,290.58 787.48,279.24"];
	6 -- 17	[pos="607.76,344.92 555.82,389.12 397.86,523.56 345.67,567.97"];
	10	[height=0.5,
		pos="660.88,506.43",
		width=0.75];
	6 -- 10	[pos="628.27,348.81 635.25,382.58 650.17,454.69 657.15,488.38"];
	75	[height=0.5,
		pos="616.49,153.41",
		width=0.75];
	6 -- 75	[pos="623.68,312.36 622.14,278.31 618.85,205.59 617.31,171.62"];
	103	[height=0.5,
		pos="695.93,550.44",
		width=0.75];
	6 -- 103	[pos="630.23,348.28 643.61,389.43 676.78,491.51 690.18,532.75"];
	104	[height=0.5,
		pos="930.55,245.11",
		width=0.75];
	6 -- 104	[pos="649.56,323.66 707.09,307.58 848.14,268.15 905.59,252.08"];
	105	[height=0.5,
		pos="874.03,289.12",
		width=0.75];
	6 -- 105	[pos="650.74,326.3 698.66,318.32 799.84,301.48 847.78,293.49"];
	106	[height=0.5,
		pos="484.69,231.48",
		width=0.75];
	6 -- 106	[pos="605.94,317.49 579.2,298.52 530.12,263.71 503.33,244.71"];
	107	[height=0.5,
		pos="801.52,227.47",
		width=0.75];
	6 -- 107	[pos="645.16,318.62 679.27,298.74 746.98,259.26 781,239.43"];
	108	[height=0.5,
		pos="739.49,197.73",
		width=0.75];
	6 -- 108	[pos="638.15,314.89 660.28,289.31 703.75,239.06 725.87,213.48"];
	109	[height=0.5,
		pos="765.78,378.11",
		width=0.75];
	6 -- 109	[pos="648.8,338.82 674.67,347.51 715.4,361.19 741.34,369.9"];
	110	[height=0.5,
		pos="453.47,133.19",
		width=0.75];
	6 -- 110	[pos="610.8,314.84 578.7,277.77 498.94,185.69 467.01,148.82"];
	112	[height=0.5,
		pos="811.12,109.54",
		width=0.75];
	6 -- 112	[pos="637.93,314.76 672.36,273.96 763.52,165.94 797.82,125.3"];
	63	[height=0.5,
		pos="552.78,106.36",
		width=0.75];
	6 -- 63	[pos="618.76,312.69 605.3,270.58 571.85,165.99 558.46,124.11"];
	7 -- 12	[pos="527.18,596.56 566.89,563.77 664.24,483.4 703.89,450.66"];
	7 -- 19	[pos="513.7,592.9 525.76,536.09 563.04,360.54 575.09,303.81"];
	37	[height=0.5,
		pos="644.27,726.61",
		width=0.75];
	7 -- 37	[pos="526.64,625.26 552.53,647.57 601.98,690.16 627.74,712.36"];
	7 -- 49	[pos="499.84,627.71 483.83,654.6 452.7,706.88 436.66,733.81"];
	64	[height=0.5,
		pos="348.5,480.56",
		width=0.75];
	7 -- 64	[pos="492.62,596.89 461.72,571.95 397.3,519.95 366.14,494.8"];
	7 -- 10	[pos="528.71,597.82 557.65,577.81 612.75,539.71 641.83,519.61"];
	11	[height=0.5,
		pos="874.67,377.17",
		width=0.75];
	7 -- 11	[pos="529.51,598.27 592.84,557.69 791.49,430.45 854.96,389.8"];
	89	[height=0.5,
		pos="552.9,822.19",
		width=0.75];
	7 -- 89	[pos="513.56,628.85 521.69,668.78 541.13,764.32 549.24,804.21"];
	114	[height=0.5,
		pos="485.22,808.7",
		width=0.75];
	7 -- 114	[pos="507.62,629.09 502.92,666.78 492.19,752.83 487.49,790.49"];
	115	[height=0.5,
		pos="312.65,636.18",
		width=0.75];
	7 -- 115	[pos="483.29,614.25 445.65,619.09 377.22,627.88 339.46,632.74"];
	116	[height=0.5,
		pos="317.47,538.34",
		width=0.75];
	7 -- 116	[pos="486.3,601.94 449.37,588.03 378.31,561.26 341.26,547.3"];
	117	[height=0.5,
		pos="742.18,766.26",
		width=0.75];
	7 -- 117	[pos="529.3,623.81 573.13,653.14 679.37,724.23 723,753.42"];
	119	[height=0.5,
		pos="472.92,487.18",
		width=0.75];
	7 -- 119	[pos="504.6,593.11 497.57,569.61 485.23,528.35 478.21,504.86"];
	120	[height=0.5,
		pos="413.76,906.11",
		width=0.75];
	7 -- 120	[pos="504.03,628.85 486.82,681.7 436.66,835.78 419.55,888.32"];
	122	[height=0.5,
		pos="237.33,758.12",
		width=0.75];
	7 -- 122	[pos="488.51,622.39 437.56,649.92 309.47,719.14 258.62,746.62"];
	123	[height=0.5,
		pos="175.01,731.77",
		width=0.75];
	7 -- 123	[pos="486.08,619.43 424.52,641.66 260.61,700.86 198.93,723.13"];
	77	[height=0.5,
		pos="228.19,449.95",
		width=0.75];
	7 -- 77	[pos="489.18,599 437.08,569.25 301.06,491.57 248.93,461.8"];
	9 -- 12	[pos="499.65,439.89 547.46,439.15 646.29,437.6 694.08,436.86"];
	9 -- 16	[pos="483.1,457.17 502.62,488.45 544.23,555.15 563.82,586.55"];
	9 -- 15	[pos="495.37,430.63 524.58,418.22 574.91,396.82 604.15,384.39"];
	9 -- 14	[pos="498.65,434.91 543.17,425.69 633.33,407 677.78,397.78"];
	9 -- 10	[pos="496.82,448.82 532.97,461.52 600.64,485.28 636.74,497.96"];
	9 -- 115	[pos="459.5,456.34 429.43,493.16 355.72,583.44 325.69,620.21"];
	135	[height=0.5,
		pos="695.46,342.84",
		width=0.75];
	9 -- 135	[pos="495.18,430.43 537.9,411.75 630.04,371.46 672.8,352.75"];
	136	[height=0.5,
		pos="363.39,372.87",
		width=0.75];
	9 -- 136	[pos="452.56,427.95 432.86,415.78 402.95,397.31 383.29,385.16"];
	137	[height=0.5,
		pos="158.63,582.03",
		width=0.75];
	9 -- 137	[pos="450.01,450.51 392.08,476.65 238.71,545.89 181.01,571.93"];
	139	[height=0.5,
		pos="295.68,415.49",
		width=0.75];
	9 -- 139	[pos="446.1,436.6 412.75,431.92 355.78,423.92 322.35,419.23"];
	140	[height=0.5,
		pos="422.67,202.66",
		width=0.75];
	9 -- 140	[pos="468.83,422.45 459.58,378.41 435.76,264.99 426.46,220.73"];
	66	[height=0.5,
		pos="185.38,312.04",
		width=0.75];
	9 -- 66	[pos="450.05,430.25 396.36,406.27 261.4,345.99 207.81,322.06"];
	29	[height=0.5,
		pos="1131.3,425.23",
		width=0.75];
	28 -- 29	[pos="1070.3,518.82 1083.9,497.96 1107,462.55 1120.5,441.79"];
	12 -- 13	[pos="694.32,432.32 642.71,424.39 530.1,407.09 478.58,399.18"];
	12 -- 16	[pos="707.32,452.16 679.36,484.01 616.32,555.84 588.3,587.75"];
	12 -- 19	[pos="706.69,421.18 679.43,392.33 620.63,330.11 593.34,301.23"];
	40	[height=0.5,
		pos="935.3,486.28",
		width=0.75];
	12 -- 40	[pos="746.95,442.45 788.23,452.06 868.58,470.76 909.71,480.33"];
	12 -- 15	[pos="701.62,423.64 685.47,413.04 662.64,398.05 646.5,387.45"];
	18	[height=0.5,
		pos="389.78,418.18",
		width=0.75];
	12 -- 18	[pos="694,434.94 631.72,431.51 479.01,423.1 416.81,419.67"];
	12 -- 14	[pos="714.15,418.78 713.02,415.91 711.85,412.93 710.71,410.06"];
	80	[height=0.5,
		pos="692.52,242.01",
		width=0.75];
	12 -- 80	[pos="718.48,418.49 713.04,381.55 700.65,297.34 695.19,260.19"];
	12 -- 105	[pos="736.62,421.5 765.93,393.27 829.15,332.36 858.49,304.1"];
	161	[height=0.5,
		pos="495.95,725.25",
		width=0.75];
	12 -- 161	[pos="708.36,452.79 668.73,503.63 548,658.49 508.56,709.08"];
	68	[height=0.5,
		pos="763.77,153.7",
		width=0.75];
	12 -- 68	[pos="723.85,418.32 731.55,367.25 753.38,222.55 761.06,171.67"];
	127	[height=0.5,
		pos="955.01,713.15",
		width=0.75];
	12 -- 127	[pos="734.7,452.51 776.14,501.53 900.58,648.76 941.68,697.38"];
	145	[height=0.5,
		pos="1059.4,487.68",
		width=0.75];
	12 -- 145	[pos="747.66,440.46 810.89,450.04 969.83,474.12 1032.9,483.68"];
	150	[height=0.5,
		pos="1049.5,343.56",
		width=0.75];
	12 -- 150	[pos="746.06,429.38 807.13,412.11 963.53,367.87 1024.6,350.61"];
	13 -- 16	[pos="461.92,412.14 484.96,451.33 541.44,547.42 564.44,586.55"];
	13 -- 19	[pos="468.5,380.81 492.83,359.89 537.94,321.13 562.28,300.21"];
	13 -- 15	[pos="478.49,391.98 511.41,388.14 567.15,381.65 600.18,377.79"];
	81	[height=0.5,
		pos="360.62,232.55",
		width=0.75];
	13 -- 81	[pos="442.3,377.99 424.72,346.7 387.57,280.53 370.09,249.41"];
	94	[height=0.5,
		pos="452.82,655.17",
		width=0.75];
	13 -- 94	[pos="451.96,413.37 452.13,461.12 452.59,589.17 452.76,636.9"];
	13 -- 106	[pos="455.53,376.95 461.83,345.5 474.72,281.2 481.04,249.69"];
	13 -- 116	[pos="437.51,410.41 411.77,437.84 358.12,495.02 332.16,522.68"];
	128	[height=0.5,
		pos="390.77,624.82",
		width=0.75];
	13 -- 128	[pos="447.1,413.11 435.67,456.05 406.95,564.02 395.54,606.88"];
	13 -- 136	[pos="426.3,388.66 414.55,385.71 400.67,382.23 388.93,379.28"];
	146	[height=0.5,
		pos="522.07,369.19",
		width=0.75];
	13 -- 146	[pos="475.65,386.32 482.97,383.62 491.02,380.65 498.33,377.95"];
	163	[height=0.5,
		pos="391.42,144.21",
		width=0.75];
	13 -- 163	[pos="447.55,377.04 436.39,330.75 406.85,208.2 395.73,162.09"];
	165	[height=0.5,
		pos="120.61,449.98",
		width=0.75];
	13 -- 165	[pos="425.62,399.43 363.64,409.7 208.87,435.35 146.88,445.62"];
	167	[height=0.5,
		pos="206.35,356.18",
		width=0.75];
	13 -- 167	[pos="425.62,390.92 378.48,383.45 280.08,367.86 232.81,360.37"];
	54	[height=0.5,
		pos="205.46,537.99",
		width=0.75];
	13 -- 54	[pos="431.31,407.02 384.92,433.92 272.66,499.02 226.17,525.98"];
	152	[height=0.5,
		pos="700.14,149.14",
		width=0.75];
	13 -- 152	[pos="467.05,380.07 511.37,336.16 640.4,208.33 684.87,164.27"];
	16 -- 19	[pos="574.69,585.11 575.48,528.84 577.85,359.85 578.63,304.04"];
	42	[height=0.5,
		pos="744.71,678.05",
		width=0.75];
	16 -- 42	[pos="597.04,613.45 629.61,627.7 689.38,653.85 722,668.12"];
	16 -- 18	[pos="559.32,588.39 524.61,553.54 439.51,468.1 404.84,433.3"];
	16 -- 109	[pos="587.89,587.7 623.02,546.31 717.22,435.32 752.34,393.94"];
	131	[height=0.5,
		pos="614.97,784.85",
		width=0.75];
	16 -- 131	[pos="578.47,621.6 586.24,656.35 603.19,732.19 610.95,766.88"];
	169	[height=0.5,
		pos="336.7,743.33",
		width=0.75];
	16 -- 169	[pos="554.16,615.47 509.36,641.82 402.32,704.75 357.26,731.25"];
	56	[height=0.5,
		pos="596.68,889.21",
		width=0.75];
	16 -- 56	[pos="575.86,621.86 579.88,673.46 591.26,819.65 595.27,871.06"];
	98	[height=0.5,
		pos="728.33,885.39",
		width=0.75];
	16 -- 98	[pos="583.83,620.76 611.37,671.2 691.68,818.27 719.06,868.41"];
	121	[height=0.5,
		pos="534.39,898.23",
		width=0.75];
	16 -- 121	[pos="571.99,621.55 564.84,674.15 544.02,827.32 536.85,880.1"];
	157	[height=0.5,
		pos="957.69,625.07",
		width=0.75];
	16 -- 157	[pos="601.38,605.07 671.75,609.02 860.43,619.61 930.77,623.56"];
	33	[height=0.5,
		pos="176.8,829.91",
		width=0.75];
	32 -- 33	[pos="381.39,837.76 336.88,836.06 248.64,832.67 204.01,830.96"];
	102	[height=0.5,
		pos="783.68,473.52",
		width=0.75];
	19 -- 102	[pos="594.95,300.65 633.24,335.72 729.47,423.87 767.68,458.87"];
	134	[height=0.5,
		pos="534.97,457.25",
		width=0.75];
	19 -- 134	[pos="574.27,303.94 565.81,336.93 547.93,406.67 539.52,439.48"];
	148	[height=0.5,
		pos="763.59,316.04",
		width=0.75];
	19 -- 148	[pos="605.35,290.25 640.46,295.97 702.09,306.01 737.17,311.73"];
	160	[height=0.5,
		pos="884.85,201.03",
		width=0.75];
	19 -- 160	[pos="603.92,278.99 661.44,263.03 802.46,223.9 859.89,207.96"];
	173	[height=0.5,
		pos="437.74,284.82",
		width=0.75];
	19 -- 173	[pos="551.67,285.72 526.67,285.52 489.83,285.23 464.87,285.03"];
	45	[height=0.5,
		pos="747,85.636",
		width=0.75];
	19 -- 45	[pos="592.08,270.22 623.42,232.87 702.11,139.11 733.63,101.56"];
	88	[height=0.5,
		pos="559.8,18",
		width=0.75];
	19 -- 88	[pos="577.6,267.94 574.13,219.25 564.6,85.282 561.1,36.27"];
	113	[height=0.5,
		pos="697.76,41.599",
		width=0.75];
	19 -- 113	[pos="587.24,268.75 609.07,223.89 667.6,103.6 689.41,58.761"];
	141	[height=0.5,
		pos="490.74,89.15",
		width=0.75];
	19 -- 141	[pos="571.06,268.47 554.33,231.13 515.26,143.88 498.54,106.57"];
	172	[height=0.5,
		pos="294.64,239.41",
		width=0.75];
	19 -- 172	[pos="552.65,281.64 498.64,272.8 375.53,252.65 321.22,243.76"];
	1	[height=0.5,
		pos="658.99,462.4",
		width=0.75];
	1 -- 2	[pos="640.43,475.6 612.39,495.52 559.53,533.1 531.3,553.16"];
	1 -- 9	[pos="632.28,459.24 596.85,455.04 534.65,447.67 499.24,443.47"];
	1 -- 13	[pos="634.42,454.42 594.56,441.46 516.27,416.01 476.43,403.06"];
	1 -- 3	[pos="637.91,450.89 598.68,429.48 514.92,383.75 475.78,362.39"];
	4	[height=0.5,
		pos="516.82,319.63",
		width=0.75];
	1 -- 4	[pos="644.04,447.39 616.81,420.04 559.4,362.39 531.99,334.87"];
	35	[height=0.5,
		pos="806.79,713.53",
		width=0.75];
	1 -- 35	[pos="668.92,479.27 695.84,525.02 770.03,651.08 796.9,696.74"];
	1 -- 36	[pos="671.77,446.46 700.57,410.52 770.28,323.56 799.14,287.54"];
	1 -- 37	[pos="657.98,480.56 655.29,528.83 647.99,659.91 645.29,708.32"];
	1 -- 8	[pos="651.12,479.81 634,517.65 593.57,607.05 576.41,644.99"];
	38	[height=0.5,
		pos="997.33,520.07",
		width=0.75];
	1 -- 38	[pos="685.26,466.88 748.3,477.62 907.59,504.78 970.85,515.56"];
	39	[height=0.5,
		pos="981.99,380.78",
		width=0.75];
	1 -- 39	[pos="684.34,456 744.57,440.78 895.75,402.57 956.31,387.27"];
	1 -- 40	[pos="685.99,464.74 738.81,469.3 855.28,479.37 908.19,483.94"];
	41	[height=0.5,
		pos="921.85,333.17",
		width=0.75];
	1 -- 41	[pos="680.95,451.61 730.43,427.28 850.17,368.41 899.77,344.02"];
	1 -- 15	[pos="652.52,444.65 646.98,429.43 639.03,407.61 633.49,392.39"];
	1 -- 42	[pos="666.01,480.05 682.12,520.59 721.63,619.98 737.72,660.47"];
	43	[height=0.5,
		pos="443.95,531.22",
		width=0.75];
	1 -- 43	[pos="634.32,470.3 592.84,483.57 509.62,510.2 468.33,523.42"];
	1 -- 18	[pos="632.69,458.08 581.22,449.63 467.74,430.99 416.19,422.52"];
	44	[height=0.5,
		pos="829.02,156.92",
		width=0.75];
	1 -- 44	[pos="668.62,445.1 698.55,391.33 789.71,227.53 819.49,174.03"];
	1 -- 21	[pos="678.87,474.72 738.09,511.39 912.91,619.68 972.54,656.61"];
	3 -- 13	[pos="453.61,369.15 453.44,371.71 453.27,374.35 453.1,376.91"];
	3 -- 16	[pos="463.04,368.3 484.89,414.45 544.24,539.78 566.15,586.07"];
	3 -- 19	[pos="476.14,339.77 498.87,327.86 534.64,309.12 557.42,297.18"];
	3 -- 8	[pos="461.25,368.58 481.21,423.29 541.92,589.69 561.98,644.66"];
	59	[height=0.5,
		pos="358.18,188.31",
		width=0.75];
	3 -- 59	[pos="444.84,334.15 426.32,302.99 386.84,236.53 368.25,205.26"];
	60	[height=0.5,
		pos="250.22,611.09",
		width=0.75];
	3 -- 60	[pos="442.02,367.21 405.28,413.93 299.75,548.11 263.02,594.82"];
	62	[height=0.5,
		pos="391.42,89.182",
		width=0.75];
	3 -- 62	[pos="450.46,332.95 438.85,285.01 407.28,154.63 395.73,106.95"];
	3 -- 64	[pos="441.78,366.83 421.38,391.71 382.12,439.58 361.65,464.54"];
	65	[height=0.5,
		pos="208.32,219.9",
		width=0.75];
	3 -- 65	[pos="433.37,339.54 386.64,314.7 276.07,255.92 229.54,231.18"];
	3 -- 10	[pos="472.74,364.47 511.71,393.87 603.78,463.35 642.85,492.83"];
	3 -- 11	[pos="481.72,352.62 557.46,357.35 771.92,370.75 847.72,375.49"];
	67	[height=0.5,
		pos="615.22,109.39",
		width=0.75];
	3 -- 67	[pos="465.84,334.34 495.14,290.21 574.72,170.37 604.12,126.1"];
	69	[height=0.5,
		pos="608.81,236.48",
		width=0.75];
	3 -- 69	[pos="473.09,337.36 502.72,315.33 560.94,272.06 590.56,250.05"];
	70	[height=0.5,
		pos="546.75,213.74",
		width=0.75];
	3 -- 70	[pos="465.91,334.39 483.57,308.02 517.92,256.76 535.62,230.35"];
	71	[height=0.5,
		pos="123.2,349.11",
		width=0.75];
	3 -- 71	[pos="427.68,350.79 365.34,350.45 212.5,349.6 150.25,349.26"];
	73	[height=0.5,
		pos="217.39,175.61",
		width=0.75];
	3 -- 73	[pos="436.58,337.47 392.39,304.84 279.95,221.81 235.69,189.13"];
	3 -- 23	[pos="428.31,346.68 401.79,342.43 361.22,335.91 334.76,331.66"];
	4 -- 24	[pos="524.2,337.23 531.21,353.97 541.7,378.99 548.7,395.69"];
	4 -- 9	[pos="510.39,337.18 502,360.06 487.42,399.85 479.02,422.75"];
	4 -- 16	[pos="520.51,337.82 530.92,389.11 560.4,534.42 570.77,585.51"];
	4 -- 59	[pos="499.84,305.58 469.47,280.43 406.15,228.02 375.52,202.66"];
	4 -- 10	[pos="529.35,335.88 556.67,371.3 621.29,455.09 648.48,490.35"];
	4 -- 11	[pos="543.13,323.86 609.31,334.5 782.1,362.29 848.32,372.93"];
	5	[height=0.5,
		pos="630.72,682.51",
		width=0.75];
	4 -- 5	[pos="522.47,337.63 541.91,399.55 605.89,603.4 625.17,664.83"];
	4 -- 75	[pos="526.93,302.78 546.03,270.92 587.23,202.2 606.36,170.31"];
	76	[height=0.5,
		pos="247.71,283.41",
		width=0.75];
	4 -- 76	[pos="490.03,316.03 438.45,309.08 325.89,293.94 274.39,287.01"];
	78	[height=0.5,
		pos="286.47,494.32",
		width=0.75];
	4 -- 78	[pos="498.75,333.34 455.68,365.99 347.44,448.08 304.46,480.68"];
	4 -- 80	[pos="539.43,309.64 573.17,294.74 636.31,266.84 669.99,251.96"];
	4 -- 81	[pos="496.08,308.07 466.2,291.41 411.37,260.84 381.45,244.16"];
	82	[height=0.5,
		pos="671.35,197.41",
		width=0.75];
	4 -- 82	[pos="534.25,305.85 563.92,282.38 623.95,234.9 653.75,211.33"];
	83	[height=0.5,
		pos="604.58,62.04",
		width=0.75];
	4 -- 83	[pos="522.85,301.93 538.88,254.87 582.42,127.07 598.5,79.869"];
	85	[height=0.5,
		pos="299.55,371.47",
		width=0.75];
	4 -- 85	[pos="491.04,325.78 449.23,335.76 367.09,355.36 325.3,365.33"];
	86	[height=0.5,
		pos="350.82,283.43",
		width=0.75];
	4 -- 86	[pos="490.88,313.97 459.7,307.17 407.68,295.83 376.58,289.05"];
	87	[height=0.5,
		pos="450.93,45.122",
		width=0.75];
	4 -- 87	[pos="512.5,301.62 500.56,251.88 467.23,113.02 455.27,63.2"];
	47	[height=0.5,
		pos="296.11,184.49",
		width=0.75];
	4 -- 47	[pos="496.85,307.4 454.93,281.73 358.21,222.51 316.2,196.79"];
	8 -- 26	[pos="582.18,678.06 603.61,702.41 644.84,749.27 666.33,773.7"];
	8 -- 9	[pos="560.96,645.06 543.03,603.53 497.97,499.12 480.08,457.67"];
	8 -- 10	[pos="578.55,645.5 596.32,615.48 633.07,553.42 650.83,523.41"];
	90	[height=0.5,
		pos="658.77,877.46",
		width=0.75];
	8 -- 90	[pos="575.88,680.09 592.85,720.5 634.46,819.57 651.4,859.92"];
	8 -- 103	[pos="584.89,648.08 609.36,626.56 655.16,586.29 679.59,564.81"];
	8 -- 114	[pos="558.77,679.55 542.73,707.73 510.88,763.65 494.87,791.75"];
	125	[height=0.5,
		pos="964.31,575.65",
		width=0.75];
	8 -- 125	[pos="594.15,656.86 665.68,641.17 866.68,597.07 938.45,581.33"];
	126	[height=0.5,
		pos="812.41,862.88",
		width=0.75];
	8 -- 126	[pos="585.64,676.59 630.43,713.38 750.51,812.03 795.27,848.8"];
	8 -- 128	[pos="542.65,657.02 508.95,649.88 450.35,637.45 416.64,630.31"];
	129	[height=0.5,
		pos="738.75,634.05",
		width=0.75];
	8 -- 129	[pos="594.72,658.11 626.71,652.77 680.48,643.79 712.49,638.44"];
	130	[height=0.5,
		pos="676.69,638.49",
		width=0.75];
	8 -- 130	[pos="594.13,656.81 611.25,653.01 633.69,648.03 650.85,644.22"];
	8 -- 131	[pos="575.15,680.03 583.98,703.29 599.49,744.11 608.32,767.35"];
	132	[height=0.5,
		pos="300.17,787.35",
		width=0.75];
	8 -- 132	[pos="546.07,672.93 495.44,696.49 372.73,753.59 322.34,777.04"];
	133	[height=0.5,
		pos="335.5,681.99",
		width=0.75];
	8 -- 133	[pos="541.31,664.77 496.41,668.53 407.29,675.98 362.51,679.73"];
	8 -- 134	[pos="565.51,644.28 559.15,605.33 544.29,514.34 537.94,475.42"];
	79	[height=0.5,
		pos="273.49,714.1",
		width=0.75];
	8 -- 79	[pos="542.31,667.08 486.33,676.87 355.54,699.74 299.61,709.53"];
	15 -- 31	[pos="651.09,383.51 698.29,400.87 802.49,439.2 849.47,456.48"];
	15 -- 16	[pos="622.91,392.63 613.07,435.41 588.36,542.98 578.54,585.68"];
	15 -- 19	[pos="617.75,357.56 609.22,341.84 596.66,318.69 588.14,302.99"];
	15 -- 18	[pos="600.74,379.49 555.01,387.88 461.39,405.05 415.84,413.4"];
	15 -- 17	[pos="607.92,387.97 554.04,425.49 401.38,531.8 347.69,569.18"];
	15 -- 70	[pos="618.44,357.44 602.99,326.47 570.68,261.72 555.28,230.84"];
	96	[height=0.5,
		pos="804.72,564.6",
		width=0.75];
	15 -- 96	[pos="641.58,390.21 674.98,425.91 756.87,513.46 790.23,549.11"];
	15 -- 108	[pos="637.61,358.02 659.05,324.3 707.38,248.26 728.86,214.46"];
	15 -- 119	[pos="608.75,388.01 579.09,409.67 520.82,452.21 491.18,473.85"];
	15 -- 130	[pos="630.45,392.8 639.54,441.11 664.27,572.52 673.32,620.58"];
	147	[height=0.5,
		pos="827.84,421.2",
		width=0.75];
	15 -- 147	[pos="652.87,380.65 691.43,389.59 763.6,406.31 802.1,415.24"];
	84	[height=0.5,
		pos="683.38,105.1",
		width=0.75];
	15 -- 84	[pos="630.82,356.56 641.08,307.45 669.36,172.14 679.61,123.12"];
	155	[height=0.5,
		pos="993.29,242.44",
		width=0.75];
	15 -- 155	[pos="650.78,366.09 716.88,342.23 902.51,275.21 969.12,251.16"];
	18 -- 34	[pos="389.89,436.2 390.08,466.35 390.45,526.67 390.63,557"];
	18 -- 86	[pos="384.61,400.29 377.16,374.51 363.48,327.21 356.02,301.4"];
	101	[height=0.5,
		pos="397.55,699.29",
		width=0.75];
	18 -- 101	[pos="390.28,436.19 391.68,486.85 395.64,630.15 397.05,681.07"];
	18 -- 133	[pos="386.05,436.31 376.11,484.62 349.07,616.03 339.19,664.08"];
	18 -- 139	[pos="362.57,417.4 350.08,417.05 335.32,416.62 322.84,416.27"];
	159	[height=0.5,
		pos="640.94,286.04",
		width=0.75];
	18 -- 159	[pos="411.2,406.92 458.65,381.95 572.18,322.22 619.58,297.28"];
	18 -- 167	[pos="365.42,409.95 330.24,398.06 265.59,376.2 230.51,364.35"];
	168	[height=0.5,
		pos="499.78,275.52",
		width=0.75];
	18 -- 168	[pos="402.19,402.09 423.31,374.7 466.04,319.28 487.25,291.77"];
	170	[height=0.5,
		pos="168.09,493.99",
		width=0.75];
	18 -- 170	[pos="365.64,426.44 322.99,441.02 234.83,471.17 192.2,485.74"];
	18 -- 173	[pos="396.15,400.47 405.32,374.96 422.16,328.15 431.34,302.6"];
	58	[height=0.5,
		pos="99.965,537.18",
		width=0.75];
	18 -- 58	[pos="366.56,427.72 312.29,450 177.68,505.27 123.3,527.6"];
	74	[height=0.5,
		pos="132.28,267.5",
		width=0.75];
	18 -- 74	[pos="369.15,406.11 320.81,377.82 200.74,307.56 152.66,279.42"];
	111	[height=0.5,
		pos="285.69,140.43",
		width=0.75];
	18 -- 111	[pos="383.11,400.38 364.31,350.22 311.04,208.06 292.31,158.08"];
	124	[height=0.5,
		pos="89.062,590.33",
		width=0.75];
	18 -- 124	[pos="369.11,430.01 314.18,461.46 164.98,546.87 109.88,578.41"];
	44 -- 45	[pos="812.42,142.49 798.19,130.12 777.79,112.4 763.57,100.04"];
	46 -- 47	[pos="367.23,311.71 351.7,283.93 321.19,229.36 305.67,201.59"];
	51	[height=0.5,
		pos="808.22,801.6",
		width=0.75];
	50 -- 51	[pos="687.45,827.81 714.09,822.03 755.37,813.07 782.1,807.27"];
	53 -- 54	[pos="211.48,651.98 210.15,626.83 207.76,581.54 206.43,556.28"];
	14 -- 30	[pos="723.26,404.95 764.19,431.27 858.64,492 899.67,518.38"];
	14 -- 16	[pos="693.39,409.32 669.11,448.96 608.81,547.42 584.67,586.85"];
	14 -- 19	[pos="686.91,378.04 663.08,357.72 619.76,320.79 595.86,300.41"];
	14 -- 41	[pos="728.77,385.61 770.73,374.21 854.8,351.38 896.79,339.97"];
	14 -- 15	[pos="678.2,386.5 670.01,384.6 660.93,382.5 652.73,380.61"];
	14 -- 17	[pos="682.24,403.3 616.25,436.73 417.13,537.6 350.63,571.29"];
	14 -- 69	[pos="693.59,375.72 675.41,345.86 637.51,283.63 619.18,253.52"];
	14 -- 82	[pos="700.76,374.41 694.59,337.26 680.5,252.47 674.33,215.37"];
	95	[height=0.5,
		pos="833.25,625.26",
		width=0.75];
	14 -- 95	[pos="713.27,409.52 737.22,452.59 799.75,565.02 823.72,608.11"];
	14 -- 107	[pos="713.84,375.37 732.58,343.77 772.53,276.37 791.34,244.65"];
	14 -- 129	[pos="706.38,410.56 712.88,455.46 729.65,571.24 736.13,616.01"];
	153	[height=0.5,
		pos="974,289.13",
		width=0.75];
	14 -- 153	[pos="727.26,383.42 778.37,363.88 899.11,317.74 950.35,298.16"];
	14 -- 168	[pos="683.07,380.55 643.97,358.15 559.65,309.83 520.51,287.41"];
	118	[height=0.5,
		pos="895.63,617.29",
		width=0.75];
	14 -- 118	[pos="717.24,408.21 752.47,449.51 846.94,560.22 882.16,601.49"];
	164	[height=0.5,
		pos="554.45,167.18",
		width=0.75];
	14 -- 164	[pos="692.77,375.84 665.16,334.19 593.07,225.44 565.44,183.77"];
	55 -- 56	[pos="497.51,867.56 518.98,872.25 549.34,878.88 570.8,883.56"];
	17 -- 43	[pos="351.23,572.39 371.4,563.44 400.86,550.36 421.13,541.35"];
	17 -- 85	[pos="326.25,564.4 320.74,524.55 307.54,429.21 302.04,389.41"];
	17 -- 122	[pos="319.81,599.55 302.33,633.15 263.8,707.23 246.3,740.88"];
	17 -- 132	[pos="326.21,600.57 320.78,639.47 308.12,730.34 302.7,769.2"];
	158	[height=0.5,
		pos="596.98,477.78",
		width=0.75];
	17 -- 158	[pos="352.08,573.28 402.81,553.5 522.65,506.76 573.51,486.93"];
	17 -- 169	[pos="329.64,600.53 331.17,631.44 334.26,693.97 335.8,725"];
	17 -- 170	[pos="307.74,570.82 276.95,553.88 219.89,522.49 189.09,505.55"];
	171	[height=0.5,
		pos="125.03,398.66",
		width=0.75];
	17 -- 171	[pos="312.41,567.66 274.18,533.17 179.18,447.5 141.15,413.2"];
	17 -- 33	[pos="318.3,599.39 290.47,644.72 214.79,768.02 187.12,813.11"];
	72	[height=0.5,
		pos="37.858,511.36",
		width=0.75];
	17 -- 72	[pos="303.18,576.14 248,562.67 118.29,530.99 63.255,517.56"];
	100	[height=0.5,
		pos="250.33,875.4",
		width=0.75];
	17 -- 100	[pos="323.95,600.27 309.95,652.58 269.2,804.89 255.15,857.38"];
	138	[height=0.5,
		pos="67.427,668.19",
		width=0.75];
	17 -- 138	[pos="304.16,590.45 254.23,606.85 141.47,643.88 91.755,660.21"];
	162	[height=0.5,
		pos="238.86,831.39",
		width=0.75];
	17 -- 162	[pos="322.42,599.89 305.96,645.5 261.88,767.61 245.3,813.56"];
	166	[height=0.5,
		pos="27,586.24",
		width=0.75];
	17 -- 166	[pos="301.7,582.73 244.41,583.46 111.42,585.16 54.091,585.89"];
	57 -- 58	[pos="141.22,608.92 132.17,593.18 118.83,569.98 109.79,554.26"];
	61	[height=0.5,
		pos="379.8,794.79",
		width=0.75];
	60 -- 61	[pos="261.72,627.39 286.25,662.17 343.47,743.29 368.14,778.26"];
	62 -- 63	[pos="418.43,92.057 448.31,95.237 496.15,100.33 525.96,103.5"];
	65 -- 66	[pos="203.89,237.67 199.86,253.88 193.92,277.72 189.87,294.02"];
	10 -- 27	[pos="678.31,520.61 716.28,551.5 806.12,624.58 843.93,655.33"];
	10 -- 16	[pos="646.99,522.04 630.86,540.16 604.41,569.88 588.29,587.99"];
	10 -- 38	[pos="687.85,507.53 750.84,510.08 907.12,516.42 970.24,518.97"];
	10 -- 18	[pos="636.34,498.45 584.73,481.64 465.46,442.82 414.07,426.09"];
	10 -- 14	[pos="667.58,488.62 675.63,467.19 689.07,431.46 697.1,410.09"];
	10 -- 17	[pos="635.1,512.33 573.06,526.51 416.07,562.41 354.28,576.54"];
	91	[height=0.5,
		pos="804.71,757.58",
		width=0.75];
	10 -- 91	[pos="670.54,523.3 696.68,568.94 768.59,694.51 794.9,740.45"];
	142	[height=0.5,
		pos="1040.3,432.4",
		width=0.75];
	10 -- 142	[pos="686.96,501.35 756.35,487.8 944.94,451 1014.3,437.48"];
	144	[height=0.5,
		pos="1036.5,579.61",
		width=0.75];
	10 -- 144	[pos="687,511.52 755.88,524.94 941.9,561.17 1010.6,574.55"];
	10 -- 146	[pos="645.76,491.49 619.06,465.09 563.86,410.51 537.17,384.12"];
	10 -- 147	[pos="682.37,495.47 714.34,479.15 774.1,448.64 806.17,432.26"];
	10 -- 148	[pos="670.18,489.2 689.73,452.95 734.92,369.19 754.39,333.09"];
	10 -- 51	[pos="669.44,523.58 695.48,575.75 773.56,732.17 799.64,784.4"];
	11 -- 39	[pos="901.75,378.08 918.02,378.63 938.65,379.32 954.92,379.87"];
	11 -- 52	[pos="869.56,394.95 861.85,421.81 847.31,472.46 839.55,499.49"];
	11 -- 104	[pos="882.09,359.63 892.78,334.37 912.4,288.02 923.1,262.72"];
	11 -- 125	[pos="882.47,394.44 899.42,431.97 939.47,520.65 956.47,558.28"];
	11 -- 135	[pos="848.61,372.18 814.63,365.67 755.54,354.35 721.55,347.84"];
	149	[height=0.5,
		pos="1121,300.86",
		width=0.75];
	11 -- 149	[pos="899.18,369.57 946.27,354.99 1048.9,323.19 1096.2,308.54"];
	151	[height=0.5,
		pos="936.43,150.41",
		width=0.75];
	11 -- 151	[pos="879.51,359.38 891.06,316.99 920.08,210.43 931.61,168.12"];
	11 -- 153	[pos="891.07,362.63 909.48,346.32 939.16,320.01 957.57,303.69"];
	154	[height=0.5,
		pos="1083.2,237.52",
		width=0.75];
	11 -- 154	[pos="893.91,364.28 933.63,337.68 1024.3,276.95 1064,250.38"];
	156	[height=0.5,
		pos="1121.4,476.4",
		width=0.75];
	11 -- 156	[pos="897.88,386.51 944.91,405.42 1051,448.07 1098.1,467.02"];
	11 -- 158	[pos="850.51,385.92 797.86,405 673.3,450.13 620.88,469.12"];
	11 -- 159	[pos="850.97,367.93 806.06,350.42 709.05,312.59 664.35,295.17"];
	11 -- 160	[pos="875.72,358.98 877.67,325.14 881.85,252.89 883.8,219.12"];
	11 -- 29	[pos="900.69,382.04 949.89,391.26 1056,411.13 1105.2,420.35"];
	93	[height=0.5,
		pos="1121.5,542.63",
		width=0.75];
	11 -- 93	[pos="894.03,390.15 940.17,421.09 1056.1,498.84 1102.2,529.71"];
	143	[height=0.5,
		pos="1127.2,354.51",
		width=0.75];
	11 -- 143	[pos="901.69,374.75 950.3,370.38 1051.9,361.27 1100.4,356.92"];
	67 -- 68	[pos="640.08,116.8 667.5,124.98 711.37,138.07 738.82,146.26"];
	71 -- 72	[pos="114.23,366.17 97.88,397.25 63.414,462.77 46.966,494.04"];
	73 -- 74	[pos="202.95,191.2 187.21,208.2 162.17,235.23 146.51,252.14"];
	5 -- 25	[pos="643.34,698.44 665.22,726.08 709.95,782.58 731.87,810.27"];
	5 -- 6	[pos="630.4,664.09 629.32,603.29 625.9,409.44 624.83,348.9"];
	5 -- 9	[pos="619.85,665.86 590.96,621.62 512.51,501.46 483.53,457.08"];
	5 -- 12	[pos="637.22,664.81 653.9,619.41 698.06,499.2 714.67,453.97"];
	5 -- 35	[pos="657.08,687.15 690.37,693.02 747.3,703.05 780.53,708.91"];
	5 -- 48	[pos="616.18,698.12 600.86,714.58 576.88,740.33 561.62,756.72"];
	5 -- 89	[pos="621.18,699.64 606.24,726.44 577.5,778.03 562.52,804.92"];
	5 -- 90	[pos="633.31,700.5 638.65,737.64 650.85,822.41 656.18,859.51"];
	5 -- 91	[pos="653.47,692.32 686.81,706.71 748.61,733.37 781.96,747.76"];
	92	[height=0.5,
		pos="1020.6,724.84",
		width=0.75];
	5 -- 92	[pos="657.52,685.42 728.83,693.16 922.64,714.2 993.87,721.93"];
	5 -- 94	[pos="604.09,678.42 570.45,673.25 512.93,664.41 479.35,659.25"];
	5 -- 95	[pos="655.96,675.37 694.99,664.34 769.5,643.28 808.33,632.3"];
	5 -- 96	[pos="649.67,669.67 683.06,647.05 751.98,600.34 785.53,577.61"];
	97	[height=0.5,
		pos="747.15,936.38",
		width=0.75];
	5 -- 97	[pos="638.73,699.96 660.05,746.45 718.04,872.9 739.25,919.15"];
	99	[height=0.5,
		pos="462.59,950.54",
		width=0.75];
	5 -- 99	[pos="620.21,699.27 590.01,747.41 503.3,885.65 473.11,933.78"];
	5 -- 101	[pos="603.52,684.47 558.59,687.7 469.4,694.12 424.59,697.35"];
	5 -- 102	[pos="642.72,666.11 671.32,627.04 743.19,528.84 771.73,489.85"];
	5 -- 61	[pos="608.01,692.67 560.24,714.05 449.85,763.44 402.28,784.73"];
	76 -- 77	[pos="245.59,301.55 241.83,333.59 234.07,399.82 230.31,431.83"];
	78 -- 79	[pos="285.38,512.68 282.93,554.15 277,654.67 274.56,695.94"];
	83 -- 84	[pos="625.69,73.578 637.09,79.806 651.11,87.467 662.47,93.676"];
	87 -- 88	[pos="476.46,38.763 493.93,34.411 517,28.663 534.44,24.319"];
	92 -- 93	[pos="1030.1,707.69 1049.4,672.88 1092.9,594.26 1112.1,559.6"];
	97 -- 98	[pos="740.68,918.83 738.8,913.76 736.76,908.23 734.88,903.15"];
	99 -- 100	[pos="438.66,942.06 397.78,927.6 314.99,898.29 274.18,883.84"];
	110 -- 111	[pos="426.52,134.36 395.3,135.7 344.17,137.91 312.86,139.26"];
	112 -- 113	[pos="790.85,97.397 770.22,85.03 738.42,65.97 717.85,53.641"];
	117 -- 118	[pos="757.74,751.16 787.15,722.6 850.59,661.02 880.04,632.43"];
	120 -- 121	[pos="440.83,904.34 460.7,903.04 487.56,901.29 507.41,899.99"];
	123 -- 124	[pos="164.81,714.99 148.27,687.77 115.78,634.29 99.245,607.09"];
	126 -- 127	[pos="827.13,847.42 854.46,818.73 912.73,757.55 940.15,728.75"];
	137 -- 138	[pos="142.75,597.04 126.01,612.85 99.804,637.61 83.132,653.36"];
	140 -- 141	[pos="432.71,185.91 445.58,164.45 467.76,127.46 480.65,105.97"];
	142 -- 143	[pos="1056.6,417.75 1072.2,403.82 1095.4,383 1110.9,369.09"];
	144 -- 145	[pos="1041,561.44 1045.1,545.22 1050.9,521.61 1054.9,505.49"];
	149 -- 150	[pos="1100.7,312.98 1091.1,318.7 1079.7,325.52 1070.1,331.26"];
	151 -- 152	[pos="909.32,150.26 863.87,150.02 772.78,149.53 727.3,149.29"];
	154 -- 155	[pos="1056.2,239 1044.8,239.62 1031.6,240.34 1020.2,240.96"];
	156 -- 157	[pos="1105.4,490.93 1074.2,519.28 1005.5,581.69 973.99,610.27"];
	161 -- 162	[pos="472.68,734.86 423.73,755.07 310.63,801.76 261.89,821.88"];
	163 -- 164	[pos="417.98,147.95 448.29,152.23 497.59,159.17 527.9,163.44"];
	165 -- 166	[pos="109.32,466.41 91.325,492.6 56.348,543.52 38.331,569.74"];
	171 -- 172	[pos="140.68,383.96 172.83,353.78 246,285.08 278.53,254.54"];
}
