graph {
	graph [bb="0,0,406.18,370.29",
		outputorder=edgesfirst,
		overlap=prism,
		size="50,50!",
		start=8989
	];
	node [label="\N"];
	1	[height=0.5,
		pos="114.02,239.7",
		width=0.75];
	2	[height=0.5,
		pos="205.65,149.66",
		width=0.75];
	1 -- 2	[pos="129.56,224.42 146.51,207.77 173.48,181.27 190.34,164.71"];
	5	[height=0.5,
		pos="259.83,215.18",
		width=0.75];
	1 -- 5	[pos="140.42,235.26 166.85,230.81 207.26,224.02 233.62,219.58"];
	3	[height=0.5,
		pos="143.65,160.05",
		width=0.75];
	1 -- 3	[pos="120.59,222.02 125.5,208.82 132.18,190.86 137.09,177.68"];
	4	[height=0.5,
		pos="238.02,273.94",
		width=0.75];
	1 -- 4	[pos="139.11,246.63 160.62,252.57 191.46,261.08 212.96,267.02"];
	8	[height=0.5,
		pos="27,352.29",
		width=0.75];
	1 -- 8	[pos="101.55,255.83 85.007,277.23 55.974,314.8 39.444,336.19"];
	2 -- 5	[pos="218.77,165.52 227.16,175.67 238.02,188.8 246.46,199.01"];
	2 -- 4	[pos="210.29,167.47 216.44,191.09 227.24,232.56 233.39,256.17"];
	7	[height=0.5,
		pos="151.62,18",
		width=0.75];
	2 -- 7	[pos="198.48,132.18 188.14,106.99 169.17,60.777 158.82,35.556"];
	6	[height=0.5,
		pos="379.18,292.92",
		width=0.75];
	5 -- 6	[pos="279.27,227.84 301.46,242.3 337.55,265.81 359.74,280.26"];
	3 -- 5	[pos="165.77,170.55 186.45,180.36 217.14,194.92 237.78,204.72"];
	3 -- 4	[pos="156.77,175.89 174.7,197.52 206.67,236.12 224.7,257.87"];
	3 -- 7	[pos="144.66,142.06 146.18,114.88 149.06,63.645 150.59,36.293"];
	4 -- 6	[pos="264.57,277.51 289.65,280.88 327.07,285.91 352.26,289.3"];
	0	[height=0.5,
		pos="153.92,288.18",
		width=0.75];
	0 -- 2	[pos="160.47,270.63 170.37,244.13 189.03,194.17 198.99,167.5"];
	0 -- 5	[pos="172.86,275.13 192.01,261.92 221.47,241.61 240.7,228.36"];
	0 -- 3	[pos="152.47,270.09 150.51,245.67 147.04,202.41 145.09,178.04"];
	0 -- 4	[pos="180.53,283.67 190.44,282 201.69,280.09 211.58,278.42"];
	0 -- 8	[pos="132.39,299.05 109.05,310.84 72.017,329.55 48.636,341.36"];
}
