graph {
	graph [bb="0,0,1945.2,1342.5",
		outputorder=edgesfirst,
		overlap=prism,
		size="50,50!",
		start=7537
	];
	node [label="\N"];
	0	[height=0.5,
		pos="1030.8,793.69",
		width=0.75];
	42	[height=0.5,
		pos="1047.4,617.59",
		width=0.75];
	0 -- 42	[pos="1032.6,775.51 1035.7,741.68 1042.6,669.43 1045.7,635.67"];
	1	[height=0.5,
		pos="987.86,573.57",
		width=0.75];
	0 -- 1	[pos="1027.3,775.68 1019.2,734.3 999.43,632.84 991.36,591.52"];
	2	[height=0.5,
		pos="1304,612.84",
		width=0.75];
	0 -- 2	[pos="1050.1,780.97 1100.2,747.77 1234.7,658.73 1284.9,625.54"];
	153	[height=0.5,
		pos="1144.7,722.84",
		width=0.75];
	0 -- 153	[pos="1050.7,781.35 1071.5,768.42 1103.9,748.24 1124.7,735.27"];
	3	[height=0.5,
		pos="802.32,614.95",
		width=0.75];
	0 -- 3	[pos="1013.3,779.96 970.75,746.69 862.53,662.04 819.93,628.72"];
	6	[height=0.5,
		pos="896.9,679",
		width=0.75];
	0 -- 6	[pos="1014.1,779.4 988.48,757.42 939.6,715.56 913.81,693.47"];
	4	[height=0.5,
		pos="1259.6,856.77",
		width=0.75];
	0 -- 4	[pos="1056.2,800.68 1100.3,812.84 1190.6,837.73 1234.5,849.84"];
	5	[height=0.5,
		pos="1085.9,479.35",
		width=0.75];
	0 -- 5	[pos="1034,775.43 1043.8,719.74 1073.1,552.5 1082.8,497.27"];
	7	[height=0.5,
		pos="1366.1,622.81",
		width=0.75];
	0 -- 7	[pos="1052.3,782.74 1112.7,751.95 1283.6,664.84 1344.3,633.89"];
	201	[height=0.5,
		pos="925.31,987.13",
		width=0.75];
	0 -- 201	[pos="1021.5,810.86 1001.5,847.57 954.66,933.33 934.66,970"];
	12	[height=0.5,
		pos="570.67,837.78",
		width=0.75];
	0 -- 12	[pos="1004.1,796.25 922.78,804.04 678.91,827.41 597.48,835.21"];
	19	[height=0.5,
		pos="1230.8,488.68",
		width=0.75];
	0 -- 19	[pos="1041.9,776.86 1076.8,723.53 1184.9,558.72 1219.8,505.46"];
	229	[height=0.5,
		pos="1160.8,560.3",
		width=0.75];
	0 -- 229	[pos="1040.4,776.53 1064.4,733.37 1127.2,620.68 1151.3,577.49"];
	11	[height=0.5,
		pos="570.29,681.35",
		width=0.75];
	0 -- 11	[pos="1005.4,787.49 925,767.87 676.63,707.29 595.92,687.6"];
	113	[height=0.5,
		pos="681.97,700.18",
		width=0.75];
	0 -- 113	[pos="1005.8,786.97 941.54,769.75 771.78,724.25 707.3,706.97"];
	255	[height=0.5,
		pos="1050.6,567.37",
		width=0.75];
	0 -- 255	[pos="1032.4,775.55 1036.1,733.18 1045.3,628.06 1049,585.59"];
	138	[height=0.5,
		pos="685.07,896.58",
		width=0.75];
	0 -- 138	[pos="1006,801.09 942.33,820.03 774.08,870.09 710.18,889.11"];
	13	[height=0.5,
		pos="1247.8,944.98",
		width=0.75];
	0 -- 13	[pos="1049.7,806.85 1090.8,835.54 1188.2,903.4 1229.1,931.95"];
	120	[height=0.5,
		pos="1204.7,812.68",
		width=0.75];
	0 -- 120	[pos="1057.6,796.62 1090.3,800.18 1145.2,806.18 1177.9,809.75"];
	152	[height=0.5,
		pos="1147.2,898.09",
		width=0.75];
	0 -- 152	[pos="1047,808.21 1069.1,828.04 1108.5,863.42 1130.8,883.36"];
	17	[height=0.5,
		pos="1039.7,1025.5",
		width=0.75];
	0 -- 17	[pos="1031.5,811.88 1033.2,855.22 1037.3,964.15 1039,1007.4"];
	144	[height=0.5,
		pos="1241.1,621.27",
		width=0.75];
	0 -- 144	[pos="1048,779.58 1087.6,747.17 1184.5,667.7 1223.9,635.33"];
	39	[height=0.5,
		pos="740.24,656.14",
		width=0.75];
	0 -- 39	[pos="1008.5,783.13 954.43,757.52 816.8,692.38 762.63,666.74"];
	29	[height=0.5,
		pos="841.97,723.56",
		width=0.75];
	0 -- 29	[pos="1006.9,784.81 970.59,771.32 901.91,745.82 865.69,732.37"];
	31	[height=0.5,
		pos="701.4,772.39",
		width=0.75];
	0 -- 31	[pos="1003.9,791.95 942.1,787.95 790.86,778.17 728.73,774.16"];
	32	[height=0.5,
		pos="977.28,749.66",
		width=0.75];
	0 -- 32	[pos="1013.6,779.52 1007.5,774.49 1000.6,768.83 994.49,763.81"];
	54	[height=0.5,
		pos="950.48,837.71",
		width=0.75];
	0 -- 54	[pos="1009.7,805.26 997.92,811.73 983.24,819.76 971.46,826.22"];
	36	[height=0.5,
		pos="1017.1,837.71",
		width=0.75];
	0 -- 36	[pos="1025.3,811.34 1024.4,814.21 1023.5,817.18 1022.6,820.05"];
	38	[height=0.5,
		pos="1156,1025.4",
		width=0.75];
	0 -- 38	[pos="1040,810.73 1063.2,853.59 1123.6,965.48 1146.8,1008.4"];
	155	[height=0.5,
		pos="987.36,981.49",
		width=0.75];
	0 -- 155	[pos="1026.7,811.7 1018.4,847.59 999.81,927.69 991.51,963.54"];
	237	[height=0.5,
		pos="1254.9,667.12",
		width=0.75];
	0 -- 237	[pos="1051.5,782.01 1094.2,757.9 1191.6,702.86 1234.3,678.77"];
	283	[height=0.5,
		pos="765.48,813.75",
		width=0.75];
	0 -- 283	[pos="1003.9,795.72 953.08,799.57 843.37,807.86 792.46,811.71"];
	146	[height=0.5,
		pos="1055,661.6",
		width=0.75];
	0 -- 146	[pos="1034.1,775.6 1038.8,750.31 1047.1,704.65 1051.7,679.47"];
	49	[height=0.5,
		pos="611.64,881.81",
		width=0.75];
	0 -- 49	[pos="1004.9,799.14 929.87,814.91 712.82,860.54 637.64,876.34"];
	106	[height=0.5,
		pos="1104.2,976.89",
		width=0.75];
	0 -- 106	[pos="1037.9,811.26 1051.9,846.27 1083.2,924.41 1097.2,959.38"];
	140	[height=0.5,
		pos="925.72,793.7",
		width=0.75];
	0 -- 140	[pos="1003.8,793.69 988.19,793.69 968.68,793.7 953.06,793.7"];
	86	[height=0.5,
		pos="1037.4,705.62",
		width=0.75];
	0 -- 86	[pos="1032.2,775.44 1033.3,760.33 1034.9,738.95 1036,723.84"];
	242	[height=0.5,
		pos="632.69,822.55",
		width=0.75];
	0 -- 242	[pos="1003.8,795.65 931.15,800.92 732.46,815.32 659.78,820.58"];
	95	[height=0.5,
		pos="928.5,1031.2",
		width=0.75];
	0 -- 95	[pos="1023.3,811.16 1004.4,855.09 954.97,969.79 936.03,1013.8"];
	104	[height=0.5,
		pos="1279.7,713.13",
		width=0.75];
	0 -- 104	[pos="1055.2,785.82 1102.7,770.42 1207.6,736.46 1255.3,721.03"];
	193	[height=0.5,
		pos="1179.1,634.64",
		width=0.75];
	0 -- 193	[pos="1045.3,778.15 1073.7,747.66 1136.5,680.35 1164.7,650.01"];
	262	[height=0.5,
		pos="1183,678.79",
		width=0.75];
	0 -- 262	[pos="1048.9,780.06 1078.2,757.94 1135.7,714.5 1165,692.4"];
	161	[height=0.5,
		pos="1040.8,937.46",
		width=0.75];
	0 -- 161	[pos="1032.1,811.9 1034,839.55 1037.6,891.83 1039.5,919.4"];
	176	[height=0.5,
		pos="820.32,671.57",
		width=0.75];
	0 -- 176	[pos="1010.3,781.76 970.02,758.41 881.28,706.93 840.97,683.55"];
	42 -- 146	[pos="1050.5,635.49 1051,638.16 1051.4,640.91 1051.9,643.57"];
	42 -- 86	[pos="1045.4,635.83 1043.6,650.94 1041.2,672.3 1039.5,687.4"];
	158	[height=0.5,
		pos="1011.2,434.61",
		width=0.75];
	42 -- 158	[pos="1043.9,599.71 1037,564.73 1021.7,487.6 1014.8,452.56"];
	195	[height=0.5,
		pos="982.95,478.65",
		width=0.75];
	42 -- 195	[pos="1039.4,600.27 1027,573.65 1003.5,522.94 991.08,496.18"];
	1 -- 42	[pos="1006.1,587.02 1013.4,592.48 1022,598.77 1029.3,604.23"];
	10	[height=0.5,
		pos="920.89,478.56",
		width=0.75];
	1 -- 10	[pos="976.19,557.02 963.9,539.58 944.66,512.29 932.42,494.92"];
	1 -- 3	[pos="962.06,579.32 926.71,587.21 863.59,601.28 828.2,609.18"];
	1 -- 6	[pos="974.04,589.58 956.85,609.51 927.66,643.34 910.55,663.18"];
	1 -- 5	[pos="1003.6,558.43 1022,540.74 1052.3,511.67 1070.5,494.14"];
	167	[height=0.5,
		pos="900.21,522.58",
		width=0.75];
	1 -- 167	[pos="967.09,561.48 953.12,553.36 934.77,542.68 920.83,534.57"];
	1 -- 229	[pos="1014.9,571.5 1047.4,569 1101.6,564.85 1134,562.36"];
	37	[height=0.5,
		pos="942.79,433.57",
		width=0.75];
	1 -- 37	[pos="982.15,555.84 973.53,529.06 957.27,478.56 948.6,451.6"];
	1 -- 255	[pos="1014.8,570.9 1017.8,570.62 1020.7,570.32 1023.7,570.03"];
	23	[height=0.5,
		pos="1017.9,523.15",
		width=0.75];
	1 -- 23	[pos="997.85,556.78 1001.1,551.4 1004.6,545.43 1007.8,540.04"];
	269	[height=0.5,
		pos="962.45,385.7",
		width=0.75];
	1 -- 269	[pos="985.42,555.56 980.56,519.65 969.73,439.52 964.88,403.66"];
	137	[height=0.5,
		pos="969.16,658.47",
		width=0.75];
	1 -- 137	[pos="983.89,591.57 980.72,605.98 976.29,626.09 973.12,640.49"];
	1 -- 32	[pos="986.76,591.75 984.73,625.58 980.39,697.82 978.36,731.58"];
	1 -- 146	[pos="1000.2,589.72 1012.2,605.5 1030.4,629.41 1042.5,645.26"];
	1 -- 86	[pos="994.43,591.1 1003.9,616.36 1021.3,662.72 1030.8,688.01"];
	1 -- 158	[pos="990.91,555.4 995.38,528.77 1003.7,479.41 1008.1,452.78"];
	1 -- 195	[pos="986.91,555.27 986.04,538.46 984.76,513.68 983.89,496.89"];
	233	[height=0.5,
		pos="925.6,566.58",
		width=0.75];
	1 -- 233	[pos="961.09,570.57 958.19,570.24 955.24,569.91 952.34,569.58"];
	10 -- 37	[pos="929.29,461.3 930.98,457.83 932.76,454.18 934.45,450.72"];
	10 -- 255	[pos="939.75,491.48 964.35,508.31 1007.1,537.6 1031.7,554.44"];
	2 -- 153	[pos="1285.1,625.89 1254.5,647.06 1194.3,688.64 1163.6,709.8"];
	2 -- 3	[pos="1276.7,612.95 1189.2,613.32 916.49,614.47 829.37,614.83"];
	66	[height=0.5,
		pos="1234.9,282.53",
		width=0.75];
	2 -- 66	[pos="1300.2,594.61 1288.1,536.86 1250.8,358.37 1238.7,300.7"];
	2 -- 4	[pos="1300.8,630.78 1292.6,675.89 1271.1,793.67 1262.9,838.81"];
	79	[height=0.5,
		pos="1142.9,768.67",
		width=0.75];
	2 -- 79	[pos="1288.6,627.78 1257.9,657.49 1189.4,723.69 1158.5,753.54"];
	2 -- 7	[pos="1330.3,617.07 1333.4,617.56 1336.5,618.05 1339.5,618.54"];
	198	[height=0.5,
		pos="1363.7,567.84",
		width=0.75];
	2 -- 198	[pos="1321.9,599.34 1329.5,593.64 1338.3,587.03 1345.8,581.33"];
	9	[height=0.5,
		pos="1407.5,423.52",
		width=0.75];
	2 -- 9	[pos="1313.4,595.7 1333.1,559.66 1378.7,476.37 1398.3,440.48"];
	157	[height=0.5,
		pos="1367.9,737.64",
		width=0.75];
	2 -- 157	[pos="1312.8,629.93 1324.9,653.7 1346.8,696.49 1359,720.35"];
	2 -- 13	[pos="1300.9,631.17 1291.1,689.24 1260.7,868.71 1250.9,926.7"];
	15	[height=0.5,
		pos="1328.8,827.14",
		width=0.75];
	2 -- 15	[pos="1306.2,631.11 1310.8,671.6 1322,768.47 1326.7,808.92"];
	2 -- 120	[pos="1295.4,630.22 1276.6,668.11 1232,757.75 1213.3,795.48"];
	20	[height=0.5,
		pos="1080.9,749.64",
		width=0.75];
	2 -- 20	[pos="1283.8,625.22 1241.4,651.27 1143.2,711.45 1100.9,737.39"];
	57	[height=0.5,
		pos="1117,649.2",
		width=0.75];
	2 -- 57	[pos="1278,617.89 1242.4,624.82 1178.8,637.19 1143.1,644.13"];
	71	[height=0.5,
		pos="1506,579.39",
		width=0.75];
	2 -- 71	[pos="1330.4,608.47 1369.2,602.05 1440.9,590.17 1479.6,583.76"];
	46	[height=0.5,
		pos="1496.7,491.34",
		width=0.75];
	2 -- 46	[pos="1323.9,600.29 1360.9,576.95 1440,527.11 1476.9,503.81"];
	27	[height=0.5,
		pos="1085.6,339.04",
		width=0.75];
	2 -- 27	[pos="1291.3,596.94 1252.7,548.54 1136.9,403.44 1098.3,354.99"];
	33	[height=0.5,
		pos="1512.6,645.37",
		width=0.75];
	2 -- 33	[pos="1330.5,616.96 1370.5,623.2 1446,634.98 1486.1,641.23"];
	2 -- 237	[pos="1290.1,628.25 1283.5,635.52 1275.7,644.18 1269,651.48"];
	53	[height=0.5,
		pos="1453.3,711.94",
		width=0.75];
	2 -- 53	[pos="1323.2,625.59 1351.9,644.62 1405.5,680.24 1434.2,699.24"];
	210	[height=0.5,
		pos="1115.4,604.92",
		width=0.75];
	2 -- 210	[pos="1277,611.7 1241.2,610.2 1178.2,607.56 1142.4,606.05"];
	126	[height=0.5,
		pos="1080,523.36",
		width=0.75];
	2 -- 126	[pos="1280.5,603.43 1237.3,586.2 1146.1,549.78 1103.2,532.64"];
	72	[height=0.5,
		pos="1365.9,781.7",
		width=0.75];
	2 -- 72	[pos="1310.5,630.59 1322.5,663.11 1347.7,731.85 1359.5,764.19"];
	88	[height=0.5,
		pos="1212.1,739.91",
		width=0.75];
	2 -- 88	[pos="1292.2,629.19 1274.6,653.59 1241.5,699.26 1223.9,723.62"];
	217	[height=0.5,
		pos="1428.1,623.65",
		width=0.75];
	2 -- 217	[pos="1331,615.18 1351.8,617 1380.4,619.5 1401.2,621.31"];
	2 -- 262	[pos="1283,624.33 1260.9,636.36 1226.4,655.14 1204.3,667.21"];
	177	[height=0.5,
		pos="1406.7,667.69",
		width=0.75];
	2 -- 177	[pos="1325.3,624.2 1342.9,633.62 1367.8,646.93 1385.4,656.34"];
	197	[height=0.5,
		pos="1343.2,683.96",
		width=0.75];
	2 -- 197	[pos="1313.5,630.05 1319.7,641.24 1327.7,655.75 1333.8,666.9"];
	215	[height=0.5,
		pos="1431.1,546.38",
		width=0.75];
	2 -- 215	[pos="1325.3,601.72 1348.8,589.45 1386.3,569.82 1409.7,557.54"];
	273	[height=0.5,
		pos="1399.3,470.88",
		width=0.75];
	2 -- 273	[pos="1315.2,596.28 1333.5,568.92 1370,514.62 1388.3,487.33"];
	153 -- 262	[pos="1158.6,706.93 1162.1,702.89 1165.9,698.55 1169.4,694.52"];
	3 -- 10	[pos="815.92,599.3 838.67,573.13 884.19,520.77 907.08,494.44"];
	47	[height=0.5,
		pos="818.76,864.44",
		width=0.75];
	3 -- 47	[pos="803.53,633.29 806.58,679.54 814.55,800.49 817.57,846.4"];
	3 -- 6	[pos="821.46,627.91 837.87,639.02 861.39,654.95 877.79,666.06"];
	3 -- 5	[pos="824.57,604.31 877.59,578.96 1010.9,515.24 1063.8,489.94"];
	204	[height=0.5,
		pos="900.3,388.96",
		width=0.75];
	3 -- 204	[pos="809.84,597.59 828.08,555.52 874.49,448.5 892.75,406.38"];
	3 -- 12	[pos="786.76,629.91 744.56,670.51 628.28,782.36 586.17,822.87"];
	3 -- 167	[pos="818.05,600.11 836.31,582.87 866.27,554.6 884.52,537.38"];
	3 -- 37	[pos="814.78,598.85 841.44,564.43 903.72,484.02 930.36,449.63"];
	3 -- 11	[pos="777.49,622.05 732.95,634.8 639.96,661.41 595.3,674.2"];
	35	[height=0.5,
		pos="864.95,610.64",
		width=0.75];
	3 -- 35	[pos="829.24,613.1 832.16,612.9 835.13,612.69 838.05,612.49"];
	151	[height=0.5,
		pos="587.88,637.33",
		width=0.75];
	3 -- 151	[pos="775.59,617.74 734.39,622.04 655.81,630.24 614.61,634.54"];
	21	[height=0.5,
		pos="433.46,441.38",
		width=0.75];
	3 -- 21	[pos="780.08,604.48 714.35,573.55 521.5,482.81 455.73,451.86"];
	16	[height=0.5,
		pos="317.53,571.57",
		width=0.75];
	3 -- 16	[pos="775.21,612.52 690.17,604.91 429.22,581.56 344.44,573.98"];
	3 -- 20	[pos="824.18,625.52 876.12,650.63 1006.5,713.68 1058.7,738.94"];
	3 -- 57	[pos="829.15,617.87 888.61,624.34 1030.9,639.82 1090.3,646.29"];
	123	[height=0.5,
		pos="587.06,573.49",
		width=0.75];
	3 -- 123	[pos="776.35,609.95 734.98,601.98 654.55,586.49 613.11,578.51"];
	40	[height=0.5,
		pos="649.11,545.6",
		width=0.75];
	3 -- 40	[pos="779.71,604.71 750.75,591.6 700.82,569 671.81,555.87"];
	84	[height=0.5,
		pos="650.38,447.07",
		width=0.75];
	3 -- 84	[pos="788.3,599.45 759.35,567.47 693.28,494.47 664.37,462.52"];
	111	[height=0.5,
		pos="648.14,491.44",
		width=0.75];
	3 -- 111	[pos="784.93,601.02 755.32,577.3 695.43,529.32 665.7,505.51"];
	3 -- 27	[pos="817.95,599.72 867.47,551.48 1020.5,402.4 1070,354.22"];
	98	[height=0.5,
		pos="1073.2,406.66",
		width=0.75];
	3 -- 98	[pos="820.09,601.28 869.18,563.54 1006.2,458.17 1055.4,420.37"];
	3 -- 29	[pos="808.87,632.88 816.26,653.13 828.2,685.85 835.54,705.96"];
	68	[height=0.5,
		pos="838.16,484.61",
		width=0.75];
	3 -- 68	[pos="807.23,597.1 814.05,572.28 826.34,527.59 833.2,502.66"];
	3 -- 36	[pos="817.08,630.26 856.31,670.95 962.85,781.47 1002.2,822.29"];
	78	[height=0.5,
		pos="772.35,373.22",
		width=0.75];
	3 -- 78	[pos="800.07,596.78 794.5,551.87 780.14,436.05 774.59,391.27"];
	3 -- 283	[pos="798.98,632.94 791.99,670.69 775.85,757.81 768.84,795.65"];
	170	[height=0.5,
		pos="776.11,509.78",
		width=0.75];
	3 -- 170	[pos="797.87,597.11 793.05,577.77 785.41,547.08 780.58,527.7"];
	45	[height=0.5,
		pos="880.78,837.7",
		width=0.75];
	3 -- 45	[pos="808.61,632.8 823.33,674.61 859.92,778.48 874.57,820.07"];
	166	[height=0.5,
		pos="619.87,725.4",
		width=0.75];
	3 -- 166	[pos="782.1,627.19 746.93,648.48 674.94,692.07 639.91,713.27"];
	80	[height=0.5,
		pos="544.72,379.37",
		width=0.75];
	3 -- 80	[pos="786.2,600.21 739.94,557.9 607.08,436.4 560.83,394.1"];
	3 -- 210	[pos="829.56,614.07 888.77,612.18 1028.7,607.7 1088,605.8"];
	59	[height=0.5,
		pos="911.8,723.19",
		width=0.75];
	3 -- 59	[pos="817.54,630 838.34,650.56 875.44,687.24 896.35,707.92"];
	69	[height=0.5,
		pos="863.65,778.54",
		width=0.75];
	3 -- 69	[pos="808.88,632.45 820.63,663.78 845.11,729.07 856.95,760.66"];
	65	[height=0.5,
		pos="756.75,860.32",
		width=0.75];
	3 -- 65	[pos="798.97,632.99 790.54,678.37 768.54,796.85 760.1,842.25"];
	3 -- 126	[pos="826.96,606.82 879.65,589.44 1002.8,548.83 1055.4,531.47"];
	116	[height=0.5,
		pos="834.38,407.14",
		width=0.75];
	3 -- 116	[pos="805.11,596.87 811.17,557.57 825.5,464.72 831.58,425.32"];
	188	[height=0.5,
		pos="714.05,548.18",
		width=0.75];
	3 -- 188	[pos="784.46,601.44 769.24,589.93 747.48,573.47 732.19,561.9"];
	134	[height=0.5,
		pos="652.88,385.74",
		width=0.75];
	3 -- 134	[pos="791.33,598.09 763.63,555.6 691.18,444.49 663.68,402.31"];
	125	[height=0.5,
		pos="715.75,595.19",
		width=0.75];
	3 -- 125	[pos="776.34,609.02 765.29,606.49 752.43,603.56 741.4,601.04"];
	294	[height=0.5,
		pos="801.62,769.7",
		width=0.75];
	3 -- 294	[pos="802.24,633 802.1,662.66 801.84,721.38 801.7,751.28"];
	3 -- 233	[pos="825.8,605.74 847.73,597.13 880.3,584.35 902.21,575.76"];
	3 -- 176	[pos="808.01,632.86 810.11,639.47 812.49,646.96 814.6,653.58"];
	200	[height=0.5,
		pos="694.72,816.42",
		width=0.75];
	3 -- 200	[pos="793.14,632.12 772.82,670.19 724.18,761.26 703.87,799.29"];
	275	[height=0.5,
		pos="744.08,725.67",
		width=0.75];
	3 -- 275	[pos="793.22,632.25 782.28,653.05 764.03,687.75 753.11,708.49"];
	169	[height=0.5,
		pos="854.13,909.25",
		width=0.75];
	47 -- 169	[pos="831.53,880.62 834.77,884.73 838.26,889.14 841.5,893.24"];
	149	[height=0.5,
		pos="792.08,940.97",
		width=0.75];
	47 -- 149	[pos="812.57,882.19 808.26,894.55 802.54,910.98 798.24,923.32"];
	241	[height=0.5,
		pos="730.01,940.59",
		width=0.75];
	47 -- 241	[pos="802.07,878.76 786.2,892.38 762.47,912.74 746.63,926.33"];
	47 -- 200	[pos="795.14,855.29 773.07,846.75 740.3,834.06 718.25,825.53"];
	47 -- 275	[pos="809.6,847.42 795.27,820.79 767.69,769.55 753.31,742.83"];
	131	[height=0.5,
		pos="1236.8,236.15",
		width=0.75];
	66 -- 131	[pos="1235.6,264.47 1235.8,261.11 1235.9,257.6 1236.1,254.24"];
	247	[height=0.5,
		pos="1080,64.597",
		width=0.75];
	66 -- 247	[pos="1223.3,266.15 1194.5,225.66 1120.2,121.24 1091.5,80.871"];
	66 -- 126	[pos="1224.2,299.08 1195.9,343.08 1119.1,462.56 1090.7,506.69"];
	100	[height=0.5,
		pos="1077,152.64",
		width=0.75];
	66 -- 100	[pos="1217.7,268.38 1187.3,243.4 1124.6,191.75 1094.2,166.77"];
	133	[height=0.5,
		pos="1057,108.64",
		width=0.75];
	66 -- 133	[pos="1219.4,267.4 1185.7,234.43 1105.9,156.43 1072.4,123.6"];
	299	[height=0.5,
		pos="1144.4,95.542",
		width=0.75];
	66 -- 299	[pos="1226.5,265.27 1209.3,229.65 1170,148.34 1152.8,112.76"];
	297	[height=0.5,
		pos="1055.2,200.97",
		width=0.75];
	66 -- 297	[pos="1212.5,272.37 1178,256.69 1112.1,226.8 1077.6,211.13"];
	6 -- 167	[pos="897.29,660.75 897.93,630.61 899.19,570.77 899.83,540.71"];
	6 -- 35	[pos="888.84,661.75 884.03,651.47 877.95,638.45 873.12,628.12"];
	6 -- 137	[pos="921.77,671.93 928.95,669.89 936.8,667.66 944,665.62"];
	6 -- 29	[pos="879.52,693.1 873.11,698.3 865.84,704.19 859.42,709.4"];
	6 -- 32	[pos="913.56,693.64 927.44,705.85 947.12,723.14 960.92,735.28"];
	6 -- 68	[pos="891.48,661.06 880.29,624.03 854.75,539.5 843.57,502.51"];
	6 -- 283	[pos="882.08,694.19 856.84,720.07 805.79,772.42 780.45,798.4"];
	6 -- 140	[pos="901.41,696.92 906.82,718.47 915.85,754.41 921.25,775.9"];
	6 -- 233	[pos="901.45,661.19 906.79,640.26 915.6,605.74 920.98,584.68"];
	4 -- 79	[pos="1241.6,843.2 1219.8,826.69 1183.1,798.98 1161.1,782.4"];
	4 -- 15	[pos="1282.7,846.9 1290,843.74 1298.2,840.23 1305.6,837.06"];
	18	[height=0.5,
		pos="1490.2,864.25",
		width=0.75];
	4 -- 18	[pos="1287,857.66 1331.3,859.1 1418.5,861.93 1462.8,863.37"];
	261	[height=0.5,
		pos="1402,913.84",
		width=0.75];
	4 -- 261	[pos="1282.8,866.07 1309.3,876.68 1352.3,893.94 1378.8,904.55"];
	4 -- 152	[pos="1235.8,865.53 1216.7,872.54 1190.1,882.33 1171,889.34"];
	194	[height=0.5,
		pos="1425.9,825.76",
		width=0.75];
	4 -- 194	[pos="1286,851.86 1317.1,846.05 1368.6,836.45 1399.6,830.65"];
	94	[height=0.5,
		pos="1429.9,776.54",
		width=0.75];
	4 -- 94	[pos="1281.9,846.28 1314.5,830.9 1375,802.41 1407.7,787.03"];
	4 -- 36	[pos="1232.7,854.66 1186.1,850.99 1090.8,843.5 1044.1,839.83"];
	4 -- 38	[pos="1249.3,873.56 1229.4,905.89 1186.1,976.43 1166.2,1008.7"];
	58	[height=0.5,
		pos="1336.1,877.11",
		width=0.75];
	4 -- 58	[pos="1285.1,863.54 1293.4,865.76 1302.7,868.23 1311,870.44"];
	224	[height=0.5,
		pos="1272.4,900.83",
		width=0.75];
	4 -- 224	[pos="1264.8,874.69 1265.6,877.45 1266.5,880.31 1267.3,883.07"];
	4 -- 72	[pos="1278.6,843.35 1298,829.69 1327.8,808.63 1347.1,795.01"];
	213	[height=0.5,
		pos="1402.9,869.78",
		width=0.75];
	4 -- 213	[pos="1286.6,859.22 1312.2,861.54 1350.5,865.02 1376.1,867.34"];
	196	[height=0.5,
		pos="1111,814.35",
		width=0.75];
	79 -- 196	[pos="1131.4,785.16 1128.5,789.25 1125.5,793.63 1122.6,797.73"];
	79 -- 88	[pos="1165.9,759.09 1173.3,756.02 1181.5,752.62 1188.9,749.54"];
	5 -- 204	[pos="1063.9,468.62 1028.2,451.23 958,417.06 922.3,399.67"];
	5 -- 7	[pos="1107.4,490.37 1159.6,517.07 1292.3,585.01 1344.5,611.76"];
	5 -- 19	[pos="1112.8,481.08 1138.7,482.75 1177.6,485.25 1203.6,486.93"];
	8	[height=0.5,
		pos="1135.2,435.33",
		width=0.75];
	5 -- 8	[pos="1102.3,464.69 1107.7,459.89 1113.7,454.56 1119.1,449.77"];
	5 -- 229	[pos="1100.4,494.96 1113.6,509.29 1133.2,530.42 1146.4,544.74"];
	5 -- 9	[pos="1112.2,474.78 1172.7,464.28 1320.9,438.55 1381.3,428.07"];
	44	[height=0.5,
		pos="1025.3,251.85",
		width=0.75];
	5 -- 44	[pos="1081.2,461.5 1069.8,418.97 1041.3,312.06 1030,269.62"];
	5 -- 37	[pos="1061.3,471.48 1035.1,463.1 993.83,449.9 967.56,441.49"];
	5 -- 255	[pos="1079,496.74 1072.8,512.07 1063.9,534.3 1057.7,549.71"];
	22	[height=0.5,
		pos="1087.6,294.95",
		width=0.75];
	5 -- 22	[pos="1086.1,461.33 1086.4,426.08 1087.1,348.35 1087.4,313.04"];
	5 -- 27	[pos="1085.9,461.29 1085.8,434.5 1085.7,384.48 1085.6,357.48"];
	5 -- 98	[pos="1082.8,461.38 1080.8,450.2 1078.3,435.86 1076.4,424.67"];
	253	[height=0.5,
		pos="955.82,341.05",
		width=0.75];
	5 -- 253	[pos="1071.5,464.02 1046.5,437.43 995.36,383.08 970.3,356.44"];
	127	[height=0.5,
		pos="922.43,288.55",
		width=0.75];
	5 -- 127	[pos="1072.3,463.41 1041.4,427.4 966.64,340.14 935.93,304.31"];
	230	[height=0.5,
		pos="1023.3,339.9",
		width=0.75];
	5 -- 230	[pos="1078.1,461.97 1066.1,435.25 1043.3,384.35 1031.2,357.5"];
	109	[height=0.5,
		pos="990.42,295.89",
		width=0.75];
	5 -- 109	[pos="1076.9,462.09 1058.7,427.03 1017.5,347.87 999.31,312.97"];
	238	[height=0.5,
		pos="963.21,244.46",
		width=0.75];
	5 -- 238	[pos="1076.9,462.08 1054.2,418.64 994.96,305.22 972.25,261.76"];
	204 -- 253	[pos="916.96,374.59 923.98,368.52 932.15,361.48 939.17,355.41"];
	7 -- 19	[pos="1350.8,607.69 1324.8,581.93 1272.3,529.82 1246.2,503.96"];
	7 -- 9	[pos="1369.8,604.77 1377.7,566.83 1396,479.15 1403.8,441.37"];
	7 -- 157	[pos="1366.4,641.01 1366.7,662.51 1367.3,698.07 1367.6,719.53"];
	7 -- 144	[pos="1339,622.48 1318,622.22 1289.1,621.86 1268.2,621.6"];
	25	[height=0.5,
		pos="1537.7,535.37",
		width=0.75];
	7 -- 25	[pos="1387.8,611.74 1420.8,594.92 1483.3,563.12 1516.2,546.35"];
	30	[height=0.5,
		pos="1715.8,633.64",
		width=0.75];
	7 -- 30	[pos="1393.2,623.65 1458.4,625.67 1623,630.77 1688.4,632.79"];
	7 -- 33	[pos="1392.6,626.9 1419.2,630.99 1459.8,637.24 1486.3,641.32"];
	96	[height=0.5,
		pos="1653.7,608.03",
		width=0.75];
	7 -- 96	[pos="1393.1,621.42 1447.9,618.6 1571.5,612.25 1626.5,609.42"];
	263	[height=0.5,
		pos="1562,737.28",
		width=0.75];
	7 -- 263	[pos="1386.7,634.85 1424.4,656.89 1504.2,703.49 1541.7,725.41"];
	7 -- 237	[pos="1342.8,632.1 1323.8,639.66 1297.1,650.29 1278.2,657.84"];
	212	[height=0.5,
		pos="1591.5,625.69",
		width=0.75];
	7 -- 212	[pos="1393.3,623.16 1436.6,623.71 1520.8,624.78 1564.2,625.34"];
	7 -- 53	[pos="1380.9,637.93 1396.9,654.32 1422.4,680.33 1438.4,696.75"];
	101	[height=0.5,
		pos="1653.7,674.69",
		width=0.75];
	7 -- 101	[pos="1392.4,627.55 1447.1,637.43 1573,660.12 1627.6,669.98"];
	7 -- 104	[pos="1351.4,638.13 1335.5,654.74 1310.3,681.09 1294.4,697.73"];
	277	[height=0.5,
		pos="1586.7,670.37",
		width=0.75];
	7 -- 277	[pos="1391.8,628.36 1434.2,637.5 1518.2,655.62 1560.8,664.78"];
	132	[height=0.5,
		pos="1572,581.66",
		width=0.75];
	7 -- 132	[pos="1392.1,617.6 1431.7,609.68 1506.6,594.72 1546.1,586.83"];
	145	[height=0.5,
		pos="1500,756.49",
		width=0.75];
	7 -- 145	[pos="1381.2,637.89 1406.9,663.56 1458.9,715.49 1484.8,741.27"];
	7 -- 197	[pos="1359.5,640.5 1356.5,648.54 1352.9,658.04 1349.9,666.1"];
	257	[height=0.5,
		pos="1624.1,718.72",
		width=0.75];
	7 -- 257	[pos="1389.9,631.66 1439,649.93 1551.2,691.64 1600.3,709.89"];
	12 -- 151	[pos="572.23,819.63 575.5,781.57 583.04,693.73 586.32,655.57"];
	12 -- 138	[pos="592.19,848.84 612.64,859.35 643.23,875.07 663.65,885.57"];
	12 -- 16	[pos="555.97,822.31 511.23,775.26 377.07,634.18 332.27,587.07"];
	28	[height=0.5,
		pos="419.86,815.91",
		width=0.75];
	12 -- 28	[pos="544.06,833.92 516.58,829.93 473.94,823.75 446.46,819.77"];
	181	[height=0.5,
		pos="336.88,749.94",
		width=0.75];
	12 -- 181	[pos="546.97,828.87 502.16,812.04 405.51,775.72 360.65,758.87"];
	12 -- 283	[pos="597.35,834.48 634.55,829.9 701.62,821.62 738.82,817.04"];
	12 -- 49	[pos="585,853.18 588.97,857.44 593.28,862.07 597.25,866.34"];
	67	[height=0.5,
		pos="403.28,945.15",
		width=0.75];
	12 -- 67	[pos="551.14,850.3 518.98,870.94 455.2,911.85 422.94,932.54"];
	64	[height=0.5,
		pos="434.47,990.24",
		width=0.75];
	12 -- 64	[pos="556.61,853.52 530.51,882.73 474.85,945.03 448.66,974.35"];
	136	[height=0.5,
		pos="558.56,966.88",
		width=0.75];
	12 -- 136	[pos="568.96,856 566.65,880.6 562.56,924.19 560.26,948.75"];
	185	[height=0.5,
		pos="463.59,899.92",
		width=0.75];
	12 -- 185	[pos="550.28,849.61 531.35,860.6 503.3,876.88 484.28,887.92"];
	118	[height=0.5,
		pos="304,987.66",
		width=0.75];
	12 -- 118	[pos="549.75,849.54 499.9,877.55 374.58,947.99 324.83,975.95"];
	73	[height=0.5,
		pos="372.43,1002",
		width=0.75];
	12 -- 73	[pos="553.43,852.07 515.84,883.21 426.91,956.89 389.49,987.89"];
	218	[height=0.5,
		pos="386.18,1046.1",
		width=0.75];
	12 -- 218	[pos="556.81,853.44 522.53,892.15 434.14,991.98 399.96,1030.6"];
	288	[height=0.5,
		pos="605.89,1012.3",
		width=0.75];
	12 -- 288	[pos="574.31,855.8 581.08,889.34 595.52,960.95 602.28,994.42"];
	216	[height=0.5,
		pos="496.5,998.02",
		width=0.75];
	12 -- 216	[pos="562.6,855.23 548.33,886.05 518.83,949.78 504.57,980.59"];
	286	[height=0.5,
		pos="336.08,886.06",
		width=0.75];
	12 -- 286	[pos="544.67,843.13 499.58,852.41 407.37,871.39 362.2,880.68"];
	19 -- 229	[pos="1216,503.87 1204.1,516.03 1187.5,532.99 1175.7,545.14"];
	19 -- 144	[pos="1232.2,506.84 1234.2,532.09 1237.7,577.55 1239.7,602.91"];
	19 -- 22	[pos="1218.9,472.5 1191.9,436.03 1126.7,347.78 1099.6,311.23"];
	150	[height=0.5,
		pos="1214.8,369.7",
		width=0.75];
	19 -- 150	[pos="1228.4,470.61 1225.4,448.25 1220.3,410.38 1217.3,387.94"];
	52	[height=0.5,
		pos="1276.9,334.96",
		width=0.75];
	19 -- 52	[pos="1236.2,470.75 1245.1,441.13 1262.7,382.32 1271.6,352.78"];
	251	[height=0.5,
		pos="1321.4,379.71",
		width=0.75];
	19 -- 251	[pos="1244.2,472.6 1261.4,451.88 1291.1,416.08 1308.2,395.5"];
	248	[height=0.5,
		pos="1148,380.92",
		width=0.75];
	19 -- 248	[pos="1218.3,472.32 1202.6,451.94 1176,417.37 1160.4,397.09"];
	245	[height=0.5,
		pos="1345.5,426.83",
		width=0.75];
	19 -- 245	[pos="1251.9,477.34 1272.4,466.25 1303.6,449.45 1324.2,438.31"];
	19 -- 193	[pos="1224.6,506.29 1214.6,534.34 1195.3,588.88 1185.3,616.97"];
	164	[height=0.5,
		pos="1338.9,318.38",
		width=0.75];
	19 -- 164	[pos="1241.4,472.04 1262.1,439.49 1307.6,367.7 1328.3,335.09"];
	171	[height=0.5,
		pos="1259.3,413.75",
		width=0.75];
	19 -- 171	[pos="1237.6,470.92 1242.1,458.98 1248.1,443.3 1252.6,431.38"];
	276	[height=0.5,
		pos="1197.3,424.96",
		width=0.75];
	19 -- 276	[pos="1221.8,471.61 1217,462.46 1211.1,451.23 1206.3,442.08"];
	270	[height=0.5,
		pos="1361.3,515.7",
		width=0.75];
	19 -- 270	[pos="1256.9,494.09 1279.7,498.8 1312.5,505.6 1335.3,510.31"];
	198 -- 215	[pos="1388.4,559.97 1394.3,558.11 1400.5,556.12 1406.4,554.25"];
	198 -- 273	[pos="1370.2,550.06 1376.7,532.56 1386.4,506.01 1392.8,488.55"];
	167 -- 233	[pos="909.95,539.46 911.86,542.76 913.85,546.22 915.76,549.52"];
	8 -- 19	[pos="1156,446.9 1171.9,455.79 1193.8,468.02 1209.8,476.94"];
	8 -- 229	[pos="1138.9,453.23 1143.8,476.99 1152.3,518.69 1157.2,542.43"];
	8 -- 22	[pos="1129.2,417.55 1120,390.55 1102.7,339.5 1093.6,312.59"];
	8 -- 150	[pos="1152.5,421.09 1165.9,410.08 1184.3,394.91 1197.6,383.91"];
	8 -- 230	[pos="1118.2,420.83 1097.1,402.8 1061.2,372.18 1040.1,354.22"];
	8 -- 248	[pos="1139.4,417.51 1140.8,411.56 1142.4,404.93 1143.8,398.96"];
	9 -- 66	[pos="1390.4,409.49 1357.3,382.46 1285.1,323.49 1252,296.51"];
	14	[height=0.5,
		pos="1469.6,403.3",
		width=0.75];
	9 -- 14	[pos="1432.1,415.53 1436.4,414.12 1440.9,412.65 1445.2,411.24"];
	43	[height=0.5,
		pos="1558.4,311.55",
		width=0.75];
	9 -- 43	[pos="1425.7,410.01 1454.7,388.49 1511.1,346.65 1540.2,325.1"];
	9 -- 25	[pos="1424.3,437.91 1449.3,459.39 1496.1,499.59 1521,521.03"];
	9 -- 27	[pos="1382.3,416.89 1322.1,401.1 1170.8,361.4 1110.7,345.64"];
	9 -- 98	[pos="1380.5,422.15 1317.8,418.99 1163.4,411.21 1100.6,408.03"];
	9 -- 131	[pos="1393.3,407.87 1361.1,372.51 1283,286.82 1250.9,251.63"];
	81	[height=0.5,
		pos="1434.3,359.29",
		width=0.75];
	9 -- 81	[pos="1414.9,405.97 1418.7,396.91 1423.3,385.88 1427,376.82"];
	50	[height=0.5,
		pos="1526.2,447.31",
		width=0.75];
	9 -- 50	[pos="1433.6,428.74 1453.4,432.71 1480.5,438.14 1500.2,442.1"];
	190	[height=0.5,
		pos="1496.4,344.08",
		width=0.75];
	9 -- 190	[pos="1423.8,408.95 1439.9,394.62 1464.2,372.86 1480.2,358.56"];
	77	[height=0.5,
		pos="1405.2,273.62",
		width=0.75];
	9 -- 77	[pos="1407.3,405.44 1406.8,376.63 1405.9,320.61 1405.5,291.76"];
	228	[height=0.5,
		pos="1326.8,185.52",
		width=0.75];
	9 -- 228	[pos="1401.5,405.63 1386.5,361.42 1347.8,247.38 1332.8,203.29"];
	82	[height=0.5,
		pos="1433.5,185.05",
		width=0.75];
	9 -- 82	[pos="1409.5,405.2 1414.4,360.7 1426.7,247.32 1431.5,203.1"];
	281	[height=0.5,
		pos="1528.6,169.62",
		width=0.75];
	9 -- 281	[pos="1415.9,406.07 1438,359.57 1498.4,233.11 1520.4,186.86"];
	121	[height=0.5,
		pos="1497.9,219.91",
		width=0.75];
	9 -- 121	[pos="1415.2,406.16 1432.3,367.69 1473.1,275.65 1490.2,237.22"];
	227	[height=0.5,
		pos="1555.7,267.54",
		width=0.75];
	9 -- 227	[pos="1422,408.28 1450.3,378.54 1512.5,313.05 1541,283.07"];
	221	[height=0.5,
		pos="1471.7,288.3",
		width=0.75];
	9 -- 221	[pos="1415.8,406.12 1428.1,380.16 1451.2,331.56 1463.5,305.64"];
	9 -- 273	[pos="1404.4,441.42 1403.8,445.2 1403.1,449.18 1402.4,452.95"];
	265	[height=0.5,
		pos="1371.7,229.54",
		width=0.75];
	9 -- 265	[pos="1404.2,405.62 1397.4,368.76 1381.9,284.74 1375.1,247.68"];
	55	[height=0.5,
		pos="930.72,178.69",
		width=0.75];
	44 -- 55	[pos="1007.5,238.09 990.57,225.01 965.3,205.45 948.42,192.39"];
	44 -- 127	[pos="1001.4,260.36 984.92,266.25 963.05,274.05 946.5,279.95"];
	44 -- 109	[pos="1012.5,268 1009.5,271.83 1006.2,275.91 1003.2,279.74"];
	44 -- 238	[pos="998.59,248.67 995.7,248.33 992.75,247.98 989.86,247.63"];
	162	[height=0.5,
		pos="992.76,200.43",
		width=0.75];
	44 -- 162	[pos="1014.6,235.01 1011,229.27 1006.9,222.86 1003.3,217.13"];
	37 -- 204	[pos="927.93,417.97 923.72,413.55 919.14,408.74 914.94,404.33"];
	37 -- 255	[pos="955.59,449.45 976.23,475.06 1016.7,525.24 1037.5,551.1"];
	37 -- 253	[pos="945.37,415.29 947.66,398.97 951.01,375.19 953.29,358.97"];
	11 -- 113	[pos="596.48,685.76 614.27,688.76 637.72,692.72 655.56,695.72"];
	11 -- 21	[pos="560.67,664.48 535.55,620.42 468.18,502.28 443.07,458.24"];
	11 -- 16	[pos="547.42,671.41 499.29,650.51 388.09,602.21 340.17,581.4"];
	93	[height=0.5,
		pos="285.45,661.9",
		width=0.75];
	11 -- 93	[pos="543.24,679.5 488.8,675.79 366.61,667.44 312.32,663.73"];
	249	[height=0.5,
		pos="460.96,769.96",
		width=0.75];
	11 -- 249	[pos="552.73,695.59 532.2,712.22 498.47,739.56 478.12,756.05"];
	108	[height=0.5,
		pos="444.05,537.99",
		width=0.75];
	11 -- 108	[pos="556.54,665.74 532.26,638.16 482.06,581.15 457.78,553.58"];
	159	[height=0.5,
		pos="409.58,682.84",
		width=0.75];
	11 -- 159	[pos="543.03,681.6 513.39,681.88 466.3,682.32 436.71,682.59"];
	24	[height=0.5,
		pos="506.11,533.67",
		width=0.75];
	11 -- 24	[pos="562.68,663.83 550.33,635.41 526.06,579.57 513.72,551.17"];
	11 -- 123	[pos="573.14,663.05 576.24,643.1 581.17,611.37 584.25,591.52"];
	11 -- 40	[pos="580.12,664.43 595.22,638.42 623.99,588.87 639.17,562.73"];
	11 -- 39	[pos="596.85,677.41 628.77,672.68 682.03,664.78 713.87,660.05"];
	11 -- 84	[pos="576.31,663.74 591.16,620.32 629.38,508.51 644.29,464.88"];
	11 -- 111	[pos="577.48,663.82 592.31,627.65 626.16,545.07 640.97,508.92"];
	11 -- 28	[pos="553.91,696.01 524.97,721.89 465.15,775.4 436.22,801.27"];
	11 -- 31	[pos="589.08,694.39 614,711.7 657.74,742.07 682.65,759.37"];
	173	[height=0.5,
		pos="347.55,641.09",
		width=0.75];
	11 -- 173	[pos="543.87,676.57 501,668.83 416.79,653.6 373.94,645.86"];
	70	[height=0.5,
		pos="653.68,603.05",
		width=0.75];
	11 -- 70	[pos="585.98,666.62 600.79,652.71 622.9,631.96 637.78,617.98"];
	115	[height=0.5,
		pos="524.99,585.07",
		width=0.75];
	11 -- 115	[pos="562.19,664.14 554,646.72 541.4,619.94 533.17,602.46"];
	63	[height=0.5,
		pos="482.92,843.5",
		width=0.75];
	11 -- 63	[pos="561.11,698.4 544.37,729.46 509.09,794.94 492.25,826.19"];
	11 -- 242	[pos="577.94,698.66 589.92,725.76 612.96,777.91 624.97,805.09"];
	211	[height=0.5,
		pos="656.04,656.13",
		width=0.75];
	11 -- 211	[pos="595.09,674.06 606.47,670.71 619.92,666.75 631.29,663.41"];
	220	[height=0.5,
		pos="379.61,597.07",
		width=0.75];
	11 -- 220	[pos="547.67,671.35 510.97,655.13 438.88,623.27 402.2,607.06"];
	156	[height=0.5,
		pos="586.08,469.44",
		width=0.75];
	11 -- 156	[pos="571.64,663.28 574.62,623.25 581.76,527.45 584.74,487.46"];
	11 -- 188	[pos="586.23,666.59 613.86,640.99 670.36,588.65 698.04,563"];
	128	[height=0.5,
		pos="568.19,522.45",
		width=0.75];
	11 -- 128	[pos="570.05,663.12 569.65,632.47 568.83,570.97 568.43,540.47"];
	11 -- 125	[pos="590.52,669.37 618.15,653 667.44,623.8 695.23,607.34"];
	287	[height=0.5,
		pos="476.86,629.09",
		width=0.75];
	11 -- 287	[pos="549.56,669.75 534.18,661.15 513.3,649.47 497.86,640.84"];
	239	[height=0.5,
		pos="560.53,423.39",
		width=0.75];
	11 -- 239	[pos="569.61,663.21 567.82,615.85 563.01,488.85 561.22,441.51"];
	186	[height=0.5,
		pos="441.65,582.02",
		width=0.75];
	11 -- 186	[pos="552.41,667.54 527.83,648.56 483.88,614.63 459.38,595.71"];
	274	[height=0.5,
		pos="477.9,673.12",
		width=0.75];
	11 -- 274	[pos="543.07,678.93 531.04,677.86 516.94,676.6 504.93,675.53"];
	292	[height=0.5,
		pos="522.97,793.76",
		width=0.75];
	11 -- 292	[pos="562.9,698.91 554.01,720.03 539.18,755.25 530.31,776.32"];
	271	[height=0.5,
		pos="398.9,771.87",
		width=0.75];
	11 -- 271	[pos="548.93,692.63 516,710.03 453.2,743.2 420.26,760.59"];
	272	[height=0.5,
		pos="331.56,705.91",
		width=0.75];
	11 -- 272	[pos="543.37,684.12 497.4,688.85 404.29,698.43 358.39,703.15"];
	35 -- 68	[pos="861.11,592.58 856.02,568.63 847.08,526.58 841.99,502.64"];
	138 -- 283	[pos="699.82,881.39 714.24,866.53 736.08,844.04 750.56,829.12"];
	138 -- 288	[pos="673.73,913.17 658.68,935.17 632.26,973.8 617.22,995.79"];
	157 -- 177	[pos="1377.3,720.71 1383.3,709.87 1391.1,695.85 1397.1,684.95"];
	157 -- 197	[pos="1359.9,720.36 1357.1,714.23 1354,707.33 1351.2,701.2"];
	21 -- 108	[pos="435.45,459.55 437.34,476.82 440.18,502.65 442.07,519.9"];
	74	[height=0.5,
		pos="358.66,378.1",
		width=0.75];
	21 -- 74	[pos="416.48,427.02 404.24,416.67 387.79,402.75 375.56,392.41"];
	51	[height=0.5,
		pos="249.17,474.28",
		width=0.75];
	21 -- 51	[pos="407.05,446.1 372.02,452.35 310.53,463.33 275.52,469.57"];
	219	[height=0.5,
		pos="371.33,447.69",
		width=0.75];
	21 -- 219	[pos="406.75,444.09 403.99,444.37 401.18,444.66 398.41,444.94"];
	21 -- 80	[pos="454.38,429.72 474.28,418.63 504.03,402.05 523.89,390.98"];
	295	[height=0.5,
		pos="420.66,355.74",
		width=0.75];
	21 -- 295	[pos="430.74,423.22 428.57,408.69 425.54,388.4 423.37,373.87"];
	117	[height=0.5,
		pos="518.4,335.32",
		width=0.75];
	21 -- 117	[pos="446.36,425.28 462.42,405.22 489.67,371.19 505.66,351.23"];
	105	[height=0.5,
		pos="323.33,510.11",
		width=0.75];
	21 -- 105	[pos="413.51,453.83 393.56,466.28 363.03,485.33 343.13,497.76"];
	21 -- 220	[pos="427.38,458.94 417.04,488.84 396.12,549.32 385.74,579.34"];
	21 -- 134	[pos="459.06,434.89 501.34,424.17 585.27,402.88 627.44,392.19"];
	13 -- 15	[pos="1259,928.59 1274.4,906.21 1301.9,866.28 1317.4,843.77"];
	13 -- 120	[pos="1242,927.13 1233.8,901.88 1218.8,855.99 1210.6,830.66"];
	13 -- 17	[pos="1224.3,954.06 1184.2,969.57 1103.1,1001 1063.1,1016.5"];
	34	[height=0.5,
		pos="1152.4,1148.5",
		width=0.75];
	13 -- 34	[pos="1239.6,962.33 1221.6,1000.8 1178.5,1092.7 1160.5,1131.1"];
	91	[height=0.5,
		pos="1269.9,989.1",
		width=0.75];
	13 -- 91	[pos="1256.4,962.16 1258,965.36 1259.7,968.69 1261.3,971.89"];
	85	[height=0.5,
		pos="1220.6,1121.7",
		width=0.75];
	13 -- 85	[pos="1245,962.9 1239.8,996.78 1228.6,1069.9 1223.3,1103.8"];
	13 -- 38	[pos="1231.4,959.36 1214.8,973.91 1189.2,996.29 1172.5,1010.9"];
	48	[height=0.5,
		pos="1161.4,1070.5",
		width=0.75];
	13 -- 48	[pos="1236.5,961.38 1219.9,985.43 1189.2,1030 1172.7,1054"];
	13 -- 106	[pos="1222.1,950.68 1196.1,956.46 1156.2,965.33 1130.2,971.13"];
	129	[height=0.5,
		pos="1334.4,944.59",
		width=0.75];
	13 -- 129	[pos="1275.2,944.86 1285.4,944.81 1297,944.76 1307.2,944.71"];
	62	[height=0.5,
		pos="1286.2,1135.9",
		width=0.75];
	13 -- 62	[pos="1251.4,962.93 1258.7,999.32 1275.2,1081.4 1282.5,1117.8"];
	189	[height=0.5,
		pos="1394.3,1059.8",
		width=0.75];
	13 -- 189	[pos="1265.5,958.83 1293.6,980.89 1348.4,1023.8 1376.6,1045.9"];
	83	[height=0.5,
		pos="1458,1012.8",
		width=0.75];
	13 -- 83	[pos="1272.3,952.89 1312.8,965.96 1393.2,991.9 1433.6,1004.9"];
	165	[height=0.5,
		pos="1507.3,967.68",
		width=0.75];
	13 -- 165	[pos="1274.6,947.32 1324.3,951.67 1430.3,960.95 1480.3,965.32"];
	103	[height=0.5,
		pos="1260.2,1077.3",
		width=0.75];
	13 -- 103	[pos="1249.5,963.11 1251.8,988.31 1256.1,1033.7 1258.5,1059"];
	214	[height=0.5,
		pos="1419.3,1104.6",
		width=0.75];
	13 -- 214	[pos="1263.6,959.71 1296.3,990.13 1370.9,1059.6 1403.5,1089.9"];
	223	[height=0.5,
		pos="1394,1003.2",
		width=0.75];
	13 -- 223	[pos="1271.3,954.33 1298.6,965.2 1343.3,983.03 1370.6,993.88"];
	142	[height=0.5,
		pos="1352.1,1149.8",
		width=0.75];
	13 -- 142	[pos="1256.5,962.09 1276.1,1000.6 1323.7,1093.9 1343.4,1132.6"];
	119	[height=0.5,
		pos="1322.2,1091.7",
		width=0.75];
	13 -- 119	[pos="1256.5,962.09 1270.7,990.21 1299,1045.9 1313.3,1074.2"];
	122	[height=0.5,
		pos="1332,1032.6",
		width=0.75];
	13 -- 122	[pos="1262.4,960.25 1277.8,976.24 1301.8,1001.2 1317.2,1017.2"];
	222	[height=0.5,
		pos="1443.5,958.01",
		width=0.75];
	13 -- 222	[pos="1275,946.79 1312.4,949.28 1379.3,953.73 1416.5,956.21"];
	192	[height=0.5,
		pos="1228.3,1033.2",
		width=0.75];
	13 -- 192	[pos="1243.8,962.83 1240.5,978.13 1235.6,1000.1 1232.2,1015.4"];
	15 -- 18	[pos="1354.4,833.02 1384.5,839.95 1434.3,851.39 1464.4,858.34"];
	15 -- 194	[pos="1355.8,826.76 1369.2,826.57 1385.3,826.34 1398.6,826.15"];
	15 -- 94	[pos="1350.5,816.29 1367.6,807.75 1391.2,795.91 1408.3,787.38"];
	15 -- 58	[pos="1331.4,845.18 1332.1,849.66 1332.8,854.45 1333.4,858.93"];
	15 -- 129	[pos="1329.7,845.23 1330.7,867.24 1332.5,904.18 1333.6,926.28"];
	15 -- 224	[pos="1316.3,843.49 1306.9,855.79 1294.1,872.55 1284.7,884.77"];
	15 -- 72	[pos="1341.8,811.25 1345.4,806.85 1349.3,802.07 1352.9,797.66"];
	15 -- 213	[pos="1349.5,839.02 1359.7,844.93 1372.1,852.06 1382.4,857.96"];
	14 -- 43	[pos="1484.3,388.15 1500.7,371.15 1527.3,343.73 1543.7,326.72"];
	14 -- 46	[pos="1475.1,421.12 1479.8,436.39 1486.5,458.28 1491.2,473.55"];
	14 -- 81	[pos="1456.9,387.41 1453.7,383.47 1450.3,379.25 1447.2,375.3"];
	114	[height=0.5,
		pos="1679.8,237.2",
		width=0.75];
	14 -- 114	[pos="1487.1,389.43 1526.7,358.16 1622.5,282.49 1662.1,251.15"];
	14 -- 227	[pos="1480.1,386.66 1496.7,360.6 1528.5,310.46 1545.1,284.32"];
	147	[height=0.5,
		pos="1622.1,301.56",
		width=0.75];
	14 -- 147	[pos="1488.9,390.42 1518.2,370.85 1573.7,333.85 1602.9,314.35"];
	284	[height=0.5,
		pos="1637.3,368.68",
		width=0.75];
	14 -- 284	[pos="1495.4,397.97 1526.9,391.46 1579.9,380.53 1611.5,374.02"];
	182	[height=0.5,
		pos="1617.8,228.03",
		width=0.75];
	14 -- 182	[pos="1483,387.44 1511.2,354.07 1576.4,276.96 1604.5,243.74"];
	14 -- 215	[pos="1464.8,421.14 1457.4,448.55 1443.3,500.77 1435.9,528.33"];
	14 -- 273	[pos="1454,418.3 1442.3,429.5 1426.5,444.73 1414.9,455.92"];
	18 -- 194	[pos="1469.8,852.07 1462.3,847.58 1453.8,842.49 1446.3,838"];
	18 -- 213	[pos="1463,865.97 1452.5,866.63 1440.5,867.39 1430,868.06"];
	43 -- 46	[pos="1552.4,329.11 1540.6,363.48 1514.6,439.27 1502.8,473.7"];
	141	[height=0.5,
		pos="1747,283.45",
		width=0.75];
	43 -- 141	[pos="1585.1,307.58 1621,302.23 1684.7,292.74 1720.6,287.4"];
	43 -- 81	[pos="1534.8,320.64 1512.7,329.13 1479.9,341.75 1457.9,350.23"];
	43 -- 50	[pos="1554.2,329.57 1548,355.54 1536.7,403.2 1530.5,429.21"];
	252	[height=0.5,
		pos="1600.8,469.11",
		width=0.75];
	43 -- 252	[pos="1563.2,329.31 1571.4,359.58 1587.8,420.79 1596,451.17"];
	43 -- 190	[pos="1537.1,322.74 1530.9,325.98 1524.2,329.51 1518,332.75"];
	60	[height=0.5,
		pos="1642.9,418.62",
		width=0.75];
	43 -- 60	[pos="1571.3,327.81 1587.2,348.05 1614.3,382.4 1630.2,402.55"];
	43 -- 77	[pos="1532.8,305.2 1504.4,298.17 1459,286.93 1430.7,279.92"];
	43 -- 114	[pos="1578.5,299.27 1601,285.49 1637.2,263.28 1659.7,249.49"];
	43 -- 82	[pos="1543.1,296.03 1519,271.62 1472.5,224.53 1448.5,200.29"];
	43 -- 281	[pos="1554.7,293.57 1548.9,266.27 1538.1,214.66 1532.4,187.45"];
	43 -- 121	[pos="1547.3,294.74 1536.4,278.2 1519.8,253.11 1508.9,236.61"];
	293	[height=0.5,
		pos="1731,193.18",
		width=0.75];
	43 -- 293	[pos="1577.6,298.43 1610.8,275.61 1678.9,228.91 1712.1,206.18"];
	43 -- 227	[pos="1557.3,293.39 1557.2,290.83 1557,288.2 1556.8,285.65"];
	172	[height=0.5,
		pos="1684.4,286.29",
		width=0.75];
	43 -- 172	[pos="1584.5,306.31 1606.2,301.98 1636.7,295.85 1658.3,291.52"];
	43 -- 147	[pos="1585.1,307.37 1588.6,306.81 1592.2,306.25 1595.8,305.69"];
	168	[height=0.5,
		pos="1764.7,331.47",
		width=0.75];
	43 -- 168	[pos="1585.4,314.15 1624.9,317.97 1698.2,325.05 1737.8,328.87"];
	148	[height=0.5,
		pos="1707.9,432.74",
		width=0.75];
	43 -- 148	[pos="1575.9,325.69 1604.7,349.04 1661.8,395.4 1690.6,418.69"];
	260	[height=0.5,
		pos="1705,377.92",
		width=0.75];
	43 -- 260	[pos="1581,321.77 1608.6,334.28 1655.1,355.33 1682.6,367.79"];
	43 -- 182	[pos="1570.2,295.05 1580.6,280.41 1595.7,259.13 1606.1,244.5"];
	43 -- 221	[pos="1533.4,304.82 1521.9,301.77 1508.5,298.15 1497,295.09"];
	43 -- 265	[pos="1535.5,301.49 1499.6,285.71 1430.4,255.3 1394.5,239.55"];
	290	[height=0.5,
		pos="1596.2,128.27",
		width=0.75];
	43 -- 290	[pos="1562.1,293.64 1569.3,258.6 1585.3,181.35 1592.5,146.25"];
	16 -- 151	[pos="342.96,577.75 394.49,590.29 510.68,618.55 562.32,631.11"];
	16 -- 21	[pos="331.51,555.86 353.79,530.84 397.11,482.2 419.42,457.14"];
	16 -- 93	[pos="311.19,589.41 305.57,605.25 297.39,628.26 291.77,644.09"];
	16 -- 74	[pos="321.32,553.71 329.14,516.95 346.95,433.16 354.81,396.2"];
	16 -- 28	[pos="324.89,589.14 343.77,634.22 393.76,753.59 412.57,798.5"];
	16 -- 181	[pos="319.49,589.65 323.2,623.84 331.2,697.58 334.91,731.81"];
	16 -- 173	[pos="325.1,589.11 329.62,599.57 335.34,612.81 339.87,623.31"];
	16 -- 51	[pos="305.93,555.06 293.36,537.17 273.41,508.78 260.82,490.86"];
	16 -- 219	[pos="325.12,554.08 335.38,530.47 353.54,488.65 363.78,465.08"];
	16 -- 80	[pos="334.6,557.12 376.81,521.41 485.67,429.32 527.76,393.72"];
	163	[height=0.5,
		pos="252.57,564.37",
		width=0.75];
	16 -- 163	[pos="290.73,568.6 286.96,568.18 283.08,567.75 279.31,567.33"];
	76	[height=0.5,
		pos="234.6,375.12",
		width=0.75];
	16 -- 76	[pos="310.17,554.13 294.43,516.86 257.67,429.76 241.94,392.52"];
	102	[height=0.5,
		pos="182.9,419.15",
		width=0.75];
	16 -- 102	[pos="303.63,555.83 277.83,526.62 222.82,464.34 196.93,435.03"];
	296	[height=0.5,
		pos="233.44,705.99",
		width=0.75];
	16 -- 296	[pos="307.05,588.32 290.93,614.08 260.24,663.14 244.05,689.03"];
	16 -- 105	[pos="319.24,553.46 319.99,545.53 320.86,536.24 321.61,528.3"];
	16 -- 220	[pos="340.64,581.07 345.74,583.16 351.15,585.38 356.26,587.48"];
	231	[height=0.5,
		pos="190.67,520.36",
		width=0.75];
	16 -- 231	[pos="294.26,562.18 271.37,552.94 236.63,538.91 213.79,529.69"];
	226	[height=0.5,
		pos="184.34,610.17",
		width=0.75];
	16 -- 226	[pos="292.48,578.83 268.66,585.73 233.06,596.05 209.28,602.94"];
	180	[height=0.5,
		pos="175.45,475.84",
		width=0.75];
	16 -- 180	[pos="298.37,558.66 271.25,540.39 221.96,507.17 194.76,488.85"];
	254	[height=0.5,
		pos="296.6,402.95",
		width=0.75];
	16 -- 254	[pos="315.29,553.52 311.27,521.15 302.89,453.58 298.86,421.12"];
	264	[height=0.5,
		pos="205.78,655.86",
		width=0.75];
	16 -- 264	[pos="299.57,585.11 278.72,600.84 244.52,626.63 223.69,642.35"];
	240	[height=0.5,
		pos="267.87,615.88",
		width=0.75];
	16 -- 240	[pos="301.27,586.08 295.84,590.92 289.78,596.33 284.33,601.19"];
	16 -- 272	[pos="319.42,589.68 322.1,615.32 326.97,661.93 329.66,687.65"];
	93 -- 173	[pos="309.64,653.79 314.13,652.29 318.83,650.71 323.33,649.21"];
	93 -- 296	[pos="268.71,676.09 262.77,681.13 256.09,686.79 250.15,691.82"];
	93 -- 272	[pos="301.06,676.8 305.87,681.39 311.16,686.44 315.97,691.02"];
	152 -- 161	[pos="1123.6,906.83 1106.1,913.3 1082.3,922.1 1064.7,928.61"];
	17 -- 201	[pos="1015.4,1017.4 996.01,1010.9 968.93,1001.8 949.53,995.25"];
	17 -- 34	[pos="1053.9,1041.1 1075.6,1064.7 1116.6,1109.4 1138.2,1133"];
	41	[height=0.5,
		pos="1074.7,1069.5",
		width=0.75];
	17 -- 41	[pos="1052.5,1041.6 1055.5,1045.5 1058.8,1049.5 1061.8,1053.4"];
	17 -- 48	[pos="1063.4,1034.3 1084.9,1042.2 1116.3,1053.8 1137.7,1061.7"];
	56	[height=0.5,
		pos="903.78,1076.5",
		width=0.75];
	17 -- 56	[pos="1016,1034.4 991.21,1043.7 952.49,1058.2 927.64,1067.5"];
	17 -- 106	[pos="1057.7,1012 1066.5,1005.3 1077,997.36 1085.9,990.7"];
	17 -- 95	[pos="1012.5,1026.9 995.25,1027.8 973.04,1028.9 955.8,1029.8"];
	203	[height=0.5,
		pos="755.56,1031.1",
		width=0.75];
	17 -- 203	[pos="1012.4,1026 958.12,1027.1 836.96,1029.5 782.72,1030.6"];
	110	[height=0.5,
		pos="841.77,1065.1",
		width=0.75];
	17 -- 110	[pos="1013.8,1030.7 975.87,1038.3 905.58,1052.3 867.65,1059.9"];
	135	[height=0.5,
		pos="820.6,1021",
		width=0.75];
	17 -- 135	[pos="1012.4,1024.9 970.27,1024.1 890,1022.4 847.9,1021.6"];
	34 -- 85	[pos="1175.8,1139.3 1182.8,1136.5 1190.4,1133.6 1197.3,1130.9"];
	34 -- 38	[pos="1152.9,1130.3 1153.6,1107 1154.8,1067 1155.4,1043.7"];
	34 -- 41	[pos="1137.4,1133.2 1123.6,1119.3 1103.4,1098.6 1089.6,1084.7"];
	139	[height=0.5,
		pos="1198.9,1236.5",
		width=0.75];
	34 -- 139	[pos="1161.6,1165.8 1169.8,1181.4 1181.7,1204 1189.9,1219.4"];
	34 -- 48	[pos="1154.5,1130.4 1155.9,1117.8 1157.9,1101 1159.3,1088.4"];
	34 -- 56	[pos="1127.2,1141.2 1079.4,1127.3 976.22,1097.5 928.68,1083.7"];
	61	[height=0.5,
		pos="1201,1192.5",
		width=0.75];
	34 -- 61	[pos="1168.6,1163.1 1173.8,1167.8 1179.5,1173 1184.7,1177.7"];
	75	[height=0.5,
		pos="1090.4,1113.5",
		width=0.75];
	34 -- 75	[pos="1131.7,1136.8 1125.1,1133.1 1117.8,1129 1111.1,1125.2"];
	184	[height=0.5,
		pos="1033.5,1157.6",
		width=0.75];
	34 -- 184	[pos="1125.4,1150.5 1106,1152 1079.8,1154 1060.4,1155.5"];
	92	[height=0.5,
		pos="1295,1224.2",
		width=0.75];
	34 -- 92	[pos="1173.7,1159.8 1200.6,1174.1 1246.6,1198.5 1273.5,1212.8"];
	34 -- 142	[pos="1179.7,1148.6 1218,1148.9 1287,1149.4 1325.1,1149.6"];
	34 -- 119	[pos="1176.7,1140.3 1209,1129.5 1265.6,1110.6 1297.9,1099.8"];
	112	[height=0.5,
		pos="1121.5,1195.8",
		width=0.75];
	34 -- 112	[pos="1141.6,1165 1138.6,1169.6 1135.4,1174.6 1132.4,1179.2"];
	206	[height=0.5,
		pos="983.26,1243",
		width=0.75];
	34 -- 206	[pos="1131.6,1160 1099.2,1178.2 1036.7,1213.1 1004.2,1231.3"];
	175	[height=0.5,
		pos="1266.8,1180.1",
		width=0.75];
	34 -- 175	[pos="1177.5,1155.4 1196.6,1160.7 1222.7,1167.9 1241.7,1173.1"];
	154	[height=0.5,
		pos="1174.8,1280.5",
		width=0.75];
	34 -- 154	[pos="1155.5,1166.5 1159.7,1191.7 1167.4,1237 1171.7,1262.2"];
	178	[height=0.5,
		pos="1108.7,1239.9",
		width=0.75];
	34 -- 178	[pos="1144.2,1165.6 1136.4,1181.9 1124.8,1206.1 1117,1222.4"];
	183	[height=0.5,
		pos="1046.7,1244.1",
		width=0.75];
	34 -- 183	[pos="1136.3,1163 1116.5,1181 1082.8,1211.4 1062.9,1229.5"];
	249 -- 292	[pos="484.4,778.96 489.34,780.85 494.55,782.85 499.49,784.75"];
	249 -- 271	[pos="433.92,770.8 431.31,770.88 428.66,770.96 426.04,771.04"];
	91 -- 223	[pos="1296.5,992.13 1317.3,994.49 1346.1,997.77 1367,1000.1"];
	91 -- 122	[pos="1288.5,1002.2 1296.4,1007.7 1305.5,1014.1 1313.4,1019.6"];
	91 -- 192	[pos="1255.3,1004.5 1251.3,1008.8 1246.9,1013.4 1242.9,1017.7"];
	20 -- 79	[pos="1105.8,757.27 1109.8,758.51 1114,759.8 1118,761.04"];
	20 -- 57	[pos="1087.3,731.69 1093.9,713.4 1104.1,685.23 1110.6,667"];
	20 -- 36	[pos="1068.9,766.21 1057.5,781.95 1040.4,805.5 1029,821.22"];
	20 -- 45	[pos="1058.3,759.57 1019.9,776.49 942.16,810.69 903.57,827.67"];
	256	[height=0.5,
		pos="1079.6,859.31",
		width=0.75];
	20 -- 256	[pos="1080.7,767.75 1080.4,788.07 1080.1,820.84 1079.8,841.17"];
	20 -- 59	[pos="1054.5,745.51 1022.8,740.56 970.02,732.3 938.31,727.34"];
	20 -- 69	[pos="1054.2,753.19 1012.4,758.75 931.9,769.46 890.17,775.01"];
	20 -- 196	[pos="1089,766.98 1093.3,776.27 1098.6,787.67 1102.9,796.96"];
	20 -- 88	[pos="1107.8,747.65 1130.2,745.98 1162.2,743.61 1184.8,741.94"];
	199	[height=0.5,
		pos="955.3,881.77",
		width=0.75];
	20 -- 199	[pos="1066.2,765.06 1042,790.52 994,841.06 969.86,866.46"];
	266	[height=0.5,
		pos="1017.4,893.45",
		width=0.75];
	20 -- 266	[pos="1073.2,766.99 1061,794.63 1037.3,848.36 1025.1,876.04"];
	194 -- 213	[pos="1416.9,842.91 1415.2,846.09 1413.5,849.42 1411.8,852.61"];
	108 -- 220	[pos="428.12,552.59 418.28,561.61 405.69,573.16 395.8,582.23"];
	22 -- 44	[pos="1068.6,281.79 1060.8,276.44 1051.9,270.27 1044.2,264.93"];
	22 -- 150	[pos="1108,306.96 1131.8,320.91 1170.7,343.78 1194.4,357.72"];
	22 -- 55	[pos="1069.3,281.39 1039.1,258.98 979.06,214.51 948.9,192.17"];
	22 -- 127	[pos="1060.3,293.9 1029.6,292.7 980.07,290.78 949.47,289.6"];
	22 -- 230	[pos="1068.7,308.2 1060.4,314 1050.6,320.79 1042.3,326.6"];
	22 -- 52	[pos="1113.5,300.43 1149.7,308.07 1214.8,321.84 1251,329.48"];
	22 -- 248	[pos="1099.2,311.53 1109.9,326.75 1125.7,349.19 1136.4,364.4"];
	22 -- 109	[pos="1060.5,295.21 1047.2,295.34 1031.1,295.5 1017.7,295.62"];
	22 -- 238	[pos="1064.5,285.57 1042.3,276.56 1008.9,263.01 986.61,253.96"];
	22 -- 162	[pos="1072.4,279.77 1054.7,262.13 1025.6,233.2 1008,215.58"];
	22 -- 171	[pos="1106.6,308.12 1139.7,331.01 1207.5,377.89 1240.5,400.7"];
	22 -- 276	[pos="1101,310.89 1122.1,335.85 1162.6,383.86 1183.7,408.89"];
	57 -- 210	[pos="1116.4,631.19 1116.3,628.51 1116.2,625.74 1116.1,623.06"];
	74 -- 80	[pos="385.71,378.29 420.99,378.53 482.34,378.94 517.63,379.18"];
	187	[height=0.5,
		pos="202.36,308.56",
		width=0.75];
	74 -- 187	[pos="335.93,367.99 306.21,354.77 254.47,331.74 224.86,318.57"];
	74 -- 76	[pos="331.43,377.45 310.75,376.95 282.43,376.27 261.76,375.78"];
	74 -- 102	[pos="333.1,384.07 299.78,391.85 241.83,405.39 208.49,413.17"];
	74 -- 295	[pos="382.45,369.52 387.1,367.84 391.97,366.09 396.62,364.41"];
	289	[height=0.5,
		pos="223.3,251.07",
		width=0.75];
	74 -- 289	[pos="342.86,363.28 316.78,338.8 265,290.21 238.99,265.8"];
	74 -- 254	[pos="335.2,387.5 330.26,389.48 325.04,391.56 320.1,393.54"];
	267	[height=0.5,
		pos="264.89,297.29",
		width=0.75];
	74 -- 267	[pos="341.89,363.66 324.83,348.95 298.53,326.28 281.51,311.61"];
	159 -- 287	[pos="426.91,669 436.88,661.04 449.36,651.06 459.36,643.07"];
	159 -- 186	[pos="415.32,664.82 421.15,646.46 430.15,618.18 435.97,599.89"];
	159 -- 274	[pos="436.19,679.06 441.14,678.35 446.31,677.62 451.25,676.92"];
	150 -- 248	[pos="1188.4,374.13 1183.8,374.92 1178.9,375.74 1174.2,376.52"];
	150 -- 164	[pos="1237.9,360.17 1260,351.01 1293.3,337.24 1315.6,328.03"];
	23 -- 42	[pos="1023.4,540.92 1028.7,557.8 1036.6,583.05 1041.9,599.91"];
	23 -- 269	[pos="1010.9,505.75 1000.2,479.45 980.26,429.87 969.59,403.4"];
	23 -- 146	[pos="1022.6,540.97 1029.8,567.55 1043.1,617.31 1050.2,643.85"];
	23 -- 158	[pos="1016.5,504.81 1015.3,489.51 1013.7,467.84 1012.6,452.63"];
	23 -- 195	[pos="1005.3,507.09 1002.1,503.1 998.78,498.83 995.65,494.84"];
	24 -- 123	[pos="528.23,544.55 539.75,550.21 553.78,557.12 565.24,562.76"];
	24 -- 186	[pos="488.16,547.13 479.36,553.73 468.8,561.65 459.96,568.28"];
	123 -- 188	[pos="613.06,568.31 634.98,563.94 666.17,557.72 688.08,553.35"];
	123 -- 128	[pos="580.56,555.93 578.69,550.85 576.64,545.31 574.76,540.22"];
	123 -- 125	[pos="613.41,577.94 635.62,581.68 667.23,587.01 689.43,590.75"];
	123 -- 287	[pos="565.28,584.48 545.97,594.22 517.89,608.39 498.59,618.13"];
	123 -- 239	[pos="583.86,555.39 578.76,526.54 568.85,470.45 563.74,441.56"];
	123 -- 186	[pos="560.05,575.08 534.09,576.6 495.08,578.88 469.01,580.41"];
	123 -- 274	[pos="570.95,588.19 550.31,607.03 514.74,639.5 494.07,658.36"];
	40 -- 84	[pos="649.35,527.53 649.57,509.86 649.92,483.1 650.15,465.36"];
	40 -- 78	[pos="660.93,529.07 684.49,496.12 737.04,422.6 760.57,389.69"];
	40 -- 70	[pos="650.56,563.78 651.09,570.48 651.69,578.08 652.23,584.8"];
	40 -- 115	[pos="624.59,553.4 602.83,560.32 571.21,570.38 549.46,577.29"];
	40 -- 211	[pos="650.26,563.85 651.54,584.33 653.61,617.36 654.89,637.85"];
	143	[height=0.5,
		pos="710.2,501.56",
		width=0.75];
	40 -- 143	[pos="667.77,532.15 675.35,526.68 684.09,520.38 691.65,514.93"];
	40 -- 156	[pos="636.05,529.82 625.31,516.83 610.14,498.51 599.34,485.46"];
	235	[height=0.5,
		pos="498.09,465.09",
		width=0.75];
	40 -- 235	[pos="627.8,534.23 599.01,518.89 548.03,491.71 519.3,476.4"];
	25 -- 71	[pos="1525.9,551.76 1523.2,555.47 1520.4,559.42 1517.7,563.13"];
	25 -- 46	[pos="1523.4,519.97 1519.4,515.7 1515.1,511.07 1511.1,506.8"];
	25 -- 30	[pos="1558.9,547.03 1593.2,565.99 1660.8,603.29 1694.9,622.15"];
	25 -- 33	[pos="1533.6,553.53 1528.9,574.04 1521.3,607.18 1516.7,627.54"];
	25 -- 96	[pos="1557.7,547.86 1578.9,561.17 1612.3,582.12 1633.6,595.45"];
	25 -- 50	[pos="1535.3,517.12 1533.4,502.01 1530.6,480.64 1528.6,465.53"];
	25 -- 252	[pos="1552.4,520 1562.6,509.3 1576.1,495.08 1586.3,484.4"];
	25 -- 60	[pos="1551.9,519.62 1572.1,497.21 1608.9,456.38 1628.9,434.11"];
	97	[height=0.5,
		pos="1634,557.13",
		width=0.75];
	25 -- 97	[pos="1563.5,541.2 1577.4,544.32 1594.3,548.16 1608.2,551.28"];
	90	[height=0.5,
		pos="1672.1,511.57",
		width=0.75];
	25 -- 90	[pos="1564,530.72 1587.6,526.53 1622.3,520.39 1646,516.21"];
	25 -- 132	[pos="1549.7,551.56 1553,556.04 1556.6,560.91 1559.9,565.4"];
	25 -- 148	[pos="1557.9,523.19 1590.7,503.44 1655,464.64 1687.7,444.9"];
	71 -- 97	[pos="1532.2,574.83 1554.3,570.99 1585.8,565.52 1607.9,561.68"];
	71 -- 90	[pos="1529.1,569.96 1560.8,557.04 1617.3,533.97 1649,521.03"];
	71 -- 217	[pos="1485.1,591.25 1473.9,597.65 1460,605.53 1448.8,611.91"];
	26	[height=0.5,
		pos="767.16,418.08",
		width=0.75];
	26 -- 39	[pos="765.09,436.36 760.07,480.79 747.27,593.97 742.27,638.12"];
	26 -- 78	[pos="769.24,400.09 769.58,397.16 769.93,394.13 770.27,391.21"];
	191	[height=0.5,
		pos="760.91,328.94",
		width=0.75];
	26 -- 191	[pos="765.89,400.04 764.81,384.57 763.26,362.41 762.17,346.95"];
	26 -- 143	[pos="755.9,434.57 745.92,449.21 731.41,470.47 721.43,485.1"];
	207	[height=0.5,
		pos="776.01,462.13",
		width=0.75];
	26 -- 207	[pos="770.76,436 771.29,438.66 771.85,441.41 772.38,444.09"];
	26 -- 116	[pos="793.73,413.76 798.42,412.99 803.31,412.2 808.01,411.43"];
	39 -- 113	[pos="722.12,669.83 715.04,675.19 706.94,681.31 699.87,686.64"];
	39 -- 170	[pos="744.64,638.2 751.52,610.1 764.77,556.05 771.68,527.87"];
	39 -- 70	[pos="720.16,643.83 706.18,635.25 687.6,623.86 673.64,615.3"];
	39 -- 211	[pos="713.13,656.14 703.52,656.14 692.7,656.13 683.09,656.13"];
	39 -- 143	[pos="736.73,638.11 730.94,608.32 719.45,549.19 713.68,519.48"];
	39 -- 207	[pos="743.54,638.24 750.34,601.37 765.83,517.34 772.66,480.27"];
	39 -- 116	[pos="746.86,638.63 764.14,592.91 810.49,470.33 827.77,424.63"];
	39 -- 176	[pos="766.46,661.19 775.4,662.92 785.39,664.84 794.31,666.56"];
	46 -- 71	[pos="1498.6,509.58 1500.2,524.69 1502.5,546.06 1504.1,561.17"];
	46 -- 252	[pos="1522.4,485.84 1538.5,482.42 1559,478.04 1575,474.62"];
	46 -- 60	[pos="1518.6,480.45 1546.1,466.74 1593.2,443.32 1620.8,429.58"];
	46 -- 172	[pos="1510.8,475.92 1545.6,437.92 1635.2,340.07 1670.1,301.88"];
	46 -- 147	[pos="1507.6,474.83 1531.3,438.94 1587.3,354.15 1611.1,318.17"];
	46 -- 284	[pos="1513.1,477.03 1540.1,453.52 1593.4,406.98 1620.6,383.28"];
	46 -- 148	[pos="1521.8,484.39 1562.4,473.11 1642.2,450.96 1682.9,439.69"];
	46 -- 260	[pos="1517.8,479.84 1557.7,458.1 1643.9,411.21 1683.8,389.45"];
	46 -- 215	[pos="1479.8,505.51 1470.1,513.67 1457.9,523.88 1448.1,532.06"];
	84 -- 111	[pos="649.47,465.11 649.33,467.8 649.19,470.57 649.06,473.26"];
	84 -- 156	[pos="626.44,455.4 621.15,457.24 615.55,459.18 610.26,461.03"];
	84 -- 235	[pos="623.51,450.25 595.67,453.54 552.44,458.66 524.7,461.94"];
	282	[height=0.5,
		pos="482.69,394.12",
		width=0.75];
	84 -- 282	[pos="625.64,439.25 593.84,429.21 538.98,411.89 507.26,401.88"];
	111 -- 123	[pos="636.07,507.65 625.36,522.04 609.8,542.94 599.1,557.32"];
	111 -- 156	[pos="623.97,482.87 619.47,481.28 614.78,479.61 610.29,478.02"];
	111 -- 128	[pos="624.58,500.58 614.17,504.61 601.97,509.35 591.58,513.38"];
	111 -- 125	[pos="659,508.11 671.62,527.47 692.31,559.22 704.91,578.56"];
	111 -- 239	[pos="630.41,477.67 615.21,465.86 593.42,448.94 578.23,437.14"];
	27 -- 66	[pos="1109.2,330.09 1137.2,319.51 1183.4,302.01 1211.3,291.44"];
	27 -- 98	[pos="1082.3,357.16 1080.5,366.86 1078.3,378.78 1076.5,388.49"];
	27 -- 131	[pos="1104.7,326.01 1133.8,306.22 1188.8,268.81 1217.8,249.08"];
	27 -- 126	[pos="1085,357.05 1083.9,392.29 1081.6,469.98 1080.5,505.28"];
	89	[height=0.5,
		pos="1011.9,156.43",
		width=0.75];
	27 -- 89	[pos="1078.5,321.53 1064.4,286.63 1033,208.75 1018.9,173.88"];
	27 -- 100	[pos="1084.7,320.83 1083.1,285.11 1079.5,206.22 1077.9,170.66"];
	234	[height=0.5,
		pos="992.39,77.118",
		width=0.75];
	27 -- 234	[pos="1079.3,321.45 1062.3,273.74 1015.6,142.26 998.62,94.634"];
	27 -- 133	[pos="1083.3,320.96 1078,277.89 1064.6,169.62 1059.3,126.63"];
	202	[height=0.5,
		pos="940.29,121.14",
		width=0.75];
	27 -- 202	[pos="1074.4,322.31 1047.3,281.65 978.22,178.05 951.29,137.64"];
	27 -- 297	[pos="1081.6,320.99 1075.8,294.53 1065,245.49 1059.2,219.02"];
	28 -- 181	[pos="402.26,801.92 388.18,790.73 368.53,775.1 354.45,763.91"];
	28 -- 49	[pos="444.15,824.26 481.04,836.93 550.78,860.89 587.55,873.53"];
	28 -- 67	[pos="417.55,833.88 414.4,858.44 408.79,902.23 405.62,926.92"];
	28 -- 63	[pos="442.63,825.87 448.27,828.34 454.32,830.99 459.98,833.46"];
	99	[height=0.5,
		pos="267.01,874.18",
		width=0.75];
	28 -- 99	[pos="396.31,824.89 367.59,835.84 319.32,854.24 290.58,865.19"];
	28 -- 185	[pos="428.92,833.32 436.48,847.83 447.18,868.4 454.69,882.82"];
	124	[height=0.5,
		pos="400.9,877.63",
		width=0.75];
	28 -- 124	[pos="414.38,833.77 411.88,841.88 408.94,851.47 406.44,859.61"];
	28 -- 286	[pos="402.9,830.11 388.37,842.28 367.53,859.72 353.01,871.89"];
	28 -- 271	[pos="411.58,798.51 410.11,795.43 408.59,792.23 407.13,789.15"];
	28 -- 272	[pos="406.83,799.68 390.04,778.76 361.03,742.62 344.36,721.85"];
	29 -- 35	[pos="845.61,705.67 849.88,684.65 856.94,649.97 861.25,628.82"];
	29 -- 283	[pos="828.64,739.27 814.69,755.72 792.9,781.42 778.91,797.91"];
	30 -- 96	[pos="1692.6,624.1 1687.5,622 1682.1,619.76 1677,617.66"];
	30 -- 212	[pos="1688.8,631.91 1668,630.58 1639.2,628.74 1618.4,627.41"];
	30 -- 101	[pos="1696.5,646.4 1689.1,651.3 1680.6,656.88 1673.2,661.79"];
	208	[height=0.5,
		pos="1840.9,657.9",
		width=0.75];
	30 -- 208	[pos="1741.7,638.67 1763,642.8 1793.1,648.64 1814.6,652.8"];
	30 -- 277	[pos="1690.9,640.72 1668.2,647.18 1634.8,656.69 1611.9,663.18"];
	30 -- 132	[pos="1692,625.06 1665.4,615.42 1622.4,599.89 1595.7,590.25"];
	174	[height=0.5,
		pos="1840.7,600.26",
		width=0.75];
	30 -- 174	[pos="1741,626.88 1762.7,621.09 1793.8,612.79 1815.4,607"];
	232	[height=0.5,
		pos="1904.3,644.14",
		width=0.75];
	30 -- 232	[pos="1742.8,635.14 1778.6,637.14 1841.6,640.64 1877.4,642.64"];
	225	[height=0.5,
		pos="1793.3,556.06",
		width=0.75];
	30 -- 225	[pos="1731.1,618.31 1744.8,604.62 1764.7,584.69 1778.3,571.09"];
	298	[height=0.5,
		pos="1918.2,599.87",
		width=0.75];
	30 -- 298	[pos="1742.2,629.22 1781,622.75 1852.9,610.76 1891.7,604.29"];
	30 -- 257	[pos="1699.8,648.46 1683,664.08 1656.6,688.52 1639.9,704.07"];
	31 -- 113	[pos="696.59,754.54 693.6,743.43 689.77,729.19 686.78,718.07"];
	32 -- 137	[pos="975.67,731.64 974.25,715.66 972.18,692.42 970.76,676.45"];
	32 -- 54	[pos="971.85,767.48 967.21,782.75 960.54,804.65 955.9,819.92"];
	32 -- 146	[pos="991.17,733.92 1005.3,717.89 1027.1,693.19 1041.2,677.21"];
	32 -- 140	[pos="960.39,764.08 954.64,769 948.21,774.49 942.46,779.4"];
	32 -- 86	[pos="995.63,736.21 1003.1,730.74 1011.7,724.44 1019.1,718.99"];
	54 -- 140	[pos="940.98,820.82 939.12,817.52 937.18,814.06 935.32,810.76"];
	33 -- 71	[pos="1510.8,627.34 1509.9,618.03 1508.7,606.7 1507.8,597.4"];
	33 -- 96	[pos="1537.8,638.69 1563.3,631.94 1602.6,621.55 1628.2,614.77"];
	33 -- 263	[pos="1521.9,662.66 1530.7,679.09 1544,703.67 1552.8,720.07"];
	33 -- 53	[pos="1498.5,661.15 1489.1,671.76 1476.7,685.69 1467.2,696.28"];
	33 -- 97	[pos="1531,631.97 1553.9,615.38 1592.5,587.3 1615.4,570.66"];
	33 -- 217	[pos="1487.2,638.85 1476.5,636.1 1464.1,632.91 1453.4,630.16"];
	33 -- 101	[pos="1538.5,650.75 1563.8,656 1602.1,663.97 1627.5,669.25"];
	33 -- 277	[pos="1536.8,653.56 1545,656.32 1554.2,659.4 1562.4,662.17"];
	33 -- 145	[pos="1510.5,663.72 1508.2,684.43 1504.4,717.91 1502.1,738.49"];
	33 -- 177	[pos="1486.7,650.83 1470.3,654.29 1449.1,658.75 1432.7,662.21"];
	96 -- 97	[pos="1646.9,590.51 1645,585.45 1642.8,579.92 1640.9,574.85"];
	179	[height=0.5,
		pos="1777.8,615.46",
		width=0.75];
	96 -- 179	[pos="1680.6,609.64 1701.3,610.88 1729.7,612.58 1750.5,613.83"];
	96 -- 101	[pos="1653.7,626.24 1653.7,635.65 1653.7,647.09 1653.7,656.49"];
	96 -- 174	[pos="1680.8,606.9 1716.3,605.42 1778,602.86 1813.5,601.39"];
	209	[height=0.5,
		pos="1759.1,677.77",
		width=0.75];
	96 -- 209	[pos="1673,620.82 1692,633.4 1720.9,652.5 1739.9,665.06"];
	96 -- 225	[pos="1677.3,599.21 1703,589.66 1743.8,574.49 1769.5,564.92"];
	85 -- 103	[pos="1234.4,1106.2 1238.3,1101.9 1242.4,1097.2 1246.3,1092.9"];
	85 -- 119	[pos="1245.4,1114.4 1261.2,1109.7 1281.5,1103.7 1297.2,1099.1"];
	85 -- 175	[pos="1233.2,1137.7 1239.6,1145.8 1247.4,1155.6 1253.8,1163.7"];
	68 -- 167	[pos="858.14,496.83 865.22,501.17 873.19,506.04 880.27,510.38"];
	36 -- 47	[pos="990.32,841.31 952.37,846.43 883.29,855.74 845.4,860.85"];
	36 -- 79	[pos="1038.1,826.15 1061.4,813.41 1098.5,793.02 1121.8,780.26"];
	36 -- 152	[pos="1039.4,848.09 1063.3,859.15 1100.8,876.56 1124.7,887.64"];
	130	[height=0.5,
		pos="916.55,943.1",
		width=0.75];
	36 -- 130	[pos="1002.2,853.26 983.12,873.3 950.1,907.92 931.11,927.83"];
	36 -- 45	[pos="989.81,837.7 966.05,837.7 931.74,837.7 907.99,837.7"];
	36 -- 256	[pos="1041.1,846 1045.8,847.62 1050.7,849.31 1055.4,850.93"];
	36 -- 169	[pos="994.41,847.65 963.37,861.28 907.93,885.62 876.85,899.27"];
	36 -- 199	[pos="998.53,850.93 990.72,856.5 981.63,862.98 973.82,868.56"];
	36 -- 266	[pos="1017.2,855.96 1017.2,862.18 1017.2,869.13 1017.3,875.34"];
	131 -- 297	[pos="1210.8,231.11 1176.3,224.42 1115.7,212.68 1081.2,206"];
	38 -- 152	[pos="1154.7,1007.2 1153,982.98 1150.1,940.49 1148.4,916.3"];
	38 -- 91	[pos="1180.4,1017.6 1199.6,1011.5 1226.3,1003 1245.5,996.88"];
	38 -- 155	[pos="1130.7,1018.8 1098.9,1010.6 1044.6,996.42 1012.8,988.11"];
	38 -- 56	[pos="1129.9,1030.7 1081.5,1040.5 978.02,1061.5 929.68,1071.3"];
	38 -- 129	[pos="1178.6,1015.2 1212.9,999.64 1277.8,970.25 1312,954.75"];
	38 -- 62	[pos="1172.7,1039.6 1197.7,1060.8 1244.5,1100.5 1269.5,1121.7"];
	38 -- 75	[pos="1143.9,1041.6 1132.2,1057.4 1114.4,1081.3 1102.6,1097.2"];
	38 -- 224	[pos="1170.2,1010.1 1192.6,986.23 1235.6,940.22 1258,916.23"];
	38 -- 184	[pos="1141.7,1040.8 1118.1,1066.3 1071.3,1116.8 1047.7,1142.2"];
	38 -- 95	[pos="1129,1026.1 1085.3,1027.2 999.67,1029.4 955.8,1030.5"];
	38 -- 112	[pos="1152.3,1043.3 1145.7,1076.1 1131.8,1145.2 1125.2,1177.9"];
	38 -- 122	[pos="1183.1,1026.5 1216.2,1027.9 1271.7,1030.2 1304.8,1031.5"];
	38 -- 161	[pos="1138,1011.7 1116.3,995.15 1080.2,967.59 1058.6,951.1"];
	278	[height=0.5,
		pos="967.4,1138.5",
		width=0.75];
	38 -- 278	[pos="1135.8,1037.5 1099.6,1059.2 1024,1104.6 987.72,1126.3"];
	38 -- 192	[pos="1182.9,1028.3 1189,1029 1195.5,1029.7 1201.6,1030.3"];
	155 -- 161	[pos="1004.5,967.32 1010.6,962.29 1017.5,956.63 1023.6,951.61"];
	41 -- 48	[pos="1102.1,1069.8 1112.3,1069.9 1123.9,1070 1134.1,1070.2"];
	41 -- 106	[pos="1080.4,1051.7 1085.6,1035.3 1093.3,1011.1 1098.5,994.69"];
	139 -- 154	[pos="1189.5,1253.6 1187.8,1256.8 1186,1260.1 1184.2,1263.3"];
	139 -- 178	[pos="1171.8,1237.5 1160.4,1237.9 1147.2,1238.4 1135.7,1238.9"];
	205	[height=0.5,
		pos="1136,1324.5",
		width=0.75];
	139 -- 205	[pos="1187.1,1253 1175.8,1268.8 1159,1292.3 1147.8,1308.1"];
	237 -- 262	[pos="1228.5,671.4 1222.3,672.41 1215.6,673.49 1209.4,674.51"];
	130 -- 199	[pos="927.14,926.34 932.6,917.69 939.26,907.16 944.72,898.51"];
	78 -- 84	[pos="752.21,385.41 729.61,399.09 693.16,421.16 670.55,434.85"];
	78 -- 191	[pos="767.76,355.46 767.02,352.57 766.24,349.58 765.5,346.7"];
	78 -- 143	[pos="763.97,390.52 752.11,415.02 730.54,459.54 718.64,484.11"];
	78 -- 207	[pos="773.11,391.64 773.74,407 774.64,428.76 775.26,444.03"];
	78 -- 116	[pos="793.35,384.7 799.82,388.24 806.94,392.13 813.4,395.67"];
	250	[height=0.5,
		pos="767.06,284.92",
		width=0.75];
	78 -- 250	[pos="771.25,354.92 770.34,339.77 769.06,318.34 768.15,303.19"];
	48 -- 85	[pos="1177.9,1084.7 1185.9,1091.7 1195.6,1100.1 1203.8,1107.2"];
	48 -- 61	[pos="1167.1,1088.2 1174.7,1111.3 1187.7,1151.6 1195.2,1174.7"];
	48 -- 106	[pos="1151.2,1053.7 1140.8,1036.8 1124.9,1010.8 1114.6,993.79"];
	48 -- 103	[pos="1188.4,1072.3 1202.3,1073.3 1219.3,1074.5 1233.2,1075.5"];
	212 -- 277	[pos="1589.5,643.86 1589.2,646.66 1588.9,649.56 1588.6,652.36"];
	107	[height=0.5,
		pos="765.53,1103.9",
		width=0.75];
	56 -- 107	[pos="877.78,1081.6 853.06,1086.5 816.1,1093.9 791.42,1098.7"];
	56 -- 95	[pos="913.13,1059.4 915.09,1055.8 917.17,1052 919.14,1048.4"];
	56 -- 110	[pos="877.48,1071.7 874.32,1071.1 871.08,1070.5 867.91,1069.9"];
	236	[height=0.5,
		pos="829.05,1111.4",
		width=0.75];
	56 -- 236	[pos="881.36,1087 871.82,1091.4 860.72,1096.6 851.2,1101.1"];
	170 -- 176	[pos="781.01,527.71 789.51,558.81 806.88,622.4 815.4,653.56"];
	70 -- 115	[pos="627.01,599.33 604.93,596.24 573.7,591.88 551.62,588.8"];
	70 -- 211	[pos="654.49,621.32 654.73,626.72 654.99,632.62 655.23,638.01"];
	70 -- 143	[pos="663.26,585.84 673.72,567.06 690.35,537.2 700.75,518.52"];
	115 -- 156	[pos="534,568.01 545.55,546.15 565.46,508.47 577.03,486.57"];
	115 -- 235	[pos="520.96,567.11 515.89,544.49 507.23,505.85 502.15,483.18"];
	191 -- 250	[pos="763.45,310.78 763.8,308.22 764.17,305.59 764.53,303.04"];
	141 -- 168	[pos="1753.5,301.06 1755.1,305.24 1756.7,309.69 1758.2,313.87"];
	141 -- 148	[pos="1742.3,301.46 1734.8,330.16 1720.2,385.94 1712.6,414.67"];
	81 -- 121	[pos="1442.3,341.92 1454.4,315.21 1477.6,264.34 1489.9,237.5"];
	81 -- 227	[pos="1452.3,345.75 1475.2,328.4 1514.8,298.5 1537.7,281.13"];
	81 -- 273	[pos="1428.7,377.22 1422.2,398.04 1411.5,432.19 1404.9,452.99"];
	50 -- 252	[pos="1551.1,454.57 1559.1,456.93 1568,459.53 1576.1,461.89"];
	50 -- 190	[pos="1521,429.33 1515.6,410.38 1507,380.73 1501.5,361.86"];
	50 -- 60	[pos="1551.8,441.02 1571.3,436.23 1597.9,429.68 1617.3,424.9"];
	55 -- 238	[pos="939.25,195.97 943.99,205.56 949.87,217.46 954.62,227.07"];
	55 -- 162	[pos="954.88,187.16 959.38,188.73 964.07,190.38 968.56,191.95"];
	230 -- 248	[pos="1047.6,347.91 1069.6,355.14 1101.8,365.71 1123.7,372.94"];
	230 -- 238	[pos="1012.8,323.28 1001.9,305.87 984.75,278.68 973.76,261.22"];
	45 -- 47	[pos="858.04,847.51 852.65,849.83 846.89,852.31 841.5,854.64"];
	45 -- 130	[pos="886.85,855.58 893.47,875.08 903.99,906.09 910.57,925.48"];
	45 -- 169	[pos="874.19,855.39 870.06,866.48 864.76,880.71 860.64,891.76"];
	45 -- 69	[pos="875.64,819.95 873.47,812.46 870.96,803.76 868.79,796.28"];
	45 -- 65	[pos="854.48,842.5 833.43,846.34 804.05,851.7 783.01,855.53"];
	45 -- 149	[pos="867.31,853.39 850.64,872.8 822.41,905.66 805.68,925.14"];
	45 -- 199	[pos="901.14,849.74 911.66,855.96 924.45,863.53 934.96,869.74"];
	45 -- 294	[pos="863.99,823.28 850.56,811.74 831.81,795.63 818.38,784.1"];
	166 -- 294	[pos="645.53,731.66 680.17,740.1 741.52,755.05 776.09,763.48"];
	166 -- 200	[pos="632.91,741.26 646.56,757.86 667.89,783.79 681.58,800.44"];
	256 -- 266	[pos="1058.6,870.87 1052.1,874.43 1044.9,878.34 1038.4,881.9"];
	61 -- 85	[pos="1206,1174.6 1208.9,1164 1212.6,1150.5 1215.6,1139.8"];
	49 -- 138	[pos="637.74,887.06 644.66,888.45 652.14,889.95 659.06,891.35"];
	49 -- 67	[pos="586.92,889.32 546.82,901.51 468.05,925.46 427.97,937.65"];
	49 -- 63	[pos="586.82,874.42 564.03,867.64 530.43,857.64 507.67,850.86"];
	49 -- 242	[pos="617.96,864.03 620.62,856.53 623.71,847.81 626.38,840.31"];
	49 -- 64	[pos="591.66,894.03 557.54,914.91 488.44,957.2 454.37,978.05"];
	49 -- 136	[pos="601.15,898.61 591.85,913.53 578.32,935.2 569.02,950.11"];
	49 -- 185	[pos="584.83,885.09 558,888.37 516.97,893.39 490.21,896.66"];
	49 -- 124	[pos="584.52,881.27 544.06,880.47 468.32,878.97 427.92,878.17"];
	49 -- 288	[pos="610.84,899.96 609.74,924.9 607.78,969.49 606.68,994.35"];
	49 -- 216	[pos="596.59,897 574.52,919.27 533.63,960.55 511.56,982.82"];
	243	[height=0.5,
		pos="532.71,887.72",
		width=0.75];
	49 -- 243	[pos="584.48,883.84 576.45,884.44 567.67,885.1 559.66,885.7"];
	67 -- 185	[pos="421.38,931.58 429.01,925.85 437.88,919.2 445.51,913.48"];
	67 -- 118	[pos="380.25,955.01 364.22,961.88 342.91,971 326.9,977.85"];
	67 -- 73	[pos="394.02,962.22 390.12,969.42 385.58,977.78 381.68,984.98"];
	67 -- 218	[pos="400.22,963.21 397.11,981.59 392.32,1009.9 389.21,1028.2"];
	67 -- 286	[pos="386.67,930.54 376.25,921.39 362.88,909.63 352.5,900.5"];
	259	[height=0.5,
		pos="323.84,1078.1",
		width=0.75];
	67 -- 259	[pos="393.22,961.99 378.02,987.42 349.36,1035.4 334.07,1061"];
	51 -- 74	[pos="265.8,459.67 286.49,441.49 321.63,410.63 342.23,392.53"];
	51 -- 219	[pos="275.07,468.64 295.81,464.13 324.74,457.83 345.46,453.32"];
	51 -- 163	[pos="249.86,492.51 250.45,508.14 251.29,530.54 251.89,546.17"];
	51 -- 102	[pos="232.1,460.08 222.28,451.91 209.98,441.68 200.14,433.49"];
	51 -- 105	[pos="271.42,485.03 280.89,489.6 291.91,494.93 301.35,499.49"];
	160	[height=0.5,
		pos="139.39,330.34",
		width=0.75];
	51 -- 160	[pos="236.79,458.05 215.7,430.4 173.06,374.49 151.89,346.73"];
	285	[height=0.5,
		pos="133.31,375.02",
		width=0.75];
	51 -- 285	[pos="232.57,460.06 210.67,441.29 172.32,408.44 150.25,389.54"];
	279	[height=0.5,
		pos="113.41,463.83",
		width=0.75];
	51 -- 279	[pos="222.02,472.19 198.34,470.37 164.17,467.74 140.51,465.91"];
	51 -- 231	[pos="231.62,488.1 224.21,493.94 215.61,500.71 208.21,506.54"];
	51 -- 226	[pos="240.96,491.49 228.56,517.49 205.17,566.51 192.69,592.67"];
	51 -- 180	[pos="222.13,474.85 215.72,474.99 208.88,475.13 202.47,475.27"];
	244	[height=0.5,
		pos="89.75,419.78",
		width=0.75];
	51 -- 244	[pos="224.95,466 194.9,455.73 143.96,438.31 113.93,428.05"];
	51 -- 264	[pos="244.85,492.35 236.53,527.16 218.38,603.11 210.08,637.85"];
	51 -- 240	[pos="251.53,492.21 255.11,519.3 261.86,570.38 265.46,597.65"];
	190 -- 221	[pos="1488.7,326.74 1485.8,320.09 1482.4,312.49 1479.5,305.83"];
	52 -- 150	[pos="1255.9,346.72 1249.4,350.34 1242.3,354.33 1235.8,357.95"];
	52 -- 251	[pos="1292,350.11 1296.6,354.77 1301.7,359.91 1306.3,364.57"];
	52 -- 248	[pos="1253,343.49 1229.8,351.75 1194.9,364.19 1171.8,372.43"];
	52 -- 245	[pos="1289.2,351.38 1301.7,368.1 1320.9,393.88 1333.4,410.55"];
	52 -- 164	[pos="1302.1,328.21 1305.9,327.21 1309.8,326.17 1313.5,325.17"];
	52 -- 171	[pos="1272.9,352.84 1270,365.73 1266.2,383.06 1263.3,395.94"];
	258	[height=0.5,
		pos="1319.8,273.56",
		width=0.75];
	52 -- 258	[pos="1288.4,318.5 1294.5,309.7 1302.1,298.88 1308.2,290.06"];
	251 -- 258	[pos="1321.1,361.7 1320.8,342.18 1320.3,311.21 1320,291.66"];
	53 -- 157	[pos="1428.6,719.37 1417.3,722.78 1403.9,726.81 1392.5,730.22"];
	53 -- 145	[pos="1468.9,726.78 1473.8,731.53 1479.4,736.81 1484.4,741.57"];
	53 -- 177	[pos="1437.8,697.2 1432.8,692.48 1427.3,687.24 1422.3,682.51"];
	80 -- 295	[pos="518.72,374.41 497.54,370.38 467.8,364.71 446.64,360.68"];
	80 -- 117	[pos="534.62,362.46 532.59,359.07 530.46,355.5 528.43,352.11"];
	80 -- 134	[pos="571.73,380.96 588.25,381.93 609.31,383.17 625.83,384.15"];
	245 -- 251	[pos="1336.7,409.55 1334.6,405.45 1332.3,401.08 1330.2,396.98"];
	245 -- 270	[pos="1348.7,444.81 1351.5,460.23 1355.4,482.33 1358.1,497.74"];
	109 -- 127	[pos="963.55,292.99 958.8,292.47 953.85,291.94 949.11,291.43"];
	86 -- 137	[pos="1018.4,692.49 1008.9,685.95 997.51,678.06 988.06,671.53"];
	86 -- 146	[pos="1044.3,688.22 1045.5,685.24 1046.8,682.15 1048,679.16"];
	107 -- 236	[pos="792.47,1107.1 795.72,1107.5 799.03,1107.9 802.27,1108.2"];
	59 -- 69	[pos="898.13,738.91 891.68,746.32 884,755.15 877.52,762.6"];
	58 -- 261	[pos="1356.9,888.74 1364.6,893.02 1373.3,897.88 1381,902.17"];
	58 -- 129	[pos="1335.6,895.2 1335.4,904.88 1335.1,916.77 1334.9,926.46"];
	58 -- 224	[pos="1312.4,885.94 1307.1,887.89 1301.6,889.96 1296.4,891.91"];
	58 -- 213	[pos="1362.9,874.17 1367.2,873.69 1371.7,873.2 1376.1,872.72"];
	129 -- 224	[pos="1315.8,931.46 1308,925.92 1298.9,919.49 1291,913.95"];
	129 -- 213	[pos="1348.6,929.09 1360.4,916.25 1377,898.09 1388.7,885.26"];
	69 -- 199	[pos="877.57,794.22 894.8,813.62 923.96,846.47 941.25,865.95"];
	69 -- 294	[pos="836.98,774.74 834.09,774.33 831.15,773.91 828.26,773.5"];
	60 -- 141	[pos="1655.2,402.58 1675.3,376.57 1714.7,325.47 1734.7,299.47"];
	60 -- 252	[pos="1629.6,434.59 1624.7,440.49 1619.1,447.17 1614.2,453.07"];
	60 -- 168	[pos="1661.4,405.38 1684.3,389 1723.1,361.27 1746,344.83"];
	60 -- 148	[pos="1668.6,424.2 1673,425.16 1677.5,426.15 1682,427.11"];
	62 -- 139	[pos="1272.5,1151.6 1256.1,1170.5 1228.8,1202 1212.4,1220.9"];
	62 -- 189	[pos="1305,1122.6 1324.9,1108.6 1355.9,1086.8 1375.7,1072.9"];
	62 -- 214	[pos="1311.8,1129.8 1335.4,1124.3 1370.2,1116.2 1393.7,1110.6"];
	87	[height=0.5,
		pos="1386,1197",
		width=0.75];
	62 -- 87	[pos="1306.4,1148.2 1323.7,1158.9 1348.5,1174.1 1365.9,1184.7"];
	62 -- 92	[pos="1288,1154.2 1289.5,1169.4 1291.7,1191 1293.2,1206.2"];
	62 -- 112	[pos="1262.2,1144.6 1230.9,1156 1176.4,1175.8 1145.2,1187.2"];
	62 -- 122	[pos="1293.9,1118.3 1302.4,1099.4 1315.7,1069.2 1324.2,1050.2"];
	189 -- 214	[pos="1403.8,1076.7 1405.8,1080.3 1407.9,1084.1 1409.8,1087.7"];
	63 -- 249	[pos="477.61,825.7 474.18,814.22 469.74,799.35 466.3,787.86"];
	63 -- 99	[pos="456.45,847.26 415.01,853.15 335.27,864.48 293.7,870.39"];
	63 -- 242	[pos="509.35,839.8 536.56,836 578.72,830.1 606.02,826.28"];
	63 -- 124	[pos="459.64,853.19 448.46,857.84 435.11,863.4 423.96,868.04"];
	63 -- 243	[pos="499.23,857.98 504.67,862.81 510.74,868.21 516.2,873.05"];
	63 -- 292	[pos="495.82,827.49 500.39,821.81 505.53,815.42 510.1,809.74"];
	63 -- 271	[pos="465.92,829.01 451.25,816.5 430.18,798.53 415.59,786.1"];
	99 -- 124	[pos="294.1,874.88 317.33,875.48 350.63,876.34 373.85,876.94"];
	75 -- 184	[pos="1072.7,1127.2 1065.9,1132.5 1058.2,1138.5 1051.4,1143.7"];
	75 -- 112	[pos="1097,1131 1102.2,1144.9 1109.6,1164.2 1114.8,1178.1"];
	242 -- 243	[pos="612.93,835.42 595.29,846.92 569.61,863.67 552.08,875.09"];
	242 -- 292	[pos="607.51,815.94 589.8,811.29 566.18,805.09 548.4,800.43"];
	224 -- 261	[pos="1299.3,903.52 1321.5,905.76 1352.9,908.92 1375.1,911.15"];
	64 -- 67	[pos="423.03,973.7 420.32,969.78 417.43,965.6 414.71,961.68"];
	64 -- 185	[pos="440.22,972.39 445.33,956.56 452.75,933.55 457.85,917.72"];
	64 -- 73	[pos="408.16,995.24 404.98,995.84 401.75,996.46 398.58,997.06"];
	64 -- 216	[pos="461.14,993.58 464.03,993.94 466.97,994.31 469.86,994.68"];
	64 -- 259	[pos="416.69,1004.3 395.93,1020.8 361.79,1047.9 341.2,1064.3"];
	65 -- 166	[pos="741.58,845.37 715.27,819.44 661.47,766.41 635.11,740.42"];
	65 -- 149	[pos="764.41,877.82 770.34,891.35 778.51,909.99 784.43,923.51"];
	65 -- 241	[pos="750.81,878.14 746.38,891.44 740.36,909.54 735.93,922.82"];
	65 -- 294	[pos="765.4,842.85 773.4,826.7 785.21,802.85 793.15,786.81"];
	65 -- 200	[pos="738.14,847.15 730.29,841.59 721.17,835.14 713.32,829.58"];
	268	[height=0.5,
		pos="667.96,981.47",
		width=0.75];
	65 -- 268	[pos="744.77,876.66 727.83,899.78 697.03,941.81 680.03,965"];
	136 -- 138	[pos="579.45,955.27 602.89,942.24 640.7,921.24 664.15,908.21"];
	136 -- 288	[pos="574.06,981.77 579.23,986.74 585,992.28 590.2,997.27"];
	149 -- 241	[pos="765.04,940.8 762.42,940.79 759.77,940.77 757.16,940.76"];
	149 -- 268	[pos="767.56,948.97 745.8,956.07 714.18,966.39 692.44,973.49"];
	185 -- 286	[pos="436.86,897.01 415.1,894.65 384.53,891.33 362.77,888.96"];
	291	[height=0.5,
		pos="1065.4,18",
		width=0.75];
	247 -- 291	[pos="1074.4,46.715 1073.2,43.122 1072.1,39.347 1070.9,35.758"];
	247 -- 299	[pos="1102.2,75.247 1108.7,78.394 1115.9,81.837 1122.4,84.978"];
	118 -- 218	[pos="322.65,1000.9 336.1,1010.5 354.18,1023.4 367.61,1032.9"];
	118 -- 259	[pos="307.92,1005.5 311.4,1021.4 316.45,1044.4 319.93,1060.2"];
	72 -- 94	[pos="1393.1,779.51 1396.3,779.25 1399.7,778.98 1403,778.72"];
	73 -- 118	[pos="346.56,996.6 341.11,995.45 335.36,994.24 329.91,993.1"];
	73 -- 218	[pos="377.94,1019.7 378.84,1022.6 379.77,1025.6 380.67,1028.5"];
	73 -- 259	[pos="361.64,1018.9 353.53,1031.6 342.48,1048.9 334.42,1061.5"];
	187 -- 289	[pos="208.76,291 211.31,284 214.24,275.95 216.8,268.92"];
	163 -- 231	[pos="234,551.17 226.17,545.6 217.06,539.13 209.23,533.56"];
	163 -- 226	[pos="233.2,577.37 223.91,583.62 212.8,591.07 203.53,597.3"];
	163 -- 240	[pos="257.84,582.1 259.36,587.22 261.02,592.81 262.54,597.95"];
	76 -- 187	[pos="226.3,357.98 221.52,348.12 215.54,335.76 210.75,325.87"];
	76 -- 102	[pos="217.67,389.54 211.9,394.45 205.45,399.95 199.69,404.85"];
	76 -- 180	[pos="224.57,392.21 213.62,410.84 196.22,440.47 185.33,459"];
	76 -- 289	[pos="232.96,357.08 230.81,333.56 227.09,292.66 224.94,269.13"];
	76 -- 254	[pos="257.34,385.33 262.73,387.75 268.48,390.33 273.87,392.75"];
	76 -- 267	[pos="241.47,357.46 246.43,344.72 253.1,327.6 258.05,314.88"];
	102 -- 187	[pos="186.11,400.89 189.74,380.27 195.61,346.95 199.21,326.48"];
	246	[height=0.5,
		pos="27,377.18",
		width=0.75];
	102 -- 246	[pos="157.85,412.41 128.85,404.6 81.334,391.8 52.244,383.97"];
	102 -- 160	[pos="174.51,402.03 166.86,386.4 155.6,363.42 147.9,347.71"];
	102 -- 285	[pos="166.66,404.7 161.24,399.87 155.19,394.49 149.75,389.65"];
	102 -- 279	[pos="163.17,431.83 153.7,437.92 142.39,445.2 132.94,451.27"];
	102 -- 231	[pos="184.29,437.24 185.7,455.55 187.86,483.71 189.27,502.08"];
	102 -- 180	[pos="180.54,437.09 179.67,443.7 178.69,451.2 177.81,457.82"];
	102 -- 244	[pos="155.46,419.34 143.33,419.42 129.1,419.51 117,419.6"];
	280	[height=0.5,
		pos="69.152,325.43",
		width=0.75];
	102 -- 280	[pos="165.62,404.92 144.12,387.2 107.62,357.13 86.218,339.49"];
	184 -- 278	[pos="1008.5,1150.4 1003.3,1148.8 997.71,1147.2 992.44,1145.7"];
	77 -- 81	[pos="1411.2,291.37 1416.2,306.07 1423.3,326.86 1428.3,341.56"];
	77 -- 228	[pos="1391.2,257.87 1376.9,241.83 1354.9,217.12 1340.7,201.13"];
	77 -- 82	[pos="1410.9,255.69 1415.8,240.33 1422.8,218.3 1427.7,202.94"];
	77 -- 121	[pos="1425.8,261.7 1441.1,252.8 1462,240.69 1477.4,231.79"];
	228 -- 265	[pos="1342,200.42 1346.7,205.01 1351.9,210.06 1356.5,214.65"];
	117 -- 134	[pos="542.13,344.22 566.56,353.38 604.42,367.57 628.93,376.76"];
	114 -- 293	[pos="1696.6,222.78 1702.3,217.87 1708.7,212.38 1714.4,207.48"];
	114 -- 172	[pos="1681.5,255.2 1681.9,259.47 1682.3,264.02 1682.7,268.29"];
	114 -- 147	[pos="1665.8,252.78 1656.9,262.75 1645.3,275.65 1636.3,285.68"];
	114 -- 182	[pos="1653.1,233.26 1650.2,232.83 1647.3,232.4 1644.4,231.97"];
	82 -- 228	[pos="1406.3,185.17 1390.2,185.24 1370,185.33 1354,185.4"];
	82 -- 281	[pos="1459.7,180.79 1472.9,178.65 1488.9,176.06 1502.1,173.92"];
	82 -- 121	[pos="1454.5,196.46 1461.6,200.27 1469.4,204.52 1476.5,208.35"];
	82 -- 265	[pos="1414.9,198.39 1407.1,204.03 1398.1,210.57 1390.2,216.2"];
	281 -- 290	[pos="1548.5,157.44 1557.3,152.1 1567.5,145.85 1576.2,140.51"];
	143 -- 207	[pos="730.3,489.51 738.31,484.71 747.53,479.19 755.57,474.37"];
	121 -- 228	[pos="1471.9,214.68 1439.7,208.2 1385,197.21 1352.8,190.74"];
	121 -- 281	[pos="1508.1,203.16 1511.4,197.79 1515,191.84 1518.3,186.47"];
	121 -- 290	[pos="1513.7,205.18 1532,188.08 1562.1,160.04 1580.5,142.96"];
	83 -- 189	[pos="1439.6,1026.4 1431,1032.7 1421,1040.1 1412.5,1046.4"];
	83 -- 165	[pos="1474.1,998.03 1479.6,992.99 1485.8,987.36 1491.3,982.33"];
	83 -- 122	[pos="1431.5,1017 1410,1020.3 1379.8,1025.1 1358.3,1028.5"];
	83 -- 222	[pos="1453.2,994.86 1451.6,988.74 1449.8,981.91 1448.2,975.8"];
	165 -- 222	[pos="1480.6,963.64 1477.1,963.1 1473.4,962.55 1469.9,962.01"];
	103 -- 119	[pos="1285.8,1083.3 1289.4,1084.1 1293.1,1084.9 1296.7,1085.8"];
	103 -- 175	[pos="1261.4,1095.7 1262.6,1114.4 1264.4,1143.2 1265.6,1161.8"];
	87 -- 214	[pos="1392.5,1179.2 1398.3,1162.9 1407,1138.7 1412.9,1122.4"];
	87 -- 92	[pos="1361.2,1204.5 1348.3,1208.3 1332.7,1213 1319.9,1216.8"];
	87 -- 142	[pos="1374.4,1180.8 1371,1176.1 1367.3,1170.9 1363.9,1166.2"];
	92 -- 139	[pos="1268.5,1227.6 1255.2,1229.3 1239,1231.4 1225.7,1233.1"];
	92 -- 142	[pos="1307.4,1208 1317,1195.6 1330.2,1178.4 1339.8,1165.9"];
	88 -- 196	[pos="1193.6,753.56 1175.3,767 1147.6,787.38 1129.4,800.78"];
	89 -- 131	[pos="1036,164.96 1079.2,180.3 1169.7,212.38 1212.9,227.68"];
	89 -- 100	[pos="1039.1,154.84 1042.8,154.63 1046.5,154.42 1050.1,154.21"];
	89 -- 234	[pos="1007.5,138.43 1004.3,125.45 999.98,108.01 996.8,95.043"];
	89 -- 202	[pos="990.02,145.65 981.13,141.27 970.9,136.22 962.03,131.85"];
	90 -- 97	[pos="1658.8,527.51 1655.1,531.92 1651.1,536.71 1647.4,541.13"];
	95 -- 201	[pos="927.18,1013 927,1010.5 926.81,1007.8 926.62,1005.3"];
	95 -- 155	[pos="945.52,1016.9 953.4,1010.2 962.73,1002.3 970.57,995.68"];
	95 -- 107	[pos="905.84,1041.3 874.7,1055.2 819.03,1080 788,1093.8"];
	95 -- 203	[pos="901.48,1031.2 869.08,1031.2 815.12,1031.1 782.68,1031.1"];
	95 -- 110	[pos="904.8,1040.5 892.46,1045.3 877.43,1051.2 865.14,1056"];
	95 -- 236	[pos="911.17,1045.2 893.03,1059.8 864.7,1082.7 846.51,1097.4"];
	95 -- 135	[pos="901.55,1028.7 885.07,1027.1 864.06,1025.1 847.58,1023.6"];
	95 -- 161	[pos="945.55,1017 966.77,999.27 1002.8,969.18 1023.9,951.53"];
	100 -- 131	[pos="1098.6,163.91 1129.2,179.89 1184.8,208.98 1215.3,224.94"];
	100 -- 247	[pos="1077.6,134.4 1078.1,119.29 1078.9,97.922 1079.4,82.817"];
	100 -- 234	[pos="1060.7,138.08 1045.7,124.71 1023.6,105 1008.7,91.636"];
	100 -- 133	[pos="1069.1,135.25 1067.7,132.18 1066.3,128.97 1064.9,125.9"];
	100 -- 202	[pos="1051.3,146.72 1026.9,141.09 990.31,132.66 965.9,127.04"];
	100 -- 291	[pos="1075.5,134.49 1073.2,108.79 1069.2,62.076 1067,36.301"];
	100 -- 297	[pos="1069.2,170.09 1067.2,174.52 1065,179.28 1063,183.71"];
	179 -- 208	[pos="1797.1,628.43 1804.9,633.69 1813.9,639.76 1821.8,645.02"];
	179 -- 209	[pos="1772.5,633.15 1770,641.5 1767,651.44 1764.5,659.82"];
	179 -- 225	[pos="1782.5,597.64 1784.4,590.12 1786.7,581.39 1788.7,573.87"];
	142 -- 214	[pos="1371.2,1137 1380.2,1130.9 1390.9,1123.7 1399.9,1117.6"];
	101 -- 179	[pos="1675.9,664.1 1698.5,653.32 1733.3,636.71 1755.8,625.96"];
	101 -- 208	[pos="1680.5,672.28 1716.1,669.09 1778.6,663.49 1814.2,660.3"];
	101 -- 277	[pos="1626.8,672.96 1622.5,672.67 1617.9,672.38 1613.6,672.1"];
	101 -- 209	[pos="1680.9,675.48 1696.6,675.94 1716.3,676.52 1732.1,676.98"];
	101 -- 257	[pos="1642.5,691.34 1640.2,694.84 1637.7,698.54 1635.3,702.05"];
	208 -- 232	[pos="1866.7,652.3 1870.6,651.47 1874.5,650.61 1878.4,649.78"];
	208 -- 298	[pos="1859.2,644.15 1871.5,634.9 1887.7,622.75 1900,613.52"];
	246 -- 280	[pos="40.106,361.09 45.23,354.8 51.09,347.6 56.199,341.33"];
	133 -- 247	[pos="1066,91.483 1067.6,88.295 1069.4,84.964 1071,81.775"];
	133 -- 234	[pos="1035.2,97.965 1028.4,94.679 1021,91.063 1014.3,87.778"];
	133 -- 202	[pos="1030.3,111.5 1011.3,113.54 985.91,116.25 966.95,118.28"];
	133 -- 291	[pos="1058.7,90.294 1060.2,74.466 1062.3,51.734 1063.7,36.005"];
	133 -- 299	[pos="1083.7,104.64 1094.6,103.01 1107.1,101.14 1117.9,99.517"];
	104 -- 144	[pos="1272.3,695.42 1265.4,679.05 1255.2,654.87 1248.4,638.61"];
	104 -- 237	[pos="1270.5,696 1268.4,692.11 1266.1,687.99 1264.1,684.11"];
	105 -- 219	[pos="335.69,494.03 342.81,484.79 351.72,473.2 358.85,463.92"];
	119 -- 175	[pos="1311.8,1108.3 1301.9,1124 1287.2,1147.4 1277.3,1163.2"];
	110 -- 236	[pos="836.89,1082.9 835.94,1086.3 834.94,1090 833.98,1093.5"];
	110 -- 135	[pos="833.53,1047.9 831.99,1044.7 830.39,1041.4 828.86,1038.2"];
	112 -- 139	[pos="1143.1,1207.2 1153.8,1212.8 1166.7,1219.6 1177.5,1225.2"];
	112 -- 184	[pos="1098.9,1186 1085.8,1180.3 1069.5,1173.2 1056.4,1167.5"];
	112 -- 206	[pos="1097.5,1204 1072.2,1212.6 1032.8,1226.1 1007.5,1234.7"];
	112 -- 178	[pos="1116.3,1213.7 1115.5,1216.5 1114.7,1219.4 1113.9,1222.1"];
	112 -- 205	[pos="1123.6,1214 1126.3,1238.5 1131.2,1282 1133.9,1306.5"];
	112 -- 183	[pos="1101.9,1208.5 1090.9,1215.6 1077.2,1224.4 1066.2,1231.5"];
	112 -- 278	[pos="1097.8,1187 1068.8,1176.2 1020.2,1158.1 991.18,1147.4"];
	162 -- 238	[pos="981.59,217.08 979.24,220.58 976.75,224.28 974.4,227.79"];
	156 -- 235	[pos="558.72,468.09 548.03,467.56 535.8,466.95 525.13,466.43"];
	156 -- 282	[pos="567.6,455.97 548.78,442.26 519.78,421.13 501.02,407.47"];
	116 -- 170	[pos="824.76,424.09 813.96,443.1 796.55,473.77 785.75,492.8"];
	116 -- 191	[pos="819.87,391.69 806.99,377.98 788.27,358.06 775.4,344.36"];
	116 -- 250	[pos="825.02,390.15 812.23,366.93 789.42,325.51 776.56,302.16"];
	116 -- 176	[pos="833.42,425.31 830.85,473.62 823.87,604.81 821.29,653.27"];
	172 -- 293	[pos="1693,269.21 1701.3,252.52 1714,227.23 1722.4,210.47"];
	122 -- 189	[pos="1354.8,1042.6 1360.3,1044.9 1366,1047.5 1371.5,1049.8"];
	122 -- 165	[pos="1355.6,1023.9 1389.1,1011.5 1449.9,988.94 1483.5,976.51"];
	122 -- 222	[pos="1351.2,1019.8 1371.6,1006.1 1403.8,984.62 1424.2,970.92"];
	122 -- 192	[pos="1304.7,1032.8 1289.5,1032.9 1270.6,1033 1255.4,1033"];
	128 -- 287	[pos="554.71,538.18 537.45,558.35 507.68,593.1 490.39,613.29"];
	128 -- 239	[pos="566.78,504.28 565.4,486.41 563.31,459.28 561.93,441.44"];
	125 -- 188	[pos="715.09,577.15 714.97,573.62 714.83,569.93 714.71,566.4"];
	218 -- 259	[pos="364.73,1057.1 358.53,1060.3 351.76,1063.8 345.54,1067"];
	132 -- 212	[pos="1579.7,599.06 1581.1,602.14 1582.5,605.34 1583.8,608.41"];
	135 -- 203	[pos="794.15,1025.1 790.21,1025.7 786.15,1026.3 782.2,1027"];
	202 -- 234	[pos="957.06,106.97 963.01,101.94 969.7,96.287 975.65,91.263"];
	199 -- 256	[pos="981.36,877.06 1002.4,873.26 1032,867.92 1053.2,864.09"];
	199 -- 266	[pos="981.62,886.72 984.79,887.32 988.03,887.93 991.2,888.52"];
	145 -- 263	[pos="1524.5,748.9 1528.7,747.6 1533.1,746.25 1537.3,744.95"];
	154 -- 178	[pos="1154.6,1268.1 1146.4,1263.1 1137,1257.2 1128.8,1252.2"];
	154 -- 205	[pos="1160.8,1296.4 1157.2,1300.4 1153.4,1304.8 1149.9,1308.8"];
	147 -- 172	[pos="1647.4,295.35 1651.2,294.43 1655.1,293.47 1658.9,292.55"];
	147 -- 284	[pos="1626.2,319.55 1628.4,329.18 1631,341.01 1633.2,350.65"];
	147 -- 182	[pos="1621,283.39 1620.4,272.08 1619.5,257.58 1618.8,246.26"];
	193 -- 229	[pos="1174.7,616.64 1171.8,604.96 1168.1,589.79 1165.2,578.13"];
	148 -- 168	[pos="1717.5,415.56 1728,396.83 1744.8,367.03 1755.2,348.4"];
	148 -- 260	[pos="1706.9,414.49 1706.6,408.51 1706.3,401.87 1706,395.91"];
	241 -- 268	[pos="710.72,953.3 703.32,958.17 694.88,963.74 687.46,968.63"];
	164 -- 251	[pos="1333.8,336.12 1331.5,344.18 1328.8,353.71 1326.5,361.79"];
	164 -- 258	[pos="1331.5,300.92 1330.1,297.68 1328.6,294.29 1327.2,291.04"];
	178 -- 205	[pos="1114.5,1257.8 1119.1,1272.3 1125.7,1292.5 1130.3,1306.9"];
	178 -- 183	[pos="1081.7,1241.7 1079.1,1241.9 1076.4,1242.1 1073.8,1242.3"];
	235 -- 282	[pos="494.21,447.18 491.89,436.5 488.96,422.99 486.63,412.27"];
	158 -- 269	[pos="996.04,419.4 990.11,413.46 983.34,406.66 977.43,400.73"];
	158 -- 195	[pos="1000.5,451.26 998.27,454.77 995.89,458.47 993.64,461.97"];
	186 -- 274	[pos="448.64,599.58 455.06,615.72 464.52,639.5 470.93,655.61"];
	274 -- 287	[pos="477.47,654.96 477.41,652.4 477.35,649.77 477.29,647.21"];
	160 -- 285	[pos="136.92,348.51 136.53,351.31 136.14,354.21 135.76,357.01"];
	160 -- 244	[pos="129.82,347.59 120.97,363.53 107.91,387.07 99.124,402.89"];
	160 -- 280	[pos="112.44,328.46 107.17,328.09 101.65,327.7 96.383,327.33"];
	226 -- 264	[pos="192.45,627.44 194.15,631.08 195.95,634.92 197.66,638.56"];
	226 -- 240	[pos="211.23,612.01 220.67,612.66 231.28,613.38 240.74,614.03"];
	171 -- 245	[pos="1285.6,417.74 1296.2,419.35 1308.4,421.2 1319.1,422.81"];
	171 -- 276	[pos="1233,418.5 1229.8,419.08 1226.6,419.66 1223.4,420.23"];
	171 -- 270	[pos="1274.4,428.79 1293.6,448.07 1326.9,481.29 1346.2,500.59"];
	174 -- 179	[pos="1815.1,606.44 1811.3,607.36 1807.4,608.31 1803.6,609.23"];
	174 -- 208	[pos="1840.8,618.5 1840.8,625.23 1840.8,632.85 1840.8,639.58"];
	174 -- 232	[pos="1859.8,613.43 1867.8,618.98 1877.2,625.43 1885.3,630.98"];
	174 -- 225	[pos="1824.9,585.54 1819.9,580.82 1814.3,575.59 1809.2,570.87"];
	232 -- 298	[pos="1909.9,626.39 1910.8,623.5 1911.7,620.51 1912.6,617.63"];
	183 -- 206	[pos="1019.4,1243.6 1016.5,1243.6 1013.4,1243.5 1010.5,1243.5"];
	209 -- 225	[pos="1764.1,660.07 1770.6,637 1781.9,596.87 1788.4,573.78"];
	180 -- 279	[pos="149.49,470.81 146.17,470.17 142.77,469.51 139.45,468.87"];
	180 -- 231	[pos="181.46,493.43 182.49,496.45 183.57,499.58 184.6,502.6"];
	180 -- 244	[pos="156,463.12 141.98,453.94 123.13,441.61 109.12,432.45"];
	182 -- 293	[pos="1642.3,220.47 1661.3,214.63 1687.5,206.57 1706.5,200.73"];
	182 -- 227	[pos="1598.1,240.53 1590.9,245.14 1582.7,250.37 1575.4,254.98"];
	244 -- 246	[pos="70.582,406.77 62.797,401.48 53.824,395.39 46.051,390.11"];
	244 -- 285	[pos="104.5,404.63 109.04,399.96 114.04,394.82 118.58,390.16"];
	244 -- 279	[pos="98.964,436.94 100.68,440.13 102.47,443.46 104.18,446.65"];
	244 -- 280	[pos="85.779,401.59 82.108,384.77 76.686,359.94 73.042,343.24"];
	192 -- 223	[pos="1254.6,1028.4 1285.6,1022.8 1336.9,1013.5 1367.9,1007.9"];
	254 -- 267	[pos="291.22,385.03 285.36,365.48 276.03,334.39 270.19,314.95"];
	215 -- 273	[pos="1423.7,528.87 1418.6,516.67 1411.8,500.47 1406.6,488.29"];
	200 -- 241	[pos="699.78,834.21 706.49,857.81 718.26,899.24 724.97,922.83"];
	200 -- 275	[pos="704,799.35 712.83,783.13 726.03,758.86 734.84,742.67"];
	200 -- 268	[pos="691.81,834.4 686.66,866.15 676.02,931.78 670.88,963.51"];
	243 -- 292	[pos="530.84,869.6 529.11,852.96 526.57,828.44 524.84,811.82"];
	257 -- 277	[pos="1611.6,702.62 1607.6,697.46 1603.2,691.74 1599.2,686.56"];
	272 -- 296	[pos="304.49,705.93 290.87,705.94 274.41,705.96 260.76,705.97"];
}
