graph {
	graph [bb="0,0,549.45,442.38",
		outputorder=edgesfirst,
		overlap=prism,
		size="50,50!",
		start=4748
	];
	node [label="\N"];
	0	[height=0.5,
		pos="428.65,108.27",
		width=0.75];
	8	[height=0.5,
		pos="246.05,19.03",
		width=0.75];
	0 -- 8	[pos="406.63,97.503 371.43,80.305 302.93,46.827 267.87,29.693"];
	2	[height=0.5,
		pos="246.1,208.16",
		width=0.75];
	0 -- 2	[pos="407.71,119.73 372.59,138.94 302.22,177.45 267.08,196.68"];
	6	[height=0.5,
		pos="357.73,18",
		width=0.75];
	0 -- 6	[pos="415.97,92.129 403.07,75.699 383.17,50.378 370.3,33.998"];
	9	[height=0.5,
		pos="356.57,241.64",
		width=0.75];
	0 -- 9	[pos="419.38,125.43 405.54,151.04 379.63,198.97 365.81,224.54"];
	1	[height=0.5,
		pos="439.76,297.8",
		width=0.75];
	0 -- 1	[pos="429.72,126.44 431.84,162.67 436.58,243.5 438.7,279.68"];
	14	[height=0.5,
		pos="179.68,123.42",
		width=0.75];
	8 -- 14	[pos="235.38,35.802 223,55.283 202.69,87.228 190.32,106.69"];
	16	[height=0.5,
		pos="312.89,137.64",
		width=0.75];
	8 -- 16	[pos="255.62,36.023 268.33,58.571 290.63,98.144 303.33,120.68"];
	2 -- 8	[pos="246.09,190.02 246.08,153.87 246.06,73.214 246.05,37.109"];
	3	[height=0.5,
		pos="75.49,122.53",
		width=0.75];
	2 -- 3	[pos="224.49,197.31 191.76,180.89 129.97,149.88 97.191,133.42"];
	12	[height=0.5,
		pos="83.93,244.05",
		width=0.75];
	2 -- 12	[pos="220.4,213.85 190.13,220.55 140.11,231.61 109.77,238.33"];
	5	[height=0.5,
		pos="128.53,371.77",
		width=0.75];
	2 -- 5	[pos="234.4,224.44 211.98,255.64 163.19,323.54 140.54,355.06"];
	15	[height=0.5,
		pos="253.31,380.92",
		width=0.75];
	2 -- 15	[pos="246.86,226.32 248.24,259.5 251.17,329.55 252.55,362.75"];
	3 -- 8	[pos="95.725,110.25 128.55,90.332 193.03,51.203 225.84,31.293"];
	3 -- 14	[pos="102.59,122.76 117.91,122.89 137,123.06 152.35,123.19"];
	4	[height=0.5,
		pos="27,288.05",
		width=0.75];
	3 -- 4	[pos="70.301,140.24 60.992,172.02 41.56,238.35 32.225,270.21"];
	3 -- 12	[pos="76.754,140.72 78.345,163.63 81.063,202.76 82.658,225.73"];
	11	[height=0.5,
		pos="182.79,267.6",
		width=0.75];
	3 -- 11	[pos="87.591,138.89 108.2,166.75 149.88,223.11 170.57,251.08"];
	14 -- 16	[pos="206.64,126.3 229.75,128.76 262.87,132.3 285.97,134.77"];
	6 -- 8	[pos="330.7,18.249 313.27,18.41 290.68,18.618 273.22,18.779"];
	6 -- 14	[pos="337.31,30.093 303.05,50.374 234.42,91.012 200.14,111.31"];
	6 -- 9	[pos="357.64,36.301 357.42,78.342 356.88,181.42 356.66,223.4"];
	6 -- 16	[pos="351.12,35.653 342.64,58.273 328.03,97.258 319.53,119.91"];
	4 -- 14	[pos="41.364,272.56 70.464,241.19 136.08,170.43 165.25,138.99"];
	4 -- 12	[pos="44.701,274.37 51.49,269.12 59.237,263.13 66.044,257.87"];
	4 -- 5	[pos="44.223,302.25 62.893,317.65 92.519,342.07 111.22,357.5"];
	4 -- 11	[pos="53.782,284.53 82.404,280.78 127.51,274.86 156.1,271.1"];
	7	[height=0.5,
		pos="190.2,424.38",
		width=0.75];
	4 -- 7	[pos="43.85,302.13 75.123,328.25 141.81,383.96 173.19,410.18"];
	12 -- 14	[pos="96.843,227.78 115.22,204.63 148.71,162.44 166.97,139.43"];
	12 -- 15	[pos="101.42,258.18 133.96,284.48 203.45,340.63 235.92,366.87"];
	5 -- 12	[pos="122.33,354.01 113.81,329.61 98.572,285.98 90.078,261.65"];
	5 -- 11	[pos="137.49,354.57 147.54,335.27 163.76,304.14 173.82,284.83"];
	5 -- 7	[pos="145.38,386.14 154.08,393.57 164.67,402.6 173.37,410.02"];
	5 -- 15	[pos="155.61,373.75 176.54,375.29 205.37,377.41 226.29,378.94"];
	10	[height=0.5,
		pos="335.17,362.39",
		width=0.75];
	5 -- 10	[pos="155.54,370.54 195.15,368.75 268.55,365.41 308.15,363.62"];
	11 -- 14	[pos="182.4,249.34 181.8,221.61 180.67,169.18 180.07,141.53"];
	11 -- 16	[pos="197.97,252.44 223.04,227.39 272.8,177.68 297.81,152.7"];
	9 -- 14	[pos="337.3,228.76 303.28,206.02 232.93,159.01 198.93,136.28"];
	9 -- 11	[pos="330.17,245.58 297.42,250.48 241.89,258.77 209.15,263.66"];
	9 -- 10	[pos="353.36,259.72 349.33,282.48 342.44,321.37 338.4,344.19"];
	13	[height=0.5,
		pos="522.45,393.98",
		width=0.75];
	9 -- 13	[pos="372.47,256.25 404.1,285.29 474.57,350 506.35,379.19"];
	9 -- 16	[pos="349.16,224 341.08,204.76 328.23,174.16 320.19,155.02"];
	7 -- 11	[pos="189.33,406.09 187.91,375.88 185.07,315.91 183.65,285.77"];
	7 -- 9	[pos="204.38,408.8 235.81,374.27 311.02,291.67 342.42,257.18"];
	7 -- 15	[pos="209.13,411.34 217.12,405.84 226.4,399.45 234.39,393.95"];
	7 -- 10	[pos="213.17,414.56 240.32,402.95 285.21,383.76 312.31,372.17"];
	10 -- 11	[pos="315.25,350 286.05,331.83 231.92,298.16 202.72,280"];
	10 -- 15	[pos="309.27,368.26 299.62,370.44 288.68,372.92 279.05,375.1"];
	10 -- 13	[pos="361.61,366.85 397.3,372.87 460.53,383.53 496.15,389.54"];
	10 -- 16	[pos="333.39,344.38 329.22,302.3 318.87,197.9 314.68,155.74"];
	1 -- 2	[pos="417.55,287.52 380.29,270.27 305.64,235.72 268.35,218.46"];
	1 -- 9	[pos="420.47,284.78 407.03,275.7 389.18,263.65 375.76,254.59"];
	1 -- 15	[pos="417.27,307.83 381.43,323.81 311.77,354.86 275.88,370.86"];
	1 -- 10	[pos="419.6,310.26 401.08,321.69 373.78,338.55 355.28,349.98"];
	1 -- 13	[pos="453.42,313.68 468.74,331.5 493.45,360.24 508.78,378.07"];
}
