graph {
	graph [bb="0,0,1151.2,974.71",
		outputorder=edgesfirst,
		overlap=prism,
		size="50,50!",
		start=1782
	];
	node [label="\N"];
	0	[height=0.5,
		pos="421.1,379.83",
		width=0.75];
	20	[height=0.5,
		pos="201.18,228.23",
		width=0.75];
	0 -- 20	[pos="401.97,366.64 360.27,337.9 261.63,269.9 220.12,241.28"];
	2	[height=0.5,
		pos="531.59,551.59",
		width=0.75];
	0 -- 2	[pos="431.9,396.61 453.07,429.53 499.83,502.22 520.91,534.99"];
	22	[height=0.5,
		pos="268.55,644.71",
		width=0.75];
	0 -- 22	[pos="411.33,396.8 383.77,444.65 305.7,580.21 278.25,627.88"];
	24	[height=0.5,
		pos="411.03,626.48",
		width=0.75];
	0 -- 24	[pos="420.36,397.97 418.5,443.58 413.64,562.68 411.77,608.32"];
	25	[height=0.5,
		pos="456.21,152.21",
		width=0.75];
	0 -- 25	[pos="423.92,361.59 430.5,318.86 446.87,212.72 453.43,170.22"];
	6	[height=0.5,
		pos="473.08,595.61",
		width=0.75];
	0 -- 6	[pos="425.44,397.86 435.25,438.58 459.02,537.26 468.79,577.78"];
	7	[height=0.5,
		pos="733.5,386.49",
		width=0.75];
	0 -- 7	[pos="448.28,380.41 507.36,381.67 646.94,384.65 706.16,385.91"];
	26	[height=0.5,
		pos="566.85,204.53",
		width=0.75];
	0 -- 26	[pos="434.29,363.97 461.97,330.68 525.84,253.86 553.59,220.49"];
	9	[height=0.5,
		pos="655.69,554.37",
		width=0.75];
	0 -- 9	[pos="439.12,393.24 482.79,425.73 593.88,508.39 637.61,540.92"];
	27	[height=0.5,
		pos="292.7,335.99",
		width=0.75];
	0 -- 27	[pos="396.95,371.59 373.99,363.75 339.66,352.03 316.74,344.2"];
	28	[height=0.5,
		pos="115.47,435.76",
		width=0.75];
	0 -- 28	[pos="395.04,384.6 337.45,395.14 199.84,420.32 141.9,430.93"];
	12	[height=0.5,
		pos="609.43,386.86",
		width=0.75];
	0 -- 12	[pos="448.08,380.84 483.78,382.17 546.36,384.5 582.19,385.84"];
	13	[height=0.5,
		pos="726.71,554.34",
		width=0.75];
	0 -- 13	[pos="441.63,391.55 497.17,423.27 649.97,510.52 705.87,542.44"];
	30	[height=0.5,
		pos="380.18,201.76",
		width=0.75];
	0 -- 30	[pos="416.95,361.78 409.09,327.56 392.11,253.65 384.28,219.6"];
	31	[height=0.5,
		pos="268.7,468.09",
		width=0.75];
	0 -- 31	[pos="400.55,391.74 371.46,408.58 318.59,439.2 289.41,456.1"];
	16	[height=0.5,
		pos="504.6,386.45",
		width=0.75];
	0 -- 16	[pos="447.98,381.96 457.52,382.72 468.24,383.57 477.77,384.32"];
	32	[height=0.5,
		pos="710.42,192.49",
		width=0.75];
	0 -- 32	[pos="440.53,367.25 493.11,333.2 637.77,239.53 690.7,205.27"];
	34	[height=0.5,
		pos="595.24,510.33",
		width=0.75];
	0 -- 34	[pos="439.08,393.31 472.45,418.31 543.61,471.64 577.1,496.74"];
	19	[height=0.5,
		pos="485.39,639.65",
		width=0.75];
	0 -- 19	[pos="425.52,397.69 437.26,445.16 469.16,574.06 480.94,621.67"];
	21	[height=0.5,
		pos="185.1,289.98",
		width=0.75];
	20 -- 21	[pos="196.53,246.09 194.42,254.21 191.92,263.8 189.8,271.95"];
	2 -- 6	[pos="513.4,565.27 506.29,570.63 498.15,576.74 491.06,582.08"];
	2 -- 9	[pos="558.82,552.2 579.52,552.66 607.84,553.3 628.52,553.76"];
	2 -- 12	[pos="539.77,534.27 554.72,502.63 586.28,435.84 601.24,404.19"];
	2 -- 19	[pos="522.46,568.99 514.31,584.53 502.44,607.15 494.34,622.59"];
	3	[height=0.5,
		pos="643.32,660.76",
		width=0.75];
	2 -- 3	[pos="547.13,566.77 568.47,587.63 606.64,624.92 627.92,645.71"];
	8	[height=0.5,
		pos="707.74,342.45",
		width=0.75];
	2 -- 8	[pos="544.83,535.87 577.47,497.11 661.54,397.3 694.35,358.35"];
	15	[height=0.5,
		pos="463.71,531.7",
		width=0.75];
	2 -- 15	[pos="506.7,544.3 500.79,542.57 494.5,540.72 488.59,538.99"];
	46	[height=0.5,
		pos="556.59,803.88",
		width=0.75];
	2 -- 46	[pos="533.39,569.73 538,616.28 550.22,739.53 554.81,785.9"];
	48	[height=0.5,
		pos="612.43,315.54",
		width=0.75];
	2 -- 48	[pos="537.67,533.85 552.68,490 591.42,376.9 606.39,333.17"];
	49	[height=0.5,
		pos="787.56,501.94",
		width=0.75];
	2 -- 49	[pos="557.54,546.56 606.6,537.04 712.42,516.51 761.54,506.99"];
	50	[height=0.5,
		pos="213.12,512.62",
		width=0.75];
	2 -- 50	[pos="504.98,548.33 445.04,541 299.96,523.25 239.87,515.9"];
	52	[height=0.5,
		pos="319.11,688.78",
		width=0.75];
	2 -- 52	[pos="511.98,564.25 471.5,590.38 379.11,650.04 338.67,676.15"];
	53	[height=0.5,
		pos="680.66,805.58",
		width=0.75];
	2 -- 53	[pos="541.6,568.65 568.76,614.92 643.59,742.41 670.7,788.6"];
	14	[height=0.5,
		pos="546.07,342.41",
		width=0.75];
	2 -- 14	[pos="532.85,533.39 535.59,493.73 542.09,399.9 544.82,360.42"];
	55	[height=0.5,
		pos="320.3,380.04",
		width=0.75];
	2 -- 55	[pos="514.3,537.55 474.58,505.3 377.2,426.23 337.53,394.03"];
	17	[height=0.5,
		pos="857.6,427.53",
		width=0.75];
	2 -- 17	[pos="555.3,542.57 615.52,519.65 773.85,459.4 833.98,436.52"];
	57	[height=0.5,
		pos="827.17,730.36",
		width=0.75];
	2 -- 57	[pos="551.91,563.88 606.03,596.61 753.26,685.66 807.1,718.22"];
	23	[height=0.5,
		pos="432.51,771.74",
		width=0.75];
	22 -- 23	[pos="286.41,658.55 317.95,682.98 383.15,733.5 414.67,757.92"];
	6 -- 7	[pos="490.57,581.56 538.01,543.47 668.73,438.5 716.09,400.48"];
	6 -- 9	[pos="498.86,589.79 533.66,581.93 595.31,568.01 630.04,560.16"];
	36	[height=0.5,
		pos="301.59,600.67",
		width=0.75];
	6 -- 36	[pos="445.91,596.41 413.8,597.36 360.69,598.93 328.64,599.87"];
	6 -- 17	[pos="495.7,585.72 563.79,555.96 766.39,467.4 834.77,437.51"];
	10	[height=0.5,
		pos="485.37,431.21",
		width=0.75];
	6 -- 10	[pos="474.44,577.38 476.8,545.78 481.63,481.17 484,449.51"];
	75	[height=0.5,
		pos="494.56,782.93",
		width=0.75];
	6 -- 75	[pos="475.14,613.57 479.24,649.28 488.36,728.85 492.48,764.75"];
	103	[height=0.5,
		pos="620.21,466.32",
		width=0.75];
	6 -- 103	[pos="489.67,581.03 517.93,556.2 575.09,505.97 603.46,481.04"];
	104	[height=0.5,
		pos="255.57,689.05",
		width=0.75];
	6 -- 104	[pos="450.21,605.43 408.44,623.37 320.25,661.26 278.46,679.21"];
	105	[height=0.5,
		pos="424.79,479.26",
		width=0.75];
	6 -- 105	[pos="465.85,578.19 456.75,556.25 441.2,518.78 432.07,496.79"];
	106	[height=0.5,
		pos="609.67,712.97",
		width=0.75];
	6 -- 106	[pos="489.83,610 516.04,632.52 566.49,675.86 592.79,698.46"];
	107	[height=0.5,
		pos="358.13,425.65",
		width=0.75];
	6 -- 107	[pos="461.85,579 439.82,546.42 391.17,474.5 369.24,442.07"];
	108	[height=0.5,
		pos="381.15,720.8",
		width=0.75];
	6 -- 108	[pos="461.06,611.97 443.44,635.97 410.79,680.43 393.17,704.43"];
	109	[height=0.5,
		pos="361.1,477.73",
		width=0.75];
	6 -- 109	[pos="458.44,580.2 436.98,557.6 397.2,515.74 375.74,493.14"];
	110	[height=0.5,
		pos="632.67,912.68",
		width=0.75];
	6 -- 110	[pos="481.89,613.11 509.79,668.54 596.03,839.88 623.89,895.24"];
	112	[height=0.5,
		pos="305.88,827.6",
		width=0.75];
	6 -- 112	[pos="461.32,611.92 430.62,654.51 348.31,768.73 317.63,811.3"];
	63	[height=0.5,
		pos="531.48,848.2",
		width=0.75];
	6 -- 63	[pos="477.28,613.77 488.05,660.38 516.58,783.77 527.32,830.2"];
	7 -- 12	[pos="706.27,386.57 685.59,386.63 657.27,386.72 636.59,386.78"];
	7 -- 19	[pos="718.72,401.57 674.7,446.49 544.73,579.1 500.4,624.33"];
	37	[height=0.5,
		pos="563.23,250.63",
		width=0.75];
	7 -- 37	[pos="715.92,372.46 683.21,346.36 613.35,290.63 580.71,264.59"];
	7 -- 49	[pos="741.71,404.03 751.93,425.85 769.27,462.89 779.45,484.62"];
	64	[height=0.5,
		pos="822.63,583.76",
		width=0.75];
	7 -- 64	[pos="741.41,404 758.32,441.43 797.84,528.89 814.74,566.3"];
	7 -- 10	[pos="707.42,391.19 659.76,399.78 559.15,417.91 511.48,426.5"];
	11	[height=0.5,
		pos="267.47,556.65",
		width=0.75];
	7 -- 11	[pos="709.75,395.16 629.81,424.35 371.05,518.83 291.18,547.99"];
	89	[height=0.5,
		pos="832.08,229.8",
		width=0.75];
	7 -- 89	[pos="744.05,369.72 763.02,339.56 802.69,276.52 821.6,246.45"];
	114	[height=0.5,
		pos="899.93,247.88",
		width=0.75];
	7 -- 114	[pos="750.38,372.44 782.27,345.87 851.08,288.56 883.01,261.97"];
	115	[height=0.5,
		pos="878.21,485.84",
		width=0.75];
	7 -- 115	[pos="752.42,399.48 780.15,418.52 831.55,453.81 859.28,472.85"];
	116	[height=0.5,
		pos="943.68,445.88",
		width=0.75];
	7 -- 116	[pos="758.44,393.54 798.89,404.97 878.35,427.42 918.78,438.84"];
	117	[height=0.5,
		pos="773.46,97.748",
		width=0.75];
	7 -- 117	[pos="736,368.43 743.18,316.57 763.79,167.65 770.96,115.8"];
	119	[height=0.5,
		pos="700.44,466.3",
		width=0.75];
	7 -- 119	[pos="726.16,404.2 720.65,417.52 713.13,435.67 707.64,448.91"];
	120	[height=0.5,
		pos="816.24,141.77",
		width=0.75];
	7 -- 120	[pos="739.45,368.89 754.68,323.85 794.94,204.77 810.23,159.54"];
	122	[height=0.5,
		pos="1039.1,337.6",
		width=0.75];
	7 -- 122	[pos="759.82,382.28 817.59,373.04 954.94,351.07 1012.8,341.82"];
	123	[height=0.5,
		pos="1033,398.62",
		width=0.75];
	7 -- 123	[pos="760.61,387.59 817.5,389.89 948.75,395.21 1005.8,397.51"];
	77	[height=0.5,
		pos="949.33,603.43",
		width=0.75];
	7 -- 77	[pos="748.68,401.75 788.31,441.58 894.56,548.38 934.17,588.2"];
	9 -- 12	[pos="650.74,536.45 641.83,504.2 623.22,436.8 614.35,404.65"];
	9 -- 16	[pos="641.75,538.88 612.96,506.89 547.26,433.87 518.51,401.91"];
	9 -- 15	[pos="628.99,551.22 592.42,546.9 527.1,539.19 490.48,534.86"];
	9 -- 14	[pos="646.72,537.03 626.11,497.18 575.59,399.49 555.01,359.7"];
	9 -- 10	[pos="637.14,540.96 604.37,517.27 536.64,468.29 503.9,444.61"];
	9 -- 115	[pos="680.35,546.78 723.12,533.61 810.58,506.67 853.43,493.47"];
	135	[height=0.5,
		pos="417.72,676.68",
		width=0.75];
	9 -- 135	[pos="634.15,565.44 588.96,588.67 484.68,642.27 439.38,665.55"];
	136	[height=0.5,
		pos="805.3,683.63",
		width=0.75];
	9 -- 136	[pos="672.27,568.7 701.03,593.55 759.83,644.35 788.64,669.24"];
	137	[height=0.5,
		pos="1054.6,471.07",
		width=0.75];
	9 -- 137	[pos="681.55,548.97 753.72,533.9 956.69,491.52 1028.8,476.46"];
	139	[height=0.5,
		pos="883.7,646.03",
		width=0.75];
	9 -- 139	[pos="679.23,563.84 723.04,581.45 816.58,619.05 860.29,636.62"];
	140	[height=0.5,
		pos="618.62,824.62",
		width=0.75];
	9 -- 140	[pos="653.2,572.53 646.45,621.76 627.84,757.41 621.1,806.55"];
	66	[height=0.5,
		pos="756.7,864.88",
		width=0.75];
	9 -- 66	[pos="661.56,572.41 679.45,627.42 733.2,792.62 750.95,847.18"];
	29	[height=0.5,
		pos="27.063,543.76",
		width=0.75];
	28 -- 29	[pos="102.43,451.7 85.713,472.12 56.903,507.31 40.162,527.76"];
	12 -- 13	[pos="620.89,403.22 643.25,435.16 692.49,505.48 715.03,537.66"];
	12 -- 16	[pos="582.16,386.75 566.63,386.69 547.24,386.62 531.73,386.56"];
	12 -- 19	[pos="600.9,404.23 578.19,450.53 516.4,576.44 493.81,622.49"];
	40	[height=0.5,
		pos="451.82,253.47",
		width=0.75];
	12 -- 40	[pos="592.56,372.58 562.23,346.91 498.81,293.24 468.57,267.64"];
	12 -- 15	[pos="594.38,401.81 566.46,429.57 506.91,488.75 478.89,516.61"];
	18	[height=0.5,
		pos="759.64,598.51",
		width=0.75];
	12 -- 18	[pos="621.22,403.46 649.3,443.03 719.88,542.49 747.9,581.98"];
	12 -- 14	[pos="590.76,373.76 582.59,368.03 573.01,361.31 564.82,355.57"];
	80	[height=0.5,
		pos="633.84,615.35",
		width=0.75];
	12 -- 80	[pos="611.39,405.17 615.97,448.06 627.35,554.61 631.91,597.27"];
	12 -- 105	[pos="587.52,397.82 551.99,415.6 482.18,450.53 446.67,468.31"];
	161	[height=0.5,
		pos="967.23,225.74",
		width=0.75];
	12 -- 161	[pos="631.81,376.78 695.92,347.91 879.73,265.14 944.4,236.02"];
	68	[height=0.5,
		pos="885.86,577.98",
		width=0.75];
	12 -- 68	[pos="628.43,399.99 679.05,434.99 816.74,530.19 867.09,565"];
	127	[height=0.5,
		pos="680.36,91.619",
		width=0.75];
	12 -- 127	[pos="613.76,368.83 626.45,316 663.47,161.94 676.09,109.41"];
	145	[height=0.5,
		pos="474.74,108.13",
		width=0.75];
	12 -- 145	[pos="601,369.42 576.82,319.37 507.35,175.61 483.16,125.56"];
	150	[height=0.5,
		pos="230.7,335.75",
		width=0.75];
	12 -- 150	[pos="582.8,383.26 513.26,373.88 326.81,348.72 257.3,339.34"];
	13 -- 16	[pos="708.54,540.6 666.78,509.04 564.41,431.66 522.72,400.15"];
	13 -- 19	[pos="702.69,562.83 656.43,579.19 555.49,614.87 509.31,631.19"];
	13 -- 15	[pos="699.56,552.01 649.03,547.66 541.13,538.37 490.71,534.03"];
	81	[height=0.5,
		pos="730.63,761.48",
		width=0.75];
	13 -- 81	[pos="727.05,572.36 727.79,611.54 729.54,704.08 730.29,743.35"];
	94	[height=0.5,
		pos="834.4,317.81",
		width=0.75];
	13 -- 94	[pos="734.63,536.95 754.55,493.21 806.55,379 826.47,335.23"];
	13 -- 106	[pos="714.63,570.72 692.2,601.12 644.38,665.94 621.87,696.44"];
	13 -- 116	[pos="748.71,543.35 790.4,522.5 880.46,477.48 921.95,456.75"];
	128	[height=0.5,
		pos="919.62,357.8",
		width=0.75];
	13 -- 128	[pos="741.53,539.25 777.44,502.66 868.79,409.58 904.75,372.94"];
	13 -- 136	[pos="736.99,571.25 752.05,596.02 779.96,641.94 795.02,666.72"];
	146	[height=0.5,
		pos="671.47,422.26",
		width=0.75];
	13 -- 146	[pos="719.38,536.8 708.81,511.54 689.42,465.18 678.84,439.88"];
	163	[height=0.5,
		pos="906.59,313.67",
		width=0.75];
	13 -- 163	[pos="738.79,538.18 771.48,494.44 861.42,374.11 894.32,330.08"];
	165	[height=0.5,
		pos="1071.6,571.16",
		width=0.75];
	13 -- 165	[pos="753.77,555.66 818.24,558.81 980.3,566.71 1044.6,569.85"];
	167	[height=0.5,
		pos="951.31,649.4",
		width=0.75];
	13 -- 167	[pos="749.9,564.16 793.05,582.42 885.19,621.41 928.25,639.64"];
	54	[height=0.5,
		pos="818.72,827.04",
		width=0.75];
	13 -- 54	[pos="732.75,572.24 749.46,621.77 796.18,760.26 812.78,809.44"];
	152	[height=0.5,
		pos="459.19,727.71",
		width=0.75];
	13 -- 152	[pos="707.04,567.09 657.57,599.15 528.39,682.86 478.89,714.94"];
	16 -- 19	[pos="503.22,404.66 499.67,451.38 490.29,575.07 486.76,621.61"];
	42	[height=0.5,
		pos="353.78,291.79",
		width=0.75];
	16 -- 42	[pos="484.88,374.08 455.98,355.93 402.41,322.31 373.5,304.17"];
	16 -- 18	[pos="521.73,400.69 568.19,439.33 696.21,545.77 742.58,584.33"];
	16 -- 109	[pos="484.95,398.95 457.62,416.33 408.42,447.63 380.97,465.09"];
	131	[height=0.5,
		pos="628.87,199.37",
		width=0.75];
	16 -- 131	[pos="515.63,369.85 539.21,334.35 594.31,251.4 617.87,215.94"];
	169	[height=0.5,
		pos="782.5,273.8",
		width=0.75];
	16 -- 169	[pos="527.82,377.04 580.13,355.84 706.72,304.52 759.16,283.26"];
	56	[height=0.5,
		pos="289.67,234.77",
		width=0.75];
	16 -- 56	[pos="485.9,373.26 445.25,344.57 349.22,276.8 308.47,248.05"];
	98	[height=0.5,
		pos="447.96,64.063",
		width=0.75];
	16 -- 98	[pos="501.39,368.19 491.42,311.45 461.05,138.59 451.13,82.119"];
	121	[height=0.5,
		pos="606.7,111.3",
		width=0.75];
	16 -- 121	[pos="511.14,368.82 529.58,319.12 581.84,178.3 600.22,128.78"];
	157	[height=0.5,
		pos="168.37,366.7",
		width=0.75];
	16 -- 157	[pos="477.65,384.87 414.7,381.17 258.53,372 195.44,368.29"];
	33	[height=0.5,
		pos="980.04,181.73",
		width=0.75];
	32 -- 33	[pos="737.51,191.41 789.19,189.35 901.3,184.87 952.97,182.81"];
	102	[height=0.5,
		pos="547.42,430.52",
		width=0.75];
	19 -- 102	[pos="490.67,621.82 502.39,582.31 530.43,487.78 542.14,448.31"];
	134	[height=0.5,
		pos="687.92,510.33",
		width=0.75];
	19 -- 134	[pos="505.17,627.02 543.99,602.23 629.7,547.5 668.35,522.82"];
	148	[height=0.5,
		pos="349.01,644.76",
		width=0.75];
	19 -- 148	[pos="458.12,640.67 434.33,641.56 400,642.85 376.23,643.74"];
	160	[height=0.5,
		pos="319.02,734.63",
		width=0.75];
	19 -- 160	[pos="464.65,651.49 432.68,669.74 371.72,704.54 339.75,722.79"];
	173	[height=0.5,
		pos="655.79,760.06",
		width=0.75];
	19 -- 173	[pos="503.95,652.77 536.72,675.93 604.49,723.81 637.25,746.96"];
	45	[height=0.5,
		pos="300.15,778.7",
		width=0.75];
	19 -- 45	[pos="467.29,653.24 431.87,679.82 353.79,738.43 318.32,765.05"];
	88	[height=0.5,
		pos="407.33,894.78",
		width=0.75];
	19 -- 88	[pos="479.9,657.59 465.57,704.44 427.14,830.04 412.81,876.86"];
	113	[height=0.5,
		pos="344.91,871.64",
		width=0.75];
	19 -- 113	[pos="475.06,656.71 449.01,699.72 380.92,812.18 355.07,854.87"];
	141	[height=0.5,
		pos="594.12,868.64",
		width=0.75];
	19 -- 141	[pos="493.56,656.86 513.71,699.3 565.61,808.59 585.86,851.23"];
	172	[height=0.5,
		pos="814.28,774.39",
		width=0.75];
	19 -- 172	[pos="508.51,649.13 568.9,673.86 730.82,740.19 791.17,764.92"];
	1	[height=0.5,
		pos="423.35,423.85",
		width=0.75];
	1 -- 2	[pos="436.84,439.77 457.69,464.38 497.52,511.38 518.27,535.87"];
	1 -- 9	[pos="444.38,435.66 488.61,460.51 590.83,517.94 634.88,542.68"];
	1 -- 13	[pos="446.15,433.65 502.37,457.84 647.15,520.12 703.65,544.42"];
	1 -- 3	[pos="437.78,439.39 477.64,482.32 588.91,602.17 628.84,645.16"];
	4	[height=0.5,
		pos="577.81,668.51",
		width=0.75];
	1 -- 4	[pos="433.96,440.66 462.25,485.47 539.18,607.33 567.32,651.9"];
	35	[height=0.5,
		pos="442.23,203.75",
		width=0.75];
	1 -- 35	[pos="424.89,405.84 428.43,364.56 437.1,263.53 440.67,222.01"];
	1 -- 36	[pos="411.89,440.48 388.63,474.27 336.09,550.57 312.92,584.21"];
	1 -- 37	[pos="436.26,407.86 462.9,374.86 523.73,299.55 550.35,266.58"];
	1 -- 8	[pos="448.58,416.62 502.55,401.18 628.64,365.09 682.56,349.65"];
	38	[height=0.5,
		pos="276.47,424.07",
		width=0.75];
	1 -- 38	[pos="396.07,423.89 369.68,423.93 329.94,423.99 303.61,424.03"];
	39	[height=0.5,
		pos="151.09,479.8",
		width=0.75];
	1 -- 39	[pos="397.24,429.21 345.2,439.91 229.09,463.77 177.12,474.45"];
	1 -- 40	[pos="426.34,405.93 431.81,373.21 443.35,304.13 448.83,271.39"];
	41	[height=0.5,
		pos="388.64,247.76",
		width=0.75];
	1 -- 41	[pos="419.83,405.99 413.17,372.24 398.82,299.45 392.16,265.66"];
	1 -- 15	[pos="430.01,441.66 437.53,461.76 449.69,494.26 457.16,514.22"];
	1 -- 42	[pos="414.39,406.85 401.11,381.63 376.31,334.56 362.92,309.13"];
	43	[height=0.5,
		pos="694.67,298.41",
		width=0.75];
	1 -- 43	[pos="445.55,413.58 496.43,390.06 620.99,332.47 672.16,308.81"];
	1 -- 18	[pos="444.89,435.04 505.64,466.59 677.75,555.98 738.27,587.41"];
	44	[height=0.5,
		pos="211.75,600.66",
		width=0.75];
	1 -- 44	[pos="406.39,438.02 366.77,471.12 268.49,553.25 228.79,586.42"];
	1 -- 21	[pos="402.62,412.2 357.56,386.88 251.12,327.07 205.95,301.69"];
	3 -- 13	[pos="655.99,644.6 671.75,624.48 698.51,590.34 714.2,570.31"];
	3 -- 16	[pos="634.64,643.6 609.73,594.34 538.18,452.86 513.27,403.6"];
	3 -- 19	[pos="616.53,657.18 587.4,653.29 541.12,647.1 512.04,643.22"];
	3 -- 8	[pos="646.97,642.74 658.28,586.84 692.69,416.83 704.05,360.67"];
	59	[height=0.5,
		pos="694.68,892.86",
		width=0.75];
	3 -- 59	[pos="647.27,678.59 656.83,721.79 681.15,831.71 690.72,874.97"];
	60	[height=0.5,
		pos="939.31,533.95",
		width=0.75];
	3 -- 60	[pos="666.06,651.02 721.15,627.42 861.33,567.36 916.5,543.72"];
	62	[height=0.5,
		pos="705,951.68",
		width=0.75];
	3 -- 62	[pos="647.18,678.96 658.26,731.21 690.07,881.26 701.15,933.49"];
	3 -- 64	[pos="666.03,651.01 700.43,636.24 765.37,608.35 799.82,593.56"];
	65	[height=0.5,
		pos="770.1,950.71",
		width=0.75];
	3 -- 65	[pos="651.06,678.46 673.75,730.35 739.9,881.65 762.46,933.24"];
	3 -- 10	[pos="631.96,644.25 602.89,602 526.03,490.3 496.84,447.88"];
	3 -- 11	[pos="618.37,653.85 550.17,634.96 361.15,582.6 292.66,563.63"];
	67	[height=0.5,
		pos="917.14,734.13",
		width=0.75];
	3 -- 67	[pos="668.59,667.53 720.75,681.51 839.82,713.41 891.93,727.37"];
	69	[height=0.5,
		pos="593.6,570.61",
		width=0.75];
	3 -- 69	[pos="633.97,643.81 625.14,627.79 611.96,603.89 603.08,587.8"];
	70	[height=0.5,
		pos="542.39,738.85",
		width=0.75];
	3 -- 70	[pos="625.28,674.72 606.91,688.94 578.59,710.84 560.28,725.01"];
	71	[height=0.5,
		pos="979.28,757.5",
		width=0.75];
	3 -- 71	[pos="668.3,667.96 730.5,685.86 891.77,732.3 954.14,750.26"];
	73	[height=0.5,
		pos="881.21,925.88",
		width=0.75];
	3 -- 73	[pos="657.49,676.55 699.8,723.71 824.9,863.13 867.12,910.18"];
	3 -- 23	[pos="621.95,672.02 581.54,693.29 494.39,739.17 453.94,760.46"];
	4 -- 24	[pos="552.48,662.12 521.04,654.2 467.75,640.77 436.33,632.86"];
	4 -- 9	[pos="589.3,651.67 604.11,629.96 629.69,592.47 644.4,570.91"];
	4 -- 16	[pos="573.12,650.43 559.89,599.49 522.43,455.13 509.25,404.37"];
	4 -- 59	[pos="586.78,685.74 608.54,727.5 663.89,833.75 685.67,875.57"];
	4 -- 10	[pos="571.01,651.06 553.91,607.17 509.28,492.59 492.18,448.68"];
	4 -- 11	[pos="553.97,659.91 496.2,639.09 349.24,586.12 291.39,565.27"];
	5	[height=0.5,
		pos="628.75,271.5",
		width=0.75];
	4 -- 5	[pos="580.13,650.42 588.61,584.28 617.91,356.01 626.42,289.69"];
	4 -- 75	[pos="565.88,684.9 550.05,706.65 522.28,744.83 506.47,766.56"];
	76	[height=0.5,
		pos="880.77,784.77",
		width=0.75];
	4 -- 76	[pos="601.58,677.63 658.21,699.36 800.59,754 857.11,775.69"];
	78	[height=0.5,
		pos="889.19,690.06",
		width=0.75];
	4 -- 78	[pos="604.89,670.38 663.78,674.46 802.91,684.09 861.94,688.17"];
	4 -- 80	[pos="593.41,653.7 601.19,646.33 610.55,637.44 618.32,630.08"];
	4 -- 81	[pos="597.78,680.66 627.07,698.48 681.35,731.5 710.65,749.32"];
	82	[height=0.5,
		pos="398.49,538.38",
		width=0.75];
	4 -- 82	[pos="559.29,655.07 524.84,630.07 451.28,576.69 416.91,551.74"];
	83	[height=0.5,
		pos="469.39,890.7",
		width=0.75];
	4 -- 83	[pos="569.3,685.94 549.03,727.48 498.09,831.89 477.86,873.35"];
	85	[height=0.5,
		pos="821.69,637.33",
		width=0.75];
	4 -- 85	[pos="604.37,665.11 651.28,659.11 748.27,646.72 795.16,640.72"];
	86	[height=0.5,
		pos="752.22,816.62",
		width=0.75];
	4 -- 86	[pos="594.53,682.71 627.87,711.02 702.25,774.18 735.55,802.46"];
	87	[height=0.5,
		pos="510.02,936.98",
		width=0.75];
	4 -- 87	[pos="573.25,686.54 560.91,735.45 526.88,870.21 514.56,919.03"];
	47	[height=0.5,
		pos="642.92,956.71",
		width=0.75];
	4 -- 47	[pos="581.88,686.53 593.57,738.29 627.16,886.94 638.85,938.69"];
	8 -- 26	[pos="692.39,327.42 665.29,300.89 609.27,246.05 582.18,219.54"];
	8 -- 9	[pos="703.3,360.51 693.47,400.55 669.94,496.35 660.12,536.35"];
	8 -- 10	[pos="684.36,351.78 641.65,368.82 551.49,404.82 508.77,421.87"];
	90	[height=0.5,
		pos="719.61,141.77",
		width=0.75];
	8 -- 90	[pos="708.81,324.28 711.07,286.17 716.27,198.24 718.53,160.04"];
	8 -- 103	[pos="696.12,358.89 679.38,382.59 648.65,426.07 631.88,449.8"];
	8 -- 114	[pos="729.79,331.6 766.86,313.36 841.24,276.76 878.14,258.6"];
	125	[height=0.5,
		pos="371.68,335.82",
		width=0.75];
	8 -- 125	[pos="680.52,341.91 617.39,340.66 461.6,337.59 398.68,336.35"];
	126	[height=0.5,
		pos="788.8,53.729",
		width=0.75];
	8 -- 126	[pos="712.81,324.39 727.37,272.54 769.18,123.62 783.73,71.783"];
	8 -- 128	[pos="735,344.42 775.69,347.37 851.83,352.88 892.46,355.83"];
	129	[height=0.5,
		pos="648.34,155.31",
		width=0.75];
	8 -- 129	[pos="702.04,324.5 690.66,288.64 665.23,208.52 653.93,172.93"];
	130	[height=0.5,
		pos="540.73,297.22",
		width=0.75];
	8 -- 130	[pos="682.37,335.58 650.8,327.03 597.22,312.51 565.79,304"];
	8 -- 131	[pos="698.38,325.47 683.2,297.94 653.39,243.84 638.22,216.32"];
	132	[height=0.5,
		pos="1025.3,269.76",
		width=0.75];
	8 -- 132	[pos="733.46,336.56 792.96,322.94 939.58,289.37 999.32,275.7"];
	133	[height=0.5,
		pos="970.84,401.84",
		width=0.75];
	8 -- 133	[pos="733.45,348.25 783.74,359.6 894.65,384.64 945.03,396.01"];
	8 -- 134	[pos="705.62,360.41 701.81,392.64 693.87,459.92 690.05,492.24"];
	79	[height=0.5,
		pos="992.55,489.94",
		width=0.75];
	8 -- 79	[pos="729.15,353.53 781.93,380.87 917.86,451.26 970.9,478.73"];
	15 -- 31	[pos="439.4,523.77 401.93,511.55 330.47,488.24 293,476.02"];
	15 -- 16	[pos="468.72,513.89 476.57,486.01 491.67,432.37 499.54,404.41"];
	15 -- 19	[pos="467.38,550.01 471.39,569.98 477.77,601.75 481.76,621.61"];
	15 -- 18	[pos="489.45,537.51 545.42,550.15 677.64,580 733.74,592.66"];
	15 -- 17	[pos="488.94,525.03 560,506.23 761.2,453.03 832.32,434.22"];
	15 -- 70	[pos="470.41,549.36 485.28,588.5 520.85,682.14 535.7,721.23"];
	96	[height=0.5,
		pos="451.23,297.64",
		width=0.75];
	15 -- 96	[pos="462.73,513.33 460.39,469.58 454.53,359.59 452.2,315.92"];
	15 -- 108	[pos="456.09,549.15 440.36,585.18 404.46,667.4 388.75,703.39"];
	15 -- 119	[pos="489.04,524.7 534.6,512.11 629.85,485.8 675.29,473.24"];
	15 -- 130	[pos="469.49,514.08 483.77,470.62 520.53,358.71 534.87,315.05"];
	147	[height=0.5,
		pos="297.84,512.34",
		width=0.75];
	15 -- 147	[pos="437.06,528.59 406.2,524.99 355.65,519.09 324.7,515.47"];
	84	[height=0.5,
		pos="368.56,811.34",
		width=0.75];
	15 -- 84	[pos="457.61,549.62 440.42,600.13 391.73,743.25 374.61,793.57"];
	155	[height=0.5,
		pos="189.08,649.34",
		width=0.75];
	15 -- 155	[pos="440.76,541.53 389.07,563.67 263.97,617.26 212.15,639.46"];
	18 -- 34	[pos="738.48,587.16 706.92,570.23 647.83,538.54 616.32,521.64"];
	18 -- 86	[pos="759.02,616.73 757.62,657.89 754.22,757.64 752.83,798.6"];
	101	[height=0.5,
		pos="857.58,361.85",
		width=0.75];
	18 -- 101	[pos="766.84,581.11 784.95,537.34 832.25,423.07 850.37,379.27"];
	18 -- 133	[pos="775.51,583.73 814.75,547.19 915.94,452.96 955.07,416.52"];
	18 -- 139	[pos="783.26,607.56 805.34,616.01 838.11,628.57 860.16,637.01"];
	159	[height=0.5,
		pos="480.17,683.68",
		width=0.75];
	18 -- 159	[pos="734.84,606.07 681.8,622.23 557.9,659.99 504.92,676.14"];
	18 -- 167	[pos="785.09,605.27 821.85,615.03 889.41,632.96 926.06,642.69"];
	168	[height=0.5,
		pos="795.55,405.52",
		width=0.75];
	18 -- 168	[pos="763.01,580.35 769.88,543.48 785.37,460.2 792.21,423.49"];
	170	[height=0.5,
		pos="1009.6,538.21",
		width=0.75];
	18 -- 170	[pos="785.44,592.28 833.46,580.7 935.99,555.96 983.91,544.4"];
	18 -- 173	[pos="748.91,615.19 729.01,646.14 686.58,712.16 666.61,743.23"];
	58	[height=0.5,
		pos="993.44,711.87",
		width=0.75];
	18 -- 58	[pos="781.63,609.17 826.19,630.78 926.68,679.5 971.33,701.15"];
	74	[height=0.5,
		pos="945.56,825.69",
		width=0.75];
	18 -- 74	[pos="772.71,614.48 806.85,656.19 898.38,768.04 932.5,809.73"];
	111	[height=0.5,
		pos="819.16,906.56",
		width=0.75];
	18 -- 111	[pos="763.09,616.4 773.61,670.85 805.16,834.11 815.69,888.62"];
	124	[height=0.5,
		pos="1108.1,525.53",
		width=0.75];
	18 -- 124	[pos="785.54,593.08 850.05,579.57 1017.3,544.54 1082,531"];
	44 -- 45	[pos="220.38,618.06 237.33,652.18 274.74,727.52 291.6,761.49"];
	46 -- 47	[pos="566.16,820.82 582.76,850.19 616.68,910.26 633.31,939.7"];
	51	[height=0.5,
		pos="205.32,435.77",
		width=0.75];
	50 -- 51	[pos="211.27,494.41 210.02,482.16 208.39,466.08 207.15,453.85"];
	53 -- 54	[pos="707.28,809.72 731.73,813.52 767.76,819.12 792.18,822.92"];
	14 -- 30	[pos="529.25,328.15 497.46,301.19 428.88,243.05 397.05,216.06"];
	14 -- 16	[pos="531.57,357.82 527.55,362.08 523.19,366.71 519.17,370.98"];
	14 -- 19	[pos="542.36,360.56 531.51,413.75 499.84,568.86 489.04,621.74"];
	14 -- 41	[pos="525.81,330.23 495.58,312.06 439,278.04 408.82,259.9"];
	14 -- 15	[pos="538.47,359.88 522.78,395.94 486.96,478.25 471.29,514.27"];
	14 -- 17	[pos="571.3,349.31 629.82,365.3 774.24,404.76 832.57,420.69"];
	14 -- 69	[pos="549.8,360.32 558.66,402.87 580.91,509.69 589.82,552.47"];
	14 -- 82	[pos="533.74,358.78 505.89,395.76 438.4,485.39 410.68,522.19"];
	95	[height=0.5,
		pos="544.61,111.36",
		width=0.75];
	14 -- 95	[pos="545.95,324.28 545.68,281.09 545,172.51 544.72,129.41"];
	14 -- 107	[pos="523.4,352.45 487.28,368.45 417.06,399.55 380.88,415.57"];
	14 -- 129	[pos="555.33,325.48 574.75,289.95 619.56,207.96 639.03,172.34"];
	153	[height=0.5,
		pos="248.91,380.02",
		width=0.75];
	14 -- 153	[pos="519.44,345.78 463.02,352.92 332.04,369.5 275.59,376.65"];
	14 -- 168	[pos="571.36,348.81 619.18,360.91 722.32,387 770.19,399.11"];
	118	[height=0.5,
		pos="611.01,59.727",
		width=0.75];
	14 -- 118	[pos="550.23,324.3 561.96,273.24 595.2,128.56 606.88,77.689"];
	164	[height=0.5,
		pos="772.43,185.78",
		width=0.75];
	14 -- 164	[pos="564.98,329.33 607.59,299.84 710.71,228.49 753.41,198.94"];
	55 -- 56	[pos="316.48,361.93 310.58,333.95 299.31,280.5 293.44,252.65"];
	17 -- 43	[pos="840.16,413.71 808.97,388.99 743.94,337.45 712.48,312.52"];
	17 -- 85	[pos="854.54,445.42 847.77,484.96 831.6,579.42 824.79,619.19"];
	17 -- 122	[pos="879.49,416.69 914.48,399.35 982.57,365.61 1017.4,348.35"];
	17 -- 132	[pos="873.37,412.69 905.33,382.62 977.4,314.81 1009.4,284.67"];
	158	[height=0.5,
		pos="533.24,475.25",
		width=0.75];
	17 -- 158	[pos="831.06,431.44 770.08,440.41 620.58,462.4 559.69,471.36"];
	17 -- 169	[pos="849.13,410.2 834.71,380.67 805.54,320.95 791.06,291.31"];
	17 -- 170	[pos="875.93,440.88 905.14,462.16 961.92,503.51 991.17,524.81"];
	171	[height=0.5,
		pos="1013.7,640.81",
		width=0.75];
	17 -- 171	[pos="869.59,443.92 898.64,483.61 972.54,584.61 1001.6,624.37"];
	17 -- 33	[pos="866.21,410.25 888.69,365.12 948.97,244.1 971.44,198.99"];
	72	[height=0.5,
		pos="1095.3,615.72",
		width=0.75];
	17 -- 72	[pos="875.08,441.37 919.05,476.17 1033.8,567.04 1077.8,601.86"];
	100	[height=0.5,
		pos="1051.7,192.15",
		width=0.75];
	17 -- 100	[pos="870.64,411.72 905.91,368.95 1003,251.26 1038.5,208.2"];
	138	[height=0.5,
		pos="1099.5,412.05",
		width=0.75];
	17 -- 138	[pos="884.87,425.79 931.45,422.81 1025.8,416.77 1072.3,413.79"];
	162	[height=0.5,
		pos="1089.6,272.2",
		width=0.75];
	17 -- 162	[pos="876.98,414.56 920.76,385.25 1026.9,314.21 1070.4,285.03"];
	166	[height=0.5,
		pos="1124.2,470.15",
		width=0.75];
	17 -- 166	[pos="884.13,431.78 935.22,439.94 1046.7,457.77 1097.7,465.92"];
	57 -- 58	[pos="853.88,727.39 884.91,723.94 935.79,718.28 966.79,714.83"];
	61	[height=0.5,
		pos="977.04,313.79",
		width=0.75];
	60 -- 61	[pos="942.4,515.93 949.49,474.55 966.88,373.08 973.96,331.75"];
	62 -- 63	[pos="684.76,939.61 651.41,919.72 585.3,880.3 551.86,860.36"];
	65 -- 66	[pos="767.26,932.51 764.98,917.94 761.81,897.61 759.54,883.05"];
	10 -- 27	[pos="463.64,420.47 426.64,402.18 351.79,365.2 314.64,346.83"];
	10 -- 16	[pos="492.86,413.78 494.25,410.54 495.71,407.15 497.1,403.91"];
	10 -- 38	[pos="458.06,430.28 417.91,428.9 343.42,426.36 303.46,424.99"];
	10 -- 18	[pos="505.54,443.51 556.26,474.45 688.69,555.23 739.44,586.19"];
	10 -- 14	[pos="496.79,414.51 507.64,398.63 523.87,374.89 534.7,359.04"];
	10 -- 17	[pos="512.44,430.94 581.11,430.26 761.54,428.48 830.38,427.8"];
	91	[height=0.5,
		pos="504.81,196.24",
		width=0.75];
	10 -- 91	[pos="486.86,413.16 490.48,369.42 499.69,258.15 503.32,214.35"];
	142	[height=0.5,
		pos="89.071,509.28",
		width=0.75];
	10 -- 142	[pos="459.37,436.33 387.56,450.48 187.09,489.97 115.17,504.14"];
	144	[height=0.5,
		pos="346.88,157.73",
		width=0.75];
	10 -- 144	[pos="476.71,414.1 451.84,364.99 380.41,223.93 355.54,174.83"];
	10 -- 146	[pos="512.43,429.91 547.71,428.21 609.08,425.26 644.38,423.57"];
	10 -- 147	[pos="462.37,441.16 426.28,456.77 356.75,486.85 320.73,502.44"];
	10 -- 148	[pos="474.67,447.97 449.18,487.88 385.1,588.24 359.66,628.08"];
	10 -- 51	[pos="458.26,431.65 404.73,432.52 285.99,434.46 232.44,435.33"];
	11 -- 39	[pos="248.26,543.96 226.69,529.72 191.92,506.76 170.34,492.51"];
	11 -- 52	[pos="274.33,574.19 284.21,599.46 302.33,645.85 312.22,671.16"];
	11 -- 104	[pos="265.84,574.78 263.58,599.99 259.5,645.39 257.22,670.71"];
	11 -- 125	[pos="275.65,539.32 295.13,498.04 344.1,394.27 363.54,353.07"];
	11 -- 135	[pos="285,570.65 313.95,593.78 371.42,639.7 400.3,662.77"];
	149	[height=0.5,
		pos="52.933,443.5",
		width=0.75];
	11 -- 149	[pos="246.12,545.39 205,523.7 115.26,476.37 74.202,454.72"];
	151	[height=0.5,
		pos="234.23,774.39",
		width=0.75];
	11 -- 151	[pos="264.7,574.84 258.42,615.93 243.22,715.51 236.98,756.4"];
	11 -- 153	[pos="265.56,538.41 261.99,504.48 254.37,432.02 250.81,398.16"];
	154	[height=0.5,
		pos="74.753,663.59",
		width=0.75];
	11 -- 154	[pos="246.48,568.3 209.41,588.87 132.77,631.4 95.718,651.96"];
	156	[height=0.5,
		pos="27,493.77",
		width=0.75];
	11 -- 156	[pos="242.19,550.04 196.01,537.96 98.504,512.47 52.302,500.39"];
	11 -- 158	[pos="292.48,548.99 343.26,533.44 457.93,498.32 508.49,482.83"];
	11 -- 159	[pos="287.87,568.83 328.52,593.11 419.23,647.29 459.84,671.54"];
	11 -- 160	[pos="272.6,574.36 282.46,608.39 303.93,682.54 313.83,716.72"];
	11 -- 29	[pos="240.36,555.2 194.07,552.71 100.3,547.69 54.075,545.21"];
	93	[height=0.5,
		pos="123.04,315.8",
		width=0.75];
	11 -- 93	[pos="257.32,539.71 230.8,495.49 159.69,376.91 133.18,332.71"];
	143	[height=0.5,
		pos="45.466,588.28",
		width=0.75];
	11 -- 143	[pos="240.69,560.46 197.91,566.56 114.62,578.42 71.994,584.5"];
	67 -- 68	[pos="913.55,716.21 907.55,686.25 895.54,626.3 889.5,596.16"];
	71 -- 72	[pos="992.37,741.51 1014.7,714.28 1059.7,659.21 1082.1,631.87"];
	73 -- 74	[pos="892.13,908.89 904.03,890.35 922.97,860.87 934.81,842.43"];
	5 -- 25	[pos="609.96,258.5 576.77,235.56 508.15,188.12 474.98,165.19"];
	5 -- 6	[pos="620.38,288.92 593.35,345.2 508.58,521.7 481.49,578.09"];
	5 -- 9	[pos="630.48,289.62 635.34,340.72 649.13,485.49 653.98,536.4"];
	5 -- 12	[pos="625.73,289.52 622.1,311.19 616.05,347.34 612.43,368.96"];
	5 -- 35	[pos="604.75,262.78 568.94,249.77 501.9,225.43 466.14,212.44"];
	5 -- 48	[pos="622.21,289.16 621.14,292.03 620.04,295.01 618.97,297.88"];
	5 -- 89	[pos="654.92,266.13 693.96,258.13 767.03,243.14 806.01,235.14"];
	5 -- 90	[pos="640.26,255.07 657.64,230.25 690.42,183.46 707.91,158.48"];
	5 -- 91	[pos="608.56,259.24 585.52,245.24 548.04,222.48 524.99,208.49"];
	92	[height=0.5,
		pos="282.77,123.16",
		width=0.75];
	5 -- 92	[pos="605.78,261.65 542.85,234.67 368.16,159.77 305.5,132.9"];
	5 -- 94	[pos="654.38,277.27 693.9,286.17 769.26,303.14 808.77,312.04"];
	5 -- 95	[pos="619.75,254.36 603.55,223.54 569.7,159.11 553.55,128.37"];
	5 -- 96	[pos="602.17,275.41 568.61,280.35 511.21,288.8 477.69,293.74"];
	97	[height=0.5,
		pos="530.01,18",
		width=0.75];
	5 -- 97	[pos="621.96,254.07 603.93,207.76 554.94,81.995 536.84,35.546"];
	99	[height=0.5,
		pos="867.91,88.124",
		width=0.75];
	5 -- 99	[pos="646.73,257.72 691.16,223.65 805.74,135.79 850.05,101.82"];
	5 -- 101	[pos="652.38,280.83 696.34,298.18 790.22,335.25 834.09,352.57"];
	5 -- 102	[pos="619.89,288.82 604.25,319.41 571.9,382.65 556.26,413.22"];
	5 -- 61	[pos="655.5,274.75 720.33,282.62 885.27,302.65 950.2,310.53"];
	76 -- 77	[pos="887.47,767.06 900.61,732.3 929.62,655.56 942.7,620.96"];
	78 -- 79	[pos="898,673 917.48,635.28 964.02,545.18 983.62,507.24"];
	83 -- 84	[pos="451.83,876.88 433.44,862.4 404.71,839.79 386.26,825.27"];
	87 -- 88	[pos="486.98,927.51 470.18,920.61 447.51,911.3 430.66,904.37"];
	92 -- 93	[pos="269.7,138.92 239.74,175.04 166.41,263.48 136.29,299.81"];
	97 -- 98	[pos="509.31,29.624 496.87,36.606 481.09,45.461 468.66,52.443"];
	99 -- 100	[pos="888.63,99.854 924.02,119.89 995.7,160.46 1031,180.46"];
	110 -- 111	[pos="659.79,911.79 695.14,910.63 756.64,908.61 792.01,907.45"];
	112 -- 113	[pos="319.97,843.5 323.55,847.54 327.4,851.88 330.97,855.91"];
	117 -- 118	[pos="747.72,91.724 717.3,84.604 667,72.83 636.63,65.723"];
	120 -- 121	[pos="789.7,137.91 749.51,132.06 673.62,121.03 633.36,115.18"];
	123 -- 124	[pos="1043,415.47 1057.4,439.75 1083.7,484.3 1098.1,508.61"];
	126 -- 127	[pos="764.74,62.138 746.77,68.417 722.32,76.96 704.36,83.234"];
	137 -- 138	[pos="1066.9,454.94 1073.2,446.62 1080.9,436.49 1087.2,428.16"];
	140 -- 141	[pos="609.22,841.51 607.39,844.81 605.46,848.27 603.62,851.58"];
	142 -- 143	[pos="79.609,526.42 72.295,539.67 62.218,557.93 54.909,571.17"];
	144 -- 145	[pos="370.33,148.63 393.26,139.74 427.98,126.27 451,117.34"];
	149 -- 150	[pos="72.98,431.35 107.12,410.66 176.18,368.8 210.45,348.02"];
	151 -- 152	[pos="260.04,769.03 303.31,760.05 390.03,742.06 433.34,733.07"];
	154 -- 155	[pos="101.56,660.25 119.91,657.96 144.13,654.94 162.44,652.66"];
	156 -- 157	[pos="43.217,479.19 70.341,454.81 124.62,406.03 151.9,381.5"];
	161 -- 162	[pos="990.83,234.7 1012.5,242.93 1044.4,255.05 1066.1,263.27"];
	163 -- 164	[pos="890.93,298.75 865.08,274.11 813.77,225.19 787.98,200.61"];
	165 -- 166	[pos="1080.5,554.02 1090.2,535.45 1105.5,505.98 1115.2,487.37"];
	171 -- 172	[pos="994.54,653.62 956.43,679.15 871.4,736.12 833.34,761.62"];
}
