graph {
	graph [bb="0,0,572.35,459.31",
		outputorder=edgesfirst,
		overlap=prism,
		size="50,50!",
		start=8158
	];
	node [label="\N"];
	0	[height=0.5,
		pos="446.4,112.38",
		width=0.75];
	8	[height=0.5,
		pos="255.7,19.509",
		width=0.75];
	0 -- 8	[pos="424.52,101.73 387.84,83.86 314.33,48.06 277.61,30.181"];
	2	[height=0.5,
		pos="256.15,217.78",
		width=0.75];
	0 -- 2	[pos="425.31,124.06 388.65,144.37 313.57,185.97 277.04,206.2"];
	6	[height=0.5,
		pos="372.13,18",
		width=0.75];
	0 -- 6	[pos="433.8,96.37 420.14,79.015 398.47,51.475 384.79,34.089"];
	9	[height=0.5,
		pos="371.3,250.87",
		width=0.75];
	0 -- 9	[pos="437.19,129.36 422.78,155.94 395.04,207.08 380.58,233.75"];
	1	[height=0.5,
		pos="458.41,310.18",
		width=0.75];
	0 -- 1	[pos="447.51,130.63 449.79,168.32 455.02,254.33 457.3,291.97"];
	14	[height=0.5,
		pos="186.6,128.12",
		width=0.75];
	8 -- 14	[pos="244.9,36.48 231.92,56.884 210.27,90.918 197.32,111.27"];
	16	[height=0.5,
		pos="325.56,142.47",
		width=0.75];
	8 -- 16	[pos="265.27,36.349 278.57,59.765 302.52,101.92 315.89,125.44"];
	2 -- 8	[pos="256.11,199.48 256.02,161.71 255.83,75.495 255.74,37.762"];
	3	[height=0.5,
		pos="77.491,127.91",
		width=0.75];
	2 -- 3	[pos="234.24,206.76 199.86,189.46 133.62,156.15 99.298,138.88"];
	12	[height=0.5,
		pos="87.759,255.35",
		width=0.75];
	2 -- 12	[pos="230.21,223.56 198.47,230.64 145.08,242.56 113.45,249.61"];
	5	[height=0.5,
		pos="134.21,387.62",
		width=0.75];
	2 -- 5	[pos="244.46,234.06 221.15,266.53 169.15,338.96 145.87,371.38"];
	15	[height=0.5,
		pos="264.76,398.82",
		width=0.75];
	2 -- 15	[pos="257.01,235.8 258.65,270.41 262.24,345.83 263.89,380.6"];
	3 -- 8	[pos="97.587,115.69 131.91,94.814 201.41,52.534 235.68,31.689"];
	3 -- 14	[pos="104.74,127.97 121.41,128 142.65,128.04 159.32,128.07"];
	4	[height=0.5,
		pos="27,299.35",
		width=0.75];
	3 -- 4	[pos="72.278,145.62 62.602,178.47 41.971,248.52 32.261,281.49"];
	3 -- 12	[pos="78.94,145.9 80.886,170.05 84.324,212.73 86.283,237.04"];
	11	[height=0.5,
		pos="190.08,278.66",
		width=0.75];
	3 -- 11	[pos="89.54,144.05 111.1,172.91 156.04,233.08 177.77,262.19"];
	14 -- 16	[pos="213.4,130.89 238,133.43 274.27,137.18 298.85,139.71"];
	6 -- 8	[pos="345.12,18.35 326.45,18.592 301.69,18.913 282.96,19.156"];
	6 -- 14	[pos="351.92,29.995 316.23,51.177 242.45,94.969 206.78,116.14"];
	6 -- 9	[pos="372.06,36.273 371.91,79.805 371.52,189.24 371.36,232.68"];
	6 -- 16	[pos="365.55,35.57 356.68,59.293 340.96,101.32 332.1,124.99"];
	4 -- 14	[pos="41.445,283.85 71.832,251.25 142.05,175.92 172.3,143.46"];
	4 -- 12	[pos="45.56,285.91 53.098,280.45 61.786,274.16 69.312,268.71"];
	4 -- 5	[pos="44.225,313.53 64.232,330 97.039,357.02 117.03,373.47"];
	4 -- 11	[pos="53.564,295.98 83.89,292.13 133.2,285.88 163.53,282.03"];
	7	[height=0.5,
		pos="197.6,441.31",
		width=0.75];
	4 -- 7	[pos="43.982,313.48 76.682,340.69 148.04,400.07 180.69,427.24"];
	12 -- 14	[pos="100.28,239.23 119.19,214.89 154.84,169 173.87,144.51"];
	12 -- 15	[pos="105.05,269.36 138.89,296.79 213.5,357.27 247.4,384.74"];
	5 -- 12	[pos="128.04,370.05 119.16,344.76 102.85,298.32 93.952,272.98"];
	5 -- 11	[pos="143.19,370.11 153.67,349.66 170.91,316.04 181.31,295.76"];
	5 -- 7	[pos="151.2,402.01 160.29,409.71 171.46,419.17 180.57,426.88"];
	5 -- 15	[pos="161.26,389.94 183.67,391.86 215.35,394.58 237.74,396.5"];
	10	[height=0.5,
		pos="349.48,376.56",
		width=0.75];
	5 -- 10	[pos="161.47,386.22 202.88,384.09 281.16,380.07 322.44,377.95"];
	11 -- 14	[pos="189.66,260.5 188.99,231.57 187.69,175.32 187.02,146.34"];
	11 -- 16	[pos="205.09,263.57 231.14,237.39 284.39,183.86 310.48,157.64"];
	9 -- 14	[pos="351.88,237.97 316.32,214.33 241.13,164.36 205.76,140.85"];
	9 -- 11	[pos="344.95,254.91 310.59,260.18 250.84,269.34 216.46,274.61"];
	9 -- 10	[pos="368.17,268.88 364.03,292.77 356.75,334.71 352.6,358.59"];
	13	[height=0.5,
		pos="545.35,409.14",
		width=0.75];
	9 -- 13	[pos="387.36,265.48 420.52,295.63 496.2,364.45 529.33,394.57"];
	9 -- 16	[pos="363.95,233.45 355.42,213.23 341.42,180.06 332.89,159.85"];
	7 -- 11	[pos="196.77,423.28 195.32,392.02 192.36,328.09 190.92,296.77"];
	7 -- 9	[pos="211.82,425.73 244.47,389.93 324.53,302.15 357.13,266.4"];
	7 -- 15	[pos="217.39,428.79 226.05,423.31 236.21,416.88 244.88,411.39"];
	7 -- 10	[pos="220.67,431.48 249.38,419.24 298.11,398.46 326.7,386.28"];
	10 -- 11	[pos="329.62,364.36 298.99,345.55 240.57,309.67 209.94,290.86"];
	10 -- 15	[pos="324.06,383.24 313.34,386.06 300.88,389.33 290.16,392.14"];
	10 -- 13	[pos="375.9,380.96 413.39,387.19 481.61,398.54 519.04,404.77"];
	10 -- 16	[pos="347.65,358.58 343.19,315.01 331.87,204.15 327.41,160.51"];
	1 -- 2	[pos="435.99,299.94 397.11,282.18 317.62,245.86 278.67,228.06"];
	1 -- 9	[pos="439.51,297.31 424.99,287.43 405.04,273.85 390.46,263.92"];
	1 -- 15	[pos="435.81,320.52 398.5,337.6 324.43,371.51 287.21,388.54"];
	1 -- 10	[pos="438.43,322.36 418.9,334.26 389.32,352.29 369.7,364.24"];
	1 -- 13	[pos="472.38,326.08 488.7,344.66 515.52,375.19 531.7,393.61"];
}
