graph {
	graph [bb="0,0,399.34,339.41",
		outputorder=edgesfirst,
		overlap=prism,
		size="50,50!",
		start=8650
	];
	node [label="\N"];
	0	[height=0.5,
		pos="163.81,117.41",
		width=0.75];
	2	[height=0.5,
		pos="226.1,321.41",
		width=0.75];
	0 -- 2	[pos="169.23,135.16 181.01,173.74 208.84,264.89 220.65,303.56"];
	1	[height=0.5,
		pos="83.154,159.33",
		width=0.75];
	0 -- 1	[pos="142.2,128.64 130.53,134.71 116.18,142.17 104.55,148.21"];
	4	[height=0.5,
		pos="27,102.48",
		width=0.75];
	0 -- 4	[pos="137.11,114.49 113.16,111.88 78.176,108.06 54.103,105.44"];
	3	[height=0.5,
		pos="157.25,267.67",
		width=0.75];
	0 -- 3	[pos="163.02,135.53 161.76,164.41 159.31,220.56 158.05,249.48"];
	6	[height=0.5,
		pos="364.93,140.52",
		width=0.75];
	0 -- 6	[pos="190.52,120.48 228.98,124.9 299.58,133.01 338.11,137.43"];
	7	[height=0.5,
		pos="306.1,48.979",
		width=0.75];
	0 -- 7	[pos="185.73,106.87 212.39,94.045 257.14,72.524 283.92,59.646"];
	5	[height=0.5,
		pos="64.65,285.99",
		width=0.75];
	2 -- 5	[pos="200.16,315.72 170.03,309.11 120.63,298.27 90.526,291.67"];
	2 -- 3	[pos="208.37,307.57 198.17,299.61 185.39,289.63 175.16,281.65"];
	2 -- 6	[pos="238.42,305.36 264.7,271.12 326.01,191.23 352.44,156.79"];
	10	[height=0.5,
		pos="372.34,256.08",
		width=0.75];
	2 -- 10	[pos="248.63,311.35 276.03,299.11 322.03,278.56 349.55,266.26"];
	1 -- 2	[pos="96.861,174.87 124.11,205.77 184.84,274.62 212.23,305.68"];
	1 -- 4	[pos="68.106,144.1 60.049,135.94 50.153,125.92 42.09,117.76"];
	1 -- 5	[pos="80.503,177.48 76.985,201.56 70.812,243.82 67.297,267.88"];
	1 -- 7	[pos="104.94,148.55 147.56,127.45 241.53,80.937 284.22,59.805"];
	11	[height=0.5,
		pos="198.61,18",
		width=0.75];
	1 -- 11	[pos="96.174,143.39 118.35,116.25 163.2,61.348 185.46,34.096"];
	4 -- 5	[pos="30.679,120.41 37.876,155.49 53.747,232.85 60.957,267.99"];
	4 -- 11	[pos="48.734,91.778 81.654,75.573 143.81,44.978 176.78,28.745"];
	8	[height=0.5,
		pos="225.82,146.67",
		width=0.75];
	4 -- 8	[pos="52.992,108.25 91.2,116.75 162.1,132.51 200.13,140.96"];
	5 -- 8	[pos="81.291,271.6 112.17,244.91 178.03,187.98 209.03,161.19"];
	9	[height=0.5,
		pos="273.46,233.35",
		width=0.75];
	5 -- 9	[pos="90.254,279.54 130.44,269.41 207.86,249.89 247.97,239.78"];
	3 -- 4	[pos="144.53,251.53 119.56,219.87 64.438,149.96 39.586,118.44"];
	3 -- 5	[pos="130.96,272.87 118.35,275.37 103.27,278.35 90.684,280.84"];
	3 -- 10	[pos="184.49,266.2 225.87,263.97 304.08,259.76 345.32,257.54"];
	3 -- 9	[pos="182.18,260.31 201.79,254.52 228.97,246.49 248.57,240.7"];
	6 -- 10	[pos="366.09,158.57 367.47,180.16 369.77,216.07 371.17,237.77"];
	6 -- 7	[pos="354.14,123.73 343.52,107.21 327.41,82.141 316.82,65.662"];
	6 -- 11	[pos="346.49,126.94 314.44,103.32 248.81,54.978 216.87,31.454"];
	6 -- 9	[pos="349.82,155.85 332.88,173.05 305.54,200.79 288.59,218"];
	7 -- 10	[pos="311.74,66.636 324.26,105.76 354.2,199.38 366.71,238.47"];
	7 -- 11	[pos="281.17,41.794 263.8,36.789 240.74,30.142 223.4,25.146"];
	7 -- 8	[pos="292.84,65.11 277.88,83.319 253.69,112.75 238.83,130.84"];
	8 -- 10	[pos="244.08,160.31 272.31,181.39 326.22,221.64 354.31,242.62"];
	8 -- 11	[pos="222.03,128.78 216.86,104.33 207.65,60.735 202.45,36.154"];
	8 -- 9	[pos="235.23,163.8 243.58,178.99 255.72,201.08 264.07,216.26"];
	9 -- 10	[pos="299.18,239.26 313.83,242.63 332.12,246.84 346.75,250.2"];
	9 -- 11	[pos="267.33,215.73 253.26,175.25 218.77,75.991 204.71,35.565"];
}
