graph {
	graph [bb="0,0,1117.2,995.95",
		outputorder=edgesfirst,
		overlap=prism,
		size="50,50!",
		start=5582
	];
	node [label="\N"];
	0	[height=0.5,
		pos="378.58,499.61",
		width=0.75];
	20	[height=0.5,
		pos="103.11,478.56",
		width=0.75];
	0 -- 20	[pos="351.67,497.56 299,493.53 182.89,484.66 130.14,480.63"];
	2	[height=0.5,
		pos="649.04,498.86",
		width=0.75];
	0 -- 2	[pos="405.75,499.54 457.59,499.39 570.06,499.08 621.89,498.94"];
	22	[height=0.5,
		pos="347.7,795.58",
		width=0.75];
	0 -- 22	[pos="376.7,517.68 371.18,570.52 355.13,724.36 349.6,777.37"];
	24	[height=0.5,
		pos="409.78,730.01",
		width=0.75];
	0 -- 24	[pos="381.03,517.69 386.86,560.76 401.53,669.03 407.35,712.01"];
	25	[height=0.5,
		pos="422.83,251.65",
		width=0.75];
	0 -- 25	[pos="381.84,481.38 390.04,435.41 411.49,315.21 419.63,269.58"];
	6	[height=0.5,
		pos="534.26,675.74",
		width=0.75];
	0 -- 6	[pos="392.4,515.24 421.94,548.66 490.96,626.75 520.47,660.14"];
	7	[height=0.5,
		pos="683.18,338.89",
		width=0.75];
	0 -- 7	[pos="400,488.31 455.93,458.8 605.89,379.67 661.79,350.18"];
	26	[height=0.5,
		pos="372.7,295.68",
		width=0.75];
	0 -- 26	[pos="378.06,481.51 376.94,442.81 374.33,352.4 373.22,313.73"];
	9	[height=0.5,
		pos="633.35,542.9",
		width=0.75];
	0 -- 9	[pos="404.89,504.08 453.71,512.38 557.81,530.06 606.81,538.39"];
	27	[height=0.5,
		pos="174.19,391.01",
		width=0.75];
	0 -- 27	[pos="357.1,488.19 317.74,467.28 234.53,423.07 195.39,402.28"];
	28	[height=0.5,
		pos="90.929,587.75",
		width=0.75];
	0 -- 28	[pos="353.81,507.2 299.43,523.86 170.16,563.47 115.75,580.15"];
	12	[height=0.5,
		pos="546.39,416.17",
		width=0.75];
	0 -- 12	[pos="400.52,488.7 432.77,472.67 492.61,442.91 524.71,426.95"];
	13	[height=0.5,
		pos="655.37,636",
		width=0.75];
	0 -- 13	[pos="400.3,510.31 451.92,535.75 581.47,599.58 633.37,625.16"];
	30	[height=0.5,
		pos="223.88,555.27",
		width=0.75];
	0 -- 30	[pos="354.75,508.19 325.68,518.65 276.82,536.22 247.74,546.69"];
	31	[height=0.5,
		pos="235.06,599.36",
		width=0.75];
	0 -- 31	[pos="359.82,512.65 332.31,531.77 281.33,567.2 253.82,586.32"];
	16	[height=0.5,
		pos="587.33,372.16",
		width=0.75];
	0 -- 16	[pos="398.6,487.39 438.5,463.03 527.52,408.67 567.37,384.34"];
	32	[height=0.5,
		pos="644.06,240.08",
		width=0.75];
	0 -- 32	[pos="394,484.54 440.92,438.67 581.62,301.13 628.59,255.2"];
	34	[height=0.5,
		pos="589.4,631.17",
		width=0.75];
	0 -- 34	[pos="398.42,511.99 438.6,537.06 529.2,593.6 569.46,618.73"];
	19	[height=0.5,
		pos="460.87,680.41",
		width=0.75];
	0 -- 19	[pos="386.47,516.95 402.2,551.51 437.29,628.61 453,663.13"];
	21	[height=0.5,
		pos="161.19,522.64",
		width=0.75];
	20 -- 21	[pos="121.17,492.27 128.23,497.63 136.3,503.75 143.34,509.1"];
	2 -- 6	[pos="638.24,515.5 616.37,549.21 567.03,625.23 545.11,659.01"];
	2 -- 9	[pos="642.75,516.52 641.73,519.39 640.67,522.37 639.65,525.24"];
	2 -- 12	[pos="631.63,484.83 612.75,469.63 582.8,445.5 563.89,430.27"];
	2 -- 19	[pos="633.64,513.72 598.36,547.76 511.97,631.11 476.48,665.35"];
	3	[height=0.5,
		pos="720.69,645.25",
		width=0.75];
	2 -- 3	[pos="657.54,516.23 671.33,544.4 698.42,599.75 712.2,627.9"];
	8	[height=0.5,
		pos="607.97,328.11",
		width=0.75];
	2 -- 8	[pos="644.73,480.91 636.84,448.12 620.18,378.88 612.29,346.08"];
	15	[height=0.5,
		pos="513.06,617.96",
		width=0.75];
	2 -- 15	[pos="632.64,513.23 606.5,536.12 555.69,580.62 529.52,603.54"];
	46	[height=0.5,
		pos="856.53,673.59",
		width=0.75];
	2 -- 46	[pos="666.02,513.16 705.03,546.01 800.66,626.54 839.61,659.34"];
	48	[height=0.5,
		pos="706.11,234.17",
		width=0.75];
	2 -- 48	[pos="652.97,480.67 663.42,432.2 691.84,300.35 702.24,252.14"];
	49	[height=0.5,
		pos="810.33,285.22",
		width=0.75];
	2 -- 49	[pos="661.43,482.45 691.53,442.59 768.21,341.01 798.12,301.39"];
	50	[height=0.5,
		pos="572.01,208.24",
		width=0.75];
	2 -- 50	[pos="644.34,481.12 630.59,429.23 590.55,278.17 576.75,226.12"];
	52	[height=0.5,
		pos="421.21,618.08",
		width=0.75];
	2 -- 52	[pos="627.61,510.08 584.19,532.8 486.27,584.04 442.76,606.81"];
	53	[height=0.5,
		pos="916.48,588.53",
		width=0.75];
	2 -- 53	[pos="673.25,506.98 724.04,524.01 841.23,563.3 892.14,580.37"];
	14	[height=0.5,
		pos="451.02,574.05",
		width=0.75];
	2 -- 14	[pos="625.55,507.78 587.44,522.25 512.58,550.68 474.49,565.14"];
	55	[height=0.5,
		pos="722.8,190.14",
		width=0.75];
	2 -- 55	[pos="653.33,480.93 666.36,426.36 705.45,262.75 718.5,208.12"];
	17	[height=0.5,
		pos="822.09,422.57",
		width=0.75];
	2 -- 17	[pos="671.67,488.89 704.83,474.27 766.29,447.17 799.46,432.55"];
	57	[height=0.5,
		pos="990.51,493.07",
		width=0.75];
	2 -- 57	[pos="676.12,498.4 740.01,497.32 899.54,494.61 963.43,493.53"];
	23	[height=0.5,
		pos="524.26,869.41",
		width=0.75];
	22 -- 23	[pos="370.78,805.23 404.62,819.38 467.33,845.6 501.17,859.75"];
	6 -- 7	[pos="542.05,658.1 567.79,599.89 649.84,414.3 675.46,356.35"];
	6 -- 9	[pos="546.41,659.45 565.43,633.95 602.02,584.9 621.1,559.32"];
	36	[height=0.5,
		pos="325.64,706.11",
		width=0.75];
	6 -- 36	[pos="507.83,679.58 467.82,685.41 392.26,696.41 352.18,702.25"];
	6 -- 17	[pos="550.97,661.03 601.97,616.18 755.11,481.48 805.68,437"];
	10	[height=0.5,
		pos="484.36,442",
		width=0.75];
	6 -- 10	[pos="530.42,657.78 521.14,614.28 497.51,503.59 488.2,460.02"];
	75	[height=0.5,
		pos="595.1,851.41",
		width=0.75];
	6 -- 75	[pos="540.42,693.55 552.12,727.31 577.37,800.22 589,833.81"];
	103	[height=0.5,
		pos="473.87,486.04",
		width=0.75];
	6 -- 103	[pos="528.57,657.89 517.04,621.64 490.98,539.79 479.49,503.7"];
	104	[height=0.5,
		pos="285.36,753.27",
		width=0.75];
	6 -- 104	[pos="509.48,683.45 461.77,698.32 357.66,730.74 310.03,745.58"];
	105	[height=0.5,
		pos="359.16,603.99",
		width=0.75];
	6 -- 105	[pos="511,666.21 477.42,652.45 415.71,627.16 382.23,613.44"];
	106	[height=0.5,
		pos="658.07,816.22",
		width=0.75];
	6 -- 106	[pos="547.98,691.31 571.78,718.31 620.44,773.53 644.28,800.58"];
	107	[height=0.5,
		pos="347.42,750.15",
		width=0.75];
	6 -- 107	[pos="510.97,685.01 475.07,699.31 406.61,726.58 370.71,740.88"];
	108	[height=0.5,
		pos="409.83,798.8",
		width=0.75];
	6 -- 108	[pos="519,690.83 495.12,714.45 449.17,759.89 425.21,783.59"];
	109	[height=0.5,
		pos="381.07,559.96",
		width=0.75];
	6 -- 109	[pos="516.38,662.23 487.02,640.04 428.9,596.1 399.3,573.74"];
	110	[height=0.5,
		pos="765.58,881.68",
		width=0.75];
	6 -- 110	[pos="550.52,690.22 592.99,728.03 706.88,829.42 749.33,867.21"];
	112	[height=0.5,
		pos="377.28,946.79",
		width=0.75];
	6 -- 112	[pos="524.44,692.69 496.25,741.37 415.28,881.17 387.1,929.84"];
	63	[height=0.5,
		pos="671.1,922.76",
		width=0.75];
	6 -- 63	[pos="543.66,692.72 568.66,737.84 636.55,860.4 661.63,905.66"];
	7 -- 12	[pos="662.41,350.63 636.7,365.15 593.16,389.75 567.36,404.32"];
	7 -- 19	[pos="672.16,355.83 634.22,414.1 509.33,605.96 471.7,663.78"];
	37	[height=0.5,
		pos="560.71,284.05",
		width=0.75];
	7 -- 37	[pos="660.72,328.83 638.76,319 605.5,304.11 583.44,294.23"];
	7 -- 49	[pos="706.21,329.17 729.25,319.44 764.5,304.57 787.48,294.86"];
	64	[height=0.5,
		pos="835.22,471.31",
		width=0.75];
	7 -- 64	[pos="699.74,353.31 728.99,378.78 789.45,431.44 818.68,456.9"];
	7 -- 10	[pos="661.53,350.12 623.18,370.01 543.8,411.18 505.69,430.94"];
	11	[height=0.5,
		pos="297.13,576.95",
		width=0.75];
	7 -- 11	[pos="663.24,351.19 596.85,392.13 383.75,523.54 317.19,564.59"];
	89	[height=0.5,
		pos="698.76,132.46",
		width=0.75];
	7 -- 89	[pos="684.57,320.57 687.53,281.3 694.47,189.41 697.41,150.44"];
	114	[height=0.5,
		pos="623.37,161.98",
		width=0.75];
	7 -- 114	[pos="677.23,321.28 665.79,287.46 640.88,213.75 629.39,179.78"];
	115	[height=0.5,
		pos="780.07,329.24",
		width=0.75];
	7 -- 115	[pos="709.92,336.23 723.36,334.89 739.61,333.27 753.09,331.93"];
	116	[height=0.5,
		pos="773.1,492.61",
		width=0.75];
	7 -- 116	[pos="693.15,355.93 710.43,385.48 745.78,445.9 763.09,475.5"];
	117	[height=0.5,
		pos="446.46,128.47",
		width=0.75];
	7 -- 117	[pos="666.91,324.43 623.67,285.99 506.22,181.59 462.84,143.03"];
	119	[height=0.5,
		pos="630.01,419.56",
		width=0.75];
	7 -- 119	[pos="672.17,355.6 663.04,369.45 650.13,389.03 641.01,402.87"];
	120	[height=0.5,
		pos="694.19,69.881",
		width=0.75];
	7 -- 120	[pos="683.92,320.82 685.92,271.93 691.43,137.43 693.44,88.225"];
	122	[height=0.5,
		pos="897.72,280.7",
		width=0.75];
	7 -- 122	[pos="708.21,332.1 749.44,320.92 831.18,298.75 872.52,287.53"];
	123	[height=0.5,
		pos="986.9,293.72",
		width=0.75];
	7 -- 123	[pos="709.61,334.96 767.05,326.42 902.74,306.23 960.32,297.67"];
	77	[height=0.5,
		pos="952.73,338.07",
		width=0.75];
	7 -- 77	[pos="710.26,338.81 761.93,338.65 874.01,338.31 925.66,338.16"];
	9 -- 12	[pos="621.98,526.33 605.32,502.04 574.43,457.03 557.76,432.74"];
	9 -- 16	[pos="628.51,524.95 619.67,492.16 601.01,422.93 592.17,390.12"];
	9 -- 15	[pos="613.49,555.29 591.2,569.2 555.25,591.63 532.95,605.54"];
	9 -- 14	[pos="606.84,547.43 572.17,553.35 511.81,563.67 477.27,569.57"];
	9 -- 10	[pos="614.18,529.92 585.57,510.54 532.02,474.28 503.46,454.94"];
	9 -- 115	[pos="644.62,526.49 671.93,486.72 741.41,385.54 768.76,345.71"];
	135	[height=0.5,
		pos="378.89,662.11",
		width=0.75];
	9 -- 135	[pos="611.22,553.27 563.09,575.81 449.4,629.08 401.16,651.68"];
	136	[height=0.5,
		pos="754.32,694.6",
		width=0.75];
	9 -- 136	[pos="646.07,558.85 669.24,587.91 718.1,649.17 741.41,678.41"];
	137	[height=0.5,
		pos="966.22,397.71",
		width=0.75];
	9 -- 137	[pos="655.97,533.03 716.7,506.55 882.81,434.09 943.57,407.59"];
	139	[height=0.5,
		pos="864.64,536.04",
		width=0.75];
	9 -- 139	[pos="660.34,542.1 704.79,540.78 792.9,538.17 837.47,536.85"];
	140	[height=0.5,
		pos="532.7,825.37",
		width=0.75];
	9 -- 140	[pos="627.06,560.57 608.98,611.3 557.06,756.98 538.99,807.7"];
	66	[height=0.5,
		pos="918.59,676.58",
		width=0.75];
	9 -- 66	[pos="655.73,553.39 709.06,578.38 843.1,641.2 896.31,666.14"];
	29	[height=0.5,
		pos="27,629.31",
		width=0.75];
	28 -- 29	[pos="71.401,600.44 63.469,605.6 54.328,611.54 46.408,616.69"];
	12 -- 13	[pos="554.94,433.42 575.32,474.51 626.53,577.82 646.86,618.83"];
	12 -- 16	[pos="560.71,400.78 564.68,396.51 568.98,391.88 572.95,387.62"];
	12 -- 19	[pos="540.65,433.92 525.07,482.06 482.14,614.69 466.59,662.74"];
	40	[height=0.5,
		pos="351.42,339.68",
		width=0.75];
	12 -- 40	[pos="522.87,406.95 485.3,392.2 412.15,363.51 374.72,348.82"];
	12 -- 15	[pos="543.43,434.08 537.12,472.27 522.41,561.38 516.06,599.8"];
	18	[height=0.5,
		pos="753.13,587.62",
		width=0.75];
	12 -- 18	[pos="563.31,430.2 602.08,462.35 696.99,541.06 735.98,573.39"];
	12 -- 14	[pos="536.19,433.07 517.83,463.46 479.46,526.98 461.16,557.28"];
	80	[height=0.5,
		pos="695.52,543.4",
		width=0.75];
	12 -- 80	[pos="563.21,430.52 591.85,454.95 649.78,504.38 678.53,528.91"];
	12 -- 105	[pos="531.39,431.22 496.33,466.39 409.37,553.63 374.24,588.87"];
	161	[height=0.5,
		pos="784.84,177.95",
		width=0.75];
	12 -- 161	[pos="561.67,400.91 604.74,357.88 726.77,235.96 769.69,193.08"];
	68	[height=0.5,
		pos="799.57,536.66",
		width=0.75];
	12 -- 68	[pos="568.42,426.65 616.3,449.44 729.42,503.27 777.42,526.11"];
	127	[height=0.5,
		pos="384.11,100.49",
		width=0.75];
	12 -- 127	[pos="537.44,398.75 509.06,343.56 421.38,172.97 393.04,117.86"];
	145	[height=0.5,
		pos="322.28,151.37",
		width=0.75];
	12 -- 145	[pos="533.04,400.4 493.18,353.3 375.33,214.05 335.56,167.06"];
	150	[height=0.5,
		pos="135.71,302.97",
		width=0.75];
	12 -- 150	[pos="521.32,409.26 447.91,389.03 234.03,330.07 160.71,309.86"];
	13 -- 16	[pos="650.7,617.86 638.24,569.55 604.34,438.13 591.95,390.07"];
	13 -- 19	[pos="629.54,641.89 592.24,650.41 523.69,666.07 486.49,674.56"];
	13 -- 15	[pos="628.61,632.6 603.16,629.38 565.11,624.55 539.71,621.33"];
	81	[height=0.5,
		pos="722.51,814.52",
		width=0.75];
	13 -- 81	[pos="662.06,653.77 674.92,687.99 703,762.66 715.85,796.82"];
	94	[height=0.5,
		pos="754.14,417.3",
		width=0.75];
	13 -- 94	[pos="663.29,618.47 681.83,577.42 727.89,475.44 746.33,434.6"];
	13 -- 106	[pos="655.65,654.27 656.16,688.9 657.28,763.7 657.8,798.17"];
	13 -- 116	[pos="668.42,620.1 691.05,592.54 737.32,536.19 759.99,508.58"];
	128	[height=0.5,
		pos="711.07,461.31",
		width=0.75];
	13 -- 128	[pos="661.02,618.29 671.7,584.8 694.72,512.59 705.41,479.07"];
	13 -- 136	[pos="675.88,648.14 692.86,658.2 716.87,672.42 733.85,682.47"];
	146	[height=0.5,
		pos="575.09,586.94",
		width=0.75];
	13 -- 146	[pos="635.11,623.62 622.85,616.12 607.27,606.61 595.06,599.15"];
	163	[height=0.5,
		pos="564.89,913.42",
		width=0.75];
	13 -- 163	[pos="649.58,653.77 633.23,703.88 586.92,845.87 570.64,895.79"];
	165	[height=0.5,
		pos="1006.6,597.87",
		width=0.75];
	13 -- 165	[pos="682.06,633.1 747.21,626.03 913.84,607.94 979.45,600.81"];
	167	[height=0.5,
		pos="847.8,717.63",
		width=0.75];
	13 -- 167	[pos="678.2,645.68 715.24,661.39 787.99,692.26 825,707.96"];
	54	[height=0.5,
		pos="904.01,764.61",
		width=0.75];
	13 -- 54	[pos="677,647.18 724.15,671.57 835.68,729.26 882.61,753.54"];
	152	[height=0.5,
		pos="335.37,840.44",
		width=0.75];
	13 -- 152	[pos="635.84,648.48 578.71,684.98 412.38,791.24 355.06,827.86"];
	16 -- 19	[pos="580.17,389.61 557.96,443.74 490.42,608.38 468.11,662.77"];
	42	[height=0.5,
		pos="298.27,383.71",
		width=0.75];
	16 -- 42	[pos="560.13,373.24 505.04,375.44 380.81,380.41 325.6,382.61"];
	16 -- 18	[pos="599.79,388.35 630.59,428.38 710.03,531.61 740.75,571.53"];
	16 -- 109	[pos="571.14,386.89 532.59,422 435.66,510.25 397.18,545.29"];
	131	[height=0.5,
		pos="508.53,166.87",
		width=0.75];
	16 -- 131	[pos="580.61,354.65 565.72,315.87 530.1,223.07 515.23,184.33"];
	169	[height=0.5,
		pos="748.29,279.07",
		width=0.75];
	16 -- 169	[pos="608.04,360.18 638.95,342.3 696.79,308.85 727.65,291.01"];
	56	[height=0.5,
		pos="630.7,117.89",
		width=0.75];
	16 -- 56	[pos="590.45,353.87 598.45,306.96 619.64,182.74 627.61,136.01"];
	98	[height=0.5,
		pos="507.66,78.795",
		width=0.75];
	16 -- 98	[pos="582.46,354.25 568.24,301.87 526.83,149.39 512.56,96.843"];
	121	[height=0.5,
		pos="590.87,73.67",
		width=0.75];
	16 -- 121	[pos="587.55,353.93 588.18,300.65 590.02,145.5 590.66,92.033"];
	157	[height=0.5,
		pos="127.39,347",
		width=0.75];
	16 -- 157	[pos="560.27,370.68 478.73,366.21 235.92,352.93 154.41,348.47"];
	33	[height=0.5,
		pos="846.9,173.88",
		width=0.75];
	32 -- 33	[pos="668.52,232.1 707.51,219.37 783.31,194.63 822.35,181.89"];
	102	[height=0.5,
		pos="547.47,473.81",
		width=0.75];
	19 -- 102	[pos="468.25,662.8 484.61,623.76 523.76,530.37 540.1,491.38"];
	134	[height=0.5,
		pos="327.52,455.58",
		width=0.75];
	19 -- 134	[pos="450.85,663.51 426.07,621.75 362.18,514.02 337.47,472.37"];
	148	[height=0.5,
		pos="297.13,639.05",
		width=0.75];
	19 -- 148	[pos="435.28,673.95 404.52,666.18 353.22,653.22 322.54,645.47"];
	160	[height=0.5,
		pos="223.34,754.16",
		width=0.75];
	19 -- 160	[pos="436.34,688.03 390.83,702.16 293.77,732.29 248.09,746.48"];
	173	[height=0.5,
		pos="671.71,768.09",
		width=0.75];
	19 -- 173	[pos="483.83,689.96 524.39,706.83 608.24,741.69 648.78,758.55"];
	45	[height=0.5,
		pos="251.89,805.95",
		width=0.75];
	19 -- 45	[pos="440.45,692.68 400.4,716.74 311.96,769.87 272.09,793.82"];
	88	[height=0.5,
		pos="466.77,950.46",
		width=0.75];
	19 -- 88	[pos="461.27,698.55 462.34,747.75 465.3,883.3 466.38,932.4"];
	113	[height=0.5,
		pos="314.96,929.14",
		width=0.75];
	19 -- 113	[pos="450.84,697.51 424.12,743.06 351.45,866.95 324.87,912.25"];
	141	[height=0.5,
		pos="394.88,902.78",
		width=0.75];
	19 -- 141	[pos="455.58,698.23 443.22,739.87 412.57,843.16 400.19,884.88"];
	172	[height=0.5,
		pos="733.81,761.64",
		width=0.75];
	19 -- 172	[pos="485.57,687.76 537.4,703.19 657.01,738.79 708.96,754.25"];
	1	[height=0.5,
		pos="443.77,530.05",
		width=0.75];
	1 -- 2	[pos="470.19,526.04 509.49,520.07 582.97,508.9 622.4,502.91"];
	1 -- 9	[pos="470.94,531.89 506.97,534.34 570.23,538.62 606.24,541.06"];
	1 -- 13	[pos="465.62,540.99 506.27,561.35 593.08,604.81 633.64,625.12"];
	1 -- 3	[pos="466.91,539.68 519.03,561.36 645.18,613.84 697.43,635.57"];
	4	[height=0.5,
		pos="658.64,680.01",
		width=0.75];
	1 -- 4	[pos="462.47,543.1 503.1,571.46 599.1,638.46 639.84,666.89"];
	35	[height=0.5,
		pos="484.89,294.97",
		width=0.75];
	1 -- 35	[pos="446.93,512 454.58,468.24 474.06,356.91 481.72,313.09"];
	1 -- 36	[pos="432.66,546.62 410.14,580.17 359.37,655.84 336.81,689.46"];
	1 -- 37	[pos="452,512.76 473.47,467.59 531.03,346.48 552.49,301.33"];
	1 -- 8	[pos="456.66,514.21 487.28,476.55 564.13,382.03 594.92,344.16"];
	38	[height=0.5,
		pos="233.25,459.83",
		width=0.75];
	1 -- 38	[pos="419.62,522 379.12,508.49 297.97,481.42 257.45,467.9"];
	39	[height=0.5,
		pos="157.61,591.6",
		width=0.75];
	1 -- 39	[pos="417.87,535.62 363.53,547.31 238.13,574.28 183.66,586"];
	1 -- 40	[pos="435.41,512.82 417.88,476.67 377.4,393.25 359.82,357.01"];
	41	[height=0.5,
		pos="235.11,649.99",
		width=0.75];
	1 -- 41	[pos="423,541.99 383.01,564.98 295.73,615.15 255.8,638.1"];
	1 -- 15	[pos="456.48,546.18 468.98,562.04 487.96,586.11 500.43,601.94"];
	1 -- 42	[pos="428.75,514.94 400.87,486.9 341.41,427.1 313.43,398.95"];
	43	[height=0.5,
		pos="692.09,389.23",
		width=0.75];
	1 -- 43	[pos="464.52,518.29 511.26,491.78 624.38,427.63 671.23,401.06"];
	1 -- 18	[pos="469.88,534.91 528.15,545.75 668.26,571.82 726.76,582.71"];
	44	[height=0.5,
		pos="182.76,694.26",
		width=0.75];
	1 -- 44	[pos="423.73,542.67 375.02,573.31 250.92,651.37 202.52,681.83"];
	1 -- 21	[pos="416.68,529.34 362.66,527.93 242.15,524.76 188.2,523.35"];
	3 -- 13	[pos="694.13,641.49 690.17,640.93 686.09,640.35 682.13,639.79"];
	3 -- 16	[pos="712.15,627.75 688.06,578.42 619.8,438.66 595.8,389.51"];
	3 -- 19	[pos="693.87,648.88 643.95,655.64 537.36,670.06 487.55,676.8"];
	3 -- 8	[pos="714.31,627.29 694.47,571.47 634.03,401.42 614.28,345.87"];
	59	[height=0.5,
		pos="792.83,805.7",
		width=0.75];
	3 -- 59	[pos="728.55,662.73 742.43,693.59 771.11,757.4 784.98,788.25"];
	60	[height=0.5,
		pos="904.19,382.34",
		width=0.75];
	3 -- 60	[pos="732.17,628.8 765.13,581.59 859.77,445.98 892.72,398.78"];
	62	[height=0.5,
		pos="848.22,897.86",
		width=0.75];
	3 -- 62	[pos="729.46,662.61 752.81,708.87 816.34,834.69 839.57,880.71"];
	3 -- 64	[pos="731.68,628.57 753.57,595.32 802.41,521.14 824.27,487.94"];
	65	[height=0.5,
		pos="967.44,785.86",
		width=0.75];
	3 -- 65	[pos="741.31,657 787.75,683.46 900.16,747.52 946.71,774.05"];
	3 -- 10	[pos="704.08,630.96 660.68,593.64 544.33,493.58 500.96,456.28"];
	3 -- 11	[pos="694.2,640.98 618.13,628.71 399.67,593.49 323.62,581.23"];
	67	[height=0.5,
		pos="916.59,720.59",
		width=0.75];
	3 -- 67	[pos="744.32,654.34 782.08,668.86 855.56,697.12 893.18,711.58"];
	69	[height=0.5,
		pos="534,774.7",
		width=0.75];
	3 -- 69	[pos="701.76,658.37 665.98,683.19 588.8,736.7 552.98,761.54"];
	70	[height=0.5,
		pos="596.02,776.33",
		width=0.75];
	3 -- 70	[pos="706.15,660.54 682.25,685.67 634.94,735.41 610.86,760.73"];
	71	[height=0.5,
		pos="1034.3,645.05",
		width=0.75];
	3 -- 71	[pos="747.7,645.23 806.98,645.19 947.92,645.1 1007.2,645.07"];
	73	[height=0.5,
		pos="972.02,829.91",
		width=0.75];
	3 -- 73	[pos="739.17,658.83 785.77,693.06 907.6,782.58 953.85,816.56"];
	3 -- 23	[pos="706.88,661.01 670.81,702.17 574.11,812.53 538.06,853.66"];
	4 -- 24	[pos="632.48,685.27 584.68,694.87 483.78,715.14 435.97,724.75"];
	4 -- 9	[pos="655.34,662.09 650.49,635.81 641.51,587.11 636.66,560.83"];
	4 -- 16	[pos="654.5,662.13 641.89,607.72 604.1,444.56 591.48,390.09"];
	4 -- 59	[pos="674.56,694.93 700.39,719.12 751.12,766.63 776.93,790.81"];
	4 -- 10	[pos="646.66,663.65 614.82,620.17 528.36,502.09 496.42,458.48"];
	4 -- 11	[pos="633.79,672.93 567.75,654.1 388.4,602.97 322.16,584.09"];
	5	[height=0.5,
		pos="654.67,284.11",
		width=0.75];
	4 -- 5	[pos="658.46,661.97 657.8,596.02 655.51,368.38 654.85,302.25"];
	4 -- 75	[pos="652.08,697.71 639.87,730.64 613.81,800.95 601.62,833.81"];
	76	[height=0.5,
		pos="926.81,536.27",
		width=0.75];
	4 -- 76	[pos="679.68,668.73 729.69,641.93 855.21,574.64 905.49,547.69"];
	78	[height=0.5,
		pos="897.3,490.74",
		width=0.75];
	4 -- 78	[pos="676.19,666.1 720.33,631.09 835.56,539.7 879.73,504.67"];
	4 -- 80	[pos="663.46,662.15 670.53,635.97 683.63,587.45 690.7,561.26"];
	4 -- 81	[pos="666.86,697.32 679.12,723.15 702.07,771.49 714.32,797.28"];
	82	[height=0.5,
		pos="471.91,773.56",
		width=0.75];
	4 -- 82	[pos="636.86,690.93 600.88,708.95 529.45,744.74 493.56,762.72"];
	83	[height=0.5,
		pos="585.54,957.44",
		width=0.75];
	4 -- 83	[pos="653.96,697.79 640.79,747.78 603.52,889.21 590.28,939.45"];
	85	[height=0.5,
		pos="854.43,580.68",
		width=0.75];
	4 -- 85	[pos="680.34,669 718.08,649.86 795.34,610.66 832.93,591.59"];
	86	[height=0.5,
		pos="833.94,761.67",
		width=0.75];
	4 -- 86	[pos="680.84,690.36 714.47,706.02 777.96,735.59 811.64,751.28"];
	87	[height=0.5,
		pos="647.68,977.95",
		width=0.75];
	4 -- 87	[pos="657.97,698.2 656.02,751.39 650.32,906.25 648.35,959.62"];
	47	[height=0.5,
		pos="862.81,808.63",
		width=0.75];
	4 -- 47	[pos="678.59,692.58 717.72,717.23 804.12,771.66 843.08,796.2"];
	8 -- 26	[pos="581.44,324.45 536.25,318.22 444.86,305.63 399.49,299.37"];
	8 -- 9	[pos="610.14,346.42 614.94,387.11 626.46,484.58 631.23,524.94"];
	8 -- 10	[pos="592.06,342.77 568.33,364.64 523.9,405.57 500.2,427.4"];
	90	[height=0.5,
		pos="543.1,122.82",
		width=0.75];
	8 -- 90	[pos="602.33,310.25 590.03,271.33 560.93,179.24 548.68,140.49"];
	8 -- 103	[pos="594.62,343.83 569.05,373.95 513.4,439.48 487.56,469.91"];
	8 -- 114	[pos="609.65,310.02 612.61,278.06 618.73,211.99 621.7,180.05"];
	125	[height=0.5,
		pos="236.2,397.87",
		width=0.75];
	8 -- 125	[pos="581.83,333.02 513.57,345.82 330.54,380.17 262.32,392.97"];
	126	[height=0.5,
		pos="437.6,49.883",
		width=0.75];
	8 -- 126	[pos="597.57,311.13 567.08,261.34 478.18,116.15 447.87,66.647"];
	8 -- 128	[pos="620.41,344.18 640.22,369.78 678.75,419.55 698.59,445.19"];
	129	[height=0.5,
		pos="360.32,404.91",
		width=0.75];
	8 -- 129	[pos="583.32,335.76 535.85,350.48 432.26,382.6 384.87,397.3"];
	130	[height=0.5,
		pos="422.34,428.45",
		width=0.75];
	8 -- 130	[pos="586.68,339.62 550.87,358.98 479.03,397.81 443.39,417.07"];
	8 -- 131	[pos="597.7,311.46 578.65,280.56 538.01,214.68 518.89,183.67"];
	132	[height=0.5,
		pos="779.04,234.52",
		width=0.75];
	8 -- 132	[pos="628.95,316.63 661.87,298.62 725.3,263.92 758.16,245.94"];
	133	[height=0.5,
		pos="773.6,373.26",
		width=0.75];
	8 -- 133	[pos="633.13,334.97 664.35,343.48 717.28,357.9 748.48,366.41"];
	8 -- 134	[pos="585.49,338.33 532.98,362.2 402.72,421.4 350.1,445.32"];
	79	[height=0.5,
		pos="872.64,324.71",
		width=0.75];
	8 -- 79	[pos="635.3,327.76 686.15,327.11 794.72,325.71 845.46,325.06"];
	15 -- 31	[pos="486.15,616.16 433.01,612.6 315.14,604.72 261.98,601.16"];
	15 -- 16	[pos="518.4,600.28 532.07,555.04 568.21,435.43 581.94,390"];
	15 -- 19	[pos="499.89,633.72 492.04,643.11 482.1,655.01 474.22,664.44"];
	15 -- 18	[pos="539.67,614.59 585.82,608.76 680.17,596.84 726.4,591"];
	15 -- 17	[pos="532.86,605.44 588.68,570.15 746.84,470.15 802.45,434.99"];
	15 -- 70	[pos="522.1,635.21 538.05,665.67 571.04,728.65 586.99,759.1"];
	96	[height=0.5,
		pos="505.57,371.44",
		width=0.75];
	15 -- 96	[pos="512.51,599.83 511.12,554.24 507.5,435.21 506.12,389.59"];
	15 -- 108	[pos="503.35,634.97 483.62,669.52 439.08,747.56 419.44,781.96"];
	15 -- 119	[pos="523.03,601.04 545.13,563.56 597.99,473.88 620.06,436.43"];
	15 -- 130	[pos="504.85,600.8 487.62,564.81 447.87,481.77 430.6,445.7"];
	147	[height=0.5,
		pos="285.81,511.09",
		width=0.75];
	15 -- 147	[pos="490.86,607.51 447.41,587.08 351.62,542.04 308.1,521.57"];
	84	[height=0.5,
		pos="461.72,886.87",
		width=0.75];
	15 -- 84	[pos="509.61,636.02 500.26,685.01 474.49,819.99 465.16,868.89"];
	155	[height=0.5,
		pos="161.28,738.4",
		width=0.75];
	15 -- 155	[pos="488.88,626.23 424.62,648.24 250.09,708 185.63,730.07"];
	18 -- 34	[pos="727.91,594.33 697.14,602.51 645.43,616.26 614.65,624.45"];
	18 -- 86	[pos="761.17,604.94 776.66,638.31 810.47,711.11 825.93,744.41"];
	101	[height=0.5,
		pos="842.14,370.3",
		width=0.75];
	18 -- 101	[pos="760.26,570.2 776.93,529.51 818.27,428.57 834.97,387.8"];
	18 -- 133	[pos="754.88,569.34 758.74,528.84 768,431.94 771.86,391.49"];
	18 -- 139	[pos="775.43,577.3 794.88,568.31 822.95,555.33 842.39,546.34"];
	159	[height=0.5,
		pos="476.96,728.63",
		width=0.75];
	18 -- 159	[pos="731.46,598.68 679.83,625.04 550.05,691.31 498.53,717.62"];
	18 -- 167	[pos="764.93,603.82 783.07,628.74 817.62,676.19 835.85,701.22"];
	168	[height=0.5,
		pos="613.58,724.05",
		width=0.75];
	18 -- 168	[pos="737.66,602.74 710.84,628.97 655.99,682.59 629.12,708.86"];
	170	[height=0.5,
		pos="986.72,448.99",
		width=0.75];
	18 -- 170	[pos="773.45,575.56 817.63,549.34 921.99,487.4 966.28,461.12"];
	18 -- 173	[pos="745.32,604.92 729.76,639.42 695.04,716.38 679.5,750.83"];
	58	[height=0.5,
		pos="1068.6,586.36",
		width=0.75];
	18 -- 58	[pos="780.3,587.51 839.93,587.27 981.69,586.71 1041.4,586.47"];
	74	[height=0.5,
		pos="1029.6,751.57",
		width=0.75];
	18 -- 74	[pos="773.46,599.67 824.59,629.99 958.08,709.16 1009.2,739.5"];
	111	[height=0.5,
		pos="909.93,852.67",
		width=0.75];
	18 -- 111	[pos="763.18,604.6 791.5,652.47 871.75,788.12 899.97,835.82"];
	124	[height=0.5,
		pos="1028.2,401.57",
		width=0.75];
	18 -- 124	[pos="772.47,574.54 823.11,540.29 959.07,448.34 1009.3,414.39"];
	44 -- 45	[pos="193.26,711.22 206.33,732.34 228.51,768.17 241.52,789.19"];
	46 -- 47	[pos="857.38,691.8 858.57,717.58 860.75,764.42 861.95,790.27"];
	51	[height=0.5,
		pos="384.37,170.3",
		width=0.75];
	50 -- 51	[pos="545.92,202.96 510.07,195.71 445.97,182.76 410.24,175.53"];
	53 -- 54	[pos="915.2,606.71 912.8,640.54 907.69,712.77 905.29,746.53"];
	14 -- 30	[pos="424.08,571.83 380.36,568.21 294.49,561.11 250.79,557.5"];
	14 -- 16	[pos="462.18,557.53 487.8,519.58 550.62,426.52 576.21,388.62"];
	14 -- 19	[pos="452.69,592.1 454.5,611.65 457.38,642.69 459.19,662.28"];
	14 -- 41	[pos="427.09,582.47 385.59,597.07 300.73,626.91 259.15,641.53"];
	14 -- 15	[pos="469.64,587.23 477.49,592.78 486.61,599.24 494.46,604.79"];
	14 -- 17	[pos="474.24,564.58 540.87,537.37 732.26,459.25 798.89,432.05"];
	14 -- 69	[pos="458.24,591.51 473.93,629.46 511.01,719.1 526.74,757.14"];
	14 -- 82	[pos="452.91,592.11 456.88,630 466.04,717.42 470.01,755.4"];
	95	[height=0.5,
		pos="443.56,338.99",
		width=0.75];
	14 -- 95	[pos="450.45,556 449.06,512.25 445.52,400.93 444.13,357.11"];
	14 -- 107	[pos="441.09,590.94 421.29,624.6 377.1,699.7 357.33,733.32"];
	14 -- 129	[pos="441.83,556.9 424.44,524.49 386.94,454.56 369.54,422.1"];
	153	[height=0.5,
		pos="169.32,645.49",
		width=0.75];
	14 -- 153	[pos="425.53,580.52 372.03,594.09 248.58,625.39 194.96,638.99"];
	14 -- 168	[pos="466.91,588.71 497.9,617.31 566.15,680.29 597.39,709.12"];
	118	[height=0.5,
		pos="327.79,251.36",
		width=0.75];
	14 -- 118	[pos="444.22,556.24 422.68,499.83 356.09,325.45 334.57,269.11"];
	164	[height=0.5,
		pos="407.21,842.82",
		width=0.75];
	14 -- 164	[pos="448.08,592.11 440.1,641.07 418.11,775.98 410.14,824.85"];
	55 -- 56	[pos="705.04,176.21 688.73,163.42 664.69,144.56 648.4,131.78"];
	17 -- 43	[pos="796.72,416.07 773.81,410.19 740.29,401.59 717.4,395.72"];
	17 -- 85	[pos="825.8,440.71 832.04,471.21 844.55,532.4 850.76,562.75"];
	17 -- 122	[pos="831.21,405.46 845.75,378.19 874.01,325.18 888.57,297.87"];
	17 -- 132	[pos="817.96,404.54 809.73,368.6 791.37,288.39 783.15,252.49"];
	158	[height=0.5,
		pos="561.75,519.01",
		width=0.75];
	17 -- 158	[pos="798.06,431.47 748.47,449.84 635.26,491.78 585.72,510.13"];
	17 -- 169	[pos="813.19,405.26 799,377.68 771.43,324.06 757.22,296.44"];
	17 -- 170	[pos="848.54,426.82 879.26,431.75 929.64,439.83 960.33,444.76"];
	171	[height=0.5,
		pos="944.47,632.57",
		width=0.75];
	17 -- 171	[pos="831.9,439.4 854.81,478.72 911.66,576.26 934.62,615.66"];
	17 -- 33	[pos="823.92,404.29 828.52,358.18 840.54,237.63 845.11,191.86"];
	72	[height=0.5,
		pos="1090.1,488.47",
		width=0.75];
	17 -- 72	[pos="847.79,428.89 899.02,441.49 1013.3,469.59 1064.5,482.17"];
	100	[height=0.5,
		pos="908.93,174.23",
		width=0.75];
	17 -- 100	[pos="828.34,404.71 844.36,358.89 886.78,237.57 902.74,191.93"];
	138	[height=0.5,
		pos="1055.6,338.99",
		width=0.75];
	17 -- 138	[pos="846.2,413.94 891.05,397.89 986.83,363.6 1031.6,347.58"];
	162	[height=0.5,
		pos="939.81,236.66",
		width=0.75];
	17 -- 162	[pos="832.74,405.75 855.16,370.35 906.95,288.56 929.26,253.31"];
	166	[height=0.5,
		pos="1090.2,444.46",
		width=0.75];
	17 -- 166	[pos="849.28,424.79 900.81,429 1012.1,438.09 1063.4,442.27"];
	57 -- 58	[pos="1003.8,508.9 1018.1,526.05 1040.9,553.27 1055.3,570.46"];
	61	[height=0.5,
		pos="877.73,218.84",
		width=0.75];
	60 -- 61	[pos="901.26,364.22 896.17,332.79 885.78,268.53 880.68,237.05"];
	62 -- 63	[pos="821.71,901.59 788.32,906.28 731.28,914.3 697.8,919.01"];
	65 -- 66	[pos="959.59,768.3 950.47,747.91 935.53,714.47 926.42,694.09"];
	10 -- 27	[pos="457.91,437.66 399.31,428.02 259.1,404.97 200.57,395.35"];
	10 -- 16	[pos="503.73,428.87 522.25,416.3 550.02,397.47 568.4,385"];
	10 -- 38	[pos="457.49,443.91 409.28,447.33 308.65,454.48 260.31,457.91"];
	10 -- 18	[pos="505.45,453.43 555.69,480.65 681.99,549.08 732.14,576.25"];
	10 -- 14	[pos="479.86,459.81 473.5,485.02 461.94,530.83 455.56,556.11"];
	10 -- 17	[pos="511.43,440.45 574.66,436.81 731.53,427.78 794.89,424.14"];
	91	[height=0.5,
		pos="446.47,207.64",
		width=0.75];
	10 -- 91	[pos="481.45,424 474.39,380.38 456.45,269.39 449.39,225.7"];
	142	[height=0.5,
		pos="112.08,434.46",
		width=0.75];
	10 -- 142	[pos="457.29,441.46 388.6,440.06 208.15,436.41 139.3,435.01"];
	144	[height=0.5,
		pos="268.51,207.15",
		width=0.75];
	10 -- 144	[pos="470.2,426.6 431.09,384.04 321.9,265.24 282.73,222.61"];
	10 -- 146	[pos="494.77,458.63 512.17,486.44 547.01,542.09 564.52,570.06"];
	10 -- 147	[pos="460.41,450.34 422.25,463.62 348.06,489.43 309.84,502.73"];
	10 -- 148	[pos="469.67,457.47 434.67,494.3 346.69,586.9 311.76,623.66"];
	10 -- 51	[pos="477.8,424.18 459.64,374.83 408.86,236.85 390.83,187.84"];
	11 -- 39	[pos="270.23,579.78 245.53,582.37 209.11,586.2 184.43,588.79"];
	11 -- 52	[pos="321.35,584.98 343.07,592.18 374.8,602.7 396.63,609.93"];
	11 -- 104	[pos="295.92,595.16 293.66,629.03 288.82,701.36 286.57,735.16"];
	11 -- 125	[pos="291.07,559.13 279.39,524.8 253.9,449.89 242.25,415.62"];
	11 -- 135	[pos="311.75,592.18 326.54,607.58 349.28,631.27 364.13,646.73"];
	149	[height=0.5,
		pos="50.068,400.76",
		width=0.75];
	11 -- 149	[pos="278.56,563.71 232.67,530.98 114.29,446.56 68.516,413.92"];
	151	[height=0.5,
		pos="169.72,798.2",
		width=0.75];
	11 -- 151	[pos="287.35,593.95 263.63,635.13 203.29,739.91 179.54,781.15"];
	11 -- 153	[pos="276.03,588.27 252.35,600.97 214.15,621.45 190.46,634.15"];
	154	[height=0.5,
		pos="72.332,707.42",
		width=0.75];
	11 -- 154	[pos="276.39,588.99 233.45,613.91 135.31,670.87 92.703,695.6"];
	156	[height=0.5,
		pos="35.495,444.94",
		width=0.75];
	11 -- 156	[pos="275.28,565.93 225.9,541.01 106.24,480.64 57.106,455.84"];
	11 -- 158	[pos="322.99,571.29 373.58,560.22 485.12,535.79 535.79,524.7"];
	11 -- 159	[pos="314.05,591.22 348.32,620.13 425.61,685.32 459.95,714.29"];
	11 -- 160	[pos="289.79,594.59 275.64,628.56 244.78,702.68 230.66,736.59"];
	11 -- 29	[pos="270.74,582.07 218.96,592.1 104.64,614.26 53.103,624.25"];
	93	[height=0.5,
		pos="64.759,321.4",
		width=0.75];
	11 -- 93	[pos="282.95,561.35 241.36,515.62 120.11,382.27 78.76,336.8"];
	143	[height=0.5,
		pos="29.456,535.75",
		width=0.75];
	11 -- 143	[pos="270.49,572.85 219.18,564.95 107.22,547.72 55.993,539.83"];
	67 -- 68	[pos="906,703.94 883.77,669.01 832.5,588.41 810.23,553.4"];
	71 -- 72	[pos="1040.6,627.39 1051.3,597.32 1073,536.49 1083.8,506.3"];
	73 -- 74	[pos="983.95,813.68 993.83,800.23 1007.8,781.22 1017.7,767.78"];
	5 -- 25	[pos="628.07,280.38 583.47,274.14 494.1,261.63 449.47,255.38"];
	5 -- 6	[pos="649.18,301.95 629.12,367.19 559.89,592.37 539.77,657.79"];
	5 -- 9	[pos="653.17,302.3 649.25,349.82 638.76,477.23 634.85,524.72"];
	5 -- 12	[pos="641.61,300.04 620.79,325.42 580.34,374.77 559.5,400.19"];
	5 -- 35	[pos="627.76,285.83 596.07,287.86 543.71,291.21 511.95,293.24"];
	5 -- 48	[pos="670.1,269.12 676.61,262.8 684.18,255.46 690.69,249.14"];
	5 -- 89	[pos="659.81,266.41 668.26,237.35 685,179.8 693.52,150.51"];
	5 -- 90	[pos="643.35,267.75 621.97,236.84 575.85,170.16 554.44,139.21"];
	5 -- 91	[pos="630.78,275.33 590.73,260.62 510.47,231.15 470.39,216.42"];
	92	[height=0.5,
		pos="260.18,163.11",
		width=0.75];
	5 -- 92	[pos="629.99,276.54 559.15,254.81 355.68,192.4 284.85,170.68"];
	5 -- 94	[pos="666.86,300.44 685.96,326 722.69,375.19 741.85,400.83"];
	5 -- 95	[pos="629.2,290.73 588.52,301.3 509.32,321.9 468.78,332.43"];
	5 -- 96	[pos="634.25,296.07 605.85,312.7 554.73,342.64 526.22,359.34"];
	97	[height=0.5,
		pos="573.4,18",
		width=0.75];
	5 -- 97	[pos="649.21,266.23 634.4,217.76 593.61,84.181 578.83,35.795"];
	99	[height=0.5,
		pos="800.82,94.736",
		width=0.75];
	5 -- 99	[pos="667.13,267.96 694.74,232.18 760.81,146.58 788.39,110.84"];
	5 -- 101	[pos="676.91,294.33 712.89,310.88 783.48,343.33 819.63,359.95"];
	5 -- 102	[pos="644.96,301.28 624.55,337.39 577.39,420.85 557.07,456.82"];
	5 -- 61	[pos="679.39,276.87 722.27,264.33 809.94,238.68 852.9,226.11"];
	76 -- 77	[pos="929.16,518.33 934.08,480.69 945.43,393.84 950.37,356.11"];
	78 -- 79	[pos="894.62,472.65 889.87,440.71 880.06,374.69 875.32,342.77"];
	83 -- 84	[pos="564.82,945.63 541.96,932.6 505.4,911.76 482.52,898.72"];
	87 -- 88	[pos="620.99,973.9 586.68,968.68 527.49,959.69 493.28,954.49"];
	92 -- 93	[pos="242.84,177.16 205.75,207.2 119.11,277.38 82.063,307.39"];
	97 -- 98	[pos="557.48,32.717 547.3,42.135 534.12,54.318 523.88,63.792"];
	99 -- 100	[pos="819.16,108.22 839.04,122.84 870.58,146.03 890.5,160.68"];
	110 -- 111	[pos="791.72,876.42 817.88,871.17 857.89,863.12 883.98,857.88"];
	112 -- 113	[pos="352.29,939.71 348.23,938.56 344.02,937.37 339.96,936.22"];
	117 -- 118	[pos="431.67,143.78 408.93,167.33 365.62,212.18 342.77,235.85"];
	120 -- 121	[pos="667.05,70.877 651.86,71.434 633,72.126 617.84,72.681"];
	123 -- 124	[pos="993.73,311.53 1001.4,331.63 1013.9,364.13 1021.5,384.09"];
	126 -- 127	[pos="421.84,64.793 414.94,71.324 406.86,78.973 399.95,85.511"];
	137 -- 138	[pos="985.6,384.97 1000.6,375.12 1021.2,361.55 1036.2,351.71"];
	140 -- 141	[pos="511.77,837.12 485.71,851.76 441.49,876.6 415.55,891.17"];
	142 -- 143	[pos="99.169,450.28 83.738,469.2 58.059,500.68 42.548,519.7"];
	144 -- 145	[pos="283.21,191.91 290.79,184.03 300.02,174.46 307.61,166.59"];
	149 -- 150	[pos="63.827,385.05 79.808,366.8 106.01,336.88 121.98,318.64"];
	151 -- 152	[pos="195.24,804.71 226.46,812.67 278.99,826.06 310.09,834"];
	154 -- 155	[pos="96.638,715.89 109.29,720.3 124.71,725.67 137.31,730.06"];
	156 -- 157	[pos="49.854,429.64 67.017,411.34 95.578,380.9 112.83,362.52"];
	161 -- 162	[pos="808.38,186.86 837.59,197.93 887.11,216.69 916.3,227.75"];
	163 -- 164	[pos="542.3,903.31 512.32,889.88 459.72,866.33 429.76,852.92"];
	165 -- 166	[pos="1015.8,580.86 1031.9,551.38 1064.8,491.08 1080.9,461.54"];
	171 -- 172	[pos="924.27,644.94 884.01,669.61 794.16,724.66 753.95,749.3"];
}
