graph {
	graph [bb="0,0,1129.9,581.04",
		outputorder=edgesfirst,
		overlap=prism,
		size="50,50!",
		start=5890
	];
	node [label="\N"];
	0	[height=0.5,
		pos="564.06,370.16",
		width=0.75];
	37	[height=0.5,
		pos="438.78,398",
		width=0.75];
	0 -- 37	[pos="538.4,375.86 516.78,380.66 486.01,387.5 464.4,392.31"];
	2	[height=0.5,
		pos="778.37,388.56",
		width=0.75];
	0 -- 2	[pos="591.2,372.49 632.42,376.03 710.35,382.72 751.45,386.25"];
	25	[height=0.5,
		pos="626.09,393.29",
		width=0.75];
	0 -- 25	[pos="587.86,379.03 592.65,380.82 597.67,382.69 602.45,384.47"];
	3	[height=0.5,
		pos="840.42,384.47",
		width=0.75];
	0 -- 3	[pos="591.06,371.55 643.89,374.29 760.39,380.33 813.31,383.07"];
	4	[height=0.5,
		pos="510.75,281.59",
		width=0.75];
	0 -- 4	[pos="553.78,353.08 544.28,337.3 530.25,313.98 520.82,298.31"];
	5	[height=0.5,
		pos="448.7,296.89",
		width=0.75];
	0 -- 5	[pos="544.49,357.73 523.27,344.25 489.61,322.88 468.36,309.38"];
	18	[height=0.5,
		pos="494.88,343.41",
		width=0.75];
	0 -- 18	[pos="540.64,361.1 533.43,358.31 525.49,355.24 518.28,352.46"];
	62	[height=0.5,
		pos="430.83,341.73",
		width=0.75];
	0 -- 62	[pos="538.05,364.61 514.58,359.6 480.22,352.27 456.76,347.27"];
	9	[height=0.5,
		pos="542.83,211.76",
		width=0.75];
	0 -- 9	[pos="561.62,351.99 557.53,321.43 549.31,260.13 545.23,229.72"];
	34	[height=0.5,
		pos="755.63,344.55",
		width=0.75];
	0 -- 34	[pos="590.69,366.6 627.19,361.72 692.37,353.01 728.91,348.12"];
	12	[height=0.5,
		pos="368.77,355.14",
		width=0.75];
	0 -- 12	[pos="536.9,368.07 499.59,365.2 432.88,360.07 395.69,357.21"];
	20	[height=0.5,
		pos="386.66,297.69",
		width=0.75];
	0 -- 20	[pos="540.86,360.68 506.87,346.79 443.86,321.05 409.85,307.17"];
	39	[height=0.5,
		pos="491.49,508.76",
		width=0.75];
	0 -- 39	[pos="555.16,387.15 541.23,413.75 514.43,464.94 500.46,491.62"];
	49	[height=0.5,
		pos="562.83,420.66",
		width=0.75];
	0 -- 49	[pos="563.61,388.39 563.5,393.02 563.38,398 563.27,402.62"];
	64	[height=0.5,
		pos="705.13,434.89",
		width=0.75];
	0 -- 64	[pos="586.41,380.41 612.83,392.54 656.51,412.58 682.89,424.68"];
	28	[height=0.5,
		pos="514.01,464.7",
		width=0.75];
	0 -- 28	[pos="554.88,387.5 545.85,404.56 532.14,430.45 523.13,447.47"];
	71	[height=0.5,
		pos="500.78,399.39",
		width=0.75];
	0 -- 71	[pos="541.57,380.55 535.6,383.3 529.16,386.28 523.2,389.04"];
	54	[height=0.5,
		pos="566.28,326.14",
		width=0.75];
	0 -- 54	[pos="564.97,352 565.1,349.44 565.23,346.81 565.36,344.26"];
	35	[height=0.5,
		pos="451.25,451.88",
		width=0.75];
	0 -- 35	[pos="545.68,383.47 524.7,398.67 490.59,423.38 469.62,438.57"];
	57	[height=0.5,
		pos="643.1,437.3",
		width=0.75];
	0 -- 57	[pos="580.82,384.39 594.23,395.79 612.95,411.69 626.36,423.08"];
	77	[height=0.5,
		pos="620.34,282.13",
		width=0.75];
	0 -- 77	[pos="574.91,353.18 584.94,337.49 599.76,314.32 609.71,298.75"];
	37 -- 62	[pos="436.22,379.89 435.31,373.46 434.29,366.23 433.38,359.81"];
	1	[height=0.5,
		pos="722.24,217.62",
		width=0.75];
	67	[height=0.5,
		pos="817.67,340.23",
		width=0.75];
	1 -- 67	[pos="734.71,233.65 753,257.14 786.9,300.69 805.19,324.2"];
	1 -- 2	[pos="728.03,235.27 738.79,268.02 761.72,337.87 772.52,370.75"];
	1 -- 3	[pos="733.78,233.92 756.32,265.74 805.94,335.79 828.65,367.85"];
	8	[height=0.5,
		pos="867.93,296.21",
		width=0.75];
	1 -- 8	[pos="743.42,229.04 771.04,243.95 819.08,269.86 846.72,284.77"];
	1 -- 4	[pos="697.56,225.08 656.92,237.37 576.35,261.75 535.59,274.08"];
	36	[height=0.5,
		pos="604.89,194.09",
		width=0.75];
	1 -- 36	[pos="696.19,212.39 676.74,208.49 650.29,203.19 630.86,199.29"];
	10	[height=0.5,
		pos="908.89,219.65",
		width=0.75];
	1 -- 10	[pos="749.38,217.91 784.76,218.3 846.31,218.97 881.71,219.35"];
	1 -- 9	[pos="694.99,216.73 661.17,215.62 603.84,213.75 570.04,212.65"];
	1 -- 34	[pos="726.95,235.53 733.31,259.73 744.59,302.58 750.94,326.72"];
	41	[height=0.5,
		pos="796.5,208.17",
		width=0.75];
	1 -- 41	[pos="749.05,214.21 755.86,213.34 763.18,212.41 769.98,211.54"];
	43	[height=0.5,
		pos="859.78,174.35",
		width=0.75];
	1 -- 43	[pos="746.83,209.88 771.71,202.05 809.97,190.02 834.94,182.16"];
	52	[height=0.5,
		pos="784.29,254.4",
		width=0.75];
	1 -- 52	[pos="742.55,229.66 749.34,233.68 756.91,238.17 763.71,242.2"];
	23	[height=0.5,
		pos="637.62,123.51",
		width=0.75];
	1 -- 23	[pos="708.26,202.08 692.58,184.64 667.3,156.52 651.61,139.07"];
	50	[height=0.5,
		pos="655.43,79.327",
		width=0.75];
	1 -- 50	[pos="713.91,200.38 701.11,173.88 676.72,123.41 663.86,96.779"];
	73	[height=0.5,
		pos="575.54,150.06",
		width=0.75];
	1 -- 73	[pos="699.95,207.35 672.38,194.66 625.7,173.16 598.03,160.41"];
	29	[height=0.5,
		pos="846.33,252.2",
		width=0.75];
	1 -- 29	[pos="747.35,224.61 768.88,230.61 799.73,239.21 821.25,245.21"];
	44	[height=0.5,
		pos="621.04,238.09",
		width=0.75];
	1 -- 44	[pos="696.17,222.89 681.06,225.94 662.1,229.78 647.01,232.83"];
	53	[height=0.5,
		pos="815.1,130.31",
		width=0.75];
	1 -- 53	[pos="737.99,202.81 755.07,186.75 782.16,161.27 799.27,145.19"];
	74	[height=0.5,
		pos="653.94,326.98",
		width=0.75];
	1 -- 74	[pos="711.56,234.7 698.73,255.25 677.33,289.52 664.54,310.02"];
	58	[height=0.5,
		pos="753.07,114.09",
		width=0.75];
	1 -- 58	[pos="727.61,199.58 733.27,180.58 742.12,150.84 747.76,131.92"];
	1 -- 77	[pos="702.59,230.05 684.55,241.48 657.95,258.31 639.93,269.73"];
	65	[height=0.5,
		pos="718.43,69.267",
		width=0.75];
	1 -- 65	[pos="721.77,199.43 721.04,170.95 719.63,116.17 718.9,87.606"];
	79	[height=0.5,
		pos="683.08,266.05",
		width=0.75];
	1 -- 79	[pos="709.41,233.47 705.13,238.77 700.36,244.67 696.06,249.99"];
	2 -- 25	[pos="751.14,389.41 723.43,390.27 680.71,391.59 653.08,392.45"];
	2 -- 3	[pos="805.41,386.78 808.02,386.61 810.67,386.43 813.28,386.26"];
	2 -- 4	[pos="755.09,379.26 704.48,359.03 584.91,311.23 534.17,290.95"];
	7	[height=0.5,
		pos="929.99,276.07",
		width=0.75];
	2 -- 7	[pos="796.66,374.99 825.8,353.37 882.45,311.34 911.63,289.69"];
	17	[height=0.5,
		pos="789.58,466.12",
		width=0.75];
	2 -- 17	[pos="780.97,406.55 782.77,418.99 785.15,435.49 786.95,447.96"];
	2 -- 52	[pos="779.17,370.47 780.3,344.86 782.35,298.32 783.49,272.63"];
	22	[height=0.5,
		pos="727.56,478.91",
		width=0.75];
	2 -- 22	[pos="768.81,405.56 759.73,421.71 746.14,445.86 737.07,461.99"];
	26	[height=0.5,
		pos="851.6,428.5",
		width=0.75];
	2 -- 26	[pos="799.55,400.12 809.26,405.41 820.75,411.68 830.46,416.98"];
	46	[height=0.5,
		pos="693.62,371.03",
		width=0.75];
	2 -- 46	[pos="752.48,383.21 742.06,381.05 730.07,378.57 719.64,376.41"];
	2 -- 64	[pos="758.74,400.98 748.24,407.63 735.33,415.79 724.81,422.44"];
	2 -- 29	[pos="786.98,371.29 800.05,345.06 824.76,295.48 837.79,269.33"];
	2 -- 74	[pos="756.41,377.7 733.67,366.44 698.34,348.96 675.68,337.74"];
	2 -- 57	[pos="754.5,397.16 729.92,406.02 691.84,419.74 667.19,428.62"];
	25 -- 49	[pos="603.25,403.17 597.59,405.62 591.52,408.25 585.84,410.7"];
	25 -- 46	[pos="650.47,385.25 656.51,383.26 662.99,381.12 669.05,379.13"];
	25 -- 57	[pos="632.91,410.93 634.02,413.8 635.17,416.78 636.27,419.65"];
	3 -- 67	[pos="831.56,367.24 829.91,364.04 828.19,360.69 826.55,357.49"];
	3 -- 8	[pos="845.99,366.61 850.76,351.3 857.6,329.35 862.37,314.05"];
	3 -- 7	[pos="853.64,368.48 870.57,347.98 899.76,312.66 916.72,292.13"];
	3 -- 10	[pos="847.75,366.83 860.93,335.11 888.47,268.79 901.61,237.16"];
	3 -- 17	[pos="829.89,401.39 821.16,415.4 808.82,435.22 800.1,449.23"];
	3 -- 34	[pos="818.14,373.98 805.68,368.11 790.2,360.83 777.76,354.97"];
	19	[height=0.5,
		pos="976.91,320.1",
		width=0.75];
	3 -- 19	[pos="862.65,373.98 888.04,362.01 929.31,342.55 954.69,330.58"];
	13	[height=0.5,
		pos="789.6,519",
		width=0.75];
	3 -- 13	[pos="833.78,402.06 824.04,427.84 805.99,475.63 796.25,501.41"];
	42	[height=0.5,
		pos="851.8,517.13",
		width=0.75];
	3 -- 42	[pos="841.98,402.64 844.15,427.9 848.05,473.39 850.23,498.76"];
	3 -- 22	[pos="823.28,398.81 801.94,416.67 765.73,446.97 744.49,464.74"];
	24	[height=0.5,
		pos="913.6,471.71",
		width=0.75];
	3 -- 24	[pos="853.84,400.47 867.05,416.21 887.09,440.1 900.26,455.81"];
	3 -- 26	[pos="844.97,402.38 845.67,405.14 846.39,407.99 847.09,410.75"];
	31	[height=0.5,
		pos="908.56,350.22",
		width=0.75];
	3 -- 31	[pos="861.98,373.63 869.93,369.64 878.94,365.11 886.9,361.11"];
	3 -- 64	[pos="816.55,393.37 791.82,402.59 753.41,416.9 728.77,426.09"];
	38	[height=0.5,
		pos="970.71,391.37",
		width=0.75];
	3 -- 38	[pos="867.42,385.9 889.78,387.09 921.4,388.76 943.75,389.95"];
	47	[height=0.5,
		pos="975.66,435.67",
		width=0.75];
	3 -- 47	[pos="863.98,393.39 888.65,402.73 927.18,417.32 951.92,426.69"];
	40	[height=0.5,
		pos="1032.8,364.17",
		width=0.75];
	3 -- 40	[pos="867.17,381.65 903.82,377.78 969.27,370.87 1006,367"];
	48	[height=0.5,
		pos="916.9,533.5",
		width=0.75];
	3 -- 48	[pos="849.19,401.57 863.87,430.16 893.23,487.38 907.99,516.14"];
	8 -- 67	[pos="851.47,310.62 845.98,315.44 839.85,320.8 834.34,325.63"];
	8 -- 10	[pos="877.02,279.22 883.76,266.62 892.91,249.51 899.68,236.86"];
	4 -- 25	[pos="526.31,296.66 548.32,317.97 588.33,356.72 610.41,378.11"];
	4 -- 5	[pos="485.15,287.9 481.55,288.79 477.84,289.7 474.24,290.59"];
	4 -- 36	[pos="526.72,266.75 544.03,250.66 571.5,225.12 588.84,209"];
	6	[height=0.5,
		pos="324.63,272.63",
		width=0.75];
	4 -- 6	[pos="483.69,280.29 448.4,278.59 387.03,275.63 351.72,273.93"];
	4 -- 62	[pos="492.61,295.24 479.53,305.08 461.95,318.31 448.89,328.14"];
	4 -- 9	[pos="518.68,264.33 523.58,253.67 529.84,240.02 534.77,229.31"];
	4 -- 12	[pos="489.19,292.76 462.5,306.59 417.32,329.99 390.54,343.87"];
	4 -- 20	[pos="484.13,285.04 463.19,287.76 434.16,291.53 413.23,294.24"];
	32	[height=0.5,
		pos="472.82,237.57",
		width=0.75];
	4 -- 32	[pos="497.06,265.7 493.58,261.66 489.84,257.32 486.37,253.29"];
	4 -- 49	[pos="517.35,299.2 527.36,325.96 546.3,376.53 556.28,403.19"];
	4 -- 46	[pos="532.81,292.38 568.05,309.62 636.65,343.17 671.77,360.34"];
	4 -- 73	[pos="519.22,264.4 531.64,239.19 554.65,192.47 567.06,167.26"];
	4 -- 44	[pos="534.14,272.37 552.86,264.98 578.98,254.68 597.68,247.3"];
	4 -- 74	[pos="535.37,289.39 561.59,297.71 602.88,310.8 629.17,319.13"];
	5 -- 18	[pos="463.82,312.12 468.98,317.32 474.74,323.12 479.88,328.3"];
	5 -- 62	[pos="441.74,314.35 440.44,317.6 439.09,320.99 437.8,324.24"];
	5 -- 9	[pos="465.09,282.06 482.37,266.44 509.41,241.98 526.62,226.42"];
	5 -- 32	[pos="455.81,279.41 458.92,271.76 462.57,262.79 465.68,255.13"];
	5 -- 71	[pos="457.53,314.28 467.17,333.24 482.49,363.4 492.08,382.26"];
	18 -- 32	[pos="491.14,325.46 487.08,305.99 480.65,275.11 476.58,255.61"];
	18 -- 28	[pos="497.75,361.57 501.35,384.44 507.51,423.5 511.12,446.42"];
	18 -- 71	[pos="496.78,361.43 497.46,367.83 498.21,375.02 498.89,381.41"];
	18 -- 35	[pos="487.87,360.84 479.78,380.96 466.53,413.88 458.39,434.14"];
	36 -- 73	[pos="593.79,177.44 591.45,173.93 588.99,170.23 586.65,166.73"];
	36 -- 44	[pos="611.36,211.73 612.42,214.6 613.51,217.57 614.56,220.44"];
	6 -- 12	[pos="333.77,289.73 341.35,303.89 352.06,323.91 359.64,338.07"];
	6 -- 20	[pos="347.72,281.96 352.82,284.02 358.23,286.2 363.33,288.27"];
	15	[height=0.5,
		pos="290.2,316.79",
		width=0.75];
	6 -- 15	[pos="312,288.82 309.01,292.66 305.82,296.76 302.82,300.6"];
	68	[height=0.5,
		pos="262.6,264.8",
		width=0.75];
	6 -- 68	[pos="297.96,269.26 295.07,268.9 292.13,268.53 289.24,268.16"];
	30	[height=0.5,
		pos="248.97,398.61",
		width=0.75];
	6 -- 30	[pos="314.58,289.36 300.11,313.45 273.55,357.67 259.06,381.81"];
	21	[height=0.5,
		pos="218.97,353.37",
		width=0.75];
	6 -- 21	[pos="306.7,286.33 287.27,301.17 256.44,324.73 236.98,339.61"];
	45	[height=0.5,
		pos="168.19,287.39",
		width=0.75];
	6 -- 45	[pos="297.73,275.17 268.99,277.88 223.7,282.15 194.99,284.86"];
	72	[height=0.5,
		pos="164.24,240.07",
		width=0.75];
	6 -- 72	[pos="298.5,267.33 268.59,261.25 219.89,251.37 190.09,245.32"];
	56	[height=0.5,
		pos="102.19,282.5",
		width=0.75];
	6 -- 56	[pos="297.35,273.84 254.54,275.74 172.07,279.4 129.34,281.3"];
	78	[height=0.5,
		pos="226.25,220.79",
		width=0.75];
	6 -- 78	[pos="303.28,261.38 286.78,252.69 264.05,240.71 247.56,232.02"];
	7 -- 10	[pos="923.43,258.53 920.91,251.8 918.04,244.12 915.52,237.38"];
	7 -- 19	[pos="945.87,290.98 950.77,295.57 956.15,300.62 961.04,305.21"];
	14	[height=0.5,
		pos="971.4,189.39",
		width=0.75];
	7 -- 14	[pos="938.37,258.53 945.6,243.39 955.99,221.65 963.17,206.61"];
	11	[height=0.5,
		pos="1033.7,208.42",
		width=0.75];
	7 -- 11	[pos="949.5,263.35 968.04,251.25 995.78,233.17 1014.3,221.09"];
	27	[height=0.5,
		pos="1095.9,232.04",
		width=0.75];
	7 -- 27	[pos="955.18,269.39 986.45,261.09 1039.5,247.02 1070.7,238.72"];
	55	[height=0.5,
		pos="1071.4,276.06",
		width=0.75];
	7 -- 55	[pos="957.26,276.07 982.31,276.07 1019.2,276.07 1044.3,276.06"];
	7 -- 26	[pos="921.15,293.26 906.09,322.54 875.64,381.75 860.52,411.14"];
	7 -- 31	[pos="924.8,294.02 921.43,305.68 917.06,320.81 913.7,332.44"];
	7 -- 29	[pos="904.89,268.91 894.3,265.89 882,262.38 871.41,259.36"];
	51	[height=0.5,
		pos="1058,320.08",
		width=0.75];
	7 -- 51	[pos="954.07,284.35 976.81,292.17 1010.7,303.84 1033.6,311.69"];
	10 -- 14	[pos="930.75,209.06 936.81,206.13 943.38,202.95 949.44,200.02"];
	10 -- 11	[pos="935.67,217.24 956.59,215.36 985.54,212.76 1006.6,210.87"];
	10 -- 43	[pos="892.81,204.82 887.33,199.76 881.2,194.11 875.73,189.06"];
	69	[height=0.5,
		pos="1033.7,147.53",
		width=0.75];
	10 -- 69	[pos="929.49,207.74 952.62,194.38 989.91,172.83 1013,159.46"];
	10 -- 53	[pos="893.4,204.9 876.02,188.34 848,161.65 830.61,145.08"];
	76	[height=0.5,
		pos="927.31,134.92",
		width=0.75];
	10 -- 76	[pos="912.79,201.68 915.92,187.3 920.28,167.24 923.41,152.87"];
	9 -- 18	[pos="536.36,229.51 527.21,254.64 510.58,300.31 501.4,325.52"];
	59	[height=0.5,
		pos="549.05,62.01",
		width=0.75];
	9 -- 59	[pos="543.58,193.7 544.77,164.91 547.1,108.96 548.3,80.137"];
	9 -- 32	[pos="519.13,220.5 511.83,223.19 503.8,226.15 496.5,228.84"];
	9 -- 23	[pos="558.91,196.79 576.44,180.46 604.33,154.5 621.77,138.26"];
	9 -- 50	[pos="556.19,196.05 577.86,170.56 620.43,120.49 642.09,95.019"];
	9 -- 73	[pos="551.94,194.57 556.48,186.01 561.94,175.7 566.47,167.15"];
	9 -- 54	[pos="546.49,229.63 550.87,250.99 558.16,286.54 562.56,308.02"];
	9 -- 77	[pos="558.89,226.34 572.19,238.42 591,255.49 604.3,267.56"];
	61	[height=0.5,
		pos="565.53,106.02",
		width=0.75];
	9 -- 61	[pos="546.68,193.82 550.85,174.38 557.48,143.52 561.66,124.05"];
	59 -- 61	[pos="555.66,79.658 556.73,82.527 557.85,85.5 558.92,88.37"];
	63	[height=0.5,
		pos="571,18",
		width=0.75];
	59 -- 63	[pos="557.6,44.868 559.19,41.682 560.85,38.353 562.44,35.167"];
	70	[height=0.5,
		pos="776.98,563.04",
		width=0.75];
	17 -- 70	[pos="787.21,484.35 784.96,501.68 781.59,527.6 779.34,544.9"];
	17 -- 22	[pos="763.63,471.47 760.31,472.16 756.92,472.86 753.59,473.54"];
	17 -- 26	[pos="809.88,453.81 816.81,449.61 824.54,444.91 831.45,440.72"];
	34 -- 54	[pos="728.9,341.95 692.91,338.45 629.25,332.26 593.17,328.76"];
	34 -- 77	[pos="733.29,334.24 708.22,322.68 667.79,304.02 642.71,292.45"];
	34 -- 79	[pos="741.29,329.04 728.58,315.28 710.09,295.28 697.38,281.52"];
	41 -- 43	[pos="817.57,196.91 824.33,193.3 831.82,189.29 838.58,185.68"];
	41 -- 52	[pos="791.81,225.91 790.9,229.37 789.94,233.01 789.02,236.48"];
	41 -- 58	[pos="788.53,190.92 780.74,174.05 768.95,148.5 761.13,131.56"];
	19 -- 31	[pos="954.15,330.13 946.85,333.35 938.76,336.91 931.45,340.13"];
	19 -- 38	[pos="975.35,338.08 974.42,348.81 973.23,362.38 972.3,373.15"];
	19 -- 40	[pos="994.59,334.04 1001.1,339.19 1008.5,345.01 1015,350.16"];
	19 -- 51	[pos="1003.9,320.09 1012.6,320.09 1022.2,320.09 1030.8,320.09"];
	14 -- 41	[pos="944.46,192.28 911.49,195.82 856.03,201.78 823.19,205.3"];
	14 -- 27	[pos="995.69,197.71 1017.6,205.23 1049.7,216.23 1071.6,223.74"];
	75	[height=0.5,
		pos="1102.9,160.34",
		width=0.75];
	14 -- 75	[pos="997.07,183.72 1020.1,178.63 1053.7,171.2 1076.9,166.09"];
	14 -- 43	[pos="944.67,185.78 926.99,183.4 903.93,180.29 886.3,177.92"];
	14 -- 69	[pos="990.42,176.6 998.01,171.51 1006.7,165.65 1014.3,160.53"];
	14 -- 55	[pos="987.92,203.7 1006.5,219.76 1036.4,245.66 1054.9,261.73"];
	14 -- 29	[pos="949.61,200.33 926.8,211.79 891.16,229.68 868.28,241.17"];
	14 -- 76	[pos="958.41,173.34 952.72,166.31 946.06,158.08 940.36,151.04"];
	11 -- 14	[pos="1009.1,200.9 1004.9,199.61 1000.5,198.27 996.26,196.98"];
	11 -- 27	[pos="1057.2,217.35 1062.2,219.23 1067.4,221.22 1072.3,223.1"];
	11 -- 75	[pos="1052.6,195.28 1062.4,188.5 1074.3,180.24 1084,173.46"];
	11 -- 69	[pos="1033.7,190.15 1033.7,182.45 1033.7,173.5 1033.7,165.79"];
	27 -- 75	[pos="1097.6,213.95 1098.7,203.16 1100,189.5 1101.1,178.67"];
	27 -- 55	[pos="1086.5,248.93 1084.7,252.23 1082.7,255.69 1080.9,258.99"];
	12 -- 37	[pos="389.02,367.54 398.39,373.27 409.49,380.07 418.82,385.78"];
	12 -- 62	[pos="394.73,349.53 398.05,348.82 401.45,348.08 404.77,347.36"];
	12 -- 20	[pos="374.33,337.28 376.51,330.3 378.99,322.31 381.16,315.34"];
	12 -- 15	[pos="346.89,344.46 336.08,339.18 323.07,332.83 312.24,327.55"];
	12 -- 30	[pos="344.82,363.83 323.92,371.41 293.77,382.35 272.89,389.93"];
	12 -- 21	[pos="341.64,354.82 314.58,354.5 273.23,354.01 246.15,353.69"];
	60	[height=0.5,
		pos="260.8,443.21",
		width=0.75];
	12 -- 60	[pos="351.42,369.29 331.27,385.73 298.23,412.67 278.1,429.09"];
	33	[height=0.5,
		pos="311.11,399.17",
		width=0.75];
	12 -- 33	[pos="350.84,368.83 343.97,374.08 336.12,380.07 329.22,385.34"];
	20 -- 68	[pos="361.55,291.03 340.17,285.36 309.58,277.26 288.09,271.56"];
	20 -- 33	[pos="374.52,313.99 360.42,332.93 337.3,363.99 323.22,382.91"];
	13 -- 42	[pos="816.7,518.19 819.32,518.11 821.98,518.03 824.6,517.95"];
	13 -- 70	[pos="784.47,536.92 783.68,539.68 782.86,542.53 782.07,545.29"];
	13 -- 22	[pos="769.97,506.32 762.73,501.64 754.52,496.34 747.27,491.65"];
	13 -- 26	[pos="800.97,502.4 812.16,486.08 829.14,461.29 840.3,445"];
	42 -- 48	[pos="877.15,523.51 881.87,524.69 886.79,525.93 891.5,527.11"];
	15 -- 20	[pos="316.3,311.62 330.03,308.9 346.8,305.58 360.53,302.86"];
	15 -- 68	[pos="281.16,299.76 278.14,294.08 274.78,287.74 271.75,282.04"];
	15 -- 30	[pos="281.46,334.14 274.46,348.02 264.7,367.4 257.71,381.28"];
	15 -- 21	[pos="268.44,327.96 259.6,332.5 249.42,337.73 240.59,342.27"];
	15 -- 60	[pos="286.05,334.63 280.48,358.59 270.63,400.92 265.02,425.04"];
	15 -- 33	[pos="294.74,334.66 298.24,348.48 303.07,367.52 306.58,381.33"];
	15 -- 45	[pos="264.62,310.62 243.8,305.61 214.55,298.56 193.74,293.54"];
	68 -- 72	[pos="237.27,258.43 222.7,254.77 204.44,250.18 189.83,246.5"];
	68 -- 78	[pos="249.48,248.91 246.23,244.97 242.74,240.75 239.48,236.8"];
	16	[height=0.5,
		pos="27,282.9",
		width=0.75];
	66	[height=0.5,
		pos="60.255,238.21",
		width=0.75];
	16 -- 66	[pos="39.006,266.77 41.983,262.77 45.174,258.48 48.155,254.47"];
	16 -- 45	[pos="54.223,283.76 79.225,284.56 116.08,285.73 141.05,286.52"];
	16 -- 56	[pos="54.145,282.75 60.96,282.72 68.272,282.68 75.085,282.64"];
	66 -- 72	[pos="87.305,238.7 102.59,238.97 121.64,239.31 136.97,239.58"];
	43 -- 53	[pos="844.4,159.19 839.86,154.71 834.89,149.81 830.35,145.34"];
	43 -- 58	[pos="838.95,162.59 820.15,151.97 792.63,136.43 773.84,125.82"];
	43 -- 76	[pos="880.41,162.31 888.79,157.41 898.44,151.78 906.81,146.89"];
	69 -- 75	[pos="1059.8,152.37 1065.4,153.39 1071.2,154.47 1076.7,155.49"];
	22 -- 70	[pos="737.56,495.94 746.13,510.53 758.42,531.45 766.99,546.04"];
	22 -- 26	[pos="750.89,469.43 773.06,460.42 806.23,446.94 828.37,437.94"];
	22 -- 64	[pos="718.82,461.77 717.2,458.58 715.5,455.25 713.88,452.06"];
	21 -- 30	[pos="229.97,369.96 232.58,373.89 235.36,378.09 237.97,382.02"];
	39 -- 71	[pos="493.02,490.7 494.75,470.43 497.52,437.75 499.25,417.48"];
	23 -- 59	[pos="618.83,110.47 603.8,100.03 582.83,85.465 567.81,75.033"];
	23 -- 50	[pos="644.66,106.05 645.86,103.06 647.11,99.948 648.32,96.952"];
	23 -- 73	[pos="614.85,133.24 609.45,135.55 603.7,138.01 598.3,140.32"];
	23 -- 61	[pos="612,117.3 605.2,115.65 597.86,113.87 591.07,112.22"];
	23 -- 63	[pos="626.91,106.56 614.48,86.869 594.1,54.581 581.68,34.91"];
	50 -- 59	[pos="629.13,75.047 612.77,72.382 591.79,68.967 575.41,66.301"];
	50 -- 61	[pos="630.39,86.763 617.92,90.466 602.89,94.929 590.44,98.626"];
	50 -- 63	[pos="637.11,66.02 622.95,55.734 603.44,41.561 589.28,31.281"];
	24 -- 42	[pos="895.39,485.09 887.42,490.95 878.08,497.82 870.09,503.69"];
	24 -- 26	[pos="894.66,458.51 886.97,453.15 878.1,446.97 870.42,441.62"];
	24 -- 48	[pos="914.57,489.91 915,497.89 915.5,507.23 915.92,515.21"];
	26 -- 42	[pos="851.64,446.87 851.67,462.18 851.72,483.88 851.76,499.1"];
	26 -- 70	[pos="842.15,445.54 827.79,471.42 800.66,520.35 786.36,546.14"];
	26 -- 31	[pos="863.4,412.28 873.17,398.85 887,379.85 896.77,366.42"];
	31 -- 38	[pos="927.88,363.02 935.29,367.92 943.75,373.52 951.18,378.44"];
	31 -- 47	[pos="921.18,366.29 933.18,381.57 951.12,404.42 963.1,419.67"];
	31 -- 51	[pos="934.59,344.97 961.93,339.46 1004.7,330.84 1032,325.32"];
	49 -- 57	[pos="588.67,426.02 597.83,427.92 608.14,430.05 617.3,431.95"];
	46 -- 57	[pos="681.13,387.41 673.3,397.68 663.24,410.87 655.44,421.1"];
	28 -- 35	[pos="488.12,459.41 484.47,458.67 480.72,457.9 477.08,457.16"];
	29 -- 41	[pos="830.01,237.78 824.56,232.97 818.49,227.6 813.02,222.77"];
	29 -- 43	[pos="849.45,234.14 851.62,221.56 854.51,204.86 856.68,192.31"];
	29 -- 52	[pos="819.3,253.16 816.69,253.25 814.03,253.34 811.42,253.44"];
	38 -- 47	[pos="972.72,409.39 973.02,412.08 973.33,414.84 973.63,417.53"];
	38 -- 40	[pos="993.47,381.4 998.87,379.03 1004.6,376.51 1010,374.14"];
	38 -- 51	[pos="987.96,377.29 1003.3,364.79 1025.5,346.63 1040.8,334.14"];
	33 -- 60	[pos="294.63,413.59 289.13,418.41 283,423.77 277.48,428.61"];
	54 -- 77	[pos="583.38,312.21 589.69,307.08 596.84,301.26 603.16,296.11"];
	54 -- 79	[pos="587.7,315.12 608.64,304.34 640.36,288.02 661.4,277.2"];
	35 -- 39	[pos="462.89,468.33 468.18,475.81 474.43,484.65 479.74,492.14"];
	35 -- 71	[pos="465.84,436.42 472.24,429.64 479.72,421.71 486.12,414.93"];
	40 -- 51	[pos="1042.5,347.25 1044.4,343.95 1046.3,340.48 1048.2,337.18"];
	53 -- 58	[pos="789.87,123.71 786.11,122.73 782.24,121.72 778.48,120.73"];
	53 -- 76	[pos="842.26,131.43 859.77,132.15 882.47,133.08 900.01,133.8"];
	53 -- 65	[pos="795.07,117.66 778.37,107.11 754.7,92.172 738.1,81.69"];
	45 -- 68	[pos="193.99,281.21 207.42,278 223.78,274.09 237.16,270.89"];
	45 -- 66	[pos="145.83,277.2 127.3,268.76 101.11,256.83 82.591,248.39"];
	45 -- 72	[pos="166.68,269.23 166.37,265.58 166.05,261.75 165.75,258.1"];
	45 -- 56	[pos="141.35,285.4 137.35,285.1 133.23,284.8 129.23,284.5"];
	45 -- 78	[pos="181.95,271.6 191.21,260.99 203.36,247.05 212.59,236.46"];
	72 -- 78	[pos="188.75,232.45 192.95,231.15 197.31,229.79 201.52,228.48"];
	58 -- 65	[pos="740.56,97.909 737.38,93.796 733.97,89.38 730.8,85.276"];
	77 -- 79	[pos="645.86,275.59 649.79,274.58 653.86,273.54 657.79,272.53"];
	56 -- 66	[pos="87.524,267.01 83.367,262.62 78.845,257.85 74.702,253.47"];
	56 -- 72	[pos="121.15,269.54 128.7,264.37 137.39,258.43 144.98,253.25"];
	61 -- 73	[pos="569.6,123.93 570.21,126.6 570.83,129.35 571.44,132.02"];
	61 -- 63	[pos="566.66,87.784 567.6,72.677 568.93,51.315 569.87,36.215"];
}
