graph {
	graph [bb="0,0,1856.5,1569.4",
		outputorder=edgesfirst,
		overlap=prism,
		size="50,50!",
		start=8233
	];
	node [label="\N"];
	0	[height=0.5,
		pos="867.97,973.79",
		width=0.75];
	20	[height=0.5,
		pos="1133.8,1166.4",
		width=0.75];
	0 -- 20	[pos="886.66,987.33 935.6,1022.8 1067,1117.9 1115.5,1153.1"];
	23	[height=0.5,
		pos="676.21,1306.2",
		width=0.75];
	0 -- 23	[pos="858.19,990.73 825.3,1047.8 718.83,1232.3 685.96,1289.3"];
	27	[height=0.5,
		pos="1249.8,1101.4",
		width=0.75];
	0 -- 27	[pos="892.14,981.87 960.83,1004.8 1156.6,1070.3 1225.5,1093.3"];
	30	[height=0.5,
		pos="790.18,1156.9",
		width=0.75];
	0 -- 30	[pos="860.51,991.35 845.64,1026.4 812.46,1104.4 797.61,1139.4"];
	31	[height=0.5,
		pos="728.09,1169",
		width=0.75];
	0 -- 31	[pos="856.28,990.1 829.95,1026.8 766.24,1115.8 739.84,1152.6"];
	6	[height=0.5,
		pos="619.29,584.49",
		width=0.75];
	0 -- 6	[pos="857.28,957.06 816.47,893.17 670.68,664.94 629.93,601.16"];
	33	[height=0.5,
		pos="1046.7,1257.1",
		width=0.75];
	0 -- 33	[pos="878.62,990.66 910.41,1041 1004.4,1190 1036.1,1240.3"];
	36	[height=0.5,
		pos="918.71,687.75",
		width=0.75];
	0 -- 36	[pos="871.14,955.9 880.25,904.53 906.42,756.99 915.53,705.63"];
	37	[height=0.5,
		pos="669.05,821.47",
		width=0.75];
	0 -- 37	[pos="849.96,960 812.09,931.01 724.58,863.99 686.87,835.12"];
	38	[height=0.5,
		pos="553.26,838.95",
		width=0.75];
	0 -- 38	[pos="845.08,963.99 786.95,939.08 634.1,873.59 576.06,848.72"];
	39	[height=0.5,
		pos="950.66,1128.1",
		width=0.75];
	0 -- 39	[pos="877.13,990.89 893.03,1020.5 925.53,1081.2 941.45,1110.9"];
	40	[height=0.5,
		pos="855.56,797.74",
		width=0.75];
	0 -- 40	[pos="866.69,955.61 864.3,921.79 859.21,849.57 856.83,815.82"];
	41	[height=0.5,
		pos="1103.2,1122.3",
		width=0.75];
	0 -- 41	[pos="887.62,986.2 931.91,1014.1 1039.1,1081.8 1083.5,1109.8"];
	43	[height=0.5,
		pos="1138.7,897.15",
		width=0.75];
	0 -- 43	[pos="892.95,966.72 944.53,952.12 1062.2,918.79 1113.8,904.21"];
	45	[height=0.5,
		pos="1126.1,1013.9",
		width=0.75];
	0 -- 45	[pos="894.62,977.93 944.22,985.64 1050.1,1002.1 1099.6,1009.8"];
	47	[height=0.5,
		pos="1099.8,834.69",
		width=0.75];
	0 -- 47	[pos="888.14,961.69 931.98,935.38 1035.6,873.23 1079.5,846.86"];
	17	[height=0.5,
		pos="897.7,515.34",
		width=0.75];
	0 -- 17	[pos="869.15,955.54 873.93,881.93 891.73,607.35 896.51,533.64"];
	48	[height=0.5,
		pos="856.73,1235.6",
		width=0.75];
	0 -- 48	[pos="867.2,991.79 865.14,1039.6 859.56,1169.5 857.5,1217.5"];
	51	[height=0.5,
		pos="727.91,1120.4",
		width=0.75];
	0 -- 51	[pos="853.24,989.2 826.27,1017.4 769.26,1077.1 742.43,1105.2"];
	21	[height=0.5,
		pos="1378.8,1177.2",
		width=0.75];
	20 -- 21	[pos="1161,1167.6 1208.1,1169.7 1304.4,1173.9 1351.6,1176"];
	24	[height=0.5,
		pos="636.37,1451.8",
		width=0.75];
	23 -- 24	[pos="671.32,1324.1 663.68,1352 648.96,1405.8 641.29,1433.8"];
	28	[height=0.5,
		pos="1439.2,1028.3",
		width=0.75];
	27 -- 28	[pos="1273.4,1092.3 1309.8,1078.3 1379.2,1051.5 1415.6,1037.4"];
	32	[height=0.5,
		pos="552.98,1248.9",
		width=0.75];
	31 -- 32	[pos="705.56,1179.3 671.94,1194.6 609.01,1223.3 575.43,1238.6"];
	6 -- 17	[pos="644.98,578.11 698.02,564.94 819.08,534.86 872.07,521.7"];
	55	[height=0.5,
		pos="955.59,635.72",
		width=0.75];
	6 -- 55	[pos="645.68,588.51 708.39,598.07 865.8,622.05 928.86,631.65"];
	12	[height=0.5,
		pos="893.22,598.25",
		width=0.75];
	6 -- 12	[pos="646.55,585.86 699.06,588.5 813.64,594.25 866.06,596.89"];
	87	[height=0.5,
		pos="675.4,744.56",
		width=0.75];
	6 -- 87	[pos="625.51,602.23 636.29,633 658.35,695.91 669.15,726.74"];
	188	[height=0.5,
		pos="491.19,846.36",
		width=0.75];
	6 -- 188	[pos="610.88,601.67 587.67,649.12 522.88,781.59 499.63,829.11"];
	14	[height=0.5,
		pos="1155.5,549.87",
		width=0.75];
	6 -- 14	[pos="646.25,582.75 737.88,576.83 1036.8,557.53 1128.5,551.61"];
	219	[height=0.5,
		pos="460.84,758.28",
		width=0.75];
	6 -- 219	[pos="605.23,599.92 575.23,632.81 505.27,709.56 475.1,742.65"];
	222	[height=0.5,
		pos="472.7,363.08",
		width=0.75];
	6 -- 222	[pos="608.27,567.85 581.04,526.72 510.8,420.63 483.64,379.62"];
	225	[height=0.5,
		pos="398.59,447.68",
		width=0.75];
	6 -- 225	[pos="599.31,572.11 557.4,546.13 460.69,486.18 418.68,460.14"];
	229	[height=0.5,
		pos="368.11,547.72",
		width=0.75];
	6 -- 229	[pos="592.88,580.63 544.64,573.57 442.8,558.66 394.54,551.59"];
	232	[height=0.5,
		pos="613.36,761.78",
		width=0.75];
	6 -- 232	[pos="618.68,602.8 617.54,636.86 615.1,709.59 613.97,743.58"];
	234	[height=0.5,
		pos="826.13,563.83",
		width=0.75];
	6 -- 234	[pos="646.33,581.79 686.08,577.82 759.84,570.45 799.41,566.5"];
	236	[height=0.5,
		pos="701.85,445.95",
		width=0.75];
	6 -- 236	[pos="629.41,567.51 645.26,540.92 675.75,489.75 691.64,463.08"];
	238	[height=0.5,
		pos="539.78,352.21",
		width=0.75];
	6 -- 238	[pos="613.18,566.65 598.35,523.31 560.55,412.87 545.8,369.79"];
	242	[height=0.5,
		pos="336.77,756.7",
		width=0.75];
	6 -- 242	[pos="598.97,596.88 546.84,628.65 408.82,712.77 356.9,744.42"];
	246	[height=0.5,
		pos="551.32,771.87",
		width=0.75];
	6 -- 246	[pos="612.89,602.12 599.94,637.84 570.73,718.37 557.75,754.16"];
	120	[height=0.5,
		pos="811.6,305.15",
		width=0.75];
	6 -- 120	[pos="630.74,567.86 664.95,518.17 766.08,371.27 800.2,321.7"];
	157	[height=0.5,
		pos="274.76,768.83",
		width=0.75];
	6 -- 157	[pos="598,595.89 536.23,628.93 357.5,724.57 295.91,757.52"];
	34	[height=0.5,
		pos="1163.7,1328",
		width=0.75];
	33 -- 34	[pos="1066.8,1269.3 1088.3,1282.2 1122,1302.7 1143.5,1315.7"];
	42	[height=0.5,
		pos="1311.8,1059.8",
		width=0.75];
	41 -- 42	[pos="1128,1114.9 1168.1,1102.8 1247,1079.2 1287.1,1067.2"];
	44	[height=0.5,
		pos="1245.3,681.41",
		width=0.75];
	43 -- 44	[pos="1147.2,879.86 1167.2,839.47 1216.7,739.26 1236.7,698.79"];
	46	[height=0.5,
		pos="1200.7,869.22",
		width=0.75];
	45 -- 46	[pos="1135,996.73 1149.3,968.89 1177.5,914.19 1191.9,886.36"];
	105	[height=0.5,
		pos="850.52,686.3",
		width=0.75];
	17 -- 105	[pos="892.74,533.31 883.65,566.23 864.45,635.83 855.41,668.57"];
	19	[height=0.5,
		pos="721.72,975.65",
		width=0.75];
	17 -- 19	[pos="891.02,532.82 863.14,605.73 756.3,885.2 728.41,958.15"];
	325	[height=0.5,
		pos="567.83,528.53",
		width=0.75];
	17 -- 325	[pos="870.71,516.42 808.85,518.89 657.41,524.95 595.2,527.44"];
	339	[height=0.5,
		pos="1034.7,791.34",
		width=0.75];
	17 -- 339	[pos="906.27,532.6 930.87,582.17 1001.5,724.53 1026.1,774.08"];
	385	[height=0.5,
		pos="1053.1,491.9",
		width=0.75];
	17 -- 385	[pos="924.06,511.36 952.62,507.05 997.96,500.21 1026.6,495.89"];
	388	[height=0.5,
		pos="952.75,789.28",
		width=0.75];
	17 -- 388	[pos="901.31,533.31 911.29,582.95 939.14,721.52 949.13,771.24"];
	81	[height=0.5,
		pos="1117.3,418.8",
		width=0.75];
	17 -- 81	[pos="920.37,505.37 962.56,486.82 1052.6,447.22 1094.7,428.72"];
	144	[height=0.5,
		pos="1195,461.78",
		width=0.75];
	17 -- 144	[pos="923.82,510.63 980.07,500.5 1112.1,476.7 1168.6,466.53"];
	184	[height=0.5,
		pos="704.64,700.53",
		width=0.75];
	17 -- 184	[pos="882.23,530.18 846.08,564.86 756.41,650.87 720.19,685.62"];
	216	[height=0.5,
		pos="672.24,649.63",
		width=0.75];
	17 -- 216	[pos="877.29,527.49 834.37,553.06 735.18,612.14 692.44,637.6"];
	266	[height=0.5,
		pos="1217.6,593.37",
		width=0.75];
	17 -- 266	[pos="923.07,521.52 982.93,536.12 1132.4,572.58 1192.2,587.18"];
	290	[height=0.5,
		pos="878.3,261.31",
		width=0.75];
	17 -- 290	[pos="896.3,497.07 892.73,450.2 883.25,326.1 879.68,279.41"];
	310	[height=0.5,
		pos="749.55,270.77",
		width=0.75];
	17 -- 310	[pos="887.52,498.53 860.45,453.85 786.95,332.51 759.8,287.69"];
	362	[height=0.5,
		pos="1212.9,417.75",
		width=0.75];
	17 -- 362	[pos="922.43,507.68 981.36,489.44 1129.5,443.58 1188.3,425.37"];
	373	[height=0.5,
		pos="1002.4,255.95",
		width=0.75];
	17 -- 373	[pos="904.73,497.91 923.75,450.78 976.08,321.09 995.23,273.64"];
	381	[height=0.5,
		pos="1054.1,424.33",
		width=0.75];
	17 -- 381	[pos="918.14,503.44 948.12,486 1003.7,453.67 1033.6,436.23"];
	49	[height=0.5,
		pos="1006.2,1416.7",
		width=0.75];
	48 -- 49	[pos="869.99,1251.7 898.42,1286.1 964.94,1366.7 993.15,1400.9"];
	52	[height=0.5,
		pos="563.38,1121.4",
		width=0.75];
	51 -- 52	[pos="700.74,1120.6 670.25,1120.8 621.09,1121.1 590.59,1121.3"];
	1	[height=0.5,
		pos="1220.1,728.05",
		width=0.75];
	2	[height=0.5,
		pos="862.54,905.6",
		width=0.75];
	1 -- 2	[pos="1198.3,738.89 1134.5,770.59 948.59,862.87 884.54,894.68"];
	3	[height=0.5,
		pos="1370.8,675.47",
		width=0.75];
	1 -- 3	[pos="1244.3,719.6 1272.5,709.79 1318.6,693.7 1346.6,683.9"];
	53	[height=0.5,
		pos="1012.6,984.06",
		width=0.75];
	1 -- 53	[pos="1207.1,744.07 1169.9,790.04 1062.8,922.09 1025.6,968.05"];
	54	[height=0.5,
		pos="929.27,929.78",
		width=0.75];
	1 -- 54	[pos="1201,741.29 1148.2,777.93 1000.5,880.37 948.05,916.76"];
	1 -- 55	[pos="1196.2,719.7 1145.9,702.16 1030,661.7 979.67,644.13"];
	56	[height=0.5,
		pos="1513.9,839.69",
		width=0.75];
	1 -- 56	[pos="1243.7,737 1298.7,757.9 1435.1,809.75 1490.2,830.7"];
	60	[height=0.5,
		pos="1337,444.52",
		width=0.75];
	1 -- 60	[pos="1227.4,710.32 1248.5,659.28 1309,512.46 1329.8,461.89"];
	64	[height=0.5,
		pos="1093.3,545.16",
		width=0.75];
	1 -- 64	[pos="1208.7,711.5 1184.5,676.68 1128.7,596.21 1104.7,561.54"];
	66	[height=0.5,
		pos="743.32,639.8",
		width=0.75];
	1 -- 66	[pos="1193.8,723.18 1110.5,707.75 852.81,660.07 769.56,644.66"];
	67	[height=0.5,
		pos="1504.7,965.59",
		width=0.75];
	1 -- 67	[pos="1237.1,742.2 1287.7,784.45 1437.3,909.36 1487.8,951.51"];
	1 -- 12	[pos="1196.9,718.82 1136.8,694.96 976.78,631.43 916.57,607.52"];
	71	[height=0.5,
		pos="1576.5,816.45",
		width=0.75];
	1 -- 71	[pos="1245.5,734.34 1311,750.59 1485.4,793.85 1551,810.13"];
	75	[height=0.5,
		pos="1297,592.49",
		width=0.75];
	1 -- 75	[pos="1229.7,711.16 1244.4,685.18 1272.5,635.7 1287.3,609.6"];
	76	[height=0.5,
		pos="1496.5,684.39",
		width=0.75];
	1 -- 76	[pos="1246.6,723.87 1299.5,715.52 1417.3,696.9 1470.1,688.56"];
	16	[height=0.5,
		pos="1145.4,600.06",
		width=0.75];
	1 -- 16	[pos="1210.2,711.06 1195.9,686.57 1169.6,641.64 1155.3,617.12"];
	79	[height=0.5,
		pos="1371.4,547.56",
		width=0.75];
	1 -- 79	[pos="1233.6,712.04 1262.3,677.7 1329.7,597.36 1358.2,563.29"];
	18	[height=0.5,
		pos="961.74,1028.7",
		width=0.75];
	1 -- 18	[pos="1206.6,743.79 1162.1,795.62 1020.2,960.6 975.44,1012.7"];
	82	[height=0.5,
		pos="1126.5,969.35",
		width=0.75];
	1 -- 82	[pos="1213.2,745.8 1195.9,790.53 1150.5,907.5 1133.3,951.91"];
	22	[height=0.5,
		pos="1321.6,993.38",
		width=0.75];
	1 -- 22	[pos="1226.9,745.87 1245.4,794.21 1296.3,927.39 1314.8,975.63"];
	2 -- 16	[pos="876.95,890.03 925.47,837.61 1082.5,667.96 1131,615.6"];
	84	[height=0.5,
		pos="1158,759.58",
		width=0.75];
	2 -- 84	[pos="884.27,894.86 938.91,867.86 1081.6,797.35 1136.3,770.33"];
	4	[height=0.5,
		pos="749.52,1076.4",
		width=0.75];
	2 -- 4	[pos="851.5,922.28 829.83,955.01 782.01,1027.3 760.44,1059.9"];
	85	[height=0.5,
		pos="614.92,1076.2",
		width=0.75];
	2 -- 85	[pos="843.52,918.7 797.43,950.45 680.16,1031.2 634,1063"];
	2 -- 87	[pos="845.93,891.31 810.42,860.75 727.45,789.35 691.97,758.82"];
	7	[height=0.5,
		pos="1188.4,1013.4",
		width=0.75];
	2 -- 7	[pos="886.76,913.61 947.09,933.57 1103.5,985.31 1164,1005.3"];
	88	[height=0.5,
		pos="805.38,627.61",
		width=0.75];
	2 -- 88	[pos="858.79,887.36 848.4,836.87 819.38,695.69 809.07,645.56"];
	89	[height=0.5,
		pos="398.8,798.48",
		width=0.75];
	2 -- 89	[pos="836.94,899.69 755.87,880.96 505.28,823.07 424.31,804.37"];
	93	[height=0.5,
		pos="359.97,876.72",
		width=0.75];
	2 -- 93	[pos="835.52,904.05 748.26,899.03 474.58,883.3 387.13,878.28"];
	97	[height=0.5,
		pos="794.63,1200.9",
		width=0.75];
	2 -- 97	[pos="858.39,923.63 846.24,976.48 810.8,1130.6 798.72,1183.2"];
	101	[height=0.5,
		pos="489.3,802.32",
		width=0.75];
	2 -- 101	[pos="837.47,898.66 769.47,879.85 582.12,828 514.26,809.22"];
	13	[height=0.5,
		pos="1327.4,831.78",
		width=0.75];
	2 -- 13	[pos="888.86,901.42 970.59,888.44 1219.4,848.93 1301.1,835.96"];
	104	[height=0.5,
		pos="1007.6,745.25",
		width=0.75];
	2 -- 104	[pos="876.71,889.93 904.52,859.2 965.93,791.34 993.61,760.75"];
	15	[height=0.5,
		pos="1177.5,671.55",
		width=0.75];
	2 -- 15	[pos="880.83,892 936.5,850.64 1103.4,726.6 1159.2,685.18"];
	2 -- 105	[pos="861.53,887.28 859.27,845.9 853.77,745.6 851.51,704.42"];
	106	[height=0.5,
		pos="759.12,1245.6",
		width=0.75];
	2 -- 106	[pos="857.12,923.4 839.29,982.02 782.54,1168.6 764.61,1227.6"];
	110	[height=0.5,
		pos="538.37,1059.7",
		width=0.75];
	2 -- 110	[pos="840.51,916.07 781.37,944.17 619.6,1021.1 560.43,1049.2"];
	26	[height=0.5,
		pos="618.83,1209.6",
		width=0.75];
	2 -- 26	[pos="849.78,921.51 807.76,973.92 674.01,1140.7 631.76,1193.5"];
	3 -- 12	[pos="1344.4,671.21 1260.9,657.71 1002.9,615.98 919.49,602.5"];
	3 -- 16	[pos="1346.2,667.26 1302.8,652.71 1212.7,622.6 1169.5,608.15"];
	3 -- 84	[pos="1347.2,684.79 1306.2,701 1222.3,734.2 1181.4,750.35"];
	113	[height=0.5,
		pos="1390.7,900.16",
		width=0.75];
	3 -- 113	[pos="1372.4,693.48 1376.1,735.55 1385.4,839.91 1389.1,882.06"];
	115	[height=0.5,
		pos="1262.8,831.75",
		width=0.75];
	3 -- 115	[pos="1359.4,691.9 1338.7,721.84 1295.1,784.95 1274.3,815.07"];
	117	[height=0.5,
		pos="1466.1,344.85",
		width=0.75];
	3 -- 117	[pos="1375.9,657.7 1392.5,600.29 1444.3,420.24 1460.9,362.71"];
	121	[height=0.5,
		pos="1725.6,732.24",
		width=0.75];
	3 -- 121	[pos="1397.2,679.69 1462.9,690.2 1633.2,717.46 1699,728"];
	8	[height=0.5,
		pos="924.91,427.3",
		width=0.75];
	3 -- 8	[pos="1349.9,663.84 1275,622.15 1020.6,480.56 945.77,438.91"];
	125	[height=0.5,
		pos="1543.8,371.73",
		width=0.75];
	3 -- 125	[pos="1380.6,658.27 1411,604.81 1503.8,441.95 1534.1,388.74"];
	129	[height=0.5,
		pos="1124.5,463.92",
		width=0.75];
	3 -- 129	[pos="1353.9,660.93 1308.8,622.19 1186.1,516.82 1141.2,478.28"];
	132	[height=0.5,
		pos="1663.3,769.95",
		width=0.75];
	3 -- 132	[pos="1395.2,683.36 1450.3,701.15 1583.5,744.19 1638.7,762.02"];
	135	[height=0.5,
		pos="1714.5,671.47",
		width=0.75];
	3 -- 135	[pos="1398.1,675.15 1462.4,674.41 1622.9,672.54 1687.2,671.79"];
	138	[height=0.5,
		pos="1570,481.2",
		width=0.75];
	3 -- 138	[pos="1386.1,660.55 1423.2,624.39 1517.5,532.39 1554.7,496.17"];
	140	[height=0.5,
		pos="1628.1,525.85",
		width=0.75];
	3 -- 140	[pos="1391.4,663.48 1439.7,635.4 1559.7,565.63 1607.7,537.69"];
	143	[height=0.5,
		pos="1434.5,443.17",
		width=0.75];
	3 -- 143	[pos="1375.7,657.63 1387.6,614.39 1417.7,504.38 1429.6,461.08"];
	145	[height=0.5,
		pos="1703.7,857.62",
		width=0.75];
	3 -- 145	[pos="1391.9,687 1451.8,719.77 1622.5,813.17 1682.5,846.02"];
	149	[height=0.5,
		pos="1575.9,928.05",
		width=0.75];
	3 -- 149	[pos="1383.9,691.66 1421,737.28 1526,866.55 1562.9,912"];
	29	[height=0.5,
		pos="1513.6,885.43",
		width=0.75];
	3 -- 29	[pos="1382,691.95 1408.7,731.2 1475.8,829.86 1502.4,869.03"];
	57	[height=0.5,
		pos="1705.1,903.96",
		width=0.75];
	56 -- 57	[pos="1538.1,847.83 1574.8,860.16 1644,883.43 1680.8,895.78"];
	61	[height=0.5,
		pos="1285.8,250.38",
		width=0.75];
	60 -- 61	[pos="1332.3,426.6 1322.5,389.62 1300.3,305.2 1290.5,268.25"];
	65	[height=0.5,
		pos="835.64,519.76",
		width=0.75];
	64 -- 65	[pos="1066.3,542.49 1016.6,537.6 911.72,527.25 862.37,522.39"];
	68	[height=0.5,
		pos="1677.6,1172.3",
		width=0.75];
	67 -- 68	[pos="1518,981.47 1550.2,1020 1632.1,1117.9 1664.3,1156.4"];
	12 -- 40	[pos="889.81,616.3 882.64,654.28 866.07,742.05 858.93,779.87"];
	12 -- 17	[pos="894.19,580.26 894.94,566.45 895.96,547.45 896.71,533.58"];
	12 -- 13	[pos="914.46,609.67 988.18,649.32 1232.6,780.76 1306.2,820.38"];
	12 -- 14	[pos="919.33,593.43 969.47,584.18 1078.7,564.03 1129.1,554.73"];
	278	[height=0.5,
		pos="844.08,425.09",
		width=0.75];
	12 -- 278	[pos="888.15,580.37 878.7,547.1 858.54,476.07 849.12,442.87"];
	332	[height=0.5,
		pos="1024.7,835.49",
		width=0.75];
	12 -- 332	[pos="902.67,615.31 926.93,659.08 991.14,774.98 1015.3,818.58"];
	343	[height=0.5,
		pos="1030,535.95",
		width=0.75];
	12 -- 343	[pos="915.81,587.96 941.15,576.42 982.03,557.81 1007.4,546.26"];
	344	[height=0.5,
		pos="873.92,305.36",
		width=0.75];
	12 -- 344	[pos="892.01,579.93 888.55,527.33 878.59,376.26 875.12,323.67"];
	348	[height=0.5,
		pos="893.23,841.76",
		width=0.75];
	12 -- 348	[pos="893.22,616.55 893.22,661.79 893.23,778.46 893.23,823.57"];
	349	[height=0.5,
		pos="557.24,618.03",
		width=0.75];
	12 -- 349	[pos="866.29,599.83 803.38,603.54 647.33,612.73 584.3,616.44"];
	103	[height=0.5,
		pos="557.19,572.57",
		width=0.75];
	12 -- 103	[pos="866.29,596.19 803.37,591.38 647.29,579.46 584.25,574.64"];
	171	[height=0.5,
		pos="731.39,823.33",
		width=0.75];
	12 -- 171	[pos="881.32,614.8 851.32,656.53 772.87,765.64 743.09,807.06"];
	207	[height=0.5,
		pos="494.46,710.05",
		width=0.75];
	12 -- 207	[pos="868.27,605.24 796.66,625.32 590.99,682.98 519.39,703.06"];
	256	[height=0.5,
		pos="989.5,410.18",
		width=0.75];
	12 -- 256	[pos="902.1,580.89 920.49,544.98 962.53,462.87 980.78,427.23"];
	295	[height=0.5,
		pos="639.79,440.46",
		width=0.75];
	12 -- 295	[pos="873.33,585.87 825.96,556.37 706.87,482.22 659.59,452.78"];
	315	[height=0.5,
		pos="533.07,484.33",
		width=0.75];
	12 -- 315	[pos="868.75,590.51 803.05,569.73 623.32,512.87 557.58,492.08"];
	72	[height=0.5,
		pos="1765.7,855.59",
		width=0.75];
	71 -- 72	[pos="1602.4,821.81 1638.5,829.28 1703.7,842.76 1739.8,850.23"];
	77	[height=0.5,
		pos="1575.9,570.36",
		width=0.75];
	76 -- 77	[pos="1507.9,668.05 1522.9,646.5 1549.1,608.76 1564.2,587.04"];
	16 -- 47	[pos="1141.9,618.08 1133.4,661.75 1111.8,772.87 1103.3,816.6"];
	16 -- 18	[pos="1137.9,617.39 1108.3,686.46 999.01,941.68 969.25,1011.1"];
	264	[height=0.5,
		pos="1223.9,787.69",
		width=0.75];
	16 -- 264	[pos="1152.7,617.71 1167.7,653.56 1201.6,734.52 1216.5,770.22"];
	338	[height=0.5,
		pos="1161.8,821.87",
		width=0.75];
	16 -- 338	[pos="1146.7,618.21 1149.8,659.91 1157.4,762.14 1160.5,803.78"];
	16 -- 385	[pos="1131.7,584.1 1114.2,563.53 1083.9,528 1066.4,507.57"];
	386	[height=0.5,
		pos="867.43,642.27",
		width=0.75];
	16 -- 386	[pos="1119,604.06 1066,612.11 947.23,630.15 894.06,638.22"];
	182	[height=0.5,
		pos="1370.8,946.02",
		width=0.75];
	16 -- 182	[pos="1156.2,616.74 1194.4,675.32 1322,871.18 1360,929.5"];
	214	[height=0.5,
		pos="1007.8,902.28",
		width=0.75];
	16 -- 214	[pos="1137.4,617.61 1113,671.15 1039.8,831.95 1015.6,885.06"];
	241	[height=0.5,
		pos="944.51,322.01",
		width=0.75];
	16 -- 241	[pos="1133.4,583.49 1097.7,534.04 992.05,387.82 956.41,338.48"];
	286	[height=0.5,
		pos="1180.8,373.74",
		width=0.75];
	16 -- 286	[pos="1148.2,581.92 1154.8,539.44 1171.4,433.91 1178,391.65"];
	306	[height=0.5,
		pos="934.67,366.15",
		width=0.75];
	16 -- 306	[pos="1131.2,584.34 1092.8,541.73 987.06,424.32 948.76,381.79"];
	324	[height=0.5,
		pos="764.94,517.82",
		width=0.75];
	16 -- 324	[pos="1119.5,594.47 1050.1,579.47 860.26,538.43 790.82,523.41"];
	347	[height=0.5,
		pos="1062,299.98",
		width=0.75];
	16 -- 347	[pos="1140.4,582.18 1125.6,528.81 1081.7,371.01 1066.9,317.76"];
	358	[height=0.5,
		pos="1433.5,552.34",
		width=0.75];
	16 -- 358	[pos="1171.7,595.69 1226.4,586.63 1351.9,565.85 1406.9,556.75"];
	369	[height=0.5,
		pos="1327.7,400.49",
		width=0.75];
	16 -- 369	[pos="1159.7,584.4 1193.8,547.09 1279.5,453.31 1313.5,416.08"];
	80	[height=0.5,
		pos="1377.1,342.2",
		width=0.75];
	79 -- 80	[pos="1371.9,529.34 1373,490.37 1375.5,399.32 1376.6,360.39"];
	291	[height=0.5,
		pos="980.85,701.08",
		width=0.75];
	18 -- 291	[pos="962.79,1010.6 966.13,953.32 976.46,776.3 979.8,719.1"];
	18 -- 348	[pos="955.29,1011.1 942.23,975.47 912.79,895.13 899.71,859.43"];
	18 -- 388	[pos="961.05,1010.3 959.37,965.62 955.1,851.8 953.43,807.4"];
	389	[height=0.5,
		pos="821.78,1279.6",
		width=0.75];
	18 -- 389	[pos="952.12,1045.9 926.49,1091.9 856.77,1216.9 831.28,1262.6"];
	50	[height=0.5,
		pos="945.89,1277.4",
		width=0.75];
	18 -- 50	[pos="960.57,1047 957.64,1093 949.99,1213.1 947.05,1259.1"];
	109	[height=0.5,
		pos="889.23,1344.3",
		width=0.75];
	18 -- 109	[pos="957.63,1046.6 944.9,1102 906.18,1270.6 893.38,1326.2"];
	148	[height=0.5,
		pos="1316.8,1196",
		width=0.75];
	18 -- 148	[pos="983.95,1039.1 1047.7,1069.2 1230.8,1155.5 1294.6,1185.6"];
	186	[height=0.5,
		pos="864.55,1191.6",
		width=0.75];
	18 -- 186	[pos="951.7,1045.5 933.08,1076.7 893.37,1143.3 874.68,1174.6"];
	245	[height=0.5,
		pos="599.52,1165.5",
		width=0.75];
	18 -- 245	[pos="937.97,1037.7 872.34,1062.4 689.11,1131.6 623.37,1156.5"];
	268	[height=0.5,
		pos="1154.7,1212.4",
		width=0.75];
	18 -- 268	[pos="977.53,1043.7 1013.8,1078.2 1102.7,1162.9 1138.9,1197.4"];
	328	[height=0.5,
		pos="559.39,1015.6",
		width=0.75];
	18 -- 328	[pos="934.71,1027.8 861.5,1025.4 659.94,1018.9 586.56,1016.5"];
	342	[height=0.5,
		pos="1143.7,1256.5",
		width=0.75];
	18 -- 342	[pos="974.53,1044.7 1007.9,1086.5 1097.5,1198.7 1130.9,1240.5"];
	377	[height=0.5,
		pos="1314.8,1147.8",
		width=0.75];
	18 -- 377	[pos="986,1036.9 1050.5,1058.6 1225.7,1117.7 1290.4,1139.6"];
	383	[height=0.5,
		pos="1256.7,974.78",
		width=0.75];
	18 -- 383	[pos="987.92,1023.9 1043.9,1013.7 1174.7,989.77 1230.6,979.55"];
	83	[height=0.5,
		pos="867.5,1017.8",
		width=0.75];
	82 -- 83	[pos="1100.2,974.27 1050.6,983.55 943.52,1003.6 893.83,1012.9"];
	4 -- 30	[pos="758.14,1093.4 765,1107 774.54,1125.9 781.43,1139.6"];
	4 -- 53	[pos="773.8,1067.8 823.92,1050.3 938.31,1010.1 988.38,992.56"];
	153	[height=0.5,
		pos="630.6,1256.1",
		width=0.75];
	4 -- 153	[pos="738.55,1092.9 715.89,1127.2 664.18,1205.4 641.54,1239.6"];
	154	[height=0.5,
		pos="398.13,1220.4",
		width=0.75];
	4 -- 154	[pos="726.47,1085.8 662.8,1111.9 485.04,1184.8 421.27,1211"];
	158	[height=0.5,
		pos="1012.7,1169",
		width=0.75];
	4 -- 158	[pos="773.81,1084.9 823.94,1102.6 938.37,1142.9 988.46,1160.5"];
	159	[height=0.5,
		pos="492.92,934.43",
		width=0.75];
	4 -- 159	[pos="728.52,1064.7 680.29,1038.1 562.02,972.65 513.85,946.01"];
	9	[height=0.5,
		pos="681.32,603.94",
		width=0.75];
	4 -- 9	[pos="746.93,1058.4 736.13,983.58 694.72,696.77 683.91,621.9"];
	162	[height=0.5,
		pos="361.08,1159.4",
		width=0.75];
	4 -- 162	[pos="723.73,1081.9 653.16,1097 457.42,1138.8 386.86,1153.9"];
	166	[height=0.5,
		pos="865.63,1401.2",
		width=0.75];
	4 -- 166	[pos="755.93,1094.3 776.23,1151.1 838.97,1326.6 859.24,1383.4"];
	170	[height=0.5,
		pos="621.42,1008.5",
		width=0.75];
	4 -- 170	[pos="728.37,1065.1 704.63,1052.6 666.36,1032.3 642.61,1019.7"];
	172	[height=0.5,
		pos="999.56,1372.5",
		width=0.75];
	4 -- 172	[pos="762.97,1092.3 806.38,1143.7 942.54,1305 986.05,1356.5"];
	176	[height=0.5,
		pos="945.78,885.78",
		width=0.75];
	4 -- 176	[pos="764.92,1061.4 801.61,1025.8 893.83,936.22 930.45,900.66"];
	177	[height=0.5,
		pos="1001.6,1083.7",
		width=0.75];
	4 -- 177	[pos="776.98,1077.2 825.59,1078.6 926.22,1081.5 974.54,1082.9"];
	179	[height=0.5,
		pos="1007.9,1303.4",
		width=0.75];
	4 -- 179	[pos="766.08,1090.9 812.76,1131.9 945.02,1248.1 991.53,1288.9"];
	183	[height=0.5,
		pos="646.43,946.55",
		width=0.75];
	4 -- 183	[pos="736.88,1060.4 717.1,1035.5 679.03,987.59 659.18,962.59"];
	185	[height=0.5,
		pos="766.14,1334.6",
		width=0.75];
	4 -- 185	[pos="750.69,1094.5 753.74,1141.9 761.92,1269.1 764.97,1316.5"];
	187	[height=0.5,
		pos="665.87,1122.1",
		width=0.75];
	4 -- 187	[pos="728.41,1087.9 715.73,1094.8 699.65,1103.6 686.97,1110.5"];
	114	[height=0.5,
		pos="1076.4,1072.2",
		width=0.75];
	4 -- 114	[pos="776.55,1076 838.05,1075.2 987.86,1073.3 1049.4,1072.5"];
	86	[height=0.5,
		pos="485.21,1159",
		width=0.75];
	85 -- 86	[pos="595.22,1088.7 570.84,1104.3 529.56,1130.7 505.1,1146.3"];
	7 -- 158	[pos="1171.9,1028 1138.3,1057.8 1062.5,1124.9 1029,1154.5"];
	247	[height=0.5,
		pos="1120.7,715.55",
		width=0.75];
	7 -- 247	[pos="1184.3,995.2 1172.2,941.91 1136.9,786.49 1124.8,733.5"];
	248	[height=0.5,
		pos="1076.7,925.33",
		width=0.75];
	7 -- 248	[pos="1170.9,999.63 1150.1,983.18 1115.3,955.81 1094.4,939.28"];
	250	[height=0.5,
		pos="777.63,1032.3",
		width=0.75];
	7 -- 250	[pos="1161.5,1014.6 1087,1018.1 879.23,1027.7 804.68,1031.1"];
	11	[height=0.5,
		pos="1031.7,1028.1",
		width=0.75];
	7 -- 11	[pos="1161.5,1015.9 1132.7,1018.6 1087.3,1022.9 1058.5,1025.6"];
	253	[height=0.5,
		pos="1380.8,747.28",
		width=0.75];
	7 -- 253	[pos="1200.2,997.14 1234.5,949.63 1334.5,811.32 1369,763.65"];
	257	[height=0.5,
		pos="1502.9,1175.3",
		width=0.75];
	7 -- 257	[pos="1210,1024.5 1267.5,1054.1 1423.5,1134.4 1481.1,1164.1"];
	260	[height=0.5,
		pos="1432.9,947.01",
		width=0.75];
	7 -- 260	[pos="1213.7,1006.5 1260.6,993.78 1361,966.55 1407.8,953.83"];
	263	[height=0.5,
		pos="1313.5,875.79",
		width=0.75];
	7 -- 263	[pos="1202.5,997.87 1226.5,971.44 1275.1,917.99 1299.2,891.46"];
	7 -- 264	[pos="1191.3,995.3 1197.9,953.04 1214.3,848.21 1221,805.87"];
	265	[height=0.5,
		pos="1318.2,787.72",
		width=0.75];
	7 -- 265	[pos="1198.2,996.42 1222.3,954.5 1284.4,846.38 1308.5,804.57"];
	267	[height=0.5,
		pos="1267.8,1240.1",
		width=0.75];
	7 -- 267	[pos="1194.6,1031.2 1209.5,1073.5 1246.8,1180.1 1261.6,1222.4"];
	7 -- 19	[pos="1161.3,1011.2 1078.7,1004.5 830.9,984.48 748.61,977.83"];
	35	[height=0.5,
		pos="1268,1284.1",
		width=0.75];
	7 -- 35	[pos="1193.6,1031.1 1208.1,1080.2 1248.3,1217.1 1262.8,1266.2"];
	59	[height=0.5,
		pos="1524.4,1097.7",
		width=0.75];
	7 -- 59	[pos="1213.9,1019.8 1276.4,1035.5 1436.4,1075.6 1498.9,1091.3"];
	124	[height=0.5,
		pos="1586.4,1135.6",
		width=0.75];
	7 -- 124	[pos="1213,1020.9 1284.3,1042.8 1490.4,1106.1 1561.7,1128"];
	191	[height=0.5,
		pos="1090.2,1301.1",
		width=0.75];
	7 -- 191	[pos="1182.4,1030.9 1164.9,1082.3 1113.9,1231.8 1096.3,1283.4"];
	221	[height=0.5,
		pos="854.84,1061.8",
		width=0.75];
	7 -- 221	[pos="1162,1017.2 1099.6,1026.3 943.71,1048.9 881.3,1058"];
	90	[height=0.5,
		pos="239.32,648.07",
		width=0.75];
	89 -- 90	[pos="382.92,783.5 352.35,754.67 285.65,691.76 255.13,662.98"];
	94	[height=0.5,
		pos="186.75,822.07",
		width=0.75];
	93 -- 94	[pos="335.52,869 302.6,858.62 244.35,840.24 211.35,829.83"];
	98	[height=0.5,
		pos="962.62,1460.7",
		width=0.75];
	97 -- 98	[pos="805.39,1217.6 835.66,1264.4 921.3,1396.8 951.73,1443.9"];
	102	[height=0.5,
		pos="401.09,643.79",
		width=0.75];
	101 -- 102	[pos="479.86,785.35 462.97,755 427.76,691.72 410.73,661.11"];
	13 -- 18	[pos="1306.2,843.21 1241.5,878.01 1047.7,982.37 983.04,1017.2"];
	13 -- 15	[pos="1313,816.41 1284.5,785.86 1220.8,717.8 1192.1,687.1"];
	316	[height=0.5,
		pos="788.09,727.84",
		width=0.75];
	13 -- 316	[pos="1301.4,826.76 1210.2,809.18 905.45,750.46 814.15,732.86"];
	352	[height=0.5,
		pos="1618.9,710.16",
		width=0.75];
	13 -- 352	[pos="1350.8,822.03 1405.5,799.2 1541.4,742.49 1595.9,719.78"];
	356	[height=0.5,
		pos="1550.3,728.42",
		width=0.75];
	13 -- 356	[pos="1349.6,821.49 1392.2,801.73 1485.1,758.66 1527.9,738.82"];
	359	[height=0.5,
		pos="1583.8,637.16",
		width=0.75];
	13 -- 359	[pos="1345.4,818.09 1392.5,782.36 1518.7,686.54 1565.8,650.83"];
	363	[height=0.5,
		pos="1233.6,1057.4",
		width=0.75];
	13 -- 363	[pos="1320.1,849.48 1302.5,891.66 1258.4,997.7 1240.9,1039.8"];
	13 -- 42	[pos="1326.2,850.05 1323.2,892.84 1316,999.15 1313,1041.7"];
	74	[height=0.5,
		pos="1642.8,901.64",
		width=0.75];
	13 -- 74	[pos="1353.2,837.49 1412.5,850.63 1557.9,882.83 1617.1,895.94"];
	137	[height=0.5,
		pos="1641.7,816.46",
		width=0.75];
	13 -- 137	[pos="1354.5,830.46 1413.9,827.56 1555.1,820.68 1614.6,817.78"];
	175	[height=0.5,
		pos="1440.9,1174.2",
		width=0.75];
	13 -- 175	[pos="1333.4,849.7 1353,908.87 1415.5,1097.5 1435,1156.4"];
	209	[height=0.5,
		pos="1144.2,1078.3",
		width=0.75];
	13 -- 209	[pos="1315.4,847.95 1282.2,892.61 1189.5,1017.3 1156.3,1062"];
	235	[height=0.5,
		pos="1115.5,656.65",
		width=0.75];
	13 -- 235	[pos="1310.4,817.74 1270.7,784.95 1172.3,703.61 1132.5,670.75"];
	259	[height=0.5,
		pos="1501.2,1053.6",
		width=0.75];
	13 -- 259	[pos="1339.9,847.73 1371.9,888.57 1456.5,996.53 1488.6,1037.5"];
	281	[height=0.5,
		pos="1521.8,640.39",
		width=0.75];
	13 -- 281	[pos="1342.7,816.76 1379,780.98 1470.3,691.04 1506.6,655.34"];
	297	[height=0.5,
		pos="1239.6,637.38",
		width=0.75];
	13 -- 297	[pos="1319.6,814.53 1303,777.73 1264.2,691.88 1247.5,654.87"];
	15 -- 16	[pos="1169.7,654.24 1164.7,643.08 1158.2,628.62 1153.2,617.45"];
	15 -- 263	[pos="1188.6,688.26 1214.2,726.66 1276.9,820.79 1302.4,859.13"];
	15 -- 343	[pos="1161.4,656.78 1133.1,630.7 1074.4,576.77 1046.1,550.71"];
	380	[height=0.5,
		pos="1213.4,505.83",
		width=0.75];
	15 -- 380	[pos="1181.4,653.5 1188.3,621.62 1202.6,555.72 1209.5,523.86"];
	382	[height=0.5,
		pos="1389.5,812.25",
		width=0.75];
	15 -- 382	[pos="1196.7,684.28 1236.9,711 1329.8,772.66 1370.2,799.44"];
	384	[height=0.5,
		pos="955.41,835.99",
		width=0.75];
	15 -- 384	[pos="1159.3,685 1117.6,715.92 1015.2,791.71 973.53,822.58"];
	15 -- 46	[pos="1179.7,689.79 1184.1,727.45 1194.2,813.4 1198.6,851.02"];
	78	[height=0.5,
		pos="1480.4,596.36",
		width=0.75];
	15 -- 78	[pos="1203.1,665.2 1260.3,651 1398,616.82 1455,602.66"];
	142	[height=0.5,
		pos="1513.8,538.06",
		width=0.75];
	15 -- 142	[pos="1200.9,662.27 1262.5,637.79 1429.1,571.69 1490.5,547.28"];
	178	[height=0.5,
		pos="1188.6,948.89",
		width=0.75];
	15 -- 178	[pos="1178.2,689.74 1180.3,740 1185.9,880.29 1187.9,930.62"];
	211	[height=0.5,
		pos="1069.8,879.5",
		width=0.75];
	15 -- 211	[pos="1168.7,688.56 1148.5,727.56 1099.1,823.03 1078.8,862.25"];
	237	[height=0.5,
		pos="917.88,471.31",
		width=0.75];
	15 -- 237	[pos="1159.7,657.78 1112.2,621.2 983.43,521.86 935.85,485.17"];
	303	[height=0.5,
		pos="979.89,482.98",
		width=0.75];
	15 -- 303	[pos="1162,656.75 1125.2,621.59 1032.7,533.32 995.6,497.97"];
	322	[height=0.5,
		pos="827.37,475.72",
		width=0.75];
	15 -- 322	[pos="1156.7,659.88 1094.4,625.05 910.25,522.08 848.11,487.33"];
	337	[height=0.5,
		pos="1451.5,853.41",
		width=0.75];
	15 -- 337	[pos="1196.8,684.34 1247.1,717.73 1382,807.26 1432.3,840.64"];
	366	[height=0.5,
		pos="1293.9,548.07",
		width=0.75];
	15 -- 366	[pos="1192,656.16 1214.3,632.5 1256.8,587.43 1279.2,563.65"];
	107	[height=0.5,
		pos="786.86,1464.5",
		width=0.75];
	106 -- 107	[pos="761.44,1263.9 766.67,1305.2 779.36,1405.3 784.57,1446.4"];
	111	[height=0.5,
		pos="324.99,1203.4",
		width=0.75];
	110 -- 111	[pos="519.06,1072.7 478.43,1100 384.56,1163.3 344.11,1190.5"];
	113 -- 114	[pos="1369.6,911.71 1312.3,943.05 1154.6,1029.4 1097.5,1060.7"];
	116	[height=0.5,
		pos="950.29,984.65",
		width=0.75];
	115 -- 116	[pos="1240.8,842.5 1183.4,870.58 1029.6,945.85 972.24,973.91"];
	118	[height=0.5,
		pos="1290.6,206.35",
		width=0.75];
	117 -- 118	[pos="1448.6,331.06 1415.1,304.58 1342,246.88 1308.3,220.28"];
	122	[height=0.5,
		pos="1829.5,884.64",
		width=0.75];
	121 -- 122	[pos="1736.9,748.84 1756.9,778.16 1798.2,838.76 1818.2,868.07"];
	8 -- 36	[pos="924.47,445.62 923.33,493.44 920.28,621.66 919.14,669.45"];
	8 -- 88	[pos="914.92,444.04 892.42,481.74 837.97,572.99 815.42,610.78"];
	8 -- 15	[pos="940.33,442.21 985.43,485.82 1116.7,612.77 1162,656.52"];
	192	[height=0.5,
		pos="766.69,683.81",
		width=0.75];
	8 -- 192	[pos="914.53,444.13 885.86,490.61 805.82,620.37 777.11,666.92"];
	8 -- 247	[pos="936.28,444.05 970.98,495.11 1075.2,648.48 1109.6,699.12"];
	269	[height=0.5,
		pos="786.58,179.68",
		width=0.75];
	8 -- 269	[pos="915.4,410.28 890.13,365.05 821.5,242.19 796.16,196.82"];
	273	[height=0.5,
		pos="613.45,219.36",
		width=0.75];
	8 -- 273	[pos="905.42,414.29 849.36,376.86 688.09,269.19 632.53,232.09"];
	277	[height=0.5,
		pos="1058.7,701.22",
		width=0.75];
	8 -- 277	[pos="933.28,444.44 957.31,493.63 1026.3,634.91 1050.3,684.09"];
	8 -- 278	[pos="897.54,426.55 889.02,426.32 879.64,426.06 871.14,425.83"];
	279	[height=0.5,
		pos="1229.9,329.72",
		width=0.75];
	8 -- 279	[pos="949.35,419.48 1006.5,401.21 1148.1,355.88 1205.3,337.57"];
	282	[height=0.5,
		pos="940.36,259.93",
		width=0.75];
	8 -- 282	[pos="926.59,409.07 929.56,376.88 935.71,310.32 938.68,278.14"];
	284	[height=0.5,
		pos="1047.8,211.93",
		width=0.75];
	8 -- 284	[pos="934.55,410.4 957.47,370.24 1015,269.43 1038,229.05"];
	287	[height=0.5,
		pos="945.43,211.75",
		width=0.75];
	8 -- 287	[pos="926.62,409.29 930.49,368.72 939.84,270.52 943.71,229.85"];
	8 -- 291	[pos="928.58,445.26 938.72,494.87 967.02,633.36 977.17,683.05"];
	292	[height=0.5,
		pos="688.08,513.21",
		width=0.75];
	8 -- 292	[pos="900.9,436.01 855.39,452.52 757.09,488.18 711.8,504.61"];
	63	[height=0.5,
		pos="1058.6,167.91",
		width=0.75];
	8 -- 63	[pos="933.89,409.88 958.24,362.62 1025.3,232.42 1049.6,185.25"];
	161	[height=0.5,
		pos="618.52,484.5",
		width=0.75];
	8 -- 161	[pos="898.78,432.18 840.9,442.98 702.4,468.84 644.57,479.63"];
	224	[height=0.5,
		pos="737.55,224.02",
		width=0.75];
	8 -- 224	[pos="910.52,411.69 875.56,373.76 786.48,277.11 751.73,239.41"];
	126	[height=0.5,
		pos="1352.8,242.71",
		width=0.75];
	125 -- 126	[pos="1524.8,358.89 1488.3,334.22 1408.7,280.47 1372,255.69"];
	130	[height=0.5,
		pos="779,350.42",
		width=0.75];
	129 -- 130	[pos="1100.2,455.94 1036.8,435.1 866.68,379.22 803.27,358.39"];
	133	[height=0.5,
		pos="1596.2,989.68",
		width=0.75];
	132 -- 133	[pos="1657.8,787.94 1645.2,829.24 1614.3,930.51 1601.7,971.76"];
	136	[height=0.5,
		pos="1787.7,730.96",
		width=0.75];
	135 -- 136	[pos="1731.9,685.57 1743.5,695.05 1758.8,707.5 1770.5,716.97"];
	139	[height=0.5,
		pos="1392.6,490.3",
		width=0.75];
	138 -- 139	[pos="1543.1,482.58 1509.7,484.29 1453.3,487.19 1419.8,488.9"];
	141	[height=0.5,
		pos="1678.1,481.78",
		width=0.75];
	140 -- 141	[pos="1644.5,511.42 1649.9,506.6 1656,501.23 1661.5,496.39"];
	143 -- 144	[pos="1407.5,445.27 1361.4,448.85 1268,456.11 1221.9,459.69"];
	146	[height=0.5,
		pos="1650,1058.7",
		width=0.75];
	145 -- 146	[pos="1698.9,875.46 1688.7,913.61 1664.9,1002.7 1654.7,1040.9"];
	150	[height=0.5,
		pos="1559.9,1223.7",
		width=0.75];
	149 -- 150	[pos="1574.9,946.1 1572.1,998.87 1563.7,1152.5 1560.8,1205.5"];
	155	[height=0.5,
		pos="236.68,1138.2",
		width=0.75];
	154 -- 155	[pos="376.36,1209.3 345.46,1193.6 289.22,1164.9 258.36,1149.2"];
	160	[height=0.5,
		pos="495.22,661.98",
		width=0.75];
	159 -- 160	[pos="493.08,916.13 493.5,866.5 494.65,729.74 495.07,680.2"];
	9 -- 37	[pos="680.3,622.12 677.98,663.06 672.39,762.16 670.08,803.2"];
	9 -- 18	[pos="692.31,620.59 737.17,688.54 906.1,944.41 950.82,1012.1"];
	9 -- 11	[pos="694.41,619.8 749.57,686.58 962.67,944.61 1018.3,1012"];
	10	[height=0.5,
		pos="353.18,599.78",
		width=0.75];
	9 -- 10	[pos="654.19,603.6 592.46,602.82 442.1,600.91 380.34,600.12"];
	294	[height=0.5,
		pos="535.82,440.29",
		width=0.75];
	9 -- 294	[pos="667.37,588.25 639.63,557.05 577.82,487.53 549.95,456.18"];
	296	[height=0.5,
		pos="955.27,559.38",
		width=0.75];
	9 -- 296	[pos="707.59,599.67 759.82,591.17 876.19,572.24 928.68,563.7"];
	298	[height=0.5,
		pos="715.37,318.17",
		width=0.75];
	9 -- 298	[pos="683.5,585.63 689.65,534.02 707.08,387.76 713.2,336.33"];
	302	[height=0.5,
		pos="763.89,466.48",
		width=0.75];
	9 -- 302	[pos="691.45,587.09 707.29,560.7 737.78,509.94 753.68,483.47"];
	304	[height=0.5,
		pos="652.14,396.42",
		width=0.75];
	9 -- 304	[pos="678.78,585.89 673.26,546.64 660.23,453.93 654.7,414.58"];
	307	[height=0.5,
		pos="605.95,352.38",
		width=0.75];
	9 -- 307	[pos="676.02,586.25 662.18,540.07 625.08,416.22 611.25,370.05"];
	311	[height=0.5,
		pos="427.94,687.84",
		width=0.75];
	9 -- 311	[pos="657.02,611.99 608.59,628.02 500.53,663.8 452.16,679.82"];
	9 -- 65	[pos="702.45,592.41 731.84,576.38 784.75,547.52 814.27,531.42"];
	92	[height=0.5,
		pos="415.31,591.75",
		width=0.75];
	9 -- 92	[pos="654.35,602.71 603.37,600.37 493.39,595.33 442.35,592.99"];
	128	[height=0.5,
		pos="872.37,349.45",
		width=0.75];
	9 -- 128	[pos="693.56,587.64 728.07,541.67 825.85,411.42 860.23,365.62"];
	196	[height=0.5,
		pos="301.38,668.67",
		width=0.75];
	9 -- 196	[pos="654.91,608.44 585.24,620.31 397.09,652.36 327.62,664.2"];
	228	[height=0.5,
		pos="471.04,451.77",
		width=0.75];
	9 -- 228	[pos="662.66,590.44 622.65,561.49 529.05,493.76 489.36,465.03"];
	249	[height=0.5,
		pos="851.76,753.7",
		width=0.75];
	9 -- 249	[pos="697.66,618.3 730.16,646.85 802.56,710.47 835.22,739.16"];
	272	[height=0.5,
		pos="486.31,308.18",
		width=0.75];
	9 -- 272	[pos="670.28,587.19 635.95,535.14 531.39,376.55 497.23,324.75"];
	163	[height=0.5,
		pos="167.45,1067.6",
		width=0.75];
	162 -- 163	[pos="338.87,1148.9 301.62,1131.2 226.97,1095.8 189.7,1078.1"];
	167	[height=0.5,
		pos="966.08,1551.4",
		width=0.75];
	166 -- 167	[pos="876.76,1417.9 896.07,1446.7 935.55,1505.7 954.89,1534.7"];
	170 -- 171	[pos="631.38,991.72 652.26,956.56 700.45,875.43 721.38,840.18"];
	173	[height=0.5,
		pos="1179.5,1431.1",
		width=0.75];
	172 -- 173	[pos="1023.8,1380.4 1058.2,1391.6 1120.6,1411.9 1155.1,1423.1"];
	177 -- 178	[pos="1020.2,1070.3 1056.1,1044.4 1134.3,988.04 1170.1,962.25"];
	180	[height=0.5,
		pos="1312,1328.1",
		width=0.75];
	179 -- 180	[pos="1034.9,1305.6 1092.6,1310.3 1227.4,1321.2 1285,1325.9"];
	183 -- 184	[pos="650.71,928.46 661.5,882.85 689.72,763.59 700.43,718.32"];
	185 -- 186	[pos="777.43,1318.2 796.31,1290.8 834.1,1235.9 853.09,1208.3"];
	5	[height=0.5,
		pos="683.57,1035.2",
		width=0.75];
	5 -- 54	[pos="706.68,1025.3 753.63,1005.2 859.65,959.66 906.4,939.6"];
	5 -- 18	[pos="710.75,1034.6 763.93,1033.3 881.18,1030.6 934.45,1029.3"];
	5 -- 153	[pos="679.23,1053.3 669.27,1094.8 644.86,1196.6 634.92,1238.1"];
	5 -- 188	[pos="668.15,1020.1 632.04,984.64 542.34,896.57 506.42,861.3"];
	189	[height=0.5,
		pos="704.05,1350.3",
		width=0.75];
	5 -- 189	[pos="684.76,1053.5 688.38,1109.2 699.23,1276.2 702.86,1331.9"];
	5 -- 192	[pos="687.8,1017.3 702.06,957.04 748.21,761.92 762.46,701.69"];
	193	[height=0.5,
		pos="335.68,1022.4",
		width=0.75];
	5 -- 193	[pos="656.56,1034.2 591.74,1031.8 427.95,1025.8 362.91,1023.4"];
	197	[height=0.5,
		pos="273.63,1044.4",
		width=0.75];
	5 -- 197	[pos="656.35,1035.8 581.87,1037.5 375.3,1042.1 300.83,1043.8"];
	201	[height=0.5,
		pos="600.08,1344.1",
		width=0.75];
	5 -- 201	[pos="678.72,1053.2 663.96,1107.8 619.72,1271.5 604.94,1326.2"];
	204	[height=0.5,
		pos="348.09,1080.2",
		width=0.75];
	5 -- 204	[pos="656.96,1038.8 594.2,1047.2 437.47,1068.2 374.7,1076.6"];
	208	[height=0.5,
		pos="873.9,1145.9",
		width=0.75];
	5 -- 208	[pos="703.94,1047.1 740.47,1068.3 816.75,1112.7 853.39,1134"];
	5 -- 14	[pos="698.47,1019.9 769.13,947.23 1069.9,637.88 1140.6,565.2"];
	210	[height=0.5,
		pos="804.59,988.22",
		width=0.75];
	5 -- 210	[pos="706.9,1026.2 728.2,1017.9 759.52,1005.7 780.92,997.42"];
	212	[height=0.5,
		pos="692.65,1213",
		width=0.75];
	5 -- 212	[pos="684.49,1053.3 686.23,1087.3 689.99,1160.8 691.73,1194.9"];
	215	[height=0.5,
		pos="528.11,890.42",
		width=0.75];
	5 -- 215	[pos="667.81,1020.6 638.01,992.8 573.74,932.93 543.92,905.14"];
	217	[height=0.5,
		pos="423.16,1166.1",
		width=0.75];
	5 -- 217	[pos="661.81,1046.2 612.79,1070.8 494.16,1130.5 445.03,1155.2"];
	5 -- 32	[pos="673.32,1052 648.91,1091.9 587.55,1192.3 563.18,1232.2"];
	5 -- 86	[pos="663.82,1047.5 625.9,1071.2 543.26,1122.8 505.17,1146.5"];
	5 -- 116	[pos="709.63,1030.3 760.62,1020.6 873.05,999.3 924.12,989.61"];
	190	[height=0.5,
		pos="937.04,1415.5",
		width=0.75];
	189 -- 190	[pos="728.99,1357.2 773.71,1369.8 867.08,1395.9 911.93,1408.5"];
	194	[height=0.5,
		pos="120.88,953.08",
		width=0.75];
	193 -- 194	[pos="311.04,1014.4 269.61,1001.1 186.48,974.25 145.24,960.94"];
	198	[height=0.5,
		pos="58.832,979.22",
		width=0.75];
	197 -- 198	[pos="248.99,1036.9 207.66,1024.4 124.87,999.25 83.514,986.71"];
	202	[height=0.5,
		pos="795.04,1416",
		width=0.75];
	201 -- 202	[pos="623.98,1353 661.5,1366.8 733.79,1393.4 771.24,1407.2"];
	205	[height=0.5,
		pos="211.62,1023.5",
		width=0.75];
	204 -- 205	[pos="324.94,1070.6 299.85,1060.2 260.03,1043.6 234.89,1033.2"];
	208 -- 209	[pos="899.33,1139.6 950.85,1126.7 1067,1097.6 1118.7,1084.7"];
	14 -- 75	[pos="1180.1,557.29 1206,565.07 1246.3,577.21 1272.2,585.01"];
	14 -- 104	[pos="1143.1,566.19 1115.2,603.06 1047.6,692.42 1019.8,729.11"];
	14 -- 176	[pos="1145.1,566.52 1109.4,623.71 992.04,811.68 956.24,869.02"];
	365	[height=0.5,
		pos="1274.9,459.53",
		width=0.75];
	14 -- 365	[pos="1173.4,536.34 1195.9,519.31 1234.4,490.22 1256.9,473.15"];
	367	[height=0.5,
		pos="1314.3,356.46",
		width=0.75];
	14 -- 367	[pos="1168.5,534.04 1198.3,497.77 1271.2,408.98 1301.1,372.51"];
	370	[height=0.5,
		pos="1223.8,285.7",
		width=0.75];
	14 -- 370	[pos="1160.1,532.12 1172.5,484.12 1206.6,352.04 1219.1,303.72"];
	374	[height=0.5,
		pos="1443.6,728.42",
		width=0.75];
	14 -- 374	[pos="1175.3,562.14 1227.9,594.76 1370.8,683.35 1423.6,716.06"];
	378	[height=0.5,
		pos="1017.6,657.03",
		width=0.75];
	14 -- 378	[pos="1137.8,563.66 1111.3,584.23 1061.7,622.75 1035.3,643.29"];
	14 -- 44	[pos="1166.7,566.26 1183.9,591.47 1216.7,639.48 1233.9,664.81"];
	14 -- 139	[pos="1180.9,543.49 1226.4,532.06 1321.4,508.18 1367.1,496.72"];
	262	[height=0.5,
		pos="1434,666.88",
		width=0.75];
	14 -- 262	[pos="1178.8,559.64 1231.3,581.72 1358.7,635.24 1411,657.22"];
	283	[height=0.5,
		pos="1041,345.68",
		width=0.75];
	14 -- 283	[pos="1145.9,532.81 1124.3,494.28 1071.9,400.9 1050.4,362.55"];
	301	[height=0.5,
		pos="1066.3,255.95",
		width=0.75];
	14 -- 301	[pos="1150.1,531.92 1134.1,479.33 1087.6,325.95 1071.7,273.66"];
	319	[height=0.5,
		pos="748.07,397.32",
		width=0.75];
	14 -- 319	[pos="1131.8,541.01 1059.8,514.04 843.9,433.2 771.8,406.21"];
	334	[height=0.5,
		pos="1307.3,718.43",
		width=0.75];
	14 -- 334	[pos="1169.5,565.42 1198.4,597.54 1264.5,670.83 1293.3,702.92"];
	355	[height=0.5,
		pos="1496.9,465.26",
		width=0.75];
	14 -- 355	[pos="1180.9,543.58 1244.1,527.91 1408,487.3 1471.4,471.59"];
	210 -- 211	[pos="827.67,978.77 877.83,958.2 996.34,909.63 1046.6,889.02"];
	213	[height=0.5,
		pos="811.53,1105.8",
		width=0.75];
	212 -- 213	[pos="709.18,1198.1 731.89,1177.6 772.5,1141 795.14,1120.6"];
	215 -- 216	[pos="538.25,873.49 564.71,829.28 635.67,710.73 662.12,666.54"];
	218	[height=0.5,
		pos="484.25,1103.7",
		width=0.75];
	217 -- 218	[pos="437.94,1151 447.41,1141.3 459.65,1128.8 469.17,1119.1"];
	220	[height=0.5,
		pos="566.18,964.42",
		width=0.75];
	219 -- 220	[pos="469.64,775.5 489.47,814.31 537.46,908.21 557.33,947.11"];
	223	[height=0.5,
		pos="577.22,307.93",
		width=0.75];
	222 -- 223	[pos="494.1,351.79 512.14,342.27 537.82,328.72 555.84,319.21"];
	226	[height=0.5,
		pos="300.66,408.31",
		width=0.75];
	225 -- 226	[pos="375.38,438.35 359.89,432.12 339.58,423.95 324.04,417.71"];
	230	[height=0.5,
		pos="197.46,498.46",
		width=0.75];
	229 -- 230	[pos="343.3,540.56 310.94,531.22 254.67,514.97 222.3,505.63"];
	233	[height=0.5,
		pos="787.22,936.55",
		width=0.75];
	232 -- 233	[pos="628.48,776.99 661.45,810.12 739.44,888.51 772.26,921.5"];
	234 -- 235	[pos="850.79,571.74 905.46,589.28 1036.2,631.24 1090.9,648.76"];
	236 -- 237	[pos="728.77,449.11 770.29,453.98 849.45,463.28 890.96,468.15"];
	239	[height=0.5,
		pos="633.76,263.54",
		width=0.75];
	238 -- 239	[pos="555.73,337.17 573.11,320.76 600.76,294.67 618.05,278.36"];
	243	[height=0.5,
		pos="245.67,977.57",
		width=0.75];
	242 -- 243	[pos="329.46,774.4 312.37,815.86 269.88,918.86 252.88,960.09"];
	248 -- 249	[pos="1058.6,911.57 1016.4,879.36 911.55,799.32 869.56,767.28"];
	251	[height=0.5,
		pos="457.5,1010.8",
		width=0.75];
	250 -- 251	[pos="750.61,1030.5 690.31,1026.5 545.33,1016.7 484.78,1012.6"];
	11 -- 39	[pos="1018.6,1044.2 1003.5,1062.8 978.74,1093.4 963.64,1112"];
	11 -- 13	[pos="1051.1,1015.2 1104.6,979.67 1254.3,880.34 1307.9,844.71"];
	11 -- 19	[pos="1005.2,1023.7 946.67,1013.7 806.57,990.02 748.08,980.12"];
	11 -- 277	[pos="1033.1,1010.1 1037.9,952.93 1052.5,776.28 1057.2,719.21"];
	313	[height=0.5,
		pos="615.61,866.9",
		width=0.75];
	11 -- 313	[pos="1008.1,1019 934.95,990.66 712.31,904.38 639.17,876.03"];
	11 -- 332	[pos="1031,1010 1029.7,973.29 1026.7,890.5 1025.3,853.7"];
	333	[height=0.5,
		pos="1251.1,915.36",
		width=0.75];
	11 -- 333	[pos="1053.1,1017.1 1095,995.55 1187.5,948.02 1229.6,926.43"];
	335	[height=0.5,
		pos="1327,1103.8",
		width=0.75];
	11 -- 335	[pos="1057.1,1034.6 1112.9,1048.9 1245.7,1082.9 1301.5,1097.3"];
	11 -- 338	[pos="1042.3,1011.3 1066.8,972.48 1126.8,877.42 1151.2,838.7"];
	11 -- 339	[pos="1031.9,1009.9 1032.5,965.87 1033.9,853.73 1034.5,809.59"];
	340	[height=0.5,
		pos="1205.8,1284",
		width=0.75];
	11 -- 340	[pos="1042.8,1044.5 1074.2,1090.6 1162.9,1221 1194.5,1267.4"];
	70	[height=0.5,
		pos="1365.5,1240.1",
		width=0.75];
	11 -- 70	[pos="1051.5,1040.8 1110.9,1078.5 1286.5,1189.9 1345.8,1227.6"];
	100	[height=0.5,
		pos="1061.8,1347.4",
		width=0.75];
	11 -- 100	[pos="1033.4,1046.2 1038.7,1102.3 1054.8,1272.8 1060.1,1329.1"];
	134	[height=0.5,
		pos="1377.1,1054",
		width=0.75];
	11 -- 134	[pos="1058.8,1030.2 1123.3,1035 1285.7,1047.1 1350.1,1052"];
	169	[height=0.5,
		pos="1088.8,1391.4",
		width=0.75];
	11 -- 169	[pos="1034.5,1046.1 1044.2,1108 1076.2,1311.3 1086,1373.3"];
	203	[height=0.5,
		pos="883.85,1295.8",
		width=0.75];
	11 -- 203	[pos="1022.2,1045.3 995.49,1093.6 919.84,1230.6 893.24,1278.8"];
	11 -- 233	[pos="1007.8,1019.2 960.92,1001.6 857.48,962.87 810.84,945.4"];
	254	[height=0.5,
		pos="1328.1,503.56",
		width=0.75];
	253 -- 254	[pos="1376.9,729.36 1367.2,684.29 1341.8,566.61 1332,521.51"];
	258	[height=0.5,
		pos="1643.6,1223.7",
		width=0.75];
	257 -- 258	[pos="1527.1,1183.6 1552.8,1192.5 1593.4,1206.4 1619.2,1215.3"];
	261	[height=0.5,
		pos="1596.7,772.43",
		width=0.75];
	260 -- 261	[pos="1447.5,931.52 1478.5,898.39 1551.1,820.99 1582.2,787.89"];
	265 -- 266	[pos="1309.2,770.48 1290.2,733.59 1245.6,647.42 1226.5,610.57"];
	267 -- 268	[pos="1242.4,1233.8 1223.9,1229.3 1198.9,1223.2 1180.4,1218.7"];
	19 -- 187	[pos="714.98,993.31 704.25,1021.5 683.38,1076.2 672.63,1104.3"];
	19 -- 246	[pos="708.35,959.66 676.5,921.57 596.42,825.81 564.63,787.79"];
	19 -- 384	[pos="742.05,963.5 786.36,937.02 891.18,874.38 935.3,848.01"];
	19 -- 52	[pos="705.67,990.43 675.32,1018.4 609.86,1078.6 579.48,1106.6"];
	19 -- 83	[pos="746.78,982.9 773.48,990.62 815.51,1002.8 842.28,1010.5"];
	112	[height=0.5,
		pos="422.19,1115.2",
		width=0.75];
	19 -- 112	[pos="699.21,986.14 643.56,1012.1 500.05,1079 444.56,1104.8"];
	152	[height=0.5,
		pos="1051.4,1213",
		width=0.75];
	19 -- 152	[pos="740.39,989.1 798.43,1030.9 975.23,1158.2 1033,1199.7"];
	19 -- 218	[pos="700.65,987.01 655.58,1011.3 550.3,1068.1 505.27,1092.3"];
	293	[height=0.5,
		pos="642.19,693.63",
		width=0.75];
	19 -- 293	[pos="716.62,957.58 702.26,906.64 661.55,762.31 647.24,711.55"];
	312	[height=0.5,
		pos="431.29,890.36",
		width=0.75];
	19 -- 312	[pos="696.96,968.38 642.23,952.31 511.46,913.91 456.4,897.74"];
	331	[height=0.5,
		pos="395.45,978.4",
		width=0.75];
	19 -- 331	[pos="694.46,975.88 633.05,976.4 484.42,977.65 422.86,978.17"];
	351	[height=0.5,
		pos="421.47,934.37",
		width=0.75];
	19 -- 351	[pos="695.07,971.99 638.1,964.16 504.98,945.85 448.05,938.02"];
	364	[height=0.5,
		pos="930.32,1073.1",
		width=0.75];
	19 -- 364	[pos="744.04,986.08 784.19,1004.8 868.12,1044 908.15,1062.7"];
	379	[height=0.5,
		pos="793.55,817.99",
		width=0.75];
	19 -- 379	[pos="729.68,958.18 743.49,927.87 771.72,865.9 785.55,835.54"];
	387	[height=0.5,
		pos="737.45,773.88",
		width=0.75];
	19 -- 387	[pos="723.14,957.39 726.14,918.98 733.06,830.2 736.04,791.95"];
	391	[height=0.5,
		pos="612.88,1300.1",
		width=0.75];
	19 -- 391	[pos="715.71,993.56 696.69,1050.3 637.87,1225.6 618.87,1282.3"];
	270	[height=0.5,
		pos="657.55,168.72",
		width=0.75];
	269 -- 270	[pos="759.53,177.39 737.51,175.51 706.58,172.89 684.56,171.02"];
	274	[height=0.5,
		pos="409.89,227.82",
		width=0.75];
	273 -- 274	[pos="586.42,220.48 547.49,222.1 476.03,225.07 437.03,226.69"];
	280	[height=0.5,
		pos="1478.6,399.05",
		width=0.75];
	279 -- 280	[pos="1255.1,336.75 1302.9,350.07 1406.1,378.85 1453.7,392.11"];
	282 -- 283	[pos="957.43,274.48 976.04,290.34 1005.6,315.57 1024.2,331.35"];
	285	[height=0.5,
		pos="1155.5,133.62",
		width=0.75];
	284 -- 285	[pos="1066.1,198.64 1085.9,184.24 1117.3,161.39 1137.1,146.97"];
	288	[height=0.5,
		pos="896.99,91.641",
		width=0.75];
	287 -- 288	[pos="938.39,194.28 929.2,171.51 913.23,131.91 904.04,109.13"];
	292 -- 293	[pos="683.51,531.17 674.71,565.75 655.52,641.22 646.74,675.75"];
	10 -- 38	[pos="366.62,615.84 403.07,659.41 503.5,779.47 539.88,822.96"];
	10 -- 66	[pos="380,602.53 451.36,609.85 645.3,629.75 716.58,637.06"];
	10 -- 313	[pos="368.04,614.91 414.12,661.81 554.28,804.48 600.59,851.61"];
	314	[height=0.5,
		pos="432.38,547.73",
		width=0.75];
	10 -- 314	[pos="372.76,586.91 385.03,578.84 400.79,568.49 413.03,560.44"];
	10 -- 316	[pos="378.12,607.12 454.83,629.71 686.67,697.98 763.24,720.52"];
	317	[height=0.5,
		pos="336.38,454.03",
		width=0.75];
	10 -- 317	[pos="351.09,581.61 347.87,553.68 341.73,500.49 338.5,472.42"];
	320	[height=0.5,
		pos="385.9,503.7",
		width=0.75];
	10 -- 320	[pos="359.18,582.16 365.05,564.93 373.94,538.83 379.83,521.53"];
	323	[height=0.5,
		pos="447.91,495.82",
		width=0.75];
	10 -- 323	[pos="367.57,583.99 385.48,564.34 415.87,530.98 433.7,511.41"];
	10 -- 325	[pos="377.39,591.74 418.61,578.06 501.99,550.38 543.38,536.65"];
	326	[height=0.5,
		pos="212.76,774.58",
		width=0.75];
	10 -- 326	[pos="340.22,615.91 313.47,649.21 252.41,725.22 225.69,758.48"];
	329	[height=0.5,
		pos="203.27,721.99",
		width=0.75];
	10 -- 329	[pos="335.98,613.8 307.22,637.25 249.66,684.17 220.72,707.76"];
	96	[height=0.5,
		pos="172.68,675.48",
		width=0.75];
	10 -- 96	[pos="330.32,609.37 295.69,623.89 230.32,651.31 195.64,665.85"];
	131	[height=0.5,
		pos="464.61,407.47",
		width=0.75];
	10 -- 131	[pos="363.07,582.71 384.21,546.22 433.62,460.96 454.74,424.49"];
	165	[height=0.5,
		pos="150.71,772.96",
		width=0.75];
	10 -- 165	[pos="336.27,614.25 298.06,646.93 205.46,726.13 167.43,758.66"];
	200	[height=0.5,
		pos="141.08,722.43",
		width=0.75];
	10 -- 200	[pos="332.46,611.76 291.8,635.27 202.05,687.18 161.58,710.58"];
	231	[height=0.5,
		pos="234.48,547.53",
		width=0.75];
	10 -- 231	[pos="330.58,589.83 309.59,580.59 278.5,566.91 257.41,557.62"];
	252	[height=0.5,
		pos="279.51,827.05",
		width=0.75];
	10 -- 252	[pos="347.4,617.61 333.63,660.1 299.01,766.9 285.26,809.3"];
	276	[height=0.5,
		pos="254.19,454.42",
		width=0.75];
	10 -- 276	[pos="342.02,583.39 323.01,555.47 284.55,499 265.47,470.97"];
	294 -- 295	[pos="562.87,440.34 578.15,440.36 597.2,440.39 612.52,440.42"];
	296 -- 297	[pos="980.5,566.3 1034.5,581.1 1160.5,615.69 1214.4,630.48"];
	299	[height=0.5,
		pos="846.75,135.66",
		width=0.75];
	298 -- 299	[pos="727.26,301.65 752.27,266.9 810.07,186.61 834.98,152.01"];
	302 -- 303	[pos="790.81,468.53 832.31,471.7 911.47,477.75 952.97,480.92"];
	305	[height=0.5,
		pos="816.29,223.69",
		width=0.75];
	304 -- 305	[pos="666.71,381.09 697.78,348.4 770.27,272.12 801.52,239.23"];
	308	[height=0.5,
		pos="551.44,249.59",
		width=0.75];
	307 -- 308	[pos="596.95,335.41 586.85,316.36 570.56,285.65 560.45,266.59"];
	311 -- 312	[pos="428.24,706.17 428.88,744.73 430.35,833.83 430.99,872.22"];
	314 -- 315	[pos="452.27,535.2 469.93,524.09 495.58,507.93 513.22,496.83"];
	318	[height=0.5,
		pos="424.31,308.81",
		width=0.75];
	317 -- 318	[pos="346.64,437.08 363.58,409.1 397.21,353.55 414.11,325.64"];
	321	[height=0.5,
		pos="541.87,396.25",
		width=0.75];
	320 -- 321	[pos="404.72,490.74 434.7,470.08 492.97,429.94 522.99,409.25"];
	323 -- 324	[pos="474.94,497.69 534.84,501.85 678.15,511.8 737.98,515.95"];
	327	[height=0.5,
		pos="324.26,957.86",
		width=0.75];
	326 -- 327	[pos="223.05,791.49 244.29,826.41 292.77,906.1 313.99,940.98"];
	330	[height=0.5,
		pos="235.49,894.17",
		width=0.75];
	329 -- 330	[pos="206.65,740.09 212.84,773.16 225.91,842.97 232.1,876.05"];
	333 -- 334	[pos="1256.2,897.54 1266.9,860.14 1291.5,773.85 1302.2,736.36"];
	336	[height=0.5,
		pos="1524.5,1009.6",
		width=0.75];
	335 -- 336	[pos="1349.3,1093.2 1387.3,1075 1464.4,1038.3 1502.3,1020.2"];
	341	[height=0.5,
		pos="1229.2,1365.6",
		width=0.75];
	340 -- 341	[pos="1210.8,1301.7 1214.8,1315.4 1220.2,1334.3 1224.1,1348"];
	345	[height=0.5,
		pos="994.64,160.4",
		width=0.75];
	344 -- 345	[pos="887.07,289.57 910.29,261.69 958.3,204.04 981.51,176.17"];
	350	[height=0.5,
		pos="331.19,712.67",
		width=0.75];
	349 -- 350	[pos="534.32,627.63 490.99,645.77 397.54,684.89 354.17,703.05"];
	353	[height=0.5,
		pos="1746.9,572.05",
		width=0.75];
	352 -- 353	[pos="1633.3,694.58 1657.9,668.06 1707.6,614.41 1732.3,587.78"];
	357	[height=0.5,
		pos="1645.8,611.98",
		width=0.75];
	356 -- 357	[pos="1563.6,712.23 1581.8,689.98 1614.5,650.21 1632.7,628.04"];
	360	[height=0.5,
		pos="1630.3,422.1",
		width=0.75];
	359 -- 360	[pos="1587.7,619.19 1596.4,578.71 1617.6,480.74 1626.4,440.16"];
	363 -- 364	[pos="1206.4,1058.8 1148.8,1061.8 1015.2,1068.7 957.55,1071.7"];
	365 -- 366	[pos="1278.8,477.45 1282.1,492.81 1286.8,514.82 1290.1,530.18"];
	368	[height=0.5,
		pos="1455.3,294.31",
		width=0.75];
	367 -- 368	[pos="1336.9,346.48 1363.3,334.88 1406.4,315.86 1432.7,304.27"];
	371	[height=0.5,
		pos="1244.7,61.109",
		width=0.75];
	370 -- 371	[pos="1225.4,267.7 1229.4,225.65 1239.1,121.33 1243,79.195"];
	375	[height=0.5,
		pos="1638.2,945.66",
		width=0.75];
	374 -- 375	[pos="1457.6,744.05 1493.5,784.13 1588.6,890.25 1624.4,930.18"];
	378 -- 379	[pos="998.92,670.48 956.63,700.85 854.14,774.46 812.06,804.69"];
	380 -- 381	[pos="1192,494.84 1161.5,479.28 1106.3,451.01 1075.7,435.41"];
	382 -- 383	[pos="1376.5,828.13 1351.2,859.12 1295.5,927.36 1270,958.59"];
	386 -- 387	[pos="852.52,657.36 827.58,682.62 777.68,733.15 752.59,758.55"];
	390	[height=0.5,
		pos="714.22,1408.5",
		width=0.75];
	389 -- 390	[pos="808.59,1295.5 787.95,1320.2 748.23,1367.8 727.52,1392.6"];
	21 -- 22	[pos="1373.3,1159.6 1362.4,1124.6 1338.1,1046.5 1327.1,1011.2"];
	25	[height=0.5,
		pos="575.83,1407.8",
		width=0.75];
	24 -- 25	[pos="617.87,1438.4 610.36,1432.9 601.71,1426.6 594.21,1421.1"];
	25 -- 26	[pos="579.72,1389.8 587.88,1352.2 606.73,1265.3 614.91,1227.6"];
	28 -- 29	[pos="1448.2,1011 1462.5,983.59 1490.2,930.22 1504.6,902.72"];
	34 -- 35	[pos="1186.6,1318.3 1204,1311 1227.8,1301 1245.2,1293.7"];
	49 -- 50	[pos="998.65,1399.3 987.1,1372.6 965.1,1321.8 953.49,1295"];
	58	[height=0.5,
		pos="1658.4,993.55",
		width=0.75];
	57 -- 58	[pos="1696.1,921.23 1687.8,937.1 1675.6,960.48 1667.3,976.33"];
	58 -- 59	[pos="1640.6,1007.4 1614.9,1027.3 1567.9,1063.8 1542.2,1083.8"];
	62	[height=0.5,
		pos="1180,18",
		width=0.75];
	61 -- 62	[pos="1277.9,232.91 1258.2,189.74 1207.5,78.401 1187.9,35.352"];
	62 -- 63	[pos="1167,34.043 1143.6,62.895 1094.8,123.21 1071.5,151.98"];
	69	[height=0.5,
		pos="1619.7,1311.7",
		width=0.75];
	68 -- 69	[pos="1670.4,1189.7 1659.3,1216.4 1638.1,1267.3 1627,1294.1"];
	69 -- 70	[pos="1594.4,1304.6 1545.7,1290.9 1439.4,1260.9 1390.7,1247.2"];
	73	[height=0.5,
		pos="1767.2,927.65",
		width=0.75];
	72 -- 73	[pos="1766.1,873.77 1766.3,884.7 1766.6,898.55 1766.8,909.47"];
	73 -- 74	[pos="1741.4,922.26 1720.2,917.83 1690.3,911.57 1669,907.11"];
	77 -- 78	[pos="1550.8,577.19 1536.9,580.99 1519.6,585.69 1505.6,589.49"];
	80 -- 81	[pos="1352.2,349.55 1302.5,364.19 1191.7,396.86 1142.1,411.48"];
	91	[height=0.5,
		pos="305.14,555.48",
		width=0.75];
	90 -- 91	[pos="251.09,631.51 263.07,614.66 281.53,588.69 293.47,571.89"];
	91 -- 92	[pos="329.59,563.53 347.85,569.54 372.69,577.71 390.93,583.72"];
	95	[height=0.5,
		pos="75.983,731.27",
		width=0.75];
	94 -- 95	[pos="169.44,807.88 148.63,790.83 113.92,762.37 93.168,745.36"];
	95 -- 96	[pos="96.489,719.44 112.9,709.97 135.8,696.76 152.2,687.3"];
	99	[height=0.5,
		pos="1024.7,1494.3",
		width=0.75];
	98 -- 99	[pos="983.63,1472.1 990.1,1475.6 997.22,1479.4 1003.7,1482.9"];
	99 -- 100	[pos="1029.2,1476.3 1036.4,1448.1 1050.1,1393.8 1057.2,1365.6"];
	102 -- 103	[pos="423.46,633.58 453.13,620.05 505.21,596.29 534.87,582.76"];
	108	[height=0.5,
		pos="898.69,1506.9",
		width=0.75];
	107 -- 108	[pos="810.58,1473.5 829.56,1480.7 856.04,1490.7 875.01,1497.9"];
	108 -- 109	[pos="897.65,1488.9 895.83,1457.6 892.11,1393.7 890.29,1362.4"];
	111 -- 112	[pos="341.04,1188.8 359.05,1172.5 388.1,1146.2 406.12,1129.8"];
	119	[height=0.5,
		pos="1057.3,123.14",
		width=0.75];
	118 -- 119	[pos="1266.6,197.76 1221.7,181.77 1126,147.64 1081.3,131.69"];
	119 -- 120	[pos="1039.2,136.53 993.79,170.18 875.15,258.07 829.69,291.75"];
	123	[height=0.5,
		pos="1717.7,1037.6",
		width=0.75];
	122 -- 123	[pos="1817.5,901.01 1796,930.45 1751,991.99 1729.6,1021.3"];
	123 -- 124	[pos="1699.4,1051.2 1674.4,1070 1629.5,1103.4 1604.5,1122.1"];
	127	[height=0.5,
		pos="1120.6,179.25",
		width=0.75];
	126 -- 127	[pos="1327.5,235.79 1282.8,223.59 1190.5,198.36 1145.9,186.16"];
	127 -- 128	[pos="1101.6,192.33 1055.4,224.01 937.79,304.6 891.51,336.33"];
	130 -- 131	[pos="752.73,355.19 693.56,365.92 550.34,391.91 491.02,402.67"];
	133 -- 134	[pos="1571.1,997.06 1528.8,1009.5 1444,1034.4 1402,1046.7"];
	136 -- 137	[pos="1767.4,742.85 1739.7,759.09 1690.2,788.06 1662.3,804.39"];
	141 -- 142	[pos="1653.9,490.08 1622.7,500.76 1568.9,519.17 1537.8,529.82"];
	147	[height=0.5,
		pos="1618.5,1267.7",
		width=0.75];
	146 -- 147	[pos="1647.2,1076.8 1641.3,1116.5 1627.2,1210.2 1621.3,1249.7"];
	147 -- 148	[pos="1593.1,1261.7 1536.2,1248.2 1399.6,1215.7 1342.5,1202.2"];
	151	[height=0.5,
		pos="1375.9,1290.7",
		width=0.75];
	150 -- 151	[pos="1535.8,1232.4 1500.5,1245.3 1434.9,1269.2 1399.7,1282"];
	151 -- 152	[pos="1350.4,1284.6 1289.9,1270.1 1138.1,1233.8 1077.2,1219.2"];
	156	[height=0.5,
		pos="183.44,972.31",
		width=0.75];
	155 -- 156	[pos="230.98,1120.4 220.73,1088.5 199.32,1021.8 189.1,989.94"];
	156 -- 157	[pos="191.23,954.96 208.48,916.52 249.76,824.54 267,786.14"];
	160 -- 161	[pos="506.6,645.6 530.09,611.79 583.7,534.61 607.17,500.84"];
	164	[height=0.5,
		pos="27,929.04",
		width=0.75];
	163 -- 164	[pos="152.15,1052.5 125.13,1025.9 69.281,970.75 42.279,944.11"];
	164 -- 165	[pos="39.773,912.92 63.479,883.02 114.03,819.24 137.82,789.23"];
	168	[height=0.5,
		pos="1044,1539.2",
		width=0.75];
	167 -- 168	[pos="992.45,1547.2 1000.6,1546 1009.5,1544.6 1017.6,1543.3"];
	168 -- 169	[pos="1049.4,1521.3 1058,1492.9 1074.8,1437.7 1083.4,1409.3"];
	174	[height=0.5,
		pos="1369.3,1372.1",
		width=0.75];
	173 -- 174	[pos="1204.3,1423.4 1240.8,1412.1 1308.5,1391 1344.8,1379.7"];
	174 -- 175	[pos="1375.6,1354.6 1389.2,1317 1421,1229.2 1434.5,1191.7"];
	181	[height=0.5,
		pos="1493.8,1219.6",
		width=0.75];
	180 -- 181	[pos="1332.1,1316.1 1367.1,1295.2 1438.5,1252.6 1473.5,1231.7"];
	181 -- 182	[pos="1485.9,1202.1 1463.7,1152.7 1400.7,1012.6 1378.6,963.41"];
	190 -- 191	[pos="955.21,1401.9 984.7,1379.9 1042.6,1336.6 1072.1,1314.6"];
	195	[height=0.5,
		pos="124.68,834.2",
		width=0.75];
	194 -- 195	[pos="121.46,935.03 122.18,912.68 123.38,874.85 124.1,852.43"];
	195 -- 196	[pos="140.36,819.51 173.81,788.18 251.84,715.08 285.48,683.56"];
	199	[height=0.5,
		pos="41.435,851.47",
		width=0.75];
	198 -- 199	[pos="56.376,961.19 53.061,936.84 47.188,893.71 43.878,869.41"];
	199 -- 200	[pos="53.854,835.39 72.949,810.66 109.32,763.56 128.51,738.71"];
	202 -- 203	[pos="807.01,1399.8 823.97,1376.8 854.78,1335.1 871.78,1312.1"];
	206	[height=0.5,
		pos="297.92,896.08",
		width=0.75];
	205 -- 206	[pos="222.9,1006.9 239.44,982.45 270.09,937.17 286.63,912.74"];
	206 -- 207	[pos="313.67,881.17 350.56,846.25 442.21,759.5 478.9,724.77"];
	213 -- 214	[pos="826.28,1090.5 862.74,1052.7 956.77,955.19 993.12,917.48"];
	220 -- 221	[pos="590.3,972.56 644.63,990.89 776.13,1035.3 830.59,1053.6"];
	223 -- 224	[pos="598.51,296.79 629.17,280.74 685.45,251.28 716.17,235.21"];
	227	[height=0.5,
		pos="368.87,401.53",
		width=0.75];
	226 -- 227	[pos="327.62,405.63 332.39,405.15 337.35,404.66 342.11,404.19"];
	227 -- 228	[pos="390.79,412.31 408.02,420.79 431.93,432.54 449.16,441.01"];
	230 -- 231	[pos="209.79,514.8 213.83,520.15 218.31,526.09 222.34,531.43"];
	240	[height=0.5,
		pos="784.66,134.31",
		width=0.75];
	239 -- 240	[pos="650.48,249.21 679.49,224.37 738.8,173.58 767.86,148.7"];
	240 -- 241	[pos="798.02,149.99 828.1,185.32 900.92,270.83 931.08,306.24"];
	244	[height=0.5,
		pos="298.97,1125.2",
		width=0.75];
	243 -- 244	[pos="251.99,995.09 262.19,1023.4 282.18,1078.7 292.49,1107.3"];
	244 -- 245	[pos="325.64,1128.8 382.68,1136.4 515.93,1154.3 572.91,1161.9"];
	251 -- 252	[pos="442.63,995.46 409.04,960.79 327.64,876.74 294.21,842.23"];
	255	[height=0.5,
		pos="1124,329.72",
		width=0.75];
	254 -- 255	[pos="1311.4,489.33 1273.1,456.65 1179,376.53 1140.6,343.89"];
	255 -- 256	[pos="1103.9,341.76 1078.5,356.93 1035.2,382.85 1009.8,398.06"];
	258 -- 259	[pos="1630.2,1207.7 1603,1175.3 1541.9,1102.2 1514.7,1069.7"];
	261 -- 262	[pos="1577,759.7 1545.7,739.36 1484.6,699.76 1453.4,679.49"];
	271	[height=0.5,
		pos="477.62,201.29",
		width=0.75];
	270 -- 271	[pos="631.38,173.46 597.27,179.63 537.94,190.37 503.82,196.55"];
	271 -- 272	[pos="479.1,219.43 480.69,239.08 483.23,270.27 484.83,289.96"];
	275	[height=0.5,
		pos="334.26,339.24",
		width=0.75];
	274 -- 275	[pos="398.73,244.26 384.43,265.32 359.79,301.63 345.47,322.73"];
	275 -- 276	[pos="322.79,355.74 307.57,377.64 280.85,416.06 265.64,437.94"];
	280 -- 281	[pos="1481.9,417.19 1489.9,462.03 1510.6,577.66 1518.5,622.37"];
	285 -- 286	[pos="1157.4,151.67 1162.1,196.17 1174.2,310.77 1178.9,355.49"];
	289	[height=0.5,
		pos="923.51,167.3",
		width=0.75];
	288 -- 289	[pos="903.14,109.19 907.39,121.33 913.03,137.42 917.3,149.59"];
	289 -- 290	[pos="915.22,184.55 907.11,201.4 894.83,226.93 886.69,243.86"];
	300	[height=0.5,
		pos="1031.9,34.625",
		width=0.75];
	299 -- 300	[pos="867.99,124.07 903.7,104.58 975.36,65.479 1010.9,46.08"];
	300 -- 301	[pos="1034.7,52.737 1041.2,94.342 1057.1,196.35 1063.5,237.9"];
	305 -- 306	[pos="829.41,239.48 852.16,266.86 898.69,322.85 921.49,350.29"];
	309	[height=0.5,
		pos="675.5,212.79",
		width=0.75];
	308 -- 309	[pos="576.24,242.23 597.88,235.82 629.11,226.55 650.74,220.14"];
	309 -- 310	[pos="693.05,226.53 704.77,235.71 720.13,247.73 731.87,256.92"];
	318 -- 319	[pos="449.44,315.68 509.76,332.17 662.2,373.85 722.73,390.39"];
	321 -- 322	[pos="567.21,403.3 621.39,418.38 747.96,453.62 802.09,468.69"];
	327 -- 328	[pos="349.87,964.15 395.1,975.26 488.6,998.23 533.81,1009.3"];
	330 -- 331	[pos="256.73,905.35 287.32,921.46 343.48,951.03 374.12,967.17"];
	336 -- 337	[pos="1516.4,992.31 1502.4,962.28 1473.7,900.89 1459.6,870.81"];
	341 -- 342	[pos="1216.6,1349.5 1200.4,1328.9 1172.6,1293.3 1156.4,1272.6"];
	346	[height=0.5,
		pos="1052.2,79.139",
		width=0.75];
	345 -- 346	[pos="1006.3,143.96 1016.3,129.86 1030.6,109.65 1040.6,95.559"];
	346 -- 347	[pos="1053,97.211 1054.9,138.73 1059.3,240.51 1061.2,281.97"];
	350 -- 351	[pos="338.27,730.07 355.1,771.41 397.36,875.18 414.29,916.75"];
	354	[height=0.5,
		pos="1692.4,426.67",
		width=0.75];
	353 -- 354	[pos="1740.3,554.51 1729.8,526.57 1709.4,472.25 1699,444.27"];
	354 -- 355	[pos="1666.4,431.8 1629,439.18 1560.4,452.72 1523,460.11"];
	357 -- 358	[pos="1620.6,604.91 1579.8,593.43 1499.5,570.88 1458.6,559.41"];
	361	[height=0.5,
		pos="1532.5,323.76",
		width=0.75];
	360 -- 361	[pos="1615,406.73 1596.6,388.26 1566,357.45 1547.7,339.02"];
	361 -- 362	[pos="1507.7,331.06 1448.1,348.57 1297.7,392.82 1237.9,410.39"];
	368 -- 369	[pos="1438.4,308.41 1414,328.72 1369.2,365.99 1344.7,386.33"];
	372	[height=0.5,
		pos="1116.2,40.41",
		width=0.75];
	371 -- 372	[pos="1218.4,56.871 1196.2,53.299 1164.6,48.214 1142.5,44.643"];
	372 -- 373	[pos="1107.1,57.684 1085.7,98.142 1032.6,198.65 1011.4,238.89"];
	376	[height=0.5,
		pos="1598.9,1179.6",
		width=0.75];
	375 -- 376	[pos="1635.2,963.63 1627.9,1007.2 1609.3,1118 1601.9,1161.6"];
	376 -- 377	[pos="1572.2,1176.7 1518,1170.6 1395.9,1156.9 1341.7,1150.8"];
	390 -- 391	[pos="699.7,1393 680.44,1372.4 646.63,1336.2 627.38,1315.6"];
}
