graph {
	graph [bb="0,0,361.32,300.49",
		outputorder=edgesfirst,
		overlap=prism,
		size="50,50!",
		start=2401
	];
	node [label="\N"];
	0	[height=0.5,
		pos="27,216.58",
		width=0.75];
	2	[height=0.5,
		pos="81.047,148.83",
		width=0.75];
	0 -- 2	[pos="39.808,200.52 48.424,189.72 59.735,175.54 68.331,164.77"];
	1	[height=0.5,
		pos="57.323,50.462",
		width=0.75];
	0 -- 1	[pos="30.303,198.48 36.136,166.53 48.195,100.47 54.025,68.533"];
	4	[height=0.5,
		pos="160.53,115",
		width=0.75];
	0 -- 4	[pos="45.008,202.88 70.492,183.49 116.82,148.25 142.38,128.81"];
	3	[height=0.5,
		pos="210.24,190.33",
		width=0.75];
	0 -- 3	[pos="53.645,212.76 88.387,207.78 148.81,199.13 183.57,194.15"];
	6	[height=0.5,
		pos="165.09,282.49",
		width=0.75];
	0 -- 6	[pos="49.186,227.17 74.954,239.47 117.21,259.64 142.96,271.93"];
	7	[height=0.5,
		pos="134.56,199.55",
		width=0.75];
	0 -- 7	[pos="53.311,212.41 69.978,209.77 91.457,206.37 108.14,203.73"];
	5	[height=0.5,
		pos="209.47,18",
		width=0.75];
	2 -- 5	[pos="96.03,133.56 120.77,108.36 169.9,58.312 194.58,33.167"];
	2 -- 3	[pos="105.65,156.73 128.64,164.12 162.77,175.08 185.73,182.45"];
	2 -- 6	[pos="91.521,165.49 107.63,191.1 138.3,239.88 154.48,265.62"];
	10	[height=0.5,
		pos="268.84,258.59",
		width=0.75];
	2 -- 10	[pos="101.5,160.78 137.63,181.9 212.31,225.55 248.41,246.65"];
	1 -- 2	[pos="61.675,68.504 65.955,86.252 72.453,113.19 76.724,130.9"];
	1 -- 4	[pos="77.222,62.905 95.497,74.333 122.43,91.178 140.69,102.59"];
	1 -- 5	[pos="83.132,44.955 111.11,38.986 155.5,29.514 183.53,23.534"];
	1 -- 7	[pos="66.183,67.563 81.002,96.168 110.65,153.41 125.56,182.18"];
	11	[height=0.5,
		pos="222.53,89.514",
		width=0.75];
	1 -- 11	[pos="82.775,56.478 113.82,63.817 165.99,76.149 197.05,83.491"];
	4 -- 5	[pos="169.28,97.657 178.18,80.002 191.91,52.793 200.79,35.191"];
	4 -- 11	[pos="183.61,105.51 188.71,103.41 194.11,101.19 199.22,99.096"];
	8	[height=0.5,
		pos="314.63,95.058",
		width=0.75];
	4 -- 8	[pos="187.37,111.53 215.65,107.87 259.93,102.14 288.09,98.492"];
	5 -- 8	[pos="227.78,31.423 246.97,45.48 276.93,67.435 296.17,81.531"];
	9	[height=0.5,
		pos="334.32,179.09",
		width=0.75];
	5 -- 9	[pos="221.89,34.035 245.7,64.755 297.51,131.6 321.57,162.64"];
	3 -- 4	[pos="199.21,173.61 190.97,161.12 179.76,144.14 171.53,131.67"];
	3 -- 5	[pos="210.16,172.21 210.01,139.11 209.7,69.24 209.55,36.132"];
	3 -- 10	[pos="223.84,206.16 233.3,217.19 245.87,231.83 255.33,242.84"];
	3 -- 9	[pos="237.17,187.89 257.98,186 286.65,183.41 307.45,181.53"];
	6 -- 10	[pos="190.73,276.58 206.7,272.9 227.16,268.19 243.13,264.51"];
	6 -- 7	[pos="158.61,264.9 153.43,250.82 146.2,231.18 141.02,217.11"];
	6 -- 11	[pos="170.39,264.68 181.33,227.92 206.31,144.01 217.24,107.28"];
	6 -- 9	[pos="185.16,270.22 217.73,250.32 281.71,211.23 314.26,191.34"];
	7 -- 10	[pos="157.34,209.56 182.03,220.42 221.21,237.65 245.95,248.52"];
	7 -- 11	[pos="147.54,183.31 164.27,162.39 193.17,126.24 209.78,105.46"];
	7 -- 8	[pos="155.21,187.56 189.95,167.4 259.64,126.97 294.21,106.9"];
	8 -- 10	[pos="309.64,112.87 300.84,144.33 282.63,209.36 273.82,240.8"];
	8 -- 11	[pos="287.5,93.425 275.5,92.703 261.44,91.856 249.47,91.136"];
	8 -- 9	[pos="318.8,112.88 322.15,127.14 326.81,147.04 330.15,161.3"];
	9 -- 10	[pos="321.07,195.18 309.63,209.06 293.21,229 281.85,242.8"];
	9 -- 11	[pos="316.85,165.1 295.85,148.27 260.82,120.2 239.88,103.41"];
}
