graph {
	graph [bb="0,0,410.53,358.65",
		outputorder=edgesfirst,
		overlap=prism,
		size="50,50!",
		start=7758
	];
	node [label="\N"];
	0	[height=0.5,
		pos="27,220.29",
		width=0.75];
	1	[height=0.5,
		pos="80.076,158.1",
		width=0.75];
	0 -- 1	[pos="40.393,204.6 48.378,195.24 58.486,183.39 66.503,174"];
	4	[height=0.5,
		pos="101.62,255.8",
		width=0.75];
	0 -- 4	[pos="48.984,230.75 58.613,235.33 69.891,240.7 79.532,245.29"];
	5	[height=0.5,
		pos="142.94,195.53",
		width=0.75];
	0 -- 5	[pos="52.73,214.79 71.809,210.72 97.72,205.19 116.88,201.1"];
	2	[height=0.5,
		pos="130.87,82.933",
		width=0.75];
	1 -- 2	[pos="91.348,141.41 99.765,128.96 111.22,112.01 119.63,99.568"];
	1 -- 4	[pos="84.027,176.02 87.889,193.53 93.739,220.07 97.618,237.66"];
	1 -- 5	[pos="100.31,170.15 107.49,174.42 115.56,179.23 122.74,183.5"];
	6	[height=0.5,
		pos="192.87,123.07",
		width=0.75];
	1 -- 6	[pos="104.83,150.41 123.64,144.57 149.38,136.57 168.18,130.74"];
	3	[height=0.5,
		pos="169.17,18",
		width=0.75];
	2 -- 3	[pos="140.93,65.873 146.52,56.404 153.44,44.659 159.04,35.172"];
	2 -- 5	[pos="132.81,101.02 135.06,122.04 138.75,156.49 141,177.48"];
	2 -- 6	[pos="150.49,95.633 157.72,100.32 165.92,105.63 173.17,110.32"];
	7	[height=0.5,
		pos="232.61,61.108",
		width=0.75];
	2 -- 7	[pos="156.8,77.369 172.11,74.086 191.42,69.944 206.72,66.662"];
	3 -- 6	[pos="173.19,35.824 177.55,55.145 184.47,85.805 188.83,105.16"];
	3 -- 7	[pos="188.2,30.934 196.23,36.39 205.56,42.728 213.59,48.183"];
	4 -- 5	[pos="112.91,239.33 118.74,230.82 125.83,220.48 131.66,211.98"];
	8	[height=0.5,
		pos="180.42,302.81",
		width=0.75];
	4 -- 8	[pos="121.91,267.9 133.68,274.92 148.44,283.73 160.19,290.74"];
	9	[height=0.5,
		pos="218.67,239.91",
		width=0.75];
	4 -- 9	[pos="128.18,252.19 147.2,249.61 172.72,246.15 191.81,243.56"];
	5 -- 6	[pos="154.27,179.09 162.44,167.23 173.42,151.29 181.59,139.45"];
	5 -- 8	[pos="149.13,213.24 156.07,233.12 167.27,265.18 174.22,285.06"];
	5 -- 9	[pos="163.23,207.42 174.1,213.79 187.44,221.61 198.32,227.99"];
	10	[height=0.5,
		pos="267.92,168.83",
		width=0.75];
	5 -- 10	[pos="168.83,190 190.28,185.42 220.61,178.94 242.06,174.36"];
	6 -- 7	[pos="203.52,106.47 209.22,97.576 216.23,86.656 221.93,77.759"];
	6 -- 9	[pos="196.85,141.07 201.71,163.09 209.89,200.14 214.73,222.09"];
	6 -- 10	[pos="212.98,135.33 223.75,141.9 236.98,149.96 247.75,156.53"];
	11	[height=0.5,
		pos="310.57,109.73",
		width=0.75];
	6 -- 11	[pos="219.58,120.04 238.71,117.88 264.36,114.97 283.56,112.79"];
	7 -- 10	[pos="238.44,78.896 244.98,98.855 255.53,131.05 262.08,151.02"];
	7 -- 11	[pos="252.69,73.63 264.42,80.946 279.16,90.141 290.83,97.421"];
	8 -- 9	[pos="190.67,285.95 196.16,276.93 202.9,265.85 208.39,256.81"];
	12	[height=0.5,
		pos="248.85,340.65",
		width=0.75];
	8 -- 12	[pos="201.32,314.37 209.66,318.97 219.24,324.27 227.6,328.9"];
	13	[height=0.5,
		pos="281.54,279.52",
		width=0.75];
	8 -- 13	[pos="206.2,296.87 221.41,293.36 240.6,288.95 255.81,285.44"];
	9 -- 10	[pos="230.09,223.43 238.05,211.94 248.61,196.69 256.56,185.23"];
	9 -- 12	[pos="224.06,257.92 229.56,276.26 238.02,304.52 243.5,322.8"];
	9 -- 13	[pos="238.56,252.45 245.9,257.07 254.21,262.31 261.56,266.93"];
	14	[height=0.5,
		pos="330.67,207.29",
		width=0.75];
	9 -- 14	[pos="243.52,232.67 262.08,227.27 287.34,219.91 305.88,214.51"];
	10 -- 11	[pos="279.8,152.37 285.71,144.17 292.84,134.29 298.75,126.11"];
	10 -- 13	[pos="270.17,187.11 272.69,207.62 276.76,240.69 279.29,261.21"];
	10 -- 14	[pos="288.12,181.21 295.28,185.6 303.34,190.54 310.5,194.93"];
	15	[height=0.5,
		pos="383.53,152.55",
		width=0.75];
	10 -- 15	[pos="294.44,165.1 313.11,162.47 338,158.96 356.73,156.32"];
	11 -- 14	[pos="314.25,127.63 317.86,145.12 323.32,171.61 326.93,189.18"];
	11 -- 15	[pos="330.89,121.66 340.93,127.55 353.01,134.64 363.06,140.54"];
	12 -- 13	[pos="257.96,323.62 262.42,315.28 267.78,305.26 272.26,296.88"];
	13 -- 14	[pos="292.93,262.77 300.87,251.1 311.41,235.6 319.33,223.95"];
	14 -- 15	[pos="345.39,192.04 352.72,184.45 361.56,175.3 368.88,167.72"];
}
