graph {
	graph [bb="0,0,404.21,386.02",
		outputorder=edgesfirst,
		overlap=prism,
		size="50,50!",
		start=482
	];
	node [label="\N"];
	0	[height=0.5,
		pos="27,237.11",
		width=0.75];
	1	[height=0.5,
		pos="77.479,172.17",
		width=0.75];
	0 -- 1	[pos="39.478,221.05 47.186,211.14 57.048,198.45 64.794,188.49"];
	4	[height=0.5,
		pos="102.24,270.37",
		width=0.75];
	0 -- 4	[pos="49.573,247.09 59.096,251.3 70.158,256.19 79.679,260.4"];
	5	[height=0.5,
		pos="141.1,208.3",
		width=0.75];
	0 -- 5	[pos="52.322,230.71 71.23,225.94 96.955,219.44 115.85,214.67"];
	2	[height=0.5,
		pos="124.69,93.103",
		width=0.75];
	1 -- 2	[pos="87.491,155.4 95.503,141.99 106.68,123.26 114.69,109.85"];
	1 -- 4	[pos="82.02,190.18 86.487,207.9 93.267,234.8 97.724,252.47"];
	1 -- 5	[pos="98.31,184 105.41,188.03 113.35,192.54 120.44,196.57"];
	6	[height=0.5,
		pos="186.77,132.02",
		width=0.75];
	1 -- 6	[pos="101.19,163.46 119.52,156.72 144.78,147.44 163.1,140.71"];
	3	[height=0.5,
		pos="157.89,18",
		width=0.75];
	2 -- 3	[pos="132.39,75.684 137.75,63.551 144.87,47.437 150.23,35.325"];
	2 -- 5	[pos="127.25,111.1 130.32,132.62 135.42,168.42 138.5,190.04"];
	2 -- 6	[pos="144.67,105.63 151.76,110.07 159.74,115.07 166.82,119.51"];
	7	[height=0.5,
		pos="222.91,68.297",
		width=0.75];
	2 -- 7	[pos="149.98,86.715 164.53,83.04 182.77,78.436 197.36,74.75"];
	3 -- 6	[pos="162.4,35.815 167.79,57.109 176.77,92.544 182.19,113.95"];
	3 -- 7	[pos="175.65,31.744 184.83,38.841 195.99,47.475 205.16,54.57"];
	4 -- 5	[pos="112.65,253.74 118.23,244.83 125.07,233.89 130.65,224.98"];
	8	[height=0.5,
		pos="181.32,317.56",
		width=0.75];
	4 -- 8	[pos="122.6,282.52 134.41,289.57 149.23,298.41 161.02,305.45"];
	9	[height=0.5,
		pos="217.54,253.84",
		width=0.75];
	4 -- 9	[pos="128.69,266.58 147.3,263.91 172.13,260.35 190.81,257.67"];
	5 -- 6	[pos="151.23,191.37 158.8,178.73 169.1,161.53 176.66,148.9"];
	5 -- 8	[pos="147.56,225.85 155.07,246.24 167.38,279.68 174.88,300.05"];
	5 -- 9	[pos="161.58,220.5 172.64,227.09 186.24,235.19 197.26,241.76"];
	10	[height=0.5,
		pos="262.97,177.55",
		width=0.75];
	5 -- 10	[pos="166.64,201.85 187.44,196.6 216.66,189.23 237.45,183.98"];
	6 -- 7	[pos="196.45,114.94 201.64,105.8 208.01,94.569 213.2,85.42"];
	6 -- 9	[pos="191.31,149.99 197.12,173.02 207.15,212.72 212.98,235.79"];
	6 -- 10	[pos="207.19,144.22 218.21,150.8 231.77,158.9 242.75,165.47"];
	11	[height=0.5,
		pos="302.04,115.58",
		width=0.75];
	6 -- 11	[pos="213.21,128.25 231.82,125.59 256.65,122.05 275.32,119.39"];
	7 -- 10	[pos="229.35,85.85 236.82,106.24 249.08,139.67 256.55,160.04"];
	7 -- 11	[pos="243.29,80.474 255.1,87.534 269.93,96.394 281.73,103.45"];
	8 -- 9	[pos="191.03,300.49 196.22,291.34 202.6,280.11 207.8,270.96"];
	12	[height=0.5,
		pos="246.27,368.02",
		width=0.75];
	8 -- 12	[pos="199.07,331.35 208.23,338.47 219.38,347.13 228.54,354.25"];
	13	[height=0.5,
		pos="279.54,292.79",
		width=0.75];
	8 -- 13	[pos="206.62,311.18 221.17,307.51 239.4,302.91 253.99,299.23"];
	9 -- 10	[pos="227.62,236.91 235.15,224.26 245.39,207.06 252.91,194.43"];
	9 -- 12	[pos="222.02,271.68 227.39,293 236.32,328.49 241.71,349.93"];
	9 -- 13	[pos="237.5,266.38 244.58,270.82 252.54,275.83 259.62,280.27"];
	14	[height=0.5,
		pos="326.79,213.74",
		width=0.75];
	9 -- 14	[pos="241.24,245.14 259.57,238.41 284.81,229.14 303.13,222.42"];
	10 -- 11	[pos="273.44,160.94 279.04,152.05 285.93,141.13 291.54,132.23"];
	10 -- 13	[pos="265.56,195.55 268.65,217.08 273.8,252.89 276.92,274.53"];
	10 -- 14	[pos="283.86,189.4 290.99,193.44 298.95,197.95 306.06,201.99"];
	15	[height=0.5,
		pos="377.21,148.8",
		width=0.75];
	10 -- 15	[pos="288.32,171.17 307.25,166.4 333.01,159.92 351.93,155.16"];
	11 -- 14	[pos="306.58,133.59 311.04,151.3 317.82,178.18 322.28,195.85"];
	11 -- 15	[pos="324.59,125.55 334.11,129.75 345.16,134.64 354.67,138.84"];
	12 -- 13	[pos="253.98,350.57 259.36,338.42 266.5,322.27 271.87,310.14"];
	13 -- 14	[pos="289.56,276.02 297.58,262.61 308.77,243.89 316.78,230.48"];
	14 -- 15	[pos="339.25,197.69 346.95,187.77 356.8,175.08 364.54,165.12"];
}
