graph {
	graph [bb="0,0,1936,1315.7",
		outputorder=edgesfirst,
		overlap=prism,
		size="50,50!",
		start=1027
	];
	node [label="\N"];
	0	[height=0.5,
		pos="885.58,761.18",
		width=0.75];
	42	[height=0.5,
		pos="886.78,543.83",
		width=0.75];
	0 -- 42	[pos="885.68,743.02 885.9,702.11 886.45,603.09 886.68,562.08"];
	1	[height=0.5,
		pos="895.94,491.63",
		width=0.75];
	0 -- 1	[pos="886.27,743.07 888.16,693.97 893.37,558.67 895.25,509.66"];
	2	[height=0.5,
		pos="600.14,564.1",
		width=0.75];
	0 -- 2	[pos="866.41,747.94 814.41,712.04 671.13,613.11 619.23,577.28"];
	153	[height=0.5,
		pos="800.77,649.5",
		width=0.75];
	0 -- 153	[pos="873.06,744.7 856.94,723.46 829.08,686.77 813.06,665.68"];
	3	[height=0.5,
		pos="1056.9,564.55",
		width=0.75];
	0 -- 3	[pos="899.31,745.42 931.39,708.6 1011,617.27 1043.1,580.38"];
	6	[height=0.5,
		pos="1049.2,632.5",
		width=0.75];
	0 -- 6	[pos="903.08,747.41 934.4,722.77 999.7,671.41 1031.3,646.56"];
	4	[height=0.5,
		pos="721.24,784.17",
		width=0.75];
	0 -- 4	[pos="858.81,764.92 828.16,769.21 778.26,776.19 747.73,780.46"];
	5	[height=0.5,
		pos="758.35,445.65",
		width=0.75];
	0 -- 5	[pos="878.56,743.76 856.36,688.73 787.88,518.89 765.5,463.4"];
	7	[height=0.5,
		pos="533.33,574.73",
		width=0.75];
	0 -- 7	[pos="864.34,749.93 801.57,716.71 617.41,619.23 554.6,585.99"];
	201	[height=0.5,
		pos="997.11,943.69",
		width=0.75];
	0 -- 201	[pos="895.87,778.02 917.12,812.79 965.62,892.16 986.84,926.89"];
	12	[height=0.5,
		pos="1290.9,823.4",
		width=0.75];
	0 -- 12	[pos="912.17,765.26 985.7,776.55 1191.1,808.08 1264.5,819.34"];
	19	[height=0.5,
		pos="622.11,466.21",
		width=0.75];
	0 -- 19	[pos="871.41,745.32 825.56,693.98 681.52,532.72 636.02,481.79"];
	229	[height=0.5,
		pos="762.73,537.47",
		width=0.75];
	0 -- 229	[pos="876.14,743.99 853.22,702.25 794.81,595.89 772.03,554.4"];
	11	[height=0.5,
		pos="1253.8,580.6",
		width=0.75];
	0 -- 11	[pos="907.51,750.42 972.99,718.3 1166.6,623.34 1231.9,591.3"];
	113	[height=0.5,
		pos="1182.9,640.96",
		width=0.75];
	0 -- 113	[pos="908.91,751.74 964.49,729.27 1104.2,672.77 1159.7,650.35"];
	255	[height=0.5,
		pos="824.75,534.03",
		width=0.75];
	0 -- 255	[pos="880.8,743.35 869.43,700.89 840.85,594.15 829.5,551.77"];
	138	[height=0.5,
		pos="1205.2,861.52",
		width=0.75];
	0 -- 138	[pos="910.13,768.88 969.63,787.56 1121,835.08 1180.6,853.79"];
	13	[height=0.5,
		pos="685.67,901.54",
		width=0.75];
	0 -- 13	[pos="866.77,774.38 828.57,801.2 742.31,861.77 704.28,888.48"];
	120	[height=0.5,
		pos="761.53,740.16",
		width=0.75];
	0 -- 120	[pos="859.27,756.72 838.22,753.15 808.84,748.17 787.8,744.61"];
	152	[height=0.5,
		pos="801.21,872.87",
		width=0.75];
	0 -- 152	[pos="873.13,777.66 857.08,798.89 829.37,835.59 813.43,856.68"];
	17	[height=0.5,
		pos="858.69,989.28",
		width=0.75];
	0 -- 17	[pos="883.42,779.46 878.37,822.27 865.84,928.64 860.81,971.22"];
	144	[height=0.5,
		pos="681.82,563.97",
		width=0.75];
	0 -- 144	[pos="869.93,746.03 831.91,709.23 735.03,615.47 697.25,578.9"];
	39	[height=0.5,
		pos="1134.8,437.64",
		width=0.75];
	0 -- 39	[pos="897.94,745.13 940.37,690.05 1079.8,509.01 1122.4,453.78"];
	29	[height=0.5,
		pos="1098.7,681.87",
		width=0.75];
	0 -- 29	[pos="909.2,752.39 950.16,737.14 1033.9,705.97 1074.9,690.7"];
	31	[height=0.5,
		pos="1184.5,685.04",
		width=0.75];
	0 -- 31	[pos="910.8,754.75 967.1,740.41 1102.5,705.93 1159,691.53"];
	32	[height=0.5,
		pos="974.57,679.78",
		width=0.75];
	0 -- 32	[pos="901.49,746.62 917.59,731.9 942.34,709.26 958.5,694.48"];
	54	[height=0.5,
		pos="947.64,768.54",
		width=0.75];
	0 -- 54	[pos="912.26,764.34 915.15,764.68 918.09,765.03 920.98,765.38"];
	36	[height=0.5,
		pos="919.13,812.57",
		width=0.75];
	0 -- 36	[pos="896.38,777.72 900.21,783.59 904.52,790.19 908.35,796.05"];
	38	[height=0.5,
		pos="751.18,989.26",
		width=0.75];
	0 -- 38	[pos="875.69,777.95 850.84,820.13 785.95,930.26 761.08,972.46"];
	155	[height=0.5,
		pos="935.01,943.66",
		width=0.75];
	0 -- 155	[pos="890.41,779.01 899.86,813.89 920.7,890.82 930.16,925.76"];
	237	[height=0.5,
		pos="646.56,652.14",
		width=0.75];
	0 -- 237	[pos="863.09,750.92 817.54,730.14 714.81,683.27 669.16,662.45"];
	283	[height=0.5,
		pos="1138.6,773.25",
		width=0.75];
	0 -- 283	[pos="912.66,762.47 961.24,764.79 1062.7,769.63 1111.4,771.95"];
	146	[height=0.5,
		pos="932.83,591.76",
		width=0.75];
	0 -- 146	[pos="890.54,743.37 899.62,710.83 918.78,642.13 927.86,609.58"];
	49	[height=0.5,
		pos="1273,885.86",
		width=0.75];
	0 -- 49	[pos="910.11,769.07 979.89,791.53 1178.9,855.59 1248.6,878"];
	106	[height=0.5,
		pos="797.63,945.24",
		width=0.75];
	0 -- 106	[pos="877.3,778.49 860.54,813.57 822.75,892.68 805.95,927.84"];
	140	[height=0.5,
		pos="947.59,723.79",
		width=0.75];
	0 -- 140	[pos="905.88,748.94 912.81,744.76 920.54,740.1 927.45,735.93"];
	86	[height=0.5,
		pos="933.33,635.78",
		width=0.75];
	0 -- 86	[pos="892.32,743.48 901.42,719.58 917.54,677.24 926.62,653.39"];
	242	[height=0.5,
		pos="1291.2,742.12",
		width=0.75];
	0 -- 242	[pos="912.82,759.9 986.72,756.42 1190.3,746.86 1264.1,743.39"];
	95	[height=0.5,
		pos="992.1,987.71",
		width=0.75];
	0 -- 95	[pos="893.76,778.58 913.59,820.74 964.03,928.02 983.89,970.25"];
	104	[height=0.5,
		pos="673.63,608",
		width=0.75];
	0 -- 104	[pos="867.14,747.85 827.05,718.88 732.36,650.45 692.17,621.41"];
	193	[height=0.5,
		pos="788.82,585.56",
		width=0.75];
	0 -- 193	[pos="876.12,744.02 857.58,710.36 816.63,636.04 798.17,602.53"];
	262	[height=0.5,
		pos="720.73,652.04",
		width=0.75];
	0 -- 262	[pos="866.34,748.44 834.66,727.47 771.86,685.89 740.09,664.86"];
	161	[height=0.5,
		pos="871.2,915.87",
		width=0.75];
	0 -- 161	[pos="883.9,779.22 881.15,808.87 875.69,867.57 872.91,897.46"];
	176	[height=0.5,
		pos="1021.6,520.54",
		width=0.75];
	0 -- 176	[pos="895.15,744.25 920.13,700.07 987.12,581.6 1012.1,537.44"];
	42 -- 146	[pos="901.35,558.99 906.73,564.59 912.81,570.92 918.2,576.53"];
	42 -- 86	[pos="895.53,561.12 903.86,577.56 916.3,602.15 924.61,618.56"];
	158	[height=0.5,
		pos="904.57,352.58",
		width=0.75];
	42 -- 158	[pos="888.45,525.83 891.84,489.38 899.49,407.19 902.89,370.66"];
	195	[height=0.5,
		pos="966.61,356.94",
		width=0.75];
	42 -- 195	[pos="894.29,526.24 909.54,490.53 943.99,409.89 959.18,374.34"];
	1 -- 42	[pos="892.79,509.59 891.88,514.78 890.88,520.45 889.97,525.65"];
	10	[height=0.5,
		pos="914.61,447.6",
		width=0.75];
	1 -- 10	[pos="903.32,474.23 904.58,471.25 905.9,468.15 907.16,465.17"];
	1 -- 3	[pos="918.33,501.77 949,515.66 1003.8,540.47 1034.5,554.38"];
	1 -- 6	[pos="912.05,506.44 941.56,533.57 1003.9,590.91 1033.3,617.89"];
	1 -- 5	[pos="871.66,483.52 846.66,475.16 807.93,462.22 782.85,453.84"];
	167	[height=0.5,
		pos="1040.3,436.73",
		width=0.75];
	1 -- 167	[pos="919.45,482.69 946.29,472.48 989.93,455.88 1016.8,445.67"];
	1 -- 229	[pos="871.82,499.93 847.83,508.19 811.21,520.78 787.13,529.07"];
	37	[height=0.5,
		pos="842.89,446",
		width=0.75];
	1 -- 37	[pos="879.16,477.19 872.96,471.87 865.95,465.83 859.75,460.5"];
	1 -- 255	[pos="875.73,503.67 866.2,509.35 854.83,516.11 845.26,521.82"];
	23	[height=0.5,
		pos="908.63,403.59",
		width=0.75];
	1 -- 23	[pos="898.57,473.39 900.75,458.28 903.83,436.91 906,421.81"];
	269	[height=0.5,
		pos="956.55,303.12",
		width=0.75];
	1 -- 269	[pos="901.65,473.9 913.2,437.97 939.25,356.95 950.82,320.94"];
	137	[height=0.5,
		pos="994.89,588.11",
		width=0.75];
	1 -- 137	[pos="911.4,506.71 929.99,524.83 961,555.06 979.54,573.14"];
	1 -- 32	[pos="903.2,508.99 918.14,544.75 952.19,626.23 967.22,662.18"];
	1 -- 146	[pos="902.54,509.53 909.25,527.76 919.6,555.84 926.29,574.01"];
	1 -- 86	[pos="900.6,509.6 907.81,537.37 921.56,590.4 928.73,618.04"];
	1 -- 158	[pos="897.07,473.45 898.73,446.8 901.79,397.41 903.44,370.76"];
	1 -- 195	[pos="904.89,474.57 918.41,448.8 943.9,400.22 957.51,374.29"];
	233	[height=0.5,
		pos="978.25,445.8",
		width=0.75];
	1 -- 233	[pos="916.71,480.06 929.19,473.12 945.01,464.31 957.49,457.36"];
	10 -- 37	[pos="887.49,447 881.78,446.87 875.76,446.73 870.04,446.61"];
	10 -- 255	[pos="898.96,462.66 882.46,478.52 856.65,503.35 840.22,519.15"];
	2 -- 153	[pos="623.15,573.89 661.75,590.32 739.09,623.24 777.72,639.68"];
	2 -- 3	[pos="627.34,564.13 708.59,564.21 948.8,564.44 1029.9,564.52"];
	66	[height=0.5,
		pos="613.26,284.83",
		width=0.75];
	2 -- 66	[pos="601,545.78 603.38,495.05 610.05,353.23 612.42,302.86"];
	2 -- 4	[pos="609.44,581 631.98,621.97 689.34,726.18 711.91,767.21"];
	79	[height=0.5,
		pos="823.54,760.35",
		width=0.75];
	2 -- 79	[pos="616.56,578.53 657.88,614.82 765.75,709.58 807.09,745.89"];
	2 -- 7	[pos="573.73,568.3 569.21,569.02 564.51,569.77 559.98,570.49"];
	198	[height=0.5,
		pos="535.38,529.77",
		width=0.75];
	2 -- 198	[pos="578.93,552.86 571.85,549.11 563.95,544.92 556.85,541.16"];
	9	[height=0.5,
		pos="441.45,431.78",
		width=0.75];
	2 -- 9	[pos="583.15,549.94 552.61,524.47 488.76,471.23 458.31,445.83"];
	157	[height=0.5,
		pos="597.99,608.1",
		width=0.75];
	2 -- 157	[pos="599.25,582.25 599.13,584.81 599,587.44 598.88,589.99"];
	2 -- 13	[pos="604.74,582.24 619.62,640.97 666.38,825.45 681.15,883.72"];
	15	[height=0.5,
		pos="601.35,781.05",
		width=0.75];
	2 -- 15	[pos="600.24,582.22 600.47,623.06 601.02,721.89 601.25,762.82"];
	2 -- 120	[pos="614.46,579.72 645.09,613.13 716.64,691.19 747.24,724.57"];
	20	[height=0.5,
		pos="819.29,696.08",
		width=0.75];
	2 -- 20	[pos="620.36,576.28 662.11,601.42 757.41,658.81 799.12,683.93"];
	57	[height=0.5,
		pos="868.81,631.89",
		width=0.75];
	2 -- 57	[pos="625.41,570.48 676.62,583.4 792.09,612.54 843.4,625.48"];
	71	[height=0.5,
		pos="397.95,565.65",
		width=0.75];
	2 -- 71	[pos="572.87,564.31 534.17,564.61 463.74,565.15 425.11,565.44"];
	46	[height=0.5,
		pos="347.08,521.54",
		width=0.75];
	2 -- 46	[pos="573.53,559.62 524.81,551.43 421.79,534.1 373.33,525.95"];
	27	[height=0.5,
		pos="751.77,352.7",
		width=0.75];
	2 -- 27	[pos="612.04,547.51 640.38,507.99 711.63,408.65 739.92,369.21"];
	33	[height=0.5,
		pos="398.37,631.18",
		width=0.75];
	2 -- 33	[pos="575.8,572.19 537.02,585.08 461.63,610.15 422.79,623.06"];
	2 -- 237	[pos="609.31,581.49 617.5,597.03 629.43,619.65 637.57,635.08"];
	53	[height=0.5,
		pos="460.43,649.44",
		width=0.75];
	2 -- 53	[pos="580.12,576.33 553.56,592.55 506.95,621.02 480.41,637.24"];
	210	[height=0.5,
		pos="870.79,587.86",
		width=0.75];
	2 -- 210	[pos="627.08,566.46 678.96,571.02 792.16,580.96 843.96,585.51"];
	126	[height=0.5,
		pos="785.25,490.02",
		width=0.75];
	2 -- 126	[pos="623.58,554.72 659.19,540.47 726.5,513.53 762,499.32"];
	72	[height=0.5,
		pos="582.04,718.54",
		width=0.75];
	2 -- 72	[pos="598.03,582.12 594.56,611.72 587.69,670.32 584.2,700.16"];
	88	[height=0.5,
		pos="706.29,696.15",
		width=0.75];
	2 -- 88	[pos="612.94,580.03 633.34,605.41 673.01,654.75 693.44,680.17"];
	217	[height=0.5,
		pos="460.44,596.7",
		width=0.75];
	2 -- 217	[pos="574.51,570.08 549.47,575.92 511.53,584.78 486.37,590.65"];
	2 -- 262	[pos="618.45,577.46 641.12,593.99 679.5,621.97 702.24,638.56"];
	177	[height=0.5,
		pos="522.48,629.15",
		width=0.75];
	2 -- 177	[pos="583.29,578.21 570.26,589.13 552.32,604.16 539.3,615.07"];
	197	[height=0.5,
		pos="584.54,663.52",
		width=0.75];
	2 -- 197	[pos="597.28,582.33 594.46,600.27 590.19,627.5 587.38,645.4"];
	215	[height=0.5,
		pos="448.94,521.61",
		width=0.75];
	2 -- 215	[pos="575.17,557.08 547.16,549.21 501.98,536.52 473.95,528.64"];
	273	[height=0.5,
		pos="442.04,477.61",
		width=0.75];
	2 -- 273	[pos="579.14,552.61 548.91,536.07 493.41,505.71 463.12,489.14"];
	153 -- 262	[pos="773.67,650.36 765.33,650.62 756.14,650.92 747.8,651.18"];
	3 -- 10	[pos="1039.8,550.44 1012.4,527.96 959.23,484.27 931.83,461.76"];
	47	[height=0.5,
		pos="1105.2,822.48",
		width=0.75];
	3 -- 47	[pos="1060.3,582.68 1069.2,630.04 1092.9,757.03 1101.8,804.36"];
	3 -- 6	[pos="1054.8,582.76 1053.7,592.51 1052.4,604.48 1051.2,614.24"];
	3 -- 5	[pos="1033.5,555.22 977.68,532.99 837.37,477.12 781.67,454.93"];
	204	[height=0.5,
		pos="846.52,396.6",
		width=0.75];
	3 -- 204	[pos="1039.3,550.52 999.64,518.82 903.42,442.01 863.9,410.47"];
	3 -- 12	[pos="1070.9,579.96 1112.4,625.89 1234.9,761.48 1276.7,807.73"];
	3 -- 167	[pos="1054.6,546.51 1051.4,522.15 1045.8,478.99 1042.6,454.68"];
	3 -- 37	[pos="1036,552.96 995.09,530.3 904.87,480.33 863.89,457.63"];
	3 -- 11	[pos="1083.9,566.75 1121.5,569.81 1189.2,575.34 1226.8,578.4"];
	35	[height=0.5,
		pos="1112.7,608.95",
		width=0.75];
	3 -- 35	[pos="1074.2,578.35 1080.9,583.65 1088.5,589.69 1095.1,595"];
	151	[height=0.5,
		pos="1308.6,642.87",
		width=0.75];
	3 -- 151	[pos="1081.5,572.2 1129.6,587.17 1235.7,620.19 1283.9,635.18"];
	21	[height=0.5,
		pos="1417.3,506.18",
		width=0.75];
	3 -- 21	[pos="1083.4,560.25 1150.1,549.46 1324.1,521.28 1390.8,510.48"];
	16	[height=0.5,
		pos="1496.7,617.76",
		width=0.75];
	3 -- 16	[pos="1083.8,567.8 1162.4,577.31 1391.4,605.02 1469.9,614.52"];
	3 -- 20	[pos="1035.8,576.22 990.74,601.18 885.39,659.5 840.33,684.43"];
	3 -- 57	[pos="1033.1,573.08 997.01,586 928.88,610.39 892.74,623.33"];
	123	[height=0.5,
		pos="1215.2,503.53",
		width=0.75];
	3 -- 123	[pos="1080.6,555.41 1110.6,543.87 1161.7,524.14 1191.6,512.63"];
	40	[height=0.5,
		pos="1146,357.83",
		width=0.75];
	3 -- 40	[pos="1064.5,546.92 1081.3,507.87 1121.6,414.42 1138.4,375.41"];
	84	[height=0.5,
		pos="1148.7,312.67",
		width=0.75];
	3 -- 84	[pos="1063.4,546.83 1080.2,500.59 1125.4,376.58 1142.3,330.36"];
	111	[height=0.5,
		pos="1207.6,429.97",
		width=0.75];
	3 -- 111	[pos="1073.3,549.89 1102.3,524 1162.3,470.49 1191.2,444.61"];
	3 -- 27	[pos="1037.8,551.29 983.03,513.25 825.64,403.98 770.85,365.94"];
	98	[height=0.5,
		pos="751.58,401.29",
		width=0.75];
	3 -- 98	[pos="1035.4,553.07 979.39,523.09 829.07,442.72 773.03,412.76"];
	3 -- 29	[pos="1063.2,582.11 1071,604.23 1084.5,642.01 1092.4,664.18"];
	68	[height=0.5,
		pos="1091.2,488.9",
		width=0.75];
	3 -- 68	[pos="1064.9,547 1070.4,534.78 1077.7,518.55 1083.3,506.35"];
	3 -- 36	[pos="1047.4,581.59 1022.3,626.9 953.92,749.95 928.67,795.4"];
	78	[height=0.5,
		pos="1086.7,269.75",
		width=0.75];
	3 -- 78	[pos="1058.7,546.55 1064.1,493.92 1079.5,340.69 1084.9,287.89"];
	3 -- 283	[pos="1063.7,581.98 1079.1,621.27 1116.4,716.34 1131.8,755.72"];
	170	[height=0.5,
		pos="1078.3,383.93",
		width=0.75];
	3 -- 170	[pos="1059,546.57 1063.1,512.04 1072,436.79 1076.1,402.1"];
	45	[height=0.5,
		pos="1043.2,796.23",
		width=0.75];
	3 -- 45	[pos="1055.8,582.73 1053.3,626.04 1046.8,734.91 1044.2,778.14"];
	166	[height=0.5,
		pos="1246.5,686.84",
		width=0.75];
	3 -- 166	[pos="1076.5,577.17 1112.9,600.67 1190.7,650.84 1227,674.28"];
	80	[height=0.5,
		pos="1277.2,492.35",
		width=0.75];
	3 -- 80	[pos="1081.3,556.54 1123.7,542.67 1210.3,514.29 1252.7,500.39"];
	3 -- 210	[pos="1030.3,567.89 994.87,572.32 932.76,580.1 897.41,584.53"];
	59	[height=0.5,
		pos="1036.6,700.2",
		width=0.75];
	3 -- 59	[pos="1054.2,582.56 1050.3,608.51 1043.2,656.12 1039.3,682.11"];
	69	[height=0.5,
		pos="1022.7,752.21",
		width=0.75];
	3 -- 69	[pos="1053.6,582.54 1047.1,618.41 1032.5,698.44 1026,734.27"];
	65	[height=0.5,
		pos="1167.2,817.5",
		width=0.75];
	3 -- 65	[pos="1064.5,581.93 1084.6,628.14 1139.4,753.64 1159.6,799.99"];
	3 -- 126	[pos="1031.8,557.67 980.09,543.47 861.96,511.06 810.26,496.88"];
	116	[height=0.5,
		pos="1029.3,313.78",
		width=0.75];
	3 -- 116	[pos="1054.9,546.51 1049.8,500.36 1036.4,378.34 1031.3,331.99"];
	188	[height=0.5,
		pos="1153.2,501.28",
		width=0.75];
	3 -- 188	[pos="1076.4,551.74 1093.1,540.77 1117,525.03 1133.7,514.06"];
	134	[height=0.5,
		pos="1290.1,448.06",
		width=0.75];
	3 -- 134	[pos="1078.9,553.59 1123.4,531.33 1224,481.06 1268.4,458.9"];
	125	[height=0.5,
		pos="1119,545.3",
		width=0.75];
	3 -- 125	[pos="1081.4,556.94 1085.6,555.64 1090,554.28 1094.2,552.98"];
	294	[height=0.5,
		pos="1138.2,729.2",
		width=0.75];
	3 -- 294	[pos="1065.5,581.86 1081.1,613.48 1114,680.24 1129.7,711.87"];
	3 -- 233	[pos="1046,548.03 1031,525.47 1004.4,485.24 989.35,462.55"];
	3 -- 176	[pos="1044.2,548.66 1041,544.72 1037.6,540.49 1034.5,536.55"];
	200	[height=0.5,
		pos="1229.2,779.35",
		width=0.75];
	3 -- 200	[pos="1069.9,580.69 1101.9,620.6 1184.4,723.52 1216.3,763.31"];
	275	[height=0.5,
		pos="1221.6,733.37",
		width=0.75];
	3 -- 275	[pos="1071.8,579.83 1103.2,611.97 1175.7,686.24 1206.9,718.25"];
	169	[height=0.5,
		pos="1088.7,866.52",
		width=0.75];
	47 -- 169	[pos="1098.6,840.14 1097.5,843.01 1096.4,845.98 1095.3,848.85"];
	149	[height=0.5,
		pos="1145.2,911.85",
		width=0.75];
	47 -- 149	[pos="1113.1,840.14 1120.1,855.91 1130.4,878.87 1137.4,894.54"];
	241	[height=0.5,
		pos="1209.1,905.54",
		width=0.75];
	47 -- 241	[pos="1122.8,836.57 1142,851.93 1172.6,876.37 1191.7,891.65"];
	47 -- 200	[pos="1129.4,814.06 1151.3,806.46 1183.2,795.34 1205.1,787.75"];
	47 -- 275	[pos="1123.1,808.75 1145.1,791.96 1182,763.7 1203.9,746.97"];
	131	[height=0.5,
		pos="568.89,240.79",
		width=0.75];
	66 -- 131	[pos="597.74,269.43 593.34,265.06 588.56,260.32 584.17,255.96"];
	247	[height=0.5,
		pos="642,62.093",
		width=0.75];
	66 -- 247	[pos="615.61,266.61 621.02,224.73 634.26,122.07 639.65,80.26"];
	66 -- 126	[pos="626.47,300.59 658.49,338.79 739.94,435.96 772,474.2"];
	100	[height=0.5,
		pos="676.35,150.43",
		width=0.75];
	66 -- 100	[pos="621.38,267.54 633.5,241.73 656.17,193.43 668.27,167.66"];
	133	[height=0.5,
		pos="684.07,106.43",
		width=0.75];
	66 -- 133	[pos="620.18,267.4 633.72,233.29 663.57,158.09 677.13,123.93"];
	299	[height=0.5,
		pos="578.66,107.48",
		width=0.75];
	66 -- 299	[pos="609.75,266.85 603.12,232.86 588.82,159.54 582.18,125.51"];
	297	[height=0.5,
		pos="673.42,198.35",
		width=0.75];
	66 -- 297	[pos="624.86,268.16 635.58,252.75 651.42,229.98 662.06,214.68"];
	6 -- 167	[pos="1048.3,614.44 1046.6,577.14 1042.8,492.01 1041.1,454.76"];
	6 -- 35	[pos="1072.8,623.73 1078,621.8 1083.6,619.74 1088.8,617.8"];
	6 -- 137	[pos="1032,618.46 1025.7,613.27 1018.5,607.4 1012.1,602.22"];
	6 -- 29	[pos="1064.3,647.58 1070.4,653.71 1077.5,660.76 1083.6,666.88"];
	6 -- 32	[pos="1029.6,644.92 1018.7,651.82 1005.2,660.37 994.3,667.28"];
	6 -- 68	[pos="1054.4,614.61 1062.5,586.94 1077.9,534.1 1086,506.57"];
	6 -- 283	[pos="1059.8,649.2 1077,676.29 1110.8,729.5 1128,756.58"];
	6 -- 140	[pos="1032.8,647.17 1013.9,664.21 982.81,692.14 963.87,709.16"];
	6 -- 233	[pos="1042.5,614.94 1029,579.35 998.5,499.11 984.96,463.45"];
	4 -- 79	[pos="746.79,778.22 762.42,774.58 782.33,769.94 797.96,766.3"];
	4 -- 15	[pos="694.04,783.46 674.42,782.95 648.05,782.26 628.45,781.75"];
	18	[height=0.5,
		pos="455.2,849.29",
		width=0.75];
	4 -- 18	[pos="695.74,790.41 644.88,802.86 531.42,830.63 480.63,843.06"];
	261	[height=0.5,
		pos="515.37,936.63",
		width=0.75];
	4 -- 261	[pos="702.97,797.7 663.91,826.63 572.63,894.22 533.6,923.13"];
	4 -- 152	[pos="735.17,799.62 749.76,815.8 772.54,841.07 787.17,857.29"];
	194	[height=0.5,
		pos="521.75,813.54",
		width=0.75];
	4 -- 194	[pos="694.75,788.07 656.6,793.68 586.57,803.99 548.35,809.62"];
	94	[height=0.5,
		pos="532.41,765.28",
		width=0.75];
	4 -- 94	[pos="694.19,781.46 658.29,777.87 595.29,771.57 559.42,767.98"];
	4 -- 36	[pos="747.93,788 785.81,793.43 854.74,803.32 892.55,808.75"];
	4 -- 38	[pos="723.9,802.37 729.58,841.29 742.85,932.21 748.53,971.1"];
	58	[height=0.5,
		pos="631.68,857.53",
		width=0.75];
	4 -- 58	[pos="703.98,798.31 688.12,811.3 664.74,830.45 648.89,843.43"];
	224	[height=0.5,
		pos="693.87,828.2",
		width=0.75];
	4 -- 224	[pos="710.89,800.82 708.71,804.32 706.41,808.02 704.23,811.53"];
	4 -- 72	[pos="699.19,773.77 673.28,761.55 630.52,741.4 604.46,729.11"];
	213	[height=0.5,
		pos="544.4,857.55",
		width=0.75];
	4 -- 213	[pos="698.13,793.76 664.23,807.82 601.42,833.89 567.52,847.95"];
	196	[height=0.5,
		pos="857.12,806.56",
		width=0.75];
	79 -- 196	[pos="835.47,776.77 838.64,781.13 842.06,785.83 845.22,790.19"];
	79 -- 88	[pos="802.58,748.87 781.37,737.26 748.75,719.4 727.46,707.75"];
	5 -- 204	[pos="779.24,434.02 793.3,426.2 811.75,415.94 825.78,408.14"];
	5 -- 7	[pos="737.58,457.56 694.72,482.15 596.87,538.28 554.05,562.85"];
	5 -- 19	[pos="731.76,449.66 707.75,453.28 672.62,458.59 648.63,462.21"];
	8	[height=0.5,
		pos="689.57,395.4",
		width=0.75];
	5 -- 8	[pos="739.92,432.18 730.05,424.97 717.93,416.12 708.05,408.9"];
	5 -- 229	[pos="759.21,463.79 759.98,479.88 761.1,503.28 761.87,519.36"];
	5 -- 9	[pos="731.33,444.46 671.46,441.84 528.21,435.57 468.4,432.95"];
	44	[height=0.5,
		pos="851.71,189.73",
		width=0.75];
	5 -- 44	[pos="764.76,428.06 781.82,381.3 828.14,254.33 845.25,207.44"];
	5 -- 37	[pos="785.56,445.76 795.22,445.8 806.08,445.84 815.73,445.88"];
	5 -- 255	[pos="770.53,461.86 782.51,477.8 800.69,502.01 812.65,517.92"];
	22	[height=0.5,
		pos="706.49,293.92",
		width=0.75];
	5 -- 22	[pos="752.3,427.94 742.3,398.71 722.47,340.67 712.5,311.51"];
	5 -- 27	[pos="757.05,427.28 755.89,410.88 754.19,387 753.04,370.71"];
	5 -- 98	[pos="755.6,427.61 755.19,424.92 754.76,422.15 754.35,419.46"];
	253	[height=0.5,
		pos="857.73,308.56",
		width=0.75];
	5 -- 253	[pos="770.14,429.38 789.27,403 826.84,351.17 845.96,324.8"];
	127	[height=0.5,
		pos="826.04,264.52",
		width=0.75];
	5 -- 127	[pos="764.96,427.95 777.94,393.23 806.58,316.58 819.5,282.02"];
	230	[height=0.5,
		pos="774.66,308.65",
		width=0.75];
	5 -- 230	[pos="760.51,427.45 763.63,401.25 769.36,353.16 772.48,326.91"];
	109	[height=0.5,
		pos="889.32,233.73",
		width=0.75];
	5 -- 109	[pos="768.84,428.66 793.43,388.89 854.5,290.07 878.95,250.5"];
	238	[height=0.5,
		pos="789.32,210.1",
		width=0.75];
	5 -- 238	[pos="760.73,427.55 766.49,383.71 781.16,272.16 786.93,228.26"];
	204 -- 253	[pos="848.85,378.36 850.77,363.25 853.49,341.88 855.41,326.78"];
	7 -- 19	[pos="546.43,558.72 563.22,538.2 592.14,502.84 608.96,482.29"];
	7 -- 9	[pos="522.61,558.05 504.91,530.5 469.76,475.82 452.1,448.35"];
	7 -- 157	[pos="554.86,585.84 561.77,589.41 569.42,593.36 576.34,596.93"];
	7 -- 144	[pos="560.22,572.78 586.97,570.84 627.78,567.89 654.63,565.94"];
	25	[height=0.5,
		pos="308.5,565.57",
		width=0.75];
	7 -- 25	[pos="506.21,573.62 463,571.86 378.99,568.44 335.71,566.68"];
	30	[height=0.5,
		pos="202.78,676.56",
		width=0.75];
	7 -- 30	[pos="508.76,582.3 447.56,601.15 288.88,650.03 227.51,668.94"];
	7 -- 33	[pos="510.44,584.3 485.62,594.68 446.24,611.16 421.38,621.55"];
	96	[height=0.5,
		pos="274.22,657.67",
		width=0.75];
	7 -- 96	[pos="508.96,582.53 459.57,598.34 348.21,633.99 298.72,649.83"];
	263	[height=0.5,
		pos="414.85,746.1",
		width=0.75];
	7 -- 263	[pos="521.97,591.16 499.32,623.92 448.79,697 426.17,729.72"];
	7 -- 237	[pos="552.28,587.69 573.18,601.97 606.62,624.83 627.55,639.14"];
	212	[height=0.5,
		pos="336.29,658.32",
		width=0.75];
	7 -- 212	[pos="510.34,584.48 472.38,600.59 397.01,632.56 359.14,648.63"];
	7 -- 53	[pos="518.58,589.85 505.93,602.81 487.8,621.39 475.16,634.35"];
	101	[height=0.5,
		pos="290.21,746.69",
		width=0.75];
	7 -- 101	[pos="514.66,587.94 469.4,619.95 354.27,701.38 308.95,733.44"];
	7 -- 104	[pos="559.06,580.83 584.38,586.84 622.8,595.95 648.06,601.94"];
	277	[height=0.5,
		pos="349.17,702.39",
		width=0.75];
	7 -- 277	[pos="514.32,587.91 478.94,612.44 403.39,664.81 368.09,689.28"];
	132	[height=0.5,
		pos="336.26,609.68",
		width=0.75];
	7 -- 132	[pos="507.16,579.37 469.47,586.05 400.29,598.32 362.54,605.02"];
	145	[height=0.5,
		pos="477.13,721.25",
		width=0.75];
	7 -- 145	[pos="526.55,592.4 515.75,620.56 494.75,675.31 483.93,703.51"];
	7 -- 197	[pos="543.21,591.85 552.27,607.57 565.64,630.74 574.7,646.45"];
	257	[height=0.5,
		pos="352.64,746.41",
		width=0.75];
	7 -- 257	[pos="517.61,589.66 483.35,622.22 402.3,699.23 368.19,731.63"];
	12 -- 151	[pos="1292.7,805.43 1296,770.91 1303.4,695.7 1306.8,661.03"];
	12 -- 138	[pos="1268.4,833.41 1255.9,838.97 1240.4,845.87 1227.9,851.44"];
	12 -- 16	[pos="1306,808.27 1344.1,770.25 1443.5,670.95 1481.5,632.9"];
	28	[height=0.5,
		pos="1441.9,784.45",
		width=0.75];
	12 -- 28	[pos="1316.2,816.88 1344.1,809.69 1388.7,798.19 1416.6,790.99"];
	181	[height=0.5,
		pos="1533,778.12",
		width=0.75];
	12 -- 181	[pos="1317.3,818.46 1363.8,809.76 1460.1,791.75 1506.6,783.05"];
	12 -- 283	[pos="1266.4,815.34 1238,805.98 1191.4,790.64 1163.1,781.29"];
	12 -- 49	[pos="1285.8,841.13 1283.4,849.5 1280.6,859.47 1278.2,867.87"];
	67	[height=0.5,
		pos="1476.7,925.19",
		width=0.75];
	12 -- 67	[pos="1311.9,834.87 1347.6,854.48 1420.1,894.18 1455.8,913.75"];
	64	[height=0.5,
		pos="1437.7,970.81",
		width=0.75];
	12 -- 64	[pos="1306.1,838.62 1334.2,866.86 1394.2,927.1 1422.4,955.45"];
	136	[height=0.5,
		pos="1313.6,932.69",
		width=0.75];
	12 -- 136	[pos="1294.7,841.44 1298.9,861.69 1305.6,894.35 1309.9,914.61"];
	185	[height=0.5,
		pos="1429.1,875.73",
		width=0.75];
	12 -- 185	[pos="1314.7,832.39 1340,841.98 1379.8,857.07 1405.2,866.68"];
	118	[height=0.5,
		pos="1577.5,942.78",
		width=0.75];
	12 -- 118	[pos="1313.9,832.96 1367.5,855.32 1500.7,910.76 1554.4,933.16"];
	73	[height=0.5,
		pos="1483.5,1014.8",
		width=0.75];
	12 -- 73	[pos="1306,838.42 1342,874.2 1432.5,964.16 1468.5,999.88"];
	218	[height=0.5,
		pos="1545.7,990.54",
		width=0.75];
	12 -- 218	[pos="1310.5,836.23 1358,867.42 1479.1,946.89 1526.4,977.89"];
	288	[height=0.5,
		pos="1313.6,991.96",
		width=0.75];
	12 -- 288	[pos="1293.3,841.43 1297.7,873.79 1306.8,941.35 1311.1,973.8"];
	216	[height=0.5,
		pos="1375.6,977.14",
		width=0.75];
	12 -- 216	[pos="1300.3,840.44 1316.6,869.99 1349.9,930.42 1366.2,960.03"];
	286	[height=0.5,
		pos="1514,877.53",
		width=0.75];
	12 -- 286	[pos="1316.5,829.61 1359.4,840.02 1445.4,860.89 1488.3,871.31"];
	19 -- 229	[pos="643.77,477.19 670.12,490.54 714.35,512.95 740.81,526.36"];
	19 -- 144	[pos="632.51,483.24 643.47,501.18 660.63,529.27 671.54,547.14"];
	19 -- 22	[pos="630.51,449.06 646.64,416.12 681.8,344.34 698,311.26"];
	150	[height=0.5,
		pos="627.54,372.86",
		width=0.75];
	19 -- 150	[pos="623.16,448.21 624.11,431.79 625.51,407.63 626.47,391.12"];
	52	[height=0.5,
		pos="542.06,286.36",
		width=0.75];
	19 -- 52	[pos="614.29,448.64 598.95,414.17 565.07,338.06 549.8,303.74"];
	251	[height=0.5,
		pos="442.76,348.12",
		width=0.75];
	19 -- 251	[pos="602.57,453.35 567.98,430.57 496.38,383.42 462,360.79"];
	248	[height=0.5,
		pos="689.57,337.97",
		width=0.75];
	19 -- 248	[pos="631.07,449.18 643.97,424.65 667.65,379.63 680.57,355.07"];
	245	[height=0.5,
		pos="503.48,430.38",
		width=0.75];
	19 -- 245	[pos="597.24,458.7 576.99,452.58 548.55,443.99 528.32,437.88"];
	19 -- 193	[pos="640.59,479.44 672.63,502.38 738.15,549.29 770.26,572.28"];
	164	[height=0.5,
		pos="479.38,292.13",
		width=0.75];
	19 -- 164	[pos="608.94,450.15 581.75,416.98 519.69,341.29 492.52,308.16"];
	171	[height=0.5,
		pos="565.48,390.1",
		width=0.75];
	19 -- 171	[pos="610.1,450.07 600.56,437.24 587.26,419.37 577.67,406.48"];
	276	[height=0.5,
		pos="604.46,328.84",
		width=0.75];
	19 -- 276	[pos="619.8,448.25 616.42,421.92 610.15,373.13 606.77,346.8"];
	270	[height=0.5,
		pos="504.74,474.39",
		width=0.75];
	19 -- 270	[pos="595.18,468.09 576.23,469.41 550.96,471.17 531.95,472.49"];
	198 -- 215	[pos="508.5,527.24 498.1,526.25 486.21,525.13 475.8,524.15"];
	198 -- 273	[pos="514.66,518.2 499.3,509.61 478.44,497.95 463.02,489.33"];
	167 -- 233	[pos="1013.6,440.63 1010.7,441.05 1007.8,441.48 1004.9,441.9"];
	8 -- 19	[pos="674.93,410.77 663.62,422.64 648.03,439.01 636.72,450.88"];
	8 -- 229	[pos="698.39,412.54 712.46,439.84 739.79,492.93 753.88,520.27"];
	8 -- 22	[pos="692.59,377.26 695.67,358.79 700.42,330.32 703.49,311.91"];
	8 -- 150	[pos="665.76,386.75 661.12,385.06 656.24,383.29 651.59,381.6"];
	8 -- 230	[pos="704.39,380.29 719.91,364.46 744.15,339.75 759.72,323.88"];
	8 -- 248	[pos="689.57,377.23 689.57,370.52 689.57,362.93 689.57,356.22"];
	9 -- 66	[pos="458.24,417.42 491.17,389.25 563.88,327.07 596.66,299.03"];
	14	[height=0.5,
		pos="317.37,433.49",
		width=0.75];
	9 -- 14	[pos="414.22,432.15 393.53,432.44 365.21,432.83 344.54,433.11"];
	43	[height=0.5,
		pos="213.34,389.16",
		width=0.75];
	9 -- 43	[pos="415.28,426.89 371.4,418.69 283.47,402.26 239.55,394.06"];
	9 -- 25	[pos="426.46,446.86 400.92,472.56 349.27,524.53 323.64,550.33"];
	9 -- 27	[pos="466.84,425.3 525.18,410.44 668.2,373.99 726.46,359.15"];
	9 -- 98	[pos="468.43,429.12 527.08,423.36 665.65,409.74 724.44,403.96"];
	9 -- 131	[pos="452.53,415.16 476.64,379.04 533.58,293.71 557.74,257.5"];
	81	[height=0.5,
		pos="379.42,405.04",
		width=0.75];
	9 -- 81	[pos="418.7,421.97 413.31,419.65 407.56,417.17 402.16,414.84"];
	50	[height=0.5,
		pos="304.48,477.53",
		width=0.75];
	9 -- 50	[pos="417.28,439.85 392.39,448.16 353.83,461.04 328.87,469.38"];
	190	[height=0.5,
		pos="317.4,385.33",
		width=0.75];
	9 -- 190	[pos="417.82,422.93 395.89,414.72 363.4,402.55 341.36,394.3"];
	77	[height=0.5,
		pos="393.25,303.01",
		width=0.75];
	9 -- 77	[pos="434.85,414.14 425.67,389.62 409.15,345.47 399.93,320.84"];
	228	[height=0.5,
		pos="443.93,207.3",
		width=0.75];
	9 -- 228	[pos="441.65,413.41 442.12,371.21 443.26,267.75 443.73,225.61"];
	82	[height=0.5,
		pos="354.33,241.54",
		width=0.75];
	9 -- 82	[pos="433.56,414.56 417.02,378.43 378.85,295.07 362.26,258.86"];
	281	[height=0.5,
		pos="276.19,242.4",
		width=0.75];
	9 -- 281	[pos="427.64,415.95 396.46,380.22 320.87,293.61 289.84,258.04"];
	121	[height=0.5,
		pos="287.1,289.71",
		width=0.75];
	9 -- 121	[pos="425.51,417.11 395.93,389.88 332.87,331.84 303.18,304.51"];
	227	[height=0.5,
		pos="255.37,343.66",
		width=0.75];
	9 -- 227	[pos="419.37,421.32 383.56,404.36 313.21,371.05 277.42,354.1"];
	221	[height=0.5,
		pos="327.77,338.99",
		width=0.75];
	9 -- 221	[pos="424.18,417.68 402.82,400.24 366.64,370.72 345.2,353.22"];
	9 -- 273	[pos="441.68,449.89 441.72,452.99 441.77,456.22 441.81,459.32"];
	265	[height=0.5,
		pos="416.87,254.95",
		width=0.75];
	9 -- 265	[pos="438.96,413.85 434.24,379.96 424.08,306.85 419.36,272.92"];
	55	[height=0.5,
		pos="808.13,145.69",
		width=0.75];
	44 -- 55	[pos="836.47,174.32 832.15,169.96 827.45,165.21 823.14,160.86"];
	44 -- 127	[pos="845.63,207.45 841.54,219.37 836.16,235.03 832.08,246.92"];
	44 -- 109	[pos="865.29,205.61 868.74,209.65 872.44,213.99 875.89,218.02"];
	44 -- 238	[pos="827.41,197.66 822.89,199.14 818.17,200.68 813.66,202.15"];
	162	[height=0.5,
		pos="870.24,124.7",
		width=0.75];
	44 -- 162	[pos="856.77,171.96 859.39,162.78 862.57,151.62 865.18,142.45"];
	37 -- 204	[pos="844.22,427.88 844.54,423.59 844.88,419.01 845.19,414.71"];
	37 -- 255	[pos="839.13,464.24 836,479.45 831.56,501 828.44,516.11"];
	37 -- 253	[pos="844.83,428.03 847.68,401.69 852.95,352.88 855.79,326.53"];
	11 -- 113	[pos="1237,594.9 1225.7,604.53 1210.9,617.16 1199.6,626.76"];
	11 -- 21	[pos="1276.2,570.41 1307.4,556.2 1363.7,530.58 1395,516.37"];
	11 -- 16	[pos="1280.2,584.65 1327,591.8 1423.6,606.57 1470.3,613.72"];
	93	[height=0.5,
		pos="1468.6,668.49",
		width=0.75];
	11 -- 93	[pos="1277.2,590.17 1318.6,607.13 1404.4,642.22 1445.6,659.07"];
	249	[height=0.5,
		pos="1406.6,675.84",
		width=0.75];
	11 -- 249	[pos="1273.7,593.05 1303,611.31 1357.3,645.13 1386.6,663.39"];
	108	[height=0.5,
		pos="1406.8,580.43",
		width=0.75];
	11 -- 108	[pos="1281.1,580.57 1309,580.54 1351.9,580.49 1379.6,580.46"];
	159	[height=0.5,
		pos="1412.7,421.88",
		width=0.75];
	11 -- 159	[pos="1269,565.38 1299.3,535.12 1366.8,467.7 1397.3,437.29"];
	24	[height=0.5,
		pos="1355.8,359.99",
		width=0.75];
	11 -- 24	[pos="1261.8,563.29 1280.8,522.05 1328.8,418.38 1347.8,377.22"];
	11 -- 123	[pos="1245.2,563.5 1238.9,550.81 1230.3,533.59 1223.9,520.85"];
	11 -- 40	[pos="1245.3,563.12 1225.2,521.48 1174.5,416.79 1154.4,375.23"];
	11 -- 39	[pos="1240.6,564.76 1217.7,537.28 1171,481.09 1148.1,453.56"];
	11 -- 84	[pos="1246.9,563.02 1227.8,514.47 1174.7,378.94 1155.6,330.31"];
	11 -- 111	[pos="1248.3,562.73 1239.4,533.74 1222,476.79 1213.1,447.82"];
	11 -- 28	[pos="1268.2,596.26 1303.3,634.3 1392.8,731.21 1427.7,769.02"];
	11 -- 31	[pos="1242.6,597.38 1229.7,616.87 1208.5,648.83 1195.6,668.3"];
	173	[height=0.5,
		pos="1433.2,624.45",
		width=0.75];
	11 -- 173	[pos="1279.5,586.88 1313.7,595.24 1373.8,609.94 1407.9,618.25"];
	70	[height=0.5,
		pos="1211.6,337.2",
		width=0.75];
	11 -- 70	[pos="1250.7,562.7 1242.9,517.69 1222.5,400.16 1214.7,355.12"];
	115	[height=0.5,
		pos="1323,307.25",
		width=0.75];
	11 -- 115	[pos="1258.3,562.67 1270.9,513.14 1305.9,374.86 1318.5,325.25"];
	63	[height=0.5,
		pos="1374.9,785.26",
		width=0.75];
	11 -- 63	[pos="1263.7,597.35 1286.4,635.73 1342,729.68 1364.8,768.28"];
	11 -- 242	[pos="1257.9,598.5 1265.1,629.55 1279.8,693.03 1287,724.14"];
	211	[height=0.5,
		pos="1213.6,384.28",
		width=0.75];
	11 -- 211	[pos="1250.1,562.48 1242.4,525.08 1224.9,439.72 1217.3,402.35"];
	220	[height=0.5,
		pos="1480.3,530.93",
		width=0.75];
	11 -- 220	[pos="1279.7,574.9 1323.4,565.32 1411.1,546.1 1454.6,536.56"];
	156	[height=0.5,
		pos="1254.1,293.19",
		width=0.75];
	11 -- 156	[pos="1253.8,562.19 1253.8,510.27 1254,363.17 1254,311.45"];
	11 -- 188	[pos="1236.2,566.78 1217.9,552.31 1189.3,529.71 1170.9,515.2"];
	128	[height=0.5,
		pos="1279.5,404.04",
		width=0.75];
	11 -- 128	[pos="1256.4,562.37 1261.4,528.45 1271.9,456.02 1276.8,422.17"];
	11 -- 125	[pos="1228.4,573.96 1204.3,567.65 1168.3,558.21 1144.2,551.91"];
	287	[height=0.5,
		pos="1350.7,404.03",
		width=0.75];
	11 -- 287	[pos="1263.1,563.67 1281.5,530.01 1322.7,455 1341.3,421.16"];
	239	[height=0.5,
		pos="1277.3,360.01",
		width=0.75];
	11 -- 239	[pos="1255.7,562.55 1260.1,521.08 1271,419.41 1275.4,378.01"];
	186	[height=0.5,
		pos="1352.1,465.95",
		width=0.75];
	11 -- 186	[pos="1267.4,564.66 1286.2,542.76 1319.8,503.59 1338.6,481.76"];
	274	[height=0.5,
		pos="1286.4,536.55",
		width=0.75];
	11 -- 274	[pos="1265.7,564.45 1268.5,560.62 1271.6,556.53 1274.4,552.7"];
	292	[height=0.5,
		pos="1353.2,719.85",
		width=0.75];
	11 -- 292	[pos="1265.6,597.12 1284.7,623.92 1322.3,676.57 1341.4,703.35"];
	271	[height=0.5,
		pos="1415.3,738.62",
		width=0.75];
	11 -- 271	[pos="1269.2,595.75 1300,625.88 1368.6,693 1399.6,723.28"];
	272	[height=0.5,
		pos="1477.3,716.02",
		width=0.75];
	11 -- 272	[pos="1274,592.86 1316.5,618.64 1414.9,678.22 1457.3,703.89"];
	35 -- 68	[pos="1109.4,590.97 1105.4,568.34 1098.5,529.68 1094.4,506.99"];
	138 -- 283	[pos="1193,845.33 1181,829.4 1162.8,805.23 1150.8,789.34"];
	138 -- 288	[pos="1218.5,877.51 1239.3,902.55 1279.3,950.72 1300.2,975.84"];
	157 -- 177	[pos="572.85,615.11 564.7,617.39 555.66,619.91 547.52,622.18"];
	157 -- 197	[pos="593.66,625.94 592.13,632.27 590.4,639.39 588.86,645.71"];
	21 -- 108	[pos="1414.8,524.15 1413.1,535.74 1411,550.76 1409.3,562.36"];
	74	[height=0.5,
		pos="1536.8,437.82",
		width=0.75];
	21 -- 74	[pos="1437.9,494.43 1459.8,481.91 1494.2,462.2 1516.2,449.65"];
	51	[height=0.5,
		pos="1624.4,519.84",
		width=0.75];
	21 -- 51	[pos="1444.4,507.97 1484.1,510.58 1557.6,515.43 1597.3,518.05"];
	219	[height=0.5,
		pos="1544.1,490.15",
		width=0.75];
	21 -- 219	[pos="1443.9,502.82 1465.5,500.08 1495.9,496.24 1517.5,493.51"];
	21 -- 80	[pos="1390.3,503.51 1365.5,501.07 1329,497.46 1304.2,495.01"];
	295	[height=0.5,
		pos="1474.8,408.56",
		width=0.75];
	21 -- 295	[pos="1427.4,489.18 1437.9,471.26 1454.4,443.21 1464.9,425.37"];
	117	[height=0.5,
		pos="1427.8,364.08",
		width=0.75];
	21 -- 117	[pos="1418.7,488.18 1420.7,461 1424.5,409.74 1426.5,382.38"];
	105	[height=0.5,
		pos="1545.4,548.8",
		width=0.75];
	21 -- 105	[pos="1441.7,514.3 1464.5,521.88 1498.4,533.14 1521.1,540.71"];
	21 -- 220	[pos="1440.8,515.4 1445.9,517.43 1451.4,519.58 1456.6,521.62"];
	21 -- 134	[pos="1394.9,495.92 1371.8,485.36 1336,469 1312.8,458.41"];
	13 -- 15	[pos="673.94,884.79 657.83,861.77 629.03,820.61 612.97,797.66"];
	13 -- 120	[pos="693.79,884.27 708.31,853.37 738.59,788.95 753.24,757.79"];
	13 -- 17	[pos="707.23,912.48 740.48,929.34 803.88,961.48 837.12,978.34"];
	34	[height=0.5,
		pos="713.4,1121.6",
		width=0.75];
	13 -- 34	[pos="687.94,919.56 693.15,960.93 705.93,1062.4 711.14,1103.7"];
	91	[height=0.5,
		pos="675.65,989.59",
		width=0.75];
	13 -- 91	[pos="683.59,919.79 681.87,934.9 679.44,956.26 677.73,971.37"];
	85	[height=0.5,
		pos="666.73,1077.6",
		width=0.75];
	13 -- 85	[pos="683.71,919.72 680.08,953.55 672.31,1025.8 668.68,1059.5"];
	13 -- 38	[pos="697.99,918.04 709.78,933.82 727.44,957.47 739.13,973.13"];
	48	[height=0.5,
		pos="737.71,1033.5",
		width=0.75];
	13 -- 48	[pos="692.58,919.07 702.53,944.31 720.8,990.64 730.77,1015.9"];
	13 -- 106	[pos="709.14,910.7 728.25,918.16 755.09,928.64 774.19,936.09"];
	129	[height=0.5,
		pos="577.83,901.57",
		width=0.75];
	13 -- 129	[pos="658.46,901.55 642.11,901.55 621.38,901.56 605.03,901.56"];
	62	[height=0.5,
		pos="600.89,1112.1",
		width=0.75];
	13 -- 62	[pos="678.59,919.14 662.59,958.88 623.81,1055.2 607.89,1094.7"];
	189	[height=0.5,
		pos="478.7,1031.1",
		width=0.75];
	13 -- 189	[pos="665.82,913.97 626.26,938.73 538,993.99 498.49,1018.7"];
	83	[height=0.5,
		pos="406.48,1008.9",
		width=0.75];
	13 -- 83	[pos="661.86,910.7 609.12,930.98 482.91,979.52 430.22,999.79"];
	165	[height=0.5,
		pos="371.01,917.1",
		width=0.75];
	13 -- 165	[pos="658.57,902.88 599.09,905.82 457.68,912.82 398.16,915.76"];
	103	[height=0.5,
		pos="620.28,1033.6",
		width=0.75];
	13 -- 103	[pos="677.12,918.81 664.59,944.12 641.36,991.03 628.83,1016.3"];
	214	[height=0.5,
		pos="465.43,1076.2",
		width=0.75];
	13 -- 214	[pos="668.02,915.54 626.68,948.32 523.98,1029.8 482.86,1062.4"];
	223	[height=0.5,
		pos="468.55,980.8",
		width=0.75];
	13 -- 223	[pos="661.6,910.33 619.76,925.6 534.08,956.88 492.4,972.09"];
	142	[height=0.5,
		pos="532.02,1123.4",
		width=0.75];
	13 -- 142	[pos="674.12,918.22 645.58,959.44 571.96,1065.8 543.49,1106.9"];
	119	[height=0.5,
		pos="541.87,1068",
		width=0.75];
	13 -- 119	[pos="672.14,917.2 644.73,948.92 582.93,1020.5 555.47,1052.2"];
	122	[height=0.5,
		pos="567.57,989.45",
		width=0.75];
	13 -- 122	[pos="667.47,915.09 645.22,931.65 607.77,959.53 585.59,976.03"];
	222	[height=0.5,
		pos="344.28,965.04",
		width=0.75];
	13 -- 222	[pos="659.45,906.42 595.9,918.24 434.23,948.31 370.59,960.14"];
	192	[height=0.5,
		pos="633.95,945.58",
		width=0.75];
	13 -- 192	[pos="669.02,915.72 663.23,920.65 656.73,926.18 650.92,931.13"];
	15 -- 18	[pos="579.15,791.41 551.68,804.24 505.17,825.95 477.6,838.82"];
	15 -- 194	[pos="577.9,790.62 567.53,794.85 555.38,799.81 545.03,804.03"];
	15 -- 94	[pos="575.68,775.18 570.01,773.88 564.01,772.51 558.33,771.21"];
	15 -- 58	[pos="608.38,798.79 613.28,811.14 619.79,827.55 624.68,839.89"];
	15 -- 129	[pos="597.83,799.09 593.4,821.81 585.82,860.62 581.38,883.4"];
	15 -- 224	[pos="622.81,791.99 637.65,799.55 657.32,809.58 672.21,817.16"];
	15 -- 72	[pos="595.87,763.3 593.28,754.93 590.2,744.95 587.61,736.55"];
	15 -- 213	[pos="589.27,797.27 579.61,810.25 566.12,828.37 556.46,841.35"];
	14 -- 43	[pos="294.54,423.76 277.2,416.37 253.45,406.25 236.12,398.87"];
	14 -- 46	[pos="323.39,451.31 328.54,466.58 335.93,488.48 341.08,503.75"];
	14 -- 81	[pos="339.77,423.22 345.33,420.67 351.28,417.94 356.85,415.39"];
	114	[height=0.5,
		pos="96.246,341.41",
		width=0.75];
	14 -- 114	[pos="294.13,423.81 251.55,406.08 161.53,368.59 119.18,350.96"];
	14 -- 227	[pos="306,417.01 294.81,400.81 277.83,376.2 266.67,360.03"];
	147	[height=0.5,
		pos="151.32,407.18",
		width=0.75];
	14 -- 147	[pos="291.06,429.32 260.06,424.41 208.85,416.3 177.78,411.38"];
	284	[height=0.5,
		pos="174.26,451.4",
		width=0.75];
	14 -- 284	[pos="290.79,436.82 265.25,440.01 226.84,444.82 201.19,448.03"];
	182	[height=0.5,
		pos="168.49,323.81",
		width=0.75];
	14 -- 182	[pos="299.12,420.04 270.54,398.99 215.56,358.49 186.89,337.37"];
	14 -- 215	[pos="336.51,446.3 361.45,463.01 404.83,492.07 429.79,508.78"];
	14 -- 273	[pos="341.41,442 363.49,449.81 396.03,461.32 418.08,469.13"];
	18 -- 194	[pos="476.25,837.97 484.02,833.8 492.82,829.07 500.6,824.9"];
	18 -- 213	[pos="481.96,851.76 493.25,852.81 506.37,854.02 517.65,855.07"];
	43 -- 46	[pos="228.68,404.35 254.48,429.88 306.24,481.12 331.92,506.53"];
	141	[height=0.5,
		pos="27.18,388.32",
		width=0.75];
	43 -- 141	[pos="186.27,389.04 150.98,388.88 89.593,388.6 54.282,388.44"];
	43 -- 81	[pos="240.39,391.75 271.37,394.71 321.8,399.53 352.65,402.48"];
	43 -- 50	[pos="228.8,404.15 245.56,420.4 272.15,446.19 288.94,462.47"];
	252	[height=0.5,
		pos="229.88,520.65",
		width=0.75];
	43 -- 252	[pos="215.61,407.17 218.75,432.21 224.42,477.29 227.59,502.44"];
	43 -- 190	[pos="240.41,388.17 255.71,387.6 274.78,386.9 290.11,386.34"];
	60	[height=0.5,
		pos="163.72,495.46",
		width=0.75];
	43 -- 60	[pos="205.15,406.71 195.9,426.53 180.94,458.55 171.76,478.23"];
	43 -- 77	[pos="235.4,378.6 270.03,362.02 336.73,330.07 371.3,313.52"];
	43 -- 114	[pos="190.21,379.73 169.68,371.36 139.85,359.19 119.33,350.82"];
	43 -- 82	[pos="227.9,373.92 254.92,345.63 312.53,285.31 339.64,256.92"];
	43 -- 281	[pos="220.8,371.75 232.89,343.5 256.65,288.02 268.74,259.79"];
	43 -- 121	[pos="225.52,372.74 239.19,354.31 261.23,324.59 274.9,306.16"];
	293	[height=0.5,
		pos="35.135,297.18",
		width=0.75];
	43 -- 293	[pos="191.84,378.07 157.59,360.39 91.007,326.02 56.707,308.32"];
	43 -- 227	[pos="227.57,373.76 231.95,369.01 236.77,363.79 241.15,359.05"];
	172	[height=0.5,
		pos="89.265,401.66",
		width=0.75];
	43 -- 172	[pos="186.42,391.87 165.61,393.97 136.93,396.86 116.14,398.95"];
	43 -- 147	[pos="188.47,396.39 184.43,397.56 180.24,398.78 176.2,399.96"];
	168	[height=0.5,
		pos="27,442.17",
		width=0.75];
	43 -- 168	[pos="188.21,396.31 152.55,406.46 87.638,424.92 52.029,435.05"];
	148	[height=0.5,
		pos="99.674,517.38",
		width=0.75];
	43 -- 148	[pos="199.4,404.88 177.59,429.49 135.61,476.84 113.73,501.53"];
	260	[height=0.5,
		pos="96.412,458.5",
		width=0.75];
	43 -- 260	[pos="192.97,401.24 171.64,413.89 138.33,433.65 116.94,446.33"];
	43 -- 182	[pos="202.02,372.67 195.28,362.84 186.73,350.39 179.96,340.52"];
	43 -- 221	[pos="235.95,379.25 256.01,370.45 285.16,357.67 305.21,348.88"];
	43 -- 265	[pos="232.86,376.29 271.76,350.64 358.56,293.4 397.41,267.78"];
	290	[height=0.5,
		pos="174.53,257.94",
		width=0.75];
	43 -- 290	[pos="208.11,371.46 200.7,346.42 187.23,300.89 179.8,275.77"];
	16 -- 151	[pos="1470.1,621.3 1434.4,626.07 1371.1,634.52 1335.3,639.3"];
	16 -- 21	[pos="1485,601.3 1470,580.2 1444.1,543.84 1429.1,522.71"];
	16 -- 93	[pos="1487.4,634.65 1484.4,640.07 1481,646.07 1478,651.5"];
	16 -- 74	[pos="1500.7,599.85 1508.4,565.36 1525.2,490.1 1532.9,455.66"];
	16 -- 28	[pos="1490.8,635.6 1480.3,667.68 1458.3,734.75 1447.8,766.74"];
	16 -- 181	[pos="1500.8,635.84 1507.8,666.64 1521.8,728.94 1528.8,759.86"];
	16 -- 173	[pos="1469.8,620.6 1466.5,620.94 1463.2,621.29 1460,621.63"];
	16 -- 51	[pos="1514.5,604.14 1538.7,585.54 1582,552.36 1606.4,533.65"];
	16 -- 219	[pos="1503.2,600.28 1512.2,575.98 1528.4,532.23 1537.5,507.82"];
	16 -- 80	[pos="1476.1,605.96 1434.2,582.06 1339.9,528.16 1298,504.21"];
	163	[height=0.5,
		pos="1641.4,633.08",
		width=0.75];
	16 -- 163	[pos="1523.6,620.6 1549.6,623.36 1588.7,627.5 1614.7,630.25"];
	76	[height=0.5,
		pos="1660.9,451.12",
		width=0.75];
	16 -- 76	[pos="1511.6,602.68 1542.7,571.11 1614.3,498.38 1645.7,466.53"];
	102	[height=0.5,
		pos="1722.9,484.54",
		width=0.75];
	16 -- 102	[pos="1517.2,605.7 1560.2,580.34 1659.8,521.73 1702.6,496.47"];
	296	[height=0.5,
		pos="1539.3,697.71",
		width=0.75];
	16 -- 296	[pos="1505.9,635.11 1513.1,648.61 1523.1,667.25 1530.2,680.67"];
	16 -- 105	[pos="1508.2,601.42 1515.9,590.58 1525.9,576.41 1533.6,565.5"];
	16 -- 220	[pos="1493.3,599.77 1490.5,584.86 1486.5,563.79 1483.7,548.89"];
	231	[height=0.5,
		pos="1641.9,575.28",
		width=0.75];
	16 -- 231	[pos="1521.7,610.46 1548.3,602.68 1590.1,590.43 1616.8,582.63"];
	226	[height=0.5,
		pos="1663.7,677.15",
		width=0.75];
	16 -- 226	[pos="1520.6,626.27 1552.4,637.56 1608.1,657.37 1639.8,668.65"];
	180	[height=0.5,
		pos="1698.5,531.26",
		width=0.75];
	16 -- 180	[pos="1519.5,608 1558.2,591.39 1636.6,557.79 1675.5,541.11"];
	254	[height=0.5,
		pos="1598.9,429.62",
		width=0.75];
	16 -- 254	[pos="1506,600.73 1525.4,565 1570.1,482.56 1589.6,446.75"];
	264	[height=0.5,
		pos="1601.3,677.1",
		width=0.75];
	16 -- 264	[pos="1517.4,629.48 1535.7,639.89 1562.3,655.01 1580.7,665.4"];
	240	[height=0.5,
		pos="1578.8,592.83",
		width=0.75];
	16 -- 240	[pos="1521.3,610.28 1531.7,607.12 1543.8,603.46 1554.2,600.3"];
	16 -- 272	[pos="1493.1,635.78 1489.6,653.51 1484.3,680.42 1480.8,698.11"];
	93 -- 173	[pos="1455.9,652.59 1452.7,648.65 1449.3,644.43 1446.1,640.48"];
	93 -- 296	[pos="1491.8,678.06 1499.5,681.26 1508.1,684.82 1515.9,688.02"];
	93 -- 272	[pos="1471.9,686.46 1472.6,690.25 1473.3,694.24 1474,698.03"];
	152 -- 161	[pos="821.08,885.07 830.45,890.84 841.62,897.7 851.04,903.48"];
	17 -- 201	[pos="883.12,981.23 908.26,972.95 947.23,960.12 972.46,951.81"];
	17 -- 34	[pos="842.58,1003.9 814.66,1029.4 757.55,1081.4 729.58,1106.9"];
	41	[height=0.5,
		pos="810.99,1033.4",
		width=0.75];
	17 -- 41	[pos="842.8,1004 837.71,1008.7 832.07,1013.9 826.97,1018.6"];
	17 -- 48	[pos="834.79,998.02 813.58,1005.8 782.75,1017 761.56,1024.8"];
	56	[height=0.5,
		pos="925.17,1061.4",
		width=0.75];
	17 -- 56	[pos="873.11,1004.9 884.26,1017 899.63,1033.7 910.77,1045.7"];
	17 -- 106	[pos="840.04,975.82 832.46,970.36 823.73,964.07 816.17,958.61"];
	17 -- 95	[pos="885.68,988.96 908.68,988.69 941.57,988.3 964.68,988.03"];
	203	[height=0.5,
		pos="1011.9,1031.7",
		width=0.75];
	17 -- 203	[pos="883.64,996.19 912.12,1004.1 958.45,1016.9 986.93,1024.8"];
	110	[height=0.5,
		pos="992.93,1075.7",
		width=0.75];
	17 -- 110	[pos="878.21,1001.8 903.66,1018.2 947.92,1046.7 973.39,1063.1"];
	135	[height=0.5,
		pos="1074.7,1050.8",
		width=0.75];
	17 -- 135	[pos="883.88,996.45 925.5,1008.3 1008.1,1031.8 1049.6,1043.6"];
	34 -- 85	[pos="697.6,1106.7 692.74,1102.1 687.38,1097.1 682.52,1092.5"];
	34 -- 38	[pos="718.5,1103.8 725.71,1078.5 738.81,1032.6 746.04,1007.3"];
	34 -- 41	[pos="729.52,1107.1 747.6,1090.7 776.76,1064.3 794.85,1048"];
	139	[height=0.5,
		pos="738.02,1209.7",
		width=0.75];
	34 -- 139	[pos="718.38,1139.5 722.65,1154.7 728.78,1176.6 733.04,1191.9"];
	34 -- 48	[pos="718.32,1103.8 722.54,1088.5 728.58,1066.6 732.8,1051.3"];
	34 -- 56	[pos="738.53,1114.5 779.28,1102.9 859.34,1080.1 900.08,1068.5"];
	61	[height=0.5,
		pos="692.21,1165.6",
		width=0.75];
	34 -- 61	[pos="705.15,1138.8 703.61,1142 702.01,1145.3 700.47,1148.5"];
	75	[height=0.5,
		pos="766.9,1077.6",
		width=0.75];
	34 -- 75	[pos="730.62,1107.5 736.73,1102.4 743.6,1096.8 749.71,1091.7"];
	184	[height=0.5,
		pos="789.21,1122",
		width=0.75];
	34 -- 184	[pos="740.77,1121.8 747.73,1121.8 755.2,1121.9 762.14,1121.9"];
	92	[height=0.5,
		pos="599.72,1200.9",
		width=0.75];
	34 -- 92	[pos="694.63,1134.7 673.57,1149.4 639.59,1173.1 618.52,1187.8"];
	34 -- 142	[pos="686.25,1121.9 651.95,1122.2 593.3,1122.8 559.06,1123.2"];
	34 -- 119	[pos="688.83,1114 656.22,1103.8 598.99,1085.8 566.4,1075.7"];
	112	[height=0.5,
		pos="807.41,1184.1",
		width=0.75];
	34 -- 112	[pos="732.88,1134.6 749.12,1145.4 772.13,1160.7 788.28,1171.4"];
	206	[height=0.5,
		pos="965.05,1212.4",
		width=0.75];
	34 -- 206	[pos="737.53,1130.3 785.63,1147.7 892.96,1186.4 941,1203.8"];
	175	[height=0.5,
		pos="627.42,1156.9",
		width=0.75];
	34 -- 175	[pos="690.36,1131.1 678.02,1136.1 662.87,1142.3 650.53,1147.4"];
	154	[height=0.5,
		pos="777.44,1253.7",
		width=0.75];
	34 -- 154	[pos="721.77,1138.9 734.05,1164.2 756.79,1211.1 769.07,1236.4"];
	178	[height=0.5,
		pos="840.3,1228.2",
		width=0.75];
	34 -- 178	[pos="730.25,1135.8 754.53,1156.2 799.07,1193.6 823.38,1214"];
	183	[height=0.5,
		pos="902.33,1219.5",
		width=0.75];
	34 -- 183	[pos="735.07,1132.9 771.52,1151.8 844.64,1189.6 880.91,1208.4"];
	249 -- 292	[pos="1389.4,690.01 1383.3,695.04 1376.5,700.69 1370.4,705.71"];
	249 -- 271	[pos="1409.1,694 1410.2,702.26 1411.6,712.01 1412.7,720.29"];
	91 -- 223	[pos="648.58,988.44 608.89,986.75 535.33,983.63 495.64,981.95"];
	91 -- 122	[pos="648.38,989.55 631.99,989.53 611.22,989.5 594.83,989.48"];
	91 -- 192	[pos="661.07,974.2 657.03,969.93 652.64,965.31 648.6,961.04"];
	20 -- 79	[pos="820.5,714.32 821.08,723.08 821.77,733.54 822.35,742.28"];
	20 -- 57	[pos="831.79,679.88 839.24,670.23 848.67,658 856.15,648.31"];
	20 -- 36	[pos="832.76,711.79 851.81,734.02 886.45,774.43 905.56,796.73"];
	20 -- 45	[pos="841.99,706.23 885.01,725.48 977.93,767.05 1020.7,786.2"];
	256	[height=0.5,
		pos="873.94,856.63",
		width=0.75];
	20 -- 256	[pos="825.35,713.87 835.86,744.74 857.33,807.84 867.86,838.76"];
	20 -- 59	[pos="846.38,696.59 888.13,697.38 967.77,698.89 1009.5,699.69"];
	20 -- 69	[pos="844.65,703.07 883.84,713.89 958.69,734.54 997.69,745.3"];
	20 -- 196	[pos="825.37,713.83 832.43,734.45 844,768.26 851.06,788.86"];
	20 -- 88	[pos="792.23,696.1 774.47,696.11 751.32,696.12 733.53,696.14"];
	199	[height=0.5,
		pos="981.16,837.75",
		width=0.75];
	20 -- 199	[pos="835.71,710.44 866.73,737.6 933.65,796.17 964.7,823.35"];
	266	[height=0.5,
		pos="936.31,881.79",
		width=0.75];
	20 -- 266	[pos="829.89,712.89 852.16,748.25 903.64,829.95 925.83,865.16"];
	194 -- 213	[pos="530.57,830.68 532.21,833.86 533.92,837.19 535.56,840.38"];
	108 -- 220	[pos="1426.1,567.42 1436.9,560.15 1450.3,551.11 1461.1,543.85"];
	22 -- 44	[pos="724.88,280.73 752.66,260.79 805.05,223.21 833.01,203.14"];
	22 -- 150	[pos="691.27,309.14 677.29,323.12 656.68,343.72 642.71,357.69"];
	22 -- 55	[pos="717.76,277.49 737.29,249 777.24,190.74 796.81,162.19"];
	22 -- 127	[pos="731.84,287.69 752,282.73 780.06,275.83 800.31,270.85"];
	22 -- 230	[pos="732.26,299.49 737.69,300.66 743.42,301.9 748.85,303.07"];
	22 -- 52	[pos="679.34,292.68 648.87,291.27 599.74,289.02 569.26,287.61"];
	22 -- 248	[pos="699.7,311.58 698.6,314.45 697.46,317.43 696.35,320.3"];
	22 -- 109	[pos="730.77,285.93 765.74,274.42 829.92,253.29 864.94,241.76"];
	22 -- 238	[pos="721.68,278.55 736.63,263.43 759.31,240.47 774.22,225.38"];
	22 -- 162	[pos="721.31,278.61 752.49,246.39 824.53,171.94 855.57,139.86"];
	22 -- 171	[pos="687.47,306.89 660.56,325.25 611.64,358.62 584.65,377.03"];
	22 -- 276	[pos="682.31,302.2 666.16,307.72 645,314.96 628.82,320.5"];
	57 -- 210	[pos="869.62,613.73 869.74,611.17 869.86,608.54 869.97,605.98"];
	74 -- 80	[pos="1511,443.25 1461.4,453.68 1353.2,476.39 1303.4,486.86"];
	187	[height=0.5,
		pos="1723.1,410.6",
		width=0.75];
	74 -- 187	[pos="1563.5,433.92 1599,428.75 1661.1,419.67 1696.5,414.5"];
	74 -- 76	[pos="1563.8,440.71 1584.6,442.94 1613.2,446.01 1634,448.24"];
	74 -- 102	[pos="1562.3,444.22 1597.9,453.14 1661.9,469.22 1697.4,478.14"];
	74 -- 295	[pos="1514.8,427.42 1509.1,424.73 1502.9,421.83 1497.2,419.12"];
	289	[height=0.5,
		pos="1708.2,364.86",
		width=0.75];
	74 -- 289	[pos="1559.6,428.14 1592.4,414.18 1652.5,388.57 1685.4,374.59"];
	74 -- 254	[pos="1563.5,434.3 1566.4,433.92 1569.3,433.53 1572.2,433.15"];
	267	[height=0.5,
		pos="1645.9,382.25",
		width=0.75];
	74 -- 267	[pos="1558.4,426.85 1577.5,417.1 1605.3,402.95 1624.4,393.21"];
	159 -- 287	[pos="1387.9,414.72 1383.8,413.56 1379.6,412.35 1375.6,411.19"];
	159 -- 186	[pos="1394.2,435.34 1386.7,440.81 1378,447.11 1370.5,452.57"];
	159 -- 274	[pos="1396.7,436.41 1372.6,458.34 1327,499.71 1302.6,521.79"];
	150 -- 248	[pos="648.19,361.24 654.82,357.51 662.16,353.39 668.79,349.65"];
	150 -- 164	[pos="606.62,361.47 578.55,346.17 528.94,319.13 500.67,303.73"];
	23 -- 42	[pos="905.81,421.64 901.62,448.57 893.77,498.96 889.58,525.85"];
	23 -- 269	[pos="916.97,386.09 925.77,367.65 939.54,338.78 948.3,320.42"];
	23 -- 146	[pos="910.95,421.64 915.57,457.6 925.9,537.85 930.52,573.77"];
	23 -- 158	[pos="907.19,385.46 906.8,380.65 906.39,375.46 906.01,370.65"];
	23 -- 195	[pos="926.02,389.6 933.36,383.69 941.89,376.83 949.23,370.93"];
	24 -- 123	[pos="1341,375.08 1314.1,402.58 1257.3,460.54 1230.2,488.21"];
	24 -- 186	[pos="1355.2,378.45 1354.5,397.9 1353.4,428.34 1352.8,447.71"];
	123 -- 188	[pos="1188.2,502.55 1185.6,502.45 1182.9,502.36 1180.3,502.26"];
	123 -- 128	[pos="1226.1,486.65 1238,468.25 1256.9,438.97 1268.7,420.67"];
	123 -- 125	[pos="1192.4,513.43 1177.1,520.09 1156.9,528.83 1141.6,535.47"];
	123 -- 287	[pos="1233.5,490.11 1259.4,471.12 1306.4,436.6 1332.3,417.55"];
	123 -- 239	[pos="1222.7,486.22 1234.7,458.63 1257.8,405.01 1269.8,377.39"];
	123 -- 186	[pos="1240.3,496.64 1264.9,489.9 1302.1,479.69 1326.7,472.93"];
	123 -- 274	[pos="1237.7,513.98 1246,517.83 1255.4,522.2 1263.8,526.06"];
	40 -- 84	[pos="1147.1,339.72 1147.3,336.77 1147.4,333.72 1147.6,330.78"];
	40 -- 78	[pos="1134.9,341.26 1124.3,325.51 1108.4,301.97 1097.8,286.25"];
	40 -- 70	[pos="1170.5,350.14 1175.8,348.45 1181.6,346.65 1187,344.95"];
	40 -- 115	[pos="1171,350.69 1204.7,341.05 1264.5,323.97 1298.2,314.35"];
	40 -- 211	[pos="1169.6,367.08 1176.2,369.64 1183.3,372.42 1189.8,374.99"];
	143	[height=0.5,
		pos="1161,268.62",
		width=0.75];
	40 -- 143	[pos="1149,339.77 1151.6,324.3 1155.3,302.11 1157.9,286.64"];
	40 -- 156	[pos="1166.3,345.67 1185.7,334.11 1214.5,316.83 1233.8,305.29"];
	235	[height=0.5,
		pos="1229.4,249.15",
		width=0.75];
	40 -- 235	[pos="1158.3,341.79 1174.1,321.24 1201.3,285.83 1217.1,265.25"];
	25 -- 71	[pos="335.82,565.6 346.92,565.61 359.71,565.62 370.79,565.63"];
	25 -- 46	[pos="322.43,549.67 325.97,545.63 329.77,541.3 333.3,537.26"];
	25 -- 30	[pos="293.8,581 273.6,602.21 237.48,640.12 217.35,661.26"];
	25 -- 33	[pos="327.12,579.16 342.65,590.5 364.65,606.56 380.08,617.83"];
	25 -- 96	[pos="301.89,583.33 295.82,599.64 286.87,623.68 280.81,639.97"];
	25 -- 50	[pos="307.66,547.33 306.97,532.22 306,510.85 305.31,495.75"];
	25 -- 252	[pos="287.84,553.77 276.29,547.17 261.93,538.97 250.4,532.38"];
	25 -- 60	[pos="286.51,554.92 259.3,541.74 213.22,519.43 185.91,506.21"];
	97	[height=0.5,
		pos="251.69,613.64",
		width=0.75];
	25 -- 97	[pos="291.76,579.73 284.43,585.94 275.84,593.2 268.5,599.41"];
	90	[height=0.5,
		pos="180.29,564.69",
		width=0.75];
	25 -- 90	[pos="281.31,565.39 259.55,565.24 229.19,565.03 207.44,564.88"];
	25 -- 132	[pos="318.99,582.25 321.21,585.76 323.54,589.47 325.75,592.98"];
	25 -- 148	[pos="282.89,559.66 242.81,550.41 165.7,532.61 125.49,523.34"];
	71 -- 97	[pos="373.47,573.68 346.47,582.54 303.28,596.71 276.25,605.58"];
	71 -- 90	[pos="370.82,565.53 329,565.35 249.24,565 207.42,564.81"];
	71 -- 217	[pos="419.81,576.51 425.86,579.52 432.43,582.78 438.49,585.79"];
	26	[height=0.5,
		pos="1039.4,225.62",
		width=0.75];
	26 -- 39	[pos="1047.2,242.97 1065.2,282.83 1109.1,380.55 1127,420.35"];
	26 -- 78	[pos="1055.2,240.32 1060.2,245.03 1065.8,250.25 1070.9,254.97"];
	191	[height=0.5,
		pos="1058.1,180.57",
		width=0.75];
	26 -- 191	[pos="1046.7,208.07 1048,204.81 1049.5,201.41 1050.8,198.14"];
	26 -- 143	[pos="1063.4,234.11 1084.7,241.65 1115.7,252.61 1137,260.14"];
	207	[height=0.5,
		pos="1107.9,224.58",
		width=0.75];
	26 -- 207	[pos="1066.5,225.21 1071.1,225.14 1076,225.07 1080.6,225"];
	26 -- 116	[pos="1037.3,243.89 1035.6,259.02 1033.1,280.41 1031.4,295.54"];
	39 -- 113	[pos="1139.1,455.69 1148.2,494.27 1169.5,584.41 1178.7,622.95"];
	39 -- 170	[pos="1119.1,422.68 1111.2,415.23 1101.8,406.25 1094,398.81"];
	39 -- 70	[pos="1147.2,421.51 1161.5,402.76 1185,372.02 1199.3,353.3"];
	39 -- 211	[pos="1153.9,424.73 1166.2,416.4 1182.1,405.6 1194.4,397.26"];
	39 -- 143	[pos="1137.6,419.56 1142.7,387.02 1153.2,319.02 1158.2,286.58"];
	39 -- 207	[pos="1132.5,419.48 1127.5,379.23 1115.3,282.91 1110.2,242.7"];
	39 -- 116	[pos="1121.5,421.96 1101.3,398.26 1063.2,353.58 1042.9,329.74"];
	39 -- 176	[pos="1116.6,450.96 1095.6,466.34 1061.3,491.5 1040.2,506.98"];
	46 -- 71	[pos="363.74,535.98 369.42,540.91 375.76,546.41 381.43,551.33"];
	46 -- 252	[pos="319.9,521.33 300.96,521.19 275.82,521 256.91,520.86"];
	46 -- 60	[pos="320.42,517.75 285.66,512.8 225.19,504.2 190.41,499.26"];
	46 -- 172	[pos="324.66,511.11 275.77,488.38 160.13,434.61 111.46,411.98"];
	46 -- 147	[pos="326.5,509.52 288.91,487.55 209.53,441.19 171.92,419.22"];
	46 -- 284	[pos="323.78,512.08 290.7,498.65 230.5,474.22 197.47,460.82"];
	46 -- 148	[pos="319.66,521.08 271.98,520.28 174.35,518.63 126.84,517.83"];
	46 -- 260	[pos="321.67,515.15 273.62,503.07 169.99,477.01 121.89,464.91"];
	46 -- 215	[pos="374.11,521.56 388.85,521.57 407.03,521.58 421.79,521.59"];
	84 -- 111	[pos="1157.4,329.98 1168.5,352.15 1187.7,390.38 1198.9,412.59"];
	84 -- 156	[pos="1174.7,307.85 1191,304.86 1211.7,301.01 1228,298.01"];
	84 -- 235	[pos="1166.2,298.89 1179.8,288.23 1198.4,273.55 1212,262.9"];
	282	[height=0.5,
		pos="1270,204.5",
		width=0.75];
	84 -- 282	[pos="1165.1,298.08 1188.2,277.44 1230.3,239.91 1253.5,219.2"];
	111 -- 123	[pos="1209.5,448.15 1210.7,459.56 1212.2,474.19 1213.4,485.55"];
	111 -- 156	[pos="1213.6,412.37 1222.5,386.25 1239,337.49 1248,311.16"];
	111 -- 128	[pos="1231.5,421.34 1239.2,418.57 1247.7,415.5 1255.4,412.73"];
	111 -- 125	[pos="1195.3,446.01 1178.5,467.92 1148.4,507 1131.5,529.03"];
	111 -- 239	[pos="1222.7,414.79 1234.4,403.06 1250.5,386.89 1262.2,375.16"];
	27 -- 66	[pos="729.82,341.94 703.89,329.24 661,308.22 635.11,295.54"];
	27 -- 98	[pos="751.7,370.79 751.68,374.79 751.67,379.02 751.65,383.02"];
	27 -- 131	[pos="731.85,340.51 696.67,318.98 623.94,274.48 588.78,252.97"];
	27 -- 126	[pos="756.14,370.65 762.56,396.97 774.46,445.74 780.87,472.06"];
	89	[height=0.5,
		pos="746.09,135.48",
		width=0.75];
	27 -- 89	[pos="751.29,334.55 750.22,293.66 747.64,194.71 746.57,153.73"];
	27 -- 100	[pos="745.21,335.1 730.94,296.85 697.25,206.47 682.95,168.13"];
	234	[height=0.5,
		pos="757.46,47.361",
		width=0.75];
	27 -- 234	[pos="752.11,334.51 753.12,280.2 756.11,119.63 757.12,65.452"];
	27 -- 133	[pos="746.9,334.99 734.44,289.66 701.5,169.82 688.99,124.31"];
	202	[height=0.5,
		pos="808.15,91.744",
		width=0.75];
	27 -- 202	[pos="755.64,334.76 765.94,287.09 793.91,157.62 804.24,109.81"];
	27 -- 297	[pos="743.08,335.59 728.02,305.92 697.23,245.26 682.14,215.53"];
	28 -- 181	[pos="1469.2,782.55 1480.9,781.74 1494.4,780.8 1506,780"];
	28 -- 49	[pos="1421.6,796.68 1389,816.23 1325.6,854.27 1293.2,873.74"];
	28 -- 67	[pos="1446.3,802.27 1453,829.2 1465.5,879.97 1472.2,907.07"];
	28 -- 63	[pos="1414.7,784.78 1410.5,784.83 1406.1,784.88 1401.9,784.93"];
	99	[height=0.5,
		pos="1578.5,824.81",
		width=0.75];
	28 -- 99	[pos="1466.7,791.76 1491.3,799.03 1528.8,810.12 1553.5,817.42"];
	28 -- 185	[pos="1439.4,802.48 1437.2,818.49 1433.9,841.74 1431.7,857.73"];
	124	[height=0.5,
		pos="1465.8,830.09",
		width=0.75];
	28 -- 124	[pos="1450.9,801.71 1452.8,805.34 1454.8,809.18 1456.7,812.81"];
	28 -- 286	[pos="1454.5,800.66 1467.7,817.75 1488.4,844.49 1501.6,861.5"];
	28 -- 271	[pos="1432.2,767.65 1429.8,763.66 1427.4,759.41 1425,755.42"];
	28 -- 272	[pos="1450.9,767.18 1456.3,756.73 1463.1,743.45 1468.5,733.05"];
	29 -- 35	[pos="1102.1,663.84 1104.3,652.62 1107,638.24 1109.2,627.02"];
	29 -- 283	[pos="1106.4,699.49 1113.5,715.67 1123.9,739.52 1131,755.69"];
	30 -- 96	[pos="228.17,669.84 234.9,668.06 242.18,666.14 248.91,664.36"];
	30 -- 212	[pos="229.48,672.91 252.76,669.73 286.37,665.14 309.64,661.96"];
	30 -- 101	[pos="220.05,690.41 235.28,702.63 257.37,720.34 272.68,732.62"];
	208	[height=0.5,
		pos="189.43,740.33",
		width=0.75];
	30 -- 208	[pos="198.99,694.66 197.17,703.35 195,713.73 193.18,722.4"];
	30 -- 277	[pos="228.95,681.17 255.43,685.85 296.16,693.03 322.73,697.72"];
	30 -- 132	[pos="224.52,665.66 249.34,653.23 289.71,633 314.53,620.57"];
	174	[height=0.5,
		pos="137.6,652.71",
		width=0.75];
	30 -- 174	[pos="178.88,667.81 173.21,665.74 167.17,663.53 161.5,661.45"];
	232	[height=0.5,
		pos="126.7,697.26",
		width=0.75];
	30 -- 232	[pos="177.44,683.45 169.23,685.68 160.13,688.16 151.92,690.39"];
	225	[height=0.5,
		pos="189.63,608.7",
		width=0.75];
	30 -- 225	[pos="199.26,658.37 197.37,648.64 195.05,636.68 193.17,626.93"];
	298	[height=0.5,
		pos="75.554,638.9",
		width=0.75];
	30 -- 298	[pos="177.95,669.21 155.53,662.57 122.72,652.86 100.32,646.23"];
	30 -- 257	[pos="225.21,687.01 253.46,700.18 301.73,722.68 330.05,735.88"];
	31 -- 113	[pos="1183.8,666.85 1183.7,664.29 1183.7,661.66 1183.6,659.1"];
	32 -- 137	[pos="978.58,661.67 982.15,645.6 987.32,622.24 990.88,606.18"];
	32 -- 54	[pos="969.12,697.74 964.45,713.14 957.75,735.21 953.08,750.6"];
	32 -- 146	[pos="966.32,662.39 959.01,646.96 948.37,624.53 941.06,609.11"];
	32 -- 140	[pos="964.22,696.67 962.14,700.06 959.95,703.63 957.87,707.02"];
	32 -- 86	[pos="960.15,664.39 956.15,660.13 951.81,655.5 947.81,651.23"];
	54 -- 140	[pos="947.62,750.34 947.62,747.53 947.61,744.64 947.61,741.83"];
	33 -- 71	[pos="398.25,612.92 398.19,603.84 398.12,592.88 398.07,583.81"];
	33 -- 96	[pos="372.65,636.67 351.48,641.18 321.61,647.56 300.34,652.1"];
	33 -- 263	[pos="400.94,649.13 404.02,670.6 409.14,706.31 412.24,727.89"];
	33 -- 53	[pos="423.25,638.5 427.3,639.69 431.49,640.93 435.54,642.12"];
	33 -- 97	[pos="371.47,627.96 345,624.8 304.83,619.99 278.42,616.83"];
	33 -- 217	[pos="419.38,619.51 425.85,615.91 432.98,611.95 439.45,608.36"];
	33 -- 101	[pos="383.78,646.76 363.03,668.93 325.2,709.33 304.57,731.36"];
	33 -- 277	[pos="386.96,647.69 379.01,659.2 368.46,674.48 360.52,685.96"];
	33 -- 145	[pos="412.09,646.87 426.46,663.3 448.89,688.96 463.3,705.44"];
	33 -- 177	[pos="425.61,630.73 446.3,630.4 474.63,629.93 495.31,629.6"];
	96 -- 97	[pos="265.45,640.52 263.81,637.33 262.11,634 260.48,630.81"];
	179	[height=0.5,
		pos="276,702.58",
		width=0.75];
	96 -- 179	[pos="274.94,675.68 275.05,678.61 275.17,681.64 275.29,684.57"];
	96 -- 101	[pos="277.46,675.69 280.23,691.13 284.21,713.27 286.98,728.7"];
	96 -- 174	[pos="247.23,656.69 223.43,655.83 188.92,654.57 165.01,653.7"];
	209	[height=0.5,
		pos="304.57,793.39",
		width=0.75];
	96 -- 209	[pos="278.25,675.69 284.06,701.65 294.71,749.3 300.52,775.3"];
	96 -- 225	[pos="253.74,645.82 240.54,638.17 223.44,628.27 210.21,620.61"];
	85 -- 103	[pos="651.01,1062.7 646.16,1058.1 640.83,1053.1 635.99,1048.5"];
	85 -- 119	[pos="639.64,1075.5 618.7,1073.9 589.84,1071.7 568.91,1070.1"];
	85 -- 175	[pos="658.2,1094.8 651.61,1108.1 642.52,1126.4 635.93,1139.7"];
	68 -- 167	[pos="1076.2,473.53 1069.6,466.8 1061.9,458.91 1055.3,452.17"];
	36 -- 47	[pos="946.19,814.01 981.46,815.89 1042.8,819.16 1078.1,821.04"];
	36 -- 79	[pos="897.92,800.98 882.08,792.32 860.52,780.55 844.7,771.9"];
	36 -- 152	[pos="897.5,823.63 876.23,834.51 843.93,851.02 822.7,861.88"];
	130	[height=0.5,
		pos="1020.4,899.65",
		width=0.75];
	36 -- 130	[pos="935.85,826.95 954.62,843.08 984.88,869.11 1003.6,885.25"];
	36 -- 45	[pos="945.74,809.06 966.67,806.31 995.68,802.49 1016.6,799.73"];
	36 -- 256	[pos="903.83,827.49 899.12,832.08 893.94,837.14 889.23,841.73"];
	36 -- 169	[pos="943.79,820.41 976.03,830.67 1032.2,848.53 1064.3,858.75"];
	36 -- 199	[pos="942.23,821.94 947.33,824.01 952.73,826.21 957.84,828.28"];
	36 -- 266	[pos="923.56,830.39 926.1,840.65 929.29,853.5 931.84,863.78"];
	131 -- 297	[pos="592.09,231.37 609.41,224.34 632.98,214.77 650.29,207.74"];
	38 -- 152	[pos="758.67,971.83 768.1,949.89 784.21,912.41 793.66,890.41"];
	38 -- 91	[pos="723.91,989.38 717.07,989.41 709.72,989.44 702.88,989.47"];
	38 -- 155	[pos="776.74,982.92 811.86,974.21 874.66,958.63 909.67,949.95"];
	38 -- 56	[pos="774.28,998.83 807.56,1012.6 868.64,1037.9 901.97,1051.7"];
	38 -- 129	[pos="729.57,978.33 696.27,961.48 632.74,929.34 599.43,912.49"];
	38 -- 62	[pos="733.94,1003.4 705.1,1026.9 647.4,1074.1 618.39,1097.8"];
	38 -- 75	[pos="754.44,1007.6 757.15,1022.8 761,1044.4 763.7,1059.6"];
	38 -- 224	[pos="744.94,971.72 733.91,940.74 711.12,876.69 700.1,845.72"];
	38 -- 184	[pos="756.31,1007.2 763.57,1032.5 776.76,1078.6 784.04,1104"];
	38 -- 95	[pos="778.35,989.08 824.74,988.78 918.7,988.18 965.03,987.88"];
	38 -- 112	[pos="756.37,1007.2 767.08,1044.4 791.53,1129.1 802.23,1166.2"];
	38 -- 122	[pos="724.09,989.28 689.37,989.32 629.54,989.38 594.77,989.42"];
	38 -- 161	[pos="771.27,976.97 793.42,963.43 828.87,941.76 851.05,928.19"];
	278	[height=0.5,
		pos="863.14,1103.4",
		width=0.75];
	38 -- 278	[pos="766.28,1004.6 787.77,1026.5 826.93,1066.5 848.28,1088.2"];
	38 -- 192	[pos="727.46,980.42 707.12,972.84 677.96,961.98 657.63,954.41"];
	155 -- 161	[pos="912.34,933.79 906.32,931.17 899.82,928.34 893.81,925.72"];
	41 -- 48	[pos="783.7,1033.4 777.52,1033.5 770.95,1033.5 764.78,1033.5"];
	41 -- 106	[pos="808.22,1015.1 805.92,999.9 802.65,978.32 800.35,963.18"];
	139 -- 154	[pos="752.25,1225.6 755.87,1229.6 759.75,1233.9 763.36,1238"];
	139 -- 178	[pos="764.09,1214.4 779.36,1217.2 798.6,1220.6 813.92,1223.4"];
	205	[height=0.5,
		pos="813.58,1297.7",
		width=0.75];
	139 -- 205	[pos="751.53,1225.4 765.2,1241.3 786.22,1265.8 799.94,1281.8"];
	237 -- 262	[pos="673.76,652.1 680.21,652.09 687.09,652.09 693.53,652.08"];
	130 -- 199	[pos="1009.9,883.07 1004.2,874.18 997.33,863.27 991.7,854.39"];
	78 -- 84	[pos="1105.6,282.86 1113.3,288.19 1122.2,294.32 1129.9,299.64"];
	78 -- 191	[pos="1081,252.13 1076.1,236.6 1068.8,214.07 1063.8,198.46"];
	78 -- 143	[pos="1113.9,269.34 1120.4,269.24 1127.3,269.13 1133.7,269.04"];
	78 -- 207	[pos="1094.8,252.42 1096.5,248.94 1098.2,245.28 1099.8,241.8"];
	78 -- 116	[pos="1068.8,283.44 1062,288.69 1054.2,294.69 1047.3,299.95"];
	250	[height=0.5,
		pos="1023.4,136.56",
		width=0.75];
	78 -- 250	[pos="1078.4,252.34 1066.3,226.82 1043.8,179.51 1031.7,153.98"];
	48 -- 85	[pos="717.94,1045.8 708.26,1051.8 696.62,1059.1 686.89,1065.1"];
	48 -- 61	[pos="731.67,1051.1 722.96,1076.3 706.99,1122.7 698.27,1148"];
	48 -- 106	[pos="748.98,1016.9 759.69,1001.1 775.72,977.53 786.41,961.77"];
	48 -- 103	[pos="710.47,1033.5 691.5,1033.6 666.31,1033.6 647.37,1033.6"];
	212 -- 277	[pos="341.46,675.99 342.3,678.86 343.17,681.84 344.01,684.71"];
	107	[height=0.5,
		pos="1009.3,1146.1",
		width=0.75];
	56 -- 107	[pos="940.21,1076.5 955.53,1091.9 979.13,1115.7 994.4,1131.1"];
	56 -- 95	[pos="939.36,1045.7 950.72,1033.2 966.57,1015.8 977.92,1003.3"];
	56 -- 110	[pos="951.17,1066.9 956.4,1068 961.89,1069.1 967.11,1070.2"];
	236	[height=0.5,
		pos="1055.4,1102",
		width=0.75];
	56 -- 236	[pos="949.67,1069 972.81,1076.2 1007.3,1087 1030.6,1094.3"];
	170 -- 176	[pos="1071,401.51 1060.1,427.74 1039.8,476.83 1028.9,503.02"];
	70 -- 115	[pos="1236.9,330.4 1255.1,325.5 1279.6,318.91 1297.8,314.02"];
	70 -- 211	[pos="1212.4,355.27 1212.5,358.79 1212.7,362.49 1212.8,366.02"];
	70 -- 143	[pos="1199.6,320.95 1191.7,310.17 1181.2,296.08 1173.2,285.23"];
	115 -- 156	[pos="1297,301.93 1291.5,300.81 1285.7,299.63 1280.2,298.51"];
	115 -- 235	[pos="1303.2,294.93 1287.3,285.07 1265.1,271.31 1249.3,261.45"];
	191 -- 250	[pos="1045.4,164.44 1042.4,160.61 1039.1,156.53 1036.1,152.7"];
	141 -- 168	[pos="27.119,406.55 27.1,412.17 27.08,418.35 27.061,423.96"];
	141 -- 148	[pos="36.658,405.19 50.551,429.93 76.299,475.77 90.194,500.5"];
	81 -- 121	[pos="366.58,389 348.95,366.97 317.41,327.57 299.83,305.61"];
	81 -- 227	[pos="357.53,394.21 334.99,383.06 300.07,365.78 277.46,354.59"];
	81 -- 273	[pos="393.01,420.79 403.51,432.96 417.98,449.73 428.48,461.89"];
	50 -- 252	[pos="283.7,489.54 273.26,495.57 260.67,502.85 250.29,508.85"];
	50 -- 190	[pos="307.03,459.31 309.3,443.15 312.59,419.66 314.86,403.51"];
	50 -- 60	[pos="277.67,480.94 252.62,484.13 215.44,488.87 190.42,492.06"];
	55 -- 238	[pos="802.89,163.63 800.28,172.57 797.14,183.34 794.53,192.26"];
	55 -- 162	[pos="832.32,137.51 836.82,136 841.51,134.41 846.01,132.89"];
	230 -- 248	[pos="750.5,316.97 739,320.93 725.29,325.66 713.78,329.62"];
	230 -- 238	[pos="777.34,290.57 779.99,272.79 784.01,245.8 786.65,228.06"];
	45 -- 47	[pos="1066.3,806.01 1071.5,808.22 1077.1,810.57 1082.3,812.79"];
	45 -- 130	[pos="1039.2,814.25 1035,833.12 1028.6,862.58 1024.4,881.5"];
	45 -- 169	[pos="1054,812.89 1061.2,824.09 1070.7,838.8 1078,849.98"];
	45 -- 69	[pos="1035.1,778.83 1033.7,775.76 1032.2,772.55 1030.7,769.48"];
	45 -- 65	[pos="1069.5,800.74 1090.5,804.35 1119.9,809.39 1140.9,812.99"];
	45 -- 149	[pos="1056.9,811.83 1076.4,833.89 1111.8,874 1131.3,896.14"];
	45 -- 199	[pos="1023.9,809.14 1016.3,814.19 1007.7,819.96 1000.2,824.99"];
	45 -- 294	[pos="1061.9,782.99 1078.6,771.24 1102.8,754.16 1119.5,742.42"];
	166 -- 294	[pos="1223,696.03 1204.9,703.14 1179.8,712.93 1161.7,720.03"];
	166 -- 200	[pos="1243.1,705.12 1240,721.44 1235.6,745.21 1232.6,761.42"];
	256 -- 266	[pos="897.17,866 902.29,868.07 907.72,870.26 912.86,872.33"];
	61 -- 85	[pos="687.05,1147.8 682.63,1132.6 676.3,1110.7 671.88,1095.4"];
	49 -- 138	[pos="1248.9,877.21 1242.5,874.92 1235.6,872.44 1229.2,870.14"];
	49 -- 67	[pos="1299.2,890.92 1338.3,898.48 1411.5,912.61 1450.6,920.15"];
	49 -- 63	[pos="1288.5,870.58 1307.7,851.56 1340.4,819.28 1359.6,800.35"];
	49 -- 242	[pos="1275.3,867.66 1278.8,840.01 1285.4,787.74 1288.9,760.18"];
	49 -- 64	[pos="1294.5,896.97 1326.1,913.25 1384.6,943.42 1416.1,959.7"];
	49 -- 136	[pos="1286.5,901.46 1290.9,906.46 1295.7,912 1300,917.01"];
	49 -- 185	[pos="1300.2,884.1 1328.9,882.24 1373.7,879.33 1402.2,877.47"];
	49 -- 124	[pos="1297.8,878.69 1334.7,868.01 1403.7,848.05 1440.7,837.33"];
	49 -- 288	[pos="1279.7,903.38 1287.2,923.04 1299.4,954.75 1306.9,974.42"];
	49 -- 216	[pos="1289.5,900.53 1308.7,917.56 1340.1,945.5 1359.2,962.51"];
	243	[height=0.5,
		pos="1353,832.85",
		width=0.75];
	49 -- 243	[pos="1292.4,873.03 1305,864.7 1321.3,853.88 1333.8,845.57"];
	67 -- 185	[pos="1461.9,909.81 1456.1,903.8 1449.5,896.92 1443.7,890.93"];
	67 -- 118	[pos="1502.9,929.77 1517.8,932.35 1536.2,935.57 1551.1,938.16"];
	67 -- 73	[pos="1478.1,943.33 1479.3,958.88 1481,981.17 1482.1,996.72"];
	67 -- 218	[pos="1492.4,940.02 1503.6,950.71 1518.8,965.09 1530.1,975.77"];
	67 -- 286	[pos="1489.3,909.06 1493.2,904.09 1497.5,898.62 1501.4,893.65"];
	259	[height=0.5,
		pos="1591.1,1034.6",
		width=0.75];
	67 -- 259	[pos="1492.6,940.4 1514.5,961.3 1553.5,998.67 1575.3,1019.5"];
	51 -- 74	[pos="1608.3,504.79 1592.4,489.9 1568.3,467.26 1552.5,452.5"];
	51 -- 219	[pos="1600.7,511.09 1590.4,507.26 1578.2,502.77 1567.8,498.94"];
	51 -- 163	[pos="1627.1,537.78 1630.2,558.86 1635.5,593.64 1638.7,614.84"];
	51 -- 102	[pos="1648.2,511.29 1663.6,505.78 1683.5,498.64 1698.9,493.13"];
	51 -- 105	[pos="1600.7,528.53 1590.7,532.19 1579.1,536.45 1569.1,540.11"];
	160	[height=0.5,
		pos="1847,482.42",
		width=0.75];
	51 -- 160	[pos="1650.8,515.4 1693.6,508.2 1777.8,494.05 1820.6,486.85"];
	285	[height=0.5,
		pos="1801.7,436.95",
		width=0.75];
	51 -- 285	[pos="1646.9,509.34 1681,493.4 1745.4,463.25 1779.5,447.36"];
	279	[height=0.5,
		pos="1761.7,556.67",
		width=0.75];
	51 -- 279	[pos="1649.6,526.59 1674.2,533.2 1711.5,543.2 1736.2,549.84"];
	51 -- 231	[pos="1630,537.68 1632,544.02 1634.3,551.14 1636.3,557.47"];
	51 -- 226	[pos="1628.9,537.88 1636.5,568.23 1651.7,629.11 1659.2,659.31"];
	51 -- 180	[pos="1650.7,523.9 1657.5,524.95 1664.9,526.08 1671.7,527.14"];
	244	[height=0.5,
		pos="1785,512.66",
		width=0.75];
	51 -- 244	[pos="1651.6,518.62 1681.2,517.29 1728.3,515.19 1757.9,513.87"];
	51 -- 264	[pos="1621.7,537.88 1617.3,568.05 1608.4,628.43 1604,658.79"];
	51 -- 240	[pos="1613.8,536.77 1606.5,548.56 1596.7,564.22 1589.3,575.99"];
	190 -- 221	[pos="321.44,367.28 322.19,363.93 322.98,360.42 323.73,357.07"];
	52 -- 150	[pos="556.95,301.43 572.54,317.21 596.9,341.85 612.53,357.68"];
	52 -- 251	[pos="521.97,298.86 504.74,309.58 480.05,324.93 462.83,335.64"];
	52 -- 248	[pos="566.09,294.77 593.52,304.37 638.12,319.97 665.55,329.56"];
	52 -- 245	[pos="537.25,304.31 529.82,332.06 515.63,385.05 508.23,412.66"];
	52 -- 164	[pos="515.12,288.84 512.2,289.11 509.23,289.39 506.31,289.65"];
	52 -- 171	[pos="546.14,304.43 550.44,323.47 557.17,353.28 561.45,372.24"];
	258	[height=0.5,
		pos="506.59,232.33",
		width=0.75];
	52 -- 258	[pos="531.23,269.86 526.91,263.28 521.94,255.71 517.6,249.11"];
	251 -- 258	[pos="452.18,331.03 464.25,309.14 485.05,271.41 497.13,249.48"];
	53 -- 157	[pos="485.34,641.96 510.27,634.46 548.4,623.01 573.27,615.54"];
	53 -- 145	[pos="464.64,667.56 467.19,678.53 470.43,692.46 472.97,703.38"];
	53 -- 177	[pos="484.96,641.42 489.29,640.01 493.81,638.53 498.14,637.11"];
	80 -- 295	[pos="1300.3,482.57 1338.4,466.43 1413.9,434.38 1451.9,418.27"];
	80 -- 117	[pos="1293.9,478.13 1322.9,453.48 1382.1,403.06 1411.1,378.36"];
	80 -- 134	[pos="1282.4,474.59 1283.2,471.7 1284.1,468.71 1285,465.82"];
	245 -- 251	[pos="491.49,414.13 480.84,399.71 465.37,378.75 454.73,364.34"];
	245 -- 270	[pos="504,448.53 504.07,451.09 504.15,453.72 504.22,456.27"];
	109 -- 127	[pos="867.19,244.5 861.06,247.48 854.4,250.72 848.27,253.71"];
	86 -- 137	[pos="951.13,621.99 959.23,615.72 968.79,608.32 976.91,602.03"];
	86 -- 146	[pos="933.12,617.62 933.09,615.06 933.06,612.43 933.03,609.87"];
	107 -- 236	[pos="1024.9,1131.2 1029.7,1126.6 1035,1121.5 1039.8,1116.9"];
	59 -- 69	[pos="1031.8,718.1 1030.4,723.39 1028.9,729.17 1027.5,734.45"];
	58 -- 261	[pos="612.73,870.41 591.1,885.12 555.93,909.04 534.31,923.75"];
	58 -- 129	[pos="614.34,871.7 608.2,876.73 601.28,882.39 595.13,887.42"];
	58 -- 224	[pos="653.78,847.11 659.5,844.41 665.67,841.5 671.42,838.79"];
	58 -- 213	[pos="604.54,857.53 594.03,857.54 582.03,857.54 571.52,857.54"];
	129 -- 224	[pos="597.51,889.12 618.85,875.63 652.71,854.22 674.09,840.71"];
	129 -- 213	[pos="565.57,885.42 562.66,881.6 559.56,877.51 556.66,873.69"];
	69 -- 199	[pos="1014.3,769.52 1007.1,784.36 996.76,805.63 989.56,820.46"];
	69 -- 294	[pos="1048.6,747.04 1067.5,743.28 1093,738.2 1112,734.42"];
	60 -- 141	[pos="146.15,481.67 119.93,461.1 70.86,422.59 44.683,402.05"];
	60 -- 252	[pos="187.23,504.41 193.32,506.73 199.88,509.23 205.99,511.56"];
	60 -- 168	[pos="140.21,486.3 115.17,476.54 75.752,461.17 50.653,451.39"];
	60 -- 148	[pos="139.5,503.74 134.4,505.49 129.02,507.33 123.92,509.08"];
	62 -- 139	[pos="619.38,1125.3 645.55,1143.9 693.13,1177.7 719.38,1196.4"];
	62 -- 189	[pos="581.53,1099.3 558.65,1084.1 520.81,1059 497.97,1043.9"];
	62 -- 214	[pos="575.73,1105.5 551.55,1099.1 515.2,1089.4 490.92,1083"];
	87	[height=0.5,
		pos="512.77,1182.7",
		width=0.75];
	62 -- 87	[pos="583.48,1126.1 568.03,1138.5 545.58,1156.5 530.14,1168.8"];
	62 -- 92	[pos="600.65,1130.5 600.44,1145.9 600.16,1167.6 599.96,1182.8"];
	62 -- 112	[pos="624.98,1120.5 664.78,1134.4 743.77,1162 783.47,1175.8"];
	62 -- 122	[pos="596.04,1094.3 589.73,1071 578.74,1030.6 572.42,1007.3"];
	189 -- 214	[pos="473.46,1048.9 472.53,1052.1 471.56,1055.4 470.64,1058.5"];
	63 -- 249	[pos="1380.1,767.19 1386,746.8 1395.6,713.83 1401.4,693.57"];
	63 -- 99	[pos="1401.1,790.35 1440.2,797.94 1513.4,812.16 1552.4,819.74"];
	63 -- 242	[pos="1353.3,774.15 1340.8,767.71 1325.2,759.63 1312.7,753.19"];
	63 -- 124	[pos="1396.9,796.11 1411.2,803.16 1429.7,812.31 1444,819.34"];
	63 -- 243	[pos="1366.9,802.71 1365,806.85 1362.9,811.26 1361,815.4"];
	63 -- 292	[pos="1369,767.38 1365.9,758.16 1362.2,746.93 1359.1,737.7"];
	63 -- 271	[pos="1388.6,769.47 1392.8,764.61 1397.4,759.25 1401.6,754.39"];
	99 -- 124	[pos="1551.5,826.08 1533.8,826.91 1510.7,827.99 1492.9,828.82"];
	75 -- 184	[pos="775.59,1094.9 777.2,1098.1 778.89,1101.5 780.51,1104.7"];
	75 -- 112	[pos="773.59,1095.2 781.09,1114.9 793.2,1146.8 800.71,1166.5"];
	242 -- 243	[pos="1302.6,758.76 1313.7,775.13 1330.6,799.98 1341.7,816.32"];
	242 -- 292	[pos="1315,733.58 1319.7,731.91 1324.5,730.16 1329.2,728.49"];
	224 -- 261	[pos="673.74,840.43 639.36,861.31 569.75,903.6 535.42,924.44"];
	64 -- 67	[pos="1451.1,955.11 1455,950.58 1459.2,945.62 1463.1,941.08"];
	64 -- 185	[pos="1436,952.48 1434.5,935.64 1432.3,910.83 1430.8,894.01"];
	64 -- 73	[pos="1453.2,985.71 1458,990.3 1463.2,995.35 1468,999.94"];
	64 -- 216	[pos="1410.6,973.57 1407.9,973.85 1405.1,974.13 1402.4,974.41"];
	64 -- 259	[pos="1460.6,980.36 1489.6,992.38 1539,1012.9 1567.9,1025"];
	65 -- 166	[pos="1177.4,800.68 1192.6,775.6 1221.1,728.64 1236.3,703.59"];
	65 -- 149	[pos="1162.9,835.69 1159,852.51 1153.2,877.34 1149.3,894.03"];
	65 -- 241	[pos="1175.5,834.89 1182.8,850.33 1193.5,872.76 1200.8,888.18"];
	65 -- 294	[pos="1161.3,799.63 1156.3,784.31 1149.1,762.35 1144.1,747.04"];
	65 -- 200	[pos="1187.2,805.22 1194.2,800.86 1202.2,795.96 1209.3,791.61"];
	268	[height=0.5,
		pos="1251.6,949.57",
		width=0.75];
	65 -- 268	[pos="1177.9,834.22 1194.1,859.63 1224.8,907.66 1241,932.98"];
	136 -- 138	[pos="1294.2,919.97 1274.6,907.09 1244.5,887.29 1224.8,874.37"];
	136 -- 288	[pos="1313.6,950.8 1313.6,958.01 1313.6,966.31 1313.6,973.56"];
	149 -- 241	[pos="1171.9,909.21 1175.3,908.87 1178.8,908.53 1182.3,908.19"];
	149 -- 268	[pos="1169,920.32 1186.4,926.49 1209.9,934.81 1227.4,941"];
	185 -- 286	[pos="1456.4,876.31 1466.1,876.52 1477,876.75 1486.7,876.95"];
	291	[height=0.5,
		pos="648.07,18",
		width=0.75];
	247 -- 291	[pos="644.47,44.159 644.83,41.488 645.21,38.735 645.58,36.062"];
	247 -- 299	[pos="623.34,75.466 615.16,81.324 605.59,88.185 597.41,94.049"];
	118 -- 218	[pos="1566.4,959.48 1563.2,964.22 1559.8,969.36 1556.6,974.08"];
	118 -- 259	[pos="1580.2,960.91 1582.6,977.01 1586,1000.4 1588.4,1016.5"];
	72 -- 94	[pos="566.34,733.33 560.55,738.79 553.98,744.97 548.18,750.43"];
	73 -- 118	[pos="1501.6,1000.9 1518.4,988.09 1543.1,969.13 1559.8,956.38"];
	73 -- 218	[pos="1507,1005.6 1512,1003.7 1517.2,1001.7 1522.1,999.73"];
	73 -- 259	[pos="1509.6,1019.6 1526.3,1022.7 1548.1,1026.7 1564.9,1029.8"];
	187 -- 289	[pos="1717.3,392.79 1716.3,389.48 1715.1,386.02 1714,382.7"];
	163 -- 231	[pos="1641.6,614.79 1641.6,608.04 1641.7,600.4 1641.8,593.65"];
	163 -- 226	[pos="1650.1,650.24 1651.7,653.43 1653.4,656.77 1655,659.96"];
	163 -- 240	[pos="1621.9,620.56 1614.5,615.76 1606,610.29 1598.5,605.47"];
	76 -- 187	[pos="1680.2,438.52 1687.7,433.69 1696.1,428.18 1703.6,423.33"];
	76 -- 102	[pos="1682.2,462.62 1688.5,466.02 1695.4,469.74 1701.7,473.13"];
	76 -- 180	[pos="1669,468.51 1675.3,481.95 1684,500.47 1690.3,513.9"];
	76 -- 289	[pos="1670.2,434.08 1678.5,418.96 1690.6,396.98 1698.9,381.87"];
	76 -- 254	[pos="1636.7,442.75 1632.2,441.19 1627.6,439.57 1623.1,438.01"];
	76 -- 267	[pos="1656.9,433.03 1654.8,422.98 1652,410.53 1649.8,400.47"];
	102 -- 187	[pos="1723,466.26 1723,454.8 1723,440.09 1723.1,428.67"];
	246	[height=0.5,
		pos="1909,446.73",
		width=0.75];
	102 -- 246	[pos="1748.8,479.28 1784.2,472.08 1847.6,459.22 1883.1,452.01"];
	102 -- 160	[pos="1750.1,484.07 1770.8,483.72 1799.1,483.24 1819.8,482.88"];
	102 -- 285	[pos="1743.2,472.28 1755,465.18 1769.7,456.26 1781.5,449.16"];
	102 -- 279	[pos="1732.1,501.63 1738.3,513.13 1746.4,528.23 1752.6,539.7"];
	102 -- 231	[pos="1708.8,500.34 1693.9,517 1670.7,543.07 1655.9,559.65"];
	102 -- 180	[pos="1713.9,501.67 1711.8,505.73 1709.6,510.07 1707.4,514.13"];
	102 -- 244	[pos="1745.3,494.69 1750.9,497.21 1756.8,499.9 1762.4,502.42"];
	280	[height=0.5,
		pos="1909,496.58",
		width=0.75];
	102 -- 280	[pos="1750,486.29 1785.3,488.57 1846.6,492.55 1881.9,494.83"];
	184 -- 278	[pos="814.65,1115.6 822.01,1113.8 830.03,1111.7 837.4,1109.9"];
	77 -- 81	[pos="390.78,321.25 388.26,339.82 384.38,368.44 381.87,386.96"];
	77 -- 228	[pos="402.31,285.9 411.48,268.58 425.58,241.96 434.78,224.59"];
	77 -- 82	[pos="382.62,286.21 377.13,277.54 370.45,266.99 364.96,258.32"];
	77 -- 121	[pos="366.47,299.65 350.38,297.64 329.97,295.08 313.88,293.07"];
	228 -- 265	[pos="434.31,224.23 431.76,228.73 429,233.58 426.45,238.07"];
	117 -- 134	[pos="1407.8,376.29 1381.7,392.21 1336.3,419.9 1310.2,435.83"];
	114 -- 293	[pos="77.911,328.14 70.176,322.54 61.191,316.04 53.458,310.44"];
	114 -- 172	[pos="94.152,359.49 93.268,367.11 92.242,375.97 91.358,383.6"];
	114 -- 147	[pos="109.58,357.33 118.24,367.67 129.48,381.1 138.11,391.41"];
	114 -- 182	[pos="121.92,335.16 128.73,333.5 136.09,331.7 142.9,330.05"];
	82 -- 228	[pos="377.87,232.55 390.94,227.55 407.14,221.36 420.23,216.36"];
	82 -- 281	[pos="327,241.84 319.34,241.93 311.02,242.02 303.37,242.1"];
	82 -- 121	[pos="335.6,254.96 326.28,261.64 315.04,269.69 305.73,276.37"];
	82 -- 265	[pos="380.13,247.07 383.76,247.85 387.5,248.65 391.13,249.43"];
	281 -- 290	[pos="249.74,246.44 234.8,248.73 216.17,251.57 201.19,253.86"];
	143 -- 207	[pos="1143.9,254.44 1137.8,249.41 1131,243.76 1125,238.73"];
	121 -- 228	[pos="308.58,278.43 338.61,262.64 392.82,234.16 422.71,218.45"];
	121 -- 281	[pos="282.97,271.82 282.1,268.06 281.19,264.08 280.32,260.31"];
	121 -- 290	[pos="262.12,282.66 243.46,277.39 218.08,270.23 199.44,264.97"];
	83 -- 189	[pos="431.33,1016.6 438.68,1018.8 446.71,1021.3 454.04,1023.5"];
	83 -- 165	[pos="399.64,991.21 393.36,974.96 384.1,950.99 377.83,934.75"];
	83 -- 122	[pos="433.08,1005.7 462.93,1002.1 511.06,996.28 540.93,992.67"];
	83 -- 222	[pos="387.82,995.75 379.94,990.2 370.8,983.75 362.93,978.19"];
	165 -- 222	[pos="361.51,934.14 358.99,938.66 356.27,943.54 353.75,948.06"];
	103 -- 119	[pos="597.6,1043.6 587.2,1048.1 574.9,1053.5 564.5,1058.1"];
	103 -- 175	[pos="621.33,1051.8 622.68,1075.1 625.01,1115.3 626.36,1138.6"];
	87 -- 214	[pos="504.95,1165.1 496.13,1145.3 481.87,1113.2 473.1,1093.5"];
	87 -- 92	[pos="538.86,1188.2 549.96,1190.5 562.88,1193.2 573.95,1195.5"];
	87 -- 142	[pos="518.55,1164.9 520.98,1157.4 523.81,1148.7 526.25,1141.2"];
	92 -- 139	[pos="626.71,1202.6 651.08,1204.2 686.74,1206.4 711.09,1208"];
	92 -- 142	[pos="586.02,1185.2 574.27,1171.8 557.44,1152.5 545.7,1139.1"];
	88 -- 196	[pos="724.48,709.47 753.47,730.69 809.83,771.95 838.86,793.2"];
	89 -- 131	[pos="725.76,147.56 691.67,167.82 623.37,208.42 589.25,228.69"];
	89 -- 100	[pos="720.12,141.05 714.24,142.31 707.99,143.65 702.11,144.91"];
	89 -- 234	[pos="748.45,117.22 750.4,102.1 753.16,80.714 755.11,65.596"];
	89 -- 202	[pos="764.71,122.36 772.56,116.82 781.69,110.39 789.54,104.86"];
	90 -- 97	[pos="199.43,577.81 209.67,584.83 222.25,593.46 232.5,600.49"];
	95 -- 201	[pos="994.17,969.55 994.46,966.99 994.76,964.37 995.05,961.81"];
	95 -- 155	[pos="974.35,974.01 967.54,968.76 959.77,962.77 952.95,957.5"];
	95 -- 107	[pos="994.07,1005.9 997.4,1036.4 1004.1,1097.7 1007.4,1128.1"];
	95 -- 203	[pos="999.91,1005.1 1001.3,1008.2 1002.7,1011.4 1004.1,1014.5"];
	95 -- 110	[pos="992.27,1005.9 992.41,1021 992.62,1042.4 992.76,1057.5"];
	95 -- 236	[pos="1001.7,1005.1 1013.7,1026.7 1034,1063.4 1045.9,1084.9"];
	95 -- 135	[pos="1010,1001.4 1023.9,1012 1042.9,1026.5 1056.8,1037.1"];
	95 -- 161	[pos="971.86,975.69 949.55,962.42 913.85,941.21 891.5,927.93"];
	100 -- 131	[pos="659.56,164.55 639.49,181.42 606.09,209.51 585.92,226.47"];
	100 -- 247	[pos="669.57,132.97 663.58,117.59 654.9,95.276 648.89,79.811"];
	100 -- 234	[pos="689.03,134.32 704.27,114.96 729.68,82.664 744.88,63.352"];
	100 -- 133	[pos="679.49,132.53 679.96,129.87 680.44,127.12 680.91,124.45"];
	100 -- 202	[pos="699.01,140.34 723.15,129.59 761.15,112.67 785.34,101.9"];
	100 -- 291	[pos="672.54,132.57 667.14,107.29 657.33,61.35 651.91,36"];
	100 -- 297	[pos="675.25,168.54 675.01,172.36 674.77,176.39 674.53,180.21"];
	179 -- 208	[pos="253.26,712.5 240.63,718 224.97,724.83 212.32,730.34"];
	179 -- 209	[pos="281.65,720.52 286.66,736.44 293.93,759.58 298.94,775.49"];
	179 -- 225	[pos="261.74,687.08 245.74,669.68 219.93,641.63 203.92,624.23"];
	142 -- 214	[pos="513.47,1110.3 504.39,1103.8 493.47,1096.1 484.34,1089.6"];
	101 -- 179	[pos="284.52,729 283.59,726.13 282.63,723.15 281.7,720.27"];
	101 -- 208	[pos="263.2,744.99 248.74,744.07 230.98,742.95 216.51,742.04"];
	101 -- 277	[pos="308.22,733.16 315.4,727.76 323.66,721.56 330.87,716.14"];
	101 -- 209	[pos="295.64,764.35 296.78,768.07 297.99,771.99 299.14,775.71"];
	101 -- 257	[pos="317.41,746.57 320.04,746.56 322.71,746.55 325.34,746.53"];
	208 -- 232	[pos="170.61,727.4 162.81,722.05 153.78,715.85 145.94,710.47"];
	208 -- 298	[pos="173.11,725.79 151.46,706.51 113.47,672.67 91.839,653.4"];
	246 -- 280	[pos="1909,465.01 1909,469.35 1909,473.97 1909,478.31"];
	133 -- 247	[pos="669.36,90.921 665.19,86.526 660.65,81.746 656.49,77.366"];
	133 -- 234	[pos="701.47,92.429 713.16,83.013 728.52,70.653 740.2,61.258"];
	133 -- 202	[pos="710.69,103.28 731.48,100.82 760.26,97.411 781.14,94.939"];
	133 -- 291	[pos="676.96,88.956 670.65,73.454 661.47,50.925 655.17,35.434"];
	133 -- 299	[pos="656.93,106.7 641.19,106.86 621.44,107.05 605.72,107.21"];
	104 -- 144	[pos="676.96,590.09 677.46,587.43 677.97,584.68 678.47,582.01"];
	104 -- 237	[pos="663.39,624.69 661.24,628.2 658.96,631.91 656.81,635.43"];
	105 -- 219	[pos="1545,530.56 1544.8,523.43 1544.6,515.28 1544.5,508.17"];
	119 -- 175	[pos="556.77,1083.5 572.47,1099.8 597.05,1125.3 612.69,1141.5"];
	110 -- 236	[pos="1015.8,1085.4 1021.3,1087.7 1027.1,1090.1 1032.5,1092.4"];
	110 -- 135	[pos="1017.9,1068.1 1028,1065 1039.7,1061.4 1049.8,1058.3"];
	112 -- 139	[pos="783.53,1192.9 776.47,1195.5 768.75,1198.4 761.71,1201"];
	112 -- 184	[pos="802.14,1166.2 799.71,1157.9 796.83,1148 794.4,1139.7"];
	112 -- 206	[pos="833.79,1188.9 862.98,1194.1 909.73,1202.5 938.84,1207.7"];
	112 -- 178	[pos="819.47,1200.3 822.33,1204.1 825.38,1208.2 828.24,1212"];
	112 -- 205	[pos="808.39,1202.1 809.54,1223.3 811.43,1258.2 812.59,1279.4"];
	112 -- 183	[pos="831.36,1193.1 845.86,1198.5 864.28,1205.3 878.72,1210.7"];
	112 -- 278	[pos="818.96,1167.4 828.59,1153.5 842.23,1133.7 851.8,1119.8"];
	162 -- 238	[pos="855.77,139.97 841.13,155.42 818.62,179.17 803.93,194.68"];
	156 -- 235	[pos="1244.6,276.29 1242.8,272.99 1240.8,269.53 1239,266.22"];
	156 -- 282	[pos="1257.3,275.24 1260.1,259.85 1264,237.8 1266.8,222.42"];
	116 -- 170	[pos="1040.9,330.41 1048.7,341.59 1059,356.27 1066.8,367.42"];
	116 -- 191	[pos="1033.1,295.82 1038.7,270.39 1048.7,224.18 1054.2,198.68"];
	116 -- 250	[pos="1028.7,295.49 1027.5,261.44 1025.1,188.73 1024,154.76"];
	116 -- 176	[pos="1028.6,332.13 1027.1,371.47 1023.7,463.49 1022.3,502.52"];
	172 -- 293	[pos="80.327,384.41 70.297,365.05 54.122,333.83 44.087,314.46"];
	122 -- 189	[pos="545.14,999.96 531.57,1006.3 514.33,1014.4 500.81,1020.7"];
	122 -- 165	[pos="543.86,980.72 506.08,966.81 432.64,939.78 394.81,925.86"];
	122 -- 222	[pos="540.63,986.5 497.6,981.8 413.84,972.64 370.96,967.95"];
	122 -- 192	[pos="586.77,976.76 595.5,970.99 605.81,964.18 614.56,958.39"];
	128 -- 287	[pos="1306.8,404.03 1312.3,404.03 1318.1,404.03 1323.6,404.03"];
	128 -- 239	[pos="1278.6,385.88 1278.4,383.32 1278.3,380.69 1278.2,378.13"];
	125 -- 188	[pos="1131.5,529.16 1134.5,525.33 1137.7,521.24 1140.7,517.42"];
	218 -- 259	[pos="1561,1005.4 1565.8,1010 1571,1015.1 1575.7,1019.7"];
	132 -- 212	[pos="336.27,627.79 336.28,631.79 336.28,636.03 336.28,640.03"];
	135 -- 203	[pos="1049.8,1043.2 1045.5,1041.9 1040.9,1040.5 1036.5,1039.2"];
	202 -- 234	[pos="791.55,77.212 785.89,72.257 779.57,66.721 773.92,61.775"];
	199 -- 256	[pos="954.93,842.37 938.31,845.3 916.9,849.07 900.27,852"];
	199 -- 266	[pos="965.97,852.66 961.3,857.25 956.15,862.31 951.48,866.9"];
	145 -- 263	[pos="453.94,730.5 448.82,732.54 443.39,734.71 438.26,736.75"];
	154 -- 178	[pos="800.85,1244.2 806.15,1242 811.79,1239.7 817.09,1237.6"];
	154 -- 205	[pos="790.49,1269.6 793.72,1273.5 797.19,1277.7 800.43,1281.7"];
	147 -- 172	[pos="124.28,404.78 121.67,404.54 119.02,404.31 116.41,404.08"];
	147 -- 284	[pos="160.26,424.4 161.92,427.6 163.65,430.95 165.31,434.15"];
	147 -- 182	[pos="155.05,389.09 157.93,375.11 161.89,355.84 164.77,341.87"];
	193 -- 229	[pos="779.55,568.47 777.09,563.93 774.43,559.04 771.97,554.5"];
	148 -- 168	[pos="84.967,502.16 72.358,489.11 54.287,470.41 41.685,457.37"];
	148 -- 260	[pos="98.659,499.07 98.263,491.92 97.81,483.73 97.414,476.6"];
	241 -- 268	[pos="1224,920.94 1228.2,925.3 1232.7,930.05 1236.9,934.4"];
	164 -- 251	[pos="468.4,308.93 463.76,316.02 458.38,324.25 453.74,331.33"];
	164 -- 258	[pos="487.25,274.83 490.83,266.97 495.06,257.68 498.64,249.79"];
	178 -- 205	[pos="833.56,1245.7 829.54,1256.2 824.45,1269.4 820.42,1279.9"];
	178 -- 183	[pos="866.97,1224.5 869.86,1224.1 872.8,1223.6 875.69,1223.2"];
	235 -- 282	[pos="1243.6,233.53 1247.6,229.21 1251.8,224.51 1255.8,220.18"];
	158 -- 269	[pos="920.17,337.74 926.75,331.48 934.39,324.21 940.97,317.95"];
	158 -- 195	[pos="931.6,354.48 934.21,354.66 936.87,354.85 939.48,355.03"];
	186 -- 274	[pos="1337.9,481.27 1327,492.95 1312,508.98 1301.1,520.78"];
	274 -- 287	[pos="1294.8,519.23 1307.1,493.83 1330,446.76 1342.3,421.36"];
	160 -- 285	[pos="1831.9,467.28 1827.1,462.42 1821.7,457.04 1816.9,452.18"];
	160 -- 244	[pos="1824.9,493.17 1819.1,496.02 1812.8,499.1 1806.9,501.95"];
	160 -- 280	[pos="1872.6,488.26 1876.1,489.06 1879.6,489.87 1883.1,490.66"];
	226 -- 264	[pos="1636.5,677.13 1633.9,677.13 1631.2,677.12 1628.6,677.12"];
	226 -- 240	[pos="1648.5,662.07 1633.1,646.82 1609.5,623.36 1594.1,608.06"];
	171 -- 245	[pos="545.87,402.84 538.63,407.54 530.43,412.87 523.18,417.58"];
	171 -- 276	[pos="576.13,373.36 581.63,364.71 588.33,354.2 593.82,345.56"];
	171 -- 270	[pos="553.77,406.35 543.08,421.18 527.36,442.99 516.62,457.9"];
	174 -- 179	[pos="161.4,661.28 186.75,670.42 226.65,684.8 252.06,693.95"];
	174 -- 208	[pos="147.6,669.6 156.77,685.12 170.3,707.99 179.47,723.49"];
	174 -- 232	[pos="133.23,670.57 132.52,673.48 131.78,676.49 131.07,679.39"];
	174 -- 225	[pos="154.35,638.54 160.29,633.52 166.98,627.86 172.92,622.84"];
	232 -- 298	[pos="112.99,681.62 105.65,673.24 96.641,662.96 89.297,654.58"];
	183 -- 206	[pos="929.3,1216.5 932.22,1216.2 935.19,1215.8 938.11,1215.5"];
	209 -- 225	[pos="294.17,776.68 272.34,741.6 221.98,660.67 200.1,625.51"];
	180 -- 279	[pos="1721.7,540.58 1727.2,542.79 1733,545.15 1738.5,547.36"];
	180 -- 231	[pos="1680.9,544.95 1674.1,550.2 1666.4,556.19 1659.7,561.45"];
	180 -- 244	[pos="1724.4,525.68 1735.4,523.32 1748.1,520.59 1759,518.23"];
	182 -- 293	[pos="142.46,318.61 118.96,313.92 84.575,307.05 61.098,302.37"];
	182 -- 227	[pos="194.09,329.66 205.3,332.22 218.43,335.22 229.65,337.79"];
	244 -- 246	[pos="1806.3,501.32 1829,489.25 1864.8,470.24 1887.6,458.14"];
	244 -- 285	[pos="1788.9,494.71 1791.6,482.65 1795.1,466.8 1797.8,454.76"];
	244 -- 279	[pos="1775.9,529.8 1774.2,532.99 1772.5,536.32 1770.8,539.5"];
	244 -- 280	[pos="1811.6,509.21 1832.5,506.5 1861.5,502.74 1882.5,500.03"];
	192 -- 223	[pos="608.1,951.09 577.12,957.68 525.51,968.67 494.49,975.27"];
	254 -- 267	[pos="1614,414.37 1619.4,408.96 1625.4,402.88 1630.8,397.47"];
	215 -- 273	[pos="446.1,503.46 445.7,500.9 445.28,498.27 444.88,495.72"];
	200 -- 241	[pos="1226.3,797.43 1222.5,821.42 1215.8,863.52 1212,887.49"];
	200 -- 275	[pos="1226.3,761.44 1225.7,758.11 1225.1,754.63 1224.6,751.31"];
	200 -- 268	[pos="1231.6,797.57 1235.9,830.33 1244.9,898.82 1249.2,931.49"];
	243 -- 292	[pos="1353,814.7 1353.1,793.61 1353.1,759.03 1353.2,737.96"];
	257 -- 277	[pos="351.21,728.25 351.01,725.69 350.8,723.06 350.6,720.51"];
	272 -- 296	[pos="1502.1,708.68 1506.2,707.48 1510.4,706.25 1514.4,705.05"];
}
