graph {
	graph [bb="0,0,545.93,439.7",
		outputorder=edgesfirst,
		overlap=prism,
		size="50,50!",
		start=9652
	];
	node [label="\N"];
	0	[height=0.5,
		pos="425.82,331.89",
		width=0.75];
	8	[height=0.5,
		pos="244.81,420.53",
		width=0.75];
	0 -- 8	[pos="403.99,342.59 369.2,359.62 301.56,392.74 266.72,409.8"];
	2	[height=0.5,
		pos="244.18,232.86",
		width=0.75];
	0 -- 2	[pos="404.63,320.34 369.63,301.26 300.15,263.38 265.23,244.34"];
	6	[height=0.5,
		pos="355.61,421.7",
		width=0.75];
	0 -- 6	[pos="413.27,347.95 400.57,364.2 381.04,389.18 368.29,405.48"];
	9	[height=0.5,
		pos="354.34,199.65",
		width=0.75];
	0 -- 9	[pos="416.62,314.88 402.9,289.48 377.21,241.96 363.51,216.6"];
	1	[height=0.5,
		pos="436.84,143.52",
		width=0.75];
	0 -- 1	[pos="426.88,313.83 428.98,277.83 433.68,197.49 435.78,161.53"];
	14	[height=0.5,
		pos="178.97,317.17",
		width=0.75];
	8 -- 14	[pos="234.23,403.92 222.02,384.75 202.03,353.38 189.74,334.08"];
	16	[height=0.5,
		pos="311.09,302.7",
		width=0.75];
	8 -- 16	[pos="254.31,403.65 266.83,381.38 288.77,342.38 301.39,319.94"];
	2 -- 8	[pos="244.24,251.2 244.36,287.17 244.63,366.59 244.75,402.39"];
	3	[height=0.5,
		pos="74.963,317.77",
		width=0.75];
	2 -- 3	[pos="222.4,243.79 189.91,260.09 129.1,290.61 96.654,306.88"];
	12	[height=0.5,
		pos="83.288,197.94",
		width=0.75];
	2 -- 12	[pos="218.33,227.25 188.3,220.73 139.07,210.05 109.07,203.54"];
	5	[height=0.5,
		pos="128.27,70.131",
		width=0.75];
	2 -- 5	[pos="232.42,216.36 210.21,185.17 162.29,117.9 140.05,86.674"];
	15	[height=0.5,
		pos="251.36,61.842",
		width=0.75];
	2 -- 15	[pos="244.94,214.56 246.33,181.64 249.22,112.83 250.6,80.013"];
	3 -- 8	[pos="95.113,329.96 127.8,349.74 192.01,388.59 224.69,408.35"];
	3 -- 14	[pos="102.02,317.61 117.31,317.52 136.36,317.41 151.69,317.32"];
	4	[height=0.5,
		pos="27,153.06",
		width=0.75];
	3 -- 4	[pos="69.738,299.83 60.512,268.14 41.439,202.65 32.218,170.98"];
	3 -- 12	[pos="76.227,299.57 77.792,277.05 80.441,238.91 82.011,216.31"];
	11	[height=0.5,
		pos="181.5,173.71",
		width=0.75];
	3 -- 11	[pos="86.977,301.52 107.44,273.86 148.83,217.9 169.37,190.12"];
	14 -- 16	[pos="205.7,314.24 228.63,311.73 261.48,308.13 284.39,305.63"];
	6 -- 8	[pos="328.51,421.42 311.34,421.23 289.21,421 272.02,420.82"];
	6 -- 14	[pos="335.35,409.71 301.37,389.6 233.27,349.3 199.27,329.18"];
	6 -- 9	[pos="355.51,403.53 355.27,361.79 354.69,259.45 354.45,217.76"];
	6 -- 16	[pos="349.04,404.14 340.62,381.65 326.12,342.87 317.68,320.33"];
	4 -- 14	[pos="41.297,168.5 70.261,199.78 135.57,270.31 164.6,301.65"];
	4 -- 12	[pos="44.501,167.01 51.214,172.37 58.874,178.47 65.603,183.84"];
	4 -- 5	[pos="44.179,138.99 62.801,123.74 92.35,99.545 111.01,84.268"];
	4 -- 11	[pos="53.56,156.61 81.86,160.39 126.41,166.35 154.77,170.14"];
	7	[height=0.5,
		pos="189.36,18",
		width=0.75];
	4 -- 7	[pos="44.068,138.86 75.168,112.99 140.74,58.446 172.03,32.415"];
	12 -- 14	[pos="96.192,214.02 114.45,236.77 147.65,278.14 165.96,300.96"];
	12 -- 15	[pos="100.64,183.89 132.85,157.81 201.53,102.2 233.85,76.022"];
	5 -- 12	[pos="122.01,87.902 113.42,112.32 98.055,155.98 89.489,180.32"];
	5 -- 11	[pos="137.06,87.236 146.92,106.43 162.83,137.38 172.7,156.58"];
	5 -- 7	[pos="144.96,55.886 153.58,48.53 164.07,39.581 172.68,32.228"];
	5 -- 15	[pos="155.28,68.312 175.81,66.93 203.9,65.038 224.41,63.657"];
	10	[height=0.5,
		pos="333.29,79.46",
		width=0.75];
	5 -- 10	[pos="155.49,71.37 194.81,73.159 267.07,76.447 306.27,78.231"];
	11 -- 14	[pos="181.18,191.88 180.69,219.48 179.77,271.64 179.29,299.15"];
	11 -- 16	[pos="196.62,188.76 221.46,213.48 270.63,262.43 295.66,287.35"];
	9 -- 14	[pos="335.24,212.45 301.51,235.06 231.76,281.79 198.05,304.38"];
	9 -- 11	[pos="327.72,195.66 295.14,190.77 240.34,182.54 207.88,177.67"];
	9 -- 10	[pos="351.19,181.66 347.22,159 340.44,120.29 336.46,97.577"];
	13	[height=0.5,
		pos="518.93,48.388",
		width=0.75];
	9 -- 13	[pos="370.42,184.87 401.97,155.88 471.62,91.865 503.03,63.005"];
	9 -- 16	[pos="347.01,217.13 339.05,236.08 326.43,266.15 318.46,285.14"];
	7 -- 11	[pos="188.44,36.167 186.93,66.171 183.92,125.73 182.41,155.66"];
	7 -- 9	[pos="203.42,33.487 234.59,67.807 309.17,149.92 340.31,184.2"];
	7 -- 15	[pos="207.96,31.154 215.81,36.703 224.92,43.149 232.77,48.697"];
	7 -- 10	[pos="212.16,27.739 238.95,39.179 283.16,58.055 310.11,69.564"];
	10 -- 11	[pos="313.44,91.782 284.35,109.85 230.44,143.32 201.35,161.39"];
	10 -- 15	[pos="307.36,73.886 297.71,71.809 286.76,69.454 277.11,67.38"];
	10 -- 13	[pos="359.49,75.074 394.77,69.169 457.19,58.722 492.56,52.802"];
	10 -- 16	[pos="331.47,97.729 327.3,139.7 317.07,242.59 312.9,284.5"];
	1 -- 2	[pos="414.36,153.95 377.24,171.16 303.54,205.34 266.51,222.51"];
	1 -- 9	[pos="417.7,156.54 404.38,165.61 386.68,177.65 373.37,186.7"];
	1 -- 15	[pos="414.09,133.51 378.4,117.79 309.63,87.503 274,71.812"];
	1 -- 10	[pos="416.87,131.17 398.54,119.83 371.51,103.11 353.19,91.775"];
	1 -- 13	[pos="450.39,127.81 465.6,110.19 490.14,81.758 505.35,64.121"];
}
