graph {
	graph [bb="0,0,408.81,443.94",
		outputorder=edgesfirst,
		overlap=prism,
		size="50,50!",
		start=6299
	];
	node [label="\N"];
	1	[height=0.5,
		pos="331.96,173.77",
		width=0.75];
	2	[height=0.5,
		pos="270.63,307.08",
		width=0.75];
	1 -- 2	[pos="323.94,191.2 312.19,216.74 290.41,264.09 278.65,289.64"];
	5	[height=0.5,
		pos="186.16,259.01",
		width=0.75];
	1 -- 5	[pos="311.38,185.8 283.59,202.05 234.37,230.83 206.64,247.04"];
	3	[height=0.5,
		pos="332.64,270.8",
		width=0.75];
	1 -- 3	[pos="332.08,192.02 332.21,209.37 332.39,235.31 332.51,252.63"];
	4	[height=0.5,
		pos="185.64,187.15",
		width=0.75];
	1 -- 4	[pos="305.12,176.22 278.88,178.62 239.15,182.26 212.8,184.67"];
	8	[height=0.5,
		pos="379.4,18",
		width=0.75];
	1 -- 8	[pos="337.4,155.9 346.55,125.85 364.91,65.567 374.02,35.66"];
	2 -- 5	[pos="249.75,295.19 236.66,287.74 219.85,278.18 206.8,270.76"];
	2 -- 4	[pos="258.82,290.4 242.58,267.49 213.54,226.52 197.36,203.69"];
	7	[height=0.5,
		pos="381.81,425.94",
		width=0.75];
	2 -- 7	[pos="285.17,322.62 306.48,345.4 345.96,387.62 367.27,410.4"];
	6	[height=0.5,
		pos="27,224.14",
		width=0.75];
	5 -- 6	[pos="160.24,253.33 130.55,246.83 82.221,236.24 52.652,229.76"];
	3 -- 5	[pos="305.77,268.64 279.51,266.53 239.73,263.32 213.35,261.2"];
	3 -- 4	[pos="311.89,258.99 283.88,243.05 234.25,214.81 206.29,198.9"];
	3 -- 7	[pos="338.28,288.6 347.71,318.37 366.59,377.93 376.08,407.87"];
	4 -- 6	[pos="160.15,193.1 130.64,199.98 82.29,211.25 52.688,218.15"];
	0	[height=0.5,
		pos="269.59,138.07",
		width=0.75];
	0 -- 2	[pos="269.71,156.16 269.91,188.6 270.32,256.33 270.52,288.86"];
	0 -- 5	[pos="257.99,154.89 242.05,178 213.55,219.31 197.66,242.34"];
	0 -- 3	[pos="277.84,155.43 289.92,180.86 312.31,228.01 324.4,253.45"];
	0 -- 4	[pos="249.27,149.95 236.17,157.61 219.19,167.54 206.07,175.21"];
	0 -- 8	[pos="283.95,122.38 305,99.364 344,56.716 365.04,33.701"];
}
