graph {
	graph [bb="0,0,1674.4,1027.2",
		outputorder=edgesfirst,
		overlap=prism,
		size="50,50!",
		start=2972
	];
	node [label="\N"];
	0	[height=0.5,
		pos="637.63,500.23",
		width=0.75];
	50	[height=0.5,
		pos="585.78,733.84",
		width=0.75];
	0 -- 50	[pos="633.65,518.18 624,561.66 599.44,672.29 589.78,715.84"];
	81	[height=0.5,
		pos="657.77,662.81",
		width=0.75];
	0 -- 81	[pos="639.86,518.25 643.73,549.5 651.65,613.4 655.53,644.71"];
	85	[height=0.5,
		pos="516.75,270.63",
		width=0.75];
	0 -- 85	[pos="628.54,482.98 606.09,440.32 548.17,330.31 525.77,287.78"];
	88	[height=0.5,
		pos="578.77,288.8",
		width=0.75];
	0 -- 88	[pos="632.61,482.21 621.49,442.26 594.88,346.68 583.77,306.78"];
	104	[height=0.5,
		pos="443.91,606.24",
		width=0.75];
	0 -- 104	[pos="616.53,511.78 579.27,532.17 502.23,574.33 464.99,594.71"];
	108	[height=0.5,
		pos="640.79,307.49",
		width=0.75];
	0 -- 108	[pos="637.93,482.1 638.53,445.36 639.89,362.52 640.49,325.71"];
	112	[height=0.5,
		pos="351.08,553.58",
		width=0.75];
	0 -- 112	[pos="611.44,505.11 556.87,515.27 431.54,538.61 377.1,548.74"];
	114	[height=0.5,
		pos="413.11,554.31",
		width=0.75];
	0 -- 114	[pos="611.87,506.44 568.56,516.87 481.67,537.8 438.56,548.18"];
	119	[height=0.5,
		pos="470.67,429.15",
		width=0.75];
	0 -- 119	[pos="614.76,490.5 582.88,476.92 525.4,452.45 493.53,438.88"];
	128	[height=0.5,
		pos="327.11,644.4",
		width=0.75];
	0 -- 128	[pos="615.3,510.6 558.14,537.14 407.05,607.29 349.66,633.93"];
	129	[height=0.5,
		pos="771.85,738.4",
		width=0.75];
	0 -- 129	[pos="647.28,517.36 672.05,561.3 737.62,677.65 762.29,721.42"];
	135	[height=0.5,
		pos="763.74,556.29",
		width=0.75];
	0 -- 135	[pos="660.17,510.26 682.99,520.4 718.07,535.99 740.96,546.17"];
	150	[height=0.5,
		pos="532.74,395.59",
		width=0.75];
	0 -- 150	[pos="622.6,485.24 602.78,465.46 568.06,430.83 548.08,410.89"];
	153	[height=0.5,
		pos="767.32,506.11",
		width=0.75];
	0 -- 153	[pos="664.82,501.46 686.95,502.47 718.04,503.88 740.17,504.88"];
	188	[height=0.5,
		pos="487.3,662.25",
		width=0.75];
	0 -- 188	[pos="623.21,515.77 594.55,546.66 530.7,615.48 501.89,646.53"];
	190	[height=0.5,
		pos="436.24,358.81",
		width=0.75];
	0 -- 190	[pos="618.68,486.93 580.2,459.91 493.3,398.88 454.99,371.97"];
	204	[height=0.5,
		pos="702.81,268.78",
		width=0.75];
	0 -- 204	[pos="642.64,482.46 654.77,439.37 685.64,329.76 697.79,286.62"];
	245	[height=0.5,
		pos="891.47,556.11",
		width=0.75];
	0 -- 245	[pos="663.37,505.9 712.02,516.61 816.96,539.71 865.67,550.43"];
	246	[height=0.5,
		pos="448.21,706.29",
		width=0.75];
	0 -- 246	[pos="623.39,515.72 588.2,554 497.45,652.73 462.36,690.91"];
	1	[height=0.5,
		pos="594.77,365.92",
		width=0.75];
	51	[height=0.5,
		pos="738.15,418.07",
		width=0.75];
	1 -- 51	[pos="618.77,374.65 645.24,384.27 687.58,399.67 714.08,409.31"];
	62	[height=0.5,
		pos="800.16,391.29",
		width=0.75];
	1 -- 62	[pos="621.63,369.24 660.99,374.1 733.94,383.11 773.31,387.97"];
	72	[height=0.5,
		pos="733.07,170.96",
		width=0.75];
	1 -- 72	[pos="606.33,349.63 632.36,312.93 695.36,224.12 721.45,187.33"];
	74	[height=0.5,
		pos="466.82,155.67",
		width=0.75];
	1 -- 74	[pos="584.52,349.07 560.56,309.7 501.13,212.05 477.12,172.6"];
	76	[height=0.5,
		pos="290.37,393",
		width=0.75];
	1 -- 76	[pos="567.76,368.32 510,373.46 375.04,385.47 317.33,390.6"];
	77	[height=0.5,
		pos="343.34,485.42",
		width=0.75];
	1 -- 77	[pos="572.46,376.53 524.75,399.2 413.27,452.18 365.6,474.84"];
	80	[height=0.5,
		pos="668.94,224.75",
		width=0.75];
	1 -- 80	[pos="603.72,348.89 617.97,321.76 645.68,269.01 659.96,241.84"];
	84	[height=0.5,
		pos="363.14,289.36",
		width=0.75];
	1 -- 84	[pos="570.42,357.87 525.94,343.17 432.01,312.13 387.51,297.42"];
	87	[height=0.5,
		pos="434.48,200.72",
		width=0.75];
	1 -- 87	[pos="579.98,350.67 549.44,319.2 479.74,247.37 449.24,215.93"];
	90	[height=0.5,
		pos="405.45,466.25",
		width=0.75];
	1 -- 90	[pos="573.42,377.23 536.97,396.56 463.12,435.69 426.72,454.98"];
	96	[height=0.5,
		pos="663.38,585.88",
		width=0.75];
	1 -- 96	[pos="600.27,383.55 613.12,424.73 644.99,526.9 657.86,568.17"];
	102	[height=0.5,
		pos="670.11,169.21",
		width=0.75];
	1 -- 102	[pos="601.46,348.46 615.72,311.23 648.99,224.36 663.33,186.91"];
	117	[height=0.5,
		pos="329.52,333.59",
		width=0.75];
	1 -- 117	[pos="567.88,362.64 516.91,356.43 406.81,343.01 356.09,336.83"];
	1 -- 119	[pos="573.16,376.93 550.52,388.47 515.16,406.48 492.46,418.05"];
	139	[height=0.5,
		pos="606.91,199.03",
		width=0.75];
	1 -- 139	[pos="596.1,347.74 598.43,315.64 603.25,249.27 605.59,217.18"];
	1 -- 150	[pos="572.73,376.46 566.88,379.26 560.56,382.28 554.72,385.08"];
	151	[height=0.5,
		pos="332.17,201.28",
		width=0.75];
	1 -- 151	[pos="575.04,353.55 526.37,323.04 401.04,244.46 352.13,213.8"];
	164	[height=0.5,
		pos="825.86,585.83",
		width=0.75];
	1 -- 164	[pos="610.3,380.69 652.29,420.66 767.83,530.61 810.11,570.84"];
	167	[height=0.5,
		pos="826.79,250.9",
		width=0.75];
	1 -- 167	[pos="616.6,355.1 660.82,333.18 760.54,283.74 804.85,261.77"];
	173	[height=0.5,
		pos="503.93,529.21",
		width=0.75];
	1 -- 173	[pos="585.22,383.09 567.73,414.53 530.75,481 513.35,512.27"];
	177	[height=0.5,
		pos="764.83,301.85",
		width=0.75];
	1 -- 177	[pos="618.42,357.01 650.82,344.81 708.67,323.01 741.11,310.79"];
	178	[height=0.5,
		pos="1020.6,418.79",
		width=0.75];
	1 -- 178	[pos="621.41,369.23 697.89,378.72 917.52,405.99 993.99,415.48"];
	181	[height=0.5,
		pos="714.49,462.11",
		width=0.75];
	1 -- 181	[pos="612.18,379.91 634.88,398.14 674.36,429.86 697.06,448.1"];
	191	[height=0.5,
		pos="528.82,141.47",
		width=0.75];
	1 -- 191	[pos="589.49,347.93 577.11,305.8 546.35,201.14 534.04,159.23"];
	200	[height=0.5,
		pos="392.72,245.34",
		width=0.75];
	1 -- 200	[pos="574.29,353.69 535.46,330.52 451.59,280.47 412.96,257.42"];
	223	[height=0.5,
		pos="539.29,573.85",
		width=0.75];
	1 -- 223	[pos="590.04,383.65 579.59,422.83 554.6,516.45 544.09,555.87"];
	226	[height=0.5,
		pos="601.35,547.85",
		width=0.75];
	1 -- 226	[pos="595.43,384.03 596.69,418.9 599.44,495 600.7,529.81"];
	227	[height=0.5,
		pos="753.59,215.05",
		width=0.75];
	1 -- 227	[pos="610.29,351.18 640.58,322.41 707.26,259.07 737.78,230.08"];
	232	[height=0.5,
		pos="590.85,154.99",
		width=0.75];
	1 -- 232	[pos="594.43,347.57 593.69,307.58 591.93,212.96 591.19,173.15"];
	235	[height=0.5,
		pos="441.1,510.27",
		width=0.75];
	1 -- 235	[pos="578.91,380.82 549.46,408.49 486.67,467.47 457.11,495.23"];
	242	[height=0.5,
		pos="860.47,347.25",
		width=0.75];
	1 -- 242	[pos="621.71,364.03 672.64,360.45 782.48,352.73 833.46,349.15"];
	249	[height=0.5,
		pos="358.95,377.68",
		width=0.75];
	1 -- 249	[pos="567.72,367.27 522.35,369.53 431.45,374.07 386.05,376.33"];
	2	[height=0.5,
		pos="1070.8,711.02",
		width=0.75];
	52	[height=0.5,
		pos="1256.1,478.64",
		width=0.75];
	2 -- 52	[pos="1083.6,695.05 1117.4,652.6 1209.3,537.31 1243.3,494.73"];
	61	[height=0.5,
		pos="1183.1,567.17",
		width=0.75];
	2 -- 61	[pos="1083.5,694.8 1105.1,667.17 1148.7,611.29 1170.3,583.55"];
	63	[height=0.5,
		pos="826.7,823.05",
		width=0.75];
	2 -- 63	[pos="1048.3,721.36 1001.8,742.7 895.63,791.42 849.17,812.74"];
	93	[height=0.5,
		pos="1164.7,849.3",
		width=0.75];
	2 -- 93	[pos="1082,727.43 1099.9,753.9 1135.1,805.75 1153.3,832.48"];
	103	[height=0.5,
		pos="1206.1,633.22",
		width=0.75];
	2 -- 103	[pos="1091.4,699.2 1116.8,684.58 1159.8,659.82 1185.3,645.14"];
	118	[height=0.5,
		pos="1196,765.32",
		width=0.75];
	2 -- 118	[pos="1093.5,720.85 1116,730.63 1150.5,745.56 1173.1,755.38"];
	122	[height=0.5,
		pos="983.24,921.01",
		width=0.75];
	2 -- 122	[pos="1063.5,728.56 1047,768.19 1006.9,864.23 990.47,903.66"];
	144	[height=0.5,
		pos="1096.6,817.46",
		width=0.75];
	2 -- 144	[pos="1075.2,729.08 1080,748.77 1087.5,780.08 1092.3,799.67"];
	152	[height=0.5,
		pos="1051.5,755.04",
		width=0.75];
	2 -- 152	[pos="1063.2,728.42 1061.9,731.4 1060.5,734.5 1059.2,737.48"];
	2 -- 164	[pos="1049.1,699.91 1002.6,676.15 894,620.65 847.55,596.92"];
	179	[height=0.5,
		pos="920.33,924.28",
		width=0.75];
	2 -- 179	[pos="1059.3,727.4 1031.3,767.1 959.98,868.09 931.93,907.84"];
	193	[height=0.5,
		pos="895.89,698.12",
		width=0.75];
	2 -- 193	[pos="1043.9,709.03 1011,706.61 955.76,702.53 922.87,700.11"];
	208	[height=0.5,
		pos="755.25,808.76",
		width=0.75];
	2 -- 208	[pos="1046.3,718.61 987.54,736.82 838.95,782.83 779.95,801.11"];
	3	[height=0.5,
		pos="949.47,509.41",
		width=0.75];
	53	[height=0.5,
		pos="955.37,419.14",
		width=0.75];
	3 -- 53	[pos="950.67,491.14 951.69,475.48 953.16,453.04 954.18,437.38"];
	54	[height=0.5,
		pos="709.83,711.68",
		width=0.75];
	3 -- 54	[pos="932.62,523.63 888.62,560.77 770.64,660.35 726.67,697.47"];
	3 -- 62	[pos="932.05,495.63 903.44,472.99 846.78,428.17 817.94,405.35"];
	73	[height=0.5,
		pos="957.92,694.89",
		width=0.75];
	3 -- 73	[pos="950.3,527.53 951.91,562.99 955.48,641.17 957.1,676.69"];
	78	[height=0.5,
		pos="721.44,349.8",
		width=0.75];
	3 -- 78	[pos="930.81,496.35 888.05,466.42 783.37,393.14 740.36,363.04"];
	98	[height=0.5,
		pos="887.97,622.71",
		width=0.75];
	3 -- 98	[pos="940.13,526.62 928.51,548.04 908.77,584.39 897.2,605.71"];
	99	[height=0.5,
		pos="1165.3,479.13",
		width=0.75];
	3 -- 99	[pos="975.93,505.7 1017.3,499.89 1097,488.7 1138.6,482.87"];
	101	[height=0.5,
		pos="1121,596.37",
		width=0.75];
	3 -- 101	[pos="971.19,520.42 1004.2,537.15 1066.6,568.77 1099.4,585.44"];
	105	[height=0.5,
		pos="652.47,456.22",
		width=0.75];
	3 -- 105	[pos="923.38,504.74 867.18,494.67 735.25,471.05 678.82,460.94"];
	3 -- 135	[pos="924.04,515.83 888.57,524.78 824.63,540.92 789.16,549.87"];
	137	[height=0.5,
		pos="764.23,632.37",
		width=0.75];
	3 -- 137	[pos="930,522.34 894.33,546.01 818.92,596.07 783.44,619.62"];
	3 -- 153	[pos="922.2,508.92 887.76,508.29 828.86,507.22 794.48,506.6"];
	155	[height=0.5,
		pos="1092.1,470.28",
		width=0.75];
	3 -- 155	[pos="974.64,502.5 1000.5,495.4 1040.7,484.38 1066.7,477.25"];
	166	[height=0.5,
		pos="959.19,593.81",
		width=0.75];
	3 -- 166	[pos="951.58,527.72 953.22,541.98 955.48,561.65 957.12,575.82"];
	171	[height=0.5,
		pos="1144,640.4",
		width=0.75];
	3 -- 171	[pos="968.48,522.21 1005.7,547.25 1087.7,602.46 1124.9,627.55"];
	217	[height=0.5,
		pos="1045.1,347.08",
		width=0.75];
	3 -- 217	[pos="959.35,492.65 977.67,461.54 1016.7,395.21 1035.1,363.99"];
	243	[height=0.5,
		pos="888.86,286.72",
		width=0.75];
	3 -- 243	[pos="944.61,491.56 933.26,449.86 905.11,346.43 893.74,304.65"];
	4	[height=0.5,
		pos="829.35,530.6",
		width=0.75];
	4 -- 51	[pos="816.29,514.48 798.95,493.09 768.52,455.54 751.2,434.16"];
	55	[height=0.5,
		pos="582.25,455.39",
		width=0.75];
	4 -- 55	[pos="804.76,523.12 757.51,508.74 654.57,477.4 607.11,462.96"];
	68	[height=0.5,
		pos="1033.8,614.6",
		width=0.75];
	4 -- 68	[pos="852.41,540.08 891.67,556.21 971.08,588.84 1010.5,605.04"];
	89	[height=0.5,
		pos="926.05,330.76",
		width=0.75];
	4 -- 89	[pos="837.77,513.22 856.1,475.33 899.48,385.69 917.73,347.96"];
	4 -- 98	[pos="840.11,547.5 850.68,564.12 866.74,589.34 877.29,605.92"];
	141	[height=0.5,
		pos="1060.3,552.3",
		width=0.75];
	4 -- 141	[pos="856.3,533.13 900.8,537.31 989.14,545.61 1033.5,549.78"];
	154	[height=0.5,
		pos="505.94,618.25",
		width=0.75];
	4 -- 154	[pos="804.25,537.41 743.99,553.74 591.72,595 531.26,611.39"];
	156	[height=0.5,
		pos="658.28,370.21",
		width=0.75];
	4 -- 156	[pos="813.57,515.8 780.98,485.25 706.59,415.5 674.03,384.98"];
	4 -- 166	[pos="851.38,541.32 875.25,552.95 913.14,571.39 937.05,583.03"];
	170	[height=0.5,
		pos="983.09,374.79",
		width=0.75];
	4 -- 170	[pos="844.38,515.38 873.84,485.51 938.9,419.57 968.23,389.84"];
	174	[height=0.5,
		pos="575.6,503.82",
		width=0.75];
	4 -- 174	[pos="802.68,527.79 753.94,522.64 651.05,511.79 602.3,506.64"];
	176	[height=0.5,
		pos="1020,664.73",
		width=0.75];
	4 -- 176	[pos="847.98,543.71 884.42,569.35 964.77,625.89 1001.3,651.57"];
	4 -- 181	[pos="809.08,518.51 788.22,506.07 755.88,486.79 734.95,474.3"];
	182	[height=0.5,
		pos="889.59,797.81",
		width=0.75];
	4 -- 182	[pos="833.4,548.55 844.37,597.23 874.61,731.36 885.56,779.94"];
	189	[height=0.5,
		pos="833.89,717.77",
		width=0.75];
	4 -- 189	[pos="829.8,548.89 830.67,584.76 832.58,663.97 833.45,699.68"];
	4 -- 193	[pos="836.35,548.21 849.13,580.39 876.11,648.31 888.89,680.49"];
	195	[height=0.5,
		pos="1013.3,463.49",
		width=0.75];
	4 -- 195	[pos="853.4,521.83 888.76,508.93 954.36,485 989.55,472.16"];
	231	[height=0.5,
		pos="709.84,764.75",
		width=0.75];
	4 -- 231	[pos="820.57,547.82 798.46,591.12 740.76,704.18 718.64,747.5"];
	241	[height=0.5,
		pos="826.84,303.24",
		width=0.75];
	4 -- 241	[pos="829.15,512.38 828.68,469.81 827.51,364.21 827.04,321.55"];
	5	[height=0.5,
		pos="944.28,130.29",
		width=0.75];
	56	[height=0.5,
		pos="639.48,66.959",
		width=0.75];
	5 -- 56	[pos="918.29,124.89 860.71,112.92 722.93,84.297 665.4,72.345"];
	65	[height=0.5,
		pos="1121.8,57.135",
		width=0.75];
	5 -- 65	[pos="967.49,120.72 1001.5,106.7 1064.6,80.722 1098.6,66.701"];
	5 -- 72	[pos="917.96,135.36 877.26,143.19 799.55,158.16 759.06,165.95"];
	95	[height=0.5,
		pos="830.61,18",
		width=0.75];
	5 -- 95	[pos="928.95,115.14 907.26,93.713 867.82,54.758 846.06,33.262"];
	113	[height=0.5,
		pos="960.76,23.276",
		width=0.75];
	5 -- 113	[pos="947.08,112.13 950.11,92.457 954.92,61.231 957.95,41.518"];
	132	[height=0.5,
		pos="898.48,29.7",
		width=0.75];
	5 -- 132	[pos="936.3,112.77 927.9,94.304 914.74,65.406 906.37,47.02"];
	157	[height=0.5,
		pos="1186.3,86.572",
		width=0.75];
	5 -- 157	[pos="970.64,125.53 1017.2,117.12 1113.4,99.733 1160,91.328"];
	158	[height=0.5,
		pos="699.32,121.63",
		width=0.75];
	5 -- 158	[pos="917.13,129.33 870.04,127.66 773.76,124.26 726.59,122.59"];
	165	[height=0.5,
		pos="1118,102.03",
		width=0.75];
	5 -- 165	[pos="970.66,126 1003.4,120.67 1058.9,111.64 1091.6,106.31"];
	203	[height=0.5,
		pos="1099.1,180.4",
		width=0.75];
	5 -- 203	[pos="968.81,138.23 997.81,147.61 1045.8,163.13 1074.7,172.5"];
	5 -- 204	[pos="923.69,142.1 878.07,168.26 768.92,230.86 723.35,257"];
	219	[height=0.5,
		pos="1077.1,302.2",
		width=0.75];
	5 -- 219	[pos="956.78,146.46 982.1,179.23 1039.2,253.11 1064.6,285.95"];
	5 -- 227	[pos="921.66,140.34 884.96,156.66 812.87,188.7 776.19,205.01"];
	5 -- 243	[pos="938.03,147.93 927.39,177.97 905.86,238.74 895.17,268.9"];
	248	[height=0.5,
		pos="1180.7,145.59",
		width=0.75];
	5 -- 248	[pos="971.4,132.04 1016.9,134.99 1108,140.88 1153.5,143.83"];
	6	[height=0.5,
		pos="523.77,706.29",
		width=0.75];
	57	[height=0.5,
		pos="847.74,459.72",
		width=0.75];
	6 -- 57	[pos="541.65,692.69 598.29,649.58 773.35,516.34 829.91,473.29"];
	60	[height=0.5,
		pos="673.51,920.98",
		width=0.75];
	6 -- 60	[pos="535.27,722.78 563.15,762.74 634.06,864.41 661.97,904.43"];
	6 -- 63	[pos="547.54,715.46 604.17,737.28 746.52,792.15 803.04,813.93"];
	6 -- 104	[pos="510.94,690.22 496.04,671.55 471.6,640.93 456.71,622.28"];
	125	[height=0.5,
		pos="444.82,829.97",
		width=0.75];
	6 -- 125	[pos="513.13,722.97 498.06,746.58 470.67,789.48 455.55,813.16"];
	159	[height=0.5,
		pos="577.39,837.42",
		width=0.75];
	6 -- 159	[pos="530.89,723.71 541.15,748.79 559.97,794.82 570.24,819.94"];
	6 -- 173	[pos="521.76,688.34 517.96,654.4 509.75,581.19 505.95,547.21"];
	175	[height=0.5,
		pos="265.08,646.1",
		width=0.75];
	6 -- 175	[pos="498.02,700.3 448.44,688.76 340.23,663.59 290.73,652.07"];
	183	[height=0.5,
		pos="386.19,704.49",
		width=0.75];
	6 -- 183	[pos="496.59,705.94 472.47,705.62 437.42,705.16 413.32,704.84"];
	202	[height=0.5,
		pos="506.82,818.53",
		width=0.75];
	6 -- 202	[pos="521.05,724.33 517.89,745.27 512.7,779.62 509.54,800.54"];
	210	[height=0.5,
		pos="361.86,422.22",
		width=0.75];
	6 -- 210	[pos="514.13,689.37 485.33,638.85 400.19,489.46 371.46,439.05"];
	7	[height=0.5,
		pos="1419,400.82",
		width=0.75];
	58	[height=0.5,
		pos="1557.1,511.67",
		width=0.75];
	7 -- 58	[pos="1436.5,414.86 1463.1,436.18 1513.3,476.49 1539.8,497.75"];
	59	[height=0.5,
		pos="1359.2,577.52",
		width=0.75];
	7 -- 59	[pos="1413,418.41 1401.6,452.19 1376.7,525.81 1365.2,559.74"];
	82	[height=0.5,
		pos="1271.7,264.04",
		width=0.75];
	7 -- 82	[pos="1403.2,386.19 1375,360 1316.2,305.4 1287.8,278.99"];
	7 -- 99	[pos="1394.2,408.48 1345.6,423.48 1238.2,456.62 1189.8,471.56"];
	133	[height=0.5,
		pos="1349.5,345.43",
		width=0.75];
	7 -- 133	[pos="1401.5,386.85 1391,378.51 1377.8,367.96 1367.3,359.59"];
	146	[height=0.5,
		pos="1469.9,356.43",
		width=0.75];
	7 -- 146	[pos="1435.7,386.29 1441.3,381.33 1447.7,375.79 1453.4,370.85"];
	147	[height=0.5,
		pos="1457.9,462.9",
		width=0.75];
	7 -- 147	[pos="1429.4,417.46 1435,426.36 1441.8,437.3 1447.4,446.22"];
	160	[height=0.5,
		pos="1356.9,390.27",
		width=0.75];
	7 -- 160	[pos="1392.7,396.35 1389.6,395.83 1386.5,395.3 1383.5,394.78"];
	169	[height=0.5,
		pos="1300.6,220.03",
		width=0.75];
	7 -- 169	[pos="1408.1,384.14 1385.5,349.7 1334,271.08 1311.5,236.67"];
	198	[height=0.5,
		pos="1448.3,240.98",
		width=0.75];
	7 -- 198	[pos="1422.3,382.8 1427.9,352.1 1439.3,290.01 1444.9,259.18"];
	213	[height=0.5,
		pos="1475.7,606.67",
		width=0.75];
	7 -- 213	[pos="1423.9,418.73 1434.7,457.76 1460.1,550.1 1470.8,588.95"];
	234	[height=0.5,
		pos="1266.1,308.08",
		width=0.75];
	7 -- 234	[pos="1399,388.7 1369.7,370.93 1315.4,337.99 1286.1,320.21"];
	239	[height=0.5,
		pos="1581,461.81",
		width=0.75];
	7 -- 239	[pos="1442.5,409.69 1473.2,421.25 1526.7,441.36 1557.4,452.93"];
	8	[height=0.5,
		pos="1166.2,435.11",
		width=0.75];
	8 -- 61	[pos="1168.5,453.19 1171.7,478.34 1177.5,523.62 1180.8,548.88"];
	115	[height=0.5,
		pos="1352.5,532.24",
		width=0.75];
	8 -- 115	[pos="1187.6,446.25 1223.4,464.93 1295.2,502.38 1331.1,521.08"];
	8 -- 160	[pos="1191.9,429.06 1228.4,420.48 1294.9,404.86 1331.3,396.29"];
	161	[height=0.5,
		pos="1268.1,624.4",
		width=0.75];
	8 -- 161	[pos="1175.4,452.24 1194.8,488.28 1239.6,571.55 1258.9,607.44"];
	162	[height=0.5,
		pos="905.53,217.69",
		width=0.75];
	8 -- 162	[pos="1149.1,420.84 1101.9,381.45 970,271.46 922.7,232"];
	212	[height=0.5,
		pos="1012.1,223.36",
		width=0.75];
	8 -- 212	[pos="1154.3,418.84 1125.7,379.43 1052.7,279.15 1024,239.68"];
	9	[height=0.5,
		pos="299.85,437.04",
		width=0.75];
	9 -- 55	[pos="326.93,438.8 380.9,442.31 501.34,450.13 555.25,453.63"];
	64	[height=0.5,
		pos="227.95,367.51",
		width=0.75];
	9 -- 64	[pos="284.25,421.95 272.19,410.29 255.58,394.22 243.52,382.57"];
	9 -- 105	[pos="326.93,438.51 392.57,442.09 559.56,451.17 625.29,454.75"];
	9 -- 117	[pos="305.02,419.02 310.46,400.04 318.99,370.32 324.41,351.41"];
	126	[height=0.5,
		pos="205.49,323.48",
		width=0.75];
	9 -- 126	[pos="286.73,421.25 268.8,399.68 236.83,361.2 218.81,339.5"];
	163	[height=0.5,
		pos="289.02,557.73",
		width=0.75];
	9 -- 163	[pos="298.23,455.11 296.19,477.86 292.7,516.73 290.65,539.54"];
	9 -- 174	[pos="325.3,443.2 377.83,455.93 497.73,484.97 550.21,497.68"];
	197	[height=0.5,
		pos="267.51,291.63",
		width=0.75];
	9 -- 197	[pos="295.88,419.21 289.68,391.3 277.73,337.6 271.51,309.6"];
	218	[height=0.5,
		pos="195.36,489.54",
		width=0.75];
	9 -- 218	[pos="278.2,447.92 260.27,456.93 234.91,469.67 216.98,478.68"];
	221	[height=0.5,
		pos="169.87,445.54",
		width=0.75];
	9 -- 221	[pos="272.92,438.8 250.61,440.26 219.07,442.32 196.77,443.78"];
	236	[height=0.5,
		pos="381.91,598.33",
		width=0.75];
	9 -- 236	[pos="308.63,454.3 324.42,485.35 357.44,550.24 373.19,581.2"];
	9 -- 249	[pos="315.07,421.75 323.96,412.82 335.14,401.6 343.99,392.71"];
	10	[height=0.5,
		pos="1159.2,224.58",
		width=0.75];
	10 -- 65	[pos="1155.2,206.66 1148,174.51 1133,107.41 1125.8,75.179"];
	10 -- 82	[pos="1183.3,233.04 1202.3,239.7 1228.6,248.93 1247.6,255.59"];
	10 -- 89	[pos="1136.8,234.76 1092.4,255 993.36,300.11 948.68,320.45"];
	91	[height=0.5,
		pos="1055.6,75.458",
		width=0.75];
	10 -- 91	[pos="1147.7,208.05 1127.8,179.38 1087.1,120.77 1067.1,92.06"];
	116	[height=0.5,
		pos="1275.5,352.09",
		width=0.75];
	10 -- 116	[pos="1173.2,239.96 1195.6,264.47 1239.1,312.11 1261.4,336.66"];
	121	[height=0.5,
		pos="1378.6,131.99",
		width=0.75];
	10 -- 121	[pos="1182.3,214.84 1224.4,197.06 1313.3,159.52 1355.5,141.73"];
	134	[height=0.5,
		pos="1310.6,91.727",
		width=0.75];
	10 -- 134	[pos="1175.7,210.11 1204.8,184.55 1265,131.72 1294.1,106.18"];
	10 -- 165	[pos="1153.2,206.76 1145.4,183.52 1131.8,143.11 1124,119.87"];
	168	[height=0.5,
		pos="930,84.977",
		width=0.75];
	10 -- 168	[pos="1139.3,212.43 1095.9,186.03 993.51,123.66 950.06,97.192"];
	10 -- 169	[pos="1186.4,223.7 1211.5,222.89 1248.4,221.71 1273.4,220.9"];
	10 -- 170	[pos="1142.3,238.98 1108.6,267.69 1033.5,331.75 999.92,360.43"];
	192	[height=0.5,
		pos="992.75,86.285",
		width=0.75];
	10 -- 192	[pos="1142,210.3 1110.1,183.8 1042.1,127.29 1010.1,100.69"];
	205	[height=0.5,
		pos="1047.7,135.06",
		width=0.75];
	10 -- 205	[pos="1141.8,210.59 1120.8,193.77 1085.9,165.72 1065,148.95"];
	10 -- 217	[pos="1144.7,240.09 1122.8,263.65 1081.3,308.2 1059.4,331.69"];
	11	[height=0.5,
		pos="1118.6,773.43",
		width=0.75];
	66	[height=0.5,
		pos="1081.6,1009.2",
		width=0.75];
	11 -- 66	[pos="1115.7,791.54 1108.9,835.43 1091.3,947.11 1084.4,991.07"];
	83	[height=0.5,
		pos="1343.7,699.29",
		width=0.75];
	11 -- 83	[pos="1143.1,765.35 1186.4,751.09 1276,721.61 1319.2,707.36"];
	11 -- 144	[pos="1110,790.58 1108.4,793.76 1106.8,797.1 1105.2,800.28"];
	145	[height=0.5,
		pos="1465.1,742.35",
		width=0.75];
	11 -- 145	[pos="1145.5,771.01 1210.1,765.22 1373.2,750.59 1438,744.78"];
	11 -- 171	[pos="1122,755.49 1126.9,730.1 1135.7,683.94 1140.6,658.48"];
	196	[height=0.5,
		pos="871.65,878.01",
		width=0.75];
	11 -- 196	[pos="1095.4,783.27 1048.2,803.25 941.62,848.38 894.64,868.28"];
	12	[height=0.5,
		pos="1235.1,809.34",
		width=0.75];
	67	[height=0.5,
		pos="1219.7,677.26",
		width=0.75];
	12 -- 67	[pos="1233,791.25 1230,766.1 1224.7,720.81 1221.8,695.55"];
	71	[height=0.5,
		pos="1031.9,965.04",
		width=0.75];
	12 -- 71	[pos="1217,823.16 1178.5,852.71 1088.4,921.74 1049.9,951.26"];
	12 -- 93	[pos="1214.3,821.11 1205.3,826.27 1194.6,832.31 1185.5,837.47"];
	142	[height=0.5,
		pos="1408.3,805.67",
		width=0.75];
	12 -- 142	[pos="1262.1,808.77 1294.6,808.08 1348.7,806.93 1381.2,806.24"];
	12 -- 161	[pos="1238.3,791.27 1244.6,755.92 1258.5,677.96 1264.8,642.54"];
	172	[height=0.5,
		pos="1400.3,745.87",
		width=0.75];
	12 -- 172	[pos="1258.7,800.25 1290.2,788.18 1345.3,767.01 1376.7,754.95"];
	229	[height=0.5,
		pos="1057.8,861.48",
		width=0.75];
	12 -- 229	[pos="1210,816.7 1176.2,826.64 1116.4,844.24 1082.7,854.16"];
	13	[height=0.5,
		pos="1162.8,721.28",
		width=0.75];
	13 -- 59	[pos="1181.2,707.76 1218.8,680.29 1303.5,618.26 1340.9,590.9"];
	13 -- 68	[pos="1145.6,707.12 1121,686.71 1075.7,649.27 1051,628.83"];
	13 -- 101	[pos="1156.9,703.65 1149,679.98 1135,638.15 1127,614.31"];
	120	[height=0.5,
		pos="1281.7,693.88",
		width=0.75];
	13 -- 120	[pos="1188.6,715.34 1208.5,710.74 1236,704.41 1255.9,699.82"];
	13 -- 152	[pos="1138.1,728.78 1119.7,734.37 1094.6,741.98 1076.2,747.57"];
	13 -- 176	[pos="1139.5,712.07 1113,701.55 1069.8,684.45 1043.2,673.94"];
	187	[height=0.5,
		pos="1046.2,905.52",
		width=0.75];
	13 -- 187	[pos="1152.2,737.96 1130.1,772.94 1079,853.68 1056.8,888.75"];
	14	[height=0.5,
		pos="1014.9,292.36",
		width=0.75];
	14 -- 53	[pos="1006.8,309.73 995.44,333.87 975.02,377.34 963.62,401.58"];
	69	[height=0.5,
		pos="1232.9,431.35",
		width=0.75];
	14 -- 69	[pos="1034.7,304.94 1076.2,331.4 1172.1,392.55 1213.4,418.9"];
	127	[height=0.5,
		pos="1203.1,309.67",
		width=0.75];
	14 -- 127	[pos="1041.9,294.84 1077.7,298.13 1140.4,303.91 1176.2,307.2"];
	14 -- 177	[pos="987.7,293.4 939.59,295.22 840.12,298.99 792.04,300.82"];
	186	[height=0.5,
		pos="911.2,464.39",
		width=0.75];
	14 -- 186	[pos="1004.8,309.17 984.97,342.06 941.24,414.57 921.38,447.51"];
	201	[height=0.5,
		pos="1011,179.26",
		width=0.75];
	14 -- 201	[pos="1014.3,274.19 1013.6,253.09 1012.4,218.47 1011.6,197.39"];
	211	[height=0.5,
		pos="815.62,206.86",
		width=0.75];
	14 -- 211	[pos="992.08,282.55 953.73,266.1 876.9,233.14 838.53,216.68"];
	233	[height=0.5,
		pos="1139.2,270.29",
		width=0.75];
	14 -- 233	[pos="1041.3,287.68 1062.4,283.93 1091.8,278.71 1112.9,274.96"];
	15	[height=0.5,
		pos="1395.9,485.16",
		width=0.75];
	70	[height=0.5,
		pos="1561,413.28",
		width=0.75];
	15 -- 70	[pos="1418.5,475.32 1450,461.59 1506.9,436.85 1538.4,423.12"];
	15 -- 83	[pos="1391.5,503.05 1381.7,543.36 1357.9,640.9 1348.1,681.31"];
	15 -- 103	[pos="1378,499.09 1341.7,527.38 1259.8,591.26 1223.7,619.43"];
	110	[height=0.5,
		pos="1385.1,258.66",
		width=0.75];
	15 -- 110	[pos="1395,467.01 1393,424.6 1388,319.39 1386,276.9"];
	140	[height=0.5,
		pos="1419.6,308.83",
		width=0.75];
	15 -- 140	[pos="1398.3,466.95 1402.9,433.08 1412.6,360.74 1417.1,326.94"];
	148	[height=0.5,
		pos="1540.6,562.85",
		width=0.75];
	15 -- 148	[pos="1416.9,496.46 1444.4,511.19 1492.1,536.81 1519.5,551.54"];
	15 -- 178	[pos="1369.5,480.49 1300.6,468.31 1115.8,435.63 1047,423.45"];
	180	[height=0.5,
		pos="1532,362.24",
		width=0.75];
	15 -- 180	[pos="1412,470.58 1438.2,446.92 1489.7,400.45 1515.8,376.8"];
	207	[height=0.5,
		pos="1478.5,562",
		width=0.75];
	15 -- 207	[pos="1411.8,499.98 1426.4,513.58 1448,533.64 1462.6,547.23"];
	220	[height=0.5,
		pos="1082,667.01",
		width=0.75];
	15 -- 220	[pos="1375.3,497.09 1318.4,530.04 1159.6,622.03 1102.7,655.03"];
	16	[height=0.5,
		pos="857.53,922.4",
		width=0.75];
	16 -- 60	[pos="830.38,922.19 795.59,921.92 735.62,921.46 700.78,921.19"];
	16 -- 71	[pos="882.89,928.6 915.96,936.68 973.47,950.74 1006.6,958.83"];
	16 -- 179	[pos="884.53,923.21 887.32,923.29 890.16,923.38 892.95,923.46"];
	16 -- 182	[pos="862.12,904.55 868.22,880.86 878.91,839.29 885,815.63"];
	17	[height=0.5,
		pos="203.08,621.62",
		width=0.75];
	75	[height=0.5,
		pos="167.49,577.59",
		width=0.75];
	17 -- 75	[pos="190.23,605.72 187.05,601.78 183.63,597.56 180.44,593.61"];
	17 -- 77	[pos="218.63,606.52 245.59,580.34 300.71,526.81 327.72,500.58"];
	86	[height=0.5,
		pos="433.42,751.29",
		width=0.75];
	17 -- 86	[pos="223.93,633.36 267.78,658.04 369.12,715.09 412.78,739.67"];
	17 -- 112	[pos="225.56,611.29 253.38,598.5 300.48,576.85 328.39,564.02"];
	130	[height=0.5,
		pos="301.08,690.43",
		width=0.75];
	17 -- 130	[pos="221.98,634.89 239.33,647.07 264.91,665.03 282.24,677.21"];
	17 -- 154	[pos="230.23,621.32 287.72,620.68 421.21,619.19 478.75,618.55"];
	17 -- 183	[pos="225.54,631.78 260.77,647.73 328.67,678.45 363.84,694.37"];
	194	[height=0.5,
		pos="163.27,689.32",
		width=0.75];
	17 -- 194	[pos="193.04,638.7 186.96,649.05 179.23,662.18 173.18,672.48"];
	17 -- 218	[pos="202.02,603.53 200.55,578.38 197.91,533.09 196.43,507.83"];
	225	[height=0.5,
		pos="41.856,500.01",
		width=0.75];
	17 -- 225	[pos="184.9,607.91 153.94,584.55 91.306,537.31 60.218,513.86"];
	247	[height=0.5,
		pos="164.18,533.58",
		width=0.75];
	17 -- 247	[pos="195.4,604.23 188.58,588.79 178.66,566.36 171.85,550.94"];
	18	[height=0.5,
		pos="105.59,488.14",
		width=0.75];
	18 -- 75	[pos="116.95,504.55 128.04,520.58 144.85,544.88 156,560.98"];
	18 -- 76	[pos="127.15,477.04 162.76,458.71 233.44,422.31 268.95,404.03"];
	18 -- 175	[pos="120.89,503.29 151.29,533.4 219.04,600.5 249.6,630.77"];
	184	[height=0.5,
		pos="27,455.14",
		width=0.75];
	18 -- 184	[pos="82.438,478.42 72.205,474.12 60.204,469.08 49.99,464.79"];
	222	[height=0.5,
		pos="120.14,339.7",
		width=0.75];
	18 -- 222	[pos="107.38,469.94 110.17,441.45 115.54,386.63 118.34,358.05"];
	230	[height=0.5,
		pos="117.16,621.61",
		width=0.75];
	18 -- 230	[pos="107.15,506.14 109.36,531.61 113.38,577.92 115.59,603.47"];
	18 -- 247	[pos="123.49,502.02 130.76,507.66 139.13,514.15 146.39,519.78"];
	19	[height=0.5,
		pos="528.45,199.85",
		width=0.75];
	19 -- 78	[pos="546.26,213.68 583.02,242.25 666.94,307.45 703.67,335.99"];
	79	[height=0.5,
		pos="382.19,106.53",
		width=0.75];
	19 -- 79	[pos="508.72,187.26 480.81,169.45 430.07,137.08 402.07,119.22"];
	19 -- 87	[pos="501.27,200.1 488.8,200.21 474.06,200.35 461.6,200.47"];
	109	[height=0.5,
		pos="553.62,87.86",
		width=0.75];
	19 -- 109	[pos="532.49,181.85 537.19,160.96 544.89,126.69 549.59,105.81"];
	124	[height=0.5,
		pos="270.11,241.77",
		width=0.75];
	19 -- 124	[pos="501.78,204.17 452.14,212.23 346.16,229.43 296.64,237.46"];
	19 -- 156	[pos="540.9,216.18 565.71,248.75 621.09,321.4 645.87,353.93"];
	185	[height=0.5,
		pos="716.37,31.646",
		width=0.75];
	19 -- 185	[pos="544.8,185.21 580.43,153.32 664.72,77.875 700.19,46.125"];
	19 -- 211	[pos="555.47,200.51 610.2,201.84 733.62,204.85 788.47,206.19"];
	20	[height=0.5,
		pos="771.84,686.79",
		width=0.75];
	20 -- 81	[pos="745.95,681.35 727.29,677.43 702.19,672.15 683.55,668.23"];
	106	[height=0.5,
		pos="704.29,876.96",
		width=0.75];
	20 -- 106	[pos="765.61,704.34 752.77,740.48 723.51,822.84 710.61,859.18"];
	20 -- 186	[pos="782.31,670.07 808.14,628.86 874.65,522.72 900.6,481.3"];
	20 -- 189	[pos="793.54,697.63 799.55,700.63 806.08,703.88 812.09,706.89"];
	21	[height=0.5,
		pos="454.73,246.6",
		width=0.75];
	21 -- 79	[pos="445.83,229.42 431.91,202.54 405.12,150.82 391.16,123.85"];
	21 -- 84	[pos="432.56,256.95 418.26,263.62 399.74,272.27 385.42,278.96"];
	94	[height=0.5,
		pos="506.27,473.19",
		width=0.75];
	21 -- 94	[pos="458.86,264.76 468.53,307.29 492.57,412.95 502.19,455.26"];
	21 -- 158	[pos="476.43,235.51 522.85,211.79 631.29,156.39 677.66,132.69"];
	21 -- 190	[pos="451.76,264.63 448.31,285.57 442.65,319.9 439.2,340.82"];
	21 -- 200	[pos="427.71,246.05 425.1,246 422.45,245.94 419.84,245.89"];
	22	[height=0.5,
		pos="703.51,75.687",
		width=0.75];
	22 -- 85	[pos="688.86,90.984 653.94,127.43 566.18,219.04 531.33,255.41"];
	92	[height=0.5,
		pos="470.73,68.034",
		width=0.75];
	22 -- 92	[pos="676.35,74.794 631.5,73.32 542.45,70.392 497.71,68.921"];
	22 -- 95	[pos="725.94,65.507 749.03,55.027 784.81,38.786 807.98,28.273"];
	22 -- 168	[pos="730.83,76.808 774.48,78.598 859.45,82.083 902.94,83.867"];
	22 -- 191	[pos="679.95,84.558 646.61,97.113 586,119.93 552.56,132.53"];
	23	[height=0.5,
		pos="692.15,832.94",
		width=0.75];
	23 -- 50	[pos="675.99,817.89 655.88,799.16 621.75,767.36 601.74,748.71"];
	23 -- 86	[pos="667.34,825.11 617.88,809.51 507.54,774.68 458.15,759.1"];
	23 -- 96	[pos="690.03,814.78 684.71,769.09 670.82,649.79 665.5,604.07"];
	23 -- 159	[pos="664.95,834 646.66,834.72 622.64,835.66 604.39,836.37"];
	23 -- 196	[pos="717.48,839.3 751.6,847.87 811.96,863.03 846.15,871.61"];
	23 -- 231	[pos="696.79,815.02 699.38,805.08 702.58,792.74 705.16,782.78"];
	24	[height=0.5,
		pos="292.96,156.89",
		width=0.75];
	24 -- 56	[pos="318.16,150.35 382.02,133.78 549.65,90.272 613.91,73.596"];
	24 -- 92	[pos="314.76,145.99 348.97,128.89 414.88,95.948 449.03,78.88"];
	24 -- 151	[pos="306.67,172.42 310.47,176.72 314.59,181.39 318.4,185.69"];
	24 -- 197	[pos="289.58,174.78 284.71,200.55 275.78,247.85 270.9,273.66"];
	24 -- 210	[pos="297.59,174.71 310.14,223.05 344.73,356.23 357.26,404.48"];
	228	[height=0.5,
		pos="254.68,112.71",
		width=0.75];
	24 -- 228	[pos="279.14,140.94 275.63,136.88 271.86,132.53 268.35,128.48"];
	25	[height=0.5,
		pos="1352.1,176.01",
		width=0.75];
	25 -- 52	[pos="1346.4,194.03 1329.3,247.86 1278.8,407.01 1261.8,460.71"];
	97	[height=0.5,
		pos="1461.3,105.33",
		width=0.75];
	25 -- 97	[pos="1371.6,163.37 1391.3,150.59 1421.7,130.93 1441.5,118.09"];
	25 -- 134	[pos="1343.5,158.54 1336.3,143.98 1326.2,123.35 1319.1,108.88"];
	25 -- 140	[pos="1360.8,193.1 1373.6,218.46 1397.7,265.81 1410.7,291.38"];
	25 -- 198	[pos="1371.1,188.84 1387.8,200.16 1412.1,216.57 1429,227.95"];
	206	[height=0.5,
		pos="1440,59.876",
		width=0.75];
	25 -- 206	[pos="1364.3,159.86 1381,137.8 1410.8,98.446 1427.6,76.261"];
	237	[height=0.5,
		pos="1229.9,199.06",
		width=0.75];
	25 -- 237	[pos="1325.9,180.95 1305.3,184.84 1276.7,190.23 1256.1,194.12"];
	25 -- 248	[pos="1325.7,171.32 1293.4,165.59 1239,155.94 1206.9,150.23"];
	26	[height=0.5,
		pos="622.89,110.98",
		width=0.75];
	26 -- 74	[pos="597.81,118.16 568.69,126.5 520.93,140.18 491.83,148.51"];
	100	[height=0.5,
		pos="318.69,77.875",
		width=0.75];
	26 -- 100	[pos="596.16,108.07 538.6,101.81 403.48,87.102 345.69,80.812"];
	26 -- 109	[pos="598.66,102.89 591.95,100.65 584.67,98.221 577.95,95.98"];
	26 -- 162	[pos="646.5,119.89 699.7,139.98 828.46,188.59 881.79,208.72"];
	199	[height=0.5,
		pos="780,62.03",
		width=0.75];
	26 -- 199	[pos="647.43,103.33 676.86,94.161 725.89,78.885 755.36,69.705"];
	27	[height=0.5,
		pos="860.99,118.82",
		width=0.75];
	27 -- 91	[pos="886.83,113.06 924.16,104.75 992.75,89.463 1030,81.171"];
	27 -- 102	[pos="835.64,125.51 799.03,135.18 731.76,152.94 695.26,162.58"];
	27 -- 113	[pos="876.58,103.89 895.32,85.943 926.59,56.003 945.28,38.1"];
	27 -- 185	[pos="840.88,106.7 813.41,90.139 764.4,60.6 736.77,43.946"];
	27 -- 201	[pos="884.1,128.13 912.21,139.46 959.4,158.47 987.63,169.84"];
	27 -- 241	[pos="857.65,136.84 851.12,172.1 836.73,249.83 830.19,285.15"];
	28	[height=0.5,
		pos="632.47,788.91",
		width=0.75];
	28 -- 106	[pos="645.64,805.06 658.6,820.95 678.27,845.06 691.2,860.91"];
	143	[height=0.5,
		pos="833.88,666.72",
		width=0.75];
	28 -- 143	[pos="652.52,776.75 691.02,753.39 774.93,702.48 813.61,679.01"];
	28 -- 188	[pos="615.82,774.38 587.81,749.95 531.63,700.93 503.76,676.61"];
	28 -- 202	[pos="606.74,794.98 585.06,800.09 554.19,807.36 532.52,812.47"];
	224	[height=0.5,
		pos="550.07,881.46",
		width=0.75];
	28 -- 224	[pos="618.49,804.61 603.34,821.63 579.3,848.63 564.12,865.68"];
	28 -- 226	[pos="630.13,770.79 624.35,726.01 609.44,610.51 603.67,565.85"];
	29	[height=0.5,
		pos="1077,250.2",
		width=0.75];
	29 -- 57	[pos="1060.9,264.93 1018.8,303.4 905.92,406.55 863.84,445"];
	107	[height=0.5,
		pos="1106.8,391.1",
		width=0.75];
	29 -- 107	[pos="1080.8,268.04 1086.5,295 1097.2,345.82 1103,372.95"];
	29 -- 167	[pos="1049.8,250.28 1001.6,250.41 902.12,250.69 854.01,250.82"];
	29 -- 203	[pos="1082.6,232.59 1085.9,222.08 1090.1,208.79 1093.5,198.25"];
	29 -- 234	[pos="1101.7,257.77 1138,268.86 1205.1,289.42 1241.4,300.51"];
	29 -- 237	[pos="1101.2,242.1 1129.8,232.55 1177,216.78 1205.6,207.21"];
	240	[height=0.5,
		pos="1245.6,150.17",
		width=0.75];
	29 -- 240	[pos="1097.3,238.13 1129.7,218.91 1192.7,181.53 1225.2,162.28"];
	30	[height=0.5,
		pos="876.91,162.84",
		width=0.75];
	30 -- 80	[pos="852.23,170.19 812.32,182.07 734.01,205.38 693.9,217.32"];
	30 -- 108	[pos="856.78,175.17 812.17,202.5 705.43,267.89 660.87,295.18"];
	138	[height=0.5,
		pos="857.18,73.731",
		width=0.75];
	30 -- 138	[pos="872.92,144.81 869.49,129.35 864.59,107.19 861.17,91.737"];
	30 -- 199	[pos="862.19,147.53 843.97,128.58 813.13,96.5 794.85,77.485"];
	30 -- 205	[pos="903.22,158.56 935.32,153.34 989.26,144.57 1021.4,139.34"];
	209	[height=0.5,
		pos="952.55,267.42",
		width=0.75];
	30 -- 209	[pos="888.73,179.18 902.94,198.83 926.64,231.6 940.81,251.19"];
	30 -- 212	[pos="899.54,172.97 924.5,184.14 964.43,202.02 989.42,213.2"];
	31	[height=0.5,
		pos="1377.6,87.977",
		width=0.75];
	31 -- 97	[pos="1403.6,93.372 1413.7,95.461 1425.2,97.849 1435.3,99.938"];
	31 -- 110	[pos="1378.4,106.24 1379.9,139.09 1382.9,207.77 1384.3,240.52"];
	149	[height=0.5,
		pos="1524.9,124.46",
		width=0.75];
	31 -- 149	[pos="1402.9,94.248 1429.9,100.93 1472.4,111.45 1499.4,118.14"];
	31 -- 157	[pos="1350.6,87.778 1314.2,87.511 1249.9,87.039 1213.5,86.772"];
	31 -- 206	[pos="1400.1,77.832 1405.7,75.316 1411.7,72.62 1417.3,70.101"];
	31 -- 240	[pos="1355.5,98.386 1331.1,109.87 1292.1,128.23 1267.7,139.73"];
	32	[height=0.5,
		pos="1416.4,533.04",
		width=0.75];
	32 -- 69	[pos="1395.3,521.38 1359.9,501.76 1288.9,462.41 1253.7,442.88"];
	111	[height=0.5,
		pos="1341.5,440.67",
		width=0.75];
	32 -- 111	[pos="1403.3,516.95 1389.6,500 1368.1,473.46 1354.4,456.57"];
	32 -- 172	[pos="1415,551.19 1412,591.4 1404.7,687.61 1401.7,727.77"];
	32 -- 207	[pos="1438.8,543.5 1444.5,546.16 1450.6,549.01 1456.3,551.66"];
	33	[height=0.5,
		pos="422.61,651.49",
		width=0.75];
	33 -- 90	[pos="420.93,633.39 417.65,597.98 410.42,519.9 407.13,484.42"];
	33 -- 114	[pos="420.82,633.21 419.12,615.84 416.58,589.85 414.89,572.51"];
	33 -- 130	[pos="398.02,659.37 376.93,666.13 346.71,675.81 325.63,682.56"];
	33 -- 163	[pos="403.75,638.25 378.29,620.39 333.19,588.73 307.78,570.9"];
	33 -- 208	[pos="444.69,661.93 505.06,690.47 672.34,769.56 732.95,798.22"];
	33 -- 235	[pos="424.99,633.32 428.54,606.2 435.19,555.45 438.73,528.37"];
	34	[height=0.5,
		pos="1405.8,698.33",
		width=0.75];
	34 -- 115	[pos="1400.1,680.55 1389.8,648.58 1368.4,581.76 1358.2,549.88"];
	34 -- 118	[pos="1381.3,706.14 1341,719.02 1261.1,744.54 1220.7,757.45"];
	123	[height=0.5,
		pos="1330.5,621.7",
		width=0.75];
	34 -- 123	[pos="1390.9,683.19 1377.7,669.75 1358.5,650.23 1345.3,636.81"];
	34 -- 142	[pos="1406.2,716.53 1406.7,736.27 1407.4,767.6 1407.9,787.37"];
	34 -- 213	[pos="1418.3,681.94 1431,665.26 1450.6,639.55 1463.3,622.92"];
	214	[height=0.5,
		pos="1432,653.38",
		width=0.75];
	34 -- 214	[pos="1415.7,681.33 1417.8,677.75 1420,673.97 1422.1,670.39"];
	35	[height=0.5,
		pos="1282.5,530.08",
		width=0.75];
	35 -- 116	[pos="1281.8,512.03 1280.5,477.92 1277.6,404.34 1276.2,370.18"];
	35 -- 120	[pos="1282.4,548.23 1282.3,579.72 1281.9,644.1 1281.8,675.65"];
	35 -- 141	[pos="1255.7,532.76 1213,537.03 1130,545.33 1087.2,549.61"];
	35 -- 147	[pos="1306.2,521.02 1339.7,508.16 1400.8,484.76 1434.3,471.92"];
	35 -- 214	[pos="1299.7,544.22 1328.3,567.88 1385.7,615.22 1414.6,639.02"];
	238	[height=0.5,
		pos="1220.5,523.17",
		width=0.75];
	35 -- 238	[pos="1255.8,527.11 1253,526.79 1250,526.46 1247.1,526.14"];
	36	[height=0.5,
		pos="1551.2,272.51",
		width=0.75];
	36 -- 70	[pos="1552.5,290.62 1554.4,317.65 1557.9,368.25 1559.8,395.24"];
	36 -- 121	[pos="1534,258.52 1500.9,231.59 1428.7,172.81 1395.7,145.92"];
	36 -- 149	[pos="1548,254.35 1542.9,225.94 1533.2,171.27 1528.1,142.76"];
	36 -- 180	[pos="1547.3,290.67 1543.9,306.34 1539.1,328.84 1535.8,344.41"];
	215	[height=0.5,
		pos="1647.4,423.22",
		width=0.75];
	36 -- 215	[pos="1561.9,289.21 1580.3,318.18 1618.1,377.42 1636.6,406.44"];
	37	[height=0.5,
		pos="919.69,968.31",
		width=0.75];
	37 -- 66	[pos="944.99,974.71 975.31,982.38 1025.8,995.15 1056.2,1002.8"];
	37 -- 122	[pos="937.73,954.88 946.24,948.55 956.39,941 964.93,934.63"];
	37 -- 187	[pos="941.44,957.52 964.62,946.02 1001.1,927.91 1024.3,916.38"];
	216	[height=0.5,
		pos="793.83,930.21",
		width=0.75];
	37 -- 216	[pos="894.83,960.79 872.76,954.11 840.69,944.4 818.64,937.73"];
	38	[height=0.5,
		pos="1123.9,523.16",
		width=0.75];
	38 -- 67	[pos="1134.3,539.94 1152.7,569.58 1190.8,630.87 1209.2,660.49"];
	38 -- 123	[pos="1146,533.7 1185.6,552.62 1268.4,592.11 1308.2,611.08"];
	38 -- 219	[pos="1120,505.07 1111.3,463.54 1089.7,361.7 1080.9,320.23"];
	244	[height=0.5,
		pos="1333.8,485.27",
		width=0.75];
	38 -- 244	[pos="1150,518.43 1190.4,511.15 1267.3,497.27 1307.7,489.99"];
	38 -- 245	[pos="1097.2,526.94 1052.5,533.28 962.92,545.98 918.18,552.33"];
	39	[height=0.5,
		pos="165.92,401.51",
		width=0.75];
	39 -- 64	[pos="186.92,390 193.39,386.45 200.51,382.55 206.97,379.01"];
	39 -- 124	[pos="176.87,384.72 196.94,353.96 239.35,288.93 259.31,258.34"];
	39 -- 184	[pos="142.35,410.61 116.81,420.47 76.271,436.12 50.681,446"];
	39 -- 221	[pos="167.55,419.67 167.78,422.23 168.02,424.86 168.25,427.42"];
	39 -- 225	[pos="148.41,415.42 124.76,434.19 82.877,467.44 59.279,486.18"];
	40	[height=0.5,
		pos="568.88,777.86",
		width=0.75];
	40 -- 54	[pos="591.22,767.37 617.61,754.98 661.26,734.49 687.6,722.12"];
	40 -- 125	[pos="545.84,787.54 523.55,796.9 489.98,811 467.74,820.34"];
	131	[height=0.5,
		pos="378.28,796.02",
		width=0.75];
	40 -- 131	[pos="541.98,780.42 505.65,783.88 441.3,790.01 405.05,793.47"];
	136	[height=0.5,
		pos="766.35,884.23",
		width=0.75];
	40 -- 136	[pos="590.01,789.24 627.92,809.66 707.06,852.29 745.07,872.77"];
	40 -- 223	[pos="566.26,759.76 560.64,721.04 547.52,630.59 541.91,591.91"];
	40 -- 224	[pos="565.61,795.91 562.17,814.8 556.82,844.32 553.38,863.27"];
	40 -- 246	[pos="548.68,765.88 526.41,752.67 490.78,731.54 468.48,718.31"];
	41	[height=0.5,
		pos="215.02,184.82",
		width=0.75];
	41 -- 100	[pos="229.88,169.5 249.58,149.17 284.17,113.49 303.87,93.169"];
	41 -- 126	[pos="213.78,202.95 211.95,229.52 208.57,278.77 206.74,305.35"];
	41 -- 222	[pos="204.69,201.69 186.44,231.48 148.71,293.07 130.47,322.85"];
	41 -- 228	[pos="224.42,167.73 230.74,156.24 239.04,141.14 245.35,129.67"];
	42	[height=0.5,
		pos="951.64,830.09",
		width=0.75];
	42 -- 73	[pos="952.49,811.85 953.69,786.05 955.87,739.15 957.07,713.26"];
	42 -- 129	[pos="929.95,819.03 895.3,801.36 827.86,766.96 793.34,749.35"];
	42 -- 136	[pos="926.65,837.39 891.19,847.75 826.65,866.61 791.24,876.96"];
	42 -- 220	[pos="964.38,814.15 989.24,783.06 1044,714.59 1069,683.25"];
	42 -- 229	[pos="976.52,837.45 993.55,842.49 1016,849.14 1033,854.17"];
	43	[height=0.5,
		pos="231.58,709.77",
		width=0.75];
	43 -- 128	[pos="250.45,696.85 267.09,685.47 291.23,668.96 307.95,657.51"];
	43 -- 131	[pos="251.98,721.76 279.85,738.14 329.56,767.37 357.58,783.85"];
	43 -- 194	[pos="206.92,702.39 200.8,700.56 194.25,698.59 188.13,696.76"];
	43 -- 230	[pos="213.7,695.99 192.21,679.43 156.35,651.81 134.92,635.29"];
	44	[height=0.5,
		pos="784.69,111.51",
		width=0.75];
	44 -- 88	[pos="767.84,126.02 729.13,159.35 634.22,241.06 595.56,274.34"];
	44 -- 132	[pos="803.22,98.187 824.39,82.973 858.8,58.233 879.95,43.021"];
	44 -- 138	[pos="806.05,100.38 815.4,95.506 826.36,89.796 835.73,84.914"];
	44 -- 139	[pos="762.89,122.24 728.77,139.04 663.11,171.36 628.88,188.21"];
	44 -- 192	[pos="811.46,108.27 851.41,103.42 926.19,94.356 966.08,89.519"];
	44 -- 232	[pos="758.95,117.29 721.87,125.6 653.83,140.87 616.7,149.19"];
	45	[height=0.5,
		pos="1170.9,390.99",
		width=0.75];
	45 -- 111	[pos="1195.7,398.22 1228,407.63 1284.3,424.01 1316.7,433.43"];
	45 -- 133	[pos="1196.5,384.47 1230.5,375.78 1290.4,360.51 1324.3,351.87"];
	45 -- 195	[pos="1148.6,401.23 1118.7,415.01 1065.7,439.38 1035.7,453.19"];
	45 -- 233	[pos="1166.2,373.18 1160.2,350.36 1149.9,311.03 1143.9,288.17"];
	45 -- 242	[pos="1144.4,387.26 1085.9,379.02 946.15,359.33 887.31,351.03"];
	46	[height=0.5,
		pos="647.83,744.89",
		width=0.75];
	46 -- 94	[pos="638.76,727.48 613.19,678.4 540.74,539.35 515.27,490.45"];
	46 -- 137	[pos="663.53,729.71 685.87,708.12 726.58,668.77 748.78,647.31"];
	46 -- 216	[pos="660.53,761.01 688.21,796.15 753.7,879.28 781.26,914.26"];
	46 -- 236	[pos="626.96,733.39 577.38,706.06 452.9,637.46 403.04,609.98"];
	47	[height=0.5,
		pos="1020.5,508.16",
		width=0.75];
	47 -- 107	[pos="1032.5,491.88 1048.9,469.64 1078.1,429.98 1094.6,407.61"];
	47 -- 143	[pos="1003.6,522.51 968.07,552.7 885.97,622.46 850.59,652.52"];
	47 -- 209	[pos="1015.5,490.46 1002.9,445.94 970.12,329.69 957.55,285.14"];
	47 -- 238	[pos="1047.5,510.19 1085.7,513.06 1155.4,518.28 1193.6,521.15"];
	48	[height=0.5,
		pos="1603.8,582.1",
		width=0.75];
	48 -- 58	[pos="1592.7,565.41 1585.3,554.18 1575.5,539.44 1568.1,528.24"];
	48 -- 145	[pos="1590.2,597.75 1563.8,628.31 1505.6,695.59 1478.9,726.39"];
	48 -- 148	[pos="1579.2,574.6 1574.6,573.21 1569.8,571.75 1565.2,570.36"];
	48 -- 215	[pos="1608.7,564.18 1617,533.67 1634,471.95 1642.4,441.31"];
	48 -- 239	[pos="1600.3,564.09 1596,541.41 1588.7,502.67 1584.4,479.94"];
	49	[height=0.5,
		pos="1294.9,396.1",
		width=0.75];
	49 -- 127	[pos="1278.9,381.04 1262.1,365.18 1235.7,340.35 1218.9,324.55"];
	49 -- 146	[pos="1320.7,390.24 1353.9,382.72 1411.2,369.74 1444.3,362.24"];
	49 -- 155	[pos="1270.9,404.9 1231.7,419.21 1154.7,447.37 1115.8,461.61"];
	49 -- 244	[pos="1302.6,413.71 1309.4,429.35 1319.3,452.07 1326.2,467.69"];
}
