graph {
	graph [bb="0,0,773.92,610.13",
		outputorder=edgesfirst,
		overlap=prism,
		size="50,50!",
		start=3987
	];
	node [label="\N"];
	0	[height=0.5,
		pos="651.79,311.31",
		width=0.75];
	1	[height=0.5,
		pos="629.49,397.95",
		width=0.75];
	0 -- 1	[pos="647.17,329.26 643.34,344.13 637.93,365.16 634.1,380.02"];
	3	[height=0.5,
		pos="499.55,303.05",
		width=0.75];
	0 -- 3	[pos="624.57,309.83 596.86,308.33 554.16,306.01 526.53,304.51"];
	2	[height=0.5,
		pos="467.12,361.09",
		width=0.75];
	0 -- 2	[pos="626.5,318.12 591.23,327.63 527.66,344.77 492.4,354.27"];
	16	[height=0.5,
		pos="669.34,477.08",
		width=0.75];
	0 -- 16	[pos="653.7,329.36 657.07,361.25 664.05,427.17 667.43,459.05"];
	7	[height=0.5,
		pos="717.99,182.75",
		width=0.75];
	0 -- 7	[pos="660.58,294.24 673.24,269.65 696.48,224.52 709.16,199.89"];
	18	[height=0.5,
		pos="710.59,356.32",
		width=0.75];
	0 -- 18	[pos="669.75,325.06 677.05,330.64 685.46,337.08 692.74,342.65"];
	10	[height=0.5,
		pos="614.49,213.85",
		width=0.75];
	0 -- 10	[pos="644.95,293.43 638.22,275.85 628,249.15 621.29,231.61"];
	11	[height=0.5,
		pos="552.46,218.04",
		width=0.75];
	0 -- 11	[pos="635.83,296.32 617.29,278.92 586.9,250.38 568.38,232.99"];
	20	[height=0.5,
		pos="746.92,257.52",
		width=0.75];
	0 -- 20	[pos="672.43,299.64 688.39,290.61 710.37,278.19 726.32,269.17"];
	23	[height=0.5,
		pos="710.89,432.37",
		width=0.75];
	0 -- 23	[pos="660.26,328.65 671.49,351.67 691.21,392.06 702.44,415.06"];
	1 -- 3	[pos="611.15,384.56 586.38,366.47 542.51,334.43 517.8,316.38"];
	1 -- 2	[pos="603.76,392.11 573.36,385.21 523.08,373.79 492.73,366.9"];
	1 -- 16	[pos="638.13,415.12 644.82,428.39 654.03,446.68 660.71,459.94"];
	12	[height=0.5,
		pos="573.18,463.23",
		width=0.75];
	1 -- 12	[pos="615.86,413.75 607,424.02 595.51,437.34 586.69,447.57"];
	1 -- 18	[pos="651.22,386.79 662.95,380.77 677.38,373.37 689.08,367.36"];
	1 -- 23	[pos="652.6,407.72 663.69,412.41 676.94,418.02 688,422.69"];
	25	[height=0.5,
		pos="340.43,410.92",
		width=0.75];
	3 -- 25	[pos="480.36,316.06 449.77,336.79 390.32,377.1 359.69,397.86"];
	3 -- 7	[pos="520.5,291.52 562.25,268.52 655.41,217.22 697.1,194.25"];
	4	[height=0.5,
		pos="205.35,350.43",
		width=0.75];
	3 -- 4	[pos="473.18,307.3 417.33,316.29 287.66,337.18 231.77,346.18"];
	19	[height=0.5,
		pos="340.09,207.37",
		width=0.75];
	3 -- 19	[pos="479.36,290.93 448.77,272.58 391.02,237.93 360.38,219.54"];
	6	[height=0.5,
		pos="454.71,465.53",
		width=0.75];
	3 -- 6	[pos="494.58,321.06 485.96,352.29 468.34,416.15 459.7,447.44"];
	5	[height=0.5,
		pos="384.09,454.94",
		width=0.75];
	3 -- 5	[pos="487.19,319.31 464.97,348.54 418.52,409.65 396.36,438.8"];
	3 -- 12	[pos="507.57,320.5 521.73,351.31 551.02,415.01 565.17,445.8"];
	8	[height=0.5,
		pos="495.89,509.53",
		width=0.75];
	3 -- 8	[pos="499.23,321.37 498.53,360.56 496.9,452.1 496.21,491.25"];
	3 -- 18	[pos="525.01,309.48 565.57,319.71 644.43,339.62 685.05,349.87"];
	3 -- 10	[pos="517.51,289.11 539.1,272.35 575.12,244.4 596.66,227.69"];
	3 -- 11	[pos="510,286.26 519.28,271.35 532.76,249.69 542.03,234.8"];
	14	[height=0.5,
		pos="409.72,151.19",
		width=0.75];
	3 -- 14	[pos="489.59,286.22 472.33,257.03 437.02,197.34 419.73,168.1"];
	3 -- 20	[pos="526.02,298.18 573.63,289.42 673.16,271.1 720.64,262.36"];
	22	[height=0.5,
		pos="398.25,78.196",
		width=0.75];
	3 -- 22	[pos="491.77,285.78 472.91,243.93 424.94,137.44 406.06,95.526"];
	29	[height=0.5,
		pos="313.05,257.83",
		width=0.75];
	3 -- 29	[pos="474.01,296.86 438.39,288.22 374.19,272.65 338.58,264.02"];
	2 -- 3	[pos="476.68,343.99 480.86,336.5 485.76,327.73 489.95,320.23"];
	2 -- 16	[pos="487.62,372.85 526.38,395.08 609.98,443.03 648.78,465.29"];
	2 -- 25	[pos="443.59,370.34 420.83,379.29 386.55,392.78 363.84,401.71"];
	2 -- 19	[pos="454,345.21 429.66,315.76 377.76,252.95 353.33,223.39"];
	2 -- 6	[pos="464.96,379.28 462.68,398.45 459.12,428.45 456.85,447.54"];
	2 -- 5	[pos="453.04,377.01 437.67,394.37 413.25,421.98 397.97,439.25"];
	2 -- 12	[pos="482.77,376.16 502.94,395.58 537.78,429.14 557.81,448.43"];
	2 -- 8	[pos="470.59,378.99 476.12,407.52 486.87,462.99 492.4,491.56"];
	13	[height=0.5,
		pos="539.57,592.13",
		width=0.75];
	2 -- 13	[pos="472.69,378.83 486.17,421.84 520.48,531.26 533.99,574.33"];
	9	[height=0.5,
		pos="220.46,441.69",
		width=0.75];
	2 -- 9	[pos="442.57,369.11 395.29,384.56 292.12,418.27 244.92,433.7"];
	24	[height=0.5,
		pos="267.38,313.55",
		width=0.75];
	2 -- 24	[pos="441.42,354.97 403.06,345.84 331.28,328.76 292.99,319.64"];
	2 -- 10	[pos="482.34,345.88 510.58,317.67 570.79,257.51 599.14,229.19"];
	15	[height=0.5,
		pos="567.1,129.99",
		width=0.75];
	2 -- 15	[pos="474.64,343.72 493.16,300.89 540.88,190.6 559.5,147.56"];
	2 -- 11	[pos="477.25,344.12 493.67,316.58 525.93,262.5 542.35,234.99"];
	2 -- 14	[pos="462.23,343.19 451.38,303.54 425.44,208.66 414.61,169.04"];
	28	[height=0.5,
		pos="309.51,357.63",
		width=0.75];
	2 -- 28	[pos="440.03,360.49 411.07,359.86 365.44,358.86 336.52,358.22"];
	17	[height=0.5,
		pos="178.51,394.94",
		width=0.75];
	2 -- 17	[pos="440.49,364.21 385.64,370.64 260.64,385.31 205.5,391.77"];
	2 -- 23	[pos="492.29,368.45 539.12,382.14 639.13,411.38 685.86,425.05"];
	16 -- 23	[pos="683.64,461.69 687.77,457.25 692.28,452.39 696.42,447.94"];
	7 -- 20	[pos="724.84,200.47 729.45,212.39 735.51,228.04 740.11,239.93"];
	4 -- 25	[pos="227.96,360.56 252.9,371.72 292.79,389.58 317.75,400.76"];
	4 -- 19	[pos="219.77,335.12 245.57,307.73 299.35,250.63 325.37,223"];
	4 -- 5	[pos="225.86,362.42 260.24,382.53 329.14,422.81 363.55,442.93"];
	4 -- 9	[pos="208.34,368.46 210.99,384.46 214.84,407.71 217.48,423.7"];
	21	[height=0.5,
		pos="62.375,415.33",
		width=0.75];
	4 -- 21	[pos="183.01,360.57 156.31,372.69 111.87,392.86 85.03,405.05"];
	4 -- 24	[pos="225.66,338.36 232.45,334.32 240.01,329.83 246.81,325.78"];
	4 -- 28	[pos="232.45,352.31 247.88,353.37 267.15,354.7 282.55,355.77"];
	4 -- 17	[pos="195.21,367.26 193.07,370.8 190.81,374.54 188.67,378.09"];
	27	[height=0.5,
		pos="27,329.31",
		width=0.75];
	4 -- 27	[pos="178.65,347.27 144.93,343.28 87.261,336.45 53.592,332.46"];
	4 -- 29	[pos="222.18,335.96 242.41,318.56 276.16,289.55 296.34,272.19"];
	19 -- 24	[pos="328.73,223.96 315.07,243.91 292.29,277.18 278.66,297.08"];
	19 -- 28	[pos="336.4,225.5 330.53,254.38 319.1,310.52 313.21,339.44"];
	26	[height=0.5,
		pos="309.03,18",
		width=0.75];
	19 -- 26	[pos="337.11,189.21 331.18,153.02 317.93,72.254 312,36.103"];
	19 -- 22	[pos="347.94,189.95 359.04,165.3 379.21,120.48 390.35,95.754"];
	19 -- 29	[pos="330.94,224.45 328.12,229.71 325.01,235.5 322.19,240.76"];
	6 -- 25	[pos="432.68,455 412.44,445.33 382.61,431.07 362.4,421.41"];
	6 -- 12	[pos="481.89,465 501.15,464.63 526.89,464.13 546.13,463.75"];
	6 -- 8	[pos="469.11,480.92 473.1,485.18 477.43,489.81 481.42,494.08"];
	5 -- 25	[pos="368.82,439.54 364.49,435.18 359.79,430.43 355.47,426.08"];
	5 -- 6	[pos="410.79,458.94 416.41,459.78 422.35,460.67 427.97,461.52"];
	5 -- 8	[pos="405.91,465.59 425.48,475.15 454.07,489.11 473.74,498.72"];
	12 -- 13	[pos="568.51,481.15 562.09,505.78 550.61,549.81 544.21,574.36"];
	12 -- 18	[pos="590.86,449.47 617.25,428.94 666.63,390.52 692.98,370.02"];
	8 -- 12	[pos="516.19,497.37 527.56,490.56 541.67,482.1 553.01,475.31"];
	8 -- 13	[pos="504.94,526.65 512.43,540.82 523.04,560.87 530.53,575.04"];
	9 -- 21	[pos="194,437.28 164.73,432.4 117.86,424.58 88.658,419.71"];
	9 -- 24	[pos="226.89,424.14 235.82,399.74 251.91,355.81 260.88,331.3"];
	9 -- 28	[pos="236.38,426.66 252.59,411.36 277.57,387.78 293.73,372.53"];
	9 -- 17	[pos="206.49,426.12 202.01,421.13 197.05,415.6 192.56,410.6"];
	21 -- 27	[pos="55.216,397.92 49.079,383 40.282,361.61 34.148,346.69"];
	18 -- 20	[pos="717.09,338.65 723.7,320.67 733.89,292.96 740.48,275.03"];
	24 -- 28	[pos="282.12,328.97 286.29,333.34 290.84,338.09 295,342.45"];
	10 -- 15	[pos="604.9,196.88 596.68,182.33 584.89,161.48 576.68,146.93"];
	10 -- 11	[pos="587.46,215.67 584.85,215.85 582.2,216.03 579.59,216.21"];
	11 -- 15	[pos="555.49,199.79 558.02,184.58 561.61,163.03 564.12,147.91"];
	14 -- 19	[pos="392.51,165.08 381.88,173.66 368.28,184.63 357.59,193.25"];
	14 -- 26	[pos="397.38,134.86 378.05,109.3 340.87,60.111 321.48,34.466"];
	14 -- 22	[pos="406.89,133.15 405.12,121.92 402.86,107.52 401.09,96.286"];
	28 -- 29	[pos="310.16,339.33 310.8,321.32 311.77,293.98 312.4,276.02"];
	17 -- 25	[pos="205.25,397.58 235.25,400.54 283.64,405.31 313.65,408.27"];
	17 -- 21	[pos="152.16,399.57 133.15,402.9 107.61,407.39 88.624,410.72"];
	17 -- 24	[pos="194.81,380.01 210.95,365.23 235.49,342.76 251.48,328.11"];
	17 -- 27	[pos="155.83,385.11 127.27,372.74 78.474,351.61 49.838,339.21"];
	22 -- 26	[pos="378.89,65.134 363.82,54.968 343.03,40.936 328.05,30.829"];
}
