graph {
	graph [bb="0,0,1843.9,1479.3",
		outputorder=edgesfirst,
		overlap=prism,
		size="50,50!",
		start=7716
	];
	node [label="\N"];
	0	[height=0.5,
		pos="802.27,931.49",
		width=0.75];
	20	[height=0.5,
		pos="486.15,923.65",
		width=0.75];
	0 -- 20	[pos="775.04,930.82 715.29,929.34 573.22,925.81 513.42,924.33"];
	23	[height=0.5,
		pos="835.45,1299.9",
		width=0.75];
	0 -- 23	[pos="803.89,949.51 809.53,1012.1 828.2,1219.4 833.83,1281.9"];
	27	[height=0.5,
		pos="457.27,1054.2",
		width=0.75];
	0 -- 27	[pos="778.28,940.03 715.02,962.53 544.18,1023.3 481.1,1045.8"];
	30	[height=0.5,
		pos="844.7,1111.9",
		width=0.75];
	0 -- 30	[pos="806.49,949.45 814.63,984.04 832.38,1059.5 840.5,1094"];
	31	[height=0.5,
		pos="850.98,1200.4",
		width=0.75];
	0 -- 31	[pos="805.54,949.56 814.41,998.55 838.87,1133.5 847.73,1182.4"];
	6	[height=0.5,
		pos="596.5,684.34",
		width=0.75];
	0 -- 6	[pos="789.08,915.66 752.01,871.12 647.11,745.13 609.84,700.36"];
	33	[height=0.5,
		pos="521.44,1105",
		width=0.75];
	0 -- 33	[pos="782.07,943.97 730.26,975.98 593.06,1060.7 541.45,1092.6"];
	36	[height=0.5,
		pos="818.69,676.44",
		width=0.75];
	0 -- 36	[pos="803.45,913.15 806.48,866.09 814.5,741.49 817.52,694.62"];
	37	[height=0.5,
		pos="782.54,722.74",
		width=0.75];
	0 -- 37	[pos="800.55,913.33 796.81,873.76 787.96,780.12 784.23,740.71"];
	38	[height=0.5,
		pos="1196.1,695.2",
		width=0.75];
	0 -- 38	[pos="822.34,919.45 889.74,879.01 1107.6,748.33 1175.6,707.5"];
	39	[height=0.5,
		pos="981.35,1022.7",
		width=0.75];
	0 -- 39	[pos="823.87,942.5 858.29,960.03 925.2,994.11 959.67,1011.7"];
	40	[height=0.5,
		pos="914.97,784.71",
		width=0.75];
	0 -- 40	[pos="814.76,915.23 836.42,887.01 880.72,829.32 902.42,801.05"];
	41	[height=0.5,
		pos="1043.8,1049.6",
		width=0.75];
	0 -- 41	[pos="824.13,942.19 870,964.63 975.84,1016.4 1021.8,1038.9"];
	43	[height=0.5,
		pos="710.37,742.13",
		width=0.75];
	0 -- 43	[pos="793.95,914.36 776.5,878.39 736.23,795.41 718.74,759.36"];
	45	[height=0.5,
		pos="616.16,984.13",
		width=0.75];
	0 -- 45	[pos="777.17,938.59 741.55,948.67 676.72,967 641.16,977.06"];
	47	[height=0.5,
		pos="587.8,807.01",
		width=0.75];
	0 -- 47	[pos="781.7,919.56 740.71,895.76 649.25,842.67 608.3,818.91"];
	17	[height=0.5,
		pos="966,536.25",
		width=0.75];
	0 -- 17	[pos="809.52,914 836.56,848.71 931.43,619.68 958.65,553.99"];
	48	[height=0.5,
		pos="1004.8,1155.7",
		width=0.75];
	0 -- 48	[pos="816.51,947.26 853.78,988.53 953.86,1099.4 990.81,1140.3"];
	51	[height=0.5,
		pos="645.96,1149",
		width=0.75];
	0 -- 51	[pos="790.52,947.85 761.48,988.26 686.59,1092.5 657.63,1132.8"];
	21	[height=0.5,
		pos="370.81,820.22",
		width=0.75];
	20 -- 21	[pos="469.63,908.83 447.57,889.06 408.78,854.27 386.93,834.68"];
	24	[height=0.5,
		pos="1020.2,1427.6",
		width=0.75];
	23 -- 24	[pos="854.52,1313.1 890.02,1337.6 965.81,1390 1001.2,1414.5"];
	28	[height=0.5,
		pos="234.17,1107.2",
		width=0.75];
	27 -- 28	[pos="431.68,1060.3 388.76,1070.5 302.76,1090.9 259.81,1101.1"];
	32	[height=0.5,
		pos="1069.2,1245.5",
		width=0.75];
	31 -- 32	[pos="876.87,1205.8 918.87,1214.5 1001.4,1231.5 1043.3,1240.2"];
	6 -- 17	[pos="619.89,674.96 686.36,648.32 875.83,572.38 942.47,545.68"];
	55	[height=0.5,
		pos="666.88,596.02",
		width=0.75];
	6 -- 55	[pos="609.41,668.14 622.11,652.2 641.38,628.02 654.06,612.12"];
	12	[height=0.5,
		pos="1055.1,668.91",
		width=0.75];
	6 -- 12	[pos="623.47,683.43 704.68,680.7 946.29,672.57 1027.8,669.82"];
	87	[height=0.5,
		pos="906.59,714.89",
		width=0.75];
	6 -- 87	[pos="623.48,686.99 682.12,692.77 820.66,706.42 879.45,712.22"];
	188	[height=0.5,
		pos="923.72,872.75",
		width=0.75];
	6 -- 188	[pos="616.97,696.12 675.73,729.96 844.5,827.14 903.26,860.97"];
	14	[height=0.5,
		pos="973.05,483.5",
		width=0.75];
	6 -- 14	[pos="617.82,672.96 684.1,637.61 886.01,529.93 951.96,494.75"];
	219	[height=0.5,
		pos="302.12,786.41",
		width=0.75];
	6 -- 219	[pos="572.41,692.69 517.07,711.88 381.39,758.93 326.13,778.09"];
	222	[height=0.5,
		pos="375.9,442.1",
		width=0.75];
	6 -- 222	[pos="582.37,668.82 542.52,625.06 429.62,501.09 389.92,457.49"];
	225	[height=0.5,
		pos="276.89,468.96",
		width=0.75];
	6 -- 225	[pos="577.46,671.51 520.75,633.29 353.33,520.47 296.23,481.99"];
	229	[height=0.5,
		pos="851.38,412.34",
		width=0.75];
	6 -- 229	[pos="610.93,668.93 655.69,621.17 791.82,475.9 836.79,427.91"];
	232	[height=0.5,
		pos="628.15,852.65",
		width=0.75];
	6 -- 232	[pos="599.89,702.35 605.98,734.75 618.71,802.47 624.79,834.77"];
	234	[height=0.5,
		pos="968.6,740.71",
		width=0.75];
	6 -- 234	[pos="622.96,688.35 691.37,698.71 873.49,726.3 942.02,736.68"];
	236	[height=0.5,
		pos="396.46,670.23",
		width=0.75];
	6 -- 236	[pos="569.52,682.43 531.24,679.74 461.55,674.82 423.33,672.13"];
	238	[height=0.5,
		pos="267.02,606.2",
		width=0.75];
	6 -- 238	[pos="570.92,678.27 509.54,663.71 354.41,626.92 292.81,612.31"];
	242	[height=0.5,
		pos="972.72,917.48",
		width=0.75];
	6 -- 242	[pos="616.46,696.71 681.63,737.09 887.71,864.8 952.81,905.14"];
	246	[height=0.5,
		pos="672.23,896.88",
		width=0.75];
	6 -- 246	[pos="602.83,702.09 617.12,742.2 651.75,839.41 665.98,879.32"];
	120	[height=0.5,
		pos="224.5,654.2",
		width=0.75];
	6 -- 120	[pos="569.45,682.14 500.73,676.58 320.06,661.94 251.45,656.38"];
	157	[height=0.5,
		pos="424.14,954.64",
		width=0.75];
	6 -- 157	[pos="585.72,701.25 554.76,749.79 465.87,889.2 434.92,937.74"];
	34	[height=0.5,
		pos="357.28,1202.7",
		width=0.75];
	33 -- 34	[pos="500.98,1117.2 469.35,1136 408.95,1171.9 377.48,1190.6"];
	42	[height=0.5,
		pos="1283,1049.6",
		width=0.75];
	41 -- 42	[pos="1071.2,1049.6 1117.4,1049.6 1209.9,1049.6 1255.8,1049.6"];
	44	[height=0.5,
		pos="798.95,535.71",
		width=0.75];
	43 -- 44	[pos="717.93,724.53 734.66,685.53 774.7,592.22 791.41,553.26"];
	46	[height=0.5,
		pos="565.6,851.2",
		width=0.75];
	45 -- 46	[pos="609.45,966.48 599.78,941.05 582.03,894.39 572.34,868.93"];
	105	[height=0.5,
		pos="1127.8,659.3",
		width=0.75];
	17 -- 105	[pos="983.93,549.89 1015,573.54 1078.6,621.9 1109.8,645.6"];
	19	[height=0.5,
		pos="918.61,1023.9",
		width=0.75];
	17 -- 19	[pos="964.23,554.47 956.75,631.41 927.81,929.18 920.37,1005.8"];
	325	[height=0.5,
		pos="1247.3,408.78",
		width=0.75];
	17 -- 325	[pos="988.54,526.03 1041.2,502.16 1171.8,442.96 1224.6,419.04"];
	339	[height=0.5,
		pos="1074.9,801.06",
		width=0.75];
	17 -- 339	[pos="973.15,553.62 992.89,601.6 1048,735.56 1067.8,783.62"];
	385	[height=0.5,
		pos="762.71,588.5",
		width=0.75];
	17 -- 385	[pos="940.66,542.76 901.6,552.8 827.11,571.95 788.04,581.99"];
	388	[height=0.5,
		pos="1244.3,614.15",
		width=0.75];
	17 -- 388	[pos="991.19,543.3 1044.2,558.13 1166.6,592.4 1219.4,607.17"];
	81	[height=0.5,
		pos="991.8,349.33",
		width=0.75];
	17 -- 81	[pos="968.52,517.98 973.46,482.16 984.38,403.06 989.31,367.39"];
	144	[height=0.5,
		pos="594.38,507.96",
		width=0.75];
	17 -- 144	[pos="938.97,534.19 870.33,528.96 689.84,515.23 621.31,510.01"];
	184	[height=0.5,
		pos="1199,739.35",
		width=0.75];
	17 -- 184	[pos="982.76,550.85 1025.7,588.33 1139.6,687.55 1182.4,724.88"];
	216	[height=0.5,
		pos="1261,707.38",
		width=0.75];
	17 -- 216	[pos="986.75,548.28 1040.9,579.7 1186.2,663.95 1240.3,695.36"];
	266	[height=0.5,
		pos="628.36,640.03",
		width=0.75];
	17 -- 266	[pos="941.44,543.79 879.23,562.92 715.89,613.12 653.27,632.37"];
	290	[height=0.5,
		pos="1117.8,282.22",
		width=0.75];
	17 -- 290	[pos="976.2,519.18 1003.9,472.91 1080.1,345.4 1107.7,299.21"];
	310	[height=0.5,
		pos="811.65,297.78",
		width=0.75];
	17 -- 310	[pos="955.15,519.48 926.81,475.69 850.82,358.3 822.49,314.53"];
	362	[height=0.5,
		pos="1371.7,478.81",
		width=0.75];
	17 -- 362	[pos="992.62,532.48 1066.2,522.06 1271.9,492.94 1345.3,482.55"];
	373	[height=0.5,
		pos="1040.6,272.67",
		width=0.75];
	17 -- 373	[pos="971.01,518.54 984.56,470.64 1021.8,338.86 1035.5,290.65"];
	381	[height=0.5,
		pos="820.26,460.7",
		width=0.75];
	17 -- 381	[pos="944.49,525.1 916.94,510.81 869.45,486.2 841.85,471.89"];
	49	[height=0.5,
		pos="1274.2,1238.1",
		width=0.75];
	48 -- 49	[pos="1029.6,1163.3 1080.9,1179 1198.1,1214.8 1249.4,1230.5"];
	52	[height=0.5,
		pos="758.08,1288.5",
		width=0.75];
	51 -- 52	[pos="658.82,1165 680.33,1191.8 723.38,1245.3 745.02,1272.2"];
	1	[height=0.5,
		pos="887.84,588.4",
		width=0.75];
	2	[height=0.5,
		pos="1137.4,857.06",
		width=0.75];
	1 -- 2	[pos="902.33,604.01 946.54,651.6 1079.3,794.54 1123.1,841.74"];
	3	[height=0.5,
		pos="480.89,735.37",
		width=0.75];
	1 -- 3	[pos="863.9,597.05 791.75,623.11 576.91,700.69 504.79,726.73"];
	53	[height=0.5,
		pos="1012.2,829.46",
		width=0.75];
	1 -- 53	[pos="896.79,605.74 919.74,650.22 980.51,767.97 1003.4,812.28"];
	54	[height=0.5,
		pos="1075.3,845.08",
		width=0.75];
	1 -- 54	[pos="899.85,604.85 933.71,651.21 1029.6,782.58 1063.4,828.77"];
	1 -- 55	[pos="860.75,589.34 818.22,590.8 736.3,593.63 693.85,595.09"];
	56	[height=0.5,
		pos="462.42,624.67",
		width=0.75];
	1 -- 56	[pos="860.9,590.7 784.28,597.23 565.72,615.86 489.24,622.38"];
	60	[height=0.5,
		pos="887.4,277.5",
		width=0.75];
	1 -- 60	[pos="887.81,570.35 887.74,515.4 887.51,350.63 887.43,295.61"];
	64	[height=0.5,
		pos="758.23,420.7",
		width=0.75];
	1 -- 64	[pos="875.41,572.32 850.7,540.35 795.65,469.11 770.81,436.98"];
	66	[height=0.5,
		pos="1124.7,490.21",
		width=0.75];
	1 -- 66	[pos="910.98,578.81 956.27,560.04 1056.1,518.64 1101.5,499.84"];
	67	[height=0.5,
		pos="1320.4,619.35",
		width=0.75];
	1 -- 67	[pos="914.9,590.34 992.59,595.9 1215.7,611.86 1293.4,617.41"];
	1 -- 12	[pos="910.05,599.09 942.12,614.54 1001.1,642.91 1033,658.3"];
	71	[height=0.5,
		pos="1340.2,531.32",
		width=0.75];
	1 -- 71	[pos="914.45,585.05 994.66,574.93 1233.5,544.79 1313.6,534.68"];
	75	[height=0.5,
		pos="915.33,412.34",
		width=0.75];
	1 -- 75	[pos="890.68,570.23 895.96,536.4 907.23,464.17 912.5,430.42"];
	76	[height=0.5,
		pos="533.52,455.54",
		width=0.75];
	1 -- 76	[pos="864.04,579.48 799.49,555.28 621.64,488.58 557.22,464.42"];
	16	[height=0.5,
		pos="658.5,693.08",
		width=0.75];
	1 -- 16	[pos="865.43,598.63 821.59,618.64 724.92,662.77 681,682.81"];
	79	[height=0.5,
		pos="928.35,368.3",
		width=0.75];
	1 -- 79	[pos="891.15,570.39 898.77,529.02 917.44,427.57 925.05,386.25"];
	18	[height=0.5,
		pos="1302.5,795.43",
		width=0.75];
	1 -- 18	[pos="909.55,599.24 981.11,634.98 1209.1,748.82 1280.7,784.58"];
	82	[height=0.5,
		pos="714.72,787.15",
		width=0.75];
	1 -- 82	[pos="874.25,604 841.97,641.06 760.94,734.09 728.48,771.36"];
	22	[height=0.5,
		pos="534.47,681.56",
		width=0.75];
	1 -- 22	[pos="862.71,595.03 797.75,612.16 624.79,657.75 559.71,674.91"];
	2 -- 16	[pos="1113.3,848.81 1031.5,820.79 764.54,729.39 682.63,701.34"];
	84	[height=0.5,
		pos="800.12,798.34",
		width=0.75];
	2 -- 84	[pos="1111.2,852.5 1048.4,841.56 889.57,813.92 826.52,802.94"];
	4	[height=0.5,
		pos="1044.1,1005.5",
		width=0.75];
	2 -- 4	[pos="1126.9,873.8 1108.9,902.32 1072.7,959.99 1054.8,988.62"];
	85	[height=0.5,
		pos="1330.2,969.96",
		width=0.75];
	2 -- 85	[pos="1158,869.14 1195.1,890.87 1272.7,936.3 1309.7,957.96"];
	2 -- 87	[pos="1117.3,844.69 1073.5,817.74 970.02,753.96 926.45,727.13"];
	7	[height=0.5,
		pos="610.21,898.43",
		width=0.75];
	2 -- 7	[pos="1110.5,859.17 1020.2,866.25 728.05,889.18 637.34,896.3"];
	88	[height=0.5,
		pos="1077.4,578.24",
		width=0.75];
	2 -- 88	[pos="1133.5,839.19 1122.7,788.95 1092.1,646.82 1081.3,596.32"];
	89	[height=0.5,
		pos="1287.3,487.31",
		width=0.75];
	2 -- 89	[pos="1144.6,839.22 1170,776.62 1254.9,567.29 1280.2,504.96"];
	93	[height=0.5,
		pos="1468.3,705.34",
		width=0.75];
	2 -- 93	[pos="1159.9,846.75 1220.2,819.07 1385.4,743.36 1445.8,715.66"];
	97	[height=0.5,
		pos="1422.7,1013.6",
		width=0.75];
	2 -- 97	[pos="1158.3,868.57 1211.1,897.51 1348.9,973.08 1401.7,1002"];
	101	[height=0.5,
		pos="1426.5,750.54",
		width=0.75];
	2 -- 101	[pos="1161,848.34 1215.3,828.37 1348,779.46 1402.5,759.37"];
	13	[height=0.5,
		pos="1394.4,839.34",
		width=0.75];
	2 -- 13	[pos="1164.4,855.2 1213.8,851.79 1318,844.61 1367.4,841.2"];
	104	[height=0.5,
		pos="1149.2,615.26",
		width=0.75];
	2 -- 104	[pos="1138.3,838.88 1140.5,793.96 1146.1,678.11 1148.3,633.32"];
	15	[height=0.5,
		pos="844.57,725.98",
		width=0.75];
	2 -- 15	[pos="1114.9,846.99 1060.4,822.59 921.72,760.52 867.14,736.08"];
	2 -- 105	[pos="1136.5,838.81 1134.7,801.13 1130.5,715.14 1128.7,677.51"];
	106	[height=0.5,
		pos="1502.8,832.83",
		width=0.75];
	2 -- 106	[pos="1164.2,855.28 1231.8,850.8 1408.3,839.1 1475.9,834.62"];
	110	[height=0.5,
		pos="1107.6,1153",
		width=0.75];
	2 -- 110	[pos="1135.6,875.12 1130.2,927.96 1114.8,1081.8 1109.4,1134.8"];
	26	[height=0.5,
		pos="1253.3,1157.5",
		width=0.75];
	2 -- 26	[pos="1144.1,874.51 1164.6,927.6 1226,1086.8 1246.5,1140"];
	3 -- 12	[pos="507.81,732.25 604.26,721.09 931.85,683.17 1028.2,672.02"];
	3 -- 16	[pos="506.33,729.31 540,721.29 599.02,707.24 632.81,699.2"];
	3 -- 84	[pos="507.01,740.52 567.02,752.36 714.15,781.38 774.08,793.21"];
	113	[height=0.5,
		pos="486.72,981.41",
		width=0.75];
	3 -- 113	[pos="481.32,753.46 482.39,798.96 485.21,917.76 486.29,963.29"];
	115	[height=0.5,
		pos="678.21,947.62",
		width=0.75];
	3 -- 115	[pos="495.4,750.97 531.98,790.32 627.63,893.21 663.95,932.27"];
	117	[height=0.5,
		pos="126.25,753.7",
		width=0.75];
	3 -- 117	[pos="453.94,736.76 388.15,740.16 219.89,748.86 153.64,752.28"];
	121	[height=0.5,
		pos="116,840.2",
		width=0.75];
	3 -- 121	[pos="455.81,742.57 389.15,761.72 208.12,813.74 141.26,832.95"];
	8	[height=0.5,
		pos="894.82,456.37",
		width=0.75];
	3 -- 8	[pos="500.02,722.47 569.19,675.85 805.81,516.36 875.41,469.45"];
	125	[height=0.5,
		pos="182.4,610.16",
		width=0.75];
	3 -- 125	[pos="457.96,725.75 402.4,702.44 261.04,643.15 205.4,619.81"];
	129	[height=0.5,
		pos="595.76,463.93",
		width=0.75];
	3 -- 129	[pos="488.25,717.97 508.95,669.07 567.51,530.69 588.31,481.53"];
	132	[height=0.5,
		pos="370.86,998.67",
		width=0.75];
	3 -- 132	[pos="473.5,753.05 453.45,801.02 398.22,933.18 378.22,981.06"];
	135	[height=0.5,
		pos="554.15,1016.9",
		width=0.75];
	3 -- 135	[pos="485.58,753.41 498.81,804.27 536.31,948.38 549.49,999.05"];
	138	[height=0.5,
		pos="440.69,550.82",
		width=0.75];
	3 -- 138	[pos="476.96,717.34 469.26,681.97 452.25,603.87 444.58,568.66"];
	140	[height=0.5,
		pos="240.07,788.92",
		width=0.75];
	3 -- 140	[pos="455.12,741.1 408.89,751.38 312.38,772.84 266.02,783.15"];
	143	[height=0.5,
		pos="400.35,606.92",
		width=0.75];
	3 -- 143	[pos="470.36,718.58 454.92,693.96 426.32,648.34 410.88,623.72"];
	145	[height=0.5,
		pos="519.74,1061",
		width=0.75];
	3 -- 145	[pos="483.03,753.34 489.81,810.13 510.72,985.4 517.56,1042.7"];
	149	[height=0.5,
		pos="306.97,1019.2",
		width=0.75];
	3 -- 149	[pos="470.53,752.27 439.59,802.75 348.13,952.01 317.27,1002.4"];
	29	[height=0.5,
		pos="280.54,928.76",
		width=0.75];
	3 -- 29	[pos="465.5,750.22 428.21,786.22 333.33,877.81 295.98,913.86"];
	57	[height=0.5,
		pos="162.44,687.36",
		width=0.75];
	56 -- 57	[pos="436.59,630.07 379.88,641.92 245.07,670.09 188.32,681.95"];
	61	[height=0.5,
		pos="840.8,27.832",
		width=0.75];
	60 -- 61	[pos="884.05,259.55 875.47,213.59 852.8,92.103 844.18,45.96"];
	65	[height=0.5,
		pos="720.78,336.16",
		width=0.75];
	64 -- 65	[pos="750.47,403.18 744.04,388.67 734.95,368.16 728.53,353.65"];
	68	[height=0.5,
		pos="1533.1,734.27",
		width=0.75];
	67 -- 68	[pos="1341.6,630.79 1382.4,652.82 1471.3,700.88 1512,722.87"];
	12 -- 40	[pos="1037.9,683.11 1011,705.33 959.26,748.1 932.29,770.39"];
	12 -- 17	[pos="1044,652.38 1026.9,626.95 994.39,578.53 977.24,552.99"];
	12 -- 13	[pos="1076.8,679.83 1138,710.54 1310.9,797.42 1372.4,828.29"];
	12 -- 14	[pos="1047.4,651.47 1031.7,616.13 996.47,536.44 980.81,501.03"];
	278	[height=0.5,
		pos="1028.2,529.29",
		width=0.75];
	12 -- 278	[pos="1051.6,650.94 1046.5,624.13 1036.8,573.96 1031.7,547.19"];
	332	[height=0.5,
		pos="1178.3,812.82",
		width=0.75];
	12 -- 332	[pos="1068.5,684.58 1092.2,712.27 1141.2,769.49 1164.8,797.16"];
	343	[height=0.5,
		pos="865.64,632.41",
		width=0.75];
	12 -- 343	[pos="1029.1,663.91 993.05,656.96 928.11,644.45 891.88,637.47"];
	344	[height=0.5,
		pos="783.21,376.64",
		width=0.75];
	12 -- 344	[pos="1040.8,653.61 993.96,603.22 844.77,442.82 797.63,392.14"];
	348	[height=0.5,
		pos="1279.2,663.37",
		width=0.75];
	12 -- 348	[pos="1082.1,668.24 1125.2,667.18 1209,665.11 1252.1,664.04"];
	349	[height=0.5,
		pos="1137.3,909.94",
		width=0.75];
	12 -- 349	[pos="1061.1,686.63 1076.3,731.21 1116,847.59 1131.2,892.19"];
	103	[height=0.5,
		pos="1333.8,575.33",
		width=0.75];
	12 -- 103	[pos="1079.3,660.77 1132,643.07 1256.5,601.26 1309.4,583.52"];
	171	[height=0.5,
		pos="1240.3,802.16",
		width=0.75];
	12 -- 171	[pos="1073.5,682.17 1109,707.71 1186.5,763.45 1222,788.95"];
	207	[height=0.5,
		pos="1426.5,795.31",
		width=0.75];
	12 -- 207	[pos="1079.2,677.1 1146.2,699.92 1334.5,763.98 1402,786.96"];
	256	[height=0.5,
		pos="551.5,637.45",
		width=0.75];
	12 -- 256	[pos="1028,667.22 940.45,661.75 665.7,644.58 578.4,639.13"];
	295	[height=0.5,
		pos="1062.2,477.35",
		width=0.75];
	12 -- 295	[pos="1055.7,650.89 1057.1,614.38 1060.1,532.05 1061.5,495.46"];
	315	[height=0.5,
		pos="1309.6,443.29",
		width=0.75];
	12 -- 315	[pos="1071.4,654.45 1117.2,613.8 1247,498.78 1293.1,457.91"];
	72	[height=0.5,
		pos="1568.6,587.32",
		width=0.75];
	71 -- 72	[pos="1366,537.64 1409.9,548.42 1499,570.26 1542.9,581.03"];
	77	[height=0.5,
		pos="313.85,424.8",
		width=0.75];
	76 -- 77	[pos="507.02,451.83 464.8,445.92 382.72,434.44 340.44,428.52"];
	16 -- 47	[pos="648.07,709.89 634.7,731.43 611.66,768.56 598.28,790.13"];
	16 -- 18	[pos="684.95,697.29 789.32,713.87 1172,774.7 1276.2,791.25"];
	264	[height=0.5,
		pos="461.95,823.55",
		width=0.75];
	16 -- 264	[pos="639.3,705.83 601.72,730.77 518.87,785.76 481.24,810.75"];
	338	[height=0.5,
		pos="876.52,828.72",
		width=0.75];
	16 -- 338	[pos="678.62,705.6 720.26,731.5 815.44,790.72 856.76,816.43"];
	16 -- 385	[pos="673.88,677.65 693.69,657.76 727.93,623.4 747.61,603.65"];
	386	[height=0.5,
		pos="503.12,870.94",
		width=0.75];
	16 -- 386	[pos="644.71,708.87 615.23,742.62 546.34,821.47 516.88,855.19"];
	182	[height=0.5,
		pos="401.53,909.49",
		width=0.75];
	16 -- 182	[pos="641.64,707.28 595.08,746.49 465.09,855.96 418.46,895.24"];
	214	[height=0.5,
		pos="548.19,925.34",
		width=0.75];
	16 -- 214	[pos="650.21,710.54 629.72,753.69 576.86,864.97 556.43,907.99"];
	241	[height=0.5,
		pos="338.3,608.36",
		width=0.75];
	16 -- 241	[pos="633.38,686.43 573.67,670.64 423.79,630.98 363.75,615.09"];
	286	[height=0.5,
		pos="492.77,398.3",
		width=0.75];
	16 -- 286	[pos="648.88,675.96 619.58,623.86 531.75,467.63 502.43,415.47"];
	306	[height=0.5,
		pos="381.2,486.64",
		width=0.75];
	16 -- 306	[pos="640.31,679.54 590.06,642.13 449.79,537.7 399.46,500.24"];
	324	[height=0.5,
		pos="898.87,500.37",
		width=0.75];
	16 -- 324	[pos="675.79,679.22 720.03,643.75 836.99,549.98 881.42,514.36"];
	347	[height=0.5,
		pos="412.42,396.11",
		width=0.75];
	16 -- 347	[pos="645.27,677.12 602.54,625.55 468.54,463.83 425.72,412.16"];
	358	[height=0.5,
		pos="796.29,852.25",
		width=0.75];
	16 -- 358	[pos="672.22,708.93 698.63,739.44 756.27,806.01 782.63,836.47"];
	369	[height=0.5,
		pos="471.46,442.62",
		width=0.75];
	16 -- 369	[pos="646.23,676.65 612.26,631.16 517.27,503.96 483.54,458.78"];
	80	[height=0.5,
		pos="936.15,165.05",
		width=0.75];
	79 -- 80	[pos="929.04,350.26 930.52,311.69 933.98,221.58 935.46,183.04"];
	291	[height=0.5,
		pos="1157.1,571.22",
		width=0.75];
	18 -- 291	[pos="1291.5,778.58 1264.5,736.93 1194.9,629.5 1168,587.96"];
	18 -- 348	[pos="1299.3,777.35 1294.9,752.2 1286.9,706.92 1282.5,681.66"];
	18 -- 388	[pos="1296.8,777.72 1285.7,743.06 1261.2,666.65 1250,631.93"];
	389	[height=0.5,
		pos="1485.2,988.48",
		width=0.75];
	18 -- 389	[pos="1317.1,810.91 1351.4,847.14 1436.6,937.16 1470.7,973.2"];
	50	[height=0.5,
		pos="1360.3,1014.2",
		width=0.75];
	18 -- 50	[pos="1307.2,813.34 1318.1,854.46 1344.7,955.28 1355.6,996.35"];
	109	[height=0.5,
		pos="1566.8,818.65",
		width=0.75];
	18 -- 109	[pos="1329.3,797.79 1379.9,802.24 1489.2,811.84 1539.9,816.29"];
	148	[height=0.5,
		pos="1158.9,1075.1",
		width=0.75];
	18 -- 148	[pos="1293.7,812.51 1268.1,862.43 1193.4,1007.8 1167.7,1057.9"];
	186	[height=0.5,
		pos="1392.3,937.89",
		width=0.75];
	18 -- 186	[pos="1313,812.06 1330.2,839.36 1364.3,893.42 1381.6,920.94"];
	245	[height=0.5,
		pos="1499.5,876.84",
		width=0.75];
	18 -- 245	[pos="1325.5,804.93 1363.3,820.58 1438.4,851.59 1476.4,867.28"];
	268	[height=0.5,
		pos="1047.4,917.52",
		width=0.75];
	18 -- 268	[pos="1280.3,806.06 1231.9,829.2 1117.5,883.97 1069.4,907.01"];
	328	[height=0.5,
		pos="1546.3,686.57",
		width=0.75];
	18 -- 328	[pos="1325,785.39 1371.4,764.65 1477.4,717.31 1523.8,696.59"];
	342	[height=0.5,
		pos="1563.5,879.12",
		width=0.75];
	18 -- 342	[pos="1327,803.31 1376.8,819.26 1488.9,855.22 1538.8,871.2"];
	377	[height=0.5,
		pos="1445,524.26",
		width=0.75];
	18 -- 377	[pos="1311.6,778.06 1337.3,729.08 1410.3,590.3 1435.9,541.5"];
	383	[height=0.5,
		pos="1364.5,758.68",
		width=0.75];
	18 -- 383	[pos="1322.8,783.4 1329.6,779.38 1337.1,774.9 1343.9,770.87"];
	83	[height=0.5,
		pos="740.23,963.94",
		width=0.75];
	82 -- 83	[pos="717.3,805.08 722.19,838.96 732.74,912.05 737.64,945.97"];
	4 -- 30	[pos="1022.8,1016.9 984.41,1037.4 904.17,1080.2 865.89,1100.6"];
	4 -- 53	[pos="1040.8,987.35 1034.7,953.52 1021.6,881.29 1015.5,847.54"];
	153	[height=0.5,
		pos="1212.1,1207.1",
		width=0.75];
	4 -- 153	[pos="1057.3,1021.3 1088.7,1059 1167.6,1153.8 1199,1191.4"];
	154	[height=0.5,
		pos="766.15,1332.6",
		width=0.75];
	4 -- 154	[pos="1030.7,1021.3 983.77,1076.6 827,1261 779.75,1316.6"];
	158	[height=0.5,
		pos="770.89,1074",
		width=0.75];
	4 -- 158	[pos="1018.4,1012 966.22,1025.1 848.31,1054.6 796.33,1067.6"];
	159	[height=0.5,
		pos="1314.2,839.45",
		width=0.75];
	4 -- 159	[pos="1064,993.31 1113.9,962.6 1244.4,882.41 1294.3,851.68"];
	9	[height=0.5,
		pos="860.96,544.39",
		width=0.75];
	4 -- 9	[pos="1037.2,988.01 1008.2,914.97 896.95,635 867.93,561.92"];
	162	[height=0.5,
		pos="1517,930.58",
		width=0.75];
	4 -- 162	[pos="1070.6,1001.3 1153.4,988.2 1407.5,947.94 1490.5,934.79"];
	166	[height=0.5,
		pos="1088.9,1358.4",
		width=0.75];
	4 -- 166	[pos="1046.4,1023.5 1054.1,1084 1079,1279.9 1086.6,1340.4"];
	170	[height=0.5,
		pos="1207.5,961.6",
		width=0.75];
	4 -- 170	[pos="1069.3,998.76 1100,990.51 1151.6,976.64 1182.3,968.38"];
	172	[height=0.5,
		pos="1322.2,1332.1",
		width=0.75];
	4 -- 172	[pos="1057.5,1021.3 1104.5,1076.4 1261.3,1260.6 1308.6,1316.1"];
	176	[height=0.5,
		pos="1030.6,756.94",
		width=0.75];
	4 -- 176	[pos="1043.1,987.25 1040.6,941.28 1034.1,821.25 1031.6,775.25"];
	177	[height=0.5,
		pos="864.45,1156",
		width=0.75];
	4 -- 177	[pos="1027.2,1019.7 992.98,1048.4 915.76,1113 881.44,1141.8"];
	179	[height=0.5,
		pos="666.21,1237.1",
		width=0.75];
	4 -- 179	[pos="1024.1,1017.8 958.62,1057.9 751.61,1184.8 686.21,1224.8"];
	183	[height=0.5,
		pos="1200.2,917.57",
		width=0.75];
	4 -- 183	[pos="1064.9,993.85 1094.7,977.02 1149.5,946.15 1179.4,929.3"];
	185	[height=0.5,
		pos="1280.3,1113.4",
		width=0.75];
	4 -- 185	[pos="1066.8,1015.9 1111.9,1036.5 1212.7,1082.5 1257.8,1103.1"];
	187	[height=0.5,
		pos="975.9,1216.4",
		width=0.75];
	4 -- 187	[pos="1038.4,1023.1 1025.6,1062.8 994.5,1158.9 981.63,1198.7"];
	114	[height=0.5,
		pos="699.44,1090.5",
		width=0.75];
	4 -- 114	[pos="1018.8,1011.8 955.04,1027.5 788.61,1068.5 724.82,1084.2"];
	86	[height=0.5,
		pos="1376.2,1132",
		width=0.75];
	85 -- 86	[pos="1335.3,987.92 1344.2,1019.1 1362.2,1082.7 1371.1,1113.9"];
	7 -- 158	[pos="624.47,914.01 654.96,947.33 726.2,1025.2 756.66,1058.5"];
	247	[height=0.5,
		pos="691.18,649.05",
		width=0.75];
	7 -- 247	[pos="616.03,880.49 630.97,834.48 670.53,712.66 685.41,666.82"];
	248	[height=0.5,
		pos="410.44,726.4",
		width=0.75];
	7 -- 248	[pos="593.52,884.06 555.92,851.68 464.91,773.31 427.22,740.85"];
	250	[height=0.5,
		pos="753.25,649.54",
		width=0.75];
	7 -- 250	[pos="620.04,881.32 646.24,835.74 717.48,711.77 743.54,666.44"];
	11	[height=0.5,
		pos="1117.2,953.99",
		width=0.75];
	7 -- 11	[pos="637.11,901.38 724.92,911 1002.6,941.44 1090.3,951.05"];
	253	[height=0.5,
		pos="273.12,838.88",
		width=0.75];
	7 -- 253	[pos="584.04,893.8 521.24,882.71 362.53,854.67 299.51,843.54"];
	257	[height=0.5,
		pos="604.37,1193.1",
		width=0.75];
	7 -- 257	[pos="609.85,916.86 608.79,969.89 605.77,1122.5 604.73,1175"];
	260	[height=0.5,
		pos="335.77,742.4",
		width=0.75];
	7 -- 260	[pos="589.58,886.7 538.72,857.79 407.75,783.32 356.64,754.27"];
	263	[height=0.5,
		pos="549.13,762.92",
		width=0.75];
	7 -- 263	[pos="602.35,880.99 590.62,854.97 568.67,806.27 556.96,780.29"];
	7 -- 264	[pos="588.65,887.54 560.54,873.34 511.66,848.65 483.54,834.45"];
	265	[height=0.5,
		pos="459.96,779.53",
		width=0.75];
	7 -- 265	[pos="592.68,884.56 563.73,861.65 506.25,816.17 477.37,793.31"];
	267	[height=0.5,
		pos="802.61,1024.5",
		width=0.75];
	7 -- 267	[pos="629.72,911.21 666.69,935.43 746.54,987.75 783.33,1011.8"];
	7 -- 19	[pos="633.39,907.85 690.54,931.1 837.73,990.96 895.16,1014.3"];
	35	[height=0.5,
		pos="412.45,1107.9",
		width=0.75];
	7 -- 35	[pos="595.67,913.83 559.1,952.58 463.61,1053.7 427.02,1092.5"];
	59	[height=0.5,
		pos="223.58,882.94",
		width=0.75];
	7 -- 59	[pos="583.02,897.34 512.04,894.49 321.7,886.87 250.74,884.03"];
	124	[height=0.5,
		pos="249.73,1063.2",
		width=0.75];
	7 -- 124	[pos="587.93,908.61 523.46,938.08 337.18,1023.2 272.32,1052.9"];
	191	[height=0.5,
		pos="537.7,1197.7",
		width=0.75];
	7 -- 191	[pos="605.89,916.25 593.03,969.36 555.04,1126.1 542.09,1179.6"];
	221	[height=0.5,
		pos="308.86,975.17",
		width=0.75];
	7 -- 221	[pos="584.78,904.9 527.88,919.39 390.85,954.29 334.12,968.73"];
	90	[height=0.5,
		pos="1291.4,232.73",
		width=0.75];
	89 -- 90	[pos="1287.6,469 1288.4,422.03 1290.4,297.66 1291.1,250.87"];
	94	[height=0.5,
		pos="1639.7,536.8",
		width=0.75];
	93 -- 94	[pos="1483.5,690.38 1516,658.48 1591.6,584.05 1624.3,551.96"];
	98	[height=0.5,
		pos="1536.5,1144.8",
		width=0.75];
	97 -- 98	[pos="1436.4,1029.4 1458.3,1054.6 1500.8,1103.6 1522.7,1128.9"];
	102	[height=0.5,
		pos="1506.5,581.88",
		width=0.75];
	101 -- 102	[pos="1434.8,733.12 1450.1,700.8 1482.8,631.89 1498.2,599.45"];
	13 -- 18	[pos="1372.2,828.71 1357.7,821.81 1338.9,812.85 1324.5,805.96"];
	13 -- 15	[pos="1368.3,833.95 1275.5,814.83 963.04,750.41 870.56,731.34"];
	316	[height=0.5,
		pos="1444.5,609.32",
		width=0.75];
	13 -- 316	[pos="1398.3,821.29 1407.7,778.29 1431.3,670.2 1440.6,627.29"];
	352	[height=0.5,
		pos="1608.5,660.8",
		width=0.75];
	13 -- 352	[pos="1411.6,825.03 1451.8,791.52 1551.6,708.26 1591.6,674.93"];
	356	[height=0.5,
		pos="1268.2,1005.6",
		width=0.75];
	13 -- 356	[pos="1382.1,855.58 1357.9,887.45 1304.5,957.82 1280.4,989.55"];
	359	[height=0.5,
		pos="1595.1,730.61",
		width=0.75];
	13 -- 359	[pos="1415.5,827.91 1454.1,807.02 1535.5,762.94 1574,742.05"];
	363	[height=0.5,
		pos="1345,1088",
		width=0.75];
	13 -- 363	[pos="1390.9,857.22 1381.8,902.98 1357.7,1024 1348.6,1069.9"];
	13 -- 42	[pos="1385.3,856.55 1364.3,896.08 1313,993 1292.1,1032.5"];
	74	[height=0.5,
		pos="1616.8,774.63",
		width=0.75];
	13 -- 74	[pos="1419.5,832.04 1462.3,819.58 1549,794.34 1591.8,781.9"];
	137	[height=0.5,
		pos="1106.2,1031.1",
		width=0.75];
	13 -- 137	[pos="1375,852.22 1322.5,887.14 1177.9,983.38 1125.4,1018.2"];
	175	[height=0.5,
		pos="1563.8,1065.8",
		width=0.75];
	13 -- 175	[pos="1406.6,855.62 1437.8,897.4 1520.6,1008 1551.7,1049.6"];
	209	[height=0.5,
		pos="1579.3,975.57",
		width=0.75];
	13 -- 209	[pos="1412.8,852.9 1448.2,879.01 1525.6,935.99 1560.9,962.06"];
	235	[height=0.5,
		pos="1199.6,873.57",
		width=0.75];
	13 -- 235	[pos="1368.1,843.95 1330.8,850.51 1263,862.43 1225.7,868.97"];
	259	[height=0.5,
		pos="1179,1163.1",
		width=0.75];
	13 -- 259	[pos="1383.4,855.84 1346.5,911.38 1226.9,1091.2 1190,1146.7"];
	281	[height=0.5,
		pos="1507.2,642.48",
		width=0.75];
	13 -- 281	[pos="1404.2,822.21 1425.6,784.89 1476.2,696.59 1497.4,659.43"];
	297	[height=0.5,
		pos="1406.2,683.68",
		width=0.75];
	13 -- 297	[pos="1395.8,821.18 1398.1,791.19 1402.6,731.65 1404.9,701.73"];
	15 -- 16	[pos="818.31,721.34 782.84,715.07 720.03,703.96 684.63,697.7"];
	15 -- 263	[pos="817.83,729.33 761.73,736.34 632.26,752.53 576.02,759.56"];
	15 -- 343	[pos="848.63,707.94 852.37,691.37 857.87,666.95 861.59,650.4"];
	380	[height=0.5,
		pos="709.57,543.68",
		width=0.75];
	15 -- 380	[pos="832.59,709.81 806.97,675.21 747.12,594.39 721.52,559.82"];
	382	[height=0.5,
		pos="1137,768.63",
		width=0.75];
	15 -- 382	[pos="871.04,729.84 926.57,737.94 1054.7,756.63 1110.4,764.74"];
	384	[height=0.5,
		pos="864.94,916.79",
		width=0.75];
	15 -- 384	[pos="846.52,744.28 850.43,780.84 859.15,862.54 863.02,898.83"];
	15 -- 46	[pos="821.74,736.23 769.3,759.77 640.72,817.48 588.35,840.99"];
	78	[height=0.5,
		pos="502.76,575.41",
		width=0.75];
	15 -- 78	[pos="821.88,715.99 759.85,688.66 587.95,612.94 525.67,585.5"];
	142	[height=0.5,
		pos="397.79,770.61",
		width=0.75];
	15 -- 142	[pos="817.63,728.67 738.01,736.63 504.43,759.96 424.77,767.91"];
	178	[height=0.5,
		pos="804.89,975.58",
		width=0.75];
	15 -- 178	[pos="841.72,743.93 834.41,789.87 815.11,911.32 807.77,957.45"];
	211	[height=0.5,
		pos="957.79,964.2",
		width=0.75];
	15 -- 211	[pos="852.9,743.5 873.89,787.66 928.77,903.13 949.61,946.97"];
	237	[height=0.5,
		pos="472.46,691.32",
		width=0.75];
	15 -- 237	[pos="817.81,723.49 749.24,717.1 567.81,700.2 499.23,693.82"];
	303	[height=0.5,
		pos="626.89,551.99",
		width=0.75];
	15 -- 303	[pos="827.13,712.04 786.37,679.46 685.26,598.64 644.42,566"];
	322	[height=0.5,
		pos="1091.4,534.22",
		width=0.75];
	15 -- 322	[pos="862.32,712.19 907.86,676.81 1028.4,583.13 1073.8,547.89"];
	337	[height=0.5,
		pos="740.59,1008",
		width=0.75];
	15 -- 337	[pos="838.07,743.62 819.39,794.26 765.76,939.69 747.09,990.32"];
	366	[height=0.5,
		pos="757.02,491.68",
		width=0.75];
	15 -- 366	[pos="837.99,708.37 821.73,664.84 779.78,552.58 763.56,509.17"];
	107	[height=0.5,
		pos="1737.3,876.97",
		width=0.75];
	106 -- 107	[pos="1528.8,837.72 1573.9,846.21 1666.1,863.55 1711.2,872.05"];
	111	[height=0.5,
		pos="1026.9,1381.6",
		width=0.75];
	110 -- 111	[pos="1101.4,1170.5 1086.4,1213.1 1048.1,1321.4 1033.1,1364"];
	113 -- 114	[pos="508.29,992.47 549.06,1013.4 637,1058.5 677.81,1079.4"];
	116	[height=0.5,
		pos="877.99,1067.9",
		width=0.75];
	115 -- 116	[pos="698.47,959.81 736.76,982.87 819.35,1032.6 857.68,1055.7"];
	118	[height=0.5,
		pos="36.332,759.84",
		width=0.75];
	117 -- 118	[pos="99.271,755.54 87.891,756.32 74.67,757.22 63.291,758"];
	122	[height=0.5,
		pos="37.217,942.35",
		width=0.75];
	121 -- 122	[pos="103.35,856.61 88.556,875.79 64.248,907.3 49.585,926.31"];
	8 -- 36	[pos="888.72,474 874.47,515.21 839.1,617.43 824.82,658.72"];
	8 -- 88	[pos="914.02,469.18 949.08,492.59 1023.1,542 1058.2,565.42"];
	8 -- 15	[pos="891.45,474.47 882.29,523.59 857.07,658.93 847.93,707.95"];
	192	[height=0.5,
		pos="1119,723.87",
		width=0.75];
	8 -- 192	[pos="908.18,472.3 948.05,519.88 1066,660.55 1105.7,708.02"];
	8 -- 247	[pos="879.18,471.17 841.27,507.03 744.83,598.28 706.87,634.2"];
	269	[height=0.5,
		pos="847.69,98.417",
		width=0.75];
	8 -- 269	[pos="892.42,438.12 884.33,376.72 858.16,177.97 850.09,116.62"];
	273	[height=0.5,
		pos="1184.3,155.01",
		width=0.75];
	8 -- 273	[pos="909.57,441.01 959.22,389.31 1119.9,221.99 1169.5,170.34"];
	277	[height=0.5,
		pos="1053,712.93",
		width=0.75];
	8 -- 277	[pos="905.2,473.2 933.86,519.69 1013.9,649.47 1042.6,696.03"];
	8 -- 278	[pos="915.96,467.92 940.95,481.58 982.26,504.16 1007.2,517.79"];
	279	[height=0.5,
		pos="1278,364.77",
		width=0.75];
	8 -- 279	[pos="920.26,450.29 989.8,433.66 1182.5,387.6 1252.3,370.91"];
	282	[height=0.5,
		pos="929.58,213.82",
		width=0.75];
	8 -- 282	[pos="897.43,438.14 903.89,393.08 920.55,276.87 926.99,231.93"];
	284	[height=0.5,
		pos="636.37,224.84",
		width=0.75];
	8 -- 284	[pos="878.65,441.88 832.24,400.3 698.94,280.89 652.53,239.31"];
	287	[height=0.5,
		pos="997.43,106.78",
		width=0.75];
	8 -- 287	[pos="900.05,438.55 917.65,378.58 974.62,184.48 992.21,124.56"];
	8 -- 291	[pos="917.64,466.36 967.37,488.13 1085,539.65 1134.5,561.33"];
	292	[height=0.5,
		pos="949.89,594.84",
		width=0.75];
	8 -- 292	[pos="901.8,473.9 912.33,500.39 932.2,550.34 942.8,577.01"];
	63	[height=0.5,
		pos="909.72,100.36",
		width=0.75];
	8 -- 63	[pos="895.58,438.22 898.14,377.15 906.41,179.48 908.96,118.47"];
	161	[height=0.5,
		pos="1185.2,446.04",
		width=0.75];
	8 -- 161	[pos="921.88,455.4 977.22,453.44 1102.8,448.97 1158.1,447.01"];
	224	[height=0.5,
		pos="609.73,282.55",
		width=0.75];
	8 -- 224	[pos="874.77,444.14 822.43,412.23 682.07,326.66 629.75,294.76"];
	126	[height=0.5,
		pos="214.93,513.08",
		width=0.75];
	125 -- 126	[pos="188.36,592.35 194.23,574.84 203.14,548.25 209,530.78"];
	130	[height=0.5,
		pos="900.75,323.91",
		width=0.75];
	129 -- 130	[pos="618.19,453.64 674.59,427.74 821.85,360.13 878.29,334.22"];
	133	[height=0.5,
		pos="484.44,1149.4",
		width=0.75];
	132 -- 133	[pos="383.02,1014.8 404.76,1043.6 450.1,1103.8 472.03,1132.9"];
	136	[height=0.5,
		pos="783.28,1156.7",
		width=0.75];
	135 -- 136	[pos="574.08,1029.1 617.41,1055.5 719.79,1118 763.23,1144.5"];
	139	[height=0.5,
		pos="655.18,391.72",
		width=0.75];
	138 -- 139	[pos="458.98,537.26 499.5,507.2 596.46,435.28 636.94,405.25"];
	141	[height=0.5,
		pos="178.03,825.71",
		width=0.75];
	140 -- 141	[pos="219.76,800.97 212.97,804.99 205.41,809.47 198.6,813.51"];
	143 -- 144	[pos="421.85,595.96 459.15,576.93 535.42,538.03 572.78,518.98"];
	146	[height=0.5,
		pos="629.01,1314.2",
		width=0.75];
	145 -- 146	[pos="527.25,1078.4 547.21,1124.7 601.43,1250.3 621.45,1296.7"];
	150	[height=0.5,
		pos="277.99,1184.7",
		width=0.75];
	149 -- 150	[pos="303.81,1037.2 298.24,1069.1 286.72,1134.9 281.14,1166.7"];
	155	[height=0.5,
		pos="537.36,1311.7",
		width=0.75];
	154 -- 155	[pos="739,1330.2 694.85,1326.1 608.01,1318.2 564.12,1314.1"];
	160	[height=0.5,
		pos="1382.5,638.61",
		width=0.75];
	159 -- 160	[pos="1320.3,821.62 1333.2,783.51 1363.5,694.47 1376.4,656.4"];
	9 -- 37	[pos="853.3,561.82 838.31,595.91 805.25,671.09 790.23,705.25"];
	9 -- 18	[pos="881.66,556.16 955.82,598.33 1207.7,741.56 1281.8,783.69"];
	9 -- 11	[pos="871.48,561.21 913.01,627.6 1065.3,871.02 1106.7,937.26"];
	10	[height=0.5,
		pos="1380.5,410.74",
		width=0.75];
	9 -- 10	[pos="886.37,537.86 974.59,515.16 1267,439.94 1355.1,417.27"];
	294	[height=0.5,
		pos="1012.7,395.32",
		width=0.75];
	9 -- 294	[pos="876.35,529.28 905.44,500.71 968.19,439.08 997.32,410.48"];
	296	[height=0.5,
		pos="1204.7,523.14",
		width=0.75];
	9 -- 296	[pos="887.93,542.72 952.03,538.76 1112.9,528.81 1177.4,524.83"];
	298	[height=0.5,
		pos="759.66,204.05",
		width=0.75];
	9 -- 298	[pos="855.66,526.57 838.19,467.9 782.6,281.12 765.03,222.11"];
	302	[height=0.5,
		pos="667.65,435.75",
		width=0.75];
	9 -- 302	[pos="840.27,532.77 803.16,511.91 725.69,468.37 688.48,447.45"];
	304	[height=0.5,
		pos="587.29,367.5",
		width=0.75];
	9 -- 304	[pos="841.28,531.67 790.78,499.03 657.09,412.61 606.79,380.1"];
	307	[height=0.5,
		pos="698.43,248.1",
		width=0.75];
	9 -- 307	[pos="851.52,527.18 822.79,474.81 736.66,317.79 707.9,265.36"];
	311	[height=0.5,
		pos="720.52,693.54",
		width=0.75];
	9 -- 311	[pos="846.46,559.79 819.55,588.37 762.16,649.32 735.15,678"];
	9 -- 65	[pos="849.73,527.7 823.41,488.62 758.05,391.52 731.87,352.64"];
	92	[height=0.5,
		pos="1055.6,316.72",
		width=0.75];
	9 -- 92	[pos="874.34,528.74 909.91,487.15 1006.5,374.19 1042.2,332.48"];
	128	[height=0.5,
		pos="474.56,354.15",
		width=0.75];
	9 -- 128	[pos="839.08,533.62 771.23,500.21 564.86,398.61 496.68,365.04"];
	196	[height=0.5,
		pos="858.31,872.75",
		width=0.75];
	9 -- 196	[pos="860.82,562.51 860.35,619.92 858.92,797.36 858.46,854.69"];
	228	[height=0.5,
		pos="547.53,323.46",
		width=0.75];
	9 -- 228	[pos="842.29,531.23 786.55,491.94 621.72,375.75 566.1,336.55"];
	249	[height=0.5,
		pos="564.81,585.39",
		width=0.75];
	9 -- 249	[pos="834.42,548.07 778.2,555.85 647.66,573.92 591.4,581.71"];
	272	[height=0.5,
		pos="821.7,189.74",
		width=0.75];
	9 -- 272	[pos="858.96,526.32 852.23,465.48 830.43,268.56 823.7,207.78"];
	163	[height=0.5,
		pos="1702.6,792.83",
		width=0.75];
	162 -- 163	[pos="1535.2,917.12 1570.6,890.79 1648.8,832.72 1684.4,806.35"];
	167	[height=0.5,
		pos="1087.6,1461.3",
		width=0.75];
	166 -- 167	[pos="1088.7,1376.8 1088.4,1395.5 1088.1,1424.4 1087.8,1443.1"];
	170 -- 171	[pos="1211.2,943.62 1217.5,913 1230.3,851.06 1236.6,820.32"];
	173	[height=0.5,
		pos="1472.9,1326.3",
		width=0.75];
	172 -- 173	[pos="1349.5,1331 1376.8,1330 1418.6,1328.4 1445.8,1327.4"];
	177 -- 178	[pos="858.63,1138.4 847.24,1103.9 822.14,1027.8 810.74,993.27"];
	180	[height=0.5,
		pos="475.53,1205.9",
		width=0.75];
	179 -- 180	[pos="639.69,1232.8 603.26,1226.8 538.12,1216.1 501.81,1210.2"];
	183 -- 184	[pos="1200.1,899.5 1199.8,865.34 1199.4,791.66 1199.1,757.47"];
	185 -- 186	[pos="1291.1,1096.5 1312.5,1063 1360.2,988.16 1381.6,954.67"];
	5	[height=0.5,
		pos="1168.2,1005.6",
		width=0.75];
	5 -- 54	[pos="1158.5,988.74 1140.7,957.99 1103.1,893.16 1085.2,862.22"];
	5 -- 18	[pos="1179,988.77 1204.2,949.32 1266.8,851.31 1291.8,812.07"];
	5 -- 153	[pos="1172.1,1023.5 1180.5,1061.7 1199.9,1151.1 1208.2,1189.3"];
	5 -- 188	[pos="1147,994.06 1100.6,968.87 990.92,909.27 944.77,884.19"];
	189	[height=0.5,
		pos="964.77,1349",
		width=0.75];
	5 -- 189	[pos="1158.1,1022.6 1123.5,1081.1 1009.7,1273.3 974.92,1331.9"];
	5 -- 192	[pos="1165.1,987.56 1156.2,936.68 1131,792.48 1122.2,741.78"];
	193	[height=0.5,
		pos="1089.4,1295.2",
		width=0.75];
	5 -- 193	[pos="1163.3,1023.7 1149.1,1075.9 1108.3,1225.8 1094.2,1277.4"];
	197	[height=0.5,
		pos="1613.1,924.47",
		width=0.75];
	5 -- 197	[pos="1194.4,1000.8 1273.3,986.46 1508.2,943.61 1587,929.23"];
	201	[height=0.5,
		pos="1365.3,1288.1",
		width=0.75];
	5 -- 201	[pos="1179.7,1022 1214.5,1071.9 1319,1221.6 1353.8,1271.6"];
	204	[height=0.5,
		pos="1500.2,1097.5",
		width=0.75];
	5 -- 204	[pos="1193.2,1012.5 1254.7,1029.6 1413.2,1073.4 1475,1090.5"];
	208	[height=0.5,
		pos="1438.2,1125.4",
		width=0.75];
	5 -- 208	[pos="1190.8,1015.6 1241.6,1038.2 1364.6,1092.7 1415.5,1115.3"];
	5 -- 14	[pos="1161.6,987.95 1131.8,908.05 1009.5,581.05 979.66,501.16"];
	210	[height=0.5,
		pos="1069.1,1098.9",
		width=0.75];
	5 -- 210	[pos="1152.3,1020.6 1133.8,1038 1103.5,1066.6 1085,1084"];
	212	[height=0.5,
		pos="913.84,1200.2",
		width=0.75];
	5 -- 212	[pos="1150.3,1019.3 1103.6,1055 978.4,1150.9 931.71,1186.6"];
	215	[height=0.5,
		pos="1345.7,883.47",
		width=0.75];
	5 -- 215	[pos="1187.2,992.55 1221.4,969.03 1292.8,919.89 1326.8,896.44"];
	217	[height=0.5,
		pos="1204.4,1268.9",
		width=0.75];
	5 -- 217	[pos="1170.7,1023.7 1177.3,1071.8 1195.3,1202.4 1201.9,1250.6"];
	5 -- 32	[pos="1161,1023.3 1142.6,1067.6 1094.8,1183.4 1076.5,1227.8"];
	5 -- 86	[pos="1188.6,1018 1228.4,1042.2 1316.4,1095.7 1356.1,1119.8"];
	5 -- 116	[pos="1142.5,1011.1 1087.5,1022.9 959.36,1050.4 904.1,1062.3"];
	190	[height=0.5,
		pos="744.2,1391.8",
		width=0.75];
	189 -- 190	[pos="938.61,1354.1 896.15,1362.4 812.77,1378.5 770.34,1386.8"];
	194	[height=0.5,
		pos="909.21,1429.1",
		width=0.75];
	193 -- 194	[pos="1071.1,1308.7 1036.5,1334.5 961.72,1390 927.26,1415.6"];
	198	[height=0.5,
		pos="1816.9,799.82",
		width=0.75];
	197 -- 198	[pos="1633.1,912.29 1672,888.46 1757.9,835.92 1796.9,812.05"];
	202	[height=0.5,
		pos="1370.3,1376.1",
		width=0.75];
	201 -- 202	[pos="1366.3,1306.3 1367.2,1321.4 1368.4,1342.8 1369.3,1357.9"];
	205	[height=0.5,
		pos="1716.2,1054.6",
		width=0.75];
	204 -- 205	[pos="1526.3,1092.3 1567.8,1084.1 1648.5,1068.1 1690.1,1059.8"];
	208 -- 209	[pos="1452.8,1109.9 1479.8,1081.2 1537.4,1020 1564.6,991.18"];
	14 -- 75	[pos="959.96,467.35 950.51,455.7 937.81,440.05 928.37,428.42"];
	14 -- 104	[pos="991.24,497.1 1025.1,522.42 1097.3,576.47 1131.1,601.73"];
	14 -- 176	[pos="976.83,501.44 987.26,550.99 1016.4,689.31 1026.8,738.93"];
	365	[height=0.5,
		pos="856.23,368.29",
		width=0.75];
	14 -- 365	[pos="957.78,468.44 935.39,446.36 893.9,405.44 871.51,383.36"];
	367	[height=0.5,
		pos="712.46,292.14",
		width=0.75];
	14 -- 367	[pos="954.73,470.04 906.88,434.91 778.59,340.7 730.77,305.58"];
	370	[height=0.5,
		pos="1060.2,148.01",
		width=0.75];
	14 -- 370	[pos="977.74,465.46 992.87,407.21 1040.3,224.52 1055.5,166.14"];
	374	[height=0.5,
		pos="1324.7,276.77",
		width=0.75];
	14 -- 374	[pos="993.48,471.49 1055.6,434.95 1242,325.39 1304.2,288.81"];
	378	[height=0.5,
		pos="1011.9,624.88",
		width=0.75];
	14 -- 378	[pos="977.98,501.4 985.45,528.6 999.58,580.01 1007,607.12"];
	14 -- 44	[pos="948.11,490.98 915.01,500.9 856.92,518.32 823.84,528.24"];
	14 -- 139	[pos="948.11,476.3 888.69,459.14 739.31,416.01 680.01,398.89"];
	262	[height=0.5,
		pos="588.99,411.52",
		width=0.75];
	14 -- 262	[pos="946.96,478.61 876.89,465.48 685.23,429.55 615.12,416.41"];
	283	[height=0.5,
		pos="1047.1,228.3",
		width=0.75];
	14 -- 283	[pos="978.26,465.55 991.86,418.7 1028.3,293.06 1041.9,246.23"];
	301	[height=0.5,
		pos="874.11,145.67",
		width=0.75];
	14 -- 301	[pos="967.87,465.81 950.82,407.57 896.51,222.17 879.35,163.59"];
	319	[height=0.5,
		pos="1229.4,199.02",
		width=0.75];
	14 -- 319	[pos="987.2,467.8 1032,418.06 1170.5,264.34 1215.3,214.67"];
	334	[height=0.5,
		pos="1267.6,565.66",
		width=0.75];
	14 -- 334	[pos="998.17,490.5 1053.8,506.03 1187,543.17 1242.6,558.68"];
	355	[height=0.5,
		pos="1340.5,322.32",
		width=0.75];
	14 -- 355	[pos="995.77,473.54 1061.6,444.64 1252.3,361.03 1318,332.22"];
	210 -- 211	[pos="1055.9,1083 1034.5,1057 992.4,1006.1 970.98,980.16"];
	213	[height=0.5,
		pos="583.5,1129.4",
		width=0.75];
	212 -- 213	[pos="887.92,1194.7 826.17,1181.4 670.93,1148.2 609.3,1134.9"];
	215 -- 216	[pos="1337.4,866.26 1321.2,832.6 1285.6,758.37 1269.3,724.65"];
	218	[height=0.5,
		pos="1020.4,1305",
		width=0.75];
	217 -- 218	[pos="1178.4,1274 1143.5,1280.8 1081.6,1293 1046.5,1299.9"];
	220	[height=0.5,
		pos="89.353,886.12",
		width=0.75];
	219 -- 220	[pos="279.75,796.9 238.89,816.04 152.62,856.47 111.74,875.63"];
	223	[height=0.5,
		pos="463.71,279.1",
		width=0.75];
	222 -- 223	[pos="385.14,424.96 401.95,393.74 437.42,327.91 454.34,296.5"];
	226	[height=0.5,
		pos="317.26,297.16",
		width=0.75];
	225 -- 226	[pos="281.13,450.9 288.9,417.82 305.34,347.88 313.07,314.98"];
	230	[height=0.5,
		pos="1159.4,225.53",
		width=0.75];
	229 -- 230	[pos="871.59,400.08 927.4,366.23 1083.2,271.73 1139.1,237.83"];
	233	[height=0.5,
		pos="866.95,979.82",
		width=0.75];
	232 -- 233	[pos="649.34,863.94 694.66,888.07 800.53,944.45 845.81,968.56"];
	234 -- 235	[pos="989.1,752.5 1032.9,777.71 1135.3,836.61 1179.1,861.8"];
	236 -- 237	[pos="421.77,677.26 430.06,679.56 439.26,682.11 447.52,684.4"];
	239	[height=0.5,
		pos="198.18,566.08",
		width=0.75];
	238 -- 239	[pos="246.37,594.16 237.65,589.08 227.53,583.18 218.82,578.11"];
	243	[height=0.5,
		pos="1220.9,1062",
		width=0.75];
	242 -- 243	[pos="993.46,929.55 1040.3,956.82 1153.8,1022.9 1200.4,1050"];
	248 -- 249	[pos="426.38,711.84 455.96,684.82 519.03,627.2 548.72,600.08"];
	251	[height=0.5,
		pos="1000.1,439.45",
		width=0.75];
	250 -- 251	[pos="770.22,635.1 815.43,596.63 938.4,491.98 983.37,453.71"];
	11 -- 39	[pos="1095.6,964.88 1070.4,977.67 1028.6,998.78 1003.2,1011.6"];
	11 -- 13	[pos="1140.3,944.42 1192.5,922.83 1318.8,870.6 1371.1,848.97"];
	11 -- 19	[pos="1093.2,962.42 1055,975.85 980.86,1002 942.65,1015.4"];
	11 -- 277	[pos="1112.4,936.27 1100.6,891.69 1069.6,775.29 1057.7,730.68"];
	313	[height=0.5,
		pos="1344,685.39",
		width=0.75];
	11 -- 313	[pos="1130.7,938 1171,890.22 1290.3,748.97 1330.6,701.31"];
	11 -- 332	[pos="1124.6,936.68 1136.4,909.59 1158.9,857.45 1170.7,830.27"];
	333	[height=0.5,
		pos="1289.1,751.4",
		width=0.75];
	11 -- 333	[pos="1130.7,938.1 1162.8,900.22 1243.6,805.02 1275.7,767.22"];
	335	[height=0.5,
		pos="912.69,1245.3",
		width=0.75];
	11 -- 335	[pos="1105.6,970.49 1069.6,1021.8 959.96,1178 924.14,1229"];
	11 -- 338	[pos="1095.8,942.88 1050.1,919.1 943.45,863.56 897.82,839.81"];
	11 -- 339	[pos="1112.2,936.15 1104.1,906.68 1087.9,848.18 1079.8,818.79"];
	340	[height=0.5,
		pos="1435,1060.6",
		width=0.75];
	11 -- 340	[pos="1141.3,962.09 1200.3,981.87 1351.1,1032.4 1410.4,1052.4"];
	70	[height=0.5,
		pos="1454.3,920.87",
		width=0.75];
	11 -- 70	[pos="1143.9,951.37 1207,945.17 1364.5,929.7 1427.6,923.5"];
	100	[height=0.5,
		pos="1378.4,1217.8",
		width=0.75];
	11 -- 100	[pos="1132.3,969.32 1178.6,1016.1 1317.6,1156.4 1363.5,1202.8"];
	134	[height=0.5,
		pos="708.23,1160.3",
		width=0.75];
	11 -- 134	[pos="1095.5,964.94 1024.6,1000.7 800.63,1113.7 729.87,1149.4"];
	169	[height=0.5,
		pos="1184.4,1312.9",
		width=0.75];
	11 -- 169	[pos="1120.6,972.28 1132.1,1033.8 1169.4,1233.1 1181,1294.6"];
	203	[height=0.5,
		pos="1303.3,1282.1",
		width=0.75];
	11 -- 203	[pos="1126.9,971.17 1159.1,1027.9 1261.6,1208.6 1293.6,1265.1"];
	11 -- 233	[pos="1090.4,956.76 1042.3,961.72 942.08,972.07 893.92,977.04"];
	254	[height=0.5,
		pos="54.002,817.29",
		width=0.75];
	253 -- 254	[pos="246.26,836.23 204.09,832.08 122.84,824.07 80.748,819.92"];
	258	[height=0.5,
		pos="840.57,1356.8",
		width=0.75];
	257 -- 258	[pos="623.3,1206.2 667.53,1236.8 777.23,1312.9 821.55,1343.6"];
	261	[height=0.5,
		pos="378.67,559.41",
		width=0.75];
	260 -- 261	[pos="339.96,724.53 348.17,689.54 366.25,612.41 374.46,577.36"];
	265 -- 266	[pos="477.03,765.39 509.31,738.65 578.93,680.98 611.24,654.21"];
	267 -- 268	[pos="825.2,1014.6 871.72,994.28 977.75,947.96 1024.5,927.52"];
	19 -- 187	[pos="923.9,1041.6 934.81,1078.3 959.72,1162 970.62,1198.7"];
	19 -- 246	[pos="897.18,1012.8 850.58,988.79 740.5,932.06 693.79,907.99"];
	19 -- 384	[pos="909.99,1006.7 899.97,986.68 883.55,953.91 873.54,933.95"];
	19 -- 52	[pos="908.33,1040.8 879.33,1088.6 797.17,1224 768.28,1271.6"];
	19 -- 83	[pos="894.18,1015.6 860.02,1004.2 798.37,983.46 764.36,972.04"];
	112	[height=0.5,
		pos="902.68,1383.6",
		width=0.75];
	19 -- 112	[pos="917.8,1042.2 915.07,1103.9 906.22,1303.6 903.49,1365.3"];
	152	[height=0.5,
		pos="548.2,1259.3",
		width=0.75];
	19 -- 152	[pos="898.96,1036.3 834.8,1077.1 631.9,1206.1 567.81,1246.8"];
	19 -- 218	[pos="924.98,1041.4 943.26,1091.9 995.76,1237 1014,1287.4"];
	293	[height=0.5,
		pos="949.86,828.73",
		width=0.75];
	19 -- 293	[pos="921.5,1005.8 927.45,968.67 941.03,883.83 946.98,846.69"];
	312	[height=0.5,
		pos="734.24,890.22",
		width=0.75];
	19 -- 312	[pos="900.26,1010.6 864.92,984.94 787.8,929.04 752.52,903.47"];
	331	[height=0.5,
		pos="1283,925.86",
		width=0.75];
	19 -- 331	[pos="943.66,1017.1 1010.2,999.22 1191,950.6 1257.7,932.64"];
	351	[height=0.5,
		pos="1004.6,1260.8",
		width=0.75];
	19 -- 351	[pos="925.08,1041.7 941.05,1085.7 982.26,1199.2 998.19,1243.1"];
	364	[height=0.5,
		pos="1135.8,1207.1",
		width=0.75];
	19 -- 364	[pos="935.66,1038.2 976.25,1072.5 1078.3,1158.6 1118.8,1192.8"];
	379	[height=0.5,
		pos="1009.1,873.48",
		width=0.75];
	19 -- 379	[pos="928.81,1006.9 946.19,978.02 981.32,919.6 998.76,890.6"];
	387	[height=0.5,
		pos="636.78,1055.2",
		width=0.75];
	19 -- 387	[pos="891.84,1026.8 838.12,1032.8 717.7,1046.2 663.78,1052.2"];
	391	[height=0.5,
		pos="1133.5,1251.2",
		width=0.75];
	19 -- 391	[pos="933.05,1039.1 972.11,1080.4 1079.6,1194.1 1118.9,1235.7"];
	270	[height=0.5,
		pos="762.57,18.535",
		width=0.75];
	269 -- 270	[pos="831.68,83.392 816.36,69.02 793.41,47.481 778.22,33.223"];
	274	[height=0.5,
		pos="1313.1,110.68",
		width=0.75];
	273 -- 274	[pos="1208.5,146.67 1231.5,138.75 1266,126.89 1289,118.98"];
	280	[height=0.5,
		pos="1442.6,434.07",
		width=0.75];
	279 -- 280	[pos="1300.9,374.41 1332.3,387.61 1388.3,411.19 1419.7,424.41"];
	282 -- 283	[pos="956.25,217.11 975.49,219.48 1001.3,222.66 1020.6,225.03"];
	285	[height=0.5,
		pos="531.78,235.42",
		width=0.75];
	284 -- 285	[pos="609.44,227.56 593.82,229.14 574.22,231.12 558.62,232.7"];
	288	[height=0.5,
		pos="1078.2,18",
		width=0.75];
	287 -- 288	[pos="1011.5,91.319 1026.2,75.123 1049.3,49.827 1064,33.586"];
	292 -- 293	[pos="949.89,613.19 949.88,656.92 949.87,766.82 949.86,810.46"];
	10 -- 38	[pos="1369.8,427.27 1337.2,477.54 1239.5,628.3 1206.8,678.63"];
	10 -- 66	[pos="1356,418.36 1307.2,433.51 1198.6,467.27 1149.5,482.49"];
	10 -- 313	[pos="1378.1,428.76 1371.5,478.53 1353,617.46 1346.4,667.31"];
	314	[height=0.5,
		pos="1419.2,340.66",
		width=0.75];
	10 -- 314	[pos="1389.9,393.78 1395.9,382.92 1403.6,368.88 1409.7,357.96"];
	10 -- 316	[pos="1386.2,428.37 1398.3,465.96 1426.6,553.65 1438.8,591.46"];
	317	[height=0.5,
		pos="1415.5,221.71",
		width=0.75];
	10 -- 317	[pos="1383.9,392.62 1390.5,356.49 1405.5,275.87 1412.1,239.78"];
	320	[height=0.5,
		pos="1449.5,293.73",
		width=0.75];
	10 -- 320	[pos="1390.4,393.98 1403.4,371.86 1426.2,333.14 1439.4,310.84"];
	323	[height=0.5,
		pos="1204.7,362.04",
		width=0.75];
	10 -- 323	[pos="1355.3,403.77 1321.9,394.51 1263.2,378.26 1229.8,369.01"];
	10 -- 325	[pos="1353.2,410.34 1330.2,410 1297.5,409.52 1274.5,409.18"];
	326	[height=0.5,
		pos="1546.5,388.01",
		width=0.75];
	10 -- 326	[pos="1407.2,407.09 1438.2,402.85 1489,395.89 1519.9,391.65"];
	329	[height=0.5,
		pos="1507,523.14",
		width=0.75];
	10 -- 329	[pos="1396.8,425.21 1421.1,446.79 1466.6,487.18 1490.8,508.73"];
	96	[height=0.5,
		pos="1582.7,331.37",
		width=0.75];
	10 -- 96	[pos="1404.1,401.48 1443.1,386.19 1520.4,355.83 1559.3,340.57"];
	131	[height=0.5,
		pos="1229.3,264.05",
		width=0.75];
	10 -- 131	[pos="1365.2,395.87 1336.2,367.75 1273.7,307.11 1244.7,278.96"];
	165	[height=0.5,
		pos="1549.6,452.94",
		width=0.75];
	10 -- 165	[pos="1405.8,417.06 1437.7,425.02 1492.1,438.6 1524.1,446.58"];
	200	[height=0.5,
		pos="1577.7,496.99",
		width=0.75];
	10 -- 200	[pos="1403.1,420.64 1441.1,437.23 1517.1,470.48 1555,487.08"];
	231	[height=0.5,
		pos="1353.5,202.06",
		width=0.75];
	10 -- 231	[pos="1378.2,392.59 1373,353.02 1360.9,259.42 1355.8,220.03"];
	252	[height=0.5,
		pos="1273.7,320.77",
		width=0.75];
	10 -- 252	[pos="1363.4,396.29 1343.3,379.4 1310.4,351.64 1290.5,334.89"];
	276	[height=0.5,
		pos="1477.6,185.14",
		width=0.75];
	10 -- 276	[pos="1388,393.42 1406,351.42 1452,244.58 1470.1,202.53"];
	294 -- 295	[pos="1023,412.32 1031.5,426.4 1043.5,446.31 1051.9,460.38"];
	296 -- 297	[pos="1222.2,537.1 1260.4,567.54 1350.8,639.56 1388.9,669.86"];
	299	[height=0.5,
		pos="678.96,125.21",
		width=0.75];
	298 -- 299	[pos="744.1,188.85 729.72,174.8 708.48,154.05 694.2,140.09"];
	302 -- 303	[pos="661.46,453.4 653.8,475.25 640.83,512.24 633.14,534.17"];
	305	[height=0.5,
		pos="409.2,343.38",
		width=0.75];
	304 -- 305	[pos="560.62,363.89 526.95,359.33 469.37,351.53 435.75,346.97"];
	308	[height=0.5,
		pos="636.82,177.32",
		width=0.75];
	307 -- 308	[pos="684.76,232.39 674.55,220.66 660.66,204.7 650.46,192.98"];
	311 -- 312	[pos="721.79,711.69 724.4,749.16 730.36,834.68 732.97,872.11"];
	314 -- 315	[pos="1403.5,355.36 1382.7,374.87 1346.1,409.11 1325.2,428.61"];
	318	[height=0.5,
		pos="1357.4,158.03",
		width=0.75];
	317 -- 318	[pos="1401.4,206.29 1392.4,196.43 1380.8,183.67 1371.8,173.74"];
	321	[height=0.5,
		pos="1357,366.74",
		width=0.75];
	320 -- 321	[pos="1431.6,307.81 1415.2,320.82 1390.8,340.03 1374.5,352.95"];
	323 -- 324	[pos="1182.2,372.21 1125.7,397.79 977.99,464.59 921.39,490.18"];
	327	[height=0.5,
		pos="1643.2,580.82",
		width=0.75];
	326 -- 327	[pos="1555.1,405.12 1573.5,441.71 1616.3,527.19 1634.6,563.75"];
	330	[height=0.5,
		pos="1488.6,782.15",
		width=0.75];
	329 -- 330	[pos="1505.7,541.35 1502.4,588.91 1493.3,716.42 1489.9,763.96"];
	333 -- 334	[pos="1287,733.25 1282.9,697.65 1273.8,619.05 1269.7,583.61"];
	336	[height=0.5,
		pos="696.06,1282.8",
		width=0.75];
	335 -- 336	[pos="886.13,1249.9 844.43,1257.2 764.11,1271.1 722.5,1278.3"];
	341	[height=0.5,
		pos="1648.2,1021.6",
		width=0.75];
	340 -- 341	[pos="1461.1,1055.8 1502,1048.3 1580.8,1033.9 1621.8,1026.4"];
	345	[height=0.5,
		pos="574.35,191.36",
		width=0.75];
	344 -- 345	[pos="766.82,362.1 727.77,327.47 629.63,240.4 590.66,205.83"];
	350	[height=0.5,
		pos="1171,1119.1",
		width=0.75];
	349 -- 350	[pos="1140.2,928.13 1146.6,967.79 1161.8,1061.6 1168.1,1101.1"];
	353	[height=0.5,
		pos="1611.8,426.69",
		width=0.75];
	352 -- 353	[pos="1608.8,642.43 1609.4,598.67 1610.9,488.65 1611.5,444.97"];
	357	[height=0.5,
		pos="1021.5,961.52",
		width=0.75];
	356 -- 357	[pos="1241.8,1000.9 1194.3,992.41 1095.1,974.67 1047.7,966.21"];
	360	[height=0.5,
		pos="1672,625.03",
		width=0.75];
	359 -- 360	[pos="1607.2,714.11 1621.6,694.28 1645.7,661.19 1660,641.41"];
	363 -- 364	[pos="1324.2,1099.8 1284.1,1122.7 1196.6,1172.5 1156.5,1195.3"];
	365 -- 366	[pos="843.47,384.17 824.52,407.73 789.15,451.72 770.06,475.47"];
	368	[height=0.5,
		pos="541.34,279.44",
		width=0.75];
	367 -- 368	[pos="685.35,290.13 653.31,287.75 600.32,283.82 568.33,281.45"];
	371	[height=0.5,
		pos="1022.1,62.143",
		width=0.75];
	370 -- 371	[pos="1052.5,130.63 1045.9,115.74 1036.4,94.384 1029.8,79.494"];
	375	[height=0.5,
		pos="1477.5,247.9",
		width=0.75];
	374 -- 375	[pos="1350.9,271.8 1379,266.5 1423.3,258.14 1451.4,252.84"];
	378 -- 379	[pos="1011.7,643.16 1011.2,689.13 1009.8,809.17 1009.3,855.17"];
	380 -- 381	[pos="727.85,529.98 748.36,514.6 781.43,489.81 801.95,474.42"];
	382 -- 383	[pos="1164,767.45 1207.8,765.53 1293.8,761.77 1337.6,759.86"];
	386 -- 387	[pos="514.98,887.29 540.34,922.26 599.6,1004 624.94,1038.9"];
	390	[height=0.5,
		pos="1427.3,1282.3",
		width=0.75];
	389 -- 390	[pos="1481.6,1006.4 1471.3,1058.9 1441.2,1211.6 1430.9,1264.2"];
	21 -- 22	[pos="387.71,805.9 419.07,779.33 485.94,722.68 517.42,696.01"];
	25	[height=0.5,
		pos="1176.2,1357.8",
		width=0.75];
	24 -- 25	[pos="1042.9,1417.5 1072.6,1404.2 1124.2,1381.1 1153.8,1367.9"];
	25 -- 26	[pos="1183.1,1340 1197.7,1301.9 1232,1212.7 1246.6,1174.9"];
	28 -- 29	[pos="238.79,1089.5 247.65,1055.4 266.97,980.99 275.87,946.72"];
	34 -- 35	[pos="367.14,1185.7 377.18,1168.5 392.66,1141.9 402.67,1124.7"];
	49 -- 50	[pos="1280.9,1220.5 1297,1178.7 1337.5,1073.4 1353.6,1031.7"];
	58	[height=0.5,
		pos="27,863.28",
		width=0.75];
	57 -- 58	[pos="149.94,703.6 124.14,737.11 65.245,813.6 39.469,847.08"];
	58 -- 59	[pos="53.922,865.97 91.462,869.72 159.14,876.49 196.67,880.25"];
	62	[height=0.5,
		pos="904.48,54.385",
		width=0.75];
	61 -- 62	[pos="863.79,37.418 869.49,39.795 875.6,42.343 881.31,44.724"];
	62 -- 63	[pos="906.55,72.557 906.91,75.77 907.29,79.114 907.66,82.323"];
	69	[height=0.5,
		pos="1636.9,854.13",
		width=0.75];
	68 -- 69	[pos="1546.7,749.94 1566.5,772.91 1603.4,815.48 1623.3,838.46"];
	69 -- 70	[pos="1613,862.86 1578,875.65 1513.2,899.35 1478.2,912.14"];
	73	[height=0.5,
		pos="1682,713.79",
		width=0.75];
	72 -- 73	[pos="1582.5,602.82 1604.2,627.1 1646.1,673.8 1667.9,698.15"];
	73 -- 74	[pos="1666.2,728.52 1656.1,737.94 1643,750.14 1632.9,759.62"];
	77 -- 78	[pos="331.28,438.7 367.27,467.39 449.41,532.88 485.37,561.55"];
	80 -- 81	[pos="941.49,182.72 952.1,217.85 975.73,296.13 986.4,331.45"];
	91	[height=0.5,
		pos="1201.7,106.5",
		width=0.75];
	90 -- 91	[pos="1279.7,216.23 1262.5,192.03 1230.6,147.2 1213.4,123"];
	91 -- 92	[pos="1190.2,122.99 1162.9,162.29 1094.3,261.08 1067.1,300.3"];
	95	[height=0.5,
		pos="1674,385.93",
		width=0.75];
	94 -- 95	[pos="1643.7,518.9 1650.3,489.86 1663.3,432.82 1669.9,403.8"];
	95 -- 96	[pos="1653.7,373.82 1638.6,364.78 1618,352.48 1602.9,343.45"];
	99	[height=0.5,
		pos="1489.4,1240",
		width=0.75];
	98 -- 99	[pos="1527.8,1162.3 1519.4,1179.4 1506.5,1205.5 1498,1222.7"];
	99 -- 100	[pos="1463.4,1234.8 1445.6,1231.3 1422.1,1226.6 1404.3,1223"];
	102 -- 103	[pos="1479.5,580.86 1447.2,579.63 1393.3,577.59 1360.9,576.36"];
	108	[height=0.5,
		pos="1802.9,851.88",
		width=0.75];
	107 -- 108	[pos="1761,867.91 1767,865.61 1773.5,863.14 1779.5,860.84"];
	108 -- 109	[pos="1776.3,848.14 1730.8,841.74 1638.8,828.77 1593.4,822.38"];
	111 -- 112	[pos="999.6,1382 978.9,1382.3 950.56,1382.8 929.87,1383.1"];
	119	[height=0.5,
		pos="100.38,694.72",
		width=0.75];
	118 -- 119	[pos="51.187,744.74 61.386,734.37 74.885,720.64 85.161,710.19"];
	119 -- 120	[pos="124.9,686.71 146.66,679.61 178.28,669.28 200.03,662.19"];
	123	[height=0.5,
		pos="97.429,1024.2",
		width=0.75];
	122 -- 123	[pos="49.113,958.52 59.601,972.78 74.81,993.46 85.352,1007.8"];
	123 -- 124	[pos="122.92,1030.7 151.12,1038 196.28,1049.5 224.41,1056.7"];
	127	[height=0.5,
		pos="330.53,341.39",
		width=0.75];
	126 -- 127	[pos="226.01,496.62 248.05,463.89 297.16,390.95 319.31,358.06"];
	127 -- 128	[pos="357.62,343.79 383.37,346.07 421.88,349.49 447.59,351.76"];
	130 -- 131	[pos="926.8,319.16 988.27,307.96 1141.8,280 1203.2,268.8"];
	133 -- 134	[pos="511.44,1150.7 554.45,1152.8 638.06,1156.9 681.14,1159"];
	136 -- 137	[pos="806.76,1147.5 866.41,1124.3 1023.2,1063.3 1082.8,1040.2"];
	141 -- 142	[pos="203.67,819.28 246.01,808.66 330.08,787.59 372.31,777"];
	147	[height=0.5,
		pos="902.77,1333.6",
		width=0.75];
	146 -- 147	[pos="656.26,1316.2 708.74,1319.9 823.25,1327.9 875.63,1331.6"];
	147 -- 148	[pos="918.03,1318.2 963.58,1272.2 1098.3,1136.3 1143.7,1090.4"];
	151	[height=0.5,
		pos="422.38,1251.8",
		width=0.75];
	150 -- 151	[pos="300.24,1195 327.29,1207.6 372.7,1228.7 399.88,1241.3"];
	151 -- 152	[pos="449.38,1253.4 470.6,1254.7 500.04,1256.4 521.26,1257.7"];
	156	[height=0.5,
		pos="421.05,1161.8",
		width=0.75];
	155 -- 156	[pos="524.92,1295.6 502.65,1266.9 456.22,1207.1 433.76,1178.2"];
	156 -- 157	[pos="421.32,1143.8 421.9,1104.6 423.28,1012 423.87,972.77"];
	160 -- 161	[pos="1367,623.5 1330.1,587.5 1237.4,497.01 1200.6,461.08"];
	164	[height=0.5,
		pos="1734,658.95",
		width=0.75];
	163 -- 164	[pos="1706.8,774.78 1712.8,749.22 1723.7,702.78 1729.7,677.14"];
	164 -- 165	[pos="1720.1,643.46 1686,605.29 1597.9,506.97 1563.6,468.6"];
	168	[height=0.5,
		pos="1144.9,1402.4",
		width=0.75];
	167 -- 168	[pos="1102.3,1446.1 1110.8,1437.4 1121.5,1426.5 1130,1417.7"];
	168 -- 169	[pos="1152.7,1384.7 1159.6,1368.9 1169.8,1345.9 1176.7,1330.2"];
	174	[height=0.5,
		pos="1551.2,1191.1",
		width=0.75];
	173 -- 174	[pos="1482.6,1309.5 1497.6,1283.6 1526.2,1234.2 1541.3,1208.2"];
	174 -- 175	[pos="1553,1173.2 1555.4,1149.5 1559.5,1108 1561.9,1084.1"];
	181	[height=0.5,
		pos="322.9,1133.6",
		width=0.75];
	180 -- 181	[pos="453.33,1195.3 424.4,1181.6 374.07,1157.8 345.12,1144.1"];
	181 -- 182	[pos="329.07,1116 343.73,1074.2 380.54,969.31 395.28,927.3"];
	190 -- 191	[pos="728.34,1376.9 689.81,1340.7 591.63,1248.4 553.33,1212.4"];
	195	[height=0.5,
		pos="801.44,1244.5",
		width=0.75];
	194 -- 195	[pos="899.27,1412 878.74,1376.9 831.88,1296.6 811.37,1261.4"];
	195 -- 196	[pos="804.19,1226.5 813.79,1163.7 845.86,954.13 855.53,890.94"];
	199	[height=0.5,
		pos="1796.2,692.35",
		width=0.75];
	198 -- 199	[pos="1813.4,781.59 1809.5,761.71 1803.5,730.09 1799.7,710.31"];
	199 -- 200	[pos="1779.8,677.67 1739.2,641.38 1634.5,547.77 1594,511.58"];
	202 -- 203	[pos="1358.6,1359.7 1346.4,1342.6 1327.3,1315.8 1315,1298.6"];
	206	[height=0.5,
		pos="1675.2,917.88",
		width=0.75];
	205 -- 206	[pos="1710.9,1036.7 1703,1010.5 1688.4,961.96 1680.6,935.76"];
	206 -- 207	[pos="1653.2,907 1606,883.74 1495.7,829.4 1448.6,806.16"];
	213 -- 214	[pos="580.37,1111.3 573.67,1072.6 558.01,982.1 551.32,943.41"];
	220 -- 221	[pos="112.43,895.48 154.59,912.58 243.59,948.69 285.76,965.8"];
	223 -- 224	[pos="490.83,279.74 516.9,280.36 556.08,281.28 582.26,281.9"];
	227	[height=0.5,
		pos="389.46,244.32",
		width=0.75];
	226 -- 227	[pos="335.48,283.82 346.42,275.81 360.3,265.66 371.25,257.65"];
	227 -- 228	[pos="411.11,255.16 441.29,270.27 495.71,297.51 525.89,312.62"];
	230 -- 231	[pos="1186,222.31 1222.9,217.85 1289.5,209.8 1326.6,205.31"];
	240	[height=0.5,
		pos="268.46,557.15",
		width=0.75];
	239 -- 240	[pos="224.75,562.7 230.35,561.99 236.25,561.24 241.85,560.53"];
	240 -- 241	[pos="286.81,570.6 296.99,578.07 309.62,587.33 319.83,594.82"];
	244	[height=0.5,
		pos="1497.3,1052.2",
		width=0.75];
	243 -- 244	[pos="1247.9,1061 1300.8,1059.1 1417.3,1055 1470.2,1053.1"];
	244 -- 245	[pos="1497.6,1034.1 1498,1000.4 1498.9,928.45 1499.3,894.84"];
	251 -- 252	[pos="1023,429.53 1074.5,407.19 1199.1,353.13 1250.8,330.74"];
	255	[height=0.5,
		pos="285.69,698.31",
		width=0.75];
	254 -- 255	[pos="75.798,806.09 120.07,783.36 220.04,732.02 264.12,709.39"];
	255 -- 256	[pos="311.66,692.36 362.61,680.7 475.1,654.94 525.82,643.33"];
	258 -- 259	[pos="861.23,1345 921.65,1310.4 1097.6,1209.7 1158.2,1175"];
	261 -- 262	[pos="397.33,546.29 437.25,518.22 530.49,452.65 570.37,424.61"];
	271	[height=0.5,
		pos="763.75,115.93",
		width=0.75];
	270 -- 271	[pos="762.79,36.854 763,54.267 763.32,80.308 763.53,97.693"];
	271 -- 272	[pos="776.32,131.95 786.04,144.33 799.44,161.39 809.15,173.76"];
	275	[height=0.5,
		pos="1437.9,102.58",
		width=0.75];
	274 -- 275	[pos="1340.2,108.92 1361.1,107.56 1390,105.69 1410.9,104.33"];
	275 -- 276	[pos="1446.3,120.09 1453.1,134.19 1462.6,153.91 1469.3,167.94"];
	280 -- 281	[pos="1448.1,451.84 1460.3,491.22 1489.5,585.42 1501.7,624.76"];
	285 -- 286	[pos="527.46,253.47 519.96,284.78 504.63,348.8 497.12,380.16"];
	289	[height=0.5,
		pos="1122.2,181.5",
		width=0.75];
	288 -- 289	[pos="1083,35.809 1091.5,67.26 1109,132.28 1117.4,163.72"];
	289 -- 290	[pos="1121.4,199.51 1120.6,217.73 1119.4,245.75 1118.6,264.03"];
	300	[height=0.5,
		pos="785.64,71.875",
		width=0.75];
	299 -- 300	[pos="700.8,114.28 719.21,105.08 745.42,91.98 763.82,82.781"];
	300 -- 301	[pos="802.69,86.103 818.36,99.169 841.45,118.43 857.1,131.48"];
	305 -- 306	[pos="405.71,361.23 400.34,388.69 390.13,440.97 384.73,468.56"];
	309	[height=0.5,
		pos="755.44,160",
		width=0.75];
	308 -- 309	[pos="663.44,173.43 682.98,170.58 709.39,166.72 728.91,163.87"];
	309 -- 310	[pos="762.55,177.45 773.31,203.81 793.59,253.51 804.41,280.04"];
	318 -- 319	[pos="1333.1,165.83 1310.4,173.08 1276.9,183.82 1254.1,191.1"];
	321 -- 322	[pos="1337.1,379.33 1287.7,410.44 1160.4,490.69 1111.2,521.71"];
	327 -- 328	[pos="1628.9,596.43 1610.5,616.42 1579,650.88 1560.6,670.9"];
	330 -- 331	[pos="1469.6,795.41 1430.4,822.79 1341,885.28 1301.9,912.63"];
	336 -- 337	[pos="698.98,1264.8 707.05,1215 729.58,1075.9 737.66,1026.1"];
	341 -- 342	[pos="1638.1,1004.7 1621.8,977.29 1589.8,923.42 1573.5,896"];
	346	[height=0.5,
		pos="468,234.07",
		width=0.75];
	345 -- 346	[pos="551.01,200.73 533.28,207.85 509,217.6 491.29,224.72"];
	346 -- 347	[pos="461.95,251.72 451.26,282.89 429.15,347.33 418.47,378.48"];
	350 -- 351	[pos="1154.2,1133.5 1122.3,1160.6 1053.5,1219.2 1021.5,1246.4"];
	354	[height=0.5,
		pos="1511.5,299.09",
		width=0.75];
	353 -- 354	[pos="1599.1,410.52 1579.8,385.98 1543.3,339.58 1524.1,315.11"];
	354 -- 355	[pos="1484.8,302.72 1452.7,307.08 1399.1,314.36 1367.1,318.72"];
	357 -- 358	[pos="999.53,950.85 956.47,929.96 861.52,883.9 818.39,862.97"];
	361	[height=0.5,
		pos="1487.5,478.87",
		width=0.75];
	360 -- 361	[pos="1654.3,611.02 1619,583.08 1540.4,520.74 1505.1,492.84"];
	361 -- 362	[pos="1460.4,478.85 1441.9,478.84 1417.6,478.83 1399.1,478.82"];
	368 -- 369	[pos="533.86,296.91 520.41,328.31 492.3,393.96 478.89,425.28"];
	372	[height=0.5,
		pos="998.18,179.4",
		width=0.75];
	371 -- 372	[pos="1018.4,80.207 1013.9,102.31 1006.3,139.49 1001.8,161.51"];
	372 -- 373	[pos="1006.2,196.94 1013.7,213.62 1025.1,238.56 1032.6,255.21"];
	376	[height=0.5,
		pos="1513,343.9",
		width=0.75];
	375 -- 376	[pos="1484.1,265.51 1490.5,282.83 1500.2,309.12 1506.6,326.4"];
	376 -- 377	[pos="1506.4,361.52 1493.4,396 1464.7,472.03 1451.7,506.57"];
	390 -- 391	[pos="1400.5,1279.4 1344.5,1273.5 1216,1259.9 1160.2,1254"];
}
