graph {
	graph [bb="0,0,418.55,418.11",
		outputorder=edgesfirst,
		overlap=prism,
		size="50,50!",
		start=626
	];
	node [label="\N"];
	1	[height=0.5,
		pos="177.54,147.88",
		width=0.75];
	2	[height=0.5,
		pos="236.6,274.13",
		width=0.75];
	1 -- 2	[pos="185.63,165.17 196.88,189.22 217.12,232.5 228.42,256.65"];
	5	[height=0.5,
		pos="149.89,306.34",
		width=0.75];
	1 -- 5	[pos="174.37,166.06 169.04,196.63 158.33,257.95 153.02,288.37"];
	3	[height=0.5,
		pos="248.44,207.1",
		width=0.75];
	1 -- 3	[pos="194.71,162.22 205.85,171.53 220.32,183.61 231.44,192.9"];
	4	[height=0.5,
		pos="97.538,262.33",
		width=0.75];
	1 -- 4	[pos="166.08,164.28 150.87,186.04 124.18,224.22 108.98,245.96"];
	8	[height=0.5,
		pos="93.247,18",
		width=0.75];
	1 -- 8	[pos="166.7,131.17 150.51,106.23 120.22,59.552 104.05,34.65"];
	2 -- 5	[pos="212.9,282.93 200.67,287.48 185.78,293.01 173.55,297.55"];
	2 -- 4	[pos="209.78,271.86 185.32,269.78 149.33,266.73 124.74,264.64"];
	7	[height=0.5,
		pos="391.55,266.47",
		width=0.75];
	2 -- 7	[pos="263.59,272.8 291.94,271.4 336.27,269.2 364.61,267.8"];
	6	[height=0.5,
		pos="27,400.11",
		width=0.75];
	5 -- 6	[pos="132.02,319.97 108.72,337.75 68.2,368.67 44.89,386.46"];
	3 -- 5	[pos="233.47,222.17 214.95,240.82 183.59,272.4 165,291.12"];
	3 -- 4	[pos="224.53,215.85 196.27,226.19 149.54,243.3 121.34,253.62"];
	3 -- 7	[pos="271.44,216.64 298.14,227.72 341.93,245.89 368.61,256.96"];
	4 -- 6	[pos="88.747,279.5 75.23,305.9 49.485,356.19 35.902,382.72"];
	0	[height=0.5,
		pos="113.36,171.39",
		width=0.75];
	0 -- 2	[pos="130.23,185.46 153.7,205.03 195.96,240.25 219.53,259.9"];
	0 -- 5	[pos="118.21,189.31 125.19,215.12 138.02,262.49 145.02,288.34"];
	0 -- 3	[pos="138.77,178.11 162.92,184.49 199.03,194.04 223.15,200.41"];
	0 -- 4	[pos="110.23,189.36 107.46,205.3 103.43,228.47 100.66,244.4"];
	0 -- 8	[pos="110.97,153.19 107.1,123.67 99.498,65.681 95.63,36.175"];
}
