graph {
	graph [bb="0,0,2268.3,1620",
		outputorder=edgesfirst,
		overlap=prism,
		size="50,50!",
		start=209
	];
	node [label="\N"];
	0	[height=0.5,
		pos="730.93,74.167",
		width=0.75];
	1	[height=0.5,
		pos="565.32,92.828",
		width=0.75];
	0 -- 1	[pos="703.95,77.207 673.07,80.687 622.78,86.354 592.01,89.821"];
	100	[height=0.5,
		pos="945.73,188.38",
		width=0.75];
	0 -- 100	[pos="752.31,85.536 793.49,107.43 883.33,155.2 924.43,177.06"];
	2	[height=0.5,
		pos="710.65,191.23",
		width=0.75];
	1 -- 2	[pos="584.32,105.69 612.17,124.55 663.79,159.5 691.64,178.36"];
	292	[height=0.5,
		pos="549.05,338.27",
		width=0.75];
	1 -- 292	[pos="564.12,110.88 561.11,156.27 553.26,274.78 550.25,320.19"];
	104	[height=0.5,
		pos="771.75,147.19",
		width=0.75];
	100 -- 104	[pos="920.06,182.3 887.07,174.49 830.15,161.02 797.25,153.23"];
	101	[height=0.5,
		pos="1196.8,345.1",
		width=0.75];
	100 -- 101	[pos="965.85,200.94 1013,230.36 1130,303.44 1176.9,332.7"];
	3	[height=0.5,
		pos="466.85,279.44",
		width=0.75];
	2 -- 3	[pos="686.83,199.85 640.22,216.71 537.45,253.9 490.77,270.79"];
	213	[height=0.5,
		pos="1102.5,310.29",
		width=0.75];
	2 -- 213	[pos="735.45,198.77 806.02,220.21 1007.3,281.38 1077.8,302.78"];
	107	[height=0.5,
		pos="612.9,337.78",
		width=0.75];
	104 -- 107	[pos="758.48,163.11 728.51,199.08 655.85,286.24 626.02,322.04"];
	105	[height=0.5,
		pos="1098.6,132.36",
		width=0.75];
	104 -- 105	[pos="798.77,145.97 860.25,143.18 1010,136.38 1071.5,133.59"];
	4	[height=0.5,
		pos="220.96,401.18",
		width=0.75];
	3 -- 4	[pos="445.03,290.25 398.36,313.35 289.35,367.32 242.73,390.4"];
	189	[height=0.5,
		pos="653.31,100.28",
		width=0.75];
	3 -- 189	[pos="482.43,264.48 517.61,230.67 602.89,148.72 637.91,115.08"];
	110	[height=0.5,
		pos="371.28,396.63",
		width=0.75];
	107 -- 110	[pos="587.5,343.97 541.09,355.27 443.13,379.13 396.71,390.43"];
	108	[height=0.5,
		pos="644.73,570.37",
		width=0.75];
	107 -- 108	[pos="615.39,356.03 621.35,399.51 636.31,508.81 642.25,552.2"];
	5	[height=0.5,
		pos="137.3,651.04",
		width=0.75];
	4 -- 5	[pos="215.07,418.75 199.75,464.51 158.73,587.04 143.29,633.16"];
	414	[height=0.5,
		pos="231.07,449.81",
		width=0.75];
	4 -- 414	[pos="224.67,419.01 225.55,423.24 226.48,427.75 227.36,431.98"];
	113	[height=0.5,
		pos="381.52,528.69",
		width=0.75];
	110 -- 113	[pos="372.69,414.71 374.63,439.86 378.14,485.14 380.1,510.4"];
	111	[height=0.5,
		pos="318.54,536.39",
		width=0.75];
	110 -- 111	[pos="364.6,414.33 354.46,441.21 335.28,492.04 325.17,518.84"];
	6	[height=0.5,
		pos="144.01,600.22",
		width=0.75];
	5 -- 6	[pos="139.69,632.98 140.32,628.19 141,623.01 141.63,618.22"];
	335	[height=0.5,
		pos="274.81,981.87",
		width=0.75];
	5 -- 335	[pos="144.7,668.83 168.63,726.41 243.8,907.27 267.55,964.4"];
	116	[height=0.5,
		pos="361.55,654.93",
		width=0.75];
	113 -- 116	[pos="378.66,546.78 374.86,570.78 368.2,612.89 364.4,636.88"];
	114	[height=0.5,
		pos="686.93,475.37",
		width=0.75];
	113 -- 114	[pos="407.82,524.1 465.55,514.02 602.81,490.05 660.58,479.97"];
	7	[height=0.5,
		pos="43.735,662.65",
		width=0.75];
	6 -- 7	[pos="124.2,612.55 106.62,623.5 81.071,639.4 63.504,650.34"];
	6 -- 111	[pos="167.91,591.48 201.24,579.29 261.32,557.32 294.65,545.13"];
	118	[height=0.5,
		pos="468.71,749.85",
		width=0.75];
	116 -- 118	[pos="377.82,669.35 397.97,687.19 432.07,717.4 452.28,735.3"];
	117	[height=0.5,
		pos="437.64,702.31",
		width=0.75];
	116 -- 117	[pos="381.54,667.38 392.72,674.34 406.62,682.99 417.78,689.94"];
	8	[height=0.5,
		pos="27,801.59",
		width=0.75];
	7 -- 8	[pos="41.547,680.81 38.34,707.44 32.396,756.79 29.188,783.42"];
	417	[height=0.5,
		pos="87.351,714.51",
		width=0.75];
	7 -- 417	[pos="57.058,678.49 62.469,684.93 68.706,692.34 74.109,698.77"];
	122	[height=0.5,
		pos="518.04,992.08",
		width=0.75];
	118 -- 122	[pos="472.42,768.06 481.58,813.06 505.22,929.12 514.36,974"];
	119	[height=0.5,
		pos="520.64,570.15",
		width=0.75];
	118 -- 119	[pos="473.88,731.97 483.83,697.52 505.56,622.35 515.49,587.96"];
	9	[height=0.5,
		pos="127.49,892.92",
		width=0.75];
	8 -- 9	[pos="43.146,816.26 61.898,833.31 92.65,861.25 111.39,878.28"];
	418	[height=0.5,
		pos="65.279,849.32",
		width=0.75];
	8 -- 418	[pos="39.746,817.49 43.835,822.58 48.364,828.23 52.458,833.34"];
	124	[height=0.5,
		pos="774.54,1147.3",
		width=0.75];
	122 -- 124	[pos="538.17,1004.3 586.11,1033.3 706.65,1106.2 754.5,1135.2"];
	123	[height=0.5,
		pos="599.26,993.32",
		width=0.75];
	122 -- 123	[pos="545.08,992.5 553.76,992.63 563.37,992.77 572.05,992.91"];
	10	[height=0.5,
		pos="127.35,835.16",
		width=0.75];
	9 -- 10	[pos="127.45,874.64 127.43,867.9 127.41,860.26 127.4,853.51"];
	324	[height=0.5,
		pos="209.35,981.89",
		width=0.75];
	9 -- 324	[pos="141.75,908.42 156.68,924.65 180,950 194.98,966.27"];
	128	[height=0.5,
		pos="753.73,1344",
		width=0.75];
	124 -- 128	[pos="772.62,1165.5 768.65,1203 759.6,1288.5 755.64,1325.9"];
	125	[height=0.5,
		pos="1065.7,1075.4",
		width=0.75];
	124 -- 125	[pos="799.87,1141.1 854.93,1127.5 985.02,1095.3 1040.2,1081.7"];
	11	[height=0.5,
		pos="248.35,738.87",
		width=0.75];
	10 -- 11	[pos="144.95,821.16 167.89,802.9 207.78,771.15 230.73,752.89"];
	156	[height=0.5,
		pos="189.63,860.06",
		width=0.75];
	10 -- 156	[pos="150.55,844.43 155.66,846.48 161.09,848.64 166.22,850.69"];
	130	[height=0.5,
		pos="736.71,1432.5",
		width=0.75];
	128 -- 130	[pos="750.28,1361.9 747.33,1377.3 743.1,1399.3 740.15,1414.6"];
	129	[height=0.5,
		pos="707.22,1388",
		width=0.75];
	128 -- 129	[pos="737.98,1358.9 733.13,1363.5 727.8,1368.6 722.95,1373.1"];
	12	[height=0.5,
		pos="432.43,606.64",
		width=0.75];
	11 -- 12	[pos="267.01,725.46 302.38,700.05 378.79,645.17 413.99,619.89"];
	302	[height=0.5,
		pos="251.73,882.32",
		width=0.75];
	11 -- 302	[pos="248.77,757.03 249.42,784.63 250.65,836.79 251.3,864.3"];
	132	[height=0.5,
		pos="882.73,1450.8",
		width=0.75];
	130 -- 132	[pos="763.49,1435.9 789.84,1439.2 829.83,1444.2 856.12,1447.5"];
	131	[height=0.5,
		pos="758.76,1479.2",
		width=0.75];
	130 -- 131	[pos="744.92,1449.9 746.78,1453.9 748.76,1458 750.62,1462"];
	13	[height=0.5,
		pos="552.18,729.79",
		width=0.75];
	12 -- 13	[pos="447.36,621.99 470.43,645.72 514.49,691.03 537.45,714.64"];
	185	[height=0.5,
		pos="746.56,431.33",
		width=0.75];
	12 -- 185	[pos="453.53,594.87 510.76,562.93 668.44,474.93 725.55,443.06"];
	135	[height=0.5,
		pos="1029.6,1498.8",
		width=0.75];
	132 -- 135	[pos="906.99,1458.8 934.21,1467.7 978.11,1482 1005.3,1490.9"];
	133	[height=0.5,
		pos="830.98,1405.9",
		width=0.75];
	132 -- 133	[pos="866.07,1436.4 860.16,1431.3 853.51,1425.5 847.61,1420.4"];
	14	[height=0.5,
		pos="808.61,784.27",
		width=0.75];
	13 -- 14	[pos="578.18,735.31 627.33,745.76 733.34,768.28 782.55,778.73"];
	144	[height=0.5,
		pos="606.39,905.28",
		width=0.75];
	13 -- 144	[pos="557.68,747.58 568.07,781.22 590.48,853.77 600.88,887.44"];
	138	[height=0.5,
		pos="836.06,1349.8",
		width=0.75];
	135 -- 138	[pos="1011.8,1485.1 974.9,1456.7 890.72,1391.9 853.88,1363.5"];
	136	[height=0.5,
		pos="1153.3,1458.1",
		width=0.75];
	135 -- 136	[pos="1054.1,1490.8 1075.8,1483.6 1107.3,1473.3 1129,1466.1"];
	15	[height=0.5,
		pos="525.77,863.79",
		width=0.75];
	14 -- 15	[pos="783.51,791.33 729.84,806.42 604.44,841.67 550.81,856.75"];
	222	[height=0.5,
		pos="1063.3,836.63",
		width=0.75];
	14 -- 222	[pos="834.44,789.58 883.26,799.61 988.56,821.26 1037.4,831.31"];
	140	[height=0.5,
		pos="692.65,1101.8",
		width=0.75];
	138 -- 140	[pos="826.2,1332.8 799.94,1287.4 728.51,1163.8 702.39,1118.7"];
	139	[height=0.5,
		pos="891.33,1305.8",
		width=0.75];
	138 -- 139	[pos="853.55,1335.9 860,1330.7 867.31,1324.9 873.77,1319.8"];
	16	[height=0.5,
		pos="707.14,838.25",
		width=0.75];
	15 -- 16	[pos="552.53,860.02 586.92,855.18 646.26,846.82 680.56,841.99"];
	305	[height=0.5,
		pos="338.6,977.13",
		width=0.75];
	15 -- 305	[pos="505.74,875.92 469.8,897.68 394.8,943.1 358.77,964.91"];
	143	[height=0.5,
		pos="494.92,1080.1",
		width=0.75];
	140 -- 143	[pos="665.98,1098.9 628.25,1094.8 559.65,1087.2 521.8,1083.1"];
	141	[height=0.5,
		pos="769.15,829.64",
		width=0.75];
	140 -- 141	[pos="697.67,1084 711.53,1034.6 750.23,896.96 764.11,847.57"];
	17	[height=0.5,
		pos="735.82,742.99",
		width=0.75];
	16 -- 17	[pos="712.53,820.34 717.66,803.3 725.33,777.84 730.45,760.83"];
	145	[height=0.5,
		pos="893.25,827.87",
		width=0.75];
	16 -- 145	[pos="734.2,836.74 769.49,834.77 830.85,831.35 866.16,829.38"];
	149	[height=0.5,
		pos="362.04,1021.2",
		width=0.75];
	143 -- 149	[pos="472.38,1070.1 447.94,1059.3 409.17,1042.1 384.69,1031.2"];
	143 -- 144	[pos="505.61,1063.3 526.91,1029.9 574.45,955.37 595.73,921.99"];
	18	[height=0.5,
		pos="1001.2,930.41",
		width=0.75];
	17 -- 18	[pos="754.48,756.17 803.21,790.58 933.87,882.85 982.58,917.24"];
	17 -- 108	[pos="726.75,725.81 709.29,692.72 671.19,620.52 653.76,587.48"];
	152	[height=0.5,
		pos="323.7,930.17",
		width=0.75];
	149 -- 152	[pos="354.64,1003.6 347.86,987.5 337.85,963.76 331.07,947.66"];
	150	[height=0.5,
		pos="560.88,1120.7",
		width=0.75];
	149 -- 150	[pos="383.69,1032 421.94,1051.1 501.02,1090.7 539.25,1109.8"];
	19	[height=0.5,
		pos="912.49,1077.1",
		width=0.75];
	18 -- 19	[pos="991.04,947.24 974.02,975.39 939.95,1031.7 922.82,1060"];
	232	[height=0.5,
		pos="1124.4,881.76",
		width=0.75];
	18 -- 232	[pos="1024.7,921.14 1046.6,912.49 1079.2,899.64 1101,890.99"];
	155	[height=0.5,
		pos="258.46,833.76",
		width=0.75];
	152 -- 155	[pos="312.33,913.38 300.36,895.68 281.61,867.98 269.69,850.36"];
	153	[height=0.5,
		pos="447.76,1013.4",
		width=0.75];
	152 -- 153	[pos="342.81,943 366.06,958.59 405.07,984.76 428.42,1000.4"];
	20	[height=0.5,
		pos="1019.4,986.04",
		width=0.75];
	19 -- 20	[pos="929.19,1062.9 949.16,1045.9 982.38,1017.6 1002.5,1000.5"];
	330	[height=0.5,
		pos="771.64,1257.7",
		width=0.75];
	19 -- 330	[pos="899.99,1093.1 873.26,1127.4 810.81,1207.5 784.11,1241.7"];
	158	[height=0.5,
		pos="178.48,542.91",
		width=0.75];
	155 -- 158	[pos="253.57,816 239.3,764.08 197.73,612.9 183.4,560.8"];
	155 -- 156	[pos="234.77,842.81 227.77,845.48 220.12,848.41 213.13,851.08"];
	21	[height=0.5,
		pos="1126.3,837.18",
		width=0.75];
	20 -- 21	[pos="1031.2,969.54 1051.8,940.93 1093.8,882.42 1114.4,853.75"];
	430	[height=0.5,
		pos="1107.6,944.3",
		width=0.75];
	20 -- 430	[pos="1041.6,975.51 1055,969.18 1072,961.16 1085.3,954.83"];
	161	[height=0.5,
		pos="296.42,343.19",
		width=0.75];
	158 -- 161	[pos="188.54,525.88 210.82,488.15 264.13,397.87 286.39,360.18"];
	159	[height=0.5,
		pos="369.01,584.04",
		width=0.75];
	158 -- 159	[pos="204.18,548.46 240.54,556.3 306.64,570.57 343.11,578.45"];
	22	[height=0.5,
		pos="1224.1,715.91",
		width=0.75];
	21 -- 22	[pos="1139.3,821.07 1158,797.88 1192.3,755.31 1211.1,732.08"];
	431	[height=0.5,
		pos="1138.8,779.83",
		width=0.75];
	21 -- 431	[pos="1130.2,819.35 1131.7,812.51 1133.4,804.7 1134.9,797.85"];
	164	[height=0.5,
		pos="404.8,305.82",
		width=0.75];
	161 -- 164	[pos="320.47,334.9 338.43,328.71 362.87,320.28 380.81,314.09"];
	162	[height=0.5,
		pos="591.21,137.75",
		width=0.75];
	161 -- 162	[pos="315.31,330.03 368.55,292.92 519.42,187.78 572.47,150.8"];
	23	[height=0.5,
		pos="1531.8,726.77",
		width=0.75];
	22 -- 23	[pos="1251.2,716.86 1309.4,718.92 1446,723.74 1504.5,725.81"];
	22 -- 101	[pos="1222.8,697.77 1218.1,634.81 1202.7,426.11 1198.1,363.2"];
	166	[height=0.5,
		pos="503.23,103.32",
		width=0.75];
	164 -- 166	[pos="413.19,288.56 431.79,250.3 476.28,158.76 494.86,120.55"];
	165	[height=0.5,
		pos="420.48,349.84",
		width=0.75];
	164 -- 165	[pos="411.09,323.47 412.11,326.34 413.17,329.31 414.19,332.18"];
	24	[height=0.5,
		pos="1681.9,455.5",
		width=0.75];
	23 -- 24	[pos="1541.2,709.8 1568.1,661.09 1645.5,521.17 1672.5,472.46"];
	358	[height=0.5,
		pos="1466.9,1010.6",
		width=0.75];
	23 -- 358	[pos="1527.6,744.96 1515.9,796.23 1482.7,941.5 1471.1,992.59"];
	168	[height=0.5,
		pos="529.15,147.36",
		width=0.75];
	166 -- 168	[pos="513.18,120.22 515.18,123.62 517.28,127.19 519.27,130.58"];
	167	[height=0.5,
		pos="495.64,191.4",
		width=0.75];
	166 -- 167	[pos="501.66,121.57 500.35,136.69 498.51,158.06 497.21,173.17"];
	25	[height=0.5,
		pos="1519.9,347.36",
		width=0.75];
	24 -- 25	[pos="1662.7,442.67 1631.5,421.86 1570.3,380.98 1539.1,360.18"];
	251	[height=0.5,
		pos="1902.5,364.44",
		width=0.75];
	24 -- 251	[pos="1705.1,445.93 1747.4,428.44 1836.9,391.52 1879.3,374.02"];
	170	[height=0.5,
		pos="454.21,235.44",
		width=0.75];
	168 -- 170	[pos="515.75,163.1 502.19,179.04 481.35,203.54 467.74,219.53"];
	169	[height=0.5,
		pos="594.91,242.22",
		width=0.75];
	168 -- 169	[pos="540.6,163.88 552.6,181.19 571.34,208.22 583.37,225.57"];
	26	[height=0.5,
		pos="1348.7,395.52",
		width=0.75];
	25 -- 26	[pos="1495,354.37 1462.6,363.5 1406.1,379.38 1373.6,388.51"];
	435	[height=0.5,
		pos="1449.2,291.06",
		width=0.75];
	25 -- 435	[pos="1502.5,333.45 1491.6,324.85 1477.8,313.85 1467,305.21"];
	172	[height=0.5,
		pos="748.98,489.14",
		width=0.75];
	170 -- 172	[pos="470.9,249.81 522.66,294.36 680.1,429.86 732.1,474.62"];
	171	[height=0.5,
		pos="532.87,249.69",
		width=0.75];
	170 -- 171	[pos="480.4,240.19 488.89,241.73 498.31,243.43 506.79,244.97"];
	27	[height=0.5,
		pos="1061.4,468.2",
		width=0.75];
	26 -- 27	[pos="1323.2,401.97 1268.7,415.76 1141.3,447.99 1086.9,461.76"];
	436	[height=0.5,
		pos="1320.8,304.62",
		width=0.75];
	26 -- 436	[pos="1343.2,377.56 1338.3,361.63 1331.2,338.47 1326.3,322.54"];
	175	[height=0.5,
		pos="889.7,413.62",
		width=0.75];
	172 -- 175	[pos="770.05,477.84 796.57,463.6 841.89,439.28 868.49,425"];
	173	[height=0.5,
		pos="935.56,738.79",
		width=0.75];
	172 -- 173	[pos="761.22,505.52 795.11,550.87 889.87,677.65 923.52,722.67"];
	28	[height=0.5,
		pos="962.2,235.88",
		width=0.75];
	27 -- 28	[pos="1054,450.74 1035.5,407.58 988,296.27 969.61,253.23"];
	342	[height=0.5,
		pos="1046.3,882.32",
		width=0.75];
	27 -- 342	[pos="1060.8,486.26 1058.3,554.45 1049.5,795.82 1047,864.17"];
	180	[height=0.5,
		pos="1020.2,279.89",
		width=0.75];
	175 -- 180	[pos="904.68,398.28 929.86,372.48 980.38,320.73 1005.4,295.05"];
	176	[height=0.5,
		pos="821.11,633.09",
		width=0.75];
	175 -- 176	[pos="884.09,431.58 871.19,472.84 839.58,573.99 826.71,615.19"];
	29	[height=0.5,
		pos="1127.7,87.823",
		width=0.75];
	28 -- 29	[pos="978.37,221.41 1009.9,193.18 1079.4,131.02 1111.2,102.57"];
	28 -- 162	[pos="936.99,229.21 869.31,211.31 684.17,162.34 616.45,144.43"];
	184	[height=0.5,
		pos="834.81,226.93",
		width=0.75];
	180 -- 184	[pos="995.24,272.75 959.75,262.61 895.15,244.16 859.72,234.04"];
	181	[height=0.5,
		pos="1133.2,260.33",
		width=0.75];
	180 -- 181	[pos="1046.4,275.35 1064.5,272.22 1088.6,268.05 1106.7,264.91"];
	30	[height=0.5,
		pos="1412.4,64.457",
		width=0.75];
	29 -- 30	[pos="1154.7,85.604 1209.2,81.138 1331.3,71.114 1385.5,66.661"];
	439	[height=0.5,
		pos="1065.3,88.355",
		width=0.75];
	29 -- 439	[pos="1100.5,88.055 1097.9,88.077 1095.2,88.1 1092.6,88.122"];
	188	[height=0.5,
		pos="925.98,126.88",
		width=0.75];
	184 -- 188	[pos="849.06,211.29 866.18,192.5 894.75,161.15 911.83,142.4"];
	184 -- 185	[pos="827.29,244.35 810.61,282.97 770.72,375.37 754.07,413.95"];
	31	[height=0.5,
		pos="1364,18",
		width=0.75];
	30 -- 31	[pos="1396.8,49.502 1391.3,44.197 1385.1,38.229 1379.5,32.927"];
	284	[height=0.5,
		pos="1424.3,158.98",
		width=0.75];
	30 -- 284	[pos="1414.7,82.682 1416.8,99.42 1419.9,124.09 1422,140.81"];
	191	[height=0.5,
		pos="1189.8,172.27",
		width=0.75];
	188 -- 191	[pos="952.23,131.39 1002.8,140.1 1113.1,159.08 1163.6,167.77"];
	188 -- 189	[pos="898.84,124.23 846.57,119.13 732.52,108 680.34,102.91"];
	32	[height=0.5,
		pos="1375.8,108.5",
		width=0.75];
	31 -- 32	[pos="1366.4,36.313 1368.4,52.117 1371.4,74.814 1373.5,90.519"];
	182	[height=0.5,
		pos="1189.8,114.3",
		width=0.75];
	31 -- 182	[pos="1342.9,29.616 1309.4,48.175 1244,84.301 1210.6,102.79"];
	194	[height=0.5,
		pos="1375.8,351.5",
		width=0.75];
	191 -- 194	[pos="1205.3,187.24 1240.4,221.06 1325.5,303.04 1360.4,336.7"];
	192	[height=0.5,
		pos="1387.1,307.48",
		width=0.75];
	191 -- 192	[pos="1208.7,185.23 1246.4,211.08 1330.6,268.74 1368.3,294.56"];
	33	[height=0.5,
		pos="1499.9,153.68",
		width=0.75];
	32 -- 33	[pos="1399.8,117.21 1421.7,125.21 1454.1,137 1476.1,144.99"];
	32 -- 105	[pos="1349,110.81 1296,115.37 1178.4,125.49 1125.4,130.05"];
	198	[height=0.5,
		pos="1289.8,260.6",
		width=0.75];
	194 -- 198	[pos="1361.2,336.08 1345.4,319.36 1320.3,292.84 1304.5,276.09"];
	195	[height=0.5,
		pos="1502.1,532.7",
		width=0.75];
	194 -- 195	[pos="1387.2,367.9 1411.2,402.31 1466.6,481.71 1490.6,516.2"];
	34	[height=0.5,
		pos="1610.7,342.75",
		width=0.75];
	33 -- 34	[pos="1509.7,170.46 1530.7,206.25 1579.6,289.74 1600.7,325.74"];
	383	[height=0.5,
		pos="1557.8,391.38",
		width=0.75];
	33 -- 383	[pos="1504.3,171.54 1515,215.6 1542.6,329.04 1553.4,373.31"];
	201	[height=0.5,
		pos="1424.3,396.96",
		width=0.75];
	198 -- 201	[pos="1304.8,275.71 1330.6,301.92 1383.5,355.52 1409.4,381.77"];
	199	[height=0.5,
		pos="1072.7,372.87",
		width=0.75];
	198 -- 199	[pos="1268.2,271.77 1226.6,293.29 1135.8,340.25 1094.2,361.74"];
	35	[height=0.5,
		pos="1634.3,579.26",
		width=0.75];
	34 -- 35	[pos="1612.5,360.92 1616.9,404.94 1628.1,516.95 1632.5,561.03"];
	444	[height=0.5,
		pos="1689.1,291.6",
		width=0.75];
	34 -- 444	[pos="1630.1,330.11 1642.2,322.24 1657.6,312.15 1669.7,304.28"];
	204	[height=0.5,
		pos="1569.2,466.17",
		width=0.75];
	201 -- 204	[pos="1446.3,407.47 1473.6,420.48 1519.6,442.5 1547,455.56"];
	202	[height=0.5,
		pos="1344.7,594.31",
		width=0.75];
	201 -- 202	[pos="1417.3,414.47 1402.2,451.92 1366.8,539.42 1351.7,576.83"];
	36	[height=0.5,
		pos="1789.9,822.48",
		width=0.75];
	35 -- 36	[pos="1645,595.98 1673.4,640.41 1750.6,761.08 1779.1,805.64"];
	177	[height=0.5,
		pos="1269.9,637.93",
		width=0.75];
	35 -- 177	[pos="1607.8,583.53 1540.5,594.36 1363.5,622.86 1296.3,633.68"];
	206	[height=0.5,
		pos="1679.8,507.59",
		width=0.75];
	204 -- 206	[pos="1592.9,475.06 1611.6,482.04 1637.4,491.74 1656.1,498.72"];
	205	[height=0.5,
		pos="1406.7,602.28",
		width=0.75];
	204 -- 205	[pos="1552.1,480.48 1520.8,506.69 1454.7,562.1 1423.6,588.16"];
	37	[height=0.5,
		pos="1885.8,975.43",
		width=0.75];
	36 -- 37	[pos="1800.4,839.14 1818.8,868.56 1857,929.38 1875.4,958.79"];
	207	[height=0.5,
		pos="1834.1,741.93",
		width=0.75];
	36 -- 207	[pos="1799.3,805.39 1806.8,791.73 1817.2,772.65 1824.7,758.99"];
	212	[height=0.5,
		pos="1437.5,440.99",
		width=0.75];
	206 -- 212	[pos="1654.8,500.72 1608.4,487.95 1509.3,460.74 1462.7,447.93"];
	206 -- 207	[pos="1690.9,524.45 1719.4,567.68 1794.7,682.16 1823.1,725.23"];
	38	[height=0.5,
		pos="1690.9,1288",
		width=0.75];
	37 -- 38	[pos="1875.4,992.23 1841.5,1046.5 1735.4,1216.7 1701.4,1271.1"];
	447	[height=0.5,
		pos="2001.1,825.42",
		width=0.75];
	37 -- 447	[pos="1898.2,959.37 1920.2,930.65 1966.2,870.78 1988.5,841.81"];
	215	[height=0.5,
		pos="1605.5,510.22",
		width=0.75];
	212 -- 215	[pos="1460.5,450.47 1492.6,463.69 1550.4,487.53 1582.5,500.75"];
	212 -- 213	[pos="1413.9,431.8 1352.4,407.8 1187.5,343.46 1126,319.47"];
	39	[height=0.5,
		pos="1526.6,1392.7",
		width=0.75];
	38 -- 39	[pos="1671.1,1300.6 1639.4,1320.8 1577.8,1360.1 1546.2,1380.2"];
	362	[height=0.5,
		pos="1694.7,1344.4",
		width=0.75];
	38 -- 362	[pos="1692.1,1306.1 1692.6,1312.6 1693.1,1319.8 1693.5,1326.3"];
	218	[height=0.5,
		pos="1593.8,711.38",
		width=0.75];
	215 -- 218	[pos="1604.5,528.43 1602.2,566.73 1597.1,655.23 1594.8,693.36"];
	216	[height=0.5,
		pos="1776.3,453.52",
		width=0.75];
	215 -- 216	[pos="1630,502.1 1662.5,491.32 1719.5,472.4 1751.9,461.63"];
	40	[height=0.5,
		pos="1343.7,1418.6",
		width=0.75];
	39 -- 40	[pos="1500,1396.5 1465.3,1401.4 1405,1409.9 1370.3,1414.8"];
	371	[height=0.5,
		pos="1381.5,1466.7",
		width=0.75];
	39 -- 371	[pos="1504.8,1403.8 1477.5,1417.7 1430.8,1441.5 1403.4,1455.5"];
	221	[height=0.5,
		pos="1322.6,762.04",
		width=0.75];
	218 -- 221	[pos="1567.8,716.24 1516.1,725.9 1400.9,747.41 1348.9,757.12"];
	219	[height=0.5,
		pos="1582.5,876.77",
		width=0.75];
	218 -- 219	[pos="1592.6,729.4 1590.4,761.21 1585.9,826.98 1583.8,858.78"];
	41	[height=0.5,
		pos="1469.9,1274.7",
		width=0.75];
	40 -- 41	[pos="1357.5,1402.9 1381.7,1375.2 1431.9,1318 1456.2,1290.4"];
	40 -- 136	[pos="1317.6,1424 1281.3,1431.5 1215.8,1445.1 1179.4,1452.7"];
	227	[height=0.5,
		pos="1397.2,761.81",
		width=0.75];
	221 -- 227	[pos="1349.9,761.95 1356.5,761.93 1363.5,761.91 1370.1,761.89"];
	221 -- 222	[pos="1297.7,769.19 1248.3,783.41 1138.2,815.1 1088.5,829.39"];
	42	[height=0.5,
		pos="1535.3,1184.6",
		width=0.75];
	41 -- 42	[pos="1481.9,1258.2 1493.7,1241.9 1511.6,1217.2 1523.3,1201"];
	451	[height=0.5,
		pos="1407.9,1272.9",
		width=0.75];
	41 -- 451	[pos="1442.9,1273.9 1440.3,1273.9 1437.6,1273.8 1435,1273.7"];
	231	[height=0.5,
		pos="1331,892",
		width=0.75];
	227 -- 231	[pos="1388.4,779.09 1375.7,804 1352.5,849.7 1339.8,874.64"];
	228	[height=0.5,
		pos="1440.1,558.25",
		width=0.75];
	227 -- 228	[pos="1401,743.74 1409.2,705.11 1428.2,614.87 1436.3,576.27"];
	43	[height=0.5,
		pos="1383.3,1098.7",
		width=0.75];
	42 -- 43	[pos="1514.4,1172.8 1485.5,1156.5 1433.4,1127 1404.3,1110.6"];
	208	[height=0.5,
		pos="1678.3,1023.8",
		width=0.75];
	42 -- 208	[pos="1549.2,1168.9 1576.6,1138.1 1637.2,1070 1664.5,1039.4"];
	236	[height=0.5,
		pos="1267.5,981.91",
		width=0.75];
	231 -- 236	[pos="1319.3,908.49 1307.9,924.71 1290.5,949.34 1279.1,965.52"];
	231 -- 232	[pos="1304,890.66 1264.4,888.7 1191,885.06 1151.4,883.1"];
	44	[height=0.5,
		pos="1632.8,979.54",
		width=0.75];
	43 -- 44	[pos="1405.4,1088.1 1452.8,1065.5 1563.4,1012.7 1610.7,990.09"];
	395	[height=0.5,
		pos="1237.8,934.84",
		width=0.75];
	43 -- 395	[pos="1369.3,1083 1341.6,1051.7 1279.8,982.13 1251.9,950.74"];
	242	[height=0.5,
		pos="1619.2,921.18",
		width=0.75];
	236 -- 242	[pos="1293.7,977.4 1358.8,966.15 1527.6,937 1592.9,925.73"];
	237	[height=0.5,
		pos="1086.5,988.34",
		width=0.75];
	236 -- 237	[pos="1240.4,982.87 1206.2,984.09 1147.6,986.17 1113.5,987.38"];
	45	[height=0.5,
		pos="1783.3,978.71",
		width=0.75];
	44 -- 45	[pos="1660,979.39 1687.3,979.24 1729,979.01 1756.2,978.86"];
	44 -- 219	[pos="1624.2,962.11 1615,943.1 1600.2,912.86 1590.9,893.95"];
	244	[height=0.5,
		pos="1852,794.18",
		width=0.75];
	242 -- 244	[pos="1640.3,909.69 1684.5,885.57 1786.5,829.91 1830.8,805.74"];
	243	[height=0.5,
		pos="1776.7,934.69",
		width=0.75];
	242 -- 243	[pos="1646.3,923.5 1675.2,925.98 1720.8,929.9 1749.7,932.37"];
	46	[height=0.5,
		pos="1727.9,837.32",
		width=0.75];
	45 -- 46	[pos="1776.4,961.09 1765.8,933.99 1745.5,882.39 1734.9,855.16"];
	346	[height=0.5,
		pos="1696.1,1155.9",
		width=0.75];
	45 -- 346	[pos="1774.8,996.02 1758.1,1030 1721.2,1105 1704.6,1138.8"];
	247	[height=0.5,
		pos="2027.3,706.05",
		width=0.75];
	244 -- 247	[pos="1873.8,783.19 1907.6,766.22 1972.1,733.79 2005.7,716.9"];
	245	[height=0.5,
		pos="1628.4,824.86",
		width=0.75];
	244 -- 245	[pos="1825.4,797.82 1782.4,803.72 1697.9,815.32 1654.9,821.22"];
	47	[height=0.5,
		pos="1834.9,601.6",
		width=0.75];
	46 -- 47	[pos="1735.7,819.99 1755.5,776.39 1807.2,662.58 1827.1,618.96"];
	238	[height=0.5,
		pos="1487.9,878.6",
		width=0.75];
	46 -- 238	[pos="1701.3,841.89 1655,849.85 1560.3,866.14 1514.2,874.06"];
	250	[height=0.5,
		pos="2110.6,491.91",
		width=0.75];
	247 -- 250	[pos="2034.1,688.53 2049.8,648.27 2088.2,549.58 2103.8,509.38"];
	248	[height=0.5,
		pos="2112.6,681.96",
		width=0.75];
	247 -- 248	[pos="2052.4,698.96 2063.5,695.82 2076.5,692.14 2087.6,689.01"];
	48	[height=0.5,
		pos="1828.9,386.93",
		width=0.75];
	47 -- 48	[pos="1834.4,583.3 1833.3,542.74 1830.6,445.7 1829.4,405.19"];
	384	[height=0.5,
		pos="1772.9,582.6",
		width=0.75];
	47 -- 384	[pos="1810.1,593.98 1806,592.74 1801.8,591.46 1797.8,590.22"];
	253	[height=0.5,
		pos="2220.3,530.63",
		width=0.75];
	250 -- 253	[pos="2134.7,500.41 2152.9,506.86 2178,515.7 2196.3,522.15"];
	250 -- 251	[pos="2090.6,479.69 2050.9,455.33 1962.1,400.96 1922.4,376.63"];
	49	[height=0.5,
		pos="1615.4,279.36",
		width=0.75];
	48 -- 49	[pos="1807.3,376.03 1766.3,355.41 1678.1,310.94 1637.1,290.3"];
	48 -- 216	[pos="1816.2,403.05 1807.9,413.52 1797.2,427.11 1789,437.55"];
	255	[height=0.5,
		pos="2044,560.6",
		width=0.75];
	253 -- 255	[pos="2193.9,535.12 2160.5,540.78 2103.5,550.48 2070.2,556.13"];
	254	[height=0.5,
		pos="2106,535.91",
		width=0.75];
	253 -- 254	[pos="2193.2,531.88 2175.1,532.72 2151.4,533.81 2133.3,534.65"];
	50	[height=0.5,
		pos="1830.7,272.72",
		width=0.75];
	49 -- 50	[pos="1642.6,278.52 1684.1,277.24 1762.4,274.83 1803.7,273.55"];
	49 -- 192	[pos="1588.7,282.64 1544.9,288.05 1457.9,298.76 1414,304.18"];
	258	[height=0.5,
		pos="2241.3,651.4",
		width=0.75];
	255 -- 258	[pos="2066.2,570.84 2104.1,588.28 2180.8,623.55 2218.8,641.06"];
	256	[height=0.5,
		pos="1772.9,627.66",
		width=0.75];
	255 -- 256	[pos="2018.5,566.91 1966.8,579.69 1850.3,608.51 1798.6,621.32"];
	51	[height=0.5,
		pos="1949.7,456.75",
		width=0.75];
	50 -- 51	[pos="1841.5,289.37 1864.1,324.32 1916.3,404.97 1938.9,440"];
	460	[height=0.5,
		pos="1903.4,318.18",
		width=0.75];
	50 -- 460	[pos="1850.6,285.14 1860.8,291.55 1873.3,299.36 1883.6,305.77"];
	260	[height=0.5,
		pos="2179.2,619.19",
		width=0.75];
	258 -- 260	[pos="2219.9,640.31 2213.7,637.11 2207,633.61 2200.8,630.4"];
	259	[height=0.5,
		pos="2198.7,709.57",
		width=0.75];
	258 -- 259	[pos="2229.4,667.6 2223.6,675.54 2216.6,685.07 2210.8,693.05"];
	52	[height=0.5,
		pos="1897,633.35",
		width=0.75];
	51 -- 52	[pos="1944.4,474.66 1934.3,508.59 1912.3,581.89 1902.2,615.66"];
	461	[height=0.5,
		pos="2027.5,434.98",
		width=0.75];
	51 -- 461	[pos="1974.8,449.75 1983.6,447.26 1993.6,444.46 2002.5,441.98"];
	263	[height=0.5,
		pos="2168.1,574.96",
		width=0.75];
	260 -- 263	[pos="2174.7,601.2 2174,598.42 2173.3,595.56 2172.6,592.79"];
	261	[height=0.5,
		pos="1981.9,586.43",
		width=0.75];
	260 -- 261	[pos="2153,614.84 2115.3,608.57 2046,597.07 2008.2,590.79"];
	53	[height=0.5,
		pos="1759.1,750.74",
		width=0.75];
	52 -- 53	[pos="1880.1,647.74 1853.6,670.27 1802.7,713.63 1776.1,736.23"];
	52 -- 248	[pos="1922.5,639.11 1963.9,648.44 2045.1,666.75 2086.7,676.12"];
	265	[height=0.5,
		pos="1940.2,500.79",
		width=0.75];
	263 -- 265	[pos="2143.7,567.02 2099.9,552.78 2008.6,523.06 1964.7,508.78"];
	264	[height=0.5,
		pos="2092,612.4",
		width=0.75];
	263 -- 264	[pos="2146.1,585.79 2136,590.76 2124.1,596.63 2114,601.6"];
	54	[height=0.5,
		pos="1362.3,936.01",
		width=0.75];
	53 -- 54	[pos="1736.9,761.1 1667.4,793.56 1454.2,893.09 1384.6,925.61"];
	463	[height=0.5,
		pos="1897,718.55",
		width=0.75];
	53 -- 463	[pos="1784.7,744.76 1809.3,739.02 1846.3,730.38 1871,724.61"];
	267	[height=0.5,
		pos="1743.9,499.52",
		width=0.75];
	265 -- 267	[pos="1912.9,500.61 1875.4,500.37 1808.3,499.93 1770.9,499.69"];
	266	[height=0.5,
		pos="1845.1,547.45",
		width=0.75];
	265 -- 266	[pos="1918.1,511.61 1902.8,519.15 1882.4,529.16 1867,536.69"];
	55	[height=0.5,
		pos="1491.8,778.89",
		width=0.75];
	54 -- 55	[pos="1375.5,920.08 1400.3,889.96 1453.8,825.01 1478.6,794.86"];
	54 -- 125	[pos="1340,946.49 1284.9,972.38 1142.8,1039.2 1087.8,1065"];
	271	[height=0.5,
		pos="1500.1,444.38",
		width=0.75];
	267 -- 271	[pos="1718.2,493.72 1671.4,483.13 1572.6,460.77 1525.7,450.18"];
	268	[height=0.5,
		pos="1509.5,605.45",
		width=0.75];
	267 -- 268	[pos="1721.4,509.67 1676.6,529.92 1576.7,575.1 1531.9,595.32"];
	56	[height=0.5,
		pos="1655.9,736.81",
		width=0.75];
	55 -- 56	[pos="1517.1,772.4 1547.9,764.5 1599.7,751.21 1630.6,743.3"];
	55 -- 195	[pos="1492.5,760.78 1494.5,715.26 1499.5,596.38 1501.4,550.83"];
	274	[height=0.5,
		pos="1569.9,223.2",
		width=0.75];
	271 -- 274	[pos="1505.7,426.65 1518.8,385.24 1551.2,282.51 1564.3,241.01"];
	272	[height=0.5,
		pos="1069.5,615.66",
		width=0.75];
	271 -- 272	[pos="1476.6,453.71 1401.5,483.59 1167.4,576.68 1092.7,606.43"];
	57	[height=0.5,
		pos="1881.7,862.83",
		width=0.75];
	56 -- 57	[pos="1676.8,748.44 1719.8,772.45 1817.9,827.25 1860.9,851.23"];
	102	[height=0.5,
		pos="1131.5,631.5",
		width=0.75];
	56 -- 102	[pos="1629.9,731.58 1540.5,713.64 1246.5,654.59 1157.3,636.69"];
	277	[height=0.5,
		pos="1742.2,191.49",
		width=0.75];
	274 -- 277	[pos="1596.1,218.38 1628.5,212.41 1683.6,202.27 1716,196.3"];
	275	[height=0.5,
		pos="1400.4,247.02",
		width=0.75];
	274 -- 275	[pos="1543.4,226.92 1511.7,231.38 1458.8,238.82 1427,243.28"];
	58	[height=0.5,
		pos="1943.8,869.91",
		width=0.75];
	57 -- 58	[pos="1908.4,865.88 1911.3,866.21 1914.2,866.54 1917.1,866.87"];
	467	[height=0.5,
		pos="1991.2,781.2",
		width=0.75];
	57 -- 467	[pos="1899.8,849.35 1920.1,834.23 1952.8,809.84 1973.1,794.7"];
	280	[height=0.5,
		pos="1598.8,95.043",
		width=0.75];
	277 -- 280	[pos="1723.1,178.68 1695.7,160.23 1645.4,126.38 1617.9,107.9"];
	278	[height=0.5,
		pos="1891,412.73",
		width=0.75];
	277 -- 278	[pos="1753.3,208.12 1781,249.22 1852.3,355.22 1879.9,396.21"];
	59	[height=0.5,
		pos="2026.6,893.26",
		width=0.75];
	58 -- 59	[pos="1969.1,877.04 1979.4,879.94 1991.2,883.28 2001.4,886.17"];
	468	[height=0.5,
		pos="2056.3,781.1",
		width=0.75];
	58 -- 468	[pos="1961.4,856.03 1982.5,839.35 2017.8,811.52 2038.8,794.88"];
	283	[height=0.5,
		pos="1404.6,203",
		width=0.75];
	280 -- 283	[pos="1578,106.6 1540.8,127.32 1462.9,170.58 1425.6,191.36"];
	281	[height=0.5,
		pos="1684,235.53",
		width=0.75];
	280 -- 281	[pos="1609.1,111.99 1625.4,138.99 1657.3,191.48 1673.7,218.52"];
	60	[height=0.5,
		pos="1997.1,1067.8",
		width=0.75];
	59 -- 60	[pos="2023.5,911.29 2017.9,944.83 2005.8,1016.4 2000.2,1049.9"];
	469	[height=0.5,
		pos="1967.8,958.44",
		width=0.75];
	59 -- 469	[pos="2012.6,908.71 2003.4,918.95 1991.3,932.34 1982.1,942.65"];
	288	[height=0.5,
		pos="998.96,116.33",
		width=0.75];
	283 -- 288	[pos="1378.7,197.44 1305.4,181.79 1097.7,137.43 1024.7,121.83"];
	283 -- 284	[pos="1412.4,185.6 1413.8,182.52 1415.2,179.32 1416.6,176.25"];
	61	[height=0.5,
		pos="2009.3,1204.1",
		width=0.75];
	60 -- 61	[pos="1998.8,1085.9 2001.1,1112 2005.3,1159.8 2007.6,1185.9"];
	470	[height=0.5,
		pos="1935.7,1112.4",
		width=0.75];
	60 -- 470	[pos="1978.7,1081.2 1971,1086.8 1961.9,1093.4 1954.2,1099"];
	291	[height=0.5,
		pos="648.55,181.79",
		width=0.75];
	288 -- 291	[pos="972.9,121.19 908.03,133.31 739.83,164.73 674.77,176.89"];
	289	[height=0.5,
		pos="863.79,146.57",
		width=0.75];
	288 -- 289	[pos="973.21,122.09 949.16,127.47 913.46,135.46 889.43,140.83"];
	62	[height=0.5,
		pos="1883.9,1204.9",
		width=0.75];
	61 -- 62	[pos="1982,1204.3 1961,1204.4 1932,1204.6 1911,1204.8"];
	471	[height=0.5,
		pos="1947.1,1175.2",
		width=0.75];
	61 -- 471	[pos="1986.8,1193.7 1981.1,1191 1975,1188.1 1969.3,1185.5"];
	294	[height=0.5,
		pos="420.97,484.67",
		width=0.75];
	291 -- 294	[pos="636.32,198.07 596.8,250.66 472.86,415.6 433.26,468.3"];
	291 -- 292	[pos="637.9,198.53 618.75,228.65 578.72,291.61 559.63,321.64"];
	63	[height=0.5,
		pos="1822.8,1137.1",
		width=0.75];
	62 -- 63	[pos="1869.7,1189.2 1859.8,1178.2 1846.7,1163.7 1836.9,1152.7"];
	363	[height=0.5,
		pos="1770.2,1354.8",
		width=0.75];
	62 -- 363	[pos="1871.5,1221.3 1849.6,1250.1 1804.4,1309.7 1782.6,1338.5"];
	299	[height=0.5,
		pos="290.55,644.57",
		width=0.75];
	294 -- 299	[pos="407.98,500.59 382.99,531.23 328.44,598.12 303.48,628.72"];
	295	[height=0.5,
		pos="496.12,621.92",
		width=0.75];
	294 -- 295	[pos="430.33,501.77 444.73,528.08 472.17,578.17 486.64,604.6"];
	64	[height=0.5,
		pos="1839.7,1022.7",
		width=0.75];
	63 -- 64	[pos="1825.4,1119 1828.6,1097.6 1833.9,1062.1 1837,1040.8"];
	347	[height=0.5,
		pos="1588.6,1246.8",
		width=0.75];
	63 -- 347	[pos="1800.3,1147.6 1755.6,1168.6 1655.7,1215.4 1611,1236.3"];
	301	[height=0.5,
		pos="385.73,896.97",
		width=0.75];
	299 -- 301	[pos="297.24,662.32 314.72,708.66 361.57,832.92 379.04,879.24"];
	300	[height=0.5,
		pos="335.4,711.78",
		width=0.75];
	299 -- 300	[pos="301.64,661.18 308.49,671.45 317.25,684.58 324.13,694.89"];
	65	[height=0.5,
		pos="1901.8,1052.4",
		width=0.75];
	64 -- 65	[pos="1861.8,1033.3 1867.6,1036.1 1873.9,1039.1 1879.8,1041.9"];
	239	[height=0.5,
		pos="1665.9,868.88",
		width=0.75];
	64 -- 239	[pos="1823.3,1008.2 1790.2,978.92 1715.5,912.81 1682.3,883.43"];
	304	[height=0.5,
		pos="219.93,1029.2",
		width=0.75];
	301 -- 304	[pos="368.3,910.88 336.45,936.28 269.23,989.91 237.37,1015.3"];
	301 -- 302	[pos="358.93,894.04 335.56,891.48 301.83,887.8 278.48,885.24"];
	66	[height=0.5,
		pos="1765.4,1199.5",
		width=0.75];
	65 -- 66	[pos="1887.4,1067.9 1861.3,1096 1806.2,1155.5 1779.9,1183.8"];
	350	[height=0.5,
		pos="1707.9,1067.9",
		width=0.75];
	65 -- 350	[pos="1874.8,1054.5 1837.9,1057.5 1771.9,1062.7 1735,1065.7"];
	307	[height=0.5,
		pos="379.18,1124.5",
		width=0.75];
	304 -- 307	[pos="240.1,1041.3 270.65,1059.6 328.32,1094.1 358.92,1112.4"];
	304 -- 305	[pos="242.53,1019.3 263.51,1010.1 294.59,996.45 315.68,987.19"];
	67	[height=0.5,
		pos="1638.6,1087.1",
		width=0.75];
	66 -- 67	[pos="1749,1185.1 1724.7,1163.5 1679.2,1123.1 1654.9,1101.5"];
	476	[height=0.5,
		pos="1710.7,1111.9",
		width=0.75];
	66 -- 476	[pos="1754.8,1182.6 1745.1,1167.1 1730.9,1144.2 1721.2,1128.7"];
	310	[height=0.5,
		pos="365.35,1216.6",
		width=0.75];
	307 -- 310	[pos="376.45,1142.7 374.02,1158.9 370.5,1182.3 368.08,1198.5"];
	308	[height=0.5,
		pos="614.11,1063",
		width=0.75];
	307 -- 308	[pos="404.32,1118 449.42,1106.1 543.57,1081.5 588.79,1069.7"];
	68	[height=0.5,
		pos="1492,966.61",
		width=0.75];
	67 -- 68	[pos="1621.5,1073.1 1593.4,1050 1537.7,1004.2 1509.4,980.95"];
	209	[height=0.5,
		pos="1437.5,1142.7",
		width=0.75];
	67 -- 209	[pos="1613.5,1094.1 1574.9,1104.7 1501.2,1125.1 1462.6,1135.7"];
	312	[height=0.5,
		pos="269.05,1271.4",
		width=0.75];
	310 -- 312	[pos="344.46,1228.5 328.3,1237.7 306.05,1250.3 289.9,1259.5"];
	311	[height=0.5,
		pos="382.39,1168.6",
		width=0.75];
	310 -- 311	[pos="371.6,1199 373.08,1194.8 374.66,1190.4 376.14,1186.2"];
	69	[height=0.5,
		pos="1190.8,884.28",
		width=0.75];
	68 -- 69	[pos="1466.8,959.73 1410.1,944.23 1272.9,906.73 1216.1,891.2"];
	68 -- 245	[pos="1506.6,951.44 1532.7,924.3 1587.1,867.72 1613.5,840.35"];
	314	[height=0.5,
		pos="332.51,1326.7",
		width=0.75];
	312 -- 314	[pos="285.72,1285.9 294.98,1294 306.46,1304 315.73,1312.1"];
	313	[height=0.5,
		pos="335.65,1267.7",
		width=0.75];
	312 -- 313	[pos="296.14,1269.9 300.17,1269.7 304.33,1269.4 308.37,1269.2"];
	70	[height=0.5,
		pos="920.83,886.03",
		width=0.75];
	69 -- 70	[pos="1163.7,884.46 1111.9,884.79 999.67,885.52 947.93,885.85"];
	196	[height=0.5,
		pos="1348.2,717.76",
		width=0.75];
	69 -- 196	[pos="1205.3,868.92 1235.3,837.19 1303.7,764.78 1333.7,733.09"];
	316	[height=0.5,
		pos="450.18,1290.5",
		width=0.75];
	314 -- 316	[pos="357.18,1319.1 377.26,1312.9 405.47,1304.2 425.54,1298.1"];
	315	[height=0.5,
		pos="394.58,1334.6",
		width=0.75];
	314 -- 315	[pos="359.19,1330.1 362.09,1330.5 365.03,1330.9 367.92,1331.2"];
	71	[height=0.5,
		pos="662.1,794.25",
		width=0.75];
	70 -- 71	[pos="896.95,877.56 847.79,860.12 735.73,820.37 686.29,802.83"];
	325	[height=0.5,
		pos="543.79,948.06",
		width=0.75];
	70 -- 325	[pos="894.31,890.39 825,901.79 639.02,932.39 570.03,943.74"];
	319	[height=0.5,
		pos="444.41,1206.3",
		width=0.75];
	316 -- 319	[pos="448.92,1272.2 447.96,1258.1 446.62,1238.7 445.66,1224.5"];
	317	[height=0.5,
		pos="640.52,1451.1",
		width=0.75];
	316 -- 317	[pos="467.07,1304.7 503.19,1335.2 587.58,1406.4 623.67,1436.8"];
	72	[height=0.5,
		pos="582.68,574.14",
		width=0.75];
	71 -- 72	[pos="655.73,776.61 640.86,735.4 603.98,633.16 589.08,591.86"];
	326	[height=0.5,
		pos="661.29,1012.2",
		width=0.75];
	71 -- 326	[pos="662.03,812.46 661.88,853.59 661.51,953.28 661.36,994.22"];
	323	[height=0.5,
		pos="271.57,1162.3",
		width=0.75];
	319 -- 323	[pos="418.9,1199.8 386.13,1191.5 329.58,1177.1 296.89,1168.8"];
	320	[height=0.5,
		pos="463.76,897.1",
		width=0.75];
	319 -- 320	[pos="445.56,1187.9 449,1132.9 459.18,970.29 462.61,915.42"];
	73	[height=0.5,
		pos="811.23,504.16",
		width=0.75];
	72 -- 73	[pos="607.58,566.52 651.54,553.06 742.43,525.23 786.37,511.78"];
	72 -- 159	[pos="555.62,575.39 514.63,577.29 437.25,580.88 396.19,582.78"];
	329	[height=0.5,
		pos="512.23,1254.1",
		width=0.75];
	323 -- 329	[pos="295.08,1171.3 341.09,1188.8 442.54,1227.5 488.62,1245.1"];
	323 -- 324	[pos="265.49,1144.7 253.59,1110.2 227.37,1034.1 215.45,999.59"];
	74	[height=0.5,
		pos="900.27,362.73",
		width=0.75];
	73 -- 74	[pos="821.8,487.38 838.93,460.16 872.6,406.69 889.72,379.49"];
	73 -- 199	[pos="833.07,493.2 882.41,468.42 1002,408.37 1051.1,383.71"];
	332	[height=0.5,
		pos="449.89,1155.1",
		width=0.75];
	329 -- 332	[pos="501.66,1237.3 490.19,1219.1 472,1190.2 460.51,1172"];
	329 -- 330	[pos="539.5,1254.4 589.32,1255.1 694.51,1256.6 744.35,1257.3"];
	75	[height=0.5,
		pos="1021,416.88",
		width=0.75];
	74 -- 75	[pos="922.7,372.79 944.25,382.45 976.65,396.98 998.3,406.69"];
	186	[height=0.5,
		pos="772.74,207.37",
		width=0.75];
	74 -- 186	[pos="887.11,346.69 862.67,316.92 810.55,253.44 786.02,223.56"];
	334	[height=0.5,
		pos="298.55,1025.9",
		width=0.75];
	332 -- 334	[pos="433.11,1140.8 404.02,1115.9 344.54,1065.2 315.4,1040.3"];
	333	[height=0.5,
		pos="506.44,1210",
		width=0.75];
	332 -- 333	[pos="465.34,1170.1 473.32,1177.9 483.03,1187.3 491.01,1195"];
	76	[height=0.5,
		pos="873.07,457.63",
		width=0.75];
	75 -- 76	[pos="995.92,423.79 968.71,431.29 925.54,443.18 898.29,450.68"];
	229	[height=0.5,
		pos="1162.1,675.52",
		width=0.75];
	75 -- 229	[pos="1030.3,433.85 1055.8,480.72 1127.2,611.55 1152.8,658.49"];
	337	[height=0.5,
		pos="568.44,1168",
		width=0.75];
	334 -- 337	[pos="320.18,1037.3 370.84,1064 496.69,1130.2 547.08,1156.7"];
	334 -- 335	[pos="289.3,1008.8 287.58,1005.6 285.79,1002.2 284.07,999.05"];
	77	[height=0.5,
		pos="995.54,369.63",
		width=0.75];
	76 -- 77	[pos="891.67,444.26 914.82,427.63 954.12,399.39 977.16,382.83"];
	120	[height=0.5,
		pos="843.45,579.19",
		width=0.75];
	76 -- 120	[pos="868.7,475.56 863.1,498.55 853.45,538.16 847.84,561.18"];
	339	[height=0.5,
		pos="876.21,1176.7",
		width=0.75];
	337 -- 339	[pos="595.49,1168.8 653.72,1170.4 790.43,1174.3 848.9,1175.9"];
	338	[height=0.5,
		pos="601.65,1221.7",
		width=0.75];
	337 -- 338	[pos="578.77,1184.7 582.73,1191.1 587.25,1198.4 591.22,1204.8"];
	78	[height=0.5,
		pos="1209.2,265",
		width=0.75];
	77 -- 78	[pos="1017.6,358.83 1058.7,338.72 1146.3,295.8 1187.3,275.75"];
	77 -- 114	[pos="971.32,377.93 913.63,397.69 768.61,447.38 711.03,467.11"];
	341	[height=0.5,
		pos="1149.3,1112.2",
		width=0.75];
	339 -- 341	[pos="901.91,1170.7 953.97,1158.4 1071.4,1130.6 1123.5,1118.3"];
	340	[height=0.5,
		pos="896.3,1249.3",
		width=0.75];
	339 -- 340	[pos="881.18,1194.7 884.29,1205.9 888.29,1220.4 891.39,1231.6"];
	79	[height=0.5,
		pos="1213.6,406.57",
		width=0.75];
	78 -- 79	[pos="1209.8,283.22 1210.6,310.4 1212.2,361.28 1213,388.42"];
	78 -- 275	[pos="1236.2,262.46 1272.7,259.04 1337.2,252.96 1373.6,249.54"];
	345	[height=0.5,
		pos="1349.5,1172.5",
		width=0.75];
	341 -- 345	[pos="1174.3,1119.7 1212.9,1131.4 1286.5,1153.5 1324.9,1165.1"];
	341 -- 342	[pos="1141.6,1094.9 1122.5,1052.3 1073.4,942.62 1054.2,899.8"];
	80	[height=0.5,
		pos="1007.4,589.72",
		width=0.75];
	79 -- 80	[pos="1197.1,421.25 1158.4,455.63 1062.2,541.03 1023.7,575.23"];
	489	[height=0.5,
		pos="1210.4,461.27",
		width=0.75];
	79 -- 489	[pos="1212.5,424.79 1212.2,430.63 1211.8,437.1 1211.4,442.95"];
	349	[height=0.5,
		pos="1650.7,1243.9",
		width=0.75];
	345 -- 349	[pos="1375.2,1178.6 1432.1,1192.1 1568.2,1224.4 1625,1237.9"];
	345 -- 346	[pos="1376.7,1171.2 1441.5,1168.1 1604.4,1160.3 1669.1,1157.2"];
	81	[height=0.5,
		pos="1013,772.41",
		width=0.75];
	80 -- 81	[pos="1008,607.91 1009.1,642.92 1011.4,719.34 1012.5,754.3"];
	490	[height=0.5,
		pos="1059.7,674.03",
		width=0.75];
	80 -- 490	[pos="1017.7,606.38 1026.8,621.06 1040,642.36 1049.2,657.12"];
	353	[height=0.5,
		pos="1628.6,1304.7",
		width=0.75];
	349 -- 353	[pos="1644.3,1261.5 1641.4,1269.5 1638,1278.9 1635.1,1286.9"];
	349 -- 350	[pos="1656.5,1226.1 1667.5,1192.3 1691.2,1119.2 1702.2,1085.5"];
	82	[height=0.5,
		pos="939.16,930.04",
		width=0.75];
	81 -- 82	[pos="1004.8,789.88 990.65,820.18 961.61,882.14 947.38,912.49"];
	178	[height=0.5,
		pos="972.61,545.7",
		width=0.75];
	81 -- 178	[pos="1009.8,754.24 1002.2,711.69 983.36,605.97 975.81,563.64"];
	355	[height=0.5,
		pos="1567.5,1348.7",
		width=0.75];
	353 -- 355	[pos="1610.3,1317.9 1602.7,1323.3 1593.9,1329.7 1586.2,1335.2"];
	354	[height=0.5,
		pos="1753,1287.6",
		width=0.75];
	353 -- 354	[pos="1655.3,1301 1676.3,1298.1 1705.4,1294.1 1726.3,1291.3"];
	83	[height=0.5,
		pos="785.37,1054.5",
		width=0.75];
	82 -- 83	[pos="921.82,944.08 892.28,967.97 832.54,1016.3 802.88,1040.3"];
	492	[height=0.5,
		pos="937.18,975.33",
		width=0.75];
	82 -- 492	[pos="938.36,948.2 938.23,951.15 938.1,954.21 937.97,957.17"];
	357	[height=0.5,
		pos="1479.2,1230.7",
		width=0.75];
	355 -- 357	[pos="1555.2,1332.3 1538.3,1309.7 1508.2,1269.4 1491.4,1247"];
	356	[height=0.5,
		pos="1464.5,1431.8",
		width=0.75];
	355 -- 356	[pos="1550,1362.8 1531,1378.2 1500.7,1402.6 1481.7,1417.9"];
	84	[height=0.5,
		pos="956.13,1161.6",
		width=0.75];
	83 -- 84	[pos="805.29,1067 838.2,1087.6 903.52,1128.6 936.34,1149.2"];
	83 -- 153	[pos="758.6,1051.2 695.43,1043.5 537.7,1024.3 474.53,1016.7"];
	361	[height=0.5,
		pos="1452,1336.9",
		width=0.75];
	357 -- 361	[pos="1474.6,1248.7 1469.6,1268.4 1461.6,1299.6 1456.6,1319.2"];
	357 -- 358	[pos="1478.2,1212.7 1475.9,1171.4 1470.3,1070.4 1468,1028.9"];
	85	[height=0.5,
		pos="1015.4,1319.9",
		width=0.75];
	84 -- 85	[pos="962.7,1179.1 974.09,1209.6 997.39,1271.8 1008.8,1302.3"];
	234	[height=0.5,
		pos="1142.7,1156.3",
		width=0.75];
	84 -- 234	[pos="983.25,1160.8 1018.6,1159.8 1080.1,1158 1115.5,1157"];
	365	[height=0.5,
		pos="1224,1391.2",
		width=0.75];
	361 -- 365	[pos="1426.3,1343.1 1382.4,1353.5 1293.5,1374.7 1249.7,1385.1"];
	361 -- 362	[pos="1479.4,1337.8 1526.1,1339.2 1620.8,1342.1 1667.5,1343.6"];
	86	[height=0.5,
		pos="958.36,1249.8",
		width=0.75];
	85 -- 86	[pos="1002.5,1304 993.12,1292.5 980.57,1277.1 971.25,1265.6"];
	374	[height=0.5,
		pos="1162,1391",
		width=0.75];
	85 -- 374	[pos="1037.3,1330.6 1065,1344 1112.2,1366.9 1139.9,1380.3"];
	368	[height=0.5,
		pos="1279.3,1479.2",
		width=0.75];
	365 -- 368	[pos="1234.7,1408.2 1244.5,1423.9 1259.1,1447 1268.8,1462.6"];
	366	[height=0.5,
		pos="1100,1348.2",
		width=0.75];
	365 -- 366	[pos="1199.8,1382.8 1178,1375.3 1146,1364.2 1124.1,1356.6"];
	87	[height=0.5,
		pos="1024.4,1031.3",
		width=0.75];
	86 -- 87	[pos="963.76,1231.9 976.18,1190.8 1006.6,1090.2 1019,1049.2"];
	86 -- 133	[pos="945.44,1265.6 921.03,1295.5 868.37,1360.1 843.93,1390.1"];
	370	[height=0.5,
		pos="1350.1,1361",
		width=0.75];
	368 -- 370	[pos="1289.4,1462.3 1302.9,1439.8 1326.5,1400.4 1340,1377.9"];
	369	[height=0.5,
		pos="1244.6,1523.3",
		width=0.75];
	368 -- 369	[pos="1266.6,1495.4 1263.5,1499.2 1260.3,1503.3 1257.3,1507.1"];
	88	[height=0.5,
		pos="1169.2,1215.6",
		width=0.75];
	87 -- 88	[pos="1037,1047.4 1064.4,1082.2 1129.1,1164.6 1156.6,1199.5"];
	87 -- 173	[pos="1019,1013.5 1003.1,961.25 956.95,809.19 941.03,756.78"];
	373	[height=0.5,
		pos="1306.7,1272.7",
		width=0.75];
	370 -- 373	[pos="1341.5,1343.5 1333.9,1328 1322.7,1305.3 1315.1,1289.8"];
	370 -- 371	[pos="1355.4,1378.9 1361.3,1398.5 1370.5,1429.6 1376.3,1449"];
	89	[height=0.5,
		pos="1045.6,1406.6",
		width=0.75];
	88 -- 89	[pos="1158.5,1232.2 1135.1,1268.4 1079.8,1353.7 1056.4,1389.9"];
	210	[height=0.5,
		pos="1273.4,1069.9",
		width=0.75];
	88 -- 210	[pos="1181,1199.2 1201,1171.2 1241.4,1114.6 1261.5,1086.5"];
	376	[height=0.5,
		pos="1259.1,1140.6",
		width=0.75];
	373 -- 376	[pos="1300.4,1255.2 1291.3,1229.9 1274.5,1183.5 1265.4,1158.2"];
	373 -- 374	[pos="1289.5,1286.7 1261.7,1309.5 1207,1354.2 1179.1,1377"];
	90	[height=0.5,
		pos="981.62,1577.6",
		width=0.75];
	89 -- 90	[pos="1039,1424.2 1026.7,1457.1 1000.4,1527.3 988.19,1560"];
	499	[height=0.5,
		pos="1091.1,1454.8",
		width=0.75];
	89 -- 499	[pos="1060,1421.8 1065.3,1427.5 1071.3,1433.8 1076.6,1439.5"];
	379	[height=0.5,
		pos="1424.4,894.36",
		width=0.75];
	376 -- 379	[pos="1270.2,1124.1 1300.3,1079.2 1383.2,955.61 1413.3,910.83"];
	377	[height=0.5,
		pos="1148.3,1059.8",
		width=0.75];
	376 -- 377	[pos="1240.8,1127.3 1220.2,1112.3 1187.1,1088.2 1166.6,1073.2"];
	91	[height=0.5,
		pos="766.71,1524.7",
		width=0.75];
	90 -- 91	[pos="956.12,1571.3 914.76,1561.2 833.51,1541.2 792.17,1531"];
	500	[height=0.5,
		pos="1046.2,1602",
		width=0.75];
	90 -- 500	[pos="1005.3,1586.5 1010.9,1588.7 1016.9,1590.9 1022.5,1593"];
	382	[height=0.5,
		pos="1443.5,646.31",
		width=0.75];
	379 -- 382	[pos="1425.8,876.12 1429.3,830.25 1438.5,710.48 1442.1,664.58"];
	380	[height=0.5,
		pos="1488.8,922.6",
		width=0.75];
	379 -- 380	[pos="1447.3,904.4 1453.3,907.06 1459.9,909.94 1466,912.6"];
	92	[height=0.5,
		pos="913.2,1549.7",
		width=0.75];
	91 -- 92	[pos="792.9,1529.2 819.4,1533.7 860.15,1540.6 886.74,1545.2"];
	91 -- 317	[pos="746.16,1512.7 722.69,1499 684.53,1476.8 661.07,1463.1"];
	386	[height=0.5,
		pos="1161.1,731.02",
		width=0.75];
	382 -- 386	[pos="1418.4,653.83 1364.9,669.91 1239.7,707.46 1186.1,723.52"];
	382 -- 383	[pos="1451.3,628.79 1472.3,582.11 1529.2,455.13 1550,408.69"];
	93	[height=0.5,
		pos="964.06,1406.6",
		width=0.75];
	92 -- 93	[pos="919.43,1532.1 929.2,1504.7 947.98,1451.8 957.78,1424.3"];
	502	[height=0.5,
		pos="890.77,1504.6",
		width=0.75];
	92 -- 502	[pos="904.59,1532.4 902.86,1528.9 901.05,1525.2 899.32,1521.8"];
	388	[height=0.5,
		pos="917.75,670.26",
		width=0.75];
	386 -- 388	[pos="1135.5,724.64 1088.8,712.97 990.12,688.33 943.36,676.65"];
	387	[height=0.5,
		pos="1410.2,690.36",
		width=0.75];
	386 -- 387	[pos="1187.8,726.67 1235.7,718.85 1335.9,702.49 1383.7,694.68"];
	94	[height=0.5,
		pos="953.36,1294.4",
		width=0.75];
	93 -- 94	[pos="962.34,1388.6 960.35,1367.6 957.07,1333.3 955.08,1312.4"];
	343	[height=0.5,
		pos="1027.5,1182",
		width=0.75];
	93 -- 343	[pos="969.14,1388.6 981.04,1346.4 1010.6,1241.7 1022.4,1199.7"];
	393	[height=0.5,
		pos="883.2,624.15",
		width=0.75];
	388 -- 393	[pos="905.67,654.13 902.32,649.67 898.69,644.82 895.34,640.35"];
	389	[height=0.5,
		pos="674.33,661.24",
		width=0.75];
	388 -- 389	[pos="890.77,669.26 843.98,667.53 748.31,663.98 701.43,662.24"];
	95	[height=0.5,
		pos="1154,1261.3",
		width=0.75];
	94 -- 95	[pos="979.59,1290.1 1018,1283.7 1089.3,1272 1127.8,1265.6"];
	126	[height=0.5,
		pos="810.65,1191.4",
		width=0.75];
	94 -- 126	[pos="935,1281.2 907.75,1261.5 856.87,1224.8 829.4,1204.9"];
	399	[height=0.5,
		pos="937.32,457.68",
		width=0.75];
	393 -- 399	[pos="889,606.34 899.41,574.3 921.18,507.32 931.57,475.37"];
	394	[height=0.5,
		pos="905.56,782.89",
		width=0.75];
	393 -- 394	[pos="885.77,642.36 890.08,672.98 898.73,734.42 903.03,764.89"];
	96	[height=0.5,
		pos="1080.6,1137.9",
		width=0.75];
	95 -- 96	[pos="1143.9,1244.4 1130,1220.9 1104.8,1178.6 1090.8,1155"];
	359	[height=0.5,
		pos="1306.5,1228.7",
		width=0.75];
	95 -- 359	[pos="1179.9,1255.8 1208,1249.8 1252.7,1240.2 1280.8,1234.2"];
	402	[height=0.5,
		pos="838.18,339.74",
		width=0.75];
	399 -- 402	[pos="923.95,441.78 905.03,419.27 870.63,378.35 851.65,355.77"];
	400	[height=0.5,
		pos="1175.5,586.91",
		width=0.75];
	399 -- 400	[pos="958.45,469.15 1003.6,493.67 1109.2,550.97 1154.4,575.46"];
	97	[height=0.5,
		pos="962.4,1030.4",
		width=0.75];
	96 -- 97	[pos="1064.2,1123 1041.6,1102.4 1001.2,1065.7 978.7,1045.2"];
	225	[height=0.5,
		pos="1148.5,1007.7",
		width=0.75];
	96 -- 225	[pos="1089.5,1120.9 1102.5,1095.9 1126.6,1049.7 1139.6,1024.7"];
	404	[height=0.5,
		pos="651.98,286.23",
		width=0.75];
	402 -- 404	[pos="813.06,332.52 777.43,322.28 712.57,303.64 676.99,293.42"];
	403	[height=0.5,
		pos="962.44,323.9",
		width=0.75];
	402 -- 403	[pos="864.83,336.34 885.8,333.67 914.87,329.96 935.83,327.29"];
	98	[height=0.5,
		pos="858.82,883.49",
		width=0.75];
	97 -- 98	[pos="950.72,1013.8 930.83,985.62 890.59,928.55 870.62,900.22"];
	507	[height=0.5,
		pos="900.37,1019.5",
		width=0.75];
	97 -- 507	[pos="936.09,1025.8 932.92,1025.2 929.69,1024.7 926.52,1024.1"];
	407	[height=0.5,
		pos="567.29,398.1",
		width=0.75];
	404 -- 407	[pos="639.48,302.74 623.38,324.01 595.56,360.76 579.57,381.89"];
	405	[height=0.5,
		pos="826.18,277.9",
		width=0.75];
	404 -- 405	[pos="679.2,284.93 711.93,283.36 766.51,280.75 799.16,279.19"];
	99	[height=0.5,
		pos="797.88,721.68",
		width=0.75];
	98 -- 99	[pos="852.18,865.87 840.46,834.74 816.22,770.39 804.51,739.28"];
	508	[height=0.5,
		pos="748.43,882.27",
		width=0.75];
	98 -- 508	[pos="831.82,883.19 814.71,883 792.67,882.76 775.54,882.57"];
	410	[height=0.5,
		pos="504.52,401.8",
		width=0.75];
	407 -- 410	[pos="540.31,399.69 537.38,399.86 534.41,400.04 531.48,400.21"];
	408	[height=0.5,
		pos="706.76,533.15",
		width=0.75];
	407 -- 408	[pos="582.75,413.07 609.56,439.03 664.37,492.11 691.23,518.12"];
	103	[height=0.5,
		pos="922.62,501.69",
		width=0.75];
	99 -- 103	[pos="807.46,704.78 830.68,663.83 889.76,559.65 913.01,518.64"];
	411	[height=0.5,
		pos="619.55,442.13",
		width=0.75];
	410 -- 411	[pos="528.63,410.25 548.26,417.14 575.84,426.81 595.47,433.69"];
	101 -- 102	[pos="1192.7,363.01 1181,414.45 1147.3,562.17 1135.6,613.59"];
	101 -- 181	[pos="1184.5,328.75 1173.2,313.74 1156.6,291.62 1145.4,276.62"];
	102 -- 103	[pos="1111.5,619.05 1071.5,594.24 982.46,538.88 942.59,514.1"];
	146	[height=0.5,
		pos="997.58,712.84",
		width=0.75];
	102 -- 146	[pos="1111.4,643.68 1086.2,659.01 1043.1,685.21 1017.8,700.58"];
	292 -- 295	[pos="545.66,356.44 536.1,407.68 509.01,552.85 499.49,603.9"];
	293	[height=0.5,
		pos="714.05,318.19",
		width=0.75];
	292 -- 293	[pos="575.93,335 606.71,331.25 656.81,325.15 687.46,321.42"];
	295 -- 320	[pos="494,639.98 488.14,689.84 471.76,829.04 465.89,878.98"];
	296	[height=0.5,
		pos="434.12,658.28",
		width=0.75];
	295 -- 296	[pos="475.82,633.83 469.04,637.8 461.48,642.24 454.68,646.22"];
	320 -- 389	[pos="477.57,881.62 515.73,838.89 622.25,719.58 660.46,676.77"];
	321	[height=0.5,
		pos="630.49,1157.1",
		width=0.75];
	320 -- 321	[pos="474.44,913.76 504.48,960.61 589.48,1093.1 619.68,1140.2"];
	389 -- 411	[pos="669.85,643.31 659.55,602.12 634.3,501.13 624.02,460"];
	390	[height=0.5,
		pos="852.12,677.21",
		width=0.75];
	389 -- 390	[pos="701.33,663.66 734.85,666.68 791.66,671.78 825.15,674.79"];
	106	[height=0.5,
		pos="920.15,279.89",
		width=0.75];
	103 -- 106	[pos="922.42,483.54 921.96,441.84 920.82,339.62 920.35,297.98"];
	412	[height=0.5,
		pos="776.13,343.24",
		width=0.75];
	411 -- 412	[pos="639.38,429.61 669.5,410.59 726.44,374.63 756.46,355.67"];
	105 -- 106	[pos="1081.5,146.51 1047.4,174.71 971.26,237.62 937.21,265.79"];
	442	[height=0.5,
		pos="1437.9,114.97",
		width=0.75];
	105 -- 442	[pos="1125.8,130.97 1189.3,127.71 1346.9,119.63 1410.6,116.37"];
	213 -- 412	[pos="1075.7,312.99 1014.6,319.17 864.75,334.29 803.2,340.51"];
	214	[height=0.5,
		pos="1268.5,549.9",
		width=0.75];
	213 -- 214	[pos="1113.9,326.76 1144.2,370.53 1226.6,489.41 1257,533.31"];
	109	[height=0.5,
		pos="632.23,395.78",
		width=0.75];
	106 -- 109	[pos="896.59,289.37 842.46,311.16 709.76,364.57 655.71,386.33"];
	413	[height=0.5,
		pos="484.98,357.78",
		width=0.75];
	412 -- 413	[pos="749,344.6 693.52,347.37 567.65,353.65 512.14,356.42"];
	108 -- 109	[pos="643.44,552.34 641.05,518.89 635.94,447.55 633.53,413.97"];
	108 -- 141	[pos="653.09,587.78 675.75,635.01 738.2,765.16 760.83,812.3"];
	189 -- 413	[pos="642.27,117.17 611.69,163.94 526.2,294.71 495.84,341.15"];
	190	[height=0.5,
		pos="948.1,72.29",
		width=0.75];
	189 -- 190	[pos="680.25,97.719 736.4,92.389 865.33,80.148 921.33,74.831"];
	112	[height=0.5,
		pos="417.74,440.66",
		width=0.75];
	109 -- 112	[pos="606.36,401.19 565.13,409.82 484.99,426.59 443.7,435.23"];
	413 -- 414	[pos="461.09,366.44 412.7,383.98 303.57,423.53 255.08,441.11"];
	111 -- 112	[pos="334.04,521.44 352.68,503.45 383.76,473.45 402.35,455.51"];
	111 -- 119	[pos="344.96,540.81 383.69,547.28 455.48,559.26 494.21,565.73"];
	115	[height=0.5,
		pos="443.56,550.8",
		width=0.75];
	112 -- 115	[pos="422,458.85 426.82,479.38 434.6,512.56 439.38,532.95"];
	415	[height=0.5,
		pos="186.31,695.08",
		width=0.75];
	414 -- 415	[pos="227.78,467.85 219.5,513.21 197.89,631.64 189.6,677.02"];
	335 -- 415	[pos="269.28,963.93 253.38,912.43 207.73,764.51 191.84,713.02"];
	336	[height=0.5,
		pos="317.12,1114",
		width=0.75];
	335 -- 336	[pos="280.52,999.69 288.59,1024.9 303.27,1070.7 311.37,1096"];
	114 -- 115	[pos="662.25,483.01 615.61,497.47 515,528.66 468.3,543.13"];
	147	[height=0.5,
		pos="736.4,677.63",
		width=0.75];
	114 -- 147	[pos="691.32,493.32 700.71,531.7 722.64,621.38 732.02,659.72"];
	115 -- 117	[pos="442.85,569.08 441.71,598.2 439.49,654.81 438.35,683.97"];
	416	[height=0.5,
		pos="221.06,651.04",
		width=0.75];
	415 -- 416	[pos="199.05,678.93 202.07,675.1 205.3,671.02 208.32,667.19"];
	119 -- 296	[pos="505.57,585.5 489.69,601.68 464.83,626.99 449.02,643.1"];
	119 -- 120	[pos="547.88,570.91 608.84,572.62 755.61,576.73 816.39,578.43"];
	296 -- 416	[pos="407.14,657.36 366.26,655.97 289.1,653.35 248.16,651.96"];
	297	[height=0.5,
		pos="732.86,603.99",
		width=0.75];
	296 -- 297	[pos="460.37,653.51 517.04,643.21 650.26,619 706.78,608.73"];
	121	[height=0.5,
		pos="636.21,706.2",
		width=0.75];
	117 -- 121	[pos="464.83,702.84 502.75,703.59 571.11,704.93 609.03,705.67"];
	416 -- 417	[pos="198.98,661.52 174.21,673.28 134.25,692.25 109.46,704.02"];
	120 -- 121	[pos="823.2,591.6 783.48,615.94 695.78,669.7 656.23,693.93"];
	120 -- 202	[pos="870.75,580.01 958.19,582.65 1230.6,590.87 1317.6,593.49"];
	121 -- 123	[pos="633.9,724.16 627.26,775.73 608.2,923.81 601.57,975.37"];
	417 -- 418	[pos="84.42,732.42 80.199,758.2 72.451,805.52 68.222,831.35"];
	127	[height=0.5,
		pos="677.37,1201.1",
		width=0.75];
	123 -- 127	[pos="605.92,1011 620.67,1050.3 655.98,1144.2 670.72,1183.5"];
	419	[height=0.5,
		pos="132.26,971.53",
		width=0.75];
	418 -- 419	[pos="74.592,866.32 87.317,889.53 110.01,930.94 122.81,954.29"];
	125 -- 126	[pos="1043.1,1085.7 994.66,1107.7 881.59,1159.1 833.23,1181.1"];
	233	[height=0.5,
		pos="1210.5,1025.9",
		width=0.75];
	125 -- 233	[pos="1089.9,1067.1 1116.7,1058 1159.5,1043.4 1186.2,1034.2"];
	324 -- 419	[pos="182.82,978.32 175.06,977.28 166.59,976.14 158.84,975.1"];
	324 -- 325	[pos="236.15,979.18 298.77,972.84 454.11,957.13 516.86,950.78"];
	126 -- 127	[pos="783.68,1193.4 760.56,1195.1 727.41,1197.5 704.3,1199.2"];
	126 -- 150	[pos="785.79,1184.4 738.04,1170.8 633.98,1141.4 586.02,1127.8"];
	127 -- 129	[pos="680.23,1219.1 685.92,1254.7 698.6,1334.1 704.32,1369.9"];
	420	[height=0.5,
		pos="189.52,926.91",
		width=0.75];
	419 -- 420	[pos="150.06,957.66 157.02,952.23 164.98,946.03 171.92,940.62"];
	156 -- 420	[pos="189.6,878.32 189.59,887.76 189.57,899.23 189.55,908.66"];
	157	[height=0.5,
		pos="301.04,782.89",
		width=0.75];
	156 -- 157	[pos="208.53,846.97 229.02,832.78 261.53,810.26 282.05,796.05"];
	129 -- 131	[pos="716.91,1405.2 726.13,1421.5 739.91,1445.9 749.11,1462.2"];
	421	[height=0.5,
		pos="363.09,808.88",
		width=0.75];
	420 -- 421	[pos="208.43,914.05 241.72,891.41 310.47,844.66 343.94,821.9"];
	302 -- 421	[pos="271.12,869.53 291.44,856.13 323.17,835.21 343.54,821.77"];
	303	[height=0.5,
		pos="261.66,937.85",
		width=0.75];
	302 -- 303	[pos="254.92,900.19 256.04,906.41 257.28,913.38 258.4,919.63"];
	134	[height=0.5,
		pos="952.83,1485.8",
		width=0.75];
	131 -- 134	[pos="785.75,1480.1 822.72,1481.4 888.75,1483.6 925.76,1484.9"];
	422	[height=0.5,
		pos="583.02,819.76",
		width=0.75];
	421 -- 422	[pos="390.06,810.22 432.27,812.3 513.49,816.32 555.83,818.41"];
	185 -- 390	[pos="754.15,449.02 773.63,494.38 825.19,614.5 844.59,659.69"];
	185 -- 186	[pos="748.66,413.38 753.56,371.45 765.72,267.43 770.63,225.41"];
	133 -- 134	[pos="850.29,1418.6 872.97,1433.4 910.39,1458 933.21,1472.9"];
	327	[height=0.5,
		pos="739.39,1213.6",
		width=0.75];
	133 -- 327	[pos="822.69,1388.5 805.25,1351.9 764.96,1267.3 747.6,1230.8"];
	390 -- 394	[pos="860.94,694.66 870.9,714.36 887.01,746.2 896.9,765.76"];
	391	[height=0.5,
		pos="1233,759.95",
		width=0.75];
	390 -- 391	[pos="878,682.83 947.49,697.92 1137.6,739.21 1207.1,754.32"];
	394 -- 422	[pos="878.89,785.94 818.22,792.88 670.43,809.77 609.72,816.71"];
	394 -- 395	[pos="927.88,793.1 988.25,820.71 1154.4,896.68 1215.1,924.48"];
	137	[height=0.5,
		pos="1014.9,1450.6",
		width=0.75];
	134 -- 137	[pos="973.49,1474.1 980.12,1470.3 987.46,1466.2 994.09,1462.4"];
	423	[height=0.5,
		pos="636.6,949.3",
		width=0.75];
	422 -- 423	[pos="590.25,837.23 600.48,861.95 619.06,906.9 629.32,931.69"];
	144 -- 423	[pos="617.64,921.67 620.12,925.29 622.75,929.12 625.24,932.75"];
	144 -- 145	[pos="631.6,898.48 686.01,883.79 813.94,849.27 868.21,834.63"];
	136 -- 137	[pos="1126.3,1456.6 1101.9,1455.3 1066.2,1453.4 1041.8,1452.1"];
	450	[height=0.5,
		pos="1286.2,1370.3",
		width=0.75];
	136 -- 450	[pos="1172.7,1445.3 1197.9,1428.7 1241.7,1399.7 1266.9,1383.1"];
	137 -- 139	[pos="1001.4,1434.8 977.65,1407 928.52,1349.4 904.77,1321.5"];
	424	[height=0.5,
		pos="838.33,1008.4",
		width=0.75];
	423 -- 424	[pos="661.34,956.55 700.05,967.9 774.55,989.73 813.39,1001.1"];
	222 -- 377	[pos="1070,854.14 1085.8,895.76 1125.6,1000.2 1141.5,1042.1"];
	223	[height=0.5,
		pos="1202.4,631.42",
		width=0.75];
	222 -- 223	[pos="1074.5,820.19 1100.5,781.76 1165.1,686.45 1191.2,647.94"];
	377 -- 424	[pos="1121.9,1055.4 1063.3,1045.7 923.19,1022.5 864.69,1012.8"];
	378	[height=0.5,
		pos="1273.8,1184.7",
		width=0.75];
	377 -- 378	[pos="1163.7,1075.1 1187.9,1099.2 1234.6,1145.7 1258.6,1169.6"];
	142	[height=0.5,
		pos="723.32,1042.7",
		width=0.75];
	139 -- 142	[pos="880.56,1288.9 850.22,1241.4 764.24,1106.7 734,1059.4"];
	425	[height=0.5,
		pos="537.07,1036.1",
		width=0.75];
	424 -- 425	[pos="811.33,1010.9 754.14,1016.2 621.35,1028.4 564.11,1033.6"];
	141 -- 142	[pos="765.24,847.81 756.58,888.05 735.87,984.35 727.22,1024.6"];
	141 -- 176	[pos="773.85,811.85 783.72,774.53 806.49,688.4 816.38,650.99"];
	305 -- 425	[pos="363.33,984.48 401.47,995.81 474.2,1017.4 512.33,1028.7"];
	306	[height=0.5,
		pos="154.62,1025.9",
		width=0.75];
	305 -- 306	[pos="313.4,983.81 278.27,993.13 214.94,1009.9 179.81,1019.2"];
	148	[height=0.5,
		pos="668.49,896.42",
		width=0.75];
	142 -- 148	[pos="716.71,1025 706.17,996.92 685.68,942.28 675.12,914.13"];
	426	[height=0.5,
		pos="479.81,946.15",
		width=0.75];
	425 -- 426	[pos="526.3,1019.2 516.06,1003.1 500.75,979.05 490.53,962.99"];
	145 -- 237	[pos="910.4,842.11 947.06,872.56 1032.7,943.71 1069.4,974.13"];
	145 -- 146	[pos="907.32,812.35 927.23,790.4 963.43,750.49 983.4,728.47"];
	237 -- 308	[pos="1060.1,992.52 977.29,1005.6 723.53,1045.7 640.62,1058.8"];
	237 -- 238	[pos="1111.6,981.48 1183.7,961.77 1390.7,905.16 1462.8,885.46"];
	146 -- 147	[pos="971.1,709.27 921.04,702.52 813.07,687.97 762.95,681.21"];
	146 -- 400	[pos="1016.3,699.6 1050.4,675.41 1122.6,624.35 1156.8,600.16"];
	308 -- 426	[pos="597.64,1048.7 571.87,1026.3 522.27,983.1 496.41,960.6"];
	309	[height=0.5,
		pos="357.24,1070",
		width=0.75];
	308 -- 309	[pos="587.11,1063.8 537.77,1065.1 433.62,1067.9 384.27,1069.2"];
	147 -- 148	[pos="730.85,695.54 718.08,736.67 686.77,837.51 674.03,878.58"];
	397	[height=0.5,
		pos="945.36,599.96",
		width=0.75];
	147 -- 397	[pos="760.37,668.72 800.68,653.74 881.55,623.68 921.67,608.77"];
	151	[height=0.5,
		pos="416.09,956.88",
		width=0.75];
	148 -- 151	[pos="642.9,902.55 594.52,914.14 490.18,939.13 441.75,950.73"];
	427	[height=0.5,
		pos="629.46,750.23",
		width=0.75];
	426 -- 427	[pos="492.31,929.78 520.55,892.81 588.99,803.21 617.1,766.41"];
	176 -- 408	[pos="804.73,618.78 783.11,599.89 745.27,566.81 723.48,547.77"];
	176 -- 177	[pos="848.17,633.39 928.14,634.25 1162.8,636.77 1242.8,637.63"];
	150 -- 151	[pos="547,1105 519.4,1073.7 457.89,1004.2 430.15,972.77"];
	150 -- 321	[pos="582.14,1131.8 590.62,1136.2 600.37,1141.3 608.88,1145.8"];
	408 -- 427	[pos="700.43,550.92 685.9,591.73 650.27,691.78 635.76,732.52"];
	409	[height=0.5,
		pos="615.99,514.55",
		width=0.75];
	408 -- 409	[pos="680.5,527.77 668.36,525.28 653.97,522.33 641.87,519.85"];
	154	[height=0.5,
		pos="402.05,852.93",
		width=0.75];
	151 -- 154	[pos="413.65,938.77 411.09,919.81 407.09,890.19 404.52,871.17"];
	428	[height=0.5,
		pos="831.21,839.45",
		width=0.75];
	427 -- 428	[pos="652.21,760.29 691.06,777.47 769.74,812.27 808.54,829.43"];
	232 -- 272	[pos="1120.7,863.89 1110.7,815.53 1083.3,682.48 1073.2,633.81"];
	232 -- 233	[pos="1134.5,898.59 1151,926.22 1183.7,980.92 1200.3,1008.8"];
	272 -- 297	[pos="1042.5,614.73 979.45,612.54 823.12,607.12 759.97,604.93"];
	273	[height=0.5,
		pos="1473.7,488.69",
		width=0.75];
	272 -- 273	[pos="1094.1,607.91 1166.4,585.22 1376.9,519.09 1449.1,496.42"];
	297 -- 428	[pos="740.26,621.68 758.53,665.43 805.64,778.25 823.86,821.87"];
	298	[height=0.5,
		pos="528.5,510.49",
		width=0.75];
	297 -- 298	[pos="710.21,593.62 670.83,575.6 590.18,538.71 550.94,520.76"];
	153 -- 154	[pos="442.69,995.61 433.91,964.76 415.94,901.69 407.14,870.79"];
	493	[height=0.5,
		pos="776.69,1098.6",
		width=0.75];
	153 -- 493	[pos="473.02,1019.9 534.25,1035.8 690.02,1076.2 751.34,1092.1"];
	154 -- 157	[pos="383.05,839.75 365,827.23 337.99,808.51 319.96,796.01"];
	429	[height=0.5,
		pos="979.26,1075.4",
		width=0.75];
	428 -- 429	[pos="841.85,856.42 869.17,899.95 941.5,1015.2 968.71,1058.6"];
	330 -- 366	[pos="796.86,1264.7 857.97,1281.5 1013.5,1324.4 1074.7,1341.3"];
	331	[height=0.5,
		pos="605.32,1269.2",
		width=0.75];
	330 -- 331	[pos="744.55,1259.6 713.62,1261.7 663.32,1265.2 632.4,1267.3"];
	366 -- 429	[pos="1092.2,1330.7 1070.4,1281.5 1008.7,1141.8 986.93,1092.7"];
	367	[height=0.5,
		pos="1215.6,1436.2",
		width=0.75];
	366 -- 367	[pos="1117.8,1361.8 1139.4,1378.3 1175.8,1405.9 1197.6,1422.5"];
	160	[height=0.5,
		pos="254.64,525.89",
		width=0.75];
	157 -- 160	[pos="297.78,764.82 289.26,717.64 266.42,591.11 257.9,543.95"];
	429 -- 430	[pos="994.23,1060.1 1019,1034.8 1068,984.69 1092.7,959.5"];
	159 -- 160	[pos="347.5,573.1 327.18,562.77 296.86,547.36 276.45,536.98"];
	482	[height=0.5,
		pos="568.56,618.15",
		width=0.75];
	159 -- 482	[pos="395.51,588.57 433.78,595.11 504.11,607.13 542.27,613.65"];
	163	[height=0.5,
		pos="358.46,352.62",
		width=0.75];
	160 -- 163	[pos="264.79,508.96 284.68,475.75 328.62,402.42 348.43,369.36"];
	430 -- 431	[pos="1111,926.39 1117,894.75 1129.4,829.34 1135.4,797.72"];
	162 -- 163	[pos="575.21,152.52 532.69,191.77 417.22,298.38 374.57,337.75"];
	438	[height=0.5,
		pos="896.88,232.59",
		width=0.75];
	162 -- 438	[pos="615.7,145.35 672.94,163.11 814.92,207.16 872.27,224.95"];
	163 -- 165	[pos="385.49,351.41 388.1,351.29 390.75,351.17 393.36,351.05"];
	432	[height=0.5,
		pos="1213.7,505.89",
		width=0.75];
	431 -- 432	[pos="1143.7,761.86 1157.3,712.22 1195.2,573.64 1208.7,523.93"];
	181 -- 432	[pos="1139,277.99 1153.8,323.18 1193,442.67 1207.8,488.06"];
	181 -- 182	[pos="1140,242.71 1150.9,214.64 1172,160.08 1182.9,131.98"];
	165 -- 167	[pos="428.67,332.58 443.13,302.1 473.01,239.1 487.46,208.64"];
	433	[height=0.5,
		pos="1539,667.26",
		width=0.75];
	432 -- 433	[pos="1235.5,516.73 1294.8,546.12 1458.1,627.13 1517.3,656.47"];
	358 -- 433	[pos="1470.7,992.65 1483.1,933.45 1522.7,745.01 1535.2,685.48"];
	358 -- 359	[pos="1454.9,1027 1425.1,1067.5 1348.2,1172 1318.5,1212.4"];
	167 -- 169	[pos="517.18,202.43 533.83,210.95 556.77,222.7 573.41,231.22"];
	434	[height=0.5,
		pos="1619.8,422.08",
		width=0.75];
	433 -- 434	[pos="1544.8,649.63 1559.7,604.5 1599,485.2 1614,439.88"];
	251 -- 281	[pos="1882,352.31 1840.2,327.68 1745.9,272.06 1704.3,247.53"];
	252	[height=0.5,
		pos="2110.5,447.88",
		width=0.75];
	251 -- 252	[pos="1926,373.85 1966,389.92 2047.1,422.46 2087.1,438.5"];
	281 -- 434	[pos="1677.9,253.08 1665.7,288.64 1638.1,368.81 1625.9,404.44"];
	282	[height=0.5,
		pos="1625.1,161.96",
		width=0.75];
	281 -- 282	[pos="1671.2,219.57 1661.3,207.23 1647.7,190.23 1637.8,177.89"];
	169 -- 171	[pos="568.24,245.43 565.35,245.78 562.41,246.14 559.52,246.48"];
	434 -- 435	[pos="1601.9,408.3 1569.1,383.14 1499.9,330.02 1467.1,304.85"];
	174	[height=0.5,
		pos="811.04,450.67",
		width=0.75];
	171 -- 174	[pos="551.55,263.19 602.23,299.8 741.86,400.68 792.44,437.23"];
	435 -- 436	[pos="1422.3,293.9 1400.4,296.22 1369.6,299.47 1347.7,301.78"];
	173 -- 174	[pos="927.96,721.2 905.68,669.64 840.7,519.29 818.54,468.03"];
	269	[height=0.5,
		pos="1250.4,803.95",
		width=0.75];
	173 -- 269	[pos="961.59,744.18 1020.8,756.43 1165.1,786.29 1224.3,798.56"];
	179	[height=0.5,
		pos="1024.7,325.61",
		width=0.75];
	174 -- 179	[pos="831.53,438.68 872.37,414.77 963.5,361.44 1004.3,337.57"];
	437	[height=0.5,
		pos="999.4,471.19",
		width=0.75];
	436 -- 437	[pos="1299.5,315.68 1241.1,345.9 1079.5,429.67 1020.9,460.02"];
	177 -- 178	[pos="1245.3,630.3 1189.4,612.95 1053.2,570.69 997.22,553.34"];
	177 -- 268	[pos="1296.4,634.33 1342.5,628.08 1436.7,615.32 1482.9,609.06"];
	342 -- 437	[pos="1044.3,864.12 1036.5,796.06 1009.2,556.89 1001.5,489.17"];
	342 -- 343	[pos="1045.2,900.61 1041.8,954.24 1032,1110.6 1028.6,1163.9"];
	178 -- 179	[pos="976.88,527.69 986.67,486.32 1010.7,384.88 1020.5,343.56"];
	224	[height=0.5,
		pos="1076.7,790.13",
		width=0.75];
	178 -- 224	[pos="980.1,563.28 999.31,608.38 1050.2,727.79 1069.3,772.71"];
	183	[height=0.5,
		pos="1036.5,163.34",
		width=0.75];
	179 -- 183	[pos="1026,307.63 1028.3,276.44 1032.9,212.66 1035.2,181.41"];
	437 -- 438	[pos="991.86,453.64 972.9,409.52 923.4,294.31 904.43,250.16"];
	182 -- 183	[pos="1165.1,122.18 1136.5,131.33 1089.6,146.34 1061.1,155.48"];
	441	[height=0.5,
		pos="1292.7,50.317",
		width=0.75];
	182 -- 441	[pos="1209.6,101.96 1227.8,90.633 1254.7,73.933 1272.9,62.615"];
	187	[height=0.5,
		pos="863.61,89.336",
		width=0.75];
	183 -- 187	[pos="1013.6,153.52 980.39,139.32 919.45,113.24 886.39,99.087"];
	438 -- 439	[pos="913.64,218.23 945.91,190.58 1016.3,130.25 1048.6,102.65"];
	186 -- 187	[pos="785.37,190.96 802.73,168.41 833.78,128.09 851.08,105.61"];
	186 -- 289	[pos="792.05,194.48 807.5,184.16 829.06,169.76 844.51,159.44"];
	187 -- 190	[pos="889.88,84.036 900.15,81.964 911.9,79.594 922.14,77.528"];
	440	[height=0.5,
		pos="1313.8,94.63",
		width=0.75];
	439 -- 440	[pos="1092.3,89.039 1140.1,90.246 1239,92.741 1286.8,93.948"];
	284 -- 440	[pos="1403.8,147.03 1384,135.47 1354.1,118.06 1334.2,106.52"];
	285	[height=0.5,
		pos="1696.4,551.64",
		width=0.75];
	284 -- 285	[pos="1435.7,175.35 1479.9,239.22 1640.7,471.21 1685,535.19"];
	193	[height=0.5,
		pos="1143.5,216.28",
		width=0.75];
	190 -- 193	[pos="966.49,85.836 1003.8,113.35 1088.1,175.48 1125.3,202.88"];
	440 -- 441	[pos="1305.6,77.37 1304.1,74.163 1302.5,70.811 1300.9,67.602"];
	192 -- 193	[pos="1363.3,298.57 1316.8,281.14 1214.1,242.69 1167.4,225.23"];
	192 -- 223	[pos="1377.5,324.44 1345.6,380.29 1244.2,558.07 1212.2,614.24"];
	197	[height=0.5,
		pos="1275.7,420.7",
		width=0.75];
	193 -- 197	[pos="1154.3,233.01 1179.2,271.44 1240.1,365.66 1264.9,404.03"];
	441 -- 442	[pos="1315.4,60.419 1342.7,72.565 1388.2,92.824 1415.4,104.94"];
	195 -- 196	[pos="1489,548.48 1460,583.35 1390.7,666.68 1361.5,701.76"];
	465	[height=0.5,
		pos="1710.9,624.12",
		width=0.75];
	195 -- 465	[pos="1524.9,542.66 1565,560.24 1648,596.6 1688.2,614.17"];
	196 -- 197	[pos="1343.7,699.62 1330.8,646.46 1292.9,491.45 1280,438.6"];
	240	[height=0.5,
		pos="1393,850.33",
		width=0.75];
	196 -- 240	[pos="1354.1,735.36 1362.7,760.72 1378.4,807.25 1387,832.65"];
	200	[height=0.5,
		pos="1258.8,309.01",
		width=0.75];
	197 -- 200	[pos="1272.9,402.76 1269.8,382.04 1264.7,348.14 1261.5,327.28"];
	443	[height=0.5,
		pos="1561.9,139.88",
		width=0.75];
	442 -- 443	[pos="1463.9,120.19 1485.1,124.44 1514.8,130.42 1535.9,134.67"];
	199 -- 200	[pos="1097,364.52 1132.8,352.25 1199.1,329.48 1234.7,317.26"];
	396	[height=0.5,
		pos="995.67,657.11",
		width=0.75];
	199 -- 396	[pos="1067.9,390.65 1054,441.69 1014.3,588.3 1000.5,639.34"];
	383 -- 443	[pos="1558.1,373.29 1558.9,327 1560.9,204.62 1561.6,158.14"];
	383 -- 384	[pos="1574.3,406.07 1614.5,441.75 1716.7,532.66 1756.6,568.12"];
	203	[height=0.5,
		pos="1327.4,493.97",
		width=0.75];
	200 -- 203	[pos="1265.4,326.75 1278.5,362.1 1307.7,440.98 1320.8,476.29"];
	443 -- 444	[pos="1575.3,155.83 1599.8,185.05 1651.6,246.81 1675.9,275.86"];
	202 -- 203	[pos="1341.6,576.37 1338.4,558.22 1333.6,530.31 1330.5,512.09"];
	202 -- 256	[pos="1371.8,596.42 1448.9,602.42 1668.9,619.56 1745.9,625.56"];
	203 -- 205	[pos="1339.4,510.42 1354.4,530.9 1379.9,565.65 1394.8,586.03"];
	445	[height=0.5,
		pos="1805.9,503.44",
		width=0.75];
	444 -- 445	[pos="1698.5,308.58 1720.4,348.24 1774.6,446.63 1796.5,486.38"];
	268 -- 445	[pos="1533.5,597.19 1589.1,578.07 1725.9,530.97 1781.7,511.78"];
	268 -- 269	[pos="1491.7,619.09 1444.4,655.36 1315.8,753.84 1268.3,790.21"];
	211	[height=0.5,
		pos="1368.9,806.16",
		width=0.75];
	205 -- 211	[pos="1403.4,620.37 1396.2,659.06 1379.4,749.46 1372.2,788.11"];
	446	[height=0.5,
		pos="1959,674.5",
		width=0.75];
	445 -- 446	[pos="1819.8,518.92 1848.8,551.32 1915.6,625.99 1944.8,658.68"];
	207 -- 208	[pos="1824.6,759.14 1796.7,809.59 1715.4,956.69 1687.7,1006.8"];
	207 -- 261	[pos="1848.8,726.45 1877.1,696.64 1938.9,631.6 1967.2,601.84"];
	208 -- 209	[pos="1656.5,1034.6 1610.8,1057.2 1505.3,1109.2 1459.4,1131.8"];
	452	[height=0.5,
		pos="1473.2,1186.7",
		width=0.75];
	208 -- 452	[pos="1660.8,1037.7 1622.1,1068.5 1529.4,1142.1 1490.7,1172.8"];
	261 -- 278	[pos="1972.8,569.14 1955.4,535.84 1917.4,463.19 1900,429.95"];
	262	[height=0.5,
		pos="2174.6,663.42",
		width=0.75];
	261 -- 262	[pos="2005.1,595.71 2042.2,610.51 2114.2,639.28 2151.3,654.1"];
	278 -- 446	[pos="1895.7,430.72 1908.1,478.66 1942,609.05 1954.4,656.73"];
	279	[height=0.5,
		pos="1752.1,253.59",
		width=0.75];
	278 -- 279	[pos="1877.2,396.89 1850.5,366.39 1792.5,299.82 1765.9,269.37"];
	209 -- 210	[pos="1414.7,1132.5 1383.3,1118.7 1327.3,1093.8 1296,1080"];
	477	[height=0.5,
		pos="1559.4,1073.2",
		width=0.75];
	209 -- 477	[pos="1458.2,1130.9 1480.6,1118.1 1516.2,1097.9 1538.7,1085.1"];
	210 -- 211	[pos="1279.8,1052.2 1297.2,1004.2 1345.1,871.76 1362.5,823.8"];
	498	[height=0.5,
		pos="1244.4,1265.6",
		width=0.75];
	210 -- 498	[pos="1270.7,1088 1265.2,1125.3 1252.6,1210.3 1247.1,1247.5"];
	211 -- 214	[pos="1362,788.55 1343.6,741.73 1293.8,614.59 1275.5,567.64"];
	446 -- 447	[pos="1964,692.41 1972.1,721.45 1988,778.51 1996.1,807.54"];
	217	[height=0.5,
		pos="1571.6,576.55",
		width=0.75];
	214 -- 217	[pos="1295.4,552.26 1352.9,557.32 1487.3,569.14 1544.7,574.19"];
	448	[height=0.5,
		pos="1786.5,1243.6",
		width=0.75];
	447 -- 448	[pos="1992.2,842.59 1957.5,910.36 1829.9,1158.9 1795.2,1226.5"];
	216 -- 217	[pos="1756,465.77 1716.7,489.35 1631,540.81 1591.9,564.35"];
	458	[height=0.5,
		pos="1876.7,503.43",
		width=0.75];
	216 -- 458	[pos="1798.1,464.35 1815,472.72 1838.2,484.26 1855,492.62"];
	362 -- 448	[pos="1709.1,1328.6 1726.3,1309.7 1755,1278.1 1772.2,1259.2"];
	362 -- 363	[pos="1721.6,1348.1 1728.8,1349.1 1736.6,1350.2 1743.7,1351.1"];
	220	[height=0.5,
		pos="1513.1,822.93",
		width=0.75];
	217 -- 220	[pos="1567.3,594.67 1556.4,640.34 1528.1,759.77 1517.3,805.12"];
	449	[height=0.5,
		pos="1588.7,1393.2",
		width=0.75];
	448 -- 449	[pos="1768.6,1257.1 1731,1285.5 1644.4,1351.1 1606.7,1379.6"];
	219 -- 220	[pos="1564.6,862.91 1554.4,854.93 1541.5,844.93 1531.2,836.93"];
	454	[height=0.5,
		pos="1586.8,1024.7",
		width=0.75];
	219 -- 454	[pos="1583.1,894.91 1583.9,923.31 1585.5,977.95 1586.3,1006.4"];
	371 -- 449	[pos="1405.7,1458.1 1445.6,1443.9 1524.9,1415.8 1564.7,1401.7"];
	372	[height=0.5,
		pos="1281.7,1435.2",
		width=0.75];
	371 -- 372	[pos="1357.1,1459 1341.6,1454.1 1321.7,1447.8 1306.2,1442.9"];
	226	[height=0.5,
		pos="1300.2,937.91",
		width=0.75];
	220 -- 226	[pos="1491.9,834.37 1451.1,856.41 1362,904.5 1321.3,926.51"];
	449 -- 450	[pos="1561.9,1391.2 1504.6,1386.8 1371,1376.7 1313.5,1372.3"];
	223 -- 224	[pos="1189.6,647.51 1165.6,677.93 1113.6,743.54 1089.5,774"];
	223 -- 228	[pos="1226.9,623.86 1272.5,609.84 1369.6,579.95 1415.3,565.87"];
	224 -- 225	[pos="1082.6,807.93 1096.1,848.82 1129.2,949.09 1142.6,989.92"];
	491	[height=0.5,
		pos="991.9,826.43",
		width=0.75];
	224 -- 491	[pos="1054,799.86 1041.8,805.06 1026.9,811.46 1014.7,816.67"];
	225 -- 226	[pos="1170.9,997.37 1199.6,984.18 1249,961.45 1277.7,948.24"];
	506	[height=0.5,
		pos="1018.2,1119.4",
		width=0.75];
	225 -- 506	[pos="1131.7,1022 1106.7,1043.5 1059.9,1083.7 1034.9,1105.1"];
	230	[height=0.5,
		pos="1278.2,847.96",
		width=0.75];
	226 -- 230	[pos="1295.9,920.13 1292,904.47 1286.5,881.75 1282.6,866"];
	450 -- 451	[pos="1303.7,1356.3 1326.8,1337.8 1367.4,1305.3 1390.5,1286.8"];
	228 -- 229	[pos="1416.9,568.05 1364.4,590.18 1237.3,643.81 1185,665.84"];
	459	[height=0.5,
		pos="1766.9,401.06",
		width=0.75];
	228 -- 459	[pos="1462,547.69 1521.4,519.12 1684.8,440.53 1744.6,411.78"];
	229 -- 230	[pos="1173.2,692.06 1195.4,725.02 1245,798.55 1267.1,831.47"];
	485	[height=0.5,
		pos="1151.6,542.73",
		width=0.75];
	229 -- 485	[pos="1160.6,657.34 1158.7,632.05 1155.1,586.52 1153.1,561.13"];
	235	[height=0.5,
		pos="1278.1,1025.9",
		width=0.75];
	230 -- 235	[pos="1278.2,866 1278.2,900.11 1278.1,973.69 1278.1,1007.8"];
	451 -- 452	[pos="1420.2,1256.7 1431.8,1241.3 1449.3,1218.2 1461,1202.8"];
	233 -- 234	[pos="1201.7,1043 1188.7,1067.9 1164.5,1114.2 1151.5,1139.2"];
	233 -- 380	[pos="1234.3,1017.1 1286.8,997.6 1412.6,950.89 1465.2,931.39"];
	234 -- 235	[pos="1158.2,1141.3 1184.2,1116.3 1236.2,1066.3 1262.3,1041.1"];
	494	[height=0.5,
		pos="962.73,1205.6",
		width=0.75];
	234 -- 494	[pos="1117.6,1163.1 1083.4,1172.5 1022.1,1189.3 987.82,1198.7"];
	241	[height=0.5,
		pos="1555.3,959.23",
		width=0.75];
	235 -- 241	[pos="1303.7,1019.8 1356.5,1007.1 1477,978.06 1529.8,965.37"];
	453	[height=0.5,
		pos="1321.3,1114",
		width=0.75];
	452 -- 453	[pos="1451.1,1176.1 1422.3,1162.3 1372.2,1138.4 1343.4,1124.6"];
	238 -- 239	[pos="1514.9,877.12 1548.5,875.29 1605.3,872.19 1638.9,870.36"];
	456	[height=0.5,
		pos="1727.9,890.69",
		width=0.75];
	238 -- 456	[pos="1514.9,879.96 1561.2,882.29 1654.8,887 1700.9,889.33"];
	239 -- 240	[pos="1638.7,867.04 1586.4,863.48 1472.2,855.72 1420,852.17"];
	239 -- 285	[pos="1667.6,850.92 1673,795.21 1689.3,625.77 1694.7,569.8"];
	240 -- 241	[pos="1412.2,863.25 1443.5,884.21 1504.9,925.38 1536.1,946.33"];
	479	[height=0.5,
		pos="1175.6,963.63",
		width=0.75];
	240 -- 479	[pos="1371.3,861.61 1329.7,883.32 1238.8,930.72 1197.2,952.4"];
	395 -- 453	[pos="1245.9,952.34 1261.9,986.67 1297.3,1062.5 1313.2,1096.7"];
	395 -- 396	[pos="1224.1,919.11 1181.6,870.34 1052.2,722.01 1009.5,673.01"];
	241 -- 243	[pos="1582,956.27 1624.6,951.55 1707.3,942.38 1749.9,937.66"];
	453 -- 454	[pos="1345.8,1105.7 1396.4,1088.7 1511.8,1049.9 1562.4,1032.9"];
	246	[height=0.5,
		pos="1914,762.56",
		width=0.75];
	243 -- 246	[pos="1789.6,918.49 1815.8,885.69 1874.8,811.71 1901,778.83"];
	455	[height=0.5,
		pos="1773.8,1038.3",
		width=0.75];
	454 -- 455	[pos="1614,1026.7 1649.6,1029.3 1711.5,1033.8 1746.9,1036.4"];
	245 -- 246	[pos="1654.2,819.22 1708.5,807.39 1833.6,780.09 1888,768.23"];
	245 -- 391	[pos="1602.1,820.55 1530.3,808.75 1331.1,776.04 1259.2,764.25"];
	346 -- 455	[pos="1707.1,1139.3 1721.9,1116.9 1748.1,1077.2 1762.9,1054.9"];
	346 -- 347	[pos="1679.3,1170.1 1659.3,1187.1 1625.8,1215.3 1605.7,1232.4"];
	249	[height=0.5,
		pos="2050.5,657.75",
		width=0.75];
	246 -- 249	[pos="1931.8,748.86 1958,728.77 2006.5,691.54 2032.7,671.46"];
	455 -- 456	[pos="1768.3,1020.5 1759.5,992.15 1742.3,936.98 1733.4,908.56"];
	248 -- 249	[pos="2089.1,672.81 2084.2,670.88 2079,668.84 2074,666.92"];
	462	[height=0.5,
		pos="1912.7,555.19",
		width=0.75];
	248 -- 462	[pos="2092.7,669.34 2054.3,645.04 1970.7,592.01 1932.5,567.75"];
	249 -- 252	[pos="2055.7,639.86 2067,600.21 2094.1,505.34 2105.4,465.73"];
	457	[height=0.5,
		pos="1834.9,666.24",
		width=0.75];
	456 -- 457	[pos="1736.1,873.45 1756,831.67 1806.7,725.38 1826.7,683.54"];
	384 -- 457	[pos="1785.2,599.12 1796.1,613.88 1812,635.37 1822.9,650.04"];
	385	[height=0.5,
		pos="1594,780.85",
		width=0.75];
	384 -- 385	[pos="1758.9,598.15 1725.4,635.21 1641.3,728.38 1608,765.37"];
	252 -- 254	[pos="2109.5,466.12 2108.8,481.23 2107.7,502.59 2106.9,517.7"];
	457 -- 458	[pos="1839.6,648.2 1847.6,616.9 1864,552.91 1872.1,521.56"];
	257	[height=0.5,
		pos="1988.5,630.45",
		width=0.75];
	254 -- 257	[pos="2088.6,549.86 2066.4,567.74 2028.1,598.55 2005.9,616.45"];
	458 -- 459	[pos="1861,488.76 1840.1,469.3 1803.4,435.14 1782.6,415.7"];
	256 -- 257	[pos="1800.2,628.01 1841.7,628.55 1920.1,629.57 1961.4,630.1"];
	351	[height=0.5,
		pos="1681.3,935.2",
		width=0.75];
	256 -- 351	[pos="1767.6,645.52 1751.4,699.88 1702.9,862.86 1686.7,917.28"];
	257 -- 259	[pos="2012.2,639.38 2052.7,654.61 2134.7,685.47 2175.1,700.68"];
	459 -- 460	[pos="1787,388.83 1812.8,373.16 1857.3,346.15 1883.2,330.46"];
	259 -- 262	[pos="2189.7,692.39 2187.7,688.49 2185.5,684.36 2183.5,680.47"];
	460 -- 461	[pos="1919.1,332.97 1942.8,355.32 1987.6,397.45 2011.5,419.94"];
	262 -- 264	[pos="2154.6,651.07 2141.6,643.05 2124.8,632.64 2111.8,624.64"];
	461 -- 462	[pos="2012.9,450.21 1991,473.2 1949.5,516.56 1927.4,539.71"];
	264 -- 266	[pos="2066.5,605.7 2019.1,593.22 1917.8,566.57 1870.5,554.12"];
	462 -- 463	[pos="1910.9,573.29 1907.9,604.69 1901.7,668.9 1898.7,700.36"];
	270	[height=0.5,
		pos="1607.1,623.33",
		width=0.75];
	266 -- 270	[pos="1820.5,555.29 1774.8,569.86 1677.2,600.99 1631.5,615.54"];
	464	[height=0.5,
		pos="1694,791.43",
		width=0.75];
	463 -- 464	[pos="1872.9,727.19 1833.8,741.22 1757.1,768.77 1718.1,782.79"];
	269 -- 270	[pos="1271.9,793.06 1335.4,760.87 1522,666.44 1585.6,634.23"];
	497	[height=0.5,
		pos="1211.4,1070",
		width=0.75];
	269 -- 497	[pos="1247.7,822.24 1240.5,870.95 1221.1,1003.5 1214,1051.9"];
	380 -- 464	[pos="1508.5,910.02 1547.7,884.95 1635.2,829.01 1674.4,803.96"];
	381	[height=0.5,
		pos="1429.8,1054.7",
		width=0.75];
	380 -- 381	[pos="1481.1,939.86 1469.8,965.17 1448.8,1012.1 1437.5,1037.4"];
	270 -- 273	[pos="1592.1,608.14 1566.5,582.29 1514.6,529.99 1488.9,504.03"];
	464 -- 465	[pos="1695.8,773.2 1699.1,741.02 1705.8,674.48 1709,642.32"];
	276	[height=0.5,
		pos="1552.2,285.86",
		width=0.75];
	273 -- 276	[pos="1480.6,471.05 1495.4,432.59 1530.7,341.61 1545.5,303.32"];
	466	[height=0.5,
		pos="1648.8,667.37",
		width=0.75];
	465 -- 466	[pos="1691.9,637.33 1684.2,642.7 1675.4,648.88 1667.7,654.24"];
	275 -- 276	[pos="1425.8,253.52 1453.9,260.71 1499,272.23 1527,279.4"];
	286	[height=0.5,
		pos="1457.9,335.09",
		width=0.75];
	275 -- 286	[pos="1411.2,263.58 1421.5,279.23 1436.7,302.58 1447,318.3"];
	400 -- 466	[pos="1201.9,591.4 1285,605.52 1539.8,648.83 1622.6,662.9"];
	401	[height=0.5,
		pos="1134.7,356.11",
		width=0.75];
	400 -- 401	[pos="1172.3,568.8 1164.7,525.65 1145.5,417.19 1137.9,374.13"];
	276 -- 279	[pos="1578.8,281.58 1617.1,275.39 1687.6,264.01 1725.8,257.84"];
	466 -- 467	[pos="1673.2,675.47 1736.1,696.39 1903.7,752.11 1966.8,773.07"];
	279 -- 282	[pos="1733.6,240.27 1709.6,222.9 1667.7,192.68 1643.6,175.3"];
	467 -- 468	[pos="2018.5,781.16 2021.9,781.16 2025.5,781.15 2029,781.14"];
	287	[height=0.5,
		pos="1251.8,129.5",
		width=0.75];
	282 -- 287	[pos="1598.2,159.63 1529.4,153.65 1347.4,137.82 1278.6,131.83"];
	468 -- 469	[pos="2047.7,798.43 2030.7,832.42 1993.3,907.47 1976.4,941.3"];
	285 -- 286	[pos="1680.4,537.09 1637.1,497.74 1517.8,389.47 1474.2,349.86"];
	474	[height=0.5,
		pos="1838.8,907.64",
		width=0.75];
	285 -- 474	[pos="1703.5,569.29 1727.7,629.9 1807.4,829.11 1831.7,889.88"];
	286 -- 287	[pos="1442.8,319.97 1404.7,281.95 1305.1,182.68 1267,144.64"];
	488	[height=0.5,
		pos="1371.9,449.96",
		width=0.75];
	286 -- 488	[pos="1445.6,351.55 1429.3,373.38 1400.6,411.71 1384.2,433.53"];
	290	[height=0.5,
		pos="1024.2,207.38",
		width=0.75];
	287 -- 290	[pos="1227.4,137.83 1183.6,152.82 1092.1,184.16 1048.4,199.11"];
	469 -- 470	[pos="1964.1,976.4 1957.9,1006.1 1945.6,1064.9 1939.5,1094.5"];
	289 -- 290	[pos="887.46,155.54 917.88,167.07 970.38,186.97 1000.7,198.47"];
	289 -- 405	[pos="858.72,164.28 851.54,189.34 838.49,234.91 831.29,260.05"];
	290 -- 293	[pos="1000.4,215.89 942.67,236.52 795.78,288.99 737.96,309.65"];
	470 -- 471	[pos="1939,1130.5 1940.5,1138.9 1942.3,1148.9 1943.8,1157.3"];
	293 -- 298	[pos="699.18,333.6 664.35,369.7 577.82,459.37 543.18,495.27"];
	472	[height=0.5,
		pos="1884.8,1156.4",
		width=0.75];
	471 -- 472	[pos="1922.5,1167.7 1918.3,1166.5 1913.9,1165.1 1909.7,1163.9"];
	363 -- 472	[pos="1780,1337.9 1801.7,1300.4 1853.4,1210.7 1875.1,1173.3"];
	364	[height=0.5,
		pos="1443.6,1475.8",
		width=0.75];
	363 -- 364	[pos="1746.5,1363.6 1686.1,1386 1527.5,1444.7 1467.3,1467.1"];
	298 -- 300	[pos="513.66,525.95 477.63,563.51 385.83,659.22 350.02,696.55"];
	473	[height=0.5,
		pos="1947.9,1005.9",
		width=0.75];
	472 -- 473	[pos="1892.2,1138.8 1904.3,1109.8 1928.5,1052.3 1940.6,1023.3"];
	347 -- 473	[pos="1607.9,1233.9 1670.3,1192 1866,1060.8 1928.5,1018.9"];
	348	[height=0.5,
		pos="1377.2,1218.3",
		width=0.75];
	347 -- 348	[pos="1561.8,1243.2 1521.2,1237.7 1444.3,1227.4 1403.7,1221.9"];
	300 -- 303	[pos="329.62,729.52 315.83,771.78 281.18,878.02 267.42,920.2"];
	473 -- 474	[pos="1931.8,991.39 1911.2,972.82 1875.6,940.8 1855,922.2"];
	303 -- 306	[pos="244.46,952 224.49,968.44 191.73,995.39 171.78,1011.8"];
	475	[height=0.5,
		pos="1905.8,928.65",
		width=0.75];
	474 -- 475	[pos="1863.3,915.35 1869.2,917.17 1875.4,919.12 1881.2,920.95"];
	350 -- 475	[pos="1726.5,1054.8 1764.2,1028.2 1849.3,968.4 1887,941.82"];
	350 -- 351	[pos="1704.3,1050 1699.3,1024.6 1690,978.62 1685,953.23"];
	306 -- 309	[pos="180.7,1031.6 219.6,1040 292.42,1055.9 331.27,1064.3"];
	475 -- 476	[pos="1890.1,943.34 1853.6,977.64 1763,1062.7 1726.4,1097.1"];
	309 -- 311	[pos="361.85,1088 366.39,1105.8 373.28,1132.8 377.81,1150.6"];
	476 -- 477	[pos="1685.4,1105.4 1657.4,1098.3 1612.8,1086.9 1584.8,1079.7"];
	311 -- 313	[pos="374.25,1185.8 365.72,1203.9 352.41,1232.2 343.86,1250.3"];
	478	[height=0.5,
		pos="1342.9,984.19",
		width=0.75];
	477 -- 478	[pos="1536.3,1063.7 1494.6,1046.6 1407.5,1010.7 1365.9,993.65"];
	391 -- 478	[pos="1241.5,777.17 1261.9,818.91 1314,925.11 1334.4,966.91"];
	392	[height=0.5,
		pos="1286.1,681.96",
		width=0.75];
	391 -- 392	[pos="1244.3,743.41 1253.3,730.17 1265.9,711.7 1274.9,698.47"];
	313 -- 315	[pos="349.62,1283.6 359.01,1294.2 371.34,1308.2 380.72,1318.9"];
	478 -- 479	[pos="1316,980.89 1284.8,977.05 1233.6,970.76 1202.4,966.93"];
	318	[height=0.5,
		pos="467.2,1349.6",
		width=0.75];
	315 -- 318	[pos="420.39,1340 427.07,1341.3 434.28,1342.8 440.99,1344.2"];
	480	[height=0.5,
		pos="875.16,939.7",
		width=0.75];
	479 -- 480	[pos="1148.7,961.49 1091.7,956.95 959.22,946.4 902.14,941.85"];
	325 -- 480	[pos="570.91,947.38 633.2,945.81 785.93,941.95 848.14,940.39"];
	325 -- 326	[pos="564.8,959.53 586.06,971.14 618.74,988.99 640.07,1000.6"];
	317 -- 318	[pos="619.96,1439 586.6,1419.5 521.08,1381.2 487.74,1361.6"];
	501	[height=0.5,
		pos="828.77,1510.5",
		width=0.75];
	317 -- 501	[pos="665.13,1458.8 701.21,1470.2 768.07,1491.4 804.15,1502.8"];
	322	[height=0.5,
		pos="533.03,1351.3",
		width=0.75];
	318 -- 322	[pos="494.36,1350.3 498.18,1350.4 502.12,1350.5 505.94,1350.6"];
	481	[height=0.5,
		pos="645.07,852.38",
		width=0.75];
	480 -- 481	[pos="851.41,930.69 807.2,913.91 712.81,878.09 668.7,861.35"];
	326 -- 481	[pos="659.46,994.2 656.35,963.5 650.05,901.41 646.92,870.59"];
	326 -- 327	[pos="668.09,1029.7 682.86,1067.8 717.75,1157.8 732.56,1196"];
	321 -- 322	[pos="621.84,1174.3 603.35,1211.2 560.14,1297.3 541.66,1334.1"];
	504	[height=0.5,
		pos="833.68,1261.5",
		width=0.75];
	321 -- 504	[pos="652.23,1168.3 691.34,1188.4 773.1,1230.4 812.09,1250.4"];
	328	[height=0.5,
		pos="663.12,1313.4",
		width=0.75];
	322 -- 328	[pos="557.81,1344.1 580.81,1337.4 614.88,1327.4 637.99,1320.7"];
	481 -- 482	[pos="639.32,834.78 625.14,791.37 588.62,679.58 574.37,635.96"];
	327 -- 328	[pos="726.8,1230.1 712.58,1248.7 689.6,1278.7 675.48,1297.2"];
	496	[height=0.5,
		pos="1029.2,1226",
		width=0.75];
	327 -- 496	[pos="766.4,1214.8 821.63,1217.1 946.93,1222.5 1002.2,1224.8"];
	328 -- 331	[pos="645.15,1299.6 638.12,1294.3 630.09,1288.1 623.08,1282.8"];
	483	[height=0.5,
		pos="774.93,548.28",
		width=0.75];
	482 -- 483	[pos="592.63,610 632.29,596.57 710.92,569.95 750.69,556.49"];
	396 -- 483	[pos="973.7,646.28 931.39,625.42 839.06,579.9 796.81,559.07"];
	396 -- 397	[pos="981.92,641.5 974.83,633.43 966.19,623.62 959.09,615.56"];
	331 -- 333	[pos="584.83,1256.9 567.75,1246.7 543.55,1232.2 526.56,1222.1"];
	484	[height=0.5,
		pos="952.24,413.66",
		width=0.75];
	483 -- 484	[pos="792.91,534.63 826.89,508.83 900.19,453.18 934.21,427.35"];
	405 -- 484	[pos="840.4,293.21 864.61,319.28 913.58,372.02 937.88,398.2"];
	406	[height=0.5,
		pos="733.61,387.31",
		width=0.75];
	405 -- 406	[pos="812.52,294.04 794.92,314.85 764.51,350.79 747.02,371.45"];
	333 -- 336	[pos="484.72,1199 448.3,1180.5 375.32,1143.5 338.87,1125"];
	484 -- 485	[pos="971.72,426.27 1009.8,450.95 1093.9,505.36 1132.1,530.07"];
	336 -- 338	[pos="340.89,1123 394.58,1143.3 524.71,1192.6 578.15,1212.8"];
	486	[height=0.5,
		pos="1469.7,734.86",
		width=0.75];
	485 -- 486	[pos="1172,555.04 1229.5,589.75 1392.3,688.07 1449.5,722.65"];
	351 -- 486	[pos="1665.8,920.47 1626.7,883.42 1524.5,786.68 1485.3,749.61"];
	352	[height=0.5,
		pos="1634.3,1199.9",
		width=0.75];
	351 -- 352	[pos="1678.1,953.39 1669.5,1001.9 1646,1133.7 1637.5,1182"];
	338 -- 340	[pos="628.58,1224.2 684.7,1229.5 813.57,1241.5 869.54,1246.8"];
	487	[height=0.5,
		pos="1281.5,593.91",
		width=0.75];
	486 -- 487	[pos="1451.7,721.34 1415.7,694.4 1335.5,634.29 1299.5,607.38"];
	397 -- 487	[pos="972.59,599.47 1035.7,598.34 1191.6,595.53 1254.5,594.39"];
	398	[height=0.5,
		pos="1123.5,498.69",
		width=0.75];
	397 -- 398	[pos="966.14,588.15 1000.5,568.63 1068.6,529.9 1102.8,510.43"];
	344	[height=0.5,
		pos="1201.8,1309.6",
		width=0.75];
	340 -- 344	[pos="922.35,1254.4 980.07,1265.8 1118.2,1293.1 1175.8,1304.5"];
	487 -- 488	[pos="1292.1,577.11 1309.5,549.37 1344.1,494.31 1361.5,466.64"];
	343 -- 344	[pos="1045.8,1195.4 1079.3,1219.9 1150,1271.6 1183.5,1296.2"];
	503	[height=0.5,
		pos="899.78,1383.3",
		width=0.75];
	343 -- 503	[pos="1016.8,1198.8 992.69,1236.8 934.3,1328.9 910.33,1366.7"];
	344 -- 348	[pos="1223.3,1298.4 1257.1,1280.8 1322.1,1247 1355.8,1229.5"];
	488 -- 489	[pos="1344.9,451.85 1315,453.94 1267.1,457.3 1237.2,459.39"];
	348 -- 352	[pos="1404.2,1216.4 1453.6,1212.9 1557.8,1205.4 1607.2,1201.9"];
	489 -- 490	[pos="1198.8,477.61 1170.7,517.21 1099.4,617.97 1071.3,657.64"];
	352 -- 354	[pos="1652.5,1213.4 1674.9,1230 1712.6,1257.8 1734.8,1274.2"];
	490 -- 491	[pos="1051.9,691.51 1038.8,720.91 1012.6,779.89 999.58,809.15"];
	354 -- 356	[pos="1731.3,1298.4 1677.8,1325.2 1540.2,1394 1486.5,1420.9"];
	491 -- 492	[pos="985.41,844.09 974.87,872.75 954.19,929.04 943.66,957.68"];
	360	[height=0.5,
		pos="1362.7,1316.9",
		width=0.75];
	356 -- 360	[pos="1450.4,1415.8 1430.9,1393.9 1396.1,1354.7 1376.7,1332.8"];
	492 -- 493	[pos="919.39,989 888.54,1012.7 825.46,1061.2 794.55,1084.9"];
	359 -- 360	[pos="1317.1,1245.3 1327.1,1261 1342,1284.4 1352,1300.1"];
	505	[height=0.5,
		pos="1091.9,1260.2",
		width=0.75];
	359 -- 505	[pos="1279.8,1232.6 1238.4,1238.7 1159.5,1250.3 1118.3,1256.3"];
	360 -- 364	[pos="1371.5,1334.3 1387.1,1364.8 1419.2,1428 1434.8,1458.5"];
	493 -- 494	[pos="797.31,1110.5 833.07,1131.1 906.19,1173.1 942.02,1193.7"];
	364 -- 367	[pos="1417.4,1471.3 1373.6,1463.7 1285.7,1448.4 1241.8,1440.8"];
	495	[height=0.5,
		pos="1077.4,1304.2",
		width=0.75];
	494 -- 495	[pos="979.65,1220.2 1001.5,1238.9 1039.2,1271.3 1060.8,1289.9"];
	374 -- 495	[pos="1147.3,1375.9 1131.8,1360.1 1107.8,1335.3 1092.3,1319.5"];
	375	[height=0.5,
		pos="1266.9,1319.5",
		width=0.75];
	374 -- 375	[pos="1181.2,1377.9 1200.2,1365 1228.9,1345.4 1247.8,1332.6"];
	367 -- 369	[pos="1221.4,1453.8 1226.5,1468.9 1233.7,1490.6 1238.7,1505.7"];
	495 -- 496	[pos="1067,1287.2 1058.8,1274 1047.6,1255.8 1039.5,1242.7"];
	369 -- 372	[pos="1251.9,1505.9 1258.4,1490.4 1267.9,1468 1274.4,1452.6"];
	496 -- 497	[pos="1046,1211.6 1080.7,1181.9 1159.9,1114 1194.6,1084.3"];
	372 -- 375	[pos="1279.3,1417.1 1276.6,1395.4 1271.9,1359.2 1269.2,1337.5"];
	497 -- 498	[pos="1214.4,1088 1220.7,1125.3 1235.1,1210.3 1241.4,1247.5"];
	375 -- 378	[pos="1267.8,1301.4 1269.1,1275.6 1271.5,1228.8 1272.8,1203"];
	498 -- 499	[pos="1231.3,1281.7 1202.4,1317.4 1133.1,1403 1104.1,1438.7"];
	378 -- 381	[pos="1290.8,1170.5 1320.8,1145.5 1382.8,1093.8 1412.8,1068.8"];
	499 -- 500	[pos="1085.7,1472.5 1077.1,1500.8 1060.3,1555.8 1051.6,1584.2"];
	381 -- 385	[pos="1439.8,1037.9 1469.1,989.06 1554.5,846.74 1583.9,797.7"];
	500 -- 501	[pos="1023.3,1592.4 981.58,1574.8 893.42,1537.7 851.65,1520.2"];
	385 -- 387	[pos="1572.2,770.12 1536.8,752.7 1467.3,718.49 1432,701.09"];
	501 -- 502	[pos="855.78,1507.9 858.53,1507.7 861.31,1507.4 864.05,1507.1"];
	387 -- 392	[pos="1383.3,688.54 1362.5,687.13 1333.8,685.19 1313,683.78"];
	502 -- 503	[pos="892.12,1486.4 893.82,1463.6 896.72,1424.5 898.42,1401.6"];
	392 -- 398	[pos="1272.3,666.33 1241.5,631.71 1168,548.86 1137.3,514.28"];
	503 -- 504	[pos="890.59,1366.4 878.03,1343.2 855.63,1302 843.01,1278.7"];
	398 -- 401	[pos="1124.9,480.63 1127.1,453.35 1131.1,401.92 1133.3,374.47"];
	504 -- 505	[pos="860.83,1261.4 910.42,1261.1 1015.1,1260.6 1064.7,1260.3"];
	401 -- 403	[pos="1108.6,351.21 1076.1,345.14 1021,334.85 988.57,328.79"];
	505 -- 506	[pos="1082.9,1242.9 1068.7,1215.9 1041.5,1163.9 1027.3,1136.8"];
	403 -- 406	[pos="937.08,330.93 892.97,343.15 802.68,368.17 758.74,380.35"];
	506 -- 507	[pos="1001.3,1105.1 978.9,1086.1 939.59,1052.8 917.22,1033.8"];
	406 -- 409	[pos="719.19,402.91 696.49,427.47 652.7,474.83 630.16,499.22"];
	507 -- 508	[pos="884.11,1004.8 854.87,978.41 793.73,923.19 764.57,896.85"];
	509	[height=0.5,
		pos="577.18,662.18",
		width=0.75];
	409 -- 509	[pos="611.31,532.36 603.85,560.73 589.35,615.89 581.88,644.31"];
	508 -- 509	[pos="735.84,866.08 704.17,825.38 621.48,719.11 589.79,678.38"];
}
