graph {
	graph [bb="0,0,544.69,438.19",
		outputorder=edgesfirst,
		overlap=prism,
		size="50,50!",
		start=1238
	];
	node [label="\N"];
	0	[height=0.5,
		pos="120.73,330.51",
		width=0.75];
	8	[height=0.5,
		pos="300.96,419.08",
		width=0.75];
	0 -- 8	[pos="142.47,341.2 177.11,358.22 244.45,391.31 279.14,408.36"];
	2	[height=0.5,
		pos="301.01,231.99",
		width=0.75];
	0 -- 2	[pos="141.76,319.02 176.5,300.04 245.46,262.35 280.11,243.41"];
	6	[height=0.5,
		pos="190.49,420.19",
		width=0.75];
	0 -- 6	[pos="133.2,346.55 145.82,362.77 165.23,387.71 177.89,404"];
	9	[height=0.5,
		pos="191.64,199.16",
		width=0.75];
	0 -- 9	[pos="130,313.34 143.59,288.17 168.77,241.51 182.37,216.33"];
	1	[height=0.5,
		pos="108.99,143.55",
		width=0.75];
	0 -- 1	[pos="119.58,312.25 117.33,276.41 112.37,197.29 110.13,161.62"];
	14	[height=0.5,
		pos="366.42,315.6",
		width=0.75];
	8 -- 14	[pos="311.48,402.46 323.62,383.26 343.49,351.85 355.71,332.53"];
	16	[height=0.5,
		pos="234.94,301.98",
		width=0.75];
	8 -- 16	[pos="291.36,402.05 278.84,379.85 257.08,341.24 244.55,319.03"];
	2 -- 8	[pos="301.01,250.27 301,286.13 300.97,365.31 300.96,401"];
	3	[height=0.5,
		pos="470.14,316.25",
		width=0.75];
	2 -- 3	[pos="322.78,242.83 355.25,259.01 416.03,289.29 448.46,305.44"];
	12	[height=0.5,
		pos="461.31,196.35",
		width=0.75];
	2 -- 12	[pos="326.77,226.27 356.68,219.61 405.73,208.71 435.62,202.06"];
	5	[height=0.5,
		pos="416.38,69.705",
		width=0.75];
	2 -- 5	[pos="312.71,215.54 334.82,184.43 382.52,117.34 404.65,86.203"];
	15	[height=0.5,
		pos="293.13,61.266",
		width=0.75];
	2 -- 15	[pos="300.17,213.72 298.65,180.86 295.48,112.17 293.97,79.406"];
	3 -- 8	[pos="450.07,328.45 417.51,348.24 353.55,387.12 321,406.9"];
	3 -- 14	[pos="442.89,316.08 427.65,315.98 408.71,315.86 393.49,315.77"];
	4	[height=0.5,
		pos="517.69,152.34",
		width=0.75];
	3 -- 4	[pos="475.32,298.39 484.47,266.86 503.37,201.69 512.52,170.17"];
	3 -- 12	[pos="468.8,298.04 467.13,275.37 464.3,236.9 462.63,214.34"];
	11	[height=0.5,
		pos="363.64,172.96",
		width=0.75];
	3 -- 11	[pos="458.13,300.09 437.68,272.57 396.31,216.91 375.77,189.28"];
	14 -- 16	[pos="339.5,312.81 316.81,310.46 284.51,307.12 261.83,304.77"];
	6 -- 8	[pos="217.52,419.92 234.63,419.75 256.69,419.53 273.83,419.35"];
	6 -- 14	[pos="210.67,408.19 244.52,388.07 312.34,347.76 346.21,327.62"];
	6 -- 9	[pos="190.59,402.1 190.8,360.55 191.33,258.68 191.54,217.18"];
	6 -- 16	[pos="197.15,402.49 205.53,380.21 219.84,342.14 228.24,319.8"];
	4 -- 14	[pos="503.46,167.7 474.63,198.82 409.62,268.98 380.73,300.16"];
	4 -- 12	[pos="499.85,166.27 493.27,171.4 485.81,177.22 479.23,182.36"];
	4 -- 5	[pos="500.5,138.33 481.87,123.13 452.31,99.015 433.65,83.792"];
	4 -- 11	[pos="491.21,155.89 462.99,159.66 418.57,165.61 390.29,169.39"];
	7	[height=0.5,
		pos="355.83,18",
		width=0.75];
	4 -- 7	[pos="500.67,138.22 469.67,112.49 404.3,58.231 373.11,32.338"];
	12 -- 14	[pos="448.51,212.43 430.4,235.19 397.48,276.56 379.32,299.39"];
	12 -- 15	[pos="443.95,182.4 411.72,156.52 343,101.32 310.65,75.34"];
	5 -- 12	[pos="422.63,87.314 431.16,111.37 446.39,154.29 454.97,178.48"];
	5 -- 11	[pos="407.67,86.755 397.9,105.89 382.14,136.74 372.36,155.88"];
	5 -- 7	[pos="399.52,55.302 391.12,48.131 380.99,39.486 372.61,32.326"];
	5 -- 15	[pos="389.33,67.853 368.79,66.446 340.65,64.52 320.12,63.114"];
	10	[height=0.5,
		pos="212.39,79.66",
		width=0.75];
	5 -- 10	[pos="389.29,71.027 350.28,72.931 278.67,76.425 239.59,78.332"];
	11 -- 14	[pos="364,191.02 364.53,218.31 365.53,269.77 366.06,297.23"];
	11 -- 16	[pos="348.63,188.01 323.96,212.74 275.13,261.7 250.26,286.63"];
	9 -- 14	[pos="211.01,212.06 244.7,234.51 313.67,280.46 347.23,302.81"];
	9 -- 11	[pos="218.14,195.12 250.46,190.2 304.78,181.92 337.11,177"];
	9 -- 10	[pos="194.74,181.27 198.66,158.74 205.34,120.26 209.26,97.672"];
	13	[height=0.5,
		pos="27,48.622",
		width=0.75];
	9 -- 13	[pos="175.55,184.45 144,155.6 74.321,91.89 42.909,63.168"];
	9 -- 16	[pos="198.98,216.6 206.95,235.51 219.58,265.51 227.56,284.46"];
	7 -- 11	[pos="356.74,36.079 358.24,65.778 361.2,124.58 362.71,154.51"];
	7 -- 9	[pos="341.83,33.445 310.81,67.671 236.59,149.56 205.6,183.75"];
	7 -- 15	[pos="337.02,30.981 329.08,36.457 319.86,42.819 311.93,48.294"];
	7 -- 10	[pos="333.1,27.77 306.4,39.248 262.35,58.185 235.49,69.731"];
	10 -- 11	[pos="232.47,92.049 261.4,109.89 314.5,142.64 343.47,160.52"];
	10 -- 15	[pos="238.38,73.739 247.69,71.617 258.18,69.228 267.46,67.113"];
	10 -- 13	[pos="185.83,75.213 150.48,69.296 88.378,58.898 53.213,53.011"];
	10 -- 16	[pos="214.23,97.854 218.47,139.65 228.87,242.12 233.1,283.85"];
	1 -- 2	[pos="131.4,153.87 168.4,170.91 241.85,204.74 278.75,221.74"];
	1 -- 9	[pos="128.16,156.45 141.51,165.43 159.25,177.36 172.57,186.33"];
	1 -- 15	[pos="131.57,133.46 167.01,117.63 235.28,87.117 270.66,71.31"];
	1 -- 10	[pos="128.93,131.23 147.24,119.92 174.22,103.24 192.51,91.941"];
	1 -- 13	[pos="95.454,127.88 80.262,110.29 55.76,81.919 40.56,64.321"];
}
