graph {
	graph [bb="0,0,853.86,721.19",
		outputorder=edgesfirst,
		overlap=prism,
		size="50,50!",
		start=1235
	];
	node [label="\N"];
	0	[height=0.5,
		pos="611.62,645.34",
		width=0.75];
	17	[height=0.5,
		pos="567.7,553.39",
		width=0.75];
	0 -- 17	[pos="603.36,628.05 595.5,611.61 583.76,587.02 575.92,570.61"];
	36	[height=0.5,
		pos="715.89,634.21",
		width=0.75];
	0 -- 36	[pos="638.47,642.47 654.04,640.81 673.57,638.73 689.13,637.07"];
	47	[height=0.5,
		pos="611.65,703.19",
		width=0.75];
	0 -- 47	[pos="611.63,663.64 611.63,670.4 611.63,678.05 611.64,684.81"];
	51	[height=0.5,
		pos="430.74,632.36",
		width=0.75];
	0 -- 51	[pos="584.54,643.4 550.34,640.94 491.85,636.74 457.7,634.29"];
	53	[height=0.5,
		pos="641.52,480.88",
		width=0.75];
	0 -- 53	[pos="614.87,627.43 620.62,595.79 632.52,530.39 638.27,498.77"];
	61	[height=0.5,
		pos="674.35,678.22",
		width=0.75];
	0 -- 61	[pos="632.86,656.47 639.26,659.83 646.28,663.51 652.71,666.88"];
	72	[height=0.5,
		pos="549.12,683",
		width=0.75];
	0 -- 72	[pos="591.5,657.46 584.36,661.77 576.34,666.6 569.2,670.9"];
	73	[height=0.5,
		pos="768.83,590.17",
		width=0.75];
	0 -- 73	[pos="635.84,636.84 665.47,626.44 715.32,608.95 744.84,598.59"];
	1	[height=0.5,
		pos="334.48,410.73",
		width=0.75];
	18	[height=0.5,
		pos="310.66,254.59",
		width=0.75];
	1 -- 18	[pos="331.75,392.82 327.18,362.86 318.03,302.91 313.43,272.77"];
	20	[height=0.5,
		pos="396.51,402.91",
		width=0.75];
	1 -- 20	[pos="361.15,407.36 364.04,407 366.98,406.63 369.87,406.27"];
	32	[height=0.5,
		pos="469.35,460.69",
		width=0.75];
	1 -- 32	[pos="358.29,419.54 382.79,428.62 420.76,442.69 445.34,451.79"];
	35	[height=0.5,
		pos="310.14,526.44",
		width=0.75];
	1 -- 35	[pos="330.73,428.55 326.17,450.23 318.51,486.63 313.93,508.4"];
	40	[height=0.5,
		pos="291.22,361.25",
		width=0.75];
	1 -- 40	[pos="320.79,395.07 315.74,389.3 310.02,382.76 304.97,376.98"];
	52	[height=0.5,
		pos="407.29,447.61",
		width=0.75];
	1 -- 52	[pos="356.33,421.79 365.63,426.5 376.45,431.98 385.72,436.68"];
	62	[height=0.5,
		pos="272.46,437.91",
		width=0.75];
	1 -- 62	[pos="311.74,420.69 306.35,423.06 300.59,425.58 295.2,427.95"];
	66	[height=0.5,
		pos="291.2,482.07",
		width=0.75];
	1 -- 66	[pos="324.23,427.63 317.33,439.01 308.27,453.94 301.39,465.28"];
	70	[height=0.5,
		pos="562.56,414.48",
		width=0.75];
	1 -- 70	[pos="361.54,411.17 405.44,411.89 491.67,413.31 535.54,414.04"];
	75	[height=0.5,
		pos="436.93,506.43",
		width=0.75];
	1 -- 75	[pos="350.49,425.68 369.74,443.66 401.84,473.65 421.03,491.58"];
	77	[height=0.5,
		pos="498.97,529.82",
		width=0.75];
	1 -- 77	[pos="353.03,424.16 384.62,447.03 448.52,493.29 480.24,516.25"];
	79	[height=0.5,
		pos="372.72,227.82",
		width=0.75];
	1 -- 79	[pos="338.22,392.85 345.53,357.89 361.65,280.79 368.97,245.76"];
	80	[height=0.5,
		pos="271.17,302.42",
		width=0.75];
	1 -- 80	[pos="324.59,393.8 312.7,373.46 292.86,339.52 281,319.22"];
	2	[height=0.5,
		pos="631.57,285.03",
		width=0.75];
	19	[height=0.5,
		pos="751.93,298.34",
		width=0.75];
	2 -- 19	[pos="658.28,287.98 678.22,290.19 705.36,293.19 725.29,295.39"];
	21	[height=0.5,
		pos="403.87,322.94",
		width=0.75];
	2 -- 21	[pos="605,289.45 561.13,296.75 474.03,311.26 430.27,318.54"];
	23	[height=0.5,
		pos="704.36,369.46",
		width=0.75];
	2 -- 23	[pos="645.26,300.91 658.27,316 677.74,338.58 690.73,353.65"];
	26	[height=0.5,
		pos="572.42,142.74",
		width=0.75];
	2 -- 26	[pos="624.31,267.58 612.96,240.27 591.12,187.73 579.73,160.33"];
	33	[height=0.5,
		pos="569.4,318.79",
		width=0.75];
	2 -- 33	[pos="610.52,296.46 604.04,299.98 596.9,303.85 590.42,307.37"];
	39	[height=0.5,
		pos="434.6,277.17",
		width=0.75];
	2 -- 39	[pos="604.59,283.95 566.98,282.45 499.17,279.75 461.57,278.25"];
	44	[height=0.5,
		pos="518.15,186.78",
		width=0.75];
	2 -- 44	[pos="614.83,270.53 593.39,251.95 556.43,219.94 534.96,201.33"];
	46	[height=0.5,
		pos="673.61,240.11",
		width=0.75];
	2 -- 46	[pos="646.04,269.57 650.31,265 654.99,260 659.26,255.44"];
	48	[height=0.5,
		pos="624.63,436.86",
		width=0.75];
	2 -- 48	[pos="630.74,303.04 629.42,332.11 626.81,389.05 625.47,418.4"];
	2 -- 53	[pos="632.49,303.1 634.38,340.41 638.71,425.57 640.6,462.85"];
	59	[height=0.5,
		pos="779.85,342.56",
		width=0.75];
	2 -- 59	[pos="655.06,294.14 682.83,304.92 728.75,322.73 756.47,333.49"];
	63	[height=0.5,
		pos="641.1,190.77",
		width=0.75];
	2 -- 63	[pos="633.41,266.85 635.1,250.16 637.58,225.56 639.27,208.89"];
	3	[height=0.5,
		pos="532.89,363.73",
		width=0.75];
	3 -- 17	[pos="536.23,381.92 542.88,418.17 557.73,499.06 564.37,535.26"];
	3 -- 20	[pos="507.88,370.92 483.27,377.99 445.92,388.72 421.37,395.77"];
	22	[height=0.5,
		pos="372.82,491.82",
		width=0.75];
	3 -- 22	[pos="515.45,377.68 484.66,402.32 421.01,453.26 390.24,477.88"];
	31	[height=0.5,
		pos="470.77,345.22",
		width=0.75];
	3 -- 31	[pos="507.98,356.31 503.93,355.1 499.73,353.85 495.68,352.65"];
	3 -- 33	[pos="545.86,347.76 549.31,343.52 553.02,338.95 556.46,334.71"];
	34	[height=0.5,
		pos="631.32,392.85",
		width=0.75];
	3 -- 34	[pos="557.73,371.08 572.65,375.49 591.57,381.09 606.49,385.51"];
	3 -- 52	[pos="513.54,376.65 489.87,392.46 450.05,419.06 426.46,434.81"];
	54	[height=0.5,
		pos="558.79,274.78",
		width=0.75];
	3 -- 54	[pos="538.13,345.73 542.66,330.2 549.15,307.89 553.65,292.45"];
	74	[height=0.5,
		pos="496.79,234.48",
		width=0.75];
	3 -- 74	[pos="527.95,346.03 521.07,321.42 508.7,277.1 501.79,252.38"];
	4	[height=0.5,
		pos="156.27,379.78",
		width=0.75];
	4 -- 21	[pos="181.83,373.91 229.28,363.02 330.45,339.79 378.08,328.86"];
	25	[height=0.5,
		pos="42.868,451.02",
		width=0.75];
	4 -- 25	[pos="136.51,392.19 115.83,405.19 83.518,425.48 62.774,438.51"];
	28	[height=0.5,
		pos="209.14,335.75",
		width=0.75];
	4 -- 28	[pos="173.29,365.61 179.33,360.58 186.12,354.93 192.15,349.9"];
	37	[height=0.5,
		pos="166.95,518.73",
		width=0.75];
	4 -- 37	[pos="157.66,397.95 159.71,424.58 163.51,473.93 165.56,500.56"];
	38	[height=0.5,
		pos="176.84,247.56",
		width=0.75];
	4 -- 38	[pos="159.08,361.68 163,336.5 170.06,291.16 173.99,265.88"];
	42	[height=0.5,
		pos="51.484,391.93",
		width=0.75];
	4 -- 42	[pos="129.55,382.88 113.79,384.71 93.903,387.01 78.147,388.84"];
	55	[height=0.5,
		pos="110.06,436.08",
		width=0.75];
	4 -- 55	[pos="143.15,395.77 136.85,403.44 129.33,412.6 123.05,420.25"];
	56	[height=0.5,
		pos="228.98,481.93",
		width=0.75];
	4 -- 56	[pos="167.95,396.2 181.52,415.26 203.77,446.52 217.33,465.56"];
	58	[height=0.5,
		pos="193.55,291.68",
		width=0.75];
	4 -- 58	[pos="163.63,362.38 170.17,346.93 179.67,324.49 186.2,309.05"];
	71	[height=0.5,
		pos="94.253,344.18",
		width=0.75];
	4 -- 71	[pos="135.62,367.93 128.99,364.13 121.66,359.92 115.02,356.11"];
	76	[height=0.5,
		pos="113.91,236.47",
		width=0.75];
	4 -- 76	[pos="150.99,361.92 142.87,334.46 127.41,282.15 119.25,254.56"];
	5	[height=0.5,
		pos="295.95,577.41",
		width=0.75];
	5 -- 22	[pos="310.05,561.71 323.92,546.27 344.97,522.82 358.81,507.42"];
	24	[height=0.5,
		pos="154.24,589.03",
		width=0.75];
	5 -- 24	[pos="268.96,579.62 243.75,581.69 206.31,584.76 181.13,586.83"];
	5 -- 37	[pos="273.48,567.19 249.95,556.48 213.2,539.76 189.6,529.03"];
	5 -- 51	[pos="319.12,586.85 343.81,596.92 382.67,612.76 407.42,622.85"];
	5 -- 56	[pos="284.28,560.78 271.99,543.25 252.75,515.82 240.51,498.37"];
	68	[height=0.5,
		pos="170.77,633.04",
		width=0.75];
	5 -- 68	[pos="273.28,587.48 250.59,597.56 215.89,612.98 193.27,623.04"];
	6	[height=0.5,
		pos="104.93,545.02",
		width=0.75];
	6 -- 25	[pos="93.835,528.21 82.538,511.1 65.129,484.74 53.867,467.68"];
	29	[height=0.5,
		pos="27,518.37",
		width=0.75];
	6 -- 29	[pos="80.7,536.73 71.317,533.52 60.597,529.86 51.216,526.65"];
	6 -- 35	[pos="131.76,542.59 171.09,539.03 243.97,532.43 283.3,528.87"];
	6 -- 55	[pos="105.8,526.54 106.75,506.38 108.26,474.33 109.2,454.29"];
	57	[height=0.5,
		pos="42.873,568.19",
		width=0.75];
	6 -- 57	[pos="81.115,553.91 76.33,555.7 71.302,557.58 66.523,559.36"];
	6 -- 66	[pos="129.28,536.79 164.98,524.72 231.14,502.37 266.85,490.3"];
	6 -- 68	[pos="117.01,561.16 128.81,576.94 146.69,600.85 158.54,616.7"];
	7	[height=0.5,
		pos="338.27,298.59",
		width=0.75];
	27	[height=0.5,
		pos="458.57,389.29",
		width=0.75];
	7 -- 27	[pos="356.28,312.17 378.96,329.27 417.7,358.48 440.44,375.62"];
	7 -- 28	[pos="313.37,305.76 290.51,312.34 256.81,322.04 233.96,328.61"];
	30	[height=0.5,
		pos="434.75,191.96",
		width=0.75];
	7 -- 30	[pos="352.51,282.86 370.85,262.58 402.55,227.55 420.77,207.41"];
	7 -- 31	[pos="362.27,307.04 386.13,315.44 422.55,328.25 446.51,336.68"];
	7 -- 39	[pos="364.09,292.85 377.91,289.78 394.88,286 408.72,282.93"];
	7 -- 40	[pos="326.15,314.73 319.18,324.01 310.45,335.64 303.46,344.95"];
	7 -- 58	[pos="311.05,297.29 285.18,296.06 246.49,294.21 220.65,292.98"];
	60	[height=0.5,
		pos="286.91,210.47",
		width=0.75];
	7 -- 60	[pos="328.37,281.6 319.28,266 305.87,243 296.79,227.41"];
	78	[height=0.5,
		pos="229.15,393.5",
		width=0.75];
	7 -- 78	[pos="321.7,313.01 301.19,330.84 266.46,361.05 245.88,378.95"];
	8	[height=0.5,
		pos="104.92,493.78",
		width=0.75];
	8 -- 24	[pos="113.74,510.81 122.66,528.04 136.38,554.54 145.33,571.83"];
	8 -- 29	[pos="80.268,501.56 71.082,504.46 60.666,507.75 51.495,510.64"];
	8 -- 42	[pos="95.858,476.51 85.971,457.66 70.249,427.7 60.416,408.95"];
	8 -- 57	[pos="91.764,509.56 81.234,522.19 66.538,539.81 56.013,552.44"];
	8 -- 62	[pos="129.28,485.66 161.05,475.07 216.29,456.64 248.07,446.05"];
	8 -- 71	[pos="103.64,475.74 101.58,446.98 97.598,391.09 95.544,362.29"];
	8 -- 78	[pos="122.2,479.84 145.8,460.79 187.89,426.8 211.63,407.64"];
	9	[height=0.5,
		pos="579.04,230.78",
		width=0.75];
	9 -- 30	[pos="553.91,224.02 527.59,216.94 486.47,205.88 460.08,198.78"];
	41	[height=0.5,
		pos="602.11,59.101",
		width=0.75];
	9 -- 41	[pos="581.47,212.73 585.9,179.76 595.25,110.15 599.68,77.165"];
	45	[height=0.5,
		pos="537.74,98.716",
		width=0.75];
	9 -- 45	[pos="573.47,212.97 565.59,187.76 551.26,141.95 543.35,116.67"];
	9 -- 46	[pos="605.89,233.43 618.67,234.69 633.91,236.19 646.7,237.45"];
	9 -- 54	[pos="571.04,248.17 569.63,251.24 568.15,254.44 566.74,257.52"];
	9 -- 63	[pos="598.68,218.12 605.92,213.45 614.13,208.16 621.38,203.48"];
	82	[height=0.5,
		pos="735.65,253.8",
		width=0.75];
	9 -- 82	[pos="605.61,234.68 634.49,238.93 680.38,245.68 709.21,249.92"];
	84	[height=0.5,
		pos="631.46,348.83",
		width=0.75];
	9 -- 84	[pos="586.78,248.2 596.69,270.52 613.77,308.99 623.69,331.34"];
	10	[height=0.5,
		pos="561.02,503.92",
		width=0.75];
	10 -- 27	[pos="546.77,487.98 527.2,466.08 492.21,426.93 472.7,405.1"];
	10 -- 32	[pos="538.83,493.46 524.52,486.71 505.98,477.97 491.66,471.21"];
	64	[height=0.5,
		pos="702.32,524.9",
		width=0.75];
	10 -- 64	[pos="587.59,507.87 612.86,511.62 650.64,517.23 675.86,520.97"];
	65	[height=0.5,
		pos="703.76,568.93",
		width=0.75];
	10 -- 65	[pos="583.32,514.08 609.98,526.22 654.34,546.43 681.14,558.63"];
	10 -- 72	[pos="559.81,522.08 557.53,556.4 552.61,630.44 550.33,664.8"];
	10 -- 75	[pos="533.78,504.47 513.09,504.89 484.77,505.46 464.1,505.88"];
	81	[height=0.5,
		pos="537.96,636.22",
		width=0.75];
	10 -- 81	[pos="557.86,522.04 553.44,547.38 545.47,593.11 541.08,618.32"];
	10 -- 84	[pos="568.96,486.43 582.49,456.65 609.85,396.4 623.43,366.5"];
	11	[height=0.5,
		pos="764.86,494.22",
		width=0.75];
	11 -- 23	[pos="756.44,476.87 744.89,453.04 724.22,410.42 712.7,386.66"];
	11 -- 34	[pos="746.85,480.55 721.36,461.2 675.03,426.03 649.47,406.63"];
	11 -- 36	[pos="758.65,511.95 749.23,538.88 731.43,589.78 722.04,616.63"];
	50	[height=0.5,
		pos="826.86,464.45",
		width=0.75];
	11 -- 50	[pos="786.89,483.64 792.74,480.83 799.05,477.8 804.9,475"];
	11 -- 59	[pos="766.63,476.23 769.52,447.04 775.19,389.7 778.08,360.53"];
	11 -- 65	[pos="751.9,510.06 741.53,522.74 727.06,540.44 716.7,553.11"];
	11 -- 73	[pos="765.6,512.27 766.31,529.31 767.36,554.75 768.07,571.87"];
	12	[height=0.5,
		pos="252.68,166.4",
		width=0.75];
	12 -- 18	[pos="263.59,182.99 273.95,198.76 289.46,222.34 299.8,238.08"];
	12 -- 38	[pos="238.06,182.05 224.55,196.52 204.58,217.88 191.16,232.24"];
	12 -- 60	[pos="265.24,182.56 268.21,186.4 271.39,190.48 274.36,194.32"];
	67	[height=0.5,
		pos="365.78,77.395",
		width=0.75];
	12 -- 67	[pos="270.35,152.5 291.6,135.77 327.04,107.88 348.23,91.205"];
	12 -- 76	[pos="231,177.35 204.93,190.52 161.44,212.47 135.44,225.6"];
	12 -- 80	[pos="255.14,184.47 258.68,210.48 265.17,258.23 268.71,284.28"];
	83	[height=0.5,
		pos="334.72,121.56",
		width=0.75];
	12 -- 83	[pos="273.81,154.86 286.06,148.16 301.43,139.76 313.67,133.07"];
	13	[height=0.5,
		pos="465.94,68.035",
		width=0.75];
	13 -- 26	[pos="484.98,81.391 504.36,94.989 534.22,115.94 553.55,129.5"];
	13 -- 41	[pos="492.84,66.27 516.56,64.714 550.96,62.457 574.8,60.893"];
	49	[height=0.5,
		pos="413.78,24.034",
		width=0.75];
	13 -- 49	[pos="449.15,53.871 443.19,48.846 436.49,43.194 430.54,38.172"];
	13 -- 67	[pos="439.1,70.543 424.73,71.886 407.08,73.536 392.69,74.88"];
	69	[height=0.5,
		pos="481.23,18",
		width=0.75];
	13 -- 69	[pos="471.38,50.254 472.82,45.535 474.37,40.44 475.82,35.724"];
	14	[height=0.5,
		pos="693.34,413.82",
		width=0.75];
	14 -- 19	[pos="702.23,396.28 713.31,374.45 732.11,337.4 743.14,315.66"];
	43	[height=0.5,
		pos="765.78,546.12",
		width=0.75];
	14 -- 43	[pos="702.66,430.85 716.57,456.25 742.6,503.8 756.49,529.16"];
	14 -- 50	[pos="716.9,422.76 741.16,431.95 778.75,446.21 803.08,455.43"];
	14 -- 64	[pos="694.82,432.16 696.49,452.87 699.2,486.33 700.87,506.9"];
	14 -- 70	[pos="666.24,413.96 643.8,414.07 612.06,414.23 589.62,414.35"];
	14 -- 82	[pos="698.03,396.09 706.16,365.33 722.79,302.43 730.94,271.62"];
	15	[height=0.5,
		pos="438.76,120.42",
		width=0.75];
	15 -- 44	[pos="455.6,134.49 468.98,145.68 487.62,161.26 501.07,172.5"];
	15 -- 45	[pos="464.51,114.77 479.06,111.58 497.19,107.61 511.78,104.41"];
	15 -- 49	[pos="434.06,102.29 429.6,85.058 422.92,59.287 418.46,42.082"];
	15 -- 69	[pos="445.97,103.05 453.78,84.211 466.17,54.326 473.99,35.459"];
	15 -- 74	[pos="447.58,137.74 458.55,159.31 477.17,195.9 488.09,217.37"];
	15 -- 79	[pos="428.45,137.2 416.04,157.38 395.34,191.03 382.97,211.15"];
	15 -- 83	[pos="411.7,120.72 396.41,120.88 377.34,121.09 362.01,121.26"];
	16	[height=0.5,
		pos="631.02,597.34",
		width=0.75];
	16 -- 43	[pos="654.5,588.42 679.08,579.08 717.47,564.49 742.13,555.12"];
	16 -- 47	[pos="627.74,615.3 624.17,634.76 618.52,665.65 614.95,685.14"];
	16 -- 48	[pos="630.3,579.25 629.07,548.42 626.59,486.08 625.36,455.14"];
	16 -- 61	[pos="640.21,614.5 647.57,628.22 657.83,647.38 665.18,661.1"];
	16 -- 77	[pos="609.51,586.34 584.96,573.79 545.03,553.37 520.48,540.81"];
	16 -- 81	[pos="608.02,606.95 593.7,612.94 575.35,620.6 561.02,626.59"];
}
