graph {
	graph [bb="0,0,724.88,616.12",
		outputorder=edgesfirst,
		overlap=prism,
		size="50,50!",
		start=2181
	];
	node [label="\N"];
	0	[height=0.5,
		pos="128.05,343.6",
		width=0.75];
	1	[height=0.5,
		pos="159.86,422.07",
		width=0.75];
	0 -- 1	[pos="135.11,361.01 140.35,373.92 147.45,391.46 152.71,404.43"];
	3	[height=0.5,
		pos="270.64,317.77",
		width=0.75];
	0 -- 3	[pos="154.21,338.86 179.77,334.23 218.5,327.22 244.17,322.57"];
	2	[height=0.5,
		pos="315.17,364.5",
		width=0.75];
	0 -- 2	[pos="154.86,346.59 190.43,350.56 252.86,357.54 288.41,361.51"];
	16	[height=0.5,
		pos="137.7,507.45",
		width=0.75];
	0 -- 16	[pos="129.12,361.76 130.98,393.25 134.77,457.65 136.63,489.21"];
	7	[height=0.5,
		pos="47.456,230.12",
		width=0.75];
	0 -- 7	[pos="116.16,326.85 100.84,305.27 74.357,267.99 59.135,246.56"];
	18	[height=0.5,
		pos="73.856,394.56",
		width=0.75];
	0 -- 18	[pos="112.38,358.34 105.25,365.04 96.831,372.96 89.685,379.68"];
	10	[height=0.5,
		pos="152.02,251.9",
		width=0.75];
	0 -- 10	[pos="132.79,325.48 137.02,309.3 143.18,285.74 147.38,269.67"];
	11	[height=0.5,
		pos="214.03,234.96",
		width=0.75];
	0 -- 11	[pos="140.74,327.57 157,307.03 185.01,271.63 201.29,251.05"];
	20	[height=0.5,
		pos="27,305.33",
		width=0.75];
	0 -- 20	[pos="104.36,334.62 88.144,328.48 66.73,320.37 50.544,314.24"];
	23	[height=0.5,
		pos="83.338,463.44",
		width=0.75];
	0 -- 23	[pos="121.46,361.28 113,383.94 98.431,422.99 89.963,445.69"];
	1 -- 3	[pos="175.73,407.12 196.79,387.3 233.76,352.5 254.8,332.69"];
	1 -- 2	[pos="183.78,413.2 213.05,402.35 262.3,384.09 291.47,373.28"];
	1 -- 16	[pos="155.16,440.18 151.37,454.76 146.08,475.16 142.32,489.66"];
	12	[height=0.5,
		pos="220.07,477.65",
		width=0.75];
	1 -- 12	[pos="175.68,436.67 184.46,444.78 195.35,454.83 204.14,462.95"];
	1 -- 18	[pos="135.44,414.26 123.82,410.54 109.96,406.11 98.332,402.39"];
	1 -- 23	[pos="138.54,433.59 127.93,439.33 115.14,446.25 104.54,451.98"];
	25	[height=0.5,
		pos="430.96,417.34",
		width=0.75];
	3 -- 25	[pos="290.62,330.18 321.43,349.31 380.18,385.8 410.98,404.93"];
	3 -- 7	[pos="247.18,308.56 204.32,291.72 113.82,256.18 70.94,239.34"];
	4	[height=0.5,
		pos="517.47,360.21",
		width=0.75];
	3 -- 4	[pos="297.06,322.31 344.57,330.48 443.88,347.56 491.24,355.7"];
	19	[height=0.5,
		pos="411.17,208.47",
		width=0.75];
	3 -- 19	[pos="288.44,303.93 315.47,282.91 366.57,243.16 393.52,222.2"];
	6	[height=0.5,
		pos="326.98,464.58",
		width=0.75];
	3 -- 6	[pos="277.44,335.48 288.27,363.7 309.32,418.55 320.16,446.81"];
	5	[height=0.5,
		pos="394.55,461.35",
		width=0.75];
	3 -- 5	[pos="284.14,333.41 307.97,361.03 357.25,418.12 381.07,445.73"];
	3 -- 12	[pos="265.04,335.49 255.32,366.23 235.44,429.07 225.7,459.85"];
	8	[height=0.5,
		pos="298.72,514.87",
		width=0.75];
	3 -- 8	[pos="273.24,335.96 278.58,373.51 290.79,459.22 296.13,496.73"];
	3 -- 18	[pos="247.3,326.88 209.42,341.66 135.03,370.69 97.173,385.46"];
	3 -- 10	[pos="249.71,306.15 228.16,294.18 194.76,275.64 173.14,263.63"];
	3 -- 11	[pos="259.19,301.01 249.3,286.55 235.1,265.78 225.28,251.41"];
	14	[height=0.5,
		pos="338.46,160.08",
		width=0.75];
	3 -- 14	[pos="278.16,300.3 291.2,269.98 317.85,208 330.91,177.64"];
	3 -- 20	[pos="243.64,316.39 196.81,314 101.04,309.11 54.126,306.71"];
	22	[height=0.5,
		pos="336.98,88.701",
		width=0.75];
	3 -- 22	[pos="275.85,299.8 288.25,256.98 319.42,149.33 331.8,106.59"];
	29	[height=0.5,
		pos="473.18,208.99",
		width=0.75];
	3 -- 29	[pos="291.94,306.34 330.83,285.44 412.96,241.34 451.87,220.44"];
	2 -- 3	[pos="300.59,349.2 295.72,344.09 290.29,338.39 285.41,333.27"];
	2 -- 16	[pos="297.83,378.46 263.9,405.79 189.1,466.05 155.11,493.43"];
	2 -- 25	[pos="337.49,374.69 357.86,383.98 387.83,397.66 408.31,407"];
	2 -- 19	[pos="325.44,347.8 343.82,317.93 382.14,255.65 400.68,225.52"];
	2 -- 6	[pos="317.33,382.85 319.46,400.91 322.7,428.32 324.83,446.34"];
	2 -- 5	[pos="328.27,380.49 342.98,398.44 366.71,427.38 381.42,445.33"];
	2 -- 12	[pos="301.94,380.23 283.88,401.73 251.65,440.07 233.48,461.69"];
	2 -- 8	[pos="313.18,382.64 310.02,411.54 303.87,467.73 300.71,496.67"];
	13	[height=0.5,
		pos="269.97,598.12",
		width=0.75];
	2 -- 13	[pos="311.69,382.44 303.28,425.93 281.87,536.57 273.45,580.12"];
	9	[height=0.5,
		pos="579.48,348.05",
		width=0.75];
	2 -- 9	[pos="342.46,362.8 393.24,359.64 501.67,352.9 552.33,349.74"];
	24	[height=0.5,
		pos="496.04,312.44",
		width=0.75];
	2 -- 24	[pos="340.31,357.26 374.87,347.31 436.66,329.53 471.1,319.62"];
	2 -- 10	[pos="296.13,351.36 264.69,329.66 202.29,286.59 170.93,264.95"];
	15	[height=0.5,
		pos="184.32,157.47",
		width=0.75];
	2 -- 15	[pos="304.68,347.91 280.18,309.14 219.4,212.99 194.85,174.14"];
	2 -- 11	[pos="302.56,348.35 283.18,323.53 246.27,276.25 226.79,251.31"];
	2 -- 14	[pos="317.23,346.36 321.65,307.57 331.98,216.94 336.39,178.18"];
	28	[height=0.5,
		pos="520.14,257.07",
		width=0.75];
	2 -- 28	[pos="336.71,353.2 376.18,332.52 459.63,288.78 498.88,268.21"];
	17	[height=0.5,
		pos="560.78,429.38",
		width=0.75];
	2 -- 17	[pos="340.52,371.2 387.71,383.66 488.47,410.28 535.55,422.72"];
	2 -- 23	[pos="292.09,374.35 247.65,393.31 150.68,434.7 106.32,453.63"];
	16 -- 23	[pos="120.5,493.53 114.16,488.39 106.97,482.57 100.61,477.43"];
	7 -- 20	[pos="42.608,247.94 39.371,259.85 35.129,275.44 31.884,287.37"];
	4 -- 25	[pos="498.27,372.89 484.03,382.29 464.7,395.06 450.4,404.5"];
	4 -- 19	[pos="505.89,343.68 485.44,314.49 443.17,254.15 422.73,224.98"];
	4 -- 5	[pos="500.38,374.27 477.03,393.49 435.37,427.76 411.89,447.08"];
	4 -- 9	[pos="543.41,355.12 546.72,354.47 550.12,353.81 553.44,353.16"];
	21	[height=0.5,
		pos="697.56,394.09",
		width=0.75];
	4 -- 21	[pos="543.66,365.14 577.8,371.56 637.18,382.73 671.34,389.16"];
	4 -- 24	[pos="509.61,342.69 507.75,338.54 505.76,334.11 503.9,329.96"];
	4 -- 28	[pos="517.95,341.77 518.43,323 519.18,294.06 519.67,275.35"];
	4 -- 17	[pos="527.95,376.95 534.66,387.67 543.34,401.53 550.09,412.31"];
	27	[height=0.5,
		pos="697.88,472.63",
		width=0.75];
	4 -- 27	[pos="537.47,372.67 572.24,394.34 643.43,438.7 678.07,460.28"];
	4 -- 29	[pos="512.21,342.27 503.69,313.17 486.95,256 478.43,226.91"];
	19 -- 24	[pos="424.43,224.72 440.37,244.25 466.97,276.83 482.87,296.31"];
	19 -- 28	[pos="433.75,218.54 452.45,226.88 478.9,238.67 497.59,247.01"];
	26	[height=0.5,
		pos="412.77,18",
		width=0.75];
	19 -- 26	[pos="411.32,190.21 411.63,153.8 412.31,72.57 412.62,36.208"];
	19 -- 22	[pos="400.85,191.82 386.76,169.07 361.62,128.48 347.44,105.6"];
	19 -- 29	[pos="438.19,208.7 440.8,208.72 443.45,208.74 446.06,208.76"];
	6 -- 25	[pos="349.54,454.33 366.98,446.41 391.01,435.49 408.44,427.57"];
	6 -- 12	[pos="300.28,467.85 283.95,469.84 263.13,472.39 246.8,474.39"];
	6 -- 8	[pos="317.41,481.61 314.46,486.85 311.22,492.62 308.27,497.87"];
	5 -- 25	[pos="407.69,445.46 410.95,441.52 414.45,437.3 417.71,433.35"];
	5 -- 6	[pos="367.46,462.64 363.05,462.86 358.49,463.07 354.08,463.29"];
	5 -- 8	[pos="373.76,472.96 357.68,481.94 335.53,494.31 319.47,503.28"];
	12 -- 13	[pos="227.32,495.17 236.78,518.01 253.24,557.73 262.7,580.58"];
	12 -- 18	[pos="199.43,465.92 171.72,450.18 122.76,422.35 94.863,406.5"];
	8 -- 12	[pos="276.39,504.31 265.67,499.23 252.87,493.18 242.18,488.12"];
	8 -- 13	[pos="292.62,532.53 287.74,546.66 280.93,566.37 276.05,580.49"];
	9 -- 21	[pos="602.81,357.15 623.37,365.17 653.2,376.8 673.88,384.86"];
	9 -- 24	[pos="556.68,338.32 544.9,333.3 530.58,327.19 518.81,322.16"];
	9 -- 28	[pos="568.59,331.37 557.89,314.95 541.64,290.03 530.96,273.65"];
	9 -- 17	[pos="575.33,366.1 572.23,379.58 568.01,397.92 564.91,411.39"];
	21 -- 27	[pos="697.64,412.31 697.69,425 697.76,441.85 697.81,454.51"];
	18 -- 20	[pos="64.822,377.36 56.525,361.55 44.295,338.26 36.007,322.48"];
	24 -- 28	[pos="503.67,294.92 506.48,288.46 509.67,281.13 512.48,274.66"];
	10 -- 15	[pos="158.09,234.14 163.87,217.26 172.5,192.01 178.27,175.15"];
	10 -- 11	[pos="177.24,245.01 181.13,243.95 185.15,242.85 189.03,241.79"];
	11 -- 15	[pos="207.29,217.38 202.42,204.7 195.89,187.65 191.03,174.99"];
	14 -- 19	[pos="357.94,173.05 368.46,180.05 381.39,188.66 391.88,195.64"];
	14 -- 26	[pos="347.42,142.94 361.7,115.63 389.47,62.546 403.77,35.199"];
	14 -- 22	[pos="338.08,142.07 337.86,131.33 337.58,117.74 337.36,106.96"];
	28 -- 29	[pos="505.28,241.85 499.8,236.24 493.59,229.89 488.1,224.27"];
	17 -- 25	[pos="533.88,426.89 511.6,424.82 480.09,421.9 457.82,419.83"];
	17 -- 21	[pos="586.18,422.83 610.75,416.49 647.77,406.94 672.29,400.61"];
	17 -- 24	[pos="551.36,412.38 539.09,390.21 517.74,351.65 505.46,329.47"];
	17 -- 27	[pos="585.29,437.12 610.09,444.94 648.23,456.97 673.12,464.82"];
	22 -- 26	[pos="352.68,74.052 365.6,61.998 383.84,44.988 396.82,32.874"];
}
