graph {
	graph [bb="0,0,1818.3,1467.5",
		outputorder=edgesfirst,
		overlap=prism,
		size="50,50!",
		start=9317
	];
	node [label="\N"];
	0	[height=0.5,
		pos="609.85,769.53",
		width=0.75];
	20	[height=0.5,
		pos="589.17,974.83",
		width=0.75];
	0 -- 20	[pos="608.01,787.75 604.09,826.71 594.92,917.73 591,956.65"];
	23	[height=0.5,
		pos="292.27,508.71",
		width=0.75];
	0 -- 23	[pos="592.77,755.51 537.63,710.22 364.69,568.19 309.43,522.8"];
	27	[height=0.5,
		pos="414.87,1009.4",
		width=0.75];
	0 -- 27	[pos="596.75,785.64 561.23,829.33 463.36,949.72 427.91,993.33"];
	30	[height=0.5,
		pos="509.69,591.85",
		width=0.75];
	0 -- 30	[pos="600.25,752.5 581.1,718.53 538.39,642.75 519.26,608.83"];
	31	[height=0.5,
		pos="299.74,830.21",
		width=0.75];
	0 -- 31	[pos="583.68,774.65 525.12,786.11 384.12,813.7 325.73,825.12"];
	6	[height=0.5,
		pos="780.67,989.85",
		width=0.75];
	0 -- 6	[pos="622.41,785.73 654,826.48 736.48,932.86 768.09,973.63"];
	33	[height=0.5,
		pos="352.11,963.51",
		width=0.75];
	0 -- 33	[pos="591.73,783.17 544.4,818.79 417.51,914.29 370.21,949.89"];
	36	[height=0.5,
		pos="931.44,632.41",
		width=0.75];
	0 -- 36	[pos="632.72,759.78 691.84,734.57 849.24,667.45 908.47,642.2"];
	37	[height=0.5,
		pos="840.75,863.93",
		width=0.75];
	0 -- 37	[pos="633.26,779.1 677.63,797.24 773.47,836.42 817.62,854.47"];
	38	[height=0.5,
		pos="1066.8,773.48",
		width=0.75];
	0 -- 38	[pos="637.06,769.77 718.33,770.47 958.62,772.55 1039.7,773.25"];
	39	[height=0.5,
		pos="573.19,679.93",
		width=0.75];
	0 -- 39	[pos="602.61,751.83 596.18,736.12 586.84,713.29 580.42,697.6"];
	40	[height=0.5,
		pos="690.95,723.79",
		width=0.75];
	0 -- 40	[pos="630.73,757.75 642.84,750.92 658.04,742.35 670.13,735.53"];
	41	[height=0.5,
		pos="405.96,500.29",
		width=0.75];
	0 -- 41	[pos="597.4,753.1 560.92,704.91 454.52,564.41 418.24,516.51"];
	43	[height=0.5,
		pos="779.61,924.24",
		width=0.75];
	0 -- 43	[pos="625.82,784.09 658.17,813.57 731.13,880.06 763.56,909.61"];
	45	[height=0.5,
		pos="578.04,901.14",
		width=0.75];
	0 -- 45	[pos="605.49,787.56 599.4,812.76 588.41,858.25 582.34,883.33"];
	47	[height=0.5,
		pos="642.63,930.79",
		width=0.75];
	0 -- 47	[pos="613.48,787.41 619.78,818.4 632.67,881.79 638.98,912.84"];
	17	[height=0.5,
		pos="1111.4,641.44",
		width=0.75];
	0 -- 17	[pos="635.07,763.09 720.78,741.2 1000.3,669.8 1086.1,647.89"];
	48	[height=0.5,
		pos="322.4,588.38",
		width=0.75];
	0 -- 48	[pos="590.09,757.08 537.58,723.99 394.97,634.11 342.3,600.92"];
	51	[height=0.5,
		pos="468.02,535.85",
		width=0.75];
	0 -- 51	[pos="599.65,752.73 573.54,709.72 504.53,596.01 478.32,552.82"];
	21	[height=0.5,
		pos="785.99,1033.9",
		width=0.75];
	20 -- 21	[pos="614.09,982.31 651.95,993.66 723.53,1015.1 761.27,1026.5"];
	24	[height=0.5,
		pos="313.07,313.19",
		width=0.75];
	23 -- 24	[pos="294.19,490.66 298.15,453.42 307.2,368.4 311.15,331.19"];
	28	[height=0.5,
		pos="305.94,1197.3",
		width=0.75];
	27 -- 28	[pos="405.01,1026.4 384.27,1062.2 336.35,1144.8 315.69,1180.5"];
	32	[height=0.5,
		pos="249.37,904.48",
		width=0.75];
	31 -- 32	[pos="288.56,846.69 280.21,859 268.85,875.75 260.51,888.04"];
	6 -- 17	[pos="795.31,974.43 850.07,916.75 1042.5,714.07 1096.9,656.68"];
	55	[height=0.5,
		pos="975.19,882.24",
		width=0.75];
	6 -- 55	[pos="801.49,978.34 838.83,957.68 916.78,914.55 954.23,893.84"];
	12	[height=0.5,
		pos="918.24,677.85",
		width=0.75];
	6 -- 12	[pos="788.46,972.19 812.68,917.27 886.44,749.98 910.53,695.33"];
	87	[height=0.5,
		pos="795.91,749.34",
		width=0.75];
	6 -- 87	[pos="781.82,971.78 784.64,927.2 791.91,812.42 794.75,767.63"];
	188	[height=0.5,
		pos="578.49,1033.2",
		width=0.75];
	6 -- 188	[pos="754.65,995.43 715.83,1003.8 643.17,1019.3 604.41,1027.7"];
	14	[height=0.5,
		pos="1190.8,822.18",
		width=0.75];
	6 -- 14	[pos="803.9,980.36 876,950.88 1095.5,861.15 1167.6,831.67"];
	219	[height=0.5,
		pos="677.12,1167.1",
		width=0.75];
	6 -- 219	[pos="770.74,1006.8 750.95,1040.7 706.79,1116.3 687.02,1150.1"];
	222	[height=0.5,
		pos="928.51,815.59",
		width=0.75];
	6 -- 222	[pos="794.05,974.08 822.13,940.99 886.91,864.63 915.06,831.45"];
	225	[height=0.5,
		pos="868.53,1253.8",
		width=0.75];
	6 -- 225	[pos="786.57,1007.6 802.58,1055.7 846.68,1188.1 862.65,1236.1"];
	229	[height=0.5,
		pos="1118.6,1167.8",
		width=0.75];
	6 -- 229	[pos="802.07,1001.1 862.86,1033.1 1036.1,1124.3 1097.1,1156.4"];
	232	[height=0.5,
		pos="526,945.14",
		width=0.75];
	6 -- 232	[pos="754.38,985.24 705.45,976.65 600.97,958.3 552.15,949.73"];
	234	[height=0.5,
		pos="547.83,776.46",
		width=0.75];
	6 -- 234	[pos="764.67,975.19 722.13,936.2 606.61,830.33 563.94,791.23"];
	236	[height=0.5,
		pos="801.58,1077.9",
		width=0.75];
	6 -- 236	[pos="784.9,1007.7 788.53,1022.9 793.73,1044.8 797.35,1060.1"];
	238	[height=0.5,
		pos="771.88,1246.1",
		width=0.75];
	6 -- 238	[pos="780.05,1007.9 778.44,1054.9 774.11,1181 772.49,1228.1"];
	242	[height=0.5,
		pos="326.85,918.5",
		width=0.75];
	6 -- 242	[pos="754.31,985.71 674.1,973.1 433.59,935.28 353.28,922.65"];
	246	[height=0.5,
		pos="765.61,704.62",
		width=0.75];
	6 -- 246	[pos="779.71,971.58 776.99,920.06 769.28,774.07 766.57,722.74"];
	120	[height=0.5,
		pos="709.84,1211.1",
		width=0.75];
	6 -- 120	[pos="775,1007.6 761.73,1049 728.84,1151.8 715.55,1193.3"];
	157	[height=0.5,
		pos="351.65,1023.4",
		width=0.75];
	6 -- 157	[pos="753.84,991.95 676.79,997.97 455.51,1015.3 378.48,1021.3"];
	34	[height=0.5,
		pos="286.7,1143.2",
		width=0.75];
	33 -- 34	[pos="345.72,981.07 333.22,1015.4 305.65,1091.2 293.12,1125.6"];
	42	[height=0.5,
		pos="557.5,351.93",
		width=0.75];
	41 -- 42	[pos="421.32,485.24 450.37,456.81 513.02,395.48 542.1,367.01"];
	44	[height=0.5,
		pos="1034.4,962.21",
		width=0.75];
	43 -- 44	[pos="806.4,928.23 855.46,935.54 959.18,951 1008,958.27"];
	46	[height=0.5,
		pos="733.56,880.21",
		width=0.75];
	45 -- 46	[pos="604.78,897.54 633.35,893.69 678.38,887.63 706.91,883.79"];
	105	[height=0.5,
		pos="1073.9,509.22",
		width=0.75];
	17 -- 105	[pos="1106.3,623.61 1099.2,598.37 1086.2,552.5 1079,527.19"];
	19	[height=0.5,
		pos="862.94,438.87",
		width=0.75];
	17 -- 19	[pos="1093.9,627.2 1048.2,589.91 925.4,489.79 880.06,452.83"];
	325	[height=0.5,
		pos="1312.9,667.77",
		width=0.75];
	17 -- 325	[pos="1138.2,644.94 1176.8,649.99 1247.8,659.27 1286.3,664.3"];
	339	[height=0.5,
		pos="912.08,588.39",
		width=0.75];
	17 -- 339	[pos="1086.2,634.72 1047.9,624.54 975.73,605.33 937.43,595.14"];
	385	[height=0.5,
		pos="1053.4,831.97",
		width=0.75];
	17 -- 385	[pos="1105.9,659.37 1094.9,695.77 1069.9,777.99 1058.8,814.24"];
	388	[height=0.5,
		pos="1011.9,496.64",
		width=0.75];
	17 -- 388	[pos="1100,624.83 1080.8,596.9 1042.3,540.86 1023.2,513.06"];
	81	[height=0.5,
		pos="1411,655.09",
		width=0.75];
	17 -- 81	[pos="1138.5,642.68 1195.4,645.27 1326.7,651.25 1383.7,653.85"];
	144	[height=0.5,
		pos="1144.3,877.54",
		width=0.75];
	17 -- 144	[pos="1113.9,659.57 1120.1,703.52 1135.7,815.33 1141.8,859.34"];
	184	[height=0.5,
		pos="988.65,408.59",
		width=0.75];
	17 -- 184	[pos="1102.4,624.32 1079.7,581.26 1020.4,468.83 997.69,425.74"];
	216	[height=0.5,
		pos="864.78,798.59",
		width=0.75];
	17 -- 216	[pos="1091.6,654.03 1045.5,683.46 930.91,756.45 884.64,785.94"];
	266	[height=0.5,
		pos="1063.4,876.69",
		width=0.75];
	17 -- 266	[pos="1107.7,659.51 1098.8,703.3 1076,814.7 1067.1,858.56"];
	290	[height=0.5,
		pos="1425,461.62",
		width=0.75];
	17 -- 290	[pos="1132,629.64 1188.8,597.06 1347.4,506.1 1404.3,473.47"];
	310	[height=0.5,
		pos="1484.8,839.16",
		width=0.75];
	17 -- 310	[pos="1132.5,652.64 1198.1,687.36 1397.5,792.96 1463.4,827.84"];
	362	[height=0.5,
		pos="1253.4,295.42",
		width=0.75];
	17 -- 362	[pos="1118.6,623.8 1143,564.45 1221.9,372.32 1246.2,313.02"];
	373	[height=0.5,
		pos="1499.5,732.19",
		width=0.75];
	17 -- 373	[pos="1137.2,647.46 1207.8,663.97 1403.7,709.79 1474,726.23"];
	381	[height=0.5,
		pos="1250.8,631.96",
		width=0.75];
	17 -- 381	[pos="1138.3,639.61 1162.8,637.94 1198.9,635.49 1223.5,633.82"];
	49	[height=0.5,
		pos="252.27,451.22",
		width=0.75];
	48 -- 49	[pos="313.66,571.29 300.22,545 274.63,494.94 261.12,468.53"];
	52	[height=0.5,
		pos="723.94,436.24",
		width=0.75];
	51 -- 52	[pos="491.64,526.66 540.39,507.69 651.67,464.37 700.38,445.41"];
	1	[height=0.5,
		pos="1073.6,729.46",
		width=0.75];
	2	[height=0.5,
		pos="886.46,500.33",
		width=0.75];
	1 -- 2	[pos="1060.4,713.35 1026.1,671.28 933.94,558.47 899.6,516.42"];
	3	[height=0.5,
		pos="716.68,1015",
		width=0.75];
	1 -- 3	[pos="1055.9,743.62 994.98,792.34 794.49,952.72 734.07,1001.1"];
	53	[height=0.5,
		pos="778.39,629.59",
		width=0.75];
	1 -- 53	[pos="1049.4,721.29 994.07,702.56 858.56,656.71 802.88,637.88"];
	54	[height=0.5,
		pos="750.09,836.19",
		width=0.75];
	1 -- 54	[pos="1049.3,737.48 989.32,757.26 834.93,808.2 774.69,828.07"];
	1 -- 55	[pos="1062.9,746.1 1043.9,775.49 1004.8,836.24 985.89,865.62"];
	56	[height=0.5,
		pos="1177,1081.9",
		width=0.75];
	1 -- 56	[pos="1078.8,747.42 1096.6,807.88 1154,1003.6 1171.8,1064"];
	60	[height=0.5,
		pos="1468.1,607.26",
		width=0.75];
	1 -- 60	[pos="1098.3,721.81 1169.1,699.87 1372.6,636.84 1443.4,614.9"];
	64	[height=0.5,
		pos="1275.1,855.64",
		width=0.75];
	1 -- 64	[pos="1093.3,741.79 1131.8,765.91 1216.7,819.1 1255.3,843.26"];
	66	[height=0.5,
		pos="1324.6,750.45",
		width=0.75];
	1 -- 66	[pos="1100.4,731.7 1148.6,735.73 1249.2,744.15 1297.5,748.19"];
	67	[height=0.5,
		pos="1238.9,434.65",
		width=0.75];
	1 -- 67	[pos="1083.2,712.33 1112.4,660.23 1200,503.99 1229.3,451.82"];
	1 -- 12	[pos="1049.3,721.39 1020.2,711.73 971.73,695.62 942.6,685.94"];
	71	[height=0.5,
		pos="963.1,320.56",
		width=0.75];
	1 -- 71	[pos="1068.8,711.63 1050.6,644.3 986.18,405.97 967.95,338.49"];
	75	[height=0.5,
		pos="1250.9,766.45",
		width=0.75];
	1 -- 75	[pos="1099.4,734.84 1133,741.85 1191.5,754.05 1225.1,761.07"];
	76	[height=0.5,
		pos="1340.9,837.06",
		width=0.75];
	1 -- 76	[pos="1096.8,738.82 1147.4,759.17 1266.8,807.24 1317.5,827.64"];
	16	[height=0.5,
		pos="903.94,930.51",
		width=0.75];
	1 -- 16	[pos="1060.3,745.23 1028.6,782.82 948.84,877.3 917.19,914.81"];
	79	[height=0.5,
		pos="1374.9,704.76",
		width=0.75];
	1 -- 79	[pos="1100.6,727.25 1157.8,722.56 1290.6,711.67 1347.9,706.98"];
	18	[height=0.5,
		pos="712.96,530.98",
		width=0.75];
	1 -- 18	[pos="1052.6,717.93 988.9,682.85 797.78,577.66 733.97,542.54"];
	82	[height=0.5,
		pos="1176.9,477.04",
		width=0.75];
	1 -- 82	[pos="1080.8,711.71 1099.9,665.25 1150.9,540.5 1169.8,494.44"];
	22	[height=0.5,
		pos="967.31,930.78",
		width=0.75];
	1 -- 22	[pos="1064.5,746.62 1044.4,784.66 996.41,875.66 976.35,913.66"];
	2 -- 16	[pos="887.2,518.54 890.05,588.74 900.32,841.43 903.19,912.06"];
	84	[height=0.5,
		pos="733.88,792.15",
		width=0.75];
	2 -- 84	[pos="877.37,517.71 850.23,569.61 769.99,723.08 742.92,774.86"];
	4	[height=0.5,
		pos="635.85,518.95",
		width=0.75];
	2 -- 4	[pos="859.16,502.36 810.83,505.95 710.77,513.39 662.73,516.96"];
	85	[height=0.5,
		pos="592.07,576.1",
		width=0.75];
	2 -- 85	[pos="861.11,506.85 805.46,521.18 673.16,555.23 617.47,569.56"];
	2 -- 87	[pos="880.09,517.84 863.51,563.45 819.1,685.56 802.39,731.52"];
	7	[height=0.5,
		pos="708.8,968.24",
		width=0.75];
	2 -- 7	[pos="879.82,517.82 851.85,591.48 743.78,876.11 715.57,950.41"];
	88	[height=0.5,
		pos="1124,421.12",
		width=0.75];
	2 -- 88	[pos="910.98,492.15 956.62,476.93 1054.1,444.44 1099.6,429.25"];
	89	[height=0.5,
		pos="1263.6,482.46",
		width=0.75];
	2 -- 89	[pos="913.58,499.04 983.07,495.75 1166.9,487.04 1236.4,483.74"];
	93	[height=0.5,
		pos="1316,388.61",
		width=0.75];
	2 -- 93	[pos="911.73,493.76 987.89,473.95 1214.7,414.97 1290.8,395.17"];
	97	[height=0.5,
		pos="635.31,273.63",
		width=0.75];
	2 -- 97	[pos="870.37,485.8 825.11,444.95 697.08,329.39 651.59,288.33"];
	101	[height=0.5,
		pos="1008.1,276.54",
		width=0.75];
	2 -- 101	[pos="895.8,483.14 918.5,441.38 976.33,334.98 998.89,293.48"];
	13	[height=0.5,
		pos="738.1,391.76",
		width=0.75];
	2 -- 13	[pos="868.27,487.02 839.8,466.18 785.01,426.09 756.44,405.19"];
	104	[height=0.5,
		pos="1067.8,597.4",
		width=0.75];
	2 -- 104	[pos="907.62,511.65 942.46,530.31 1011.5,567.29 1046.5,586"];
	15	[height=0.5,
		pos="942.7,769.14",
		width=0.75];
	2 -- 15	[pos="890.24,518.38 900.48,567.35 928.71,702.28 938.93,751.16"];
	2 -- 105	[pos="913.72,501.62 949.36,503.31 1011.4,506.26 1046.9,507.94"];
	106	[height=0.5,
		pos="804.92,221.3",
		width=0.75];
	2 -- 106	[pos="881.24,482.45 866.51,432.05 824.78,289.24 810.1,239.03"];
	110	[height=0.5,
		pos="883.55,295.36",
		width=0.75];
	2 -- 110	[pos="886.2,482.14 885.65,443.24 884.36,352.37 883.81,313.51"];
	26	[height=0.5,
		pos="697.33,294.54",
		width=0.75];
	2 -- 26	[pos="872.25,484.86 837.11,446.63 746.49,348.03 711.46,309.9"];
	3 -- 12	[pos="726.95,997.78 761.61,939.82 873.96,751.91 908.23,694.6"];
	3 -- 16	[pos="739.27,1004.8 775.36,988.5 845.61,956.82 881.57,940.6"];
	3 -- 84	[pos="718.09,996.73 721.32,954.85 729.25,852.15 732.47,810.32"];
	113	[height=0.5,
		pos="444.42,929.91",
		width=0.75];
	3 -- 113	[pos="692.04,1007.3 640.33,991.11 521.03,953.84 469.2,937.65"];
	115	[height=0.5,
		pos="560.65,1121.2",
		width=0.75];
	3 -- 115	[pos="697.55,1028 667.6,1048.4 609.98,1087.6 579.94,1108.1"];
	117	[height=0.5,
		pos="675.9,1255.4",
		width=0.75];
	3 -- 117	[pos="713.62,1033 706.04,1077.7 686.5,1192.9 678.95,1237.5"];
	121	[height=0.5,
		pos="594.17,1255.7",
		width=0.75];
	3 -- 121	[pos="707.87,1032.3 685.27,1076.7 625.41,1194.3 602.9,1238.5"];
	8	[height=0.5,
		pos="1202.4,526.59",
		width=0.75];
	3 -- 8	[pos="731.75,999.81 803.96,927.2 1114.1,615.33 1187,542.05"];
	125	[height=0.5,
		pos="877.08,1297.8",
		width=0.75];
	3 -- 125	[pos="726.23,1031.8 754.7,1082 838.72,1230.1 867.37,1280.6"];
	129	[height=0.5,
		pos="1010.1,1184.5",
		width=0.75];
	3 -- 129	[pos="737.32,1026.9 791.2,1058 935.67,1141.5 989.52,1172.6"];
	132	[height=0.5,
		pos="424.99,1055.5",
		width=0.75];
	3 -- 132	[pos="690.02,1018.7 634.47,1026.4 506.89,1044.1 451.49,1051.8"];
	135	[height=0.5,
		pos="376.97,874.4",
		width=0.75];
	3 -- 135	[pos="693.6,1005.4 631.62,979.77 462.1,909.62 400.09,883.97"];
	138	[height=0.5,
		pos="944.08,1107.1",
		width=0.75];
	3 -- 138	[pos="740.16,1024.5 783.85,1042.2 877.14,1079.9 920.73,1097.6"];
	140	[height=0.5,
		pos="819.99,1180.7",
		width=0.75];
	3 -- 140	[pos="727.15,1031.8 746.96,1063.5 789.66,1132 809.49,1163.8"];
	143	[height=0.5,
		pos="974.39,1019",
		width=0.75];
	3 -- 143	[pos="743.77,1015.4 793.27,1016.2 897.76,1017.8 947.27,1018.6"];
	145	[height=0.5,
		pos="285.59,975.79",
		width=0.75];
	3 -- 145	[pos="689.71,1012.5 612.3,1005.5 389.95,985.28 312.55,978.24"];
	149	[height=0.5,
		pos="311.39,874.23",
		width=0.75];
	3 -- 149	[pos="692.54,1006.6 620.46,981.55 407.32,907.54 335.4,882.57"];
	29	[height=0.5,
		pos="511.68,1165.2",
		width=0.75];
	3 -- 29	[pos="698.49,1028.3 659.68,1056.7 569.16,1123.1 530.13,1151.7"];
	57	[height=0.5,
		pos="1134.9,1384.9",
		width=0.75];
	56 -- 57	[pos="1174.5,1100 1167,1153.9 1144.9,1313.2 1137.4,1367"];
	61	[height=0.5,
		pos="1633.3,518.75",
		width=0.75];
	60 -- 61	[pos="1489.4,595.87 1521.1,578.87 1580.5,547.07 1612.2,530.1"];
	65	[height=0.5,
		pos="1318.5,1016.7",
		width=0.75];
	64 -- 65	[pos="1279.9,873.49 1288.2,904.45 1305.3,967.75 1313.6,998.76"];
	68	[height=0.5,
		pos="1327.7,224.53",
		width=0.75];
	67 -- 68	[pos="1246.3,417.09 1263.1,377.44 1303.7,281.34 1320.4,241.88"];
	12 -- 40	[pos="892.17,683.12 848.44,691.96 760.82,709.67 717.07,718.51"];
	12 -- 17	[pos="944.29,672.94 981.16,665.99 1048.2,653.36 1085.1,646.39"];
	12 -- 13	[pos="907.78,661.23 875.94,610.67 780.47,459.05 748.59,408.43"];
	12 -- 14	[pos="939.63,689.18 990.58,716.16 1118.7,783.98 1169.5,810.91"];
	278	[height=0.5,
		pos="1068,553.38",
		width=0.75];
	12 -- 278	[pos="935.42,663.57 964.32,639.56 1022.3,591.39 1051.1,567.49"];
	332	[height=0.5,
		pos="716.21,618.31",
		width=0.75];
	12 -- 332	[pos="893.47,670.55 854.69,659.12 780.08,637.14 741.18,625.67"];
	343	[height=0.5,
		pos="1011.5,721.33",
		width=0.75];
	12 -- 343	[pos="940.82,688.37 955.49,695.21 974.53,704.08 989.16,710.9"];
	344	[height=0.5,
		pos="1164.3,970.45",
		width=0.75];
	12 -- 344	[pos="931.47,693.58 974.19,744.39 1108.2,903.73 1151,954.64"];
	348	[height=0.5,
		pos="804.67,524.47",
		width=0.75];
	12 -- 348	[pos="906.09,661.44 884.23,631.91 838.53,570.2 816.74,540.77"];
	349	[height=0.5,
		pos="974.36,364.57",
		width=0.75];
	12 -- 349	[pos="921.5,659.65 931.42,604.28 961.16,438.26 971.09,382.82"];
	103	[height=0.5,
		pos="1061.3,385.32",
		width=0.75];
	12 -- 103	[pos="926.76,660.43 952.21,608.4 1027.4,454.56 1052.8,402.65"];
	171	[height=0.5,
		pos="704.33,486.31",
		width=0.75];
	12 -- 171	[pos="901.81,663.14 861.89,627.4 760.19,536.33 720.52,500.81"];
	207	[height=0.5,
		pos="508.56,640.04",
		width=0.75];
	12 -- 207	[pos="891.36,675.37 817.13,668.52 609.89,649.39 535.54,642.53"];
	256	[height=0.5,
		pos="912.24,1019",
		width=0.75];
	12 -- 256	[pos="917.92,696.19 916.87,755.57 913.59,942.1 912.55,1001"];
	295	[height=0.5,
		pos="1128.8,799.23",
		width=0.75];
	12 -- 295	[pos="938.81,689.71 979.07,712.91 1067.8,764.08 1108.2,787.32"];
	315	[height=0.5,
		pos="1236.2,679.07",
		width=0.75];
	12 -- 315	[pos="945.35,677.96 1005.4,678.19 1149.2,678.74 1209.2,678.97"];
	72	[height=0.5,
		pos="793.65,81.411",
		width=0.75];
	71 -- 72	[pos="951.46,304.12 920.5,260.43 836.43,141.78 805.38,97.963"];
	77	[height=0.5,
		pos="1356.9,972.67",
		width=0.75];
	76 -- 77	[pos="1343,855.07 1346.1,881 1351.7,928.61 1354.8,954.59"];
	16 -- 47	[pos="876.47,930.54 826.15,930.59 719.78,930.71 669.74,930.76"];
	16 -- 18	[pos="895.74,913.34 864.47,847.92 752.94,614.61 721.35,548.54"];
	264	[height=0.5,
		pos="850.21,1033.7",
		width=0.75];
	16 -- 264	[pos="895.07,947.55 885.11,966.67 869.06,997.51 859.09,1016.6"];
	338	[height=0.5,
		pos="671.87,796.57",
		width=0.75];
	16 -- 338	[pos="883.35,918.62 839.31,893.21 736.41,833.82 692.42,808.43"];
	16 -- 385	[pos="923.18,917.83 951.72,899.01 1005,863.89 1033.8,844.92"];
	386	[height=0.5,
		pos="934.8,724.15",
		width=0.75];
	16 -- 386	[pos="906.63,912.56 912.46,873.53 926.25,781.33 932.1,742.2"];
	182	[height=0.5,
		pos="487,1033.2",
		width=0.75];
	16 -- 182	[pos="878.49,936.78 803.97,955.13 586.82,1008.6 512.38,1026.9"];
	214	[height=0.5,
		pos="736.45,1096.5",
		width=0.75];
	16 -- 214	[pos="888.78,945.53 857.06,976.96 783.95,1049.4 751.94,1081.1"];
	241	[height=0.5,
		pos="932.86,1226.1",
		width=0.75];
	16 -- 241	[pos="905.71,948.55 910.87,1001.3 925.9,1155 931.08,1207.9"];
	286	[height=0.5,
		pos="1239,993.87",
		width=0.75];
	16 -- 286	[pos="929.95,935.43 992.37,947.23 1150.1,977.07 1212.7,988.91"];
	306	[height=0.5,
		pos="1074.1,1211.8",
		width=0.75];
	16 -- 306	[pos="914.08,947.26 944.27,997.17 1033.4,1144.5 1063.8,1194.8"];
	324	[height=0.5,
		pos="1232.1,1037.9",
		width=0.75];
	16 -- 324	[pos="928.34,938.49 989.08,958.37 1146.6,1009.9 1207.5,1029.9"];
	347	[height=0.5,
		pos="1180.6,1201.6",
		width=0.75];
	16 -- 347	[pos="919.21,945.47 967.58,992.86 1117.1,1139.3 1165.4,1186.7"];
	358	[height=0.5,
		pos="547.83,828.39",
		width=0.75];
	16 -- 358	[pos="878.9,923.33 813.52,904.58 638.2,854.31 572.85,835.57"];
	369	[height=0.5,
		pos="1180.6,1149.4",
		width=0.75];
	16 -- 369	[pos="921.67,944.54 971.64,984.08 1113.2,1096.1 1163,1135.5"];
	80	[height=0.5,
		pos="1594.3,671.58",
		width=0.75];
	79 -- 80	[pos="1401.4,700.76 1443.5,694.38 1525.5,681.99 1567.7,675.6"];
	291	[height=0.5,
		pos="1022.6,452.6",
		width=0.75];
	18 -- 291	[pos="738.31,524.57 796.52,509.83 939.25,473.71 997.38,458.99"];
	18 -- 348	[pos="739.98,529.06 751.82,528.22 765.68,527.24 777.53,526.4"];
	18 -- 388	[pos="739.75,527.9 796.5,521.38 928.26,506.25 985.05,499.72"];
	389	[height=0.5,
		pos="536.47,263.53",
		width=0.75];
	18 -- 389	[pos="701.92,514.25 670.23,466.22 579.2,328.28 547.51,280.25"];
	50	[height=0.5,
		pos="465.32,412.25",
		width=0.75];
	18 -- 50	[pos="690.99,520.45 643.99,497.91 534.2,445.27 487.25,422.76"];
	109	[height=0.5,
		pos="644.5,229.63",
		width=0.75];
	18 -- 109	[pos="708.89,513.03 696.71,459.43 660.71,300.96 648.56,247.48"];
	148	[height=0.5,
		pos="354.3,544.33",
		width=0.75];
	18 -- 148	[pos="686.01,531.99 619.54,534.46 448.36,540.83 381.57,543.32"];
	186	[height=0.5,
		pos="644.28,385.91",
		width=0.75];
	18 -- 186	[pos="704.81,513.77 691.6,485.85 665.63,431.01 652.42,403.1"];
	245	[height=0.5,
		pos="350.82,452.81",
		width=0.75];
	18 -- 245	[pos="687.21,525.42 620.63,511.05 443.38,472.79 376.68,458.39"];
	268	[height=0.5,
		pos="636.24,671.63",
		width=0.75];
	18 -- 268	[pos="703.71,547.95 688.96,574.98 660.29,627.53 645.53,654.61"];
	328	[height=0.5,
		pos="1132.2,343.04",
		width=0.75];
	18 -- 328	[pos="735.5,520.88 808.29,488.24 1036.6,385.89 1109.5,353.19"];
	342	[height=0.5,
		pos="573.26,307.58",
		width=0.75];
	18 -- 342	[pos="702.46,514.19 676.51,472.69 609.57,365.65 583.69,324.26"];
	377	[height=0.5,
		pos="1004.3,228.3",
		width=0.75];
	18 -- 377	[pos="727.81,515.56 777.78,463.63 939.54,295.57 989.47,243.69"];
	383	[height=0.5,
		pos="800.39,430.22",
		width=0.75];
	18 -- 383	[pos="726.62,515.24 743.05,496.31 770.44,464.73 786.83,445.85"];
	83	[height=0.5,
		pos="1070.1,310.69",
		width=0.75];
	82 -- 83	[pos="1166.2,460.49 1145.9,428.76 1101.6,359.73 1081,327.68"];
	4 -- 30	[pos="615.3,530.83 591.84,544.38 553.69,566.43 530.23,579.98"];
	4 -- 53	[pos="653.61,532.74 680.93,553.94 732.95,594.32 760.4,615.63"];
	153	[height=0.5,
		pos="471.63,690.91",
		width=0.75];
	4 -- 153	[pos="621.27,534.21 590.19,566.76 517.67,642.7 486.41,675.44"];
	154	[height=0.5,
		pos="181.3,610.34",
		width=0.75];
	4 -- 154	[pos="609.78,524.2 529.6,540.31 287.29,589.03 207.26,605.12"];
	158	[height=0.5,
		pos="587.68,724.8",
		width=0.75];
	4 -- 158	[pos="631.66,536.86 622.55,575.79 601.03,667.76 591.89,706.79"];
	159	[height=0.5,
		pos="759.34,307.68",
		width=0.75];
	4 -- 159	[pos="645.74,502.02 668.87,462.46 726.23,364.34 749.4,324.7"];
	9	[height=0.5,
		pos="1113.7,921.69",
		width=0.75];
	4 -- 9	[pos="652.85,533.29 727.18,595.92 1023,845.23 1096.9,907.52"];
	162	[height=0.5,
		pos="945.87,275.47",
		width=0.75];
	4 -- 162	[pos="653.4,505.17 707.84,462.41 873.42,332.37 928.12,289.41"];
	166	[height=0.5,
		pos="375.17,320.43",
		width=0.75];
	4 -- 166	[pos="617.93,505.31 570.31,469.04 440.98,370.55 393.21,334.17"];
	170	[height=0.5,
		pos="661.81,430.23",
		width=0.75];
	4 -- 170	[pos="641.1,501 645.6,485.61 652.06,463.54 656.56,448.16"];
	172	[height=0.5,
		pos="403.33,272.32",
		width=0.75];
	4 -- 172	[pos="621.3,503.53 579.55,459.23 459.62,332.02 417.87,287.74"];
	176	[height=0.5,
		pos="852.03,635.82",
		width=0.75];
	4 -- 176	[pos="656.97,530.37 698.3,552.71 789.43,601.98 830.82,624.36"];
	177	[height=0.5,
		pos="530.07,544.63",
		width=0.75];
	4 -- 177	[pos="610.24,525.17 593.61,529.21 572.02,534.45 555.44,538.47"];
	179	[height=0.5,
		pos="214.76,661.08",
		width=0.75];
	4 -- 179	[pos="611.69,527.11 537.51,552.14 313.48,627.76 239.08,652.87"];
	183	[height=0.5,
		pos="800.15,363.66",
		width=0.75];
	4 -- 183	[pos="651.6,504.06 682.93,474.46 752.72,408.49 784.21,378.74"];
	185	[height=0.5,
		pos="488.97,307.85",
		width=0.75];
	4 -- 185	[pos="624.32,502.39 596.87,462.93 527.85,363.72 500.45,324.34"];
	187	[height=0.5,
		pos="692.41,341.17",
		width=0.75];
	4 -- 187	[pos="641.48,501.26 652.32,467.18 675.98,392.81 686.81,358.79"];
	114	[height=0.5,
		pos="400.38,729.1",
		width=0.75];
	4 -- 114	[pos="619.66,533.4 576.65,571.79 459.82,676.05 416.68,714.55"];
	86	[height=0.5,
		pos="477.79,735.1",
		width=0.75];
	85 -- 86	[pos="580.27,592.52 558.37,622.98 511.68,687.95 489.7,718.54"];
	7 -- 158	[pos="700.28,951.12 678.04,906.42 618.41,786.57 596.19,741.9"];
	247	[height=0.5,
		pos="1004.7,787.48",
		width=0.75];
	7 -- 247	[pos="729.14,955.82 783.33,922.71 930.73,832.68 984.63,799.75"];
	248	[height=0.5,
		pos="867.73,1077.8",
		width=0.75];
	7 -- 248	[pos="727.65,981.24 758.24,1002.3 818.32,1043.8 848.9,1064.8"];
	250	[height=0.5,
		pos="1085.7,1123.7",
		width=0.75];
	7 -- 250	[pos="731.81,977.73 799.1,1005.5 995.01,1086.3 1062.5,1114.2"];
	11	[height=0.5,
		pos="654.15,616.81",
		width=0.75];
	7 -- 11	[pos="706.01,950.33 696.66,890.18 666.44,695.82 657,635.1"];
	253	[height=0.5,
		pos="757.81,1164.4",
		width=0.75];
	7 -- 253	[pos="713.32,986.34 722.68,1023.8 744.08,1109.4 753.37,1146.6"];
	257	[height=0.5,
		pos="423.78,779.14",
		width=0.75];
	7 -- 257	[pos="689.65,955.54 637.86,921.17 495.35,826.62 443.22,792.03"];
	260	[height=0.5,
		pos="944.81,1151.1",
		width=0.75];
	7 -- 260	[pos="726.54,981.98 770.38,1015.9 883.46,1103.5 927.19,1137.4"];
	263	[height=0.5,
		pos="841.75,930.99",
		width=0.75];
	7 -- 263	[pos="733.8,961.23 757.57,954.57 793.12,944.61 816.85,937.96"];
	7 -- 264	[pos="731.2,978.61 757.68,990.87 801.47,1011.1 827.91,1023.4"];
	265	[height=0.5,
		pos="939.22,974.93",
		width=0.75];
	7 -- 265	[pos="736.13,969.03 780.48,970.32 867.59,972.85 911.91,974.14"];
	267	[height=0.5,
		pos="480.13,832.73",
		width=0.75];
	7 -- 267	[pos="688.5,956.21 645.11,930.5 543.73,870.42 500.38,844.72"];
	7 -- 19	[pos="714.01,950.32 737.6,869.32 834.14,537.77 857.72,456.78"];
	35	[height=0.5,
		pos="505.39,1077.2",
		width=0.75];
	7 -- 35	[pos="687.41,979.69 648.24,1000.7 565.44,1045 526.48,1065.9"];
	59	[height=0.5,
		pos="882.76,1182",
		width=0.75];
	7 -- 59	[pos="721.87,984.31 754.19,1024 837.54,1126.5 869.77,1166.1"];
	124	[height=0.5,
		pos="568.08,1209.3",
		width=0.75];
	7 -- 124	[pos="698.9,985.19 673.06,1029.4 603.79,1148.1 577.96,1192.3"];
	191	[height=0.5,
		pos="452.81,1121.2",
		width=0.75];
	7 -- 191	[pos="688.28,980.5 640.23,1009.2 520.86,1080.5 473.07,1109.1"];
	221	[height=0.5,
		pos="610.29,1165.2",
		width=0.75];
	7 -- 221	[pos="700.23,985.38 681.6,1022.6 637.59,1110.6 618.91,1148"];
	90	[height=0.5,
		pos="1558.5,582.64",
		width=0.75];
	89 -- 90	[pos="1287.7,490.66 1343.1,509.49 1479.1,555.66 1534.5,574.47"];
	94	[height=0.5,
		pos="1549.4,416.08",
		width=0.75];
	93 -- 94	[pos="1342.8,391.76 1387.7,397.05 1477.6,407.64 1522.6,412.93"];
	98	[height=0.5,
		pos="560.8,127.82",
		width=0.75];
	97 -- 98	[pos="626.47,256.33 612.13,228.27 583.96,173.14 569.63,145.1"];
	102	[height=0.5,
		pos="1134.4,256.98",
		width=0.75];
	101 -- 102	[pos="1034.6,272.44 1056.1,269.1 1086.4,264.41 1108,261.07"];
	13 -- 18	[pos="734.87,409.68 730.07,436.26 721.1,485.89 716.27,512.69"];
	13 -- 15	[pos="747.42,408.96 781.51,471.83 899.15,688.81 933.32,751.84"];
	316	[height=0.5,
		pos="1140.1,521.43",
		width=0.75];
	13 -- 316	[pos="762.64,399.68 834.5,422.86 1043.9,490.39 1115.6,513.54"];
	352	[height=0.5,
		pos="967.03,120.7",
		width=0.75];
	13 -- 352	[pos="751.4,376.02 791.86,328.11 913.18,184.45 953.69,136.49"];
	356	[height=0.5,
		pos="549.38,441.18",
		width=0.75];
	13 -- 356	[pos="712.65,398.43 676.53,407.89 610.79,425.1 574.73,434.54"];
	359	[height=0.5,
		pos="856.58,99.37",
		width=0.75];
	13 -- 359	[pos="745.16,374.35 766.18,322.47 828.24,169.31 849.41,117.06"];
	363	[height=0.5,
		pos="622.94,179.67",
		width=0.75];
	13 -- 363	[pos="728.87,374.77 707.31,335.05 653.82,236.54 632.22,196.75"];
	13 -- 42	[pos="712.23,386.06 677.89,378.48 617.64,365.19 583.33,357.63"];
	74	[height=0.5,
		pos="640.88,134.95",
		width=0.75];
	13 -- 74	[pos="731.42,374.11 713.66,327.2 665.43,199.79 647.61,152.73"];
	137	[height=0.5,
		pos="414.82,456.26",
		width=0.75];
	13 -- 137	[pos="712.19,396.93 651.66,409.01 501.51,438.97 440.86,451.07"];
	175	[height=0.5,
		pos="541.88,205.12",
		width=0.75];
	13 -- 175	[pos="722.38,376.81 685.54,341.77 594.04,254.74 557.41,219.89"];
	209	[height=0.5,
		pos="482.99,476.14",
		width=0.75];
	13 -- 209	[pos="713.64,399.85 664.88,415.98 556.08,451.96 507.38,468.07"];
	235	[height=0.5,
		pos="545.59,494.92",
		width=0.75];
	13 -- 235	[pos="716.76,403.2 679.66,423.08 603.69,463.79 566.73,483.6"];
	259	[height=0.5,
		pos="433.33,364.72",
		width=0.75];
	13 -- 259	[pos="711.32,389.39 653.66,384.27 518.28,372.26 460.38,367.12"];
	281	[height=0.5,
		pos="891.27,143.38",
		width=0.75];
	13 -- 281	[pos="748.39,375.08 776.23,329.94 852.81,205.75 880.83,160.32"];
	297	[height=0.5,
		pos="800.92,480.45",
		width=0.75];
	13 -- 297	[pos="749.92,408.44 761.22,424.4 778.16,448.31 789.37,464.14"];
	15 -- 16	[pos="938.4,787.02 930.95,818.04 915.72,881.47 908.26,912.54"];
	15 -- 263	[pos="932.27,785.85 912.93,816.86 871.68,883 852.27,914.12"];
	15 -- 343	[pos="961.51,756.07 971.22,749.33 983.04,741.12 992.75,734.37"];
	380	[height=0.5,
		pos="1173.2,720.35",
		width=0.75];
	15 -- 380	[pos="968.68,763.64 1013.1,754.24 1102.9,735.21 1147.3,725.83"];
	382	[height=0.5,
		pos="878.2,544.35",
		width=0.75];
	15 -- 382	[pos="937.53,751.12 925.42,708.93 895.34,604.11 883.3,562.14"];
	384	[height=0.5,
		pos="974.12,584.67",
		width=0.75];
	15 -- 384	[pos="945.77,751.11 951.77,715.85 965.02,638.09 971.04,602.76"];
	15 -- 46	[pos="921.49,780.4 881.41,801.69 794.95,847.61 754.82,868.92"];
	78	[height=0.5,
		pos="1224.1,910.63",
		width=0.75];
	15 -- 78	[pos="964.31,780 1016.7,806.34 1150,873.35 1202.4,899.73"];
	142	[height=0.5,
		pos="967.8,1063",
		width=0.75];
	15 -- 142	[pos="944.27,787.52 948.79,840.43 961.79,992.62 966.27,1045"];
	178	[height=0.5,
		pos="703.09,662.47",
		width=0.75];
	15 -- 178	[pos="920.15,759.1 874.49,738.77 771.51,692.93 725.75,672.56"];
	211	[height=0.5,
		pos="705.73,924.23",
		width=0.75];
	15 -- 211	[pos="923.3,781.83 878.76,810.99 769.54,882.47 725.06,911.58"];
	237	[height=0.5,
		pos="873.03,975.02",
		width=0.75];
	15 -- 237	[pos="936.64,787.05 923.43,826.08 892.18,918.43 879.03,957.3"];
	303	[height=0.5,
		pos="1099.6,980.36",
		width=0.75];
	15 -- 303	[pos="954.75,785.36 983.95,824.68 1058.3,924.7 1087.5,964.08"];
	322	[height=0.5,
		pos="1337.1,884.63",
		width=0.75];
	15 -- 322	[pos="967.67,776.45 1038.7,797.25 1241.3,856.59 1312.2,877.35"];
	337	[height=0.5,
		pos="609.86,832.24",
		width=0.75];
	15 -- 337	[pos="916.58,774.09 854.36,785.88 697.95,815.54 635.86,827.31"];
	366	[height=0.5,
		pos="1213,866.19",
		width=0.75];
	15 -- 366	[pos="966.68,777.75 1018,796.17 1137.8,839.2 1189.1,857.6"];
	107	[height=0.5,
		pos="718.76,39.453",
		width=0.75];
	106 -- 107	[pos="796.66,203.86 780.19,169.1 743.44,91.55 726.99,56.836"];
	111	[height=0.5,
		pos="916.73,55.112",
		width=0.75];
	110 -- 111	[pos="886.05,277.3 892.21,232.67 908.11,117.56 914.25,73.051"];
	113 -- 114	[pos="440.51,912.09 432.17,874.08 412.72,785.4 404.34,747.17"];
	116	[height=0.5,
		pos="362.99,1068",
		width=0.75];
	115 -- 116	[pos="535.21,1114.4 497.26,1104.1 426.22,1085 388.33,1074.8"];
	118	[height=0.5,
		pos="617.83,1394.5",
		width=0.75];
	117 -- 118	[pos="668.55,1273 657.38,1299.8 636.26,1350.4 625.13,1377"];
	122	[height=0.5,
		pos="531.54,1297.3",
		width=0.75];
	121 -- 122	[pos="575.04,1268.4 567.41,1273.5 558.64,1279.3 550.98,1284.4"];
	8 -- 36	[pos="1178.8,535.8 1127.4,555.86 1005.9,603.32 954.76,623.3"];
	8 -- 88	[pos="1190.1,510.11 1175.4,490.3 1150.8,457.25 1136.1,437.48"];
	8 -- 15	[pos="1186.5,541.4 1140.2,584.7 1005.2,710.77 958.67,754.22"];
	192	[height=0.5,
		pos="856.22,705.34",
		width=0.75];
	8 -- 192	[pos="1181,537.64 1119.1,569.6 940.2,661.97 877.91,694.13"];
	8 -- 247	[pos="1190,542.91 1154.5,589.76 1052.6,724.32 1017.1,771.16"];
	269	[height=0.5,
		pos="1542,626.85",
		width=0.75];
	8 -- 269	[pos="1227.1,533.88 1289.7,552.36 1454,600.86 1516.9,619.45"];
	273	[height=0.5,
		pos="1509.2,514.23",
		width=0.75];
	8 -- 273	[pos="1229.3,525.5 1287.4,523.17 1423.7,517.68 1482,515.33"];
	277	[height=0.5,
		pos="949.06,476.63",
		width=0.75];
	8 -- 277	[pos="1176.2,521.43 1127.6,511.83 1023.6,491.34 975.07,481.76"];
	8 -- 278	[pos="1176.5,531.76 1152.8,536.47 1118.1,543.4 1094.3,548.14"];
	279	[height=0.5,
		pos="1263.9,235.36",
		width=0.75];
	8 -- 279	[pos="1206.2,508.37 1217.3,455.95 1249.2,305.15 1260.2,253.2"];
	282	[height=0.5,
		pos="1431.7,553.21",
		width=0.75];
	8 -- 282	[pos="1229.1,529.7 1273.2,534.81 1360.5,544.95 1404.7,550.08"];
	284	[height=0.5,
		pos="1437.5,702.36",
		width=0.75];
	8 -- 284	[pos="1220.4,540.09 1264.2,572.81 1375.5,656.05 1419.4,688.82"];
	287	[height=0.5,
		pos="1440.9,372.89",
		width=0.75];
	8 -- 287	[pos="1221.9,514.01 1266.7,485.12 1376.7,414.28 1421.5,385.43"];
	8 -- 291	[pos="1179.3,517.07 1144.7,502.86 1080.1,476.27 1045.7,462.08"];
	292	[height=0.5,
		pos="1315.8,331.53",
		width=0.75];
	8 -- 292	[pos="1212.2,509.62 1233.7,472.64 1284.6,385.14 1306,348.32"];
	63	[height=0.5,
		pos="1487,469.99",
		width=0.75];
	8 -- 63	[pos="1228.4,521.42 1282.5,510.66 1406.5,486.01 1460.7,475.21"];
	161	[height=0.5,
		pos="1198.5,250.34",
		width=0.75];
	8 -- 161	[pos="1202.1,508.46 1201.4,458.41 1199.5,318.66 1198.8,268.53"];
	224	[height=0.5,
		pos="1300.9,433.58",
		width=0.75];
	8 -- 224	[pos="1218.2,511.65 1236.6,494.29 1266.8,465.83 1285.1,448.49"];
	126	[height=0.5,
		pos="1002.2,1411.5",
		width=0.75];
	125 -- 126	[pos="893.18,1312.4 917.19,1334.2 962.14,1375.1 986.12,1396.9"];
	130	[height=0.5,
		pos="1247.7,1289.6",
		width=0.75];
	129 -- 130	[pos="1032.9,1194.6 1078.3,1214.7 1179.6,1259.5 1225,1279.6"];
	133	[height=0.5,
		pos="187.36,934.4",
		width=0.75];
	132 -- 133	[pos="403.49,1044.5 358.36,1021.5 254.23,968.48 208.99,945.42"];
	136	[height=0.5,
		pos="238.23,705.1",
		width=0.75];
	135 -- 136	[pos="363.92,858.47 337.48,826.21 277.85,753.44 251.35,721.11"];
	139	[height=0.5,
		pos="1115,1046.5",
		width=0.75];
	138 -- 139	[pos="968.2,1098.5 1000.8,1087 1058.5,1066.5 1091,1055"];
	141	[height=0.5,
		pos="1006.3,1265.5",
		width=0.75];
	140 -- 141	[pos="842.46,1190.9 878.26,1207.2 947.86,1238.9 983.71,1255.2"];
	143 -- 144	[pos="991.31,1004.9 1023.8,977.86 1094.6,918.93 1127.2,891.77"];
	146	[height=0.5,
		pos="123,896.88",
		width=0.75];
	145 -- 146	[pos="263.66,965.15 232.55,950.05 175.91,922.56 144.84,907.48"];
	150	[height=0.5,
		pos="175.35,731.78",
		width=0.75];
	149 -- 150	[pos="296.83,858.99 270.79,831.71 216.48,774.85 190.22,747.35"];
	155	[height=0.5,
		pos="62.494,787",
		width=0.75];
	154 -- 155	[pos="170.12,626.96 147.42,660.71 96.157,736.94 73.554,770.56"];
	160	[height=0.5,
		pos="1058.8,141.7",
		width=0.75];
	159 -- 160	[pos="780.4,296.01 835.37,265.54 982.78,183.82 1037.7,153.36"];
	9 -- 37	[pos="1087.6,916.15 1035.4,905.11 918.96,880.48 866.85,869.45"];
	9 -- 18	[pos="1098,906.37 1033.9,843.87 792.48,608.5 728.57,546.19"];
	9 -- 11	[pos="1094.6,908.97 1019.8,859.39 748.29,679.25 673.4,629.57"];
	10	[height=0.5,
		pos="1471.8,794.4",
		width=0.75];
	9 -- 10	[pos="1137.8,913.14 1203,889.95 1382.8,826.06 1447.9,802.91"];
	294	[height=0.5,
		pos="1287,949.6",
		width=0.75];
	9 -- 294	[pos="1140.1,925.93 1172.7,931.19 1228.1,940.11 1260.7,945.37"];
	296	[height=0.5,
		pos="980.26,676.42",
		width=0.75];
	9 -- 296	[pos="1104.4,904.44 1079.8,859.41 1014.1,738.66 989.64,693.65"];
	298	[height=0.5,
		pos="1455.7,1103.8",
		width=0.75];
	9 -- 298	[pos="1134.9,932.94 1196,965.5 1372.7,1059.6 1434.3,1092.3"];
	302	[height=0.5,
		pos="1261.9,1084.4",
		width=0.75];
	9 -- 302	[pos="1128,937.29 1156.2,968.31 1219.2,1037.4 1247.5,1068.6"];
	304	[height=0.5,
		pos="1242.7,1172.5",
		width=0.75];
	9 -- 304	[pos="1122.6,938.92 1146.2,984.85 1210.4,1109.8 1233.9,1155.5"];
	307	[height=0.5,
		pos="1373.4,1060.7",
		width=0.75];
	9 -- 307	[pos="1135,933.06 1183.8,959.2 1303.5,1023.3 1352.2,1049.4"];
	311	[height=0.5,
		pos="1173.4,664.12",
		width=0.75];
	9 -- 311	[pos="1117.9,903.57 1128.9,856.28 1158.3,729.48 1169.2,682.21"];
	9 -- 65	[pos="1136,932.03 1175.4,950.31 1256.8,988.09 1296.2,1006.4"];
	92	[height=0.5,
		pos="1445.2,883.74",
		width=0.75];
	9 -- 92	[pos="1140.6,918.61 1202.8,911.48 1356.5,893.9 1418.6,886.79"];
	128	[height=0.5,
		pos="1199,1245.6",
		width=0.75];
	9 -- 128	[pos="1118.5,939.56 1133.4,996.19 1179.5,1171.2 1194.4,1227.8"];
	196	[height=0.5,
		pos="882.02,1137.9",
		width=0.75];
	9 -- 196	[pos="1097.8,936.55 1055.4,976.15 939.97,1083.9 897.76,1123.3"];
	228	[height=0.5,
		pos="1136.2,1252.9",
		width=0.75];
	9 -- 228	[pos="1115,939.96 1118.9,997.86 1131,1176.8 1135,1234.6"];
	249	[height=0.5,
		pos="1029.8,1079.7",
		width=0.75];
	9 -- 249	[pos="1104.6,938.9 1088.5,969.3 1055.1,1032.2 1039,1062.5"];
	272	[height=0.5,
		pos="1517.7,959.19",
		width=0.75];
	9 -- 272	[pos="1140.6,924.18 1214,930.99 1417.5,949.89 1490.9,956.7"];
	163	[height=0.5,
		pos="1327.4,176.72",
		width=0.75];
	162 -- 163	[pos="971.2,268.91 1040.4,250.99 1232.3,201.33 1301.8,183.34"];
	167	[height=0.5,
		pos="229.17,253.67",
		width=0.75];
	166 -- 167	[pos="352.68,310.15 325.16,297.56 278.87,276.39 251.45,263.85"];
	170 -- 171	[pos="674.1,446.45 679.7,453.83 686.3,462.54 691.91,469.93"];
	173	[height=0.5,
		pos="339.61,171",
		width=0.75];
	172 -- 173	[pos="392.81,255.59 381,236.81 361.96,206.54 350.15,187.76"];
	177 -- 178	[pos="549.24,557.69 582.59,580.41 650.87,626.91 684.09,649.53"];
	180	[height=0.5,
		pos="69.481,852.38",
		width=0.75];
	179 -- 180	[pos="202.37,677.39 174.93,713.53 109.25,800.01 81.836,836.11"];
	183 -- 184	[pos="825.97,369.82 862.06,378.42 927.22,393.95 963.15,402.51"];
	185 -- 186	[pos="510.57,318.7 540.16,333.57 593,360.13 622.62,375.02"];
	5	[height=0.5,
		pos="497.67,883.16",
		width=0.75];
	5 -- 54	[pos="523.73,878.31 572.1,869.31 675.25,850.12 723.79,841.08"];
	5 -- 18	[pos="508.06,866.18 544.51,806.54 666.39,607.16 702.68,547.8"];
	5 -- 153	[pos="495.22,865.08 490.26,828.44 479.07,745.81 474.09,709.09"];
	5 -- 188	[pos="506.94,900.38 522.53,929.32 553.81,987.4 569.33,1016.2"];
	189	[height=0.5,
		pos="289.43,1063.8",
		width=0.75];
	5 -- 189	[pos="480.98,897.64 441.89,931.54 344.79,1015.8 305.91,1049.5"];
	5 -- 192	[pos="519.56,872.31 583.57,840.56 769.94,748.13 834.16,716.28"];
	193	[height=0.5,
		pos="368.66,1156",
		width=0.75];
	5 -- 193	[pos="489.4,900.65 466.1,949.94 400.08,1089.6 376.86,1138.7"];
	197	[height=0.5,
		pos="669.4,1116.4",
		width=0.75];
	5 -- 197	[pos="509.75,899.57 541.28,942.4 625.82,1057.2 657.33,1100.1"];
	201	[height=0.5,
		pos="209.14,860.39",
		width=0.75];
	5 -- 201	[pos="470.79,881.04 415.81,876.7 291.07,866.86 236.06,862.52"];
	204	[height=0.5,
		pos="147.04,838.94",
		width=0.75];
	5 -- 204	[pos="471.03,879.8 405.82,871.58 238.8,850.51 173.64,842.29"];
	208	[height=0.5,
		pos="302.41,690.26",
		width=0.75];
	5 -- 208	[pos="482.35,868.03 445.85,831.97 354.09,741.32 317.66,705.33"];
	5 -- 14	[pos="524.84,880.77 635.72,871.02 1053.3,834.28 1163.8,824.55"];
	210	[height=0.5,
		pos="527.05,989.15",
		width=0.75];
	5 -- 210	[pos="502.66,901.14 508.09,920.75 516.73,951.93 522.14,971.44"];
	212	[height=0.5,
		pos="388.28,1112",
		width=0.75];
	5 -- 212	[pos="489.45,900.36 469.18,942.77 416.97,1052 396.6,1094.6"];
	215	[height=0.5,
		pos="640.09,876.24",
		width=0.75];
	5 -- 215	[pos="524.79,881.85 550.14,880.61 587.76,878.78 613.07,877.55"];
	217	[height=0.5,
		pos="446.51,646.85",
		width=0.75];
	5 -- 217	[pos="493.74,865.01 484.19,820.92 459.87,708.56 450.38,664.73"];
	5 -- 32	[pos="470.63,885.49 422.86,889.59 324.12,898.07 276.38,902.16"];
	5 -- 86	[pos="495.23,865.01 491.42,836.59 484.07,781.91 480.25,753.41"];
	5 -- 116	[pos="485.72,899.57 460.16,934.64 400.45,1016.6 374.91,1051.6"];
	190	[height=0.5,
		pos="237.76,1201.4",
		width=0.75];
	189 -- 190	[pos="282.78,1081.5 272.86,1107.9 254.29,1157.3 244.38,1183.7"];
	194	[height=0.5,
		pos="441.93,1253.4",
		width=0.75];
	193 -- 194	[pos="381.09,1172.6 394.65,1190.6 416.2,1219.2 429.69,1237.2"];
	198	[height=0.5,
		pos="887.78,1341.8",
		width=0.75];
	197 -- 198	[pos="684.06,1131.6 723.75,1172.5 832.94,1285.2 872.89,1326.4"];
	202	[height=0.5,
		pos="113.11,742.83",
		width=0.75];
	201 -- 202	[pos="196.19,844.54 177.86,822.1 144.54,781.31 126.16,758.81"];
	205	[height=0.5,
		pos="27,704.67",
		width=0.75];
	204 -- 205	[pos="133.03,823.27 109.9,797.4 63.987,746.04 40.916,720.24"];
	208 -- 209	[pos="315.69,674.52 349.09,634.92 436.28,531.53 469.69,491.91"];
	14 -- 75	[pos="1206.6,807.54 1215.4,799.41 1226.3,789.33 1235,781.19"];
	14 -- 104	[pos="1181.4,804.91 1158.4,762.97 1099.9,656.1 1077.1,614.41"];
	14 -- 176	[pos="1169.9,810.66 1109.3,777.33 934.22,681.03 873.26,647.5"];
	365	[height=0.5,
		pos="1393.6,928.64",
		width=0.75];
	14 -- 365	[pos="1212.1,833.37 1251.1,853.82 1333.3,896.99 1372.3,917.44"];
	367	[height=0.5,
		pos="1331.5,1104.8",
		width=0.75];
	14 -- 367	[pos="1199.4,839.43 1224.5,889.88 1297.7,1036.8 1322.9,1087.4"];
	370	[height=0.5,
		pos="1579.7,925.14",
		width=0.75];
	14 -- 370	[pos="1216,828.85 1286.4,847.48 1484.3,899.87 1554.5,918.47"];
	374	[height=0.5,
		pos="1369.6,521.42",
		width=0.75];
	14 -- 374	[pos="1200.9,805.15 1232.4,752.21 1328.3,590.95 1359.6,538.26"];
	378	[height=0.5,
		pos="1264.5,567",
		width=0.75];
	14 -- 378	[pos="1196,804.23 1209.5,757.38 1245.8,631.75 1259.3,584.92"];
	14 -- 44	[pos="1174.7,836.64 1144.7,863.47 1080.8,920.69 1050.7,947.62"];
	14 -- 139	[pos="1184.9,839.78 1170.7,881.6 1135.2,986.58 1121,1028.6"];
	262	[height=0.5,
		pos="1245.3,1128.4",
		width=0.75];
	14 -- 262	[pos="1194.1,840.42 1203.7,894.88 1232.4,1055.9 1242.1,1110.3"];
	283	[height=0.5,
		pos="1414.4,748.99",
		width=0.75];
	14 -- 283	[pos="1215.2,814.21 1258.2,800.13 1347.1,771.02 1390.1,756.95"];
	301	[height=0.5,
		pos="1453.7,1046.4",
		width=0.75];
	14 -- 301	[pos="1207.7,836.55 1255.1,877.05 1389.7,991.83 1437,1032.2"];
	319	[height=0.5,
		pos="1579.8,989.87",
		width=0.75];
	14 -- 319	[pos="1213.7,832.04 1282.6,861.74 1487.6,950.1 1556.7,979.92"];
	334	[height=0.5,
		pos="1043.5,664.33",
		width=0.75];
	14 -- 334	[pos="1176.4,806.75 1148.3,776.66 1086.5,710.38 1058.2,680.05"];
	355	[height=0.5,
		pos="1363,467.21",
		width=0.75];
	14 -- 355	[pos="1199.3,804.57 1228.7,744 1325.4,544.6 1354.6,484.5"];
	210 -- 211	[pos="550.78,980.53 584.95,968.11 647.67,945.33 681.9,932.89"];
	213	[height=0.5,
		pos="467.2,1209.2",
		width=0.75];
	212 -- 213	[pos="401.31,1128.1 415.93,1146.1 439.52,1175.1 454.15,1193.2"];
	215 -- 216	[pos="664.14,867.93 707.27,853.03 797.31,821.91 840.57,806.96"];
	218	[height=0.5,
		pos="636.3,474.77",
		width=0.75];
	217 -- 218	[pos="462.69,632.17 498.55,599.66 584.34,521.88 620.16,489.41"];
	220	[height=0.5,
		pos="580.27,1341.3",
		width=0.75];
	219 -- 220	[pos="667.66,1184.1 649.14,1217.4 608.32,1290.9 589.77,1324.2"];
	223	[height=0.5,
		pos="1135,567.23",
		width=0.75];
	222 -- 223	[pos="941.75,799.68 979.05,754.82 1084.8,627.71 1121.9,583.01"];
	226	[height=0.5,
		pos="940.14,1385.8",
		width=0.75];
	225 -- 226	[pos="877.74,1270.7 891.49,1296.1 917.23,1343.6 930.96,1368.9"];
	230	[height=0.5,
		pos="1374.6,1228.1",
		width=0.75];
	229 -- 230	[pos="1144.1,1173.8 1193,1185.3 1299.6,1210.4 1348.8,1222"];
	233	[height=0.5,
		pos="485.81,788.12",
		width=0.75];
	232 -- 233	[pos="521.39,927.13 513.64,896.84 498.08,836.07 490.36,805.92"];
	234 -- 235	[pos="547.68,758.42 547.28,707.69 546.14,564.17 545.73,513.18"];
	236 -- 237	[pos="813.06,1061.4 826.39,1042.2 848.26,1010.7 861.58,991.51"];
	239	[height=0.5,
		pos="806.99,1449.5",
		width=0.75];
	238 -- 239	[pos="774.99,1264.1 781.65,1302.7 797.22,1392.9 803.88,1431.5"];
	243	[height=0.5,
		pos="125.79,794.87",
		width=0.75];
	242 -- 243	[pos="306.83,906.19 268.3,882.5 184.2,830.78 145.73,807.13"];
	248 -- 249	[pos="894.86,1078.1 924.78,1078.5 972.65,1079.1 1002.6,1079.4"];
	251	[height=0.5,
		pos="1304.7,1195.3",
		width=0.75];
	250 -- 251	[pos="1110,1131.7 1152.1,1145.4 1238.2,1173.6 1280.3,1187.3"];
	11 -- 39	[pos="636.59,630.5 623.1,641.02 604.55,655.48 591,666.04"];
	11 -- 13	[pos="660.74,599.15 676.43,557.08 715.88,451.33 731.55,409.34"];
	11 -- 19	[pos="670.89,602.55 709.98,569.23 806.95,486.58 846.12,453.2"];
	11 -- 277	[pos="676.32,606.27 731.11,580.23 872.4,513.07 927.04,487.1"];
	313	[height=0.5,
		pos="1106,685.44",
		width=0.75];
	11 -- 313	[pos="680.73,620.84 760.85,633.01 999.38,669.25 1079.4,681.41"];
	11 -- 332	[pos="681.19,617.46 683.8,617.53 686.46,617.59 689.07,617.65"];
	333	[height=0.5,
		pos="840.42,589.23",
		width=0.75];
	11 -- 333	[pos="680.84,612.85 716.25,607.61 778.4,598.41 813.79,593.17"];
	335	[height=0.5,
		pos="370.75,676.64",
		width=0.75];
	11 -- 335	[pos="628,622.33 574.01,633.73 450.78,659.75 396.84,671.13"];
	11 -- 338	[pos="655.95,635.03 659.35,669.58 666.71,744.19 670.09,778.56"];
	11 -- 339	[pos="681.27,613.82 730.93,608.35 835.93,596.78 885.32,591.34"];
	340	[height=0.5,
		pos="495.39,353.87",
		width=0.75];
	11 -- 340	[pos="643.98,599.96 615.31,552.47 534.05,417.9 505.48,370.58"];
	70	[height=0.5,
		pos="821.42,319.23",
		width=0.75];
	11 -- 70	[pos="663.87,599.52 693.5,546.8 782.5,388.47 811.89,336.19"];
	100	[height=0.5,
		pos="474.47,261.26",
		width=0.75];
	11 -- 100	[pos="645.49,599.66 615.13,539.59 513.8,339.1 483.26,278.65"];
	134	[height=0.5,
		pos="333.94,754.1",
		width=0.75];
	11 -- 134	[pos="631.38,626.57 572.51,651.81 415.78,719.01 356.81,744.3"];
	169	[height=0.5,
		pos="378.49,408.74",
		width=0.75];
	11 -- 169	[pos="636.07,603.15 586.12,565.45 446.67,460.2 396.64,422.45"];
	203	[height=0.5,
		pos="276.84,635.1",
		width=0.75];
	11 -- 203	[pos="627.02,618.12 557.49,621.49 373.52,630.41 303.98,633.79"];
	11 -- 233	[pos="639.22,632.01 607.35,664.44 533.01,740.09 500.96,772.71"];
	254	[height=0.5,
		pos="854.53,1386.7",
		width=0.75];
	253 -- 254	[pos="765.4,1181.8 783.48,1223.4 828.93,1327.9 846.97,1369.3"];
	258	[height=0.5,
		pos="259.97,575.44",
		width=0.75];
	257 -- 258	[pos="410.93,763.15 380.31,725.08 303.33,629.36 272.77,591.35"];
	261	[height=0.5,
		pos="1083.7,1296.9",
		width=0.75];
	260 -- 261	[pos="959.41,1166.4 986,1194.3 1042.1,1253.2 1068.8,1281.3"];
	265 -- 266	[pos="956.75,961.06 980.41,942.34 1022.3,909.17 1046,890.48"];
	267 -- 268	[pos="494.82,817.57 524.57,786.87 591.66,717.63 621.48,686.86"];
	19 -- 187	[pos="842.37,427.08 809.59,408.3 745.88,371.8 713.06,352.99"];
	19 -- 246	[pos="856.4,456.72 838.67,505.13 789.82,638.52 772.12,686.84"];
	19 -- 384	[pos="875.26,455.03 896.63,483.05 940.33,540.36 961.74,568.43"];
	19 -- 52	[pos="835.81,438.35 811.31,437.89 775.47,437.22 751,436.75"];
	19 -- 83	[pos="882.8,426.58 922.41,402.08 1010.8,347.41 1050.3,322.94"];
	112	[height=0.5,
		pos="886.08,187.4",
		width=0.75];
	19 -- 112	[pos="864.6,420.78 868.86,374.5 880.12,252.13 884.4,205.66"];
	152	[height=0.5,
		pos="561.22,396.99",
		width=0.75];
	19 -- 152	[pos="836.43,435.19 779.34,427.26 645.32,408.66 588,400.71"];
	19 -- 218	[pos="836.5,443.06 792.83,449.97 706.13,463.71 662.58,470.61"];
	293	[height=0.5,
		pos="1066.5,232.53",
		width=0.75];
	19 -- 293	[pos="877.91,423.69 915.55,385.54 1013.8,285.91 1051.5,247.73"];
	312	[height=0.5,
		pos="1114.8,465.15",
		width=0.75];
	19 -- 312	[pos="889.89,441.68 938.37,446.74 1039.7,457.31 1088.1,462.35"];
	331	[height=0.5,
		pos="1253.6,344.75",
		width=0.75];
	19 -- 331	[pos="888.57,432.69 959.45,415.62 1157.5,367.91 1228.2,350.88"];
	351	[height=0.5,
		pos="935.3,231.41",
		width=0.75];
	19 -- 351	[pos="869.11,421.18 882.78,381.99 915.49,288.21 929.15,249.06"];
	364	[height=0.5,
		pos="726.17,241.46",
		width=0.75];
	19 -- 364	[pos="851.51,422.38 825.77,385.22 763.46,295.29 737.66,258.04"];
	379	[height=0.5,
		pos="1191.5,387.12",
		width=0.75];
	19 -- 379	[pos="889.27,434.72 950.79,425.03 1103.4,400.99 1165,391.28"];
	387	[height=0.5,
		pos="998.79,540.66",
		width=0.75];
	19 -- 387	[pos="880.98,452.38 906.96,471.85 954.65,507.58 980.68,527.08"];
	391	[height=0.5,
		pos="687.42,185.49",
		width=0.75];
	19 -- 391	[pos="851.42,422.24 819.54,376.22 730.41,247.54 698.75,201.85"];
	270	[height=0.5,
		pos="1706.9,701.8",
		width=0.75];
	269 -- 270	[pos="1564.6,637.12 1596.2,651.47 1653.2,677.37 1684.6,691.66"];
	274	[height=0.5,
		pos="1716.9,540.36",
		width=0.75];
	273 -- 274	[pos="1536,517.59 1575.8,522.61 1650.5,532 1690.3,537.01"];
	280	[height=0.5,
		pos="1145,173.85",
		width=0.75];
	279 -- 280	[pos="1242.4,224.22 1220.9,213.07 1187.9,196.02 1166.4,184.9"];
	282 -- 283	[pos="1430.1,571.27 1426.8,608.57 1419.3,693.7 1416,730.96"];
	285	[height=0.5,
		pos="1455.7,929.88",
		width=0.75];
	284 -- 285	[pos="1439,720.6 1442.4,763.3 1450.8,869.4 1454.2,911.87"];
	288	[height=0.5,
		pos="1577.7,327.06",
		width=0.75];
	287 -- 288	[pos="1465,364.8 1489.9,356.48 1528.4,343.57 1553.3,335.22"];
	292 -- 293	[pos="1292.3,322.21 1244.7,303.3 1137.1,260.58 1089.7,241.75"];
	10 -- 38	[pos="1444.6,793 1370.8,789.19 1167.5,778.68 1093.9,774.88"];
	10 -- 66	[pos="1447.2,787.05 1420,778.93 1376.5,765.95 1349.3,757.83"];
	10 -- 313	[pos="1447,787 1380.2,767.12 1197.7,712.75 1130.9,692.86"];
	314	[height=0.5,
		pos="1561.6,716.05",
		width=0.75];
	10 -- 314	[pos="1488.3,780.03 1504.4,765.98 1528.8,744.7 1544.9,730.6"];
	10 -- 316	[pos="1454.5,780.11 1397.1,732.94 1214.4,582.55 1157.3,535.58"];
	317	[height=0.5,
		pos="1704,937.12",
		width=0.75];
	10 -- 317	[pos="1492,806.82 1536,833.88 1640.2,897.89 1684,924.83"];
	320	[height=0.5,
		pos="1641.7,932.55",
		width=0.75];
	10 -- 320	[pos="1489,808.41 1521.6,834.89 1591.9,892 1624.5,918.5"];
	323	[height=0.5,
		pos="1435.5,1000.3",
		width=0.75];
	10 -- 323	[pos="1468.7,812.31 1461.8,851.25 1445.6,943.24 1438.7,982.28"];
	10 -- 325	[pos="1454.2,780.37 1423.7,756.03 1361.2,706.26 1330.6,681.87"];
	326	[height=0.5,
		pos="1493.7,560.47",
		width=0.75];
	10 -- 326	[pos="1473.5,776.43 1477.6,732.89 1487.9,622.11 1492,578.5"];
	329	[height=0.5,
		pos="1620.6,604.33",
		width=0.75];
	10 -- 329	[pos="1484.5,778.2 1512.6,742.29 1579.9,656.37 1607.9,620.5"];
	96	[height=0.5,
		pos="1682.7,641.13",
		width=0.75];
	10 -- 96	[pos="1490.2,781.07 1530,752.08 1624.3,683.6 1664.2,654.54"];
	131	[height=0.5,
		pos="1517.7,1088.6",
		width=0.75];
	10 -- 131	[pos="1474.6,812.36 1482.8,864.9 1506.7,1017.8 1514.9,1070.5"];
	165	[height=0.5,
		pos="1571.3,538.08",
		width=0.75];
	10 -- 165	[pos="1478.7,776.78 1496.8,729.96 1546.2,602.79 1564.4,555.82"];
	200	[height=0.5,
		pos="1393.6,1108.5",
		width=0.75];
	10 -- 200	[pos="1467.4,812.19 1453.7,867.35 1411.9,1035.1 1398.1,1090.6"];
	231	[height=0.5,
		pos="1579.8,1084.5",
		width=0.75];
	10 -- 231	[pos="1478.4,812.11 1497.7,864.03 1554.1,1015.4 1573.3,1067"];
	252	[height=0.5,
		pos="1519.8,1040.4",
		width=0.75];
	10 -- 252	[pos="1475.3,812.49 1484.2,857.98 1507.4,976.77 1516.3,1022.3"];
	276	[height=0.5,
		pos="1696.8,752.47",
		width=0.75];
	10 -- 276	[pos="1498.1,789.51 1541.4,781.43 1627.5,765.39 1670.7,757.34"];
	294 -- 295	[pos="1271.2,934.63 1240.9,905.81 1174.8,842.91 1144.5,814.14"];
	296 -- 297	[pos="966.19,661.04 932.74,624.5 848.8,532.77 815.18,496.02"];
	299	[height=0.5,
		pos="1534.4,1197.1",
		width=0.75];
	298 -- 299	[pos="1469,1119.6 1483.5,1136.7 1506.5,1164 1521,1181.2"];
	302 -- 303	[pos="1242.4,1071.8 1211.2,1051.8 1150.5,1013 1119.3,992.95"];
	305	[height=0.5,
		pos="1206.1,1362.1",
		width=0.75];
	304 -- 305	[pos="1239.2,1190.7 1232.2,1226.9 1216.6,1307.8 1209.6,1344"];
	308	[height=0.5,
		pos="1641.8,1109",
		width=0.75];
	307 -- 308	[pos="1399.6,1065.4 1451,1074.7 1564.1,1095 1615.5,1104.3"];
	311 -- 312	[pos="1168.1,646.11 1157,608.23 1131.2,520.69 1120.1,482.97"];
	314 -- 315	[pos="1534.9,713.03 1473.9,706.09 1324.6,689.11 1263.2,682.14"];
	318	[height=0.5,
		pos="1766.3,996.41",
		width=0.75];
	317 -- 318	[pos="1719.7,952.08 1729.2,961.14 1741.3,972.64 1750.8,981.66"];
	321	[height=0.5,
		pos="1642,1009.3",
		width=0.75];
	320 -- 321	[pos="1641.8,950.74 1641.8,962.97 1641.9,979.04 1641.9,991.25"];
	323 -- 324	[pos="1409.4,1005.1 1370.3,1012.4 1297.2,1025.9 1258.1,1033.1"];
	327	[height=0.5,
		pos="1378.1,387.88",
		width=0.75];
	326 -- 327	[pos="1482.6,543.92 1460.5,510.93 1411.2,437.33 1389.1,404.38"];
	330	[height=0.5,
		pos="1487.3,425.95",
		width=0.75];
	329 -- 330	[pos="1608.5,588.19 1583.2,554.31 1524.8,476.14 1499.5,442.19"];
	333 -- 334	[pos="864.12,597.99 903.14,612.42 980.51,641.03 1019.6,655.51"];
	336	[height=0.5,
		pos="361.75,809.01",
		width=0.75];
	335 -- 336	[pos="369.52,694.77 367.8,719.98 364.72,765.36 363,790.68"];
	341	[height=0.5,
		pos="412.44,226.85",
		width=0.75];
	340 -- 341	[pos="484.54,337.26 468.65,312.92 439.18,267.81 423.28,243.46"];
	345	[height=0.5,
		pos="1317.2,1151.3",
		width=0.75];
	344 -- 345	[pos="1177.6,986.18 1206.5,1020.4 1274.8,1101.2 1303.8,1135.4"];
	350	[height=0.5,
		pos="1083,188.52",
		width=0.75];
	349 -- 350	[pos="984.77,347.69 1005.5,314.04 1051.9,238.96 1072.6,205.35"];
	353	[height=0.5,
		pos="1247,137.48",
		width=0.75];
	352 -- 353	[pos="994.12,122.32 1047.6,125.53 1166.3,132.65 1219.9,135.86"];
	357	[height=0.5,
		pos="384.42,606.58",
		width=0.75];
	356 -- 357	[pos="534.16,456.44 502.73,487.95 431,559.87 399.61,591.35"];
	360	[height=0.5,
		pos="1047.8,38.402",
		width=0.75];
	359 -- 360	[pos="881.19,91.525 917.92,79.818 986.66,57.907 1023.3,46.218"];
	363 -- 364	[pos="643.34,191.88 661.43,202.71 687.73,218.45 705.82,229.28"];
	365 -- 366	[pos="1369.7,920.35 1335.1,908.41 1271.7,886.48 1237.1,874.52"];
	368	[height=0.5,
		pos="1309.7,1250.5",
		width=0.75];
	367 -- 368	[pos="1328.8,1122.9 1324.6,1151 1316.6,1204.6 1312.4,1232.6"];
	371	[height=0.5,
		pos="1766,920.25",
		width=0.75];
	370 -- 371	[pos="1606.8,924.43 1642.1,923.5 1703.6,921.89 1738.9,920.96"];
	375	[height=0.5,
		pos="1410.6,284.43",
		width=0.75];
	374 -- 375	[pos="1372.7,503.22 1380.4,458.99 1399.9,346.32 1407.5,302.37"];
	378 -- 379	[pos="1257.4,549.42 1243.4,514.95 1212.5,438.82 1198.6,404.5"];
	380 -- 381	[pos="1187,704.55 1201.2,688.46 1223,663.67 1237,647.63"];
	382 -- 383	[pos="866.71,527.51 851.92,505.8 826.36,468.31 811.67,446.75"];
	386 -- 387	[pos="940.94,706.55 953.17,671.48 980.46,593.23 992.68,558.2"];
	390	[height=0.5,
		pos="659.29,83.568",
		width=0.75];
	389 -- 390	[pos="547.81,246.92 571.2,212.64 624.61,134.38 647.99,100.14"];
	21 -- 22	[pos="806.79,1022 841.77,1002.2 911.94,962.26 946.76,942.47"];
	25	[height=0.5,
		pos="350.41,215.83",
		width=0.75];
	24 -- 25	[pos="319.92,295.33 326.66,277.76 336.88,251.1 343.61,233.57"];
	25 -- 26	[pos="376.21,221.68 440.43,236.25 606.97,274.03 671.37,288.65"];
	28 -- 29	[pos="332.41,1193.2 371.92,1187 445.86,1175.5 485.31,1169.3"];
	34 -- 35	[pos="311.36,1135.8 353.36,1123.1 438.31,1097.4 480.48,1084.7"];
	49 -- 50	[pos="278.39,446.44 319.29,438.96 397.96,424.57 438.98,417.07"];
	58	[height=0.5,
		pos="1015.6,1341.9",
		width=0.75];
	57 -- 58	[pos="1111.1,1376.3 1090.2,1368.8 1060.2,1358 1039.4,1350.5"];
	58 -- 59	[pos="1002.3,1326 976.89,1295.3 921.34,1228.5 895.93,1197.9"];
	62	[height=0.5,
		pos="1633.5,450.42",
		width=0.75];
	61 -- 62	[pos="1633.4,500.44 1633.4,490.64 1633.4,478.6 1633.4,468.78"];
	62 -- 63	[pos="1606.9,453.97 1580.6,457.49 1540.3,462.87 1513.8,466.41"];
	69	[height=0.5,
		pos="1172,129.8",
		width=0.75];
	68 -- 69	[pos="1307.7,212.34 1277.8,194.15 1221.8,160.11 1191.9,141.95"];
	69 -- 70	[pos="1150.8,141.23 1088.4,174.98 905.09,274.02 842.59,307.79"];
	73	[height=0.5,
		pos="651.81,18",
		width=0.75];
	72 -- 73	[pos="771.18,71.363 744.77,59.559 701.21,40.084 674.65,28.211"];
	73 -- 74	[pos="650.12,36.018 648.08,57.931 644.64,94.713 642.59,116.72"];
	77 -- 78	[pos="1334.7,962.29 1310.2,950.83 1271,932.51 1246.4,921.05"];
	80 -- 81	[pos="1567.2,669.15 1532.5,666.02 1472.5,660.63 1437.9,657.51"];
	91	[height=0.5,
		pos="1625.5,753.25",
		width=0.75];
	90 -- 91	[pos="1565.4,600.26 1578.3,633.03 1605.8,703.02 1618.6,735.73"];
	91 -- 92	[pos="1606.9,766.72 1572.2,791.79 1498.3,845.33 1463.7,870.34"];
	95	[height=0.5,
		pos="1695.5,493.22",
		width=0.75];
	94 -- 95	[pos="1570.6,427.3 1598.3,441.93 1646.5,467.36 1674.2,481.99"];
	95 -- 96	[pos="1693.9,511.36 1691.5,539.75 1686.7,594.37 1684.3,622.85"];
	99	[height=0.5,
		pos="470.05,162.59",
		width=0.75];
	98 -- 99	[pos="536.95,136.95 523.62,142.07 507.04,148.41 493.73,153.52"];
	99 -- 100	[pos="470.86,180.69 471.65,198.38 472.85,225.18 473.64,242.94"];
	102 -- 103	[pos="1124.7,274.02 1110.7,298.57 1085.1,343.62 1071.1,368.21"];
	108	[height=0.5,
		pos="578.01,34.174",
		width=0.75];
	107 -- 108	[pos="691.62,38.435 666.69,37.5 629.96,36.122 605.06,35.189"];
	108 -- 109	[pos="584.02,51.864 596.65,88.982 625.79,174.63 638.45,211.84"];
	111 -- 112	[pos="912.6,72.953 906.75,98.2 896.11,144.09 890.25,169.42"];
	119	[height=0.5,
		pos="699.85,1300.8",
		width=0.75];
	118 -- 119	[pos="631.75,1378.6 646.92,1361.3 671.05,1333.7 686.15,1316.5"];
	119 -- 120	[pos="701.88,1282.7 703.61,1267.1 706.09,1244.8 707.83,1229.2"];
	123	[height=0.5,
		pos="529.15,1253.3",
		width=0.75];
	122 -- 123	[pos="530.55,1279.1 530.42,1276.6 530.27,1273.9 530.13,1271.4"];
	123 -- 124	[pos="543.2,1237.4 546.78,1233.3 550.61,1229 554.18,1225"];
	127	[height=0.5,
		pos="1147.1,1429",
		width=0.75];
	126 -- 127	[pos="1028.7,1414.7 1054.7,1417.8 1094.1,1422.6 1120.2,1425.7"];
	127 -- 128	[pos="1152.2,1411.1 1162.1,1375.9 1184.1,1298.3 1194,1263.3"];
	130 -- 131	[pos="1265.8,1276.1 1315,1239.5 1450.6,1138.6 1499.7,1102.1"];
	133 -- 134	[pos="200.37,918.4 228.19,884.19 293.17,804.25 320.96,770.07"];
	136 -- 137	[pos="249.81,688.77 281.81,643.69 371.15,517.81 403.19,472.65"];
	141 -- 142	[pos="1002.8,1247.5 995.55,1209.1 978.5,1119.4 971.21,1081"];
	147	[height=0.5,
		pos="89.694,671.78",
		width=0.75];
	146 -- 147	[pos="120.33,878.84 114.09,836.69 98.624,732.14 92.376,689.91"];
	147 -- 148	[pos="111.8,661.14 161.61,637.14 282.15,579.09 332.07,555.04"];
	151	[height=0.5,
		pos="230.25,495.25",
		width=0.75];
	150 -- 151	[pos="179.57,713.62 189.81,669.48 215.91,557.02 226.09,513.16"];
	151 -- 152	[pos="255.12,487.87 316.61,469.61 475.19,422.53 536.51,404.33"];
	156	[height=0.5,
		pos="125.33,950.57",
		width=0.75];
	155 -- 156	[pos="69.219,804.51 81.25,835.82 106.33,901.11 118.46,932.69"];
	156 -- 157	[pos="149.98,958.5 193.52,972.51 283.52,1001.5 327.03,1015.5"];
	160 -- 161	[pos="1076.5,155.46 1103.2,176.24 1153.6,215.43 1180.5,236.35"];
	164	[height=0.5,
		pos="1503,332.66",
		width=0.75];
	163 -- 164	[pos="1343.9,191.39 1377.5,221.19 1453.2,288.48 1486.6,318.14"];
	164 -- 165	[pos="1508.9,350.53 1521.9,389.48 1552.5,481.62 1565.4,520.4"];
	168	[height=0.5,
		pos="250.98,297.73",
		width=0.75];
	167 -- 168	[pos="237.67,270.83 239.24,274.02 240.89,277.35 242.47,280.54"];
	168 -- 169	[pos="267.65,312.24 292.08,333.52 337.38,372.95 361.82,394.23"];
	174	[height=0.5,
		pos="401.85,126.85",
		width=0.75];
	173 -- 174	[pos="358.28,157.75 366.16,152.17 375.31,145.67 383.19,140.09"];
	174 -- 175	[pos="422.81,138.57 449.21,153.32 494.31,178.53 520.77,193.32"];
	181	[height=0.5,
		pos="167.44,994.6",
		width=0.75];
	180 -- 181	[pos="80.909,868.97 99.784,896.38 137.25,950.78 156.08,978.11"];
	181 -- 182	[pos="194.13,997.82 254.28,1005.1 399.86,1022.7 460.15,1029.9"];
	190 -- 191	[pos="261.6,1192.5 303.04,1177 387.91,1145.4 429.2,1130"];
	195	[height=0.5,
		pos="643.62,1349.2",
		width=0.75];
	194 -- 195	[pos="464.29,1264.1 503.16,1282.5 582.75,1320.3 621.47,1338.7"];
	195 -- 196	[pos="660.01,1334.6 703.56,1296.1 821.84,1191.3 865.52,1152.6"];
	199	[height=0.5,
		pos="1118.8,1340.9",
		width=0.75];
	198 -- 199	[pos="915.19,1341.7 959.77,1341.5 1047.5,1341.2 1091.8,1341"];
	199 -- 200	[pos="1135.6,1326.7 1184.6,1285.2 1327.5,1164.5 1376.7,1122.8"];
	202 -- 203	[pos="132.53,730.05 164.04,709.31 225.94,668.59 257.44,647.87"];
	206	[height=0.5,
		pos="152.18,654.83",
		width=0.75];
	205 -- 206	[pos="50.252,695.41 72.594,686.52 106.18,673.14 128.63,664.2"];
	206 -- 207	[pos="179.26,653.7 245.53,650.95 415.29,643.91 481.52,641.16"];
	213 -- 214	[pos="490.15,1199.6 541.02,1178.3 662.74,1127.3 713.56,1106"];
	220 -- 221	[pos="583.37,1323.1 589.14,1289.3 601.45,1217.1 607.21,1183.3"];
	223 -- 224	[pos="1152.5,553.18 1184.3,527.51 1251.6,473.32 1283.5,447.64"];
	227	[height=0.5,
		pos="1072.9,1423.3",
		width=0.75];
	226 -- 227	[pos="965.1,1392.9 988.68,1399.5 1023.9,1409.5 1047.6,1416.2"];
	227 -- 228	[pos="1079.4,1405.7 1091.6,1373 1117.6,1303 1129.7,1270.4"];
	230 -- 231	[pos="1393.5,1214.9 1432.6,1187.5 1521.8,1125.1 1560.9,1097.7"];
	240	[height=0.5,
		pos="871.18,1433.2",
		width=0.75];
	239 -- 240	[pos="832.36,1443 836.71,1441.9 841.22,1440.8 845.58,1439.7"];
	240 -- 241	[pos="876.44,1415.5 888.06,1376.5 915.83,1283.2 927.52,1244"];
	244	[height=0.5,
		pos="87.535,617.33",
		width=0.75];
	243 -- 244	[pos="121.92,776.87 114.58,742.84 98.765,669.44 91.424,635.38"];
	244 -- 245	[pos="107.32,604.97 156.12,574.48 281.77,495.96 330.8,465.32"];
	251 -- 252	[pos="1323.4,1181.8 1364.2,1152.5 1460.7,1083 1501.3,1053.7"];
	255	[height=0.5,
		pos="941.52,1270.1",
		width=0.75];
	254 -- 255	[pos="866.62,1370.5 883.15,1348.3 912.63,1308.8 929.25,1286.5"];
	255 -- 256	[pos="939.42,1252 934.03,1205.8 919.77,1083.7 914.36,1037.3"];
	258 -- 259	[pos="273,559.61 305.13,520.55 387.87,419.98 420.15,380.74"];
	261 -- 262	[pos="1098.3,1281.6 1128.9,1249.7 1199.4,1176.2 1230.3,1144"];
	271	[height=0.5,
		pos="1700.5,877.23",
		width=0.75];
	270 -- 271	[pos="1706.3,719.91 1705,753.62 1702.4,825.59 1701.1,859.22"];
	271 -- 272	[pos="1678,887.28 1643,903.01 1575.5,933.28 1540.3,949.06"];
	275	[height=0.5,
		pos="1791.3,658.27",
		width=0.75];
	274 -- 275	[pos="1727.4,557 1741.5,579.35 1766.4,618.83 1780.6,641.33"];
	275 -- 276	[pos="1776.1,673.41 1758.5,690.99 1729.6,719.81 1712,737.38"];
	280 -- 281	[pos="1118.3,170.65 1069.6,164.79 966.72,152.44 917.97,146.58"];
	285 -- 286	[pos="1430.8,937.22 1389.1,949.53 1305.6,974.2 1263.9,986.52"];
	289	[height=0.5,
		pos="1565,371.4",
		width=0.75];
	288 -- 289	[pos="1572.6,344.84 1571.8,347.73 1570.9,350.72 1570.1,353.61"];
	289 -- 290	[pos="1545.6,383.94 1519,401.08 1471.5,431.66 1444.7,448.89"];
	300	[height=0.5,
		pos="1581.9,1153",
		width=0.75];
	299 -- 300	[pos="1550.2,1182.4 1555.3,1177.7 1560.9,1172.5 1566,1167.8"];
	300 -- 301	[pos="1564.8,1138.9 1540.3,1118.5 1495.3,1081.1 1470.8,1060.7"];
	305 -- 306	[pos="1192.2,1346.3 1166.8,1317.3 1113.1,1256.2 1087.8,1227.4"];
	309	[height=0.5,
		pos="1704.2,990.66",
		width=0.75];
	308 -- 309	[pos="1650.9,1091.8 1662.7,1069.4 1683.3,1030.3 1695.1,1007.9"];
	309 -- 310	[pos="1685.1,977.48 1643.5,948.76 1545.1,880.8 1503.7,852.2"];
	318 -- 319	[pos="1739.2,995.46 1703.9,994.22 1642.4,992.06 1607,990.82"];
	321 -- 322	[pos="1618.8,999.83 1562.1,976.65 1416.9,917.26 1360.2,894.09"];
	327 -- 328	[pos="1351.8,383.08 1304.4,374.45 1205.5,356.41 1158.3,347.8"];
	330 -- 331	[pos="1463.2,417.56 1418.3,401.96 1322.4,368.65 1277.6,353.08"];
	336 -- 337	[pos="388.78,811.54 436.5,816.01 535.17,825.25 582.87,829.71"];
	341 -- 342	[pos="434.13,237.74 464.91,253.19 520.93,281.31 551.66,296.73"];
	346	[height=0.5,
		pos="1282.4,1333.9",
		width=0.75];
	345 -- 346	[pos="1313.7,1169.4 1307.1,1204.5 1292.5,1280.8 1285.9,1315.8"];
	346 -- 347	[pos="1269.9,1317.7 1250.4,1292.3 1212.8,1243.4 1193.2,1217.9"];
	350 -- 351	[pos="1057.9,195.8 1030.8,203.68 987.68,216.2 960.48,224.1"];
	354	[height=0.5,
		pos="1389.9,189.83",
		width=0.75];
	353 -- 354	[pos="1270.9,146.25 1297.3,155.91 1339.5,171.37 1365.9,181.04"];
	354 -- 355	[pos="1388.1,208.03 1383.2,258.29 1369.6,398.61 1364.7,448.95"];
	357 -- 358	[pos="396.44,622.89 426.66,663.91 505.56,771.01 535.8,812.06"];
	361	[height=0.5,
		pos="1215,181.51",
		width=0.75];
	360 -- 361	[pos="1064.5,52.647 1096.4,79.936 1165.7,139.32 1197.9,166.89"];
	361 -- 362	[pos="1221,199.31 1228.2,220.71 1240.3,256.4 1247.5,277.74"];
	368 -- 369	[pos="1292.1,1236.7 1267.5,1217.4 1223.2,1182.8 1198.5,1163.4"];
	372	[height=0.5,
		pos="1680.1,798.25",
		width=0.75];
	371 -- 372	[pos="1754.5,903.8 1738.1,880.51 1708.3,838.19 1691.8,814.83"];
	372 -- 373	[pos="1656.2,789.48 1621.5,776.81 1557.9,753.53 1523.3,740.9"];
	376	[height=0.5,
		pos="1309.4,127.4",
		width=0.75];
	375 -- 376	[pos="1399.8,267.62 1380.3,237.4 1339.6,174.22 1320.2,144.08"];
	376 -- 377	[pos="1285.2,135.4 1228.1,154.28 1085.6,201.42 1028.5,220.3"];
	390 -- 391	[pos="664.19,101.32 669.32,119.91 677.34,148.95 682.48,167.6"];
}
