graph {
	graph [bb="0,0,710.52,569.15",
		outputorder=edgesfirst,
		overlap=prism,
		size="50,50!",
		start=3047
	];
	node [label="\N"];
	0	[height=0.5,
		pos="29.76,380.62",
		width=0.75];
	1	[height=0.5,
		pos="135.62,416.65",
		width=0.75];
	0 -- 1	[pos="54.047,388.89 71.261,394.75 94.26,402.57 111.45,408.42"];
	10	[height=0.5,
		pos="27,288.59",
		width=0.75];
	0 -- 10	[pos="29.215,362.44 28.731,346.31 28.028,322.86 27.544,306.74"];
	2	[height=0.5,
		pos="288.32,496.19",
		width=0.75];
	1 -- 2	[pos="157.18,427.88 186.28,443.04 237.83,469.89 266.88,485.02"];
	11	[height=0.5,
		pos="95.098,276.22",
		width=0.75];
	1 -- 11	[pos="130.49,398.86 122.74,372 108.12,321.35 100.32,294.31"];
	13	[height=0.5,
		pos="105.41,222.61",
		width=0.75];
	10 -- 13	[pos="44.015,274.27 57.167,263.21 75.288,247.96 88.432,236.9"];
	10 -- 11	[pos="53.134,283.84 58.235,282.92 63.587,281.95 68.697,281.02"];
	3	[height=0.5,
		pos="441.94,488.44",
		width=0.75];
	2 -- 3	[pos="315.43,494.83 343.42,493.41 386.85,491.22 414.84,489.81"];
	37	[height=0.5,
		pos="390.89,551.15",
		width=0.75];
	2 -- 37	[pos="309.57,507.58 327.18,517.01 352.07,530.35 369.67,539.78"];
	16	[height=0.5,
		pos="152.76,320.26",
		width=0.75];
	13 -- 16	[pos="113.88,240.07 122.5,257.84 135.78,285.24 144.37,302.96"];
	14	[height=0.5,
		pos="222.69,137.05",
		width=0.75];
	13 -- 14	[pos="123.74,209.24 145.64,193.26 182.09,166.67 204.11,150.6"];
	4	[height=0.5,
		pos="553.66,404.95",
		width=0.75];
	3 -- 4	[pos="460.38,474.65 481.21,459.09 514.87,433.94 535.55,418.48"];
	24	[height=0.5,
		pos="392.79,444.41",
		width=0.75];
	3 -- 24	[pos="425.57,473.78 420.21,468.98 414.26,463.64 408.91,458.86"];
	20	[height=0.5,
		pos="206.72,399.46",
		width=0.75];
	16 -- 20	[pos="163.94,336.67 173.2,350.27 186.3,369.49 195.55,383.08"];
	17	[height=0.5,
		pos="214.82,288.07",
		width=0.75];
	16 -- 17	[pos="174.12,309.18 180.29,305.98 187.03,302.49 193.21,299.28"];
	5	[height=0.5,
		pos="617.38,291.11",
		width=0.75];
	4 -- 5	[pos="563.34,387.66 575.38,366.14 595.83,329.61 607.82,308.19"];
	31	[height=0.5,
		pos="613.01,360.61",
		width=0.75];
	4 -- 31	[pos="571.79,391.4 579.15,385.9 587.64,379.56 594.99,374.07"];
	23	[height=0.5,
		pos="330.79,428.15",
		width=0.75];
	20 -- 23	[pos="232.43,405.41 253.72,410.33 283.83,417.29 305.11,422.21"];
	21	[height=0.5,
		pos="268.76,392.95",
		width=0.75];
	20 -- 21	[pos="233.75,396.63 236.49,396.34 239.28,396.05 242.02,395.76"];
	6	[height=0.5,
		pos="567.41,184.94",
		width=0.75];
	5 -- 6	[pos="609.13,273.58 599.81,253.79 584.76,221.8 575.51,202.15"];
	40	[height=0.5,
		pos="683.52,310.05",
		width=0.75];
	5 -- 40	[pos="642.38,298.27 647.65,299.78 653.21,301.37 658.48,302.88"];
	26	[height=0.5,
		pos="423.96,392.38",
		width=0.75];
	23 -- 26	[pos="354.3,419.12 368.42,413.7 386.33,406.83 400.46,401.4"];
	23 -- 24	[pos="356,434.76 359.76,435.75 363.63,436.76 367.39,437.75"];
	7	[height=0.5,
		pos="467.05,85.328",
		width=0.75];
	6 -- 7	[pos="552.17,169.81 533.2,150.98 501,119.02 482.11,100.27"];
	32	[height=0.5,
		pos="581.29,230.75",
		width=0.75];
	6 -- 32	[pos="572.82,202.78 573.82,206.1 574.87,209.56 575.87,212.88"];
	28	[height=0.5,
		pos="497.06,360.9",
		width=0.75];
	26 -- 28	[pos="446.69,382.59 455.49,378.8 465.54,374.47 474.34,370.68"];
	27	[height=0.5,
		pos="435.01,321.21",
		width=0.75];
	26 -- 27	[pos="426.75,374.42 428.41,363.72 430.52,350.16 432.18,339.41"];
	8	[height=0.5,
		pos="311.92,67.27",
		width=0.75];
	7 -- 8	[pos="440.38,82.224 411.97,78.916 367.24,73.71 338.76,70.394"];
	42	[height=0.5,
		pos="593.71,99.066",
		width=0.75];
	7 -- 42	[pos="493.91,88.242 515.41,90.573 545.4,93.827 566.88,96.157"];
	30	[height=0.5,
		pos="553.05,453.47",
		width=0.75];
	28 -- 30	[pos="507.33,377.88 517.43,394.58 532.76,419.94 542.84,436.6"];
	29	[height=0.5,
		pos="504.6,257.3",
		width=0.75];
	28 -- 29	[pos="498.37,342.86 499.75,323.96 501.9,294.44 503.28,275.48"];
	9	[height=0.5,
		pos="190.46,61.831",
		width=0.75];
	8 -- 9	[pos="284.96,66.063 264.98,65.168 237.83,63.952 217.76,63.054"];
	8 -- 14	[pos="294.29,81.056 278.65,93.288 255.91,111.07 240.28,123.29"];
	35	[height=0.5,
		pos="463.73,541.62",
		width=0.75];
	30 -- 35	[pos="537.9,468.42 521.47,484.63 495.41,510.35 478.96,526.59"];
	30 -- 31	[pos="563.77,436.87 574.61,420.07 591.29,394.24 602.18,377.38"];
	12	[height=0.5,
		pos="98.569,154.77",
		width=0.75];
	9 -- 12	[pos="175.29,77.177 158.16,94.5 130.47,122.5 113.46,139.71"];
	36	[height=0.5,
		pos="350.39,505.97",
		width=0.75];
	35 -- 36	[pos="439.14,533.88 420.13,527.9 393.94,519.67 374.94,513.69"];
	11 -- 17	[pos="121.97,278.88 141.68,280.83 168.35,283.47 188.04,285.42"];
	11 -- 12	[pos="95.618,258.04 96.272,235.14 97.39,196.03 98.045,173.07"];
	17 -- 21	[pos="223.73,305.39 233.72,324.82 249.84,356.16 259.84,375.61"];
	18	[height=0.5,
		pos="307.31,182.25",
		width=0.75];
	17 -- 18	[pos="228.47,272.45 245.95,252.45 276.09,217.96 293.61,197.93"];
	21 -- 36	[pos="280.8,409.63 296.33,431.12 323.14,468.25 338.56,489.59"];
	22	[height=0.5,
		pos="278.13,308.71",
		width=0.75];
	21 -- 22	[pos="270.79,374.67 272.37,360.45 274.56,340.81 276.13,326.66"];
	15	[height=0.5,
		pos="160.63,130.19",
		width=0.75];
	12 -- 15	[pos="122.03,145.47 126.97,143.52 132.19,141.45 137.13,139.49"];
	36 -- 37	[pos="364.33,521.52 368.36,526.01 372.75,530.92 376.79,535.42"];
	14 -- 15	[pos="196.01,134.1 193.12,133.78 190.18,133.45 187.29,133.14"];
	14 -- 18	[pos="244.04,148.45 256.87,155.31 273.14,163.99 285.96,170.85"];
	19	[height=0.5,
		pos="234.31,201.64",
		width=0.75];
	15 -- 19	[pos="176.26,145.34 188.84,157.55 206.45,174.62 218.96,186.75"];
	38	[height=0.5,
		pos="503.99,497.6",
		width=0.75];
	37 -- 38	[pos="412.97,540.7 432.89,531.26 462.06,517.45 481.97,508.03"];
	24 -- 38	[pos="414.75,454.92 434.12,464.18 462.21,477.62 481.68,486.93"];
	25	[height=0.5,
		pos="361.91,362.03",
		width=0.75];
	24 -- 25	[pos="386.24,426.94 381.03,413.05 373.79,393.71 368.56,379.76"];
	18 -- 19	[pos="282.19,188.92 274.93,190.85 267,192.96 259.73,194.89"];
	33	[height=0.5,
		pos="464.66,152.35",
		width=0.75];
	18 -- 33	[pos="333.29,177.31 362.45,171.77 409.47,162.84 438.64,157.29"];
	19 -- 22	[pos="241.55,219.32 249.67,239.16 262.76,271.15 270.88,291"];
	39	[height=0.5,
		pos="630.54,422.48",
		width=0.75];
	38 -- 39	[pos="524.32,485.53 547.93,471.51 586.66,448.53 610.26,434.52"];
	31 -- 39	[pos="618.08,378.5 620.38,386.64 623.11,396.25 625.42,404.41"];
	31 -- 32	[pos="608.66,342.82 602.62,318.09 591.75,273.57 585.68,248.74"];
	22 -- 25	[pos="297.99,321.34 311.34,329.84 328.87,341 342.2,349.48"];
	39 -- 40	[pos="638.82,404.91 648.77,383.79 665.37,348.56 675.3,327.49"];
	25 -- 27	[pos="382.66,350.44 392.54,344.93 404.32,338.35 414.21,332.83"];
	41	[height=0.5,
		pos="659.28,197.23",
		width=0.75];
	40 -- 41	[pos="679.68,292.17 675.17,271.17 667.72,236.52 663.18,215.4"];
	32 -- 41	[pos="604.26,220.88 614.42,216.51 626.33,211.39 636.46,207.04"];
	32 -- 33	[pos="562.03,217.8 540.42,203.28 505.57,179.85 483.95,165.32"];
	27 -- 29	[pos="451.15,306.39 462.39,296.06 477.32,282.35 488.55,272.04"];
	41 -- 42	[pos="648.15,180.58 636.1,162.53 616.96,133.88 604.88,115.8"];
	34	[height=0.5,
		pos="531.66,140.9",
		width=0.75];
	29 -- 34	[pos="508.77,239.36 513.84,217.56 522.35,180.95 527.44,159.04"];
	43	[height=0.5,
		pos="530.34,57.052",
		width=0.75];
	42 -- 43	[pos="574.35,86.232 566.49,81.02 557.43,75.012 549.58,69.807"];
	33 -- 34	[pos="491.14,147.82 495.82,147.02 500.7,146.19 505.37,145.39"];
	33 -- 43	[pos="476.1,135.75 488.16,118.26 507.03,90.88 519.03,73.461"];
	44	[height=0.5,
		pos="592.4,18",
		width=0.75];
	34 -- 44	[pos="540.23,123.55 551.81,100.13 572.31,58.637 583.87,35.26"];
	43 -- 44	[pos="549.98,44.696 557.22,40.137 565.43,34.973 572.68,30.41"];
}
