graph {
	graph [bb="0,0,1612.8,1103.4",
		outputorder=edgesfirst,
		overlap=prism,
		size="50,50!",
		start=7057
	];
	node [label="\N"];
	0	[height=0.5,
		pos="1090.4,665.13",
		width=0.75];
	50	[height=0.5,
		pos="1128.8,374.68",
		width=0.75];
	0 -- 50	[pos="1092.8,646.96 1099.7,594.8 1119.5,444.99 1126.4,392.84"];
	81	[height=0.5,
		pos="999.54,723.23",
		width=0.75];
	0 -- 81	[pos="1070.7,677.74 1055.4,687.48 1034.4,700.91 1019.2,710.65"];
	85	[height=0.5,
		pos="1158.7,912.45",
		width=0.75];
	0 -- 85	[pos="1095.3,682.92 1107.9,728.44 1141.1,848.78 1153.7,894.49"];
	88	[height=0.5,
		pos="1079.6,912.7",
		width=0.75];
	0 -- 88	[pos="1089.6,683.34 1087.6,729.12 1082.4,848.65 1080.4,894.47"];
	104	[height=0.5,
		pos="1222.5,550.93",
		width=0.75];
	0 -- 104	[pos="1107.1,650.67 1132.5,628.7 1180.6,587.17 1205.9,565.28"];
	108	[height=0.5,
		pos="976.44,916.75",
		width=0.75];
	0 -- 108	[pos="1082.5,682.43 1061.7,728.39 1005.2,853.23 984.33,899.34"];
	112	[height=0.5,
		pos="1377,503.39",
		width=0.75];
	0 -- 112	[pos="1111,653.5 1163.7,623.73 1303.2,545.03 1356.2,515.13"];
	114	[height=0.5,
		pos="1247,418.74",
		width=0.75];
	0 -- 114	[pos="1101.1,648.2 1129.8,603.08 1207.8,480.35 1236.4,435.47"];
	119	[height=0.5,
		pos="1091.7,748.24",
		width=0.75];
	0 -- 119	[pos="1090.7,683.17 1090.9,697.01 1091.2,716.05 1091.4,729.96"];
	128	[height=0.5,
		pos="1423.5,671.18",
		width=0.75];
	0 -- 128	[pos="1117.6,665.63 1180.3,666.76 1333.8,669.55 1396.4,670.68"];
	129	[height=0.5,
		pos="919.39,551.55",
		width=0.75];
	0 -- 129	[pos="1071.1,652.32 1038.2,630.45 971.48,586.16 938.6,564.32"];
	135	[height=0.5,
		pos="953.2,596.33",
		width=0.75];
	0 -- 135	[pos="1068.6,654.23 1043,641.35 1000.5,620.04 974.84,607.18"];
	150	[height=0.5,
		pos="1154.1,740.41",
		width=0.75];
	0 -- 150	[pos="1103.9,681.1 1114.8,693.96 1130,711.94 1140.9,724.73"];
	153	[height=0.5,
		pos="1000.3,551.56",
		width=0.75];
	0 -- 153	[pos="1077.5,648.86 1060.4,627.27 1030.3,589.38 1013.2,567.8"];
	188	[height=0.5,
		pos="1290.6,829.6",
		width=0.75];
	0 -- 188	[pos="1107.4,679.15 1145.3,710.23 1235.8,784.57 1273.6,815.61"];
	190	[height=0.5,
		pos="1241.5,727.02",
		width=0.75];
	0 -- 190	[pos="1113.7,674.67 1142.1,686.33 1190,705.96 1218.4,717.58"];
	204	[height=0.5,
		pos="900.38,828.71",
		width=0.75];
	0 -- 204	[pos="1073.5,679.65 1037.4,710.77 952.8,783.58 916.93,814.46"];
	245	[height=0.5,
		pos="773.51,652.4",
		width=0.75];
	0 -- 245	[pos="1063.4,664.05 1003.6,661.65 860.97,655.92 800.91,653.5"];
	246	[height=0.5,
		pos="1283.9,640.56",
		width=0.75];
	0 -- 246	[pos="1117.3,661.72 1154.3,657.02 1220.4,648.62 1257.2,643.94"];
	1	[height=0.5,
		pos="1015.2,632.7",
		width=0.75];
	51	[height=0.5,
		pos="1005,478",
		width=0.75];
	1 -- 51	[pos="1014,614.65 1012.1,585 1008.2,526.3 1006.2,496.41"];
	62	[height=0.5,
		pos="879.73,595.57",
		width=0.75];
	1 -- 62	[pos="990.07,625.8 965.73,619.13 929.06,609.09 904.76,602.43"];
	72	[height=0.5,
		pos="838.36,828.46",
		width=0.75];
	1 -- 72	[pos="1001.1,648.39 967.86,685.13 885.38,776.42 852.35,812.97"];
	74	[height=0.5,
		pos="1135.9,855.28",
		width=0.75];
	1 -- 74	[pos="1024.5,649.8 1047,691.23 1104.1,796.64 1126.6,838.13"];
	76	[height=0.5,
		pos="1346.3,579.56",
		width=0.75];
	1 -- 76	[pos="1041.5,628.48 1103.4,618.54 1258.1,593.72 1320.1,583.77"];
	77	[height=0.5,
		pos="1309.1,460.93",
		width=0.75];
	1 -- 77	[pos="1035.9,620.62 1089.8,589.08 1234.5,504.52 1288.4,472.99"];
	80	[height=0.5,
		pos="882.48,893.48",
		width=0.75];
	1 -- 80	[pos="1006.5,649.81 982.47,697.06 915.32,828.98 891.22,876.3"];
	84	[height=0.5,
		pos="1156.8,696.38",
		width=0.75];
	1 -- 84	[pos="1037.7,642.79 1064,654.64 1107.5,674.2 1134,686.12"];
	87	[height=0.5,
		pos="1077.3,621.07",
		width=0.75];
	1 -- 87	[pos="1041.5,627.77 1044.7,627.17 1048,626.57 1051.1,625.97"];
	90	[height=0.5,
		pos="1093.2,478.27",
		width=0.75];
	1 -- 90	[pos="1023.9,615.58 1038.9,585.9 1069.5,525.2 1084.5,495.47"];
	96	[height=0.5,
		pos="1061.3,374.17",
		width=0.75];
	1 -- 96	[pos="1018.5,614.52 1026.9,567.05 1049.6,439.78 1058.1,392.33"];
	102	[height=0.5,
		pos="858.63,740.42",
		width=0.75];
	1 -- 102	[pos="996.35,645.69 966.25,666.4 907.73,706.65 877.58,727.38"];
	117	[height=0.5,
		pos="1251.2,506.8",
		width=0.75];
	1 -- 117	[pos="1036.6,621.3 1081.5,597.33 1185.3,541.94 1230,518.08"];
	1 -- 119	[pos="1026.2,649.25 1040.7,671.22 1066.3,709.77 1080.8,731.72"];
	139	[height=0.5,
		pos="949.79,872.75",
		width=0.75];
	1 -- 139	[pos="1010.3,650.74 998.16,695.34 966.8,810.35 954.67,854.83"];
	1 -- 150	[pos="1033.1,646.56 1059.8,667.24 1109.7,705.95 1136.3,726.6"];
	151	[height=0.5,
		pos="1260,785.47",
		width=0.75];
	1 -- 151	[pos="1035.3,645.2 1081.3,673.92 1194.1,744.33 1240,773.01"];
	164	[height=0.5,
		pos="756.83,473.25",
		width=0.75];
	1 -- 164	[pos="995.39,620.45 947.29,590.77 824.91,515.26 776.74,485.54"];
	167	[height=0.5,
		pos="764.75,756.41",
		width=0.75];
	1 -- 167	[pos="993.45,643.46 946.08,666.86 834.16,722.13 786.67,745.58"];
	173	[height=0.5,
		pos="1138.9,528.08",
		width=0.75];
	1 -- 173	[pos="1032.2,618.37 1055.9,598.34 1098.6,562.18 1122.2,542.24"];
	177	[height=0.5,
		pos="817.7,608.38",
		width=0.75];
	1 -- 177	[pos="988.6,629.42 950.9,624.78 882.36,616.34 844.55,611.68"];
	178	[height=0.5,
		pos="569.51,546.53",
		width=0.75];
	1 -- 178	[pos="989.02,627.63 909.99,612.35 674.68,566.86 595.7,551.59"];
	181	[height=0.5,
		pos="942.92,507.53",
		width=0.75];
	1 -- 181	[pos="1005.5,615.82 991.68,591.93 966.59,548.5 952.75,524.54"];
	191	[height=0.5,
		pos="1073.9,868.65",
		width=0.75];
	1 -- 191	[pos="1019.7,650.82 1030.7,694.85 1058.6,807.03 1069.5,850.79"];
	200	[height=0.5,
		pos="1177.6,638.98",
		width=0.75];
	1 -- 200	[pos="1042.4,633.75 1072.5,634.91 1120.6,636.78 1150.6,637.94"];
	223	[height=0.5,
		pos="1176.9,594.94",
		width=0.75];
	1 -- 223	[pos="1040.8,626.72 1071.1,619.64 1121.2,607.95 1151.4,600.89"];
	226	[height=0.5,
		pos="1197.9,828.49",
		width=0.75];
	1 -- 226	[pos="1029.6,648.06 1063.7,684.66 1149.6,776.67 1183.7,813.2"];
	227	[height=0.5,
		pos="827.22,784.44",
		width=0.75];
	1 -- 227	[pos="997.89,646.7 962.07,675.61 880.31,741.6 844.53,770.47"];
	232	[height=0.5,
		pos="1011.8,870.77",
		width=0.75];
	1 -- 232	[pos="1015,650.98 1014.3,695.41 1012.7,808.59 1012.1,852.74"];
	235	[height=0.5,
		pos="1093.2,418.71",
		width=0.75];
	1 -- 235	[pos="1021.6,615.19 1036.2,575.06 1072,476.82 1086.8,436.46"];
	242	[height=0.5,
		pos="684.97,486.59",
		width=0.75];
	1 -- 242	[pos="992.54,622.66 932.2,595.97 768.35,523.48 707.83,496.71"];
	249	[height=0.5,
		pos="1209.4,462.79",
		width=0.75];
	1 -- 249	[pos="1031.8,618.21 1068.5,586.11 1156.3,509.3 1192.9,477.24"];
	2	[height=0.5,
		pos="582.17,295.41",
		width=0.75];
	52	[height=0.5,
		pos="464.48,532.7",
		width=0.75];
	2 -- 52	[pos="573.51,312.86 551.7,356.85 494.65,471.87 472.99,515.54"];
	61	[height=0.5,
		pos="560.76,458.25",
		width=0.75];
	2 -- 61	[pos="579.79,313.46 575.68,344.76 567.27,408.76 563.15,440.12"];
	63	[height=0.5,
		pos="889.15,335.63",
		width=0.75];
	2 -- 63	[pos="608.87,298.91 666.93,306.52 804.09,324.49 862.29,332.11"];
	93	[height=0.5,
		pos="407.57,178.44",
		width=0.75];
	2 -- 93	[pos="562.81,282.44 529.16,259.9 460.27,213.74 426.74,191.28"];
	103	[height=0.5,
		pos="399.25,354.15",
		width=0.75];
	2 -- 103	[pos="557.5,303.33 522.49,314.58 458.77,335.04 423.82,346.26"];
	118	[height=0.5,
		pos="375.88,310.06",
		width=0.75];
	2 -- 118	[pos="555.2,297.32 515.67,300.13 442.4,305.33 402.86,308.14"];
	122	[height=0.5,
		pos="650.43,83.664",
		width=0.75];
	2 -- 122	[pos="587.87,277.72 600.72,237.86 631.82,141.4 644.7,101.45"];
	144	[height=0.5,
		pos="515.79,135.77",
		width=0.75];
	2 -- 144	[pos="574.94,278.02 562.17,247.31 535.77,183.83 523.01,153.14"];
	152	[height=0.5,
		pos="540.94,180.07",
		width=0.75];
	2 -- 152	[pos="575.91,277.89 568.16,256.21 555.04,219.51 547.26,197.75"];
	2 -- 164	[pos="597.06,310.57 630.06,344.17 709.01,424.56 741.97,458.13"];
	179	[height=0.5,
		pos="713.54,112.98",
		width=0.75];
	2 -- 179	[pos="594.06,278.9 619.07,244.16 676.87,163.9 701.77,129.32"];
	193	[height=0.5,
		pos="799.71,235.54",
		width=0.75];
	2 -- 193	[pos="607.55,288.42 649.47,276.89 732.68,253.99 774.49,242.48"];
	208	[height=0.5,
		pos="925.63,253.52",
		width=0.75];
	2 -- 208	[pos="608.83,292.16 672.82,284.35 834.53,264.63 898.74,256.8"];
	3	[height=0.5,
		pos="755.66,428.03",
		width=0.75];
	53	[height=0.5,
		pos="681.5,381.12",
		width=0.75];
	3 -- 53	[pos="735.79,415.46 725.06,408.68 711.87,400.33 701.17,393.56"];
	54	[height=0.5,
		pos="1031.2,433.99",
		width=0.75];
	3 -- 54	[pos="782.83,428.62 835.51,429.76 950.98,432.25 1003.8,433.39"];
	3 -- 62	[pos="767.78,444.4 791.56,476.51 844.07,547.41 867.74,579.38"];
	73	[height=0.5,
		pos="739.51,337.11",
		width=0.75];
	3 -- 73	[pos="752.47,410.07 749.64,394.13 745.52,370.96 742.69,355.04"];
	78	[height=0.5,
		pos="969.09,433.63",
		width=0.75];
	3 -- 78	[pos="782.69,428.74 823.63,429.81 900.93,431.84 941.95,432.92"];
	98	[height=0.5,
		pos="863.61,290.7",
		width=0.75];
	3 -- 98	[pos="768.25,412.01 788.94,385.69 829.91,333.58 850.76,307.04"];
	99	[height=0.5,
		pos="526.55,502.51",
		width=0.75];
	3 -- 99	[pos="731.14,436 687.04,450.34 594.86,480.3 550.89,494.59"];
	101	[height=0.5,
		pos="668.5,286.47",
		width=0.75];
	3 -- 101	[pos="745.32,411.24 728.54,383.99 695.59,330.47 678.83,303.24"];
	105	[height=0.5,
		pos="1033.1,330.07",
		width=0.75];
	3 -- 105	[pos="779.79,419.51 832.39,400.94 956.82,357 1009.2,338.5"];
	3 -- 135	[pos="772.5,442.38 809.82,474.18 899.12,550.26 936.4,582.02"];
	137	[height=0.5,
		pos="901.49,208.27",
		width=0.75];
	3 -- 137	[pos="766.62,411.51 793.65,370.79 863.25,265.91 890.41,224.98"];
	3 -- 153	[pos="777.37,438.99 823.81,462.44 932.29,517.2 978.67,540.62"];
	155	[height=0.5,
		pos="592.7,408.4",
		width=0.75];
	3 -- 155	[pos="728.75,424.79 698.47,421.14 649.57,415.25 619.38,411.61"];
	166	[height=0.5,
		pos="801.56,312.18",
		width=0.75];
	3 -- 166	[pos="762.63,410.44 771.26,388.66 785.86,351.79 794.52,329.94"];
	171	[height=0.5,
		pos="636.15,240.45",
		width=0.75];
	3 -- 171	[pos="745.05,411.38 722.38,375.79 669.39,292.62 646.73,257.06"];
	217	[height=0.5,
		pos="596.71,627.2",
		width=0.75];
	3 -- 217	[pos="742.92,443.99 713.16,481.29 639.33,573.8 609.51,611.16"];
	243	[height=0.5,
		pos="711.46,668.11",
		width=0.75];
	3 -- 243	[pos="752.34,446.08 744.13,490.68 722.95,605.71 714.76,650.18"];
	4	[height=0.5,
		pos="829.69,381.22",
		width=0.75];
	4 -- 51	[pos="850.48,392.7 884.13,411.28 950.13,447.72 983.93,466.38"];
	55	[height=0.5,
		pos="1085.2,238.07",
		width=0.75];
	4 -- 55	[pos="850.6,369.51 898.63,342.6 1016.4,276.62 1064.3,249.74"];
	68	[height=0.5,
		pos="727.72,198.41",
		width=0.75];
	4 -- 68	[pos="820.1,364.02 800.61,329.09 756.62,250.21 737.22,215.43"];
	89	[height=0.5,
		pos="631.53,530.63",
		width=0.75];
	4 -- 89	[pos="811.75,394.74 774.12,423.12 687.29,488.59 649.57,517.03"];
	4 -- 98	[pos="836.39,363.34 842.38,347.36 851.09,324.1 857.04,308.24"];
	141	[height=0.5,
		pos="622.81,469.15",
		width=0.75];
	4 -- 141	[pos="806.76,390.97 766.99,407.87 685.68,442.43 645.85,459.36"];
	154	[height=0.5,
		pos="1142.3,282.19",
		width=0.75];
	4 -- 154	[pos="854.22,373.45 912.66,354.94 1059.6,308.4 1117.9,289.92"];
	156	[height=0.5,
		pos="937.22,381.76",
		width=0.75];
	4 -- 156	[pos="856.82,381.36 873.13,381.44 893.8,381.54 910.1,381.63"];
	4 -- 166	[pos="822.59,363.8 818.36,353.41 813,340.26 808.75,329.83"];
	170	[height=0.5,
		pos="693.59,572.08",
		width=0.75];
	4 -- 170	[pos="818.09,397.49 792.44,433.46 731.16,519.39 705.36,555.57"];
	174	[height=0.5,
		pos="1077.6,284.7",
		width=0.75];
	4 -- 174	[pos="853.02,372.14 900.27,353.74 1006.8,312.26 1054.2,293.82"];
	176	[height=0.5,
		pos="714.52,242.43",
		width=0.75];
	4 -- 176	[pos="816.48,365.3 794.38,338.67 750.16,285.38 727.93,258.59"];
	4 -- 181	[pos="843.57,396.71 865.31,420.95 907.12,467.59 928.92,491.91"];
	182	[height=0.5,
		pos="843.5,151.07",
		width=0.75];
	4 -- 182	[pos="830.77,363.16 833.35,320.25 839.81,212.52 842.4,169.37"];
	189	[height=0.5,
		pos="880.91,492.83",
		width=0.75];
	4 -- 189	[pos="837.69,398.66 847.32,419.63 863.37,454.6 872.96,475.51"];
	4 -- 193	[pos="826.01,363.36 820.26,335.4 809.19,281.6 803.42,253.55"];
	195	[height=0.5,
		pos="677.24,337.09",
		width=0.75];
	4 -- 195	[pos="804.86,374.03 776.51,365.83 730.4,352.48 702.06,344.27"];
	231	[height=0.5,
		pos="963.57,175.65",
		width=0.75];
	4 -- 231	[pos="840.65,364.4 865.81,325.75 927.52,231 952.65,192.41"];
	241	[height=0.5,
		pos="756.25,545.82",
		width=0.75];
	4 -- 241	[pos="821.97,398.53 807.87,430.14 778.09,496.88 763.98,528.5"];
	5	[height=0.5,
		pos="728.49,854.22",
		width=0.75];
	56	[height=0.5,
		pos="1016.3,960.77",
		width=0.75];
	5 -- 56	[pos="752.53,863.12 806.84,883.23 938.45,931.96 992.49,951.97"];
	65	[height=0.5,
		pos="524.06,906.69",
		width=0.75];
	5 -- 65	[pos="703.02,860.76 663.73,870.84 588.82,890.07 549.54,900.15"];
	5 -- 72	[pos="753.97,848.24 771.6,844.11 794.96,838.63 812.63,834.49"];
	95	[height=0.5,
		pos="836.62,1037.1",
		width=0.75];
	5 -- 95	[pos="738.47,871.09 759.07,905.92 806.09,985.43 826.66,1020.2"];
	113	[height=0.5,
		pos="703.09,810.2",
		width=0.75];
	5 -- 113	[pos="718.74,837.33 716.84,834.03 714.84,830.57 712.94,827.27"];
	132	[height=0.5,
		pos="770.43,1038.9",
		width=0.75];
	5 -- 132	[pos="732.59,872.26 740.63,907.66 758.37,985.82 766.38,1021.1"];
	157	[height=0.5,
		pos="437.24,959.16",
		width=0.75];
	5 -- 157	[pos="704.66,862.81 649.91,882.54 515.67,930.9 460.99,950.6"];
	158	[height=0.5,
		pos="933.23,782.73",
		width=0.75];
	5 -- 158	[pos="752.78,845.74 792.29,831.94 870,804.81 909.28,791.09"];
	165	[height=0.5,
		pos="586.37,869.56",
		width=0.75];
	5 -- 165	[pos="701.76,857.11 676.51,859.83 638.84,863.9 613.47,866.64"];
	203	[height=0.5,
		pos="565.57,969.3",
		width=0.75];
	5 -- 203	[pos="709.8,867.42 678.46,889.56 615.65,933.92 584.29,956.07"];
	5 -- 204	[pos="754.97,850.29 787.27,845.5 841.55,837.44 873.87,832.65"];
	219	[height=0.5,
		pos="574.99,715.22",
		width=0.75];
	5 -- 219	[pos="712.36,839.61 682.95,812.98 620.96,756.85 591.38,730.06"];
	5 -- 227	[pos="747.06,841.1 764.6,828.7 790.77,810.2 808.4,797.75"];
	5 -- 243	[pos="726.83,836.04 723.56,800.36 716.35,721.6 713.1,686.09"];
	248	[height=0.5,
		pos="455.44,887.11",
		width=0.75];
	5 -- 248	[pos="701.81,857.43 649.61,863.72 534.52,877.59 482.23,883.88"];
	6	[height=0.5,
		pos="1155.3,418.76",
		width=0.75];
	57	[height=0.5,
		pos="809.45,696.41",
		width=0.75];
	6 -- 57	[pos="1137.6,432.91 1078.3,480.54 886.31,634.7 827.04,682.29"];
	60	[height=0.5,
		pos="987.63,219.67",
		width=0.75];
	6 -- 60	[pos="1141.8,402.81 1110.4,365.43 1032.2,272.59 1000.9,235.42"];
	6 -- 63	[pos="1130.7,411.09 1080,395.25 964.3,359.1 913.65,343.28"];
	6 -- 104	[pos="1164.1,436.04 1176.9,461.37 1200.8,508.31 1213.7,533.65"];
	125	[height=0.5,
		pos="1321.5,416.87",
		width=0.75];
	6 -- 125	[pos="1182.4,418.45 1213.3,418.1 1263.6,417.53 1294.5,417.18"];
	159	[height=0.5,
		pos="1204.3,245.02",
		width=0.75];
	6 -- 159	[pos="1160.3,400.82 1169.8,367.44 1189.9,296.17 1199.3,262.86"];
	6 -- 173	[pos="1152.6,436.81 1149.5,457.07 1144.7,489.74 1141.6,510"];
	175	[height=0.5,
		pos="1439.7,462.07",
		width=0.75];
	6 -- 175	[pos="1181.8,422.8 1236,431.05 1358.9,449.77 1413.2,458.03"];
	183	[height=0.5,
		pos="1342.3,329.49",
		width=0.75];
	6 -- 183	[pos="1177.5,408.17 1213.5,390.99 1284.2,357.24 1320.2,340.06"];
	202	[height=0.5,
		pos="1218.9,683",
		width=0.75];
	6 -- 202	[pos="1159.6,436.92 1171.3,485.31 1203,616.93 1214.5,665.06"];
	210	[height=0.5,
		pos="1327.6,684.59",
		width=0.75];
	6 -- 210	[pos="1166,435.39 1197,483.13 1285.9,620.24 1316.9,667.97"];
	7	[height=0.5,
		pos="356.07,579.45",
		width=0.75];
	58	[height=0.5,
		pos="106.99,483.74",
		width=0.75];
	7 -- 58	[pos="332.64,570.44 285.17,552.2 178.11,511.07 130.54,492.79"];
	59	[height=0.5,
		pos="324.06,375.66",
		width=0.75];
	7 -- 59	[pos="353.23,561.36 347.16,522.69 332.96,432.34 326.89,393.71"];
	82	[height=0.5,
		pos="370.15,754.21",
		width=0.75];
	7 -- 82	[pos="357.53,597.49 360.22,630.98 365.97,702.39 368.68,736"];
	7 -- 99	[pos="378.71,569.23 411.41,554.47 471.49,527.35 504.09,512.64"];
	133	[height=0.5,
		pos="314.02,426.19",
		width=0.75];
	7 -- 133	[pos="351.17,561.56 343.06,532.03 326.98,473.41 318.9,443.96"];
	146	[height=0.5,
		pos="231.05,476.97",
		width=0.75];
	7 -- 146	[pos="338.95,565.41 315.14,545.9 272.28,510.76 248.37,491.16"];
	147	[height=0.5,
		pos="346.66,665.2",
		width=0.75];
	7 -- 147	[pos="354.08,597.63 352.48,612.18 350.25,632.49 348.65,647.04"];
	160	[height=0.5,
		pos="410.61,667.91",
		width=0.75];
	7 -- 160	[pos="366.59,596.5 376.31,612.27 390.66,635.55 400.31,651.21"];
	169	[height=0.5,
		pos="437.44,712.18",
		width=0.75];
	7 -- 169	[pos="366.38,596.26 382.03,621.79 411.62,670.05 427.22,695.5"];
	198	[height=0.5,
		pos="220.8,709.03",
		width=0.75];
	7 -- 198	[pos="340.56,594.31 314.6,619.17 262.67,668.93 236.56,693.94"];
	213	[height=0.5,
		pos="169,492.79",
		width=0.75];
	7 -- 213	[pos="333.88,569.16 297.97,552.53 227.53,519.9 191.46,503.19"];
	234	[height=0.5,
		pos="414.86,798.84",
		width=0.75];
	7 -- 234	[pos="360.88,597.4 371.93,638.64 399.03,739.76 410.07,780.95"];
	239	[height=0.5,
		pos="90.797,528.8",
		width=0.75];
	7 -- 239	[pos="329.67,574.4 278.82,564.69 167.86,543.51 117.1,533.82"];
	8	[height=0.5,
		pos="538.29,671.2",
		width=0.75];
	8 -- 61	[pos="540.2,653.05 544.45,612.81 554.61,516.55 558.85,476.36"];
	115	[height=0.5,
		pos="408.8,623.46",
		width=0.75];
	8 -- 115	[pos="514.54,662.45 491.32,653.89 456.16,640.92 432.84,632.32"];
	8 -- 160	[pos="511.21,670.5 489.54,669.95 459.3,669.17 437.65,668.61"];
	161	[height=0.5,
		pos="417.11,488.67",
		width=0.75];
	8 -- 161	[pos="527.32,654.68 504.3,620.02 451.2,540.03 428.14,505.29"];
	162	[height=0.5,
		pos="765.16,810.19",
		width=0.75];
	8 -- 162	[pos="558.42,683.54 601.47,709.91 702.06,771.53 745.08,797.88"];
	212	[height=0.5,
		pos="640.81,825.51",
		width=0.75];
	8 -- 212	[pos="549.26,687.72 568.89,717.26 609.81,778.85 629.61,808.65"];
	9	[height=0.5,
		pos="1273.5,333.1",
		width=0.75];
	9 -- 55	[pos="1251.9,322.2 1215.7,303.91 1143.1,267.28 1106.8,248.99"];
	64	[height=0.5,
		pos="1452.4,298.51",
		width=0.75];
	9 -- 64	[pos="1299.5,328.07 1333.4,321.51 1392.4,310.11 1426.4,303.55"];
	9 -- 105	[pos="1246.4,332.76 1200.1,332.17 1106.3,330.99 1060.1,330.41"];
	9 -- 117	[pos="1271.2,351.03 1266.9,384.32 1257.8,455.29 1253.5,488.7"];
	126	[height=0.5,
		pos="1446.4,624.14",
		width=0.75];
	9 -- 126	[pos="1283.5,350 1314.1,401.44 1405.7,555.69 1436.3,607.19"];
	163	[height=0.5,
		pos="1266.4,289.01",
		width=0.75];
	9 -- 163	[pos="1270.6,315.17 1270.2,312.5 1269.7,309.74 1269.3,307.07"];
	9 -- 174	[pos="1247.9,326.77 1210.4,317.49 1140.8,300.3 1103.3,291.03"];
	197	[height=0.5,
		pos="1384.3,624.75",
		width=0.75];
	9 -- 197	[pos="1280.3,350.9 1300.1,403.09 1357.9,555.29 1377.7,607.18"];
	218	[height=0.5,
		pos="1390.4,284.86",
		width=0.75];
	9 -- 218	[pos="1296.6,323.57 1317.1,315.11 1346.9,302.82 1367.4,294.37"];
	221	[height=0.5,
		pos="1449,344.58",
		width=0.75];
	9 -- 221	[pos="1300.5,334.87 1333.5,337.02 1389,340.65 1422,342.81"];
	236	[height=0.5,
		pos="1161.2,155.88",
		width=0.75];
	9 -- 236	[pos="1262.9,316.43 1241.5,282.65 1193.3,206.48 1171.9,172.64"];
	9 -- 249	[pos="1265,350.32 1252.7,375.12 1230.2,420.65 1218,445.49"];
	10	[height=0.5,
		pos="512.98,753.79",
		width=0.75];
	10 -- 65	[pos="514.29,771.93 516.42,801.36 520.62,859.16 522.75,888.58"];
	10 -- 82	[pos="485.77,753.87 460.36,753.94 422.63,754.06 397.25,754.13"];
	10 -- 89	[pos="522.08,736.65 544.15,695.11 600.29,589.43 622.39,547.83"];
	91	[height=0.5,
		pos="634.87,762.4",
		width=0.75];
	10 -- 91	[pos="540.03,755.7 560.23,757.13 587.71,759.07 607.9,760.49"];
	116	[height=0.5,
		pos="476.9,797.81",
		width=0.75];
	10 -- 116	[pos="499.95,769.68 496.72,773.62 493.26,777.84 490.03,781.79"];
	121	[height=0.5,
		pos="282.82,750.68",
		width=0.75];
	10 -- 121	[pos="485.67,753.42 441.38,752.82 354.37,751.64 310.09,751.04"];
	134	[height=0.5,
		pos="345.24,886.92",
		width=0.75];
	10 -- 134	[pos="495.34,767.78 463.04,793.42 394.76,847.62 362.64,873.11"];
	10 -- 165	[pos="523.49,770.37 537.37,792.26 561.66,830.57 575.64,852.63"];
	168	[height=0.5,
		pos="743.91,906.92",
		width=0.75];
	10 -- 168	[pos="532.27,766.58 575.74,795.4 680.94,865.17 724.51,894.06"];
	10 -- 169	[pos="491.93,742.2 481.46,736.42 468.83,729.47 458.37,723.71"];
	10 -- 170	[pos="528.06,738.61 562.15,704.32 644.75,621.21 678.67,587.09"];
	192	[height=0.5,
		pos="679.49,898.26",
		width=0.75];
	10 -- 192	[pos="529.55,768.17 561.47,795.86 631.12,856.29 662.98,883.94"];
	205	[height=0.5,
		pos="606.79,924.55",
		width=0.75];
	10 -- 205	[pos="522.31,770.78 540.3,803.52 579.54,874.95 597.49,907.62"];
	10 -- 217	[pos="523.92,737.24 539.97,712.98 569.71,668.02 585.76,643.75"];
	11	[height=0.5,
		pos="410.65,134.44",
		width=0.75];
	66	[height=0.5,
		pos="543.45,18",
		width=0.75];
	11 -- 66	[pos="427.2,119.92 452.79,97.491 501.65,54.651 527.11,32.328"];
	83	[height=0.5,
		pos="313.62,307.83",
		width=0.75];
	11 -- 83	[pos="401.17,151.38 382.62,184.53 341.72,257.62 323.14,290.82"];
	11 -- 144	[pos="437.73,134.78 453.3,134.98 472.82,135.22 488.44,135.42"];
	145	[height=0.5,
		pos="218.79,265.32",
		width=0.75];
	11 -- 145	[pos="391.55,147.46 354.78,172.55 274.52,227.3 237.81,252.35"];
	11 -- 171	[pos="433.1,144.99 476.32,165.31 570.64,209.65 613.8,229.94"];
	196	[height=0.5,
		pos="777.47,154.39",
		width=0.75];
	11 -- 196	[pos="437.62,135.9 505.46,139.59 682.58,149.23 750.45,152.92"];
	12	[height=0.5,
		pos="404.87,261.92",
		width=0.75];
	67	[height=0.5,
		pos="417.2,442.22",
		width=0.75];
	12 -- 67	[pos="406.12,280.2 408.49,314.85 413.61,389.69 415.97,424.16"];
	71	[height=0.5,
		pos="605.34,127.7",
		width=0.75];
	12 -- 71	[pos="424.09,249.05 462.41,223.4 547.91,166.16 586.18,140.53"];
	12 -- 93	[pos="405.46,243.81 405.91,229.8 406.53,210.51 406.99,196.52"];
	142	[height=0.5,
		pos="251.43,316.33",
		width=0.75];
	12 -- 142	[pos="380.9,270.42 352.15,280.61 304.27,297.59 275.49,307.8"];
	12 -- 161	[pos="405.85,280.1 408.14,322.55 413.83,427.87 416.12,470.41"];
	172	[height=0.5,
		pos="254.71,219.35",
		width=0.75];
	12 -- 172	[pos="379.74,254.8 352.02,246.94 307.67,234.37 279.92,226.5"];
	229	[height=0.5,
		pos="520.14,266.49",
		width=0.75];
	12 -- 229	[pos="431.9,262.99 450.26,263.72 474.47,264.68 492.89,265.41"];
	13	[height=0.5,
		pos="466.91,222.46",
		width=0.75];
	13 -- 59	[pos="452.43,238 425.05,267.36 365.99,330.69 338.58,360.09"];
	13 -- 68	[pos="493.84,219.98 543.95,215.36 650.94,205.49 700.94,200.88"];
	13 -- 101	[pos="491.63,230.31 530.43,242.63 605.17,266.36 643.89,278.65"];
	120	[height=0.5,
		pos="402.11,398.18",
		width=0.75];
	13 -- 120	[pos="460.46,239.95 448.07,273.55 421.08,346.76 408.63,380.5"];
	13 -- 152	[pos="487.53,210.65 497.8,204.77 510.18,197.69 520.43,191.81"];
	13 -- 176	[pos="493.88,224.64 541.51,228.48 639.98,236.42 687.58,240.26"];
	187	[height=0.5,
		pos="586.59,67.865",
		width=0.75];
	13 -- 187	[pos="479.49,206.21 502.54,176.44 551.26,113.51 574.17,83.9"];
	14	[height=0.5,
		pos="661.37,425.14",
		width=0.75];
	14 -- 53	[pos="669.33,407.74 670.74,404.67 672.2,401.46 673.61,398.39"];
	69	[height=0.5,
		pos="461.36,310.51",
		width=0.75];
	14 -- 69	[pos="640.72,413.3 602.29,391.28 520.24,344.25 481.9,322.28"];
	127	[height=0.5,
		pos="498.73,444.71",
		width=0.75];
	14 -- 127	[pos="634.52,428.37 604.29,432.01 555.49,437.88 525.35,441.51"];
	14 -- 177	[pos="674.97,441.08 704.61,475.82 774.73,558.01 804.24,592.6"];
	186	[height=0.5,
		pos="755.65,607.56",
		width=0.75];
	14 -- 186	[pos="670.24,442.3 688.21,477.07 728.73,555.47 746.73,590.31"];
	201	[height=0.5,
		pos="658.74,616.13",
		width=0.75];
	14 -- 201	[pos="661.12,443.45 660.62,479.96 659.49,561.41 658.99,597.87"];
	211	[height=0.5,
		pos="818.87,498.54",
		width=0.75];
	14 -- 211	[pos="683.6,435.5 713.54,449.45 766.49,474.13 796.49,488.11"];
	233	[height=0.5,
		pos="615.21,339.68",
		width=0.75];
	14 -- 233	[pos="652.03,407.84 643.97,392.92 632.39,371.49 624.38,356.65"];
	15	[height=0.5,
		pos="293.07,494.65",
		width=0.75];
	70	[height=0.5,
		pos="201.38,621.48",
		width=0.75];
	15 -- 70	[pos="281.27,510.97 263.67,535.32 230.71,580.9 213.13,605.22"];
	15 -- 83	[pos="295.08,476.4 299.02,440.59 307.71,361.53 311.63,325.89"];
	15 -- 103	[pos="305.25,478.54 325.63,451.58 366.39,397.64 386.88,370.52"];
	110	[height=0.5,
		pos="282.87,685.27",
		width=0.75];
	15 -- 110	[pos="292.1,512.93 290.15,549.36 285.79,630.66 283.85,667.05"];
	140	[height=0.5,
		pos="266.36,641.15",
		width=0.75];
	15 -- 140	[pos="289.8,512.62 284.67,540.73 274.81,594.83 269.66,623.04"];
	148	[height=0.5,
		pos="156.61,439.7",
		width=0.75];
	15 -- 148	[pos="269.93,485.33 244.83,475.23 205.01,459.19 179.87,449.07"];
	15 -- 178	[pos="319.08,499.53 371.77,509.42 490.58,531.72 543.37,541.62"];
	180	[height=0.5,
		pos="146.22,572.82",
		width=0.75];
	15 -- 180	[pos="271.72,506.02 243.88,520.84 195.45,546.62 167.6,561.44"];
	207	[height=0.5,
		pos="202.06,360.39",
		width=0.75];
	15 -- 207	[pos="281.91,478.19 264.45,452.42 230.83,402.84 213.31,376.98"];
	220	[height=0.5,
		pos="514.41,400.7",
		width=0.75];
	15 -- 220	[pos="315.93,484.95 358.34,466.95 448.78,428.56 491.35,410.49"];
	16	[height=0.5,
		pos="810.81,107.03",
		width=0.75];
	16 -- 60	[pos="830.41,119.52 864.4,141.17 933.9,185.44 967.95,207.13"];
	16 -- 71	[pos="783.95,109.74 744.57,113.7 671.59,121.04 632.21,125"];
	16 -- 179	[pos="783.72,108.69 770.23,109.51 753.96,110.51 740.49,111.33"];
	16 -- 182	[pos="822.8,123.18 825.64,127.01 828.68,131.1 831.52,134.93"];
	17	[height=0.5,
		pos="1383.6,373.5",
		width=0.75];
	75	[height=0.5,
		pos="1523.7,442.56",
		width=0.75];
	17 -- 75	[pos="1405.5,384.29 1431.8,397.27 1475.7,418.9 1502,431.84"];
	17 -- 77	[pos="1369.9,389.54 1356.5,405.31 1336.1,429.25 1322.6,444.99"];
	86	[height=0.5,
		pos="1177.7,200.98",
		width=0.75];
	17 -- 86	[pos="1366.7,359.38 1328.1,327.03 1233.6,247.83 1194.8,215.3"];
	17 -- 112	[pos="1382.7,391.56 1381.4,416.24 1379.2,460.25 1377.9,485.06"];
	130	[height=0.5,
		pos="1328.4,281.31",
		width=0.75];
	17 -- 130	[pos="1373.5,356.59 1363.5,339.96 1348.4,314.71 1338.5,298.11"];
	17 -- 154	[pos="1360,364.58 1313.9,347.12 1212.2,308.63 1166,291.14"];
	17 -- 183	[pos="1369.2,358.11 1365.2,353.84 1360.8,349.22 1356.8,344.95"];
	194	[height=0.5,
		pos="1499.2,531.23",
		width=0.75];
	17 -- 194	[pos="1395.5,389.79 1417.7,420.01 1464.9,484.46 1487.2,514.8"];
	17 -- 218	[pos="1385,355.14 1386.2,339.82 1387.9,318.12 1389,302.9"];
	225	[height=0.5,
		pos="1514.5,326.48",
		width=0.75];
	17 -- 225	[pos="1407.6,364.88 1431.2,356.39 1467,343.51 1490.6,335.05"];
	247	[height=0.5,
		pos="1501.8,487.19",
		width=0.75];
	17 -- 247	[pos="1399,388.37 1421.7,410.15 1463.7,450.53 1486.3,472.32"];
	18	[height=0.5,
		pos="1484.8,575.23",
		width=0.75];
	18 -- 75	[pos="1490,557.34 1497.5,532.02 1511,485.99 1518.4,460.59"];
	18 -- 76	[pos="1457.7,576.08 1433.5,576.83 1398.1,577.94 1373.8,578.7"];
	18 -- 175	[pos="1477.7,557.55 1469.3,536.29 1455.1,500.83 1446.7,479.63"];
	184	[height=0.5,
		pos="1585.8,473.05",
		width=0.75];
	18 -- 184	[pos="1499.7,560.16 1518.8,540.84 1551.7,507.54 1570.8,488.19"];
	222	[height=0.5,
		pos="1530.4,678.28",
		width=0.75];
	18 -- 222	[pos="1492.5,592.71 1500.9,611.66 1514.2,641.73 1522.6,660.71"];
	230	[height=0.5,
		pos="1573.3,585.95",
		width=0.75];
	18 -- 230	[pos="1511.8,578.51 1522.9,579.85 1535.7,581.4 1546.7,582.73"];
	18 -- 247	[pos="1488.3,556.99 1491.2,541.78 1495.4,520.23 1498.3,505.11"];
	19	[height=0.5,
		pos="1069.5,522.33",
		width=0.75];
	19 -- 78	[pos="1052.9,507.68 1034.2,491.15 1004,464.42 985.37,448"];
	79	[height=0.5,
		pos="1278,596.55",
		width=0.75];
	19 -- 79	[pos="1093.4,530.84 1133.5,545.12 1213.9,573.73 1254.1,588.02"];
	19 -- 87	[pos="1070.9,540.44 1072.3,558.25 1074.5,585.3 1075.9,603.08"];
	109	[height=0.5,
		pos="1161.4,784.43",
		width=0.75];
	19 -- 109	[pos="1075.7,539.93 1092.4,587.68 1138.6,719.25 1155.3,766.91"];
	124	[height=0.5,
		pos="1397.1,418.03",
		width=0.75];
	19 -- 124	[pos="1094.1,514.49 1155,495.11 1311.9,445.14 1372.6,425.82"];
	19 -- 156	[pos="1055.1,507.01 1029.7,479.98 977.05,424.08 951.61,397.05"];
	185	[height=0.5,
		pos="873.19,681.72",
		width=0.75];
	19 -- 185	[pos="1052.1,536.47 1014.8,566.72 927.8,637.38 890.58,667.6"];
	19 -- 211	[pos="1042.7,519.78 994.57,515.21 894.13,505.68 845.88,501.1"];
	20	[height=0.5,
		pos="935.25,641.61",
		width=0.75];
	20 -- 81	[pos="947.95,657.73 959.22,672.04 975.6,692.84 986.87,707.14"];
	106	[height=0.5,
		pos="1078.9,808.13",
		width=0.75];
	20 -- 106	[pos="948.76,657.27 976.14,689.01 1037.9,760.58 1065.3,792.39"];
	20 -- 186	[pos="909.13,636.66 875.08,630.2 815.86,618.98 781.79,612.52"];
	20 -- 189	[pos="928.8,623.95 918.34,595.32 897.8,539.07 887.35,510.46"];
	21	[height=0.5,
		pos="1114.8,572.15",
		width=0.75];
	21 -- 79	[pos="1141.4,576.12 1171.7,580.66 1221.1,588.04 1251.5,592.58"];
	21 -- 84	[pos="1120.8,589.95 1128.8,613.56 1142.8,655.01 1150.8,678.61"];
	94	[height=0.5,
		pos="1123.3,330.65",
		width=0.75];
	21 -- 94	[pos="1115.4,553.99 1117,509.13 1121.1,393.42 1122.7,348.68"];
	21 -- 158	[pos="1101.1,587.97 1067.4,627.1 980.42,727.99 946.78,767.01"];
	21 -- 190	[pos="1127.9,588.14 1152.2,617.82 1203.9,681.1 1228.3,710.89"];
	21 -- 200	[pos="1129.4,587.65 1139.5,598.44 1153,612.78 1163.1,623.56"];
	22	[height=0.5,
		pos="985.94,1004.8",
		width=0.75];
	22 -- 85	[pos="1007.1,993.48 1040.4,975.71 1104.4,941.46 1137.6,923.72"];
	92	[height=0.5,
		pos="1203.4,978.42",
		width=0.75];
	22 -- 92	[pos="1012.6,1001.6 1054.3,996.51 1134.6,986.76 1176.5,981.68"];
	22 -- 95	[pos="959.93,1010.4 932.52,1016.3 889.62,1025.6 862.33,1031.5"];
	22 -- 168	[pos="962.74,995.42 916.47,976.71 813.25,934.97 767.05,916.28"];
	22 -- 191	[pos="996.73,988.11 1013.6,961.98 1046.1,911.7 1063,885.48"];
	23	[height=0.5,
		pos="1049.7,192.16",
		width=0.75];
	23 -- 50	[pos="1057.3,209.66 1072.4,244.55 1106.1,322.39 1121.2,357.23"];
	23 -- 86	[pos="1076.8,194.03 1098.6,195.53 1128.9,197.62 1150.6,199.11"];
	23 -- 96	[pos="1050.8,210.28 1053.1,245.16 1057.9,321.3 1060.2,356.13"];
	23 -- 159	[pos="1073.8,200.42 1102.8,210.32 1151.1,226.82 1180.1,236.73"];
	23 -- 196	[pos="1023.1,188.47 971.04,181.25 856.3,165.33 804.17,158.09"];
	23 -- 231	[pos="1023.4,187.11 1012.7,185.07 1000.4,182.7 989.71,180.66"];
	24	[height=0.5,
		pos="1352.6,855.86",
		width=0.75];
	24 -- 56	[pos="1328.2,863.49 1266.2,882.82 1103.5,933.58 1041.1,953.03"];
	24 -- 92	[pos="1335.5,869.92 1306.9,893.43 1249.6,940.49 1220.7,964.15"];
	24 -- 151	[pos="1334.8,842.29 1318.5,829.9 1294.5,811.68 1278.1,799.24"];
	24 -- 197	[pos="1355.1,837.72 1361,794.52 1375.9,685.92 1381.9,642.8"];
	24 -- 210	[pos="1350,837.85 1345.2,804.96 1335.1,735.52 1330.3,702.61"];
	228	[height=0.5,
		pos="1447.5,845.54",
		width=0.75];
	24 -- 228	[pos="1379.3,852.96 1392.2,851.55 1407.8,849.87 1420.7,848.46"];
	25	[height=0.5,
		pos="321.22,801.13",
		width=0.75];
	25 -- 52	[pos="330.4,783.93 356.28,735.44 429.6,598.06 455.38,549.75"];
	97	[height=0.5,
		pos="254.1,818.82",
		width=0.75];
	25 -- 97	[pos="295.85,807.82 290.5,809.22 284.86,810.71 279.51,812.12"];
	25 -- 134	[pos="326.2,818.9 330.32,833.63 336.15,854.45 340.27,869.17"];
	25 -- 140	[pos="315.14,783.4 304.6,752.64 283.03,689.77 272.47,658.96"];
	25 -- 198	[pos="305.09,786.33 286.35,769.15 255.62,740.96 236.9,723.79"];
	206	[height=0.5,
		pos="283.18,877.65",
		width=0.75];
	25 -- 206	[pos="312.59,818.49 306.37,831.01 298,847.85 291.78,860.35"];
	237	[height=0.5,
		pos="363.25,930.96",
		width=0.75];
	25 -- 237	[pos="326.98,818.91 334.98,843.63 349.39,888.15 357.43,912.98"];
	25 -- 248	[pos="340.74,813.63 366.19,829.93 410.44,858.28 435.9,874.59"];
	26	[height=0.5,
		pos="1108.7,956.76",
		width=0.75];
	26 -- 74	[pos="1113.6,938.62 1118.5,920.15 1126.2,891.68 1131.1,873.27"];
	100	[height=0.5,
		pos="1390.2,902.93",
		width=0.75];
	26 -- 100	[pos="1134.7,951.79 1188.2,941.56 1310.1,918.25 1363.9,907.96"];
	26 -- 109	[pos="1114.2,938.97 1124.3,905.86 1145.9,835.16 1156,802.13"];
	26 -- 162	[pos="1085.9,947.03 1023.6,920.43 850.79,846.72 788.19,820.01"];
	199	[height=0.5,
		pos="948.06,1085.4",
		width=0.75];
	26 -- 199	[pos="1091.2,970.77 1060.3,995.51 996.43,1046.7 965.54,1071.4"];
	27	[height=0.5,
		pos="746.95,712.26",
		width=0.75];
	27 -- 91	[pos="724.27,722.41 704.82,731.11 676.95,743.58 657.52,752.27"];
	27 -- 102	[pos="772.29,718.65 790.44,723.23 814.79,729.37 833,733.96"];
	27 -- 113	[pos="739.11,729.77 731.12,747.6 718.82,775.07 710.86,792.84"];
	27 -- 185	[pos="772.5,706.08 794.4,700.78 825.79,693.19 847.68,687.89"];
	27 -- 201	[pos="732.77,696.82 716.31,678.88 689.32,649.46 672.87,631.54"];
	27 -- 241	[pos="747.96,694.13 749.75,662.12 753.45,595.93 755.24,563.93"];
	28	[height=0.5,
		pos="1228.5,872.57",
		width=0.75];
	28 -- 106	[pos="1205.8,862.78 1177.7,850.67 1130.1,830.17 1101.8,818.01"];
	143	[height=0.5,
		pos="912.49,1040.8",
		width=0.75];
	28 -- 143	[pos="1207.3,883.87 1149.7,914.52 991.09,998.97 933.63,1029.6"];
	28 -- 188	[pos="1247.5,859.44 1255.2,854.11 1264.1,847.96 1271.7,842.64"];
	28 -- 202	[pos="1227.6,854.39 1225.8,818.16 1221.6,737.31 1219.8,701.12"];
	224	[height=0.5,
		pos="1323.1,739.35",
		width=0.75];
	28 -- 224	[pos="1240.1,856.23 1258.3,830.66 1293.2,781.47 1311.4,755.82"];
	28 -- 226	[pos="1217.1,856.16 1214.6,852.53 1212,848.69 1209.4,845.06"];
	29	[height=0.5,
		pos="568.31,818.46",
		width=0.75];
	29 -- 57	[pos="590.14,807.41 636.05,784.18 742.14,730.48 787.85,707.34"];
	107	[height=0.5,
		pos="535.84,1013.3",
		width=0.75];
	29 -- 107	[pos="565.32,836.45 559.13,873.57 545.01,958.32 538.83,995.41"];
	29 -- 167	[pos="592.8,810.73 630.54,798.8 702.53,776.06 740.27,764.14"];
	29 -- 203	[pos="567.98,836.65 567.45,865.65 566.43,922.01 565.9,951.04"];
	29 -- 234	[pos="541.59,815.04 513.51,811.45 469.6,805.84 441.54,802.25"];
	29 -- 237	[pos="547.14,830.08 507.74,851.69 423.62,897.84 384.31,919.41"];
	240	[height=0.5,
		pos="356.03,974.98",
		width=0.75];
	29 -- 240	[pos="549.85,832.08 509.6,861.75 414.37,931.96 374.3,961.5"];
	30	[height=0.5,
		pos="780.63,979.44",
		width=0.75];
	30 -- 80	[pos="797.45,965.25 816.32,949.32 846.76,923.63 865.64,907.69"];
	30 -- 108	[pos="805.04,971.63 842.66,959.58 914.42,936.61 952.04,924.57"];
	138	[height=0.5,
		pos="833.24,1081.1",
		width=0.75];
	30 -- 138	[pos="789.56,996.69 799.23,1015.4 814.58,1045 824.27,1063.8"];
	30 -- 199	[pos="800.5,992.01 832.72,1012.4 896.02,1052.5 928.23,1072.8"];
	30 -- 205	[pos="756.09,971.7 722.96,961.23 664.27,942.7 631.21,932.26"];
	209	[height=0.5,
		pos="758.44,1085.4",
		width=0.75];
	30 -- 209	[pos="776.87,997.41 772.79,1016.9 766.31,1047.8 762.22,1067.3"];
	30 -- 212	[pos="766.46,963.84 739.66,934.33 681.85,870.69 655.03,841.16"];
	31	[height=0.5,
		pos="383.3,842.89",
		width=0.75];
	31 -- 97	[pos="357.16,838.02 334.74,833.84 302.61,827.85 280.21,823.68"];
	31 -- 110	[pos="372.74,826.32 353.51,796.12 312.95,732.47 293.59,702.09"];
	149	[height=0.5,
		pos="219.78,765.92",
		width=0.75];
	31 -- 149	[pos="360.91,832.35 329.59,817.61 273.07,791.01 241.9,776.34"];
	31 -- 157	[pos="391.38,860.29 401.54,882.21 418.91,919.66 429.11,941.64"];
	31 -- 206	[pos="359.32,851.21 343.59,856.68 323.08,863.8 307.32,869.27"];
	31 -- 240	[pos="379.57,860.98 374.34,886.27 364.92,931.93 359.72,957.11"];
	32	[height=0.5,
		pos="280.82,263.79",
		width=0.75];
	32 -- 69	[pos="306.31,270.39 340.71,279.29 401.66,295.06 436.01,303.95"];
	111	[height=0.5,
		pos="342.85,232.63",
		width=0.75];
	32 -- 111	[pos="302.52,252.89 308.52,249.87 315.05,246.59 321.06,243.57"];
	32 -- 172	[pos="270.95,246.99 268.87,243.45 266.67,239.72 264.59,236.18"];
	32 -- 207	[pos="267.82,279.74 253.22,297.64 229.69,326.5 215.08,344.41"];
	33	[height=0.5,
		pos="1185.8,326.21",
		width=0.75];
	33 -- 90	[pos="1175.5,343.07 1157.7,372.3 1121.3,432.06 1103.5,461.35"];
	33 -- 114	[pos="1196.7,342.76 1207.8,359.49 1224.8,385.23 1235.9,402.03"];
	33 -- 130	[pos="1210.3,318.49 1236.4,310.27 1277.5,297.32 1303.7,289.08"];
	33 -- 163	[pos="1208.2,315.85 1219.4,310.69 1232.9,304.47 1244,299.32"];
	33 -- 208	[pos="1160.8,319.24 1111.2,305.38 1000.7,274.5 950.88,260.57"];
	33 -- 235	[pos="1170.5,341.49 1153.2,358.73 1125.4,386.59 1108.2,403.72"];
	34	[height=0.5,
		pos="251.71,432.92",
		width=0.75];
	34 -- 115	[pos="264.83,448.84 294.4,484.7 365.97,571.5 395.61,607.46"];
	34 -- 118	[pos="266.94,417.85 290.77,394.27 336.62,348.9 360.53,325.24"];
	123	[height=0.5,
		pos="376.49,535.27",
		width=0.75];
	34 -- 123	[pos="268.8,446.93 292.56,466.42 335.34,501.52 359.2,521.09"];
	34 -- 142	[pos="251.67,414.7 251.61,392.8 251.52,356.26 251.47,334.42"];
	34 -- 213	[pos="233.35,446.21 219.65,456.13 201,469.63 187.31,479.54"];
	214	[height=0.5,
		pos="284.57,538.66",
		width=0.75];
	34 -- 214	[pos="257.28,450.86 263.36,470.42 273.03,501.53 279.08,520.99"];
	35	[height=0.5,
		pos="472.64,628.91",
		width=0.75];
	35 -- 116	[pos="473.09,646.98 473.91,679.41 475.62,747.09 476.44,779.61"];
	35 -- 120	[pos="467.22,611.19 454.09,568.24 420.69,458.97 407.55,415.96"];
	35 -- 141	[pos="487.04,613.59 515.67,583.13 579.46,515.27 608.24,484.66"];
	35 -- 147	[pos="447.75,636.08 425.66,642.44 393.57,651.68 371.5,658.04"];
	35 -- 214	[pos="450.7,618.38 414.55,601.04 342.9,566.65 306.66,549.26"];
	238	[height=0.5,
		pos="473.4,843.01",
		width=0.75];
	35 -- 238	[pos="472.7,647.16 472.85,687.61 473.19,784.39 473.33,824.8"];
	36	[height=0.5,
		pos="158.48,683.8",
		width=0.75];
	36 -- 70	[pos="169.75,667.43 176.01,658.34 183.76,647.07 190.03,637.96"];
	36 -- 121	[pos="179.57,695.15 202.44,707.45 238.72,726.96 261.63,739.28"];
	36 -- 149	[pos="170.59,700.03 181.34,714.43 196.95,735.35 207.69,749.73"];
	36 -- 180	[pos="156.45,665.48 154.17,644.79 150.48,611.35 148.21,590.81"];
	215	[height=0.5,
		pos="27,553.27",
		width=0.75];
	36 -- 215	[pos="143.4,668.83 118.17,643.78 67.69,593.67 42.311,568.47"];
	37	[height=0.5,
		pos="648.82,20.737",
		width=0.75];
	37 -- 66	[pos="621.68,20.032 605.95,19.623 586.21,19.111 570.49,18.702"];
	37 -- 122	[pos="649.28,38.938 649.5,47.214 649.75,56.988 649.96,65.285"];
	37 -- 187	[pos="630.82,34.368 622.63,40.566 612.97,47.887 604.76,54.101"];
	216	[height=0.5,
		pos="872.04,40.682",
		width=0.75];
	37 -- 216	[pos="675.74,23.143 718.65,26.976 802.05,34.429 845.02,38.268"];
	38	[height=0.5,
		pos="534.69,610.07",
		width=0.75];
	38 -- 67	[pos="523.21,593.67 500.81,561.66 451.48,491.19 428.9,458.94"];
	38 -- 123	[pos="512.36,599.51 482.21,585.25 428.8,560 398.7,545.77"];
	38 -- 219	[pos="541.53,627.91 548.98,647.36 560.84,678.3 568.26,697.65"];
	244	[height=0.5,
		pos="444.27,579.44",
		width=0.75];
	38 -- 244	[pos="510.46,601.86 497.49,597.47 481.55,592.07 468.57,587.67"];
	38 -- 245	[pos="561.16,614.76 607.19,622.92 701.43,639.62 747.28,647.75"];
	39	[height=0.5,
		pos="1461.7,399.69",
		width=0.75];
	39 -- 64	[pos="1460.1,381.6 1458.4,363.3 1455.8,335.15 1454.1,316.78"];
	39 -- 124	[pos="1436.5,406.83 1431.9,408.16 1427,409.55 1422.3,410.88"];
	39 -- 184	[pos="1481.9,411.64 1505,425.28 1542.5,447.47 1565.6,461.11"];
	39 -- 221	[pos="1457.6,381.64 1456.2,375.49 1454.6,368.62 1453.2,362.48"];
	39 -- 225	[pos="1473.4,383.44 1482.1,371.39 1493.9,355.03 1502.6,342.93"];
	40	[height=0.5,
		pos="1313.2,535.55",
		width=0.75];
	40 -- 54	[pos="1289.2,526.89 1235.9,507.7 1108.4,461.79 1055.2,442.62"];
	40 -- 125	[pos="1314.5,517.52 1316.1,495.22 1318.7,457.45 1320.3,435.07"];
	131	[height=0.5,
		pos="1413.8,580.14",
		width=0.75];
	40 -- 131	[pos="1335.8,545.55 1352.4,552.9 1374.8,562.83 1391.3,570.16"];
	136	[height=0.5,
		pos="999.29,385.58",
		width=0.75];
	40 -- 136	[pos="1291.1,525 1233.5,497.47 1079,423.63 1021.3,396.11"];
	40 -- 223	[pos="1290.4,545.49 1265.2,556.45 1225,573.99 1199.8,584.96"];
	40 -- 224	[pos="1314.1,553.63 1316,592.31 1320.3,682.66 1322.2,721.3"];
	40 -- 246	[pos="1308.3,553.36 1302.9,572.67 1294.3,603.31 1288.9,622.65"];
	41	[height=0.5,
		pos="1465.5,751.79",
		width=0.75];
	41 -- 100	[pos="1456.9,769.13 1442.4,798.29 1413.2,856.78 1398.7,885.8"];
	41 -- 126	[pos="1462.8,733.78 1459.2,709.45 1452.7,666.35 1449.1,642.07"];
	41 -- 222	[pos="1479.3,736.2 1490.3,723.73 1505.6,706.32 1516.6,693.84"];
	41 -- 228	[pos="1462.1,769.87 1458.9,786.47 1454.2,810.94 1451,827.52"];
	42	[height=0.5,
		pos="767.66,381.12",
		width=0.75];
	42 -- 73	[pos="757.02,364.48 754.78,360.98 752.41,357.28 750.17,353.77"];
	42 -- 129	[pos="781.66,396.85 810.57,429.32 876.54,503.43 905.42,535.86"];
	42 -- 136	[pos="794.68,381.64 839.2,382.5 927.44,384.19 972.08,385.05"];
	42 -- 220	[pos="740.56,383.22 691.81,386.98 589.92,394.86 541.31,398.62"];
	42 -- 229	[pos="745.26,370.75 698.25,348.98 589.79,298.75 542.67,276.93"];
	43	[height=0.5,
		pos="1508.5,623.38",
		width=0.75];
	43 -- 128	[pos="1487.5,635.2 1474.3,642.6 1457.4,652.12 1444.3,659.5"];
	43 -- 131	[pos="1486.1,613.13 1471,606.24 1451.2,597.19 1436.1,590.31"];
	43 -- 194	[pos="1506.7,605.17 1505.1,589.02 1502.7,565.54 1501.1,549.4"];
	43 -- 230	[pos="1529,611.54 1536.6,607.17 1545.1,602.22 1552.7,597.84"];
	44	[height=0.5,
		pos="848.01,963.02",
		width=0.75];
	44 -- 88	[pos="874.13,957.35 918.73,947.66 1009.1,928.03 1053.6,918.35"];
	44 -- 132	[pos="832.68,978.02 819.08,991.32 799.32,1010.7 785.72,1023.9"];
	44 -- 138	[pos="845.74,981.22 842.95,1003.5 838.27,1040.9 835.49,1063.1"];
	44 -- 139	[pos="864.36,948.52 883.36,931.67 914.5,904.05 933.47,887.22"];
	44 -- 192	[pos="824.58,954.02 792.47,941.68 735.14,919.64 703,907.29"];
	44 -- 232	[pos="868.76,951.34 900.19,933.64 959.53,900.23 991.01,882.5"];
	45	[height=0.5,
		pos="549.88,356.66",
		width=0.75];
	45 -- 111	[pos="529.65,344.54 490.07,320.83 402.8,268.55 363.16,244.79"];
	45 -- 133	[pos="525.08,363.97 479.78,377.33 384.15,405.52 338.84,418.87"];
	45 -- 195	[pos="576.27,352.61 598.12,349.25 629.03,344.5 650.88,341.14"];
	45 -- 233	[pos="575.33,350.05 580.06,348.82 585,347.53 589.73,346.3"];
	45 -- 242	[pos="565.37,371.57 591.3,396.5 643.16,446.38 669.24,471.46"];
	46	[height=0.5,
		pos="1023.6,131.59",
		width=0.75];
	46 -- 94	[pos="1032.3,148.9 1051.2,186.65 1095.9,275.94 1114.8,313.51"];
	46 -- 137	[pos="1003.7,144.08 981.01,158.34 944.08,181.53 921.38,195.78"];
	46 -- 216	[pos="1003.5,119.52 974.49,102.13 921.28,70.218 892.25,52.804"];
	46 -- 236	[pos="1049.8,136.21 1074.3,140.54 1110.7,146.95 1135.1,151.27"];
	47	[height=0.5,
		pos="661.18,1002",
		width=0.75];
	47 -- 107	[pos="634.29,1004.4 613.14,1006.3 583.82,1009 562.68,1010.9"];
	47 -- 143	[pos="687.6,1006 735.87,1013.5 837.77,1029.3 886.05,1036.7"];
	47 -- 209	[pos="678.12,1016.5 695.97,1031.8 723.91,1055.8 741.69,1071"];
	47 -- 238	[pos="644.19,987.57 608.43,957.31 525.82,887.38 490.22,857.25"];
	48	[height=0.5,
		pos="86.593,404.99",
		width=0.75];
	48 -- 58	[pos="91.221,422.86 94.559,435.75 99.045,453.07 102.38,465.94"];
	48 -- 145	[pos="101.25,389.51 126.66,362.66 178.61,307.77 204.07,280.87"];
	48 -- 148	[pos="108.36,415.78 116.71,419.92 126.24,424.65 134.61,428.79"];
	48 -- 215	[pos="79.523,422.58 68.054,451.12 45.524,507.18 34.061,535.7"];
	48 -- 239	[pos="87.205,422.99 88.002,446.47 89.388,487.29 90.185,510.77"];
	49	[height=0.5,
		pos="355.1,482.98",
		width=0.75];
	49 -- 127	[pos="380.45,476.23 406.7,469.23 447.48,458.37 473.63,451.4"];
	49 -- 146	[pos="327.88,481.66 307.2,480.66 278.88,479.29 258.21,478.29"];
	49 -- 155	[pos="379.64,475.28 425.16,460.99 522.25,430.51 567.94,416.17"];
	49 -- 244	[pos="369.43,498.48 386.07,516.48 413.36,546 429.98,563.98"];
}
