graph {
	graph [bb="0,0,543.19,437.41",
		outputorder=edgesfirst,
		overlap=prism,
		size="50,50!",
		start=1261
	];
	node [label="\N"];
	0	[height=0.5,
		pos="422.26,107.23",
		width=0.75];
	8	[height=0.5,
		pos="242.26,19.451",
		width=0.75];
	0 -- 8	[pos="400.18,96.462 365.54,79.571 298.81,47.026 264.23,30.165"];
	2	[height=0.5,
		pos="242.72,205.88",
		width=0.75];
	0 -- 2	[pos="401.31,118.74 366.81,137.69 298.41,175.28 263.81,194.29"];
	6	[height=0.5,
		pos="352.38,18",
		width=0.75];
	0 -- 6	[pos="409.44,90.86 396.75,74.66 377.46,50.019 364.88,33.961"];
	9	[height=0.5,
		pos="351.77,238.5",
		width=0.75];
	0 -- 9	[pos="413.04,124.39 399.53,149.54 374.5,196.17 360.99,221.33"];
	1	[height=0.5,
		pos="434.14,293.68",
		width=0.75];
	0 -- 1	[pos="423.42,125.44 425.69,161.18 430.72,240.09 432.99,275.66"];
	14	[height=0.5,
		pos="177.2,122.53",
		width=0.75];
	8 -- 14	[pos="231.51,36.474 219.39,55.688 199.78,86.747 187.74,105.83"];
	16	[height=0.5,
		pos="308.56,136.15",
		width=0.75];
	8 -- 16	[pos="252.04,36.67 264.65,58.861 286.43,97.198 298.95,119.24"];
	2 -- 8	[pos="242.68,187.67 242.59,151.93 242.39,73.036 242.3,37.466"];
	3	[height=0.5,
		pos="74.273,122.15",
		width=0.75];
	2 -- 3	[pos="221.05,195.11 188.79,179.07 128.5,149.1 96.134,133.02"];
	12	[height=0.5,
		pos="83.275,241.63",
		width=0.75];
	2 -- 12	[pos="217.11,211.63 187.44,218.28 138.85,229.17 109.09,235.84"];
	5	[height=0.5,
		pos="128.02,367.69",
		width=0.75];
	2 -- 5	[pos="231.09,222.29 209.11,253.3 161.69,320.19 139.68,351.24"];
	15	[height=0.5,
		pos="250.57,375.98",
		width=0.75];
	2 -- 15	[pos="243.56,224.08 245.07,256.82 248.23,325.26 249.73,357.91"];
	3 -- 8	[pos="94.203,109.97 126.53,90.201 190.04,51.375 222.35,31.62"];
	3 -- 14	[pos="101.32,122.25 116.32,122.31 134.94,122.38 149.98,122.43"];
	4	[height=0.5,
		pos="27,285.64",
		width=0.75];
	3 -- 4	[pos="69.124,139.96 60.031,171.41 41.232,236.42 32.143,267.85"];
	3 -- 12	[pos="75.641,140.3 77.333,162.75 80.197,200.78 81.895,223.32"];
	11	[height=0.5,
		pos="180.44,264.87",
		width=0.75];
	3 -- 11	[pos="86.452,138.52 106.93,166.05 148.02,221.28 168.4,248.68"];
	14 -- 16	[pos="204.1,125.32 226.76,127.67 259.03,131.02 281.69,133.36"];
	6 -- 8	[pos="325.16,18.359 308.22,18.582 286.5,18.868 269.55,19.092"];
	6 -- 14	[pos="331.94,30.196 298.19,50.339 231.18,90.325 197.51,110.42"];
	6 -- 9	[pos="352.33,36.044 352.22,77.391 351.94,178.62 351.82,220.2"];
	6 -- 16	[pos="345.82,35.688 337.56,57.961 323.44,96.009 315.16,118.34"];
	4 -- 14	[pos="41.13,270.29 69.757,239.21 134.31,169.11 163,137.96"];
	4 -- 12	[pos="44.806,271.71 51.375,266.58 58.816,260.76 65.392,255.62"];
	4 -- 5	[pos="44.136,299.56 62.711,314.64 92.187,338.59 110.8,353.7"];
	4 -- 11	[pos="53.727,282.02 81.803,278.22 125.7,272.28 153.76,268.48"];
	7	[height=0.5,
		pos="188.55,419.41",
		width=0.75];
	4 -- 7	[pos="43.983,299.7 74.928,325.33 140.17,379.35 171.3,405.13"];
	12 -- 14	[pos="95.942,225.57 113.87,202.84 146.45,161.52 164.43,138.72"];
	12 -- 15	[pos="100.55,255.5 132.61,281.25 200.96,336.15 233.14,361.98"];
	5 -- 12	[pos="121.79,350.16 113.3,326.21 98.135,283.5 89.588,259.42"];
	5 -- 11	[pos="136.91,350.24 146.61,331.22 162.03,300.97 171.68,282.05"];
	5 -- 7	[pos="144.88,382.09 153.27,389.27 163.39,397.92 171.78,405.08"];
	5 -- 15	[pos="154.91,369.51 175.2,370.88 202.93,372.76 223.31,374.14"];
	10	[height=0.5,
		pos="331.43,357.33",
		width=0.75];
	5 -- 10	[pos="155.03,366.31 193.93,364.33 265.34,360.7 304.31,358.71"];
	11 -- 14	[pos="180.03,246.84 179.41,219.61 178.24,168.27 177.61,140.86"];
	11 -- 16	[pos="195.38,249.85 219.94,225.18 268.55,176.33 293.31,151.47"];
	9 -- 14	[pos="332.42,225.64 298.78,203.29 229.89,157.53 196.37,135.27"];
	9 -- 11	[pos="325.38,242.56 293.18,247.51 239.07,255.84 206.86,260.8"];
	9 -- 10	[pos="348.68,256.54 344.86,278.88 338.39,316.7 334.55,339.11"];
	13	[height=0.5,
		pos="516.19,388.27",
		width=0.75];
	9 -- 13	[pos="367.84,253.13 399.19,281.69 468.22,344.57 499.81,373.35"];
	9 -- 16	[pos="344.44,221.13 336.49,202.31 323.88,172.45 315.92,153.59"];
	7 -- 11	[pos="187.6,401.38 186.05,371.76 182.97,313.12 181.4,283.26"];
	7 -- 9	[pos="202.75,403.67 233.69,369.37 306.91,288.22 337.72,254.07"];
	7 -- 15	[pos="207.49,406.14 215.19,400.76 224.05,394.55 231.74,389.17"];
	7 -- 10	[pos="211.19,409.57 237.78,398.02 281.67,378.95 308.42,367.33"];
	10 -- 11	[pos="311.38,345.05 282.5,327.37 229.5,294.91 200.57,277.19"];
	10 -- 15	[pos="305.84,363.23 296.41,365.41 285.71,367.88 276.26,370.05"];
	10 -- 13	[pos="357.9,361.76 393.02,367.64 454.67,377.97 489.76,383.84"];
	10 -- 16	[pos="329.56,339.23 325.26,297.65 314.72,195.71 310.42,154.19"];
	1 -- 2	[pos="411.81,283.44 375.02,266.56 302.1,233.11 265.21,216.2"];
	1 -- 9	[pos="415.04,280.88 401.82,272.03 384.31,260.29 371.06,251.42"];
	1 -- 15	[pos="411.63,303.77 376.3,319.61 308.24,350.13 272.97,365.94"];
	1 -- 10	[pos="414.34,305.95 396.27,317.15 369.69,333.62 351.52,344.88"];
	1 -- 13	[pos="447.69,309.3 462.89,326.82 487.41,355.09 502.62,372.62"];
}
