graph {
	graph [bb="0,0,737.68,547.1",
		outputorder=edgesfirst,
		overlap=prism,
		size="50,50!",
		start=1528
	];
	node [label="\N"];
	0	[height=0.5,
		pos="27,351.67",
		width=0.75];
	1	[height=0.5,
		pos="114.27,403.19",
		width=0.75];
	0 -- 1	[pos="47.24,363.62 61.238,371.88 79.796,382.84 93.835,391.12"];
	10	[height=0.5,
		pos="31.387,243.26",
		width=0.75];
	0 -- 10	[pos="27.744,333.28 28.556,313.22 29.847,281.33 30.654,261.38"];
	2	[height=0.5,
		pos="241.26,500.85",
		width=0.75];
	1 -- 2	[pos="132.19,416.97 156.4,435.59 199.27,468.56 223.43,487.14"];
	11	[height=0.5,
		pos="106.18,266.6",
		width=0.75];
	1 -- 11	[pos="113.19,385.05 111.65,358.93 108.81,310.98 107.26,284.82"];
	13	[height=0.5,
		pos="105.72,146.58",
		width=0.75];
	10 -- 13	[pos="43.997,226.86 57.749,208.98 79.62,180.53 93.298,162.74"];
	10 -- 11	[pos="55.876,250.91 64.141,253.48 73.364,256.36 81.633,258.94"];
	3	[height=0.5,
		pos="389.32,508.37",
		width=0.75];
	2 -- 3	[pos="268.42,502.23 295.13,503.59 335.68,505.65 362.33,507"];
	37	[height=0.5,
		pos="327.22,529.1",
		width=0.75];
	2 -- 37	[pos="265.66,508.87 277.28,512.69 291.13,517.24 302.76,521.06"];
	16	[height=0.5,
		pos="129.48,218.53",
		width=0.75];
	13 -- 16	[pos="111.59,164.37 115.28,175.52 120,189.83 123.67,200.95"];
	14	[height=0.5,
		pos="248.61,81.248",
		width=0.75];
	13 -- 14	[pos="128.05,136.37 154.73,124.17 199.14,103.87 225.97,91.601"];
	4	[height=0.5,
		pos="529.66,477.1",
		width=0.75];
	3 -- 4	[pos="415.06,502.64 440.22,497.03 478.34,488.53 503.61,482.9"];
	24	[height=0.5,
		pos="364.84,412.25",
		width=0.75];
	3 -- 24	[pos="384.71,490.29 380.34,473.11 373.79,447.41 369.42,430.25"];
	20	[height=0.5,
		pos="186.55,294.88",
		width=0.75];
	16 -- 20	[pos="141.58,234.72 151.27,247.68 164.78,265.76 174.46,278.71"];
	17	[height=0.5,
		pos="205.53,221.24",
		width=0.75];
	16 -- 17	[pos="156.5,219.49 163.59,219.74 171.24,220.02 178.33,220.27"];
	5	[height=0.5,
		pos="635.9,416.36",
		width=0.75];
	4 -- 5	[pos="550.39,465.24 569.11,454.54 596.51,438.88 615.21,428.18"];
	31	[height=0.5,
		pos="573.79,385.99",
		width=0.75];
	4 -- 31	[pos="537.96,459.96 545.8,443.77 557.5,419.62 565.38,403.36"];
	23	[height=0.5,
		pos="310.91,344.45",
		width=0.75];
	20 -- 23	[pos="209.94,304.2 232.17,313.06 265.42,326.32 287.62,335.17"];
	21	[height=0.5,
		pos="248.74,329.29",
		width=0.75];
	20 -- 21	[pos="207.61,306.53 214.09,310.12 221.23,314.07 227.71,317.65"];
	6	[height=0.5,
		pos="639.8,293.59",
		width=0.75];
	5 -- 6	[pos="636.48,398.24 637.21,375.03 638.49,335.03 639.23,311.78"];
	40	[height=0.5,
		pos="698.01,392.93",
		width=0.75];
	5 -- 40	[pos="659.74,407.37 664.53,405.56 669.56,403.66 674.34,401.86"];
	26	[height=0.5,
		pos="422.91,281.8",
		width=0.75];
	23 -- 26	[pos="331.71,332.81 351.83,321.56 382.14,304.61 402.22,293.38"];
	23 -- 24	[pos="323.69,360.52 332.29,371.33 343.57,385.51 352.15,396.3"];
	7	[height=0.5,
		pos="571.05,178.51",
		width=0.75];
	6 -- 7	[pos="629.66,276.61 616.66,254.85 594.26,217.35 581.24,195.56"];
	32	[height=0.5,
		pos="617.02,249.58",
		width=0.75];
	6 -- 32	[pos="630.93,276.45 629.28,273.27 627.56,269.94 625.91,266.75"];
	28	[height=0.5,
		pos="501.69,265.81",
		width=0.75];
	26 -- 28	[pos="449.14,276.48 457.73,274.73 467.27,272.79 475.84,271.05"];
	27	[height=0.5,
		pos="441.53,221.08",
		width=0.75];
	26 -- 27	[pos="428.4,263.91 430.8,256.08 433.62,246.9 436.02,239.05"];
	8	[height=0.5,
		pos="418.7,103.36",
		width=0.75];
	7 -- 8	[pos="549.22,167.74 520.26,153.46 469.43,128.38 440.49,114.11"];
	42	[height=0.5,
		pos="683.92,169.15",
		width=0.75];
	7 -- 42	[pos="598.09,176.27 615.96,174.79 639.28,172.85 657.1,171.37"];
	30	[height=0.5,
		pos="504.34,375.59",
		width=0.75];
	28 -- 30	[pos="502.12,283.93 502.62,304.27 503.41,337.08 503.9,357.43"];
	29	[height=0.5,
		pos="508.98,157.28",
		width=0.75];
	28 -- 29	[pos="502.92,247.4 504.27,227.32 506.42,195.39 507.76,175.42"];
	9	[height=0.5,
		pos="294.61,125.26",
		width=0.75];
	8 -- 9	[pos="392.38,108 371.33,111.72 341.94,116.9 320.89,120.62"];
	8 -- 14	[pos="392.12,99.904 360.26,95.762 307.18,88.862 275.28,84.715"];
	35	[height=0.5,
		pos="426.84,443.68",
		width=0.75];
	30 -- 35	[pos="487.9,390.03 474.75,401.58 456.4,417.71 443.26,429.26"];
	30 -- 31	[pos="530.99,379.58 536.35,380.38 541.98,381.22 547.33,382.02"];
	12	[height=0.5,
		pos="167.76,162.01",
		width=0.75];
	9 -- 12	[pos="269.55,132.52 247.31,138.96 214.99,148.32 192.77,154.76"];
	36	[height=0.5,
		pos="302.82,442.34",
		width=0.75];
	35 -- 36	[pos="399.63,443.38 378.95,443.16 350.64,442.85 329.97,442.63"];
	11 -- 17	[pos="128.72,256.31 144.98,248.88 166.83,238.91 183.07,231.49"];
	11 -- 12	[pos="116.07,249.8 127.56,230.28 146.41,198.27 157.89,178.77"];
	17 -- 21	[pos="212.66,239.08 220.72,259.22 233.74,291.78 241.74,311.78"];
	18	[height=0.5,
		pos="356.67,132.44",
		width=0.75];
	17 -- 18	[pos="225.91,209.26 254.76,192.31 307.19,161.5 336.13,144.51"];
	21 -- 36	[pos="256.96,346.46 267.12,367.71 284.33,403.68 294.53,425"];
	22	[height=0.5,
		pos="277.27,238.19",
		width=0.75];
	21 -- 22	[pos="254.38,311.29 259.41,295.22 266.74,271.81 271.74,255.84"];
	15	[height=0.5,
		pos="172.78,89.265",
		width=0.75];
	12 -- 15	[pos="169,144.03 169.77,132.84 170.76,118.49 171.54,107.29"];
	36 -- 37	[pos="307.88,460.31 312.06,475.2 317.99,496.26 322.17,511.15"];
	14 -- 15	[pos="221.66,84.097 214.51,84.853 206.79,85.67 199.64,86.425"];
	14 -- 18	[pos="270.74,91.73 289.38,100.56 315.93,113.14 334.57,121.97"];
	19	[height=0.5,
		pos="232.57,133.31",
		width=0.75];
	15 -- 19	[pos="191.04,102.72 198.46,108.18 207.01,114.48 214.42,119.94"];
	38	[height=0.5,
		pos="451.66,487.71",
		width=0.75];
	37 -- 38	[pos="351.51,521.02 373.44,513.73 405.52,503.06 427.43,495.77"];
	24 -- 38	[pos="381.58,426.8 396.95,440.16 419.61,459.86 434.97,473.21"];
	25	[height=0.5,
		pos="360.08,300.41",
		width=0.75];
	24 -- 25	[pos="364.05,393.78 363.16,372.94 361.73,339.24 360.85,318.54"];
	18 -- 19	[pos="329.44,132.63 308.75,132.77 280.42,132.97 259.74,133.12"];
	33	[height=0.5,
		pos="540.41,113.23",
		width=0.75];
	18 -- 33	[pos="383.39,129.64 418.22,126 478.81,119.67 513.66,116.03"];
	19 -- 22	[pos="239.95,150.63 248.23,170.06 261.59,201.4 269.88,220.84"];
	39	[height=0.5,
		pos="591.71,465.2",
		width=0.75];
	38 -- 39	[pos="478,483.48 502.88,479.48 540.01,473.51 565.01,469.49"];
	31 -- 39	[pos="577.86,403.96 580.79,416.92 584.73,434.35 587.66,447.3"];
	31 -- 32	[pos="579.44,368.15 587.73,342.01 603.08,293.56 611.37,267.42"];
	22 -- 25	[pos="295.23,251.69 309.12,262.13 328.26,276.51 342.14,286.94"];
	39 -- 40	[pos="610.71,452.28 629.94,439.21 659.51,419.1 678.81,405.98"];
	25 -- 27	[pos="375.4,285.49 389.96,271.31 411.74,250.1 426.28,235.94"];
	41	[height=0.5,
		pos="710.68,279.39",
		width=0.75];
	40 -- 41	[pos="700.02,374.94 702.38,353.8 706.27,318.93 708.64,297.67"];
	32 -- 41	[pos="641.63,257.41 655.39,261.79 672.49,267.24 686.23,271.61"];
	32 -- 33	[pos="607.47,232.59 592.79,206.46 564.83,156.7 550.08,130.44"];
	27 -- 29	[pos="457.18,206.28 468.07,195.97 482.55,182.28 493.42,171.99"];
	41 -- 42	[pos="706.26,261.18 701.27,240.64 693.21,207.42 688.26,187.01"];
	34	[height=0.5,
		pos="589.26,60.725",
		width=0.75];
	29 -- 34	[pos="522.24,141.33 537.11,123.44 561.1,94.592 575.99,76.692"];
	43	[height=0.5,
		pos="652.29,84.866",
		width=0.75];
	42 -- 43	[pos="677.37,151.69 671.97,137.32 664.37,117.04 658.95,102.6"];
	33 -- 34	[pos="554.8,97.763 561.11,90.987 568.49,83.051 574.8,76.266"];
	33 -- 43	[pos="565.8,106.8 584.11,102.15 608.72,95.914 627,91.278"];
	44	[height=0.5,
		pos="667.59,18",
		width=0.75];
	34 -- 44	[pos="610.25,49.276 621.49,43.146 635.3,35.616 646.54,29.481"];
	43 -- 44	[pos="656.39,66.947 658.59,57.353 661.28,45.57 663.48,35.968"];
}
