graph {
	graph [bb="0,0,1781.8,1489.6",
		outputorder=edgesfirst,
		overlap=prism,
		size="50,50!",
		start=5773
	];
	node [label="\N"];
	0	[height=0.5,
		pos="1096.2,922.91",
		width=0.75];
	20	[height=0.5,
		pos="1329.1,704.32",
		width=0.75];
	0 -- 20	[pos="1111.8,908.22 1154.2,868.5 1270.6,759.21 1313.2,719.23"];
	23	[height=0.5,
		pos="1254.4,1195.1",
		width=0.75];
	0 -- 23	[pos="1106.1,939.93 1134.5,988.82 1216.1,1129.2 1244.5,1178.1"];
	27	[height=0.5,
		pos="723.05,879.71",
		width=0.75];
	0 -- 27	[pos="1069.4,919.8 1000.6,911.84 818.66,890.78 749.89,882.82"];
	30	[height=0.5,
		pos="1013.9,1107.9",
		width=0.75];
	0 -- 30	[pos="1088.4,940.31 1072.8,975.57 1037.4,1055.1 1021.7,1090.4"];
	31	[height=0.5,
		pos="1134.9,1102.3",
		width=0.75];
	0 -- 31	[pos="1100,940.77 1107.5,975.07 1123.6,1049.8 1131,1084.3"];
	6	[height=0.5,
		pos="1345.3,652.04",
		width=0.75];
	0 -- 6	[pos="1110.7,907.17 1154.8,859.19 1287.3,715.07 1331.1,667.48"];
	33	[height=0.5,
		pos="1003.2,1284",
		width=0.75];
	0 -- 33	[pos="1091.6,940.81 1075.8,1002.3 1023.7,1204.4 1007.9,1266"];
	36	[height=0.5,
		pos="1154.1,664.67",
		width=0.75];
	0 -- 36	[pos="1100.3,904.75 1110.9,857.33 1139.4,730.2 1150.1,682.8"];
	37	[height=0.5,
		pos="1323.9,794.13",
		width=0.75];
	0 -- 37	[pos="1116.8,911.25 1160,886.79 1259.8,830.36 1303.1,805.85"];
	38	[height=0.5,
		pos="1444.6,858.62",
		width=0.75];
	0 -- 38	[pos="1122.4,918.07 1187,906.16 1353.3,875.48 1418.1,863.51"];
	39	[height=0.5,
		pos="901.9,1016.7",
		width=0.75];
	0 -- 39	[pos="1074.3,933.48 1037,951.49 961.49,987.92 924.03,1006"];
	40	[height=0.5,
		pos="1191.1,790.85",
		width=0.75];
	0 -- 40	[pos="1108,906.45 1126.3,881 1161.2,832.42 1179.4,807.1"];
	41	[height=0.5,
		pos="834.74,974.41",
		width=0.75];
	0 -- 41	[pos="1070.2,928.03 1020.1,937.9 910.69,959.45 860.66,969.3"];
	43	[height=0.5,
		pos="1053.4,807.17",
		width=0.75];
	0 -- 43	[pos="1089.7,905.33 1081.7,883.57 1068.1,846.74 1060,824.91"];
	45	[height=0.5,
		pos="982.33,841.4",
		width=0.75];
	0 -- 45	[pos="1077.6,909.63 1056.5,894.47 1022,869.83 1000.9,854.67"];
	47	[height=0.5,
		pos="920.46,705.1",
		width=0.75];
	0 -- 47	[pos="1083.3,906.89 1050.8,866.61 965.92,761.44 933.4,721.14"];
	17	[height=0.5,
		pos="1068.9,538.41",
		width=0.75];
	0 -- 17	[pos="1094.9,904.88 1090.3,840.29 1074.7,620.92 1070.2,556.4"];
	48	[height=0.5,
		pos="885.96,1191.6",
		width=0.75];
	0 -- 48	[pos="1083.7,938.91 1046.4,986.59 936.24,1127.3 898.68,1175.4"];
	51	[height=0.5,
		pos="1241.3,1099",
		width=0.75];
	0 -- 51	[pos="1109.3,938.84 1136.9,972.28 1200.5,1049.4 1228.1,1083"];
	21	[height=0.5,
		pos="1260,549.2",
		width=0.75];
	20 -- 21	[pos="1321.3,686.83 1308,657.04 1281.2,596.78 1267.9,566.87"];
	24	[height=0.5,
		pos="1271.8,1364.2",
		width=0.75];
	23 -- 24	[pos="1256.3,1213.2 1259.6,1245.8 1266.6,1313.8 1269.9,1346.3"];
	28	[height=0.5,
		pos="446.32,777.87",
		width=0.75];
	27 -- 28	[pos="698.98,870.85 646.51,851.54 522.38,805.86 470.14,786.63"];
	32	[height=0.5,
		pos="1075.3,1334.1",
		width=0.75];
	31 -- 32	[pos="1130.4,1120.1 1119.3,1163.3 1091,1273.1 1079.9,1316.3"];
	6 -- 17	[pos="1322.2,642.55 1270.2,621.16 1144.2,569.4 1092.1,547.96"];
	55	[height=0.5,
		pos="1088.6,626.47",
		width=0.75];
	6 -- 55	[pos="1318.3,649.36 1269,644.44 1164.9,634.07 1115.6,629.16"];
	12	[height=0.5,
		pos="1044.5,703.33",
		width=0.75];
	6 -- 12	[pos="1319.1,656.51 1262.2,666.21 1127.9,689.12 1070.8,698.84"];
	87	[height=0.5,
		pos="1198.5,738.64",
		width=0.75];
	6 -- 87	[pos="1324.9,664.09 1296.8,680.63 1246.7,710.21 1218.7,726.7"];
	188	[height=0.5,
		pos="1203.1,895.55",
		width=0.75];
	6 -- 188	[pos="1335.3,669.17 1309.1,713.99 1238.8,834.34 1212.9,878.77"];
	14	[height=0.5,
		pos="772.16,514.51",
		width=0.75];
	6 -- 14	[pos="1319.6,645.87 1224.4,623.03 892.89,543.49 797.83,520.67"];
	219	[height=0.5,
		pos="1382.6,926.58",
		width=0.75];
	6 -- 219	[pos="1347.7,670.06 1354.5,719.8 1373.4,858.67 1380.2,908.5"];
	222	[height=0.5,
		pos="1554.7,537.63",
		width=0.75];
	6 -- 222	[pos="1366.5,640.44 1406.8,618.46 1493.7,570.97 1533.7,549.09"];
	225	[height=0.5,
		pos="1648.1,630.23",
		width=0.75];
	6 -- 225	[pos="1372.2,650.11 1429.5,645.98 1563.2,636.35 1620.8,632.2"];
	229	[height=0.5,
		pos="1595.1,729.1",
		width=0.75];
	6 -- 229	[pos="1370.2,659.71 1418.1,674.48 1522.6,706.71 1570.4,721.46"];
	232	[height=0.5,
		pos="1262.8,750.11",
		width=0.75];
	6 -- 232	[pos="1332,667.8 1316.7,686.1 1291.4,716.11 1276,734.39"];
	234	[height=0.5,
		pos="1052.9,582.43",
		width=0.75];
	6 -- 234	[pos="1319.9,645.99 1264.6,632.82 1133.9,601.72 1078.5,588.52"];
	236	[height=0.5,
		pos="1254.5,469.14",
		width=0.75];
	6 -- 236	[pos="1336.8,634.84 1319.5,599.98 1280.5,521.37 1263.1,486.44"];
	238	[height=0.5,
		pos="1378.8,474.5",
		width=0.75];
	6 -- 238	[pos="1348.7,634.04 1355.1,600.01 1369,526.61 1375.4,492.55"];
	242	[height=0.5,
		pos="1506.7,872.61",
		width=0.75];
	6 -- 242	[pos="1357.2,668.26 1387,709.05 1464.9,815.55 1494.8,856.37"];
	246	[height=0.5,
		pos="1265.1,860.48",
		width=0.75];
	6 -- 246	[pos="1338.5,669.82 1323.3,709.19 1287.1,803.42 1271.9,842.75"];
	120	[height=0.5,
		pos="1218.5,402.31",
		width=0.75];
	6 -- 120	[pos="1336.6,634.88 1313.4,589.26 1250.5,465.36 1227.3,419.6"];
	157	[height=0.5,
		pos="1568.7,872.75",
		width=0.75];
	6 -- 157	[pos="1360.7,667.21 1401.6,707.63 1512.8,817.56 1553.5,857.77"];
	34	[height=0.5,
		pos="858.16,1427.5",
		width=0.75];
	33 -- 34	[pos="987.98,1299.1 960.19,1326.6 901.6,1384.5 873.64,1412.2"];
	42	[height=0.5,
		pos="533.58,868.56",
		width=0.75];
	41 -- 42	[pos="810.6,965.92 754.21,946.11 614.33,896.94 557.83,877.08"];
	44	[height=0.5,
		pos="953.25,598.2",
		width=0.75];
	43 -- 44	[pos="1045.1,789.71 1026.2,750.28 980.34,654.7 961.53,615.46"];
	46	[height=0.5,
		pos="733.83,667.85",
		width=0.75];
	45 -- 46	[pos="963.65,828.36 917.6,796.2 799,713.37 752.72,681.05"];
	105	[height=0.5,
		pos="982.47,717.14",
		width=0.75];
	17 -- 105	[pos="1060.6,555.55 1044.1,589.63 1007.4,665.55 990.85,699.79"];
	19	[height=0.5,
		pos="977.83,1052.5",
		width=0.75];
	17 -- 19	[pos="1065.7,556.41 1051.6,635.85 995.15,954.71 981.04,1034.4"];
	325	[height=0.5,
		pos="1407.8,617.59",
		width=0.75];
	17 -- 325	[pos="1094.6,544.43 1157.6,559.15 1319.1,596.87 1382,611.59"];
	339	[height=0.5,
		pos="796.4,707.83",
		width=0.75];
	17 -- 339	[pos="1048.8,550.87 998.45,582.2 866.89,664 816.47,695.35"];
	385	[height=0.5,
		pos="827.77,470.5",
		width=0.75];
	17 -- 385	[pos="1044,531.4 997.78,518.39 899.26,490.64 852.89,477.58"];
	388	[height=0.5,
		pos="858.45,706.74",
		width=0.75];
	17 -- 388	[pos="1051.3,552.48 1011.6,584.24 915.35,661.22 875.83,692.84"];
	81	[height=0.5,
		pos="1031.7,325.93",
		width=0.75];
	17 -- 81	[pos="1065.7,520.3 1058.7,480.15 1041.9,384.1 1034.9,344"];
	144	[height=0.5,
		pos="796.92,372.33",
		width=0.75];
	17 -- 144	[pos="1048.9,526.2 998.58,495.49 867.27,415.29 816.95,384.56"];
	184	[height=0.5,
		pos="1129.1,752.71",
		width=0.75];
	17 -- 184	[pos="1073.9,556.32 1085.3,596.76 1112.8,694.76 1124.1,735.01"];
	216	[height=0.5,
		pos="1254.7,694.5",
		width=0.75];
	17 -- 216	[pos="1085.7,552.54 1121,582.18 1202.4,650.58 1237.8,680.29"];
	266	[height=0.5,
		pos="937.96,794.81",
		width=0.75];
	17 -- 266	[pos="1060.1,555.63 1036.2,602.34 970.52,731.04 946.72,777.66"];
	290	[height=0.5,
		pos="1280.4,298.68",
		width=0.75];
	17 -- 290	[pos="1082.8,522.68 1121.1,479.25 1228.1,357.97 1266.5,314.47"];
	310	[height=0.5,
		pos="1320.3,392.9",
		width=0.75];
	17 -- 310	[pos="1089.5,526.51 1136.7,499.15 1252.6,432.08 1299.8,404.76"];
	362	[height=0.5,
		pos="827.05,276.59",
		width=0.75];
	17 -- 362	[pos="1054.5,522.82 1011.5,476.25 884.29,338.56 841.38,292.1"];
	373	[height=0.5,
		pos="1043.1,228.86",
		width=0.75];
	17 -- 373	[pos="1067.4,520.43 1062.8,465.72 1049.2,301.67 1044.6,246.89"];
	381	[height=0.5,
		pos="993.69,372.13",
		width=0.75];
	17 -- 381	[pos="1061,520.93 1046.5,488.91 1015.9,421.22 1001.5,389.38"];
	49	[height=0.5,
		pos="762.56,1351.8",
		width=0.75];
	48 -- 49	[pos="873.45,1207.9 849.8,1238.5 798.78,1304.7 775.1,1335.5"];
	52	[height=0.5,
		pos="1191.4,1147.8",
		width=0.75];
	51 -- 52	[pos="1226.1,1113.9 1220,1119.8 1213,1126.7 1206.9,1132.6"];
	1	[height=0.5,
		pos="732.18,623.78",
		width=0.75];
	2	[height=0.5,
		pos="908.52,927.18",
		width=0.75];
	1 -- 2	[pos="742.17,640.96 773.2,694.36 867.76,857.04 898.65,910.19"];
	3	[height=0.5,
		pos="547.34,528.36",
		width=0.75];
	1 -- 3	[pos="710.61,612.65 675,594.26 604.29,557.76 568.77,539.42"];
	53	[height=0.5,
		pos="785.08,885.99",
		width=0.75];
	1 -- 53	[pos="735.82,641.8 745.48,689.7 771.72,819.8 781.41,867.84"];
	54	[height=0.5,
		pos="847.12,883.03",
		width=0.75];
	1 -- 54	[pos="739.9,641.19 760.84,688.42 818.53,818.55 839.43,865.69"];
	1 -- 55	[pos="759.26,623.98 825.54,624.48 995.3,625.77 1061.5,626.27"];
	56	[height=0.5,
		pos="384.21,769.32",
		width=0.75];
	1 -- 56	[pos="709.08,633.44 645.93,659.85 470.94,733.05 407.53,759.57"];
	60	[height=0.5,
		pos="889.07,304.18",
		width=0.75];
	1 -- 60	[pos="740.62,606.6 767.86,551.1 853.3,377.06 880.6,321.45"];
	64	[height=0.5,
		pos="935.14,460.48",
		width=0.75];
	1 -- 64	[pos="749.48,609.86 787.83,579 879.57,505.18 917.88,474.36"];
	66	[height=0.5,
		pos="1218.4,649.81",
		width=0.75];
	1 -- 66	[pos="759.36,625.24 844.66,629.8 1106.4,643.82 1191.4,648.37"];
	67	[height=0.5,
		pos="422.01,600.01",
		width=0.75];
	1 -- 67	[pos="705.2,621.71 646.54,617.22 507.95,606.59 449.15,602.09"];
	1 -- 12	[pos="757.48,630.22 816,645.13 960.23,681.86 1019,696.83"];
	71	[height=0.5,
		pos="424.25,511.98",
		width=0.75];
	1 -- 71	[pos="708.27,615.1 650.9,594.27 505.93,541.64 448.35,520.73"];
	75	[height=0.5,
		pos="689.17,474.41",
		width=0.75];
	1 -- 75	[pos="727.08,606.06 718.8,577.31 702.54,520.84 694.26,492.11"];
	76	[height=0.5,
		pos="585.61,458.42",
		width=0.75];
	1 -- 76	[pos="718.39,608.22 690.46,576.71 627.46,505.64 599.47,474.05"];
	16	[height=0.5,
		pos="643.05,546.45",
		width=0.75];
	1 -- 16	[pos="715.42,609.24 699.48,595.41 675.65,574.74 659.74,560.93"];
	79	[height=0.5,
		pos="756.87,320.77",
		width=0.75];
	1 -- 79	[pos="733.65,605.73 738.03,551.97 750.96,393.25 755.37,339.11"];
	18	[height=0.5,
		pos="730.65,930",
		width=0.75];
	1 -- 18	[pos="732.09,642.02 731.82,696.48 731.02,857.52 730.74,911.86"];
	82	[height=0.5,
		pos="906.98,750.74",
		width=0.75];
	1 -- 82	[pos="750.56,637.13 784.13,661.51 855.01,712.99 888.59,737.38"];
	22	[height=0.5,
		pos="1006.3,507.44",
		width=0.75];
	1 -- 22	[pos="755.08,614.06 806.67,592.16 931.53,539.16 983.24,517.21"];
	2 -- 16	[pos="897.12,910.82 853.65,848.48 698.62,626.15 654.71,563.18"];
	84	[height=0.5,
		pos="670.15,667.82",
		width=0.75];
	2 -- 84	[pos="894.33,911.73 851.93,865.6 726.57,729.21 684.27,683.18"];
	4	[height=0.5,
		pos="845.36,1106.5",
		width=0.75];
	2 -- 4	[pos="902.24,945.03 890.13,979.4 863.71,1054.4 851.62,1088.7"];
	85	[height=0.5,
		pos="823.43,1150.5",
		width=0.75];
	2 -- 85	[pos="901.85,944.7 885.98,986.35 846.15,1090.9 830.2,1132.8"];
	2 -- 87	[pos="928,914.52 980.83,880.17 1126.4,785.53 1179.1,751.25"];
	7	[height=0.5,
		pos="711.52,1117.5",
		width=0.75];
	2 -- 7	[pos="893.07,942.12 856.24,977.7 763.66,1067.2 726.91,1102.7"];
	88	[height=0.5,
		pos="1025.8,659.29",
		width=0.75];
	2 -- 88	[pos="916.22,909.6 937.51,860.95 997.04,724.9 1018.2,676.58"];
	89	[height=0.5,
		pos="1382.6,838.16",
		width=0.75];
	2 -- 89	[pos="934.69,922.27 1017.6,906.7 1273.8,858.6 1356.5,843.06"];
	93	[height=0.5,
		pos="1328.9,979.98",
		width=0.75];
	2 -- 93	[pos="935.14,930.52 1010.8,940.02 1226.3,967.1 1302.1,976.62"];
	97	[height=0.5,
		pos="653.95,1162.2",
		width=0.75];
	2 -- 97	[pos="892.6,941.88 846.88,984.08 715.58,1105.3 669.86,1147.5"];
	101	[height=0.5,
		pos="1216,941.25",
		width=0.75];
	2 -- 101	[pos="935.54,928.42 993.71,931.08 1130.3,937.33 1188.7,940"];
	13	[height=0.5,
		pos="597.12,700.68",
		width=0.75];
	2 -- 13	[pos="889.98,913.69 834.59,873.41 670.83,754.3 615.57,714.1"];
	104	[height=0.5,
		pos="815.96,662.73",
		width=0.75];
	2 -- 104	[pos="902.31,909.42 885.44,861.24 838.98,728.5 822.15,680.41"];
	15	[height=0.5,
		pos="767.11,578.93",
		width=0.75];
	2 -- 15	[pos="901.32,909.43 877.06,849.69 798.54,656.33 774.3,596.64"];
	2 -- 105	[pos="914.7,909.63 928.62,870.1 962.3,774.41 976.25,734.78"];
	106	[height=0.5,
		pos="760.01,1212.6",
		width=0.75];
	2 -- 106	[pos="899.46,944.6 872.88,995.68 795.38,1144.6 768.96,1195.4"];
	110	[height=0.5,
		pos="1076.9,1196",
		width=0.75];
	2 -- 110	[pos="919.06,943.99 949.3,992.26 1036.1,1130.9 1066.4,1179.2"];
	26	[height=0.5,
		pos="1039.7,1240",
		width=0.75];
	2 -- 26	[pos="915.95,944.89 939.04,999.95 1009.4,1167.7 1032.3,1222.5"];
	3 -- 12	[pos="571.32,536.8 655.41,566.39 936.33,665.25 1020.5,694.87"];
	3 -- 16	[pos="573.49,533.3 587,535.86 603.43,538.96 616.93,541.52"];
	3 -- 84	[pos="561.19,544.09 584.77,570.87 632.48,625.04 656.16,651.93"];
	113	[height=0.5,
		pos="458.61,728.68",
		width=0.75];
	3 -- 113	[pos="539.62,545.79 522.84,583.67 483.2,673.17 466.37,711.15"];
	115	[height=0.5,
		pos="520.69,700.68",
		width=0.75];
	3 -- 115	[pos="544.54,546.48 539.42,579.57 528.61,649.44 523.49,682.55"];
	117	[height=0.5,
		pos="636.45,205.73",
		width=0.75];
	3 -- 117	[pos="552.26,510.55 567.84,454.15 615.99,279.81 631.55,223.48"];
	121	[height=0.5,
		pos="224.64,697.28",
		width=0.75];
	3 -- 121	[pos="525.92,539.57 467.36,570.23 305.07,655.18 246.27,685.96"];
	8	[height=0.5,
		pos="1062.9,406.36",
		width=0.75];
	3 -- 8	[pos="572.9,522.31 660.67,501.54 949.14,433.27 1037.1,412.44"];
	125	[height=0.5,
		pos="541.67,216.84",
		width=0.75];
	3 -- 125	[pos="547.01,510.27 546.01,455.21 543,290.11 542,234.99"];
	129	[height=0.5,
		pos="879.84,408.37",
		width=0.75];
	3 -- 129	[pos="571.25,519.73 632.45,497.64 794.25,439.26 855.7,417.08"];
	132	[height=0.5,
		pos="295.87,540.95",
		width=0.75];
	3 -- 132	[pos="519.95,529.73 471.45,532.16 371.05,537.19 322.85,539.6"];
	135	[height=0.5,
		pos="341.84,447.91",
		width=0.75];
	3 -- 135	[pos="523.77,519.13 484.13,503.61 404.6,472.47 365.14,457.03"];
	138	[height=0.5,
		pos="428.05,363.5",
		width=0.75];
	3 -- 138	[pos="535.46,511.95 512.6,480.35 462.71,411.39 439.88,379.84"];
	140	[height=0.5,
		pos="363.84,363.36",
		width=0.75];
	3 -- 140	[pos="531.05,513.72 496.23,482.4 414.87,409.25 380.08,377.97"];
	143	[height=0.5,
		pos="614.24,337.99",
		width=0.75];
	3 -- 143	[pos="553.51,510.79 566.26,474.52 595.35,391.74 608.08,355.51"];
	145	[height=0.5,
		pos="216.63,555.57",
		width=0.75];
	3 -- 145	[pos="520.28,530.59 458.11,535.7 305.69,548.24 243.61,553.35"];
	149	[height=0.5,
		pos="287.43,696.63",
		width=0.75];
	3 -- 149	[pos="527.8,541.01 479.52,572.27 354.98,652.89 306.83,684.07"];
	29	[height=0.5,
		pos="401.39,644.35",
		width=0.75];
	3 -- 29	[pos="529.73,542.35 501.68,564.64 447.15,607.98 419.06,630.31"];
	57	[height=0.5,
		pos="157.87,950.46",
		width=0.75];
	56 -- 57	[pos="366.83,783.23 324.7,816.95 217.51,902.73 175.32,936.5"];
	61	[height=0.5,
		pos="1075.3,93.576",
		width=0.75];
	60 -- 61	[pos="903.07,288.35 937.67,249.22 1026.9,148.32 1061.4,109.3"];
	65	[height=0.5,
		pos="1169.9,490.35",
		width=0.75];
	64 -- 65	[pos="962.07,463.9 1007.4,469.67 1098.2,481.23 1143.3,486.96"];
	68	[height=0.5,
		pos="140.11,661.7",
		width=0.75];
	67 -- 68	[pos="395.99,605.7 342.29,617.45 219.71,644.28 166.06,656.02"];
	12 -- 40	[pos="1064.9,715.5 1092.9,732.22 1143,762.12 1170.9,778.78"];
	12 -- 17	[pos="1047.2,685.37 1051.9,653.64 1061.5,588.06 1066.2,556.35"];
	12 -- 13	[pos="1017.2,703.17 937.24,702.7 704.24,701.32 624.36,700.85"];
	12 -- 14	[pos="1025.8,690.35 976.04,655.86 840.91,562.18 791.01,527.58"];
	278	[height=0.5,
		pos="1140.7,534.39",
		width=0.75];
	12 -- 278	[pos="1054.3,686.2 1072.8,653.74 1112.7,583.61 1131.1,551.31"];
	332	[height=0.5,
		pos="786.75,796.68",
		width=0.75];
	12 -- 332	[pos="1020.7,711.94 971.63,729.73 859.54,770.32 810.48,788.08"];
	343	[height=0.5,
		pos="862.98,569.81",
		width=0.75];
	12 -- 343	[pos="1026.1,689.79 991.23,664.14 915.88,608.72 881.16,583.19"];
	344	[height=0.5,
		pos="1093.9,360.27",
		width=0.75];
	12 -- 344	[pos="1047.1,685.37 1055.6,626.22 1082.7,437.95 1091.2,378.47"];
	348	[height=0.5,
		pos="910.06,883.03",
		width=0.75];
	12 -- 348	[pos="1032.4,719.59 1006.8,753.72 947.9,832.46 922.3,866.67"];
	349	[height=0.5,
		pos="1327.2,882.19",
		width=0.75];
	12 -- 349	[pos="1064.4,715.91 1116.3,748.75 1255.4,836.81 1307.3,869.63"];
	103	[height=0.5,
		pos="1352.8,748.34",
		width=0.75];
	12 -- 103	[pos="1071.1,707.21 1129.3,715.71 1267.9,735.94 1326.2,744.45"];
	171	[height=0.5,
		pos="1091.8,968.66",
		width=0.75];
	12 -- 171	[pos="1047.8,721.57 1056.4,770.16 1079.9,902.32 1088.5,950.65"];
	207	[height=0.5,
		pos="1257.8,1055",
		width=0.75];
	12 -- 207	[pos="1054.8,720.29 1090.9,779.83 1211.6,978.9 1247.6,1038.2"];
	256	[height=0.5,
		pos="1049.1,1063.8",
		width=0.75];
	12 -- 256	[pos="1044.8,721.7 1045.5,783.53 1048.1,983.68 1048.8,1045.5"];
	295	[height=0.5,
		pos="1342.3,606.47",
		width=0.75];
	12 -- 295	[pos="1068.9,695.4 1124.9,677.2 1262.1,632.55 1318,614.37"];
	315	[height=0.5,
		pos="1419.7,692.05",
		width=0.75];
	12 -- 315	[pos="1071.5,702.52 1140.6,700.44 1323.6,694.94 1392.7,692.86"];
	72	[height=0.5,
		pos="217.29,420.07",
		width=0.75];
	71 -- 72	[pos="401.71,501.97 361.9,484.29 279.6,447.74 239.81,430.07"];
	77	[height=0.5,
		pos="522.73,262.63",
		width=0.75];
	76 -- 77	[pos="579.92,440.7 567.98,403.52 540.42,317.72 528.45,280.45"];
	16 -- 47	[pos="663.9,558.38 715.44,587.85 848.35,663.86 899.74,693.25"];
	16 -- 18	[pos="647.16,564.44 661.87,628.86 711.85,847.69 726.56,912.06"];
	264	[height=0.5,
		pos="594.76,824.52",
		width=0.75];
	16 -- 264	[pos="639.88,564.7 631.11,615.2 606.59,756.42 597.88,806.57"];
	338	[height=0.5,
		pos="675.75,736.22",
		width=0.75];
	16 -- 338	[pos="646.19,564.65 652.44,600.92 666.38,681.85 672.63,718.08"];
	16 -- 385	[pos="666.07,536.99 701.56,522.39 769.25,494.56 804.75,479.97"];
	386	[height=0.5,
		pos="738.36,752.64",
		width=0.75];
	16 -- 386	[pos="651.01,563.68 668.95,602.49 712.37,696.42 730.36,735.32"];
	182	[height=0.5,
		pos="352.62,708.72",
		width=0.75];
	16 -- 182	[pos="622.16,558.12 568.58,588.06 426.7,667.33 373.32,697.16"];
	214	[height=0.5,
		pos="510.89,774.78",
		width=0.75];
	16 -- 214	[pos="633.12,563.62 608.56,606.03 545.24,715.43 520.76,757.73"];
	241	[height=0.5,
		pos="951.13,305.56",
		width=0.75];
	16 -- 241	[pos="660.95,532.46 715.53,489.78 879.44,361.61 933.57,319.29"];
	286	[height=0.5,
		pos="722.95,276.59",
		width=0.75];
	16 -- 286	[pos="648.29,528.75 662.77,479.85 703.19,343.34 717.69,294.36"];
	306	[height=0.5,
		pos="858.97,364.36",
		width=0.75];
	16 -- 306	[pos="659.99,532.17 700.36,498.13 801.83,412.55 842.11,378.58"];
	324	[height=0.5,
		pos="1078.6,494.41",
		width=0.75];
	16 -- 324	[pos="669.64,543.28 747.39,533.99 973.77,506.93 1051.8,497.61"];
	347	[height=0.5,
		pos="759.31,232.57",
		width=0.75];
	16 -- 347	[pos="649.63,528.68 670.1,473.43 732.43,305.13 752.8,250.15"];
	358	[height=0.5,
		pos="444.4,462.57",
		width=0.75];
	16 -- 358	[pos="619.87,536.67 581.6,520.5 505.61,488.42 467.43,472.29"];
	369	[height=0.5,
		pos="552.21,308.01",
		width=0.75];
	16 -- 369	[pos="636.37,528.92 619.57,484.83 575.71,369.69 558.9,325.57"];
	80	[height=0.5,
		pos="893.69,195.2",
		width=0.75];
	79 -- 80	[pos="772.83,306.12 799.06,282.06 850.98,234.41 877.41,210.15"];
	291	[height=0.5,
		pos="891.22,641.18",
		width=0.75];
	18 -- 291	[pos="740.22,912.8 768.78,861.43 853.22,709.55 881.71,658.3"];
	18 -- 348	[pos="755.98,923.37 790.17,914.42 850.74,898.56 884.87,889.62"];
	18 -- 388	[pos="740.47,912.85 764.32,871.19 825.07,765.05 848.77,723.64"];
	389	[height=0.5,
		pos="685.89,1219.4",
		width=0.75];
	18 -- 389	[pos="727.85,948.11 719.81,1000.1 696.72,1149.3 688.69,1201.3"];
	50	[height=0.5,
		pos="717.35,1168.5",
		width=0.75];
	18 -- 50	[pos="729.63,948.32 727.15,992.83 720.82,1106.2 718.35,1150.5"];
	109	[height=0.5,
		pos="557.42,1186.8",
		width=0.75];
	18 -- 109	[pos="719.55,946.46 688.34,992.74 600.03,1123.7 568.65,1170.2"];
	148	[height=0.5,
		pos="276.56,906.96",
		width=0.75];
	18 -- 148	[pos="703.61,928.63 622.94,924.54 384.61,912.44 303.75,908.34"];
	186	[height=0.5,
		pos="624.52,1117",
		width=0.75];
	18 -- 186	[pos="721.05,946.93 700.89,982.44 654.38,1064.4 634.18,1100"];
	245	[height=0.5,
		pos="948.11,1154.7",
		width=0.75];
	18 -- 245	[pos="745.6,945.45 785.42,986.59 893.73,1098.5 933.34,1139.4"];
	268	[height=0.5,
		pos="515.12,1070",
		width=0.75];
	18 -- 268	[pos="711.15,942.67 670.22,969.25 575.77,1030.6 534.74,1057.2"];
	328	[height=0.5,
		pos="1107.4,1019.8",
		width=0.75];
	18 -- 328	[pos="756.25,936.1 824.99,952.48 1013,997.27 1081.8,1013.7"];
	342	[height=0.5,
		pos="422.36,1070.7",
		width=0.75];
	18 -- 342	[pos="708.23,940.24 651.29,966.23 501.56,1034.6 444.7,1060.5"];
	377	[height=0.5,
		pos="343.91,887.77",
		width=0.75];
	18 -- 377	[pos="703.77,927.07 632.85,919.32 441.33,898.41 370.62,890.69"];
	383	[height=0.5,
		pos="488.73,821.9",
		width=0.75];
	18 -- 383	[pos="707.89,919.83 661.67,899.18 557.28,852.53 511.26,831.97"];
	83	[height=0.5,
		pos="993.44,962.63",
		width=0.75];
	82 -- 83	[pos="914.21,768.44 930.52,808.43 970.06,905.33 986.29,945.13"];
	4 -- 30	[pos="872.44,1106.7 903.89,1107 955.46,1107.4 986.88,1107.7"];
	4 -- 53	[pos="840.43,1088.5 829.09,1047 801.31,945.37 789.99,903.98"];
	153	[height=0.5,
		pos="822.83,1215.7",
		width=0.75];
	4 -- 153	[pos="841.64,1124.5 837.46,1144.8 830.73,1177.4 826.55,1197.6"];
	154	[height=0.5,
		pos="1205.5,1266.6",
		width=0.75];
	4 -- 154	[pos="867.89,1116.5 932.57,1145.3 1118.3,1227.8 1183,1256.6"];
	158	[height=0.5,
		pos="816.01,1259.7",
		width=0.75];
	4 -- 158	[pos="841.94,1124.4 836.31,1153.8 825.17,1211.9 819.5,1241.5"];
	159	[height=0.5,
		pos="1203.6,1010.9",
		width=0.75];
	4 -- 159	[pos="870.55,1099.8 936.32,1082.2 1112.7,1035.2 1178.4,1017.7"];
	9	[height=0.5,
		pos="1282.7,650.48",
		width=0.75];
	4 -- 9	[pos="859.91,1091.3 926.47,1021.9 1201.5,735.22 1268.1,665.71"];
	162	[height=0.5,
		pos="1270.8,1303.1",
		width=0.75];
	4 -- 162	[pos="867.63,1116.8 941.06,1150.7 1175,1258.9 1248.5,1292.8"];
	166	[height=0.5,
		pos="632.62,1345.8",
		width=0.75];
	4 -- 166	[pos="831.4,1122.2 792.86,1165.6 685.24,1286.6 646.63,1330"];
	170	[height=0.5,
		pos="1023.6,1151.9",
		width=0.75];
	4 -- 170	[pos="870.9,1113 904.78,1121.6 964.25,1136.8 998.11,1145.4"];
	172	[height=0.5,
		pos="564.54,1252.2",
		width=0.75];
	4 -- 172	[pos="823.79,1117.7 771.52,1144.8 638.53,1213.8 586.18,1240.9"];
	176	[height=0.5,
		pos="848.95,838.99",
		width=0.75];
	4 -- 176	[pos="845.61,1088.1 846.26,1039.1 848.05,905.89 848.7,857.16"];
	177	[height=0.5,
		pos="710.67,984.94",
		width=0.75];
	4 -- 177	[pos="829.11,1091.8 803.23,1068.5 752.9,1023.1 726.97,999.66"];
	179	[height=0.5,
		pos="500.41,1115.1",
		width=0.75];
	4 -- 179	[pos="818.29,1107.2 753.97,1108.8 592.5,1112.8 527.82,1114.4"];
	183	[height=0.5,
		pos="1039.8,1012.7",
		width=0.75];
	4 -- 183	[pos="867.29,1095.9 904.65,1077.9 980.2,1041.5 1017.7,1023.4"];
	185	[height=0.5,
		pos="753.99,1263.7",
		width=0.75];
	4 -- 185	[pos="835.58,1123.3 818.09,1153.4 781.62,1216.1 763.97,1246.5"];
	187	[height=0.5,
		pos="948.08,1229.3",
		width=0.75];
	4 -- 187	[pos="858.58,1122.3 878.3,1145.9 915.22,1190 934.92,1213.5"];
	114	[height=0.5,
		pos="552.33,952.58",
		width=0.75];
	4 -- 114	[pos="823.81,1095.2 769.62,1066.7 628.13,992.4 573.91,963.92"];
	86	[height=0.5,
		pos="879.04,1273.1",
		width=0.75];
	85 -- 86	[pos="831.28,1167.8 841.82,1191 860.44,1232.1 871.05,1255.5"];
	7 -- 158	[pos="723.51,1133.8 743.56,1161.1 783.67,1215.7 803.84,1243.2"];
	247	[height=0.5,
		pos="862.54,794.83",
		width=0.75];
	7 -- 247	[pos="719.64,1100.2 745.87,1044.2 828.1,868.42 854.38,812.26"];
	248	[height=0.5,
		pos="859.19,1062.5",
		width=0.75];
	7 -- 248	[pos="735.25,1108.7 762.8,1098.4 807.99,1081.6 835.52,1071.3"];
	250	[height=0.5,
		pos="1012.8,1328",
		width=0.75];
	7 -- 250	[pos="730.37,1130.7 784.49,1168.5 939.9,1277.1 994,1314.9"];
	11	[height=0.5,
		pos="661.01,897.63",
		width=0.75];
	7 -- 11	[pos="707.39,1099.5 697.89,1058.2 674.61,956.84 665.13,915.56"];
	253	[height=0.5,
		pos="751.5,1403",
		width=0.75];
	7 -- 253	[pos="714.09,1135.8 721.31,1187.4 741.77,1333.5 748.96,1384.8"];
	257	[height=0.5,
		pos="380.95,1158.8",
		width=0.75];
	7 -- 257	[pos="684.75,1120.9 622.65,1128.6 469.4,1147.7 407.51,1155.5"];
	260	[height=0.5,
		pos="380.36,1000.6",
		width=0.75];
	7 -- 260	[pos="687.44,1109 626.27,1087.4 465.43,1030.6 404.36,1009.1"];
	263	[height=0.5,
		pos="656.9,853.6",
		width=0.75];
	7 -- 263	[pos="707.77,1099.4 697.77,1051.1 670.56,919.6 660.61,871.52"];
	7 -- 264	[pos="704.57,1100.1 683.85,1048.1 622.69,894.61 601.83,842.26"];
	265	[height=0.5,
		pos="772.7,974.2",
		width=0.75];
	7 -- 265	[pos="719.03,1100 730.77,1072.5 753.36,1019.5 765.14,991.92"];
	267	[height=0.5,
		pos="501.91,1230.9",
		width=0.75];
	7 -- 267	[pos="690.27,1129 649.99,1150.8 562.99,1197.8 522.91,1219.5"];
	7 -- 19	[pos="737.06,1111.3 787.96,1098.9 901.54,1071.1 952.38,1058.7"];
	35	[height=0.5,
		pos="698.26,1358.9",
		width=0.75];
	7 -- 35	[pos="710.53,1135.7 708.06,1180.5 701.71,1296.2 699.25,1340.9"];
	59	[height=0.5,
		pos="359.86,1202.8",
		width=0.75];
	7 -- 59	[pos="685.95,1123.7 620.99,1139.5 450.19,1180.9 385.34,1196.6"];
	124	[height=0.5,
		pos="331.37,1095.3",
		width=0.75];
	7 -- 124	[pos="684.49,1116 614.52,1111.9 428.08,1101 358.26,1096.9"];
	191	[height=0.5,
		pos="601.19,1390.4",
		width=0.75];
	7 -- 191	[pos="704.45,1135 684.57,1184.2 628.33,1323.3 608.35,1372.7"];
	221	[height=0.5,
		pos="941.14,1289.2",
		width=0.75];
	7 -- 221	[pos="729.54,1131 772.36,1163 879.84,1243.4 922.89,1275.6"];
	90	[height=0.5,
		pos="1587.2,817.22",
		width=0.75];
	89 -- 90	[pos="1409.4,835.42 1448.6,831.41 1521.3,823.97 1560.5,819.96"];
	94	[height=0.5,
		pos="1568.3,988.5",
		width=0.75];
	93 -- 94	[pos="1355.9,980.94 1401.9,982.58 1494.9,985.89 1541,987.53"];
	98	[height=0.5,
		pos="485.92,1318.9",
		width=0.75];
	97 -- 98	[pos="638.14,1176.9 606.11,1206.8 533.9,1274.1 501.81,1304.1"];
	102	[height=0.5,
		pos="1444.7,914.13",
		width=0.75];
	101 -- 102	[pos="1242.7,938.08 1286.6,932.87 1373.7,922.54 1417.8,917.32"];
	13 -- 18	[pos="606.94,717.55 631.64,759.95 696.11,870.68 720.82,913.12"];
	13 -- 15	[pos="615.64,687.42 648.34,664 715.93,615.58 748.61,592.17"];
	316	[height=0.5,
		pos="1106.6,708.68",
		width=0.75];
	13 -- 316	[pos="624.15,701.11 712.3,702.49 990.79,706.86 1079.3,708.25"];
	352	[height=0.5,
		pos="359.84,497.51",
		width=0.75];
	13 -- 352	[pos="580.44,686.4 536.87,649.09 420.06,549.07 376.51,511.78"];
	356	[height=0.5,
		pos="366.4,555.99",
		width=0.75];
	13 -- 356	[pos="577.45,688.35 533.97,661.08 430.08,595.93 386.34,568.5"];
	359	[height=0.5,
		pos="403.88,418.53",
		width=0.75];
	13 -- 359	[pos="585.9,684.3 551.74,634.43 449.33,484.9 415.14,434.97"];
	363	[height=0.5,
		pos="475.99,912.59",
		width=0.75];
	13 -- 363	[pos="587.42,717.67 564.74,757.34 508.47,855.77 485.75,895.52"];
	13 -- 42	[pos="590.44,718.33 578.24,750.58 552.47,818.64 540.26,850.9"];
	74	[height=0.5,
		pos="254.35,602.45",
		width=0.75];
	13 -- 74	[pos="572.2,693.54 508.88,675.39 342.4,627.68 279.18,609.57"];
	137	[height=0.5,
		pos="321.84,600.91",
		width=0.75];
	13 -- 137	[pos="573.18,692 521.11,673.13 398.12,628.56 345.93,609.64"];
	175	[height=0.5,
		pos="250.34,956.55",
		width=0.75];
	13 -- 175	[pos="578.97,714.08 519.18,758.19 328.87,898.61 268.74,942.97"];
	209	[height=0.5,
		pos="412.44,910.62",
		width=0.75];
	13 -- 209	[pos="583.24,716.46 548.93,755.47 460.44,856.05 426.23,894.95"];
	235	[height=0.5,
		pos="705.07,552.56",
		width=0.75];
	13 -- 235	[pos="609.09,684.27 629.84,655.8 672.27,597.58 693.05,569.06"];
	259	[height=0.5,
		pos="213.26,881.16",
		width=0.75];
	13 -- 259	[pos="574.83,711.17 506.98,743.06 303.55,838.71 235.62,870.64"];
	281	[height=0.5,
		pos="506.49,459.44",
		width=0.75];
	13 -- 281	[pos="590.46,682.94 573.7,638.33 529.94,521.85 513.17,477.2"];
	297	[height=0.5,
		pos="616.87,502.44",
		width=0.75];
	13 -- 297	[pos="598.95,682.39 602.72,644.53 611.34,557.98 615.08,520.4"];
	15 -- 16	[pos="741.7,572.28 720.29,566.68 689.82,558.7 668.42,553.1"];
	15 -- 263	[pos="760.04,596.53 740.14,646.14 683.74,786.71 663.9,836.15"];
	15 -- 343	[pos="794.07,576.37 807.25,575.11 823.06,573.61 836.22,572.36"];
	380	[height=0.5,
		pos="803.95,426.47",
		width=0.75];
	15 -- 380	[pos="771.4,561.14 778.47,531.92 792.45,474.07 799.56,444.62"];
	382	[height=0.5,
		pos="608.13,656.67",
		width=0.75];
	15 -- 382	[pos="745.33,589.58 715.06,604.38 660.55,631.04 630.15,645.9"];
	384	[height=0.5,
		pos="920.31,838.85",
		width=0.75];
	15 -- 384	[pos="777.16,595.98 804.99,643.19 882.79,775.19 910.42,822.07"];
	15 -- 46	[pos="760.53,596.5 754.7,612.09 746.22,634.74 740.39,650.32"];
	78	[height=0.5,
		pos="624.93,382.03",
		width=0.75];
	15 -- 78	[pos="755.23,562.48 728.4,525.32 663.37,435.27 636.67,398.29"];
	142	[height=0.5,
		pos="492.8,401.61",
		width=0.75];
	15 -- 142	[pos="747.38,566.18 696.77,533.46 562.76,446.84 512.34,414.25"];
	178	[height=0.5,
		pos="635.13,780.5",
		width=0.75];
	15 -- 178	[pos="756.08,595.77 731.18,633.81 670.82,725.99 646.04,763.85"];
	211	[height=0.5,
		pos="697.16,797.23",
		width=0.75];
	15 -- 211	[pos="761.38,596.79 748.23,637.83 716,738.45 702.87,779.43"];
	237	[height=0.5,
		pos="1033.1,450.39",
		width=0.75];
	15 -- 237	[pos="789.33,568.19 839.53,543.93 961.2,485.15 1011.2,461.01"];
	303	[height=0.5,
		pos="970.51,416.17",
		width=0.75];
	15 -- 303	[pos="784.45,565.05 822.88,534.3 914.82,460.73 953.21,430.01"];
	322	[height=0.5,
		pos="1100.1,450.37",
		width=0.75];
	15 -- 322	[pos="790.52,569.89 851.65,546.29 1015.6,483 1076.7,459.4"];
	337	[height=0.5,
		pos="484.05,611.72",
		width=0.75];
	15 -- 337	[pos="740.48,582.01 686.53,588.26 564.87,602.36 510.81,608.62"];
	366	[height=0.5,
		pos="653.31,426.03",
		width=0.75];
	15 -- 366	[pos="754.93,562.57 733.03,533.14 687.24,471.62 665.4,442.28"];
	107	[height=0.5,
		pos="524.4,1411.9",
		width=0.75];
	106 -- 107	[pos="743.07,1226.9 699.59,1263.7 584.49,1361 541.19,1397.7"];
	111	[height=0.5,
		pos="1207.2,1336.9",
		width=0.75];
	110 -- 111	[pos="1091.1,1211.3 1116.2,1238.4 1168,1294.5 1193,1321.6"];
	113 -- 114	[pos="465.96,746.25 483.48,788.1 527.52,893.32 545.01,935.09"];
	116	[height=0.5,
		pos="646.67,941.66",
		width=0.75];
	115 -- 116	[pos="529.75,718.01 552.99,762.47 614.53,880.19 637.69,924.48"];
	118	[height=0.5,
		pos="845.41,62.042",
		width=0.75];
	117 -- 118	[pos="655.36,192.73 695.05,165.44 786.62,102.47 826.39,75.121"];
	122	[height=0.5,
		pos="27,855.13",
		width=0.75];
	121 -- 122	[pos="207.1,711.29 169.59,741.24 81.97,811.23 44.5,841.15"];
	8 -- 36	[pos="1069.1,424.11 1085.9,471.41 1131.3,600.08 1148,647.13"];
	8 -- 88	[pos="1060.2,424.55 1053.3,471.21 1035.2,594.78 1028.4,641.26"];
	8 -- 15	[pos="1042.5,418.22 988.5,449.74 841.77,535.36 787.58,566.98"];
	192	[height=0.5,
		pos="1034,761.16",
		width=0.75];
	8 -- 192	[pos="1061.4,424.44 1056.4,485.3 1040.4,682.31 1035.5,743.12"];
	8 -- 247	[pos="1054,423.55 1020.9,487.72 904.83,712.82 871.53,777.39"];
	269	[height=0.5,
		pos="1352.6,288.36",
		width=0.75];
	8 -- 269	[pos="1086.1,396.9 1140.3,374.8 1274.9,320 1329.3,297.86"];
	273	[height=0.5,
		pos="1460.5,359.46",
		width=0.75];
	8 -- 273	[pos="1089.6,403.21 1162,394.66 1361.6,371.12 1433.9,362.6"];
	277	[height=0.5,
		pos="829.13,618.68",
		width=0.75];
	8 -- 277	[pos="1046.8,420.95 1004.1,459.74 888.13,565.08 845.31,603.99"];
	8 -- 278	[pos="1073,423.09 1088,447.63 1115.6,493.1 1130.5,517.64"];
	279	[height=0.5,
		pos="829.94,232.59",
		width=0.75];
	8 -- 279	[pos="1044.6,392.72 1001,360.24 891.58,278.58 848.13,246.16"];
	282	[height=0.5,
		pos="1087,281.92",
		width=0.75];
	8 -- 282	[pos="1066.4,388.26 1070.9,364.67 1078.9,323.64 1083.5,300.04"];
	284	[height=0.5,
		pos="974.48,217.47",
		width=0.75];
	8 -- 284	[pos="1054.7,388.92 1037.9,352.94 999.43,270.81 982.61,234.86"];
	287	[height=0.5,
		pos="1228,249.36",
		width=0.75];
	8 -- 287	[pos="1078.4,391.59 1109.9,361.66 1180.8,294.19 1212.4,264.21"];
	8 -- 291	[pos="1050.8,422.87 1019.2,466.09 934.37,582.15 903.05,625"];
	292	[height=0.5,
		pos="1205.9,597.49",
		width=0.75];
	8 -- 292	[pos="1075.1,422.65 1102.1,458.76 1166.7,545.16 1193.7,581.23"];
	63	[height=0.5,
		pos="1105.2,237.89",
		width=0.75];
	8 -- 63	[pos="1067.4,388.33 1075.5,355.9 1092.5,288.12 1100.7,255.79"];
	161	[height=0.5,
		pos="1342.2,518.73",
		width=0.75];
	8 -- 161	[pos="1086.2,415.74 1138.8,436.9 1266,488.09 1318.7,509.29"];
	224	[height=0.5,
		pos="1390.8,334.2",
		width=0.75];
	8 -- 224	[pos="1088.6,400.69 1149.8,387.24 1303.3,353.47 1364.7,339.94"];
	126	[height=0.5,
		pos="783.34,100.48",
		width=0.75];
	125 -- 126	[pos="563.97,206.1 610.13,183.88 715.63,133.08 761.44,111.02"];
	130	[height=0.5,
		pos="1230.9,358.27",
		width=0.75];
	129 -- 130	[pos="906.52,404.56 971.79,395.25 1139,371.38 1204.2,362.07"];
	133	[height=0.5,
		pos="154.37,717.55",
		width=0.75];
	132 -- 133	[pos="283.06,556.94 256.19,590.47 194.18,667.86 167.25,701.48"];
	136	[height=0.5,
		pos="209.38,477.29",
		width=0.75];
	135 -- 136	[pos="315.99,453.64 292.65,458.82 258.49,466.4 235.17,471.57"];
	139	[height=0.5,
		pos="556.17,403.95",
		width=0.75];
	138 -- 139	[pos="452.75,371.3 475.44,378.46 508.88,389.02 531.54,396.17"];
	141	[height=0.5,
		pos="392.18,319.35",
		width=0.75];
	140 -- 141	[pos="374.55,346.72 376.81,343.21 379.19,339.51 381.45,336.01"];
	143 -- 144	[pos="640.41,342.91 675.14,349.44 736.09,360.9 770.79,367.42"];
	146	[height=0.5,
		pos="71.079,687.11",
		width=0.75];
	145 -- 146	[pos="200.5,570.15 172.52,595.43 115.31,647.13 87.284,672.46"];
	150	[height=0.5,
		pos="151.19,858.97",
		width=0.75];
	149 -- 150	[pos="274.11,712.49 248.14,743.45 190.94,811.6 164.75,842.8"];
	155	[height=0.5,
		pos="1490.2,1274.3",
		width=0.75];
	154 -- 155	[pos="1232.6,1267.3 1286.8,1268.8 1408.5,1272.1 1462.9,1273.5"];
	160	[height=0.5,
		pos="1415.2,736.07",
		width=0.75];
	159 -- 160	[pos="1216.2,994.58 1253.8,945.69 1365.1,801.14 1402.7,752.36"];
	9 -- 37	[pos="1287.9,668.38 1295.8,695.91 1310.8,748.34 1318.7,776"];
	9 -- 18	[pos="1261.1,661.44 1172.9,706.1 840.94,874.17 752.45,918.97"];
	9 -- 11	[pos="1259.5,659.72 1161.5,698.67 782.57,849.3 684.36,888.34"];
	10	[height=0.5,
		pos="1506.9,781.65",
		width=0.75];
	9 -- 10	[pos="1303.4,662.58 1346.2,687.64 1444.1,744.9 1486.6,769.77"];
	294	[height=0.5,
		pos="1524,636.56",
		width=0.75];
	9 -- 294	[pos="1310,648.91 1356.4,646.23 1450.5,640.8 1496.9,638.13"];
	296	[height=0.5,
		pos="945.91,554.17",
		width=0.75];
	9 -- 296	[pos="1257.7,643.32 1195.3,625.49 1033.7,579.26 971.12,561.38"];
	298	[height=0.5,
		pos="1316.8,436.91",
		width=0.75];
	9 -- 298	[pos="1285.7,632.27 1292.1,591.92 1307.5,495.38 1313.9,455.07"];
	302	[height=0.5,
		pos="1192.4,446.32",
		width=0.75];
	9 -- 302	[pos="1275,633.07 1258,594.5 1217.2,502.21 1200.1,463.68"];
	304	[height=0.5,
		pos="1294.3,342.68",
		width=0.75];
	9 -- 304	[pos="1283.4,632.15 1285.5,577.4 1291.5,415.54 1293.6,360.92"];
	307	[height=0.5,
		pos="1440.9,447.47",
		width=0.75];
	9 -- 307	[pos="1295.4,634.21 1325.1,596.1 1398.8,501.44 1428.3,463.54"];
	311	[height=0.5,
		pos="1444.8,797.21",
		width=0.75];
	9 -- 311	[pos="1298.9,665.09 1329.9,693.21 1397.7,754.59 1428.7,782.67"];
	9 -- 65	[pos="1271.1,633.95 1249.5,603.26 1203.4,537.83 1181.7,507.03"];
	92	[height=0.5,
		pos="1500.9,727.31",
		width=0.75];
	9 -- 92	[pos="1306.9,659 1349,673.8 1435,704.12 1476.9,718.87"];
	128	[height=0.5,
		pos="1167.1,325.95",
		width=0.75];
	9 -- 128	[pos="1276.4,632.57 1256.2,575.83 1193.7,400.47 1173.5,343.81"];
	196	[height=0.5,
		pos="1520.2,828.21",
		width=0.75];
	9 -- 196	[pos="1301,664.13 1345.3,697.29 1458.2,781.8 1502.2,814.76"];
	228	[height=0.5,
		pos="1586,629.23",
		width=0.75];
	9 -- 228	[pos="1309.7,648.59 1367.2,644.56 1501.7,635.14 1559.2,631.12"];
	249	[height=0.5,
		pos="1141,878.89",
		width=0.75];
	9 -- 249	[pos="1272.3,667.28 1246.1,709.52 1177.7,819.81 1151.5,862.07"];
	272	[height=0.5,
		pos="1503,474.74",
		width=0.75];
	9 -- 272	[pos="1300.4,636.4 1341.7,603.41 1444.4,521.46 1485.6,488.65"];
	163	[height=0.5,
		pos="1545.3,1318.3",
		width=0.75];
	162 -- 163	[pos="1298.1,1304.7 1350.7,1307.6 1465.5,1313.9 1518.1,1316.8"];
	167	[height=0.5,
		pos="461.51,1443.8",
		width=0.75];
	166 -- 167	[pos="611.98,1357.6 579.09,1376.4 515.16,1413.1 482.22,1431.9"];
	170 -- 171	[pos="1030.1,1134.3 1043.2,1099.3 1072.2,1021.2 1085.2,986.18"];
	173	[height=0.5,
		pos="394.25,1247.3",
		width=0.75];
	172 -- 173	[pos="537.56,1251.4 505.76,1250.5 453.25,1249 421.39,1248.1"];
	177 -- 178	[pos="704.1,967.15 689.78,928.39 655.9,836.69 641.64,798.1"];
	180	[height=0.5,
		pos="257.99,1058.1",
		width=0.75];
	179 -- 180	[pos="474.92,1109.1 428.36,1098.2 330.07,1075.1 283.5,1064.1"];
	183 -- 184	[pos="1046,994.84 1062.3,947.23 1106.8,817.73 1123,770.36"];
	185 -- 186	[pos="740.13,1248 715.21,1219.7 663.12,1160.7 638.27,1132.6"];
	5	[height=0.5,
		pos="921.23,1096.6",
		width=0.75];
	5 -- 54	[pos="915.04,1078.7 901.05,1038.4 867.16,940.77 853.24,900.67"];
	5 -- 18	[pos="904.65,1082.1 868.52,1050.5 783.03,975.78 747.06,944.34"];
	5 -- 153	[pos="907.96,1112.6 889.07,1135.5 854.66,1177.2 835.89,1199.9"];
	5 -- 188	[pos="939.72,1083.4 990.8,1046.9 1133.4,945.27 1184.5,908.79"];
	189	[height=0.5,
		pos="833.7,1383.3",
		width=0.75];
	5 -- 189	[pos="915.75,1114.5 900.04,1166 854.89,1313.9 839.17,1365.4"];
	5 -- 192	[pos="927.29,1078.5 946.92,1020.1 1008.6,836.79 1028.1,778.88"];
	193	[height=0.5,
		pos="1320.9,1164.7",
		width=0.75];
	5 -- 193	[pos="947.45,1101 1019.9,1113.4 1222.1,1147.9 1294.6,1160.2"];
	197	[height=0.5,
		pos="1382.9,1194",
		width=0.75];
	5 -- 197	[pos="947.04,1102 1027.9,1119.1 1276,1171.4 1357,1188.5"];
	201	[height=0.5,
		pos="725.67,1307.7",
		width=0.75];
	5 -- 201	[pos="906.85,1112.1 870.68,1151.1 776.26,1253.1 740.07,1292.1"];
	204	[height=0.5,
		pos="1138.9,1323.3",
		width=0.75];
	5 -- 204	[pos="935.85,1111.8 975.5,1153.1 1084.7,1266.9 1124.3,1308.1"];
	208	[height=0.5,
		pos="666.7,1029",
		width=0.75];
	5 -- 208	[pos="895.89,1089.8 847.11,1076.9 740.64,1048.6 691.94,1035.7"];
	5 -- 14	[pos="916.6,1078.5 894.39,991.77 798.82,618.62 776.73,532.36"];
	210	[height=0.5,
		pos="798.82,1018.4",
		width=0.75];
	5 -- 210	[pos="901.56,1084 878.72,1069.4 841.26,1045.5 818.44,1031"];
	212	[height=0.5,
		pos="658.25,1073",
		width=0.75];
	5 -- 212	[pos="894.08,1094.1 843.55,1089.6 735.67,1079.9 685.26,1075.4"];
	215	[height=0.5,
		pos="1153.8,966.94",
		width=0.75];
	5 -- 215	[pos="942.28,1084.8 986.57,1060.1 1088.9,1003.1 1133,978.55"];
	217	[height=0.5,
		pos="950.5,1363.3",
		width=0.75];
	5 -- 217	[pos="923.24,1114.9 928.6,1163.7 943.18,1296.6 948.52,1345.2"];
	5 -- 32	[pos="932.06,1113.3 960.34,1156.9 1036.2,1273.8 1064.4,1317.4"];
	5 -- 86	[pos="916.95,1114.5 908.87,1148.3 891.42,1221.3 883.33,1255.1"];
	5 -- 116	[pos="900.59,1084.9 849.71,1056.2 718.68,982.28 667.54,953.43"];
	190	[height=0.5,
		pos="693.57,1467.7",
		width=0.75];
	189 -- 190	[pos="813.62,1395.4 787.13,1411.4 740.76,1439.3 714.06,1455.3"];
	194	[height=0.5,
		pos="1511.8,1182",
		width=0.75];
	193 -- 194	[pos="1347.9,1167.2 1384.3,1170.5 1448.7,1176.3 1485,1179.6"];
	198	[height=0.5,
		pos="1554.5,1226.1",
		width=0.75];
	197 -- 198	[pos="1409,1198.8 1441.3,1204.9 1496.2,1215.2 1528.5,1221.2"];
	202	[height=0.5,
		pos="539.14,1362.9",
		width=0.75];
	201 -- 202	[pos="700.9,1315 665.22,1325.6 599.75,1345 564.01,1355.5"];
	205	[height=0.5,
		pos="1336.2,1357.2",
		width=0.75];
	204 -- 205	[pos="1165.1,1327.8 1202.8,1334.3 1272.1,1346.2 1309.9,1352.6"];
	208 -- 209	[pos="644.14,1018.5 595.77,995.95 482.59,943.27 434.59,920.93"];
	14 -- 75	[pos="749.92,503.76 737.91,497.96 723.15,490.83 711.18,485.05"];
	14 -- 104	[pos="777.44,532.39 785.86,560.88 802.23,616.26 810.66,644.78"];
	14 -- 176	[pos="776.39,532.42 789.82,589.15 831.32,764.49 844.72,821.14"];
	365	[height=0.5,
		pos="691.07,355.64",
		width=0.75];
	14 -- 365	[pos="763.32,497.21 747.73,466.65 715.48,403.47 699.89,372.92"];
	367	[height=0.5,
		pos="660.89,293.97",
		width=0.75];
	14 -- 367	[pos="763.43,497.21 742.63,455.98 690.34,352.34 669.58,311.19"];
	370	[height=0.5,
		pos="819.05,188.55",
		width=0.75];
	14 -- 370	[pos="774.74,496.52 782.94,439.53 808.28,263.39 816.47,206.48"];
	374	[height=0.5,
		pos="484.99,556.42",
		width=0.75];
	14 -- 374	[pos="745.65,518.38 690.95,526.36 566.08,544.59 511.42,552.56"];
	378	[height=0.5,
		pos="953.35,649.95",
		width=0.75];
	14 -- 378	[pos="790.19,527.99 824.84,553.89 900.33,610.31 935.12,636.32"];
	14 -- 44	[pos="794.36,524.77 829.12,540.83 896,571.74 930.86,587.85"];
	14 -- 139	[pos="750.66,503.51 709.36,482.37 619.38,436.3 577.9,415.07"];
	262	[height=0.5,
		pos="546.1,651.1",
		width=0.75];
	14 -- 262	[pos="752.1,526.63 709.2,552.55 608.97,613.11 566.12,639.01"];
	283	[height=0.5,
		pos="931.65,349.56",
		width=0.75];
	14 -- 283	[pos="786.87,499.29 817.26,467.87 886.61,396.14 916.96,364.75"];
	301	[height=0.5,
		pos="977.66,261.52",
		width=0.75];
	14 -- 301	[pos="785.32,498.3 822.44,452.61 927.62,323.12 964.6,277.59"];
	319	[height=0.5,
		pos="1156,385.18",
		width=0.75];
	14 -- 319	[pos="796.46,506.32 865.51,483.06 1062.3,416.74 1131.6,393.42"];
	334	[height=0.5,
		pos="576.31,574.51",
		width=0.75];
	14 -- 334	[pos="747.35,522.11 709.68,533.65 638.46,555.47 600.91,566.97"];
	355	[height=0.5,
		pos="490.13,331.64",
		width=0.75];
	14 -- 355	[pos="752.77,501.94 701.25,468.54 561.33,377.81 509.65,344.3"];
	210 -- 211	[pos="790.84,1001.1 771.84,959.73 724.07,855.78 705.1,814.51"];
	213	[height=0.5,
		pos="417.59,956.59",
		width=0.75];
	212 -- 213	[pos="636.04,1062.2 590.2,1040.1 485.55,989.45 439.75,967.3"];
	215 -- 216	[pos="1160.4,949.07 1178.8,899.58 1230,761.22 1248.2,712.08"];
	218	[height=0.5,
		pos="1076,1284.4",
		width=0.75];
	217 -- 218	[pos="970.4,1350.8 993.9,1336 1032.8,1311.5 1056.2,1296.8"];
	220	[height=0.5,
		pos="1258.8,1143",
		width=0.75];
	219 -- 220	[pos="1372.9,943.56 1349.8,984.02 1291.6,1085.7 1268.5,1126.1"];
	223	[height=0.5,
		pos="1492.6,403.47",
		width=0.75];
	222 -- 223	[pos="1546.7,520.37 1534.8,494.61 1512.5,446.39 1500.5,420.67"];
	226	[height=0.5,
		pos="1710.1,612.55",
		width=0.75];
	225 -- 226	[pos="1672.9,623.15 1677,621.99 1681.2,620.8 1685.2,619.65"];
	230	[height=0.5,
		pos="1751.9,738.93",
		width=0.75];
	229 -- 230	[pos="1622.1,730.79 1650.8,732.59 1696,735.43 1724.8,737.23"];
	233	[height=0.5,
		pos="972.12,913.58",
		width=0.75];
	232 -- 233	[pos="1241.9,761.86 1188.3,792.03 1046.3,871.89 992.83,901.93"];
	234 -- 235	[pos="1025.9,580.11 961.11,574.54 797.33,560.48 732.3,554.9"];
	236 -- 237	[pos="1227.4,466.84 1184.8,463.23 1102.7,456.28 1060.2,452.68"];
	239	[height=0.5,
		pos="1355.5,244.33",
		width=0.75];
	238 -- 239	[pos="1377,456.44 1372.6,413.41 1361.7,305.25 1357.3,262.3"];
	243	[height=0.5,
		pos="1455.7,1121.6",
		width=0.75];
	242 -- 243	[pos="1503,890.52 1493.6,936.35 1468.8,1057.5 1459.4,1103.5"];
	248 -- 249	[pos="878.56,1049.9 930.05,1016.3 1069.9,925.24 1121.5,891.6"];
	251	[height=0.5,
		pos="1401.2,1238",
		width=0.75];
	250 -- 251	[pos="1038.6,1322 1109.3,1305.7 1305.4,1260.2 1375.7,1243.9"];
	11 -- 39	[pos="682.81,908.4 728.56,931.01 834.12,983.19 879.98,1005.9"];
	11 -- 13	[pos="655.23,879.8 643.06,842.31 614.96,755.66 602.85,718.33"];
	11 -- 19	[pos="682.78,908.27 740.66,936.57 897.85,1013.4 955.9,1041.8"];
	11 -- 277	[pos="671.27,880.6 701.36,830.68 789.09,685.12 819,635.49"];
	313	[height=0.5,
		pos="1156.4,834.88",
		width=0.75];
	11 -- 313	[pos="687.64,894.25 773.66,883.36 1043.5,849.19 1129.7,838.27"];
	11 -- 332	[pos="678.49,883.59 702.51,864.3 745.47,829.82 769.41,810.59"];
	333	[height=0.5,
		pos="573.02,744.72",
		width=0.75];
	11 -- 333	[pos="651.25,880.68 634.34,851.29 599.76,791.19 582.82,761.74"];
	335	[height=0.5,
		pos="400.09,824.82",
		width=0.75];
	11 -- 335	[pos="635.99,890.65 586.12,876.73 474.84,845.68 425.03,831.78"];
	11 -- 338	[pos="662.67,879.43 665.5,848.43 671.23,785.73 674.07,754.6"];
	11 -- 339	[pos="672.79,881.12 698.46,845.13 759.19,759.99 784.75,724.17"];
	340	[height=0.5,
		pos="320,1044.6",
		width=0.75];
	11 -- 340	[pos="638.1,907.5 575.98,934.28 404.81,1008.1 342.8,1034.8"];
	70	[height=0.5,
		pos="271.82,837.1",
		width=0.75];
	11 -- 70	[pos="634.56,893.51 563.56,882.47 369.34,852.26 298.3,841.22"];
	100	[height=0.5,
		pos="436.91,1114.7",
		width=0.75];
	11 -- 100	[pos="645.6,912.55 604.67,952.21 493.49,1059.9 452.43,1099.7"];
	134	[height=0.5,
		pos="322.13,792.96",
		width=0.75];
	11 -- 134	[pos="636.36,890.01 573.76,870.68 409.18,819.84 346.68,800.54"];
	169	[height=0.5,
		pos="460.04,1167.7",
		width=0.75];
	11 -- 169	[pos="648.74,914.11 612.77,962.44 507.9,1103.4 472.15,1151.4"];
	203	[height=0.5,
		pos="562.48,1142.8",
		width=0.75];
	11 -- 203	[pos="653.92,915.26 635.74,960.49 587.61,1080.3 569.5,1125.3"];
	11 -- 233	[pos="688.07,899.01 746.91,902.03 885.91,909.16 944.89,912.19"];
	254	[height=0.5,
		pos="875.78,1471.6",
		width=0.75];
	253 -- 254	[pos="772.3,1414.4 795.25,1427.1 831.95,1447.4 854.91,1460.1"];
	258	[height=0.5,
		pos="174.89,1021.4",
		width=0.75];
	257 -- 258	[pos="361.56,1145.9 322.19,1119.6 233.28,1060.3 194.08,1034.2"];
	261	[height=0.5,
		pos="337.74,838.8",
		width=0.75];
	260 -- 261	[pos="375.64,982.67 367.45,951.57 350.69,887.97 342.49,856.81"];
	265 -- 266	[pos="787.08,958.6 818.41,924.58 892.54,844.11 923.74,810.25"];
	267 -- 268	[pos="503.4,1212.7 505.94,1181.8 511.07,1119.3 513.62,1088.3"];
	19 -- 187	[pos="974.82,1070.4 969.11,1104.3 956.82,1177.4 951.11,1211.3"];
	19 -- 246	[pos="997.13,1039.6 1049.5,1004.6 1193.7,908.24 1245.9,873.32"];
	19 -- 384	[pos="973.03,1034.7 962.2,994.44 936,897.11 925.15,856.79"];
	19 -- 52	[pos="1000.3,1062.5 1041.3,1080.8 1127.9,1119.5 1169,1137.8"];
	19 -- 83	[pos="980.99,1034.3 983.7,1018.7 987.58,996.38 990.28,980.79"];
	112	[height=0.5,
		pos="1140.9,1266.9",
		width=0.75];
	19 -- 112	[pos="990.09,1068.6 1020.3,1108.3 1098.1,1210.7 1128.5,1250.6"];
	152	[height=0.5,
		pos="597.3,1029",
		width=0.75];
	19 -- 152	[pos="950.77,1050.8 880.73,1046.5 694.11,1035 624.22,1030.6"];
	19 -- 218	[pos="985.21,1069.9 1003.4,1112.9 1050.3,1223.5 1068.6,1266.7"];
	293	[height=0.5,
		pos="1261.3,798.38",
		width=0.75];
	19 -- 293	[pos="994.3,1037.7 1044.5,992.73 1195.3,857.51 1245.1,812.86"];
	312	[height=0.5,
		pos="1266.6,985.39",
		width=0.75];
	19 -- 312	[pos="1003.5,1046.6 1058.3,1033.8 1186.3,1004.1 1241,991.33"];
	331	[height=0.5,
		pos="1366,1100.3",
		width=0.75];
	19 -- 331	[pos="1004.5,1055.8 1075.5,1064.5 1268.5,1088.3 1339.4,1097"];
	351	[height=0.5,
		pos="1303.9,1099",
		width=0.75];
	19 -- 351	[pos="1004.2,1056.3 1065.4,1065 1215.9,1086.5 1277.3,1095.2"];
	364	[height=0.5,
		pos="733.27,1045.5",
		width=0.75];
	19 -- 364	[pos="950.73,1051.7 903.72,1050.4 807.6,1047.6 760.5,1046.2"];
	379	[height=0.5,
		pos="1044.4,876.7",
		width=0.75];
	19 -- 379	[pos="984.46,1035 997.18,1001.4 1024.9,928.15 1037.7,894.39"];
	387	[height=0.5,
		pos="835.68,930.37",
		width=0.75];
	19 -- 387	[pos="961.25,1038.3 934,1014.9 880.06,968.51 852.6,944.91"];
	391	[height=0.5,
		pos="850.21,1317.4",
		width=0.75];
	19 -- 391	[pos="969.46,1069.9 946.33,1117.9 881.77,1251.9 858.61,1300"];
	270	[height=0.5,
		pos="1489.9,231.88",
		width=0.75];
	269 -- 270	[pos="1375.9,278.77 1401.1,268.39 1441.2,251.91 1466.5,241.5"];
	274	[height=0.5,
		pos="1646.5,416.39",
		width=0.75];
	273 -- 274	[pos="1485.2,367.02 1520.8,377.91 1586.1,397.89 1621.7,408.8"];
	280	[height=0.5,
		pos="623.28,249.78",
		width=0.75];
	279 -- 280	[pos="802.92,234.84 763.31,238.13 689.91,244.24 650.3,247.54"];
	282 -- 283	[pos="1064.1,291.9 1034.6,304.73 983.79,326.86 954.41,339.65"];
	285	[height=0.5,
		pos="840.31,144.52",
		width=0.75];
	284 -- 285	[pos="953.51,206.07 928.45,192.44 886.76,169.77 861.57,156.07"];
	288	[height=0.5,
		pos="1303.7,118.78",
		width=0.75];
	287 -- 288	[pos="1237.7,232.56 1252.2,207.62 1279.2,161.07 1293.7,135.93"];
	292 -- 293	[pos="1210.8,615.31 1221.3,653.44 1245.9,742.5 1256.4,780.59"];
	10 -- 38	[pos="1494,797.6 1483.3,810.81 1468.2,829.49 1457.5,842.69"];
	10 -- 66	[pos="1484.3,771.31 1430.4,746.66 1294.8,684.71 1241,660.11"];
	10 -- 313	[pos="1480.6,785.65 1415.6,795.52 1248.4,820.92 1183.1,830.84"];
	314	[height=0.5,
		pos="1572.8,773.14",
		width=0.75];
	10 -- 314	[pos="1533.7,778.19 1537.8,777.66 1542.1,777.1 1546.2,776.57"];
	10 -- 316	[pos="1480.7,776.86 1408,763.63 1205.1,726.64 1132.7,713.44"];
	317	[height=0.5,
		pos="1685.8,675.8",
		width=0.75];
	10 -- 317	[pos="1527.4,769.51 1562,749.09 1631.2,708.12 1665.5,687.8"];
	320	[height=0.5,
		pos="1556.1,683.29",
		width=0.75];
	10 -- 320	[pos="1515.5,764.52 1524.5,746.58 1538.5,718.55 1547.5,700.56"];
	323	[height=0.5,
		pos="1404.3,562.53",
		width=0.75];
	10 -- 323	[pos="1498.9,764.46 1479.7,723.6 1431.7,621.03 1412.5,579.95"];
	10 -- 325	[pos="1496.7,764.71 1477.7,733.27 1437.2,666.24 1418.1,634.69"];
	326	[height=0.5,
		pos="1625,941.59",
		width=0.75];
	10 -- 326	[pos="1518.9,797.87 1541.5,828.52 1590.3,894.64 1613,925.33"];
	329	[height=0.5,
		pos="1630.7,897.45",
		width=0.75];
	10 -- 329	[pos="1522.6,796.32 1546.3,818.47 1590.9,860.24 1614.8,882.53"];
	96	[height=0.5,
		pos="1680.4,853.41",
		width=0.75];
	10 -- 96	[pos="1530,791.18 1563.1,804.91 1624,830.1 1657.3,843.85"];
	131	[height=0.5,
		pos="1470.1,590.81",
		width=0.75];
	10 -- 131	[pos="1503.5,763.7 1496.4,727.33 1480.6,645.31 1473.5,608.86"];
	165	[height=0.5,
		pos="1651.4,986.52",
		width=0.75];
	10 -- 165	[pos="1518.5,798.07 1545.6,836.43 1612.6,931.59 1639.8,970.02"];
	200	[height=0.5,
		pos="1692.8,933.1",
		width=0.75];
	10 -- 200	[pos="1524.1,795.63 1559.5,824.48 1640.3,890.34 1675.7,919.16"];
	231	[height=0.5,
		pos="1716.2,809.41",
		width=0.75];
	10 -- 231	[pos="1533.4,785.17 1573.6,790.49 1649.4,800.54 1689.6,805.88"];
	252	[height=0.5,
		pos="1453.5,1023.7",
		width=0.75];
	10 -- 252	[pos="1502.9,799.84 1493,844.81 1467.4,960.78 1457.5,1005.6"];
	276	[height=0.5,
		pos="1747.9,662.18",
		width=0.75];
	10 -- 276	[pos="1528.7,770.84 1574.5,748.15 1680.1,695.8 1725.9,673.06"];
	294 -- 295	[pos="1497.6,632.19 1463.1,626.48 1403.2,616.56 1368.8,610.85"];
	296 -- 297	[pos="919.54,550.02 857.93,540.34 705.1,516.31 643.37,506.6"];
	299	[height=0.5,
		pos="1290,207.02",
		width=0.75];
	298 -- 299	[pos="1314.7,418.87 1309.7,375.89 1297.1,267.86 1292.1,224.97"];
	302 -- 303	[pos="1165.7,442.68 1122.9,436.87 1039.6,425.56 997.03,419.77"];
	305	[height=0.5,
		pos="1165.9,281.94",
		width=0.75];
	304 -- 305	[pos="1272.2,332.24 1248.7,321.11 1211.7,303.6 1188.1,292.45"];
	308	[height=0.5,
		pos="1516.3,315.45",
		width=0.75];
	307 -- 308	[pos="1450.6,430.48 1465.1,405.13 1492.2,357.69 1506.6,332.38"];
	311 -- 312	[pos="1430.2,812.61 1396.7,847.99 1314.6,934.71 1281.1,970.04"];
	314 -- 315	[pos="1551.5,761.86 1522.4,746.46 1470.5,718.98 1441.3,703.49"];
	318	[height=0.5,
		pos="1565,441.12",
		width=0.75];
	317 -- 318	[pos="1676.9,658.54 1654.6,615.14 1596.3,501.83 1573.9,458.41"];
	321	[height=0.5,
		pos="1416.4,518.51",
		width=0.75];
	320 -- 321	[pos="1542.7,667.49 1516.1,636.08 1456.7,566.08 1429.9,534.51"];
	323 -- 324	[pos="1378.5,557.13 1317.6,544.38 1165.4,512.56 1104.4,499.81"];
	327	[height=0.5,
		pos="1319.8,1039",
		width=0.75];
	326 -- 327	[pos="1600.5,949.39 1543.4,967.63 1401.7,1012.9 1344.4,1031.1"];
	330	[height=0.5,
		pos="1526.1,1081.2",
		width=0.75];
	329 -- 330	[pos="1621.1,914.4 1601.1,949.4 1555.7,1029.3 1535.8,1064.3"];
	333 -- 334	[pos="573.37,726.5 574.01,693.74 575.33,625.26 575.96,592.59"];
	336	[height=0.5,
		pos="278.32,748.89",
		width=0.75];
	335 -- 336	[pos="380.25,812.45 357.61,798.33 320.78,775.37 298.14,761.25"];
	341	[height=0.5,
		pos="309.53,1139.4",
		width=0.75];
	340 -- 341	[pos="317.98,1062.9 316.13,1079.7 313.39,1104.4 311.54,1121.2"];
	345	[height=0.5,
		pos="1036.5,181.65",
		width=0.75];
	344 -- 345	[pos="1088.2,342.49 1077.2,308.25 1053.2,233.54 1042.2,199.36"];
	350	[height=0.5,
		pos="1391,1014.5",
		width=0.75];
	349 -- 350	[pos="1335.5,899.49 1347.7,924.84 1370.4,971.83 1382.6,997.18"];
	353	[height=0.5,
		pos="293.36,326.69",
		width=0.75];
	352 -- 353	[pos="352.98,479.88 340.21,447.06 312.93,376.98 300.19,344.23"];
	357	[height=0.5,
		pos="279.37,418.54",
		width=0.75];
	356 -- 357	[pos="355.72,539.14 339.02,512.76 306.89,462 290.13,435.53"];
	360	[height=0.5,
		pos="454.42,234.76",
		width=0.75];
	359 -- 360	[pos="408.82,400.58 418.51,365.36 439.9,287.59 449.54,252.52"];
	363 -- 364	[pos="497.49,923.69 545.92,948.7 663.12,1009.2 711.66,1034.3"];
	365 -- 366	[pos="681.93,372.68 676.08,383.58 668.51,397.69 662.63,408.66"];
	368	[height=0.5,
		pos="530.74,172.82",
		width=0.75];
	367 -- 368	[pos="644.93,279.11 619.95,255.86 571.89,211.12 546.83,187.8"];
	371	[height=0.5,
		pos="905.76,18",
		width=0.75];
	370 -- 371	[pos="827.84,171.26 844.5,138.48 880.5,67.695 897.08,35.084"];
	375	[height=0.5,
		pos="205.56,650.14",
		width=0.75];
	374 -- 375	[pos="460.68,564.58 407.83,582.3 282.99,624.17 230.01,641.94"];
	378 -- 379	[pos="960.35,667.37 977.29,709.57 1020.4,816.96 1037.4,859.23"];
	380 -- 381	[pos="829.14,419.25 865.53,408.83 932.41,389.68 968.69,379.29"];
	382 -- 383	[pos="596.25,673.12 573.36,704.79 523.42,773.9 500.57,805.52"];
	386 -- 387	[pos="747.69,769.69 766.3,803.66 807.8,879.46 826.38,913.38"];
	390	[height=0.5,
		pos="684.13,1413.4",
		width=0.75];
	389 -- 390	[pos="685.72,1237.7 685.39,1274.7 684.63,1358.4 684.29,1395.3"];
	21 -- 22	[pos="1233.3,544.81 1184.5,536.77 1081.2,519.77 1032.6,511.77"];
	25	[height=0.5,
		pos="1156.7,1381",
		width=0.75];
	24 -- 25	[pos="1245.4,1368.1 1226.8,1370.8 1202,1374.4 1183.4,1377.1"];
	25 -- 26	[pos="1143.5,1365.1 1121.1,1338 1075.6,1283.2 1053,1256"];
	28 -- 29	[pos="440.35,760.14 431.76,734.6 415.99,687.73 407.38,662.15"];
	34 -- 35	[pos="835.25,1417.7 804.85,1404.6 751.5,1381.8 721.12,1368.7"];
	49 -- 50	[pos="758.14,1333.8 749.5,1298.8 730.44,1221.6 721.78,1186.5"];
	58	[height=0.5,
		pos="178.58,1117.2",
		width=0.75];
	57 -- 58	[pos="160.13,968.61 164.11,1000.7 172.35,1067 176.33,1099"];
	58 -- 59	[pos="200.81,1127.7 235.7,1144.2 302.91,1175.9 337.73,1192.4"];
	62	[height=0.5,
		pos="1184.3,46.91",
		width=0.75];
	61 -- 62	[pos="1098.2,83.793 1116.8,75.829 1142.9,64.641 1161.5,56.68"];
	62 -- 63	[pos="1177,64.534 1161.9,100.92 1127.5,183.96 1112.4,220.3"];
	69	[height=0.5,
		pos="111.04,777.64",
		width=0.75];
	68 -- 69	[pos="135.63,679.56 130.19,701.29 121.04,737.75 115.57,759.57"];
	69 -- 70	[pos="134.76,786.41 165.16,797.65 217.55,817.03 248,828.29"];
	73	[height=0.5,
		pos="147.2,476.46",
		width=0.75];
	72 -- 73	[pos="199.97,434.01 189.27,442.62 175.57,453.64 164.82,462.29"];
	73 -- 74	[pos="160.56,492.17 181.09,516.31 220.19,562.29 240.82,586.55"];
	77 -- 78	[pos="536.51,278.73 556.13,301.65 591.87,343.41 611.36,366.18"];
	80 -- 81	[pos="909.26,209.94 935.76,235.05 989.37,285.83 1016,311.04"];
	91	[height=0.5,
		pos="1660.7,765.36",
		width=0.75];
	90 -- 91	[pos="1606.2,803.86 1617.2,796.06 1631.1,786.25 1642.1,778.49"];
	91 -- 92	[pos="1635,759.24 1605.2,752.14 1556.3,740.5 1526.5,733.41"];
	95	[height=0.5,
		pos="1754.8,955.56",
		width=0.75];
	94 -- 95	[pos="1594.6,983.85 1630.2,977.57 1693.1,966.45 1728.6,960.19"];
	95 -- 96	[pos="1742.9,939.15 1729,920.09 1706.2,888.83 1692.3,869.79"];
	99	[height=0.5,
		pos="456.44,1274.9",
		width=0.75];
	98 -- 99	[pos="474.78,1302.2 472.43,1298.7 469.95,1295 467.6,1291.5"];
	99 -- 100	[pos="454.24,1256.8 450.49,1226.1 442.9,1163.8 439.14,1133"];
	102 -- 103	[pos="1435.2,897.01 1417.6,865.24 1380,797.5 1362.4,765.61"];
	108	[height=0.5,
		pos="476.93,1367.2",
		width=0.75];
	107 -- 108	[pos="508.59,1397 503.52,1392.2 497.91,1386.9 492.83,1382.2"];
	108 -- 109	[pos="484.65,1349.9 499.99,1315.5 534.18,1238.9 549.61,1204.3"];
	111 -- 112	[pos="1192.5,1321.4 1181.5,1309.8 1166.6,1294 1155.6,1282.4"];
	119	[height=0.5,
		pos="1079.7,137.6",
		width=0.75];
	118 -- 119	[pos="870.05,69.985 915.05,84.497 1010,115.13 1055.1,129.65"];
	119 -- 120	[pos="1088.8,154.97 1114,203.05 1184.5,337.48 1209.6,385.22"];
	123	[height=0.5,
		pos="95.821,976.36",
		width=0.75];
	122 -- 123	[pos="36.569,871.99 49.644,895.02 72.963,936.09 86.111,959.25"];
	123 -- 124	[pos="117.56,987.34 162.43,1010 264.85,1061.7 309.68,1084.4"];
	127	[height=0.5,
		pos="955.77,164.47",
		width=0.75];
	126 -- 127	[pos="806.95,109.24 839.88,121.46 899.24,143.49 932.16,155.71"];
	127 -- 128	[pos="973.79,178.24 1013.7,208.75 1109.3,281.74 1149.2,312.22"];
	130 -- 131	[pos="1246.2,373.17 1289.3,415.07 1411.2,533.62 1454.5,575.74"];
	133 -- 134	[pos="176.99,727.72 209.1,742.15 267.54,768.42 299.59,782.83"];
	136 -- 137	[pos="223.4,492.7 244.95,516.39 285.99,561.5 307.64,585.31"];
	141 -- 142	[pos="409.25,333.3 427.75,348.43 457.11,372.43 475.64,387.59"];
	147	[height=0.5,
		pos="89.163,831.06",
		width=0.75];
	146 -- 147	[pos="73.333,705.05 76.798,732.63 83.398,785.17 86.881,812.89"];
	147 -- 148	[pos="112.52,840.52 148.53,855.1 217.2,882.92 253.2,897.5"];
	151	[height=0.5,
		pos="240.47,1006.3",
		width=0.75];
	150 -- 151	[pos="161.43,875.87 178.65,904.29 213.21,961.32 230.35,989.6"];
	151 -- 152	[pos="267.58,1008 333.94,1012.2 503.91,1023 570.22,1027.2"];
	156	[height=0.5,
		pos="1539.6,1128.3",
		width=0.75];
	155 -- 156	[pos="1496.2,1256.7 1505.7,1228.6 1524.1,1174 1533.6,1145.9"];
	156 -- 157	[pos="1541.6,1110.3 1546.9,1063.5 1561.2,938.2 1566.6,891.04"];
	160 -- 161	[pos="1409.2,718.29 1395.5,677.43 1361.8,577.26 1348.1,536.46"];
	164	[height=0.5,
		pos="1618.7,1199.7",
		width=0.75];
	163 -- 164	[pos="1555.6,1301.5 1569.6,1279 1594.5,1238.9 1608.4,1216.4"];
	164 -- 165	[pos="1621.5,1181.5 1627.7,1141.3 1642.4,1044.9 1648.6,1004.7"];
	168	[height=0.5,
		pos="409.41,1362.5",
		width=0.75];
	167 -- 168	[pos="450.72,1427 441.77,1413 429.13,1393.3 420.19,1379.3"];
	168 -- 169	[pos="414.09,1344.5 423.73,1307.4 445.74,1222.7 455.38,1185.6"];
	174	[height=0.5,
		pos="242.11,1126.6",
		width=0.75];
	173 -- 174	[pos="376.8,1233.4 347.61,1210.3 289.19,1163.9 259.83,1140.6"];
	174 -- 175	[pos="242.99,1108.4 244.57,1075.7 247.89,1007.2 249.47,974.61"];
	181	[height=0.5,
		pos="141.16,904.6",
		width=0.75];
	180 -- 181	[pos="245.71,1042 223.33,1012.6 176.15,950.58 153.63,920.99"];
	181 -- 182	[pos="157.06,889.88 196.34,853.49 297.66,759.64 336.83,723.35"];
	190 -- 191	[pos="676.62,1453.5 659.96,1439.6 634.66,1418.4 618.03,1404.5"];
	195	[height=0.5,
		pos="1574,1034.3",
		width=0.75];
	194 -- 195	[pos="1519.2,1164.5 1531.2,1136.1 1554.7,1080.2 1566.6,1051.8"];
	195 -- 196	[pos="1569.3,1016.3 1559.1,977.27 1535,884.84 1524.8,845.95"];
	199	[height=0.5,
		pos="1661.9,1134.4",
		width=0.75];
	198 -- 199	[pos="1571.3,1211.8 1591.5,1194.5 1625.1,1165.8 1645.3,1148.6"];
	199 -- 200	[pos="1664.7,1116.2 1670.6,1077.9 1684.2,989.3 1690,951.14"];
	202 -- 203	[pos="541.05,1344.9 545.43,1303.6 556.14,1202.6 560.54,1161.1"];
	206	[height=0.5,
		pos="1428.2,1282",
		width=0.75];
	205 -- 206	[pos="1353.5,1343 1369.9,1329.6 1394.5,1309.5 1411,1296.1"];
	206 -- 207	[pos="1415.9,1265.7 1384.5,1223.8 1301.2,1112.9 1269.9,1071.1"];
	213 -- 214	[pos="426.37,939.49 444.15,904.83 484.25,826.69 502.07,791.97"];
	220 -- 221	[pos="1236.5,1153.3 1178.1,1180.1 1021.8,1252.1 963.45,1278.9"];
	223 -- 224	[pos="1473.4,390.44 1455.2,378.06 1428,359.54 1409.9,347.17"];
	227	[height=0.5,
		pos="1627.3,583.14",
		width=0.75];
	226 -- 227	[pos="1686.2,604.05 1675.2,600.14 1662.2,595.53 1651.2,591.63"];
	227 -- 228	[pos="1613.3,598.74 1609,603.55 1604.3,608.84 1600,613.64"];
	230 -- 231	[pos="1743.3,755.99 1737.7,766.91 1730.6,781.03 1725,792.02"];
	240	[height=0.5,
		pos="1128.8,193.87",
		width=0.75];
	239 -- 240	[pos="1329.5,238.54 1285.8,228.8 1198,209.28 1154.5,199.59"];
	240 -- 241	[pos="1109.1,206.25 1075,227.72 1005.1,271.61 970.92,293.12"];
	244	[height=0.5,
		pos="1333.8,1243.5",
		width=0.75];
	243 -- 244	[pos="1440.3,1137 1416.8,1160.5 1372.5,1204.8 1349.1,1228.2"];
	244 -- 245	[pos="1308.2,1237.6 1238.1,1221.5 1043.8,1176.7 973.7,1160.6"];
	251 -- 252	[pos="1405.6,1220.1 1415.4,1179.7 1439.2,1082.1 1449.1,1041.7"];
	255	[height=0.5,
		pos="995.29,1407.3",
		width=0.75];
	254 -- 255	[pos="896.87,1460.3 918.58,1448.6 952.23,1430.5 974,1418.7"];
	255 -- 256	[pos="998.1,1389.3 1007.4,1330.1 1036.9,1141.6 1046.2,1082"];
	258 -- 259	[pos="179.75,1003.6 187.09,976.8 200.93,926.22 208.32,899.22"];
	261 -- 262	[pos="354.09,824.07 393.04,788.98 490.95,700.78 529.83,665.76"];
	271	[height=0.5,
		pos="1578.3,338.78",
		width=0.75];
	270 -- 271	[pos="1502.9,247.65 1519.7,267.86 1548.5,302.7 1565.2,322.94"];
	271 -- 272	[pos="1568.9,355.72 1554.5,381.78 1527,431.4 1512.5,457.59"];
	275	[height=0.5,
		pos="1689.7,548.24",
		width=0.75];
	274 -- 275	[pos="1652.3,434.17 1660.6,459.34 1675.5,505.08 1683.8,530.32"];
	275 -- 276	[pos="1698.5,565.54 1709.5,587.08 1728.2,623.64 1739.1,645.09"];
	280 -- 281	[pos="613.72,266.94 591.77,306.35 537.94,402.98 516.02,442.34"];
	285 -- 286	[pos="826.38,160.18 803.8,185.6 759.43,235.54 736.86,260.94"];
	289	[height=0.5,
		pos="1325.1,162.84",
		width=0.75];
	288 -- 289	[pos="1312,135.94 1313.6,139.13 1315.2,142.46 1316.7,145.65"];
	289 -- 290	[pos="1319.2,180.6 1310.7,206.63 1294.8,254.88 1286.2,280.92"];
	300	[height=0.5,
		pos="1146.2,92.345",
		width=0.75];
	299 -- 300	[pos="1272.7,193.19 1245,171.15 1191.3,128.3 1163.6,106.23"];
	300 -- 301	[pos="1131.3,107.36 1099.4,139.38 1024.9,214.09 992.83,246.3"];
	305 -- 306	[pos="1140.8,288.68 1083.3,304.14 942.33,341.97 884.44,357.52"];
	309	[height=0.5,
		pos="1418.4,260.8",
		width=0.75];
	308 -- 309	[pos="1495.5,303.86 1478.9,294.59 1455.8,281.65 1439.2,272.37"];
	309 -- 310	[pos="1406.4,277 1387.6,302.35 1351.4,351.13 1332.5,376.57"];
	318 -- 319	[pos="1538.5,437.5 1464.5,427.38 1256.4,398.91 1182.5,388.8"];
	321 -- 322	[pos="1390.5,512.94 1331,500.13 1185.2,468.72 1125.9,455.93"];
	327 -- 328	[pos="1292.9,1036.6 1252.2,1032.9 1175.2,1025.9 1134.4,1022.2"];
	330 -- 331	[pos="1499.3,1084.4 1469.7,1087.9 1422.2,1093.6 1392.6,1097.1"];
	336 -- 337	[pos="297.67,735.98 336.98,709.77 425.75,650.59 464.89,624.49"];
	341 -- 342	[pos="329.7,1127.1 350.24,1114.6 381.89,1095.3 402.37,1082.9"];
	346	[height=0.5,
		pos="908.5,114.29",
		width=0.75];
	345 -- 346	[pos="1015.1,170.38 991.47,157.94 953.66,138.05 930,125.6"];
	346 -- 347	[pos="891.09,128.09 862.5,150.76 805.89,195.64 777.07,218.49"];
	350 -- 351	[pos="1375.4,1029.6 1359.6,1045 1335.2,1068.7 1319.4,1084"];
	354	[height=0.5,
		pos="345.79,275.23",
		width=0.75];
	353 -- 354	[pos="308.81,311.53 315.57,304.89 323.5,297.11 330.27,290.46"];
	354 -- 355	[pos="369.3,284.42 396.14,294.91 439.79,311.97 466.63,322.46"];
	357 -- 358	[pos="304.8,425.32 335.9,433.62 388.23,447.58 419.22,455.85"];
	361	[height=0.5,
		pos="612.75,158.61",
		width=0.75];
	360 -- 361	[pos="476.44,224.18 506.6,209.67 560.47,183.76 590.66,169.23"];
	361 -- 362	[pos="633.68,170.14 674.65,192.69 764.99,242.43 806.03,265.02"];
	368 -- 369	[pos="533.59,190.78 537.7,216.63 545.23,264.09 549.34,289.99"];
	372	[height=0.5,
		pos="1039.3,49.544",
		width=0.75];
	371 -- 372	[pos="931.51,24.082 955.15,29.668 990,37.901 1013.6,43.481"];
	372 -- 373	[pos="1039.7,67.725 1040.4,102.09 1042,176.22 1042.7,210.63"];
	376	[height=0.5,
		pos="186.75,796.64",
		width=0.75];
	375 -- 376	[pos="203.25,668.1 199.64,696.22 192.69,750.32 189.07,778.53"];
	376 -- 377	[pos="207.29,808.55 237.41,826.02 293.23,858.39 323.36,875.86"];
	390 -- 391	[pos="704.83,1401.4 736.83,1382.9 797.93,1347.6 829.77,1329.2"];
}
