graph {
	graph [bb="0,0,540.93,435.49",
		outputorder=edgesfirst,
		overlap=prism,
		size="50,50!",
		start=1627
	];
	node [label="\N"];
	0	[height=0.5,
		pos="119.21,106.54",
		width=0.75];
	8	[height=0.5,
		pos="298.23,18.509",
		width=0.75];
	0 -- 8	[pos="141.16,95.749 175.61,78.807 241.99,46.166 276.38,29.254"];
	2	[height=0.5,
		pos="298.79,204.71",
		width=0.75];
	0 -- 2	[pos="140.16,118 174.67,136.86 243.09,174.26 277.7,193.18"];
	6	[height=0.5,
		pos="188.35,18",
		width=0.75];
	0 -- 6	[pos="131.89,90.303 144.37,74.327 163.31,50.078 175.75,34.137"];
	9	[height=0.5,
		pos="189.88,237.51",
		width=0.75];
	0 -- 9	[pos="128.45,123.67 142,148.77 167.1,195.28 180.64,220.39"];
	1	[height=0.5,
		pos="107.94,292.87",
		width=0.75];
	0 -- 1	[pos="118.11,124.75 115.95,160.46 111.18,239.32 109.03,274.87"];
	14	[height=0.5,
		pos="363.58,121.27",
		width=0.75];
	8 -- 14	[pos="309.02,35.478 321.2,54.631 340.89,85.593 352.99,104.62"];
	16	[height=0.5,
		pos="232.97,135.58",
		width=0.75];
	8 -- 16	[pos="288.74,35.533 276.37,57.73 254.85,96.334 242.47,118.54"];
	2 -- 8	[pos="298.74,186.52 298.63,150.92 298.39,72.433 298.28,36.776"];
	3	[height=0.5,
		pos="466.53,120.49",
		width=0.75];
	2 -- 3	[pos="320.38,193.87 352.5,177.74 412.54,147.6 444.76,131.42"];
	12	[height=0.5,
		pos="457.98,239.39",
		width=0.75];
	2 -- 12	[pos="324.72,210.36 354.32,216.81 402.46,227.3 432.06,233.75"];
	5	[height=0.5,
		pos="413.85,365.54",
		width=0.75];
	2 -- 5	[pos="310.46,221.02 332.51,251.84 380.08,318.34 402.15,349.19"];
	15	[height=0.5,
		pos="291.42,374",
		width=0.75];
	2 -- 15	[pos="298,222.83 296.59,255.33 293.64,323.17 292.22,355.76"];
	3 -- 8	[pos="446.23,108.18 413.79,88.532 350.66,50.275 318.34,30.695"];
	3 -- 14	[pos="439.48,120.69 424.47,120.81 405.85,120.95 390.81,121.06"];
	4	[height=0.5,
		pos="513.93,283.48",
		width=0.75];
	3 -- 4	[pos="471.69,138.24 480.81,169.59 499.66,234.41 508.78,265.75"];
	3 -- 12	[pos="465.23,138.55 463.63,160.89 460.91,198.74 459.29,221.16"];
	11	[height=0.5,
		pos="361.04,263.55",
		width=0.75];
	3 -- 11	[pos="454.43,136.9 434.08,164.49 393.25,219.87 373,247.33"];
	14 -- 16	[pos="336.83,124.2 314.3,126.67 282.21,130.19 259.68,132.66"];
	6 -- 8	[pos="215.51,18.126 232.42,18.204 254.08,18.305 271,18.383"];
	6 -- 14	[pos="208.8,30.048 242.56,49.947 309.59,89.448 343.27,109.3"];
	6 -- 9	[pos="188.48,36.338 188.77,77.761 189.47,178.15 189.76,219.38"];
	6 -- 16	[pos="195.03,35.604 203.45,57.771 217.81,95.637 226.25,117.86"];
	4 -- 14	[pos="499.52,267.93 470.85,237 406.98,168.09 378.17,137.01"];
	4 -- 12	[pos="496.23,269.53 489.7,264.39 482.3,258.56 475.76,253.4"];
	4 -- 5	[pos="496.5,297.77 478.13,312.84 449.38,336.41 431.08,351.41"];
	4 -- 11	[pos="487.3,280.01 459.32,276.36 415.58,270.66 387.62,267.02"];
	7	[height=0.5,
		pos="353.43,417.49",
		width=0.75];
	4 -- 7	[pos="497.06,297.57 466.31,323.24 401.49,377.36 370.56,403.19"];
	12 -- 14	[pos="445.25,223.46 427.23,200.92 394.48,159.94 376.41,137.32"];
	12 -- 15	[pos="440.79,253.29 408.87,279.09 340.81,334.09 308.78,359.98"];
	5 -- 12	[pos="419.99,348 428.37,324.04 443.33,281.29 451.76,257.19"];
	5 -- 11	[pos="404.89,348.24 395.12,329.37 379.58,299.37 369.87,280.6"];
	5 -- 7	[pos="397.02,380.01 388.64,387.22 378.54,395.9 370.17,403.1"];
	5 -- 15	[pos="386.98,367.4 366.71,368.8 339.01,370.71 318.65,372.12"];
	10	[height=0.5,
		pos="210.9,356.58",
		width=0.75];
	5 -- 10	[pos="386.9,364.35 348.08,362.64 276.84,359.49 237.96,357.77"];
	11 -- 14	[pos="361.36,245.53 361.85,218.31 362.76,166.99 363.25,139.59"];
	11 -- 16	[pos="345.85,248.37 321.2,223.74 272.78,175.36 248.15,150.75"];
	9 -- 14	[pos="209.14,224.63 242.61,202.22 311.16,156.35 344.51,134.03"];
	9 -- 11	[pos="216.25,241.52 248.41,246.42 302.46,254.64 334.64,259.54"];
	9 -- 10	[pos="193.07,255.6 197.03,277.97 203.71,315.87 207.68,338.32"];
	13	[height=0.5,
		pos="27,387.42",
		width=0.75];
	9 -- 13	[pos="173.97,252.16 142.91,280.74 74.523,343.68 43.22,372.49"];
	9 -- 16	[pos="197.39,219.76 205.3,201.05 217.68,171.77 225.55,153.14"];
	7 -- 11	[pos="354.33,399.23 355.8,369.6 358.67,311.4 360.14,281.79"];
	7 -- 9	[pos="339.2,401.83 308.19,367.71 234.83,286.98 203.96,253"];
	7 -- 15	[pos="334.83,404.44 327.12,399.04 318.19,392.78 310.44,387.34"];
	7 -- 10	[pos="330.53,407.7 303.93,396.34 260.32,377.7 233.74,366.34"];
	10 -- 11	[pos="230.84,344.23 259.55,326.43 312.26,293.78 341.02,275.96"];
	10 -- 15	[pos="236.82,362.19 246.02,364.18 256.36,366.41 265.55,368.4"];
	10 -- 13	[pos="184.55,361 149.59,366.86 88.234,377.15 53.299,383.01"];
	10 -- 16	[pos="212.71,338.49 216.86,296.95 227.03,195.09 231.17,153.61"];
	1 -- 2	[pos="130.21,282.59 166.88,265.64 239.59,232.06 276.37,215.07"];
	1 -- 9	[pos="126.95,280.03 140.09,271.15 157.51,259.38 170.7,250.47"];
	1 -- 15	[pos="130.81,302.98 166.16,318.61 233.67,348.46 268.84,364.02"];
	1 -- 10	[pos="127.79,305.15 146.02,316.44 172.9,333.06 191.11,344.33"];
	1 -- 13	[pos="94.211,308.91 79.236,326.4 55.422,354.22 40.528,371.62"];
}
