graph {
	graph [bb="0,0,417.36,415.3",
		outputorder=edgesfirst,
		overlap=prism,
		size="50,50!",
		start=7093
	];
	node [label="\N"];
	1	[height=0.5,
		pos="98.233,261.14",
		width=0.75];
	2	[height=0.5,
		pos="178.76,148.15",
		width=0.75];
	1 -- 2	[pos="110.12,244.47 125.43,222.99 151.88,185.86 167.09,164.52"];
	5	[height=0.5,
		pos="248.61,207.53",
		width=0.75];
	1 -- 5	[pos="122.06,252.65 150.05,242.67 196.24,226.2 224.4,216.16"];
	3	[height=0.5,
		pos="114.9,170.8",
		width=0.75];
	1 -- 3	[pos="101.61,242.86 104.52,227.09 108.7,204.43 111.59,188.75"];
	4	[height=0.5,
		pos="236.64,274.23",
		width=0.75];
	1 -- 4	[pos="125.25,263.7 149.64,266 185.33,269.38 209.7,271.68"];
	8	[height=0.5,
		pos="27,397.3",
		width=0.75];
	1 -- 8	[pos="89.211,278.39 75.509,304.58 49.607,354.09 35.948,380.2"];
	2 -- 5	[pos="195.67,162.52 206.65,171.86 220.91,183.98 231.86,193.28"];
	2 -- 4	[pos="186.69,165.42 197.71,189.43 217.56,232.65 228.63,256.77"];
	7	[height=0.5,
		pos="96.501,18",
		width=0.75];
	2 -- 7	[pos="168.17,131.4 152.38,106.41 122.82,59.637 107.05,34.684"];
	6	[height=0.5,
		pos="390.36,267.81",
		width=0.75];
	5 -- 6	[pos="271.39,217.21 297.68,228.39 340.71,246.69 367.18,257.95"];
	3 -- 5	[pos="140.05,177.71 163.96,184.28 199.71,194.09 223.58,200.65"];
	3 -- 4	[pos="131.57,184.97 154.76,204.66 196.5,240.12 219.78,259.9"];
	3 -- 7	[pos="112.72,152.68 109.18,123.27 102.22,65.499 98.681,36.105"];
	4 -- 6	[pos="263.77,273.1 291.78,271.93 335.24,270.11 363.25,268.94"];
	0	[height=0.5,
		pos="149.97,305.15",
		width=0.75];
	0 -- 2	[pos="153.27,287.14 158.8,257.02 169.85,196.74 175.41,166.43"];
	0 -- 5	[pos="165.39,289.89 183.92,271.55 214.83,240.96 233.31,222.67"];
	0 -- 3	[pos="145.32,287.31 138.61,261.61 126.3,214.45 119.58,188.72"];
	0 -- 4	[pos="174.12,296.54 186.14,292.25 200.63,287.08 212.63,282.8"];
	0 -- 8	[pos="131.83,318.75 108.58,336.17 68.505,366.2 45.219,383.65"];
}
