graph {
	graph [bb="0,0,294.06,262.61",
		outputorder=edgesfirst,
		overlap=prism,
		size="50,50!",
		start=4241
	];
	node [label="\N"];
	0	[height=0.5,
		pos="115.27,36.364",
		width=0.75];
	2	[height=0.5,
		pos="119.4,131.82",
		width=0.75];
	0 -- 2	[pos="116.07,54.77 116.8,71.781 117.89,96.908 118.62,113.8"];
	1	[height=0.5,
		pos="42.54,45.064",
		width=0.75];
	0 -- 1	[pos="88.6,39.554 82.276,40.311 75.529,41.118 69.205,41.874"];
	4	[height=0.5,
		pos="27,132.51",
		width=0.75];
	0 -- 4	[pos="101.09,51.811 84.615,69.752 57.603,99.172 41.147,117.1"];
	3	[height=0.5,
		pos="116.64,227.52",
		width=0.75];
	0 -- 3	[pos="115.4,54.694 115.66,91.232 116.25,172.76 116.51,209.25"];
	6	[height=0.5,
		pos="266.36,88.894",
		width=0.75];
	0 -- 6	[pos="139.21,44.688 167.42,54.495 214.01,70.695 242.28,80.523"];
	7	[height=0.5,
		pos="213.09,18",
		width=0.75];
	0 -- 7	[pos="141.48,31.443 155.52,28.808 172.76,25.572 186.81,22.935"];
	5	[height=0.5,
		pos="43.754,219.61",
		width=0.75];
	2 -- 5	[pos="105.88,147.52 92.193,163.4 71.149,187.82 57.416,203.75"];
	2 -- 3	[pos="118.88,149.82 118.39,166.82 117.66,192.2 117.17,209.28"];
	2 -- 6	[pos="144.33,124.54 171.35,116.65 214.23,104.12 241.3,96.212"];
	10	[height=0.5,
		pos="267.06,173.18",
		width=0.75];
	2 -- 10	[pos="144.45,138.84 171.6,146.44 214.69,158.51 241.89,166.13"];
	1 -- 2	[pos="56.281,60.574 70.185,76.269 91.566,100.4 105.52,116.15"];
	1 -- 4	[pos="39.32,63.182 36.653,78.189 32.882,99.41 30.216,114.41"];
	1 -- 5	[pos="42.665,63.085 42.898,96.532 43.394,167.85 43.627,201.42"];
	1 -- 7	[pos="68.815,40.894 100.87,35.809 154.72,27.262 186.79,22.174"];
	11	[height=0.5,
		pos="172.28,87.313",
		width=0.75];
	1 -- 11	[pos="66.943,53.01 90.138,60.564 124.83,71.86 147.98,79.402"];
	4 -- 5	[pos="30.471,150.55 33.347,165.5 37.413,186.64 40.287,201.58"];
	4 -- 11	[pos="51.644,124.84 78.359,116.53 120.75,103.34 147.51,95.017"];
	8	[height=0.5,
		pos="173,175.83",
		width=0.75];
	4 -- 8	[pos="51.767,139.85 78.614,147.82 121.22,160.46 148.11,168.44"];
	5 -- 8	[pos="68.064,211.37 91.171,203.54 125.73,191.84 148.8,184.02"];
	9	[height=0.5,
		pos="214.57,244.61",
		width=0.75];
	5 -- 9	[pos="70.444,223.51 102.53,228.21 156.06,236.05 188.07,240.73"];
	3 -- 4	[pos="102.24,212.26 85.608,194.63 58.403,165.79 41.664,148.05"];
	3 -- 5	[pos="89.913,224.62 83.575,223.93 76.814,223.2 70.476,222.51"];
	3 -- 10	[pos="140.47,218.91 168.47,208.8 214.67,192.1 242.84,181.93"];
	3 -- 9	[pos="142.88,232.1 156.93,234.56 174.19,237.57 188.25,240.02"];
	6 -- 10	[pos="266.51,107.18 266.62,121.32 266.79,140.8 266.9,154.92"];
	6 -- 7	[pos="254,72.451 245.4,60.998 233.97,45.787 225.38,34.354"];
	6 -- 11	[pos="239.14,88.437 226.66,88.227 211.9,87.979 199.43,87.769"];
	6 -- 9	[pos="260.41,106.76 250.43,136.79 230.38,197.06 220.44,226.96"];
	7 -- 10	[pos="219.28,35.801 229.69,65.734 250.58,125.79 260.94,155.58"];
	7 -- 11	[pos="203.21,34.779 196.89,45.516 188.71,59.406 182.35,70.207"];
	7 -- 8	[pos="208.57,35.798 200.87,66.11 185.3,127.42 177.57,157.85"];
	8 -- 10	[pos="200.2,175.06 212.68,174.71 227.44,174.29 239.91,173.94"];
	8 -- 11	[pos="172.85,157.49 172.72,142.19 172.55,120.53 172.42,105.33"];
	8 -- 9	[pos="183.27,192.83 189.72,203.49 197.99,217.18 204.41,227.81"];
	9 -- 10	[pos="226.48,228.4 234.95,216.88 246.29,201.44 254.83,189.82"];
	9 -- 11	[pos="209.8,226.88 201.68,196.66 185.25,135.56 177.09,105.23"];
}
