graph {
	graph [bb="0,0,1571.2,1061",
		outputorder=edgesfirst,
		overlap=prism,
		size="50,50!",
		start=9839
	];
	node [label="\N"];
	0	[height=0.5,
		pos="524.57,499.72",
		width=0.75];
	50	[height=0.5,
		pos="548.73,304.11",
		width=0.75];
	0 -- 50	[pos="526.8,481.67 531.4,444.4 541.91,359.35 546.5,322.12"];
	81	[height=0.5,
		pos="590.25,215.77",
		width=0.75];
	0 -- 81	[pos="528.78,481.53 540.64,430.24 574.26,284.91 586.08,233.81"];
	85	[height=0.5,
		pos="523.3,737.94",
		width=0.75];
	0 -- 85	[pos="524.47,518.02 524.23,562.47 523.63,675.73 523.39,719.9"];
	88	[height=0.5,
		pos="585.3,758.97",
		width=0.75];
	0 -- 88	[pos="528.74,517.54 539.84,564.9 569.97,693.52 581.1,741.02"];
	104	[height=0.5,
		pos="377.91,353.73",
		width=0.75];
	0 -- 104	[pos="509.43,484.65 481.32,456.67 421.39,397.02 393.19,368.94"];
	108	[height=0.5,
		pos="661.37,745.65",
		width=0.75];
	0 -- 108	[pos="533.97,516.62 558.96,561.55 626.83,683.57 651.9,728.63"];
	112	[height=0.5,
		pos="289.53,426.49",
		width=0.75];
	0 -- 112	[pos="499.86,492.02 454.72,477.96 359.42,448.26 314.26,434.2"];
	114	[height=0.5,
		pos="351.58,470.28",
		width=0.75];
	0 -- 114	[pos="498.3,495.25 465.69,489.7 410.41,480.29 377.81,474.75"];
	119	[height=0.5,
		pos="425,627.15",
		width=0.75];
	0 -- 119	[pos="511.96,515.86 492.81,540.37 456.6,586.71 437.51,611.14"];
	128	[height=0.5,
		pos="313.73,341.24",
		width=0.75];
	0 -- 128	[pos="506.59,486.21 466.76,456.27 371.45,384.62 331.66,354.71"];
	129	[height=0.5,
		pos="733.59,295.65",
		width=0.75];
	0 -- 129	[pos="539.94,484.71 578.59,446.98 679.52,348.44 718.2,310.68"];
	135	[height=0.5,
		pos="689.64,462.3",
		width=0.75];
	0 -- 135	[pos="550.36,493.87 581.37,486.84 633.1,475.12 664.03,468.11"];
	150	[height=0.5,
		pos="397.56,577.42",
		width=0.75];
	0 -- 150	[pos="504.44,512.03 480.66,526.58 441.33,550.64 417.59,565.16"];
	153	[height=0.5,
		pos="689.08,506.44",
		width=0.75];
	0 -- 153	[pos="551.73,500.83 582.22,502.07 631.38,504.08 661.87,505.33"];
	188	[height=0.5,
		pos="441.38,311.53",
		width=0.75];
	0 -- 188	[pos="516.89,482.35 501.04,446.5 464.87,364.67 449.04,328.86"];
	190	[height=0.5,
		pos="459.52,718.75",
		width=0.75];
	0 -- 190	[pos="519.25,517.64 507.02,558.82 477.03,659.77 464.82,700.88"];
	204	[height=0.5,
		pos="733.76,701.28",
		width=0.75];
	0 -- 204	[pos="539.95,514.54 578.64,551.81 679.64,649.14 718.35,686.43"];
	245	[height=0.5,
		pos="875.92,445.26",
		width=0.75];
	0 -- 245	[pos="550.98,495.63 616.09,485.53 783.77,459.54 849.21,449.4"];
	246	[height=0.5,
		pos="444.47,267.44",
		width=0.75];
	0 -- 246	[pos="518.42,481.88 503.47,438.54 465.39,328.1 450.53,285.03"];
	1	[height=0.5,
		pos="546.42,670.33",
		width=0.75];
	51	[height=0.5,
		pos="660.24,591.04",
		width=0.75];
	1 -- 51	[pos="565.22,657.24 586.31,642.55 620.32,618.85 641.42,604.16"];
	62	[height=0.5,
		pos="722.29,611.88",
		width=0.75];
	1 -- 62	[pos="570.87,662.2 604.47,651.03 664.55,631.07 698.04,619.94"];
	72	[height=0.5,
		pos="748.2,832.29",
		width=0.75];
	1 -- 72	[pos="563.97,684.42 602.23,715.13 692.74,787.78 730.83,818.35"];
	74	[height=0.5,
		pos="460.85,839.47",
		width=0.75];
	1 -- 74	[pos="537.74,687.48 521.34,719.9 485.97,789.82 469.55,822.28"];
	76	[height=0.5,
		pos="238.23,565.4",
		width=0.75];
	1 -- 76	[pos="522.24,662.09 464.63,642.48 319.8,593.17 262.3,573.59"];
	77	[height=0.5,
		pos="289.2,499.51",
		width=0.75];
	1 -- 77	[pos="527.09,657.49 479.3,625.75 356.06,543.91 308.4,512.26"];
	80	[height=0.5,
		pos="686.2,846.01",
		width=0.75];
	1 -- 80	[pos="559.32,686.54 586.02,720.09 647.04,796.79 673.53,830.09"];
	84	[height=0.5,
		pos="398.8,812.16",
		width=0.75];
	1 -- 84	[pos="530.9,685.24 502.62,712.41 443.01,769.68 414.56,797.02"];
	87	[height=0.5,
		pos="397.47,718.55",
		width=0.75];
	1 -- 87	[pos="521.82,678.29 494.23,687.23 449.72,701.64 422.11,710.57"];
	90	[height=0.5,
		pos="352.95,514.28",
		width=0.75];
	1 -- 90	[pos="528.91,656.2 492.07,626.5 406.96,557.84 370.28,528.26"];
	96	[height=0.5,
		pos="564.37,418.1",
		width=0.75];
	1 -- 96	[pos="547.71,652.19 551.02,605.76 559.75,483.03 563.07,436.42"];
	102	[height=0.5,
		pos="671.75,701.39",
		width=0.75];
	1 -- 102	[pos="571.78,676.61 593.53,682 624.69,689.72 646.43,695.11"];
	117	[height=0.5,
		pos="335.39,681.8",
		width=0.75];
	1 -- 117	[pos="519.26,671.8 478.74,674.01 402.9,678.13 362.44,680.33"];
	1 -- 119	[pos="522.43,661.8 501.15,654.23 470.21,643.22 448.94,635.66"];
	139	[height=0.5,
		pos="584.9,876.16",
		width=0.75];
	1 -- 139	[pos="549.77,688.23 557.05,727.16 574.24,819.12 581.53,858.14"];
	1 -- 150	[pos="526.65,657.99 498.18,640.22 445.93,607.61 417.41,589.81"];
	151	[height=0.5,
		pos="335.85,806.59",
		width=0.75];
	1 -- 151	[pos="526.99,682.9 486.87,708.86 395.31,768.12 355.24,794.05"];
	164	[height=0.5,
		pos="828.5,564.19",
		width=0.75];
	1 -- 164	[pos="569.99,661.46 623.08,641.48 751.58,593.13 804.81,573.1"];
	167	[height=0.5,
		pos="801.22,744.24",
		width=0.75];
	1 -- 167	[pos="571.32,677.55 620.03,691.68 727.43,722.83 776.23,736.99"];
	173	[height=0.5,
		pos="414.99,488.72",
		width=0.75];
	1 -- 173	[pos="534.53,653.89 509.5,619.31 451.68,539.42 426.77,504.99"];
	177	[height=0.5,
		pos="688.41,418.28",
		width=0.75];
	1 -- 177	[pos="555.96,653.4 581.82,607.48 653.09,480.96 678.91,435.13"];
	178	[height=0.5,
		pos="965.99,578.18",
		width=0.75];
	1 -- 178	[pos="572.35,664.63 647.57,648.11 865.24,600.31 940.23,583.84"];
	181	[height=0.5,
		pos="625.82,546.99",
		width=0.75];
	1 -- 181	[pos="557.13,653.69 572.28,630.15 599.83,587.37 615.03,563.76"];
	191	[height=0.5,
		pos="522.87,872.45",
		width=0.75];
	1 -- 191	[pos="544.29,688.62 539.8,727.1 529.44,816.03 524.98,854.34"];
	200	[height=0.5,
		pos="461.16,781.83",
		width=0.75];
	1 -- 200	[pos="533.84,686.78 517.63,707.98 489.62,744.61 473.51,765.67"];
	223	[height=0.5,
		pos="502.37,400.85",
		width=0.75];
	1 -- 223	[pos="543.46,652.23 535.44,603.14 513.32,467.87 505.31,418.87"];
	226	[height=0.5,
		pos="490.9,448.09",
		width=0.75];
	1 -- 226	[pos="541.97,652.52 531.58,610.9 505.79,507.68 495.37,465.98"];
	227	[height=0.5,
		pos="754.13,788.25",
		width=0.75];
	1 -- 227	[pos="567.1,682.07 606.91,704.67 693.79,754 733.54,776.56"];
	232	[height=0.5,
		pos="624.15,831.33",
		width=0.75];
	1 -- 232	[pos="554.74,687.56 569.62,718.38 600.65,782.65 615.66,813.74"];
	235	[height=0.5,
		pos="329.23,558.32",
		width=0.75];
	1 -- 235	[pos="524.8,659.18 483.17,637.71 392.32,590.86 350.76,569.42"];
	242	[height=0.5,
		pos="813.73,460.33",
		width=0.75];
	1 -- 242	[pos="563.96,656.55 612.39,618.5 747.62,512.27 796.13,474.16"];
	249	[height=0.5,
		pos="329.29,733.65",
		width=0.75];
	1 -- 249	[pos="521.51,677.59 479.74,689.77 396.04,714.18 354.24,726.37"];
	2	[height=0.5,
		pos="1000.9,367.94",
		width=0.75];
	52	[height=0.5,
		pos="1154.9,590.7",
		width=0.75];
	2 -- 52	[pos="1012.2,384.32 1040.7,425.51 1115,533.07 1143.5,574.29"];
	61	[height=0.5,
		pos="1092.4,496.15",
		width=0.75];
	2 -- 61	[pos="1012.7,384.44 1030.2,409.06 1063.1,455.14 1080.7,479.72"];
	63	[height=0.5,
		pos="795.71,332.38",
		width=0.75];
	2 -- 63	[pos="974.48,363.36 935.08,356.53 861.35,343.76 822.01,336.94"];
	93	[height=0.5,
		pos="1110.5,194.11",
		width=0.75];
	2 -- 93	[pos="1011.4,351.27 1032.4,318.04 1079.1,243.91 1100,210.72"];
	103	[height=0.5,
		pos="1180.4,402.67",
		width=0.75];
	2 -- 103	[pos="1027,372.99 1061,379.57 1120.2,391.03 1154.3,397.61"];
	118	[height=0.5,
		pos="1280.6,280.22",
		width=0.75];
	2 -- 118	[pos="1025.7,360.15 1078.8,343.51 1202.8,304.62 1255.8,287.99"];
	122	[height=0.5,
		pos="1105.2,414.2",
		width=0.75];
	2 -- 122	[pos="1023.5,377.97 1041,385.73 1065.1,396.42 1082.6,404.18"];
	144	[height=0.5,
		pos="1058.8,238.12",
		width=0.75];
	2 -- 144	[pos="1008.7,350.43 1019.8,325.65 1039.9,280.61 1050.9,255.76"];
	152	[height=0.5,
		pos="1126.8,326.16",
		width=0.75];
	2 -- 152	[pos="1025.2,359.88 1047.5,352.48 1080.3,341.58 1102.6,334.19"];
	2 -- 164	[pos="987.07,383.66 954.79,420.41 874.73,511.56 842.38,548.38"];
	179	[height=0.5,
		pos="948.54,149.87",
		width=0.75];
	2 -- 179	[pos="996.6,350.09 986.76,309.1 962.64,208.59 952.81,167.66"];
	193	[height=0.5,
		pos="938.86,367.92",
		width=0.75];
	2 -- 193	[pos="973.86,367.93 971.25,367.93 968.6,367.93 965.98,367.93"];
	208	[height=0.5,
		pos="750.43,376.4",
		width=0.75];
	2 -- 208	[pos="973.6,368.86 925.43,370.49 825.83,373.85 777.67,375.48"];
	3	[height=0.5,
		pos="903.92,548.36",
		width=0.75];
	53	[height=0.5,
		pos="857.72,343.93",
		width=0.75];
	3 -- 53	[pos="899.82,530.22 891.03,491.32 870.46,400.33 861.74,361.74"];
	54	[height=0.5,
		pos="637.12,337.49",
		width=0.75];
	3 -- 54	[pos="886.42,534.52 838.07,496.31 703.11,389.65 654.69,351.38"];
	3 -- 62	[pos="879.8,556.79 844.97,568.98 780.95,591.36 746.22,603.51"];
	73	[height=0.5,
		pos="934.77,279.42",
		width=0.75];
	3 -- 73	[pos="905.99,530.29 911.61,481.3 927.1,346.31 932.71,297.41"];
	78	[height=0.5,
		pos="659.95,640.11",
		width=0.75];
	3 -- 78	[pos="880.09,557.32 833.32,574.91 730.08,613.74 683.53,631.24"];
	98	[height=0.5,
		pos="813.96,395.48",
		width=0.75];
	3 -- 98	[pos="893.95,531.41 876.66,502.03 841.3,441.94 823.97,412.5"];
	99	[height=0.5,
		pos="1083.9,541.34",
		width=0.75];
	3 -- 99	[pos="931.25,547.29 965.27,545.96 1023,543.71 1056.9,542.39"];
	101	[height=0.5,
		pos="1030.4,490.15",
		width=0.75];
	3 -- 101	[pos="926.24,538.08 949.22,527.51 984.83,511.12 1007.9,500.51"];
	105	[height=0.5,
		pos="516.08,626.31",
		width=0.75];
	3 -- 105	[pos="877.87,553.59 807.22,567.79 612.54,606.92 542.01,621.1"];
	3 -- 135	[pos="880.58,538.98 839.36,522.43 754.15,488.21 712.95,471.66"];
	137	[height=0.5,
		pos="782.86,655.93",
		width=0.75];
	3 -- 137	[pos="887.59,562.86 864.49,583.4 822.49,620.72 799.31,641.31"];
	3 -- 153	[pos="878.01,543.3 836.71,535.24 756.44,519.58 715.09,511.51"];
	155	[height=0.5,
		pos="1000.5,322.49",
		width=0.75];
	3 -- 155	[pos="911.34,531.01 929.31,488.97 975.03,382 993.03,339.9"];
	166	[height=0.5,
		pos="876.84,401.25",
		width=0.75];
	3 -- 166	[pos="900.6,530.32 895.4,502.08 885.4,447.76 880.19,419.43"];
	171	[height=0.5,
		pos="1017.3,412.56",
		width=0.75];
	3 -- 171	[pos="917.15,532.51 938.99,506.35 982.36,454.41 1004.2,428.31"];
	217	[height=0.5,
		pos="997.88,679.67",
		width=0.75];
	3 -- 217	[pos="915.63,564.72 933.64,589.89 967.93,637.81 986.03,663.1"];
	243	[height=0.5,
		pos="857.8,700.18",
		width=0.75];
	3 -- 243	[pos="898.54,566.07 889.7,595.17 872.2,652.78 863.29,682.11"];
	4	[height=0.5,
		pos="751.68,491.44",
		width=0.75];
	4 -- 51	[pos="737.39,507 720.21,525.72 691.56,556.93 674.43,575.59"];
	55	[height=0.5,
		pos="459.65,582.26",
		width=0.75];
	4 -- 55	[pos="726.78,499.18 671.61,516.34 539.59,557.4 484.48,574.54"];
	68	[height=0.5,
		pos="952.43,448.75",
		width=0.75];
	4 -- 68	[pos="777.51,485.95 816.06,477.75 888.21,462.41 926.7,454.22"];
	89	[height=0.5,
		pos="958.74,622.22",
		width=0.75];
	4 -- 89	[pos="771.53,503.98 811.11,528.98 899.41,584.75 938.94,609.72"];
	4 -- 98	[pos="762.52,474.73 773.96,457.11 791.85,429.54 803.23,412"];
	141	[height=0.5,
		pos="1021.9,534.18",
		width=0.75];
	4 -- 141	[pos="778.07,495.62 829.73,503.79 943.61,521.8 995.35,529.99"];
	154	[height=0.5,
		pos="440.36,382.69",
		width=0.75];
	4 -- 154	[pos="727.51,483 669.36,462.69 522.21,411.28 464.3,391.05"];
	156	[height=0.5,
		pos="578.11,591.04",
		width=0.75];
	4 -- 156	[pos="731.08,503.26 697.68,522.43 632.06,560.08 598.68,579.24"];
	4 -- 166	[pos="770.14,478.13 793.81,461.08 834.59,431.69 858.29,414.61"];
	170	[height=0.5,
		pos="925.15,666.24",
		width=0.75];
	4 -- 170	[pos="766.77,506.65 799.66,539.79 877.47,618.2 910.22,651.2"];
	174	[height=0.5,
		pos="457.59,533.35",
		width=0.75];
	4 -- 174	[pos="725.06,495.23 669.21,503.19 540.34,521.56 484.36,529.54"];
	176	[height=0.5,
		pos="959.1,498.22",
		width=0.75];
	4 -- 176	[pos="778.79,492.33 818.55,493.62 892.22,496.03 931.98,497.33"];
	4 -- 181	[pos="728.89,501.5 706.08,511.57 671.19,526.97 648.44,537.01"];
	182	[height=0.5,
		pos="812.37,219.54",
		width=0.75];
	4 -- 182	[pos="755.66,473.6 766.66,424.33 797.36,286.79 808.38,237.44"];
	189	[height=0.5,
		pos="714.71,248.89",
		width=0.75];
	4 -- 189	[pos="748.9,473.21 742.03,428.15 724.32,311.94 717.47,267"];
	4 -- 193	[pos="771,478.69 806.96,454.95 883.75,404.28 919.64,380.6"];
	195	[height=0.5,
		pos="919.72,323.43",
		width=0.75];
	4 -- 195	[pos="766.89,476.23 798.88,444.25 872.81,370.33 904.67,338.48"];
	231	[height=0.5,
		pos="669.36,293.25",
		width=0.75];
	4 -- 231	[pos="744.37,473.85 728.75,436.24 692.25,348.38 676.64,310.8"];
	241	[height=0.5,
		pos="853.19,613.19",
		width=0.75];
	4 -- 241	[pos="764.95,507.36 784.4,530.69 820.46,573.93 839.92,597.27"];
	5	[height=0.5,
		pos="887.43,844.22",
		width=0.75];
	56	[height=0.5,
		pos="631.4,957.84",
		width=0.75];
	5 -- 56	[pos="864.7,854.3 816.12,875.86 702.61,926.24 654.07,947.78"];
	65	[height=0.5,
		pos="1084.8,929.1",
		width=0.75];
	5 -- 65	[pos="910.45,854.13 948.48,870.48 1024,902.95 1061.9,919.26"];
	5 -- 72	[pos="860.58,841.92 836.09,839.82 800.06,836.74 775.44,834.63"];
	95	[height=0.5,
		pos="779.34,948.35",
		width=0.75];
	5 -- 95	[pos="871.94,859.14 851.39,878.94 815.33,913.68 794.8,933.46"];
	113	[height=0.5,
		pos="823.73,826.88",
		width=0.75];
	5 -- 113	[pos="862.25,837.37 857.94,836.19 853.46,834.97 849.14,833.8"];
	132	[height=0.5,
		pos="847.51,969.68",
		width=0.75];
	5 -- 132	[pos="881.79,861.93 874.18,885.84 860.71,928.2 853.11,952.06"];
	157	[height=0.5,
		pos="1146.8,952.13",
		width=0.75];
	5 -- 157	[pos="910.44,853.8 959.67,874.27 1074.7,922.11 1123.9,942.57"];
	158	[height=0.5,
		pos="741.85,992.4",
		width=0.75];
	5 -- 158	[pos="872.39,859.52 844.5,887.92 785.01,948.46 757.02,976.96"];
	165	[height=0.5,
		pos="1040.5,973.14",
		width=0.75];
	5 -- 165	[pos="904.4,858.51 933.83,883.29 994,933.96 1023.5,958.79"];
	203	[height=0.5,
		pos="1022.6,886.3",
		width=0.75];
	5 -- 203	[pos="911.9,851.84 936.24,859.42 973.39,870.99 997.83,878.59"];
	5 -- 204	[pos="871.56,829.46 842.11,802.07 779.32,743.66 749.77,716.17"];
	219	[height=0.5,
		pos="1030.5,635.36",
		width=0.75];
	5 -- 219	[pos="898.65,827.83 925.32,788.88 992.27,691.12 1019.1,651.96"];
	5 -- 227	[pos="864.51,834.6 840.1,824.35 801.66,808.21 777.19,797.94"];
	5 -- 243	[pos="883.73,826.27 878.06,798.67 867.24,746.1 861.54,718.36"];
	248	[height=0.5,
		pos="1135.8,872.2",
		width=0.75];
	5 -- 248	[pos="914.48,847.27 962.38,852.67 1061.5,863.83 1109.1,869.2"];
	6	[height=0.5,
		pos="508.17,348.25",
		width=0.75];
	57	[height=0.5,
		pos="786.55,610.99",
		width=0.75];
	6 -- 57	[pos="523.94,363.13 572.93,409.38 722.2,550.25 770.96,596.28"];
	60	[height=0.5,
		pos="702.7,204.41",
		width=0.75];
	6 -- 60	[pos="526.47,334.72 563.64,307.24 647.58,245.17 684.59,217.8"];
	6 -- 63	[pos="535.22,346.76 590.02,343.74 713.6,336.91 768.52,333.88"];
	6 -- 104	[pos="481.18,349.39 458.82,350.33 427.21,351.66 404.86,352.6"];
	125	[height=0.5,
		pos="432.91,174.01",
		width=0.75];
	6 -- 125	[pos="500.68,330.91 486.29,297.6 454.93,225.01 440.48,191.55"];
	159	[height=0.5,
		pos="569.44,127.7",
		width=0.75];
	6 -- 159	[pos="513.19,330.2 524.7,288.74 552.94,187.09 564.44,145.69"];
	6 -- 173	[pos="497.12,364.92 479.19,391.95 443.96,445.06 426.03,472.08"];
	175	[height=0.5,
		pos="227.53,403.09",
		width=0.75];
	6 -- 175	[pos="482.02,353.36 428.55,363.81 307.22,387.52 253.72,397.97"];
	183	[height=0.5,
		pos="285.85,289.1",
		width=0.75];
	6 -- 183	[pos="482.67,341.47 439.78,330.06 353.74,307.17 311.06,295.81"];
	202	[height=0.5,
		pos="485.35,221.3",
		width=0.75];
	6 -- 202	[pos="504.95,330.33 500.63,306.27 492.98,263.76 488.63,239.54"];
	210	[height=0.5,
		pos="308.11,602.36",
		width=0.75];
	6 -- 210	[pos="495.35,364.53 459.22,410.43 356.82,540.48 320.82,586.21"];
	7	[height=0.5,
		pos="1262.3,584.95",
		width=0.75];
	58	[height=0.5,
		pos="1488.7,543.13",
		width=0.75];
	7 -- 58	[pos="1288.7,580.07 1332.3,572.01 1419,556.02 1462.5,547.98"];
	59	[height=0.5,
		pos="1340.6,457.91",
		width=0.75];
	7 -- 59	[pos="1272.7,568.08 1287.6,543.78 1315.1,499.19 1330.1,474.85"];
	82	[height=0.5,
		pos="1250.6,754.71",
		width=0.75];
	7 -- 82	[pos="1261,603.12 1258.8,635.79 1254.1,704.1 1251.9,736.68"];
	7 -- 99	[pos="1236.7,578.7 1202.8,570.41 1143.3,555.86 1109.4,547.57"];
	133	[height=0.5,
		pos="1242.5,386",
		width=0.75];
	7 -- 133	[pos="1260.5,566.94 1256.7,529.16 1248.1,441.98 1244.3,404.11"];
	146	[height=0.5,
		pos="1305.8,406.49",
		width=0.75];
	7 -- 146	[pos="1266.7,566.86 1275.1,532.56 1293.2,458.49 1301.5,424.37"];
	147	[height=0.5,
		pos="1326.8,622.64",
		width=0.75];
	7 -- 147	[pos="1282.7,596.87 1290.2,601.27 1298.7,606.26 1306.3,610.66"];
	160	[height=0.5,
		pos="1279.1,666.68",
		width=0.75];
	7 -- 160	[pos="1266,603.09 1268.8,616.63 1272.6,635.06 1275.4,648.59"];
	169	[height=0.5,
		pos="1217.4,710.71",
		width=0.75];
	7 -- 169	[pos="1255.9,602.7 1247.4,626.67 1232.2,669.12 1223.7,693.04"];
	198	[height=0.5,
		pos="1374.7,757.12",
		width=0.75];
	7 -- 198	[pos="1273.1,601.46 1294.5,634.28 1342.2,707.42 1363.8,740.41"];
	213	[height=0.5,
		pos="1411,404.86",
		width=0.75];
	7 -- 213	[pos="1275.5,568.97 1303.7,534.79 1369.6,454.95 1397.8,420.81"];
	234	[height=0.5,
		pos="1154.8,670.77",
		width=0.75];
	7 -- 234	[pos="1244.5,599.12 1224.5,615.12 1192.1,640.98 1172.2,656.86"];
	239	[height=0.5,
		pos="1464.6,499.11",
		width=0.75];
	7 -- 239	[pos="1285.1,575.27 1323.9,558.78 1402.5,525.44 1441.5,508.88"];
	8	[height=0.5,
		pos="1092.7,629.38",
		width=0.75];
	8 -- 61	[pos="1092.7,611.13 1092.6,585.62 1092.5,539.57 1092.5,514.18"];
	115	[height=0.5,
		pos="1278.5,487.19",
		width=0.75];
	8 -- 115	[pos="1110.6,615.74 1146.1,588.56 1225.3,527.93 1260.8,500.78"];
	8 -- 160	[pos="1118.7,634.56 1154.2,641.67 1217.6,654.36 1253.1,661.48"];
	161	[height=0.5,
		pos="1227,341.97",
		width=0.75];
	8 -- 161	[pos="1100.9,611.83 1125,560.4 1195,410.42 1218.9,359.29"];
	162	[height=0.5,
		pos="868.39,782.84",
		width=0.75];
	8 -- 162	[pos="1073.6,642.46 1031.2,671.45 929.81,740.83 887.47,769.79"];
	212	[height=0.5,
		pos="1022.2,798.29",
		width=0.75];
	8 -- 212	[pos="1085.5,646.82 1071.9,679.18 1043.1,748.2 1029.6,780.69"];
	9	[height=0.5,
		pos="273.3,646.36",
		width=0.75];
	9 -- 55	[pos="297.66,637.98 333.47,625.66 399.93,602.8 435.57,590.54"];
	64	[height=0.5,
		pos="151.66,609.19",
		width=0.75];
	9 -- 64	[pos="248.69,638.84 227.58,632.39 197.33,623.15 176.24,616.7"];
	9 -- 105	[pos="300.21,644.14 346.88,640.28 442.3,632.4 489.05,628.54"];
	9 -- 117	[pos="293.97,658.16 300.61,661.95 307.95,666.14 314.59,669.93"];
	126	[height=0.5,
		pos="198.26,756.78",
		width=0.75];
	9 -- 126	[pos="261.9,663.13 247.72,684.01 223.64,719.44 209.52,740.21"];
	163	[height=0.5,
		pos="221.46,491.79",
		width=0.75];
	9 -- 163	[pos="267.35,628.63 257.41,598.97 237.5,539.63 227.49,509.79"];
	9 -- 174	[pos="293.37,634.05 328.82,612.31 402.11,567.37 437.54,545.65"];
	197	[height=0.5,
		pos="273.8,792.69",
		width=0.75];
	9 -- 197	[pos="273.36,664.6 273.46,692.79 273.64,746.63 273.74,774.68"];
	218	[height=0.5,
		pos="154.38,515.37",
		width=0.75];
	9 -- 218	[pos="259.19,630.82 236.3,605.61 191.35,556.09 168.47,530.89"];
	221	[height=0.5,
		pos="148.64,676.11",
		width=0.75];
	9 -- 221	[pos="247.77,652.45 226.26,657.59 195.64,664.89 174.14,670.02"];
	236	[height=0.5,
		pos="393.11,762.58",
		width=0.75];
	9 -- 236	[pos="288.96,661.55 311.92,683.83 354.48,725.11 377.44,747.38"];
	9 -- 249	[pos="284.09,663.19 294.01,678.65 308.62,701.43 318.52,716.87"];
	10	[height=0.5,
		pos="1126.6,797.18",
		width=0.75];
	10 -- 65	[pos="1121,814.97 1113,840.15 1098.5,885.92 1090.5,911.17"];
	10 -- 82	[pos="1150.8,788.89 1172.7,781.41 1204.7,770.46 1226.5,762.98"];
	10 -- 89	[pos="1112,781.96 1080.3,748.87 1005.3,670.7 973.43,637.53"];
	91	[height=0.5,
		pos="931.02,798.3",
		width=0.75];
	10 -- 91	[pos="1099.4,797.33 1062.2,797.55 995.6,797.93 958.3,798.14"];
	116	[height=0.5,
		pos="1188.6,777.11",
		width=0.75];
	10 -- 116	[pos="1151.1,789.25 1155.5,787.85 1160,786.39 1164.3,784.99"];
	121	[height=0.5,
		pos="1349.6,837.8",
		width=0.75];
	10 -- 121	[pos="1153.1,802 1196.1,809.84 1280.7,825.26 1323.5,833.05"];
	134	[height=0.5,
		pos="1266.8,922.54",
		width=0.75];
	10 -- 134	[pos="1143,811.8 1170,835.96 1223.6,883.91 1250.6,908.01"];
	10 -- 165	[pos="1118.2,814.37 1101.7,848.01 1065.5,922.18 1049,955.88"];
	168	[height=0.5,
		pos="841.34,916.32",
		width=0.75];
	10 -- 168	[pos="1103.3,806.93 1049.6,829.33 918.16,884.24 864.61,906.61"];
	10 -- 169	[pos="1142.4,782.12 1159.1,766.24 1185.2,741.4 1201.8,725.6"];
	10 -- 170	[pos="1106.9,784.39 1068.3,759.29 983.06,703.88 944.62,678.9"];
	192	[height=0.5,
		pos="903.35,925.66",
		width=0.75];
	10 -- 192	[pos="1106,809.03 1063.5,833.51 966.39,889.38 923.91,913.83"];
	205	[height=0.5,
		pos="970.22,967.1",
		width=0.75];
	10 -- 205	[pos="1112.5,812.56 1082.8,844.75 1014.6,918.91 984.68,951.39"];
	10 -- 217	[pos="1110.6,782.53 1085.9,760.02 1038.9,717.13 1014.1,694.5"];
	11	[height=0.5,
		pos="1201,288.61",
		width=0.75];
	66	[height=0.5,
		pos="1216.5,446.69",
		width=0.75];
	11 -- 66	[pos="1202.8,306.74 1205.7,337.07 1211.7,397.77 1214.7,428.28"];
	83	[height=0.5,
		pos="1355.8,360.71",
		width=0.75];
	11 -- 83	[pos="1223.2,298.94 1252.6,312.65 1304.3,336.7 1333.7,350.4"];
	11 -- 144	[pos="1176.9,280.04 1150.7,270.76 1109.2,256.03 1083.1,246.73"];
	145	[height=0.5,
		pos="1440.7,360.39",
		width=0.75];
	11 -- 145	[pos="1225.7,296.02 1271.7,309.78 1369.6,339.11 1415.7,352.91"];
	11 -- 171	[pos="1181.7,301.64 1146.3,325.51 1071.5,375.97 1036.3,399.71"];
	196	[height=0.5,
		pos="911.18,235.41",
		width=0.75];
	11 -- 196	[pos="1174.7,283.8 1119.7,273.69 992.73,250.38 937.56,240.26"];
	12	[height=0.5,
		pos="1173.1,155.95",
		width=0.75];
	67	[height=0.5,
		pos="1211.7,200.11",
		width=0.75];
	12 -- 67	[pos="1187,171.89 1190.6,175.94 1194.4,180.3 1197.9,184.34"];
	71	[height=0.5,
		pos="1013.3,18",
		width=0.75];
	12 -- 71	[pos="1156.3,141.45 1125.5,114.88 1060.5,58.726 1029.9,32.308"];
	12 -- 93	[pos="1152.9,168.23 1145.8,172.59 1137.8,177.49 1130.6,181.85"];
	142	[height=0.5,
		pos="1358.5,202.47",
		width=0.75];
	12 -- 142	[pos="1198.5,162.32 1233.9,171.2 1297.7,187.22 1333.1,196.1"];
	12 -- 161	[pos="1178.2,173.79 1188.5,209.34 1211.5,288.68 1221.8,324.19"];
	172	[height=0.5,
		pos="1259.2,61.274",
		width=0.75];
	12 -- 172	[pos="1187.3,140.32 1203.3,122.77 1229,94.482 1245,76.931"];
	229	[height=0.5,
		pos="1030.3,62.037",
		width=0.75];
	12 -- 229	[pos="1153.8,143.28 1126.6,125.36 1077,92.78 1049.7,74.802"];
	13	[height=0.5,
		pos="1154.5,458.22",
		width=0.75];
	13 -- 59	[pos="1181.5,458.18 1216.8,458.12 1278.2,458.02 1313.5,457.96"];
	13 -- 68	[pos="1127.2,456.94 1088.6,455.13 1018.2,451.83 979.57,450.02"];
	13 -- 101	[pos="1129.1,464.76 1107.7,470.27 1077.2,478.11 1055.8,483.62"];
	120	[height=0.5,
		pos="1230.6,540.94",
		width=0.75];
	13 -- 120	[pos="1168.8,473.78 1182.4,488.57 1202.8,510.69 1216.4,525.45"];
	13 -- 152	[pos="1150.7,440.14 1145.4,414.85 1135.8,369.2 1130.5,344.03"];
	13 -- 176	[pos="1128.5,463.53 1091.2,471.18 1022.6,485.22 985.15,492.88"];
	187	[height=0.5,
		pos="1168.5,516.85",
		width=0.75];
	13 -- 187	[pos="1158.8,476.13 1160.5,483.4 1162.5,491.79 1164.3,499.05"];
	14	[height=0.5,
		pos="849,265.3",
		width=0.75];
	14 -- 53	[pos="851.02,283.54 852.43,296.24 854.3,313.11 855.71,325.79"];
	69	[height=0.5,
		pos="1015.3,106.06",
		width=0.75];
	14 -- 69	[pos="864.64,250.32 896.33,219.97 967.79,151.53 999.55,121.12"];
	127	[height=0.5,
		pos="996.48,194.08",
		width=0.75];
	14 -- 127	[pos="871.08,254.64 898.88,241.21 946.38,218.28 974.25,204.81"];
	14 -- 177	[pos="833.31,280.25 802.53,309.57 734.57,374.31 703.92,403.49"];
	186	[height=0.5,
		pos="795.77,111.52",
		width=0.75];
	14 -- 186	[pos="842.89,247.66 832.68,218.15 812.25,159.11 801.97,129.43"];
	201	[height=0.5,
		pos="842.61,504.35",
		width=0.75];
	14 -- 201	[pos="848.51,283.66 847.32,328.27 844.28,441.93 843.1,486.26"];
	211	[height=0.5,
		pos="626.37,441.69",
		width=0.75];
	14 -- 211	[pos="831.53,279.14 789.91,312.12 685.29,395.01 643.76,427.92"];
	233	[height=0.5,
		pos="882.23,147.34",
		width=0.75];
	14 -- 233	[pos="854.05,247.39 860.33,225.09 870.99,187.24 877.25,165.04"];
	15	[height=0.5,
		pos="1313.6,531.22",
		width=0.75];
	70	[height=0.5,
		pos="1444.2,587.15",
		width=0.75];
	15 -- 70	[pos="1336.3,540.96 1360.2,551.16 1397.4,567.1 1421.3,577.33"];
	15 -- 83	[pos="1318,513.29 1326.1,480.54 1343.3,411.41 1351.4,378.65"];
	15 -- 103	[pos="1298,516.22 1272.4,491.45 1221.4,442.28 1195.8,417.57"];
	110	[height=0.5,
		pos="1312.7,758.06",
		width=0.75];
	15 -- 110	[pos="1313.5,549.4 1313.3,591.87 1312.9,697.23 1312.7,739.79"];
	140	[height=0.5,
		pos="1297.7,710.7",
		width=0.75];
	15 -- 140	[pos="1312,549.41 1308.9,583.9 1302.3,658.4 1299.2,692.72"];
	148	[height=0.5,
		pos="1464.6,450.56",
		width=0.75];
	15 -- 148	[pos="1334.9,519.83 1363.7,504.46 1414.7,477.23 1443.4,461.89"];
	15 -- 178	[pos="1286.9,534.82 1222.2,543.57 1057.6,565.81 992.78,574.56"];
	180	[height=0.5,
		pos="1390.2,631.18",
		width=0.75];
	15 -- 180	[pos="1325.9,547.28 1340.1,565.82 1363.4,596.16 1377.7,614.83"];
	207	[height=0.5,
		pos="1404.8,270.45",
		width=0.75];
	15 -- 207	[pos="1319.9,513.29 1336.6,465.54 1382,335.65 1398.6,288.15"];
	220	[height=0.5,
		pos="1116.9,282.15",
		width=0.75];
	15 -- 220	[pos="1301,515.26 1265.5,470.38 1165.2,343.41 1129.6,298.3"];
	16	[height=0.5,
		pos="857.82,103.33",
		width=0.75];
	16 -- 60	[pos="838.49,115.93 808.76,135.3 752.15,172.19 722.28,191.65"];
	16 -- 71	[pos="878.79,91.824 908.55,75.493 962.71,45.768 992.42,29.462"];
	16 -- 179	[pos="879.32,114.36 893.68,121.73 912.49,131.38 926.88,138.76"];
	16 -- 182	[pos="850.92,120.98 842.33,142.95 827.74,180.23 819.19,202.1"];
	17	[height=0.5,
		pos="165.49,394.72",
		width=0.75];
	75	[height=0.5,
		pos="107.29,438.91",
		width=0.75];
	17 -- 75	[pos="147.39,408.46 140.32,413.83 132.23,419.98 125.17,425.33"];
	17 -- 77	[pos="182.43,409.07 206.12,429.14 248.88,465.36 272.46,485.33"];
	86	[height=0.5,
		pos="376.58,225.78",
		width=0.75];
	17 -- 86	[pos="183.12,380.61 222.95,348.73 319.5,271.47 359.14,239.74"];
	17 -- 112	[pos="190.89,401.23 212.3,406.71 242.77,414.51 264.17,419.99"];
	130	[height=0.5,
		pos="216.25,337.57",
		width=0.75];
	17 -- 130	[pos="179.36,379.1 186.52,371.04 195.24,361.23 202.4,353.16"];
	17 -- 154	[pos="192.59,393.53 245.15,391.23 360.34,386.19 413.05,383.88"];
	17 -- 183	[pos="182.22,380.04 205.22,359.86 246.34,323.78 269.26,303.67"];
	194	[height=0.5,
		pos="141.16,292.43",
		width=0.75];
	17 -- 194	[pos="161.25,376.9 156.81,358.24 149.88,329.1 145.43,310.39"];
	17 -- 218	[pos="163.82,412.78 161.73,435.53 158.15,474.38 156.05,497.18"];
	225	[height=0.5,
		pos="45.206,454.5",
		width=0.75];
	17 -- 225	[pos="143.7,405.55 122.04,416.31 88.981,432.75 67.232,443.56"];
	247	[height=0.5,
		pos="114.05,350.71",
		width=0.75];
	17 -- 247	[pos="148.64,380.31 142.9,375.4 136.49,369.91 130.75,365.01"];
	18	[height=0.5,
		pos="92.28,498.57",
		width=0.75];
	18 -- 75	[pos="96.783,480.67 98.683,473.12 100.89,464.35 102.79,456.8"];
	18 -- 76	[pos="114.77,508.87 142.27,521.46 188.55,542.65 215.96,555.2"];
	18 -- 175	[pos="111.09,485.3 136.93,467.05 183.13,434.44 208.88,416.25"];
	184	[height=0.5,
		pos="27,535.36",
		width=0.75];
	18 -- 184	[pos="71.625,510.21 64.005,514.51 55.373,519.37 47.745,523.67"];
	222	[height=0.5,
		pos="81.454,696.74",
		width=0.75];
	18 -- 222	[pos="91.281,516.86 89.219,554.61 84.511,640.78 82.451,678.5"];
	230	[height=0.5,
		pos="51.997,311.52",
		width=0.75];
	18 -- 230	[pos="88.418,480.64 80.718,444.88 63.538,365.11 55.848,329.4"];
	18 -- 247	[pos="94.949,480.44 99.127,452.06 107.17,397.46 111.36,368.99"];
	19	[height=0.5,
		pos="447.2,673.04",
		width=0.75];
	19 -- 78	[pos="473.71,668.94 514.59,662.61 592.56,650.54 633.44,644.21"];
	79	[height=0.5,
		pos="336.77,850.64",
		width=0.75];
	19 -- 79	[pos="436.81,689.75 415.76,723.6 368.3,799.93 347.21,833.85"];
	19 -- 87	[pos="431.19,687.69 425.51,692.89 419.13,698.73 413.45,703.93"];
	109	[height=0.5,
		pos="398.93,891.98",
		width=0.75];
	19 -- 109	[pos="443.25,690.96 434.17,732.11 411.93,833.02 402.87,874.12"];
	124	[height=0.5,
		pos="211.29,653.31",
		width=0.75];
	19 -- 124	[pos="420.14,670.78 374.75,666.98 283.82,659.38 238.4,655.58"];
	19 -- 156	[pos="467.08,660.59 491.69,645.18 533.35,619.08 558.04,603.61"];
	185	[height=0.5,
		pos="599.34,714.35",
		width=0.75];
	19 -- 185	[pos="472.32,679.86 500.51,687.52 545.97,699.86 574.18,707.52"];
	19 -- 211	[pos="459.8,656.77 492.69,614.3 580.9,500.4 613.79,457.94"];
	20	[height=0.5,
		pos="635.82,131.77",
		width=0.75];
	20 -- 81	[pos="626.6,148.77 618.69,163.34 607.36,184.23 599.46,198.8"];
	106	[height=0.5,
		pos="601.43,63.155",
		width=0.75];
	20 -- 106	[pos="627.14,114.46 621.97,104.13 615.42,91.066 610.22,80.702"];
	20 -- 186	[pos="662.59,128.38 692.21,124.63 739.64,118.63 769.18,114.89"];
	20 -- 189	[pos="646.96,148.3 661.99,170.62 688.63,210.16 703.63,232.44"];
	21	[height=0.5,
		pos="461.02,924.09",
		width=0.75];
	21 -- 79	[pos="440.78,912.13 417.68,898.47 380.1,876.26 357,862.6"];
	21 -- 84	[pos="451.57,907.09 439.88,886.05 420.08,850.43 408.34,829.32"];
	94	[height=0.5,
		pos="523.82,971.32",
		width=0.75];
	21 -- 94	[pos="479.19,937.75 487.44,943.96 497.2,951.3 505.48,957.52"];
	21 -- 158	[pos="486.44,930.27 539.77,943.24 662.83,973.18 716.29,986.18"];
	21 -- 190	[pos="460.89,905.87 460.6,866.9 459.94,775.86 459.65,736.93"];
	21 -- 200	[pos="461.04,906.07 461.07,878.86 461.11,827.54 461.14,800.15"];
	22	[height=0.5,
		pos="693.41,946.99",
		width=0.75];
	22 -- 85	[pos="680.34,930.93 648.6,891.92 567.72,792.53 536.17,753.76"];
	92	[height=0.5,
		pos="457.73,1014.8",
		width=0.75];
	22 -- 92	[pos="668.19,954.25 622.82,967.29 528,994.57 482.77,1007.6"];
	22 -- 95	[pos="720.6,947.42 730.73,947.58 742.22,947.76 752.33,947.92"];
	22 -- 168	[pos="719.52,941.58 746.56,935.97 788.55,927.27 815.5,921.68"];
	22 -- 191	[pos="670.76,937.09 638.14,922.84 578.28,896.67 545.61,882.39"];
	23	[height=0.5,
		pos="652.37,249.18",
		width=0.75];
	23 -- 50	[pos="631.15,260.43 613.26,269.91 587.8,283.41 569.92,292.88"];
	23 -- 86	[pos="625.42,246.9 572.7,242.42 456.45,232.56 403.63,228.08"];
	23 -- 96	[pos="643.45,266.31 626.58,298.69 590.2,368.52 573.32,400.93"];
	23 -- 159	[pos="641.19,232.8 625.36,209.62 596.59,167.47 580.71,144.21"];
	23 -- 196	[pos="679.58,247.74 729.29,245.09 834.23,239.51 883.95,236.86"];
	23 -- 231	[pos="659.18,266.86 660.29,269.73 661.44,272.71 662.54,275.58"];
	24	[height=0.5,
		pos="317.58,894.66",
		width=0.75];
	24 -- 56	[pos="343.52,899.89 402.56,911.77 546.36,940.72 605.42,952.61"];
	24 -- 92	[pos="334.2,908.91 361.18,932.03 414.16,977.44 441.12,1000.5"];
	24 -- 151	[pos="321.36,876.41 324.52,861.2 328.99,839.64 332.13,824.52"];
	24 -- 197	[pos="309.95,876.9 301.92,858.18 289.34,828.88 281.34,810.24"];
	24 -- 210	[pos="316.98,876.38 315.28,823.88 310.4,673.12 308.7,620.63"];
	228	[height=0.5,
		pos="229.06,894",
		width=0.75];
	24 -- 228	[pos="290.54,894.46 279.66,894.38 267.13,894.29 256.24,894.21"];
	25	[height=0.5,
		pos="1282.7,802.41",
		width=0.75];
	25 -- 52	[pos="1272.4,785.44 1248.4,745.7 1188.8,646.98 1165,607.45"];
	97	[height=0.5,
		pos="1390.9,924.69",
		width=0.75];
	25 -- 97	[pos="1296.8,818.4 1317.7,841.96 1356.4,885.74 1377.1,909.09"];
	25 -- 134	[pos="1280.3,820.4 1277.3,843.04 1272.2,881.73 1269.2,904.43"];
	25 -- 140	[pos="1285.6,784.29 1288.3,768.21 1292.1,744.85 1294.7,728.78"];
	25 -- 198	[pos="1304.5,791.68 1319,784.51 1338.1,775.12 1352.7,767.93"];
	206	[height=0.5,
		pos="1416.2,880.38",
		width=0.75];
	25 -- 206	[pos="1303.3,814.42 1328.4,829.12 1370.7,853.84 1395.8,868.48"];
	237	[height=0.5,
		pos="1188.8,824.72",
		width=0.75];
	25 -- 237	[pos="1257,808.51 1243.8,811.66 1227.7,815.49 1214.4,818.63"];
	25 -- 248	[pos="1260.7,812.86 1233,826.02 1185.7,848.49 1157.9,861.68"];
	26	[height=0.5,
		pos="569.38,920.18",
		width=0.75];
	26 -- 74	[pos="550.97,906.49 530.89,891.56 498.96,867.81 478.99,852.96"];
	100	[height=0.5,
		pos="281.21,938.71",
		width=0.75];
	26 -- 100	[pos="542.27,921.93 487.35,925.46 363.5,933.42 308.46,936.95"];
	26 -- 109	[pos="543.12,915.84 511.09,910.54 457.26,901.63 425.22,896.33"];
	26 -- 162	[pos="591.85,909.86 647.4,884.35 790.67,818.54 846.06,793.1"];
	199	[height=0.5,
		pos="688.74,1043",
		width=0.75];
	26 -- 199	[pos="584.25,935.49 607.25,959.14 651.17,1004.3 674.06,1027.9"];
	27	[height=0.5,
		pos="795.79,700.18",
		width=0.75];
	27 -- 91	[pos="814.31,713.62 840.21,732.41 886.95,766.32 912.72,785.02"];
	27 -- 102	[pos="768.57,700.45 747.89,700.65 719.58,700.92 698.91,701.12"];
	27 -- 113	[pos="799.74,718.07 805.03,742.08 814.38,784.51 819.71,808.68"];
	27 -- 185	[pos="768.89,702.12 731.37,704.83 663.74,709.71 626.23,712.41"];
	27 -- 201	[pos="800.11,682.11 809.03,644.81 829.39,559.65 838.3,522.38"];
	27 -- 241	[pos="806.86,683.41 817.03,668.01 832.01,645.3 842.16,629.91"];
	28	[height=0.5,
		pos="586.48,260.08",
		width=0.75];
	28 -- 106	[pos="587.86,241.91 590.71,204.39 597.21,118.76 600.05,81.284"];
	143	[height=0.5,
		pos="758.49,562.75",
		width=0.75];
	28 -- 143	[pos="596.22,277.22 626.5,330.49 718.73,492.78 748.86,545.8"];
	28 -- 188	[pos="562.52,268.58 535.63,278.11 492.27,293.49 465.37,303.02"];
	28 -- 202	[pos="563.02,251.09 546.8,244.87 525.3,236.62 509.03,230.38"];
	224	[height=0.5,
		pos="527.03,83.653",
		width=0.75];
	28 -- 224	[pos="580.45,242.19 569.03,208.29 544.35,135.06 532.98,101.33"];
	28 -- 226	[pos="577.66,277.43 559.45,313.25 517.89,395 499.7,430.78"];
	29	[height=0.5,
		pos="1041.8,723.92",
		width=0.75];
	29 -- 57	[pos="1019.1,713.9 970.68,692.47 857.53,642.4 809.15,620.99"];
	107	[height=0.5,
		pos="1067.9,842.3",
		width=0.75];
	29 -- 107	[pos="1045.7,741.9 1050.6,764.15 1058.9,801.82 1063.9,824.15"];
	29 -- 167	[pos="1014.6,726.21 968.31,730.12 874.5,738.05 828.25,741.96"];
	29 -- 203	[pos="1039.6,741.92 1035.9,773.13 1028.4,836.95 1024.7,868.22"];
	29 -- 234	[pos="1063.8,713.54 1083.6,704.24 1112.5,690.65 1132.4,681.3"];
	29 -- 237	[pos="1060.7,736.89 1088.9,756.25 1141.7,792.47 1169.9,811.8"];
	240	[height=0.5,
		pos="1204.8,906.23",
		width=0.75];
	29 -- 240	[pos="1055.7,739.46 1086.5,773.91 1160.2,856.32 1190.9,890.73"];
	30	[height=0.5,
		pos="810.4,872.24",
		width=0.75];
	30 -- 80	[pos="784.36,866.74 763.17,862.26 733.39,855.98 712.2,851.5"];
	30 -- 108	[pos="793.59,857.96 764.97,833.65 707.08,784.48 678.34,760.07"];
	138	[height=0.5,
		pos="750.81,1036.4",
		width=0.75];
	30 -- 138	[pos="804.02,889.81 792.61,921.25 768.83,986.79 757.32,1018.5"];
	30 -- 199	[pos="798.74,888.61 775.48,921.24 723.6,994.06 700.37,1026.6"];
	30 -- 205	[pos="830.64,884.25 861.3,902.45 919.18,936.81 949.89,955.04"];
	209	[height=0.5,
		pos="960.54,881.62",
		width=0.75];
	30 -- 209	[pos="837.59,873.94 864.8,875.64 906.41,878.24 933.55,879.94"];
	30 -- 212	[pos="834.7,863.75 875.56,849.49 957.53,820.87 998.2,806.67"];
	31	[height=0.5,
		pos="1328.9,887.98",
		width=0.75];
	31 -- 97	[pos="1349.2,900 1356,904.02 1363.5,908.49 1370.3,912.52"];
	31 -- 110	[pos="1326.6,869.92 1323.5,845.23 1318,801.21 1314.9,776.39"];
	149	[height=0.5,
		pos="1478.3,851.91",
		width=0.75];
	31 -- 149	[pos="1354.5,881.78 1381.9,875.17 1425,864.77 1452.4,858.15"];
	31 -- 157	[pos="1304.7,896.5 1269.8,908.8 1205.6,931.41 1170.8,943.67"];
	31 -- 206	[pos="1356,885.62 1366.6,884.69 1378.8,883.64 1389.4,882.72"];
	31 -- 240	[pos="1302.2,891.9 1281.3,894.98 1252.3,899.25 1231.4,902.32"];
	32	[height=0.5,
		pos="1210.7,111.89",
		width=0.75];
	32 -- 69	[pos="1183.6,111.08 1146.3,109.97 1079.8,107.99 1042.5,106.88"];
	111	[height=0.5,
		pos="1072.3,150.09",
		width=0.75];
	32 -- 111	[pos="1185.7,118.8 1160.7,125.68 1122.7,136.18 1097.7,143.09"];
	32 -- 172	[pos="1225.3,96.701 1231.4,90.295 1238.5,82.853 1244.7,76.449"];
	32 -- 207	[pos="1228,125.96 1264.8,156.05 1350.8,226.34 1387.6,256.41"];
	33	[height=0.5,
		pos="413.61,426.71",
		width=0.75];
	33 -- 90	[pos="402.2,443.18 391.35,458.84 375.13,482.25 364.3,497.89"];
	33 -- 114	[pos="394.99,439.78 387.14,445.3 378.02,451.7 370.17,457.22"];
	33 -- 130	[pos="390.97,416.48 352.9,399.29 276.52,364.79 238.63,347.67"];
	33 -- 163	[pos="389.27,434.95 352.31,447.47 282.44,471.13 245.6,483.61"];
	33 -- 208	[pos="440.04,422.76 502.84,413.38 660.5,389.83 723.65,380.4"];
	33 -- 235	[pos="402.92,443.38 386.78,468.55 356.34,516.03 340.1,541.37"];
	34	[height=0.5,
		pos="1412.7,316.34",
		width=0.75];
	34 -- 115	[pos="1400.1,332.42 1374.5,364.98 1316.8,438.41 1291.2,471.04"];
	34 -- 118	[pos="1387.5,309.46 1364,303.04 1329.1,293.49 1305.6,287.08"];
	123	[height=0.5,
		pos="1342.7,294.47",
		width=0.75];
	34 -- 123	[pos="1388.2,308.69 1381.4,306.58 1374,304.28 1367.3,302.16"];
	34 -- 142	[pos="1404.4,299.05 1394.3,277.65 1377,241.41 1366.8,219.93"];
	34 -- 213	[pos="1412.3,334.69 1412,349.98 1411.6,371.65 1411.3,386.85"];
	214	[height=0.5,
		pos="1402.6,479.71",
		width=0.75];
	34 -- 214	[pos="1411.6,334.45 1409.6,365.85 1405.6,430.06 1403.7,461.52"];
	35	[height=0.5,
		pos="1216.9,628.98",
		width=0.75];
	35 -- 116	[pos="1213.5,646.85 1208.1,675.32 1197.5,730.67 1192.1,759.18"];
	35 -- 120	[pos="1219.7,610.74 1222.1,595.53 1225.5,573.98 1227.8,558.86"];
	35 -- 141	[pos="1194.9,618.29 1157.3,600.03 1081.3,563.06 1043.8,544.83"];
	35 -- 147	[pos="1244.1,627.41 1261,626.44 1282.6,625.19 1299.5,624.21"];
	35 -- 214	[pos="1234.4,614.94 1269.8,586.41 1350,522 1385.3,493.6"];
	238	[height=0.5,
		pos="1091.9,679.72",
		width=0.75];
	35 -- 238	[pos="1193.7,638.4 1171.2,647.52 1137.4,661.25 1115,670.34"];
	36	[height=0.5,
		pos="1459.8,731.32",
		width=0.75];
	36 -- 70	[pos="1457.9,713.35 1454.9,685.73 1449.2,633.11 1446.2,605.35"];
	36 -- 121	[pos="1444,746.58 1423,766.93 1385.9,802.75 1365,822.92"];
	36 -- 149	[pos="1462.6,749.37 1466.1,772.11 1472,810.94 1475.5,833.73"];
	36 -- 180	[pos="1448.3,714.78 1435.4,696.23 1414.6,666.3 1401.7,647.74"];
	215	[height=0.5,
		pos="1544.2,600.89",
		width=0.75];
	36 -- 215	[pos="1470.7,714.54 1486.9,689.49 1517.2,642.62 1533.3,617.61"];
	37	[height=0.5,
		pos="1080.8,585.34",
		width=0.75];
	37 -- 66	[pos="1095.6,570.24 1121.7,543.57 1175.7,488.43 1201.7,461.77"];
	37 -- 122	[pos="1083.4,567.35 1088.1,534.48 1097.9,465.09 1102.6,432.2"];
	37 -- 187	[pos="1098.6,571.48 1113.8,559.6 1135.6,542.57 1150.8,530.69"];
	216	[height=0.5,
		pos="919.81,710.25",
		width=0.75];
	37 -- 216	[pos="1063,599.19 1032,623.2 968.75,672.29 937.74,696.35"];
	38	[height=0.5,
		pos="1090.3,370.19",
		width=0.75];
	38 -- 67	[pos="1101.9,353.88 1125.1,321.37 1176.9,248.84 1200.1,216.37"];
	38 -- 123	[pos="1115,362.79 1163.2,348.32 1269.6,316.4 1317.9,301.9"];
	38 -- 219	[pos="1086.3,388 1075.4,436.19 1045.5,568.77 1034.5,617.28"];
	244	[height=0.5,
		pos="1218.5,244.56",
		width=0.75];
	38 -- 244	[pos="1105.5,355.29 1130.2,331.11 1178.7,283.61 1203.3,259.45"];
	38 -- 245	[pos="1066.1,378.66 1024.8,393.11 941.23,422.39 900.01,436.82"];
	39	[height=0.5,
		pos="89.557,577.86",
		width=0.75];
	39 -- 64	[pos="111.28,588.82 117.3,591.85 123.83,595.15 129.85,598.19"];
	39 -- 124	[pos="109.39,590.15 132.03,604.18 168.84,627 191.47,641.03"];
	39 -- 184	[pos="70.448,564.88 62.687,559.6 53.741,553.53 45.992,548.26"];
	39 -- 221	[pos="99.849,594.97 110.69,613 127.67,641.23 138.47,659.19"];
	39 -- 225	[pos="83.203,560.18 74.772,536.73 59.974,495.58 51.549,472.14"];
	40	[height=0.5,
		pos="561.29,171.73",
		width=0.75];
	40 -- 54	[pos="569.26,189.16 583.82,220.99 614.57,288.2 629.14,320.05"];
	40 -- 125	[pos="534.06,172.22 512.28,172.6 481.87,173.14 460.09,173.53"];
	131	[height=0.5,
		pos="341.4,170.26",
		width=0.75];
	40 -- 131	[pos="533.89,171.55 491.52,171.27 410.62,170.73 368.46,170.44"];
	136	[height=0.5,
		pos="762.58,159.89",
		width=0.75];
	40 -- 136	[pos="588.44,170.13 626.96,167.87 697.08,163.74 735.54,161.48"];
	40 -- 223	[pos="556.67,189.71 545.65,232.54 517.96,340.21 506.97,382.95"];
	40 -- 224	[pos="554.36,153.91 548.37,138.53 539.78,116.44 533.83,101.15"];
	40 -- 246	[pos="544.05,185.85 521.97,203.95 483.9,235.14 461.78,253.26"];
	41	[height=0.5,
		pos="230.12,837.09",
		width=0.75];
	41 -- 100	[pos="238.79,854.33 248.18,873.01 263.09,902.67 272.5,921.38"];
	41 -- 126	[pos="223.21,819.66 217.9,806.29 210.6,787.89 205.27,774.45"];
	41 -- 222	[pos="214.49,822.34 186.01,795.45 125.97,738.77 97.321,711.72"];
	41 -- 228	[pos="229.78,855.1 229.66,861.74 229.52,869.27 229.4,875.92"];
	42	[height=0.5,
		pos="883.69,191.37",
		width=0.75];
	42 -- 73	[pos="893.54,208.35 902.59,223.94 915.92,246.92 924.95,262.5"];
	42 -- 129	[pos="864.98,204.37 836.22,224.35 781.44,262.41 752.53,282.49"];
	42 -- 136	[pos="858.3,184.77 837.63,179.4 808.59,171.85 787.93,166.48"];
	42 -- 220	[pos="907.33,200.58 952.13,218.02 1048.9,255.7 1093.5,273.06"];
	42 -- 229	[pos="900.22,176.79 928.38,151.95 985.33,101.71 1013.6,76.767"];
	43	[height=0.5,
		pos="220.12,277.77",
		width=0.75];
	43 -- 128	[pos="239.07,290.62 255.2,301.55 278.28,317.2 294.5,328.19"];
	43 -- 131	[pos="236.48,263.27 259.63,242.75 301.7,205.46 324.92,184.88"];
	43 -- 194	[pos="193.83,282.65 185.31,284.24 175.85,285.99 167.34,287.57"];
	43 -- 230	[pos="194.22,282.97 162.63,289.31 109.53,299.97 77.927,306.31"];
	44	[height=0.5,
		pos="748.35,884.31",
		width=0.75];
	44 -- 88	[pos="730.59,870.66 699.22,846.55 634.39,796.7 603.04,772.6"];
	44 -- 132	[pos="765.17,898.79 783.51,914.58 812.69,939.7 830.93,955.41"];
	44 -- 138	[pos="748.64,902.36 749.11,931.64 750.04,989.15 750.51,1018.4"];
	44 -- 139	[pos="721.36,882.96 691.07,881.45 642.23,879.02 611.93,877.5"];
	44 -- 192	[pos="773.59,891.04 802.42,898.73 849.29,911.24 878.11,918.92"];
	44 -- 232	[pos="725.57,874.59 703.3,865.09 669.57,850.71 647.21,841.17"];
	45	[height=0.5,
		pos="996.79,272.06",
		width=0.75];
	45 -- 111	[pos="1007.1,255.35 1021.5,232.13 1047.4,190.31 1061.8,166.98"];
	45 -- 133	[pos="1019,282.37 1065.7,304.01 1173.4,353.94 1220.1,375.63"];
	45 -- 195	[pos="977.35,285.02 965.57,292.87 950.62,302.83 938.9,310.65"];
	45 -- 233	[pos="982.52,256.51 960.56,232.61 918.75,187.1 896.69,163.08"];
	45 -- 242	[pos="981.81,287.46 947.4,322.85 863.03,409.63 828.66,444.97"];
	46	[height=0.5,
		pos="686.18,789.71",
		width=0.75];
	46 -- 94	[pos="672.34,805.19 641.74,839.42 568.63,921.19 537.86,955.62"];
	46 -- 137	[pos="698.04,773.31 716.59,747.63 752.29,698.23 770.91,672.47"];
	46 -- 216	[pos="710.31,781.51 755.07,766.28 850.54,733.81 895.47,718.53"];
	46 -- 236	[pos="659.4,787.23 603.72,782.08 476.04,770.26 420.15,765.08"];
	47	[height=0.5,
		pos="979.75,754.26",
		width=0.75];
	47 -- 107	[pos="995.1,769.6 1011.3,785.76 1036.6,811.05 1052.7,827.14"];
	47 -- 143	[pos="963.12,739.87 922.01,704.29 816,612.53 775.01,577.05"];
	47 -- 209	[pos="977.04,772.24 973.4,796.38 966.96,839.03 963.3,863.33"];
	47 -- 238	[pos="999.02,741.45 1019.6,727.8 1051.9,706.3 1072.5,692.62"];
	48	[height=0.5,
		pos="1538.3,457.49",
		width=0.75];
	48 -- 58	[pos="1528.5,474.41 1519.8,489.42 1507.2,511.24 1498.5,526.24"];
	48 -- 145	[pos="1523,442.31 1504.7,424.07 1474.1,393.65 1455.8,375.45"];
	48 -- 148	[pos="1511.3,454.95 1504.9,454.35 1498,453.7 1491.6,453.1"];
	48 -- 215	[pos="1539,475.65 1540.2,503.23 1542.3,555.38 1543.4,582.88"];
	48 -- 239	[pos="1517.4,469.3 1507.3,474.97 1495.3,481.75 1485.3,487.41"];
	49	[height=0.5,
		pos="1149.7,238.13",
		width=0.75];
	49 -- 127	[pos="1124.7,230.96 1096.2,222.77 1049.9,209.44 1021.4,201.25"];
	49 -- 146	[pos="1164.1,253.67 1193.8,285.74 1261.7,358.95 1291.5,390.99"];
	49 -- 155	[pos="1128.9,249.86 1100.6,265.89 1050,294.47 1021.5,310.59"];
	49 -- 244	[pos="1176.5,240.64 1181.5,241.1 1186.7,241.59 1191.7,242.06"];
}
