graph {
	graph [bb="0,0,292.97,261.7",
		outputorder=edgesfirst,
		overlap=prism,
		size="50,50!",
		start=6005
	];
	node [label="\N"];
	0	[height=0.5,
		pos="79.5,18",
		width=0.75];
	2	[height=0.5,
		pos="120.59,86.756",
		width=0.75];
	0 -- 2	[pos="89.657,34.996 96.026,45.654 104.2,59.336 110.55,69.956"];
	1	[height=0.5,
		pos="27,88.752",
		width=0.75];
	0 -- 1	[pos="67.323,34.41 58.842,45.84 47.577,61.021 39.11,72.431"];
	4	[height=0.5,
		pos="27.023,172.97",
		width=0.75];
	0 -- 4	[pos="73.48,35.778 63.357,65.672 43.048,125.65 32.972,155.4"];
	3	[height=0.5,
		pos="120.7,175.04",
		width=0.75];
	0 -- 3	[pos="84.226,36.014 92.172,66.306 108.12,127.08 116.03,157.23"];
	6	[height=0.5,
		pos="249.49,43.711",
		width=0.75];
	0 -- 6	[pos="106.06,22.017 138,26.847 191.26,34.904 223.12,39.722"];
	7	[height=0.5,
		pos="176.99,35.544",
		width=0.75];
	0 -- 7	[pos="105.63,22.702 119.61,25.219 136.79,28.31 150.79,30.83"];
	5	[height=0.5,
		pos="79.578,243.7",
		width=0.75];
	2 -- 5	[pos="115.89,104.76 107.97,135.03 92.102,195.77 84.228,225.91"];
	2 -- 3	[pos="120.61,105.05 120.63,120.2 120.66,141.62 120.67,156.77"];
	2 -- 6	[pos="144.83,78.66 167.73,71.013 201.91,59.6 224.92,51.917"];
	10	[height=0.5,
		pos="265.97,130.75",
		width=0.75];
	2 -- 10	[pos="145.25,94.219 171.99,102.31 214.41,115.15 241.19,123.25"];
	1 -- 2	[pos="54.07,88.175 66.487,87.91 81.171,87.597 93.58,87.332"];
	1 -- 4	[pos="27.005,107.03 27.009,121.15 27.014,140.62 27.018,154.74"];
	1 -- 5	[pos="33.031,106.53 43.174,136.42 63.522,196.38 73.617,226.13"];
	1 -- 7	[pos="51.099,80.203 79.089,70.274 124.99,53.992 152.95,44.072"];
	11	[height=0.5,
		pos="173.78,130.76",
		width=0.75];
	1 -- 11	[pos="51.899,95.878 78.89,103.6 121.72,115.86 148.76,123.6"];
	4 -- 5	[pos="39.212,189.38 47.703,200.8 58.979,215.98 67.455,227.39"];
	4 -- 11	[pos="51.918,165.81 78.905,158.05 121.73,145.73 148.76,137.96"];
	8	[height=0.5,
		pos="177.08,226",
		width=0.75];
	4 -- 8	[pos="51.131,181.49 79.133,191.39 125.05,207.62 153.03,217.5"];
	5 -- 8	[pos="105.71,238.96 119.69,236.42 136.88,233.3 150.88,230.76"];
	9	[height=0.5,
		pos="249.77,217.78",
		width=0.75];
	5 -- 9	[pos="106.17,239.65 138.14,234.78 191.47,226.66 223.36,221.8"];
	3 -- 4	[pos="93.603,174.44 81.175,174.17 66.477,173.84 54.056,173.57"];
	3 -- 5	[pos="110.53,192.01 104.16,202.65 95.977,216.32 89.626,226.92"];
	3 -- 10	[pos="145.34,167.53 172.05,159.38 214.44,146.46 241.21,138.3"];
	3 -- 9	[pos="144.97,183.08 167.9,190.67 202.12,202 225.16,209.63"];
	6 -- 10	[pos="252.9,61.745 255.73,76.683 259.73,97.806 262.56,112.74"];
	6 -- 7	[pos="222.49,40.67 216.37,39.98 209.88,39.249 203.77,38.56"];
	6 -- 11	[pos="235.6,59.677 221.86,75.482 200.95,99.522 187.32,115.19"];
	6 -- 9	[pos="249.52,62.01 249.57,95.529 249.69,166.39 249.74,199.73"];
	7 -- 10	[pos="191.29,50.84 207.79,68.502 234.8,97.396 251.41,115.17"];
	7 -- 11	[pos="176.37,53.903 175.8,70.764 174.97,95.616 174.4,112.46"];
	7 -- 8	[pos="177,53.806 177.02,90.211 177.05,171.44 177.07,207.8"];
	8 -- 10	[pos="191.36,210.7 207.85,193.03 234.83,164.12 251.43,146.33"];
	8 -- 11	[pos="176.44,207.64 175.86,190.77 175,165.92 174.41,149.07"];
	8 -- 9	[pos="203.73,222.99 210.05,222.27 216.79,221.51 223.12,220.8"];
	9 -- 10	[pos="253.12,199.75 255.91,184.81 259.84,163.69 262.62,148.76"];
	9 -- 11	[pos="236.18,202.22 222.44,186.48 201.3,162.27 187.5,146.48"];
}
