graph {
	graph [bb="0,0,296.81,278.73",
		outputorder=edgesfirst,
		overlap=prism,
		size="50,50!",
		start=1219
	];
	node [label="\N"];
	0	[height=0.5,
		pos="27,44.068",
		width=0.75];
	1	[height=0.5,
		pos="97.301,44.163",
		width=0.75];
	0 -- 1	[pos="54.381,44.105 59.47,44.112 64.788,44.119 69.879,44.126"];
	4	[height=0.5,
		pos="43.892,112.24",
		width=0.75];
	0 -- 4	[pos="31.438,61.979 33.902,71.92 36.957,84.25 39.425,94.21"];
	5	[height=0.5,
		pos="106.14,106.17",
		width=0.75];
	0 -- 5	[pos="44.564,57.851 57.68,68.143 75.524,82.146 88.628,92.429"];
	2	[height=0.5,
		pos="175.55,34.709",
		width=0.75];
	1 -- 2	[pos="124.23,40.91 132.19,39.948 140.89,38.896 148.83,37.937"];
	1 -- 4	[pos="84.644,60.296 76.13,71.148 64.953,85.394 56.459,96.221"];
	1 -- 5	[pos="99.858,62.099 101.02,70.255 102.39,79.887 103.56,88.063"];
	6	[height=0.5,
		pos="181.52,97.132",
		width=0.75];
	1 -- 6	[pos="117.26,56.716 130.68,65.16 148.31,76.244 161.7,84.669"];
	3	[height=0.5,
		pos="243.65,18",
		width=0.75];
	2 -- 3	[pos="200.91,28.487 206.5,27.114 212.44,25.658 218.04,24.283"];
	2 -- 5	[pos="160.83,49.865 149.05,61.993 132.61,78.918 120.84,91.04"];
	2 -- 6	[pos="177.27,52.764 178.06,60.974 178.98,70.67 179.77,78.901"];
	7	[height=0.5,
		pos="243.53,88.323",
		width=0.75];
	2 -- 7	[pos="193.05,48.516 203.12,56.459 215.74,66.411 225.84,74.377"];
	3 -- 6	[pos="231.08,34.013 220.3,47.742 204.85,67.42 194.07,81.142"];
	3 -- 7	[pos="243.62,36.11 243.6,46.528 243.58,59.581 243.56,70.03"];
	4 -- 5	[pos="70.653,109.63 73.553,109.35 76.505,109.06 79.404,108.78"];
	8	[height=0.5,
		pos="53.148,190.39",
		width=0.75];
	4 -- 8	[pos="46.039,130.36 47.534,142.99 49.52,159.76 51.013,172.36"];
	9	[height=0.5,
		pos="115.15,181.53",
		width=0.75];
	4 -- 9	[pos="59.355,127.27 71.308,138.9 87.776,154.91 99.721,166.52"];
	5 -- 6	[pos="132.93,102.96 140.04,102.11 147.71,101.19 154.82,100.33"];
	5 -- 8	[pos="95.673,122.81 86.382,137.58 72.88,159.03 63.596,173.79"];
	5 -- 9	[pos="108.32,124.42 109.74,136.26 111.58,151.64 112.99,163.46"];
	10	[height=0.5,
		pos="190.63,172.52",
		width=0.75];
	5 -- 10	[pos="123.65,119.92 138.15,131.31 158.65,147.41 173.14,158.79"];
	6 -- 7	[pos="208.17,93.345 211.06,92.935 214,92.517 216.89,92.107"];
	6 -- 9	[pos="168.72,113.4 156.97,128.35 139.65,150.38 127.91,165.31"];
	6 -- 10	[pos="183.72,115.38 185.15,127.23 187.01,142.62 188.44,154.44"];
	11	[height=0.5,
		pos="252.94,166.48",
		width=0.75];
	6 -- 11	[pos="197.01,112.18 208.99,123.81 225.5,139.84 237.47,151.46"];
	7 -- 10	[pos="233.08,104.96 223.86,119.62 210.5,140.89 201.24,155.63"];
	7 -- 11	[pos="245.71,106.45 247.23,119.08 249.25,135.84 250.77,148.45"];
	8 -- 9	[pos="79.804,186.58 82.692,186.17 85.632,185.75 88.52,185.34"];
	12	[height=0.5,
		pos="52.905,260.73",
		width=0.75];
	8 -- 12	[pos="53.085,208.51 53.049,218.93 53.004,231.98 52.968,242.43"];
	13	[height=0.5,
		pos="121.16,243.82",
		width=0.75];
	8 -- 13	[pos="70.663,204.15 80.739,212.07 93.364,221.99 103.47,229.92"];
	9 -- 10	[pos="141.98,178.33 149.09,177.48 156.78,176.56 163.89,175.71"];
	9 -- 12	[pos="102.56,197.56 91.757,211.3 76.278,230.99 65.483,244.73"];
	9 -- 13	[pos="116.89,199.55 117.68,207.74 118.61,217.42 119.41,225.63"];
	14	[height=0.5,
		pos="199.46,234.63",
		width=0.75];
	9 -- 14	[pos="135.13,194.11 148.57,202.58 166.22,213.69 179.63,222.13"];
	10 -- 11	[pos="217.42,169.92 220.32,169.64 223.27,169.36 226.18,169.07"];
	10 -- 13	[pos="175.9,187.64 164.11,199.74 147.66,216.63 135.87,228.72"];
	10 -- 14	[pos="193.18,190.48 194.35,198.65 195.72,208.3 196.88,216.49"];
	15	[height=0.5,
		pos="269.81,234.77",
		width=0.75];
	10 -- 15	[pos="208.2,186.34 221.32,196.65 239.17,210.69 252.28,220.99"];
	11 -- 14	[pos="240.27,182.63 231.74,193.49 220.55,207.75 212.05,218.59"];
	11 -- 15	[pos="257.37,184.42 259.83,194.38 262.88,206.73 265.35,216.71"];
	12 -- 13	[pos="78.321,254.44 83.931,253.05 89.877,251.57 95.497,250.18"];
	13 -- 14	[pos="148.11,240.66 156.07,239.72 164.78,238.7 172.73,237.77"];
	14 -- 15	[pos="226.86,234.68 231.95,234.69 237.28,234.7 242.37,234.71"];
}
