graph {
	graph [bb="0,0,547.96,441.29",
		outputorder=edgesfirst,
		overlap=prism,
		size="50,50!",
		start=5307
	];
	node [label="\N"];
	0	[height=0.5,
		pos="121.72,107.95",
		width=0.75];
	8	[height=0.5,
		pos="303.08,19.193",
		width=0.75];
	0 -- 8	[pos="143.6,97.24 178.46,80.181 246.22,47.019 281.13,29.936"];
	2	[height=0.5,
		pos="303.08,207.8",
		width=0.75];
	0 -- 2	[pos="142.88,119.6 177.83,138.84 247.2,177.03 282.06,196.22"];
	6	[height=0.5,
		pos="192.12,18",
		width=0.75];
	0 -- 6	[pos="134.31,91.865 147.04,75.594 166.63,50.574 179.41,34.244"];
	9	[height=0.5,
		pos="192.87,240.61",
		width=0.75];
	0 -- 9	[pos="130.88,125.02 144.54,150.49 170.11,198.17 183.75,223.6"];
	1	[height=0.5,
		pos="109.56,296.49",
		width=0.75];
	0 -- 1	[pos="120.56,126.02 118.23,162.06 113.05,242.47 110.72,278.46"];
	14	[height=0.5,
		pos="369.2,123.39",
		width=0.75];
	8 -- 14	[pos="313.71,35.933 326.05,55.377 346.28,87.261 358.61,106.69"];
	16	[height=0.5,
		pos="236.6,137.36",
		width=0.75];
	8 -- 16	[pos="293.56,36.123 280.92,58.586 258.73,98.012 246.1,120.46"];
	2 -- 8	[pos="303.08,189.71 303.08,153.66 303.08,73.228 303.08,37.222"];
	3	[height=0.5,
		pos="473.16,122.89",
		width=0.75];
	2 -- 3	[pos="324.97,196.87 357.63,180.57 418.75,150.05 451.36,133.77"];
	12	[height=0.5,
		pos="464.32,243.84",
		width=0.75];
	2 -- 12	[pos="328.99,213.59 359.08,220.32 408.42,231.35 438.48,238.07"];
	5	[height=0.5,
		pos="419.06,371.08",
		width=0.75];
	2 -- 5	[pos="314.84,224.35 337.07,255.65 385.02,323.15 407.27,354.48"];
	15	[height=0.5,
		pos="295.2,379.73",
		width=0.75];
	2 -- 15	[pos="302.25,225.87 300.74,258.89 297.54,328.6 296.03,361.64"];
	3 -- 8	[pos="452.98,110.58 420.25,90.627 355.95,51.425 323.24,31.479"];
	3 -- 14	[pos="446.12,123.02 430.84,123.09 411.79,123.18 396.47,123.25"];
	4	[height=0.5,
		pos="520.96,287.85",
		width=0.75];
	3 -- 4	[pos="478.37,140.85 487.56,172.59 506.57,238.18 515.76,269.9"];
	3 -- 12	[pos="471.84,140.99 470.17,163.8 467.32,202.75 465.65,225.61"];
	11	[height=0.5,
		pos="365.85,267.19",
		width=0.75];
	3 -- 11	[pos="461.06,139.16 440.45,166.88 398.77,222.93 378.07,250.76"];
	14 -- 16	[pos="342.37,126.21 319.36,128.64 286.39,132.11 263.39,134.54"];
	6 -- 8	[pos="219.27,18.292 236.46,18.477 258.62,18.715 275.84,18.9"];
	6 -- 14	[pos="212.44,30.089 246.5,50.364 314.76,90.987 348.86,111.28"];
	6 -- 9	[pos="192.18,36.217 192.32,78.064 192.67,180.66 192.81,222.45"];
	6 -- 16	[pos="198.68,35.612 207.09,58.179 221.59,97.073 230.01,119.67"];
	4 -- 14	[pos="506.68,272.37 477.76,241.03 412.54,170.35 383.55,138.94"];
	4 -- 12	[pos="503.35,274.16 496.59,268.92 488.89,262.93 482.11,257.67"];
	4 -- 5	[pos="503.67,301.97 484.94,317.27 455.2,341.56 436.43,356.89"];
	4 -- 11	[pos="494.3,284.3 465.8,280.5 420.89,274.52 392.43,270.73"];
	7	[height=0.5,
		pos="357.81,423.29",
		width=0.75];
	4 -- 7	[pos="503.81,302.08 472.39,328.17 405.97,383.3 374.73,409.24"];
	12 -- 14	[pos="451.49,227.6 433.24,204.48 399.97,162.35 381.83,139.37"];
	12 -- 15	[pos="446.86,257.87 414.45,283.91 345.35,339.43 312.82,365.57"];
	5 -- 12	[pos="425.36,353.39 434,329.08 449.46,285.61 458.08,261.38"];
	5 -- 11	[pos="410.28,353.93 400.42,334.68 384.52,303.63 374.65,284.38"];
	5 -- 7	[pos="402.32,385.35 393.68,392.71 383.17,401.68 374.52,409.04"];
	5 -- 15	[pos="392.19,372.96 371.55,374.4 343.18,376.38 322.45,377.82"];
	10	[height=0.5,
		pos="213.34,360.96",
		width=0.75];
	5 -- 10	[pos="391.74,369.74 352.29,367.8 279.78,364.23 240.44,362.29"];
	11 -- 14	[pos="366.28,248.98 366.92,221.32 368.14,169.03 368.78,141.45"];
	11 -- 16	[pos="350.77,252.05 325.87,227.03 276.42,177.36 251.58,152.41"];
	9 -- 14	[pos="212.07,227.84 245.99,205.29 316.12,158.68 350.02,136.14"];
	9 -- 11	[pos="219.52,244.7 252.12,249.71 306.97,258.14 339.46,263.14"];
	9 -- 10	[pos="195.93,258.63 199.79,281.31 206.38,320.07 210.25,342.82"];
	13	[height=0.5,
		pos="27,391.83",
		width=0.75];
	9 -- 13	[pos="176.66,255.38 144.87,284.37 74.675,348.37 43.028,377.22"];
	9 -- 16	[pos="200.29,223.09 208.33,204.11 221.09,173.98 229.14,154.96"];
	7 -- 11	[pos="358.74,405.08 360.3,375 363.37,315.29 364.92,285.29"];
	7 -- 9	[pos="343.74,407.71 312.58,373.2 238.02,290.62 206.89,256.14"];
	7 -- 15	[pos="339.02,410.22 331.1,404.7 321.89,398.3 313.97,392.79"];
	7 -- 10	[pos="334.91,413.41 307.86,401.74 263.13,382.44 236.12,370.79"];
	10 -- 11	[pos="233.28,348.7 262.51,330.73 316.68,297.43 345.91,279.46"];
	10 -- 15	[pos="239.24,366.9 248.89,369.11 259.83,371.62 269.47,373.83"];
	10 -- 13	[pos="187.04,365.32 151.62,371.18 88.969,381.56 53.47,387.45"];
	10 -- 16	[pos="215.24,342.66 219.61,300.63 230.33,197.57 234.7,155.6"];
	1 -- 2	[pos="132.14,286.14 169.43,269.05 243.45,235.13 280.65,218.08"];
	1 -- 9	[pos="128.88,283.53 142.34,274.5 160.22,262.51 173.65,253.5"];
	1 -- 15	[pos="132.32,306.69 168.05,322.71 236.88,353.58 272.54,369.57"];
	1 -- 10	[pos="129.57,308.92 147.95,320.33 175.03,337.16 193.39,348.57"];
	1 -- 13	[pos="95.929,312.23 80.631,329.9 55.959,358.39 40.654,376.06"];
}
