graph {
	graph [bb="0,0,1159.9,948.58",
		outputorder=edgesfirst,
		overlap=prism,
		size="50,50!",
		start=7569
	];
	node [label="\N"];
	0	[height=0.5,
		pos="619.1,322.77",
		width=0.75];
	20	[height=0.5,
		pos="893.96,148.12",
		width=0.75];
	0 -- 20	[pos="638.86,310.21 689.58,277.99 823.86,192.66 874.37,160.57"];
	2	[height=0.5,
		pos="512.45,431.85",
		width=0.75];
	0 -- 2	[pos="604.27,337.94 584.01,358.66 547.87,395.62 527.49,416.46"];
	22	[height=0.5,
		pos="375.68,508.32",
		width=0.75];
	0 -- 22	[pos="601.2,336.42 556.18,370.73 438.65,460.32 393.6,494.65"];
	24	[height=0.5,
		pos="580.9,517.96",
		width=0.75];
	0 -- 24	[pos="615.57,340.79 608.29,377.97 591.68,462.85 584.41,499.99"];
	25	[height=0.5,
		pos="724.88,102.73",
		width=0.75];
	0 -- 25	[pos="627.4,305.51 647.17,264.37 696.88,160.97 716.62,119.92"];
	6	[height=0.5,
		pos="649.11,590.77",
		width=0.75];
	0 -- 6	[pos="621.11,340.77 626.57,389.48 641.57,523.47 647.06,572.5"];
	7	[height=0.5,
		pos="466.74,339.97",
		width=0.75];
	0 -- 7	[pos="592.21,325.81 564.44,328.94 521.37,333.81 493.61,336.94"];
	26	[height=0.5,
		pos="559.7,112.03",
		width=0.75];
	0 -- 26	[pos="614.03,304.8 602.81,264.99 575.96,169.73 564.75,129.96"];
	9	[height=0.5,
		pos="450.44,475.61",
		width=0.75];
	0 -- 9	[pos="602.92,337.43 570.69,366.64 498.76,431.82 466.56,461"];
	27	[height=0.5,
		pos="807.66,242.21",
		width=0.75];
	0 -- 27	[pos="641.84,313.05 678.08,297.57 748.54,267.47 784.83,251.96"];
	28	[height=0.5,
		pos="1070.9,306.57",
		width=0.75];
	0 -- 28	[pos="646.34,321.79 726.95,318.9 963.63,310.42 1043.9,307.54"];
	12	[height=0.5,
		pos="670.61,457.37",
		width=0.75];
	0 -- 12	[pos="625.83,340.37 635.7,366.17 654,413.97 663.88,439.77"];
	13	[height=0.5,
		pos="528.44,601.46",
		width=0.75];
	0 -- 13	[pos="613.29,340.63 596.91,390.97 550.52,533.6 534.2,583.75"];
	30	[height=0.5,
		pos="898.76,361.56",
		width=0.75];
	0 -- 30	[pos="645.66,326.46 698.97,333.85 818.46,350.42 871.96,357.84"];
	31	[height=0.5,
		pos="856.74,405.57",
		width=0.75];
	0 -- 31	[pos="643.19,331.17 688.74,347.04 786.98,381.27 832.58,397.16"];
	16	[height=0.5,
		pos="630.98,366.8",
		width=0.75];
	0 -- 16	[pos="623.93,340.68 624.68,343.44 625.45,346.29 626.19,349.05"];
	32	[height=0.5,
		pos="434.24,115.53",
		width=0.75];
	0 -- 32	[pos="605.2,307.2 570.86,268.69 482.29,169.4 448.04,131.01"];
	34	[height=0.5,
		pos="404.69,368.45",
		width=0.75];
	0 -- 34	[pos="593.23,328.28 552.02,337.06 471.91,354.13 430.64,362.92"];
	19	[height=0.5,
		pos="598.69,634.78",
		width=0.75];
	0 -- 19	[pos="617.91,340.9 614.3,396.04 603.49,561.4 599.88,616.61"];
	21	[height=0.5,
		pos="944.85,237.75",
		width=0.75];
	20 -- 21	[pos="903.53,164.98 912.57,180.9 926.07,204.66 935.15,220.66"];
	2 -- 6	[pos="526.05,447.67 552.25,478.13 609.41,544.61 635.56,575.02"];
	2 -- 9	[pos="493.84,444.98 485.99,450.52 476.88,456.95 469.03,462.49"];
	2 -- 12	[pos="538.92,436.12 568.21,440.85 615.1,448.42 644.32,453.13"];
	2 -- 19	[pos="519.95,449.5 536.3,487.98 574.99,579.01 591.27,617.31"];
	3	[height=0.5,
		pos="456.83,581.52",
		width=0.75];
	2 -- 3	[pos="505.85,449.61 495.15,478.41 474.12,535 463.42,563.79"];
	8	[height=0.5,
		pos="503.37,291.01",
		width=0.75];
	2 -- 8	[pos="511.28,413.73 509.54,386.68 506.27,336.07 504.53,309.06"];
	15	[height=0.5,
		pos="647.6,515.85",
		width=0.75];
	2 -- 15	[pos="532.39,444.25 557.94,460.13 601.99,487.5 627.58,503.41"];
	46	[height=0.5,
		pos="485.97,689.51",
		width=0.75];
	2 -- 46	[pos="510.59,449.97 505.72,497.28 492.69,624.12 487.83,671.41"];
	48	[height=0.5,
		pos="550.76,206.32",
		width=0.75];
	2 -- 48	[pos="515.52,413.78 522.69,371.55 540.48,266.79 547.67,224.48"];
	49	[height=0.5,
		pos="380.98,247.94",
		width=0.75];
	2 -- 49	[pos="500.78,415.53 475.83,380.63 417.55,299.1 392.62,264.23"];
	50	[height=0.5,
		pos="747.03,198.14",
		width=0.75];
	2 -- 50	[pos="527.48,416.88 569.75,374.76 689.34,255.62 731.82,213.29"];
	52	[height=0.5,
		pos="832.28,470.94",
		width=0.75];
	2 -- 52	[pos="539.17,435.12 599.37,442.47 745.07,460.28 805.42,467.65"];
	53	[height=0.5,
		pos="393.84,644.17",
		width=0.75];
	2 -- 53	[pos="502.94,448.87 480.73,488.62 425.64,587.24 403.39,627.07"];
	14	[height=0.5,
		pos="709.65,506.38",
		width=0.75];
	2 -- 14	[pos="536.24,440.84 574.24,455.2 648.22,483.16 686.09,497.47"];
	55	[height=0.5,
		pos="674.07,146.73",
		width=0.75];
	2 -- 55	[pos="522.07,414.87 550.82,364.16 635.81,214.22 664.49,163.63"];
	17	[height=0.5,
		pos="342.64,349.02",
		width=0.75];
	2 -- 17	[pos="490.6,421.19 458.08,405.33 397.3,375.68 364.67,359.77"];
	57	[height=0.5,
		pos="243.67,442.79",
		width=0.75];
	2 -- 57	[pos="485.45,432.95 433.93,435.05 322.16,439.6 270.66,441.69"];
	23	[height=0.5,
		pos="257.62,652.45",
		width=0.75];
	22 -- 23	[pos="362.59,524.29 339.9,552 293.5,608.65 270.77,636.4"];
	6 -- 7	[pos="637.14,574.32 604.1,528.87 511.84,402.01 478.75,356.49"];
	6 -- 9	[pos="628.6,578.88 590.43,556.76 508.92,509.51 470.84,487.43"];
	36	[height=0.5,
		pos="932.4,603.01",
		width=0.75];
	6 -- 36	[pos="676.27,591.95 730.42,594.29 851.24,599.51 905.32,601.84"];
	6 -- 17	[pos="631.31,576.73 577.01,533.9 413.95,405.28 360.11,362.8"];
	10	[height=0.5,
		pos="683.73,412.58",
		width=0.75];
	6 -- 10	[pos="652.62,572.71 659.26,538.55 673.57,464.89 680.21,430.7"];
	75	[height=0.5,
		pos="638.08,790.14",
		width=0.75];
	6 -- 75	[pos="648.11,608.82 646.02,646.68 641.18,734.04 639.08,771.99"];
	103	[height=0.5,
		pos="574.5,410.8",
		width=0.75];
	6 -- 103	[pos="641.82,573.19 627.52,538.69 595.94,462.53 581.71,428.19"];
	104	[height=0.5,
		pos="937.2,684.55",
		width=0.75];
	6 -- 104	[pos="673.67,598.77 728.1,616.49 858.33,658.88 912.7,676.58"];
	105	[height=0.5,
		pos="870.21,627.63",
		width=0.75];
	6 -- 105	[pos="675.34,595.15 717.9,602.24 801.48,616.17 844.02,623.26"];
	106	[height=0.5,
		pos="576.07,751.35",
		width=0.75];
	6 -- 106	[pos="641.16,608.26 627.11,639.15 598.06,703.01 584.02,733.88"];
	107	[height=0.5,
		pos="852.27,671.66",
		width=0.75];
	6 -- 107	[pos="672.42,600.05 711.5,615.61 789.81,646.79 828.92,662.36"];
	108	[height=0.5,
		pos="791.29,718.7",
		width=0.75];
	6 -- 108	[pos="665.42,605.45 692.85,630.13 747.87,679.64 775.17,704.2"];
	109	[height=0.5,
		pos="792.11,515",
		width=0.75];
	6 -- 109	[pos="670.52,579.43 697.48,565.14 743.53,540.74 770.56,526.42"];
	110	[height=0.5,
		pos="484.12,792.81",
		width=0.75];
	6 -- 110	[pos="636.16,606.63 605.4,644.3 528.17,738.87 497.24,776.75"];
	112	[height=0.5,
		pos="798.35,870.64",
		width=0.75];
	6 -- 112	[pos="658.22,607.86 684.87,657.82 762.44,803.29 789.17,853.43"];
	63	[height=0.5,
		pos="609.74,864.54",
		width=0.75];
	6 -- 63	[pos="646.53,608.73 639.39,658.34 619.48,796.83 612.33,846.51"];
	7 -- 12	[pos="487.41,351.88 526.48,374.38 610.77,422.91 649.89,445.44"];
	7 -- 19	[pos="474.6,357.53 498.07,409.97 567.46,565 590.87,617.31"];
	37	[height=0.5,
		pos="627.83,234.75",
		width=0.75];
	7 -- 37	[pos="486.17,327.28 517.13,307.06 577.32,267.74 608.33,247.49"];
	7 -- 49	[pos="452.19,324.36 436.32,307.34 411.09,280.26 395.31,263.33"];
	64	[height=0.5,
		pos="305.69,435.36",
		width=0.75];
	7 -- 64	[pos="446.34,352.05 415.36,370.4 356.8,405.09 325.92,423.38"];
	7 -- 10	[pos="491.21,348.16 532.99,362.14 617.63,390.46 659.35,404.42"];
	11	[height=0.5,
		pos="901.39,559",
		width=0.75];
	7 -- 11	[pos="488.29,350.84 562.29,388.12 805.51,510.68 879.71,548.07"];
	89	[height=0.5,
		pos="496.45,106.17",
		width=0.75];
	7 -- 89	[pos="469.02,322.02 474.55,278.5 488.62,167.77 494.16,124.19"];
	114	[height=0.5,
		pos="404.76,159.86",
		width=0.75];
	7 -- 114	[pos="460.68,322.38 448.83,287.94 422.71,212.02 410.84,177.53"];
	115	[height=0.5,
		pos="315.91,290.53",
		width=0.75];
	7 -- 115	[pos="442.5,332.03 414.53,322.86 368.75,307.85 340.59,298.62"];
	116	[height=0.5,
		pos="367.7,464.3",
		width=0.75];
	7 -- 116	[pos="453.99,355.97 434.98,379.84 399.38,424.52 380.39,448.36"];
	117	[height=0.5,
		pos="522.72,62.106",
		width=0.75];
	7 -- 117	[pos="470.41,321.74 480.58,271.27 509.01,130.16 519.11,80.043"];
	119	[height=0.5,
		pos="450.42,428.39",
		width=0.75];
	7 -- 119	[pos="463.44,357.87 460.61,373.21 456.55,395.19 453.72,410.52"];
	120	[height=0.5,
		pos="436.34,62.147",
		width=0.75];
	7 -- 120	[pos="464.74,321.74 459.24,271.4 443.86,130.86 438.35,80.443"];
	122	[height=0.5,
		pos="246.77,249.68",
		width=0.75];
	7 -- 122	[pos="443.61,330.48 401.36,313.14 312.17,276.53 269.91,259.18"];
	123	[height=0.5,
		pos="181.6,267.64",
		width=0.75];
	7 -- 123	[pos="441.43,333.56 387.32,319.83 260.91,287.76 206.85,274.05"];
	77	[height=0.5,
		pos="181.62,407.06",
		width=0.75];
	7 -- 77	[pos="441.18,345.99 387.06,358.72 261.39,388.29 207.22,401.03"];
	9 -- 12	[pos="477.43,473.37 519.81,469.86 601.44,463.1 643.74,459.6"];
	9 -- 16	[pos="470.8,463.34 505.56,442.38 575.98,399.94 610.7,379.02"];
	9 -- 15	[pos="476.62,480.95 514.43,488.67 583.93,502.86 621.63,510.55"];
	9 -- 14	[pos="477.2,478.78 527,484.7 633.34,497.32 683.04,503.22"];
	9 -- 10	[pos="475.85,468.74 520.84,456.59 613.99,431.42 658.71,419.34"];
	9 -- 115	[pos="438.5,459.18 412.97,424.06 353.33,342.01 327.83,306.92"];
	135	[height=0.5,
		pos="773.19,585.08",
		width=0.75];
	9 -- 135	[pos="474.7,483.84 534.66,504.17 689.3,556.62 749.09,576.9"];
	136	[height=0.5,
		pos="394.8,597.64",
		width=0.75];
	9 -- 136	[pos="442.58,492.83 432.04,515.96 413.41,556.83 402.8,580.11"];
	137	[height=0.5,
		pos="155.46,318.98",
		width=0.75];
	9 -- 137	[pos="429.22,464.34 374.93,435.51 231.4,359.3 176.88,330.35"];
	139	[height=0.5,
		pos="255.69,486.92",
		width=0.75];
	9 -- 139	[pos="423.36,477.18 386.26,479.34 320,483.19 282.85,485.35"];
	140	[height=0.5,
		pos="289.68,696.48",
		width=0.75];
	9 -- 140	[pos="438.62,491.85 408.89,532.69 331.26,639.34 301.51,680.21"];
	66	[height=0.5,
		pos="195.42,619.46",
		width=0.75];
	9 -- 66	[pos="429.57,487.38 381.63,514.42 264.09,580.72 216.22,607.72"];
	29	[height=0.5,
		pos="1085.9,427.37",
		width=0.75];
	28 -- 29	[pos="1073.2,324.66 1076,347.43 1080.8,386.33 1083.7,409.16"];
	12 -- 13	[pos="655.67,472.52 628.43,500.12 571.02,558.31 543.61,586.08"];
	12 -- 16	[pos="662.97,439.91 655.96,423.87 645.61,400.23 638.6,384.21"];
	12 -- 19	[pos="663.45,475.03 649.67,509.04 619.58,583.24 605.82,617.19"];
	40	[height=0.5,
		pos="922.19,441.8",
		width=0.75];
	12 -- 40	[pos="697.54,455.71 745.83,452.72 846.65,446.48 895.08,443.48"];
	12 -- 15	[pos="663.71,474.92 660.8,482.32 657.41,490.92 654.5,498.32"];
	18	[height=0.5,
		pos="437.72,526.14",
		width=0.75];
	12 -- 18	[pos="645.69,464.73 600.86,477.97 507.16,505.63 462.47,518.83"];
	12 -- 14	[pos="683.4,473.42 687.76,478.89 692.62,485 696.98,490.47"];
	80	[height=0.5,
		pos="735.01,656.07",
		width=0.75];
	12 -- 80	[pos="676.33,475.01 688.52,512.62 716.95,600.36 729.21,638.19"];
	12 -- 105	[pos="687.29,471.6 724.86,503.65 815.79,581.21 853.45,613.33"];
	161	[height=0.5,
		pos="487.45,187.57",
		width=0.75];
	12 -- 161	[pos="659.43,440.9 626.73,392.74 531.53,252.5 498.72,204.17"];
	68	[height=0.5,
		pos="660.81,741.96",
		width=0.75];
	12 -- 68	[pos="669.99,475.61 668.21,527.01 663.2,672.66 661.43,723.88"];
	127	[height=0.5,
		pos="785.56,148.87",
		width=0.75];
	12 -- 127	[pos="677.12,439.9 697.31,385.73 758.7,220.96 778.98,166.53"];
	145	[height=0.5,
		pos="1008.9,346.23",
		width=0.75];
	12 -- 145	[pos="694.94,449.38 757.21,428.93 921.82,374.84 984.35,354.3"];
	150	[height=0.5,
		pos="1000.4,552.5",
		width=0.75];
	12 -- 150	[pos="695.4,464.52 756.52,482.15 913.9,527.55 975.32,545.26"];
	13 -- 16	[pos="536.15,583.82 555.2,540.23 604.33,427.79 623.33,384.32"];
	13 -- 19	[pos="550.67,612 558.87,615.89 568.16,620.3 576.37,624.19"];
	13 -- 15	[pos="547.06,588.09 569.45,572 606.79,545.18 629.12,529.14"];
	81	[height=0.5,
		pos="495.76,737.1",
		width=0.75];
	13 -- 81	[pos="524.1,619.47 517.85,645.42 506.38,693.03 500.12,719.01"];
	94	[height=0.5,
		pos="482.63,384.17",
		width=0.75];
	13 -- 94	[pos="524.61,583.31 515.97,542.31 495.02,442.93 486.41,402.12"];
	13 -- 106	[pos="534.09,619.25 543.26,648.09 561.27,704.76 570.43,733.59"];
	13 -- 116	[pos="511.54,587.04 480.59,560.63 415.15,504.79 384.37,478.52"];
	128	[height=0.5,
		pos="388.4,420.29",
		width=0.75];
	13 -- 128	[pos="516.01,585.38 489.44,551 427.35,470.68 400.8,436.33"];
	13 -- 136	[pos="501.4,600.69 478.21,600.03 444.98,599.08 421.81,598.41"];
	146	[height=0.5,
		pos="711.15,559.09",
		width=0.75];
	13 -- 146	[pos="554.23,595.48 589.05,587.41 650.73,573.1 685.49,565.04"];
	163	[height=0.5,
		pos="733.83,860.61",
		width=0.75];
	13 -- 163	[pos="541.29,617.67 578.17,664.21 684.11,797.87 720.99,844.41"];
	165	[height=0.5,
		pos="190.68,525.76",
		width=0.75];
	13 -- 165	[pos="502.78,595.71 439.97,581.63 279.08,545.57 216.31,531.5"];
	167	[height=0.5,
		pos="319.97,652.18",
		width=0.75];
	13 -- 167	[pos="502.88,607.68 462.76,617.44 385.46,636.24 345.41,645.99"];
	54	[height=0.5,
		pos="347.2,758.65",
		width=0.75];
	13 -- 54	[pos="511.72,615.97 477.19,645.91 398.38,714.27 363.89,744.18"];
	152	[height=0.5,
		pos="795.53,816.6",
		width=0.75];
	13 -- 152	[pos="545.97,615.58 594.48,654.65 730.12,763.91 778.29,802.71"];
	16 -- 19	[pos="628.81,384.79 622.95,433.5 606.8,567.49 600.89,616.51"];
	42	[height=0.5,
		pos="916.52,317.52",
		width=0.75];
	16 -- 42	[pos="657.34,362.25 711.73,352.86 835.89,331.43 890.24,322.06"];
	16 -- 18	[pos="613.83,380.94 577.16,411.17 491.47,481.82 454.83,512.03"];
	16 -- 109	[pos="647.02,381.55 677.91,409.96 745.3,471.95 776.14,500.31"];
	131	[height=0.5,
		pos="611.99,156.08",
		width=0.75];
	16 -- 131	[pos="629.33,348.46 625.73,308.51 617.21,213.99 613.62,174.22"];
	169	[height=0.5,
		pos="443.21,231.6",
		width=0.75];
	16 -- 169	[pos="612.64,353.59 576.74,327.74 497.59,270.75 461.63,244.86"];
	56	[height=0.5,
		pos="787.2,100.16",
		width=0.75];
	16 -- 56	[pos="640.99,349.71 669.21,301.55 749.16,165.09 777.27,117.1"];
	98	[height=0.5,
		pos="849.58,83.982",
		width=0.75];
	16 -- 98	[pos="643.36,350.78 681.75,301.12 798.5,150.07 837.06,100.17"];
	121	[height=0.5,
		pos="587.97,38.26",
		width=0.75];
	16 -- 121	[pos="628.61,348.66 621.09,291.22 597.85,113.7 590.34,56.335"];
	157	[height=0.5,
		pos="1023.8,390.48",
		width=0.75];
	16 -- 157	[pos="657.99,368.42 729.84,372.76 925.14,384.53 996.92,388.86"];
	33	[height=0.5,
		pos="234.4,133.68",
		width=0.75];
	32 -- 33	[pos="407.29,117.98 369.04,121.45 299.43,127.78 261.24,131.24"];
	102	[height=0.5,
		pos="794.68,426.93",
		width=0.75];
	19 -- 102	[pos="613.1,619.5 649.35,581.06 743.98,480.7 780.25,442.24"];
	134	[height=0.5,
		pos="517.37,476.62",
		width=0.75];
	19 -- 134	[pos="589.83,617.55 574.19,587.13 541.85,524.24 526.22,493.83"];
	148	[height=0.5,
		pos="835.24,574.38",
		width=0.75];
	19 -- 148	[pos="624.01,628.32 669.42,616.72 764.21,592.52 809.75,580.89"];
	160	[height=0.5,
		pos="889.62,728.57",
		width=0.75];
	19 -- 160	[pos="623.49,642.78 678.6,660.54 810.63,703.11 865.29,720.73"];
	173	[height=0.5,
		pos="423.93,689.47",
		width=0.75];
	19 -- 173	[pos="574.02,642.5 540.72,652.92 481.72,671.39 448.48,681.79"];
	45	[height=0.5,
		pos="883.71,816.98",
		width=0.75];
	19 -- 45	[pos="618.28,647.3 670.35,680.59 811.76,770.98 863.98,804.37"];
	88	[height=0.5,
		pos="649.12,915.84",
		width=0.75];
	19 -- 88	[pos="601.92,652.79 611.01,703.43 636.72,846.72 645.85,897.62"];
	113	[height=0.5,
		pos="730.59,917.9",
		width=0.75];
	19 -- 113	[pos="606.74,652.06 630.29,702.61 698.85,849.77 722.47,900.48"];
	141	[height=0.5,
		pos="420.97,777.54",
		width=0.75];
	19 -- 141	[pos="581.33,648.73 547.35,676.02 472.43,736.2 438.4,763.54"];
	172	[height=0.5,
		pos="293.22,596.36",
		width=0.75];
	19 -- 172	[pos="572.12,631.44 514.35,624.17 377.87,607 319.95,599.72"];
	1	[height=0.5,
		pos="732.65,462.27",
		width=0.75];
	1 -- 2	[pos="706.09,458.6 663.76,452.76 581.49,441.39 539.1,435.53"];
	1 -- 9	[pos="705.59,463.55 651.65,466.1 531.29,471.79 477.41,474.33"];
	1 -- 13	[pos="713.44,475.37 674.42,501.96 586.3,562.02 547.45,588.5"];
	1 -- 3	[pos="709.61,472.23 657.56,494.74 531.41,549.28 479.61,571.67"];
	4	[height=0.5,
		pos="536.64,645.5",
		width=0.75];
	1 -- 4	[pos="716.94,476.96 680.24,511.26 589.2,596.37 552.43,630.75"];
	35	[height=0.5,
		pos="870.42,243.8",
		width=0.75];
	1 -- 35	[pos="743.23,445.49 768.87,404.83 834.12,301.36 859.8,260.64"];
	1 -- 36	[pos="751.44,475.51 789.61,502.41 875.8,563.14 913.8,589.91"];
	1 -- 37	[pos="724.6,444.8 705.04,402.34 655.2,294.17 635.76,251.97"];
	1 -- 8	[pos="714.66,448.83 671.9,416.9 564.58,336.73 521.59,304.62"];
	38	[height=0.5,
		pos="960.81,390.29",
		width=0.75];
	1 -- 38	[pos="757.06,454.57 800.87,440.75 892.3,411.9 936.23,398.05"];
	39	[height=0.5,
		pos="992.96,508.48",
		width=0.75];
	1 -- 39	[pos="759.04,466.96 808.93,475.81 916.55,494.92 966.5,503.78"];
	1 -- 40	[pos="759.4,459.38 795.42,455.49 859.15,448.61 895.26,444.71"];
	41	[height=0.5,
		pos="927.01,485.85",
		width=0.75];
	1 -- 41	[pos="759.26,465.5 796.38,470 863.29,478.12 900.4,482.62"];
	1 -- 15	[pos="712.92,474.7 699.28,483.29 681.2,494.69 667.52,503.31"];
	1 -- 42	[pos="750.28,448.39 785.42,420.72 863.84,358.99 898.95,331.36"];
	43	[height=0.5,
		pos="565.72,277.3",
		width=0.75];
	1 -- 43	[pos="718.7,446.82 687.28,412 611.23,327.74 579.74,292.84"];
	1 -- 18	[pos="706.73,467.88 650.79,480 519.27,508.48 463.47,520.56"];
	44	[height=0.5,
		pos="994.43,640.53",
		width=0.75];
	1 -- 44	[pos="751.9,475.38 800.43,508.43 927.32,594.84 975.5,627.65"];
	1 -- 21	[pos="747.23,446.84 786.09,405.72 891.79,293.89 930.44,252.99"];
	3 -- 13	[pos="481.88,588.5 488.81,590.43 496.34,592.53 503.29,594.46"];
	3 -- 16	[pos="469.92,565.38 502.27,525.49 585.72,422.61 617.98,382.83"];
	3 -- 19	[pos="480.57,590.44 506.76,600.27 548.65,615.99 574.87,625.84"];
	3 -- 8	[pos="459.74,563.35 468.1,511.18 492.1,361.34 500.46,309.17"];
	59	[height=0.5,
		pos="413.78,733.5",
		width=0.75];
	3 -- 59	[pos="451.81,599.25 443.56,628.38 427.22,686.05 418.9,715.41"];
	60	[height=0.5,
		pos="252.14,378.57",
		width=0.75];
	3 -- 60	[pos="441.44,566.27 403.42,528.56 305.35,431.32 267.43,393.72"];
	62	[height=0.5,
		pos="458.01,865.58",
		width=0.75];
	3 -- 62	[pos="456.9,599.72 457.12,651.03 457.72,796.41 457.94,847.53"];
	3 -- 64	[pos="441.22,566.43 412.26,538.42 350.5,478.7 321.43,450.59"];
	65	[height=0.5,
		pos="209.51,707.56",
		width=0.75];
	3 -- 65	[pos="435.31,592.49 388.54,616.32 278.04,672.64 231.15,696.53"];
	3 -- 10	[pos="475.01,567.98 517.5,536.35 622.89,457.88 665.46,426.19"];
	3 -- 11	[pos="483.97,580.15 563.43,576.12 794.96,564.39 874.32,560.37"];
	67	[height=0.5,
		pos="546.17,795.43",
		width=0.75];
	3 -- 67	[pos="464.14,599.03 480.93,639.24 522.11,737.83 538.88,777.98"];
	69	[height=0.5,
		pos="621.35,678.82",
		width=0.75];
	3 -- 69	[pos="477.33,593.65 509.03,612.4 569.57,648.19 601.11,666.85"];
	70	[height=0.5,
		pos="559.3,695.01",
		width=0.75];
	3 -- 70	[pos="471.08,597.3 490.65,618.98 525.66,657.75 545.17,679.36"];
	71	[height=0.5,
		pos="128.54,550.24",
		width=0.75];
	3 -- 71	[pos="429.96,578.96 368.25,573.08 216.94,558.66 155.31,552.79"];
	73	[height=0.5,
		pos="154.88,663.47",
		width=0.75];
	3 -- 73	[pos="431.6,588.37 374.77,603.79 237.22,641.12 180.25,656.59"];
	3 -- 23	[pos="432.8,590.08 394.51,603.71 320.08,630.21 281.74,643.86"];
	4 -- 24	[pos="542.8,627.77 551.25,603.4 566.37,559.83 574.8,535.55"];
	4 -- 9	[pos="527.9,628.27 511.38,595.71 475.74,525.48 459.2,492.88"];
	4 -- 16	[pos="542.69,627.64 559.73,577.3 608.01,434.66 624.99,384.51"];
	4 -- 59	[pos="517.98,658.87 494.76,675.5 455.33,703.74 432.21,720.3"];
	4 -- 10	[pos="547.22,628.75 574.36,585.77 646.22,471.99 673.25,429.18"];
	4 -- 11	[pos="562.29,639.42 629.26,623.53 808.83,580.95 875.77,565.07"];
	5	[height=0.5,
		pos="680.96,278.77",
		width=0.75];
	4 -- 5	[pos="543.6,627.81 568.04,565.71 649.74,358.09 674.07,296.28"];
	4 -- 75	[pos="548.08,661.81 567.56,689.59 606.97,745.78 626.53,773.67"];
	76	[height=0.5,
		pos="231.18,575.41",
		width=0.75];
	4 -- 76	[pos="510.86,639.58 453.19,626.35 314.29,594.48 256.78,581.28"];
	78	[height=0.5,
		pos="272.82,531.35",
		width=0.75];
	4 -- 78	[pos="513.69,635.57 463.67,613.93 345.33,562.73 295.53,541.18"];
	4 -- 80	[pos="563.81,646.95 601.69,648.96 669.98,652.6 707.85,654.62"];
	4 -- 81	[pos="528.76,663.16 521.48,679.49 510.72,703.6 503.48,719.8"];
	82	[height=0.5,
		pos="728.1,702.66",
		width=0.75];
	4 -- 82	[pos="561.67,652.97 598.47,663.96 666.74,684.34 703.37,695.28"];
	83	[height=0.5,
		pos="587.07,908.58",
		width=0.75];
	4 -- 83	[pos="540.11,663.58 549.34,711.76 574.46,842.8 583.65,890.72"];
	85	[height=0.5,
		pos="347.12,552.34",
		width=0.75];
	4 -- 85	[pos="514.9,634.81 478.44,616.89 405.39,580.98 368.9,563.04"];
	86	[height=0.5,
		pos="351.72,700.86",
		width=0.75];
	4 -- 86	[pos="511.7,652.97 476.31,663.56 411.9,682.84 376.56,693.42"];
	87	[height=0.5,
		pos="525.02,930.58",
		width=0.75];
	4 -- 87	[pos="535.9,663.77 533.8,715.26 527.85,861.16 525.76,912.47"];
	47	[height=0.5,
		pos="422.09,821.56",
		width=0.75];
	4 -- 47	[pos="525.87,662.06 504.03,695.62 454.8,771.29 432.93,804.91"];
	8 -- 26	[pos="508.97,273.19 519.77,238.89 543.33,164.03 554.11,129.78"];
	8 -- 9	[pos="498.29,308.71 488.2,343.9 465.72,422.32 455.57,457.69"];
	8 -- 10	[pos="522.67,304.02 557.38,327.42 629.95,376.33 664.57,399.66"];
	90	[height=0.5,
		pos="651.18,70.038",
		width=0.75];
	8 -- 90	[pos="514.48,274.4 541.94,233.35 612.76,127.47 640.14,86.538"];
	8 -- 103	[pos="513.41,307.92 526.96,330.75 550.98,371.19 564.51,393.98"];
	8 -- 114	[pos="491.08,274.66 472.08,249.39 435.8,201.14 416.89,176"];
	125	[height=0.5,
		pos="831.07,339.97",
		width=0.75];
	8 -- 125	[pos="529.91,294.97 591.31,304.15 742.64,326.75 804.28,335.96"];
	126	[height=0.5,
		pos="673.43,20.352",
		width=0.75];
	8 -- 126	[pos="514,274.08 544.54,225.47 632.26,85.874 662.79,37.276"];
	8 -- 128	[pos="489.5,306.6 467.4,331.45 424.45,379.76 402.32,404.64"];
	129	[height=0.5,
		pos="743,297.82",
		width=0.75];
	8 -- 129	[pos="530.39,291.78 576.41,293.08 669.5,295.73 715.71,297.04"];
	130	[height=0.5,
		pos="541.94,336.42",
		width=0.75];
	8 -- 130	[pos="516.86,306.89 520.59,311.29 524.65,316.07 528.39,320.47"];
	8 -- 131	[pos="516.25,275 537.16,249.03 578.22,198.02 599.12,172.06"];
	132	[height=0.5,
		pos="314.39,203.67",
		width=0.75];
	8 -- 132	[pos="480.94,280.65 444.57,263.84 373.13,230.82 336.78,214.02"];
	133	[height=0.5,
		pos="280.58,334.55",
		width=0.75];
	8 -- 133	[pos="477.37,296.09 434.56,304.46 349.68,321.05 306.76,329.44"];
	8 -- 134	[pos="504.73,309.14 507.41,344.63 513.31,422.87 515.99,458.41"];
	79	[height=0.5,
		pos="218.53,315.92",
		width=0.75];
	8 -- 79	[pos="476.57,293.35 422.28,298.1 299.87,308.8 245.46,313.56"];
	15 -- 31	[pos="668.81,504.67 708.89,483.54 795.35,437.94 835.48,416.78"];
	15 -- 16	[pos="645.6,497.87 642.4,469.22 636.19,413.53 633,384.84"];
	15 -- 19	[pos="640.39,533.4 631.14,555.89 615.2,594.64 605.94,617.16"];
	15 -- 18	[pos="620.6,517.18 580.41,519.15 505.28,522.83 464.96,524.8"];
	15 -- 17	[pos="626.64,504.39 570.93,473.91 419.63,391.14 363.75,360.57"];
	15 -- 70	[pos="639.14,533.03 622.26,567.28 584.6,643.68 567.74,677.88"];
	96	[height=0.5,
		pos="765.44,341.85",
		width=0.75];
	15 -- 96	[pos="658.9,499.17 681.43,465.91 731.68,391.7 754.17,358.49"];
	15 -- 108	[pos="659.36,532.45 686.37,570.59 752.6,664.08 779.57,702.16"];
	15 -- 119	[pos="624.99,505.82 587.05,488.99 511.04,455.28 473.08,438.44"];
	15 -- 130	[pos="637.66,498.97 617.52,464.78 572.11,387.66 551.93,353.39"];
	147	[height=0.5,
		pos="857.29,514.98",
		width=0.75];
	15 -- 147	[pos="675.02,515.74 715.31,515.57 790.09,515.26 830.2,515.09"];
	84	[height=0.5,
		pos="671.78,835.69",
		width=0.75];
	15 -- 84	[pos="648.97,533.97 653.22,590.13 666.13,760.95 670.4,817.38"];
	155	[height=0.5,
		pos="1002.2,684.55",
		width=0.75];
	15 -- 155	[pos="669.78,526.41 733.46,556.7 916.32,643.71 979.98,674.01"];
	18 -- 34	[pos="433.93,508.05 427.56,477.63 414.78,416.61 408.43,386.33"];
	18 -- 86	[pos="429.16,543.53 412.68,577.02 376.7,650.1 360.25,683.53"];
	101	[height=0.5,
		pos="414.54,292.88",
		width=0.75];
	18 -- 101	[pos="435.9,507.83 431.57,464.23 420.67,354.62 416.35,311.1"];
	18 -- 133	[pos="424.59,510.13 394.94,473.98 323.08,386.36 293.56,350.38"];
	18 -- 139	[pos="412.03,520.6 377.43,513.15 316.23,499.96 281.55,492.49"];
	159	[height=0.5,
		pos="668.1,634.82",
		width=0.75];
	18 -- 159	[pos="459.81,536.56 503.73,557.28 601.6,603.45 645.74,624.27"];
	18 -- 167	[pos="423.28,541.59 400.68,565.78 357.2,612.33 334.53,636.6"];
	168	[height=0.5,
		pos="518.88,557.42",
		width=0.75];
	18 -- 168	[pos="461.2,535.18 471.97,539.33 484.7,544.24 495.46,548.39"];
	170	[height=0.5,
		pos="162.96,363.01",
		width=0.75];
	18 -- 170	[pos="417.52,514.14 366.7,483.98 234.03,405.21 183.19,375.03"];
	18 -- 173	[pos="436.19,544.24 433.54,575.64 428.12,639.84 425.47,671.29"];
	58	[height=0.5,
		pos="119.13,504.31",
		width=0.75];
	18 -- 58	[pos="410.83,524.29 350.83,520.18 206.54,510.3 146.28,506.17"];
	74	[height=0.5,
		pos="115.71,615.85",
		width=0.75];
	18 -- 74	[pos="412.72,533.1 352.73,549.82 201.12,592.05 140.92,608.82"];
	111	[height=0.5,
		pos="271.57,740.52",
		width=0.75];
	18 -- 111	[pos="425.23,542.25 394.37,582.08 314.76,684.79 283.98,724.51"];
	124	[height=0.5,
		pos="93.416,356.27",
		width=0.75];
	18 -- 124	[pos="415.92,515.38 353.98,484.82 177.44,397.72 115.34,367.09"];
	44 -- 45	[pos="983.81,657.45 962.59,691.26 915.19,766.81 894.13,800.37"];
	46 -- 47	[pos="477.62,706.77 465.38,732.08 442.69,778.98 430.45,804.29"];
	51	[height=0.5,
		pos="882.85,193.86",
		width=0.75];
	50 -- 51	[pos="774.19,197.28 797.88,196.54 832.06,195.46 855.74,194.72"];
	53 -- 54	[pos="386.75,661.56 377.99,683.07 363.15,719.51 354.35,741.1"];
	14 -- 30	[pos="727.44,492.76 763.49,465.15 844.76,402.91 880.87,375.25"];
	14 -- 16	[pos="700.01,489.26 684.91,462.47 655.86,410.93 640.71,384.05"];
	14 -- 19	[pos="696.05,522.12 674.75,546.77 633.77,594.18 612.41,618.91"];
	14 -- 41	[pos="736.74,503.82 778.62,499.87 858.59,492.31 900.26,488.38"];
	14 -- 15	[pos="682.98,510.45 680.09,510.89 677.15,511.34 674.26,511.78"];
	14 -- 17	[pos="686.7,496.54 620.78,468.28 431.49,387.12 365.59,358.86"];
	14 -- 69	[pos="700.86,523.54 683.94,556.6 647.01,628.73 630.11,661.73"];
	14 -- 82	[pos="711.36,524.49 714.87,561.89 722.89,647.24 726.4,684.59"];
	95	[height=0.5,
		pos="847.92,287.83",
		width=0.75];
	14 -- 95	[pos="720.27,489.59 746.01,448.91 811.49,345.42 837.26,304.68"];
	14 -- 107	[pos="723.33,522.23 750.52,553.74 811.1,623.95 838.42,655.62"];
	14 -- 129	[pos="712.56,488.24 718.88,448.69 733.84,355.14 740.13,315.77"];
	153	[height=0.5,
		pos="999.89,596.5",
		width=0.75];
	14 -- 153	[pos="734.4,514.06 789.23,531.09 920.43,571.83 975.21,588.83"];
	14 -- 168	[pos="684.32,513.16 647.73,522.95 580.5,540.94 544.02,550.69"];
	118	[height=0.5,
		pos="685.01,190.74",
		width=0.75];
	14 -- 118	[pos="708.22,488.05 703.86,432.13 690.75,264.19 686.42,208.73"];
	164	[height=0.5,
		pos="832.81,772.59",
		width=0.75];
	14 -- 164	[pos="717.73,523.85 740.05,572.08 802.35,706.75 824.7,755.06"];
	55 -- 56	[pos="697.23,137.2 716.76,129.16 744.55,117.72 764.06,109.68"];
	17 -- 43	[pos="367.36,341.07 410.36,327.25 498.39,298.95 541.22,285.18"];
	17 -- 85	[pos="343.04,367.06 343.89,405.65 345.87,495.79 346.73,534.34"];
	17 -- 122	[pos="327.66,333.5 309.65,314.84 279.6,283.71 261.64,265.09"];
	17 -- 132	[pos="339.12,330.91 333.67,302.9 323.28,249.43 317.86,221.56"];
	158	[height=0.5,
		pos="608.58,454.94",
		width=0.75];
	17 -- 158	[pos="366.24,358.42 416.7,378.52 534.61,425.48 585.03,445.56"];
	17 -- 169	[pos="356.2,333.18 375.4,310.77 410.29,270.04 429.54,247.56"];
	17 -- 170	[pos="315.74,351.12 281.86,353.75 224,358.26 190.04,360.91"];
	171	[height=0.5,
		pos="128.76,459.05",
		width=0.75];
	17 -- 171	[pos="320.95,360.18 279.85,381.32 191.08,426.99 150.18,448.02"];
	17 -- 33	[pos="333.96,331.76 313.7,291.44 263.42,191.42 243.12,151.02"];
	72	[height=0.5,
		pos="27,444.69",
		width=0.75];
	17 -- 72	[pos="317.87,356.53 258.87,374.41 110.54,419.37 51.652,437.22"];
	100	[height=0.5,
		pos="301.45,91.59",
		width=0.75];
	17 -- 100	[pos="339.74,330.92 332.18,283.65 311.91,156.92 304.35,109.67"];
	138	[height=0.5,
		pos="118.73,264.14",
		width=0.75];
	17 -- 138	[pos="319.1,340.1 276.1,323.79 185.31,289.38 142.29,273.07"];
	162	[height=0.5,
		pos="297.18,159.64",
		width=0.75];
	17 -- 162	[pos="338.36,331.2 329.7,295.11 310.16,213.72 301.48,177.55"];
	166	[height=0.5,
		pos="66.512,400.31",
		width=0.75];
	17 -- 166	[pos="316.16,353.94 263.38,363.74 145.62,385.61 92.908,395.4"];
	57 -- 58	[pos="221.98,453.51 199.26,464.73 163.77,482.26 140.99,493.51"];
	61	[height=0.5,
		pos="376.54,203.92",
		width=0.75];
	60 -- 61	[pos="263.84,362.14 287.55,328.85 341.02,253.79 364.78,220.43"];
	62 -- 63	[pos="485.14,865.39 512.67,865.2 555.05,864.91 582.59,864.72"];
	65 -- 66	[pos="206.59,689.3 204.16,674.08 200.71,652.52 198.29,637.39"];
	10 -- 27	[pos="695.61,396.25 719.3,363.68 772.16,291.02 795.81,258.5"];
	10 -- 16	[pos="667.04,398.09 660.88,392.75 653.91,386.7 647.75,381.35"];
	10 -- 38	[pos="710.55,410.42 763.52,406.16 881,396.71 933.98,392.45"];
	10 -- 18	[pos="661.47,422.86 614.75,444.42 506.94,494.18 460.11,515.8"];
	10 -- 14	[pos="688.73,430.67 693.35,447.38 700.17,472.07 704.76,488.67"];
	10 -- 17	[pos="657.53,407.7 594.04,395.87 432.51,365.77 368.93,353.92"];
	91	[height=0.5,
		pos="820.7,198.09",
		width=0.75];
	10 -- 91	[pos="694.48,395.75 720.08,355.65 784.45,254.86 810,214.84"];
	142	[height=0.5,
		pos="1019.4,434.51",
		width=0.75];
	10 -- 142	[pos="710.64,414.34 773.49,418.44 929.42,428.63 992.4,432.74"];
	144	[height=0.5,
		pos="992.38,281.79",
		width=0.75];
	10 -- 144	[pos="706.68,402.86 763.82,378.64 911.98,315.86 969.28,291.57"];
	10 -- 146	[pos="687.09,430.55 692.36,458.67 702.48,512.77 707.76,540.98"];
	10 -- 147	[pos="703.98,424.53 737.33,444.21 803.46,483.22 836.9,502.95"];
	10 -- 148	[pos="698.26,428.1 727.15,458.94 791.51,527.68 820.54,558.68"];
	10 -- 51	[pos="698.05,396.85 734.79,356.5 832.06,249.65 868.66,209.45"];
	11 -- 39	[pos="922.63,547.28 937.53,539.06 957.35,528.13 972.15,519.96"];
	11 -- 52	[pos="888.72,542.85 876.25,526.96 857.32,502.84 844.88,486.99"];
	11 -- 104	[pos="906.45,576.72 913.23,600.51 925.22,642.56 932.05,666.51"];
	11 -- 125	[pos="895.64,541.07 882.42,499.9 850.01,398.95 836.81,357.83"];
	11 -- 135	[pos="875.45,564.27 853.21,568.8 821.33,575.28 799.1,579.81"];
	149	[height=0.5,
		pos="1079.5,605.69",
		width=0.75];
	11 -- 149	[pos="926.53,565.59 960.38,574.46 1020.3,590.16 1054.2,599.05"];
	151	[height=0.5,
		pos="994.3,776.96",
		width=0.75];
	11 -- 151	[pos="908.84,576.47 926.23,617.28 969.39,718.52 986.82,759.41"];
	11 -- 153	[pos="924.99,567.98 940.47,573.87 960.64,581.55 976.15,587.46"];
	154	[height=0.5,
		pos="1079.8,684.69",
		width=0.75];
	11 -- 154	[pos="920.15,572.21 954.42,596.35 1026.8,647.31 1061,671.46"];
	156	[height=0.5,
		pos="1062.8,478.51",
		width=0.75];
	11 -- 156	[pos="923.16,548.14 954.05,532.74 1010.3,504.7 1041.1,489.32"];
	11 -- 158	[pos="877.43,550.48 822.38,530.92 687.43,482.96 632.46,463.43"];
	11 -- 159	[pos="876.87,566.97 832.06,581.53 737.47,612.27 692.65,626.84"];
	11 -- 160	[pos="900.13,577.14 897.87,609.78 893.13,678.01 890.87,710.56"];
	11 -- 29	[pos="920.1,545.65 955.56,520.36 1032.2,465.72 1067.4,440.55"];
	93	[height=0.5,
		pos="1132.9,340.47",
		width=0.75];
	11 -- 93	[pos="917.31,543.98 959.71,503.96 1075,395.11 1117.2,355.31"];
	143	[height=0.5,
		pos="1068.2,522.54",
		width=0.75];
	11 -- 143	[pos="927.09,553.38 958.43,546.53 1011.1,535.02 1042.5,528.16"];
	67 -- 68	[pos="568.55,784.99 588.75,775.57 618.31,761.78 638.49,752.37"];
	71 -- 72	[pos="113.55,534.67 94.247,514.6 60.89,479.92 41.713,459.99"];
	73 -- 74	[pos="141.84,647.61 137.66,642.53 133.02,636.89 128.83,631.8"];
	5 -- 25	[pos="685.41,260.92 693.83,227.18 711.99,154.4 720.42,120.63"];
	5 -- 6	[pos="679.11,296.89 673.48,352.03 656.6,517.39 650.97,572.6"];
	5 -- 9	[pos="664.01,293.24 621.27,329.73 509.53,425.15 467.1,461.38"];
	5 -- 12	[pos="679.91,296.87 677.93,331.11 673.65,404.95 671.67,439.22"];
	5 -- 35	[pos="707.3,273.9 743.5,267.22 808.22,255.28 844.3,248.62"];
	5 -- 48	[pos="660.04,267.13 635.74,253.61 595.9,231.44 571.62,217.93"];
	5 -- 89	[pos="665.23,264.05 630.37,231.44 546.96,153.42 512.14,120.85"];
	5 -- 90	[pos="678.37,260.61 672.72,221.03 659.37,127.41 653.74,88.006"];
	5 -- 91	[pos="701.58,266.86 728,251.61 773.54,225.32 800,210.04"];
	92	[height=0.5,
		pos="976.05,190.34",
		width=0.75];
	5 -- 92	[pos="705.61,271.38 761.16,254.73 895.59,214.46 951.26,197.77"];
	5 -- 94	[pos="659.73,290.05 621.66,310.28 542.18,352.52 504,372.81"];
	5 -- 95	[pos="708.16,280.24 739.2,281.93 789.69,284.67 820.73,286.36"];
	5 -- 96	[pos="699.29,292.45 713.56,303.11 733.25,317.82 747.43,328.41"];
	97	[height=0.5,
		pos="799.03,18.693",
		width=0.75];
	5 -- 97	[pos="688.89,261.3 710.4,213.92 769.66,83.374 791.13,36.085"];
	99	[height=0.5,
		pos="494.56,18",
		width=0.75];
	5 -- 99	[pos="669.3,262.45 635.82,215.62 539.68,81.128 506.22,34.306"];
	5 -- 101	[pos="653.95,280.2 602.88,282.9 492.74,288.74 441.62,291.44"];
	5 -- 102	[pos="693.34,294.9 715.22,323.4 760.44,382.32 782.31,410.81"];
	5 -- 61	[pos="655.53,272.51 598.22,258.42 459.55,224.33 402.11,210.2"];
	76 -- 77	[pos="225.97,557.71 216.45,525.38 196.36,457.11 186.84,424.77"];
	78 -- 79	[pos="268.28,513.36 258.04,472.7 233.21,374.17 223.02,333.71"];
	83 -- 84	[pos="603.81,894.18 618.66,881.4 640.24,862.83 655.08,850.06"];
	87 -- 88	[pos="551.65,927.42 572.44,924.95 601.22,921.53 622.11,919.05"];
	92 -- 93	[pos="991.67,205.29 1021.7,234.06 1087.4,296.86 1117.4,325.59"];
	97 -- 98	[pos="811.52,34.832 819.24,44.801 829.12,57.557 836.87,67.576"];
	99 -- 100	[pos="470.88,27.024 433.72,41.186 362.12,68.471 325.02,82.608"];
	110 -- 111	[pos="458.48,786.5 417.52,776.42 337.78,756.81 296.97,746.77"];
	112 -- 113	[pos="779.48,883.81 770.08,890.36 758.75,898.26 749.36,904.81"];
	117 -- 118	[pos="540.4,76.116 571.62,100.86 636.16,152.01 667.36,176.74"];
	120 -- 121	[pos="462.76,57.986 490.5,53.615 533.88,46.781 561.61,42.413"];
	123 -- 124	[pos="166.64,282.68 150.43,298.98 124.69,324.84 108.45,341.16"];
	126 -- 127	[pos="687.18,36.111 708.7,60.777 750.11,108.24 771.7,132.98"];
	137 -- 138	[pos="144.44,302.52 139.79,295.58 134.39,287.52 129.74,280.58"];
	140 -- 141	[pos="309.62,708.79 334.29,724.03 376.08,749.83 400.84,765.12"];
	142 -- 143	[pos="1028.8,451.48 1037.5,467.07 1050.2,490.05 1058.8,505.62"];
	144 -- 145	[pos="996.99,299.74 999.28,308.68 1002,319.45 1004.3,328.38"];
	149 -- 150	[pos="1060.3,592.81 1048,584.51 1032,573.75 1019.6,565.44"];
	151 -- 152	[pos="968.32,782.15 930.22,789.74 859.62,803.82 821.53,811.41"];
	154 -- 155	[pos="1052.7,684.64 1045,684.63 1036.8,684.61 1029.2,684.6"];
	156 -- 157	[pos="1055.1,461.11 1048.3,445.68 1038.4,423.26 1031.5,407.83"];
	161 -- 162	[pos="461,183.69 424.75,178.37 360.01,168.86 323.72,163.54"];
	163 -- 164	[pos="750.18,846.08 768.52,829.77 798.09,803.46 816.44,787.15"];
	165 -- 166	[pos="175.46,510.38 151.5,486.17 105.27,439.47 81.474,415.42"];
	171 -- 172	[pos="145.74,473.22 177.25,499.54 244.46,555.64 276.09,582.05"];
}
