graph {
	graph [bb="0,0,1283.4,909.72",
		outputorder=edgesfirst,
		overlap=prism,
		size="50,50!",
		start=5752
	];
	node [label="\N"];
	0	[height=0.5,
		pos="656.35,18",
		width=0.75];
	1	[height=0.5,
		pos="544.94,31.35",
		width=0.75];
	0 -- 1	[pos="629.66,21.198 612.15,23.296 589.34,26.03 571.79,28.133"];
	20	[height=0.5,
		pos="770.3,74.815",
		width=0.75];
	0 -- 20	[pos="678.05,28.82 698.2,38.865 728.05,53.748 748.29,63.842"];
	2	[height=0.5,
		pos="487.22,79.738",
		width=0.75];
	1 -- 2	[pos="527.94,45.607 520.49,51.851 511.76,59.165 504.31,65.416"];
	59	[height=0.5,
		pos="503.68,126.48",
		width=0.75];
	1 -- 59	[pos="537.37,48.8 529.93,65.965 518.63,92.019 511.2,109.15"];
	26	[height=0.5,
		pos="790.45,118.83",
		width=0.75];
	20 -- 26	[pos="778.26,92.213 779.67,95.289 781.14,98.491 782.54,101.56"];
	21	[height=0.5,
		pos="860.33,196.43",
		width=0.75];
	20 -- 21	[pos="782.26,90.965 799.47,114.23 831.08,156.92 848.32,180.22"];
	3	[height=0.5,
		pos="413.4,152.16",
		width=0.75];
	2 -- 3	[pos="471.93,94.745 459.26,107.18 441.34,124.75 428.68,137.18"];
	42	[height=0.5,
		pos="519.68,170.51",
		width=0.75];
	2 -- 42	[pos="493.64,97.671 499.36,113.69 507.7,137.01 513.39,152.92"];
	34	[height=0.5,
		pos="797.93,165.02",
		width=0.75];
	26 -- 34	[pos="793.36,136.82 793.9,140.17 794.47,143.66 795.01,147.01"];
	27	[height=0.5,
		pos="861.85,251.79",
		width=0.75];
	26 -- 27	[pos="799.64,135.94 813.35,161.47 839.01,209.26 852.7,234.75"];
	4	[height=0.5,
		pos="568.34,109.12",
		width=0.75];
	3 -- 4	[pos="438.64,145.15 467.54,137.13 514.58,124.05 543.37,116.06"];
	93	[height=0.5,
		pos="306.61,260.42",
		width=0.75];
	3 -- 93	[pos="398.55,167.22 378.26,187.78 342.08,224.46 321.67,245.14"];
	41	[height=0.5,
		pos="665.92,175.5",
		width=0.75];
	34 -- 41	[pos="770.89,167.17 748.11,168.97 715.68,171.55 692.91,173.35"];
	35	[height=0.5,
		pos="923.87,240.25",
		width=0.75];
	34 -- 35	[pos="818.16,177.11 841.66,191.15 880.21,214.17 903.69,228.19"];
	5	[height=0.5,
		pos="728.1,136.04",
		width=0.75];
	4 -- 5	[pos="594.72,113.57 624.32,118.56 672.06,126.6 701.68,131.59"];
	60	[height=0.5,
		pos="506.93,258.86",
		width=0.75];
	4 -- 60	[pos="561.17,126.59 549.4,155.29 526.1,212.11 514.24,241.03"];
	49	[height=0.5,
		pos="799.73,275.25",
		width=0.75];
	41 -- 49	[pos="683.96,188.95 709.5,207.99 755.93,242.59 781.54,261.69"];
	41 -- 42	[pos="638.75,174.57 612.49,173.67 572.91,172.33 546.7,171.43"];
	6	[height=0.5,
		pos="888.47,152.12",
		width=0.75];
	5 -- 6	[pos="754.94,138.74 784.55,141.7 831.9,146.45 861.54,149.42"];
	5 -- 27	[pos="744.77,150.47 770.4,172.65 819.22,214.9 844.97,237.19"];
	53	[height=0.5,
		pos="675.67,263.55",
		width=0.75];
	49 -- 53	[pos="772.81,272.71 752,270.75 723.33,268.04 702.54,266.08"];
	50	[height=0.5,
		pos="843.13,407.29",
		width=0.75];
	49 -- 50	[pos="805.58,293.06 813.86,318.26 828.92,364.07 837.23,389.35"];
	7	[height=0.5,
		pos="985.89,207.88",
		width=0.75];
	6 -- 7	[pos="909.13,163.94 925.66,173.41 948.74,186.61 965.26,196.07"];
	6 -- 21	[pos="877.83,168.87 875.59,172.4 873.22,176.13 870.98,179.66"];
	58	[height=0.5,
		pos="603.61,153.15",
		width=0.75];
	53 -- 58	[pos="664.73,246.78 651.1,225.91 627.98,190.49 614.42,169.71"];
	54	[height=0.5,
		pos="671.32,368.69",
		width=0.75];
	53 -- 54	[pos="674.91,281.86 674.11,301.16 672.86,331.37 672.07,350.59"];
	8	[height=0.5,
		pos="1047.9,206.79",
		width=0.75];
	7 -- 8	[pos="1012.9,207.41 1015.5,207.36 1018.2,207.31 1020.8,207.27"];
	22	[height=0.5,
		pos="912.1,318.92",
		width=0.75];
	7 -- 22	[pos="974.68,224.74 960.73,245.73 937.06,281.36 923.17,302.26"];
	67	[height=0.5,
		pos="560.74,214.55",
		width=0.75];
	58 -- 67	[pos="592.12,169.6 585.97,178.41 578.42,189.23 572.26,198.05"];
	58 -- 59	[pos="578.39,146.42 563.25,142.38 544.04,137.25 528.89,133.21"];
	9	[height=0.5,
		pos="1049.2,251.8",
		width=0.75];
	8 -- 9	[pos="1048.4,224.84 1048.5,227.77 1048.6,230.81 1048.7,233.75"];
	8 -- 35	[pos="1022.8,213.56 1001.3,219.37 970.45,227.69 948.94,233.49"];
	75	[height=0.5,
		pos="560.16,351.1",
		width=0.75];
	67 -- 75	[pos="560.66,232.68 560.55,258.8 560.35,306.73 560.24,332.89"];
	68	[height=0.5,
		pos="444.9,282.38",
		width=0.75];
	67 -- 68	[pos="540.3,226.52 519.25,238.84 486.64,257.94 465.53,270.3"];
	10	[height=0.5,
		pos="1061.5,296.14",
		width=0.75];
	9 -- 10	[pos="1054.1,269.58 1054.9,272.47 1055.8,275.46 1056.6,278.36"];
	36	[height=0.5,
		pos="975.24,303.75",
		width=0.75];
	9 -- 36	[pos="1030.5,264.91 1019.3,272.78 1005.1,282.77 993.89,290.65"];
	81	[height=0.5,
		pos="430.65,326.43",
		width=0.75];
	75 -- 81	[pos="533.95,346.11 511.48,341.83 479.28,335.69 456.82,331.42"];
	76	[height=0.5,
		pos="678.66,476.48",
		width=0.75];
	75 -- 76	[pos="574.69,366.48 597.43,390.54 641.19,436.84 664.01,460.98"];
	11	[height=0.5,
		pos="1066.7,340.46",
		width=0.75];
	10 -- 11	[pos="1063.6,314.16 1064,316.85 1064.3,319.62 1064.6,322.3"];
	37	[height=0.5,
		pos="1004.7,348.12",
		width=0.75];
	10 -- 37	[pos="1045.4,310.9 1037.7,317.98 1028.4,326.44 1020.7,333.51"];
	86	[height=0.5,
		pos="285.85,216.38",
		width=0.75];
	81 -- 86	[pos="412.61,312.72 384.71,291.51 331.43,251.02 303.67,229.92"];
	82	[height=0.5,
		pos="475.55,414.47",
		width=0.75];
	81 -- 82	[pos="439.52,343.82 447.44,359.36 458.98,381.98 466.85,397.41"];
	12	[height=0.5,
		pos="1065.5,394.61",
		width=0.75];
	11 -- 12	[pos="1066.3,358.49 1066.2,364.27 1066,370.68 1065.9,376.47"];
	38	[height=0.5,
		pos="981.32,452.27",
		width=0.75];
	11 -- 38	[pos="1054.1,356.95 1037.9,378.22 1009.8,414.95 993.7,436.06"];
	91	[height=0.5,
		pos="170.71,267.14",
		width=0.75];
	86 -- 91	[pos="263.1,226.41 242.92,235.3 213.58,248.24 193.41,257.13"];
	87	[height=0.5,
		pos="368.61,292.32",
		width=0.75];
	86 -- 87	[pos="301.81,231.02 316.46,244.47 338.06,264.29 352.7,277.72"];
	13	[height=0.5,
		pos="1043.5,452.12",
		width=0.75];
	12 -- 13	[pos="1058.8,412.18 1056,419.31 1052.9,427.54 1050.2,434.66"];
	23	[height=0.5,
		pos="971.48,407.08",
		width=0.75];
	12 -- 23	[pos="1038.8,398.15 1026.1,399.83 1010.9,401.84 998.23,403.53"];
	97	[height=0.5,
		pos="147.75,407.01",
		width=0.75];
	91 -- 97	[pos="167.75,285.14 163.34,312 155.09,362.27 150.69,389.08"];
	92	[height=0.5,
		pos="280.32,346.86",
		width=0.75];
	91 -- 92	[pos="189.3,280.66 209.58,295.41 241.83,318.87 262,333.53"];
	14	[height=0.5,
		pos="991.42,543.89",
		width=0.75];
	13 -- 14	[pos="1033.7,469.38 1024.3,485.89 1010.3,510.64 1001,527.02"];
	28	[height=0.5,
		pos="942.65,363",
		width=0.75];
	13 -- 28	[pos="1026.9,437.41 1008.1,420.79 977.67,393.94 959,377.44"];
	100	[height=0.5,
		pos="214.42,546.27",
		width=0.75];
	97 -- 100	[pos="156.06,424.37 168.84,451.06 193.17,501.88 206.01,528.7"];
	98	[height=0.5,
		pos="238.42,458.24",
		width=0.75];
	97 -- 98	[pos="168.78,418.9 183.53,427.23 203.16,438.32 217.82,446.6"];
	15	[height=0.5,
		pos="1018.1,605.11",
		width=0.75];
	14 -- 15	[pos="998.99,561.27 1002.6,569.47 1006.8,579.24 1010.4,587.48"];
	73	[height=0.5,
		pos="890.14,588.34",
		width=0.75];
	14 -- 73	[pos="968.69,553.87 952.01,561.19 929.46,571.09 912.8,578.4"];
	109	[height=0.5,
		pos="270.17,594.38",
		width=0.75];
	100 -- 109	[pos="231.15,560.71 238.2,566.8 246.4,573.87 253.45,579.96"];
	101	[height=0.5,
		pos="314.14,479.43",
		width=0.75];
	100 -- 101	[pos="233.65,533.39 251.31,521.55 277.33,504.1 294.97,492.28"];
	16	[height=0.5,
		pos="1057.1,654.03",
		width=0.75];
	15 -- 16	[pos="1030.9,621.13 1035.1,626.48 1039.9,632.44 1044.1,637.81"];
	29	[height=0.5,
		pos="929.3,542.42",
		width=0.75];
	15 -- 29	[pos="999.26,591.82 984.2,581.18 963.17,566.33 948.1,555.69"];
	114	[height=0.5,
		pos="145.29,592.73",
		width=0.75];
	109 -- 114	[pos="243.07,594.02 222.12,593.75 193.27,593.36 172.33,593.09"];
	110	[height=0.5,
		pos="395.04,564",
		width=0.75];
	109 -- 110	[pos="295.74,588.16 317.28,582.92 347.96,575.45 369.5,570.21"];
	17	[height=0.5,
		pos="1125.9,676.2",
		width=0.75];
	16 -- 17	[pos="1081.5,661.91 1088,664 1095,666.26 1101.5,668.35"];
	30	[height=0.5,
		pos="994.98,649.15",
		width=0.75];
	16 -- 30	[pos="1030,651.9 1027.4,651.7 1024.7,651.49 1022.1,651.28"];
	118	[height=0.5,
		pos="61.107,512.47",
		width=0.75];
	114 -- 118	[pos="129.46,577.63 114.31,563.19 91.613,541.55 76.586,527.23"];
	115	[height=0.5,
		pos="207.42,590.29",
		width=0.75];
	114 -- 115	[pos="172.36,591.67 174.98,591.56 177.63,591.46 180.25,591.36"];
	18	[height=0.5,
		pos="1194.3,559.61",
		width=0.75];
	17 -- 18	[pos="1136,659 1149,636.83 1171.5,598.52 1184.4,576.5"];
	31	[height=0.5,
		pos="974.76,693.2",
		width=0.75];
	17 -- 31	[pos="1099.2,679.2 1071.7,682.3 1028.9,687.1 1001.4,690.2"];
	124	[height=0.5,
		pos="152.28,453.38",
		width=0.75];
	118 -- 124	[pos="80.889,499.65 96.286,489.67 117.54,475.9 132.85,465.97"];
	119	[height=0.5,
		pos="186.36,502.25",
		width=0.75];
	118 -- 119	[pos="87.977,510.28 109.11,508.55 138.41,506.16 159.54,504.44"];
	19	[height=0.5,
		pos="1256.4,549.38",
		width=0.75];
	18 -- 19	[pos="1220.7,555.27 1223.7,554.77 1226.8,554.26 1229.9,553.76"];
	24	[height=0.5,
		pos="1107.8,470.8",
		width=0.75];
	18 -- 24	[pos="1179.2,544.14 1163.4,527.84 1138.5,502.33 1122.7,486.09"];
	129	[height=0.5,
		pos="27,454.6",
		width=0.75];
	124 -- 129	[pos="125.09,453.65 104.08,453.85 75.129,454.13 54.13,454.34"];
	125	[height=0.5,
		pos="347.46,435.41",
		width=0.75];
	124 -- 125	[pos="179.41,450.88 216.7,447.45 283.38,441.31 320.55,437.88"];
	25	[height=0.5,
		pos="1194.2,507.67",
		width=0.75];
	19 -- 25	[pos="1237.1,536.42 1229.5,531.35 1220.9,525.55 1213.3,520.49"];
	130	[height=0.5,
		pos="90.127,464.78",
		width=0.75];
	129 -- 130	[pos="53.406,458.86 56.784,459.41 60.244,459.96 63.624,460.51"];
	21 -- 22	[pos="867.74,213.98 877.59,237.27 894.86,278.13 904.7,301.4"];
	44	[height=0.5,
		pos="737.71,261.19",
		width=0.75];
	21 -- 44	[pos="838.97,207.71 816.6,219.53 781.66,237.98 759.23,249.83"];
	22 -- 23	[pos="923.27,335.5 933.89,351.26 949.77,374.83 960.37,390.57"];
	22 -- 50	[pos="899.45,335.13 887.01,351.07 868.12,375.28 855.7,391.19"];
	59 -- 68	[pos="497.05,144.07 485.76,174.01 462.93,234.57 451.6,264.63"];
	59 -- 60	[pos="504.12,144.61 504.74,169.82 505.86,215.21 506.48,240.52"];
	68 -- 82	[pos="449.04,300.2 454.88,325.41 465.52,371.23 471.38,396.51"];
	69	[height=0.5,
		pos="492.72,326.4",
		width=0.75];
	68 -- 69	[pos="460.82,297.04 465.93,301.74 471.59,306.95 476.7,311.66"];
	82 -- 92	[pos="451.22,406.04 413.6,393.01 341.78,368.14 304.35,355.18"];
	83	[height=0.5,
		pos="544.99,615.29",
		width=0.75];
	82 -- 83	[pos="481.71,432.29 494.89,470.4 525.68,559.44 538.84,597.51"];
	23 -- 24	[pos="993.7,417.46 1019.1,429.31 1060.3,448.58 1085.6,460.43"];
	104	[height=0.5,
		pos="853.02,539.33",
		width=0.75];
	23 -- 104	[pos="957.43,422.77 934.63,448.22 889.84,498.22 867.05,523.66"];
	92 -- 101	[pos="284.88,364.74 291.34,390.04 303.07,436.03 309.54,461.41"];
	92 -- 93	[pos="285.77,328.95 290.28,314.11 296.66,293.13 301.17,278.31"];
	101 -- 115	[pos="299.3,494.85 278.91,516.03 242.46,553.9 222.13,575.01"];
	102	[height=0.5,
		pos="541.67,422.32",
		width=0.75];
	101 -- 102	[pos="339.8,472.99 383.61,461.99 472.35,439.72 516.1,428.73"];
	115 -- 130	[pos="193.04,574.9 170.53,550.81 127.21,504.46 104.63,480.3"];
	116	[height=0.5,
		pos="228.99,690.71",
		width=0.75];
	115 -- 116	[pos="211.28,608.25 215.18,626.41 221.18,654.34 225.09,672.57"];
	24 -- 25	[pos="1131,480.68 1143.5,486.02 1158.8,492.58 1171.3,497.89"];
	32	[height=0.5,
		pos="1053.5,560.02",
		width=0.75];
	24 -- 32	[pos="1097.6,487.58 1087.9,503.53 1073.4,527.39 1063.7,543.32"];
	33	[height=0.5,
		pos="1132,530.59",
		width=0.75];
	25 -- 33	[pos="1170.3,516.47 1165.5,518.23 1160.5,520.09 1155.7,521.86"];
	131	[height=0.5,
		pos="156.25,348.03",
		width=0.75];
	130 -- 131	[pos="99.884,447.55 112.46,425.35 134.18,387 146.67,364.95"];
	42 -- 87	[pos="502.35,184.48 473.36,207.86 415.36,254.62 386.2,278.14"];
	43	[height=0.5,
		pos="622.75,219.54",
		width=0.75];
	42 -- 43	[pos="541.79,181.03 559.18,189.3 583.29,200.77 600.67,209.04"];
	27 -- 28	[pos="873.77,268.2 889.05,289.23 915.38,325.46 930.68,346.52"];
	27 -- 43	[pos="835.35,248.22 789.39,242.02 695.41,229.34 649.37,223.13"];
	87 -- 131	[pos="343.41,298.93 302.54,309.65 222.26,330.71 181.41,341.43"];
	88	[height=0.5,
		pos="475.97,469.63",
		width=0.75];
	87 -- 88	[pos="378.9,309.32 399.42,343.21 445.21,418.83 465.7,452.68"];
	28 -- 29	[pos="941.3,381.19 938.74,415.58 933.22,489.75 930.66,524.18"];
	55	[height=0.5,
		pos="772.31,471.43",
		width=0.75];
	28 -- 55	[pos="923.11,375.44 890.34,396.3 824.67,438.09 791.88,458.97"];
	29 -- 30	[pos="939.56,559.09 951.83,579.03 972.24,612.2 984.57,632.24"];
	63	[height=0.5,
		pos="827.87,583.35",
		width=0.75];
	29 -- 63	[pos="906.03,551.81 889.54,558.47 867.5,567.36 851.03,574.01"];
	30 -- 31	[pos="986.99,666.56 985.57,669.64 984.1,672.84 982.69,675.91"];
	39	[height=0.5,
		pos="955.95,588.11",
		width=0.75];
	30 -- 39	[pos="984.31,632.47 978.81,623.86 972.11,613.38 966.6,604.77"];
	31 -- 32	[pos="984.73,676.33 999.8,650.85 1028.2,602.82 1043.4,577.17"];
	65	[height=0.5,
		pos="912.69,729.29",
		width=0.75];
	31 -- 65	[pos="954.09,705.21 947.32,709.15 939.81,713.52 933.06,717.44"];
	32 -- 33	[pos="1077.1,551.19 1087,547.47 1098.6,543.14 1108.5,539.41"];
	51	[height=0.5,
		pos="884.79,495.32",
		width=0.75];
	32 -- 51	[pos="1030.1,551.02 997.92,538.7 940.51,516.68 908.32,504.34"];
	40	[height=0.5,
		pos="1069.9,514.89",
		width=0.75];
	33 -- 40	[pos="1106.7,524.2 1103,523.25 1099.1,522.27 1095.3,521.32"];
	132	[height=0.5,
		pos="94.204,361.3",
		width=0.75];
	131 -- 132	[pos="130.3,353.58 126.98,354.29 123.58,355.02 120.25,355.73"];
	35 -- 36	[pos="936.83,256.27 944.56,265.83 954.35,277.92 962.11,287.51"];
	45	[height=0.5,
		pos="848.25,319.25",
		width=0.75];
	35 -- 45	[pos="909.29,255.48 895.9,269.47 876.16,290.09 862.79,304.07"];
	36 -- 37	[pos="986.22,320.27 988.64,323.92 991.21,327.78 993.63,331.44"];
	46	[height=0.5,
		pos="880.46,363.28",
		width=0.75];
	36 -- 46	[pos="955.14,316.38 938.95,326.55 916.31,340.76 900.21,350.87"];
	37 -- 38	[pos="1000.6,366.26 996.34,385.38 989.62,415.3 985.35,434.33"];
	72	[height=0.5,
		pos="852.31,451.29",
		width=0.75];
	37 -- 72	[pos="985.72,360.98 956.51,380.75 900.89,418.41 871.54,438.27"];
	38 -- 39	[pos="977.95,470.3 973.1,496.29 964.19,543.97 959.33,570"];
	47	[height=0.5,
		pos="919.26,451.21",
		width=0.75];
	38 -- 47	[pos="954.28,451.8 951.67,451.76 949.02,451.71 946.4,451.67"];
	93 -- 98	[pos="300.56,277.97 287.65,315.42 257.54,402.78 244.56,440.44"];
	94	[height=0.5,
		pos="361.76,348.27",
		width=0.75];
	93 -- 94	[pos="317.24,277.36 327.01,292.91 341.4,315.84 351.16,331.38"];
	98 -- 119	[pos="221.66,472.41 215.72,477.43 209.03,483.08 203.09,488.11"];
	99	[height=0.5,
		pos="332.74,568.43",
		width=0.75];
	98 -- 99	[pos="251.93,474.03 269.86,494.98 301.33,531.74 319.25,552.67"];
	39 -- 40	[pos="975.53,575.52 996.4,562.11 1029.2,541 1050.2,527.56"];
	64	[height=0.5,
		pos="810.21,671.41",
		width=0.75];
	39 -- 64	[pos="935.38,599.87 907.76,615.65 858.95,643.55 831.15,659.44"];
	119 -- 132	[pos="175.43,485.52 157.69,458.4 122.85,405.11 105.12,378"];
	120	[height=0.5,
		pos="332.46,524.35",
		width=0.75];
	119 -- 120	[pos="212.82,506.25 239.13,510.23 279.29,516.31 305.7,520.3"];
	48	[height=0.5,
		pos="1000.3,496.33",
		width=0.75];
	40 -- 48	[pos="1044.7,508.19 1038.5,506.53 1031.8,504.75 1025.6,503.08"];
	133	[height=0.5,
		pos="244.6,302.84",
		width=0.75];
	132 -- 133	[pos="117.7,352.17 145.96,341.18 193.08,322.86 221.27,311.91"];
	43 -- 44	[pos="646.57,228.17 666.3,235.32 694.2,245.43 713.92,252.57"];
	43 -- 69	[pos="605.48,233.73 580.61,254.17 534.97,291.68 510.06,312.15"];
	44 -- 45	[pos="759.02,272.39 778.6,282.67 807.45,297.82 827,308.09"];
	44 -- 54	[pos="727.34,277.99 714.86,298.19 694.06,331.87 681.62,352.01"];
	60 -- 94	[pos="487.05,271.1 459.4,288.13 409.63,318.78 381.87,335.88"];
	61	[height=0.5,
		pos="645.87,412.86",
		width=0.75];
	60 -- 61	[pos="521.01,274.47 547.65,303.99 605.09,367.65 631.75,397.2"];
	45 -- 46	[pos="860.25,335.65 862.96,339.36 865.85,343.31 868.57,347.02"];
	70	[height=0.5,
		pos="622.19,324.61",
		width=0.75];
	45 -- 70	[pos="820.98,319.9 777.41,320.93 692.61,322.94 649.2,323.97"];
	46 -- 47	[pos="888.13,380.65 894.93,396.06 904.81,418.47 911.61,433.87"];
	71	[height=0.5,
		pos="717.29,427.36",
		width=0.75];
	46 -- 71	[pos="857.08,372.46 826.06,384.64 771.62,406.02 740.62,418.2"];
	47 -- 48	[pos="940.12,462.83 952.22,469.56 967.4,478.02 979.48,484.75"];
	103	[height=0.5,
		pos="647.46,522.32",
		width=0.75];
	47 -- 103	[pos="893.69,457.9 841.76,471.48 724.48,502.17 672.77,515.7"];
	94 -- 133	[pos="338.33,339.18 317.9,331.26 288.41,319.83 267.99,311.91"];
	95	[height=0.5,
		pos="537.98,480.54",
		width=0.75];
	94 -- 95	[pos="379.95,361.93 413.81,387.34 486.1,441.6 519.88,466.96"];
	52	[height=0.5,
		pos="922.61,632.69",
		width=0.75];
	48 -- 52	[pos="990.6,513.32 975.71,539.45 947.37,589.23 932.41,615.48"];
	134	[height=0.5,
		pos="218.32,388.92",
		width=0.75];
	133 -- 134	[pos="239.15,320.68 234.64,335.45 228.26,356.34 223.75,371.11"];
	50 -- 51	[pos="851.36,424.68 858.66,440.12 869.28,462.54 876.57,477.96"];
	50 -- 61	[pos="816.11,408.06 778.45,409.12 710.54,411.03 672.88,412.1"];
	69 -- 125	[pos="474.62,339.99 446.78,360.88 393.76,400.66 365.79,421.65"];
	69 -- 70	[pos="519.86,326.03 541.96,325.72 573,325.29 595.08,324.98"];
	51 -- 52	[pos="889.73,513.28 896.98,539.6 910.41,588.4 917.66,614.73"];
	56	[height=0.5,
		pos="767.94,627.37",
		width=0.75];
	51 -- 56	[pos="870.92,510.98 848.44,536.4 804.26,586.32 781.78,611.72"];
	125 -- 134	[pos="323.47,426.77 300.27,418.42 265.33,405.84 242.17,397.51"];
	126	[height=0.5,
		pos="469.33,563.18",
		width=0.75];
	125 -- 126	[pos="362.16,450.82 385.58,475.38 431.12,523.12 454.58,547.71"];
	57	[height=0.5,
		pos="912.67,676.71",
		width=0.75];
	52 -- 57	[pos="918.57,650.6 917.96,653.26 917.34,656.01 916.74,658.68"];
	135	[height=0.5,
		pos="285.3,414.2",
		width=0.75];
	134 -- 135	[pos="242.12,397.91 248.44,400.29 255.26,402.86 261.57,405.25"];
	54 -- 88	[pos="649.66,379.88 612.01,399.33 534.93,439.17 497.42,458.55"];
	54 -- 55	[pos="686.22,383.85 705.31,403.28 738.22,436.75 757.34,456.21"];
	88 -- 120	[pos="452.27,478.67 425.68,488.81 382.79,505.16 356.19,515.3"];
	89	[height=0.5,
		pos="482.96,650.49",
		width=0.75];
	88 -- 89	[pos="476.66,487.63 478,522.21 480.91,597.56 482.25,632.29"];
	55 -- 56	[pos="771.8,489.62 770.95,519.67 769.28,579.32 768.44,609.29"];
	62	[height=0.5,
		pos="774.23,522.45",
		width=0.75];
	55 -- 62	[pos="772.99,489.56 773.17,494.37 773.37,499.57 773.55,504.38"];
	120 -- 135	[pos="324.88,506.65 316.08,486.1 301.65,452.39 292.86,431.86"];
	121	[height=0.5,
		pos="292.62,647.03",
		width=0.75];
	120 -- 121	[pos="326.66,542.19 319.11,565.45 305.98,605.9 298.42,629.17"];
	56 -- 57	[pos="792.16,635.63 818.88,644.73 861.62,659.31 888.37,668.43"];
	107	[height=0.5,
		pos="592.74,737.77",
		width=0.75];
	56 -- 107	[pos="748.18,639.82 714.44,661.08 646.11,704.13 612.42,725.36"];
	66	[height=0.5,
		pos="931.31,773.77",
		width=0.75];
	57 -- 66	[pos="916.18,694.97 919.51,712.32 924.49,738.27 927.82,755.6"];
	136	[height=0.5,
		pos="494.11,370.44",
		width=0.75];
	135 -- 136	[pos="311.32,408.75 351.45,400.34 427.97,384.3 468.09,375.89"];
	61 -- 62	[pos="662.65,427.19 687.25,448.19 732.84,487.11 757.44,508.12"];
	61 -- 136	[pos="620.81,405.85 592.69,397.99 547.34,385.32 519.21,377.45"];
	62 -- 63	[pos="788.04,538.13 795.99,547.16 805.95,558.46 813.92,567.51"];
	105	[height=0.5,
		pos="669.04,619.33",
		width=0.75];
	62 -- 105	[pos="758.25,537.16 738.48,555.37 705.01,586.21 685.17,604.48"];
	63 -- 64	[pos="824.21,601.6 821.16,616.81 816.84,638.36 813.81,653.49"];
	78	[height=0.5,
		pos="737.62,694.81",
		width=0.75];
	63 -- 78	[pos="814.94,599.32 797.78,620.51 767.67,657.7 750.53,678.87"];
	64 -- 65	[pos="830.95,683.12 848.73,693.16 874.21,707.55 891.99,717.59"];
	64 -- 83	[pos="784.3,665.92 733.59,655.2 621.8,631.54 571.01,620.8"];
	65 -- 66	[pos="920.05,746.87 921.35,749.98 922.7,753.21 924,756.32"];
	79	[height=0.5,
		pos="788.6,739.42",
		width=0.75];
	65 -- 79	[pos="885.77,731.49 864.95,733.19 836.27,735.53 815.47,737.23"];
	74	[height=0.5,
		pos="850.65,748.91",
		width=0.75];
	66 -- 74	[pos="906.67,766.18 896.75,763.12 885.34,759.6 875.41,756.54"];
	137	[height=0.5,
		pos="413.49,455.18",
		width=0.75];
	136 -- 137	[pos="479.32,385.98 464.78,401.27 442.7,424.48 428.18,439.74"];
	70 -- 71	[pos="636.63,340.21 654.61,359.64 685.12,392.61 703.02,411.95"];
	70 -- 102	[pos="608.89,340.74 593.88,358.95 569.62,388.39 554.71,406.48"];
	71 -- 72	[pos="743.64,432.03 767.43,436.25 802.25,442.42 826.02,446.63"];
	71 -- 95	[pos="692.36,434.76 658.1,444.92 596.85,463.08 562.7,473.21"];
	72 -- 73	[pos="857.26,469.21 864.51,495.48 877.95,544.15 885.2,570.42"];
	72 -- 76	[pos="825.56,455.17 792.83,459.92 737.77,467.91 705.16,472.64"];
	73 -- 74	[pos="885.77,606.14 878.17,637 862.65,700.11 855.04,731.03"];
	77	[height=0.5,
		pos="723.46,575.32",
		width=0.75];
	73 -- 77	[pos="862.99,586.22 831.91,583.79 781.29,579.84 750.33,577.42"];
	102 -- 137	[pos="516.34,428.81 493.87,434.57 461.21,442.94 438.76,448.7"];
	102 -- 103	[pos="557.28,437.07 577.28,455.98 611.75,488.56 631.79,507.5"];
	80	[height=0.5,
		pos="787.14,790.55",
		width=0.75];
	74 -- 80	[pos="831.25,761.63 823.37,766.8 814.29,772.75 806.42,777.91"];
	138	[height=0.5,
		pos="443.57,518.49",
		width=0.75];
	137 -- 138	[pos="421.71,472.48 425.95,481.41 431.12,492.28 435.36,501.21"];
	76 -- 77	[pos="686.67,494.15 694.82,512.14 707.39,539.87 715.52,557.8"];
	139	[height=0.5,
		pos="571.91,524.57",
		width=0.75];
	76 -- 139	[pos="656.28,486.56 638.19,494.72 612.82,506.14 594.63,514.34"];
	95 -- 110	[pos="517.5,492.5 490.33,508.36 442.63,536.21 415.48,552.06"];
	96	[height=0.5,
		pos="420.93,608.01",
		width=0.75];
	95 -- 96	[pos="523.86,495.92 501.36,520.42 457.63,568.05 435.1,592.58"];
	77 -- 78	[pos="725.61,593.47 728.27,615.93 732.78,653.95 735.45,676.49"];
	106	[height=0.5,
		pos="640.5,663.81",
		width=0.75];
	77 -- 106	[pos="709.01,590.73 693.88,606.88 670.24,632.09 655.06,648.27"];
	78 -- 79	[pos="754.03,709.17 759.85,714.26 766.4,719.99 772.22,725.09"];
	112	[height=0.5,
		pos="415.3,738.53",
		width=0.75];
	78 -- 112	[pos="710.97,698.42 650.34,706.65 502.65,726.68 441.98,734.91"];
	110 -- 138	[pos="410.93,549.1 416.35,544.01 422.4,538.34 427.81,533.27"];
	111	[height=0.5,
		pos="444.51,694.5",
		width=0.75];
	110 -- 111	[pos="401.71,581.6 411.15,606.5 428.31,651.78 437.78,676.76"];
	79 -- 80	[pos="788.08,757.59 787.94,762.41 787.79,767.62 787.66,772.44"];
	84	[height=0.5,
		pos="658.89,752.22",
		width=0.75];
	79 -- 84	[pos="761.72,742.07 739.46,744.27 707.98,747.38 685.73,749.57"];
	85	[height=0.5,
		pos="658.87,796.42",
		width=0.75];
	80 -- 85	[pos="759.94,791.79 738.17,792.79 707.79,794.18 686.04,795.17"];
	138 -- 139	[pos="470.79,519.78 492.57,520.81 522.96,522.25 544.73,523.28"];
	83 -- 84	[pos="558.28,631.27 580.23,657.65 623.79,710.03 645.68,736.35"];
	122	[height=0.5,
		pos="353.2,746.1",
		width=0.75];
	83 -- 122	[pos="525.9,628.31 489.14,653.39 408.92,708.1 372.22,733.14"];
	84 -- 85	[pos="658.88,770.45 658.88,773.02 658.88,775.66 658.88,778.23"];
	84 -- 89	[pos="638.36,740.35 604.55,720.8 537.53,682.04 503.63,662.44"];
	90	[height=0.5,
		pos="523.21,738.3",
		width=0.75];
	85 -- 90	[pos="635.86,786.56 610.91,775.87 571.33,758.92 546.34,748.21"];
	140	[height=0.5,
		pos="542.24,568.61",
		width=0.75];
	139 -- 140	[pos="560.7,541.22 558.33,544.73 555.84,548.43 553.47,551.94"];
	103 -- 126	[pos="621.56,528.26 587.69,536.03 528.71,549.55 494.97,557.29"];
	103 -- 104	[pos="674.33,524.54 713.73,527.8 786.74,533.84 826.14,537.1"];
	89 -- 90	[pos="490.91,667.84 497.97,683.23 508.22,705.61 515.27,720.99"];
	146	[height=0.5,
		pos="455.62,782.56",
		width=0.75];
	89 -- 146	[pos="479.21,668.57 473.98,693.87 464.53,739.52 459.32,764.69"];
	126 -- 140	[pos="496.48,565.2 502.63,565.66 509.17,566.14 515.31,566.6"];
	127	[height=0.5,
		pos="291.09,709.82",
		width=0.75];
	126 -- 127	[pos="452.24,577.24 418.17,605.27 342.16,667.81 308.13,695.8"];
	90 -- 96	[pos="510.67,722.33 491.04,697.32 453.27,649.21 433.57,624.12"];
	141	[height=0.5,
		pos="607.03,598.7",
		width=0.75];
	140 -- 141	[pos="564.54,578.96 570.98,581.96 578.01,585.22 584.47,588.22"];
	104 -- 141	[pos="827.62,545.46 780.48,556.84 679.97,581.09 632.66,592.51"];
	104 -- 105	[pos="830.09,549.3 794.64,564.71 726.95,594.15 691.68,609.49"];
	96 -- 99	[pos="398.22,597.82 385.05,591.91 368.53,584.5 355.37,578.59"];
	142	[height=0.5,
		pos="675.6,708.2",
		width=0.75];
	141 -- 142	[pos="617.44,615.33 630.33,635.91 652.15,670.76 665.08,691.41"];
	105 -- 142	[pos="670.37,637.32 671.5,652.63 673.11,674.54 674.25,689.94"];
	105 -- 106	[pos="658.41,635.89 656.07,639.55 653.58,643.42 651.23,647.08"];
	108	[height=0.5,
		pos="355.4,679.56",
		width=0.75];
	99 -- 108	[pos="336.38,586.29 340.59,606.9 347.46,640.63 351.7,661.38"];
	143	[height=0.5,
		pos="517.67,782.7",
		width=0.75];
	142 -- 143	[pos="653.3,718.72 623.21,732.91 569.89,758.06 539.85,772.24"];
	106 -- 111	[pos="614.07,667.95 576.56,673.82 508.29,684.51 470.83,690.38"];
	106 -- 107	[pos="629.66,680.59 621.84,692.69 611.34,708.96 603.53,721.05"];
	111 -- 143	[pos="457.59,710.27 470.82,726.22 491.17,750.76 504.46,766.77"];
	111 -- 112	[pos="433.47,711.14 431.14,714.65 428.69,718.35 426.36,721.86"];
	107 -- 108	[pos="567.34,731.54 521.78,720.36 426.67,697.04 380.98,685.83"];
	147	[height=0.5,
		pos="481.87,834.92",
		width=0.75];
	107 -- 147	[pos="576.38,752.1 555.42,770.47 519.29,802.13 498.3,820.53"];
	113	[height=0.5,
		pos="262.4,753.97",
		width=0.75];
	108 -- 113	[pos="337.91,693.56 321.28,706.86 296.42,726.75 279.82,740.04"];
	144	[height=0.5,
		pos="393.26,799.15",
		width=0.75];
	143 -- 144	[pos="490.98,786.23 469.99,789 440.89,792.85 419.91,795.62"];
	112 -- 116	[pos="389.79,731.98 354.11,722.82 289.71,706.29 254.2,697.18"];
	112 -- 113	[pos="388.32,741.26 360.37,744.08 316.97,748.46 289.12,751.27"];
	116 -- 121	[pos="248.08,677.61 256.13,672.08 265.49,665.65 273.54,660.13"];
	117	[height=0.5,
		pos="200.18,753.46",
		width=0.75];
	116 -- 117	[pos="220.96,708.19 216.97,716.89 212.15,727.38 208.16,736.07"];
	121 -- 127	[pos="292.18,665.19 291.98,673.45 291.74,683.2 291.54,691.48"];
	121 -- 122	[pos="302.9,663.84 314.04,682.06 331.72,710.96 342.88,729.22"];
	127 -- 144	[pos="307.51,724.17 326.57,740.84 357.84,768.18 376.89,784.83"];
	128	[height=0.5,
		pos="297.29,847.64",
		width=0.75];
	127 -- 128	[pos="291.9,727.84 293.09,754.25 295.29,803.21 296.48,829.62"];
	113 -- 117	[pos="235.29,753.75 232.67,753.73 230.02,753.7 227.39,753.68"];
	145	[height=0.5,
		pos="361.6,843.21",
		width=0.75];
	144 -- 145	[pos="381.48,815.56 378.8,819.28 375.97,823.22 373.3,826.94"];
	122 -- 145	[pos="354.78,764.37 356.29,781.73 358.53,807.7 360.03,825.03"];
	123	[height=0.5,
		pos="255.5,798.59",
		width=0.75];
	122 -- 123	[pos="332,757.49 315.62,766.3 293.04,778.43 276.66,787.22"];
	117 -- 123	[pos="217.38,767.49 223.98,772.87 231.51,779.02 238.12,784.41"];
	145 -- 146	[pos="381.09,830.65 397.22,820.24 420.04,805.52 436.17,795.11"];
	123 -- 128	[pos="268.95,814.38 273.73,819.98 279.09,826.28 283.86,831.88"];
	146 -- 147	[pos="464.22,799.71 467.09,805.43 470.29,811.82 473.17,817.56"];
	148	[height=0.5,
		pos="353.61,891.72",
		width=0.75];
	128 -- 148	[pos="314.8,861.35 321.52,866.6 329.18,872.6 335.92,877.87"];
	147 -- 148	[pos="459.24,844.95 435.94,855.26 399.83,871.25 376.45,881.6"];
}
