graph {
	graph [bb="0,0,544.9,438.65",
		outputorder=edgesfirst,
		overlap=prism,
		size="50,50!",
		start=5371
	];
	node [label="\N"];
	0	[height=0.5,
		pos="120.09,107.63",
		width=0.75];
	8	[height=0.5,
		pos="301.01,19.146",
		width=0.75];
	0 -- 8	[pos="141.91,96.953 176.69,79.947 244.28,46.886 279.11,29.856"];
	2	[height=0.5,
		pos="300.78,206.47",
		width=0.75];
	0 -- 2	[pos="141.17,119.16 175.99,138.2 245.11,176.01 279.84,195.01"];
	6	[height=0.5,
		pos="190.16,18",
		width=0.75];
	0 -- 6	[pos="132.62,91.602 145.29,75.39 164.78,50.458 177.5,34.187"];
	9	[height=0.5,
		pos="191.39,239.22",
		width=0.75];
	0 -- 9	[pos="129.27,124.56 142.88,149.69 168.3,196.6 182.02,221.93"];
	1	[height=0.5,
		pos="108.73,295.29",
		width=0.75];
	0 -- 1	[pos="119,125.62 116.84,161.4 112.01,241.12 109.84,277.08"];
	14	[height=0.5,
		pos="366.71,122.34",
		width=0.75];
	8 -- 14	[pos="311.56,35.726 323.75,54.87 343.69,86.191 355.96,105.46"];
	16	[height=0.5,
		pos="234.53,136.35",
		width=0.75];
	8 -- 16	[pos="291.34,36.188 278.74,58.408 256.82,97.054 244.21,119.28"];
	2 -- 8	[pos="300.8,188.17 300.85,152.26 300.94,72.988 300.98,37.247"];
	3	[height=0.5,
		pos="470.33,122.13",
		width=0.75];
	2 -- 3	[pos="322.6,195.62 355.16,179.42 416.09,149.11 448.59,132.94"];
	12	[height=0.5,
		pos="461.14,241.97",
		width=0.75];
	2 -- 12	[pos="326.55,212.17 356.47,218.8 405.54,229.66 435.44,236.28"];
	5	[height=0.5,
		pos="416.65,368.49",
		width=0.75];
	2 -- 5	[pos="312.53,222.9 334.74,253.95 382.64,320.93 404.88,352.02"];
	15	[height=0.5,
		pos="293.74,377.55",
		width=0.75];
	2 -- 15	[pos="300.03,224.78 298.67,257.71 295.84,326.54 294.49,359.37"];
	3 -- 8	[pos="450.24,109.91 417.65,90.091 353.64,51.157 321.07,31.348"];
	3 -- 14	[pos="443.1,122.19 427.87,122.22 408.95,122.26 393.75,122.29"];
	4	[height=0.5,
		pos="517.9,285.98",
		width=0.75];
	3 -- 4	[pos="475.51,139.98 484.66,171.49 503.58,236.65 512.72,268.15"];
	3 -- 12	[pos="468.93,140.33 467.2,162.99 464.25,201.44 462.52,223.99"];
	11	[height=0.5,
		pos="363.34,265.55",
		width=0.75];
	3 -- 11	[pos="458.26,138.3 437.71,165.85 396.15,221.56 375.52,249.21"];
	14 -- 16	[pos="339.96,125.18 317.03,127.61 284.16,131.09 261.24,133.52"];
	6 -- 8	[pos="217.27,18.28 234.45,18.458 256.59,18.687 273.78,18.864"];
	6 -- 14	[pos="210.41,29.97 244.38,50.044 312.43,90.266 346.42,110.35"];
	6 -- 9	[pos="190.26,36.103 190.49,77.689 191.06,179.65 191.29,221.18"];
	6 -- 16	[pos="196.8,35.718 205.16,58.029 219.46,96.14 227.84,118.51"];
	4 -- 14	[pos="503.67,270.58 474.86,239.4 409.88,169.07 381.01,137.82"];
	4 -- 12	[pos="500.25,272.29 493.48,267.05 485.76,261.06 478.97,255.8"];
	4 -- 5	[pos="500.72,299.97 482.11,315.15 452.56,339.22 433.91,354.42"];
	4 -- 11	[pos="491.33,282.46 463.02,278.72 418.45,272.83 390.08,269.08"];
	7	[height=0.5,
		pos="355.92,420.65",
		width=0.75];
	4 -- 7	[pos="500.87,300.13 469.84,325.93 404.42,380.32 373.2,406.27"];
	12 -- 14	[pos="448.41,225.84 430.38,203.01 397.62,161.51 379.55,138.6"];
	12 -- 15	[pos="443.86,255.97 411.78,281.95 343.38,337.35 311.18,363.42"];
	5 -- 12	[pos="422.84,350.9 431.29,326.86 446.37,283.99 454.86,259.82"];
	5 -- 11	[pos="407.61,351.03 397.75,331.98 382.06,301.69 372.25,282.75"];
	5 -- 7	[pos="400.06,382.74 391.49,390.1 381.06,399.05 372.49,406.41"];
	5 -- 15	[pos="389.68,370.48 369.19,371.99 341.13,374.05 320.65,375.56"];
	10	[height=0.5,
		pos="212.16,359.12",
		width=0.75];
	5 -- 10	[pos="389.5,367.24 350.28,365.45 278.2,362.15 239.1,360.35"];
	11 -- 14	[pos="363.77,247.41 364.41,220.01 365.63,168.36 366.28,140.79"];
	11 -- 16	[pos="348.31,250.47 323.62,225.71 274.75,176.68 249.86,151.73"];
	9 -- 14	[pos="210.48,226.49 244.12,204.07 313.56,157.77 347.37,135.24"];
	9 -- 11	[pos="217.88,243.28 250.19,248.22 304.49,256.54 336.82,261.49"];
	9 -- 10	[pos="194.5,257.17 198.41,279.77 205.1,318.39 209.03,341.05"];
	13	[height=0.5,
		pos="27,390.23",
		width=0.75];
	9 -- 13	[pos="175.33,253.97 143.82,282.92 74.249,346.82 42.885,375.63"];
	9 -- 16	[pos="198.71,221.77 206.64,202.85 219.23,172.83 227.18,153.88"];
	7 -- 11	[pos="356.78,402.55 358.2,372.82 361.02,313.97 362.46,284.01"];
	7 -- 9	[pos="341.89,405.18 310.8,370.9 236.43,288.89 205.38,254.65"];
	7 -- 15	[pos="336.92,407.48 329.21,402.13 320.32,395.97 312.62,390.63"];
	7 -- 10	[pos="333.14,410.9 306.38,399.44 262.22,380.55 235.31,369.03"];
	10 -- 11	[pos="232.23,346.69 261.15,328.8 314.22,295.95 343.18,278.02"];
	10 -- 15	[pos="237.97,364.95 247.59,367.12 258.49,369.59 268.1,371.75"];
	10 -- 13	[pos="185.63,363.58 150.43,369.49 88.653,379.87 53.479,385.78"];
	10 -- 16	[pos="213.99,340.89 218.19,299.01 228.51,196.34 232.71,154.52"];
	1 -- 2	[pos="131.14,284.93 168.15,267.81 241.61,233.84 278.52,216.77"];
	1 -- 9	[pos="127.9,282.29 141.26,273.23 158.99,261.2 172.32,252.15"];
	1 -- 15	[pos="131.42,305.38 167.02,321.21 235.62,351.71 271.16,367.51"];
	1 -- 10	[pos="128.67,307.6 146.99,318.9 173.98,335.56 192.28,346.85"];
	1 -- 13	[pos="95.236,310.97 80.093,328.56 55.669,356.93 40.517,374.53"];
}
