graph {
	graph [bb="0,0,758.24,646.49",
		outputorder=edgesfirst,
		overlap=prism,
		size="50,50!",
		start=6596
	];
	node [label="\N"];
	0	[height=0.5,
		pos="129.97,288.95",
		width=0.75];
	1	[height=0.5,
		pos="163.77,206",
		width=0.75];
	0 -- 1	[pos="137.14,271.36 142.87,257.28 150.88,237.64 156.61,223.57"];
	3	[height=0.5,
		pos="282.99,313.72",
		width=0.75];
	0 -- 3	[pos="156.28,293.21 184.3,297.75 228.42,304.89 256.51,309.44"];
	2	[height=0.5,
		pos="330.31,261.86",
		width=0.75];
	0 -- 2	[pos="156.58,285.36 194.89,280.18 265.22,270.66 303.6,265.47"];
	16	[height=0.5,
		pos="136.98,117.91",
		width=0.75];
	0 -- 16	[pos="130.72,270.65 132.07,237.73 134.89,168.91 136.23,136.08"];
	7	[height=0.5,
		pos="51.378,413.95",
		width=0.75];
	0 -- 7	[pos="119.37,305.81 104.37,329.67 77.106,373.03 62.06,396.96"];
	18	[height=0.5,
		pos="73.12,237.32",
		width=0.75];
	0 -- 18	[pos="113.83,274.3 106.09,267.26 96.83,258.85 89.103,251.83"];
	10	[height=0.5,
		pos="164.18,411.04",
		width=0.75];
	0 -- 10	[pos="134.95,306.71 141.43,329.85 152.71,370.11 159.2,393.27"];
	11	[height=0.5,
		pos="210.4,367.01",
		width=0.75];
	0 -- 11	[pos="145.48,304 159.72,317.82 180.72,338.2 194.94,352"];
	20	[height=0.5,
		pos="27,335.38",
		width=0.75];
	0 -- 20	[pos="107.38,299.14 90.206,306.88 66.701,317.48 49.545,325.22"];
	23	[height=0.5,
		pos="85.566,161.91",
		width=0.75];
	0 -- 23	[pos="123.8,271.29 115.36,247.15 100.32,204.11 91.832,179.84"];
	1 -- 3	[pos="179.84,220.53 202.6,241.09 243.96,278.46 266.78,299.08"];
	1 -- 2	[pos="187.98,214.12 219.56,224.71 274.47,243.13 306.07,253.73"];
	1 -- 16	[pos="158.34,188.17 153.7,172.89 147.03,150.98 142.39,135.71"];
	12	[height=0.5,
		pos="226.37,145.88",
		width=0.75];
	1 -- 12	[pos="179.24,191.14 188.8,181.96 201.03,170.21 210.64,160.99"];
	1 -- 18	[pos="139.47,214.39 126.36,218.92 110.24,224.49 97.164,229.01"];
	1 -- 23	[pos="142.81,194.19 131.5,187.81 117.59,179.97 106.31,173.61"];
	25	[height=0.5,
		pos="450.74,205.13",
		width=0.75];
	3 -- 25	[pos="302.56,301.05 334.88,280.13 399.05,238.59 431.29,217.72"];
	3 -- 7	[pos="259.93,323.7 215.54,342.91 118.66,384.83 74.339,404.01"];
	4	[height=0.5,
		pos="541.65,266.76",
		width=0.75];
	3 -- 4	[pos="309.21,308.96 358.79,299.96 465.73,280.54 515.36,271.53"];
	19	[height=0.5,
		pos="432.36,426.92",
		width=0.75];
	3 -- 19	[pos="301.01,327.38 329.72,349.13 385.53,391.43 414.28,413.22"];
	6	[height=0.5,
		pos="340.1,156.47",
		width=0.75];
	3 -- 6	[pos="289.43,295.99 300.4,265.79 322.59,204.7 333.6,174.38"];
	5	[height=0.5,
		pos="411.32,160.6",
		width=0.75];
	3 -- 5	[pos="296.24,297.91 320.83,268.57 373.26,206 397.95,176.55"];
	3 -- 12	[pos="277.04,296.08 266.16,263.84 243.2,195.79 232.32,163.54"];
	8	[height=0.5,
		pos="308.71,105.19",
		width=0.75];
	3 -- 8	[pos="285.23,295.58 290.1,256.04 301.64,162.51 306.5,123.15"];
	3 -- 18	[pos="258.91,304.96 218.43,290.22 137.21,260.65 96.914,245.98"];
	3 -- 10	[pos="265.71,327.87 243.19,346.32 204.01,378.41 181.48,396.87"];
	3 -- 11	[pos="264.67,327.17 253.67,335.24 239.72,345.49 228.71,353.56"];
	14	[height=0.5,
		pos="358.21,478.79",
		width=0.75];
	3 -- 14	[pos="290.9,331.07 305.34,362.78 335.85,429.71 350.3,461.42"];
	3 -- 20	[pos="256.08,316 206.91,320.16 103.12,328.94 53.935,333.1"];
	22	[height=0.5,
		pos="353.8,555.11",
		width=0.75];
	3 -- 22	[pos="288.2,331.47 301.29,376.11 335.48,492.67 348.59,537.34"];
	29	[height=0.5,
		pos="497.72,425.75",
		width=0.75];
	3 -- 29	[pos="304.36,324.87 345.52,346.35 435.34,393.21 476.43,414.65"];
	2 -- 3	[pos="316.11,277.42 310.12,283.99 303.17,291.61 297.18,298.17"];
	2 -- 16	[pos="312.12,248.32 275.28,220.88 192.18,159.01 155.26,131.52"];
	2 -- 25	[pos="352.4,251.46 373.99,241.28 406.7,225.88 428.38,215.66"];
	2 -- 19	[pos="340.66,278.6 360.22,310.23 402.41,378.47 421.99,410.14"];
	2 -- 6	[pos="332.02,243.5 333.81,224.16 336.63,193.88 338.42,174.62"];
	2 -- 5	[pos="343.33,245.59 358.53,226.58 383.52,195.34 398.6,176.49"];
	2 -- 12	[pos="316.29,246.22 296.46,224.08 260.39,183.85 240.5,161.65"];
	2 -- 8	[pos="327.83,243.89 323.69,213.83 315.4,153.68 311.23,123.44"];
	13	[height=0.5,
		pos="277.45,18",
		width=0.75];
	2 -- 13	[pos="326.42,243.93 316.65,198.83 291.12,81.084 281.34,35.958"];
	9	[height=0.5,
		pos="607.41,277.33",
		width=0.75];
	2 -- 9	[pos="357.39,263.37 410.36,266.33 527.16,272.85 580.22,275.81"];
	24	[height=0.5,
		pos="520.31,316.39",
		width=0.75];
	2 -- 24	[pos="355.15,268.99 391.57,279.44 459.05,298.81 495.47,309.26"];
	2 -- 10	[pos="314.08,276.44 282.4,304.88 212.65,367.52 180.73,396.18"];
	15	[height=0.5,
		pos="227.56,470.92",
		width=0.75];
	2 -- 15	[pos="321.9,278.97 302.64,318.17 255.46,414.15 236.08,453.58"];
	2 -- 11	[pos="313.64,276.48 290.73,296.57 249.77,332.49 226.93,352.51"];
	2 -- 14	[pos="332.64,279.98 337.9,320.82 350.61,419.64 355.87,460.57"];
	28	[height=0.5,
		pos="546.31,373.91",
		width=0.75];
	2 -- 28	[pos="351.81,273.02 393.22,294.49 483.56,341.36 524.9,362.8"];
	17	[height=0.5,
		pos="587.12,192.61",
		width=0.75];
	2 -- 17	[pos="355.4,255.1 404.5,241.86 512.75,212.67 561.93,199.41"];
	2 -- 23	[pos="307.29,252.46 260.64,233.41 155.45,190.45 108.71,171.36"];
	16 -- 23	[pos="120.14,132.32 114.4,137.23 107.99,142.72 102.26,147.62"];
	7 -- 20	[pos="45.846,396.12 41.856,383.26 36.494,365.98 32.51,353.14"];
	4 -- 25	[pos="522.37,253.69 506.84,243.16 485.12,228.44 469.68,217.97"];
	4 -- 19	[pos="530.37,283.3 509.43,313.99 464.77,379.43 443.75,410.24"];
	4 -- 5	[pos="524.35,252.66 499.42,232.36 453.66,195.09 428.7,174.75"];
	4 -- 9	[pos="568.02,271 572.31,271.69 576.75,272.4 581.04,273.09"];
	21	[height=0.5,
		pos="731.24,230.23",
		width=0.75];
	4 -- 21	[pos="567.62,261.76 603.82,254.78 669.09,242.21 705.29,235.23"];
	4 -- 24	[pos="534.19,284.12 532.12,288.92 529.88,294.14 527.81,298.96"];
	4 -- 28	[pos="542.44,284.94 543.3,304.64 544.66,335.91 545.52,355.64"];
	4 -- 17	[pos="551.97,249.93 559.41,237.8 569.41,221.49 576.84,209.37"];
	27	[height=0.5,
		pos="729.47,148.97",
		width=0.75];
	4 -- 27	[pos="561.4,254.38 597.47,231.75 673.62,183.99 709.71,161.36"];
	4 -- 29	[pos="536.7,284.69 528.26,315.22 511.19,376.99 502.72,407.64"];
	19 -- 24	[pos="445.34,410.61 462.06,389.59 490.96,353.28 507.57,332.4"];
	19 -- 28	[pos="454.6,416.58 474.68,407.24 504.06,393.56 524.13,384.23"];
	26	[height=0.5,
		pos="434.93,628.49",
		width=0.75];
	19 -- 26	[pos="432.59,445.17 433.08,483.54 434.21,572.22 434.7,610.43"];
	19 -- 22	[pos="422.09,443.68 407.03,468.25 379.13,513.78 364.07,538.35"];
	19 -- 29	[pos="459.7,426.43 463.34,426.37 467.06,426.3 470.7,426.24"];
	6 -- 25	[pos="362.76,166.44 381.85,174.83 409.03,186.79 428.11,195.18"];
	6 -- 12	[pos="313.15,153.96 295.02,152.27 271.22,150.06 253.13,148.37"];
	6 -- 8	[pos="329.82,139.68 326.39,134.07 322.57,127.82 319.12,122.2"];
	5 -- 25	[pos="425.1,176.17 428.92,180.49 433.07,185.17 436.89,189.49"];
	5 -- 6	[pos="384.39,159.04 378.72,158.71 372.74,158.36 367.06,158.03"];
	5 -- 8	[pos="390.06,149.12 372.45,139.61 347.55,126.16 329.95,116.66"];
	12 -- 13	[pos="233.36,128.37 243.09,104.02 260.6,60.17 270.37,35.712"];
	12 -- 18	[pos="206.02,158.02 176.71,175.51 122.91,207.61 93.554,225.12"];
	8 -- 12	[pos="286.65,116.1 274.74,121.98 260.09,129.22 248.21,135.09"];
	8 -- 13	[pos="302.39,87.55 296.96,72.422 289.19,50.739 283.77,35.619"];
	9 -- 21	[pos="630.99,268.36 653.03,259.98 685.74,247.54 707.75,239.17"];
	9 -- 24	[pos="584.98,287.39 572.08,293.17 555.91,300.42 542.97,306.23"];
	9 -- 28	[pos="596.77,294.15 585.55,311.88 568,339.63 556.83,357.28"];
	9 -- 17	[pos="603.11,259.36 599.66,244.99 594.86,224.92 591.42,210.55"];
	21 -- 27	[pos="730.85,212.2 730.56,198.83 730.16,180.66 729.87,167.24"];
	18 -- 20	[pos="64.875,254.85 56.48,272.7 43.543,300.21 35.174,318"];
	24 -- 28	[pos="528.11,333.65 531.4,340.93 535.23,349.38 538.52,356.66"];
	10 -- 15	[pos="179.85,425.84 189.53,434.99 201.91,446.69 211.63,455.87"];
	10 -- 11	[pos="179.83,396.13 184.65,391.54 189.95,386.49 194.77,381.9"];
	11 -- 15	[pos="213.39,385.11 216.54,404.18 221.47,434.03 224.6,453.03"];
	14 -- 19	[pos="376.93,465.7 388.17,457.84 402.42,447.87 413.66,440.01"];
	14 -- 26	[pos="367.01,495.96 381.73,524.69 411.19,582.16 425.99,611.06"];
	14 -- 22	[pos="357.17,496.88 356.47,508.96 355.56,524.78 354.86,536.89"];
	28 -- 29	[pos="531.99,389.18 525.72,395.87 518.38,403.71 512.1,410.41"];
	17 -- 25	[pos="560.17,195.09 536.26,197.28 501.52,200.47 477.62,202.66"];
	17 -- 21	[pos="612.55,199.25 638.9,206.13 679.81,216.81 706.06,223.66"];
	17 -- 24	[pos="577.97,209.56 565.25,233.13 542.34,275.57 529.57,299.24"];
	17 -- 27	[pos="611.91,185.01 637.88,177.05 678.44,164.62 704.48,156.63"];
	22 -- 26	[pos="369.83,569.61 383.96,582.39 404.45,600.93 418.65,613.77"];
}
