graph {
	graph [bb="0,0,2002.4,1463.2",
		outputorder=edgesfirst,
		overlap=prism,
		size="50,50!",
		start=7772
	];
	node [label="\N"];
	0	[height=0.5,
		pos="995.59,918.49",
		width=0.75];
	20	[height=0.5,
		pos="814.04,1148.3",
		width=0.75];
	0 -- 20	[pos="982.82,934.65 949.49,976.84 860.11,1090 826.79,1132.1"];
	23	[height=0.5,
		pos="1113,1295.1",
		width=0.75];
	0 -- 23	[pos="1001.1,936.15 1020.8,999.25 1087.5,1213.3 1107.4,1277"];
	27	[height=0.5,
		pos="689.97,1086",
		width=0.75];
	0 -- 27	[pos="974.58,930 918.75,960.61 767.12,1043.7 711.12,1074.4"];
	30	[height=0.5,
		pos="1156.4,1115.8",
		width=0.75];
	0 -- 30	[pos="1008.8,934.64 1039.1,971.82 1113.5,1063.1 1143.5,1100"];
	31	[height=0.5,
		pos="1226.2,1148.4",
		width=0.75];
	0 -- 31	[pos="1010.7,933.57 1052.5,975.23 1169.1,1091.5 1211,1133.3"];
	6	[height=0.5,
		pos="1274.6,589.38",
		width=0.75];
	0 -- 6	[pos="1009,902.62 1056.3,846.89 1214.3,660.57 1261.3,605.1"];
	33	[height=0.5,
		pos="752.02,1118.2",
		width=0.75];
	0 -- 33	[pos="978.46,932.53 933.74,969.2 813.82,1067.5 769.12,1104.2"];
	36	[height=0.5,
		pos="875.27,619.98",
		width=0.75];
	0 -- 36	[pos="988.42,900.71 967.02,847.62 903.75,690.64 882.4,637.67"];
	37	[height=0.5,
		pos="1148.6,812.34",
		width=0.75];
	0 -- 37	[pos="1014.4,905.47 1043.7,885.1 1100.2,845.9 1129.7,825.46"];
	38	[height=0.5,
		pos="1330.5,793.92",
		width=0.75];
	0 -- 38	[pos="1019.4,909.63 1081,886.73 1244.9,825.76 1306.5,802.82"];
	39	[height=0.5,
		pos="953.5,1096.9",
		width=0.75];
	0 -- 39	[pos="991.32,936.57 983.23,970.85 965.77,1044.9 957.72,1079"];
	40	[height=0.5,
		pos="1019.8,786.11",
		width=0.75];
	0 -- 40	[pos="998.91,900.36 1003.5,875.01 1011.9,829.25 1016.5,804.02"];
	41	[height=0.5,
		pos="778.11,1051.6",
		width=0.75];
	0 -- 41	[pos="975.52,930.77 934.09,956.12 839.52,1014 798.13,1039.3"];
	43	[height=0.5,
		pos="747.3,818.43",
		width=0.75];
	0 -- 43	[pos="972.23,909.08 924.79,889.96 817.65,846.78 770.41,827.74"];
	45	[height=0.5,
		pos="721.68,924.51",
		width=0.75];
	0 -- 45	[pos="968.32,919.09 915.82,920.24 801.25,922.76 748.83,923.91"];
	47	[height=0.5,
		pos="812.91,728.69",
		width=0.75];
	0 -- 47	[pos="980.95,903.28 946.74,867.74 861.9,779.58 827.62,743.97"];
	17	[height=0.5,
		pos="998.02,489.77",
		width=0.75];
	0 -- 17	[pos="995.69,900.34 996.09,830.38 997.51,578.55 997.91,508.17"];
	48	[height=0.5,
		pos="926.61,1215.1",
		width=0.75];
	0 -- 48	[pos="991.38,936.6 979.03,989.68 943.04,1144.5 930.76,1197.2"];
	51	[height=0.5,
		pos="1164,1159.8",
		width=0.75];
	0 -- 51	[pos="1007.2,935.07 1038,979.26 1121.9,1099.5 1152.6,1143.4"];
	21	[height=0.5,
		pos="572.37,1183.2",
		width=0.75];
	20 -- 21	[pos="787.25,1152.2 740.67,1158.9 645.31,1172.7 598.91,1179.4"];
	24	[height=0.5,
		pos="1161.7,1397",
		width=0.75];
	23 -- 24	[pos="1121.3,1312.3 1130.2,1331.1 1144.4,1360.8 1153.4,1379.6"];
	28	[height=0.5,
		pos="415.06,1101.1",
		width=0.75];
	27 -- 28	[pos="662.86,1087.5 610.3,1090.4 495.1,1096.7 442.38,1099.6"];
	32	[height=0.5,
		pos="1369.1,1143.6",
		width=0.75];
	31 -- 32	[pos="1253.4,1147.5 1278.8,1146.6 1316.6,1145.3 1342,1144.5"];
	6 -- 17	[pos="1250.6,580.72 1198.1,561.83 1074,517.15 1021.8,498.35"];
	55	[height=0.5,
		pos="959.96,659.39",
		width=0.75];
	6 -- 55	[pos="1248.9,595.11 1189.7,608.27 1044.7,640.54 985.63,653.68"];
	12	[height=0.5,
		pos="969,579.89",
		width=0.75];
	6 -- 12	[pos="1247.5,588.54 1189.5,586.74 1054,582.53 996.06,580.73"];
	87	[height=0.5,
		pos="1206.4,766.55",
		width=0.75];
	6 -- 87	[pos="1267.8,607.02 1254.8,640.98 1226.2,715.08 1213.2,748.98"];
	188	[height=0.5,
		pos="1392.5,779.83",
		width=0.75];
	6 -- 188	[pos="1285.1,606.28 1307.5,642.42 1359.7,726.86 1382.1,762.96"];
	14	[height=0.5,
		pos="833.54,468.25",
		width=0.75];
	6 -- 14	[pos="1249.6,582.52 1172.1,561.23 936.06,496.4 858.52,475.11"];
	219	[height=0.5,
		pos="1311.4,433.76",
		width=0.75];
	6 -- 219	[pos="1278.8,571.53 1285.9,541.67 1300,481.92 1307.1,451.88"];
	222	[height=0.5,
		pos="1349,372.38",
		width=0.75];
	6 -- 222	[pos="1280.7,571.62 1294.7,530.83 1329,430.82 1342.9,390.08"];
	225	[height=0.5,
		pos="1564.3,531.34",
		width=0.75];
	6 -- 225	[pos="1300.6,584.18 1355.6,573.16 1483.3,547.58 1538.3,536.55"];
	229	[height=0.5,
		pos="1520.6,575.37",
		width=0.75];
	6 -- 229	[pos="1301.9,587.83 1349.3,585.13 1446.4,579.6 1493.6,576.91"];
	232	[height=0.5,
		pos="1276.6,846.7",
		width=0.75];
	6 -- 232	[pos="1274.8,607.48 1275.1,654.72 1276.1,781.4 1276.5,828.62"];
	234	[height=0.5,
		pos="1022,623.99",
		width=0.75];
	6 -- 234	[pos="1248.1,593.02 1199.5,599.67 1097.1,613.7 1048.6,620.35"];
	236	[height=0.5,
		pos="1142.2,468.57",
		width=0.75];
	6 -- 236	[pos="1258.7,574.81 1233.2,551.59 1183.7,506.45 1158.2,483.19"];
	238	[height=0.5,
		pos="1473.3,371.92",
		width=0.75];
	6 -- 238	[pos="1288.9,573.74 1325.6,533.62 1422.6,427.38 1459.1,387.41"];
	242	[height=0.5,
		pos="1527.5,833.9",
		width=0.75];
	6 -- 242	[pos="1290.1,604.31 1335.2,647.96 1466.6,775.06 1511.9,818.86"];
	246	[height=0.5,
		pos="1305,748.5",
		width=0.75];
	6 -- 246	[pos="1278.1,607.33 1283.9,637.89 1295.7,699.7 1301.6,730.38"];
	120	[height=0.5,
		pos="773.86,668.21",
		width=0.75];
	6 -- 120	[pos="1248.1,593.56 1161.3,607.22 887.01,650.39 800.36,664.03"];
	157	[height=0.5,
		pos="1582.6,786.73",
		width=0.75];
	6 -- 157	[pos="1294.4,602.03 1350,637.67 1507.6,738.68 1563,774.19"];
	34	[height=0.5,
		pos="511.17,1139.2",
		width=0.75];
	33 -- 34	[pos="724.86,1120.6 678.48,1124.6 584.54,1132.8 538.23,1136.9"];
	42	[height=0.5,
		pos="596.14,1007.1",
		width=0.75];
	41 -- 42	[pos="752.42,1045.3 717.74,1036.8 656.31,1021.8 621.7,1013.3"];
	44	[height=0.5,
		pos="663.93,637.68",
		width=0.75];
	43 -- 44	[pos="739.3,801.1 723.37,766.55 687.82,689.46 671.9,654.96"];
	46	[height=0.5,
		pos="622.58,792.46",
		width=0.75];
	45 -- 46	[pos="709.53,908.31 690.51,882.97 653.91,834.21 634.83,808.79"];
	105	[height=0.5,
		pos="1036.8,671.76",
		width=0.75];
	17 -- 105	[pos="1001.9,507.89 1009.3,542.77 1025.6,618.89 1033,653.72"];
	19	[height=0.5,
		pos="1145,894.38",
		width=0.75];
	17 -- 19	[pos="1004.4,507.42 1028.6,574.04 1114.3,809.87 1138.5,876.64"];
	325	[height=0.5,
		pos="1390.7,482.05",
		width=0.75];
	17 -- 325	[pos="1025,489.24 1096.8,487.83 1291.6,484 1363.6,482.59"];
	339	[height=0.5,
		pos="913.37,716.92",
		width=0.75];
	17 -- 339	[pos="991.38,507.6 975.55,550.06 935.78,656.8 919.98,699.18"];
	385	[height=0.5,
		pos="888.8,423.05",
		width=0.75];
	17 -- 385	[pos="977.99,477.53 958.4,465.57 928.74,447.45 909.08,435.43"];
	388	[height=0.5,
		pos="989.94,726.03",
		width=0.75];
	17 -- 388	[pos="997.4,507.92 995.89,551.9 992.07,663.78 990.56,707.82"];
	81	[height=0.5,
		pos="812.56,334.99",
		width=0.75];
	17 -- 81	[pos="980.9,475.49 945.57,446 864.93,378.7 829.64,349.24"];
	144	[height=0.5,
		pos="671.16,429.79",
		width=0.75];
	17 -- 144	[pos="971.82,484.97 910.62,473.74 758.8,445.88 697.48,434.62"];
	184	[height=0.5,
		pos="1254.6,678.51",
		width=0.75];
	17 -- 184	[pos="1016.5,503.35 1063.8,538.17 1189.2,630.38 1236.3,665.06"];
	216	[height=0.5,
		pos="1322.9,545.35",
		width=0.75];
	17 -- 216	[pos="1024.3,494.27 1085.2,504.69 1235.2,530.35 1296.3,540.8"];
	266	[height=0.5,
		pos="733.22,426.39",
		width=0.75];
	17 -- 266	[pos="972.15,483.58 921.39,471.43 809.33,444.61 758.8,432.52"];
	290	[height=0.5,
		pos="1044.5,218.06",
		width=0.75];
	17 -- 290	[pos="1001.1,471.52 1009.6,422.03 1033,285.64 1041.4,236.23"];
	310	[height=0.5,
		pos="1283.1,291.1",
		width=0.75];
	17 -- 310	[pos="1016.7,476.74 1068.4,440.74 1212.6,340.24 1264.4,304.18"];
	362	[height=0.5,
		pos="687.22,331.27",
		width=0.75];
	17 -- 362	[pos="976.16,478.63 919.1,449.53 766.09,371.49 709.05,342.41"];
	373	[height=0.5,
		pos="917.73,246.96",
		width=0.75];
	17 -- 373	[pos="992.11,471.92 977.27,427.02 938.5,309.77 923.64,264.84"];
	381	[height=0.5,
		pos="923.42,334.91",
		width=0.75];
	17 -- 381	[pos="989.75,472.61 975.41,442.84 946.09,381.97 931.73,352.15"];
	49	[height=0.5,
		pos="871.03,1370.6",
		width=0.75];
	48 -- 49	[pos="920.34,1232.6 909.67,1262.5 888.08,1322.9 877.36,1352.9"];
	52	[height=0.5,
		pos="1237.3,1095.7",
		width=0.75];
	51 -- 52	[pos="1180.6,1145.3 1192.6,1134.8 1208.8,1120.7 1220.7,1110.2"];
	1	[height=0.5,
		pos="650.42,740.35",
		width=0.75];
	2	[height=0.5,
		pos="1022.8,865.84",
		width=0.75];
	1 -- 2	[pos="674.57,748.49 741.77,771.14 930.5,834.74 998.22,857.56"];
	3	[height=0.5,
		pos="509.89,707.74",
		width=0.75];
	1 -- 3	[pos="624.65,734.37 599.29,728.49 560.8,719.55 535.5,713.68"];
	53	[height=0.5,
		pos="919.63,905.83",
		width=0.75];
	1 -- 53	[pos="670.66,752.79 720.67,783.53 849.66,862.82 899.53,893.48"];
	54	[height=0.5,
		pos="958.19,861.17",
		width=0.75];
	1 -- 54	[pos="673.81,749.53 731.04,772 877.64,829.55 934.84,852"];
	1 -- 55	[pos="675.75,733.73 733.94,718.51 876.61,681.19 934.72,665.99"];
	56	[height=0.5,
		pos="356.64,789.71",
		width=0.75];
	1 -- 56	[pos="624.09,744.78 568.32,754.15 438.83,775.9 383.02,785.28"];
	60	[height=0.5,
		pos="410.12,427.35",
		width=0.75];
	1 -- 60	[pos="637.84,723.96 596.32,669.88 463.92,497.42 422.57,443.57"];
	64	[height=0.5,
		pos="844.94,573.3",
		width=0.75];
	1 -- 64	[pos="667.01,726.11 703.67,694.63 791.25,619.41 828.12,587.75"];
	66	[height=0.5,
		pos="1146.1,633.95",
		width=0.75];
	1 -- 66	[pos="676.37,734.78 761.92,716.42 1034.5,657.91 1120.1,639.53"];
	67	[height=0.5,
		pos="464.64,1029.2",
		width=0.75];
	1 -- 67	[pos="639.63,757.13 606.8,808.17 508.34,961.23 475.46,1012.3"];
	1 -- 12	[pos="672.32,729.32 730.66,699.94 889.34,620.01 947.37,590.78"];
	71	[height=0.5,
		pos="353.45,739.07",
		width=0.75];
	1 -- 71	[pos="623.28,740.23 566.87,739.99 437.49,739.43 380.85,739.18"];
	75	[height=0.5,
		pos="633.37,528.67",
		width=0.75];
	1 -- 75	[pos="648.97,722.3 645.75,682.31 638.04,586.63 634.82,546.68"];
	76	[height=0.5,
		pos="408.43,683.79",
		width=0.75];
	1 -- 76	[pos="624.53,734.3 577.95,723.41 480.58,700.65 434.14,689.8"];
	16	[height=0.5,
		pos="782.94,558.49",
		width=0.75];
	1 -- 16	[pos="662.42,723.89 687.65,689.27 745.94,609.26 771.07,574.79"];
	79	[height=0.5,
		pos="537.6,470.89",
		width=0.75];
	1 -- 79	[pos="643.02,722.67 622.53,673.73 565.23,536.88 544.88,488.29"];
	18	[height=0.5,
		pos="907.73,950.07",
		width=0.75];
	1 -- 18	[pos="667.71,754.44 714.58,792.64 843.74,897.91 890.52,936.05"];
	82	[height=0.5,
		pos="783.7,918.08",
		width=0.75];
	1 -- 82	[pos="662.72,756.75 688.18,790.7 746.36,868.29 771.62,901.98"];
	22	[height=0.5,
		pos="526.66,988.58",
		width=0.75];
	1 -- 22	[pos="641.72,757.81 618.94,803.49 557.77,926.18 535.19,971.47"];
	2 -- 16	[pos="1010.2,849.75 968.88,796.76 837.25,628.09 795.66,574.8"];
	84	[height=0.5,
		pos="684.94,784.4",
		width=0.75];
	2 -- 84	[pos="997.4,859.72 934.78,844.63 773.55,805.76 710.62,790.59"];
	4	[height=0.5,
		pos="1194.8,1051.4",
		width=0.75];
	2 -- 4	[pos="1037.2,881.35 1069.6,916.37 1148.3,1001.2 1180.6,1036.1"];
	85	[height=0.5,
		pos="1256.9,1037.5",
		width=0.75];
	2 -- 85	[pos="1041.2,879.31 1084.9,911.41 1194.9,992.08 1238.6,1024.1"];
	2 -- 87	[pos="1043.9,854.45 1079.2,835.35 1150,797.07 1185.3,777.96"];
	7	[height=0.5,
		pos="587.8,740.13",
		width=0.75];
	2 -- 7	[pos="997.84,858.63 921.12,836.46 689.24,769.44 612.65,747.31"];
	88	[height=0.5,
		pos="906.97,573.82",
		width=0.75];
	2 -- 88	[pos="1015.7,848.02 994.99,795.76 934.56,643.37 913.95,591.41"];
	89	[height=0.5,
		pos="1465.2,827.96",
		width=0.75];
	2 -- 89	[pos="1049.8,863.53 1128.9,856.76 1359.3,837.03 1438.3,830.27"];
	93	[height=0.5,
		pos="1479.5,934.49",
		width=0.75];
	2 -- 93	[pos="1049.3,869.83 1130,881.96 1372,918.34 1452.9,930.49"];
	97	[height=0.5,
		pos="988.62,1204.8",
		width=0.75];
	2 -- 97	[pos="1021,884.07 1015,942.91 996.41,1127.5 990.47,1186.5"];
	101	[height=0.5,
		pos="1338.7,890.17",
		width=0.75];
	2 -- 101	[pos="1049.7,867.92 1109.4,872.51 1252.2,883.51 1311.8,888.1"];
	13	[height=0.5,
		pos="596.78,839.8",
		width=0.75];
	2 -- 13	[pos="995.82,864.2 919.18,859.51 700.74,846.15 623.91,841.46"];
	104	[height=0.5,
		pos="897.96,672.89",
		width=0.75];
	2 -- 104	[pos="1011.9,849.06 988.26,812.48 932.27,725.93 908.71,689.5"];
	15	[height=0.5,
		pos="658.87,591.75",
		width=0.75];
	2 -- 15	[pos="1004.7,852.25 942.79,805.59 739.15,652.22 677.02,605.43"];
	2 -- 105	[pos="1024.1,847.59 1026.8,810.5 1032.9,726.76 1035.5,689.83"];
	106	[height=0.5,
		pos="1119,1207",
		width=0.75];
	2 -- 106	[pos="1027.8,883.71 1044.4,942.53 1097.2,1129.8 1113.9,1188.9"];
	110	[height=0.5,
		pos="1300.4,1105.4",
		width=0.75];
	2 -- 110	[pos="1039.3,880.11 1088.6,922.61 1234,1048.1 1283.6,1090.9"];
	26	[height=0.5,
		pos="1183,1203.8",
		width=0.75];
	2 -- 26	[pos="1031,883.07 1058.4,941.04 1147.4,1128.7 1174.8,1186.6"];
	3 -- 12	[pos="534.9,700.77 614.9,678.5 863.94,609.14 943.97,586.86"];
	3 -- 16	[pos="530.86,696.28 581.69,668.5 711,597.82 761.89,570"];
	3 -- 84	[pos="532.78,717.76 566.42,732.49 628.84,759.83 662.32,774.5"];
	113	[height=0.5,
		pos="587.08,927.95",
		width=0.75];
	3 -- 113	[pos="516.08,725.39 530.53,766.62 566.38,868.9 580.86,910.21"];
	115	[height=0.5,
		pos="636.52,883.91",
		width=0.75];
	3 -- 115	[pos="521.58,724 545.64,757.47 600.49,833.78 624.68,867.44"];
	117	[height=0.5,
		pos="226.2,698.33",
		width=0.75];
	3 -- 117	[pos="482.69,706.84 428.47,705.04 307.48,701.03 253.32,699.23"];
	121	[height=0.5,
		pos="170.04,653.78",
		width=0.75];
	3 -- 121	[pos="483.51,703.55 420.19,693.5 260.18,668.09 196.64,658.01"];
	8	[height=0.5,
		pos="872.7,379",
		width=0.75];
	3 -- 8	[pos="525.95,693.19 585.88,638.89 796.11,448.4 856.42,393.76"];
	125	[height=0.5,
		pos="348.06,390.17",
		width=0.75];
	3 -- 125	[pos="501.19,690.66 473.09,635.52 384.96,462.59 356.8,407.33"];
	129	[height=0.5,
		pos="693.32,481.75",
		width=0.75];
	3 -- 129	[pos="522.79,691.85 556.47,650.36 646.77,539.1 680.43,497.63"];
	132	[height=0.5,
		pos="305.71,865.38",
		width=0.75];
	3 -- 132	[pos="492.13,721.45 453.51,751.27 362.29,821.7 323.58,851.59"];
	135	[height=0.5,
		pos="166.1,764.07",
		width=0.75];
	3 -- 135	[pos="483.49,712.07 419.49,722.55 256.69,749.23 192.6,759.73"];
	138	[height=0.5,
		pos="275.72,480.19",
		width=0.75];
	3 -- 138	[pos="494.53,692.81 452.1,651.58 333.64,536.47 291.14,495.18"];
	140	[height=0.5,
		pos="226.02,609.27",
		width=0.75];
	3 -- 140	[pos="485.69,699.34 432.06,680.74 303.73,636.23 250.16,617.64"];
	143	[height=0.5,
		pos="435,471.43",
		width=0.75];
	3 -- 143	[pos="504.26,689.98 490.35,646.08 454.47,532.85 440.59,489.07"];
	145	[height=0.5,
		pos="254.66,971.92",
		width=0.75];
	3 -- 145	[pos="495.07,723.08 449.96,769.78 314.69,909.78 269.53,956.53"];
	149	[height=0.5,
		pos="337.21,967.75",
		width=0.75];
	3 -- 149	[pos="498.83,724.4 467.64,771.36 379.26,904.44 348.18,951.23"];
	29	[height=0.5,
		pos="415.86,923.41",
		width=0.75];
	3 -- 29	[pos="502.2,725.39 484.48,766.03 440.97,865.82 423.4,906.12"];
	57	[height=0.5,
		pos="144.39,707.53",
		width=0.75];
	56 -- 57	[pos="333.11,780.61 292.31,764.81 208.89,732.51 168.02,716.68"];
	61	[height=0.5,
		pos="421.57,264.22",
		width=0.75];
	60 -- 61	[pos="411.39,409.27 413.59,377.91 418.09,313.8 420.29,282.39"];
	65	[height=0.5,
		pos="1184.5,518.99",
		width=0.75];
	64 -- 65	[pos="871.31,569.09 934.58,558.97 1094.5,533.4 1158,523.24"];
	68	[height=0.5,
		pos="435.99,1145.3",
		width=0.75];
	67 -- 68	[pos="460.23,1047.1 454.86,1068.8 445.85,1105.4 440.45,1127.2"];
	12 -- 40	[pos="973.42,597.83 983.03,636.83 1005.7,728.97 1015.4,768.06"];
	12 -- 17	[pos="974.73,562.08 979.82,546.28 987.21,523.33 992.3,507.54"];
	12 -- 13	[pos="950.29,592.95 886.75,637.32 679.68,781.91 615.75,826.55"];
	12 -- 14	[pos="951.84,565.75 925.79,544.27 876.53,503.68 850.56,482.27"];
	278	[height=0.5,
		pos="962.85,395.54",
		width=0.75];
	12 -- 278	[pos="968.4,561.87 967.22,526.63 964.63,448.93 963.45,413.63"];
	332	[height=0.5,
		pos="895.67,816.74",
		width=0.75];
	12 -- 332	[pos="963.49,597.69 949.87,641.69 914.73,755.17 901.15,799.05"];
	343	[height=0.5,
		pos="762.61,470.4",
		width=0.75];
	12 -- 343	[pos="947.69,568.58 908.04,547.55 823.37,502.63 783.81,481.64"];
	344	[height=0.5,
		pos="989.73,285.41",
		width=0.75];
	12 -- 344	[pos="970.3,561.46 974.03,508.46 984.76,355.98 988.46,303.45"];
	348	[height=0.5,
		pos="957.82,815.99",
		width=0.75];
	12 -- 348	[pos="968.14,598.02 966.06,641.97 960.76,753.78 958.68,797.79"];
	349	[height=0.5,
		pos="1373.7,633.41",
		width=0.75];
	12 -- 349	[pos="995.55,583.4 1068.9,593.1 1273.6,620.17 1347.1,629.89"];
	103	[height=0.5,
		pos="1304,634.47",
		width=0.75];
	12 -- 103	[pos="995.29,584.17 1057.8,594.35 1214.6,619.89 1277.4,630.13"];
	171	[height=0.5,
		pos="1086.5,817.87",
		width=0.75];
	12 -- 171	[pos="977.45,597 999.08,640.8 1056.3,756.61 1078,800.59"];
	207	[height=0.5,
		pos="1387.4,683.64",
		width=0.75];
	12 -- 207	[pos="994.54,586.22 1069.3,604.76 1287.2,658.8 1361.9,677.32"];
	256	[height=0.5,
		pos="643.78,385.78",
		width=0.75];
	12 -- 256	[pos="948.65,567.74 890.25,532.88 722.51,432.77 664.12,397.92"];
	295	[height=0.5,
		pos="1266.3,501.33",
		width=0.75];
	12 -- 295	[pos="994.35,573.19 1050.5,558.35 1184.9,522.84 1241,508.01"];
	315	[height=0.5,
		pos="1328.7,499.68",
		width=0.75];
	12 -- 315	[pos="994.87,574.12 1061.2,559.32 1237,520.13 1303.1,505.39"];
	72	[height=0.5,
		pos="138.06,883.77",
		width=0.75];
	71 -- 72	[pos="334.34,751.91 293.46,779.37 197.97,843.52 157.13,870.96"];
	77	[height=0.5,
		pos="232.4,553.1",
		width=0.75];
	76 -- 77	[pos="390.25,670.3 356.43,645.19 284.22,591.58 250.48,566.52"];
	16 -- 47	[pos="786.09,576.39 791.85,609.07 804,678.08 809.76,710.78"];
	16 -- 18	[pos="788.62,576.34 809.41,641.57 881.17,866.72 902.01,932.13"];
	264	[height=0.5,
		pos="591.82,572.7",
		width=0.75];
	16 -- 264	[pos="755.96,560.5 719.54,563.21 655.01,568 618.66,570.71"];
	338	[height=0.5,
		pos="748.27,774.41",
		width=0.75];
	16 -- 338	[pos="780.04,576.53 773.51,617.17 757.72,715.53 751.18,756.27"];
	16 -- 385	[pos="795.5,542.43 815.87,516.36 855.9,465.15 876.26,439.09"];
	386	[height=0.5,
		pos="1093.5,561.22",
		width=0.75];
	16 -- 386	[pos="809.96,558.73 868.7,559.25 1007.5,560.46 1066.4,560.98"];
	182	[height=0.5,
		pos="716.39,880.49",
		width=0.75];
	16 -- 182	[pos="779.17,576.73 767.46,633.4 731.77,806.06 720.12,862.46"];
	214	[height=0.5,
		pos="1132.9,722.02",
		width=0.75];
	16 -- 214	[pos="805.1,568.85 868.06,598.27 1047.5,682.12 1110.6,711.61"];
	241	[height=0.5,
		pos="1102.2,264.32",
		width=0.75];
	16 -- 241	[pos="798.77,543.91 853.12,493.82 1031.7,329.22 1086.2,279"];
	286	[height=0.5,
		pos="758.05,290.35",
		width=0.75];
	16 -- 286	[pos="781.27,540.48 776.74,491.75 764.3,357.68 759.74,308.63"];
	306	[height=0.5,
		pos="1070.9,317.95",
		width=0.75];
	16 -- 306	[pos="800.09,544.17 851.31,501.39 1002.8,374.89 1053.9,332.21"];
	324	[height=0.5,
		pos="1204.2,474.84",
		width=0.75];
	16 -- 324	[pos="808.97,553.32 884.41,538.35 1102.5,495.03 1178.1,480.03"];
	347	[height=0.5,
		pos="860.62,290.97",
		width=0.75];
	16 -- 347	[pos="788.15,540.53 802.31,491.79 841.3,357.5 855.43,308.86"];
	358	[height=0.5,
		pos="486.91,515.61",
		width=0.75];
	16 -- 358	[pos="756.41,554.65 700.21,546.51 569.73,527.61 513.49,519.46"];
	369	[height=0.5,
		pos="644.2,287.21",
		width=0.75];
	16 -- 369	[pos="774.05,541.11 748.99,492.11 677.99,353.27 653.02,304.45"];
	80	[height=0.5,
		pos="558.23,304.52",
		width=0.75];
	79 -- 80	[pos="539.85,452.77 543.82,420.77 552.02,354.61 555.99,322.62"];
	291	[height=0.5,
		pos="835.9,670.04",
		width=0.75];
	18 -- 291	[pos="903.13,932.13 890.15,881.55 853.39,738.23 840.46,687.83"];
	18 -- 348	[pos="914.28,932.54 923.88,906.85 941.67,859.22 951.27,833.52"];
	18 -- 388	[pos="914.18,932.49 929.55,890.61 968.18,785.33 983.52,743.53"];
	389	[height=0.5,
		pos="1114.2,1251",
		width=0.75];
	18 -- 389	[pos="919.13,966.68 955.23,1019.3 1066.8,1181.9 1102.9,1234.5"];
	50	[height=0.5,
		pos="866.01,1259.2",
		width=0.75];
	18 -- 50	[pos="905.31,968.03 897.93,1022.7 875.82,1186.5 868.44,1241.1"];
	109	[height=0.5,
		pos="971.48,1293.1",
		width=0.75];
	18 -- 109	[pos="911.07,968.03 922.06,1027.2 957.04,1215.4 968.1,1274.9"];
	148	[height=0.5,
		pos="647.96,1161.9",
		width=0.75];
	18 -- 148	[pos="890.28,964.3 842.96,1002.9 712.56,1109.2 665.33,1147.7"];
	186	[height=0.5,
		pos="1056.9,1203.2",
		width=0.75];
	18 -- 186	[pos="917.75,967.08 944.94,1013.2 1019.8,1140.3 1047,1186.3"];
	245	[height=0.5,
		pos="1245,1193.6",
		width=0.75];
	18 -- 245	[pos="926.34,963.51 985.31,1006.1 1167.6,1137.7 1226.5,1180.2"];
	268	[height=0.5,
		pos="699.09,1037.8",
		width=0.75];
	18 -- 268	[pos="884.61,959.8 844.39,976.71 762.06,1011.3 722,1028.2"];
	328	[height=0.5,
		pos="1333.8,1011.1",
		width=0.75];
	18 -- 328	[pos="934.38,953.89 1010.9,964.84 1230.6,996.31 1307.1,1007.3"];
	342	[height=0.5,
		pos="803.69,1250",
		width=0.75];
	18 -- 342	[pos="901.53,967.94 883.03,1021.3 828.32,1179 809.85,1232.3"];
	377	[height=0.5,
		pos="627.97,1095.1",
		width=0.75];
	18 -- 377	[pos="886.24,961.21 834.17,988.21 701.68,1056.9 649.53,1083.9"];
	383	[height=0.5,
		pos="659.62,935.24",
		width=0.75];
	18 -- 383	[pos="880.71,948.46 832.98,945.6 734.32,939.7 686.61,936.85"];
	83	[height=0.5,
		pos="1031.8,988.37",
		width=0.75];
	82 -- 83	[pos="808.85,925.21 856.39,938.68 958.95,967.74 1006.5,981.23"];
	4 -- 30	[pos="1184.7,1068.3 1179.1,1077.7 1172.2,1089.4 1166.6,1098.8"];
	4 -- 53	[pos="1173.2,1040 1121.8,1012.8 992.47,944.37 941.13,917.21"];
	153	[height=0.5,
		pos="1378.7,1099.3",
		width=0.75];
	4 -- 153	[pos="1220,1058 1255.1,1067.1 1318.4,1083.6 1353.6,1092.7"];
	154	[height=0.5,
		pos="1520.9,1120.5",
		width=0.75];
	4 -- 154	[pos="1220.7,1056.9 1281.7,1069.8 1434,1102.1 1495,1115"];
	158	[height=0.5,
		pos="853.4,905.73",
		width=0.75];
	4 -- 158	[pos="1171.9,1041.6 1109.7,1015.1 938.31,941.96 876.23,915.47"];
	159	[height=0.5,
		pos="1403.2,844.61",
		width=0.75];
	4 -- 159	[pos="1210.1,1036.2 1248.8,997.88 1349.8,897.62 1388.1,859.56"];
	9	[height=0.5,
		pos="1341.5,589.36",
		width=0.75];
	4 -- 9	[pos="1200.5,1033.6 1223.8,960.04 1312.5,680.6 1335.8,607.14"];
	162	[height=0.5,
		pos="1570.1,1074.7",
		width=0.75];
	4 -- 162	[pos="1221.8,1053.1 1291,1057.4 1473.9,1068.7 1543.1,1073"];
	166	[height=0.5,
		pos="1254.4,1309.1",
		width=0.75];
	4 -- 166	[pos="1199,1069.6 1210,1116.9 1239.3,1243.7 1250.2,1291"];
	170	[height=0.5,
		pos="1287.1,967.04",
		width=0.75];
	4 -- 170	[pos="1210.9,1036.7 1227.7,1021.3 1254,997.29 1270.9,981.86"];
	172	[height=0.5,
		pos="998.56,1350.1",
		width=0.75];
	4 -- 172	[pos="1183.7,1068.3 1149.2,1120.9 1043.9,1281.1 1009.5,1333.4"];
	176	[height=0.5,
		pos="1070.9,741.95",
		width=0.75];
	4 -- 176	[pos="1187.8,1033.9 1166,979.56 1099.8,814.27 1078,759.66"];
	177	[height=0.5,
		pos="1059.6,1032.4",
		width=0.75];
	4 -- 177	[pos="1168.1,1047.7 1144.4,1044.3 1109.9,1039.5 1086.3,1036.2"];
	179	[height=0.5,
		pos="1035.5,1304.9",
		width=0.75];
	4 -- 179	[pos="1184.4,1068.1 1155.5,1114 1074.9,1242.2 1046,1288.2"];
	183	[height=0.5,
		pos="1349.2,934.2",
		width=0.75];
	4 -- 183	[pos="1212.8,1037.8 1242.6,1015.2 1301.6,970.32 1331.3,947.79"];
	185	[height=0.5,
		pos="1207.1,1248.5",
		width=0.75];
	4 -- 185	[pos="1196,1069.6 1198.3,1107.2 1203.7,1192.9 1206,1230.4"];
	187	[height=0.5,
		pos="1319.5,1055.2",
		width=0.75];
	4 -- 187	[pos="1221.9,1052.3 1242.8,1052.9 1271.6,1053.8 1292.5,1054.4"];
	114	[height=0.5,
		pos="900.01,1040.5",
		width=0.75];
	4 -- 114	[pos="1167.6,1050.4 1111.5,1048.3 983.26,1043.6 927.15,1041.5"];
	86	[height=0.5,
		pos="1455,1055.8",
		width=0.75];
	85 -- 86	[pos="1284,1040 1321.9,1043.5 1390.4,1049.9 1428.2,1053.4"];
	7 -- 158	[pos="607.76,752.58 657.11,783.34 784.36,862.68 833.57,893.36"];
	247	[height=0.5,
		pos="609.14,471.25",
		width=0.75];
	7 -- 247	[pos="589.24,722.07 593.12,673.09 603.83,538.12 607.71,489.23"];
	248	[height=0.5,
		pos="720.89,565.9",
		width=0.75];
	7 -- 248	[pos="600.08,724.05 625.37,690.94 683.01,615.48 708.44,582.2"];
	250	[height=0.5,
		pos="899.9,515.77",
		width=0.75];
	7 -- 250	[pos="606.39,726.77 661.9,686.86 826.03,568.87 881.41,529.06"];
	11	[height=0.5,
		pos="845.7,956.87",
		width=0.75];
	7 -- 11	[pos="604.72,754.35 651.45,793.62 781.91,903.26 828.72,942.59"];
	253	[height=0.5,
		pos="339.93,448.94",
		width=0.75];
	7 -- 253	[pos="574.48,724.47 531.44,673.91 396.46,515.34 353.32,464.67"];
	257	[height=0.5,
		pos="418.69,774.54",
		width=0.75];
	7 -- 257	[pos="561.75,745.43 529.97,751.9 476.56,762.76 444.77,769.23"];
	260	[height=0.5,
		pos="356.46,551.74",
		width=0.75];
	7 -- 260	[pos="570.41,725.97 527.44,690.97 416.59,600.7 373.73,565.8"];
	263	[height=0.5,
		pos="529.04,614.58",
		width=0.75];
	7 -- 263	[pos="579.75,722.94 568.56,699.03 548.42,655.98 537.18,631.97"];
	7 -- 264	[pos="588.24,721.89 589.01,689.69 590.61,623.11 591.38,590.92"];
	265	[height=0.5,
		pos="570.73,515.29",
		width=0.75];
	7 -- 265	[pos="586.43,722.11 583.24,680.01 575.31,575.58 572.1,533.39"];
	267	[height=0.5,
		pos="525.03,943.64",
		width=0.75];
	7 -- 267	[pos="582.34,757.83 570.47,796.32 542.42,887.25 530.52,925.83"];
	7 -- 19	[pos="612.82,747.06 705.36,772.68 1027.6,861.89 1120,887.47"];
	35	[height=0.5,
		pos="463.01,967.73",
		width=0.75];
	7 -- 35	[pos="578.42,757.24 555.24,799.52 495.45,908.57 472.33,950.74"];
	59	[height=0.5,
		pos="289.16,717.35",
		width=0.75];
	7 -- 59	[pos="560.77,738.07 504.06,733.74 373.19,723.76 316.34,719.42"];
	124	[height=0.5,
		pos="291.39,767.78",
		width=0.75];
	7 -- 124	[pos="560.97,742.63 504.68,747.88 374.79,760 318.37,765.26"];
	191	[height=0.5,
		pos="658.19,991.84",
		width=0.75];
	7 -- 191	[pos="592.75,757.83 605.64,803.93 640.16,927.37 653.15,973.82"];
	221	[height=0.5,
		pos="759.32,514.47",
		width=0.75];
	7 -- 221	[pos="600.14,723.9 631.78,682.26 715.57,572.03 747.1,530.55"];
	90	[height=0.5,
		pos="1698.6,746.77",
		width=0.75];
	89 -- 90	[pos="1489.3,819.58 1534.2,803.98 1629.9,770.67 1674.7,755.11"];
	94	[height=0.5,
		pos="1746.9,852.17",
		width=0.75];
	93 -- 94	[pos="1504.1,926.89 1555.1,911.21 1671.4,875.41 1722.3,859.74"];
	98	[height=0.5,
		pos="913.07,1414.6",
		width=0.75];
	97 -- 98	[pos="982.31,1222.3 968.09,1261.8 933.67,1357.4 919.41,1397"];
	102	[height=0.5,
		pos="1469,739.89",
		width=0.75];
	101 -- 102	[pos="1352.4,874.37 1377.5,845.43 1430.5,784.26 1455.5,755.48"];
	13 -- 18	[pos="620.67,848.27 678.55,868.79 825.8,921.02 883.77,941.57"];
	13 -- 15	[pos="601.25,821.96 612.67,776.3 642.89,655.6 654.36,609.76"];
	316	[height=0.5,
		pos="1100.2,677.99",
		width=0.75];
	13 -- 316	[pos="621.41,831.88 706.89,804.41 990.25,713.34 1075.7,685.89"];
	352	[height=0.5,
		pos="289.5,667.77",
		width=0.75];
	13 -- 352	[pos="575.66,827.97 519.39,796.47 366.34,710.79 310.36,679.45"];
	356	[height=0.5,
		pos="439.72,727.79",
		width=0.75];
	13 -- 356	[pos="578.15,826.51 547.92,804.95 488.54,762.61 458.33,741.06"];
	359	[height=0.5,
		pos="346.3,623.5",
		width=0.75];
	13 -- 359	[pos="579.96,825.27 534.33,785.87 408.59,677.29 363.05,637.97"];
	363	[height=0.5,
		pos="720.39,988.95",
		width=0.75];
	13 -- 363	[pos="610.01,855.76 633.8,884.47 683.54,944.48 707.26,973.1"];
	13 -- 42	[pos="596.71,858.02 596.59,890.2 596.34,956.72 596.21,988.88"];
	74	[height=0.5,
		pos="278.7,923.72",
		width=0.75];
	13 -- 74	[pos="571.56,846.45 512.05,862.15 363.44,901.36 303.93,917.06"];
	137	[height=0.5,
		pos="294.6,821.03",
		width=0.75];
	13 -- 137	[pos="569.7,838.12 512.33,834.55 379.14,826.28 321.73,822.72"];
	175	[height=0.5,
		pos="573.81,1139.2",
		width=0.75];
	13 -- 175	[pos="595.38,858.08 591.27,911.66 579.28,1067.9 575.2,1121.2"];
	209	[height=0.5,
		pos="782.89,994.76",
		width=0.75];
	13 -- 209	[pos="613.96,854.1 649.41,883.62 730.34,951 765.76,980.49"];
	235	[height=0.5,
		pos="713,730.39",
		width=0.75];
	13 -- 235	[pos="612.46,825.04 634.64,804.16 674.96,766.21 697.2,745.26"];
	259	[height=0.5,
		pos="369.8,878.92",
		width=0.75];
	13 -- 259	[pos="570.3,844.36 526.56,851.9 439.74,866.86 396.11,874.38"];
	281	[height=0.5,
		pos="408.37,595.74",
		width=0.75];
	13 -- 281	[pos="584.42,823.78 550.28,779.56 454.97,656.1 420.78,611.81"];
	297	[height=0.5,
		pos="711.78,686.36",
		width=0.75];
	13 -- 297	[pos="608.87,823.67 630.9,794.27 677.35,732.31 699.51,702.73"];
	15 -- 16	[pos="683.98,585.02 705.5,579.25 736.35,570.98 757.87,565.21"];
	15 -- 263	[pos="632.59,596.37 610.07,600.33 577.78,606.01 555.27,609.97"];
	15 -- 343	[pos="672.43,575.89 692.31,552.63 729.16,509.53 749.05,486.27"];
	380	[height=0.5,
		pos="706.49,382.38",
		width=0.75];
	15 -- 380	[pos="662.93,573.9 671.93,534.34 693.45,439.7 702.44,400.19"];
	382	[height=0.5,
		pos="560.56,795.77",
		width=0.75];
	15 -- 382	[pos="650.49,609.15 631.91,647.69 587.47,739.92 568.92,778.42"];
	384	[height=0.5,
		pos="904.85,760.93",
		width=0.75];
	15 -- 384	[pos="677.76,604.75 723.55,636.24 840.04,716.36 885.89,747.9"];
	15 -- 46	[pos="655.58,609.92 648.67,648.13 632.71,736.43 625.83,774.48"];
	78	[height=0.5,
		pos="422.11,534.41",
		width=0.75];
	15 -- 78	[pos="633.08,585.51 587.42,574.45 492.89,551.55 447.51,540.56"];
	142	[height=0.5,
		pos="339.36,500.46",
		width=0.75];
	15 -- 142	[pos="633.8,584.59 574.07,567.52 423.92,524.62 364.31,507.59"];
	178	[height=0.5,
		pos="814.4,860.46",
		width=0.75];
	15 -- 178	[pos="668.6,608.56 696.53,656.82 776.75,795.41 804.68,843.66"];
	211	[height=0.5,
		pos="838.8,772.72",
		width=0.75];
	15 -- 211	[pos="673.9,606.87 707.77,640.93 789.74,723.38 823.69,757.52"];
	237	[height=0.5,
		pos="908.26,467.05",
		width=0.75];
	15 -- 237	[pos="680.56,580.9 727.73,557.32 839.16,501.6 886.44,477.96"];
	303	[height=0.5,
		pos="970.32,445.76",
		width=0.75];
	15 -- 303	[pos="681.27,581.25 738.73,554.32 890.88,483 948.12,456.17"];
	322	[height=0.5,
		pos="1048.4,389.86",
		width=0.75];
	15 -- 322	[pos="680.37,580.61 748.48,545.31 958.98,436.21 1027,400.96"];
	337	[height=0.5,
		pos="498.39,825.26",
		width=0.75];
	15 -- 337	[pos="647.58,608.17 618.12,651.04 539.12,766 509.67,808.86"];
	366	[height=0.5,
		pos="569.31,425.34",
		width=0.75];
	15 -- 366	[pos="649.62,574.57 632.46,542.68 595.86,474.69 578.64,442.68"];
	107	[height=0.5,
		pos="1068.1,1367.4",
		width=0.75];
	106 -- 107	[pos="1113.3,1224.8 1103.6,1255.6 1083.6,1318.7 1073.8,1349.6"];
	111	[height=0.5,
		pos="1434.9,1169",
		width=0.75];
	110 -- 111	[pos="1322.6,1115.9 1347.5,1127.7 1387.7,1146.7 1412.7,1158.5"];
	113 -- 114	[pos="610.85,936.5 668.91,957.39 817.38,1010.8 875.84,1031.8"];
	116	[height=0.5,
		pos="969.75,966.94",
		width=0.75];
	115 -- 116	[pos="661.84,890.22 723.66,905.63 881.77,945.02 944.01,960.53"];
	118	[height=0.5,
		pos="229.36,803.31",
		width=0.75];
	117 -- 118	[pos="226.75,716.62 227.33,735.89 228.24,766.05 228.82,785.24"];
	122	[height=0.5,
		pos="27,657.84",
		width=0.75];
	121 -- 122	[pos="142.79,654.56 117.34,655.28 79.558,656.35 54.139,657.07"];
	8 -- 36	[pos="872.9,397.12 873.37,441.78 874.6,556.78 875.08,601.66"];
	8 -- 88	[pos="875.87,396.98 882.39,434.09 897.3,518.81 903.82,555.88"];
	8 -- 15	[pos="857.67,393.96 818.5,432.93 713.64,537.26 674.17,576.52"];
	192	[height=0.5,
		pos="1084,605.25",
		width=0.75];
	8 -- 192	[pos="887.23,394.55 925.93,435.99 1031.2,548.68 1069.7,589.89"];
	8 -- 247	[pos="848.38,387.52 798.17,405.09 683.56,445.2 633.41,462.76"];
	269	[height=0.5,
		pos="1063.5,171.06",
		width=0.75];
	8 -- 269	[pos="887.04,363.37 922.48,324.74 1013.9,225.11 1049.2,186.59"];
	273	[height=0.5,
		pos="1168.6,190.36",
		width=0.75];
	8 -- 273	[pos="892.58,366.33 946.48,331.97 1095,237.27 1148.8,202.97"];
	277	[height=0.5,
		pos="730.66,622.84",
		width=0.75];
	8 -- 277	[pos="862.71,396.15 836.57,441.03 766.36,561.54 740.44,606.04"];
	8 -- 278	[pos="898.78,383.79 910.63,385.96 924.63,388.53 936.52,390.71"];
	279	[height=0.5,
		pos="556.76,258.9",
		width=0.75];
	8 -- 279	[pos="849.21,370.07 790.72,347.84 639.06,290.19 580.4,267.89"];
	282	[height=0.5,
		pos="892.61,202.95",
		width=0.75];
	8 -- 282	[pos="874.76,360.83 878.58,327 886.75,254.78 890.57,221.03"];
	284	[height=0.5,
		pos="824.87,140.57",
		width=0.75];
	8 -- 284	[pos="869.11,361.08 860.24,316.89 837.42,203.1 828.51,158.7"];
	287	[height=0.5,
		pos="937.99,158.93",
		width=0.75];
	8 -- 287	[pos="878.05,360.99 890.32,319.62 920.41,218.19 932.66,176.88"];
	8 -- 291	[pos="870.4,397.21 863.79,449.47 844.81,599.58 838.2,651.84"];
	292	[height=0.5,
		pos="1116.3,413.02",
		width=0.75];
	8 -- 292	[pos="899.23,382.71 946.09,389.25 1043,402.78 1089.8,409.32"];
	63	[height=0.5,
		pos="669.9,185.76",
		width=0.75];
	8 -- 63	[pos="857.13,364.16 819.38,328.19 723.34,236.67 685.53,200.65"];
	161	[height=0.5,
		pos="1194,386.78",
		width=0.75];
	8 -- 161	[pos="899.82,379.66 960.34,381.12 1105.9,384.65 1166.6,386.12"];
	224	[height=0.5,
		pos="1106.6,215.23",
		width=0.75];
	8 -- 224	[pos="891.45,365.88 935.23,335.21 1043.8,259.14 1087.7,228.42"];
	126	[height=0.5,
		pos="508.51,214.67",
		width=0.75];
	125 -- 126	[pos="362.3,374.59 392.74,341.29 463.88,263.48 494.3,230.21"];
	130	[height=0.5,
		pos="1060.4,457.3",
		width=0.75];
	129 -- 130	[pos="720.31,479.96 788.18,475.43 965.4,463.63 1033.3,459.1"];
	133	[height=0.5,
		pos="339.36,1050.5",
		width=0.75];
	132 -- 133	[pos="309,883.47 315.45,918.94 329.69,997.28 336.11,1032.6"];
	136	[height=0.5,
		pos="167.33,839.74",
		width=0.75];
	135 -- 136	[pos="166.4,782.39 166.59,794.28 166.84,809.73 167.03,821.59"];
	139	[height=0.5,
		pos="489.22,423.84",
		width=0.75];
	138 -- 139	[pos="301.05,473.51 342.14,462.66 422.86,441.36 463.93,430.52"];
	141	[height=0.5,
		pos="181.12,509.07",
		width=0.75];
	140 -- 141	[pos="218.2,591.82 209.96,573.43 197.06,544.64 188.85,526.33"];
	143 -- 144	[pos="461.18,466.81 506.57,458.81 599.39,442.44 644.87,434.43"];
	146	[height=0.5,
		pos="286.26,1097.1",
		width=0.75];
	145 -- 146	[pos="259.19,989.85 265.19,1013.6 275.74,1055.4 281.74,1079.2"];
	150	[height=0.5,
		pos="477.12,1073.2",
		width=0.75];
	149 -- 150	[pos="355.21,981.32 382.07,1001.6 432.36,1039.5 459.18,1059.7"];
	155	[height=0.5,
		pos="1730.2,1045.2",
		width=0.75];
	154 -- 155	[pos="1544.9,1111.8 1585.2,1097.4 1665.9,1068.4 1706.2,1053.9"];
	160	[height=0.5,
		pos="1407.2,575.68",
		width=0.75];
	159 -- 160	[pos="1403.4,826.55 1404.2,777.67 1406.2,643.21 1406.9,594.02"];
	9 -- 37	[pos="1327.9,605.04 1292.5,645.98 1197.6,755.75 1162.2,796.67"];
	9 -- 18	[pos="1324.5,603.5 1255.2,661.08 994.96,877.53 925.09,935.64"];
	9 -- 11	[pos="1323.2,602.88 1245.4,660.57 941.48,885.87 863.84,943.42"];
	10	[height=0.5,
		pos="1456.2,619.95",
		width=0.75];
	9 -- 10	[pos="1366.7,596.08 1385.8,601.17 1412,608.16 1431.1,613.25"];
	294	[height=0.5,
		pos="1460.2,531.34",
		width=0.75];
	9 -- 294	[pos="1363.2,578.72 1384.5,568.32 1416.8,552.56 1438.2,542.11"];
	296	[height=0.5,
		pos="1031.2,561.21",
		width=0.75];
	9 -- 296	[pos="1314.5,586.92 1255.8,581.59 1117.2,569.01 1058.3,563.68"];
	298	[height=0.5,
		pos="1417.7,315.95",
		width=0.75];
	9 -- 298	[pos="1346.5,571.42 1360.3,521.88 1398.9,383.58 1412.7,333.96"];
	302	[height=0.5,
		pos="1243.8,430.81",
		width=0.75];
	9 -- 302	[pos="1331.2,572.7 1312.5,542.32 1273,478.29 1254.2,447.73"];
	304	[height=0.5,
		pos="1411.3,367.26",
		width=0.75];
	9 -- 304	[pos="1347.1,571.56 1360.1,529.98 1392.5,426.82 1405.6,385.15"];
	307	[height=0.5,
		pos="1535.3,370.59",
		width=0.75];
	9 -- 307	[pos="1355.4,573.63 1391.2,533.27 1485.9,426.39 1521.5,386.18"];
	311	[height=0.5,
		pos="1455.9,664.05",
		width=0.75];
	9 -- 311	[pos="1360.9,602.03 1381.9,615.77 1415.3,637.56 1436.4,651.32"];
	9 -- 65	[pos="1319,579.28 1289.2,565.9 1236.8,542.42 1207,529.06"];
	92	[height=0.5,
		pos="1520.4,619.4",
		width=0.75];
	9 -- 92	[pos="1367.9,593.8 1401.8,599.49 1460.4,609.32 1494.2,614.99"];
	128	[height=0.5,
		pos="1137.5,315.25",
		width=0.75];
	9 -- 128	[pos="1329.3,573.04 1293,524.29 1185.8,380.14 1149.6,331.5"];
	196	[height=0.5,
		pos="1520,695.85",
		width=0.75];
	9 -- 196	[pos="1361.6,601.37 1395.9,621.82 1465.2,663.19 1499.6,683.72"];
	228	[height=0.5,
		pos="1607.7,487.32",
		width=0.75];
	9 -- 228	[pos="1365.1,580.31 1415.6,560.94 1533.6,515.7 1584.1,496.36"];
	249	[height=0.5,
		pos="1122.5,512.61",
		width=0.75];
	9 -- 249	[pos="1317.2,580.86 1275,566.06 1188.6,535.77 1146.6,521.04"];
	272	[height=0.5,
		pos="1489.3,323.46",
		width=0.75];
	9 -- 272	[pos="1350.9,572.33 1377.6,524.3 1453.3,388.21 1479.9,340.36"];
	163	[height=0.5,
		pos="1804.8,997.39",
		width=0.75];
	162 -- 163	[pos="1594.3,1066.7 1639.3,1051.9 1735.2,1020.3 1780.3,1005.4"];
	167	[height=0.5,
		pos="1172.2,1441",
		width=0.75];
	166 -- 167	[pos="1244,1325.8 1228.3,1351.1 1198.7,1398.6 1182.8,1424"];
	170 -- 171	[pos="1268.9,953.54 1230.8,925.21 1143,859.85 1104.8,831.45"];
	173	[height=0.5,
		pos="767.01,1390.6",
		width=0.75];
	172 -- 173	[pos="971.99,1354.8 927.33,1362.6 837.72,1378.2 793.27,1386"];
	177 -- 178	[pos="1040.8,1019.2 995.12,987.2 879.01,905.77 833.3,873.71"];
	180	[height=0.5,
		pos="800.66,1346.6",
		width=0.75];
	179 -- 180	[pos="1009,1309.6 963.79,1317.6 872.2,1333.9 827.05,1341.9"];
	183 -- 184	[pos="1342.7,916.63 1325.4,869.92 1278.5,743.06 1261.2,696.21"];
	185 -- 186	[pos="1182.3,1241 1154.5,1232.6 1109.6,1219.1 1081.8,1210.7"];
	5	[height=0.5,
		pos="1232.7,921.73",
		width=0.75];
	5 -- 54	[pos="1206.9,916.03 1154.6,904.49 1036.6,878.46 984.15,866.89"];
	5 -- 18	[pos="1205.9,924.08 1144.7,929.41 995.81,942.39 934.64,947.73"];
	5 -- 153	[pos="1246,937.8 1273.8,971.61 1338,1049.7 1365.7,1083.4"];
	5 -- 188	[pos="1249.2,907.08 1279.9,879.89 1345.1,821.9 1375.9,794.61"];
	189	[height=0.5,
		pos="1077,1159.2",
		width=0.75];
	5 -- 189	[pos="1221.8,938.43 1193.2,982.03 1116.5,1098.9 1088,1142.5"];
	5 -- 192	[pos="1224.5,904.27 1198.5,848.93 1118.2,677.92 1092.2,622.66"];
	193	[height=0.5,
		pos="1633.2,952.34",
		width=0.75];
	5 -- 193	[pos="1259.6,923.79 1332.5,929.36 1533.1,944.69 1606.1,950.27"];
	197	[height=0.5,
		pos="1695.2,920.04",
		width=0.75];
	5 -- 197	[pos="1259.9,921.63 1342,921.33 1586.1,920.44 1668.1,920.14"];
	201	[height=0.5,
		pos="1341.8,1193.8",
		width=0.75];
	5 -- 201	[pos="1239.7,939.17 1259.4,988.2 1315,1126.9 1334.8,1176.2"];
	204	[height=0.5,
		pos="1579,996.37",
		width=0.75];
	5 -- 204	[pos="1258.5,927.28 1322.6,941.1 1488.8,976.93 1553.1,990.79"];
	208	[height=0.5,
		pos="1094.4,1076.4",
		width=0.75];
	5 -- 208	[pos="1218.7,937.42 1192.2,967.07 1135,1031 1108.5,1060.7"];
	5 -- 14	[pos="1219,906.12 1157.6,836.35 908.53,553.43 847.22,483.79"];
	210	[height=0.5,
		pos="1082.9,922.55",
		width=0.75];
	5 -- 210	[pos="1205.6,921.88 1178.5,922.03 1137.2,922.26 1110.1,922.4"];
	212	[height=0.5,
		pos="1501.4,979.21",
		width=0.75];
	5 -- 212	[pos="1258.5,927.24 1309.7,938.2 1423.8,962.62 1475.3,973.63"];
	215	[height=0.5,
		pos="1404,735.78",
		width=0.75];
	5 -- 215	[pos="1247.1,906.2 1279.4,871.11 1357.7,786.07 1389.9,751.14"];
	217	[height=0.5,
		pos="1517,1030.7",
		width=0.75];
	5 -- 217	[pos="1256.5,930.83 1310.1,951.39 1440.1,1001.2 1493.5,1021.7"];
	5 -- 32	[pos="1243,938.4 1268.3,979.51 1333.3,1085.4 1358.7,1126.7"];
	5 -- 86	[pos="1252.9,933.87 1295.1,959.34 1392.5,1018.1 1434.8,1043.6"];
	5 -- 116	[pos="1206.6,926.23 1156.3,934.88 1046.7,953.71 996.22,962.39"];
	190	[height=0.5,
		pos="864.55,1192.3",
		width=0.75];
	189 -- 190	[pos="1050.5,1163.3 1009.7,1169.7 931.85,1181.8 891.03,1188.2"];
	194	[height=0.5,
		pos="1851.3,890.77",
		width=0.75];
	193 -- 194	[pos="1658.2,945.28 1700.2,933.43 1784.2,909.7 1826.2,897.84"];
	198	[height=0.5,
		pos="1913.3,853.34",
		width=0.75];
	197 -- 198	[pos="1719.8,912.52 1761.7,899.71 1846.4,873.8 1888.5,860.94"];
	202	[height=0.5,
		pos="1190.7,1325.3",
		width=0.75];
	201 -- 202	[pos="1325.4,1208.2 1296.3,1233.5 1236.2,1285.8 1207.1,1311"];
	205	[height=0.5,
		pos="1757.3,953.35",
		width=0.75];
	204 -- 205	[pos="1604.6,990.21 1638.4,982.03 1697.9,967.68 1731.8,959.51"];
	208 -- 209	[pos="1069.2,1069.8 1010.8,1054.5 866.96,1016.8 808.36,1001.4"];
	14 -- 75	[pos="808.59,475.78 770.02,487.42 696.38,509.65 658,521.24"];
	14 -- 104	[pos="839.14,486.05 851.33,524.76 880.11,616.19 892.32,654.99"];
	14 -- 176	[pos="847.33,484.15 889.37,532.64 1015.6,678.26 1057.3,726.35"];
	365	[height=0.5,
		pos="621.29,341.75",
		width=0.75];
	14 -- 365	[pos="813.19,456.12 772.62,431.94 682.1,377.99 641.58,353.84"];
	367	[height=0.5,
		pos="683.3,243.16",
		width=0.75];
	14 -- 367	[pos="822.49,451.7 794.71,410.07 722.16,301.39 694.36,259.74"];
	370	[height=0.5,
		pos="745.68,201.81",
		width=0.75];
	14 -- 370	[pos="827.64,450.35 811.63,401.82 767.53,268.08 751.56,219.63"];
	374	[height=0.5,
		pos="466.17,639.76",
		width=0.75];
	14 -- 374	[pos="811.39,478.59 745.92,509.16 553.85,598.83 488.35,629.41"];
	378	[height=0.5,
		pos="1060.4,517.2",
		width=0.75];
	14 -- 378	[pos="859.57,473.86 903.34,483.31 991.16,502.25 1034.7,511.65"];
	14 -- 44	[pos="818.49,483.29 786.38,515.36 711.48,590.18 679.19,622.44"];
	14 -- 139	[pos="806.81,464.8 742.66,456.53 580.55,435.62 516.17,427.32"];
	262	[height=0.5,
		pos="559.22,367.98",
		width=0.75];
	14 -- 262	[pos="809.68,459.53 757.8,440.56 635.23,395.76 583.22,376.76"];
	283	[height=0.5,
		pos="806.99,245.95",
		width=0.75];
	14 -- 283	[pos="831.37,450.06 826.38,408.27 814.14,305.81 809.15,264.08"];
	301	[height=0.5,
		pos="982.52,240.4",
		width=0.75];
	14 -- 301	[pos="844.5,451.5 872.05,409.36 943.98,299.34 971.55,257.18"];
	319	[height=0.5,
		pos="1200.1,298.55",
		width=0.75];
	14 -- 319	[pos="855.92,457.89 921.35,427.59 1111.9,339.39 1177.5,308.99"];
	334	[height=0.5,
		pos="596.85,634.34",
		width=0.75];
	14 -- 334	[pos="814.57,481.56 770.14,512.74 659.78,590.18 615.59,621.19"];
	355	[height=0.5,
		pos="497.16,351.66",
		width=0.75];
	14 -- 355	[pos="809.35,459.87 747.28,438.35 582.96,381.4 521.13,359.97"];
	210 -- 211	[pos="1062.9,910.29 1017.1,882.13 904.54,813.07 858.71,784.94"];
	213	[height=0.5,
		pos="1412.1,889.33",
		width=0.75];
	212 -- 213	[pos="1486.2,963.97 1469.7,947.34 1443.4,920.89 1427,904.35"];
	215 -- 216	[pos="1396.5,718.21 1381.1,681.93 1345.8,599.12 1330.4,562.88"];
	218	[height=0.5,
		pos="1415.3,1008.1",
		width=0.75];
	217 -- 218	[pos="1491.3,1025 1475.9,1021.5 1456.4,1017.2 1440.9,1013.8"];
	220	[height=0.5,
		pos="1110.9,361.99",
		width=0.75];
	219 -- 220	[pos="1287.2,425.1 1248.6,411.27 1173.4,384.35 1134.9,370.57"];
	223	[height=0.5,
		pos="1270.5,203.03",
		width=0.75];
	222 -- 223	[pos="1340.9,354.9 1325.9,322.44 1293.8,253.25 1278.7,220.67"];
	226	[height=0.5,
		pos="1669.8,450.61",
		width=0.75];
	225 -- 226	[pos="1582.2,517.64 1601.6,502.8 1632.4,479.24 1651.8,464.37"];
	230	[height=0.5,
		pos="1671.6,507.34",
		width=0.75];
	229 -- 230	[pos="1543.2,565.18 1571.7,552.36 1620.3,530.45 1648.9,517.59"];
	233	[height=0.5,
		pos="1116.5,981.47",
		width=0.75];
	232 -- 233	[pos="1259.8,860.86 1229.1,886.68 1164.5,941.11 1133.6,967.09"];
	234 -- 235	[pos="997.74,632.34 939.98,652.23 794.78,702.23 737.13,722.08"];
	236 -- 237	[pos="1114.9,468.39 1069.8,468.1 980.35,467.52 935.38,467.22"];
	239	[height=0.5,
		pos="1414.1,227.9",
		width=0.75];
	238 -- 239	[pos="1466.2,354.54 1454.8,326.86 1432.7,273.05 1421.3,245.33"];
	243	[height=0.5,
		pos="1641.3,1040.3",
		width=0.75];
	242 -- 243	[pos="1537,851.15 1558.4,890.1 1610.5,984.51 1631.9,1023.3"];
	248 -- 249	[pos="747.55,562.36 820.52,552.68 1022.9,525.83 1095.9,516.14"];
	251	[height=0.5,
		pos="1287,386.78",
		width=0.75];
	250 -- 251	[pos="924.11,507.7 993.63,484.53 1193.3,418.01 1262.8,394.85"];
	11 -- 39	[pos="858.07,972.93 878.75,999.79 920.14,1053.5 940.95,1080.6"];
	11 -- 13	[pos="823.61,946.48 776.49,924.32 666.57,872.62 619.18,850.33"];
	11 -- 19	[pos="871.48,951.48 928.04,939.67 1062.5,911.59 1119.1,899.77"];
	11 -- 277	[pos="839.52,938.91 819.49,880.77 756.6,698.16 736.73,640.48"];
	313	[height=0.5,
		pos="1268.4,802.69",
		width=0.75];
	11 -- 313	[pos="869.64,948.13 943.96,921.03 1170.2,838.52 1244.5,811.42"];
	11 -- 332	[pos="852.03,939.12 861.64,912.16 879.81,861.21 889.4,834.34"];
	333	[height=0.5,
		pos="683.64,836.47",
		width=0.75];
	11 -- 333	[pos="827.43,943.29 796.3,920.17 733.35,873.4 702.1,850.18"];
	335	[height=0.5,
		pos="612.03,1051.1",
		width=0.75];
	11 -- 335	[pos="822.44,966.25 777.65,984.31 679.91,1023.7 635.2,1041.8"];
	11 -- 338	[pos="836.54,939.7 817.92,904.84 775.87,826.11 757.34,791.39"];
	11 -- 339	[pos="850.79,938.83 863.36,894.25 895.78,779.29 908.32,734.84"];
	340	[height=0.5,
		pos="741.38,1239.8",
		width=0.75];
	11 -- 340	[pos="839.18,974.56 820.44,1025.4 766.64,1171.3 747.9,1222.1"];
	70	[height=0.5,
		pos="654.38,1210.6",
		width=0.75];
	11 -- 70	[pos="833.44,973.13 798.88,1019 700.97,1148.8 666.53,1194.5"];
	100	[height=0.5,
		pos="802.41,1302.3",
		width=0.75];
	11 -- 100	[pos="843.44,974.95 835.97,1034.5 812.22,1224.1 804.71,1284"];
	134	[height=0.5,
		pos="540.17,1090.6",
		width=0.75];
	11 -- 134	[pos="822.74,966.91 765.98,991.75 619.58,1055.8 562.98,1080.6"];
	169	[height=0.5,
		pos="909.25,1326.5",
		width=0.75];
	11 -- 169	[pos="848.81,974.95 859.6,1037.7 895.37,1245.8 906.15,1308.5"];
	203	[height=0.5,
		pos="1029.2,1249.1",
		width=0.75];
	11 -- 203	[pos="856.36,973.84 888.87,1025.6 986.49,1181.1 1018.7,1232.4"];
	11 -- 233	[pos="872.66,959.31 924.57,964.03 1037.9,974.32 1089.7,979.03"];
	254	[height=0.5,
		pos="285.19,316.69",
		width=0.75];
	253 -- 254	[pos="332.66,431.38 322.19,406.08 302.98,359.66 292.49,334.33"];
	258	[height=0.5,
		pos="196.66,927.87",
		width=0.75];
	257 -- 258	[pos="399.76,787.61 357.81,816.58 257.45,885.89 215.55,914.83"];
	261	[height=0.5,
		pos="284.93,364.45",
		width=0.75];
	260 -- 261	[pos="349.73,534.12 336.1,498.42 305.35,417.93 291.69,382.16"];
	265 -- 266	[pos="591.64,503.85 622.75,486.83 680.91,455.01 712.13,437.93"];
	267 -- 268	[pos="546.02,954.99 579.48,973.09 644.52,1008.3 678.02,1026.4"];
	19 -- 187	[pos="1161.1,909.23 1194.3,939.87 1270.2,1009.8 1303.4,1040.4"];
	19 -- 246	[pos="1161.2,879.59 1191.9,851.63 1258,791.32 1288.8,763.33"];
	19 -- 384	[pos="1124.1,882.77 1078.7,857.54 971.38,797.91 925.86,772.61"];
	19 -- 52	[pos="1153,911.9 1170.5,950.07 1211.9,1040.4 1229.4,1078.4"];
	19 -- 83	[pos="1127.8,908.66 1106.4,926.43 1070,956.58 1048.7,974.27"];
	112	[height=0.5,
		pos="1393,1055.1",
		width=0.75];
	19 -- 112	[pos="1164.4,906.99 1210.8,937.04 1327.3,1012.6 1373.6,1042.6"];
	152	[height=0.5,
		pos="882.72,1128.1",
		width=0.75];
	19 -- 152	[pos="1128.6,909 1081.5,950.97 946.2,1071.5 899.11,1113.5"];
	19 -- 218	[pos="1168,904.08 1219.1,925.55 1341.3,976.94 1392.3,998.4"];
	293	[height=0.5,
		pos="1210.1,614.68",
		width=0.75];
	19 -- 293	[pos="1149.1,876.46 1160.9,826.06 1194.1,683.47 1205.9,632.82"];
	312	[height=0.5,
		pos="1454.5,783.91",
		width=0.75];
	19 -- 312	[pos="1169,885.81 1226.8,865.17 1373.2,812.96 1430.7,792.41"];
	331	[height=0.5,
		pos="1554.4,877.93",
		width=0.75];
	19 -- 331	[pos="1172.1,893.29 1246.5,890.3 1452.9,882.01 1527.2,879.03"];
	351	[height=0.5,
		pos="1474.3,890.43",
		width=0.75];
	19 -- 351	[pos="1172.2,894.06 1234.1,893.31 1385,891.5 1447,890.76"];
	364	[height=0.5,
		pos="965.3,1024",
		width=0.75];
	19 -- 364	[pos="1126.4,907.76 1091.9,932.66 1018.2,985.81 983.75,1010.6"];
	379	[height=0.5,
		pos="1180.4,677.99",
		width=0.75];
	19 -- 379	[pos="1147.9,876.31 1154.6,835.57 1170.7,736.99 1177.4,696.17"];
	387	[height=0.5,
		pos="1195,722.54",
		width=0.75];
	19 -- 387	[pos="1150.1,876.64 1159.7,843.71 1180.2,773.49 1189.8,740.44"];
	391	[height=0.5,
		pos="1307.1,1149.8",
		width=0.75];
	19 -- 391	[pos="1155.6,911.14 1185,957.42 1267,1086.6 1296.4,1133"];
	270	[height=0.5,
		pos="1194.2,87.875",
		width=0.75];
	269 -- 270	[pos="1083,158.61 1107.7,142.92 1149.8,116.14 1174.5,100.41"];
	274	[height=0.5,
		pos="1364.3,72.461",
		width=0.75];
	273 -- 274	[pos="1188.8,178.18 1226.4,155.53 1306.7,107.17 1344.2,84.568"];
	280	[height=0.5,
		pos="358.23,346.13",
		width=0.75];
	279 -- 280	[pos="533.98,268.91 495.79,285.69 419.26,319.31 381.04,336.1"];
	282 -- 283	[pos="871.01,213.8 858.03,220.32 841.57,228.58 828.59,235.1"];
	285	[height=0.5,
		pos="768.74,95.598",
		width=0.75];
	284 -- 285	[pos="807.42,126.58 800.72,121.22 793.08,115.1 786.37,109.73"];
	288	[height=0.5,
		pos="961.56,18",
		width=0.75];
	287 -- 288	[pos="941.02,140.79 945.55,113.73 954.02,63.085 958.54,36.066"];
	292 -- 293	[pos="1124.3,430.21 1142,468.22 1184.2,559.02 1202,597.25"];
	10 -- 38	[pos="1444.4,636.31 1420.4,669.47 1366.4,744.24 1342.4,777.47"];
	10 -- 66	[pos="1429.3,621.16 1370.6,623.81 1232,630.07 1173.2,632.72"];
	10 -- 313	[pos="1440.9,634.9 1405.6,669.25 1319,753.48 1283.8,787.79"];
	314	[height=0.5,
		pos="1514.8,487.32",
		width=0.75];
	10 -- 314	[pos="1463.9,602.61 1475.1,577.19 1495.9,530.09 1507.1,504.67"];
	10 -- 316	[pos="1429.8,624.26 1363.9,635.01 1193,662.87 1126.9,673.65"];
	317	[height=0.5,
		pos="1659.4,388.81",
		width=0.75];
	10 -- 317	[pos="1470.2,604.06 1507.4,561.73 1608.6,446.6 1645.6,404.5"];
	320	[height=0.5,
		pos="1597.4,412.33",
		width=0.75];
	10 -- 320	[pos="1467.5,603.31 1494,564.34 1559.9,467.53 1586.2,428.76"];
	323	[height=0.5,
		pos="1452.8,470.57",
		width=0.75];
	10 -- 323	[pos="1455.8,601.93 1455.2,573.22 1453.9,517.4 1453.2,488.65"];
	10 -- 325	[pos="1448.1,602.76 1435.5,576.34 1411.6,526.01 1399,499.45"];
	326	[height=0.5,
		pos="1636.5,727.43",
		width=0.75];
	10 -- 326	[pos="1476.6,632.07 1511.3,652.76 1581.6,694.68 1616.3,715.35"];
	329	[height=0.5,
		pos="1582,676.27",
		width=0.75];
	10 -- 329	[pos="1478.7,630.02 1501.5,640.2 1536.4,655.87 1559.3,666.1"];
	96	[height=0.5,
		pos="1644.5,647.2",
		width=0.75];
	10 -- 96	[pos="1482.8,623.79 1518.7,628.99 1582.2,638.19 1618,643.37"];
	131	[height=0.5,
		pos="1392.1,425.92",
		width=0.75];
	10 -- 131	[pos="1450.3,602.04 1438.1,564.98 1410,480.28 1397.9,443.5"];
	165	[height=0.5,
		pos="1761.6,729.8",
		width=0.75];
	10 -- 165	[pos="1480.2,628.57 1537.3,649.1 1680.8,700.72 1737.8,721.22"];
	200	[height=0.5,
		pos="1706.5,683.98",
		width=0.75];
	10 -- 200	[pos="1481.6,626.44 1529.6,638.71 1633.1,665.19 1681.1,677.47"];
	231	[height=0.5,
		pos="1626.4,559.18",
		width=0.75];
	10 -- 231	[pos="1480.2,611.37 1512.7,599.79 1570.1,579.27 1602.5,567.72"];
	252	[height=0.5,
		pos="1529.8,441.15",
		width=0.75];
	10 -- 252	[pos="1463.4,602.48 1477.5,568.3 1508.5,492.93 1522.6,458.69"];
	276	[height=0.5,
		pos="1709.1,344.79",
		width=0.75];
	10 -- 276	[pos="1470.6,604.36 1515.1,555.93 1650.7,408.4 1695,360.2"];
	294 -- 295	[pos="1433.7,527.23 1396.6,521.5 1329.9,511.17 1292.8,505.44"];
	296 -- 297	[pos="1007.7,570.42 948.64,593.56 794.41,653.98 735.31,677.14"];
	299	[height=0.5,
		pos="1273.3,114.96",
		width=0.75];
	298 -- 299	[pos="1405.9,299.5 1378.8,261.72 1312.2,169.08 1285.1,131.35"];
	302 -- 303	[pos="1216.6,432.3 1164.1,435.17 1049.8,441.42 997.43,444.28"];
	305	[height=0.5,
		pos="1241.3,247.07",
		width=0.75];
	304 -- 305	[pos="1392.4,353.94 1359.7,330.78 1292.6,283.35 1259.9,260.27"];
	308	[height=0.5,
		pos="1540.2,219.19",
		width=0.75];
	307 -- 308	[pos="1535.9,352.33 1536.8,323.23 1538.7,266.66 1539.6,237.52"];
	311 -- 312	[pos="1455.7,682.25 1455.4,704.78 1455,742.93 1454.8,765.54"];
	314 -- 315	[pos="1487.7,489.12 1452.5,491.46 1391.1,495.54 1355.8,497.88"];
	318	[height=0.5,
		pos="1464.6,271.93",
		width=0.75];
	317 -- 318	[pos="1639.3,376.74 1602,354.34 1522.4,306.58 1484.9,284.1"];
	321	[height=0.5,
		pos="1349.2,328.34",
		width=0.75];
	320 -- 321	[pos="1573.1,404.13 1525.7,388.07 1421.1,352.66 1373.6,336.58"];
	323 -- 324	[pos="1425.7,471.04 1377.9,471.86 1279.1,473.55 1231.3,474.37"];
	327	[height=0.5,
		pos="1618.1,908.3",
		width=0.75];
	326 -- 327	[pos="1634.7,745.43 1631.2,780.01 1623.5,855.36 1619.9,890.1"];
	330	[height=0.5,
		pos="1725.7,791.2",
		width=0.75];
	329 -- 330	[pos="1599.3,690.13 1626.9,712.22 1680.6,755.17 1708.3,777.29"];
	333 -- 334	[pos="676.09,818.89 659.64,780.56 620.71,689.89 604.33,651.74"];
	336	[height=0.5,
		pos="400.97,996.11",
		width=0.75];
	335 -- 336	[pos="586.57,1044.5 545.9,1033.9 466.72,1013.2 426.19,1002.7"];
	341	[height=0.5,
		pos="709.04,1345",
		width=0.75];
	340 -- 341	[pos="735.89,1257.6 729.95,1276.9 720.51,1307.6 714.55,1327"];
	345	[height=0.5,
		pos="999.99,135.83",
		width=0.75];
	344 -- 345	[pos="990.97,267.37 992.94,238.62 996.77,182.73 998.75,153.94"];
	350	[height=0.5,
		pos="1540.1,740.31",
		width=0.75];
	349 -- 350	[pos="1393.5,646.09 1425.6,666.72 1488.7,707.3 1520.7,727.81"];
	353	[height=0.5,
		pos="119.08,475.31",
		width=0.75];
	352 -- 353	[pos="275.55,652.02 243.52,615.84 164.97,527.13 132.98,491"];
	357	[height=0.5,
		pos="294.45,578.96",
		width=0.75];
	356 -- 357	[pos="424.99,712.7 397.15,684.17 337.09,622.64 309.22,594.09"];
	360	[height=0.5,
		pos="218.39,380.61",
		width=0.75];
	359 -- 360	[pos="337.3,606.42 313.82,561.82 250.85,442.25 227.37,397.67"];
	363 -- 364	[pos="747.07,992.76 794.18,999.5 891.57,1013.4 938.66,1020.1"];
	365 -- 366	[pos="610.77,358.67 601.75,373.17 588.82,393.96 579.81,408.45"];
	368	[height=0.5,
		pos="603,167.36",
		width=0.75];
	367 -- 368	[pos="667.43,228.19 653.36,214.9 632.9,195.59 618.83,182.31"];
	371	[height=0.5,
		pos="824.04,51.561",
		width=0.75];
	370 -- 371	[pos="754.67,184.58 769.79,155.59 800.11,97.444 815.16,68.596"];
	375	[height=0.5,
		pos="404.37,834.32",
		width=0.75];
	374 -- 375	[pos="460.47,657.72 448.66,694.87 421.69,779.81 409.97,816.69"];
	378 -- 379	[pos="1072.6,533.5 1095.6,564.32 1145.2,630.79 1168.2,661.64"];
	380 -- 381	[pos="732.23,376.75 773.98,367.61 855.99,349.66 897.72,340.53"];
	382 -- 383	[pos="572.12,812.04 591.1,838.77 628.69,891.69 647.83,918.64"];
	386 -- 387	[pos="1104,577.87 1123.5,608.79 1164.9,674.71 1184.4,705.73"];
	390	[height=0.5,
		pos="1277.4,1263.7",
		width=0.75];
	389 -- 390	[pos="1141.2,1253.1 1171.4,1255.5 1220.2,1259.2 1250.4,1261.6"];
	21 -- 22	[pos="568.15,1165.3 559.44,1128.2 539.56,1043.5 530.86,1006.5"];
	25	[height=0.5,
		pos="1232,1369.4",
		width=0.75];
	24 -- 25	[pos="1185.1,1387.8 1192.6,1384.8 1200.9,1381.6 1208.4,1378.6"];
	25 -- 26	[pos="1226.7,1351.7 1217.3,1319.9 1197.7,1253.5 1188.2,1221.7"];
	28 -- 29	[pos="415.14,1083 415.3,1049 415.63,975.55 415.78,941.47"];
	34 -- 35	[pos="506.2,1121.5 496.97,1088.7 477.29,1018.6 468.03,985.6"];
	49 -- 50	[pos="870.21,1352.2 869.27,1331.4 867.76,1297.8 866.83,1277.2"];
	58	[height=0.5,
		pos="97.714,654.45",
		width=0.75];
	57 -- 58	[pos="130.64,691.89 124.61,685.04 117.56,677.02 111.53,670.16"];
	58 -- 59	[pos="121.96,662.41 158.69,674.48 228.02,697.26 264.81,709.35"];
	62	[height=0.5,
		pos="495.51,149.4",
		width=0.75];
	61 -- 62	[pos="432.48,247.28 446.54,225.45 470.83,187.72 484.8,166.04"];
	62 -- 63	[pos="521.62,154.84 554.59,161.72 610.98,173.47 643.9,180.34"];
	69	[height=0.5,
		pos="504.88,1257.1",
		width=0.75];
	68 -- 69	[pos="446.45,1162.3 459.48,1183.4 481.58,1219.3 494.54,1240.3"];
	69 -- 70	[pos="529.57,1249.4 557.27,1240.8 601.94,1226.9 629.65,1218.3"];
	73	[height=0.5,
		pos="135.64,971.91",
		width=0.75];
	72 -- 73	[pos="137.56,902.03 137.14,917.16 136.56,938.55 136.14,953.67"];
	73 -- 74	[pos="159.91,963.74 186.21,954.87 227.96,940.81 254.31,931.94"];
	77 -- 78	[pos="259.18,550.46 295.23,546.91 359.02,540.62 395.16,537.06"];
	80 -- 81	[pos="584.97,307.73 633.82,313.58 736.94,325.93 785.8,331.78"];
	91	[height=0.5,
		pos="1688.4,603.18",
		width=0.75];
	90 -- 91	[pos="1697.4,728.59 1695.4,700.97 1691.7,648.75 1689.7,621.22"];
	91 -- 92	[pos="1661.4,605.79 1630.1,608.81 1578.7,613.77 1547.3,616.8"];
	95	[height=0.5,
		pos="1849.8,730.94",
		width=0.75];
	94 -- 95	[pos="1760.4,836.32 1780.1,813.08 1816.6,770.02 1836.4,746.79"];
	95 -- 96	[pos="1826.7,721.49 1787.1,705.37 1707,672.71 1667.5,656.61"];
	99	[height=0.5,
		pos="836.38,1434.1",
		width=0.75];
	98 -- 99	[pos="887.53,1421.1 879.25,1423.2 870.08,1425.5 861.81,1427.6"];
	99 -- 100	[pos="831.8,1416.3 825.32,1391.2 813.53,1345.4 807.03,1320.2"];
	102 -- 103	[pos="1449.5,727.38 1417.7,707.09 1355.3,667.24 1323.6,646.96"];
	108	[height=0.5,
		pos="1005.7,1401.2",
		width=0.75];
	107 -- 108	[pos="1047,1378.8 1040.5,1382.4 1033.3,1386.2 1026.8,1389.8"];
	108 -- 109	[pos="1000.1,1383.3 993.72,1363.3 983.49,1331 977.14,1311"];
	111 -- 112	[pos="1428.4,1151.2 1420.5,1129.8 1407.3,1094.1 1399.5,1072.8"];
	119	[height=0.5,
		pos="501.76,751.75",
		width=0.75];
	118 -- 119	[pos="255.48,798.37 307.55,788.51 423.72,766.52 475.72,756.68"];
	119 -- 120	[pos="526.39,744.19 578.06,728.32 697.29,691.71 749.09,675.81"];
	123	[height=0.5,
		pos="81.716,703.49",
		width=0.75];
	122 -- 123	[pos="44.012,672.03 50.538,677.48 57.984,683.69 64.525,689.15"];
	123 -- 124	[pos="106.59,711.12 146.94,723.49 226.21,747.8 266.55,760.16"];
	127	[height=0.5,
		pos="815.18,184.59",
		width=0.75];
	126 -- 127	[pos="535.45,212.03 593.63,206.32 730.38,192.91 788.4,187.22"];
	127 -- 128	[pos="838.36,193.99 897.68,218.04 1054.5,281.62 1114.1,305.77"];
	130 -- 131	[pos="1087.2,454.76 1149.4,448.88 1302.5,434.39 1364.9,428.48"];
	133 -- 134	[pos="365.61,1055.7 404.2,1063.4 475.81,1077.7 514.23,1085.4"];
	136 -- 137	[pos="193.7,835.86 215.39,832.67 246.02,828.17 267.82,824.97"];
	141 -- 142	[pos="208.32,507.59 237.39,506.01 283.21,503.52 312.25,501.94"];
	147	[height=0.5,
		pos="473.41,1189.4",
		width=0.75];
	146 -- 147	[pos="308.09,1107.9 344.06,1125.6 415.36,1160.8 451.42,1178.6"];
	147 -- 148	[pos="499.92,1185.2 532.82,1180 588.6,1171.2 621.48,1166"];
	151	[height=0.5,
		pos="584.17,1245.3",
		width=0.75];
	150 -- 151	[pos="487.58,1090 508.1,1123 553.4,1195.8 573.83,1228.7"];
	151 -- 152	[pos="607.6,1236.1 663.41,1214.2 803.7,1159.1 859.4,1137.2"];
	156	[height=0.5,
		pos="1819.3,937.33",
		width=0.75];
	155 -- 156	[pos="1743.4,1029.3 1760.2,1008.9 1789.2,973.75 1806.1,953.32"];
	156 -- 157	[pos="1799.5,924.75 1754.9,896.33 1646.6,827.46 1602.1,799.17"];
	160 -- 161	[pos="1390.8,561.17 1351.2,526.01 1250.2,436.55 1210.5,401.34"];
	164	[height=0.5,
		pos="1975.4,858.76",
		width=0.75];
	163 -- 164	[pos="1822.1,983.33 1854.8,956.76 1925.3,899.45 1958.1,872.85"];
	164 -- 165	[pos="1955.3,846.62 1914.5,822.05 1822.7,766.62 1781.8,741.99"];
	168	[height=0.5,
		pos="1054.4,1445.2",
		width=0.75];
	167 -- 168	[pos="1145.2,1442 1126.2,1442.6 1100.8,1443.6 1081.8,1444.2"];
	168 -- 169	[pos="1037.2,1431.1 1009.3,1408.3 954.38,1363.4 926.45,1340.6"];
	174	[height=0.5,
		pos="646.87,1339.9",
		width=0.75];
	173 -- 174	[pos="744.13,1380.9 722.89,1372 691.42,1358.7 670.07,1349.7"];
	174 -- 175	[pos="640.39,1322.1 626.52,1284 594.13,1195 580.28,1157"];
	181	[height=0.5,
		pos="738.81,1188.9",
		width=0.75];
	180 -- 181	[pos="793.81,1329.1 781.92,1298.8 757.6,1236.8 745.69,1206.4"];
	181 -- 182	[pos="737.47,1170.5 733.48,1115.7 721.69,953.49 717.72,898.76"];
	190 -- 191	[pos="849.04,1177.2 810.7,1140 711.83,1043.9 673.6,1006.8"];
	195	[height=0.5,
		pos="1787.8,774.11",
		width=0.75];
	194 -- 195	[pos="1841.9,873.55 1829.9,851.5 1809.2,813.48 1797.2,791.39"];
	195 -- 196	[pos="1762.6,766.74 1711.4,751.79 1595.9,718.02 1544.9,703.14"];
	199	[height=0.5,
		pos="1922,743.17",
		width=0.75];
	198 -- 199	[pos="1914.8,835.15 1916.4,814.74 1919,781.81 1920.6,761.39"];
	199 -- 200	[pos="1896.9,736.26 1855.3,724.86 1772.9,702.22 1731.5,690.85"];
	202 -- 203	[pos="1168.6,1314.9 1137.7,1300.3 1082.1,1274.1 1051.3,1259.5"];
	206	[height=0.5,
		pos="1647,834.47",
		width=0.75];
	205 -- 206	[pos="1742.9,937.81 1721.7,915.03 1682.6,872.8 1661.4,850.01"];
	206 -- 207	[pos="1626.6,822.63 1578.2,794.51 1456.7,723.91 1408.1,695.62"];
	213 -- 214	[pos="1391.6,877.03 1339.8,846.01 1204.5,764.91 1153.1,734.12"];
	220 -- 221	[pos="1088.1,371.88 1024.5,399.46 845.62,477.05 782.07,504.61"];
	223 -- 224	[pos="1243.5,205.04 1213,207.31 1163.8,210.97 1133.4,213.23"];
	227	[height=0.5,
		pos="1721.4,401.8",
		width=0.75];
	226 -- 227	[pos="1685.5,435.7 1691.9,429.64 1699.3,422.66 1705.7,416.62"];
	227 -- 228	[pos="1703.4,415.35 1682.1,431.37 1646.9,457.85 1625.6,473.83"];
	230 -- 231	[pos="1657.8,523.17 1652.2,529.61 1645.7,537.02 1640.1,543.44"];
	240	[height=0.5,
		pos="1230.6,158.99",
		width=0.75];
	239 -- 240	[pos="1390.5,219.03 1355.4,205.83 1289.7,181.17 1254.4,167.93"];
	240 -- 241	[pos="1213.5,172.97 1189,193.12 1143.9,230.1 1119.3,250.28"];
	244	[height=0.5,
		pos="1502.5,1176.2",
		width=0.75];
	243 -- 244	[pos="1625.9,1055.4 1599.2,1081.5 1544.7,1134.9 1517.9,1161.1"];
	244 -- 245	[pos="1475.4,1178 1426,1181.4 1321.6,1188.4 1272.1,1191.8"];
	251 -- 252	[pos="1313,392.6 1359.7,403.07 1457.4,424.94 1504,435.38"];
	255	[height=0.5,
		pos="486.7,299.4",
		width=0.75];
	254 -- 255	[pos="312.37,314.36 350.94,311.05 421.13,305.03 459.64,301.73"];
	255 -- 256	[pos="507.56,310.87 537.61,327.39 592.75,357.72 622.84,374.26"];
	258 -- 259	[pos="221.84,920.75 254.76,911.44 312.08,895.24 344.87,885.97"];
	261 -- 262	[pos="312.23,364.8 364.81,365.48 479.54,366.95 532.03,367.63"];
	271	[height=0.5,
		pos="1335.7,116.47",
		width=0.75];
	270 -- 271	[pos="1220.2,93.121 1245.6,98.249 1284,106.02 1309.5,111.17"];
	271 -- 272	[pos="1347.8,132.72 1376.5,171.41 1448.6,268.68 1477.3,307.3"];
	275	[height=0.5,
		pos="1567.8,167.39",
		width=0.75];
	274 -- 275	[pos="1386.5,82.801 1425.6,101.06 1506.6,138.81 1545.7,157.06"];
	275 -- 276	[pos="1580.6,183.44 1607.4,217.13 1669.4,294.87 1696.3,328.64"];
	280 -- 281	[pos="361.83,364.08 371.06,410.02 395.47,531.48 404.73,577.62"];
	285 -- 286	[pos="767.73,113.92 765.69,151.13 761.08,235.16 759.04,272.22"];
	289	[height=0.5,
		pos="1048.5,89.426",
		width=0.75];
	288 -- 289	[pos="978.75,32.111 994,44.633 1016.2,62.831 1031.4,75.344"];
	289 -- 290	[pos="1048,107.58 1047.2,132.1 1045.9,175.53 1045.1,200"];
	300	[height=0.5,
		pos="1156.6,132.07",
		width=0.75];
	299 -- 300	[pos="1246.8,118.84 1227.7,121.64 1202.1,125.4 1183,128.2"];
	300 -- 301	[pos="1136.6,144.49 1103.1,165.33 1036,207.09 1002.5,227.95"];
	305 -- 306	[pos="1218.3,256.63 1185.8,270.16 1126.7,294.75 1094.1,308.32"];
	309	[height=0.5,
		pos="1476.7,184.12",
		width=0.75];
	308 -- 309	[pos="1519.4,207.7 1512.4,203.87 1504.7,199.59 1497.7,195.75"];
	309 -- 310	[pos="1455.6,195.77 1418.4,216.35 1341.4,258.89 1304.2,279.46"];
	318 -- 319	[pos="1437.8,274.62 1387.1,279.73 1277.7,290.73 1226.9,295.84"];
	321 -- 322	[pos="1323.3,333.64 1266.5,345.27 1131.3,372.91 1074.4,384.55"];
	327 -- 328	[pos="1594.3,916.88 1540.8,936.23 1411.3,983.05 1357.7,1002.4"];
	330 -- 331	[pos="1704,802.19 1671,818.87 1608.8,850.41 1575.9,867.04"];
	336 -- 337	[pos="410.67,979.1 429.34,946.35 470.09,874.89 488.74,842.19"];
	341 -- 342	[pos="724.24,1329.7 741.91,1312 770.87,1282.9 788.52,1265.2"];
	346	[height=0.5,
		pos="869.6,96.543",
		width=0.75];
	345 -- 346	[pos="975.16,128.35 951.96,121.36 917.51,110.98 894.34,104"];
	346 -- 347	[pos="868.76,114.83 867.04,151.98 863.17,235.88 861.46,272.87"];
	350 -- 351	[pos="1532.4,757.83 1519.8,786.75 1494.6,844.18 1481.9,873.03"];
	354	[height=0.5,
		pos="211.37,334.65",
		width=0.75];
	353 -- 354	[pos="130.03,458.62 147.8,431.55 182.69,378.37 200.44,351.32"];
	354 -- 355	[pos="238.52,336.27 293.13,339.52 415.73,346.82 470.2,350.06"];
	357 -- 358	[pos="318.82,570.93 355.74,558.78 425.45,535.84 462.43,523.67"];
	361	[height=0.5,
		pos="424.53,326.36",
		width=0.75];
	360 -- 361	[pos="243.66,373.96 283.34,363.52 359.77,343.4 399.37,332.98"];
	361 -- 362	[pos="451.65,326.87 501.99,327.81 609.33,329.82 659.85,330.76"];
	368 -- 369	[pos="609.08,185.04 616.87,207.7 630.3,246.76 638.1,269.45"];
	372	[height=0.5,
		pos="890.18,52.196",
		width=0.75];
	371 -- 372	[pos="851.32,51.823 855.17,51.86 859.12,51.898 862.96,51.935"];
	372 -- 373	[pos="892.72,70.17 897.97,107.27 909.95,191.96 915.19,229.03"];
	376	[height=0.5,
		pos="401.5,1040.1",
		width=0.75];
	375 -- 376	[pos="404.12,852.58 403.57,891.64 402.3,982.9 401.75,1021.9"];
	376 -- 377	[pos="427.04,1046.3 470.65,1056.9 558.98,1078.4 602.52,1088.9"];
	390 -- 391	[pos="1282,1245.9 1287.6,1224.6 1296.8,1189.2 1302.4,1167.8"];
}
