graph {
	graph [bb="0,0,764.63,649.15",
		outputorder=edgesfirst,
		overlap=prism,
		size="50,50!",
		start=7230
	];
	node [label="\N"];
	0	[height=0.5,
		pos="135.87,285.49",
		width=0.75];
	1	[height=0.5,
		pos="170.44,203.63",
		width=0.75];
	0 -- 1	[pos="143.2,268.13 149.07,254.23 157.26,234.85 163.12,220.96"];
	3	[height=0.5,
		pos="281.95,309.57",
		width=0.75];
	0 -- 3	[pos="162.33,289.85 188.8,294.21 229.29,300.89 255.7,305.24"];
	2	[height=0.5,
		pos="337.67,265.54",
		width=0.75];
	0 -- 2	[pos="162.67,282.84 201.27,279.02 272.1,272.02 310.76,268.2"];
	16	[height=0.5,
		pos="148.41,114.36",
		width=0.75];
	0 -- 16	[pos="137.19,267.5 139.6,234.63 144.69,165.24 147.1,132.36"];
	7	[height=0.5,
		pos="47.676,400.68",
		width=0.75];
	0 -- 7	[pos="123.24,301.99 106.38,324.01 76.709,362.76 60.005,384.58"];
	18	[height=0.5,
		pos="77.259,228.58",
		width=0.75];
	0 -- 18	[pos="120.47,270.53 111.93,262.24 101.32,251.94 92.76,243.63"];
	10	[height=0.5,
		pos="162.84,385.11",
		width=0.75];
	0 -- 10	[pos="140.7,303.3 145.57,321.32 153.08,349.03 157.97,367.12"];
	11	[height=0.5,
		pos="224.85,399.8",
		width=0.75];
	0 -- 11	[pos="148.62,301.86 165.63,323.72 195.56,362.17 212.42,383.82"];
	20	[height=0.5,
		pos="27,320.9",
		width=0.75];
	0 -- 20	[pos="111.44,293.43 93.51,299.27 69.264,307.15 51.352,312.98"];
	23	[height=0.5,
		pos="94.491,158.36",
		width=0.75];
	0 -- 23	[pos="130.12,267.81 122.26,243.66 108.24,200.58 100.33,176.29"];
	1 -- 3	[pos="186.42,218.81 207.74,239.06 245.24,274.69 266.37,294.76"];
	1 -- 2	[pos="194.04,212.37 225.83,224.13 282.05,244.95 313.91,256.74"];
	1 -- 16	[pos="165.98,185.56 162.16,170.07 156.68,147.88 152.87,132.4"];
	12	[height=0.5,
		pos="233.19,143.33",
		width=0.75];
	1 -- 12	[pos="185.95,188.72 195.53,179.52 207.79,167.74 217.42,158.48"];
	1 -- 18	[pos="144.98,210.45 131.72,214 115.57,218.32 102.37,221.86"];
	1 -- 23	[pos="150.09,191.5 139.1,184.95 125.59,176.89 114.64,170.37"];
	25	[height=0.5,
		pos="455.88,205.44",
		width=0.75];
	3 -- 25	[pos="302.25,297.42 335.76,277.35 402.29,237.52 435.72,217.51"];
	3 -- 7	[pos="258.2,318.81 213.18,336.31 115.94,374.13 71.143,391.56"];
	4	[height=0.5,
		pos="543.88,264.79",
		width=0.75];
	3 -- 4	[pos="308.51,305.03 358.84,296.42 467.56,277.84 517.65,269.28"];
	19	[height=0.5,
		pos="439.89,434.51",
		width=0.75];
	3 -- 19	[pos="299.46,323.42 329.82,347.43 391.89,396.54 422.3,420.6"];
	6	[height=0.5,
		pos="345.12,158.14",
		width=0.75];
	3 -- 6	[pos="289.2,292.2 301.32,263.14 325.57,205.01 337.77,175.78"];
	5	[height=0.5,
		pos="416.41,159.85",
		width=0.75];
	3 -- 5	[pos="295.84,294.11 321.6,265.42 376.54,204.25 402.41,175.45"];
	3 -- 12	[pos="276.74,291.78 267.38,259.87 247.84,193.25 238.45,161.24"];
	8	[height=0.5,
		pos="316.21,104.64",
		width=0.75];
	3 -- 8	[pos="284.99,291.38 291.49,252.49 306.68,161.64 313.18,122.79"];
	3 -- 18	[pos="258.47,300.28 219.09,284.7 140.19,253.48 100.78,237.89"];
	3 -- 10	[pos="262.28,322.04 240.22,336.04 204.62,358.61 182.54,372.62"];
	3 -- 11	[pos="271.21,326.54 260.94,342.77 245.54,367.1 235.35,383.21"];
	14	[height=0.5,
		pos="360.01,480.62",
		width=0.75];
	3 -- 14	[pos="289.87,326.91 304.83,359.7 337.1,430.41 352.07,463.23"];
	3 -- 20	[pos="254.67,310.78 205.6,312.96 103.02,317.52 54.088,319.7"];
	22	[height=0.5,
		pos="357.42,554.6",
		width=0.75];
	3 -- 22	[pos="287.5,327.59 301.49,373.01 338.08,491.79 351.96,536.89"];
	29	[height=0.5,
		pos="469.79,380.54",
		width=0.75];
	3 -- 29	[pos="305.74,318.56 341.88,332.21 410.18,358.02 446.2,371.63"];
	2 -- 3	[pos="320.04,279.47 313.54,284.61 306.17,290.43 299.66,295.58"];
	2 -- 16	[pos="320.2,251.58 284.15,222.78 201.86,157.05 165.84,128.27"];
	2 -- 25	[pos="359.35,254.51 380.68,243.67 413.06,227.21 434.34,216.39"];
	2 -- 19	[pos="347.84,282.36 367.44,314.74 410.19,385.42 429.75,417.75"];
	2 -- 6	[pos="338.93,247.32 340.3,227.57 342.48,196.23 343.85,176.45"];
	2 -- 5	[pos="349.97,249.02 364.77,229.17 389.44,196.05 404.2,176.25"];
	2 -- 12	[pos="324.01,249.56 303.99,226.14 266.88,182.73 246.86,159.31"];
	2 -- 8	[pos="335.25,247.39 331.13,216.49 322.79,153.99 318.65,122.97"];
	13	[height=0.5,
		pos="289.49,18",
		width=0.75];
	2 -- 13	[pos="334.12,247.33 325.19,201.45 301.84,81.451 292.97,35.895"];
	9	[height=0.5,
		pos="614.88,286.31",
		width=0.75];
	2 -- 9	[pos="364.5,267.55 417.49,271.52 535.03,280.33 588.04,284.3"];
	24	[height=0.5,
		pos="545.58,327.28",
		width=0.75];
	2 -- 24	[pos="362.33,272.86 402.24,284.71 480.53,307.96 520.62,319.87"];
	2 -- 10	[pos="318.62,278.56 285,301.56 215.47,349.11 181.86,372.1"];
	15	[height=0.5,
		pos="198.62,483.86",
		width=0.75];
	2 -- 15	[pos="326.99,282.31 301.1,322.94 235.25,426.34 209.33,467.03"];
	2 -- 11	[pos="324.28,281.46 302.57,307.3 259.92,358.06 238.22,383.89"];
	2 -- 14	[pos="339.53,283.5 343.74,323.99 353.92,421.97 358.13,462.55"];
	28	[height=0.5,
		pos="547.93,388.18",
		width=0.75];
	2 -- 28	[pos="358.21,277.52 398.41,300.97 487.04,352.66 527.3,376.15"];
	17	[height=0.5,
		pos="596.4,198.54",
		width=0.75];
	2 -- 17	[pos="362.95,258.99 412.41,246.18 521.47,217.94 571.02,205.12"];
	2 -- 23	[pos="314.79,255.45 268.32,234.97 163.4,188.73 117.13,168.34"];
	16 -- 23	[pos="131.06,128.52 124.9,133.55 117.97,139.2 111.82,144.22"];
	7 -- 20	[pos="42.984,382.58 39.577,369.43 34.988,351.73 31.602,338.66"];
	4 -- 25	[pos="524.79,251.91 510.03,241.96 489.69,228.24 474.94,218.29"];
	4 -- 19	[pos="533.53,281.68 513.6,314.22 470.1,385.2 450.2,417.68"];
	4 -- 5	[pos="526.69,250.64 502.36,230.61 458.14,194.21 433.74,174.12"];
	4 -- 9	[pos="568.72,272.32 575.59,274.4 583.06,276.67 589.95,278.75"];
	21	[height=0.5,
		pos="737.63,233.09",
		width=0.75];
	4 -- 21	[pos="570.42,260.45 607.42,254.39 674.12,243.48 711.11,237.43"];
	4 -- 24	[pos="544.37,282.87 544.6,291.09 544.86,300.79 545.08,309.03"];
	4 -- 28	[pos="544.48,283 545.25,306.33 546.57,346.54 547.33,369.9"];
	4 -- 17	[pos="556.6,248.75 564.73,238.49 575.26,225.22 583.44,214.89"];
	27	[height=0.5,
		pos="736.71,149.22",
		width=0.75];
	4 -- 27	[pos="564.16,252.64 601.19,230.44 679.37,183.58 716.42,161.38"];
	4 -- 29	[pos="533.27,281.38 519.26,303.25 494.74,341.56 480.63,363.61"];
	19 -- 24	[pos="455.03,419.14 475.12,398.76 510.38,362.99 530.46,342.62"];
	19 -- 28	[pos="462.8,424.68 481.14,416.82 506.72,405.85 525.05,397.99"];
	26	[height=0.5,
		pos="439.57,631.15",
		width=0.75];
	19 -- 26	[pos="439.86,452.65 439.8,490.12 439.66,575.62 439.6,613.05"];
	19 -- 22	[pos="428.42,451.2 412.66,474.15 384.49,515.18 368.79,538.05"];
	19 -- 29	[pos="449.35,417.43 452.84,411.13 456.8,404 460.29,397.69"];
	6 -- 25	[pos="368.07,167.94 387.08,176.06 413.96,187.54 432.96,195.65"];
	6 -- 12	[pos="318.6,154.63 300.88,152.29 277.67,149.22 259.92,146.87"];
	6 -- 8	[pos="335.82,140.92 332.51,134.81 328.8,127.94 325.5,121.83"];
	5 -- 25	[pos="430,175.54 433.92,180.07 438.21,185.02 442.14,189.57"];
	5 -- 6	[pos="389.06,159.2 383.56,159.07 377.78,158.93 372.29,158.8"];
	5 -- 8	[pos="395.16,148.14 378.04,138.71 354.1,125.52 337.09,116.15"];
	12 -- 13	[pos="241.02,125.9 251.78,101.96 271.01,59.146 281.73,35.279"];
	12 -- 18	[pos="212.16,154.83 182.32,171.14 128,200.84 98.205,217.13"];
	8 -- 12	[pos="293.96,115.01 282.05,120.56 267.42,127.38 255.5,132.93"];
	8 -- 13	[pos="310.67,86.69 306.06,71.721 299.52,50.512 294.93,35.633"];
	9 -- 21	[pos="637.68,276.42 659.73,266.86 692.95,252.46 714.96,242.92"];
	9 -- 24	[pos="594.46,298.38 585.52,303.67 575.04,309.86 566.09,315.16"];
	9 -- 28	[pos="603.83,303.13 591.35,322.12 571.18,352.81 558.78,371.67"];
	9 -- 17	[pos="611.05,268.12 607.86,252.96 603.34,231.48 600.16,216.41"];
	21 -- 27	[pos="737.43,214.89 737.28,200.82 737.06,181.44 736.91,167.38"];
	18 -- 20	[pos="68.041,245.51 59.029,262.07 45.38,287.14 36.33,303.76"];
	24 -- 28	[pos="546.28,345.56 546.58,353.26 546.93,362.22 547.23,369.92"];
	10 -- 15	[pos="169.24,402.77 175.75,420.74 185.79,448.44 192.28,466.36"];
	10 -- 11	[pos="188.42,391.17 192.03,392.02 195.73,392.9 199.33,393.75"];
	11 -- 15	[pos="219.29,417.63 214.84,431.89 208.62,451.8 204.17,466.06"];
	14 -- 19	[pos="380.58,468.74 392.51,461.86 407.47,453.22 419.39,446.34"];
	14 -- 26	[pos="369.14,497.89 384.48,526.93 415.28,585.18 430.55,614.09"];
	14 -- 22	[pos="359.37,498.91 358.97,510.38 358.45,525.1 358.05,536.53"];
	28 -- 29	[pos="521.04,385.55 513.18,384.79 504.59,383.95 496.73,383.18"];
	17 -- 25	[pos="569.31,199.87 544.42,201.09 507.75,202.89 482.89,204.11"];
	17 -- 21	[pos="621.98,204.8 647.57,211.06 686.72,220.63 712.25,226.88"];
	17 -- 24	[pos="589.44,216.17 579.71,240.83 562.14,285.33 552.45,309.87"];
	17 -- 27	[pos="620.52,190.06 646.22,181.03 686.68,166.81 712.43,157.75"];
	22 -- 26	[pos="373.26,569.36 387.81,582.92 409.25,602.9 423.78,616.44"];
}
