graph {
	graph [bb="0,0,1147.3,952.13",
		outputorder=edgesfirst,
		overlap=prism,
		size="50,50!",
		start=1925
	];
	node [label="\N"];
	0	[height=0.5,
		pos="393.23,425.76",
		width=0.75];
	20	[height=0.5,
		pos="139.24,341.54",
		width=0.75];
	0 -- 20	[pos="368.87,417.69 320.33,401.59 212.01,365.67 163.52,349.59"];
	2	[height=0.5,
		pos="648.14,421.27",
		width=0.75];
	0 -- 2	[pos="420.51,425.28 469.57,424.42 572.14,422.61 621.06,421.75"];
	22	[height=0.5,
		pos="287.22,730.11",
		width=0.75];
	0 -- 22	[pos="387.07,443.44 368.33,497.23 312.16,658.53 293.4,712.39"];
	24	[height=0.5,
		pos="524.98,609.48",
		width=0.75];
	0 -- 24	[pos="404.92,442.07 429.92,476.93 488.33,558.39 513.31,593.22"];
	25	[height=0.5,
		pos="314.29,181.88",
		width=0.75];
	0 -- 25	[pos="387.42,407.83 372.79,362.62 334.53,244.39 320,199.51"];
	6	[height=0.5,
		pos="462.95,602.23",
		width=0.75];
	0 -- 6	[pos="400.17,443.33 413.53,477.15 442.7,550.96 456.04,584.73"];
	7	[height=0.5,
		pos="642.06,333.77",
		width=0.75];
	0 -- 7	[pos="417.09,416.94 464.65,399.36 570.77,360.13 618.27,342.56"];
	26	[height=0.5,
		pos="452.86,212",
		width=0.75];
	0 -- 26	[pos="398.21,407.9 409.43,367.67 436.6,270.29 447.85,229.95"];
	9	[height=0.5,
		pos="617.51,510.65",
		width=0.75];
	0 -- 9	[pos="416.81,434.69 459.88,450.99 550.82,485.41 593.91,501.72"];
	27	[height=0.5,
		pos="211.52,331.76",
		width=0.75];
	0 -- 27	[pos="371.67,414.61 336.7,396.52 268,360.98 233.05,342.9"];
	28	[height=0.5,
		pos="89.669,485.41",
		width=0.75];
	0 -- 28	[pos="367.08,430.9 309.7,442.18 173.28,468.98 115.86,480.26"];
	12	[height=0.5,
		pos="580.19,377.8",
		width=0.75];
	0 -- 12	[pos="418.44,419.29 454.12,410.14 518.98,393.5 554.77,384.32"];
	13	[height=0.5,
		pos="679.54,537.28",
		width=0.75];
	0 -- 13	[pos="416.66,434.89 470.48,455.85 602.44,507.25 656.19,528.18"];
	30	[height=0.5,
		pos="207.07,429.65",
		width=0.75];
	0 -- 30	[pos="366.16,426.33 330.87,427.06 269.48,428.34 234.18,429.08"];
	31	[height=0.5,
		pos="287.45,575.73",
		width=0.75];
	0 -- 31	[pos="381.71,442.1 361.36,470.94 319.3,530.58 298.96,559.42"];
	16	[height=0.5,
		pos="514.33,344.06",
		width=0.75];
	0 -- 16	[pos="412.42,412.82 435.09,397.52 472.6,372.22 495.23,356.95"];
	32	[height=0.5,
		pos="628.58,215.2",
		width=0.75];
	0 -- 32	[pos="409.4,411.29 452.4,372.82 569.17,268.36 612.29,229.77"];
	34	[height=0.5,
		pos="450.15,646.45",
		width=0.75];
	0 -- 34	[pos="397.89,443.82 408.59,485.31 434.82,587.03 445.51,628.45"];
	19	[height=0.5,
		pos="512.15,667.85",
		width=0.75];
	0 -- 19	[pos="401.78,443.17 423.72,487.84 481.82,606.11 503.68,650.6"];
	21	[height=0.5,
		pos="137.61,394.07",
		width=0.75];
	20 -- 21	[pos="138.68,359.62 138.52,364.84 138.34,370.55 138.18,375.78"];
	2 -- 6	[pos="632.67,436.39 597.73,470.54 513.03,553.29 478.25,587.28"];
	2 -- 9	[pos="642.09,438.93 636.72,454.6 628.92,477.37 623.55,493.03"];
	2 -- 12	[pos="628.49,408.7 619.55,402.98 608.99,396.23 600.03,390.5"];
	2 -- 19	[pos="638.8,438.22 613.95,483.27 546.48,605.6 521.57,650.78"];
	3	[height=0.5,
		pos="629.16,648.47",
		width=0.75];
	2 -- 3	[pos="646.62,439.48 643.06,482.13 634.2,588.07 630.66,630.49"];
	8	[height=0.5,
		pos="642.06,288.07",
		width=0.75];
	2 -- 8	[pos="647.31,403.03 646.15,377.52 644.04,331.48 642.89,306.09"];
	15	[height=0.5,
		pos="493.45,558.2",
		width=0.75];
	2 -- 15	[pos="631.88,435.67 602.25,461.9 539.78,517.2 509.96,543.59"];
	46	[height=0.5,
		pos="866.2,631.14",
		width=0.75];
	2 -- 46	[pos="663.82,436.37 704.06,475.09 810.58,577.61 850.66,616.18"];
	48	[height=0.5,
		pos="691.02,243.15",
		width=0.75];
	2 -- 48	[pos="652.49,403.21 660.73,368.98 678.53,295.05 686.72,260.99"];
	49	[height=0.5,
		pos="826.13,286.4",
		width=0.75];
	2 -- 49	[pos="666.19,407.6 700.3,381.75 773.89,325.99 808.04,300.11"];
	50	[height=0.5,
		pos="519.47,176.43",
		width=0.75];
	2 -- 50	[pos="639.09,404.06 615.47,359.1 552.12,238.56 528.51,193.63"];
	52	[height=0.5,
		pos="360.8,476.5",
		width=0.75];
	2 -- 52	[pos="622.14,426.27 567.57,436.76 441.65,460.96 386.95,471.47"];
	53	[height=0.5,
		pos="979.74,495.3",
		width=0.75];
	2 -- 53	[pos="673.89,427.02 735.67,440.81 891.78,475.67 953.78,489.51"];
	14	[height=0.5,
		pos="441.45,513.88",
		width=0.75];
	2 -- 14	[pos="625.63,431.36 585.87,449.17 503.68,486 463.94,503.81"];
	55	[height=0.5,
		pos="713.41,190.2",
		width=0.75];
	2 -- 55	[pos="653.16,403.52 665.3,360.51 696.21,251.08 708.38,208.01"];
	17	[height=0.5,
		pos="830.71,374.44",
		width=0.75];
	2 -- 17	[pos="673.53,414.76 708.31,405.84 770.42,389.91 805.25,380.98"];
	57	[height=0.5,
		pos="928.22,592.3",
		width=0.75];
	2 -- 57	[pos="668.29,433.57 719.96,465.13 856.79,548.68 908.26,580.11"];
	23	[height=0.5,
		pos="404.81,834.91",
		width=0.75];
	22 -- 23	[pos="303.57,744.69 326.04,764.71 366.21,800.5 388.6,820.46"];
	6 -- 7	[pos="474.16,585.43 506.32,537.22 598.7,398.76 630.86,350.56"];
	6 -- 9	[pos="483.16,590.25 512.78,572.7 567.68,540.18 597.3,522.63"];
	36	[height=0.5,
		pos="283.7,624.25",
		width=0.75];
	6 -- 36	[pos="436.12,605.52 402.23,609.69 344.27,616.81 310.43,620.97"];
	6 -- 17	[pos="482.99,589.82 547.14,550.08 747.02,426.28 810.88,386.72"];
	10	[height=0.5,
		pos="465.11,388.6",
		width=0.75];
	6 -- 10	[pos="463.14,584.01 463.55,543.65 464.52,447.08 464.93,406.77"];
	75	[height=0.5,
		pos="521.79,794.53",
		width=0.75];
	6 -- 75	[pos="468.38,619.97 479.59,656.61 505.17,740.23 516.37,776.83"];
	103	[height=0.5,
		pos="583.4,421.82",
		width=0.75];
	6 -- 103	[pos="474.07,585.58 497.02,551.21 549.39,472.76 572.31,438.43"];
	104	[height=0.5,
		pos="228.83,686.02",
		width=0.75];
	6 -- 104	[pos="438.78,610.88 393.8,626.98 297.75,661.35 252.87,677.42"];
	105	[height=0.5,
		pos="379.08,527.23",
		width=0.75];
	6 -- 105	[pos="446.78,587.76 432.03,574.57 410.32,555.16 395.49,541.9"];
	106	[height=0.5,
		pos="640.21,734.37",
		width=0.75];
	6 -- 106	[pos="481.26,615.87 515.31,641.26 588.03,695.47 622.01,720.8"];
	107	[height=0.5,
		pos="302.26,677.22",
		width=0.75];
	6 -- 107	[pos="440.61,612.65 409.91,626.98 355.02,652.6 324.42,666.88"];
	108	[height=0.5,
		pos="349.28,734.21",
		width=0.75];
	6 -- 108	[pos="449.47,617.88 427.59,643.29 384.62,693.18 362.75,718.57"];
	109	[height=0.5,
		pos="331.16,419.04",
		width=0.75];
	6 -- 109	[pos="451.26,585.97 426.31,551.29 368.11,470.4 343.02,435.52"];
	110	[height=0.5,
		pos="517.28,890.11",
		width=0.75];
	6 -- 110	[pos="466.35,620.23 476.11,671.93 504.13,820.41 513.89,872.1"];
	112	[height=0.5,
		pos="286.09,847.78",
		width=0.75];
	6 -- 112	[pos="451.08,618.72 418.86,663.45 330.08,786.71 297.92,831.36"];
	63	[height=0.5,
		pos="437.7,880.43",
		width=0.75];
	6 -- 63	[pos="461.3,620.48 456.72,670.89 443.95,811.62 439.36,862.11"];
	7 -- 12	[pos="623.49,346.98 615.66,352.56 606.56,359.03 598.74,364.6"];
	7 -- 19	[pos="635.26,351.26 612.86,408.86 541.57,592.2 519.04,650.13"];
	37	[height=0.5,
		pos="455.82,256.01",
		width=0.75];
	7 -- 37	[pos="618.85,324.08 582.96,309.1 514.44,280.49 478.74,265.58"];
	7 -- 49	[pos="667.27,327.28 702.42,318.24 765.79,301.93 800.93,292.89"];
	64	[height=0.5,
		pos="797.08,507.92",
		width=0.75];
	7 -- 64	[pos="656.09,349.53 685.6,382.69 753.8,459.31 783.19,492.32"];
	7 -- 10	[pos="617.45,341.39 583.74,351.84 523.54,370.49 489.79,380.95"];
	11	[height=0.5,
		pos="265.05,529.25",
		width=0.75];
	7 -- 11	[pos="620.71,344.84 554.5,379.17 353.15,483.57 286.63,518.06"];
	89	[height=0.5,
		pos="662.13,139.1",
		width=0.75];
	7 -- 89	[pos="643.91,315.81 647.72,278.81 656.42,194.5 660.26,157.31"];
	114	[height=0.5,
		pos="777.62,215.1",
		width=0.75];
	7 -- 114	[pos="658.68,319.22 684.7,296.44 734.76,252.62 760.86,229.77"];
	115	[height=0.5,
		pos="768.52,335.95",
		width=0.75];
	7 -- 115	[pos="669.19,334.24 690.52,334.61 720.11,335.12 741.43,335.49"];
	116	[height=0.5,
		pos="900.68,418.07",
		width=0.75];
	7 -- 116	[pos="666.39,341.7 715.68,357.77 826.83,394 876.23,410.1"];
	117	[height=0.5,
		pos="518.61,118.67",
		width=0.75];
	7 -- 117	[pos="632.37,316.89 609.35,276.78 551.57,176.1 528.42,135.76"];
	119	[height=0.5,
		pos="661.58,465.46",
		width=0.75];
	7 -- 119	[pos="644.73,351.81 648.45,376.88 655.14,422.04 658.87,447.22"];
	120	[height=0.5,
		pos="689.78,50.752",
		width=0.75];
	7 -- 120	[pos="645.11,315.64 653.73,264.52 678.16,119.67 686.75,68.736"];
	122	[height=0.5,
		pos="893.04,300.81",
		width=0.75];
	7 -- 122	[pos="668.92,330.24 717.22,323.9 818.21,310.64 866.37,304.31"];
	123	[height=0.5,
		pos="957.57,319.2",
		width=0.75];
	7 -- 123	[pos="669.23,332.52 728.87,329.76 870.67,323.21 930.35,320.45"];
	77	[height=0.5,
		pos="955.99,363.24",
		width=0.75];
	7 -- 77	[pos="668.82,336.28 727.98,341.84 869.33,355.1 928.84,360.69"];
	9 -- 12	[pos="612.48,492.74 605.36,467.38 592.4,421.29 585.26,395.86"];
	9 -- 16	[pos="607.05,493.76 587.28,461.83 544.62,392.96 524.82,361"];
	9 -- 15	[pos="593.89,519.71 571.81,528.17 539.04,540.73 516.99,549.18"];
	9 -- 14	[pos="590.39,511.15 557.3,511.76 501.71,512.78 468.61,513.38"];
	9 -- 10	[pos="600.03,496.65 570.63,473.11 511.65,425.87 482.39,402.44"];
	9 -- 115	[pos="631.18,494.84 659.93,461.58 726.36,384.72 754.99,351.6"];
	135	[height=0.5,
		pos="374.08,636.55",
		width=0.75];
	9 -- 135	[pos="595.91,521.83 549.71,545.72 441.79,601.53 395.63,625.4"];
	136	[height=0.5,
		pos="809.63,587.13",
		width=0.75];
	9 -- 136	[pos="641.07,520.03 678.04,534.75 749.28,563.1 786.18,577.79"];
	137	[height=0.5,
		pos="967.53,407.25",
		width=0.75];
	9 -- 137	[pos="642.41,503.3 706.75,484.29 878.07,433.68 942.53,414.63"];
	139	[height=0.5,
		pos="691.18,690.34",
		width=0.75];
	9 -- 139	[pos="624.71,528.21 638.79,562.56 669.85,638.31 683.95,672.72"];
	140	[height=0.5,
		pos="500.79,838.69",
		width=0.75];
	9 -- 140	[pos="611.24,528.29 590.97,585.25 527.41,763.89 507.1,820.97"];
	66	[height=0.5,
		pos="756.14,774.24",
		width=0.75];
	9 -- 66	[pos="626.61,527.95 651.79,575.82 722.19,709.68 747.19,757.22"];
	29	[height=0.5,
		pos="27,547.37",
		width=0.75];
	28 -- 29	[pos="74.499,500.41 64.79,510.01 52.231,522.42 42.466,532.08"];
	12 -- 13	[pos="590.63,394.57 609.66,425.12 649.79,489.52 668.94,520.26"];
	12 -- 16	[pos="558.62,366.76 551.42,363.06 543.39,358.95 536.17,355.25"];
	12 -- 19	[pos="575.93,395.95 563.71,448.04 528.62,597.63 516.41,649.71"];
	40	[height=0.5,
		pos="393.55,293.51",
		width=0.75];
	12 -- 40	[pos="557.67,367.64 521.8,351.43 452.07,319.94 416.14,303.72"];
	12 -- 15	[pos="571.87,395.1 555.29,429.58 518.3,506.52 501.74,540.96"];
	18	[height=0.5,
		pos="723.28,628.47",
		width=0.75];
	12 -- 18	[pos="589.8,394.64 615.8,440.19 687.35,565.53 713.52,611.38"];
	12 -- 14	[pos="564.81,392.89 538.14,419.04 483.61,472.53 456.9,498.73"];
	80	[height=0.5,
		pos="728.93,461.31",
		width=0.75];
	12 -- 80	[pos="600.87,389.41 629.13,405.28 679.53,433.58 707.95,449.53"];
	12 -- 105	[pos="561.98,391.33 523.79,419.7 435.67,485.18 397.38,513.63"];
	161	[height=0.5,
		pos="840.84,242.12",
		width=0.75];
	12 -- 161	[pos="601.52,366.7 650.39,341.26 770.05,278.96 819.21,253.37"];
	68	[height=0.5,
		pos="741.56,552.04",
		width=0.75];
	12 -- 68	[pos="594.51,393.27 625.05,426.25 696.32,503.19 727.04,536.36"];
	127	[height=0.5,
		pos="724.39,114.67",
		width=0.75];
	12 -- 127	[pos="589.65,360.54 615.84,312.75 689.08,179.11 715.08,131.65"];
	145	[height=0.5,
		pos="455.8,123.9",
		width=0.75];
	12 -- 145	[pos="571.64,360.35 548.86,313.86 486.9,187.39 464.24,141.14"];
	150	[height=0.5,
		pos="200.31,385.6",
		width=0.75];
	12 -- 150	[pos="553.17,378.36 483.34,379.79 297.41,383.6 227.44,385.04"];
	13 -- 16	[pos="666.02,521.47 634.96,485.14 558.82,396.09 527.81,359.82"];
	13 -- 19	[pos="661.94,551 629.8,576.08 561.93,629.03 529.77,654.11"];
	13 -- 15	[pos="652.88,540.28 617.6,544.24 555.77,551.2 520.37,555.18"];
	81	[height=0.5,
		pos="809.18,675.16",
		width=0.75];
	13 -- 81	[pos="693.91,552.56 718.83,579.06 769.78,633.25 794.74,659.8"];
	94	[height=0.5,
		pos="705.09,318.76",
		width=0.75];
	13 -- 94	[pos="681.67,519.02 686.5,477.79 698.18,377.85 702.98,336.81"];
	13 -- 106	[pos="675.91,555.47 668.4,593.11 651.23,679.15 643.77,716.51"];
	13 -- 116	[pos="700.74,525.85 743.01,503.06 837.33,452.22 879.54,429.47"];
	128	[height=0.5,
		pos="893.11,372.83",
		width=0.75];
	13 -- 128	[pos="697.38,523.54 737.58,492.59 834.88,417.67 875.17,386.65"];
	13 -- 136	[pos="703.1,546.3 726.53,555.28 762.29,568.98 785.81,578"];
	146	[height=0.5,
		pos="555.51,522.04",
		width=0.75];
	13 -- 146	[pos="652.93,534.01 632.01,531.44 602.99,527.88 582.07,525.31"];
	163	[height=0.5,
		pos="630.58,847.66",
		width=0.75];
	13 -- 163	[pos="676.7,555.31 668.04,610.16 642.1,774.66 633.43,829.58"];
	165	[height=0.5,
		pos="1049.1,491.16",
		width=0.75];
	13 -- 165	[pos="706.12,533.96 774.22,525.46 954.41,502.98 1022.5,494.48"];
	167	[height=0.5,
		pos="834.1,719.18",
		width=0.75];
	13 -- 167	[pos="692.99,553.1 722.22,587.5 791.27,668.78 820.57,703.27"];
	54	[height=0.5,
		pos="989.38,640.27",
		width=0.75];
	13 -- 54	[pos="703.85,545.36 761.77,564.61 907.38,613.01 965.18,632.23"];
	152	[height=0.5,
		pos="366.13,778.53",
		width=0.75];
	13 -- 152	[pos="661.79,550.94 606.76,593.3 439.37,722.15 384.08,764.71"];
	16 -- 19	[pos="514.21,362.4 513.83,419.39 512.66,593 512.28,649.72"];
	42	[height=0.5,
		pos="273.57,316.62",
		width=0.75];
	16 -- 42	[pos="487.65,341.02 441.37,335.75 346.74,324.96 300.38,319.68"];
	16 -- 18	[pos="526.47,360.58 563.49,410.97 674.66,562.29 711.37,612.26"];
	16 -- 109	[pos="491.14,353.56 455.9,367.98 389.3,395.24 354.17,409.62"];
	131	[height=0.5,
		pos="598.23,171.17",
		width=0.75];
	16 -- 131	[pos="522.69,326.85 538.77,293.71 573.86,221.4 589.91,188.31"];
	169	[height=0.5,
		pos="754.03,274.29",
		width=0.75];
	16 -- 169	[pos="539.08,336.86 585.01,323.49 682.95,294.98 729.05,281.56"];
	56	[height=0.5,
		pos="581.2,109.25",
		width=0.75];
	16 -- 56	[pos="519.47,326.03 531.95,282.21 563.74,170.57 576.14,127.02"];
	98	[height=0.5,
		pos="430.72,76.859",
		width=0.75];
	16 -- 98	[pos="508.72,326.12 493.49,277.44 451.51,143.31 436.31,94.728"];
	121	[height=0.5,
		pos="543.62,63.767",
		width=0.75];
	16 -- 121	[pos="516.21,326.1 521.49,275.6 536.42,132.71 541.72,81.94"];
	157	[height=0.5,
		pos="159.94,287.74",
		width=0.75];
	16 -- 157	[pos="487.99,339.87 422.38,329.45 252.25,302.41 186.46,291.95"];
	33	[height=0.5,
		pos="853.44,176.67",
		width=0.75];
	32 -- 33	[pos="654.82,210.7 698.03,203.3 783.7,188.62 827.02,181.2"];
	102	[height=0.5,
		pos="397.65,381.73",
		width=0.75];
	19 -- 102	[pos="505.16,650.38 484.72,599.3 425.21,450.58 404.7,399.33"];
	134	[height=0.5,
		pos="597.65,465.85",
		width=0.75];
	19 -- 134	[pos="519.59,650.28 535.8,611.98 574.15,521.37 590.29,483.24"];
	148	[height=0.5,
		pos="352.27,585.36",
		width=0.75];
	19 -- 148	[pos="490.59,656.73 459.99,640.94 404.3,612.21 373.74,596.44"];
	160	[height=0.5,
		pos="222.96,750.03",
		width=0.75];
	19 -- 160	[pos="487.25,674.93 432.58,690.46 302.61,727.4 247.91,742.94"];
	173	[height=0.5,
		pos="632.12,803.63",
		width=0.75];
	19 -- 173	[pos="525.92,683.43 548.93,709.48 594.99,761.61 618.15,787.82"];
	45	[height=0.5,
		pos="236.38,794.14",
		width=0.75];
	19 -- 45	[pos="489.59,678.19 437.74,701.93 310.64,760.13 258.87,783.84"];
	88	[height=0.5,
		pos="489.11,934.13",
		width=0.75];
	19 -- 88	[pos="510.57,686.15 506.35,734.92 494.87,867.55 490.67,916.06"];
	113	[height=0.5,
		pos="316.87,892.23",
		width=0.75];
	19 -- 113	[pos="498.42,683.63 462.57,724.83 366.42,835.29 330.59,876.47"];
	141	[height=0.5,
		pos="378.87,924.46",
		width=0.75];
	19 -- 141	[pos="503.2,685.09 478.92,731.84 412.02,860.64 387.79,907.3"];
	172	[height=0.5,
		pos="753.22,719.29",
		width=0.75];
	19 -- 172	[pos="537.95,673.36 584.23,683.23 680.84,703.85 727.24,713.75"];
	1	[height=0.5,
		pos="431.28,469.81",
		width=0.75];
	1 -- 2	[pos="457.01,464.05 498.74,454.71 580.73,436.36 622.45,427.02"];
	1 -- 9	[pos="457.17,475.49 492.75,483.29 556.37,497.25 591.84,505.02"];
	1 -- 13	[pos="456.45,476.65 504.03,489.58 606.67,517.47 654.3,530.42"];
	1 -- 3	[pos="447.47,484.43 484.67,518.02 575.87,600.36 613.02,633.9"];
	4	[height=0.5,
		pos="661.26,596.76",
		width=0.75];
	1 -- 4	[pos="452.09,481.3 495.77,505.41 596.55,561.04 640.33,585.2"];
	35	[height=0.5,
		pos="312.52,227.03",
		width=0.75];
	1 -- 35	[pos="422.74,452.35 400.83,407.56 342.81,288.95 320.98,244.33"];
	1 -- 36	[pos="416.59,485.19 388.3,514.79 326.57,579.39 298.33,608.94"];
	1 -- 37	[pos="433.37,451.58 438.01,411.19 449.1,314.55 453.73,274.2"];
	1 -- 8	[pos="447.82,455.55 487.12,421.66 585.79,336.59 625.31,302.52"];
	38	[height=0.5,
		pos="269.13,409.89",
		width=0.75];
	1 -- 38	[pos="407.35,460.97 376.61,449.61 323.55,430 292.89,418.67"];
	39	[height=0.5,
		pos="151.68,496.79",
		width=0.75];
	1 -- 39	[pos="404.47,472.4 351.03,477.56 231.79,489.06 178.41,494.22"];
	1 -- 40	[pos="427.45,451.94 420.22,418.15 404.63,345.26 397.39,311.43"];
	41	[height=0.5,
		pos="213.73,483.43",
		width=0.75];
	1 -- 41	[pos="404.17,471.51 362.36,474.13 282.64,479.12 240.84,481.73"];
	1 -- 15	[pos="442.97,486.44 454.09,502.24 470.71,525.87 481.81,541.65"];
	1 -- 42	[pos="415.87,454.84 385.8,425.63 319.58,361.32 289.28,331.88"];
	43	[height=0.5,
		pos="579.99,272.54",
		width=0.75];
	1 -- 43	[pos="443.45,453.67 471.4,416.58 539.94,325.66 567.86,288.63"];
	1 -- 18	[pos="452.28,481.22 506.02,510.43 648.11,587.63 702.08,616.95"];
	44	[height=0.5,
		pos="165.77,643.44",
		width=0.75];
	1 -- 44	[pos="411.75,482.58 362.65,514.69 234.46,598.53 185.33,630.66"];
	1 -- 21	[pos="405.99,463.29 350.47,448.97 218.5,414.93 162.95,400.6"];
	3 -- 13	[pos="637.03,631.1 646.49,610.21 662.28,575.37 671.72,554.53"];
	3 -- 16	[pos="622.49,630.79 602.19,576.99 541.34,415.66 521.02,361.79"];
	3 -- 19	[pos="602.9,652.82 583.76,655.99 557.94,660.27 538.73,663.45"];
	3 -- 8	[pos="629.81,630.11 632.03,568.28 639.19,368.17 641.41,306.4"];
	59	[height=0.5,
		pos="694.12,796.28",
		width=0.75];
	3 -- 59	[pos="636.86,666.01 649.37,694.46 673.93,750.34 686.42,778.77"];
	60	[height=0.5,
		pos="831.01,330.44",
		width=0.75];
	3 -- 60	[pos="639.72,631.82 674.52,576.99 785.3,402.46 820.3,347.31"];
	62	[height=0.5,
		pos="580.92,933.49",
		width=0.75];
	3 -- 62	[pos="626.07,666.74 617.35,718.22 592.66,864.09 583.98,915.38"];
	3 -- 64	[pos="646.18,634.22 678.37,607.29 747.79,549.18 780.01,522.21"];
	65	[height=0.5,
		pos="773.08,838.38",
		width=0.75];
	3 -- 65	[pos="641.43,664.67 668.62,700.54 733.68,786.39 760.84,822.23"];
	3 -- 10	[pos="618.64,631.82 589.09,585 505.46,452.52 475.74,405.45"];
	3 -- 11	[pos="604.7,640.47 538.37,618.75 355.6,558.9 289.4,537.22"];
	67	[height=0.5,
		pos="919.08,693.78",
		width=0.75];
	3 -- 67	[pos="655.65,652.62 710.87,661.24 837.68,681.06 892.75,689.67"];
	69	[height=0.5,
		pos="450.56,742.76",
		width=0.75];
	3 -- 69	[pos="607.97,659.66 573.69,677.76 506.44,713.26 472,731.44"];
	70	[height=0.5,
		pos="578.15,750.51",
		width=0.75];
	3 -- 70	[pos="620.5,665.78 611.13,684.55 596.24,714.32 586.85,733.12"];
	71	[height=0.5,
		pos="987.76,686.76",
		width=0.75];
	3 -- 71	[pos="655.82,651.32 722.2,658.41 894.35,676.79 960.92,683.9"];
	73	[height=0.5,
		pos="837.37,868.9",
		width=0.75];
	3 -- 73	[pos="643.8,663.97 682.03,704.45 784.54,812.96 822.75,853.41"];
	3 -- 23	[pos="611.93,662.79 570.06,697.58 463.4,786.22 421.8,820.79"];
	4 -- 24	[pos="634.33,599.27 610.44,601.5 575.72,604.75 551.85,606.98"];
	4 -- 9	[pos="652.41,579.33 644.77,564.3 633.8,542.7 626.2,527.76"];
	4 -- 16	[pos="651.39,579.79 624.63,533.75 550.88,406.91 524.16,360.96"];
	4 -- 59	[pos="664.23,614.82 670.47,652.71 684.88,740.14 691.13,778.12"];
	4 -- 10	[pos="646.84,581.45 610.56,542.96 515.85,442.45 479.55,403.93"];
	4 -- 11	[pos="634.96,592.28 562.97,580.01 363.32,545.99 291.34,533.73"];
	5	[height=0.5,
		pos="517.9,250.24",
		width=0.75];
	4 -- 5	[pos="653.95,579.1 629.36,519.66 549.76,327.25 525.19,267.87"];
	4 -- 75	[pos="649.61,613.28 623.29,650.6 559.5,741.05 533.31,778.19"];
	76	[height=0.5,
		pos="993.38,550.13",
		width=0.75];
	4 -- 76	[pos="687.88,593.02 750.06,584.29 904.32,562.63 966.63,553.88"];
	78	[height=0.5,
		pos="982.28,451.26",
		width=0.75];
	4 -- 78	[pos="683.83,586.53 742.78,559.81 900.82,488.19 959.74,461.48"];
	4 -- 80	[pos="669.83,579.6 682.78,553.69 707.19,504.84 720.22,478.76"];
	4 -- 81	[pos="682.45,607.99 710.57,622.89 759.92,649.05 788.02,663.94"];
	82	[height=0.5,
		pos="512.56,712.88",
		width=0.75];
	4 -- 82	[pos="643.62,610.54 615,632.88 558.79,676.78 530.18,699.12"];
	83	[height=0.5,
		pos="709.41,854.11",
		width=0.75];
	4 -- 83	[pos="664.65,614.86 673.49,662.11 697.19,788.8 706.03,836.03"];
	85	[height=0.5,
		pos="869.24,543.1",
		width=0.75];
	4 -- 85	[pos="686.76,590.18 726.79,579.85 803.9,559.96 843.85,549.65"];
	86	[height=0.5,
		pos="818.15,763.21",
		width=0.75];
	4 -- 86	[pos="675.74,612.12 705.63,643.83 773.85,716.21 803.71,747.88"];
	87	[height=0.5,
		pos="648.66,899.12",
		width=0.75];
	4 -- 87	[pos="660.51,614.77 658.27,668.42 651.68,826.8 649.42,880.82"];
	47	[height=0.5,
		pos="987.41,732.08",
		width=0.75];
	4 -- 47	[pos="684.19,606.27 743.93,631.06 903.87,697.42 964.06,722.39"];
	8 -- 26	[pos="618.86,278.74 582.55,264.14 512.68,236.05 476.25,221.4"];
	8 -- 9	[pos="640.05,306.28 635.44,348.13 624.12,450.72 619.52,492.5"];
	8 -- 10	[pos="621.42,299.8 587.41,319.12 519.99,357.42 485.9,376.79"];
	90	[height=0.5,
		pos="643.39,95.026",
		width=0.75];
	8 -- 90	[pos="642.19,269.91 642.44,233.12 643.01,150.15 643.26,113.28"];
	8 -- 103	[pos="634.39,305.55 623.15,331.19 602.32,378.69 591.07,404.33"];
	8 -- 114	[pos="663.24,276.67 688.71,262.96 731.19,240.1 756.59,226.42"];
	125	[height=0.5,
		pos="335.6,344.43",
		width=0.75];
	8 -- 125	[pos="615.93,292.87 558.03,303.52 419.5,329 361.66,339.63"];
	126	[height=0.5,
		pos="823.92,68.939",
		width=0.75];
	8 -- 126	[pos="655.14,272.31 688.61,231.98 777.11,125.35 810.72,84.85"];
	8 -- 128	[pos="666.59,296.35 714.71,312.6 820.95,348.47 868.85,364.64"];
	129	[height=0.5,
		pos="477.97,300.03",
		width=0.75];
	8 -- 129	[pos="614.97,290.04 584.47,292.27 535.23,295.85 504.83,298.07"];
	130	[height=0.5,
		pos="579.89,320.2",
		width=0.75];
	8 -- 130	[pos="620.67,299.13 614.48,302.32 607.73,305.81 601.54,309.01"];
	8 -- 131	[pos="635.5,270.57 627.24,248.53 613.12,210.89 604.84,188.79"];
	132	[height=0.5,
		pos="908.3,256.69",
		width=0.75];
	8 -- 132	[pos="669.06,284.89 720.22,278.86 830.72,265.83 881.63,259.83"];
	133	[height=0.5,
		pos="860.79,462.34",
		width=0.75];
	8 -- 133	[pos="659.59,302.04 700.55,334.67 802.14,415.61 843.18,448.31"];
	8 -- 134	[pos="637.56,306.09 629.03,340.26 610.59,414.05 602.1,448.04"];
	79	[height=0.5,
		pos="1019.6,296.29",
		width=0.75];
	8 -- 79	[pos="669.21,288.66 738.79,290.18 922.85,294.18 992.43,295.7"];
	15 -- 31	[pos="466.52,560.5 427.04,563.85 353.87,570.08 314.39,573.44"];
	15 -- 16	[pos="495.23,539.95 499.18,499.49 508.62,402.69 512.56,362.27"];
	15 -- 19	[pos="496.54,576.31 500.01,596.63 505.59,629.39 509.06,649.72"];
	15 -- 18	[pos="518.05,565.72 562.17,579.21 654.27,607.37 698.51,620.9"];
	15 -- 17	[pos="514.55,546.71 575.12,513.71 749.06,418.93 809.62,385.93"];
	15 -- 70	[pos="501.12,575.61 517.2,612.13 554.32,696.4 570.44,733.01"];
	96	[height=0.5,
		pos="415.94,337.66",
		width=0.75];
	15 -- 96	[pos="487.24,540.53 472.73,499.23 436.72,396.8 422.18,355.42"];
	15 -- 108	[pos="480.4,574.13 453.03,607.56 389.85,684.69 362.41,718.19"];
	15 -- 119	[pos="514.41,546.65 546.71,528.83 608.32,494.84 640.63,477.02"];
	15 -- 130	[pos="499.81,540.7 515.79,496.69 557.53,381.77 573.52,337.73"];
	147	[height=0.5,
		pos="275.82,469.67",
		width=0.75];
	15 -- 147	[pos="470.16,548.73 428.27,531.69 340.71,496.07 298.94,479.08"];
	84	[height=0.5,
		pos="568.54,846.09",
		width=0.75];
	15 -- 84	[pos="498.15,576.21 511.63,627.91 550.37,776.39 563.85,828.08"];
	155	[height=0.5,
		pos="165.6,694.89",
		width=0.75];
	15 -- 155	[pos="470.4,567.82 410.2,592.91 248.8,660.2 188.63,685.29"];
	18 -- 34	[pos="696.09,630.26 643.74,633.71 529.5,641.23 477.23,644.67"];
	18 -- 86	[pos="734.91,644.99 753.12,670.85 788.16,720.61 806.42,746.55"];
	101	[height=0.5,
		pos="706.33,376.98",
		width=0.75];
	18 -- 101	[pos="722.06,610.39 718.94,564.1 710.69,441.72 707.56,395.24"];
	18 -- 133	[pos="736.47,612.54 762.68,580.87 821.1,510.3 847.44,478.47"];
	18 -- 139	[pos="714.34,645.71 709.89,654.29 704.52,664.63 700.07,673.2"];
	159	[height=0.5,
		pos="411.34,690.56",
		width=0.75];
	18 -- 159	[pos="697.22,633.66 638.5,645.35 496.4,673.63 437.55,685.35"];
	18 -- 167	[pos="740.6,642.65 761.41,659.69 796.14,688.11 816.9,705.11"];
	168	[height=0.5,
		pos="574.58,692.56",
		width=0.75];
	18 -- 168	[pos="700.37,638.34 672.35,650.42 625.2,670.74 597.27,682.78"];
	170	[height=0.5,
		pos="931.25,539.31",
		width=0.75];
	18 -- 170	[pos="746.33,618.59 786.41,601.4 868.48,566.22 908.41,549.1"];
	18 -- 173	[pos="714.37,645.59 696.95,679.07 658.52,752.91 641.06,786.45"];
	58	[height=0.5,
		pos="1051.9,692.78",
		width=0.75];
	18 -- 58	[pos="749.34,633.57 810.82,645.6 964.35,675.65 1025.8,687.68"];
	74	[height=0.5,
		pos="903.47,832.88",
		width=0.75];
	18 -- 74	[pos="737.12,644.17 770.66,682.22 856,779.02 889.59,817.13"];
	111	[height=0.5,
		pos="714.04,898.78",
		width=0.75];
	18 -- 111	[pos="722.66,646.63 720.98,695.87 716.34,831.55 714.66,880.7"];
	124	[height=0.5,
		pos="1055.6,537.34",
		width=0.75];
	18 -- 124	[pos="748.26,621.62 809.84,604.73 968.44,561.24 1030.3,544.26"];
	44 -- 45	[pos="173.87,660.73 187.42,689.64 214.53,747.5 228.16,776.59"];
	46 -- 47	[pos="883.31,645.39 906.41,664.63 947.33,698.7 970.39,717.9"];
	51	[height=0.5,
		pos="369.59,123.98",
		width=0.75];
	50 -- 51	[pos="495.39,168 467.42,158.21 421.56,142.16 393.61,132.38"];
	53 -- 54	[pos="980.94,513.37 982.79,541.15 986.31,594.06 988.16,621.98"];
	14 -- 30	[pos="417.25,505.18 372.22,489 276.07,454.44 231.14,438.3"];
	14 -- 16	[pos="448.98,496.35 462.98,463.72 492.88,394.05 506.85,361.5"];
	14 -- 19	[pos="449.42,531.24 463,560.82 490.47,620.63 504.1,650.32"];
	14 -- 41	[pos="414.88,510.33 371.12,504.48 284.36,492.87 240.48,487.01"];
	14 -- 15	[pos="458.19,528.15 464.13,533.21 470.81,538.9 476.74,543.96"];
	14 -- 17	[pos="465.51,505.26 535.29,480.27 737.24,407.93 806.82,383"];
	14 -- 69	[pos="442.18,532.22 443.89,575.19 448.14,681.92 449.84,724.65"];
	14 -- 82	[pos="447.76,531.54 461.26,569.3 492.79,657.53 506.27,695.26"];
	95	[height=0.5,
		pos="330.96,272.39",
		width=0.75];
	14 -- 95	[pos="433.51,496.51 413.17,452.06 359.41,334.56 338.99,289.92"];
	14 -- 107	[pos="428.11,529.54 401.57,560.68 342.44,630.07 315.77,661.36"];
	14 -- 129	[pos="444.57,495.65 451.48,455.14 468.05,358.09 474.92,317.91"];
	153	[height=0.5,
		pos="166.97,569.31",
		width=0.75];
	14 -- 153	[pos="415.13,519.2 362.67,529.79 245.61,553.43 193.21,564.01"];
	14 -- 168	[pos="453.5,530.05 478.78,563.98 537.12,642.28 562.47,676.29"];
	118	[height=0.5,
		pos="390.55,217.64",
		width=0.75];
	14 -- 118	[pos="438.34,495.8 429.26,442.91 402.8,288.93 393.68,235.86"];
	164	[height=0.5,
		pos="431.5,790.87",
		width=0.75];
	14 -- 164	[pos="440.8,532.05 439,582.24 433.96,722.36 432.16,772.63"];
	55 -- 56	[pos="693.33,177.9 668.48,162.69 626.4,136.93 601.47,121.66"];
	17 -- 43	[pos="807.57,365.04 759.81,345.63 650.79,301.31 603.07,281.92"];
	17 -- 85	[pos="834.83,392.49 842.25,424.95 857.75,492.81 865.14,525.18"];
	17 -- 122	[pos="844.24,358.47 854.76,346.03 869.29,328.86 879.76,316.5"];
	17 -- 132	[pos="841.66,357.82 856.45,335.38 882.65,295.63 897.41,273.23"];
	158	[height=0.5,
		pos="518.73,433",
		width=0.75];
	17 -- 158	[pos="804.65,379.34 745.92,390.36 603.8,417.03 544.94,428.08"];
	17 -- 169	[pos="818.39,358.35 804.08,339.66 780.61,309.01 766.32,290.34"];
	17 -- 170	[pos="840.9,391.16 860.17,422.76 901.74,490.92 921.03,522.55"];
	171	[height=0.5,
		pos="990.23,594.92",
		width=0.75];
	17 -- 171	[pos="842.7,391.02 872.34,431.98 948.77,537.61 978.32,578.46"];
	17 -- 33	[pos="832.81,356.19 837.14,318.52 847.02,232.52 851.35,194.88"];
	72	[height=0.5,
		pos="1120.3,500.17",
		width=0.75];
	17 -- 72	[pos="853.44,384.31 907.44,407.76 1043,466.61 1097.3,490.18"];
	100	[height=0.5,
		pos="919.59,124.31",
		width=0.75];
	17 -- 100	[pos="836.96,356.86 853.28,310.93 897.04,187.79 913.35,141.88"];
	138	[height=0.5,
		pos="1081.6,309.72",
		width=0.75];
	17 -- 138	[pos="856.15,367.88 904.24,355.48 1008,328.72 1056.1,316.3"];
	162	[height=0.5,
		pos="1016.1,220.87",
		width=0.75];
	17 -- 162	[pos="847.82,360.27 883.12,331.02 963.72,264.24 998.99,235.01"];
	166	[height=0.5,
		pos="1093.2,378.25",
		width=0.75];
	17 -- 166	[pos="857.82,374.84 908.13,375.57 1015.4,377.12 1065.9,377.85"];
	57 -- 58	[pos="945.42,606.27 968.91,625.36 1010.8,659.41 1034.4,678.6"];
	61	[height=0.5,
		pos="788.66,151.43",
		width=0.75];
	60 -- 61	[pos="826.8,312.62 818.7,278.4 801.05,203.82 792.92,169.44"];
	62 -- 63	[pos="557.27,924.73 530.73,914.9 487.94,899.04 461.39,889.2"];
	65 -- 66	[pos="768.36,820.51 766.01,811.62 763.18,800.89 760.83,792.01"];
	10 -- 27	[pos="439.4,382.84 390.79,371.94 285.96,348.44 237.3,337.54"];
	10 -- 16	[pos="481.23,374.02 486.61,369.14 492.61,363.71 498.01,358.83"];
	10 -- 38	[pos="438.27,391.51 400.84,395.58 333.38,402.91 295.96,406.98"];
	10 -- 18	[pos="480.87,403.24 526.96,446.07 661.15,570.75 707.4,613.71"];
	10 -- 14	[pos="461.72,406.55 457.22,430.36 449.33,472.16 444.84,495.96"];
	10 -- 17	[pos="492.29,387.55 559.97,384.93 735.48,378.13 803.35,375.5"];
	91	[height=0.5,
		pos="412.66,167.99",
		width=0.75];
	10 -- 91	[pos="460.82,370.55 450.96,329.07 426.79,227.4 416.94,185.99"];
	142	[height=0.5,
		pos="145.02,441.4",
		width=0.75];
	10 -- 142	[pos="438.64,392.96 378.43,402.9 231.76,427.09 171.51,437.03"];
	144	[height=0.5,
		pos="307.53,128.53",
		width=0.75];
	10 -- 144	[pos="454.77,371.53 426.15,324.3 346.12,192.22 317.7,145.32"];
	10 -- 146	[pos="476.38,405.23 493.79,430.94 527.05,480.04 544.39,505.62"];
	10 -- 147	[pos="442.28,398.38 405.89,413.96 335.16,444.25 298.73,459.86"];
	10 -- 148	[pos="455.29,405.72 433.9,443.02 383.28,531.28 361.98,568.42"];
	10 -- 51	[pos="458.69,370.83 441.29,322.62 393.35,189.79 375.98,141.67"];
	11 -- 39	[pos="240.17,522.12 221.27,516.71 195.39,509.31 176.5,503.9"];
	11 -- 52	[pos="286.3,517.54 302.27,508.74 324.05,496.74 339.93,487.99"];
	11 -- 104	[pos="260.89,547.23 253.94,577.31 240.04,637.5 233.05,667.77"];
	11 -- 125	[pos="271.81,511.52 285.3,476.2 315.39,397.38 328.85,362.09"];
	11 -- 135	[pos="280.21,544.17 300.92,564.55 337.86,600.91 358.69,621.41"];
	149	[height=0.5,
		pos="51.398,435.7",
		width=0.75];
	11 -- 149	[pos="242.18,519.23 201.06,501.23 115.1,463.59 74.098,445.64"];
	151	[height=0.5,
		pos="158.09,767.74",
		width=0.75];
	11 -- 151	[pos="257.18,546.78 237.4,590.89 185.75,706.04 165.96,750.17"];
	11 -- 153	[pos="241.8,538.74 226.17,545.13 205.64,553.51 190.04,559.88"];
	154	[height=0.5,
		pos="59.115,663.22",
		width=0.75];
	11 -- 154	[pos="245.67,541.85 206.42,567.38 117.92,624.96 78.587,650.55"];
	156	[height=0.5,
		pos="68.739,387.06",
		width=0.75];
	11 -- 156	[pos="246.58,515.87 209.16,488.77 124.79,427.66 87.301,400.51"];
	11 -- 158	[pos="288.91,520.19 337.39,501.8 446.85,460.27 495.11,441.96"];
	11 -- 159	[pos="279.07,544.71 306.96,575.47 369.11,643.99 397.14,674.9"];
	11 -- 160	[pos="261.6,547.31 253.69,588.82 234.29,690.58 226.39,732.03"];
	11 -- 29	[pos="238.2,531.29 192.48,534.77 100.01,541.81 54.111,545.3"];
	93	[height=0.5,
		pos="77.173,338.46",
		width=0.75];
	11 -- 93	[pos="249.99,513.96 214.72,478.14 127.12,389.18 92.041,353.56"];
	143	[height=0.5,
		pos="27.647,499.05",
		width=0.75];
	11 -- 143	[pos="238.27,525.84 192.56,520.03 99.969,508.25 54.32,502.44"];
	67 -- 68	[pos="901.74,679.93 867.8,652.83 792.97,593.08 758.98,565.94"];
	71 -- 72	[pos="999.52,670.2 1024.7,634.8 1083.5,552.07 1108.6,516.7"];
	73 -- 74	[pos="858.29,857.5 866,853.3 874.75,848.54 882.47,844.33"];
	5 -- 25	[pos="493.74,242.13 454.56,228.97 377.58,203.13 338.42,189.98"];
	5 -- 6	[pos="515.1,268.18 505.69,328.42 475.31,523.09 465.82,583.9"];
	5 -- 9	[pos="524.59,267.73 542.69,315.06 592.5,445.26 610.72,492.9"];
	5 -- 12	[pos="526.3,267.44 538.19,291.79 559.8,336.05 571.72,360.46"];
	5 -- 35	[pos="491.05,247.21 451.69,242.76 378.74,234.51 339.38,230.06"];
	5 -- 48	[pos="544.95,249.13 577.38,247.8 631.4,245.59 663.87,244.26"];
	5 -- 89	[pos="535.58,236.61 563.27,215.28 616.53,174.24 644.3,152.84"];
	5 -- 90	[pos="530.85,234.21 554.9,204.47 606.18,141.05 630.31,111.2"];
	5 -- 91	[pos="500.05,236.29 480.58,221.07 449.62,196.87 430.25,181.74"];
	92	[height=0.5,
		pos="227.6,160.11",
		width=0.75];
	5 -- 92	[pos="493.15,242.56 438.3,225.53 307.07,184.78 252.29,167.77"];
	5 -- 94	[pos="541.6,258.92 577.51,272.06 645.31,296.88 681.28,310.04"];
	5 -- 95	[pos="491.11,253.41 455.58,257.62 393.21,265.01 357.7,269.22"];
	5 -- 96	[pos="501.06,264.68 482.17,280.87 451.7,306.99 432.8,323.2"];
	97	[height=0.5,
		pos="472.37,18",
		width=0.75];
	5 -- 97	[pos="514.32,232.02 505.81,188.6 484.42,79.467 475.93,36.139"];
	99	[height=0.5,
		pos="755.07,19.804",
		width=0.75];
	5 -- 99	[pos="533.46,235.12 576.54,193.27 696.98,76.24 739.76,34.68"];
	5 -- 101	[pos="537,263.09 573.12,287.38 651.02,339.78 687.17,364.1"];
	5 -- 102	[pos="503.63,265.84 480.49,291.15 435.03,340.85 411.9,366.15"];
	5 -- 61	[pos="541.93,241.47 593.31,222.72 713.35,178.91 764.69,160.18"];
	76 -- 77	[pos="989.79,532.21 982.64,496.49 966.7,416.78 959.56,381.1"];
	78 -- 79	[pos="986.56,433.49 993.72,403.75 1008,344.25 1015.2,314.34"];
	83 -- 84	[pos="682.25,852.56 657.31,851.14 620.54,849.05 595.62,847.63"];
	87 -- 88	[pos="622.67,904.82 592.91,911.35 544.46,921.99 514.82,928.49"];
	92 -- 93	[pos="214.25,175.94 185.7,209.78 119.01,288.85 90.492,322.67"];
	97 -- 98	[pos="460.77,34.396 454.99,42.559 448.03,52.4 442.26,60.552"];
	99 -- 100	[pos="774.91,32.41 806.62,52.552 868.34,91.758 899.93,111.83"];
	110 -- 111	[pos="544.23,891.29 581.7,892.95 649.16,895.92 686.79,897.58"];
	112 -- 113	[pos="297.55,864.33 300.15,868.08 302.91,872.06 305.5,875.81"];
	117 -- 118	[pos="500.81,132.43 476.34,151.34 432.59,185.15 408.21,203.99"];
	120 -- 121	[pos="662.97,53.139 636.76,55.473 597.07,59.008 570.75,61.351"];
	123 -- 124	[pos="965.43,336.68 983.83,377.62 1029.5,479.34 1047.8,520.07"];
	126 -- 127	[pos="801.34,79.316 785.05,86.799 763.16,96.858 746.89,104.33"];
	137 -- 138	[pos="984.37,392.86 1005.9,374.42 1043.1,342.64 1064.7,324.17"];
	140 -- 141	[pos="482.01,851.91 459.03,868.07 420.37,895.27 397.48,911.38"];
	142 -- 143	[pos="123.21,452.11 102.27,462.4 70.772,477.87 49.73,488.2"];
	144 -- 145	[pos="334.73,127.68 361.48,126.84 402.08,125.58 428.78,124.75"];
	149 -- 150	[pos="75.655,427.54 103.35,418.22 148.38,403.07 176.07,393.75"];
	151 -- 152	[pos="185.28,769.15 225.16,771.21 299.05,775.05 338.93,777.11"];
	154 -- 155	[pos="83.813,670.56 100.89,675.64 123.54,682.38 140.67,687.47"];
	156 -- 157	[pos="82.989,371.54 100.12,352.88 128.7,321.76 145.79,303.15"];
	161 -- 162	[pos="867.45,238.89 900.48,234.89 956.47,228.1 989.48,224.1"];
	163 -- 164	[pos="605.37,840.47 567.07,829.55 494.68,808.89 456.51,798"];
	165 -- 166	[pos="1056,473.52 1064.3,452.31 1078.1,416.92 1086.4,395.77"];
	171 -- 172	[pos="968.78,606.18 923.66,629.86 819.38,684.57 774.45,708.15"];
}
