graph {
	graph [bb="0,0,953.52,608.58",
		outputorder=edgesfirst,
		overlap=prism,
		size="50,50!",
		start=512
	];
	node [label="\N"];
	0	[height=0.5,
		pos="754.23,419.13",
		width=0.75];
	17	[height=0.5,
		pos="595.1,332.78",
		width=0.75];
	0 -- 17	[pos="733.1,407.67 702.57,391.1 646.49,360.67 616.06,344.16"];
	36	[height=0.5,
		pos="924.47,361.94",
		width=0.75];
	0 -- 36	[pos="778.62,410.94 810.98,400.07 867.78,380.99 900.12,370.12"];
	47	[height=0.5,
		pos="783.03,482.73",
		width=0.75];
	0 -- 47	[pos="762.1,436.51 766.16,445.48 771.11,456.4 775.17,465.37"];
	51	[height=0.5,
		pos="520.98,371.46",
		width=0.75];
	0 -- 51	[pos="728.37,413.85 683.54,404.69 591.86,385.95 546.95,376.77"];
	53	[height=0.5,
		pos="732.71,292.16",
		width=0.75];
	0 -- 53	[pos="751.19,401.21 747.11,377.15 739.9,334.63 735.8,310.41"];
	61	[height=0.5,
		pos="907.12,450.1",
		width=0.75];
	0 -- 61	[pos="780.16,424.39 808.28,430.08 852.89,439.12 881.06,444.82"];
	72	[height=0.5,
		pos="668.9,508.05",
		width=0.75];
	0 -- 72	[pos="739.36,434.62 723.7,450.94 699.19,476.48 683.59,492.74"];
	73	[height=0.5,
		pos="926.52,406.03",
		width=0.75];
	0 -- 73	[pos="781.15,417.09 813.42,414.63 867.19,410.54 899.5,408.08"];
	1	[height=0.5,
		pos="382.46,460.99",
		width=0.75];
	18	[height=0.5,
		pos="337.41,279.58",
		width=0.75];
	1 -- 18	[pos="377.97,442.93 369.34,408.16 350.5,332.28 341.88,297.56"];
	20	[height=0.5,
		pos="499.01,422.74",
		width=0.75];
	1 -- 20	[pos="406.89,452.97 426.78,446.44 454.72,437.27 474.61,430.75"];
	32	[height=0.5,
		pos="439.26,530.56",
		width=0.75];
	1 -- 32	[pos="395.63,477.13 404.81,488.37 417,503.3 426.16,514.52"];
	35	[height=0.5,
		pos="298.71,578.26",
		width=0.75];
	1 -- 35	[pos="370.81,477.3 354.9,499.57 326.52,539.31 310.52,561.71"];
	40	[height=0.5,
		pos="320.43,445.36",
		width=0.75];
	1 -- 40	[pos="356.87,454.55 353.27,453.64 349.56,452.7 345.96,451.8"];
	52	[height=0.5,
		pos="445.08,378.46",
		width=0.75];
	1 -- 52	[pos="394.83,444.69 405.81,430.22 421.77,409.19 432.74,394.73"];
	62	[height=0.5,
		pos="263.57,489.39",
		width=0.75];
	1 -- 62	[pos="356.95,467.09 336.89,471.88 309.08,478.52 289.03,483.31"];
	66	[height=0.5,
		pos="291.74,533.44",
		width=0.75];
	1 -- 66	[pos="364.97,474.96 348.9,487.79 325.22,506.7 309.17,519.51"];
	70	[height=0.5,
		pos="506.51,502.51",
		width=0.75];
	1 -- 70	[pos="406.67,469.1 428.53,476.41 460.52,487.12 482.36,494.42"];
	75	[height=0.5,
		pos="430.65,575.05",
		width=0.75];
	1 -- 75	[pos="389.99,478.81 399.04,500.24 414.14,535.98 423.17,557.35"];
	77	[height=0.5,
		pos="564.52,546.54",
		width=0.75];
	1 -- 77	[pos="404.78,471.48 439.82,487.95 507.32,519.66 542.3,536.1"];
	79	[height=0.5,
		pos="408.46,251.03",
		width=0.75];
	1 -- 79	[pos="384.72,442.73 389.65,402.92 401.31,308.74 406.22,269.11"];
	80	[height=0.5,
		pos="314.7,323.74",
		width=0.75];
	1 -- 80	[pos="374.01,443.89 361.03,417.59 336.3,367.49 323.25,341.06"];
	2	[height=0.5,
		pos="656.57,242.56",
		width=0.75];
	19	[height=0.5,
		pos="683.3,377.45",
		width=0.75];
	2 -- 19	[pos="660.12,260.47 665.23,286.27 674.62,333.62 679.74,359.46"];
	21	[height=0.5,
		pos="346.4,215.74",
		width=0.75];
	2 -- 21	[pos="629.58,240.22 570.92,235.15 432.34,223.17 373.54,218.09"];
	23	[height=0.5,
		pos="779.3,247.92",
		width=0.75];
	2 -- 23	[pos="683.81,243.75 704.15,244.63 731.82,245.84 752.14,246.73"];
	26	[height=0.5,
		pos="583.33,106.05",
		width=0.75];
	2 -- 26	[pos="647.44,225.54 633.41,199.39 606.68,149.57 592.58,123.28"];
	33	[height=0.5,
		pos="532.5,238.22",
		width=0.75];
	2 -- 33	[pos="629.34,241.6 608.65,240.88 580.33,239.89 559.66,239.17"];
	39	[height=0.5,
		pos="470.57,282.37",
		width=0.75];
	2 -- 39	[pos="630.71,248.09 595.27,255.68 531.99,269.22 496.51,276.81"];
	44	[height=0.5,
		pos="541.93,150.13",
		width=0.75];
	2 -- 44	[pos="639.16,228.52 617.61,211.15 581.13,181.73 559.5,164.3"];
	46	[height=0.5,
		pos="637.93,150.09",
		width=0.75];
	2 -- 46	[pos="652.88,224.29 649.6,207.97 644.81,184.22 641.54,168.01"];
	48	[height=0.5,
		pos="745.34,375.09",
		width=0.75];
	2 -- 48	[pos="667.63,259.07 684.64,284.47 717.04,332.84 734.14,358.37"];
	2 -- 53	[pos="676.18,255.33 687.54,262.74 701.81,272.03 713.17,279.43"];
	59	[height=0.5,
		pos="800.65,203.81",
		width=0.75];
	2 -- 59	[pos="681.66,235.81 707.95,228.74 749,217.7 775.35,210.61"];
	63	[height=0.5,
		pos="691.86,198.54",
		width=0.75];
	2 -- 63	[pos="669.31,226.66 672.47,222.72 675.86,218.5 679.02,214.55"];
	3	[height=0.5,
		pos="532.67,325.48",
		width=0.75];
	3 -- 17	[pos="559.51,328.62 562.41,328.96 565.37,329.3 568.28,329.64"];
	3 -- 20	[pos="526.5,343.32 520.42,360.87 511.2,387.5 505.14,405.01"];
	22	[height=0.5,
		pos="402.5,317.12",
		width=0.75];
	3 -- 22	[pos="505.7,323.75 483.36,322.31 451.77,320.29 429.44,318.85"];
	31	[height=0.5,
		pos="464.58,327.43",
		width=0.75];
	3 -- 31	[pos="505.37,326.26 500.93,326.39 496.33,326.52 491.89,326.65"];
	3 -- 33	[pos="532.63,307.4 532.6,292.42 532.56,271.24 532.53,256.27"];
	34	[height=0.5,
		pos="670.7,288.03",
		width=0.75];
	3 -- 34	[pos="557.99,318.61 582.89,311.85 620.7,301.6 645.55,294.85"];
	3 -- 52	[pos="512.36,337.77 498.21,346.33 479.41,357.7 465.29,366.24"];
	54	[height=0.5,
		pos="594.55,278.73",
		width=0.75];
	3 -- 54	[pos="550.57,311.96 558.71,305.81 568.32,298.55 576.48,292.38"];
	74	[height=0.5,
		pos="489.27,194.19",
		width=0.75];
	3 -- 74	[pos="526.82,307.77 518.53,282.72 503.48,237.17 495.17,212.04"];
	4	[height=0.5,
		pos="113.66,317.64",
		width=0.75];
	4 -- 21	[pos="136.4,307.68 180.89,288.2 279,245.25 323.57,225.74"];
	25	[height=0.5,
		pos="123.69,398.47",
		width=0.75];
	4 -- 25	[pos="115.88,335.58 117.54,348.88 119.78,366.94 121.44,380.3"];
	28	[height=0.5,
		pos="248.44,366.51",
		width=0.75];
	4 -- 28	[pos="137.44,326.26 161.93,335.14 199.87,348.9 224.43,357.8"];
	37	[height=0.5,
		pos="212.07,274.24",
		width=0.75];
	4 -- 37	[pos="136.48,307.57 152.38,300.56 173.5,291.25 189.37,284.25"];
	38	[height=0.5,
		pos="222.34,194.64",
		width=0.75];
	4 -- 38	[pos="127.42,302.06 148.21,278.53 187.42,234.16 208.34,210.48"];
	42	[height=0.5,
		pos="51.601,324.66",
		width=0.75];
	4 -- 42	[pos="86.979,320.66 84.088,320.98 81.146,321.32 78.256,321.64"];
	55	[height=0.5,
		pos="61.612,412.76",
		width=0.75];
	4 -- 55	[pos="104.35,334.64 94.937,351.85 80.46,378.31 71.012,395.58"];
	56	[height=0.5,
		pos="150.03,273.57",
		width=0.75];
	4 -- 56	[pos="126.79,301.73 130.04,297.78 133.53,293.56 136.79,289.6"];
	58	[height=0.5,
		pos="252.64,318.27",
		width=0.75];
	4 -- 58	[pos="140.78,317.76 165.27,317.87 201.12,318.04 225.58,318.15"];
	71	[height=0.5,
		pos="27,368.71",
		width=0.75];
	4 -- 71	[pos="93.12,329.74 79.306,337.88 61.172,348.57 47.389,356.7"];
	76	[height=0.5,
		pos="160.33,229.15",
		width=0.75];
	4 -- 76	[pos="122.66,300.58 130.92,284.91 143.1,261.81 151.36,246.16"];
	5	[height=0.5,
		pos="314.3,371.15",
		width=0.75];
	5 -- 22	[pos="334.31,358.89 348.75,350.05 368.15,338.17 382.57,329.33"];
	24	[height=0.5,
		pos="186.27,410.67",
		width=0.75];
	5 -- 24	[pos="289.61,378.77 266.94,385.77 233.53,396.08 210.88,403.07"];
	5 -- 37	[pos="298.32,356.01 279.12,337.8 247.09,307.43 227.93,289.27"];
	5 -- 51	[pos="341.32,371.19 380.93,371.25 454.34,371.36 493.95,371.42"];
	5 -- 56	[pos="293.82,358.99 262.17,340.19 201.73,304.29 170.24,285.58"];
	68	[height=0.5,
		pos="199.39,459.23",
		width=0.75];
	5 -- 68	[pos="296.34,384.92 274.76,401.46 238.75,429.06 217.22,445.57"];
	6	[height=0.5,
		pos="146.87,503.25",
		width=0.75];
	6 -- 25	[pos="142.83,485 138.58,465.77 131.92,435.66 127.68,416.51"];
	29	[height=0.5,
		pos="84.848,539.93",
		width=0.75];
	6 -- 29	[pos="126.56,515.26 119.78,519.27 112.22,523.74 105.41,527.77"];
	6 -- 35	[pos="168.62,514 197.49,528.26 248.15,553.28 276.99,567.53"];
	6 -- 55	[pos="132.4,487.9 116.73,471.26 91.85,444.86 76.145,428.19"];
	57	[height=0.5,
		pos="53.377,495.81",
		width=0.75];
	6 -- 57	[pos="119.83,501.1 107.42,500.11 92.753,498.95 80.357,497.96"];
	6 -- 66	[pos="172.77,508.65 198.97,514.11 239.27,522.51 265.57,527.98"];
	6 -- 68	[pos="163.77,489.08 169.77,484.06 176.52,478.4 182.51,473.38"];
	7	[height=0.5,
		pos="376.35,367.75",
		width=0.75];
	27	[height=0.5,
		pos="444.49,466.75",
		width=0.75];
	7 -- 27	[pos="387.91,384.54 400.51,402.86 420.56,431.99 433.1,450.21"];
	7 -- 28	[pos="349.22,367.48 327.51,367.27 297.22,366.98 275.52,366.77"];
	30	[height=0.5,
		pos="470.47,238.21",
		width=0.75];
	7 -- 30	[pos="388.27,351.34 406.37,326.42 440.6,279.32 458.65,254.48"];
	7 -- 31	[pos="399.07,357.36 412.34,351.3 429.03,343.67 442.24,337.64"];
	7 -- 39	[pos="392.76,352.87 410.05,337.2 437.12,312.67 454.35,297.07"];
	7 -- 40	[pos="364.49,384.21 355,397.38 341.76,415.76 332.27,428.93"];
	7 -- 58	[pos="353.08,358.44 330.96,349.6 297.89,336.37 275.81,327.54"];
	60	[height=0.5,
		pos="284.39,235.57",
		width=0.75];
	7 -- 60	[pos="364.89,351.27 347.27,325.94 313.71,277.7 296,252.25"];
	78	[height=0.5,
		pos="258.39,415.17",
		width=0.75];
	7 -- 78	[pos="353.04,377.12 332.36,385.43 302.31,397.51 281.65,405.82"];
	8	[height=0.5,
		pos="132.46,454.85",
		width=0.75];
	8 -- 24	[pos="149.49,440.87 155.77,435.71 162.89,429.87 169.17,424.71"];
	8 -- 29	[pos="122.83,472.06 114.51,486.92 102.57,508.26 94.307,523.03"];
	8 -- 42	[pos="122.06,438.09 106.53,413.1 77.47,366.31 61.967,341.35"];
	8 -- 57	[pos="110.85,466.04 99.693,471.82 86.117,478.85 74.962,484.63"];
	8 -- 62	[pos="157.74,461.51 180.96,467.63 215.18,476.64 238.37,482.75"];
	8 -- 71	[pos="115.05,440.62 95.39,424.57 63.614,398.62 44.091,382.67"];
	8 -- 78	[pos="157.04,447.1 179.23,440.11 211.71,429.88 233.88,422.9"];
	9	[height=0.5,
		pos="588.01,194.18",
		width=0.75];
	9 -- 30	[pos="564.22,203.09 543.83,210.73 514.6,221.68 494.22,229.31"];
	41	[height=0.5,
		pos="561.61,62.014",
		width=0.75];
	9 -- 41	[pos="584.39,176.08 579.34,150.77 570.21,105.09 565.18,79.895"];
	45	[height=0.5,
		pos="514.75,106.09",
		width=0.75];
	9 -- 45	[pos="574.91,178.43 561.66,162.5 541.28,137.99 527.98,122"];
	9 -- 46	[pos="604.35,179.74 609.81,174.92 615.9,169.55 621.37,164.71"];
	9 -- 54	[pos="589.43,212.52 590.53,226.8 592.06,246.51 593.16,260.71"];
	9 -- 63	[pos="615.02,195.31 630.29,195.95 649.32,196.75 664.62,197.39"];
	82	[height=0.5,
		pos="657.12,333.43",
		width=0.75];
	9 -- 82	[pos="596.62,211.53 609.94,238.36 635.36,289.6 648.61,316.3"];
	84	[height=0.5,
		pos="583.03,398.13",
		width=0.75];
	9 -- 84	[pos="587.56,212.28 586.62,250.98 584.41,341.41 583.47,380.07"];
	10	[height=0.5,
		pos="606.84,502.43",
		width=0.75];
	10 -- 27	[pos="581.12,496.78 550.81,490.12 500.74,479.11 470.36,472.44"];
	10 -- 32	[pos="580.66,506.83 549.27,512.1 496.97,520.88 465.54,526.15"];
	64	[height=0.5,
		pos="626.53,556.88",
		width=0.75];
	10 -- 64	[pos="613.18,519.96 615.38,526.05 617.86,532.89 620.07,539.01"];
	65	[height=0.5,
		pos="721,463.17",
		width=0.75];
	10 -- 65	[pos="631.05,494.1 650.42,487.44 677.46,478.14 696.82,471.48"];
	10 -- 72	[pos="633.88,504.88 636.49,505.11 639.14,505.35 641.76,505.59"];
	10 -- 75	[pos="583.81,511.92 550.04,525.84 487.46,551.63 453.69,565.55"];
	81	[height=0.5,
		pos="696.48,590.58",
		width=0.75];
	10 -- 81	[pos="622.05,517.38 638.53,533.59 664.69,559.31 681.2,575.55"];
	10 -- 84	[pos="602.69,484.26 598.32,465.12 591.48,435.16 587.13,416.09"];
	11	[height=0.5,
		pos="838.83,367",
		width=0.75];
	11 -- 23	[pos="830.18,349.68 818.89,327.11 799.26,287.84 787.97,265.25"];
	11 -- 34	[pos="816.5,356.51 784.26,341.37 725,313.53 692.85,298.43"];
	11 -- 36	[pos="865.93,365.4 876.02,364.8 887.47,364.13 897.55,363.53"];
	50	[height=0.5,
		pos="845.04,462.38",
		width=0.75];
	11 -- 50	[pos="840.03,385.39 841.13,402.39 842.77,427.49 843.86,444.37"];
	11 -- 59	[pos="834.6,348.91 827.26,317.54 812.25,253.4 804.9,221.98"];
	11 -- 65	[pos="821.7,380.98 799.36,399.21 760.5,430.92 738.15,449.16"];
	11 -- 73	[pos="861.41,377.05 874.5,382.88 890.93,390.19 904.01,396.01"];
	12	[height=0.5,
		pos="284.4,180.09",
		width=0.75];
	12 -- 18	[pos="293.63,197.42 303.36,215.68 318.59,244.26 328.28,262.45"];
	12 -- 38	[pos="258.8,186.09 255.19,186.94 251.48,187.81 247.88,188.65"];
	12 -- 60	[pos="284.4,198.26 284.4,204.45 284.4,211.37 284.4,217.55"];
	67	[height=0.5,
		pos="376.47,85.514",
		width=0.75];
	12 -- 67	[pos="299.19,164.9 316.37,147.25 344.55,118.31 361.72,100.67"];
	12 -- 76	[pos="261.06,189.32 238.88,198.09 205.71,211.21 183.56,219.97"];
	12 -- 80	[pos="288.17,198 293.98,225.52 305.04,277.95 310.87,305.61"];
	83	[height=0.5,
		pos="337.31,129.55",
		width=0.75];
	12 -- 83	[pos="299.99,165.2 306.82,158.68 314.81,151.04 321.65,144.51"];
	13	[height=0.5,
		pos="496.64,62.031",
		width=0.75];
	13 -- 26	[pos="518.51,73.14 531.76,79.865 548.58,88.405 561.76,95.102"];
	13 -- 41	[pos="523.81,62.024 527.29,62.023 530.85,62.022 534.33,62.021"];
	49	[height=0.5,
		pos="420.54,35.139",
		width=0.75];
	13 -- 49	[pos="472.56,53.522 463.59,50.352 453.42,46.757 444.46,43.593"];
	13 -- 67	[pos="470.56,67.126 450.41,71.065 422.64,76.492 402.49,80.428"];
	69	[height=0.5,
		pos="483.12,18",
		width=0.75];
	13 -- 69	[pos="491.22,44.376 490.34,41.504 489.42,38.53 488.54,35.659"];
	14	[height=0.5,
		pos="628.41,458.38",
		width=0.75];
	14 -- 19	[pos="639.79,441.61 649.27,427.63 662.71,407.82 672.13,393.92"];
	43	[height=0.5,
		pos="767.3,573.65",
		width=0.75];
	14 -- 43	[pos="645.44,472.51 672.1,494.64 723.39,537.21 750.13,559.4"];
	14 -- 50	[pos="655.41,458.88 697.04,459.65 776.42,461.11 818.04,461.88"];
	14 -- 64	[pos="628.07,476.45 627.73,494.11 627.22,520.86 626.88,538.6"];
	14 -- 70	[pos="604.62,466.99 583.14,474.77 551.7,486.15 530.24,493.92"];
	14 -- 82	[pos="632.53,440.48 637.98,416.72 647.56,375.04 653.01,351.3"];
	15	[height=0.5,
		pos="439.47,122.85",
		width=0.75];
	15 -- 44	[pos="464.8,129.59 480.56,133.79 500.76,139.17 516.54,143.37"];
	15 -- 45	[pos="465.38,117.08 473.03,115.38 481.41,113.51 489.05,111.81"];
	15 -- 49	[pos="435.55,104.68 432.28,89.523 427.64,68.053 424.39,52.99"];
	15 -- 69	[pos="446.88,105.06 454.95,85.666 467.79,54.817 475.83,35.524"];
	15 -- 74	[pos="451.02,139.4 459.07,150.92 469.75,166.23 477.78,177.73"];
	15 -- 79	[pos="435.16,140.67 429.27,165.03 418.76,208.46 412.83,232.95"];
	15 -- 83	[pos="412.36,124.63 397.47,125.61 379.05,126.81 364.19,127.79"];
	16	[height=0.5,
		pos="730.9,529.53",
		width=0.75];
	16 -- 43	[pos="744.04,545.46 747.3,549.41 750.79,553.65 754.06,557.6"];
	16 -- 47	[pos="747.11,514.98 753.33,509.4 760.42,503.03 766.65,497.43"];
	16 -- 48	[pos="732.59,511.52 735.36,481.92 740.83,423.31 743.62,393.48"];
	16 -- 61	[pos="753.58,519.31 787.42,504.06 850.75,475.51 884.53,460.28"];
	16 -- 77	[pos="704.17,532.27 673.21,535.43 622.51,540.61 591.46,543.79"];
	16 -- 81	[pos="721.32,546.54 716.54,555 710.79,565.21 706.02,573.66"];
}
