graph {
	graph [bb="0,0,2106.4,1616.9",
		outputorder=edgesfirst,
		overlap=prism,
		size="50,50!",
		start=5157
	];
	node [label="\N"];
	0	[height=0.5,
		pos="960.69,564.4",
		width=0.75];
	1	[height=0.5,
		pos="716.9,428.36",
		width=0.75];
	0 -- 1	[pos="939.9,552.8 893.85,527.1 783.65,465.6 737.64,439.93"];
	100	[height=0.5,
		pos="1044.2,677.7",
		width=0.75];
	0 -- 100	[pos="972.65,580.63 988.53,602.17 1016.4,639.97 1032.3,661.49"];
	2	[height=0.5,
		pos="849,272.81",
		width=0.75];
	1 -- 2	[pos="730.3,412.59 755.61,382.78 810.22,318.47 835.57,288.63"];
	292	[height=0.5,
		pos="699.39,560.41",
		width=0.75];
	1 -- 292	[pos="714.5,446.44 711.17,471.59 705.16,516.87 701.81,542.12"];
	104	[height=0.5,
		pos="941.32,681.5",
		width=0.75];
	100 -- 104	[pos="1017.2,678.69 1002.2,679.25 983.55,679.93 968.52,680.49"];
	101	[height=0.5,
		pos="1212.1,845.49",
		width=0.75];
	100 -- 101	[pos="1059.4,692.88 1091.4,724.83 1165.2,798.65 1197,830.46"];
	3	[height=0.5,
		pos="580.72,250.31",
		width=0.75];
	2 -- 3	[pos="821.8,270.53 770.24,266.21 658.89,256.87 607.59,252.57"];
	213	[height=0.5,
		pos="1052.6,269.56",
		width=0.75];
	2 -- 213	[pos="876.04,272.38 914.98,271.76 986.46,270.62 1025.5,270"];
	107	[height=0.5,
		pos="743.2,472.38",
		width=0.75];
	104 -- 107	[pos="926.75,666.12 890.11,627.45 794.45,526.47 757.79,487.78"];
	105	[height=0.5,
		pos="1165.7,775.12",
		width=0.75];
	104 -- 105	[pos="964.49,691.16 1007.6,709.15 1099.7,747.56 1142.7,765.51"];
	4	[height=0.5,
		pos="365.88,362.78",
		width=0.75];
	3 -- 4	[pos="559.33,261.51 518.15,283.07 428.29,330.11 387.18,351.63"];
	189	[height=0.5,
		pos="769.3,200.05",
		width=0.75];
	3 -- 189	[pos="606.15,243.53 642.24,233.91 707.93,216.41 743.97,206.8"];
	110	[height=0.5,
		pos="505.7,333.87",
		width=0.75];
	107 -- 110	[pos="722.54,460.33 677.51,434.07 570.97,371.94 526.14,345.79"];
	108	[height=0.5,
		pos="761.44,629.18",
		width=0.75];
	107 -- 108	[pos="745.29,490.36 748.79,520.45 755.79,580.65 759.31,610.92"];
	5	[height=0.5,
		pos="321.92,581.19",
		width=0.75];
	4 -- 5	[pos="362.29,380.66 354.04,421.61 333.86,521.88 325.57,563.07"];
	414	[height=0.5,
		pos="424.02,406.82",
		width=0.75];
	4 -- 414	[pos="383.96,376.47 391.03,381.83 399.11,387.95 406.16,393.28"];
	113	[height=0.5,
		pos="605.67,162.27",
		width=0.75];
	110 -- 113	[pos="515.65,316.79 534.81,283.9 576.63,212.12 595.76,179.28"];
	111	[height=0.5,
		pos="427.93,321.57",
		width=0.75];
	110 -- 111	[pos="479.37,329.71 471.26,328.42 462.34,327.01 454.23,325.73"];
	6	[height=0.5,
		pos="341.25,440.02",
		width=0.75];
	5 -- 6	[pos="324.41,563.02 328.12,535.92 335.06,485.18 338.77,458.11"];
	335	[height=0.5,
		pos="338.31,801.62",
		width=0.75];
	5 -- 335	[pos="323.26,599.23 326.35,640.67 333.9,742.26 336.98,783.64"];
	116	[height=0.5,
		pos="478.43,129.69",
		width=0.75];
	113 -- 116	[pos="580.22,155.75 558.03,150.07 526,141.87 503.83,136.2"];
	114	[height=0.5,
		pos="783.37,262.17",
		width=0.75];
	113 -- 114	[pos="626.4,173.92 660.55,193.12 728.25,231.18 762.49,250.43"];
	7	[height=0.5,
		pos="100.72,447.1",
		width=0.75];
	6 -- 7	[pos="314.12,440.82 267.81,442.18 174,444.94 127.75,446.3"];
	6 -- 111	[pos="353.3,423.55 369.86,400.92 399.47,360.45 415.98,337.9"];
	118	[height=0.5,
		pos="508.14,244.48",
		width=0.75];
	116 -- 118	[pos="483.07,147.63 488.65,169.19 497.97,205.16 503.53,226.67"];
	117	[height=0.5,
		pos="563.17,118.22",
		width=0.75];
	116 -- 117	[pos="505.24,126.06 515.23,124.71 526.56,123.18 536.53,121.83"];
	8	[height=0.5,
		pos="31.563,535.6",
		width=0.75];
	7 -- 8	[pos="88.037,463.33 75.559,479.3 56.618,503.54 44.168,519.47"];
	417	[height=0.5,
		pos="100.72,494.22",
		width=0.75];
	7 -- 417	[pos="100.72,465.18 100.72,468.71 100.72,472.41 100.72,475.95"];
	122	[height=0.5,
		pos="548.69,457.5",
		width=0.75];
	118 -- 122	[pos="511.6,262.64 519.26,302.89 537.59,399.18 545.24,439.38"];
	119	[height=0.5,
		pos="629.77,335.47",
		width=0.75];
	118 -- 119	[pos="526.35,258.1 549.28,275.26 588.45,304.56 611.43,321.75"];
	9	[height=0.5,
		pos="27,650.72",
		width=0.75];
	8 -- 9	[pos="30.84,553.84 29.986,575.39 28.573,611.04 27.72,632.56"];
	418	[height=0.5,
		pos="39.911,583.54",
		width=0.75];
	8 -- 418	[pos="34.719,553.72 35.384,557.54 36.086,561.57 36.751,565.39"];
	124	[height=0.5,
		pos="698.49,604.44",
		width=0.75];
	122 -- 124	[pos="563.88,472.39 592.59,500.56 654.52,561.31 683.26,589.5"];
	123	[height=0.5,
		pos="554.05,545.54",
		width=0.75];
	122 -- 123	[pos="549.8,475.74 550.72,490.85 552.02,512.22 552.94,527.32"];
	10	[height=0.5,
		pos="102.94,670.56",
		width=0.75];
	9 -- 10	[pos="52.287,657.32 60.485,659.47 69.574,661.84 77.764,663.98"];
	324	[height=0.5,
		pos="294.96,757.62",
		width=0.75];
	9 -- 324	[pos="50.311,660.02 100.99,680.24 220.71,728 271.52,748.26"];
	128	[height=0.5,
		pos="443.49,853.91",
		width=0.75];
	124 -- 128	[pos="682.92,619.67 637.29,664.31 504.23,794.49 458.86,838.88"];
	125	[height=0.5,
		pos="998.68,633.67",
		width=0.75];
	124 -- 125	[pos="725.39,607.06 782.38,612.61 914.69,625.49 971.72,631.04"];
	11	[height=0.5,
		pos="305.99,486.31",
		width=0.75];
	10 -- 11	[pos="119.21,655.79 157.33,621.21 252.01,535.29 289.92,500.89"];
	156	[height=0.5,
		pos="257.39,806.71",
		width=0.75];
	10 -- 156	[pos="119.47,685.13 149.2,711.33 211.34,766.12 240.98,792.24"];
	130	[height=0.5,
		pos="509.08,1001.2",
		width=0.75];
	128 -- 130	[pos="451.27,871.38 463.9,899.72 488.69,955.39 501.31,983.72"];
	129	[height=0.5,
		pos="381.46,859.26",
		width=0.75];
	128 -- 129	[pos="416.47,856.24 413.85,856.47 411.2,856.69 408.59,856.92"];
	12	[height=0.5,
		pos="486.04,416.43",
		width=0.75];
	11 -- 12	[pos="329.53,477.18 364.03,463.78 427.99,438.96 462.5,425.56"];
	302	[height=0.5,
		pos="162.77,483.6",
		width=0.75];
	11 -- 302	[pos="278.71,485.8 253.23,485.31 215.4,484.6 189.95,484.11"];
	132	[height=0.5,
		pos="515.49,1133.8",
		width=0.75];
	130 -- 132	[pos="509.96,1019.3 511.18,1044.6 513.38,1090.1 514.61,1115.5"];
	131	[height=0.5,
		pos="418.93,1015.6",
		width=0.75];
	130 -- 131	[pos="482.52,1005.4 470.78,1007.3 457.02,1009.5 445.3,1011.4"];
	13	[height=0.5,
		pos="574.61,394.03",
		width=0.75];
	12 -- 13	[pos="511.66,409.95 523.51,406.95 537.55,403.4 549.35,400.41"];
	185	[height=0.5,
		pos="713.09,384.31",
		width=0.75];
	12 -- 185	[pos="512.53,412.68 556.17,406.51 642.67,394.27 686.42,388.09"];
	135	[height=0.5,
		pos="643.86,1159.5",
		width=0.75];
	132 -- 135	[pos="541.47,1139 563.74,1143.5 595.66,1149.8 617.92,1154.3"];
	133	[height=0.5,
		pos="507.15,1219",
		width=0.75];
	132 -- 133	[pos="513.72,1151.9 512.31,1166.3 510.33,1186.5 508.91,1200.9"];
	14	[height=0.5,
		pos="651.06,379.48",
		width=0.75];
	13 -- 14	[pos="600.92,389.02 608.69,387.54 617.2,385.92 624.96,384.44"];
	144	[height=0.5,
		pos="617.83,514.45",
		width=0.75];
	13 -- 144	[pos="580.89,411.54 589.09,434.37 603.34,474.08 611.54,496.92"];
	138	[height=0.5,
		pos="595.81,1061.1",
		width=0.75];
	135 -- 138	[pos="635.49,1142.3 626.72,1124.4 613.03,1096.4 604.24,1078.4"];
	136	[height=0.5,
		pos="1012.3,1218.4",
		width=0.75];
	135 -- 136	[pos="670.36,1163.7 738.33,1174.6 918.31,1203.3 986.02,1214.2"];
	15	[height=0.5,
		pos="555.8,501.51",
		width=0.75];
	14 -- 15	[pos="638.41,395.68 620.19,419.02 586.75,461.86 568.5,485.24"];
	222	[height=0.5,
		pos="1068.4,414.56",
		width=0.75];
	14 -- 222	[pos="678.11,381.75 753.61,388.1 965.94,405.95 1041.4,412.29"];
	140	[height=0.5,
		pos="633.41,931.61",
		width=0.75];
	138 -- 140	[pos="600.96,1043.4 608.12,1018.7 621.01,974.32 628.2,949.55"];
	139	[height=0.5,
		pos="660.02,1065.4",
		width=0.75];
	138 -- 139	[pos="623.04,1062.9 626.32,1063.2 629.67,1063.4 632.95,1063.6"];
	16	[height=0.5,
		pos="746.3,516.39",
		width=0.75];
	15 -- 16	[pos="582.69,503.61 618.89,506.44 682.95,511.44 719.24,514.27"];
	305	[height=0.5,
		pos="422.76,548.4",
		width=0.75];
	15 -- 305	[pos="531.7,510.01 507.59,518.5 470.72,531.5 446.67,539.98"];
	143	[height=0.5,
		pos="478.24,763.25",
		width=0.75];
	140 -- 143	[pos="619.09,916.07 589.53,884 522.05,810.79 492.52,778.75"];
	141	[height=0.5,
		pos="749.35,864.73",
		width=0.75];
	140 -- 141	[pos="653.87,919.81 674.94,907.66 707.57,888.83 728.7,876.64"];
	17	[height=0.5,
		pos="807.57,776.56",
		width=0.75];
	16 -- 17	[pos="750.51,534.27 761.71,581.8 792.1,710.88 803.33,758.55"];
	145	[height=0.5,
		pos="883.57,466.58",
		width=0.75];
	16 -- 145	[pos="770.21,507.71 795.25,498.62 834.36,484.43 859.47,475.32"];
	149	[height=0.5,
		pos="319.45,845.66",
		width=0.75];
	143 -- 149	[pos="456.82,774.36 426.43,790.13 371.12,818.84 340.78,834.59"];
	143 -- 144	[pos="487.83,746.15 513.4,700.59 582.93,576.66 608.36,531.34"];
	18	[height=0.5,
		pos="831.1,866.69",
		width=0.75];
	17 -- 18	[pos="812.22,794.37 816.34,810.17 822.34,833.13 826.46,848.92"];
	17 -- 108	[pos="802,758.78 793.14,730.46 775.9,675.39 767.02,647.02"];
	152	[height=0.5,
		pos="378.97,950.56",
		width=0.75];
	149 -- 152	[pos="329.01,862.51 340.05,881.97 358.12,913.81 369.24,933.4"];
	150	[height=0.5,
		pos="571.4,973.07",
		width=0.75];
	149 -- 150	[pos="341.37,856.74 389.14,880.9 502.15,938.05 549.71,962.1"];
	19	[height=0.5,
		pos="751.24,1086.8",
		width=0.75];
	18 -- 19	[pos="824.7,884.33 809.74,925.54 772.65,1027.8 757.67,1069"];
	232	[height=0.5,
		pos="1129.9,726.87",
		width=0.75];
	18 -- 232	[pos="853.56,856.18 909.07,830.21 1052.2,763.21 1107.6,737.31"];
	155	[height=0.5,
		pos="158.83,966.42",
		width=0.75];
	152 -- 155	[pos="351.98,952.5 309.61,955.56 227.99,961.44 185.7,964.48"];
	153	[height=0.5,
		pos="571.12,1017.1",
		width=0.75];
	152 -- 153	[pos="403.31,958.98 440.27,971.78 510.14,995.97 546.98,1008.7"];
	20	[height=0.5,
		pos="859.82,1235.4",
		width=0.75];
	19 -- 20	[pos="763.06,1103 783.84,1131.4 826.67,1190 847.67,1218.8"];
	330	[height=0.5,
		pos="632.47,1277.3",
		width=0.75];
	19 -- 330	[pos="740.7,1103.7 718.16,1139.8 665.5,1224.3 642.99,1260.4"];
	158	[height=0.5,
		pos="214.8,1055.8",
		width=0.75];
	155 -- 158	[pos="169.36,983.23 179.36,999.21 194.33,1023.1 204.32,1039.1"];
	155 -- 156	[pos="169.19,949.63 188.07,919.04 227.88,854.54 246.87,823.76"];
	21	[height=0.5,
		pos="1074.3,1190.5",
		width=0.75];
	20 -- 21	[pos="885.69,1230 926.91,1221.4 1007.1,1204.6 1048.3,1195.9"];
	430	[height=0.5,
		pos="907.08,1367.5",
		width=0.75];
	20 -- 430	[pos="866.09,1253 875.13,1278.2 891.72,1324.6 900.78,1349.9"];
	161	[height=0.5,
		pos="340.37,1303.2",
		width=0.75];
	158 -- 161	[pos="223.63,1073.2 246.74,1118.7 308.8,1241 331.71,1286.2"];
	159	[height=0.5,
		pos="469,898.03",
		width=0.75];
	158 -- 159	[pos="234.75,1043.4 282.27,1013.9 401.72,939.78 449.15,910.35"];
	22	[height=0.5,
		pos="1210.2,1118",
		width=0.75];
	21 -- 22	[pos="1095.5,1179.1 1121.1,1165.5 1163.6,1142.8 1189.1,1129.2"];
	431	[height=0.5,
		pos="1074.3,1254.7",
		width=0.75];
	21 -- 431	[pos="1074.3,1208.7 1074.3,1217.4 1074.3,1227.9 1074.3,1236.6"];
	164	[height=0.5,
		pos="425.31,1410.3",
		width=0.75];
	161 -- 164	[pos="353.27,1319.5 369.33,1339.7 396.58,1374.1 412.57,1394.2"];
	162	[height=0.5,
		pos="699.33,1512",
		width=0.75];
	161 -- 162	[pos="360.96,1315.2 424.27,1352.1 615.62,1463.4 678.82,1500.1"];
	23	[height=0.5,
		pos="1465,1242.2",
		width=0.75];
	22 -- 23	[pos="1232.3,1128.8 1280.7,1152.3 1395,1208 1443.1,1231.5"];
	22 -- 101	[pos="1210.3,1099.7 1210.6,1050 1211.6,913.25 1212,863.71"];
	166	[height=0.5,
		pos="528.11,1515",
		width=0.75];
	164 -- 166	[pos="440.48,1425.7 460.03,1445.6 493.8,1480 513.21,1499.8"];
	165	[height=0.5,
		pos="501.48,1453.6",
		width=0.75];
	164 -- 165	[pos="446.12,1422.1 456.87,1428.2 469.95,1435.7 480.69,1441.8"];
	24	[height=0.5,
		pos="1612.7,1276.2",
		width=0.75];
	23 -- 24	[pos="1490.7,1248.1 1517.7,1254.3 1559.8,1264 1586.8,1270.2"];
	358	[height=0.5,
		pos="1445.4,1406.3",
		width=0.75];
	23 -- 358	[pos="1462.8,1260.4 1459.1,1291.9 1451.4,1356.4 1447.6,1388"];
	168	[height=0.5,
		pos="554.45,1559",
		width=0.75];
	166 -- 168	[pos="538.22,1531.8 540.25,1535.2 542.38,1538.8 544.41,1542.2"];
	167	[height=0.5,
		pos="637.32,1546.1",
		width=0.75];
	166 -- 167	[pos="553.16,1522.1 570.92,1527.2 594.65,1533.9 612.38,1539"];
	25	[height=0.5,
		pos="1531.5,1478.8",
		width=0.75];
	24 -- 25	[pos="1605.7,1293.8 1590.3,1332.2 1553.9,1423.1 1538.5,1461.3"];
	251	[height=0.5,
		pos="1805.6,997.2",
		width=0.75];
	24 -- 251	[pos="1624.2,1259.6 1658.5,1210 1759.9,1063.2 1794.2,1013.7"];
	170	[height=0.5,
		pos="649.91,1375.9",
		width=0.75];
	168 -- 170	[pos="563.43,1541.7 581.67,1506.8 622.86,1427.8 641.03,1392.9"];
	169	[height=0.5,
		pos="616.5,1598.9",
		width=0.75];
	168 -- 169	[pos="574.08,1571.6 581.32,1576.3 589.53,1581.6 596.78,1586.2"];
	26	[height=0.5,
		pos="1247.1,1530.1",
		width=0.75];
	25 -- 26	[pos="1505.3,1483.5 1451.1,1493.3 1327.4,1515.6 1273.3,1525.4"];
	435	[height=0.5,
		pos="1470.8,1522.8",
		width=0.75];
	25 -- 435	[pos="1513,1492.2 1505.5,1497.7 1496.8,1504 1489.3,1509.4"];
	172	[height=0.5,
		pos="759.06,1284.1",
		width=0.75];
	170 -- 172	[pos="666.97,1361.5 687.47,1344.3 721.67,1315.5 742.13,1298.4"];
	171	[height=0.5,
		pos="736.95,1468",
		width=0.75];
	170 -- 171	[pos="664.68,1391.5 680.78,1408.6 706.39,1435.7 722.4,1452.6"];
	27	[height=0.5,
		pos="1128.1,1450.5",
		width=0.75];
	26 -- 27	[pos="1228,1517.3 1205.7,1502.5 1169.3,1478.1 1147.1,1463.3"];
	436	[height=0.5,
		pos="1171.3,1573",
		width=0.75];
	26 -- 436	[pos="1226.4,1541.8 1215.7,1547.9 1202.7,1555.2 1192,1561.3"];
	175	[height=0.5,
		pos="803.33,1042.8",
		width=0.75];
	172 -- 175	[pos="762.39,1266 770.61,1221.1 791.82,1105.5 800.02,1060.8"];
	173	[height=0.5,
		pos="917.88,1279.5",
		width=0.75];
	172 -- 173	[pos="786.36,1283.3 815.54,1282.5 861.52,1281.1 890.67,1280.3"];
	28	[height=0.5,
		pos="974,1479.3",
		width=0.75];
	27 -- 28	[pos="1101.9,1455.4 1073.5,1460.7 1028.4,1469.2 1000,1474.4"];
	342	[height=0.5,
		pos="1096.5,1404.1",
		width=0.75];
	27 -- 342	[pos="1116.8,1434 1113.8,1429.6 1110.6,1424.9 1107.7,1420.5"];
	180	[height=0.5,
		pos="935.41,797.24",
		width=0.75];
	175 -- 180	[pos="812.62,1025.5 836.87,980.42 901.89,859.55 926.13,814.49"];
	176	[height=0.5,
		pos="893.98,866.7",
		width=0.75];
	175 -- 176	[pos="812.19,1025.6 829.52,991.91 867.73,917.69 885.09,883.97"];
	29	[height=0.5,
		pos="1119.5,1356.6",
		width=0.75];
	28 -- 29	[pos="990.97,1465 1019,1441.3 1074.7,1394.4 1102.6,1370.8"];
	28 -- 162	[pos="947.41,1482.5 894.91,1488.7 778.45,1502.6 725.93,1508.9"];
	184	[height=0.5,
		pos="965.44,476.36",
		width=0.75];
	180 -- 184	[pos="937.11,779.07 942.4,722.59 958.5,550.54 963.76,494.33"];
	181	[height=0.5,
		pos="1074.2,984.39",
		width=0.75];
	180 -- 181	[pos="947.49,813.52 973.74,848.92 1035.8,932.53 1062.1,968.01"];
	30	[height=0.5,
		pos="1260.4,1255",
		width=0.75];
	29 -- 30	[pos="1137.9,1343.3 1164.9,1323.8 1214.9,1287.7 1242,1268.2"];
	439	[height=0.5,
		pos="1052,1351.4",
		width=0.75];
	29 -- 439	[pos="1092.4,1354.5 1088,1354.2 1083.5,1353.8 1079.1,1353.5"];
	188	[height=0.5,
		pos="893.74,168.5",
		width=0.75];
	184 -- 188	[pos="961.28,458.48 948.61,404.07 910.61,240.91 897.92,186.44"];
	184 -- 185	[pos="941.7,467.7 893.61,450.16 785.15,410.6 736.95,393.02"];
	31	[height=0.5,
		pos="1139.7,1116.5",
		width=0.75];
	30 -- 31	[pos="1246.8,1239.3 1223.6,1212.7 1176.7,1158.9 1153.4,1132.2"];
	284	[height=0.5,
		pos="1275,1141.3",
		width=0.75];
	30 -- 284	[pos="1262.7,1236.9 1265.4,1215.8 1269.9,1180.9 1272.7,1159.6"];
	191	[height=0.5,
		pos="1159.2,110.24",
		width=0.75];
	188 -- 191	[pos="919.68,162.81 970.55,151.64 1082.9,126.98 1133.5,115.87"];
	188 -- 189	[pos="868.26,174.96 846.79,180.41 816.22,188.16 794.75,193.6"];
	32	[height=0.5,
		pos="1318.2,874.14",
		width=0.75];
	31 -- 32	[pos="1151.7,1100.2 1184.2,1056.1 1273.8,934.41 1306.3,890.34"];
	182	[height=0.5,
		pos="1135.5,1028.4",
		width=0.75];
	31 -- 182	[pos="1138.8,1098.2 1138.1,1083.1 1137.1,1061.7 1136.4,1046.6"];
	194	[height=0.5,
		pos="1273,57.505",
		width=0.75];
	191 -- 194	[pos="1181.4,99.944 1201.3,90.712 1230.4,77.23 1250.5,67.951"];
	192	[height=0.5,
		pos="1321.9,136",
		width=0.75];
	191 -- 192	[pos="1185.7,114.43 1215.9,119.23 1265.1,127.02 1295.4,131.81"];
	33	[height=0.5,
		pos="1507.7,812.06",
		width=0.75];
	32 -- 33	[pos="1342.6,866.15 1379,854.23 1447,831.92 1483.4,820.02"];
	32 -- 105	[pos="1298.6,861.4 1269.3,842.38 1214.5,806.8 1185.3,787.81"];
	198	[height=0.5,
		pos="1221.2,101.52",
		width=0.75];
	194 -- 198	[pos="1256.3,71.674 1250.5,76.6 1244,82.129 1238.2,87.076"];
	195	[height=0.5,
		pos="1446,133.18",
		width=0.75];
	194 -- 195	[pos="1295.6,67.398 1328.8,81.902 1390.2,108.78 1423.4,123.29"];
	34	[height=0.5,
		pos="1637.9,943.61",
		width=0.75];
	33 -- 34	[pos="1522.6,827.15 1547.6,852.39 1597.6,902.9 1622.8,928.29"];
	383	[height=0.5,
		pos="1601.4,672.49",
		width=0.75];
	33 -- 383	[pos="1518.8,795.5 1536.8,768.64 1572.2,715.87 1590.3,689.02"];
	201	[height=0.5,
		pos="1425.7,207.43",
		width=0.75];
	198 -- 201	[pos="1242.7,112.66 1282,133 1364.9,175.94 1404.2,196.29"];
	199	[height=0.5,
		pos="1018.1,215.94",
		width=0.75];
	198 -- 199	[pos="1200.2,113.34 1161.2,135.32 1077.9,182.26 1039,204.19"];
	35	[height=0.5,
		pos="1451.8,1030.2",
		width=0.75];
	34 -- 35	[pos="1615.5,954.05 1579.6,970.73 1509.8,1003.2 1474.1,1019.8"];
	444	[height=0.5,
		pos="1594.3,1029",
		width=0.75];
	34 -- 444	[pos="1629.1,960.89 1621.5,975.69 1610.7,996.92 1603.1,1011.7"];
	204	[height=0.5,
		pos="1529.8,428.88",
		width=0.75];
	201 -- 204	[pos="1433.9,224.81 1453.3,266.2 1502.3,370.27 1521.7,411.59"];
	202	[height=0.5,
		pos="1395.6,400.3",
		width=0.75];
	201 -- 202	[pos="1422.9,225.58 1417.1,262.43 1404.2,345.65 1398.4,382.34"];
	36	[height=0.5,
		pos="1723.2,1108.7",
		width=0.75];
	35 -- 36	[pos="1476.9,1037.4 1528.6,1052.4 1646.5,1086.5 1698.2,1101.4"];
	177	[height=0.5,
		pos="1253.4,978.94",
		width=0.75];
	35 -- 177	[pos="1426.3,1023.6 1388.2,1013.7 1316.9,995.33 1278.8,985.5"];
	206	[height=0.5,
		pos="1660.6,549.14",
		width=0.75];
	204 -- 206	[pos="1545.9,443.63 1571,466.71 1619.3,511.12 1644.4,534.28"];
	205	[height=0.5,
		pos="1411.8,444.32",
		width=0.75];
	204 -- 205	[pos="1503.1,432.39 1483.8,434.91 1457.8,438.31 1438.5,440.83"];
	37	[height=0.5,
		pos="1728.5,1281.2",
		width=0.75];
	36 -- 37	[pos="1723.7,1126.8 1724.7,1159.9 1726.9,1229.9 1727.9,1263"];
	207	[height=0.5,
		pos="1742.6,838.9",
		width=0.75];
	36 -- 207	[pos="1724.5,1090.5 1728,1041.4 1737.7,905.99 1741.3,856.94"];
	212	[height=0.5,
		pos="1393.9,342.54",
		width=0.75];
	206 -- 212	[pos="1642.7,535.27 1594.1,497.63 1460.2,393.92 1411.7,356.36"];
	206 -- 207	[pos="1665.6,566.83 1680.2,618.56 1722.8,769.17 1737.5,821.07"];
	38	[height=0.5,
		pos="1679.4,1370",
		width=0.75];
	37 -- 38	[pos="1719,1298.3 1710.3,1314 1697.5,1337.2 1688.8,1352.9"];
	447	[height=0.5,
		pos="1758.3,1331.7",
		width=0.75];
	37 -- 447	[pos="1738.4,1298 1741.6,1303.4 1745.1,1309.4 1748.3,1314.8"];
	215	[height=0.5,
		pos="1455.9,305.42",
		width=0.75];
	212 -- 215	[pos="1414.2,330.39 1421.1,326.24 1428.9,321.61 1435.8,317.47"];
	212 -- 213	[pos="1367.9,337 1304.5,323.42 1141.9,288.66 1078.5,275.1"];
	39	[height=0.5,
		pos="1520.9,1390.7",
		width=0.75];
	38 -- 39	[pos="1652.8,1373.5 1623.6,1377.3 1576.8,1383.4 1547.5,1387.2"];
	362	[height=0.5,
		pos="1769.6,1476.1",
		width=0.75];
	38 -- 362	[pos="1693.1,1386.1 1710.1,1406.2 1739.1,1440.2 1756.1,1460.1"];
	218	[height=0.5,
		pos="1509.6,354.22",
		width=0.75];
	215 -- 218	[pos="1472,320.06 1478.8,326.24 1486.7,333.41 1493.5,339.59"];
	216	[height=0.5,
		pos="1639.4,305.43",
		width=0.75];
	215 -- 216	[pos="1483,305.42 1517.7,305.42 1577.5,305.43 1612.2,305.43"];
	40	[height=0.5,
		pos="1322.7,1235.5",
		width=0.75];
	39 -- 40	[pos="1503.3,1376.9 1465.7,1347.5 1377.9,1278.7 1340.3,1249.3"];
	371	[height=0.5,
		pos="1446.4,1331.6",
		width=0.75];
	39 -- 371	[pos="1503.3,1376.7 1491.4,1367.3 1475.8,1354.9 1464,1345.5"];
	221	[height=0.5,
		pos="1275.7,292.01",
		width=0.75];
	218 -- 221	[pos="1484.1,347.44 1439,335.45 1345.6,310.61 1300.8,298.69"];
	219	[height=0.5,
		pos="1674.6,503.87",
		width=0.75];
	218 -- 219	[pos="1525.7,368.84 1557.2,397.38 1626.4,460.21 1658.1,488.97"];
	41	[height=0.5,
		pos="1411.8,1119.7",
		width=0.75];
	40 -- 41	[pos="1335.1,1219.4 1352,1197.4 1382.2,1158.2 1399.2,1136"];
	40 -- 136	[pos="1295.7,1234 1237,1230.8 1098.3,1223.1 1039.4,1219.9"];
	227	[height=0.5,
		pos="1331.8,337.09",
		width=0.75];
	221 -- 227	[pos="1293.1,306.03 1300,311.51 1307.8,317.78 1314.6,323.24"];
	221 -- 222	[pos="1255.4,303.99 1215.8,327.41 1128.4,379.07 1088.7,402.53"];
	42	[height=0.5,
		pos="1539.3,900.55",
		width=0.75];
	41 -- 42	[pos="1421.6,1102.9 1445.3,1062.1 1505.7,958.29 1529.5,917.44"];
	451	[height=0.5,
		pos="1402.5,1164.5",
		width=0.75];
	41 -- 451	[pos="1408.1,1137.7 1407.5,1140.6 1406.8,1143.6 1406.2,1146.6"];
	231	[height=0.5,
		pos="1197.6,500.65",
		width=0.75];
	227 -- 231	[pos="1318.7,353.07 1293,384.42 1236.2,453.64 1210.6,484.84"];
	228	[height=0.5,
		pos="1490.1,177.27",
		width=0.75];
	227 -- 228	[pos="1346.7,322.06 1376.9,291.59 1444.9,222.91 1475.1,192.38"];
	43	[height=0.5,
		pos="1537.1,678.47",
		width=0.75];
	42 -- 43	[pos="1539.1,882.37 1538.7,840.63 1537.7,738.27 1537.3,696.58"];
	208	[height=0.5,
		pos="1615.9,868.88",
		width=0.75];
	42 -- 208	[pos="1562.3,891.05 1572,887.04 1583.2,882.38 1592.9,878.37"];
	236	[height=0.5,
		pos="1261.6,479.46",
		width=0.75];
	231 -- 236	[pos="1222.1,492.52 1227.1,490.88 1232.3,489.17 1237.2,487.53"];
	231 -- 232	[pos="1192.3,518.4 1179.6,560.69 1147.8,667 1135.2,709.2"];
	44	[height=0.5,
		pos="1697.4,637.81",
		width=0.75];
	43 -- 44	[pos="1562.5,672.02 1592.5,664.41 1642.2,651.82 1672.1,644.22"];
	395	[height=0.5,
		pos="1265,532.37",
		width=0.75];
	43 -- 395	[pos="1515.8,667 1464.9,639.69 1337,571.04 1286.3,543.78"];
	242	[height=0.5,
		pos="1600.2,478.67",
		width=0.75];
	236 -- 242	[pos="1288.7,479.4 1352.1,479.25 1509.4,478.88 1573,478.73"];
	237	[height=0.5,
		pos="1137.3,545.7",
		width=0.75];
	236 -- 237	[pos="1240.2,490.85 1217.4,502.98 1181.6,522.08 1158.8,534.24"];
	45	[height=0.5,
		pos="1688.4,735.74",
		width=0.75];
	44 -- 45	[pos="1695.7,656.23 1694.1,673.85 1691.7,700.25 1690.1,717.74"];
	44 -- 219	[pos="1694.3,619.74 1690,594.18 1682,547.72 1677.7,522.08"];
	244	[height=0.5,
		pos="1848.4,505.65",
		width=0.75];
	242 -- 244	[pos="1627.3,481.61 1675,486.8 1773.7,497.53 1821.4,502.72"];
	243	[height=0.5,
		pos="1786.4,478.81",
		width=0.75];
	242 -- 243	[pos="1627.3,478.69 1662.6,478.72 1724,478.76 1759.3,478.79"];
	46	[height=0.5,
		pos="1722.8,548.5",
		width=0.75];
	45 -- 46	[pos="1691.7,717.79 1698.3,682 1713,602.15 1719.6,566.4"];
	346	[height=0.5,
		pos="1703.8,972.62",
		width=0.75];
	45 -- 346	[pos="1689.6,753.94 1692.5,798.03 1699.7,910.21 1702.6,954.36"];
	247	[height=0.5,
		pos="1996.9,548.41",
		width=0.75];
	244 -- 247	[pos="1873.3,512.81 1900.7,520.7 1944.5,533.32 1972,541.23"];
	245	[height=0.5,
		pos="1662.3,452.65",
		width=0.75];
	244 -- 245	[pos="1823.3,498.5 1787.7,488.36 1722.9,469.9 1687.3,459.77"];
	47	[height=0.5,
		pos="1774.6,415.43",
		width=0.75];
	46 -- 47	[pos="1729.7,530.83 1739.6,505.38 1757.8,458.66 1767.7,433.17"];
	238	[height=0.5,
		pos="1537.9,624.7",
		width=0.75];
	46 -- 238	[pos="1699.8,558 1664.3,572.64 1596.5,600.56 1561,615.2"];
	250	[height=0.5,
		pos="1812.6,726.14",
		width=0.75];
	247 -- 250	[pos="1981.5,563.25 1946.8,596.71 1862.9,677.67 1828.1,711.21"];
	248	[height=0.5,
		pos="1901.4,416.16",
		width=0.75];
	247 -- 248	[pos="1985,531.92 1966.6,506.44 1931.5,457.79 1913.2,432.44"];
	48	[height=0.5,
		pos="1655,217.36",
		width=0.75];
	47 -- 48	[pos="1764.4,398.54 1741.8,361.12 1687.8,271.59 1665.2,234.21"];
	384	[height=0.5,
		pos="1785.6,527.96",
		width=0.75];
	47 -- 384	[pos="1776.4,433.51 1778.4,454.51 1781.8,488.94 1783.9,509.92"];
	253	[height=0.5,
		pos="1925.1,638.03",
		width=0.75];
	250 -- 253	[pos="1830.2,712.37 1851.2,695.92 1886.1,668.53 1907.3,651.99"];
	250 -- 251	[pos="1812.1,744.34 1810.8,793.72 1807.3,929.79 1806,979.08"];
	49	[height=0.5,
		pos="1547.4,90.869",
		width=0.75];
	48 -- 49	[pos="1641.6,201.6 1621,177.36 1581.7,131.19 1561,106.83"];
	48 -- 216	[pos="1651.8,235.61 1649.1,250.83 1645.3,272.39 1642.6,287.51"];
	255	[height=0.5,
		pos="1866.5,592.67",
		width=0.75];
	253 -- 255	[pos="1907.2,624.18 1899.9,618.55 1891.6,612.06 1884.3,606.44"];
	254	[height=0.5,
		pos="1873.8,682.11",
		width=0.75];
	253 -- 254	[pos="1908.3,652.47 1902.6,657.39 1896.2,662.88 1890.4,667.79"];
	50	[height=0.5,
		pos="1561.2,134.9",
		width=0.75];
	49 -- 50	[pos="1552.9,108.52 1553.8,111.39 1554.8,114.37 1555.7,117.24"];
	49 -- 192	[pos="1521.5,96.046 1478.1,104.73 1391.2,122.13 1347.8,130.82"];
	258	[height=0.5,
		pos="2002.2,775.77",
		width=0.75];
	255 -- 258	[pos="1878.6,608.92 1904.3,643.67 1964.5,724.85 1990.2,759.56"];
	256	[height=0.5,
		pos="1801,631.84",
		width=0.75];
	255 -- 256	[pos="1846.2,604.85 1838.2,609.61 1829.1,615.05 1821.1,619.8"];
	51	[height=0.5,
		pos="1701.9,296.95",
		width=0.75];
	50 -- 51	[pos="1574.9,150.73 1601.9,181.79 1661.4,250.37 1688.3,281.29"];
	460	[height=0.5,
		pos="1623.4,173.35",
		width=0.75];
	50 -- 460	[pos="1581.2,147.28 1588.3,151.67 1596.3,156.61 1603.4,160.99"];
	260	[height=0.5,
		pos="2009.3,947.67",
		width=0.75];
	258 -- 260	[pos="2003,793.84 2004.3,826.86 2007.2,896.56 2008.5,929.58"];
	259	[height=0.5,
		pos="1984.4,858.13",
		width=0.75];
	258 -- 259	[pos="1998.4,793.64 1995.4,807.46 1991.3,826.49 1988.3,840.29"];
	52	[height=0.5,
		pos="1891.3,309.86",
		width=0.75];
	51 -- 52	[pos="1729,298.8 1765,301.26 1828.2,305.56 1864.2,308.02"];
	461	[height=0.5,
		pos="1828.2,327.38",
		width=0.75];
	51 -- 461	[pos="1727.4,303.11 1749.3,308.39 1780.8,315.96 1802.7,321.23"];
	263	[height=0.5,
		pos="2066.2,1050",
		width=0.75];
	260 -- 263	[pos="2018.7,964.57 2029.2,983.53 2046.3,1014.1 2056.8,1033.1"];
	261	[height=0.5,
		pos="1851.7,953.18",
		width=0.75];
	260 -- 261	[pos="1982.2,948.62 1953.3,949.63 1907.6,951.23 1878.7,952.24"];
	53	[height=0.5,
		pos="1580,349.45",
		width=0.75];
	52 -- 53	[pos="1864.7,313.24 1806.1,320.7 1665.9,338.53 1606.9,346.03"];
	52 -- 248	[pos="1893,327.9 1894.9,347.44 1897.8,378.46 1899.7,398.04"];
	265	[height=0.5,
		pos="1838.8,1153.5",
		width=0.75];
	263 -- 265	[pos="2043.6,1060.3 2000,1080.2 1904.9,1123.5 1861.3,1143.3"];
	264	[height=0.5,
		pos="1971.6,1137.5",
		width=0.75];
	263 -- 264	[pos="2050.2,1064.8 2032.7,1081 2004.8,1106.8 1987.4,1122.9"];
	54	[height=0.5,
		pos="1269.4,389.97",
		width=0.75];
	53 -- 54	[pos="1553.2,352.94 1494.5,360.6 1355,378.81 1296.2,386.47"];
	463	[height=0.5,
		pos="1764.8,327.37",
		width=0.75];
	53 -- 463	[pos="1606.8,346.24 1642,342.04 1703.2,334.73 1738.2,330.55"];
	267	[height=0.5,
		pos="1490.9,1101",
		width=0.75];
	265 -- 267	[pos="1812.3,1149.5 1747.7,1139.8 1582,1114.7 1517.3,1105"];
	266	[height=0.5,
		pos="1720,1193",
		width=0.75];
	265 -- 266	[pos="1814.4,1161.6 1793.9,1168.4 1764.8,1178.2 1744.3,1185"];
	55	[height=0.5,
		pos="1490.5,261.33",
		width=0.75];
	54 -- 55	[pos="1289.8,378.09 1332,353.59 1428.1,297.65 1470.2,273.17"];
	54 -- 125	[pos="1253.3,404.48 1205.3,447.72 1063.4,575.38 1015.1,618.92"];
	271	[height=0.5,
		pos="1387,969.75",
		width=0.75];
	267 -- 271	[pos="1478.2,1084.9 1458.3,1059.7 1419.9,1011.2 1399.9,985.97"];
	268	[height=0.5,
		pos="1340,1166.5",
		width=0.75];
	267 -- 268	[pos="1468,1110.9 1439.5,1123.3 1391.1,1144.3 1362.7,1156.6"];
	56	[height=0.5,
		pos="1724.3,459.47",
		width=0.75];
	55 -- 56	[pos="1507.4,275.58 1550.4,312.05 1664.1,408.46 1707.3,445.08"];
	55 -- 195	[pos="1484.4,243.78 1476,219.38 1460.7,175.44 1452.2,150.93"];
	274	[height=0.5,
		pos="1512.2,966.91",
		width=0.75];
	271 -- 274	[pos="1414.2,969.13 1435.2,968.66 1464.1,968 1485.1,967.52"];
	272	[height=0.5,
		pos="1128.9,917.68",
		width=0.75];
	271 -- 272	[pos="1360.9,964.47 1311.3,954.46 1204.1,932.85 1154.8,922.9"];
	57	[height=0.5,
		pos="1918,460.28",
		width=0.75];
	56 -- 57	[pos="1751.6,459.58 1788.5,459.74 1853.9,460.01 1890.8,460.17"];
	102	[height=0.5,
		pos="1327,568.04",
		width=0.75];
	56 -- 102	[pos="1699.1,466.34 1627.6,485.9 1423.5,541.68 1352.1,561.19"];
	277	[height=0.5,
		pos="1629.4,1097.5",
		width=0.75];
	274 -- 277	[pos="1526.1,982.4 1548.7,1007.5 1593,1056.9 1615.5,1082"];
	275	[height=0.5,
		pos="1428.2,775.54",
		width=0.75];
	274 -- 275	[pos="1504.6,949.59 1488.7,913.25 1451.9,829.39 1435.9,792.96"];
	58	[height=0.5,
		pos="1932.2,549.98",
		width=0.75];
	57 -- 58	[pos="1920.8,478.43 1923.3,494 1926.8,516.3 1929.3,531.86"];
	467	[height=0.5,
		pos="1875.7,371.77",
		width=0.75];
	57 -- 467	[pos="1909.6,442.8 1902.2,427.28 1891.4,404.73 1884,389.22"];
	280	[height=0.5,
		pos="1428.3,1074.4",
		width=0.75];
	277 -- 280	[pos="1602.7,1094.4 1564.3,1090 1493.7,1081.9 1455.1,1077.5"];
	278	[height=0.5,
		pos="1847.2,1109.3",
		width=0.75];
	277 -- 278	[pos="1656.6,1098.9 1698.4,1101.2 1778.2,1105.5 1820.1,1107.8"];
	59	[height=0.5,
		pos="1939.6,686.13",
		width=0.75];
	58 -- 59	[pos="1933.2,568.06 1934.6,594.1 1937.2,641.9 1938.6,667.98"];
	468	[height=0.5,
		pos="1911,505.77",
		width=0.75];
	58 -- 468	[pos="1923.9,532.77 1922.4,529.57 1920.8,526.22 1919.3,523.02"];
	283	[height=0.5,
		pos="1277.9,934.84",
		width=0.75];
	280 -- 283	[pos="1412.5,1059.7 1383.7,1033 1323,976.63 1294,949.73"];
	281	[height=0.5,
		pos="1519.4,1146.7",
		width=0.75];
	280 -- 281	[pos="1445.9,1088.3 1462,1101.1 1485.8,1120 1501.9,1132.8"];
	60	[height=0.5,
		pos="1963.6,902.87",
		width=0.75];
	59 -- 60	[pos="1941.6,704.24 1946.1,745.04 1957.1,843.77 1961.6,884.66"];
	469	[height=0.5,
		pos="1929.4,594",
		width=0.75];
	59 -- 469	[pos="1937.6,667.93 1935.8,651.78 1933.2,628.31 1931.4,612.17"];
	288	[height=0.5,
		pos="997.46,764.79",
		width=0.75];
	283 -- 288	[pos="1257.8,922.61 1206,891.24 1069,808.16 1017.4,776.91"];
	283 -- 284	[pos="1277.7,953.16 1277.1,992.34 1275.8,1083.9 1275.3,1123"];
	61	[height=0.5,
		pos="1918.4,995.12",
		width=0.75];
	60 -- 61	[pos="1955.1,920.22 1947,936.71 1934.9,961.38 1926.8,977.85"];
	470	[height=0.5,
		pos="1933.7,811.05",
		width=0.75];
	60 -- 470	[pos="1957.8,885.16 1952.5,868.9 1944.7,844.94 1939.4,828.7"];
	291	[height=0.5,
		pos="742.08,739.42",
		width=0.75];
	288 -- 291	[pos="970.61,762.12 921.56,757.25 818.02,746.96 768.95,742.09"];
	289	[height=0.5,
		pos="1135.6,501.61",
		width=0.75];
	288 -- 289	[pos="1006.5,747.52 1031.5,699.83 1101.4,566.7 1126.5,518.94"];
	62	[height=0.5,
		pos="2033.7,1094.1",
		width=0.75];
	61 -- 62	[pos="1935.4,1009.7 1957.3,1028.5 1995.2,1061.1 2017,1079.7"];
	471	[height=0.5,
		pos="1946.8,951.09",
		width=0.75];
	61 -- 471	[pos="1929.1,978.47 1931.4,974.97 1933.8,971.26 1936.1,967.76"];
	294	[height=0.5,
		pos="420.7,644.2",
		width=0.75];
	291 -- 294	[pos="717.4,732.11 657.58,714.38 505.38,669.29 445.47,651.54"];
	291 -- 292	[pos="737.83,721.6 729.67,687.38 711.88,612.8 703.68,578.42"];
	63	[height=0.5,
		pos="1909.3,1101.2",
		width=0.75];
	62 -- 63	[pos="2006.7,1095.6 1985.8,1096.8 1957.1,1098.5 1936.3,1099.7"];
	363	[height=0.5,
		pos="1827.9,1313.6",
		width=0.75];
	62 -- 363	[pos="2019.2,1109.5 1981.4,1149.8 1880.1,1257.9 1842.3,1298.2"];
	299	[height=0.5,
		pos="286.59,659.71",
		width=0.75];
	294 -- 299	[pos="393.88,647.3 370.49,650.01 336.74,653.91 313.36,656.62"];
	295	[height=0.5,
		pos="482.74,633.59",
		width=0.75];
	294 -- 295	[pos="447.01,639.7 450.18,639.16 453.42,638.61 456.59,638.06"];
	64	[height=0.5,
		pos="1707.2,913.02",
		width=0.75];
	63 -- 64	[pos="1893.5,1086.4 1855.7,1051.3 1760.7,962.83 1722.9,927.72"];
	347	[height=0.5,
		pos="1661.2,1148.9",
		width=0.75];
	63 -- 347	[pos="1883.2,1106.2 1835.6,1115.4 1734.9,1134.7 1687.3,1143.9"];
	301	[height=0.5,
		pos="161.68,620.21",
		width=0.75];
	299 -- 301	[pos="261.91,651.91 240.01,644.98 208.19,634.92 186.31,628"];
	300	[height=0.5,
		pos="411.29,598.31",
		width=0.75];
	299 -- 300	[pos="308.31,649.02 331.06,637.82 366.59,620.32 389.4,609.09"];
	65	[height=0.5,
		pos="1786.8,909.16",
		width=0.75];
	64 -- 65	[pos="1734.1,911.71 1742.4,911.31 1751.6,910.87 1759.9,910.47"];
	239	[height=0.5,
		pos="1595.8,795.92",
		width=0.75];
	64 -- 239	[pos="1692.6,897.71 1671.2,875.27 1631.7,833.68 1610.3,811.24"];
	304	[height=0.5,
		pos="225.99,615.7",
		width=0.75];
	301 -- 304	[pos="188.58,618.32 192.02,618.08 195.55,617.83 198.99,617.59"];
	301 -- 302	[pos="161.83,602.07 162.04,575.94 162.42,527.99 162.63,501.82"];
	66	[height=0.5,
		pos="1750.5,762.93",
		width=0.75];
	65 -- 66	[pos="1782.4,891.23 1775.4,863.16 1762,809.16 1755,781"];
	350	[height=0.5,
		pos="1792.4,1041.2",
		width=0.75];
	65 -- 350	[pos="1787.6,927.24 1788.7,952.39 1790.6,997.67 1791.7,1022.9"];
	307	[height=0.5,
		pos="349.73,713.58",
		width=0.75];
	304 -- 307	[pos="243.46,629.51 266.91,648.06 308.34,680.84 331.95,699.52"];
	304 -- 305	[pos="250.12,607.45 287.88,594.53 360.55,569.68 398.43,556.72"];
	67	[height=0.5,
		pos="1626.4,726.41",
		width=0.75];
	66 -- 67	[pos="1725.7,755.62 1704,749.25 1672.8,740.06 1651.2,733.7"];
	476	[height=0.5,
		pos="1807.5,806.95",
		width=0.75];
	66 -- 476	[pos="1768.2,776.61 1775,781.86 1782.8,787.86 1789.6,793.12"];
	310	[height=0.5,
		pos="133.24,807.25",
		width=0.75];
	307 -- 310	[pos="326.97,723.43 285.39,741.42 197.61,779.4 156.02,797.39"];
	308	[height=0.5,
		pos="571.99,633.65",
		width=0.75];
	307 -- 308	[pos="373.52,705.03 416.18,689.68 505.26,657.65 548.04,642.26"];
	68	[height=0.5,
		pos="1536.1,566.3",
		width=0.75];
	67 -- 68	[pos="1616.7,709.27 1599.4,678.46 1563,614.04 1545.7,583.31"];
	209	[height=0.5,
		pos="1444.7,820.56",
		width=0.75];
	67 -- 209	[pos="1604.8,737.58 1569.9,755.7 1501.2,791.29 1466.2,809.4"];
	312	[height=0.5,
		pos="195.28,817.36",
		width=0.75];
	310 -- 312	[pos="159.55,811.54 162.59,812.03 165.69,812.54 168.73,813.03"];
	311	[height=0.5,
		pos="132.8,861.27",
		width=0.75];
	310 -- 311	[pos="133.09,825.54 133.05,831.17 132.99,837.37 132.95,843"];
	69	[height=0.5,
		pos="1199.5,456.63",
		width=0.75];
	68 -- 69	[pos="1511.6,558.33 1449.4,538.07 1286,484.8 1223.9,464.58"];
	68 -- 245	[pos="1552.3,551.68 1576.6,529.85 1621.9,489.01 1646.1,467.22"];
	314	[height=0.5,
		pos="280.67,982.65",
		width=0.75];
	312 -- 314	[pos="204.1,834.43 220.46,866.1 255.35,933.64 271.77,965.43"];
	313	[height=0.5,
		pos="234.28,882.37",
		width=0.75];
	312 -- 313	[pos="205.32,834.1 211.1,843.73 218.34,855.8 224.14,865.46"];
	70	[height=0.5,
		pos="871.15,601.36",
		width=0.75];
	69 -- 70	[pos="1176.9,466.58 1116.9,493.02 954.04,564.82 893.88,591.34"];
	196	[height=0.5,
		pos="1346.3,292.54",
		width=0.75];
	69 -- 196	[pos="1213.6,440.9 1241.6,409.61 1303.9,339.91 1332,308.47"];
	316	[height=0.5,
		pos="152.64,1062",
		width=0.75];
	314 -- 316	[pos="260.67,995.05 236.61,1009.9 196.49,1034.8 172.5,1049.7"];
	315	[height=0.5,
		pos="277.31,1026.7",
		width=0.75];
	314 -- 315	[pos="279.29,1000.8 279.09,1003.4 278.89,1006 278.7,1008.6"];
	71	[height=0.5,
		pos="692.24,692.59",
		width=0.75];
	70 -- 71	[pos="849.57,612.37 815.18,629.9 748.33,663.99 713.9,681.55"];
	325	[height=0.5,
		pos="565.94,721.8",
		width=0.75];
	70 -- 325	[pos="847.71,610.61 790.89,633.03 646.35,690.07 589.46,712.52"];
	319	[height=0.5,
		pos="316.91,938.08",
		width=0.75];
	316 -- 319	[pos="170.53,1048.5 202.05,1024.7 267.11,975.64 298.79,951.75"];
	317	[height=0.5,
		pos="228.01,1242.7",
		width=0.75];
	316 -- 317	[pos="160,1079.6 174.45,1114.3 206.35,1190.7 220.73,1225.2"];
	72	[height=0.5,
		pos="663.09,648.48",
		width=0.75];
	71 -- 72	[pos="681.22,675.92 678.9,672.4 676.45,668.69 674.12,665.18"];
	326	[height=0.5,
		pos="623.68,883.9",
		width=0.75];
	71 -- 326	[pos="685.91,710.25 672.85,746.69 643.04,829.88 629.99,866.29"];
	323	[height=0.5,
		pos="319.17,892.38",
		width=0.75];
	319 -- 323	[pos="317.8,920.02 317.95,916.92 318.11,913.71 318.27,910.61"];
	320	[height=0.5,
		pos="502.51,809.88",
		width=0.75];
	319 -- 320	[pos="335.73,925.08 371.3,900.51 448.03,847.51 483.64,822.91"];
	73	[height=0.5,
		pos="775.15,365.54",
		width=0.75];
	72 -- 73	[pos="670.1,630.78 690.22,579.97 748.02,434.03 768.14,383.23"];
	72 -- 159	[pos="650.65,664.47 615.68,709.43 516.74,836.65 481.59,881.85"];
	329	[height=0.5,
		pos="391.48,1158.5",
		width=0.75];
	323 -- 329	[pos="324.02,910.26 337.2,958.74 373.49,1092.3 386.64,1140.7"];
	323 -- 324	[pos="315.95,874.48 311.32,848.71 302.83,801.4 298.19,775.59"];
	74	[height=0.5,
		pos="853.11,228.77",
		width=0.75];
	73 -- 74	[pos="784.87,348.49 799.89,322.14 828.57,271.82 843.51,245.6"];
	73 -- 199	[pos="795.03,353.29 840.6,325.24 952.14,256.57 997.97,228.36"];
	332	[height=0.5,
		pos="270.6,1150.2",
		width=0.75];
	329 -- 332	[pos="364.35,1156.7 344.44,1155.3 317.53,1153.4 297.64,1152.1"];
	329 -- 330	[pos="413.29,1169.3 459.06,1191.8 564.66,1243.8 610.54,1266.5"];
	75	[height=0.5,
		pos="1095.4,136.2",
		width=0.75];
	74 -- 75	[pos="876.78,219.72 923.09,202.03 1025.2,163.01 1071.6,145.28"];
	186	[height=0.5,
		pos="883.41,388.56",
		width=0.75];
	74 -- 186	[pos="856.52,246.79 862.34,277.48 874.11,339.55 879.95,370.36"];
	334	[height=0.5,
		pos="410.11,1060.1",
		width=0.75];
	332 -- 334	[pos="290,1137.7 316.51,1120.6 363.78,1090 390.43,1072.8"];
	333	[height=0.5,
		pos="300.06,1237.3",
		width=0.75];
	332 -- 333	[pos="276.56,1167.8 281.67,1182.9 289,1204.6 294.11,1219.7"];
	76	[height=0.5,
		pos="956.07,182.89",
		width=0.75];
	75 -- 76	[pos="1071.1,144.33 1045.7,152.85 1006,166.15 980.52,174.7"];
	229	[height=0.5,
		pos="1284.1,247.98",
		width=0.75];
	75 -- 229	[pos="1115.6,148.16 1151.8,169.62 1227.4,214.42 1263.8,235.93"];
	337	[height=0.5,
		pos="544.85,1263",
		width=0.75];
	334 -- 337	[pos="421.14,1076.7 446.47,1114.8 508.57,1208.4 533.86,1246.5"];
	334 -- 335	[pos="405.18,1042.3 392.06,995.1 356.44,866.87 343.28,819.51"];
	77	[height=0.5,
		pos="1067.8,341.54",
		width=0.75];
	76 -- 77	[pos="967.61,199.27 989.01,229.67 1034.7,294.5 1056.2,325.01"];
	120	[height=0.5,
		pos="911.06,300.53",
		width=0.75];
	76 -- 120	[pos="949.33,200.5 940.85,222.68 926.35,260.56 917.85,282.79"];
	339	[height=0.5,
		pos="969.09,1390.9",
		width=0.75];
	337 -- 339	[pos="569.49,1270.4 644.47,1293 869.3,1360.8 944.37,1383.4"];
	338	[height=0.5,
		pos="479.68,1267.9",
		width=0.75];
	337 -- 338	[pos="517.97,1265 514.32,1265.3 510.58,1265.6 506.92,1265.9"];
	78	[height=0.5,
		pos="1245.6,602.32",
		width=0.75];
	77 -- 78	[pos="1079.2,358.25 1111.3,405.35 1202.3,538.82 1234.3,585.75"];
	77 -- 114	[pos="1042.6,334.49 988.58,319.43 862.48,284.24 808.55,269.19"];
	341	[height=0.5,
		pos="1188.4,1309.2",
		width=0.75];
	339 -- 341	[pos="992.97,1382 1035.2,1366.3 1122.4,1333.8 1164.5,1318.1"];
	340	[height=0.5,
		pos="845.01,1388.9",
		width=0.75];
	339 -- 340	[pos="941.86,1390.5 921.17,1390.1 892.84,1389.7 872.17,1389.4"];
	79	[height=0.5,
		pos="1325.1,713.42",
		width=0.75];
	78 -- 79	[pos="1257.3,618.71 1272.3,639.72 1298.2,675.92 1313.3,696.96"];
	78 -- 275	[pos="1261.1,617.09 1295.7,649.82 1378.2,728.12 1412.7,760.81"];
	345	[height=0.5,
		pos="1550.6,1242.5",
		width=0.75];
	341 -- 345	[pos="1214.5,1304.4 1281.1,1292.1 1457.4,1259.6 1524.3,1247.3"];
	341 -- 342	[pos="1173.6,1324.5 1156.5,1342.2 1128.3,1371.2 1111.2,1388.9"];
	80	[height=0.5,
		pos="1222.4,890.72",
		width=0.75];
	79 -- 80	[pos="1315.2,730.42 1295.6,764.31 1251.8,839.92 1232.2,873.77"];
	489	[height=0.5,
		pos="1387.5,719.91",
		width=0.75];
	79 -- 489	[pos="1351.9,716.21 1354.8,716.51 1357.8,716.82 1360.7,717.12"];
	349	[height=0.5,
		pos="1676.7,1237.1",
		width=0.75];
	345 -- 349	[pos="1577.7,1241.3 1598.9,1240.4 1628.4,1239.2 1649.7,1238.3"];
	345 -- 346	[pos="1560.2,1225.6 1587.7,1177.1 1666.7,1037.9 1694.2,989.49"];
	81	[height=0.5,
		pos="1004.5,973.02",
		width=0.75];
	80 -- 81	[pos="1198.7,899.68 1156.8,915.51 1070.1,948.24 1028.2,964.06"];
	490	[height=0.5,
		pos="1298.5,829.97",
		width=0.75];
	80 -- 490	[pos="1240,876.63 1252.3,866.82 1268.7,853.78 1280.9,843.99"];
	353	[height=0.5,
		pos="1743.7,1382.8",
		width=0.75];
	349 -- 353	[pos="1684.7,1254.4 1697.6,1282.5 1722.9,1337.5 1735.8,1365.6"];
	349 -- 350	[pos="1686.8,1220.1 1708.7,1182.9 1760.6,1095.1 1782.5,1058.1"];
	82	[height=0.5,
		pos="814.3,998.74",
		width=0.75];
	81 -- 82	[pos="977.68,976.65 941.42,981.55 877.2,990.23 841.01,995.12"];
	178	[height=0.5,
		pos="1066.8,940.37",
		width=0.75];
	81 -- 178	[pos="1026,961.78 1032.3,958.46 1039.2,954.83 1045.5,951.52"];
	355	[height=0.5,
		pos="1727.1,1539.5",
		width=0.75];
	353 -- 355	[pos="1741.8,1400.8 1738.6,1430.9 1732.3,1491 1729.1,1521.3"];
	354	[height=0.5,
		pos="1682.4,1325.5",
		width=0.75];
	353 -- 354	[pos="1727.9,1368.1 1718.9,1359.6 1707.5,1349 1698.4,1340.4"];
	83	[height=0.5,
		pos="719.68,1001.2",
		width=0.75];
	82 -- 83	[pos="787.18,999.44 774.51,999.77 759.46,1000.2 746.79,1000.5"];
	492	[height=0.5,
		pos="845.17,910.73",
		width=0.75];
	82 -- 492	[pos="820.55,980.93 825.9,965.66 833.58,943.77 838.94,928.51"];
	357	[height=0.5,
		pos="1603.7,1530.7",
		width=0.75];
	355 -- 357	[pos="1700.1,1537.6 1679.5,1536.1 1651.3,1534.1 1630.8,1532.6"];
	356	[height=0.5,
		pos="1665.8,1495.4",
		width=0.75];
	355 -- 356	[pos="1708.7,1526.3 1701,1520.7 1691.9,1514.2 1684.2,1508.7"];
	84	[height=0.5,
		pos="876.31,1001.1",
		width=0.75];
	83 -- 84	[pos="746.96,1001.2 775.62,1001.1 820.44,1001.1 849.08,1001.1"];
	83 -- 153	[pos="692.77,1004.1 665.85,1006.9 624.67,1011.4 597.82,1014.2"];
	361	[height=0.5,
		pos="1541.7,1522.8",
		width=0.75];
	357 -- 361	[pos="1577.1,1527.3 1574.2,1526.9 1571.2,1526.6 1568.3,1526.2"];
	357 -- 358	[pos="1586.2,1516.9 1555.8,1493 1493.5,1444.1 1463,1420.1"];
	85	[height=0.5,
		pos="809.82,1130.8",
		width=0.75];
	84 -- 85	[pos="867.48,1018.3 854.77,1043.1 831.43,1088.6 818.69,1113.5"];
	234	[height=0.5,
		pos="1082.9,808.74",
		width=0.75];
	84 -- 234	[pos="892.18,986.28 930.63,950.49 1028.5,859.41 1067,823.56"];
	365	[height=0.5,
		pos="1292.7,1486",
		width=0.75];
	361 -- 365	[pos="1515,1518.9 1467.1,1511.8 1367,1497 1319.2,1489.9"];
	361 -- 362	[pos="1567.8,1517.4 1611.8,1508.4 1700,1490.3 1743.8,1481.4"];
	86	[height=0.5,
		pos="696.78,1247.5",
		width=0.75];
	85 -- 86	[pos="795.04,1146 773.38,1168.4 733.23,1209.9 711.56,1232.2"];
	374	[height=0.5,
		pos="1046.4,1091.6",
		width=0.75];
	85 -- 374	[pos="836.04,1126.4 881.51,1118.9 974.47,1103.5 1020,1095.9"];
	368	[height=0.5,
		pos="1370.6,1458.7",
		width=0.75];
	365 -- 368	[pos="1316.9,1477.5 1326.4,1474.2 1337.2,1470.4 1346.7,1467.1"];
	366	[height=0.5,
		pos="1012.3,1295.1",
		width=0.75];
	365 -- 366	[pos="1273.4,1472.9 1222.1,1437.9 1082.4,1342.8 1031.3,1308"];
	87	[height=0.5,
		pos="883.16,1323.5",
		width=0.75];
	86 -- 87	[pos="720.01,1257 755.82,1271.6 824.12,1299.4 859.94,1314"];
	86 -- 133	[pos="670.41,1243.5 634.28,1238.1 569.76,1228.4 533.59,1222.9"];
	370	[height=0.5,
		pos="1321.3,1332.7",
		width=0.75];
	368 -- 370	[pos="1363.7,1441.1 1354.4,1417.2 1337.6,1374.5 1328.2,1350.5"];
	369	[height=0.5,
		pos="1358.8,1376.7",
		width=0.75];
	368 -- 369	[pos="1368,1440.5 1366,1426.9 1363.4,1408.4 1361.4,1394.9"];
	88	[height=0.5,
		pos="864.79,1174.8",
		width=0.75];
	87 -- 88	[pos="880.91,1305.2 877.39,1276.7 870.6,1221.8 867.06,1193.2"];
	87 -- 173	[pos="895.89,1307.3 898.91,1303.5 902.13,1299.4 905.15,1295.6"];
	373	[height=0.5,
		pos="1197.6,1069.2",
		width=0.75];
	370 -- 373	[pos="1313.1,1315.4 1290.7,1267.7 1228.2,1134.4 1205.7,1086.5"];
	370 -- 371	[pos="1348.4,1332.5 1369.4,1332.3 1398.4,1332.1 1419.3,1331.9"];
	89	[height=0.5,
		pos="702.96,1331.9",
		width=0.75];
	88 -- 89	[pos="849.27,1189.9 818.42,1219.8 749.68,1286.5 718.67,1316.6"];
	210	[height=0.5,
		pos="1159.7,967.86",
		width=0.75];
	88 -- 210	[pos="883.69,1161.5 936.96,1124.2 1087.9,1018.2 1141,981.01"];
	376	[height=0.5,
		pos="1227.8,801.45",
		width=0.75];
	373 -- 376	[pos="1199.6,1051.2 1205.1,1002.5 1220.2,868.68 1225.7,819.71"];
	373 -- 374	[pos="1170.9,1073.1 1143.2,1077.2 1100.3,1083.6 1072.8,1087.7"];
	90	[height=0.5,
		pos="502.42,1409.6",
		width=0.75];
	89 -- 90	[pos="679.56,1341 641.02,1355.9 564.62,1385.5 525.98,1400.5"];
	499	[height=0.5,
		pos="774.07,1345.8",
		width=0.75];
	89 -- 499	[pos="729.03,1337 735.22,1338.2 741.81,1339.5 748,1340.7"];
	379	[height=0.5,
		pos="1413.1,639.94",
		width=0.75];
	376 -- 379	[pos="1244.2,787.12 1279.4,756.47 1361.6,684.86 1396.7,654.24"];
	377	[height=0.5,
		pos="1106.3,635.73",
		width=0.75];
	376 -- 377	[pos="1215.9,785.26 1192.7,753.66 1141.7,684.08 1118.4,652.23"];
	91	[height=0.5,
		pos="415.3,1290.6",
		width=0.75];
	90 -- 91	[pos="490.31,1393.1 473.66,1370.3 443.9,1329.7 427.31,1307"];
	500	[height=0.5,
		pos="626.71,1432.2",
		width=0.75];
	90 -- 500	[pos="528.48,1414.4 549.55,1418.2 579.09,1423.5 600.26,1427.4"];
	382	[height=0.5,
		pos="1473.8,529.09",
		width=0.75];
	379 -- 382	[pos="1422.6,622.62 1434,601.8 1453,567.06 1464.4,546.29"];
	380	[height=0.5,
		pos="1411.7,488.33",
		width=0.75];
	379 -- 380	[pos="1412.9,621.65 1412.7,592.51 1412.2,535.86 1411.9,506.68"];
	92	[height=0.5,
		pos="564.66,1470.9",
		width=0.75];
	91 -- 92	[pos="428.55,1306.6 456.9,1340.8 523.12,1420.8 551.44,1455"];
	91 -- 317	[pos="390.04,1284.1 354.3,1275 289.32,1258.4 253.47,1249.2"];
	386	[height=0.5,
		pos="1207.1,324.56",
		width=0.75];
	382 -- 386	[pos="1455.9,515.36 1407.3,478.1 1273.4,375.43 1224.9,338.24"];
	382 -- 383	[pos="1487.7,544.71 1512.2,572.3 1563,629.32 1587.5,656.89"];
	93	[height=0.5,
		pos="712.03,1379.9",
		width=0.75];
	92 -- 93	[pos="584.54,1458.7 612.66,1441.3 663.79,1409.7 692,1392.3"];
	502	[height=0.5,
		pos="630.12,1494.6",
		width=0.75];
	92 -- 502	[pos="588.66,1479.6 594.35,1481.7 600.43,1483.9 606.12,1485.9"];
	388	[height=0.5,
		pos="1005.7,314.96",
		width=0.75];
	386 -- 388	[pos="1180,323.27 1141.4,321.43 1071.3,318.08 1032.8,316.25"];
	387	[height=0.5,
		pos="1410.5,261.39",
		width=0.75];
	386 -- 387	[pos="1231.6,316.94 1270.7,304.8 1346.7,281.2 1385.9,269.04"];
	94	[height=0.5,
		pos="689.21,1111.5",
		width=0.75];
	93 -- 94	[pos="710.5,1361.9 706.35,1313.1 694.94,1178.9 690.77,1129.8"];
	343	[height=0.5,
		pos="928.16,1435.1",
		width=0.75];
	93 -- 343	[pos="737.67,1386.5 779.38,1397.1 861.42,1418.1 902.89,1428.6"];
	393	[height=0.5,
		pos="964.15,132.94",
		width=0.75];
	388 -- 393	[pos="1001.6,296.84 993.62,261.95 976.23,185.82 968.28,150.99"];
	389	[height=0.5,
		pos="828.79,510.65",
		width=0.75];
	388 -- 389	[pos="991.55,330.64 958.34,367.38 875.83,458.63 842.79,495.17"];
	95	[height=0.5,
		pos="1001.6,1141.8",
		width=0.75];
	94 -- 95	[pos="716.11,1114.1 775.15,1119.8 915.52,1133.4 974.6,1139.2"];
	126	[height=0.5,
		pos="769.26,910.7",
		width=0.75];
	94 -- 126	[pos="696.18,1094 711.31,1056 747.08,966.34 762.26,928.27"];
	399	[height=0.5,
		pos="1098.8,66.21",
		width=0.75];
	393 -- 399	[pos="986.09,122.07 1011.1,109.66 1051.8,89.483 1076.9,77.075"];
	394	[height=0.5,
		pos="943.09,344.55",
		width=0.75];
	393 -- 394	[pos="962.36,150.98 958.38,190.96 948.86,286.62 944.88,326.55"];
	96	[height=0.5,
		pos="1056.8,1040.3",
		width=0.75];
	95 -- 96	[pos="1010.9,1124.6 1021.1,1105.8 1037.4,1075.9 1047.5,1057.2"];
	359	[height=0.5,
		pos="1198.4,1247.8",
		width=0.75];
	95 -- 359	[pos="1022.6,1153.1 1060.4,1173.5 1139.3,1216 1177.1,1236.4"];
	402	[height=0.5,
		pos="870.81,18",
		width=0.75];
	399 -- 402	[pos="1072.6,60.679 1028.7,51.38 940.43,32.722 896.66,23.466"];
	400	[height=0.5,
		pos="1321.3,181.14",
		width=0.75];
	399 -- 400	[pos="1120.5,77.439 1163.2,99.467 1257.4,148.1 1299.8,170.03"];
	97	[height=0.5,
		pos="942.17,968.37",
		width=0.75];
	96 -- 97	[pos="1037.1,1027.9 1016.1,1014.7 983.04,994 962,980.81"];
	225	[height=0.5,
		pos="1150.1,873.65",
		width=0.75];
	96 -- 225	[pos="1066.2,1023.4 1084.1,991.43 1122.7,922.55 1140.6,890.58"];
	404	[height=0.5,
		pos="834.56,80.432",
		width=0.75];
	402 -- 404	[pos="860.9,35.06 855.79,43.869 849.57,54.587 844.45,63.393"];
	403	[height=0.5,
		pos="944.69,30.752",
		width=0.75];
	402 -- 403	[pos="897.06,22.532 904.03,23.735 911.55,25.033 918.52,26.235"];
	98	[height=0.5,
		pos="961.9,841.28",
		width=0.75];
	97 -- 98	[pos="944.96,950.43 948.7,926.35 955.3,883.79 959.07,859.54"];
	507	[height=0.5,
		pos="931.96,911.86",
		width=0.75];
	97 -- 507	[pos="938.94,950.49 937.75,943.9 936.4,936.42 935.2,929.82"];
	407	[height=0.5,
		pos="759.53,319.94",
		width=0.75];
	404 -- 407	[pos="828.92,98.434 814.98,142.93 779.03,257.69 765.13,302.06"];
	405	[height=0.5,
		pos="973.13,270.93",
		width=0.75];
	404 -- 405	[pos="846.38,96.674 872.56,132.67 935.19,218.78 961.35,254.73"];
	99	[height=0.5,
		pos="1059.5,721.73",
		width=0.75];
	98 -- 99	[pos="975.06,825.15 993.79,802.21 1027.9,760.4 1046.5,737.6"];
	508	[height=0.5,
		pos="873.39,805.3",
		width=0.75];
	98 -- 508	[pos="938.65,831.83 925.64,826.54 909.48,819.97 896.49,814.69"];
	410	[height=0.5,
		pos="707.21,194.3",
		width=0.75];
	407 -- 410	[pos="752.25,302.47 742.31,278.6 724.59,236.03 714.59,212.03"];
	408	[height=0.5,
		pos="855.02,645.57",
		width=0.75];
	407 -- 408	[pos="764.8,337.91 781.49,394.84 833.1,570.8 849.77,627.65"];
	103	[height=0.5,
		pos="1140.9,591.71",
		width=0.75];
	99 -- 103	[pos="1070,705 1085.6,680.03 1114.9,633.3 1130.5,608.37"];
	411	[height=0.5,
		pos="710.51,273.71",
		width=0.75];
	410 -- 411	[pos="707.96,212.32 708.49,225.22 709.21,242.54 709.75,255.49"];
	101 -- 102	[pos="1219.3,828.13 1239.9,778.42 1298.9,635.88 1319.7,585.74"];
	101 -- 181	[pos="1197.1,860.62 1170.6,887.34 1115.7,942.57 1089.2,969.28"];
	102 -- 103	[pos="1300.4,571.43 1265,575.93 1202.9,583.82 1167.6,588.32"];
	146	[height=0.5,
		pos="1144.6,324.23",
		width=0.75];
	102 -- 146	[pos="1314.8,551.66 1281.6,507.24 1190,384.86 1156.8,340.53"];
	292 -- 295	[pos="674.96,568.67 633.24,582.76 548.74,611.3 507.09,625.37"];
	293	[height=0.5,
		pos="816.35,709.47",
		width=0.75];
	292 -- 293	[pos="711.91,576.36 734.3,604.9 780.98,664.4 803.57,693.18"];
	295 -- 320	[pos="484.79,651.79 488.58,685.66 496.69,757.98 500.48,791.77"];
	296	[height=0.5,
		pos="530.27,589.58",
		width=0.75];
	295 -- 296	[pos="498.57,618.94 503.65,614.23 509.27,609.03 514.35,604.32"];
	320 -- 389	[pos="518.69,795.04 574.37,743.98 757.66,575.88 812.89,525.23"];
	321	[height=0.5,
		pos="480.94,1045.2",
		width=0.75];
	320 -- 321	[pos="500.85,827.95 496.84,871.76 486.62,983.2 482.6,1027.1"];
	389 -- 411	[pos="820.09,493.23 798.16,449.3 740.83,334.45 719.06,290.84"];
	390	[height=0.5,
		pos="1005.2,371.52",
		width=0.75];
	389 -- 390	[pos="846.34,496.8 880.15,470.13 953.92,411.94 987.67,385.31"];
	106	[height=0.5,
		pos="1059.9,589.65",
		width=0.75];
	103 -- 106	[pos="1113.5,591.01 1105,590.79 1095.6,590.55 1087.1,590.34"];
	412	[height=0.5,
		pos="831.36,184.7",
		width=0.75];
	411 -- 412	[pos="728.86,260.19 751.71,243.37 790.48,214.81 813.23,198.06"];
	105 -- 106	[pos="1156,758 1135.8,722.67 1089.8,642.02 1069.7,606.72"];
	442	[height=0.5,
		pos="1382,857.31",
		width=0.75];
	105 -- 442	[pos="1189.3,784.07 1230.9,799.88 1316.9,832.57 1358.5,848.37"];
	213 -- 412	[pos="1028.9,260.48 986.35,244.15 897.33,210.01 854.87,193.72"];
	214	[height=0.5,
		pos="1275.2,435.36",
		width=0.75];
	213 -- 214	[pos="1070.8,283.13 1112.7,314.3 1215.2,390.71 1257,421.83"];
	109	[height=0.5,
		pos="805.26,459.54",
		width=0.75];
	106 -- 109	[pos="1038.2,578.56 990.1,553.97 874.98,495.16 826.92,470.6"];
	413	[height=0.5,
		pos="609.5,206.29",
		width=0.75];
	412 -- 413	[pos="804.6,187.31 761.95,191.45 679.06,199.52 636.36,203.67"];
	108 -- 109	[pos="766.04,611.34 774.46,578.76 792.23,509.98 800.65,477.39"];
	108 -- 141	[pos="760.51,647.27 758.26,691.12 752.54,802.67 750.28,846.58"];
	189 -- 413	[pos="742.19,201.11 712.72,202.26 665.9,204.08 636.47,205.23"];
	190	[height=0.5,
		pos="920.53,226.92",
		width=0.75];
	189 -- 190	[pos="795.64,204.73 823.32,209.65 866.58,217.33 894.24,222.25"];
	112	[height=0.5,
		pos="567.71,297.4",
		width=0.75];
	109 -- 112	[pos="786.22,446.54 741.74,416.18 631.41,340.87 586.84,310.45"];
	413 -- 414	[pos="595.25,221.69 560.73,259.01 472.89,353.98 438.32,391.36"];
	111 -- 112	[pos="454.22,317.02 479.21,312.7 516.59,306.24 541.54,301.92"];
	111 -- 119	[pos="455.15,323.44 493.78,326.1 564.09,330.94 602.66,333.6"];
	115	[height=0.5,
		pos="667.71,150.25",
		width=0.75];
	112 -- 115	[pos="578.99,280.8 598.19,252.54 637.04,195.38 656.32,167.01"];
	415	[height=0.5,
		pos="349.24,625.52",
		width=0.75];
	414 -- 415	[pos="417.9,424.71 403.84,465.83 369.38,566.63 355.34,607.69"];
	335 -- 415	[pos="339.44,783.44 341.54,749.61 346.02,677.36 348.12,643.61"];
	336	[height=0.5,
		pos="348.1,1103.7",
		width=0.75];
	335 -- 336	[pos="338.91,820.06 340.66,874.11 345.77,1031.7 347.51,1085.5"];
	114 -- 115	[pos="767.77,247.07 745.57,225.59 705.12,186.45 683.06,165.11"];
	147	[height=0.5,
		pos="945.6,432.32",
		width=0.75];
	114 -- 147	[pos="798.05,277.57 828.94,309.96 900.31,384.82 931.07,417.07"];
	115 -- 117	[pos="642.93,142.66 626.27,137.56 604.39,130.85 587.77,125.76"];
	416	[height=0.5,
		pos="328.7,534.45",
		width=0.75];
	415 -- 416	[pos="345.18,607.53 341.58,591.56 336.35,568.36 332.75,552.4"];
	119 -- 296	[pos="622.93,352.93 604.75,399.35 555.39,525.43 537.16,571.99"];
	119 -- 120	[pos="656.48,332.15 710.11,325.49 830.3,310.56 884.11,303.87"];
	296 -- 416	[pos="505.15,582.71 466.42,572.11 392.55,551.91 353.82,541.32"];
	297	[height=0.5,
		pos="811.36,822.68",
		width=0.75];
	296 -- 297	[pos="547.43,603.81 597.73,645.52 744.41,767.16 794.43,808.63"];
	121	[height=0.5,
		pos="643.18,273.22",
		width=0.75];
	117 -- 121	[pos="572.04,135.4 587.42,165.2 618.87,226.12 634.27,255.96"];
	416 -- 417	[pos="302.55,529.83 258.69,522.09 170.81,506.58 126.92,498.84"];
	120 -- 121	[pos="883.9,297.76 832.42,292.51 721.24,281.18 670.01,275.95"];
	120 -- 202	[pos="937.11,305.89 1021.4,323.23 1285.8,377.67 1369.8,394.97"];
	121 -- 123	[pos="637.33,291.09 621.18,340.43 576.09,478.18 559.92,527.61"];
	417 -- 418	[pos="89.283,511.02 78.343,527.09 61.947,551.17 51.092,567.12"];
	127	[height=0.5,
		pos="544.93,765.83",
		width=0.75];
	123 -- 127	[pos="553.3,563.57 551.59,604.88 547.4,706.01 545.68,747.56"];
	419	[height=0.5,
		pos="35.609,696.34",
		width=0.75];
	418 -- 419	[pos="39.22,601.66 38.417,622.71 37.1,657.23 36.298,678.26"];
	125 -- 126	[pos="985.35,649.76 944.71,698.84 822.65,846.24 782.34,894.91"];
	233	[height=0.5,
		pos="1183.5,636.45",
		width=0.75];
	125 -- 233	[pos="1025.9,634.08 1061,634.61 1121.5,635.52 1156.4,636.04"];
	324 -- 419	[pos="269.15,751.52 219.43,739.77 110.95,714.14 61.32,702.41"];
	324 -- 325	[pos="321.94,754.05 373.88,747.19 487.22,732.2 539.07,725.35"];
	126 -- 127	[pos="749.75,898.1 707.32,870.7 607.09,805.98 564.56,778.51"];
	126 -- 150	[pos="744.6,918.48 706.58,930.46 634.08,953.31 596.06,965.3"];
	127 -- 129	[pos="524.22,777.67 492.78,795.64 433.34,829.61 402,847.52"];
	420	[height=0.5,
		pos="171.94,664.66",
		width=0.75];
	419 -- 420	[pos="61.252,690.38 85.627,684.71 122.08,676.24 146.42,670.59"];
	156 -- 420	[pos="247.26,789.86 230.81,762.52 198.51,708.81 182.07,681.49"];
	157	[height=0.5,
		pos="227.96,936.69",
		width=0.75];
	156 -- 157	[pos="253.36,824.51 247.76,849.26 237.67,893.83 232.04,918.69"];
	129 -- 131	[pos="385.76,877.2 392.95,907.2 407.33,967.23 414.57,997.41"];
	421	[height=0.5,
		pos="389.6,490.41",
		width=0.75];
	420 -- 421	[pos="189.39,650.69 230.14,618.07 331.24,537.13 372.08,504.44"];
	302 -- 421	[pos="190.13,484.42 233.85,485.73 318.95,488.29 362.5,489.59"];
	303	[height=0.5,
		pos="180.84,527.63",
		width=0.75];
	302 -- 303	[pos="169.91,501 171.14,503.98 172.41,507.08 173.63,510.07"];
	134	[height=0.5,
		pos="453.48,1174.9",
		width=0.75];
	131 -- 134	[pos="422.83,1033.6 429.46,1064.2 442.88,1126.1 449.55,1156.8"];
	422	[height=0.5,
		pos="654.85,434.16",
		width=0.75];
	421 -- 422	[pos="415.52,484.91 466.23,474.16 578.03,450.45 628.82,439.68"];
	185 -- 390	[pos="740.04,383.13 795.54,380.7 922.04,375.16 977.84,372.72"];
	185 -- 186	[pos="740.08,384.99 771.87,385.78 824.4,387.09 856.26,387.88"];
	133 -- 134	[pos="489.87,1204.8 483.74,1199.8 476.85,1194.1 470.72,1189.1"];
	327	[height=0.5,
		pos="533.78,1089.8",
		width=0.75];
	133 -- 327	[pos="510.85,1201 515.91,1176.5 524.93,1132.7 530.02,1108"];
	390 -- 394	[pos="982.4,361.63 977,359.28 971.24,356.78 965.84,354.44"];
	391	[height=0.5,
		pos="1331.5,381.13",
		width=0.75];
	390 -- 391	[pos="1032.1,372.31 1093.5,374.12 1243,378.53 1304.5,380.33"];
	394 -- 422	[pos="918.51,352.19 864.06,369.12 733.76,409.63 679.36,426.54"];
	394 -- 395	[pos="963.71,356.58 1021.9,390.51 1186.6,486.64 1244.5,520.44"];
	137	[height=0.5,
		pos="688.47,1203.5",
		width=0.75];
	134 -- 137	[pos="480.44,1178.2 525.77,1183.7 616.71,1194.8 661.83,1200.3"];
	423	[height=0.5,
		pos="679.89,478.2",
		width=0.75];
	422 -- 423	[pos="664.46,451.06 666.33,454.36 668.3,457.82 670.18,461.13"];
	144 -- 423	[pos="638.15,502.58 644.94,498.62 652.5,494.2 659.31,490.22"];
	144 -- 145	[pos="644.28,509.69 695.22,500.51 806.37,480.49 857.22,471.32"];
	136 -- 137	[pos="985.23,1217.1 924.28,1214.3 776.77,1207.6 715.67,1204.7"];
	450	[height=0.5,
		pos="1322.4,1281.9",
		width=0.75];
	136 -- 450	[pos="1038.2,1223.7 1096.6,1235.6 1237.8,1264.6 1296.3,1276.5"];
	137 -- 139	[pos="684.75,1185.4 679.3,1159 669.19,1109.9 663.74,1083.5"];
	424	[height=0.5,
		pos="807.85,561.75",
		width=0.75];
	423 -- 424	[pos="699.32,490.89 723.37,506.6 764.1,533.18 788.23,548.94"];
	222 -- 377	[pos="1071.5,432.65 1078.6,474.23 1096.1,576.17 1103.2,617.69"];
	223	[height=0.5,
		pos="1204.2,368.58",
		width=0.75];
	222 -- 223	[pos="1092.6,406.33 1117.2,398.02 1155,385.23 1179.6,376.88"];
	377 -- 424	[pos="1080.9,629.42 1024.5,615.45 889.56,582 833.23,568.04"];
	378	[height=0.5,
		pos="1269.9,757.44",
		width=0.75];
	377 -- 378	[pos="1124.4,649.22 1155.9,672.61 1220.2,720.45 1251.7,743.89"];
	142	[height=0.5,
		pos="695.47,908.74",
		width=0.75];
	139 -- 142	[pos="664.09,1047.4 670.89,1017.4 684.5,957.23 691.34,926.99"];
	425	[height=0.5,
		pos="484.81,544.52",
		width=0.75];
	424 -- 425	[pos="780.86,560.31 720.06,557.07 572.9,549.22 511.95,545.97"];
	141 -- 142	[pos="732.01,878.9 725.85,883.93 718.93,889.58 712.78,894.6"];
	141 -- 176	[pos="776.55,865.1 802.41,865.45 841.08,865.98 866.9,866.33"];
	305 -- 425	[pos="449.8,546.71 452.41,546.55 455.06,546.38 457.67,546.22"];
	306	[height=0.5,
		pos="237.39,571.67",
		width=0.75];
	305 -- 306	[pos="396.2,551.74 361.06,556.15 299.47,563.88 264.2,568.31"];
	148	[height=0.5,
		pos="754.34,673.21",
		width=0.75];
	142 -- 148	[pos="699.99,890.65 710.98,846.7 738.97,734.72 749.88,691.04"];
	426	[height=0.5,
		pos="537.32,677.68",
		width=0.75];
	425 -- 426	[pos="491.79,562.21 501.83,587.67 520.26,634.42 530.32,659.93"];
	145 -- 237	[pos="908.36,474.31 956.98,489.48 1064.3,522.96 1112.8,538.06"];
	145 -- 146	[pos="904.49,455.17 953.37,428.52 1074.6,362.4 1123.6,335.69"];
	237 -- 308	[pos="1110.8,549.83 1015.8,564.6 693.3,614.78 598.44,629.53"];
	237 -- 238	[pos="1163.2,550.83 1235.7,565.12 1439.6,605.31 1512,619.59"];
	146 -- 147	[pos="1123.3,335.79 1085,356.6 1004.9,400.09 966.75,420.83"];
	146 -- 400	[pos="1161.9,310.24 1195.7,282.89 1270.2,222.58 1304,195.18"];
	308 -- 426	[pos="559.28,649.79 556.27,653.62 553.05,657.71 550.03,661.54"];
	309	[height=0.5,
		pos="348.69,669.56",
		width=0.75];
	308 -- 309	[pos="545.5,637.91 502.52,644.82 418.1,658.4 375.15,665.31"];
	147 -- 148	[pos="932.75,448.5 897.91,492.38 801.91,613.3 767.13,657.1"];
	397	[height=0.5,
		pos="1269.1,341.69",
		width=0.75];
	147 -- 397	[pos="970.72,425.28 1031,408.39 1183.3,365.72 1243.8,348.78"];
	151	[height=0.5,
		pos="509.39,942.24",
		width=0.75];
	148 -- 151	[pos="740.11,688.83 696.82,736.38 567,878.96 523.66,926.57"];
	427	[height=0.5,
		pos="706.83,818.97",
		width=0.75];
	426 -- 427	[pos="554.2,691.75 586.6,718.76 657.22,777.62 689.77,804.75"];
	176 -- 408	[pos="890.79,848.6 883.47,807.03 865.51,705.11 858.2,663.6"];
	176 -- 177	[pos="918.68,874.41 984.34,894.92 1162.6,950.6 1228.5,971.17"];
	150 -- 151	[pos="549.71,962.29 543.7,959.3 537.18,956.06 531.17,953.07"];
	150 -- 321	[pos="553.96,986.98 537.94,999.75 514.33,1018.6 498.33,1031.3"];
	408 -- 427	[pos="841.61,661.26 813.47,694.19 748.53,770.18 720.32,803.18"];
	409	[height=0.5,
		pos="821.38,409.94",
		width=0.75];
	408 -- 409	[pos="852.44,627.47 846.18,583.61 830.24,472.02 823.97,428.1"];
	154	[height=0.5,
		pos="405.1,903.45",
		width=0.75];
	151 -- 154	[pos="485.72,933.44 468.77,927.13 446.04,918.68 429.03,912.35"];
	428	[height=0.5,
		pos="783.23,954.73",
		width=0.75];
	427 -- 428	[pos="716.35,835.89 730.99,861.9 758.88,911.46 773.59,937.6"];
	232 -- 272	[pos="1129.8,745.17 1129.6,781.64 1129.2,863.01 1129,899.44"];
	232 -- 233	[pos="1140,709.86 1149.6,693.7 1163.9,669.52 1173.5,653.38"];
	272 -- 297	[pos="1104.3,910.3 1045.1,892.6 895.59,847.88 836.22,830.11"];
	273	[height=0.5,
		pos="1325,994.29",
		width=0.75];
	272 -- 273	[pos="1152.6,926.92 1190.4,941.69 1263.9,970.42 1301.5,985.13"];
	297 -- 428	[pos="807.51,840.76 802.12,866.05 792.4,911.7 787.04,936.87"];
	298	[height=0.5,
		pos="627.95,692.5",
		width=0.75];
	297 -- 298	[pos="792.77,809.48 757.61,784.53 681.78,730.71 646.59,705.73"];
	153 -- 154	[pos="552.07,1004 520.13,982.19 456.14,938.38 424.17,916.51"];
	493	[height=0.5,
		pos="715.89,955.49",
		width=0.75];
	153 -- 493	[pos="594.06,1007.3 621.16,995.79 665.99,976.72 693.06,965.21"];
	154 -- 157	[pos="378.96,908.35 345.47,914.64 287.75,925.47 254.21,931.77"];
	429	[height=0.5,
		pos="797.75,1199.5",
		width=0.75];
	428 -- 429	[pos="784.3,972.73 786.99,1018 793.99,1136.2 796.68,1181.5"];
	330 -- 366	[pos="659.48,1278.5 729.31,1281.8 915.21,1290.5 985.16,1293.8"];
	331	[height=0.5,
		pos="414.68,1246.6",
		width=0.75];
	330 -- 331	[pos="605.77,1273.5 563.85,1267.6 483.1,1256.2 441.26,1250.3"];
	366 -- 429	[pos="989.73,1285 948.53,1266.7 861.54,1227.9 820.32,1209.6"];
	367	[height=0.5,
		pos="1293.1,1408.9",
		width=0.75];
	366 -- 367	[pos="1035.7,1304.6 1088.7,1326.1 1217.2,1378.1 1269.9,1399.5"];
	160	[height=0.5,
		pos="286.08,1078",
		width=0.75];
	157 -- 160	[pos="235.21,954.3 246.4,981.52 267.79,1033.5 278.93,1060.6"];
	429 -- 430	[pos="808.63,1216.2 829.59,1248.4 875.32,1318.7 896.24,1350.9"];
	159 -- 160	[pos="453.72,913.06 419.29,946.93 335.96,1028.9 301.45,1062.9"];
	482	[height=0.5,
		pos="666.5,773.98",
		width=0.75];
	159 -- 482	[pos="488.66,885.68 526.42,861.96 608.7,810.28 646.62,786.46"];
	163	[height=0.5,
		pos="403.08,1334.6",
		width=0.75];
	160 -- 163	[pos="293.94,1095.2 315.2,1141.8 373.7,1270.2 395.1,1317.1"];
	430 -- 431	[pos="926.26,1354.6 958.44,1332.9 1022.9,1289.4 1055.1,1267.6"];
	162 -- 163	[pos="678.96,1499.8 624.71,1467.4 477.15,1379 423.19,1346.6"];
	438	[height=0.5,
		pos="911.35,1500.1",
		width=0.75];
	162 -- 438	[pos="726.61,1510.5 767.32,1508.2 843.52,1503.9 884.17,1501.6"];
	163 -- 165	[pos="416.35,1350.7 435.23,1373.5 469.65,1415.1 488.42,1437.8"];
	432	[height=0.5,
		pos="1140.8,1160.5",
		width=0.75];
	431 -- 432	[pos="1085.9,1238.3 1098,1221.1 1117,1194.2 1129.1,1177"];
	181 -- 432	[pos="1080.9,1001.9 1093.6,1035.7 1121.5,1109.3 1134.2,1143"];
	181 -- 182	[pos="1092.6,997.6 1100.4,1003.2 1109.4,1009.6 1117.2,1015.2"];
	165 -- 167	[pos="520.65,1466.7 546.54,1484.3 592.4,1515.5 618.24,1533.1"];
	433	[height=0.5,
		pos="1384.4,1294.9",
		width=0.75];
	432 -- 433	[pos="1162,1172.2 1208.2,1197.6 1317.5,1257.9 1363.4,1283.3"];
	358 -- 433	[pos="1436.2,1389.4 1424.7,1368.4 1405.3,1333 1393.8,1311.9"];
	358 -- 359	[pos="1425.6,1393.6 1379.2,1363.8 1264,1290 1217.9,1260.4"];
	167 -- 169	[pos="630.39,1563.7 628.16,1569.3 625.7,1575.6 623.47,1581.2"];
	434	[height=0.5,
		pos="1496.4,1287.1",
		width=0.75];
	433 -- 434	[pos="1411.5,1293 1429.1,1291.7 1452,1290.2 1469.6,1288.9"];
	251 -- 281	[pos="1784.1,1008.4 1730.9,1036.2 1593.7,1107.9 1540.7,1135.6"];
	252	[height=0.5,
		pos="1871.5,770.88",
		width=0.75];
	251 -- 252	[pos="1810.7,979.44 1823.1,937.13 1854,830.78 1866.3,788.55"];
	281 -- 434	[pos="1516.4,1164.8 1512,1191.7 1503.8,1242.2 1499.4,1269.1"];
	282	[height=0.5,
		pos="1513.8,1021.9",
		width=0.75];
	281 -- 282	[pos="1518.6,1128.6 1517.5,1104.9 1515.7,1063.7 1514.6,1040.1"];
	169 -- 171	[pos="630.79,1583.4 653.97,1558.2 699.51,1508.7 722.68,1483.5"];
	434 -- 435	[pos="1494.5,1305.2 1489.7,1349 1477.6,1460.7 1472.8,1504.6"];
	174	[height=0.5,
		pos="821.11,1301.7",
		width=0.75];
	171 -- 174	[pos="745.64,1450.9 761.77,1419 796.16,1351 812.34,1319"];
	435 -- 436	[pos="1444.5,1527.2 1387.8,1536.7 1254.8,1559 1197.9,1568.5"];
	173 -- 174	[pos="892.2,1285.4 878.2,1288.6 860.92,1292.6 846.91,1295.8"];
	269	[height=0.5,
		pos="1202.9,1193.9",
		width=0.75];
	173 -- 269	[pos="942.67,1272 996.57,1255.8 1123.9,1217.6 1177.9,1201.4"];
	179	[height=0.5,
		pos="932.7,1045.1",
		width=0.75];
	174 -- 179	[pos="828.78,1284.1 849.21,1237.1 904.79,1109.3 925.12,1062.5"];
	437	[height=0.5,
		pos="1059.5,1513.2",
		width=0.75];
	436 -- 437	[pos="1150,1561.6 1130.1,1551 1100.6,1535.2 1080.7,1524.6"];
	177 -- 178	[pos="1227.4,973.57 1191.9,966.23 1128.4,953.11 1092.8,945.75"];
	177 -- 268	[pos="1261.4,996.24 1277.9,1032 1315.6,1113.5 1332,1149.2"];
	342 -- 437	[pos="1090.3,1422.1 1083.5,1442.4 1072.3,1475.3 1065.5,1495.5"];
	342 -- 343	[pos="1070.2,1408.9 1038.5,1414.7 985.8,1424.5 954.27,1430.3"];
	178 -- 179	[pos="1049.3,954.06 1023.6,974.13 975.93,1011.3 950.23,1031.4"];
	224	[height=0.5,
		pos="1192.1,690.7",
		width=0.75];
	178 -- 224	[pos="1075.4,923.21 1098.3,877.6 1160.5,753.73 1183.4,707.98"];
	183	[height=0.5,
		pos="1024.8,870.83",
		width=0.75];
	179 -- 183	[pos="941.7,1028.1 959.31,994.75 998.14,921.29 1015.8,887.92"];
	437 -- 438	[pos="1032.6,1510.8 1006,1508.5 965.25,1504.9 938.47,1502.5"];
	182 -- 183	[pos="1123.9,1011.9 1102.6,981.51 1057.5,917.35 1036.3,887.17"];
	441	[height=0.5,
		pos="1118.8,1072.5",
		width=0.75];
	182 -- 441	[pos="1128.8,1046.1 1127.7,1049 1126.6,1051.9 1125.5,1054.8"];
	187	[height=0.5,
		pos="1074.7,545.65",
		width=0.75];
	183 -- 187	[pos="1027.6,852.88 1036.3,796.16 1063.1,621.14 1071.9,563.94"];
	438 -- 439	[pos="925.87,1484.7 952.83,1456.2 1010.3,1395.5 1037.4,1366.9"];
	186 -- 187	[pos="900.72,402.78 937.13,432.69 1021.3,501.8 1057.5,531.58"];
	186 -- 289	[pos="906.23,398.79 954.24,420.32 1065.2,470.05 1113,491.48"];
	187 -- 190	[pos="1066.4,528.51 1039.6,473.17 955.68,299.6 928.86,244.14"];
	440	[height=0.5,
		pos="1136.4,1225.7",
		width=0.75];
	439 -- 440	[pos="1063.2,1334.7 1079.3,1310.7 1109,1266.6 1125.1,1242.5"];
	284 -- 440	[pos="1254.9,1153.6 1228.6,1169.6 1182.8,1197.4 1156.5,1213.4"];
	285	[height=0.5,
		pos="1575.9,977.85",
		width=0.75];
	284 -- 285	[pos="1296.2,1129.8 1351.4,1099.8 1499.5,1019.3 1554.8,989.33"];
	193	[height=0.5,
		pos="1080.1,224.59",
		width=0.75];
	190 -- 193	[pos="947.61,226.52 976.96,226.09 1023.5,225.41 1052.9,224.98"];
	440 -- 441	[pos="1134.3,1207.5 1130.9,1178 1124.3,1120.1 1120.9,1090.6"];
	192 -- 193	[pos="1297.8,144.82 1251.5,161.8 1150.4,198.85 1104.1,215.81"];
	192 -- 223	[pos="1313.2,153.11 1291.5,196.12 1234.6,308.41 1212.8,351.45"];
	197	[height=0.5,
		pos="1259.3,145.54",
		width=0.75];
	193 -- 197	[pos="1102.8,214.58 1137.2,199.41 1202.1,170.78 1236.5,155.59"];
	441 -- 442	[pos="1136.1,1058.3 1183.8,1019.4 1316.9,910.52 1364.7,871.48"];
	195 -- 196	[pos="1435.5,149.94 1416.4,180.46 1376.1,244.82 1356.9,275.54"];
	465	[height=0.5,
		pos="1552.2,197.91",
		width=0.75];
	195 -- 465	[pos="1466,145.36 1484.8,156.86 1513,174.02 1531.9,185.57"];
	196 -- 197	[pos="1336.3,275.68 1319.6,247.48 1286.2,191.03 1269.4,162.66"];
	240	[height=0.5,
		pos="1453.6,573.19",
		width=0.75];
	196 -- 240	[pos="1353,310.1 1372.3,360.5 1427.7,505.25 1446.9,555.64"];
	200	[height=0.5,
		pos="1135.2,180.22",
		width=0.75];
	197 -- 200	[pos="1234.2,152.56 1212.6,158.58 1181.8,167.2 1160.2,173.22"];
	443	[height=0.5,
		pos="1553,856.1",
		width=0.75];
	442 -- 443	[pos="1409.1,857.12 1441,856.89 1493.8,856.52 1525.8,856.3"];
	199 -- 200	[pos="1042.9,208.37 1062.8,202.31 1090.5,193.85 1110.4,187.79"];
	396	[height=0.5,
		pos="1130.9,370.19",
		width=0.75];
	199 -- 396	[pos="1030,232.16 1051.6,261.71 1097.1,324 1118.9,353.73"];
	383 -- 443	[pos="1596.6,690.43 1587.4,725.62 1566.9,803.33 1557.7,838.36"];
	383 -- 384	[pos="1619,658.63 1654.3,631 1732.8,569.37 1768,541.78"];
	203	[height=0.5,
		pos="1348.4,225.16",
		width=0.75];
	200 -- 203	[pos="1161.3,185.73 1202.4,194.38 1281.4,211.04 1322.4,219.67"];
	443 -- 444	[pos="1557.3,873.95 1565.2,907.08 1582,977.71 1590,1011"];
	202 -- 203	[pos="1390.9,382.54 1381.8,348.97 1362.3,276.57 1353.2,242.96"];
	202 -- 256	[pos="1416.3,412.1 1485.8,451.82 1710.9,580.38 1780.4,620.06"];
	203 -- 205	[pos="1353.6,243.09 1365.5,284.29 1394.8,385.3 1406.7,426.45"];
	445	[height=0.5,
		pos="1537.1,1197.4",
		width=0.75];
	444 -- 445	[pos="1588.2,1046.7 1577.3,1079 1554.1,1147.3 1543.1,1179.7"];
	268 -- 445	[pos="1366.6,1170.6 1404.3,1176.6 1473,1187.3 1510.6,1193.3"];
	268 -- 269	[pos="1313.9,1171.7 1289.5,1176.6 1253.3,1183.8 1228.9,1188.7"];
	211	[height=0.5,
		pos="1289,668.26",
		width=0.75];
	205 -- 211	[pos="1402.4,461.52 1379.5,503.31 1321.1,609.78 1298.3,651.31"];
	446	[height=0.5,
		pos="1754.6,1237.1",
		width=0.75];
	445 -- 446	[pos="1563.3,1202.2 1605.1,1209.8 1686.4,1224.6 1728.3,1232.3"];
	207 -- 208	[pos="1716.9,844.96 1695,850.16 1663.5,857.62 1641.5,862.82"];
	207 -- 261	[pos="1757.3,854.31 1778.1,876.12 1816,915.77 1836.9,937.65"];
	208 -- 209	[pos="1591,861.85 1558.5,852.69 1502.1,836.76 1469.6,827.59"];
	452	[height=0.5,
		pos="1449.3,932.08",
		width=0.75];
	208 -- 452	[pos="1592.4,877.8 1560.7,889.81 1504.7,911.06 1473,923.1"];
	261 -- 278	[pos="1851.2,971.4 1850.3,1001.5 1848.6,1061.2 1847.8,1091.2"];
	262	[height=0.5,
		pos="1963.3,1039.5",
		width=0.75];
	261 -- 262	[pos="1869.7,967.06 1890.5,983.17 1924.6,1009.6 1945.4,1025.7"];
	278 -- 446	[pos="1835.3,1125.7 1817.5,1150.3 1784.2,1196.2 1766.5,1220.7"];
	279	[height=0.5,
		pos="1659,1049",
		width=0.75];
	278 -- 279	[pos="1822.6,1101.4 1786.5,1089.9 1719.7,1068.5 1683.6,1056.9"];
	209 -- 210	[pos="1423.3,831.63 1370.5,858.93 1234.5,929.22 1181.4,956.66"];
	477	[height=0.5,
		pos="1564.4,743.38",
		width=0.75];
	209 -- 477	[pos="1464.2,807.99 1486.4,793.64 1522.6,770.3 1544.9,755.95"];
	210 -- 211	[pos="1167.2,950.45 1190.1,897.5 1258.6,738.72 1281.5,685.71"];
	498	[height=0.5,
		pos="934.28,1137",
		width=0.75];
	210 -- 498	[pos="1141.7,981.41 1099.4,1013.1 994.74,1091.7 952.44,1123.4"];
	211 -- 214	[pos="1288,649.98 1285.4,606.45 1278.8,497 1276.3,453.55"];
	446 -- 447	[pos="1755.3,1255.3 1756,1272.1 1756.9,1296.8 1757.6,1313.5"];
	217	[height=0.5,
		pos="1517.9,309.23",
		width=0.75];
	214 -- 217	[pos="1296.7,424.16 1342.8,400.23 1450.4,344.31 1496.4,320.4"];
	448	[height=0.5,
		pos="1707.6,1445.3",
		width=0.75];
	447 -- 448	[pos="1750.6,1349 1741,1370.3 1724.9,1406.5 1715.3,1427.9"];
	216 -- 217	[pos="1612.1,306.29 1592.1,306.91 1565.1,307.76 1545.1,308.38"];
	458	[height=0.5,
		pos="1775.5,371.4",
		width=0.75];
	216 -- 458	[pos="1661.2,316.03 1686.5,328.27 1727.8,348.29 1753.2,360.61"];
	362 -- 448	[pos="1747.9,1465.3 1741.9,1462.3 1735.4,1459.1 1729.4,1456.1"];
	362 -- 363	[pos="1776,1458.4 1787.2,1427.1 1810.3,1362.5 1821.5,1331.3"];
	220	[height=0.5,
		pos="1535.8,516.94",
		width=0.75];
	217 -- 220	[pos="1519.5,327.3 1522.9,366.58 1530.9,459.39 1534.3,498.77"];
	449	[height=0.5,
		pos="1519.5,1434.7",
		width=0.75];
	448 -- 449	[pos="1680.6,1443.8 1645,1441.8 1582.5,1438.3 1546.7,1436.3"];
	219 -- 220	[pos="1647.8,506.39 1623.4,508.69 1587.5,512.08 1563,514.39"];
	454	[height=0.5,
		pos="1663.4,681.9",
		width=0.75];
	219 -- 454	[pos="1673.4,521.92 1671.3,556.05 1666.7,629.65 1664.5,663.81"];
	371 -- 449	[pos="1458.2,1348.2 1471.8,1367.4 1494.2,1399 1507.8,1418.2"];
	372	[height=0.5,
		pos="1397.1,1234",
		width=0.75];
	371 -- 372	[pos="1437.6,1314.2 1428.6,1296.4 1414.8,1269 1405.8,1251.3"];
	226	[height=0.5,
		pos="1351,669.39",
		width=0.75];
	220 -- 226	[pos="1518.8,531.01 1483.6,560.06 1403.2,626.34 1368.1,655.36"];
	449 -- 450	[pos="1501.7,1420.9 1464.2,1391.8 1377.4,1324.5 1340.1,1295.6"];
	223 -- 224	[pos="1203.5,386.82 1201.4,443.51 1194.9,616.23 1192.8,672.66"];
	223 -- 228	[pos="1223.4,355.73 1275.5,320.88 1419,224.85 1471,190.06"];
	224 -- 225	[pos="1188,708.57 1180,743.55 1162.2,820.66 1154.2,855.7"];
	491	[height=0.5,
		pos="1087.5,857.1",
		width=0.75];
	224 -- 491	[pos="1181.5,707.57 1161.4,739.46 1118.2,808.26 1098.1,840.19"];
	225 -- 226	[pos="1165.2,858.29 1202.5,820.35 1298.8,722.48 1336,684.64"];
	506	[height=0.5,
		pos="994.73,1034.7",
		width=0.75];
	225 -- 506	[pos="1135.4,888.79 1105.8,919.48 1039.1,988.68 1009.4,1019.4"];
	230	[height=0.5,
		pos="1327,513.3",
		width=0.75];
	226 -- 230	[pos="1348.2,651.18 1343.6,621.1 1334.4,561.4 1329.8,531.4"];
	450 -- 451	[pos="1333.7,1265.3 1349,1242.9 1376,1203.3 1391.3,1181"];
	228 -- 229	[pos="1466.1,185.52 1426.5,199.11 1348,226.05 1308.3,239.67"];
	459	[height=0.5,
		pos="1626,118.51",
		width=0.75];
	228 -- 459	[pos="1512.9,167.43 1538,156.59 1578.1,139.24 1603.2,128.38"];
	229 -- 230	[pos="1287,266.22 1294.9,314.8 1316.3,446.96 1324.1,495.29"];
	485	[height=0.5,
		pos="1349.7,469.29",
		width=0.75];
	229 -- 485	[pos="1289.4,265.72 1301.6,307.15 1332.1,409.95 1344.4,451.47"];
	235	[height=0.5,
		pos="1307.6,623.8",
		width=0.75];
	230 -- 235	[pos="1323.8,531.55 1320.2,552.14 1314.3,585.44 1310.7,605.9"];
	451 -- 452	[pos="1406.1,1146.7 1414.8,1103.4 1437,993.33 1445.7,949.99"];
	233 -- 234	[pos="1173.7,653.28 1154.4,686.22 1112,758.85 1092.8,791.84"];
	233 -- 380	[pos="1203,623.82 1246.1,595.84 1349.3,528.88 1392.3,500.93"];
	234 -- 235	[pos="1100.1,794.54 1142.1,760.03 1248.9,672.1 1290.6,637.8"];
	494	[height=0.5,
		pos="879.97,955.97",
		width=0.75];
	234 -- 494	[pos="1064.5,822.07 1026,850.03 937.06,914.54 898.44,942.57"];
	241	[height=0.5,
		pos="1598.3,560.11",
		width=0.75];
	235 -- 241	[pos="1333.4,618.15 1388.6,606.06 1517.5,577.82 1572.6,565.75"];
	453	[height=0.5,
		pos="1502.3,723.91",
		width=0.75];
	452 -- 453	[pos="1453.8,914.33 1463.8,875.1 1487.7,781.37 1497.8,741.91"];
	238 -- 239	[pos="1543.9,642.38 1555,675.27 1578.7,745.52 1589.8,778.34"];
	456	[height=0.5,
		pos="1738.9,592.89",
		width=0.75];
	238 -- 456	[pos="1564.2,620.54 1602.7,614.44 1674.1,603.15 1712.7,597.05"];
	239 -- 240	[pos="1585.1,779.18 1558.7,737.8 1490.6,631.09 1464.3,589.82"];
	239 -- 285	[pos="1593.8,814.03 1590,848.91 1581.7,925 1577.9,959.82"];
	240 -- 241	[pos="1480.5,570.76 1506.3,568.43 1545.2,564.92 1571.1,562.57"];
	479	[height=0.5,
		pos="1203,556.67",
		width=0.75];
	240 -- 479	[pos="1426.3,571.39 1378,568.21 1277.9,561.61 1229.9,558.44"];
	395 -- 453	[pos="1282.4,546.46 1326.3,581.88 1440.9,674.36 1484.9,709.81"];
	395 -- 396	[pos="1251.9,516.53 1226.3,485.6 1170,417.51 1144.2,386.34"];
	241 -- 243	[pos="1621,550.3 1657.1,534.68 1727.4,504.3 1763.6,488.65"];
	453 -- 454	[pos="1527.5,717.35 1557.7,709.48 1607.9,696.37 1638.2,688.49"];
	246	[height=0.5,
		pos="1975.3,504.31",
		width=0.75];
	243 -- 246	[pos="1813,482.41 1849,487.27 1912.8,495.88 1948.8,500.73"];
	455	[height=0.5,
		pos="1687.1,782.06",
		width=0.75];
	454 -- 455	[pos="1667.6,699.81 1671.9,717.93 1678.5,745.79 1682.8,763.97"];
	245 -- 246	[pos="1688.7,457.01 1747.8,466.76 1890.1,490.25 1949.1,499.98"];
	245 -- 391	[pos="1636.6,447.1 1575,433.77 1419.2,400.1 1357.4,386.73"];
	346 -- 455	[pos="1702.2,954.35 1699,917.93 1691.9,836.66 1688.7,800.28"];
	346 -- 347	[pos="1699.5,990.5 1691.3,1024.3 1673.7,1097.2 1665.5,1131"];
	249	[height=0.5,
		pos="2059,558.98",
		width=0.75];
	246 -- 249	[pos="1994.7,516.99 2008.2,525.82 2026.2,537.55 2039.7,546.37"];
	455 -- 456	[pos="1692,764.27 1701.8,728.21 1724.1,646.91 1734,610.78"];
	248 -- 249	[pos="1917.7,430.91 1947.9,458.27 2012.3,516.63 2042.5,544.1"];
	462	[height=0.5,
		pos="1941.5,265.85",
		width=0.75];
	248 -- 462	[pos="1906.2,398.33 1913.9,369.4 1929.1,312.58 1936.8,283.66"];
	249 -- 252	[pos="2045.2,574.56 2010.5,613.74 1920,716.06 1885.3,755.27"];
	457	[height=0.5,
		pos="1850.2,461.22",
		width=0.75];
	456 -- 457	[pos="1752.4,577.01 1773.7,551.7 1815.3,502.5 1836.7,477.16"];
	384 -- 457	[pos="1800.3,512.81 1810.7,502.05 1824.6,487.62 1835.1,476.77"];
	385	[height=0.5,
		pos="1538.2,472.93",
		width=0.75];
	384 -- 385	[pos="1759.6,522.17 1712,511.58 1611.3,489.18 1563.9,478.64"];
	252 -- 254	[pos="1872,752.48 1872.4,737.15 1872.9,715.42 1873.3,700.17"];
	457 -- 458	[pos="1836.8,445.16 1823.2,428.81 1802.3,403.61 1788.7,387.32"];
	257	[height=0.5,
		pos="1863.1,638.11",
		width=0.75];
	254 -- 257	[pos="1869.4,664.21 1868.8,661.55 1868.1,658.8 1867.5,656.13"];
	458 -- 459	[pos="1765.5,354.41 1738.2,308.34 1663.2,181.4 1636,135.42"];
	256 -- 257	[pos="1828.1,634.57 1830.8,634.85 1833.6,635.13 1836.3,635.4"];
	351	[height=0.5,
		pos="1678.5,869.01",
		width=0.75];
	256 -- 351	[pos="1792.2,648.89 1769.7,692.55 1710,807.96 1687.4,851.79"];
	257 -- 259	[pos="1872.4,655.01 1895,695.96 1952.4,800.16 1975,841.17"];
	459 -- 460	[pos="1625.2,136.77 1624.9,142.75 1624.6,149.39 1624.3,155.35"];
	259 -- 262	[pos="1982.3,876.19 1978.3,910.96 1969.4,986.84 1965.4,1021.6"];
	460 -- 461	[pos="1641.6,187.02 1680.4,216.25 1771.2,284.54 1810.1,313.74"];
	262 -- 264	[pos="1964.9,1058 1966.4,1075.6 1968.6,1102 1970.1,1119.5"];
	461 -- 462	[pos="1849.3,315.95 1869.5,304.97 1899.9,288.46 1920.2,277.43"];
	264 -- 266	[pos="1945.6,1143.3 1897.3,1153.9 1794.1,1176.7 1745.8,1187.3"];
	462 -- 463	[pos="1917.3,274.28 1883.6,286.02 1822.7,307.2 1789,318.95"];
	270	[height=0.5,
		pos="1475.1,1190.8",
		width=0.75];
	266 -- 270	[pos="1692.8,1192.8 1645.8,1192.4 1549.5,1191.5 1502.3,1191"];
	464	[height=0.5,
		pos="1467.3,398.26",
		width=0.75];
	463 -- 464	[pos="1739.1,333.47 1682.9,346.87 1549.2,378.73 1492.9,392.14"];
	269 -- 270	[pos="1230,1193.6 1282,1193 1395.4,1191.7 1447.7,1191.1"];
	497	[height=0.5,
		pos="950.25,1185.8",
		width=0.75];
	269 -- 497	[pos="1175.8,1193.1 1127.3,1191.5 1026.1,1188.2 977.47,1186.7"];
	380 -- 464	[pos="1422.2,471.39 1432.1,455.28 1447,431.2 1456.9,415.13"];
	381	[height=0.5,
		pos="1475.9,617.76",
		width=0.75];
	380 -- 381	[pos="1420.3,505.52 1432.5,530.27 1455.1,575.71 1467.4,600.5"];
	270 -- 273	[pos="1462.8,1174.7 1434.6,1137.9 1365.7,1047.7 1337.4,1010.6"];
	464 -- 465	[pos="1474.6,380.83 1490.7,342.94 1528.6,253.42 1544.7,215.44"];
	276	[height=0.5,
		pos="1449.1,983.27",
		width=0.75];
	273 -- 276	[pos="1351.9,991.9 1372.7,990.05 1401.4,987.5 1422.2,985.66"];
	466	[height=0.5,
		pos="1635.2,261.39",
		width=0.75];
	465 -- 466	[pos="1570.2,211.68 1584.1,222.33 1603.3,237 1617.2,247.64"];
	275 -- 276	[pos="1430.1,793.62 1434,832.9 1443.3,925.71 1447.3,965.09"];
	286	[height=0.5,
		pos="1490.3,768.04",
		width=0.75];
	275 -- 286	[pos="1454.9,772.32 1457.8,771.97 1460.7,771.61 1463.6,771.26"];
	400 -- 466	[pos="1346.7,187.64 1405.7,202.71 1551.2,239.92 1609.9,254.94"];
	401	[height=0.5,
		pos="1186.4,53.703",
		width=0.75];
	400 -- 401	[pos="1305.6,166.27 1279.6,141.72 1228,92.969 1202.1,68.476"];
	276 -- 279	[pos="1473.6,990.94 1513.9,1003.6 1593.9,1028.6 1634.3,1041.3"];
	466 -- 467	[pos="1657.8,271.78 1703.7,292.87 1807.5,340.5 1853.3,361.5"];
	279 -- 282	[pos="1632.7,1044.1 1606.4,1039.2 1566.2,1031.7 1539.9,1026.8"];
	467 -- 468	[pos="1880.4,389.57 1887.1,415.2 1899.5,462.24 1906.3,487.91"];
	287	[height=0.5,
		pos="1363.9,812.07",
		width=0.75];
	282 -- 287	[pos="1502.1,1005.4 1474,966.2 1403.6,867.6 1375.6,828.46"];
	468 -- 469	[pos="1914.7,523.63 1917.9,538.84 1922.4,560.59 1925.6,575.87"];
	285 -- 286	[pos="1568.7,960.32 1552.6,920.83 1513.6,825.25 1497.5,785.66"];
	474	[height=0.5,
		pos="1785.2,1085.2",
		width=0.75];
	285 -- 474	[pos="1597.5,988.94 1637.7,1009.6 1723.6,1053.6 1763.7,1074.2"];
	286 -- 287	[pos="1466.2,776.42 1443.7,784.26 1410.3,795.89 1387.9,803.71"];
	488	[height=0.5,
		pos="1475.1,679.72",
		width=0.75];
	286 -- 488	[pos="1487.1,749.74 1484.5,734.48 1480.8,712.86 1478.2,697.7"];
	290	[height=0.5,
		pos="1121.5,679.77",
		width=0.75];
	287 -- 290	[pos="1342.8,800.56 1297,775.54 1188.7,716.43 1142.7,691.35"];
	469 -- 470	[pos="1929.7,612.14 1930.6,652.99 1932.5,751.86 1933.3,792.81"];
	289 -- 290	[pos="1134.2,519.67 1131.5,553.82 1125.6,627.47 1122.9,661.66"];
	289 -- 405	[pos="1123.9,485.02 1093.9,442.46 1014.6,329.77 984.71,287.37"];
	290 -- 293	[pos="1094.7,682.38 1037,688 901.41,701.19 843.43,706.84"];
	470 -- 471	[pos="1935.4,829.07 1937.9,855.81 1942.6,905.73 1945.1,932.69"];
	293 -- 298	[pos="789.35,707.04 753.54,703.81 690.68,698.15 654.89,694.92"];
	472	[height=0.5,
		pos="2079.4,1138.3",
		width=0.75];
	471 -- 472	[pos="1958.4,967.37 1983.5,1002.8 2042.7,1086.4 2067.8,1121.9"];
	363 -- 472	[pos="1846.8,1300.4 1893.5,1267.9 2014.1,1183.9 2060.7,1151.4"];
	364	[height=0.5,
		pos="1621.1,1427.3",
		width=0.75];
	363 -- 364	[pos="1806.9,1325.1 1767.3,1346.9 1681.8,1393.9 1642.1,1415.7"];
	298 -- 300	[pos="605.17,682.59 563.56,664.51 475.71,626.32 434.09,608.22"];
	473	[height=0.5,
		pos="1901,1161.9",
		width=0.75];
	472 -- 473	[pos="2052.7,1141.9 2019,1146.3 1961.3,1154 1927.6,1158.4"];
	347 -- 473	[pos="1688.2,1150.4 1734.4,1152.9 1827.9,1158 1874,1160.5"];
	348	[height=0.5,
		pos="1508.5,1346.7",
		width=0.75];
	347 -- 348	[pos="1648.7,1165.1 1620,1202.3 1549.6,1293.5 1520.9,1330.6"];
	300 -- 303	[pos="386.63,590.75 342.39,577.18 250.03,548.85 205.67,535.25"];
	473 -- 474	[pos="1881.6,1149.1 1860.2,1134.9 1826,1112.3 1804.6,1098.1"];
	303 -- 306	[pos="198.42,541.33 205.17,546.58 212.86,552.57 219.63,557.84"];
	475	[height=0.5,
		pos="1769.5,953.19",
		width=0.75];
	474 -- 475	[pos="1783,1067.2 1780.1,1042 1774.7,996.74 1771.7,971.48"];
	350 -- 475	[pos="1787.8,1023.4 1783.8,1008.1 1778.1,986.24 1774.1,970.98"];
	350 -- 351	[pos="1781.5,1024.7 1759.8,991.87 1711.4,918.72 1689.6,885.72"];
	306 -- 309	[pos="253.82,586.12 274.86,604.62 311.13,636.52 332.2,655.06"];
	475 -- 476	[pos="1774.2,935.26 1781.5,907.19 1795.5,853.19 1802.8,825.03"];
	309 -- 311	[pos="332.46,683.97 292.45,719.5 189.42,810.99 149.21,846.69"];
	476 -- 477	[pos="1782,800.27 1735.2,788.03 1636.2,762.15 1589.6,749.97"];
	311 -- 313	[pos="158.67,866.65 173.94,869.82 193.2,873.83 208.46,877"];
	478	[height=0.5,
		pos="1390.6,585.79",
		width=0.75];
	477 -- 478	[pos="1548.3,728.84 1515.2,698.82 1439.7,630.29 1406.6,600.3"];
	391 -- 478	[pos="1336.6,398.93 1347.8,437.64 1374.2,529.08 1385.5,567.88"];
	392	[height=0.5,
		pos="1384,135.72",
		width=0.75];
	391 -- 392	[pos="1335.3,363.09 1345,317.7 1370.4,199.21 1380.1,153.8"];
	313 -- 315	[pos="239.56,900.07 247.82,927.77 263.71,981.08 271.99,1008.9"];
	478 -- 479	[pos="1364.2,581.68 1328.4,576.13 1265,566.3 1229.3,560.76"];
	318	[height=0.5,
		pos="120.47,1110.1",
		width=0.75];
	315 -- 318	[pos="256.16,1038 226.23,1053.9 171.81,1082.8 141.79,1098.8"];
	480	[height=0.5,
		pos="878.44,689.69",
		width=0.75];
	479 -- 480	[pos="1179.9,566.13 1120.2,590.59 961.39,655.69 901.62,680.19"];
	325 -- 480	[pos="592.85,719.03 651.92,712.96 792.36,698.53 851.48,692.46"];
	325 -- 326	[pos="572.23,739.45 583.33,770.64 606.3,835.1 617.4,866.26"];
	317 -- 318	[pos="215.04,1226.7 194.37,1201.2 154.19,1151.7 133.49,1126.2"];
	501	[height=0.5,
		pos="471.16,1365.6",
		width=0.75];
	317 -- 501	[pos="249.59,1253.6 295.73,1276.9 403.53,1331.4 449.63,1354.7"];
	322	[height=0.5,
		pos="184.13,1108.1",
		width=0.75];
	318 -- 322	[pos="147.47,1109.3 150.58,1109.2 153.77,1109.1 156.89,1109"];
	481	[height=0.5,
		pos="644.08,828.15",
		width=0.75];
	480 -- 481	[pos="858.05,701.73 813.73,727.92 709.02,789.78 664.59,816.03"];
	326 -- 481	[pos="630.14,866.26 632.52,859.75 635.21,852.38 637.6,845.86"];
	326 -- 327	[pos="616.02,901.45 599.03,940.35 558.39,1033.4 541.42,1072.3"];
	321 -- 322	[pos="455.12,1050.7 398.99,1062.6 266.37,1090.7 210.1,1102.6"];
	504	[height=0.5,
		pos="609.81,1229.5",
		width=0.75];
	321 -- 504	[pos="492.38,1061.6 516.83,1096.5 573.97,1178.2 598.4,1213.2"];
	328	[height=0.5,
		pos="362.11,1202.5",
		width=0.75];
	322 -- 328	[pos="205.6,1119.5 239.9,1137.7 306.67,1173.1 340.84,1191.3"];
	481 -- 482	[pos="651.3,810.71 653.86,804.52 656.73,797.57 659.29,791.38"];
	327 -- 328	[pos="514.42,1102.5 481.36,1124.2 414.41,1168.2 381.4,1189.9"];
	496	[height=0.5,
		pos="740.18,1155.5",
		width=0.75];
	327 -- 496	[pos="558.26,1097.6 597.99,1110.2 676.02,1135.1 715.72,1147.7"];
	328 -- 331	[pos="379.03,1216.7 385.03,1221.7 391.79,1227.4 397.79,1232.4"];
	483	[height=0.5,
		pos="1007.1,520.39",
		width=0.75];
	482 -- 483	[pos="684.81,760.34 743.95,716.31 929.44,578.22 988.71,534.1"];
	396 -- 483	[pos="1117.9,385.98 1094.2,414.75 1044.2,475.41 1020.3,504.36"];
	396 -- 397	[pos="1156.9,364.83 1181.6,359.73 1218.6,352.11 1243.3,347.02"];
	331 -- 333	[pos="387.81,1244.4 369.54,1242.9 345.47,1240.9 327.16,1239.5"];
	484	[height=0.5,
		pos="1201.9,412.61",
		width=0.75];
	483 -- 484	[pos="1028,508.86 1065.4,488.17 1143.4,444.97 1180.9,424.22"];
	405 -- 484	[pos="993.04,283.26 1036.3,310.05 1138.5,373.35 1181.9,400.21"];
	406	[height=0.5,
		pos="887.8,124.45",
		width=0.75];
	405 -- 406	[pos="963.34,254.13 946.97,226.02 914.21,169.78 897.74,141.51"];
	333 -- 336	[pos="306.44,1219.5 315.63,1194 332.49,1147.1 341.69,1121.5"];
	484 -- 485	[pos="1225.4,421.59 1252.9,432.14 1298.3,449.55 1325.9,460.16"];
	336 -- 338	[pos="360.95,1119.7 386.04,1151 441.29,1220 466.58,1251.6"];
	486	[height=0.5,
		pos="1600,619.88",
		width=0.75];
	485 -- 486	[pos="1369.8,481.36 1416.7,509.56 1532.9,579.5 1579.8,607.76"];
	351 -- 486	[pos="1672.8,851.09 1658.4,805.13 1620,683.43 1605.6,637.64"];
	352	[height=0.5,
		pos="1599.1,1164.6",
		width=0.75];
	351 -- 352	[pos="1673.6,887.05 1659.4,939.94 1618,1094.2 1603.9,1146.7"];
	338 -- 340	[pos="503.94,1276 570.23,1297.9 753.96,1358.8 820.52,1380.8"];
	487	[height=0.5,
		pos="1391.6,535.6",
		width=0.75];
	486 -- 487	[pos="1576.9,610.54 1536.8,594.34 1454.9,561.22 1414.8,544.99"];
	397 -- 487	[pos="1279.8,358.56 1303,395.32 1357.9,482.31 1381,518.91"];
	398	[height=0.5,
		pos="1197.2,187.31",
		width=0.75];
	397 -- 398	[pos="1261,324.28 1247.2,294.63 1219.3,234.66 1205.4,204.89"];
	344	[height=0.5,
		pos="1108.8,1301.5",
		width=0.75];
	340 -- 344	[pos="869.35,1380.9 919.61,1364.2 1034.3,1326.2 1084.5,1309.6"];
	487 -- 488	[pos="1401.3,552.42 1417.3,580.04 1449,634.73 1465.2,662.57"];
	343 -- 344	[pos="946.48,1421.5 981.19,1395.9 1056.2,1340.4 1090.7,1314.9"];
	503	[height=0.5,
		pos="711.44,1424",
		width=0.75];
	343 -- 503	[pos="901.15,1433.7 859.51,1431.6 780.09,1427.5 738.45,1425.4"];
	344 -- 348	[pos="1135.7,1304.6 1208.5,1312.8 1409.1,1335.5 1481.8,1343.7"];
	488 -- 489	[pos="1452.6,690.07 1439.5,696.07 1423.1,703.6 1410,709.59"];
	348 -- 352	[pos="1517,1329.6 1534.3,1294.9 1573.2,1216.6 1590.6,1181.8"];
	489 -- 490	[pos="1374.4,736.15 1357.4,757.08 1328.2,793.24 1311.4,814.02"];
	352 -- 354	[pos="1608,1181.8 1624.1,1212.8 1657.6,1277.5 1673.6,1308.4"];
	490 -- 491	[pos="1271.8,833.41 1231.3,838.61 1154.9,848.44 1114.3,853.65"];
	354 -- 356	[pos="1680.6,1343.7 1677.4,1376.4 1670.7,1444.8 1667.5,1477.4"];
	491 -- 492	[pos="1061.5,862.84 1014.9,873.16 917.42,894.74 870.92,905.03"];
	360	[height=0.5,
		pos="1464.4,1478.8",
		width=0.75];
	356 -- 360	[pos="1638.6,1493.2 1600.1,1490 1530,1484.2 1491.5,1481"];
	492 -- 493	[pos="821.16,919.04 798.08,927.03 763.39,939.04 740.21,947.07"];
	359 -- 360	[pos="1215,1262.3 1262.8,1303.8 1400,1422.9 1447.8,1464.3"];
	505	[height=0.5,
		pos="921.93,1232.9",
		width=0.75];
	359 -- 505	[pos="1171.3,1246.4 1118.5,1243.5 1002,1237.2 949.05,1234.4"];
	360 -- 364	[pos="1488.9,1470.7 1518.4,1461 1567.5,1444.9 1596.8,1435.2"];
	493 -- 494	[pos="742.98,955.57 773.38,955.66 822.41,955.8 852.83,955.89"];
	364 -- 367	[pos="1594,1425.7 1532.3,1422.3 1382,1413.9 1320.2,1410.5"];
	495	[height=0.5,
		pos="872.66,1089.3",
		width=0.75];
	494 -- 495	[pos="878.96,974.22 877.57,999.74 875.04,1045.8 873.65,1071.2"];
	374 -- 495	[pos="1019.2,1091.2 986.68,1090.8 932.47,1090.1 899.89,1089.6"];
	375	[height=0.5,
		pos="1250.7,1023",
		width=0.75];
	374 -- 375	[pos="1070.6,1083.4 1109.9,1070.2 1187.2,1044.3 1226.5,1031.1"];
	367 -- 369	[pos="1315,1398.2 1322,1394.8 1329.8,1391 1336.8,1387.5"];
	495 -- 496	[pos="850.78,1100.2 826.23,1112.5 786.65,1132.3 762.08,1144.6"];
	369 -- 372	[pos="1363.6,1358.9 1370.9,1331.6 1384.9,1279.5 1392.2,1252"];
	496 -- 497	[pos="766.78,1159.3 807.19,1165.2 883.58,1176.2 923.86,1182"];
	372 -- 375	[pos="1385.6,1217.5 1358.2,1178 1289.5,1078.9 1262.2,1039.5"];
	497 -- 498	[pos="944.49,1168.2 943.06,1163.8 941.53,1159.1 940.09,1154.8"];
	375 -- 378	[pos="1252.1,1004.7 1255.6,956.11 1265.1,823.84 1268.6,775.46"];
	498 -- 499	[pos="921.98,1153 892.16,1191.9 816.28,1290.8 786.42,1329.7"];
	378 -- 381	[pos="1288.9,744.55 1328.2,717.94 1417.8,657.2 1457,630.62"];
	499 -- 500	[pos="753.58,1357.8 725.43,1374.3 675.09,1403.8 647.03,1420.3"];
	381 -- 385	[pos="1483.4,600.29 1495.4,572.45 1518.7,518.34 1530.7,490.46"];
	500 -- 501	[pos="603.76,1422.4 574.26,1409.7 523.37,1387.9 493.95,1375.3"];
	385 -- 387	[pos="1528,455.98 1504,416.27 1444.5,317.63 1420.6,278.13"];
	501 -- 502	[pos="488.47,1379.6 519.05,1404.5 582.26,1455.8 612.82,1480.6"];
	387 -- 392	[pos="1406.7,243.38 1401.7,219.5 1392.8,177.57 1387.8,153.7"];
	502 -- 503	[pos="646.57,1480.3 660.59,1468.1 680.64,1450.7 694.73,1438.5"];
	392 -- 398	[pos="1358.8,142.68 1323,152.55 1258,170.52 1222.3,180.38"];
	503 -- 504	[pos="702.42,1406.7 683.14,1369.8 638.08,1283.6 618.81,1246.7"];
	398 -- 401	[pos="1195.8,169.29 1193.7,143.79 1190,97.438 1187.9,71.862"];
	504 -- 505	[pos="636.96,1229.8 695.99,1230.4 835.44,1232 894.61,1232.6"];
	401 -- 403	[pos="1159.6,51.159 1113.2,46.747 1018.1,37.727 971.6,33.307"];
	505 -- 506	[pos="928.39,1215.3 942.2,1177.7 974.48,1089.8 988.28,1052.2"];
	403 -- 406	[pos="934.52,47.503 924.23,64.452 908.4,90.515 898.07,107.53"];
	506 -- 507	[pos="986,1017.6 974.08,994.26 952.81,952.65 940.81,929.19"];
	406 -- 409	[pos="883.64,142.31 871.72,193.58 837.46,340.82 825.53,392.08"];
	507 -- 508	[pos="922.55,894.74 911.62,874.86 893.7,842.25 882.78,822.38"];
	509	[height=0.5,
		pos="934.71,628.74",
		width=0.75];
	409 -- 509	[pos="830.27,427.11 851.45,468.01 904.71,570.83 925.85,611.65"];
	508 -- 509	[pos="879.5,787.73 891.22,753.97 916.76,680.41 928.54,646.5"];
}
