graph {
	graph [bb="0,0,1892.5,1327.2",
		outputorder=edgesfirst,
		overlap=prism,
		size="50,50!",
		start=118
	];
	node [label="\N"];
	0	[height=0.5,
		pos="894.28,730.48",
		width=0.75];
	42	[height=0.5,
		pos="905.7,550.33",
		width=0.75];
	0 -- 42	[pos="895.44,712.22 897.63,677.6 902.37,602.83 904.56,568.38"];
	1	[height=0.5,
		pos="901.03,506.29",
		width=0.75];
	0 -- 1	[pos="894.83,712.13 896.1,669.99 899.21,566.66 900.48,524.58"];
	2	[height=0.5,
		pos="610.79,569.14",
		width=0.75];
	0 -- 2	[pos="873.43,718.62 821.01,688.78 684.12,610.88 631.67,581.02"];
	153	[height=0.5,
		pos="800.51,655.01",
		width=0.75];
	0 -- 153	[pos="876.64,716.28 859.77,702.71 834.49,682.36 817.75,668.89"];
	3	[height=0.5,
		pos="1098.2,570.03",
		width=0.75];
	0 -- 3	[pos="912.02,716.52 950.68,686.1 1042.2,614.13 1080.7,583.84"];
	6	[height=0.5,
		pos="1016.5,623.44",
		width=0.75];
	0 -- 6	[pos="910.77,716.04 934.1,695.61 976.52,658.48 999.92,637.99"];
	4	[height=0.5,
		pos="682.24,799.25",
		width=0.75];
	0 -- 4	[pos="869.95,738.37 829.16,751.6 747.42,778.11 706.6,791.35"];
	5	[height=0.5,
		pos="773.85,424.36",
		width=0.75];
	0 -- 5	[pos="887.28,712.7 865.95,658.47 801.88,495.59 780.72,441.81"];
	7	[height=0.5,
		pos="545.39,566.77",
		width=0.75];
	0 -- 7	[pos="872.19,720.11 809.43,690.66 630.53,606.72 567.61,577.19"];
	201	[height=0.5,
		pos="981.09,949.12",
		width=0.75];
	0 -- 201	[pos="901.23,748 917.49,788.94 957.81,890.5 974.1,931.52"];
	12	[height=0.5,
		pos="1351.8,815.94",
		width=0.75];
	0 -- 12	[pos="920.52,735.38 1001.2,750.46 1245.1,796.01 1325.7,811.06"];
	19	[height=0.5,
		pos="664.64,466.72",
		width=0.75];
	0 -- 19	[pos="880.6,714.77 839.76,667.86 718.99,529.15 678.24,482.35"];
	229	[height=0.5,
		pos="736.33,513.68",
		width=0.75];
	0 -- 229	[pos="882.4,714.19 853.13,674.01 777.75,570.54 748.34,530.17"];
	11	[height=0.5,
		pos="1350.1,659.47",
		width=0.75];
	0 -- 11	[pos="920.75,726.36 1001.3,713.81 1242.9,676.17 1323.5,663.61"];
	113	[height=0.5,
		pos="1227.1,695.7",
		width=0.75];
	0 -- 113	[pos="921.23,727.66 983.75,721.13 1138,705 1200.4,698.49"];
	255	[height=0.5,
		pos="812.33,514.29",
		width=0.75];
	0 -- 255	[pos="887.57,712.79 872.17,672.15 834.4,572.51 819.02,531.93"];
	138	[height=0.5,
		pos="1250.2,844.71",
		width=0.75];
	0 -- 138	[pos="918.74,738.33 983.75,759.2 1160.3,815.87 1225.5,836.8"];
	13	[height=0.5,
		pos="714.4,887.74",
		width=0.75];
	0 -- 13	[pos="877.68,744.99 843.41,774.95 765.19,843.33 730.96,873.26"];
	120	[height=0.5,
		pos="726.91,753.83",
		width=0.75];
	0 -- 120	[pos="867.76,734.18 836.51,738.54 784.9,745.74 753.59,750.11"];
	152	[height=0.5,
		pos="793.72,846.48",
		width=0.75];
	0 -- 152	[pos="880.72,746.12 861.52,768.26 826.64,808.51 807.39,830.72"];
	17	[height=0.5,
		pos="872.36,982.09",
		width=0.75];
	0 -- 17	[pos="892.7,748.58 888.67,794.89 878,917.32 873.95,963.82"];
	144	[height=0.5,
		pos="676.12,568.45",
		width=0.75];
	0 -- 144	[pos="876.05,716.94 834.99,686.44 735.61,612.63 694.45,582.06"];
	39	[height=0.5,
		pos="1156.4,614.07",
		width=0.75];
	0 -- 39	[pos="917.08,720.35 966.78,698.28 1084.4,646.06 1133.8,624.09"];
	29	[height=0.5,
		pos="1058.2,678.29",
		width=0.75];
	0 -- 29	[pos="918.81,722.67 949.79,712.8 1002.8,695.93 1033.7,686.07"];
	31	[height=0.5,
		pos="1217.8,755.96",
		width=0.75];
	0 -- 31	[pos="921.3,732.61 982.2,737.4 1129.6,749.01 1190.6,753.82"];
	32	[height=0.5,
		pos="927.65,682.35",
		width=0.75];
	0 -- 32	[pos="905.76,713.91 909.15,709.02 912.87,703.67 916.25,698.78"];
	54	[height=0.5,
		pos="961.87,770.56",
		width=0.75];
	0 -- 54	[pos="914.56,742.51 923.11,747.58 933.05,753.47 941.61,758.55"];
	36	[height=0.5,
		pos="894.68,774.48",
		width=0.75];
	0 -- 36	[pos="894.44,748.63 894.47,751.19 894.49,753.82 894.52,756.37"];
	38	[height=0.5,
		pos="771.37,981.27",
		width=0.75];
	0 -- 38	[pos="885.83,747.72 863.38,793.53 802.4,917.96 779.88,963.91"];
	155	[height=0.5,
		pos="915.77,938.08",
		width=0.75];
	0 -- 155	[pos="896.15,748.54 900.21,787.8 909.81,880.55 913.89,919.91"];
	237	[height=0.5,
		pos="654.63,656.77",
		width=0.75];
	0 -- 237	[pos="869.53,722.87 823.49,708.71 725.18,678.47 679.24,664.34"];
	283	[height=0.5,
		pos="1134,781.15",
		width=0.75];
	0 -- 283	[pos="920.39,736 966.51,745.75 1061.8,765.9 1107.9,775.64"];
	146	[height=0.5,
		pos="866.57,594.34",
		width=0.75];
	0 -- 146	[pos="890.6,712.4 885.3,686.36 875.57,638.57 870.26,612.49"];
	49	[height=0.5,
		pos="1312.2,864.02",
		width=0.75];
	0 -- 49	[pos="918.86,738.33 992.95,762.01 1213.6,832.51 1287.6,856.18"];
	106	[height=0.5,
		pos="824.33,937.25",
		width=0.75];
	0 -- 106	[pos="888.31,748.11 875.1,787.17 843.48,880.65 830.28,919.67"];
	140	[height=0.5,
		pos="964.82,726.35",
		width=0.75];
	0 -- 140	[pos="921.35,728.89 926.63,728.58 932.18,728.26 937.47,727.95"];
	86	[height=0.5,
		pos="869.21,638.34",
		width=0.75];
	0 -- 86	[pos="889.44,712.72 885.03,696.5 878.55,672.66 874.12,656.37"];
	242	[height=0.5,
		pos="1289.7,799.86",
		width=0.75];
	0 -- 242	[pos="920.53,735.09 992.38,747.69 1191.7,782.65 1263.5,795.26"];
	95	[height=0.5,
		pos="996.6,993.15",
		width=0.75];
	0 -- 95	[pos="901.15,748.12 919.79,795.97 971.15,927.83 989.76,975.59"];
	104	[height=0.5,
		pos="676.45,612.54",
		width=0.75];
	0 -- 104	[pos="872.99,718.96 831.24,696.35 739.06,646.44 697.5,623.94"];
	193	[height=0.5,
		pos="738.14,568.51",
		width=0.75];
	0 -- 193	[pos="879.59,715.24 849.83,684.37 782.73,614.76 752.91,583.83"];
	262	[height=0.5,
		pos="738.47,654.42",
		width=0.75];
	0 -- 262	[pos="872.28,719.74 842.59,705.25 789.99,679.57 760.36,665.1"];
	161	[height=0.5,
		pos="862.33,893.24",
		width=0.75];
	0 -- 161	[pos="890.74,748.52 884.6,779.81 872.04,843.78 865.89,875.12"];
	176	[height=0.5,
		pos="1086,619.61",
		width=0.75];
	0 -- 176	[pos="914.79,718.61 951.6,697.33 1028.4,652.9 1065.3,631.56"];
	42 -- 146	[pos="891.57,566.22 887.98,570.26 884.13,574.59 880.54,578.62"];
	42 -- 86	[pos="898.49,567.72 892.1,583.15 882.8,605.57 876.41,620.99"];
	158	[height=0.5,
		pos="1015.4,340.45",
		width=0.75];
	42 -- 158	[pos="914.68,533.16 935.29,493.7 985.83,396.97 1006.4,357.57"];
	195	[height=0.5,
		pos="1064.9,384.56",
		width=0.75];
	42 -- 195	[pos="920.4,535.03 950.73,503.45 1020,431.37 1050.3,399.82"];
	1 -- 42	[pos="902.96,524.46 903.23,527.02 903.51,529.65 903.78,532.21"];
	10	[height=0.5,
		pos="949.49,462.28",
		width=0.75];
	1 -- 10	[pos="917.17,491.64 922.34,486.94 928.08,481.73 933.26,477.02"];
	1 -- 3	[pos="925.61,514.24 963.5,526.48 1035.8,549.84 1073.6,562.09"];
	1 -- 6	[pos="916.13,521.61 938.27,544.06 979.3,585.66 1001.4,608.12"];
	1 -- 5	[pos="881.44,493.67 857.61,478.32 817.61,452.55 793.68,437.13"];
	167	[height=0.5,
		pos="1011.5,456.82",
		width=0.75];
	1 -- 167	[pos="923.66,496.16 942.74,487.62 969.88,475.47 988.95,466.94"];
	1 -- 229	[pos="873.83,507.51 843.23,508.89 793.8,511.1 763.29,512.47"];
	37	[height=0.5,
		pos="836.48,406.71",
		width=0.75];
	1 -- 37	[pos="890.08,489.4 878.14,470.98 859.14,441.67 847.27,423.35"];
	1 -- 255	[pos="873.94,508.74 862.93,509.73 850.25,510.87 839.26,511.86"];
	23	[height=0.5,
		pos="898.54,418.27",
		width=0.75];
	1 -- 23	[pos="900.51,488.05 900.09,472.95 899.48,451.58 899.05,436.48"];
	269	[height=0.5,
		pos="1047.8,296.44",
		width=0.75];
	1 -- 269	[pos="912.55,489.83 939.99,450.6 1009,351.99 1036.4,312.83"];
	137	[height=0.5,
		pos="932.93,599.12",
		width=0.75];
	1 -- 137	[pos="907.18,524.19 912.83,540.63 921.16,564.86 926.8,581.28"];
	1 -- 32	[pos="903.78,524.47 908.89,558.29 919.81,630.52 924.91,664.27"];
	1 -- 146	[pos="894.06,524.11 888.04,539.49 879.4,561.57 873.42,576.85"];
	1 -- 86	[pos="896.74,524.1 890.67,549.3 879.63,595.12 873.54,620.4"];
	1 -- 158	[pos="912.41,489.78 934.33,458 982.15,388.62 1004,356.89"];
	1 -- 195	[pos="919.2,492.8 950.71,469.4 1015.1,421.55 1046.7,398.11"];
	233	[height=0.5,
		pos="985.88,514.28",
		width=0.75];
	1 -- 233	[pos="927.88,508.82 937.78,509.75 949,510.81 958.92,511.74"];
	10 -- 37	[pos="927.7,451.57 907.82,441.79 878.57,427.41 858.59,417.58"];
	10 -- 255	[pos="925.91,471.22 900.79,480.75 861.24,495.75 836.06,505.3"];
	2 -- 153	[pos="633.3,579.33 669.81,595.86 741.54,628.32 778.04,644.83"];
	2 -- 3	[pos="638.04,569.19 723.55,569.35 985.91,569.83 1071.2,569.98"];
	66	[height=0.5,
		pos="615.74,226.09",
		width=0.75];
	2 -- 66	[pos="611.06,550.7 611.92,491 614.62,303.45 615.48,244.21"];
	2 -- 4	[pos="616.28,586.82 629.58,629.65 663.41,738.62 676.73,781.52"];
	79	[height=0.5,
		pos="788.96,712.61",
		width=0.75];
	2 -- 79	[pos="628.2,583.16 662.26,610.59 737.36,671.06 771.48,698.54"];
	2 -- 7	[pos="583.81,568.16 580.15,568.03 576.4,567.89 572.73,567.76"];
	198	[height=0.5,
		pos="533.95,510.91",
		width=0.75];
	2 -- 198	[pos="592.58,555.34 580.33,546.06 564.25,533.88 552.03,524.61"];
	9	[height=0.5,
		pos="476.88,366.71",
		width=0.75];
	2 -- 9	[pos="599.83,552.58 574.66,514.52 512.94,421.22 487.81,383.22"];
	157	[height=0.5,
		pos="582.95,627.09",
		width=0.75];
	2 -- 157	[pos="602.44,586.53 598.91,593.86 594.82,602.38 591.3,609.72"];
	2 -- 13	[pos="616.66,587.19 634.89,643.26 690.45,814.09 708.6,869.89"];
	15	[height=0.5,
		pos="586.1,764.04",
		width=0.75];
	2 -- 15	[pos="608.51,587.13 603.81,624.26 593.07,709 588.37,746.09"];
	2 -- 120	[pos="621.3,585.86 643.35,620.93 694.24,701.86 716.34,737.02"];
	20	[height=0.5,
		pos="863.01,686.44",
		width=0.75];
	2 -- 20	[pos="633.17,579.55 681.04,601.81 792.86,653.82 840.68,676.06"];
	57	[height=0.5,
		pos="804.56,610.98",
		width=0.75];
	2 -- 57	[pos="636.52,574.7 673.58,582.7 741.6,597.38 778.72,605.4"];
	71	[height=0.5,
		pos="406.35,530.31",
		width=0.75];
	2 -- 71	[pos="584.48,564.15 545.23,556.69 471.76,542.73 432.56,535.29"];
	46	[height=0.5,
		pos="376.62,443.52",
		width=0.75];
	2 -- 46	[pos="589.6,557.77 545.13,533.92 442.51,478.87 397.93,454.96"];
	27	[height=0.5,
		pos="795.88,307.34",
		width=0.75];
	2 -- 27	[pos="622.37,552.77 655.61,505.75 751.07,370.72 784.31,323.71"];
	33	[height=0.5,
		pos="413.12,593.7",
		width=0.75];
	2 -- 33	[pos="584.13,572.46 546.3,577.15 477.45,585.71 439.68,590.4"];
	2 -- 237	[pos="619.45,586.46 627.14,601.82 638.3,624.14 645.98,639.5"];
	53	[height=0.5,
		pos="520.93,656.62",
		width=0.75];
	2 -- 53	[pos="595.14,584.38 578.65,600.44 552.83,625.57 536.41,641.56"];
	210	[height=0.5,
		pos="800.2,558.42",
		width=0.75];
	2 -- 210	[pos="637.93,567.61 673.94,565.57 737.13,561.99 773.11,559.95"];
	126	[height=0.5,
		pos="763.94,468.94",
		width=0.75];
	2 -- 126	[pos="630.19,556.45 659.48,537.28 714.73,501.14 744.21,481.84"];
	72	[height=0.5,
		pos="555.98,719.97",
		width=0.75];
	2 -- 72	[pos="604.4,586.74 593.89,615.65 573.1,672.88 562.51,702.01"];
	88	[height=0.5,
		pos="716.47,702.88",
		width=0.75];
	2 -- 88	[pos="623.54,585.28 643.85,610.98 683.34,660.95 703.68,686.69"];
	217	[height=0.5,
		pos="478.57,559.47",
		width=0.75];
	2 -- 217	[pos="583.72,567.16 560.9,565.49 528.42,563.12 505.61,561.45"];
	2 -- 262	[pos="629.91,581.91 653.98,597.99 695.1,625.45 719.23,641.56"];
	177	[height=0.5,
		pos="502.74,612.16",
		width=0.75];
	2 -- 177	[pos="587.34,578.48 569.22,585.69 544.25,595.63 526.14,602.85"];
	197	[height=0.5,
		pos="591.51,675.71",
		width=0.75];
	2 -- 197	[pos="607.52,587.22 603.98,606.82 598.35,637.92 594.8,657.55"];
	215	[height=0.5,
		pos="458.75,482.95",
		width=0.75];
	2 -- 215	[pos="589.97,557.34 560.85,540.83 508.3,511.04 479.32,494.61"];
	273	[height=0.5,
		pos="477.12,437.6",
		width=0.75];
	2 -- 273	[pos="595.46,554.05 569.67,528.68 517.94,477.77 492.27,452.51"];
	153 -- 262	[pos="773.48,654.75 770.87,654.73 768.22,654.7 765.61,654.68"];
	3 -- 10	[pos="1079.7,556.6 1051,535.84 996.3,496.2 967.79,475.54"];
	47	[height=0.5,
		pos="1092.8,825.19",
		width=0.75];
	3 -- 47	[pos="1097.8,588.38 1096.8,635.46 1094.2,760.11 1093.2,807.01"];
	3 -- 6	[pos="1078.9,582.69 1065.9,591.14 1049,602.21 1036,610.69"];
	3 -- 5	[pos="1075.7,559.9 1016.2,533.19 855.56,461.06 796.26,434.42"];
	204	[height=0.5,
		pos="953.07,341.07",
		width=0.75];
	3 -- 204	[pos="1087.5,553.2 1060.7,510.85 990.62,400.3 963.76,357.93"];
	3 -- 12	[pos="1113.7,585.05 1159,628.95 1290.8,756.76 1336.2,800.81"];
	3 -- 167	[pos="1085.8,553.81 1069.3,532.29 1040.4,494.52 1023.9,473.01"];
	3 -- 37	[pos="1078.1,557.49 1029.3,527.01 904.83,449.36 856.29,419.07"];
	3 -- 11	[pos="1122.4,578.61 1170.5,595.7 1277.9,633.85 1326,650.92"];
	35	[height=0.5,
		pos="1027.5,575.01",
		width=0.75];
	3 -- 35	[pos="1071.1,571.94 1065.6,572.33 1059.9,572.73 1054.4,573.11"];
	151	[height=0.5,
		pos="1338.7,607.68",
		width=0.75];
	3 -- 151	[pos="1124.9,574.2 1171.2,581.46 1266.1,596.31 1312.2,603.54"];
	21	[height=0.5,
		pos="1403.2,402.24",
		width=0.75];
	3 -- 21	[pos="1119.2,558.5 1174.9,527.85 1326.2,444.6 1382.1,413.86"];
	16	[height=0.5,
		pos="1701.2,488.77",
		width=0.75];
	3 -- 16	[pos="1124.9,566.44 1224.6,553 1574.7,505.82 1674.5,492.37"];
	3 -- 20	[pos="1076.5,580.78 1031.8,602.9 929.94,653.32 885,675.56"];
	3 -- 57	[pos="1071.6,573.74 1015.9,581.51 887.19,599.46 831.29,607.25"];
	123	[height=0.5,
		pos="1375.6,527.69",
		width=0.75];
	3 -- 123	[pos="1124.6,566.01 1177.4,557.94 1295.9,539.85 1349,531.75"];
	40	[height=0.5,
		pos="1280.1,559.4",
		width=0.75];
	3 -- 40	[pos="1125.4,568.44 1159.8,566.43 1218.6,562.99 1253,560.98"];
	84	[height=0.5,
		pos="1313.5,502.02",
		width=0.75];
	3 -- 84	[pos="1122.9,562.23 1164.4,549.11 1247.8,522.79 1289.1,509.74"];
	111	[height=0.5,
		pos="1279.1,457.43",
		width=0.75];
	3 -- 111	[pos="1118.3,557.55 1153.1,535.85 1224.5,491.42 1259.2,469.8"];
	3 -- 27	[pos="1081.5,555.54 1028.7,509.61 865.3,367.66 812.52,321.8"];
	98	[height=0.5,
		pos="774.47,376.82",
		width=0.75];
	3 -- 98	[pos="1078,557.95 1019.8,523.25 852.84,423.59 794.71,388.9"];
	3 -- 29	[pos="1091.6,587.91 1084.1,608.09 1072.1,640.71 1064.6,660.75"];
	68	[height=0.5,
		pos="1065.4,500.89",
		width=0.75];
	3 -- 68	[pos="1089.9,552.58 1084.9,542.02 1078.6,528.61 1073.6,518.09"];
	3 -- 36	[pos="1083.2,585.07 1045.6,622.87 947.33,721.59 909.67,759.42"];
	78	[height=0.5,
		pos="1189.6,368.27",
		width=0.75];
	3 -- 78	[pos="1106.2,552.48 1123.5,514.23 1164.5,423.72 1181.8,385.63"];
	3 -- 283	[pos="1101.3,588.03 1108,627.92 1124.2,723.35 1131,763.2"];
	170	[height=0.5,
		pos="1127.5,510.62",
		width=0.75];
	3 -- 170	[pos="1106.7,552.85 1110.5,545.04 1115.1,535.81 1118.9,527.97"];
	45	[height=0.5,
		pos="1040.2,777.03",
		width=0.75];
	3 -- 45	[pos="1093.2,588.04 1082.2,627.29 1056.2,720.13 1045.2,759.21"];
	166	[height=0.5,
		pos="1155.4,693.14",
		width=0.75];
	3 -- 166	[pos="1106.3,587.41 1117.2,610.87 1136.5,652.43 1147.4,675.85"];
	80	[height=0.5,
		pos="1337.1,367.21",
		width=0.75];
	3 -- 80	[pos="1115,555.77 1158.9,518.53 1276.4,418.68 1320.3,381.45"];
	3 -- 210	[pos="1071.2,568.98 1014.6,566.78 884.06,561.69 827.33,559.48"];
	59	[height=0.5,
		pos="990.75,678.82",
		width=0.75];
	3 -- 59	[pos="1083.3,585.16 1062.9,605.83 1026.4,642.69 1005.9,663.47"];
	69	[height=0.5,
		pos="1027.9,722.84",
		width=0.75];
	3 -- 69	[pos="1090.3,587.26 1076.8,616.61 1049.4,675.97 1035.9,705.44"];
	65	[height=0.5,
		pos="1158.9,825.81",
		width=0.75];
	3 -- 65	[pos="1102.5,588.02 1113.6,634.98 1143.5,760.9 1154.7,807.84"];
	3 -- 126	[pos="1073.4,562.52 1011.5,543.8 851.01,495.27 788.95,476.5"];
	116	[height=0.5,
		pos="1127.3,406.38",
		width=0.75];
	3 -- 116	[pos="1101.4,551.89 1107,520.44 1118.5,456.11 1124.1,424.6"];
	188	[height=0.5,
		pos="1189.5,504.71",
		width=0.75];
	3 -- 188	[pos="1116.7,556.81 1132.5,545.48 1155.2,529.24 1171,517.91"];
	134	[height=0.5,
		pos="1251.7,368.21",
		width=0.75];
	3 -- 134	[pos="1110.5,553.86 1139.3,516.07 1210.6,422.33 1239.4,384.47"];
	125	[height=0.5,
		pos="1194.6,564.6",
		width=0.75];
	3 -- 125	[pos="1125.3,568.5 1138.5,567.76 1154.2,566.87 1167.4,566.13"];
	294	[height=0.5,
		pos="1091.1,728.72",
		width=0.75];
	3 -- 294	[pos="1097.4,588.24 1096,618.68 1093.3,679.61 1092,710.24"];
	3 -- 233	[pos="1076.6,559.28 1056.8,549.47 1027.7,535.05 1007.9,525.19"];
	3 -- 176	[pos="1093.8,587.93 1092.7,592.37 1091.5,597.13 1090.4,601.57"];
	200	[height=0.5,
		pos="1221,800",
		width=0.75];
	3 -- 200	[pos="1107.4,587.32 1130.2,630.04 1189.1,740.23 1211.8,782.83"];
	275	[height=0.5,
		pos="1154,737.14",
		width=0.75];
	3 -- 275	[pos="1104.2,587.92 1114.9,620.08 1137.4,687.31 1148.1,719.38"];
	169	[height=0.5,
		pos="1039.8,869.22",
		width=0.75];
	47 -- 169	[pos="1075.7,839.36 1069.7,844.39 1062.9,850.05 1056.8,855.07"];
	149	[height=0.5,
		pos="1101.9,896.1",
		width=0.75];
	47 -- 149	[pos="1095.1,843.45 1096.5,854.12 1098.2,867.53 1099.6,878.14"];
	241	[height=0.5,
		pos="1163.9,890.66",
		width=0.75];
	47 -- 241	[pos="1108.9,840.05 1120.5,850.76 1136.2,865.16 1147.8,875.86"];
	47 -- 200	[pos="1118.7,820.09 1141,815.72 1172.8,809.46 1195.1,805.09"];
	47 -- 275	[pos="1104.3,808.63 1115.2,792.89 1131.6,769.34 1142.5,753.63"];
	131	[height=0.5,
		pos="595.76,182.02",
		width=0.75];
	66 -- 131	[pos="607.84,208.67 606.45,205.59 604.99,202.39 603.6,199.31"];
	247	[height=0.5,
		pos="767.53,62.581",
		width=0.75];
	66 -- 247	[pos="630.02,210.71 658.95,179.54 724.19,109.27 753.18,78.042"];
	66 -- 126	[pos="625.93,242.78 653,287.15 726.52,407.63 753.68,452.13"];
	100	[height=0.5,
		pos="778.27,151.38",
		width=0.75];
	66 -- 100	[pos="638,215.86 669.03,201.59 724.98,175.87 756.02,161.61"];
	133	[height=0.5,
		pos="798.34,107.34",
		width=0.75];
	66 -- 133	[pos="635.28,213.38 670.43,190.53 743.9,142.75 778.94,119.96"];
	299	[height=0.5,
		pos="662.57,99.537",
		width=0.75];
	66 -- 299	[pos="622.25,208.49 631.15,184.45 647.02,141.57 655.96,117.39"];
	297	[height=0.5,
		pos="723.77,213.88",
		width=0.75];
	66 -- 297	[pos="642.44,223.07 659.06,221.19 680.37,218.78 697,216.9"];
	6 -- 167	[pos="1016,605.29 1015,573.24 1013.1,506.98 1012.1,474.94"];
	6 -- 35	[pos="1020.6,605.4 1021.5,601.32 1022.5,596.98 1023.4,592.9"];
	6 -- 137	[pos="991.45,616.14 980.77,613.04 968.35,609.42 957.71,606.33"];
	6 -- 29	[pos="1028.8,639.6 1034.2,646.68 1040.5,654.97 1045.8,662.06"];
	6 -- 32	[pos="997.25,636.22 982.34,646.1 961.8,659.71 946.9,669.59"];
	6 -- 68	[pos="1023.5,605.88 1032.8,582.58 1049.1,541.69 1058.4,518.41"];
	6 -- 283	[pos="1028.7,639.72 1051.2,669.94 1099.2,734.39 1121.8,764.72"];
	6 -- 140	[pos="1007.8,640.89 998.2,659.93 982.98,690.21 973.47,709.15"];
	6 -- 233	[pos="1011.5,605.41 1005.8,585.19 996.63,552.57 990.95,532.33"];
	4 -- 79	[pos="699.38,785.33 719.18,769.26 751.57,742.96 771.5,726.78"];
	4 -- 15	[pos="658.47,790.55 643.68,785.13 624.72,778.19 609.92,772.76"];
	18	[height=0.5,
		pos="504.72,788.69",
		width=0.75];
	4 -- 18	[pos="655.27,797.65 621.81,795.66 565.09,792.28 531.64,790.29"];
	261	[height=0.5,
		pos="557.91,876.73",
		width=0.75];
	4 -- 261	[pos="662.26,811.7 639.06,826.16 601.02,849.87 577.84,864.31"];
	4 -- 152	[pos="705.07,808.93 724.3,817.08 751.69,828.68 770.92,836.82"];
	194	[height=0.5,
		pos="442.56,831.72",
		width=0.75];
	4 -- 194	[pos="655.67,802.85 609.6,809.09 515.4,821.85 469.25,828.1"];
	94	[height=0.5,
		pos="491.28,744.67",
		width=0.75];
	4 -- 94	[pos="657.27,792.12 620.67,781.66 552.85,762.27 516.25,751.8"];
	4 -- 36	[pos="709.14,796.12 750.01,791.35 827.26,782.34 868,777.59"];
	4 -- 38	[pos="690.62,816.38 707.61,851.07 745.92,929.3 762.94,964.06"];
	58	[height=0.5,
		pos="616.44,826.54",
		width=0.75];
	4 -- 58	[pos="659.22,808.8 652.85,811.44 645.93,814.31 639.55,816.96"];
	224	[height=0.5,
		pos="688.32,843.29",
		width=0.75];
	4 -- 224	[pos="684.75,817.42 685.1,819.98 685.46,822.61 685.82,825.16"];
	4 -- 72	[pos="662.51,786.87 638.93,772.06 599.69,747.41 575.99,732.53"];
	213	[height=0.5,
		pos="554.44,832.71",
		width=0.75];
	4 -- 213	[pos="656.99,805.86 634.58,811.73 602.02,820.25 579.64,826.11"];
	196	[height=0.5,
		pos="830.76,757.72",
		width=0.75];
	79 -- 196	[pos="803.34,728.13 807.6,732.72 812.25,737.74 816.49,742.32"];
	79 -- 88	[pos="762.38,709.04 756.08,708.19 749.35,707.29 743.05,706.45"];
	5 -- 204	[pos="796.19,413.98 830.63,397.97 896.3,367.45 930.74,351.45"];
	5 -- 7	[pos="753.98,436.75 710.77,463.68 608.7,527.31 565.39,554.31"];
	5 -- 19	[pos="750.42,433.45 732,440.6 706.44,450.51 688.03,457.65"];
	8	[height=0.5,
		pos="712.46,351.18",
		width=0.75];
	5 -- 8	[pos="760.53,408.48 750.24,396.21 736.05,379.29 725.76,367.03"];
	5 -- 229	[pos="766.44,442.01 759.86,457.67 750.3,480.42 743.73,496.07"];
	5 -- 9	[pos="747.76,419.3 691.43,408.36 558.99,382.65 502.81,371.75"];
	44	[height=0.5,
		pos="972.46,201.42",
		width=0.75];
	5 -- 44	[pos="787.82,408.68 824.28,367.75 922.06,257.99 958.51,217.08"];
	5 -- 37	[pos="798.96,417.28 803.05,416.13 807.28,414.94 811.36,413.79"];
	5 -- 255	[pos="781.27,441.7 788.04,457.52 798,480.8 804.81,496.7"];
	22	[height=0.5,
		pos="811.94,240.19",
		width=0.75];
	5 -- 22	[pos="777.57,406.37 784.85,371.16 800.91,293.52 808.2,258.25"];
	5 -- 27	[pos="777.25,406.33 781.38,384.41 788.3,347.61 792.45,325.58"];
	5 -- 98	[pos="774.09,406.11 774.14,402.45 774.19,398.6 774.23,394.93"];
	253	[height=0.5,
		pos="958.86,296.36",
		width=0.75];
	5 -- 253	[pos="792.61,411.38 828.07,386.85 904.55,333.93 940.05,309.37"];
	127	[height=0.5,
		pos="923.88,252.26",
		width=0.75];
	5 -- 127	[pos="787.43,408.78 815.85,376.18 881.33,301.07 910.01,268.18"];
	230	[height=0.5,
		pos="861.39,295.74",
		width=0.75];
	5 -- 230	[pos="785.12,407.81 801.93,383.11 833.38,336.89 850.17,312.23"];
	109	[height=0.5,
		pos="999.41,252.25",
		width=0.75];
	5 -- 109	[pos="791.93,410.57 834.27,378.26 939.45,298 981.56,265.87"];
	238	[height=0.5,
		pos="905.26,208.13",
		width=0.75];
	5 -- 238	[pos="784.16,407.39 808.73,366.97 870.48,265.36 894.99,225.02"];
	204 -- 253	[pos="955.43,322.88 955.79,320.08 956.16,317.18 956.53,314.38"];
	7 -- 19	[pos="562.23,552.65 584.82,533.69 624.75,500.18 647.5,481.1"];
	7 -- 9	[pos="539.31,549.01 526.31,511.05 495.94,422.35 482.95,384.43"];
	7 -- 157	[pos="555.86,583.57 561.06,591.94 567.34,602.02 572.54,610.38"];
	7 -- 144	[pos="572.48,567.11 594.92,567.4 626.64,567.81 649.07,568.1"];
	25	[height=0.5,
		pos="339.93,487.7",
		width=0.75];
	7 -- 25	[pos="521.82,557.7 482.3,542.49 403.09,512.01 363.54,496.79"];
	30	[height=0.5,
		pos="220.21,619.94",
		width=0.75];
	7 -- 30	[pos="519.06,571.07 458.13,581.04 307.97,605.59 246.8,615.6"];
	7 -- 33	[pos="519.26,572.09 496.07,576.81 462.38,583.67 439.2,588.39"];
	96	[height=0.5,
		pos="282.23,607.75",
		width=0.75];
	7 -- 96	[pos="518.71,570.92 468.14,578.8 358.91,595.81 308.59,603.65"];
	263	[height=0.5,
		pos="398.68,700.74",
		width=0.75];
	7 -- 263	[pos="529.41,581.36 501.19,607.13 442.85,660.41 414.64,686.17"];
	7 -- 237	[pos="562.46,580.83 582.86,597.64 616.81,625.61 637.32,642.51"];
	212	[height=0.5,
		pos="336.66,658.35",
		width=0.75];
	7 -- 212	[pos="522.66,576.74 482.51,594.36 399.5,630.78 359.37,648.39"];
	7 -- 53	[pos="540.56,584.52 536.27,600.27 530.04,623.16 525.76,638.9"];
	101	[height=0.5,
		pos="260.35,670.93",
		width=0.75];
	7 -- 101	[pos="521.58,575.47 467.93,595.08 338.07,642.53 284.29,662.18"];
	7 -- 104	[pos="569.43,575.16 592.93,583.37 628.52,595.8 652.12,604.04"];
	277	[height=0.5,
		pos="351.03,614.18",
		width=0.75];
	7 -- 277	[pos="519.98,572.97 482.74,582.05 413.7,598.89 376.45,607.98"];
	132	[height=0.5,
		pos="344.28,567.45",
		width=0.75];
	7 -- 132	[pos="518.27,566.86 479.78,566.99 409.72,567.23 371.29,567.36"];
	145	[height=0.5,
		pos="460.74,700.66",
		width=0.75];
	7 -- 145	[pos="534.84,583.45 518.62,609.11 487.73,657.98 471.42,683.76"];
	7 -- 197	[pos="552.8,584.27 561.41,604.6 575.52,637.94 584.12,658.25"];
	257	[height=0.5,
		pos="327.69,702.73",
		width=0.75];
	7 -- 257	[pos="525.3,579.31 483.72,605.28 388.68,664.64 347.42,690.41"];
	12 -- 151	[pos="1350.7,797.82 1348.2,758.43 1342.3,665.38 1339.8,625.9"];
	12 -- 138	[pos="1326.9,822.98 1311.2,827.44 1290.9,833.18 1275.1,837.65"];
	12 -- 16	[pos="1367.7,801.03 1425.9,746.53 1626.9,558.41 1685.2,503.77"];
	28	[height=0.5,
		pos="1542.5,831.34",
		width=0.75];
	12 -- 28	[pos="1378.7,818.11 1415,821.04 1479.1,826.22 1515.4,829.15"];
	181	[height=0.5,
		pos="1620.7,743.29",
		width=0.75];
	12 -- 181	[pos="1377.1,809.11 1428.5,795.22 1544.5,763.87 1595.7,750.05"];
	12 -- 283	[pos="1325.5,811.74 1283.7,805.06 1202.3,792.06 1160.4,785.36"];
	12 -- 49	[pos="1338.6,831.95 1334.3,837.2 1329.5,843.02 1325.2,848.24"];
	67	[height=0.5,
		pos="1512.3,926.03",
		width=0.75];
	12 -- 67	[pos="1370.9,829 1401.8,850.19 1462.4,891.81 1493.3,912.99"];
	64	[height=0.5,
		pos="1460.9,970.09",
		width=0.75];
	12 -- 64	[pos="1363.5,832.44 1384.5,862.11 1428.3,924.13 1449.3,953.71"];
	136	[height=0.5,
		pos="1271.2,947.68",
		width=0.75];
	12 -- 136	[pos="1341.6,832.63 1326.2,857.83 1297.1,905.35 1281.6,930.71"];
	185	[height=0.5,
		pos="1473.5,881.97",
		width=0.75];
	12 -- 185	[pos="1373,827.44 1395.4,839.56 1430.3,858.53 1452.6,870.6"];
	118	[height=0.5,
		pos="1589.3,976.12",
		width=0.75];
	12 -- 118	[pos="1370.8,828.78 1415.3,858.77 1525.6,933.17 1570.2,963.22"];
	73	[height=0.5,
		pos="1523.6,1011.5",
		width=0.75];
	12 -- 73	[pos="1365.6,831.61 1397.7,868.22 1477.5,959.04 1509.7,995.73"];
	218	[height=0.5,
		pos="1615.1,932.12",
		width=0.75];
	12 -- 218	[pos="1374.7,826.05 1424.6,848.07 1542.7,900.19 1592.4,922.12"];
	288	[height=0.5,
		pos="1336.7,911.22",
		width=0.75];
	12 -- 288	[pos="1349,833.86 1346.3,850.79 1342.3,876.05 1339.6,893.06"];
	216	[height=0.5,
		pos="1398.8,945.83",
		width=0.75];
	12 -- 216	[pos="1358.1,833.46 1367.1,858.25 1383.4,903.31 1392.4,928.17"];
	286	[height=0.5,
		pos="1611.1,867.93",
		width=0.75];
	12 -- 286	[pos="1378.1,821.21 1427.9,831.2 1535.6,852.78 1585.1,862.72"];
	19 -- 229	[pos="684.23,479.55 694.34,486.18 706.65,494.24 716.76,500.87"];
	19 -- 144	[pos="666.69,484.91 668.78,503.42 672,531.96 674.09,550.42"];
	19 -- 22	[pos="675.47,450.06 702.71,408.17 773.83,298.79 801.09,256.87"];
	150	[height=0.5,
		pos="650.45,314.11",
		width=0.75];
	19 -- 150	[pos="662.95,448.62 660.22,419.25 654.86,361.55 652.14,332.2"];
	52	[height=0.5,
		pos="600.8,270.1",
		width=0.75];
	19 -- 52	[pos="658.86,448.93 646.7,411.49 618.62,324.99 606.52,287.72"];
	251	[height=0.5,
		pos="538.92,344.79",
		width=0.75];
	19 -- 251	[pos="649.22,451.77 625.09,428.37 578.67,383.34 554.46,359.86"];
	248	[height=0.5,
		pos="732.92,302.05",
		width=0.75];
	19 -- 248	[pos="671.94,449.1 685.09,417.41 712.56,351.15 725.66,319.55"];
	245	[height=0.5,
		pos="539.16,396.43",
		width=0.75];
	19 -- 245	[pos="643.91,455.12 620.67,442.09 583.17,421.09 559.91,408.06"];
	19 -- 193	[pos="676.45,483.08 690.16,502.07 712.66,533.22 726.36,552.2"];
	164	[height=0.5,
		pos="538.79,285.74",
		width=0.75];
	19 -- 164	[pos="653.25,450.34 629.35,415.97 574.2,336.67 550.25,302.21"];
	171	[height=0.5,
		pos="601.21,361.96",
		width=0.75];
	19 -- 171	[pos="654.44,449.89 642.61,430.34 623.2,398.28 611.37,378.75"];
	276	[height=0.5,
		pos="700.97,257.91",
		width=0.75];
	19 -- 276	[pos="667.8,448.56 674.68,408.97 690.98,315.3 697.84,275.88"];
	270	[height=0.5,
		pos="543.4,444.99",
		width=0.75];
	19 -- 270	[pos="638.33,462.01 617.99,458.36 589.98,453.34 569.66,449.7"];
	198 -- 215	[pos="510.16,502.07 501.29,498.77 491.24,495.03 482.39,491.74"];
	198 -- 273	[pos="521.34,494.64 511.92,482.49 499.11,465.96 489.7,453.83"];
	167 -- 233	[pos="1003.7,474.37 1000.5,481.5 996.85,489.72 993.67,496.84"];
	8 -- 19	[pos="705.2,368.73 696.21,390.44 680.99,427.22 671.97,449.01"];
	8 -- 229	[pos="715.11,369.19 719.7,400.43 729.08,464.3 733.67,495.59"];
	8 -- 22	[pos="726.72,335.28 745.73,314.06 779.19,276.72 798.03,255.7"];
	8 -- 150	[pos="692.16,339.04 685.24,334.9 677.5,330.28 670.59,326.15"];
	8 -- 230	[pos="736.06,342.39 763.78,332.08 809.52,315.05 837.41,304.67"];
	8 -- 248	[pos="719.73,333.72 721.66,329.09 723.75,324.09 725.67,319.46"];
	9 -- 66	[pos="491.74,351.66 518.33,324.74 573.75,268.61 600.56,241.46"];
	14	[height=0.5,
		pos="414.83,355.23",
		width=0.75];
	9 -- 14	[pos="450.57,361.84 447.4,361.26 444.16,360.66 440.99,360.07"];
	43	[height=0.5,
		pos="315.17,289.26",
		width=0.75];
	9 -- 43	[pos="454.74,356.11 423.86,341.32 368.19,314.65 337.31,299.86"];
	9 -- 25	[pos="460.36,381.31 434.04,404.56 382.87,449.77 356.51,473.06"];
	9 -- 27	[pos="502.99,361.85 562.96,350.69 709.98,323.33 769.86,312.19"];
	9 -- 98	[pos="504.08,367.64 560.76,369.56 690.91,373.98 747.44,375.9"];
	9 -- 131	[pos="487.64,350 510.28,314.83 562.57,233.58 585.11,198.57"];
	81	[height=0.5,
		pos="439.22,311.15",
		width=0.75];
	9 -- 81	[pos="465.58,350.04 460.82,343.01 455.28,334.84 450.51,327.81"];
	50	[height=0.5,
		pos="355.3,399.45",
		width=0.75];
	9 -- 50	[pos="451.69,373.5 430.82,379.11 401.32,387.06 380.46,392.67"];
	190	[height=0.5,
		pos="377.19,281.56",
		width=0.75];
	9 -- 190	[pos="459.97,352.27 441.53,336.51 412.19,311.46 393.85,295.79"];
	77	[height=0.5,
		pos="481.56,197.67",
		width=0.75];
	9 -- 77	[pos="477.38,348.62 478.28,316.17 480.16,248.42 481.06,215.88"];
	228	[height=0.5,
		pos="548.66,100.95",
		width=0.75];
	9 -- 228	[pos="481.7,348.86 494.78,300.45 530.81,167.05 543.86,118.72"];
	82	[height=0.5,
		pos="454.67,153.62",
		width=0.75];
	9 -- 82	[pos="474.99,348.54 470.79,308.29 460.75,211.96 456.56,171.75"];
	281	[height=0.5,
		pos="383.92,118.98",
		width=0.75];
	9 -- 281	[pos="470.2,348.9 453.05,303.19 407.63,182.16 390.54,136.63"];
	121	[height=0.5,
		pos="392.04,163.24",
		width=0.75];
	9 -- 121	[pos="469.65,349.36 453.66,311.02 415.46,219.4 399.37,180.83"];
	227	[height=0.5,
		pos="326.11,237.41",
		width=0.75];
	9 -- 227	[pos="460.17,352.38 431.19,327.52 371.93,276.7 342.9,251.8"];
	221	[height=0.5,
		pos="419.51,237.15",
		width=0.75];
	9 -- 221	[pos="469.15,349.24 458.19,324.51 438.29,279.56 427.31,254.76"];
	9 -- 273	[pos="476.94,384.97 476.98,395.47 477.02,408.63 477.06,419.16"];
	265	[height=0.5,
		pos="473.58,109.62",
		width=0.75];
	9 -- 265	[pos="476.65,348.63 476.05,301.43 474.42,174.86 473.81,127.68"];
	55	[height=0.5,
		pos="1037.5,128.67",
		width=0.75];
	44 -- 55	[pos="986.56,185.63 997.47,173.43 1012.5,156.62 1023.4,144.42"];
	44 -- 127	[pos="957.88,216.67 951.74,223.11 944.59,230.58 938.44,237.02"];
	44 -- 109	[pos="981.58,218.63 984.39,223.93 987.49,229.76 990.3,235.06"];
	44 -- 238	[pos="945.51,204.11 941.13,204.55 936.59,205 932.21,205.44"];
	162	[height=0.5,
		pos="973.42,137.57",
		width=0.75];
	44 -- 162	[pos="972.73,183.29 972.86,174.74 973.02,164.55 973.15,155.96"];
	37 -- 204	[pos="857.32,394.97 878.54,383.02 911.25,364.61 932.41,352.7"];
	37 -- 255	[pos="832.38,424.96 827.91,444.86 820.81,476.51 816.37,496.31"];
	37 -- 253	[pos="852.73,392.05 876.13,370.95 919.09,332.21 942.54,311.07"];
	11 -- 113	[pos="1325.2,666.8 1303.9,673.09 1273.3,682.1 1252,688.38"];
	11 -- 21	[pos="1353.8,641.38 1363.6,594.16 1389.7,467.52 1399.5,420.31"];
	11 -- 16	[pos="1372.1,648.79 1435.1,618.14 1616.2,530.09 1679.3,499.44"];
	93	[height=0.5,
		pos="1674.8,655.9",
		width=0.75];
	11 -- 93	[pos="1377.2,659.17 1438.4,658.5 1586.3,656.88 1647.6,656.2"];
	249	[height=0.5,
		pos="1523.7,768.44",
		width=0.75];
	11 -- 249	[pos="1370,671.97 1403.5,692.99 1470.7,735.17 1504,756.09"];
	108	[height=0.5,
		pos="1571,435.36",
		width=0.75];
	11 -- 108	[pos="1364.9,644.42 1405.1,603.69 1515.5,491.64 1555.9,450.64"];
	159	[height=0.5,
		pos="1547.4,662.18",
		width=0.75];
	11 -- 159	[pos="1377.1,659.84 1414.8,660.36 1482.7,661.29 1520.4,661.81"];
	24	[height=0.5,
		pos="1507.7,466.16",
		width=0.75];
	11 -- 24	[pos="1363,643.65 1392.5,607.4 1464.9,518.66 1494.6,482.2"];
	11 -- 123	[pos="1353.6,641.43 1358.4,616.33 1367.2,571.15 1372,545.95"];
	11 -- 40	[pos="1338.5,642.95 1325.6,624.4 1304.7,594.5 1291.7,575.95"];
	11 -- 39	[pos="1324.4,653.44 1287.2,644.73 1219,628.73 1181.9,620.05"];
	11 -- 84	[pos="1345.9,641.41 1338.8,611.04 1324.7,550.1 1317.7,519.88"];
	11 -- 111	[pos="1343.9,641.9 1330.5,603.69 1298.8,513.42 1285.3,475.11"];
	11 -- 28	[pos="1366.5,674.13 1402.9,706.6 1489.8,784.29 1526.2,816.72"];
	11 -- 31	[pos="1331.7,672.89 1306.4,691.32 1261.2,724.28 1236,742.66"];
	173	[height=0.5,
		pos="1610.4,640.12",
		width=0.75];
	11 -- 173	[pos="1377,657.47 1426.8,653.76 1533.2,645.86 1583.2,642.13"];
	70	[height=0.5,
		pos="1276.5,603.42",
		width=0.75];
	11 -- 70	[pos="1332.3,645.9 1320.8,637.16 1305.9,625.82 1294.4,617.06"];
	115	[height=0.5,
		pos="1417.2,622.5",
		width=0.75];
	11 -- 115	[pos="1371,647.98 1379,643.57 1388.1,638.54 1396.1,634.12"];
	63	[height=0.5,
		pos="1459.5,829.35",
		width=0.75];
	11 -- 63	[pos="1360.8,676.07 1381.7,708.55 1427.8,780.16 1448.8,812.69"];
	11 -- 242	[pos="1342.6,676.97 1331,703.87 1309,755.11 1297.4,782.14"];
	211	[height=0.5,
		pos="1279.2,651.69",
		width=0.75];
	11 -- 211	[pos="1323.3,656.53 1317.7,655.91 1311.7,655.26 1306.1,654.64"];
	220	[height=0.5,
		pos="1577.2,479.43",
		width=0.75];
	11 -- 220	[pos="1367.5,645.64 1409.8,612.13 1517.3,526.87 1559.7,493.31"];
	156	[height=0.5,
		pos="1437.6,516.98",
		width=0.75];
	11 -- 156	[pos="1360.5,642.57 1377.3,615.14 1410.4,561.27 1427.2,533.86"];
	11 -- 188	[pos="1334.7,644.63 1304.1,615.13 1235.8,549.39 1205.1,519.73"];
	128	[height=0.5,
		pos="1444.4,469.02",
		width=0.75];
	11 -- 128	[pos="1358.6,642.23 1376.5,606.07 1417.8,522.61 1435.8,486.35"];
	11 -- 125	[pos="1330.1,647.26 1300.2,629.05 1244.3,594.95 1214.5,576.76"];
	287	[height=0.5,
		pos="1561.6,523.74",
		width=0.75];
	11 -- 287	[pos="1369.6,646.95 1409.9,621.09 1501.9,562.07 1542.2,536.23"];
	239	[height=0.5,
		pos="1341.2,414.69",
		width=0.75];
	11 -- 239	[pos="1349.4,641.47 1347.8,596.2 1343.5,478.01 1341.8,432.72"];
	186	[height=0.5,
		pos="1618.9,567.88",
		width=0.75];
	11 -- 186	[pos="1374.4,651.18 1425.6,633.74 1543.8,593.45 1594.8,576.08"];
	274	[height=0.5,
		pos="1482.8,637.67",
		width=0.75];
	11 -- 274	[pos="1376.3,655.17 1399.4,651.37 1433,645.86 1456.2,642.05"];
	292	[height=0.5,
		pos="1414.3,772.41",
		width=0.75];
	11 -- 292	[pos="1359.9,676.63 1372,697.98 1392.6,734.21 1404.7,755.47"];
	271	[height=0.5,
		pos="1590.2,787.33",
		width=0.75];
	11 -- 271	[pos="1371.4,670.82 1417,695.08 1523.4,751.77 1568.9,776.01"];
	272	[height=0.5,
		pos="1611.6,699.25",
		width=0.75];
	11 -- 272	[pos="1376.6,663.5 1426.7,671.13 1534.9,687.57 1585,695.2"];
	35 -- 68	[pos="1036.3,557.82 1042.4,545.84 1050.6,529.94 1056.7,517.99"];
	138 -- 283	[pos="1229.1,833.2 1208.1,821.68 1175.9,804.07 1154.9,792.58"];
	138 -- 288	[pos="1268.1,858.49 1283,869.91 1304,886.05 1318.8,897.46"];
	157 -- 177	[pos="556.68,622.2 547.73,620.53 537.73,618.67 528.79,617.01"];
	157 -- 197	[pos="586.14,645.19 586.86,649.3 587.63,653.66 588.35,657.75"];
	21 -- 108	[pos="1429.4,407.42 1460.9,413.64 1513.5,424.02 1544.9,430.22"];
	74	[height=0.5,
		pos="1465.2,360.8",
		width=0.75];
	21 -- 74	[pos="1422.5,389.36 1429.9,384.41 1438.3,378.77 1445.7,373.82"];
	51	[height=0.5,
		pos="1655.3,395.96",
		width=0.75];
	21 -- 51	[pos="1430.7,401.56 1479.3,400.35 1579.9,397.84 1628.2,396.64"];
	219	[height=0.5,
		pos="1642.7,440.05",
		width=0.75];
	21 -- 219	[pos="1429.7,406.43 1475.9,413.72 1570.4,428.64 1616.4,435.9"];
	21 -- 80	[pos="1381.9,390.97 1374.4,386.96 1365.9,382.46 1358.3,378.46"];
	295	[height=0.5,
		pos="1403,350.6",
		width=0.75];
	21 -- 295	[pos="1403.1,384.18 1403.1,379.18 1403.1,373.75 1403,368.74"];
	117	[height=0.5,
		pos="1339.2,322.06",
		width=0.75];
	21 -- 117	[pos="1390.2,386.02 1379.1,372.01 1363,351.9 1351.9,337.99"];
	105	[height=0.5,
		pos="1500.4,405.31",
		width=0.75];
	21 -- 105	[pos="1430.3,403.1 1443.6,403.52 1459.7,404.03 1473.1,404.45"];
	21 -- 220	[pos="1425.9,412.34 1459.3,427.13 1521.1,454.55 1554.4,469.34"];
	21 -- 134	[pos="1377.5,396.47 1349.7,390.21 1305.5,380.28 1277.6,374.01"];
	13 -- 15	[pos="698.92,872.82 674.26,849.04 626.32,802.82 601.63,779.01"];
	13 -- 120	[pos="716.09,869.68 718.48,844.12 722.82,797.66 725.21,772.03"];
	13 -- 17	[pos="734.73,899.88 765.06,918 821.83,951.9 852.11,969.99"];
	34	[height=0.5,
		pos="730.77,1113.3",
		width=0.75];
	13 -- 34	[pos="715.71,905.82 718.78,948.05 726.38,1052.8 729.45,1095.1"];
	91	[height=0.5,
		pos="669.82,933.35",
		width=0.75];
	13 -- 91	[pos="699.55,902.93 694.79,907.8 689.52,913.19 684.75,918.07"];
	85	[height=0.5,
		pos="704,1069.3",
		width=0.75];
	13 -- 85	[pos="713.36,905.81 711.37,940.61 707.02,1016.6 705.03,1051.3"];
	13 -- 38	[pos="724.58,904.46 734.89,921.38 750.74,947.4 761.08,964.38"];
	48	[height=0.5,
		pos="759.9,1025.3",
		width=0.75];
	13 -- 48	[pos="720.25,905.44 728.99,931.85 745.34,981.28 754.06,1007.7"];
	13 -- 106	[pos="736.91,897.88 755.88,906.42 782.89,918.59 801.85,927.13"];
	129	[height=0.5,
		pos="619.95,889.34",
		width=0.75];
	13 -- 129	[pos="687.33,888.2 674.69,888.41 659.67,888.67 647.02,888.88"];
	62	[height=0.5,
		pos="626.39,1106.6",
		width=0.75];
	13 -- 62	[pos="707.35,905.28 690.87,946.27 649.99,1047.9 633.48,1089"];
	189	[height=0.5,
		pos="564.16,1018.1",
		width=0.75];
	13 -- 189	[pos="697.75,902.19 668.87,927.24 609.82,978.47 580.89,1003.6"];
	83	[height=0.5,
		pos="501.18,974",
		width=0.75];
	13 -- 83	[pos="691.17,897.13 650.16,913.73 565.37,948.03 524.37,964.62"];
	165	[height=0.5,
		pos="480.4,903.62",
		width=0.75];
	13 -- 165	[pos="687.1,889.59 642.01,892.65 552.5,898.73 507.53,901.78"];
	103	[height=0.5,
		pos="695.59,1021.5",
		width=0.75];
	13 -- 103	[pos="711.86,905.78 708.27,931.31 701.75,977.73 698.15,1003.3"];
	214	[height=0.5,
		pos="527.26,1065.6",
		width=0.75];
	13 -- 214	[pos="698.77,902.6 663.54,936.09 578.29,1017.1 542.98,1050.7"];
	223	[height=0.5,
		pos="564.09,933.53",
		width=0.75];
	13 -- 223	[pos="689.58,895.3 661.64,903.81 616.54,917.55 588.69,926.03"];
	142	[height=0.5,
		pos="563.17,1128.2",
		width=0.75];
	13 -- 142	[pos="703.77,904.65 676,948.8 601.55,1067.2 573.8,1111.3"];
	119	[height=0.5,
		pos="623.69,1062.5",
		width=0.75];
	13 -- 119	[pos="705.54,904.81 688.2,938.21 649.96,1011.9 632.59,1045.3"];
	122	[height=0.5,
		pos="633.16,978.34",
		width=0.75];
	13 -- 122	[pos="700.25,903.52 685.34,920.15 662,946.18 647.15,962.74"];
	222	[height=0.5,
		pos="438.02,947.67",
		width=0.75];
	13 -- 222	[pos="688.4,893.38 635.59,904.83 516.33,930.69 463.75,942.09"];
	192	[height=0.5,
		pos="709.33,977.36",
		width=0.75];
	13 -- 192	[pos="713.37,905.87 712.5,921.42 711.24,943.71 710.36,959.25"];
	15 -- 18	[pos="561.24,771.57 551.14,774.63 539.51,778.15 529.43,781.21"];
	15 -- 194	[pos="563.98,774.46 537.09,787.14 491.95,808.43 464.94,821.17"];
	15 -- 94	[pos="560.19,758.74 546.81,756.01 530.53,752.69 517.15,749.95"];
	15 -- 58	[pos="594.55,781.45 598.76,790.12 603.83,800.57 608.03,809.22"];
	15 -- 129	[pos="590.95,781.99 597.38,805.81 608.68,847.62 615.11,871.42"];
	15 -- 224	[pos="603.9,777.84 622.55,792.3 651.68,814.88 670.38,829.37"];
	15 -- 72	[pos="574.88,747.63 572.41,744 569.79,740.16 567.31,736.54"];
	15 -- 213	[pos="578.11,781.36 573.35,791.7 567.32,804.77 562.54,815.14"];
	14 -- 43	[pos="395.62,342.51 378.08,330.91 352.29,313.83 334.67,302.17"];
	14 -- 46	[pos="407.28,372.68 400.58,388.16 390.85,410.65 384.15,426.12"];
	14 -- 81	[pos="424.19,338.31 426.02,335.01 427.93,331.55 429.76,328.24"];
	114	[height=0.5,
		pos="189.89,269.72",
		width=0.75];
	14 -- 114	[pos="391.19,346.24 347.98,329.82 256.77,295.15 213.56,278.72"];
	14 -- 227	[pos="402.5,338.85 385.55,316.34 355.24,276.09 338.34,253.65"];
	147	[height=0.5,
		pos="253.15,304.75",
		width=0.75];
	14 -- 147	[pos="390.28,347.57 359.8,338.05 308.13,321.92 277.67,312.41"];
	284	[height=0.5,
		pos="248.51,351.35",
		width=0.75];
	14 -- 284	[pos="387.74,354.6 356.81,353.88 306.52,352.7 275.59,351.98"];
	182	[height=0.5,
		pos="253.14,246.8",
		width=0.75];
	14 -- 182	[pos="395.65,342.37 364.53,321.5 303.4,280.51 272.3,259.65"];
	14 -- 215	[pos="420.94,372.99 429.33,397.39 444.33,441.02 452.7,465.34"];
	14 -- 273	[pos="427.14,371.51 438.06,385.95 453.93,406.93 464.84,421.36"];
	18 -- 194	[pos="485.73,801.83 478.02,807.17 469.13,813.32 461.43,818.65"];
	18 -- 213	[pos="521,803.1 526.44,807.92 532.5,813.28 537.95,818.11"];
	43 -- 46	[pos="322.22,306.96 334.07,336.71 357.86,396.42 369.65,426.03"];
	141	[height=0.5,
		pos="124.42,308.54",
		width=0.75];
	43 -- 141	[pos="288.25,291.98 251.89,295.66 187.49,302.17 151.21,305.84"];
	43 -- 81	[pos="341.48,293.9 362.53,297.62 391.91,302.8 412.95,306.51"];
	43 -- 50	[pos="321.62,306.96 329.11,327.53 341.38,361.25 348.87,381.79"];
	252	[height=0.5,
		pos="277.9,444.62",
		width=0.75];
	43 -- 252	[pos="310.9,307.08 303.75,336.89 289.44,396.54 282.24,426.52"];
	43 -- 190	[pos="341.83,285.95 344.72,285.59 347.66,285.23 350.55,284.87"];
	60	[height=0.5,
		pos="244.17,397.9",
		width=0.75];
	43 -- 60	[pos="304.08,306.24 290.74,326.65 268.49,360.69 255.19,381.05"];
	43 -- 77	[pos="336.25,277.66 368.25,260.04 428.75,226.73 460.66,209.17"];
	43 -- 114	[pos="288.6,285.12 267.34,281.8 237.67,277.17 216.42,273.86"];
	43 -- 82	[pos="330.63,274.23 357.45,248.15 412.28,194.84 439.14,168.73"];
	43 -- 281	[pos="322.27,271.68 335.48,238.96 363.68,169.1 376.86,136.46"];
	43 -- 121	[pos="325.38,272.53 340.08,248.42 367.06,204.18 381.79,180.04"];
	293	[height=0.5,
		pos="131.66,225.62",
		width=0.75];
	43 -- 293	[pos="291.18,280.94 256.01,268.74 190.83,246.14 155.65,233.94"];
	43 -- 227	[pos="318.94,271.41 320.02,266.26 321.21,260.63 322.3,255.46"];
	172	[height=0.5,
		pos="186.45,318.77",
		width=0.75];
	43 -- 172	[pos="289.43,295.16 266.98,300.31 234.58,307.74 212.15,312.88"];
	43 -- 147	[pos="289.59,295.65 285.98,296.55 282.28,297.48 278.67,298.38"];
	168	[height=0.5,
		pos="97.235,355.67",
		width=0.75];
	43 -- 168	[pos="290.6,296.75 248.74,309.5 164.08,335.3 122.06,348.11"];
	148	[height=0.5,
		pos="182.11,417.22",
		width=0.75];
	43 -- 148	[pos="299.65,304.19 274.01,328.84 223.11,377.79 197.53,402.38"];
	260	[height=0.5,
		pos="174.62,371.72",
		width=0.75];
	43 -- 260	[pos="294.74,301.25 268.09,316.88 221.74,344.07 195.08,359.71"];
	43 -- 182	[pos="296.22,276.29 288.67,271.12 279.98,265.18 272.4,259.99"];
	43 -- 221	[pos="336.79,278.46 354.58,269.58 379.68,257.04 397.56,248.11"];
	43 -- 265	[pos="328.95,273.63 358.91,239.66 429.69,159.4 459.72,125.34"];
	290	[height=0.5,
		pos="311.2,134.22",
		width=0.75];
	43 -- 290	[pos="314.71,271.17 313.95,241.46 312.44,182.62 311.67,152.67"];
	16 -- 151	[pos="1676.9,496.76 1610.8,518.42 1428.8,578.1 1362.9,599.72"];
	16 -- 21	[pos="1676.3,481.54 1620.2,465.25 1484.5,425.84 1428.2,409.51"];
	16 -- 93	[pos="1698.4,506.97 1693.3,539.21 1682.7,605.94 1677.7,637.97"];
	16 -- 74	[pos="1679.9,477.19 1634.9,452.82 1531.1,396.52 1486.4,372.26"];
	16 -- 28	[pos="1693.2,506.23 1665.9,564.99 1577.8,755.2 1550.6,813.92"];
	16 -- 181	[pos="1695.6,506.67 1680.8,553.4 1641.2,678.7 1626.4,725.41"];
	16 -- 173	[pos="1691.2,505.55 1673.7,534.64 1638,594.12 1620.5,623.27"];
	16 -- 51	[pos="1692.6,471.31 1684.4,454.72 1672.1,429.91 1663.9,413.34"];
	16 -- 219	[pos="1684.3,474.68 1676.6,468.27 1667.5,460.7 1659.8,454.28"];
	16 -- 80	[pos="1677.1,480.7 1611,458.64 1427.8,397.5 1361.5,375.35"];
	163	[height=0.5,
		pos="1639.2,520.35",
		width=0.75];
	16 -- 163	[pos="1679.5,499.81 1673.5,502.87 1667,506.19 1661,509.26"];
	76	[height=0.5,
		pos="1624.4,332.81",
		width=0.75];
	16 -- 76	[pos="1692.7,471.48 1678,441.5 1647.8,380.2 1633,350.17"];
	102	[height=0.5,
		pos="1712.4,351.88",
		width=0.75];
	16 -- 102	[pos="1702.7,470.59 1704.9,444.41 1708.8,396.36 1711,370.14"];
	296	[height=0.5,
		pos="1799.9,629.28",
		width=0.75];
	16 -- 296	[pos="1712.8,505.16 1731.7,532.09 1769.1,585.41 1788.1,612.55"];
	16 -- 105	[pos="1678.2,479.2 1639.6,463.14 1562.1,430.97 1523.4,414.9"];
	16 -- 220	[pos="1674.3,486.74 1653.5,485.18 1624.8,483.02 1604,481.46"];
	231	[height=0.5,
		pos="1706.8,444.76",
		width=0.75];
	16 -- 231	[pos="1703.5,470.62 1703.9,468.06 1704.2,465.43 1704.5,462.87"];
	226	[height=0.5,
		pos="1715.4,556.69",
		width=0.75];
	16 -- 226	[pos="1705,506.62 1707,516.52 1709.6,528.81 1711.6,538.73"];
	180	[height=0.5,
		pos="1739.7,400.75",
		width=0.75];
	16 -- 180	[pos="1708.8,471.38 1715.6,455.95 1725.4,433.52 1732.1,418.1"];
	254	[height=0.5,
		pos="1562.4,364.11",
		width=0.75];
	16 -- 254	[pos="1685,474.23 1658.4,450.33 1605.8,403.03 1578.9,378.95"];
	264	[height=0.5,
		pos="1737.8,600.72",
		width=0.75];
	16 -- 264	[pos="1707.1,506.76 1713.9,527.65 1725.1,561.9 1732,582.78"];
	240	[height=0.5,
		pos="1675.8,611.9",
		width=0.75];
	16 -- 240	[pos="1697.5,506.67 1692.7,530.02 1684.3,570.62 1679.5,593.97"];
	16 -- 272	[pos="1693.8,506.35 1676.8,546.07 1635.9,642.33 1619,681.86"];
	93 -- 173	[pos="1649.4,649.66 1645,648.59 1640.4,647.48 1636.1,646.41"];
	93 -- 296	[pos="1700.7,650.38 1722.2,645.82 1752.6,639.35 1774,634.79"];
	93 -- 272	[pos="1655.9,668.91 1647.9,674.39 1638.6,680.77 1630.6,686.25"];
	152 -- 161	[pos="812.83,859.51 822.35,865.99 833.82,873.81 843.32,880.29"];
	17 -- 201	[pos="897.03,974.61 914.7,969.25 938.41,962.06 956.14,956.69"];
	17 -- 34	[pos="856.39,996.89 829.2,1022.1 774.2,1073.1 746.89,1098.4"];
	41	[height=0.5,
		pos="832.26,1026.1",
		width=0.75];
	17 -- 41	[pos="858.34,997.49 854.45,1001.8 850.23,1006.4 846.35,1010.7"];
	17 -- 48	[pos="848.78,991.15 829.59,998.52 802.63,1008.9 783.44,1016.2"];
	56	[height=0.5,
		pos="911.93,1071.4",
		width=0.75];
	17 -- 56	[pos="880.18,999.73 887.16,1015.5 897.33,1038.4 904.26,1054.1"];
	17 -- 106	[pos="856.63,967.41 851.38,962.51 845.53,957.04 840.26,952.12"];
	17 -- 95	[pos="899.32,984.49 920.16,986.35 948.87,988.9 969.69,990.76"];
	203	[height=0.5,
		pos="1047.6,1037.2",
		width=0.75];
	17 -- 203	[pos="897.1,989.87 930.51,1000.4 989.69,1019 1023,1029.4"];
	110	[height=0.5,
		pos="974.45,1056",
		width=0.75];
	17 -- 110	[pos="891.08,995.64 909.5,1009 937.46,1029.2 955.84,1042.5"];
	135	[height=0.5,
		pos="1110.3,1037.5",
		width=0.75];
	17 -- 135	[pos="898.28,988.12 944.18,998.8 1039.2,1020.9 1084.8,1031.5"];
	34 -- 85	[pos="720.49,1096.4 718.43,1093 716.26,1089.5 714.2,1086.1"];
	34 -- 38	[pos="736.24,1095.5 743.99,1070.3 758.08,1024.5 765.85,999.22"];
	34 -- 41	[pos="747.53,1098.9 766.33,1082.8 796.66,1056.7 815.48,1040.5"];
	139	[height=0.5,
		pos="704.67,1201.4",
		width=0.75];
	34 -- 139	[pos="725.49,1131.1 720.96,1146.4 714.47,1168.3 709.94,1183.6"];
	34 -- 48	[pos="736.66,1095.5 741.72,1080.2 748.96,1058.3 754.01,1043.1"];
	34 -- 56	[pos="756.34,1107.4 790.77,1099.4 851.68,1085.3 886.19,1077.3"];
	61	[height=0.5,
		pos="757.7,1157.3",
		width=0.75];
	34 -- 61	[pos="741.1,1130.2 743.18,1133.6 745.36,1137.2 747.44,1140.6"];
	75	[height=0.5,
		pos="769.91,1069.3",
		width=0.75];
	34 -- 75	[pos="744.9,1097.4 748.49,1093.4 752.35,1089 755.93,1085"];
	184	[height=0.5,
		pos="809.1,1113.3",
		width=0.75];
	34 -- 184	[pos="758.16,1113.3 765.84,1113.3 774.18,1113.3 781.85,1113.3"];
	92	[height=0.5,
		pos="599.64,1220.1",
		width=0.75];
	34 -- 92	[pos="713.63,1127.3 688.49,1147.8 641.92,1185.7 616.79,1206.2"];
	34 -- 142	[pos="703.84,1115.7 672.57,1118.5 621.28,1123 590.03,1125.8"];
	34 -- 119	[pos="708.58,1102.8 690.2,1094.1 664.22,1081.7 645.85,1073"];
	112	[height=0.5,
		pos="689.42,1157.3",
		width=0.75];
	34 -- 112	[pos="716.31,1128.7 712.3,1133 707.95,1137.6 703.94,1141.9"];
	206	[height=0.5,
		pos="919.36,1233.2",
		width=0.75];
	34 -- 206	[pos="750.59,1125.9 786.91,1149 863.68,1197.8 899.8,1220.8"];
	175	[height=0.5,
		pos="619.73,1173.3",
		width=0.75];
	34 -- 175	[pos="709.62,1124.7 689.86,1135.4 660.53,1151.3 640.8,1161.9"];
	154	[height=0.5,
		pos="705.15,1265.2",
		width=0.75];
	34 -- 154	[pos="727.73,1131.3 722.8,1160.6 713.11,1218 708.18,1247.2"];
	178	[height=0.5,
		pos="767.24,1242.5",
		width=0.75];
	34 -- 178	[pos="735.76,1131 742.71,1155.6 755.21,1199.9 762.19,1224.6"];
	183	[height=0.5,
		pos="855.09,1236",
		width=0.75];
	34 -- 183	[pos="746.01,1128.4 769.87,1151.9 815.78,1197.2 839.72,1220.8"];
	249 -- 292	[pos="1496.7,769.42 1479.8,770.04 1458.3,770.82 1441.4,771.43"];
	249 -- 271	[pos="1548.8,775.58 1554.1,777.09 1559.7,778.68 1565,780.18"];
	91 -- 223	[pos="642.59,933.4 626.8,933.42 606.99,933.46 591.22,933.48"];
	91 -- 122	[pos="656.79,949.34 653.33,953.58 649.6,958.16 646.15,962.4"];
	91 -- 192	[pos="684.09,949.24 687.71,953.28 691.6,957.61 695.22,961.64"];
	20 -- 79	[pos="838.76,695.01 830.49,697.93 821.26,701.2 813.01,704.11"];
	20 -- 57	[pos="850.61,670.44 840.76,657.72 827.04,640 817.14,627.22"];
	20 -- 36	[pos="869.42,704.26 874.91,719.53 882.79,741.43 888.28,756.69"];
	20 -- 45	[pos="884.74,697.55 918.84,714.98 984.54,748.57 1018.6,765.97"];
	256	[height=0.5,
		pos="924.38,858.61",
		width=0.75];
	20 -- 256	[pos="869.34,704.22 881.14,737.3 906.31,807.93 918.08,840.93"];
	20 -- 59	[pos="890.1,684.83 911.78,683.53 942.03,681.73 963.7,680.43"];
	20 -- 69	[pos="888.76,692.13 919.64,698.95 971.09,710.31 1002,717.13"];
	20 -- 196	[pos="855.2,703.7 850.21,714.74 843.74,729.02 838.72,740.13"];
	20 -- 88	[pos="836.13,689.46 809.69,692.42 769.56,696.92 743.18,699.88"];
	199	[height=0.5,
		pos="978.16,814.6",
		width=0.75];
	20 -- 199	[pos="876.9,701.9 899.03,726.54 942.06,774.42 964.22,799.09"];
	266	[height=0.5,
		pos="859.47,818.5",
		width=0.75];
	20 -- 266	[pos="862.52,704.53 861.85,729.68 860.64,774.96 859.96,800.21"];
	194 -- 213	[pos="469.65,831.96 487.11,832.11 509.73,832.31 527.22,832.47"];
	108 -- 220	[pos="1573.5,453.29 1573.9,455.95 1574.3,458.71 1574.6,461.38"];
	22 -- 44	[pos="837.37,234.04 867.34,226.81 916.85,214.85 946.88,207.6"];
	22 -- 150	[pos="789.48,250.47 758.63,264.59 703.47,289.84 672.72,303.92"];
	22 -- 55	[pos="833.97,229.29 877.2,207.92 972.64,160.72 1015.7,139.44"];
	22 -- 127	[pos="838.75,243.08 856.34,244.98 879.27,247.45 896.9,249.35"];
	22 -- 230	[pos="825.97,255.96 832.71,263.53 840.76,272.57 847.49,280.12"];
	22 -- 52	[pos="785.2,243.98 744.58,249.73 667.81,260.61 627.32,266.34"];
	22 -- 248	[pos="794.4,253.92 781.4,264.1 763.74,277.93 750.68,288.15"];
	22 -- 109	[pos="839.2,241.94 874.84,244.23 936.91,248.23 972.42,250.51"];
	22 -- 238	[pos="835.97,231.93 849.79,227.18 867.12,221.23 880.98,216.47"];
	22 -- 162	[pos="831.74,227.6 862.73,207.91 922.37,170.01 953.46,150.25"];
	22 -- 171	[pos="791.35,252.08 751.06,275.37 662.23,326.7 621.88,350.02"];
	22 -- 276	[pos="785.64,244.39 768.08,247.19 745.06,250.86 727.46,253.68"];
	57 -- 210	[pos="803.06,592.89 802.63,587.66 802.15,581.96 801.72,576.72"];
	74 -- 80	[pos="1438.1,362.16 1416.3,363.24 1385.9,364.76 1364.2,365.85"];
	187	[height=0.5,
		pos="1649.8,288.73",
		width=0.75];
	74 -- 187	[pos="1488.6,351.67 1524,337.85 1590.9,311.75 1626.4,297.9"];
	74 -- 76	[pos="1491.5,356.17 1521,350.99 1568.6,342.62 1598.1,337.44"];
	74 -- 102	[pos="1492.6,359.81 1540.3,358.09 1637.8,354.57 1685.3,352.86"];
	74 -- 295	[pos="1438.8,356.47 1435.6,355.95 1432.4,355.42 1429.2,354.9"];
	289	[height=0.5,
		pos="1617.2,244.67",
		width=0.75];
	74 -- 289	[pos="1483.3,347.02 1512.5,324.67 1570,280.77 1599.2,258.43"];
	74 -- 254	[pos="1492.3,361.72 1505.7,362.17 1521.8,362.72 1535.1,363.18"];
	267	[height=0.5,
		pos="1579.8,288.8",
		width=0.75];
	74 -- 267	[pos="1484.9,348.42 1505.9,335.23 1539,314.47 1560,301.26"];
	159 -- 287	[pos="1549.2,644.08 1552,617.55 1557,568.38 1559.8,541.84"];
	159 -- 186	[pos="1559.8,645.76 1572.9,628.45 1593.5,601.35 1606.6,584.12"];
	159 -- 274	[pos="1523.7,653.2 1518.1,651.07 1512.1,648.79 1506.5,646.66"];
	150 -- 248	[pos="677,310.23 686.42,308.85 697.01,307.31 706.42,305.93"];
	150 -- 164	[pos="625.12,307.68 606.84,303.03 582.28,296.79 564.03,292.15"];
	23 -- 42	[pos="899.52,436.36 900.88,461.5 903.34,506.78 904.71,532.04"];
	23 -- 269	[pos="915.66,404.29 944.31,380.92 1001.6,334.15 1030.4,310.63"];
	23 -- 146	[pos="895.23,436.45 889.09,470.28 875.98,542.51 869.85,576.26"];
	23 -- 158	[pos="917.83,405.42 939.47,391 974.38,367.74 996.04,353.32"];
	23 -- 195	[pos="924.54,413 955.71,406.69 1007.6,396.17 1038.8,389.84"];
	24 -- 123	[pos="1485.3,476.6 1461,487.91 1422.4,505.87 1398.1,517.2"];
	24 -- 186	[pos="1523.6,480.73 1544.6,499.96 1581.4,533.62 1602.6,553"];
	123 -- 188	[pos="1348.9,524.4 1313.5,520.03 1251.4,512.36 1216.1,508"];
	123 -- 128	[pos="1392.2,513.49 1402.9,504.4 1416.7,492.64 1427.4,483.5"];
	123 -- 125	[pos="1349.6,532.98 1315.2,540 1254.8,552.31 1220.5,559.32"];
	123 -- 287	[pos="1402.6,527.12 1437.9,526.37 1499.3,525.06 1534.6,524.31"];
	123 -- 239	[pos="1370.2,510.04 1363.8,488.93 1353.1,453.81 1346.6,432.6"];
	123 -- 186	[pos="1402.1,532.07 1448.9,539.8 1545.6,555.78 1592.4,563.51"];
	123 -- 274	[pos="1390.5,542.99 1411,564 1447.6,601.57 1468,622.51"];
	40 -- 84	[pos="1290,542.49 1294.3,535.09 1299.3,526.42 1303.6,519.01"];
	40 -- 78	[pos="1271.9,542.1 1254.7,505.8 1215.1,422.05 1197.9,385.66"];
	40 -- 70	[pos="1278.6,577.56 1278.4,580.11 1278.2,582.74 1278,585.3"];
	40 -- 115	[pos="1302.4,569.68 1327.9,581.41 1369.4,600.49 1394.9,612.23"];
	40 -- 211	[pos="1279.9,577.63 1279.8,593.81 1279.6,617.32 1279.4,633.49"];
	143	[height=0.5,
		pos="1251.5,515.37",
		width=0.75];
	40 -- 143	[pos="1269.3,542.75 1267,539.24 1264.6,535.54 1262.3,532.04"];
	40 -- 156	[pos="1305.4,552.58 1334.8,544.67 1383,531.69 1412.3,523.78"];
	235	[height=0.5,
		pos="1499.6,536.3",
		width=0.75];
	40 -- 235	[pos="1307,556.56 1349.3,552.12 1430.6,543.56 1472.8,539.12"];
	25 -- 71	[pos="359.5,500.26 368.07,505.75 378.11,512.19 386.69,517.7"];
	25 -- 46	[pos="353.18,471.75 356.54,467.7 360.16,463.35 363.52,459.3"];
	25 -- 30	[pos="325.96,503.13 303.02,528.48 257.59,578.66 234.46,604.2"];
	25 -- 33	[pos="351.37,504.27 365.12,524.18 388.05,557.39 401.77,577.25"];
	25 -- 96	[pos="331.66,504.9 320.69,527.73 301.44,567.78 290.48,590.58"];
	25 -- 50	[pos="343.11,469.42 345.77,454.17 349.53,432.57 352.17,417.41"];
	25 -- 252	[pos="320.98,474.54 313.29,469.2 304.42,463.03 296.73,457.7"];
	25 -- 60	[pos="324.12,472.88 306.37,456.24 277.76,429.4 260.01,412.75"];
	97	[height=0.5,
		pos="281.06,533.32",
		width=0.75];
	25 -- 97	[pos="322.27,501.39 314.82,507.16 306.16,513.87 298.71,519.64"];
	90	[height=0.5,
		pos="224.49,488.74",
		width=0.75];
	25 -- 90	[pos="312.86,487.95 294.47,488.11 270.23,488.33 251.79,488.5"];
	25 -- 132	[pos="340.92,505.8 341.63,518.85 342.58,536.39 343.29,549.43"];
	25 -- 148	[pos="317.32,477.61 287.31,464.21 234.66,440.69 204.68,427.3"];
	71 -- 97	[pos="379.17,530.96 358.15,531.47 329.2,532.16 308.2,532.67"];
	71 -- 90	[pos="380.68,524.44 346.12,516.54 284.97,502.56 250.32,494.64"];
	71 -- 217	[pos="429.6,539.7 437.85,543.03 447.12,546.77 455.37,550.1"];
	26	[height=0.5,
		pos="1194.9,416.67",
		width=0.75];
	26 -- 39	[pos="1191.4,434.53 1184.1,472.02 1167.2,558.52 1159.9,596.1"];
	26 -- 78	[pos="1192.9,398.64 1192.5,394.67 1192,390.45 1191.6,386.46"];
	191	[height=0.5,
		pos="1174.7,323.52",
		width=0.75];
	26 -- 191	[pos="1191,398.71 1187.4,382.21 1182.2,357.9 1178.6,341.43"];
	26 -- 143	[pos="1204.7,433.86 1215.1,451.97 1231.4,480.33 1241.7,498.37"];
	207	[height=0.5,
		pos="1179,460.7",
		width=0.75];
	26 -- 207	[pos="1188.5,434.32 1187.5,437.19 1186.4,440.17 1185.4,443.04"];
	26 -- 116	[pos="1168.6,412.66 1163.7,411.92 1158.6,411.14 1153.7,410.39"];
	39 -- 113	[pos="1170,629.81 1182.6,644.26 1201,665.57 1213.5,680.01"];
	39 -- 170	[pos="1151.4,596.05 1146.1,577.06 1137.7,547.34 1132.4,528.43"];
	39 -- 70	[pos="1183.4,611.68 1203.1,609.92 1229.9,607.55 1249.7,605.8"];
	39 -- 211	[pos="1181,621.59 1202.2,628.11 1232.9,637.5 1254.3,644.05"];
	39 -- 143	[pos="1171.3,598.64 1189.1,580.1 1218.9,549.18 1236.7,530.68"];
	39 -- 207	[pos="1159.1,595.87 1163.4,566.35 1172,508.37 1176.4,478.87"];
	39 -- 116	[pos="1153.9,596 1148.4,556.72 1135.4,463.93 1129.8,424.55"];
	39 -- 176	[pos="1129.4,616.19 1124,616.62 1118.3,617.07 1112.8,617.5"];
	46 -- 71	[pos="382.64,461.09 387.76,476.04 395.09,497.44 400.24,512.47"];
	46 -- 252	[pos="349.38,443.82 335.57,443.98 318.85,444.16 305.05,444.32"];
	46 -- 60	[pos="352.33,435.16 328.43,426.92 292.15,414.43 268.31,406.22"];
	46 -- 172	[pos="357.34,430.88 320.89,406.97 242.27,355.39 205.78,331.46"];
	46 -- 147	[pos="362.69,427.87 338.98,401.22 291.02,347.31 267.21,320.56"];
	46 -- 284	[pos="358.26,430.32 334.05,412.89 291.65,382.39 267.25,364.83"];
	46 -- 148	[pos="349.98,439.92 312.84,434.9 245.87,425.84 208.73,420.82"];
	46 -- 260	[pos="352.65,435 313.78,421.19 237.41,394.04 198.55,380.23"];
	46 -- 215	[pos="398.63,454.09 410.41,459.75 424.89,466.7 436.68,472.36"];
	84 -- 111	[pos="1301.1,485.93 1298,481.93 1294.7,477.65 1291.6,473.66"];
	84 -- 156	[pos="1340.1,505.23 1360.9,507.74 1389.7,511.21 1410.6,513.73"];
	84 -- 235	[pos="1339.8,506.86 1375.2,513.4 1438.1,524.97 1473.5,531.49"];
	282	[height=0.5,
		pos="1556.9,580.31",
		width=0.75];
	84 -- 282	[pos="1338.2,509.96 1384.9,525.01 1485.9,557.5 1532.5,572.47"];
	111 -- 123	[pos="1297.7,470.98 1314.8,483.42 1340,501.76 1357,514.19"];
	111 -- 156	[pos="1302.8,466.35 1332.8,477.61 1384,496.86 1413.9,508.1"];
	111 -- 128	[pos="1306,459.32 1336.8,461.47 1386.7,464.98 1417.5,467.13"];
	111 -- 125	[pos="1266.3,473.71 1250.3,493.97 1223.2,528.35 1207.3,548.52"];
	111 -- 239	[pos="1298.1,444.38 1305.8,439.07 1314.6,432.96 1322.3,427.67"];
	27 -- 66	[pos="773.43,297.22 738.82,281.6 672.8,251.83 638.19,236.22"];
	27 -- 98	[pos="790.37,325.23 787.19,335.53 783.22,348.42 780.04,358.74"];
	27 -- 131	[pos="775.96,294.87 737.6,270.85 653.89,218.43 615.6,194.44"];
	27 -- 126	[pos="792.34,325.25 786.2,356.32 773.64,419.83 767.49,450.95"];
	89	[height=0.5,
		pos="843.2,167.26",
		width=0.75];
	27 -- 89	[pos="801.88,289.6 810.98,262.66 828.18,211.72 837.26,184.86"];
	27 -- 100	[pos="793.83,289.15 790.43,259.09 783.69,199.43 780.31,169.46"];
	234	[height=0.5,
		pos="883.19,85.486",
		width=0.75];
	27 -- 234	[pos="802.88,289.56 819.27,247.92 859.98,144.47 876.28,103.04"];
	27 -- 133	[pos="796.11,289.24 796.57,251.26 797.65,163.62 798.12,125.55"];
	202	[height=0.5,
		pos="909.34,129.66",
		width=0.75];
	27 -- 202	[pos="806.56,290.63 828.18,256.76 876.94,180.4 898.61,146.46"];
	27 -- 297	[pos="783.32,291.06 770.09,273.91 749.37,247.05 736.19,229.97"];
	28 -- 181	[pos="1556.5,815.6 1570.7,799.57 1592.7,774.87 1606.9,758.89"];
	28 -- 49	[pos="1516.1,835.09 1471.8,841.38 1383,853.97 1338.6,860.27"];
	28 -- 67	[pos="1536.8,849.15 1531.4,866.08 1523.4,891.4 1518,908.3"];
	28 -- 63	[pos="1515.3,830.69 1506.2,830.47 1495.9,830.23 1486.8,830.01"];
	99	[height=0.5,
		pos="1673.2,855.79",
		width=0.75];
	28 -- 99	[pos="1568.7,836.23 1591.5,840.5 1624.4,846.65 1647.1,850.91"];
	28 -- 185	[pos="1524,844.91 1514.1,852.17 1502,861.1 1492.1,868.37"];
	124	[height=0.5,
		pos="1549,875.36",
		width=0.75];
	28 -- 124	[pos="1545.2,849.5 1545.6,852.06 1546,854.69 1546.4,857.25"];
	28 -- 286	[pos="1563.8,842.72 1572,847.08 1581.4,852.06 1589.6,856.43"];
	28 -- 271	[pos="1558.4,816.69 1563.5,811.98 1569.1,806.78 1574.2,802.07"];
	28 -- 272	[pos="1551.4,814.34 1564.6,789.12 1589.2,742.03 1602.5,716.6"];
	29 -- 35	[pos="1052.8,660.3 1047.2,641.35 1038.4,611.67 1032.8,592.79"];
	29 -- 283	[pos="1070.3,694.82 1084.5,714.01 1107.7,745.49 1121.9,764.67"];
	30 -- 96	[pos="246.16,614.84 249.48,614.19 252.87,613.52 256.19,612.87"];
	30 -- 212	[pos="244.63,628 264.5,634.55 292.42,643.76 312.28,650.31"];
	30 -- 101	[pos="232.91,636.08 237.6,642.03 242.9,648.77 247.59,654.73"];
	208	[height=0.5,
		pos="96.052,635.04",
		width=0.75];
	30 -- 208	[pos="193.58,623.18 172.63,625.73 143.58,629.26 122.64,631.81"];
	30 -- 277	[pos="247.32,618.75 269.77,617.76 301.52,616.36 323.96,615.37"];
	30 -- 132	[pos="243.26,610.19 265.54,600.76 299.11,586.56 321.36,577.15"];
	174	[height=0.5,
		pos="96.04,585.27",
		width=0.75];
	30 -- 174	[pos="195.09,612.93 173.54,606.91 142.66,598.29 121.13,592.28"];
	232	[height=0.5,
		pos="31.84,618.24",
		width=0.75];
	30 -- 232	[pos="192.82,619.7 157.01,619.37 94.64,618.81 58.959,618.49"];
	225	[height=0.5,
		pos="158.1,556.82",
		width=0.75];
	30 -- 225	[pos="205.18,604.66 195.41,594.74 182.74,581.85 173,571.96"];
	298	[height=0.5,
		pos="27,573.15",
		width=0.75];
	30 -- 298	[pos="194.56,613.73 157.5,604.75 89.4,588.26 52.456,579.31"];
	30 -- 257	[pos="237.96,633.61 257.87,648.95 289.99,673.69 309.91,689.04"];
	31 -- 113	[pos="1220.6,737.88 1221.8,730.25 1223.1,721.39 1224.3,713.77"];
	32 -- 137	[pos="928.79,664.29 929.68,650.33 930.9,631.1 931.79,617.15"];
	32 -- 54	[pos="934.41,699.77 940.37,715.14 949.01,737.42 955.01,752.87"];
	32 -- 146	[pos="916.16,665.79 905.24,650.06 888.91,626.53 878.01,610.82"];
	32 -- 140	[pos="941.07,698.23 944.48,702.27 948.14,706.6 951.55,710.63"];
	32 -- 86	[pos="909.48,668.66 902.38,663.32 894.25,657.2 887.17,651.87"];
	54 -- 140	[pos="963.07,752.58 963.25,749.9 963.43,747.14 963.61,744.46"];
	33 -- 71	[pos="411.2,575.7 410.29,567.21 409.21,557.09 408.3,548.57"];
	33 -- 96	[pos="386.32,596.58 363.73,599 331.58,602.45 309,604.88"];
	33 -- 263	[pos="410.67,611.86 408.02,631.54 403.8,662.78 401.14,682.49"];
	33 -- 53	[pos="433.66,605.68 452.84,616.88 481.32,633.5 500.48,644.68"];
	33 -- 97	[pos="390.72,583.45 366.44,572.35 327.9,554.73 303.58,543.61"];
	33 -- 217	[pos="434.55,582.49 441.86,578.67 450.02,574.4 457.32,570.59"];
	33 -- 101	[pos="391.56,604.6 362.61,619.24 311.45,645.1 282.3,659.83"];
	33 -- 277	[pos="388.58,601.79 384.25,603.22 379.73,604.71 375.39,606.14"];
	33 -- 145	[pos="420.99,611.36 429.86,631.3 444.21,663.52 453.02,683.33"];
	33 -- 177	[pos="439.04,599.04 450.93,601.49 464.99,604.38 476.88,606.83"];
	96 -- 97	[pos="281.95,589.73 281.77,578.12 281.53,563.06 281.35,551.43"];
	179	[height=0.5,
		pos="158.12,625.78",
		width=0.75];
	96 -- 179	[pos="255.61,611.62 234.67,614.66 205.63,618.88 184.7,621.92"];
	96 -- 101	[pos="276.14,625.35 273.15,633.97 269.56,644.32 266.56,652.99"];
	96 -- 174	[pos="255.55,604.53 220.16,600.26 158.04,592.76 122.67,588.49"];
	209	[height=0.5,
		pos="198.32,670.06",
		width=0.75];
	96 -- 209	[pos="264.02,621.27 249.95,631.72 230.56,646.12 216.49,656.57"];
	96 -- 225	[pos="259.17,598.29 237.02,589.2 203.71,575.53 181.45,566.4"];
	85 -- 103	[pos="700.82,1051.2 700.15,1047.4 699.44,1043.4 698.77,1039.6"];
	85 -- 119	[pos="676.81,1067 668.35,1066.3 659.02,1065.5 650.58,1064.7"];
	85 -- 175	[pos="690.83,1085.5 675,1105.1 648.59,1137.7 632.8,1157.2"];
	68 -- 167	[pos="1048.1,486.7 1041.9,481.67 1035,476.01 1028.9,470.98"];
	36 -- 47	[pos="920.17,781.01 958.21,790.74 1029.4,808.97 1067.4,818.69"];
	36 -- 79	[pos="874.3,762.55 855.58,751.6 827.98,735.45 809.28,724.5"];
	36 -- 152	[pos="876.17,787.69 858.06,800.6 830.64,820.15 812.46,833.12"];
	130	[height=0.5,
		pos="977.81,905.08",
		width=0.75];
	36 -- 130	[pos="905.38,791.29 921.34,816.36 951.22,863.3 967.16,888.34"];
	36 -- 45	[pos="921.72,774.95 947.69,775.41 986.74,776.09 1012.8,776.55"];
	36 -- 256	[pos="900.98,792.32 906.06,806.7 913.15,826.79 918.19,841.08"];
	36 -- 169	[pos="914.26,787.26 941.96,805.34 992.32,838.2 1020.1,856.34"];
	36 -- 199	[pos="916.62,785.02 928.79,790.87 943.89,798.13 956.08,803.99"];
	36 -- 266	[pos="881.97,790.37 878.82,794.31 875.44,798.54 872.29,802.49"];
	131 -- 297	[pos="621.36,188.39 643.68,193.95 675.91,201.96 698.22,207.52"];
	38 -- 152	[pos="774.34,963.37 778.61,937.59 786.46,890.28 790.74,864.46"];
	38 -- 91	[pos="749.08,970.76 732.15,962.77 708.97,951.83 692.05,943.84"];
	38 -- 155	[pos="796.19,973.85 822.64,965.94 864.28,953.48 890.79,945.55"];
	38 -- 56	[pos="790.91,993.8 817.62,1010.9 865.25,1041.5 892.1,1058.7"];
	38 -- 129	[pos="751.26,969.07 722.3,951.48 669.15,919.21 640.14,901.6"];
	38 -- 62	[pos="754.74,995.65 726.92,1019.7 671.26,1067.8 643.27,1092"];
	38 -- 75	[pos="771.07,999.51 770.82,1014.6 770.46,1036 770.21,1051.1"];
	38 -- 224	[pos="761.19,964.35 745.25,937.87 714.58,886.91 698.59,860.34"];
	38 -- 184	[pos="776.46,999.08 783.66,1024.3 796.75,1070.1 803.97,1095.4"];
	38 -- 95	[pos="798.54,982.71 841.83,984.99 925.98,989.43 969.34,991.72"];
	38 -- 112	[pos="763.36,998.48 747.7,1032.1 713.15,1106.3 697.46,1140.1"];
	38 -- 122	[pos="744.06,980.69 719.83,980.18 684.62,979.43 660.41,978.92"];
	38 -- 161	[pos="786.8,966.34 803.53,950.15 830.07,924.46 846.83,908.25"];
	278	[height=0.5,
		pos="871.12,1115.8",
		width=0.75];
	38 -- 278	[pos="783.4,997.51 802.57,1023.4 839.84,1073.7 859.04,1099.6"];
	38 -- 192	[pos="744.34,979.57 741.73,979.4 739.08,979.24 736.46,979.07"];
	155 -- 161	[pos="898.86,923.89 892.62,918.66 885.56,912.73 879.31,907.49"];
	41 -- 48	[pos="804.9,1025.8 799.14,1025.7 793.06,1025.7 787.29,1025.6"];
	41 -- 106	[pos="830.66,1008.1 829.29,992.83 827.34,970.92 825.96,955.52"];
	139 -- 154	[pos="704.8,1219.5 704.87,1228.1 704.94,1238.2 705.01,1246.8"];
	139 -- 178	[pos="724.12,1214.2 731.73,1219.2 740.43,1224.9 748.01,1229.9"];
	205	[height=0.5,
		pos="765.17,1309.2",
		width=0.75];
	139 -- 205	[pos="714.39,1218.7 725.75,1238.9 744.41,1272.2 755.68,1292.3"];
	237 -- 262	[pos="681.62,656.01 691.1,655.75 701.75,655.45 711.25,655.18"];
	130 -- 199	[pos="977.88,886.77 977.94,871.07 978.03,848.57 978.09,832.88"];
	78 -- 84	[pos="1203.8,383.61 1227.6,409.27 1275.2,460.63 1299.1,486.45"];
	78 -- 191	[pos="1183.7,350.58 1182.7,347.55 1181.7,344.4 1180.7,341.37"];
	78 -- 143	[pos="1197,385.72 1208.9,414.03 1232.3,469.64 1244.2,497.94"];
	78 -- 207	[pos="1187.5,386.53 1185.7,402.73 1183,426.28 1181.1,442.48"];
	78 -- 116	[pos="1169.6,380.54 1162.4,384.89 1154.4,389.78 1147.3,394.13"];
	250	[height=0.5,
		pos="1180,276.94",
		width=0.75];
	78 -- 250	[pos="1187.7,350.22 1186,334.21 1183.6,310.94 1181.9,294.95"];
	48 -- 85	[pos="742.21,1039.2 735.68,1044.3 728.29,1050.2 721.76,1055.3"];
	48 -- 61	[pos="759.6,1043.4 759.18,1068.5 758.43,1113.8 758.01,1139.1"];
	48 -- 106	[pos="772.02,1008.7 783.61,992.89 800.98,969.15 812.48,953.44"];
	48 -- 103	[pos="733,1023.7 729.56,1023.5 726.03,1023.3 722.59,1023.1"];
	212 -- 277	[pos="342.43,640.64 343.36,637.76 344.33,634.78 345.27,631.9"];
	107	[height=0.5,
		pos="1065.6,1095.4",
		width=0.75];
	56 -- 107	[pos="938.35,1075.5 966.58,1079.9 1011.1,1086.9 1039.3,1091.3"];
	56 -- 95	[pos="927.86,1056.7 942.99,1042.7 965.63,1021.8 980.75,1007.8"];
	56 -- 110	[pos="937.36,1065.1 941.14,1064.2 945.05,1063.2 948.84,1062.3"];
	236	[height=0.5,
		pos="1003,1100.4",
		width=0.75];
	56 -- 236	[pos="936.33,1079.2 949.39,1083.3 965.44,1088.5 978.52,1092.6"];
	170 -- 176	[pos="1120.8,528.13 1113.1,548.47 1100.4,581.82 1092.6,602.14"];
	70 -- 115	[pos="1303,607.01 1328,610.4 1365.3,615.46 1390.4,618.86"];
	70 -- 211	[pos="1277.5,621.67 1277.8,625.51 1278,629.57 1278.2,633.41"];
	70 -- 143	[pos="1271.5,585.6 1267.1,570.32 1260.9,548.43 1256.6,533.16"];
	115 -- 156	[pos="1420.7,604.6 1424.4,585.2 1430.3,554.41 1434.1,534.97"];
	115 -- 235	[pos="1432,607.09 1446.9,591.4 1470,567.22 1485,551.58"];
	191 -- 250	[pos="1176.8,305.38 1177.1,302.01 1177.5,298.48 1177.9,295.11"];
	141 -- 168	[pos="114.6,325.56 112.11,329.88 109.43,334.53 106.94,338.84"];
	141 -- 148	[pos="133.43,325.52 144.2,345.82 162.13,379.6 172.96,400"];
	81 -- 121	[pos="433.53,293.31 424.46,264.88 406.83,209.61 397.75,181.14"];
	81 -- 227	[pos="419.77,298.47 399.06,284.96 366.44,263.7 345.68,250.16"];
	81 -- 273	[pos="444.57,329 451.79,353.1 464.59,395.79 471.8,419.84"];
	50 -- 252	[pos="334.96,411.32 323.68,417.9 309.68,426.07 298.37,432.67"];
	50 -- 190	[pos="358.62,381.54 362.73,359.39 369.7,321.87 373.83,299.64"];
	50 -- 60	[pos="328.11,399.07 310.89,398.83 288.7,398.52 271.46,398.28"];
	55 -- 238	[pos="1017.4,140.73 992.54,155.67 950.46,180.96 925.53,195.95"];
	55 -- 162	[pos="1010.7,132.39 1007.1,132.88 1003.5,133.39 999.9,133.89"];
	230 -- 248	[pos="834.46,297.07 812.68,298.14 782.14,299.64 760.26,300.71"];
	230 -- 238	[pos="870.06,278.43 877.75,263.07 888.92,240.75 896.61,225.4"];
	45 -- 47	[pos="1056.3,791.74 1062.8,797.71 1070.3,804.6 1076.8,810.57"];
	45 -- 130	[pos="1031.8,794.3 1019.9,818.74 998.24,863.16 986.29,887.67"];
	45 -- 169	[pos="1040.1,795.24 1040.1,811.4 1040,834.89 1039.9,851.04"];
	45 -- 69	[pos="1036.1,758.98 1034.8,753.19 1033.3,746.78 1032,740.99"];
	45 -- 65	[pos="1063.4,786.55 1084.3,795.14 1114.9,807.72 1135.8,816.31"];
	45 -- 149	[pos="1049,794.09 1060.8,816.72 1081.3,856.45 1093,879.07"];
	45 -- 199	[pos="1019.9,789.33 1013,793.53 1005.2,798.21 998.31,802.4"];
	45 -- 294	[pos="1055.8,762.27 1062,756.39 1069.1,749.62 1075.3,743.72"];
	166 -- 294	[pos="1134.4,704.79 1127.2,708.76 1119.2,713.2 1112,717.16"];
	166 -- 200	[pos="1165.7,709.83 1177.9,729.79 1198.3,763.01 1210.6,783.07"];
	256 -- 266	[pos="904.55,846.36 896.65,841.47 887.56,835.86 879.63,830.96"];
	61 -- 85	[pos="747.35,1140.4 737.84,1124.8 723.82,1101.8 714.32,1086.2"];
	49 -- 138	[pos="1287.7,856.39 1283.5,855.08 1279.1,853.72 1274.9,852.41"];
	49 -- 67	[pos="1336.7,871.62 1375.1,883.53 1449,906.43 1487.6,918.37"];
	49 -- 63	[pos="1337.8,857.98 1364.7,851.66 1406.7,841.78 1433.7,835.44"];
	49 -- 242	[pos="1306,846.49 1302.9,837.58 1299.1,826.78 1296,817.82"];
	49 -- 64	[pos="1330.7,877.24 1359.2,897.57 1413.5,936.28 1442.1,956.7"];
	49 -- 136	[pos="1303.7,881.35 1296.6,895.71 1286.7,916.01 1279.7,930.37"];
	49 -- 185	[pos="1338.8,866.99 1368.7,870.31 1416.9,875.68 1446.8,879"];
	49 -- 124	[pos="1339.3,865.32 1384.9,867.5 1476.2,871.88 1521.8,874.06"];
	49 -- 288	[pos="1321,881.06 1323.2,885.29 1325.6,889.82 1327.8,894.05"];
	49 -- 216	[pos="1328,879.03 1343.7,893.79 1367.4,916.19 1383,930.92"];
	243	[height=0.5,
		pos="1397.3,867.19",
		width=0.75];
	49 -- 243	[pos="1339.6,865.04 1349.4,865.4 1360.4,865.82 1370.2,866.18"];
	67 -- 185	[pos="1498.3,910.13 1494.8,906.08 1490.9,901.74 1487.4,897.71"];
	67 -- 118	[pos="1531.8,938.67 1543.4,946.26 1558.2,955.89 1569.9,963.48"];
	67 -- 73	[pos="1514.7,944.15 1516.6,958.65 1519.3,978.88 1521.2,993.38"];
	67 -- 218	[pos="1539.3,927.63 1554.3,928.52 1572.9,929.62 1587.9,930.51"];
	67 -- 286	[pos="1532.8,913.99 1549.8,904.02 1573.7,889.92 1590.7,879.95"];
	259	[height=0.5,
		pos="1605.7,1033.5",
		width=0.75];
	67 -- 259	[pos="1526.1,941.89 1543.8,962.2 1574.2,997.21 1591.9,1017.6"];
	51 -- 74	[pos="1629.2,391.15 1593.1,384.45 1527.9,372.39 1491.6,365.67"];
	51 -- 219	[pos="1650.2,413.89 1649.4,416.66 1648.6,419.51 1647.8,422.28"];
	51 -- 163	[pos="1652.9,414.05 1649.9,437.63 1644.6,478.64 1641.5,502.24"];
	51 -- 102	[pos="1673.1,382.26 1679.9,377 1687.6,371 1694.5,365.73"];
	51 -- 105	[pos="1628.3,397.59 1599.9,399.3 1555.6,401.97 1527.3,403.68"];
	160	[height=0.5,
		pos="1774.1,307.86",
		width=0.75];
	51 -- 160	[pos="1673.6,382.39 1696,365.78 1733.6,337.85 1756,321.3"];
	285	[height=0.5,
		pos="1712,293.45",
		width=0.75];
	51 -- 285	[pos="1664.6,379.03 1675.2,360.04 1692.1,329.4 1702.7,310.4"];
	279	[height=0.5,
		pos="1801.8,397.43",
		width=0.75];
	51 -- 279	[pos="1682.5,396.23 1708.8,396.5 1748.4,396.9 1774.7,397.16"];
	51 -- 231	[pos="1671,410.87 1677.4,416.92 1684.8,423.9 1691.2,429.95"];
	51 -- 226	[pos="1661.8,413.47 1673.4,444.39 1697.3,508.3 1708.8,539.21"];
	51 -- 180	[pos="1682.4,397.5 1692.1,398.05 1702.9,398.66 1712.6,399.21"];
	244	[height=0.5,
		pos="1803.4,353.38",
		width=0.75];
	51 -- 244	[pos="1680.4,388.74 1707.6,380.91 1750.9,368.48 1778.1,360.64"];
	51 -- 264	[pos="1662.3,413.42 1677.9,452.1 1715.2,544.66 1730.8,583.3"];
	51 -- 240	[pos="1657,414 1660.9,454.65 1670.2,553.01 1674.1,593.76"];
	190 -- 221	[pos="391.99,266.03 396.18,261.63 400.75,256.84 404.93,252.45"];
	52 -- 150	[pos="617.06,284.51 622.49,289.33 628.54,294.69 633.99,299.52"];
	52 -- 251	[pos="587.68,285.94 577.18,298.62 562.52,316.3 552.02,328.97"];
	52 -- 248	[pos="626.27,276.26 649.67,281.92 684.15,290.26 707.52,295.91"];
	52 -- 245	[pos="592.36,287.4 580.62,311.46 559.48,354.77 547.69,378.93"];
	52 -- 164	[pos="575.22,276.55 571.62,277.46 567.91,278.4 564.31,279.3"];
	52 -- 171	[pos="600.88,288.25 600.95,304.36 601.06,327.76 601.13,343.85"];
	258	[height=0.5,
		pos="522.77,241.71",
		width=0.75];
	52 -- 258	[pos="576.96,261.43 567.37,257.94 556.33,253.92 546.73,250.43"];
	251 -- 258	[pos="536.1,326.83 533.16,308.03 528.56,278.66 525.6,259.81"];
	53 -- 157	[pos="542.97,646.12 548.68,643.41 554.84,640.48 560.56,637.75"];
	53 -- 145	[pos="502.55,670.07 495.08,675.54 486.47,681.83 479.02,687.29"];
	53 -- 177	[pos="513.74,639.05 512.47,635.94 511.15,632.71 509.88,629.6"];
	80 -- 295	[pos="1362.4,360.83 1367.3,359.59 1372.5,358.28 1377.4,357.04"];
	80 -- 117	[pos="1337.9,349.1 1338,346.16 1338.2,343.11 1338.3,340.16"];
	80 -- 134	[pos="1310.1,367.52 1300.1,367.64 1288.8,367.78 1278.9,367.89"];
	245 -- 251	[pos="539.07,378.37 539.05,373.37 539.02,367.94 539,362.93"];
	245 -- 270	[pos="540.74,414.51 541.09,418.5 541.46,422.73 541.8,426.73"];
	109 -- 127	[pos="972.14,252.25 965.3,252.25 957.95,252.26 951.11,252.26"];
	86 -- 137	[pos="889.37,625.93 896.81,621.36 905.24,616.17 912.68,611.59"];
	86 -- 146	[pos="868.12,620.19 867.97,617.64 867.81,615.01 867.66,612.45"];
	107 -- 236	[pos="1038.7,1097.6 1035.8,1097.8 1032.8,1098 1029.9,1098.3"];
	59 -- 69	[pos="1004.1,694.71 1007.6,698.75 1011.2,703.09 1014.6,707.12"];
	58 -- 261	[pos="599.83,840.79 591.98,847.51 582.64,855.52 574.77,862.27"];
	58 -- 129	[pos="617.45,844.71 617.92,852.97 618.46,862.72 618.92,871"];
	58 -- 224	[pos="641.99,832.49 648.6,834.03 655.74,835.7 662.37,837.24"];
	58 -- 213	[pos="589.43,829.23 586.69,829.5 583.9,829.78 581.16,830.05"];
	129 -- 224	[pos="638.99,876.51 648.32,870.23 659.53,862.68 668.9,856.37"];
	129 -- 213	[pos="603.42,875.05 593.56,866.53 581.09,855.74 571.19,847.19"];
	69 -- 199	[pos="1018.5,740.1 1009.6,756.5 996.33,781.04 987.46,797.42"];
	69 -- 294	[pos="1054.7,725.33 1057.8,725.62 1060.9,725.91 1064,726.2"];
	60 -- 141	[pos="225.98,384.33 203.47,367.54 165.36,339.1 142.78,322.24"];
	60 -- 252	[pos="255.97,414.24 259.24,418.77 262.78,423.68 266.05,428.21"];
	60 -- 168	[pos="219.24,390.74 192.23,382.97 149.35,370.65 122.28,362.87"];
	60 -- 148	[pos="219.64,405.54 215.44,406.84 211.07,408.2 206.86,409.51"];
	62 -- 139	[pos="639.67,1122.7 654.15,1140.2 677.18,1168.1 691.58,1185.5"];
	62 -- 189	[pos="614.69,1090 603.56,1074.1 586.92,1050.5 575.82,1034.7"];
	62 -- 214	[pos="603.4,1097.1 587.5,1090.6 566.42,1081.8 550.47,1075.2"];
	87	[height=0.5,
		pos="531.55,1182.1",
		width=0.75];
	62 -- 87	[pos="609,1120.5 591.99,1134 566.23,1154.5 549.16,1168.1"];
	62 -- 92	[pos="622.15,1124.6 617.14,1145.9 608.86,1181 603.86,1202.2"];
	62 -- 112	[pos="643.95,1120.8 652.69,1127.8 663.23,1136.3 671.96,1143.3"];
	62 -- 122	[pos="627.35,1088.5 628.64,1064.1 630.92,1020.8 632.21,996.36"];
	189 -- 214	[pos="551.67,1034.2 547.82,1039.1 543.59,1044.6 539.74,1049.6"];
	63 -- 249	[pos="1475.1,814.61 1485,805.17 1497.9,792.97 1507.9,783.48"];
	63 -- 99	[pos="1486.2,832.65 1527.2,837.73 1605.5,847.42 1646.6,852.5"];
	63 -- 242	[pos="1433.4,824.81 1401.5,819.27 1347.8,809.95 1315.9,804.41"];
	63 -- 124	[pos="1481.2,840.49 1495.3,847.73 1513.5,857.12 1527.6,864.33"];
	63 -- 243	[pos="1439.5,841.53 1432.4,845.85 1424.4,850.71 1417.3,855.03"];
	63 -- 292	[pos="1446.7,813.19 1440.5,805.43 1433.2,796.16 1427,788.42"];
	63 -- 271	[pos="1484.1,821.45 1507.5,813.94 1542.4,802.7 1565.7,795.2"];
	99 -- 124	[pos="1646.9,859.94 1625.8,863.27 1596.4,867.9 1575.3,871.22"];
	75 -- 184	[pos="784.06,1085.2 787.65,1089.2 791.51,1093.6 795.1,1097.6"];
	75 -- 112	[pos="755.52,1085 740.87,1101.1 718.29,1125.8 703.68,1141.7"];
	242 -- 243	[pos="1309.5,812.21 1328.8,824.28 1358,842.56 1377.3,854.69"];
	242 -- 292	[pos="1315.6,794.17 1336.9,789.46 1367.2,782.8 1388.6,778.09"];
	224 -- 261	[pos="662.87,849.81 639.89,855.71 606.26,864.33 583.3,870.22"];
	64 -- 67	[pos="1477.7,955.66 1483.5,950.74 1489.9,945.25 1495.6,940.34"];
	64 -- 185	[pos="1463.5,951.83 1465.7,936.61 1468.8,915.04 1470.9,899.91"];
	64 -- 73	[pos="1480.4,982.96 1488,987.99 1496.7,993.74 1504.3,998.75"];
	64 -- 216	[pos="1437.4,960.92 1432.4,958.98 1427.2,956.95 1422.3,955.01"];
	64 -- 259	[pos="1483.5,979.99 1510.5,991.83 1555.6,1011.5 1582.8,1023.4"];
	65 -- 166	[pos="1158.5,807.64 1157.8,782.37 1156.6,736.89 1155.9,711.51"];
	65 -- 149	[pos="1146,841.76 1136.6,853.26 1124.1,868.72 1114.8,880.21"];
	65 -- 241	[pos="1160.3,843.87 1161,852.72 1161.8,863.35 1162.5,872.24"];
	65 -- 294	[pos="1147.4,809.34 1135,791.48 1115.2,763.15 1102.7,745.27"];
	65 -- 200	[pos="1182,816.2 1187.3,814.02 1192.8,811.71 1198.1,809.53"];
	268	[height=0.5,
		pos="1204.2,935.33",
		width=0.75];
	65 -- 268	[pos="1166.2,843.4 1174.7,863.84 1188.5,897.35 1197,917.77"];
	136 -- 138	[pos="1267.5,929.74 1263.7,910.96 1257.7,881.62 1253.9,862.79"];
	136 -- 288	[pos="1291.9,936.14 1299.6,931.89 1308.3,927.07 1315.9,922.81"];
	149 -- 241	[pos="1128.9,893.73 1131.5,893.5 1134.2,893.27 1136.8,893.04"];
	149 -- 268	[pos="1125.3,905.1 1141.9,911.43 1163.9,919.88 1180.5,926.23"];
	185 -- 286	[pos="1500.4,879.23 1524.6,876.76 1560.1,873.14 1584.3,870.66"];
	291	[height=0.5,
		pos="766.09,18",
		width=0.75];
	247 -- 291	[pos="766.95,44.448 766.86,41.748 766.77,38.964 766.68,36.262"];
	247 -- 299	[pos="743.45,71.06 726.39,77.069 703.58,85.098 686.54,91.098"];
	118 -- 218	[pos="1599.2,959.23 1601.2,955.84 1603.3,952.27 1605.3,948.89"];
	118 -- 259	[pos="1594.4,993.95 1596.4,1000.8 1598.6,1008.6 1600.6,1015.5"];
	72 -- 94	[pos="532.26,729.02 526.63,731.17 520.63,733.46 515,735.61"];
	73 -- 118	[pos="1544.7,1000.1 1552.2,996.05 1560.7,991.51 1568.2,987.48"];
	73 -- 218	[pos="1540.3,996.92 1556.9,982.6 1581.9,960.87 1598.4,946.58"];
	73 -- 259	[pos="1548.7,1018.2 1558.8,1020.9 1570.4,1024 1580.5,1026.7"];
	187 -- 289	[pos="1637.9,272.58 1635,268.74 1632,264.66 1629.2,260.83"];
	163 -- 231	[pos="1653.2,504.69 1664.8,491.71 1681.2,473.37 1692.8,460.4"];
	163 -- 226	[pos="1661.2,530.86 1671.3,535.68 1683.3,541.38 1693.4,546.2"];
	163 -- 240	[pos="1646.3,538 1652.7,554.21 1662.3,578.1 1668.8,594.3"];
	76 -- 187	[pos="1634.2,315.89 1636.1,312.59 1638.1,309.13 1640,305.82"];
	76 -- 102	[pos="1650.4,338.43 1661.8,340.91 1675.3,343.82 1686.7,346.3"];
	76 -- 180	[pos="1644.8,344.8 1665.7,357.14 1698.2,376.27 1719.2,388.65"];
	76 -- 289	[pos="1622.9,314.54 1621.7,299.42 1620,278.03 1618.7,262.91"];
	76 -- 254	[pos="1602.7,343.75 1596.7,346.79 1590.2,350.08 1584.2,353.11"];
	76 -- 267	[pos="1608.8,317.41 1604.4,313.05 1599.6,308.31 1595.2,303.96"];
	102 -- 187	[pos="1697.3,336.6 1687.4,326.67 1674.7,313.78 1664.8,303.88"];
	246	[height=0.5,
		pos="1865.5,330.98",
		width=0.75];
	102 -- 246	[pos="1739.1,348.24 1767.1,344.42 1810.9,338.44 1838.9,334.62"];
	102 -- 160	[pos="1730.9,338.67 1738.7,333.1 1747.8,326.63 1755.6,321.06"];
	102 -- 285	[pos="1712.3,333.71 1712.3,326.74 1712.2,318.79 1712.2,311.81"];
	102 -- 279	[pos="1734.1,362.91 1748,370.02 1766.1,379.23 1780,386.35"];
	102 -- 231	[pos="1711.3,370.23 1710.3,386.62 1708.9,410.49 1707.9,426.77"];
	102 -- 180	[pos="1722,368.97 1724.6,373.71 1727.5,378.85 1730.1,383.58"];
	102 -- 244	[pos="1739.7,352.33 1751.2,352.52 1764.6,352.74 1776.1,352.93"];
	280	[height=0.5,
		pos="1782.6,263.79",
		width=0.75];
	102 -- 280	[pos="1725.3,335.72 1738,319.83 1757.2,295.7 1769.8,279.84"];
	184 -- 278	[pos="836.12,1114.4 838.73,1114.5 841.38,1114.6 843.99,1114.7"];
	77 -- 81	[pos="474.94,215.4 466.99,236.72 453.72,272.28 445.79,293.54"];
	77 -- 228	[pos="492.94,181.26 505.28,163.48 524.86,135.25 537.22,117.44"];
	77 -- 82	[pos="471.24,180.76 469.17,177.37 466.99,173.8 464.92,170.41"];
	77 -- 121	[pos="458.04,188.62 444.98,183.6 428.79,177.37 415.71,172.34"];
	228 -- 265	[pos="521.98,104.03 514.98,104.84 507.43,105.71 500.43,106.52"];
	117 -- 134	[pos="1317.6,333.47 1304,340.62 1286.6,349.81 1273.1,356.93"];
	114 -- 293	[pos="171.78,256.01 164.7,250.65 156.61,244.52 149.55,239.17"];
	114 -- 172	[pos="188.63,287.71 188.33,291.97 188.01,296.52 187.71,300.79"];
	114 -- 147	[pos="210.95,281.39 217.71,285.13 225.19,289.27 231.96,293.02"];
	114 -- 182	[pos="213.8,261.06 218.84,259.23 224.15,257.3 229.19,255.48"];
	82 -- 228	[pos="475.53,141.93 491.1,133.21 512.3,121.33 527.86,112.61"];
	82 -- 281	[pos="432.67,142.85 424.23,138.72 414.61,134 406.15,129.86"];
	82 -- 121	[pos="428.11,157.7 424.91,158.19 421.64,158.7 418.44,159.19"];
	82 -- 265	[pos="462.14,136.23 463.42,133.25 464.75,130.16 466.04,127.17"];
	281 -- 290	[pos="358.08,124.39 351.22,125.83 343.81,127.38 336.96,128.82"];
	143 -- 207	[pos="1233.6,501.85 1222.4,493.44 1208.1,482.66 1197,474.25"];
	121 -- 228	[pos="415.49,153.91 445.1,142.14 495.74,122 525.31,110.24"];
	121 -- 281	[pos="388.74,145.24 388.24,142.55 387.74,139.79 387.25,137.11"];
	121 -- 290	[pos="368.22,154.69 357.79,150.94 345.57,146.56 335.12,142.81"];
	83 -- 189	[pos="520.07,987.23 528.05,992.81 537.31,999.29 545.28,1004.9"];
	83 -- 165	[pos="495.93,956.24 492.81,945.65 488.85,932.25 485.72,921.62"];
	83 -- 122	[pos="528.2,974.89 550.98,975.64 583.4,976.7 606.17,977.45"];
	83 -- 222	[pos="478.02,964.35 472.53,962.06 466.67,959.62 461.18,957.33"];
	165 -- 222	[pos="465.58,919.03 461.38,923.39 456.81,928.14 452.62,932.5"];
	103 -- 119	[pos="674.8,1033.4 665.34,1038.7 654.17,1045.1 644.69,1050.5"];
	103 -- 175	[pos="687.04,1038.6 672.47,1067.8 643,1126.8 628.37,1156"];
	87 -- 214	[pos="530.88,1163.9 530.08,1142 528.73,1105.5 527.93,1083.7"];
	87 -- 92	[pos="552.35,1193.7 560.64,1198.4 570.18,1203.7 578.5,1208.3"];
	87 -- 142	[pos="541.56,1165.1 545.25,1158.8 549.43,1151.6 553.13,1145.3"];
	92 -- 139	[pos="625.87,1215.5 641.91,1212.6 662.36,1208.9 678.41,1206.1"];
	92 -- 142	[pos="592.61,1202.4 586.15,1186.1 576.63,1162.1 570.18,1145.9"];
	88 -- 196	[pos="738.51,713.45 758.75,723.16 788.58,737.48 808.79,747.18"];
	89 -- 131	[pos="816.25,168.87 768.65,171.71 670.25,177.58 622.68,180.41"];
	89 -- 100	[pos="817.54,160.98 813,159.87 808.28,158.72 803.74,157.61"];
	89 -- 234	[pos="851.68,149.92 858.47,136.04 867.94,116.67 874.72,102.8"];
	89 -- 202	[pos="863.76,155.57 871.65,151.09 880.65,145.97 888.56,141.47"];
	90 -- 97	[pos="242.08,502.6 248.83,507.92 256.53,513.98 263.29,519.31"];
	95 -- 201	[pos="990.38,975.5 989.37,972.63 988.32,969.65 987.31,966.78"];
	95 -- 155	[pos="977.44,980.1 964.56,971.32 947.64,959.8 934.79,951.04"];
	95 -- 107	[pos="1007.7,1009.6 1020.5,1028.5 1041.4,1059.6 1054.3,1078.7"];
	95 -- 203	[pos="1013.3,1007.6 1019,1012.5 1025.4,1018 1031.1,1022.9"];
	95 -- 110	[pos="990.31,1011 987.29,1019.5 983.69,1029.8 980.68,1038.3"];
	95 -- 236	[pos="997.68,1011.4 998.86,1031.1 1000.7,1062.4 1001.9,1082.2"];
	95 -- 135	[pos="1020.2,1002.3 1039.7,1009.9 1067.3,1020.7 1086.8,1028.3"];
	95 -- 161	[pos="978.49,979.68 952.87,960.61 906.29,925.95 880.58,906.82"];
	100 -- 131	[pos="751.73,155.83 717.03,161.66 656.6,171.8 622.03,177.61"];
	100 -- 247	[pos="776.09,133.41 774.23,118 771.56,95.922 769.7,80.524"];
	100 -- 234	[pos="798,138.98 816.64,127.28 844.46,109.81 863.18,98.048"];
	100 -- 133	[pos="786.2,133.97 787.6,130.9 789.06,127.69 790.47,124.62"];
	100 -- 202	[pos="804.47,147.03 827.19,143.27 859.9,137.85 882.72,134.07"];
	100 -- 291	[pos="776.62,133.39 774.3,107.93 770.08,61.661 767.75,36.129"];
	100 -- 297	[pos="764.51,167.15 756.32,176.55 745.94,188.45 737.71,197.89"];
	179 -- 208	[pos="131.44,629.76 128.55,630.19 125.6,630.63 122.71,631.06"];
	179 -- 209	[pos="172.18,641.26 176.08,645.55 180.3,650.21 184.2,654.51"];
	179 -- 225	[pos="158.12,607.66 158.11,597.6 158.11,585.13 158.11,575.05"];
	142 -- 214	[pos="553.36,1111.1 548.29,1102.3 542.13,1091.5 537.06,1082.7"];
	101 -- 179	[pos="237.66,660.91 220.72,653.43 197.67,643.25 180.75,635.77"];
	101 -- 208	[pos="234.68,665.32 203.9,658.6 152.63,647.4 121.81,640.67"];
	101 -- 277	[pos="280.47,658.34 295.6,648.87 316.23,635.96 331.27,626.55"];
	101 -- 209	[pos="233.32,670.55 230.71,670.51 228.06,670.48 225.45,670.44"];
	101 -- 257	[pos="282.4,681.34 289.76,684.82 297.97,688.7 305.36,692.19"];
	208 -- 232	[pos="70.674,628.4 66.187,627.23 61.516,626.01 57.034,624.83"];
	208 -- 298	[pos="79.688,620.37 68.68,610.51 54.23,597.55 43.247,587.71"];
	246 -- 280	[pos="1848.3,317.06 1834.1,305.53 1814,289.22 1799.7,277.69"];
	133 -- 247	[pos="787.05,90.929 784.37,87.037 781.51,82.884 778.83,78.992"];
	133 -- 234	[pos="823.8,100.78 834.54,98.018 847.01,94.805 857.75,92.039"];
	133 -- 202	[pos="824.37,112.57 842.18,116.16 865.7,120.89 883.48,124.46"];
	133 -- 291	[pos="791.97,89.691 786.32,74.028 778.1,51.266 772.45,35.614"];
	133 -- 299	[pos="771.19,105.78 747.51,104.42 713.34,102.46 689.67,101.09"];
	104 -- 144	[pos="676.31,594.35 676.3,591.79 676.28,589.15 676.26,586.59"];
	104 -- 237	[pos="667.95,629.77 666.37,632.97 664.72,636.32 663.14,639.52"];
	105 -- 219	[pos="1525.8,411.52 1551.6,417.8 1591.2,427.47 1617,433.77"];
	119 -- 175	[pos="623.04,1080.8 622.3,1101.3 621.12,1134.4 620.38,1155"];
	110 -- 236	[pos="985.07,1072.5 987.42,1076.2 989.9,1080.1 992.25,1083.7"];
	110 -- 135	[pos="1001,1052.4 1024.9,1049.1 1060,1044.3 1083.9,1041.1"];
	112 -- 139	[pos="695.53,1175 696.53,1177.9 697.56,1180.8 698.55,1183.7"];
	112 -- 184	[pos="713.06,1148.6 733.91,1141 764.14,1129.9 785.09,1122.2"];
	112 -- 206	[pos="714.03,1165.5 758.28,1180.1 850.8,1210.6 894.93,1225.2"];
	112 -- 178	[pos="703.69,1173 717.73,1188.3 739.05,1211.7 753.06,1227"];
	112 -- 205	[pos="697.96,1174.5 712.51,1203.6 741.94,1262.7 756.55,1291.9"];
	112 -- 183	[pos="711.42,1167.8 743.1,1182.8 801.26,1210.4 833,1225.5"];
	112 -- 278	[pos="715.07,1151.5 749.6,1143.6 810.69,1129.6 845.3,1121.7"];
	162 -- 238	[pos="958.63,152.88 947.2,164.71 931.45,181.02 920.02,192.85"];
	156 -- 235	[pos="1462.1,524.62 1466.3,525.92 1470.6,527.28 1474.8,528.59"];
	156 -- 282	[pos="1458.9,528.3 1480.6,539.83 1514.1,557.6 1535.7,569.09"];
	116 -- 170	[pos="1127.3,424.54 1127.3,443.55 1127.4,473.25 1127.4,492.32"];
	116 -- 191	[pos="1137.1,389.21 1145.3,374.9 1156.9,354.62 1165.1,340.39"];
	116 -- 250	[pos="1134.4,388.92 1144.5,364.22 1162.7,319.31 1172.8,294.53"];
	116 -- 176	[pos="1123.8,424.56 1116,464.85 1097.3,561.23 1089.5,601.48"];
	172 -- 293	[pos="176.4,301.69 166.52,284.88 151.51,259.37 141.64,242.6"];
	122 -- 189	[pos="612.46,990.26 603.73,995.3 593.58,1001.1 584.85,1006.2"];
	122 -- 165	[pos="611.27,967.63 582.24,953.43 531.27,928.5 502.25,914.31"];
	122 -- 222	[pos="606.84,974.2 569.6,968.35 501.9,957.71 464.54,951.84"];
	122 -- 192	[pos="660.23,977.99 667.33,977.9 674.99,977.8 682.09,977.71"];
	128 -- 287	[pos="1466.7,479.44 1487.6,489.18 1518.5,503.63 1539.4,513.35"];
	128 -- 239	[pos="1423,457.76 1405.3,448.44 1380.2,435.25 1362.5,425.93"];
	125 -- 188	[pos="1193,546.3 1192.4,538.87 1191.7,530.31 1191,522.89"];
	218 -- 259	[pos="1613.4,950.24 1611.7,968.57 1609.1,996.77 1607.4,1015.2"];
	132 -- 212	[pos="342.74,585.85 341.41,601.72 339.5,624.52 338.18,640.3"];
	135 -- 203	[pos="1083,1037.3 1080.3,1037.3 1077.4,1037.3 1074.7,1037.3"];
	202 -- 234	[pos="899.3,112.71 897.29,109.3 895.17,105.72 893.15,102.32"];
	199 -- 256	[pos="960.85,828.77 954.71,833.79 947.8,839.45 941.66,844.47"];
	199 -- 266	[pos="950.93,815.5 931.63,816.13 905.85,816.98 886.58,817.61"];
	145 -- 263	[pos="433.7,700.7 431.09,700.7 428.44,700.7 425.82,700.71"];
	154 -- 178	[pos="728.98,1256.5 733.63,1254.8 738.51,1253 743.17,1251.3"];
	154 -- 205	[pos="723.48,1278.7 730.93,1284.1 739.51,1290.4 746.95,1295.9"];
	147 -- 172	[pos="227.17,310.21 222.34,311.23 217.3,312.29 212.47,313.3"];
	147 -- 284	[pos="251.34,322.9 251.01,326.27 250.65,329.8 250.32,333.17"];
	147 -- 182	[pos="253.14,286.73 253.14,279.82 253.14,271.94 253.14,265.01"];
	193 -- 229	[pos="737.54,550.26 737.35,544.4 737.13,537.91 736.94,532.05"];
	148 -- 168	[pos="163.69,403.86 149.45,393.54 129.84,379.32 115.61,369"];
	148 -- 260	[pos="179.15,399.23 178.64,396.15 178.11,392.95 177.61,389.87"];
	241 -- 268	[pos="1178,906.28 1181.9,910.61 1186.1,915.31 1190,919.64"];
	164 -- 251	[pos="538.83,303.78 538.85,310.97 538.86,319.24 538.88,326.46"];
	164 -- 258	[pos="532.37,268.09 531.32,265.21 530.24,262.24 529.19,259.37"];
	178 -- 205	[pos="766.68,1260.8 766.38,1270.2 766.03,1281.6 765.74,1291"];
	178 -- 183	[pos="794.55,1240.5 805.23,1239.7 817.44,1238.8 828.09,1238"];
	235 -- 282	[pos="1517.4,549.98 1524.2,555.23 1532,561.22 1538.9,566.48"];
	158 -- 269	[pos="1027.5,324.06 1030.2,320.35 1033.1,316.41 1035.8,312.7"];
	158 -- 195	[pos="1031.6,354.89 1037,359.71 1043.1,365.09 1048.5,369.93"];
	186 -- 274	[pos="1597.3,578.94 1571.8,592.01 1529.7,613.62 1504.3,626.67"];
	274 -- 287	[pos="1494.5,620.86 1509.4,599.2 1535.3,561.77 1550.2,540.25"];
	160 -- 285	[pos="1748.5,301.91 1744.9,301.08 1741.2,300.21 1737.6,299.38"];
	160 -- 244	[pos="1784.8,324.55 1787.4,328.51 1790.1,332.73 1792.6,336.69"];
	160 -- 280	[pos="1777.5,289.93 1778.1,287.26 1778.6,284.51 1779.1,281.84"];
	226 -- 264	[pos="1724.1,573.84 1725.7,577.03 1727.4,580.36 1729.1,583.55"];
	226 -- 240	[pos="1703.7,572.96 1698.6,580.08 1692.6,588.42 1687.5,595.56"];
	171 -- 245	[pos="580.2,373.63 573.73,377.23 566.61,381.18 560.14,384.77"];
	171 -- 276	[pos="615.93,346.61 634.79,326.94 667.3,293.03 686.19,273.32"];
	171 -- 270	[pos="589.79,378.37 579.65,392.92 564.92,414.07 554.8,428.62"];
	174 -- 179	[pos="115.34,597.86 122.75,602.7 131.2,608.21 138.62,613.05"];
	174 -- 208	[pos="96.044,603.52 96.045,607.85 96.047,612.47 96.048,616.79"];
	174 -- 232	[pos="74.305,596.43 67.612,599.87 60.245,603.66 53.553,607.09"];
	174 -- 225	[pos="118.44,575 124,572.45 129.96,569.72 135.52,567.17"];
	232 -- 298	[pos="29.9,600.16 29.584,597.22 29.257,594.17 28.941,591.23"];
	183 -- 206	[pos="882.34,1234.8 885.63,1234.7 888.98,1234.5 892.27,1234.4"];
	209 -- 225	[pos="192.03,652.37 184.48,631.09 171.88,595.6 164.34,574.39"];
	180 -- 279	[pos="1766.7,399.3 1769.3,399.16 1772,399.02 1774.6,398.88"];
	180 -- 231	[pos="1727.6,416.89 1724.8,420.71 1721.7,424.8 1718.9,428.63"];
	180 -- 244	[pos="1757.8,387.3 1766.3,380.95 1776.5,373.39 1785,367.02"];
	182 -- 293	[pos="226.78,242.21 206.4,238.65 178.33,233.76 157.96,230.21"];
	182 -- 227	[pos="279.9,243.36 286.24,242.54 293.01,241.67 299.36,240.85"];
	244 -- 246	[pos="1827.2,344.78 1831.9,343.11 1836.7,341.35 1841.4,339.67"];
	244 -- 285	[pos="1784,340.67 1768.5,330.5 1746.9,316.3 1731.4,306.14"];
	244 -- 279	[pos="1802.7,371.55 1802.6,374.11 1802.5,376.74 1802.4,379.3"];
	244 -- 280	[pos="1799.2,335.25 1795.5,319.6 1790.3,297.13 1786.7,281.58"];
	192 -- 223	[pos="684.7,969.92 657.99,961.86 615.6,949.07 588.85,941"];
	254 -- 267	[pos="1566.5,346.26 1569.3,334.34 1572.9,318.72 1575.7,306.78"];
	215 -- 273	[pos="465.8,465.55 467.18,462.15 468.62,458.59 470,455.18"];
	200 -- 241	[pos="1210.5,816.63 1200.3,832.88 1184.8,857.5 1174.5,873.83"];
	200 -- 275	[pos="1205.1,785.1 1194.4,775.08 1180.4,761.93 1169.8,751.93"];
	200 -- 268	[pos="1218.7,817.97 1215.5,843.85 1209.7,891.36 1206.4,917.28"];
	243 -- 292	[pos="1400.6,848.91 1403.6,832.02 1408.1,807.08 1411.1,790.31"];
	257 -- 277	[pos="332.41,684.81 336.46,669.45 342.27,647.43 346.32,632.08"];
	272 -- 296	[pos="1635.5,690.39 1671.7,676.93 1740.1,651.48 1776.2,638.07"];
}
