graph {
	graph [bb="0,0,750.81,546.06",
		outputorder=edgesfirst,
		overlap=prism,
		size="50,50!",
		start=4803
	];
	node [label="\N"];
	0	[height=0.5,
		pos="626.29,331.68",
		width=0.75];
	1	[height=0.5,
		pos="609.26,234.98",
		width=0.75];
	0 -- 1	[pos="623.09,313.49 620.04,296.2 615.49,270.35 612.45,253.09"];
	3	[height=0.5,
		pos="480.93,306.21",
		width=0.75];
	0 -- 3	[pos="599.97,327.07 573.62,322.45 533.33,315.39 507.06,310.79"];
	2	[height=0.5,
		pos="435.83,247.08",
		width=0.75];
	0 -- 2	[pos="603.69,321.64 567.04,305.36 495.03,273.38 458.39,257.1"];
	16	[height=0.5,
		pos="674.58,167.67",
		width=0.75];
	0 -- 16	[pos="631.55,313.82 640.84,282.27 660.04,217.05 669.33,185.51"];
	7	[height=0.5,
		pos="679.78,462.87",
		width=0.75];
	0 -- 7	[pos="633.39,349.1 643.62,374.2 662.4,420.25 672.65,445.38"];
	18	[height=0.5,
		pos="707.37,281.92",
		width=0.75];
	0 -- 18	[pos="646.33,319.38 658.81,311.73 674.79,301.92 687.28,294.25"];
	10	[height=0.5,
		pos="559.39,439.19",
		width=0.75];
	0 -- 10	[pos="615.84,348.48 603.27,368.68 582.3,402.36 569.77,422.51"];
	11	[height=0.5,
		pos="517.25,395.18",
		width=0.75];
	0 -- 11	[pos="605.78,343.63 586.29,354.98 557.13,371.96 537.67,383.29"];
	20	[height=0.5,
		pos="723.81,390.23",
		width=0.75];
	0 -- 20	[pos="646.5,343.81 663.23,353.86 686.9,368.07 703.63,378.11"];
	23	[height=0.5,
		pos="671.28,234.27",
		width=0.75];
	0 -- 23	[pos="634.33,314.27 642.52,296.54 655.14,269.21 663.3,251.54"];
	1 -- 3	[pos="588.36,246.58 564.49,259.83 525.69,281.37 501.83,294.61"];
	1 -- 2	[pos="582.16,236.87 549.58,239.14 495.23,242.93 462.74,245.2"];
	1 -- 16	[pos="624.08,219.71 634.77,208.69 649.14,193.88 659.82,182.88"];
	12	[height=0.5,
		pos="575.29,151.54",
		width=0.75];
	1 -- 12	[pos="602.06,217.28 596.25,203.03 588.14,183.09 582.37,168.92"];
	1 -- 18	[pos="631.52,245.63 647.58,253.31 669.16,263.64 685.2,271.31"];
	1 -- 23	[pos="636.28,234.67 638.89,234.64 641.54,234.61 644.16,234.58"];
	25	[height=0.5,
		pos="351.51,241.37",
		width=0.75];
	3 -- 25	[pos="459.27,295.36 435.38,283.39 397.16,264.24 373.24,252.26"];
	3 -- 7	[pos="498.58,320.11 536.31,349.84 624.47,419.3 662.17,449"];
	4	[height=0.5,
		pos="224.58,262.62",
		width=0.75];
	3 -- 4	[pos="454.46,301.71 405.21,293.34 300.05,275.45 250.91,267.1"];
	19	[height=0.5,
		pos="289.82,343.11",
		width=0.75];
	3 -- 19	[pos="454.76,311.26 418.26,318.31 352.48,331.01 315.99,338.06"];
	6	[height=0.5,
		pos="460.32,147.9",
		width=0.75];
	3 -- 6	[pos="478.57,288.05 474.59,257.51 466.61,196.24 462.66,165.85"];
	5	[height=0.5,
		pos="379.33,148.15",
		width=0.75];
	3 -- 5	[pos="470.25,289.59 450.79,259.32 409.75,195.48 390.17,165.02"];
	3 -- 12	[pos="491.21,289.36 509.36,259.61 546.88,198.1 565.03,168.36"];
	8	[height=0.5,
		pos="494.62,95.862",
		width=0.75];
	3 -- 8	[pos="482.12,287.91 484.72,248.03 490.86,153.67 493.44,113.97"];
	3 -- 18	[pos="507.8,303.33 551.38,298.65 636.98,289.47 680.54,284.8"];
	3 -- 10	[pos="490.87,323.05 505.88,348.49 534.18,396.46 549.28,422.06"];
	3 -- 11	[pos="488.11,323.79 494.47,339.39 503.73,362.05 510.09,377.64"];
	14	[height=0.5,
		pos="342.11,429.12",
		width=0.75];
	3 -- 14	[pos="464.46,320.79 437.74,344.45 385.26,390.92 358.56,414.56"];
	3 -- 20	[pos="505.11,314.57 551.66,330.68 653.25,365.82 699.73,381.9"];
	22	[height=0.5,
		pos="324.75,500.85",
		width=0.75];
	3 -- 22	[pos="468.15,322.14 438.79,358.73 366.81,448.44 337.49,484.98"];
	29	[height=0.5,
		pos="289.5,201.65",
		width=0.75];
	3 -- 29	[pos="459.71,294.62 422.82,274.47 347.28,233.21 310.52,213.13"];
	2 -- 3	[pos="448.15,263.24 454.52,271.58 462.26,281.73 468.62,290.07"];
	2 -- 16	[pos="460.03,239.03 505.8,223.81 604.5,190.98 650.31,175.74"];
	2 -- 25	[pos="408.69,245.24 399.06,244.59 388.23,243.86 378.6,243.2"];
	2 -- 19	[pos="416.44,259.83 388.51,278.2 337.26,311.91 309.29,330.3"];
	2 -- 6	[pos="440.32,228.89 444.74,210.99 451.45,183.83 455.86,165.98"];
	2 -- 5	[pos="425.99,229.85 415.62,211.69 399.38,183.27 389.06,165.19"];
	2 -- 12	[pos="454.93,233.99 481.63,215.7 529.84,182.67 556.42,164.46"];
	2 -- 8	[pos="442.69,229.43 454.02,200.3 476.5,142.46 487.8,113.39"];
	13	[height=0.5,
		pos="545.46,18",
		width=0.75];
	2 -- 13	[pos="444.07,229.86 464.39,187.41 516.71,78.08 537.12,35.418"];
	9	[height=0.5,
		pos="154.63,166.94",
		width=0.75];
	2 -- 9	[pos="410.87,239.97 357.51,224.76 232.84,189.23 179.53,174.04"];
	24	[height=0.5,
		pos="216.65,208.22",
		width=0.75];
	2 -- 24	[pos="409.39,242.39 367.15,234.9 284.92,220.32 242.84,212.86"];
	2 -- 10	[pos="446.58,263.79 469.94,300.12 525.15,385.95 548.58,422.38"];
	15	[height=0.5,
		pos="459.95,477.47",
		width=0.75];
	2 -- 15	[pos="437.72,265.16 442.23,308.22 453.57,416.49 458.07,459.47"];
	2 -- 11	[pos="445.17,264.07 460.79,292.48 492.05,349.35 507.77,377.93"];
	2 -- 14	[pos="427.01,264.2 409.15,298.9 368.87,377.14 350.97,411.91"];
	28	[height=0.5,
		pos="248.76,152.18",
		width=0.75];
	2 -- 28	[pos="414,236.01 377.96,217.72 306.4,181.42 270.45,163.18"];
	17	[height=0.5,
		pos="162.18,265.98",
		width=0.75];
	2 -- 17	[pos="408.59,248.96 356.14,252.58 241.67,260.49 189.31,264.11"];
	2 -- 23	[pos="462.84,245.61 508.13,243.15 598.89,238.21 644.22,235.75"];
	16 -- 23	[pos="673.68,185.87 673.21,195.27 672.65,206.7 672.18,216.1"];
	7 -- 20	[pos="689.99,446.02 697.1,434.29 706.55,418.7 713.65,406.98"];
	4 -- 25	[pos="250.88,258.22 272.67,254.57 303.47,249.41 325.25,245.77"];
	4 -- 19	[pos="237.47,278.52 248.91,292.64 265.53,313.14 276.96,327.24"];
	4 -- 5	[pos="242.94,249.04 272.73,227.01 331.23,183.74 360.99,161.72"];
	4 -- 9	[pos="212.72,246.39 199.86,228.8 179.44,200.88 166.56,183.25"];
	21	[height=0.5,
		pos="27,246.05",
		width=0.75];
	4 -- 21	[pos="197.53,260.35 159.79,257.19 91.774,251.48 54.049,248.32"];
	4 -- 24	[pos="221.94,244.51 221.09,238.7 220.16,232.26 219.31,226.44"];
	4 -- 28	[pos="228.58,244.39 233.08,223.8 240.37,190.53 244.85,170.08"];
	4 -- 17	[pos="197.39,264.09 194.77,264.23 192.1,264.37 189.47,264.51"];
	27	[height=0.5,
		pos="56.535,351.34",
		width=0.75];
	4 -- 27	[pos="203.3,273.86 171.06,290.88 110.2,323 77.911,340.05"];
	4 -- 29	[pos="240.3,247.86 250.35,238.42 263.36,226.2 273.48,216.7"];
	19 -- 24	[pos="280.56,326.02 266.48,300.08 239.87,251.03 225.84,225.16"];
	19 -- 28	[pos="285.96,325.15 278.14,288.76 260.49,206.7 252.65,170.24"];
	26	[height=0.5,
		pos="213.23,528.06",
		width=0.75];
	19 -- 26	[pos="282.62,360.51 268.02,395.76 235.1,475.25 220.47,510.57"];
	19 -- 22	[pos="293.83,361.2 300.57,391.63 314.08,452.68 320.79,482.97"];
	19 -- 29	[pos="289.78,324.91 289.72,297.74 289.6,246.9 289.54,219.78"];
	6 -- 25	[pos="443.32,162.51 422.88,180.07 388.78,209.35 368.39,226.87"];
	6 -- 12	[pos="487.57,148.76 505.89,149.34 529.95,150.1 548.24,150.68"];
	6 -- 8	[pos="471.36,131.15 475.28,125.21 479.68,118.52 483.6,112.58"];
	5 -- 25	[pos="373.97,166.13 369.04,182.63 361.78,206.96 356.86,223.45"];
	5 -- 6	[pos="406.75,148.07 415.28,148.04 424.69,148.01 433.2,147.99"];
	5 -- 8	[pos="401.83,137.95 422.15,128.73 451.88,115.25 472.17,106.04"];
	12 -- 13	[pos="571.27,133.53 565.58,108.04 555.23,61.714 549.52,36.151"];
	12 -- 18	[pos="590.44,166.5 615.79,191.51 666.49,241.57 691.99,266.74"];
	8 -- 12	[pos="513.74,109.06 526.6,117.93 543.48,129.58 556.31,138.44"];
	8 -- 13	[pos="505.4,79.349 513.97,66.225 525.91,47.945 534.52,34.757"];
	9 -- 21	[pos="134.69,179.3 110.71,194.17 70.718,218.96 46.803,233.78"];
	9 -- 24	[pos="173.92,179.78 181.31,184.7 189.75,190.32 197.17,195.25"];
	9 -- 28	[pos="181.1,162.79 193.94,160.78 209.32,158.37 222.17,156.35"];
	9 -- 17	[pos="156.02,185.11 157.38,202.98 159.44,230.1 160.8,247.93"];
	21 -- 27	[pos="32.01,263.91 37.441,283.27 46.06,313.99 51.5,333.39"];
	18 -- 20	[pos="710.16,300.3 713.2,320.33 718.04,352.2 721.06,372.12"];
	24 -- 28	[pos="226.46,191.1 230.44,184.15 235.04,176.14 239.01,169.19"];
	10 -- 15	[pos="535.82,448.26 519.97,454.36 499.16,462.37 483.35,468.46"];
	10 -- 11	[pos="544.65,423.8 540.57,419.53 536.14,414.9 532.05,410.64"];
	11 -- 15	[pos="505.66,411.83 495.65,426.2 481.28,446.84 471.33,461.12"];
	14 -- 19	[pos="331.78,412.13 322.61,397.05 309.29,375.14 300.13,360.07"];
	14 -- 26	[pos="324.19,442.88 299.57,461.78 255.54,495.58 231,514.42"];
	14 -- 22	[pos="337.73,447.22 335.08,458.18 331.71,472.1 329.07,483.01"];
	28 -- 29	[pos="261.88,168.11 266.53,173.75 271.76,180.11 276.41,185.75"];
	17 -- 25	[pos="188.9,262.51 224.99,257.82 288.91,249.51 324.92,244.83"];
	17 -- 21	[pos="135.79,262.09 112.13,258.6 77.565,253.51 53.78,250"];
	17 -- 24	[pos="176.78,250.5 184.59,242.21 194.19,232.03 202.01,223.74"];
	17 -- 27	[pos="144.73,280.07 125.16,295.89 93.59,321.4 74.006,337.22"];
	22 -- 26	[pos="299.16,507.1 281.03,511.52 256.8,517.43 238.7,521.85"];
}
