graph {
	graph [bb="0,0,1877.5,1484.6",
		outputorder=edgesfirst,
		overlap=prism,
		size="50,50!",
		start=3529
	];
	node [label="\N"];
	0	[height=0.5,
		pos="1168.4,864.61",
		width=0.75];
	20	[height=0.5,
		pos="1443.3,771.88",
		width=0.75];
	0 -- 20	[pos="1192.8,856.38 1245,838.79 1366.9,797.67 1419,780.09"];
	23	[height=0.5,
		pos="1457.7,1122",
		width=0.75];
	0 -- 23	[pos="1184.8,879.19 1235.7,924.5 1390.8,1062.5 1441.5,1107.6"];
	27	[height=0.5,
		pos="774.53,941.03",
		width=0.75];
	0 -- 27	[pos="1142.3,869.69 1070.7,883.57 872.22,922.07 800.67,935.96"];
	30	[height=0.5,
		pos="1259.9,1074.1",
		width=0.75];
	0 -- 30	[pos="1176.1,882.11 1193.3,921.64 1235.1,1017.4 1252.3,1056.8"];
	31	[height=0.5,
		pos="1306.9,1118.4",
		width=0.75];
	0 -- 31	[pos="1177.7,881.66 1202.9,927.89 1272.5,1055.3 1297.7,1101.4"];
	6	[height=0.5,
		pos="1339.6,556.03",
		width=0.75];
	0 -- 6	[pos="1177.9,847.58 1207.8,793.63 1300.3,626.89 1330.2,573.01"];
	33	[height=0.5,
		pos="1003.1,1150.9",
		width=0.75];
	0 -- 33	[pos="1158.6,881.66 1129.2,932.57 1042.2,1083.1 1012.9,1133.9"];
	36	[height=0.5,
		pos="1155.6,612.87",
		width=0.75];
	0 -- 36	[pos="1167.5,846.51 1165.1,800.17 1158.9,677.67 1156.5,631.15"];
	37	[height=0.5,
		pos="1411.7,724.6",
		width=0.75];
	0 -- 37	[pos="1189.2,852.68 1235.1,826.22 1345.1,762.93 1391,736.5"];
	38	[height=0.5,
		pos="1508.5,734.49",
		width=0.75];
	0 -- 38	[pos="1192.1,855.57 1254.4,831.71 1422.9,767.27 1485,743.47"];
	39	[height=0.5,
		pos="1047.3,996.84",
		width=0.75];
	0 -- 39	[pos="1154.3,880.04 1131.1,905.38 1085.1,955.56 1061.7,981.1"];
	40	[height=0.5,
		pos="1178.5,733.17",
		width=0.75];
	0 -- 40	[pos="1169.8,846.61 1171.7,821.58 1175.2,776.51 1177.1,751.37"];
	41	[height=0.5,
		pos="964.4,967.36",
		width=0.75];
	0 -- 41	[pos="1146.6,875.61 1107.3,895.38 1025.2,936.72 986.07,956.44"];
	43	[height=0.5,
		pos="1051.6,774.97",
		width=0.75];
	0 -- 43	[pos="1150.7,851 1128.7,834.15 1091.5,805.62 1069.5,788.71"];
	45	[height=0.5,
		pos="964.34,898.3",
		width=0.75];
	0 -- 45	[pos="1142.2,868.95 1103.1,875.4 1030,887.46 990.82,893.93"];
	47	[height=0.5,
		pos="917.88,762.68",
		width=0.75];
	0 -- 47	[pos="1145.3,855.21 1097.6,835.79 988.62,791.47 940.94,772.07"];
	17	[height=0.5,
		pos="1064.6,524.64",
		width=0.75];
	0 -- 17	[pos="1163,846.81 1145.1,788.2 1088.1,601.62 1070.1,542.67"];
	48	[height=0.5,
		pos="1200.4,1208.5",
		width=0.75];
	0 -- 48	[pos="1170.1,882.62 1175.6,941.91 1193.2,1130.6 1198.7,1190.3"];
	51	[height=0.5,
		pos="1404.2,1017.2",
		width=0.75];
	0 -- 51	[pos="1188.1,877.36 1232.6,906.14 1340.5,975.91 1384.7,1004.6"];
	21	[height=0.5,
		pos="1374.7,619.7",
		width=0.75];
	20 -- 21	[pos="1435.4,754.42 1422.2,725.06 1395.7,666.17 1382.5,636.95"];
	24	[height=0.5,
		pos="1490.2,1271.8",
		width=0.75];
	23 -- 24	[pos="1461.6,1140.1 1467.8,1168.9 1480,1224.8 1486.2,1253.7"];
	28	[height=0.5,
		pos="526.3,919.13",
		width=0.75];
	27 -- 28	[pos="747.49,938.64 699.74,934.43 601.03,925.72 553.31,921.51"];
	32	[height=0.5,
		pos="1179.6,1255.6",
		width=0.75];
	31 -- 32	[pos="1292.6,1133.9 1268.1,1160.2 1218.7,1213.6 1194.1,1240"];
	6 -- 17	[pos="1313,553 1260.4,546.99 1143.9,533.68 1091.3,527.68"];
	55	[height=0.5,
		pos="1049.6,573.56",
		width=0.75];
	6 -- 55	[pos="1312.6,557.67 1257.4,561.01 1132,568.58 1076.7,571.92"];
	12	[height=0.5,
		pos="969.51,642.57",
		width=0.75];
	6 -- 12	[pos="1313.9,562.05 1246,577.92 1062.7,620.77 995.07,636.59"];
	87	[height=0.5,
		pos="1254,737.57",
		width=0.75];
	6 -- 87	[pos="1331.4,573.44 1315.1,608.14 1278.6,685.56 1262.2,720.22"];
	188	[height=0.5,
		pos="1230.5,827.12",
		width=0.75];
	6 -- 188	[pos="1332.5,573.82 1312.6,623.06 1257.2,760.73 1237.5,809.62"];
	14	[height=0.5,
		pos="754.92,548.76",
		width=0.75];
	6 -- 14	[pos="1312.6,555.7 1214.8,554.48 879.89,550.32 782,549.1"];
	219	[height=0.5,
		pos="1297.8,826.95",
		width=0.75];
	6 -- 219	[pos="1336.8,574.23 1329.2,623.58 1308.2,759.57 1300.6,808.84"];
	222	[height=0.5,
		pos="1513.6,335.11",
		width=0.75];
	6 -- 222	[pos="1352.4,539.79 1384.7,498.83 1469,391.74 1501,351.08"];
	225	[height=0.5,
		pos="1558.6,496.31",
		width=0.75];
	6 -- 225	[pos="1364.7,549.18 1406.9,537.69 1491.3,514.67 1533.4,503.17"];
	229	[height=0.5,
		pos="1593.9,542.12",
		width=0.75];
	6 -- 229	[pos="1366.8,554.55 1415.8,551.87 1518.1,546.27 1566.9,543.6"];
	232	[height=0.5,
		pos="1316.8,745.96",
		width=0.75];
	6 -- 232	[pos="1337.4,574.25 1333.1,610.55 1323.3,691.55 1319,727.81"];
	234	[height=0.5,
		pos="1112.1,568.68",
		width=0.75];
	6 -- 234	[pos="1312.6,557.53 1268.8,559.97 1182.8,564.75 1139.1,567.18"];
	236	[height=0.5,
		pos="1230.2,412.65",
		width=0.75];
	6 -- 236	[pos="1327.3,539.87 1306.3,512.33 1263.8,456.63 1242.7,428.98"];
	238	[height=0.5,
		pos="1330.4,303.66",
		width=0.75];
	6 -- 238	[pos="1339,537.88 1337.3,491.43 1332.7,368.63 1331,321.98"];
	242	[height=0.5,
		pos="1571,773.31",
		width=0.75];
	6 -- 242	[pos="1355.5,570.97 1397.9,610.76 1513.2,718.98 1555.3,758.56"];
	246	[height=0.5,
		pos="1381.3,768.69",
		width=0.75];
	6 -- 246	[pos="1343.2,574.17 1351.1,614.34 1369.9,710.47 1377.7,750.6"];
	120	[height=0.5,
		pos="1125,309.35",
		width=0.75];
	6 -- 120	[pos="1325.9,540.23 1287.1,495.67 1177.2,369.42 1138.6,325.02"];
	157	[height=0.5,
		pos="1632.6,725.64",
		width=0.75];
	6 -- 157	[pos="1360.2,567.96 1414,599.1 1558.2,682.6 1612,713.72"];
	34	[height=0.5,
		pos="787.17,1337.2",
		width=0.75];
	33 -- 34	[pos="986.52,1165.2 946.33,1199.8 844.07,1288.1 803.81,1322.8"];
	42	[height=0.5,
		pos="694.73,963.42",
		width=0.75];
	41 -- 42	[pos="937.31,966.96 885.62,966.21 773.48,964.57 721.81,963.82"];
	44	[height=0.5,
		pos="878.09,614.82",
		width=0.75];
	43 -- 44	[pos="1035.6,760.19 1002.5,729.68 927.08,660.04 894.06,629.56"];
	46	[height=0.5,
		pos="769.98,772.16",
		width=0.75];
	45 -- 46	[pos="944.63,885.51 907.28,861.27 826.61,808.92 789.45,784.8"];
	105	[height=0.5,
		pos="1101.4,680.04",
		width=0.75];
	17 -- 105	[pos="1068.9,542.47 1075.9,572.28 1090,631.95 1097.1,661.94"];
	19	[height=0.5,
		pos="1127.8,948.88",
		width=0.75];
	17 -- 19	[pos="1067.3,542.6 1077.6,611.83 1114.7,861.03 1125.1,930.68"];
	325	[height=0.5,
		pos="1408,507.95",
		width=0.75];
	17 -- 325	[pos="1091.6,523.33 1155.6,520.22 1316.3,512.41 1380.7,509.28"];
	339	[height=0.5,
		pos="855.84,759.81",
		width=0.75];
	17 -- 339	[pos="1050.6,540.43 1012.6,583.28 907.77,701.33 869.81,744.09"];
	385	[height=0.5,
		pos="870.21,505",
		width=0.75];
	17 -- 385	[pos="1037.6,521.91 1000.5,518.16 934.04,511.45 897.01,507.71"];
	388	[height=0.5,
		pos="979.91,762.16",
		width=0.75];
	17 -- 388	[pos="1058.3,542.49 1042.5,586.62 1001.9,700.42 986.24,744.43"];
	81	[height=0.5,
		pos="954.22,297.68",
		width=0.75];
	17 -- 81	[pos="1056.2,507.21 1035.6,464.86 983.06,356.95 962.58,314.86"];
	144	[height=0.5,
		pos="820.34,416.96",
		width=0.75];
	17 -- 144	[pos="1042.1,514.7 995.67,494.24 889.86,447.6 843.18,427.03"];
	184	[height=0.5,
		pos="1225.7,689.15",
		width=0.75];
	17 -- 184	[pos="1079.5,539.82 1110.2,571.16 1180.2,642.7 1210.8,674"];
	216	[height=0.5,
		pos="1227.2,644.09",
		width=0.75];
	17 -- 216	[pos="1083,538.11 1114.2,561.05 1177.4,607.45 1208.7,630.48"];
	266	[height=0.5,
		pos="786.13,593.05",
		width=0.75];
	17 -- 266	[pos="1038.9,530.95 985.88,543.99 864.77,573.73 811.77,586.75"];
	290	[height=0.5,
		pos="1112.6,235.42",
		width=0.75];
	17 -- 290	[pos="1067.6,506.55 1076.3,454.61 1101,305.44 1109.6,253.51"];
	310	[height=0.5,
		pos="1191,279.27",
		width=0.75];
	17 -- 310	[pos="1073.5,507.39 1096.7,462.33 1158.9,341.54 1182.1,296.51"];
	362	[height=0.5,
		pos="736.27,319.13",
		width=0.75];
	17 -- 362	[pos="1044.6,512.09 985.83,475.32 814.48,368.07 756.06,331.51"];
	373	[height=0.5,
		pos="968.73,234.29",
		width=0.75];
	17 -- 373	[pos="1058.8,506.91 1041.7,455.08 991.81,304.16 974.63,252.16"];
	381	[height=0.5,
		pos="945.19,364.11",
		width=0.75];
	17 -- 381	[pos="1052.5,508.36 1029.6,477.6 980.25,411.23 957.33,380.43"];
	49	[height=0.5,
		pos="1121.7,1362.8",
		width=0.75];
	48 -- 49	[pos="1191.7,1225.6 1176.6,1255.3 1145.6,1315.9 1130.4,1345.6"];
	52	[height=0.5,
		pos="1383.9,1061.3",
		width=0.75];
	51 -- 52	[pos="1396.2,1034.6 1394.8,1037.7 1393.3,1040.9 1391.9,1044"];
	1	[height=0.5,
		pos="658.47,634.34",
		width=0.75];
	2	[height=0.5,
		pos="1026.4,868.85",
		width=0.75];
	1 -- 2	[pos="677.99,646.78 741.57,687.31 942.31,815.26 1006.5,856.15"];
	3	[height=0.5,
		pos="526.34,591.46",
		width=0.75];
	1 -- 3	[pos="633.92,626.37 610.19,618.67 574.44,607.07 550.75,599.38"];
	53	[height=0.5,
		pos="857.08,914.38",
		width=0.75];
	1 -- 53	[pos="670.3,651.02 705.62,700.83 810.06,848.1 845.31,897.79"];
	54	[height=0.5,
		pos="795.06,897.02",
		width=0.75];
	1 -- 54	[pos="667.43,651.57 692.18,699.17 761.28,832.05 786.07,879.72"];
	1 -- 55	[pos="685.05,630.21 756.49,619.11 952.08,588.71 1023.3,577.65"];
	56	[height=0.5,
		pos="386.94,724.59",
		width=0.75];
	1 -- 56	[pos="633.89,642.51 582.2,659.69 462.74,699.39 411.27,716.5"];
	60	[height=0.5,
		pos="821.04,318.03",
		width=0.75];
	1 -- 60	[pos="667.44,616.88 695.86,561.58 783.71,390.66 812.09,335.43"];
	64	[height=0.5,
		pos="958.42,497.16",
		width=0.75];
	1 -- 64	[pos="681.01,624.03 736.74,598.54 880.45,532.82 936.02,507.41"];
	66	[height=0.5,
		pos="1217.6,576.36",
		width=0.75];
	1 -- 66	[pos="685.44,631.54 780.11,621.72 1096.7,588.9 1190.9,579.12"];
	67	[height=0.5,
		pos="389.55,896.33",
		width=0.75];
	1 -- 67	[pos="642.85,649.56 595.2,695.97 452.12,835.37 404.87,881.4"];
	1 -- 12	[pos="685.53,635.05 744.35,636.61 883.32,640.29 942.29,641.85"];
	71	[height=0.5,
		pos="355.56,610.94",
		width=0.75];
	1 -- 71	[pos="631.59,632.26 574.1,627.82 439.81,617.45 382.38,613.02"];
	75	[height=0.5,
		pos="588.8,502.28",
		width=0.75];
	1 -- 75	[pos="649.5,617.34 636.2,592.13 611.36,545.05 597.95,519.62"];
	76	[height=0.5,
		pos="522.06,508.02",
		width=0.75];
	1 -- 76	[pos="642.55,619.6 616.27,595.26 564.09,546.94 537.87,522.67"];
	16	[height=0.5,
		pos="584.1,546.31",
		width=0.75];
	1 -- 16	[pos="645.17,618.6 631.72,602.68 611.03,578.19 597.53,562.21"];
	79	[height=0.5,
		pos="732.72,374.28",
		width=0.75];
	1 -- 79	[pos="663.57,616.46 677.14,568.96 713.98,439.93 727.58,392.28"];
	18	[height=0.5,
		pos="856.64,967.19",
		width=0.75];
	1 -- 18	[pos="668.57,651.3 702.56,708.4 812.59,893.21 846.56,950.26"];
	82	[height=0.5,
		pos="910.42,713.92",
		width=0.75];
	1 -- 82	[pos="683.08,642.11 731.25,657.33 837.46,690.88 885.7,706.12"];
	22	[height=0.5,
		pos="1093.5,617.66",
		width=0.75];
	1 -- 22	[pos="685.68,633.3 763.82,630.3 988.22,621.7 1066.3,618.7"];
	2 -- 16	[pos="1007.9,855.4 936.01,802.95 674.69,612.38 602.62,559.82"];
	84	[height=0.5,
		pos="730.21,714.06",
		width=0.75];
	2 -- 84	[pos="1005.1,857.72 950.57,829.23 806.45,753.91 751.71,725.3"];
	4	[height=0.5,
		pos="1114.9,1075.3",
		width=0.75];
	2 -- 4	[pos="1033.9,886.46 1050.7,925.46 1090.7,1018.8 1107.4,1057.8"];
	85	[height=0.5,
		pos="1087.2,1121.8",
		width=0.75];
	2 -- 85	[pos="1030.7,886.64 1041.8,932.96 1071.6,1057 1082.8,1103.6"];
	2 -- 87	[pos="1047,856.97 1090.2,832.04 1190,774.51 1233.3,749.52"];
	7	[height=0.5,
		pos="608.57,977.2",
		width=0.75];
	2 -- 7	[pos="1001.2,875.39 926.74,894.69 708.29,951.34 633.8,970.66"];
	88	[height=0.5,
		pos="1031.5,618.24",
		width=0.75];
	2 -- 88	[pos="1026.8,850.83 1027.7,804.7 1030.2,682.76 1031.1,636.44"];
	89	[height=0.5,
		pos="1455.7,823.09",
		width=0.75];
	2 -- 89	[pos="1053.2,865.99 1130.3,857.77 1351.7,834.17 1428.8,825.95"];
	93	[height=0.5,
		pos="1432.2,925.47",
		width=0.75];
	2 -- 93	[pos="1053,872.57 1126.6,882.84 1332.3,911.54 1405.7,921.78"];
	97	[height=0.5,
		pos="913.15,1191.7",
		width=0.75];
	2 -- 97	[pos="1020.1,886.67 1000.3,943.11 939.15,1117.5 919.38,1173.9"];
	101	[height=0.5,
		pos="1297.8,895.97",
		width=0.75];
	2 -- 101	[pos="1053.4,871.55 1105.4,876.75 1218.9,888.09 1270.9,893.28"];
	13	[height=0.5,
		pos="645.37,789.55",
		width=0.75];
	2 -- 13	[pos="1000.5,863.46 930.99,849 740.85,809.42 671.29,794.94"];
	104	[height=0.5,
		pos="792.24,718.94",
		width=0.75];
	2 -- 104	[pos="1006.8,856.33 962.75,828.11 856.09,759.82 811.91,731.53"];
	15	[height=0.5,
		pos="673.04,576.08",
		width=0.75];
	2 -- 15	[pos="1009.3,854.73 949.65,805.27 750.39,640.17 690.33,590.4"];
	2 -- 105	[pos="1033.3,851.43 1047.6,815.55 1080.1,733.77 1094.4,697.7"];
	106	[height=0.5,
		pos="1076,1187.3",
		width=0.75];
	2 -- 106	[pos="1029.2,886.89 1037.9,942.81 1064.4,1112.9 1073.1,1169.1"];
	110	[height=0.5,
		pos="1321.9,1069.8",
		width=0.75];
	2 -- 110	[pos="1045.3,881.73 1098.6,917.93 1249.2,1020.4 1302.7,1056.7"];
	26	[height=0.5,
		pos="1262.5,1173.8",
		width=0.75];
	2 -- 26	[pos="1039.1,885.25 1080.2,938.31 1209.2,1105 1250,1157.7"];
	3 -- 12	[pos="553.06,594.55 632.03,603.65 863.73,630.37 942.75,639.49"];
	3 -- 16	[pos="543.98,577.67 551.15,572.07 559.41,565.61 566.56,560.02"];
	3 -- 84	[pos="546.63,603.67 585.71,627.17 670.98,678.45 709.99,701.91"];
	113	[height=0.5,
		pos="586.45,840.45",
		width=0.75];
	3 -- 113	[pos="530.66,609.37 541.73,655.2 570.98,776.36 582.09,822.38"];
	115	[height=0.5,
		pos="462.13,809.34",
		width=0.75];
	3 -- 115	[pos="521.08,609.29 509.01,650.25 479.42,750.67 467.37,791.57"];
	117	[height=0.5,
		pos="516.45,287.9",
		width=0.75];
	3 -- 117	[pos="525.75,573.38 524,519.52 518.82,360.51 517.05,306.27"];
	121	[height=0.5,
		pos="232.7,671.58",
		width=0.75];
	3 -- 121	[pos="501.3,598.29 445.97,613.39 313.76,649.46 258.09,664.65"];
	8	[height=0.5,
		pos="976.63,408.14",
		width=0.75];
	3 -- 8	[pos="549.6,581.99 627.13,550.43 876.18,449.04 953.51,417.56"];
	125	[height=0.5,
		pos="440.74,330.87",
		width=0.75];
	3 -- 125	[pos="520.45,573.55 504.78,525.83 462.14,396.03 446.55,348.56"];
	129	[height=0.5,
		pos="843.25,460.96",
		width=0.75];
	3 -- 129	[pos="549.39,581.97 607.78,557.92 761.1,494.79 819.86,470.59"];
	132	[height=0.5,
		pos="324.92,766.87",
		width=0.75];
	3 -- 132	[pos="509.86,605.82 471.99,638.79 379.16,719.64 341.35,752.56"];
	135	[height=0.5,
		pos="282.75,614.6",
		width=0.75];
	3 -- 135	[pos="499.34,594.03 452.39,598.49 356.27,607.62 309.5,612.06"];
	138	[height=0.5,
		pos="368.81,460.07",
		width=0.75];
	3 -- 138	[pos="509.48,577.4 479.32,552.25 416.44,499.8 386.03,474.43"];
	140	[height=0.5,
		pos="306.67,469.27",
		width=0.75];
	3 -- 140	[pos="505.28,579.75 463.29,556.39 369.61,504.28 327.67,480.95"];
	143	[height=0.5,
		pos="605.03,380.92",
		width=0.75];
	3 -- 143	[pos="532.91,573.87 547.73,534.24 583.57,438.33 598.42,398.6"];
	145	[height=0.5,
		pos="254.71,842.77",
		width=0.75];
	3 -- 145	[pos="510.16,606.43 461.85,651.13 319.01,783.29 270.81,827.88"];
	149	[height=0.5,
		pos="316.77,874.1",
		width=0.75];
	3 -- 149	[pos="514.17,607.88 477.13,657.83 366.06,807.62 328.98,857.64"];
	29	[height=0.5,
		pos="397.25,768.64",
		width=0.75];
	3 -- 29	[pos="514.43,607.81 489.84,641.57 433.7,718.61 409.14,752.33"];
	57	[height=0.5,
		pos="121.37,867.51",
		width=0.75];
	56 -- 57	[pos="365.66,736.04 315.81,762.87 191.97,829.52 142.39,856.2"];
	61	[height=0.5,
		pos="800.9,108.73",
		width=0.75];
	60 -- 61	[pos="819.28,299.82 815.47,260.14 806.43,166.26 802.63,126.75"];
	65	[height=0.5,
		pos="1194.9,456.66",
		width=0.75];
	64 -- 65	[pos="984.63,492.68 1030.1,484.89 1123,468.97 1168.5,461.17"];
	68	[height=0.5,
		pos="220.81,1108.7",
		width=0.75];
	67 -- 68	[pos="376.86,912.3 345.59,951.66 265.07,1053 233.64,1092.6"];
	12 -- 40	[pos="992.27,652.44 1032.5,669.87 1115.6,705.89 1155.8,723.31"];
	12 -- 17	[pos="982.34,626.67 1000.5,604.16 1033.5,563.24 1051.7,540.67"];
	12 -- 13	[pos="946.97,652.79 887.53,679.74 727.02,752.52 667.75,779.4"];
	12 -- 14	[pos="946.54,632.53 905.24,614.48 818.9,576.73 777.72,558.73"];
	278	[height=0.5,
		pos="1039.7,436.6",
		width=0.75];
	12 -- 278	[pos="975.49,625.01 988.71,586.19 1020.3,493.46 1033.6,454.41"];
	332	[height=0.5,
		pos="815.28,829.97",
		width=0.75];
	12 -- 332	[pos="956.36,658.55 927.22,693.95 857.51,778.67 828.4,814.03"];
	343	[height=0.5,
		pos="832.51,549.01",
		width=0.75];
	12 -- 343	[pos="950.46,629.56 924.29,611.69 877.49,579.72 851.4,561.91"];
	344	[height=0.5,
		pos="883.09,328.86",
		width=0.75];
	12 -- 344	[pos="964.61,624.81 949.44,569.72 903.29,402.17 888.04,346.82"];
	348	[height=0.5,
		pos="902.31,870.22",
		width=0.75];
	12 -- 348	[pos="964.24,660.43 951.67,702.99 920.1,809.97 907.56,852.44"];
	349	[height=0.5,
		pos="1349.7,688.75",
		width=0.75];
	12 -- 349	[pos="996.24,645.82 1066,654.3 1253.2,677.03 1323,685.51"];
	103	[height=0.5,
		pos="1312.7,644.75",
		width=0.75];
	12 -- 103	[pos="996.72,642.74 1060.9,643.15 1221.3,644.17 1285.5,644.57"];
	171	[height=0.5,
		pos="1154.8,820.6",
		width=0.75];
	12 -- 171	[pos="984.98,657.44 1019.9,690.96 1104.2,772.06 1139.2,805.65"];
	207	[height=0.5,
		pos="1189.9,986.02",
		width=0.75];
	12 -- 207	[pos="980.14,659.14 1017.4,717.16 1141.7,910.83 1179.1,969.22"];
	256	[height=0.5,
		pos="583.83,638.29",
		width=0.75];
	12 -- 256	[pos="942.39,642.27 871.57,641.48 681.7,639.38 610.92,638.59"];
	295	[height=0.5,
		pos="1268.7,498.19",
		width=0.75];
	12 -- 295	[pos="991.51,631.95 1046.8,605.26 1191.3,535.54 1246.7,508.83"];
	315	[height=0.5,
		pos="1345.9,512.02",
		width=0.75];
	12 -- 315	[pos="993.63,634.21 1061.4,610.68 1253.3,544.13 1321.5,520.48"];
	72	[height=0.5,
		pos="219.94,610.79",
		width=0.75];
	71 -- 72	[pos="328.44,610.91 304.79,610.89 270.65,610.85 247.01,610.82"];
	77	[height=0.5,
		pos="368.85,392.17",
		width=0.75];
	76 -- 77	[pos="504.18,494.51 474.82,472.3 416.68,428.34 387.09,405.96"];
	16 -- 47	[pos="603.48,558.88 662.48,597.12 839.37,711.79 898.43,750.08"];
	16 -- 18	[pos="594.95,563.07 638.71,630.65 801.94,882.72 845.75,950.38"];
	264	[height=0.5,
		pos="521.31,765.29",
		width=0.75];
	16 -- 264	[pos="578.96,564.23 567.16,605.4 538.22,706.32 526.43,747.43"];
	338	[height=0.5,
		pos="707.37,808.98",
		width=0.75];
	16 -- 338	[pos="592.18,563.55 614.52,611.14 676.88,744.01 699.26,791.68"];
	16 -- 385	[pos="610.5,542.5 664.87,534.65 788.79,516.76 843.45,508.86"];
	386	[height=0.5,
		pos="783.05,656.85",
		width=0.75];
	16 -- 386	[pos="605.01,557.93 643.22,579.16 723.89,623.98 762.11,645.22"];
	182	[height=0.5,
		pos="400.12,852.3",
		width=0.75];
	16 -- 182	[pos="573.94,563.2 541.78,616.7 442.36,782.04 410.24,835.46"];
	214	[height=0.5,
		pos="524.27,843.78",
		width=0.75];
	16 -- 214	[pos="580.44,564.47 569.74,617.71 538.52,772.93 527.87,825.86"];
	241	[height=0.5,
		pos="883.55,284.86",
		width=0.75];
	16 -- 241	[pos="600.62,531.88 652.98,486.17 814.79,344.89 867.07,299.24"];
	286	[height=0.5,
		pos="674.17,330.23",
		width=0.75];
	16 -- 286	[pos="591.47,528.63 608.4,488.01 649.92,388.42 666.83,347.85"];
	306	[height=0.5,
		pos="862.37,372.93",
		width=0.75];
	16 -- 306	[pos="604.11,533.84 655.45,501.85 791.39,417.15 842.53,385.28"];
	324	[height=0.5,
		pos="1065.7,480.61",
		width=0.75];
	16 -- 324	[pos="610.67,542.69 694.87,531.2 955.09,495.69 1039.2,484.22"];
	347	[height=0.5,
		pos="591.07,290.37",
		width=0.75];
	16 -- 347	[pos="584.59,528.32 585.86,481.44 589.28,355.93 590.57,308.69"];
	358	[height=0.5,
		pos="397.5,516.88",
		width=0.75];
	16 -- 358	[pos="557.76,542.16 522.3,536.56 459.56,526.67 424.01,521.06"];
	369	[height=0.5,
		pos="467.92,375.95",
		width=0.75];
	16 -- 369	[pos="572.75,529.67 550.48,497.01 501.31,424.92 479.15,392.41"];
	80	[height=0.5,
		pos="772.19,204.9",
		width=0.75];
	79 -- 80	[pos="736.87,356.47 744.45,323.94 760.45,255.27 768.04,222.73"];
	291	[height=0.5,
		pos="907.48,669.47",
		width=0.75];
	18 -- 291	[pos="859.74,949.02 868.84,895.74 895.37,740.38 904.42,687.41"];
	18 -- 348	[pos="864.8,949.86 873.12,932.2 885.93,905 894.22,887.41"];
	18 -- 388	[pos="866.72,950.41 889.9,911.87 946.72,817.37 969.86,778.88"];
	389	[height=0.5,
		pos="1037.3,1242.8",
		width=0.75];
	18 -- 389	[pos="867.67,984.01 900,1033.3 994.28,1177.1 1026.4,1226.2"];
	50	[height=0.5,
		pos="975.28,1207.1",
		width=0.75];
	18 -- 50	[pos="865.17,984.45 887.06,1028.7 945.02,1145.9 966.82,1190"];
	109	[height=0.5,
		pos="910.58,1240",
		width=0.75];
	18 -- 109	[pos="860.18,985.09 869.95,1034.5 897.24,1172.5 907.03,1222"];
	148	[height=0.5,
		pos="447.22,1119.9",
		width=0.75];
	18 -- 148	[pos="832.85,976.06 760.41,1003.1 543,1084.2 470.81,1111.1"];
	186	[height=0.5,
		pos="864.96,1147.6",
		width=0.75];
	18 -- 186	[pos="857.48,985.48 859.08,1020.1 862.53,1095 864.12,1129.5"];
	245	[height=0.5,
		pos="1199.7,1162.3",
		width=0.75];
	18 -- 245	[pos="877.32,978.96 938.46,1013.7 1117.8,1115.7 1179,1150.5"];
	268	[height=0.5,
		pos="606.9,1147.5",
		width=0.75];
	18 -- 268	[pos="838.27,980.45 792.09,1013.8 671.5,1100.8 625.29,1134.2"];
	328	[height=0.5,
		pos="1315,993.12",
		width=0.75];
	18 -- 328	[pos="883.6,968.72 964.87,973.31 1206.8,987.01 1288.1,991.6"];
	342	[height=0.5,
		pos="660.94,1208.9",
		width=0.75];
	18 -- 342	[pos="843.8,983.05 808.34,1026.8 709.34,1149.1 673.83,1193"];
	377	[height=0.5,
		pos="497.18,982.96",
		width=0.75];
	18 -- 377	[pos="829.62,968.38 763,971.3 591.45,978.83 524.51,981.77"];
	383	[height=0.5,
		pos="626.03,933.14",
		width=0.75];
	18 -- 383	[pos="830.18,963.29 785.82,956.73 696.93,943.61 652.53,937.05"];
	83	[height=0.5,
		pos="1088.5,847.45",
		width=0.75];
	82 -- 83	[pos="928.48,727.46 962.61,753.05 1036.2,808.26 1070.4,833.88"];
	4 -- 30	[pos="1142.2,1075.1 1168.1,1074.9 1206.9,1074.5 1232.7,1074.3"];
	4 -- 53	[pos="1095.1,1063 1047.1,1033 925.02,956.79 876.95,926.79"];
	153	[height=0.5,
		pos="1138.4,1208.7",
		width=0.75];
	4 -- 153	[pos="1118.1,1093.3 1122.6,1118.8 1130.7,1165 1135.2,1190.6"];
	154	[height=0.5,
		pos="1464.5,1210.1",
		width=0.75];
	4 -- 154	[pos="1138.4,1084.4 1202.1,1108.9 1377.6,1176.6 1441.2,1201.1"];
	158	[height=0.5,
		pos="802.65,1137.9",
		width=0.75];
	4 -- 158	[pos="1088.9,1080.6 1030.1,1092.3 887.8,1120.9 828.88,1132.7"];
	159	[height=0.5,
		pos="1359.8,920.49",
		width=0.75];
	4 -- 159	[pos="1134.6,1062.9 1180.4,1033.9 1294.2,962.01 1340.1,932.96"];
	9	[height=0.5,
		pos="1279.6,600.04",
		width=0.75];
	4 -- 9	[pos="1121.1,1057.6 1147.1,982.57 1247.6,692.32 1273.5,617.64"];
	162	[height=0.5,
		pos="1574.6,1110.8",
		width=0.75];
	4 -- 162	[pos="1142,1077.4 1223.5,1083.7 1466.1,1102.4 1547.6,1108.7"];
	166	[height=0.5,
		pos="1065.2,1408",
		width=0.75];
	4 -- 166	[pos="1112.2,1093.7 1103.5,1151.8 1076.6,1331.6 1068,1389.7"];
	170	[height=0.5,
		pos="1249.1,1030.1",
		width=0.75];
	4 -- 170	[pos="1139.2,1067.1 1163.6,1058.9 1200.7,1046.4 1225,1038.2"];
	172	[height=0.5,
		pos="877.99,1378.2",
		width=0.75];
	4 -- 172	[pos="1102.2,1091.6 1061,1144.3 931.42,1309.9 890.5,1362.2"];
	176	[height=0.5,
		pos="881.31,826.19",
		width=0.75];
	4 -- 176	[pos="1100.3,1059.7 1058.4,1015 937.87,886.5 895.92,841.77"];
	177	[height=0.5,
		pos="915.53,1011.4",
		width=0.75];
	4 -- 177	[pos="1090.5,1067.5 1052.1,1055.2 978.18,1031.5 939.87,1019.2"];
	179	[height=0.5,
		pos="723.02,1205.1",
		width=0.75];
	4 -- 179	[pos="1090.7,1083.3 1020.6,1106.6 818.1,1173.6 747.58,1197"];
	183	[height=0.5,
		pos="1253.4,948.97",
		width=0.75];
	4 -- 183	[pos="1131.1,1060.6 1157.8,1036.2 1210.8,987.9 1237.4,963.62"];
	185	[height=0.5,
		pos="1064.4,1301.5",
		width=0.75];
	4 -- 185	[pos="1110.9,1093.4 1101.4,1135.9 1077.8,1241.4 1068.4,1283.6"];
	187	[height=0.5,
		pos="1200.8,1118.2",
		width=0.75];
	4 -- 187	[pos="1136.6,1086.1 1149.6,1092.6 1166.1,1100.9 1179.1,1107.4"];
	114	[height=0.5,
		pos="757.95,1029",
		width=0.75];
	4 -- 114	[pos="1088.4,1071.9 1022.3,1063.3 850.94,1041.1 784.67,1032.5"];
	86	[height=0.5,
		pos="1117.6,1256.6",
		width=0.75];
	85 -- 86	[pos="1091.2,1139.7 1097,1165.4 1107.7,1212.8 1113.5,1238.6"];
	7 -- 158	[pos="625.79,991.46 662.62,1022 748.67,1093.2 785.46,1123.7"];
	247	[height=0.5,
		pos="666.43,679.67",
		width=0.75];
	7 -- 247	[pos="612.1,959.04 622.46,905.79 652.65,750.54 662.94,697.6"];
	248	[height=0.5,
		pos="750.99,852.98",
		width=0.75];
	7 -- 248	[pos="625.19,962.71 652.63,938.77 707.11,891.25 734.48,867.38"];
	250	[height=0.5,
		pos="1026.4,939.56",
		width=0.75];
	7 -- 250	[pos="635.34,974.79 710.73,968 924.16,948.77 999.6,941.98"];
	11	[height=0.5,
		pos="778.22,985.04",
		width=0.75];
	7 -- 11	[pos="635.83,978.46 667.48,979.92 719.4,982.32 751.03,983.78"];
	253	[height=0.5,
		pos="294.84,984.37",
		width=0.75];
	7 -- 253	[pos="581.55,977.82 522.25,979.17 381.25,982.4 321.9,983.75"];
	257	[height=0.5,
		pos="311.46,1116.5",
		width=0.75];
	7 -- 257	[pos="586.24,987.67 531.04,1013.5 388.68,1080.3 333.64,1106.1"];
	260	[height=0.5,
		pos="347.1,940.35",
		width=0.75];
	7 -- 260	[pos="582.06,973.46 531.95,966.4 423.85,951.17 373.68,944.1"];
	263	[height=0.5,
		pos="583.32,795.95",
		width=0.75];
	7 -- 263	[pos="606.06,959.16 601.22,924.42 590.65,848.6 585.82,813.92"];
	7 -- 264	[pos="601.28,959.5 584.81,919.51 544.91,822.59 528.52,782.79"];
	265	[height=0.5,
		pos="668.17,745.51",
		width=0.75];
	7 -- 265	[pos="613.15,959.41 624.24,916.28 652.47,806.56 663.58,763.37"];
	267	[height=0.5,
		pos="502.15,1208",
		width=0.75];
	7 -- 267	[pos="600.57,994.55 580.8,1037.4 529.81,1148 510.1,1190.8"];
	7 -- 19	[pos="635.76,975.72 725.49,970.82 1011.6,955.22 1100.9,950.35"];
	35	[height=0.5,
		pos="564.15,1252",
		width=0.75];
	7 -- 35	[pos="605.66,995.23 597.61,1045 575.13,1184.1 567.07,1233.9"];
	59	[height=0.5,
		pos="282.87,1072.4",
		width=0.75];
	7 -- 59	[pos="583.82,984.44 523.4,1002.1 368.87,1047.3 308.03,1065.1"];
	124	[height=0.5,
		pos="220.81,1045.5",
		width=0.75];
	7 -- 124	[pos="582.22,981.84 511.4,994.31 317.51,1028.4 246.94,1040.9"];
	191	[height=0.5,
		pos="498.39,1266.9",
		width=0.75];
	7 -- 191	[pos="601.84,994.88 582.13,1046.7 524.63,1197.9 505.03,1249.4"];
	221	[height=0.5,
		pos="868.49,1096.2",
		width=0.75];
	7 -- 221	[pos="631.18,987.55 680.46,1010.1 797.06,1063.5 846.12,1085.9"];
	90	[height=0.5,
		pos="1687.2,681.14",
		width=0.75];
	89 -- 90	[pos="1475.8,810.74 1519.7,783.83 1623.6,720.15 1667.3,693.36"];
	94	[height=0.5,
		pos="1706.6,813.57",
		width=0.75];
	93 -- 94	[pos="1455.6,915.93 1507.4,894.79 1631.5,844.2 1683.2,823.08"];
	98	[height=0.5,
		pos="940.31,1383.1",
		width=0.75];
	97 -- 98	[pos="915.71,1209.7 920.88,1246.2 932.56,1328.4 937.74,1365"];
	102	[height=0.5,
		pos="1505.4,779.04",
		width=0.75];
	101 -- 102	[pos="1318.4,884.33 1358.1,861.98 1444.6,813.26 1484.5,790.81"];
	13 -- 18	[pos="662.3,803.78 701.86,837.05 799.99,919.56 839.62,952.89"];
	13 -- 15	[pos="647.73,771.35 652.96,731.02 665.46,634.52 670.69,594.24"];
	316	[height=0.5,
		pos="1163.6,656.91",
		width=0.75];
	13 -- 316	[pos="670.72,783.06 758.71,760.54 1050.4,685.88 1138.3,663.38"];
	352	[height=0.5,
		pos="294.76,660.35",
		width=0.75];
	13 -- 352	[pos="621.55,780.77 557.58,757.2 382.62,692.72 318.62,669.14"];
	356	[height=0.5,
		pos="356.8,680.56",
		width=0.75];
	13 -- 356	[pos="621.75,780.63 567.51,760.14 434.5,709.91 380.33,689.45"];
	359	[height=0.5,
		pos="346.56,566.7",
		width=0.75];
	13 -- 359	[pos="627.13,775.94 573.65,736.06 417.73,619.77 364.56,580.12"];
	363	[height=0.5,
		pos="670.92,1010",
		width=0.75];
	13 -- 363	[pos="647.46,807.59 652.26,849.03 664.04,950.64 668.83,992.02"];
	13 -- 42	[pos="650.47,807.5 659.95,840.91 680.2,912.24 689.66,945.57"];
	74	[height=0.5,
		pos="252.14,798.72",
		width=0.75];
	13 -- 74	[pos="618.34,790.18 546.5,791.85 351.41,796.41 279.36,798.09"];
	137	[height=0.5,
		pos="334.7,812.1",
		width=0.75];
	13 -- 137	[pos="618.34,791.51 559.59,795.78 420.79,805.85 361.89,810.13"];
	175	[height=0.5,
		pos="380.07,1137.6",
		width=0.75];
	13 -- 175	[pos="632.93,805.87 588.37,864.34 437,1062.9 392.48,1121.4"];
	209	[height=0.5,
		pos="577.04,1025.1",
		width=0.75];
	13 -- 209	[pos="640.23,807.25 627.57,850.91 594.96,963.35 582.23,1007.2"];
	235	[height=0.5,
		pos="720.74,622.35",
		width=0.75];
	13 -- 235	[pos="653.15,772.28 667.59,740.25 698.39,671.93 712.89,639.77"];
	259	[height=0.5,
		pos="332.7,1028.4",
		width=0.75];
	13 -- 259	[pos="627.21,803.42 571.82,845.74 405.46,972.82 350.52,1014.8"];
	281	[height=0.5,
		pos="459.87,549.89",
		width=0.75];
	13 -- 281	[pos="632.91,773.45 599.12,729.79 506,609.49 472.27,565.92"];
	297	[height=0.5,
		pos="605.95,590.33",
		width=0.75];
	13 -- 297	[pos="641.8,771.52 634.29,733.59 616.95,645.94 609.48,608.17"];
	15 -- 16	[pos="648.74,567.95 636.19,563.75 620.92,558.64 608.37,554.44"];
	15 -- 263	[pos="665.85,593.7 649.01,634.97 607.17,737.5 590.42,778.55"];
	15 -- 343	[pos="699.37,571.61 728.92,566.59 776.58,558.5 806.14,553.49"];
	380	[height=0.5,
		pos="769.6,480.09",
		width=0.75];
	15 -- 380	[pos="688.13,561.08 706.16,543.15 736.17,513.32 754.3,495.3"];
	382	[height=0.5,
		pos="604.08,745.35",
		width=0.75];
	15 -- 382	[pos="665.92,593.56 652.7,625.99 624.53,695.16 611.26,727.71"];
	384	[height=0.5,
		pos="946.59,807.09",
		width=0.75];
	15 -- 384	[pos="690.15,590.53 739.39,632.12 881.04,751.73 929.83,792.94"];
	15 -- 46	[pos="681.64,593.48 700.04,630.69 743.02,717.62 761.4,754.8"];
	78	[height=0.5,
		pos="502.37,463.98",
		width=0.75];
	15 -- 78	[pos="653.79,563.44 621.02,541.91 554.72,498.36 521.81,476.75"];
	142	[height=0.5,
		pos="440.25,472.83",
		width=0.75];
	15 -- 142	[pos="650.29,565.99 605.68,546.2 507.16,502.51 462.74,482.81"];
	178	[height=0.5,
		pos="731.35,897.01",
		width=0.75];
	15 -- 178	[pos="676.34,594.26 686.61,650.74 717.87,822.82 728.08,879.03"];
	211	[height=0.5,
		pos="669.32,875.01",
		width=0.75];
	15 -- 211	[pos="672.81,594.33 672.15,647.82 670.21,803.82 669.55,857"];
	237	[height=0.5,
		pos="977.39,452.49",
		width=0.75];
	15 -- 237	[pos="696.17,566.69 752.76,543.71 897.74,484.84 954.3,461.87"];
	303	[height=0.5,
		pos="912.01,453.13",
		width=0.75];
	15 -- 303	[pos="694.67,564.95 740.17,541.55 845.3,487.46 890.6,464.15"];
	322	[height=0.5,
		pos="1101.7,435.17",
		width=0.75];
	15 -- 322	[pos="697.32,568.1 772.68,543.33 1002.1,467.92 1077.4,443.15"];
	337	[height=0.5,
		pos="459.27,741.54",
		width=0.75];
	15 -- 337	[pos="655.18,589.9 614.84,621.13 517.08,696.8 476.93,727.87"];
	366	[height=0.5,
		pos="590.63,458.22",
		width=0.75];
	15 -- 366	[pos="661.58,559.69 645.93,537.3 618,497.37 602.26,474.85"];
	107	[height=0.5,
		pos="1072.7,1452.4",
		width=0.75];
	106 -- 107	[pos="1075.7,1205.5 1075.1,1254 1073.5,1385.5 1072.9,1434"];
	111	[height=0.5,
		pos="1526.4,1166",
		width=0.75];
	110 -- 111	[pos="1344.2,1080.2 1383.5,1098.8 1464.9,1137 1504.2,1155.5"];
	113 -- 114	[pos="600.49,855.89 632.64,891.25 711.38,977.83 743.72,1013.4"];
	116	[height=0.5,
		pos="695.71,1055",
		width=0.75];
	115 -- 116	[pos="476.74,824.71 518.69,868.82 639.16,995.52 681.1,1039.6"];
	118	[height=0.5,
		pos="614.24,132.4",
		width=0.75];
	117 -- 118	[pos="526.92,271.26 545.64,241.49 584.67,179.42 603.55,149.39"];
	122	[height=0.5,
		pos="63.119,794.84",
		width=0.75];
	121 -- 122	[pos="214.23,685 181.61,708.71 114.17,757.73 81.568,781.43"];
	8 -- 36	[pos="990.38,423.87 1023.7,461.97 1108.4,558.93 1141.8,597.09"];
	8 -- 88	[pos="981.31,426.06 991.68,465.75 1016.5,560.72 1026.8,600.38"];
	8 -- 15	[pos="955.76,419.69 900.3,450.36 749.68,533.69 694.05,564.46"];
	192	[height=0.5,
		pos="1039.3,718.14",
		width=0.75];
	8 -- 192	[pos="980.27,426.15 991.36,480.94 1024.6,645.23 1035.7,700.09"];
	8 -- 247	[pos="959.95,422.74 905.97,470 736.38,618.44 682.81,665.33"];
	269	[height=0.5,
		pos="1152.1,191.24",
		width=0.75];
	8 -- 269	[pos="989.53,392.19 1022,352.08 1106.7,247.35 1139.2,207.22"];
	273	[height=0.5,
		pos="1260,243.49",
		width=0.75];
	8 -- 273	[pos="997.01,396.3 1049.2,365.99 1187.1,285.87 1239.5,255.44"];
	277	[height=0.5,
		pos="845.46,674.91",
		width=0.75];
	8 -- 277	[pos="968.02,425.65 944.2,474.1 877.59,609.57 853.93,657.69"];
	8 -- 278	[pos="999.03,418.26 1004.8,420.88 1011.1,423.7 1016.9,426.33"];
	279	[height=0.5,
		pos="716.74,262.47",
		width=0.75];
	8 -- 279	[pos="955.8,396.47 907.14,369.19 786.43,301.53 737.67,274.2"];
	282	[height=0.5,
		pos="906.5,240.09",
		width=0.75];
	8 -- 282	[pos="969.39,390.79 955.95,358.59 927.29,289.92 913.8,257.6"];
	284	[height=0.5,
		pos="834.45,196.83",
		width=0.75];
	8 -- 284	[pos="965.47,391.56 938.89,352.06 872.08,252.76 845.55,213.34"];
	287	[height=0.5,
		pos="1030.8,194.75",
		width=0.75];
	8 -- 287	[pos="981.15,390.32 991.35,350.15 1016,252.94 1026.2,212.68"];
	8 -- 291	[pos="971.88,426.1 959.21,473.96 924.77,604.13 912.18,651.73"];
	292	[height=0.5,
		pos="1193.1,500.68",
		width=0.75];
	8 -- 292	[pos="999.39,417.87 1041,435.64 1128.8,473.16 1170.4,490.94"];
	63	[height=0.5,
		pos="944.83,187.52",
		width=0.75];
	8 -- 63	[pos="974.03,390.09 968.05,348.61 953.39,246.93 947.42,205.52"];
	161	[height=0.5,
		pos="1310.4,451.35",
		width=0.75];
	8 -- 161	[pos="1003.4,411.61 1065.9,419.7 1220.9,439.77 1283.5,447.87"];
	224	[height=0.5,
		pos="1175.2,235.25",
		width=0.75];
	8 -- 224	[pos="993.21,393.7 1030.6,361.15 1121,282.39 1158.5,249.77"];
	126	[height=0.5,
		pos="544.67,199.82",
		width=0.75];
	125 -- 126	[pos="453.48,314.8 473.43,289.65 511.81,241.25 531.82,216.02"];
	130	[height=0.5,
		pos="1143.6,353.55",
		width=0.75];
	129 -- 130	[pos="867.07,452.44 923.25,432.35 1063.6,382.17 1119.7,362.07"];
	133	[height=0.5,
		pos="232.79,941.44",
		width=0.75];
	132 -- 133	[pos="315.92,783.93 298.31,817.3 259.47,890.88 241.82,924.31"];
	136	[height=0.5,
		pos="183.39,716.85",
		width=0.75];
	135 -- 136	[pos="267.66,630.13 248.88,649.46 217,682.27 198.3,701.51"];
	139	[height=0.5,
		pos="512.98,419.97",
		width=0.75];
	138 -- 139	[pos="393.93,453.09 420.23,445.77 461.3,434.34 487.67,427.01"];
	141	[height=0.5,
		pos="302.24,425.2",
		width=0.75];
	140 -- 141	[pos="304.84,451.09 304.58,448.53 304.32,445.9 304.06,443.34"];
	143 -- 144	[pos="631.43,385.34 672.87,392.27 752.7,405.63 794.06,412.56"];
	146	[height=0.5,
		pos="114.94,1010.9",
		width=0.75];
	145 -- 146	[pos="241.56,858.59 214.92,890.64 154.85,962.91 128.16,995.03"];
	150	[height=0.5,
		pos="248.64,1165.4",
		width=0.75];
	149 -- 150	[pos="312.61,891.88 300.45,943.9 265.04,1095.3 252.83,1147.5"];
	155	[height=0.5,
		pos="1712.6,1131.8",
		width=0.75];
	154 -- 155	[pos="1489.2,1202.3 1536.8,1187.3 1640.5,1154.5 1688,1139.5"];
	160	[height=0.5,
		pos="1436.7,631.83",
		width=0.75];
	159 -- 160	[pos="1364.6,902.43 1378.4,850.59 1418.1,701.71 1431.9,649.88"];
	9 -- 37	[pos="1295.3,614.82 1320.7,638.79 1370.7,685.88 1396.1,709.84"];
	9 -- 18	[pos="1263,614.44 1195.4,673.17 940.56,894.35 873.1,952.9"];
	9 -- 11	[pos="1261.8,613.75 1183.9,673.55 874.1,911.42 796.11,971.3"];
	10	[height=0.5,
		pos="1498.8,633.23",
		width=0.75];
	9 -- 10	[pos="1306.1,604.05 1348.2,610.43 1430.1,622.83 1472.3,629.22"];
	294	[height=0.5,
		pos="1433.9,419.9",
		width=0.75];
	9 -- 294	[pos="1293,584.37 1322.2,550.3 1391.2,469.82 1420.4,435.67"];
	296	[height=0.5,
		pos="983.48,541.24",
		width=0.75];
	9 -- 296	[pos="1253.6,594.88 1197.6,583.75 1066,557.63 1009.8,546.45"];
	298	[height=0.5,
		pos="1231.4,323.28",
		width=0.75];
	9 -- 298	[pos="1276.5,581.88 1267.7,531.74 1243.3,391.73 1234.5,341.51"];
	302	[height=0.5,
		pos="1163.7,411.33",
		width=0.75];
	9 -- 302	[pos="1269.3,583.3 1247.3,547.48 1196,463.81 1174,428.04"];
	304	[height=0.5,
		pos="1211.2,367.29",
		width=0.75];
	9 -- 304	[pos="1274.4,582.17 1261.6,538.84 1229.2,428.61 1216.5,385.22"];
	307	[height=0.5,
		pos="1426.1,294.87",
		width=0.75];
	9 -- 307	[pos="1287.9,582.76 1313.6,529.17 1391.9,366.18 1417.8,312.34"];
	311	[height=0.5,
		pos="1507.7,677.94",
		width=0.75];
	9 -- 311	[pos="1304,608.38 1347.9,623.37 1439.7,654.71 1483.5,669.66"];
	9 -- 65	[pos="1269.6,583.03 1253.3,555.44 1221.2,501.23 1204.9,473.65"];
	92	[height=0.5,
		pos="1551.1,587.58",
		width=0.75];
	9 -- 92	[pos="1306.6,598.8 1358.5,596.42 1471.6,591.22 1523.8,588.83"];
	128	[height=0.5,
		pos="1031.5,322.35",
		width=0.75];
	9 -- 128	[pos="1265.6,584.32 1221.9,535.44 1088.9,386.54 1045.4,337.9"];
	196	[height=0.5,
		pos="1570.5,727.37",
		width=0.75];
	9 -- 196	[pos="1302.5,610.03 1356.8,633.84 1493.5,693.67 1547.8,717.43"];
	228	[height=0.5,
		pos="1496.5,461.88",
		width=0.75];
	9 -- 228	[pos="1299.2,587.54 1340.4,561.3 1435.5,500.76 1476.8,474.46"];
	249	[height=0.5,
		pos="1039,672.45",
		width=0.75];
	9 -- 249	[pos="1254.8,607.52 1208.5,621.43 1109.8,651.14 1063.7,665.02"];
	272	[height=0.5,
		pos="1511.1,291.04",
		width=0.75];
	9 -- 272	[pos="1291.7,583.86 1331.7,530.59 1458.7,361.01 1498.9,307.43"];
	163	[height=0.5,
		pos="1781.2,1042.9",
		width=0.75];
	162 -- 163	[pos="1599.1,1102.7 1638.9,1089.7 1717,1064 1756.8,1050.9"];
	167	[height=0.5,
		pos="1006.6,1466.6",
		width=0.75];
	166 -- 167	[pos="1050.1,1423.1 1041.5,1431.8 1030.6,1442.7 1021.9,1451.4"];
	170 -- 171	[pos="1241.2,1012.6 1223.4,973.03 1180.3,877.24 1162.5,837.9"];
	173	[height=0.5,
		pos="651.76,1352.3",
		width=0.75];
	172 -- 173	[pos="851.15,1375.1 807.61,1370.2 722.08,1360.4 678.56,1355.4"];
	177 -- 178	[pos="895.47,998.92 859.95,976.86 786.41,931.2 751.11,909.28"];
	180	[height=0.5,
		pos="432.8,1306.7",
		width=0.75];
	179 -- 180	[pos="698.78,1213.6 644.01,1232.8 511.28,1279.2 456.77,1298.3"];
	183 -- 184	[pos="1251.5,930.7 1246.4,882.99 1232.7,755.08 1227.6,707.4"];
	185 -- 186	[pos="1046.7,1287.8 1008.8,1258.6 920.42,1190.4 882.61,1161.2"];
	5	[height=0.5,
		pos="1031,1048.9",
		width=0.75];
	5 -- 54	[pos="1011.3,1036.2 966.74,1007.6 858.85,938.09 814.55,909.56"];
	5 -- 18	[pos="1008.5,1038.4 975.06,1022.7 912.41,993.34 878.98,977.67"];
	5 -- 153	[pos="1042.1,1065.4 1062.6,1096 1106.5,1161.3 1127.2,1192.1"];
	5 -- 188	[pos="1045,1033.3 1081.6,992.6 1179.8,883.41 1216.5,842.7"];
	189	[height=0.5,
		pos="828.14,1290.2",
		width=0.75];
	5 -- 189	[pos="1017.7,1064.7 980.91,1108.5 878.31,1230.5 841.5,1274.3"];
	5 -- 192	[pos="1031.4,1030.7 1032.9,972.83 1037.4,794.09 1038.9,736.34"];
	193	[height=0.5,
		pos="1364.5,1206.8",
		width=0.75];
	5 -- 193	[pos="1053.1,1059.4 1113.6,1088 1281.3,1167.4 1342.1,1196.2"];
	197	[height=0.5,
		pos="1442.9,1166",
		width=0.75];
	5 -- 197	[pos="1055.8,1056 1129.2,1076.8 1344.6,1138.1 1418.1,1158.9"];
	201	[height=0.5,
		pos="1002.3,1345.6",
		width=0.75];
	5 -- 201	[pos="1029.2,1067 1024.1,1120 1009.2,1274.2 1004.1,1327.4"];
	204	[height=0.5,
		pos="1184.9,1351.5",
		width=0.75];
	5 -- 204	[pos="1039.7,1066.1 1066.7,1119.2 1148.9,1280.8 1176.1,1334.2"];
	208	[height=0.5,
		pos="740.56,1117.1",
		width=0.75];
	5 -- 208	[pos="1005.5,1054.9 950.5,1067.8 821.51,1098.1 766.33,1111"];
	5 -- 14	[pos="1021.6,1032 979.39,955.46 806.5,642.21 764.26,565.69"];
	210	[height=0.5,
		pos="788.2,1073.1",
		width=0.75];
	5 -- 210	[pos="1004.1,1051.6 957.39,1056.2 861.97,1065.7 815.22,1070.4"];
	212	[height=0.5,
		pos="684.15,1161.1",
		width=0.75];
	5 -- 212	[pos="1006.6,1056.8 942.9,1077.4 772.16,1132.6 708.51,1153.2"];
	215	[height=0.5,
		pos="1190.9,908.67",
		width=0.75];
	5 -- 215	[pos="1047.5,1034.4 1078.1,1007.6 1143.5,950.26 1174.2,923.29"];
	217	[height=0.5,
		pos="1163.7,1307.4",
		width=0.75];
	5 -- 217	[pos="1039.9,1066.3 1064.1,1113.4 1130.7,1243.1 1154.8,1290.2"];
	5 -- 32	[pos="1042.9,1065.5 1070.8,1104.3 1140.1,1200.7 1167.9,1239.3"];
	5 -- 86	[pos="1038.2,1066.3 1054.5,1105.4 1094,1200 1110.3,1239.2"];
	5 -- 116	[pos="1003.8,1049.4 940.99,1050.5 786.18,1053.3 723.11,1054.5"];
	190	[height=0.5,
		pos="655.48,1306.1",
		width=0.75];
	189 -- 190	[pos="801.16,1292.7 768.73,1295.7 714.62,1300.7 682.27,1303.6"];
	194	[height=0.5,
		pos="1650.6,1137.9",
		width=0.75];
	193 -- 194	[pos="1390.1,1200.6 1444.4,1187.5 1570.5,1157.2 1624.9,1144.1"];
	198	[height=0.5,
		pos="1722.8,1086.9",
		width=0.75];
	197 -- 198	[pos="1468.3,1158.9 1521.6,1143.8 1644.7,1109 1697.7,1094"];
	202	[height=0.5,
		pos="849.23,1334.2",
		width=0.75];
	201 -- 202	[pos="975.32,1343.6 947.42,1341.5 904.13,1338.3 876.24,1336.2"];
	205	[height=0.5,
		pos="1293,1381",
		width=0.75];
	204 -- 205	[pos="1210,1358.4 1227.3,1363.1 1250.3,1369.3 1267.7,1374.1"];
	208 -- 209	[pos="719.85,1105.4 688.48,1087.8 629.26,1054.5 597.84,1036.8"];
	14 -- 75	[pos="729.69,541.7 698.29,532.91 644.98,518 613.72,509.25"];
	14 -- 104	[pos="758.84,566.65 766.01,599.34 781.14,668.34 788.31,701.04"];
	14 -- 176	[pos="762.83,566.12 785.53,615.94 850.72,759.03 873.41,808.84"];
	365	[height=0.5,
		pos="667.08,374.29",
		width=0.75];
	14 -- 365	[pos="746.18,531.4 729.34,497.96 692.6,424.98 675.79,391.59"];
	367	[height=0.5,
		pos="566.99,334.41",
		width=0.75];
	14 -- 367	[pos="741.1,533 706.35,493.36 615.6,389.86 580.83,350.2"];
	370	[height=0.5,
		pos="698,218.18",
		width=0.75];
	14 -- 370	[pos="751.78,530.52 741.83,472.72 711.07,294.09 701.13,236.37"];
	374	[height=0.5,
		pos="419.78,637.94",
		width=0.75];
	14 -- 374	[pos="729.73,555.47 667.62,571.99 507.68,614.55 445.26,631.16"];
	378	[height=0.5,
		pos="952.45,591.64",
		width=0.75];
	14 -- 378	[pos="780.74,554.37 818.6,562.59 888.76,577.81 926.62,586.03"];
	14 -- 44	[pos="776.09,560.12 798.65,572.22 834.17,591.26 856.78,603.39"];
	14 -- 139	[pos="733.45,537.33 687.54,512.89 580.27,455.79 534.4,431.37"];
	262	[height=0.5,
		pos="458.57,593.91",
		width=0.75];
	14 -- 262	[pos="728.36,552.81 672.1,561.38 541.48,581.28 485.18,589.86"];
	283	[height=0.5,
		pos="779.08,273.94",
		width=0.75];
	14 -- 283	[pos="756.51,530.73 760.88,480.94 773.11,341.92 777.49,292.04"];
	301	[height=0.5,
		pos="843.8,240.85",
		width=0.75];
	14 -- 301	[pos="760.08,530.88 775.79,476.46 822.89,313.27 838.62,258.78"];
	319	[height=0.5,
		pos="1078.7,366.38",
		width=0.75];
	14 -- 319	[pos="775.67,537.08 834.02,504.21 999.09,411.24 1057.7,378.21"];
	334	[height=0.5,
		pos="602.89,701.24",
		width=0.75];
	14 -- 334	[pos="739.79,563.94 710.65,593.17 647.05,656.95 617.96,686.12"];
	355	[height=0.5,
		pos="430.96,428.79",
		width=0.75];
	14 -- 355	[pos="731.1,539.94 671.19,517.76 514.76,459.83 454.81,437.63"];
	210 -- 211	[pos="778.06,1056.2 755.6,1018.8 701.87,929.24 679.43,891.86"];
	213	[height=0.5,
		pos="503.97,1075.8",
		width=0.75];
	212 -- 213	[pos="662.06,1150.6 627.48,1134.3 560.94,1102.8 526.24,1086.4"];
	215 -- 216	[pos="1193.4,890.49 1200,842.04 1218.2,710.25 1224.8,662.05"];
	218	[height=0.5,
		pos="1277.9,1217.8",
		width=0.75];
	217 -- 218	[pos="1181.5,1293.4 1203,1276.6 1238.8,1248.5 1260.2,1231.7"];
	220	[height=0.5,
		pos="1151,1030",
		width=0.75];
	219 -- 220	[pos="1286.1,843.23 1258.6,881.25 1190.4,975.57 1162.8,1013.7"];
	223	[height=0.5,
		pos="1343.9,212.71",
		width=0.75];
	222 -- 223	[pos="1495.1,321.78 1462.5,298.24 1395,249.56 1362.4,226.03"];
	226	[height=0.5,
		pos="1718.2,387.67",
		width=0.75];
	225 -- 226	[pos="1577.5,483.42 1608.2,462.51 1668.6,421.44 1699.2,400.54"];
	230	[height=0.5,
		pos="1731.5,475.74",
		width=0.75];
	229 -- 230	[pos="1616,531.46 1641.7,519.07 1683.8,498.76 1709.4,486.38"];
	233	[height=0.5,
		pos="1088.4,903.51",
		width=0.75];
	232 -- 233	[pos="1297.7,759.13 1254.6,788.86 1150.2,860.91 1107.3,890.5"];
	234 -- 235	[pos="1085.5,572.32 1014.1,582.11 818.81,608.9 747.37,618.7"];
	236 -- 237	[pos="1203.6,416.84 1155.1,424.49 1052.6,440.65 1004,448.3"];
	239	[height=0.5,
		pos="1192.8,147.04",
		width=0.75];
	238 -- 239	[pos="1316.7,288.07 1290.4,258.2 1233.4,193.21 1206.9,163.03"];
	243	[height=0.5,
		pos="1596.1,970.28",
		width=0.75];
	242 -- 243	[pos="1573.3,791.49 1578.1,829.01 1589,914.66 1593.8,952.15"];
	248 -- 249	[pos="770.78,840.57 823.39,807.59 966.27,718.03 1019,684.95"];
	251	[height=0.5,
		pos="1359.9,864.74",
		width=0.75];
	250 -- 251	[pos="1052,933.81 1114.1,919.89 1272,884.45 1334.2,870.51"];
	11 -- 39	[pos="805.25,986.23 856.83,988.49 968.72,993.39 1020.3,995.65"];
	11 -- 13	[pos="766.89,968.37 741.79,931.44 681.74,843.07 656.67,806.17"];
	11 -- 19	[pos="805.07,982.26 870.15,975.53 1035.7,958.41 1100.9,951.67"];
	11 -- 277	[pos="782.12,967.03 794.01,912.21 829.65,747.85 841.55,692.97"];
	313	[height=0.5,
		pos="1238.1,782.93",
		width=0.75];
	11 -- 313	[pos="801.02,975.02 879.41,940.57 1137.3,827.25 1215.4,792.89"];
	11 -- 332	[pos="782.47,967.25 789.58,937.5 803.81,877.96 810.97,848.03"];
	333	[height=0.5,
		pos="607.26,889.13",
		width=0.75];
	11 -- 333	[pos="757.25,973.28 724.35,954.82 660.97,919.26 628.13,900.84"];
	335	[height=0.5,
		pos="513.31,1031.8",
		width=0.75];
	11 -- 335	[pos="751.85,989.7 701.07,998.66 590.27,1018.2 539.58,1027.2"];
	11 -- 338	[pos="771.16,967.52 757.59,933.77 727.95,860.12 714.4,826.43"];
	11 -- 339	[pos="784.31,967.37 798.82,925.27 835.3,819.43 849.78,777.41"];
	340	[height=0.5,
		pos="598.92,1207.8",
		width=0.75];
	11 -- 340	[pos="765.32,1001.1 732.24,1042.2 644.65,1151 611.69,1191.9"];
	70	[height=0.5,
		pos="466.99,1163.9",
		width=0.75];
	11 -- 70	[pos="757.31,997.06 700.62,1029.6 544.39,1119.4 487.8,1152"];
	100	[height=0.5,
		pos="652.86,1253.4",
		width=0.75];
	11 -- 100	[pos="770.18,1002.2 747.6,1050.6 683.69,1187.4 660.99,1236"];
	134	[height=0.5,
		pos="444.17,1028.5",
		width=0.75];
	11 -- 134	[pos="751.44,988.53 688.9,996.67 533.74,1016.9 471.07,1025"];
	169	[height=0.5,
		pos="758.68,1293.1",
		width=0.75];
	11 -- 169	[pos="777.05,1003.4 773.58,1058.2 763.31,1220.2 759.84,1274.9"];
	203	[height=0.5,
		pos="764.93,1249.1",
		width=0.75];
	11 -- 203	[pos="777.3,1003.2 774.87,1051.4 768.28,1182.5 765.85,1230.8"];
	11 -- 233	[pos="803.34,978.44 861.47,963.16 1004.7,925.52 1063.1,910.18"];
	254	[height=0.5,
		pos="184.21,881.03",
		width=0.75];
	253 -- 254	[pos="278.99,969.57 257.96,949.92 221.05,915.44 200.03,895.81"];
	258	[height=0.5,
		pos="146.48,1112.9",
		width=0.75];
	257 -- 258	[pos="284.21,1115.9 253.56,1115.2 204.05,1114.1 173.49,1113.5"];
	261	[height=0.5,
		pos="256.88,754.71",
		width=0.75];
	260 -- 261	[pos="338.78,923.22 321.63,887.94 282.55,807.54 265.32,772.07"];
	265 -- 266	[pos="680.57,729.49 703.17,700.28 750.81,638.71 773.54,609.32"];
	267 -- 268	[pos="522.6,1196.2 540.93,1185.6 567.72,1170.1 586.15,1159.5"];
	19 -- 187	[pos="1135.4,966.36 1149.3,998.8 1179.1,1068 1193.2,1100.5"];
	19 -- 246	[pos="1146.5,935.63 1193.3,902.31 1315.7,815.3 1362.6,781.96"];
	19 -- 384	[pos="1110.1,935.02 1075.4,907.85 998.68,847.84 964.1,820.79"];
	19 -- 52	[pos="1150.5,958.86 1199.1,980.2 1312.7,1030.1 1361.2,1051.4"];
	19 -- 83	[pos="1121,931.21 1113.8,912.59 1102.5,883.45 1095.3,864.91"];
	112	[height=0.5,
		pos="1395.7,1105.4",
		width=0.75];
	19 -- 112	[pos="1148.4,960.9 1198.3,990.02 1325.1,1064.1 1375,1093.3"];
	152	[height=0.5,
		pos="787.35,1182",
		width=0.75];
	19 -- 152	[pos="1108.5,962.08 1048.6,1003.1 866.06,1128.1 806.42,1169"];
	19 -- 218	[pos="1137.4,966.11 1164.5,1014.7 1241.4,1152.3 1268.4,1200.7"];
	293	[height=0.5,
		pos="1287.7,689.52",
		width=0.75];
	19 -- 293	[pos="1138.3,931.86 1167.4,884.75 1248.5,753.04 1277.4,706.26"];
	312	[height=0.5,
		pos="1421.9,881.45",
		width=0.75];
	19 -- 312	[pos="1153.4,943.01 1209,930.26 1340.4,900.14 1396.2,887.35"];
	331	[height=0.5,
		pos="1494.3,950.19",
		width=0.75];
	19 -- 331	[pos="1155.1,948.98 1222.9,949.22 1398.8,949.85 1466.8,950.09"];
	351	[height=0.5,
		pos="1432,973.13",
		width=0.75];
	19 -- 351	[pos="1154.8,951.03 1212.5,955.63 1347.4,966.39 1405.1,970.98"];
	364	[height=0.5,
		pos="934.98,1057",
		width=0.75];
	19 -- 364	[pos="1106.8,960.65 1069.6,981.5 992.63,1024.7 955.67,1045.4"];
	379	[height=0.5,
		pos="1113.7,776.56",
		width=0.75];
	19 -- 379	[pos="1126.3,930.76 1123.6,897.67 1117.9,827.79 1115.2,794.69"];
	387	[height=0.5,
		pos="1010.5,824.7",
		width=0.75];
	19 -- 387	[pos="1113.2,933.4 1090.6,909.48 1047.4,863.79 1024.9,839.98"];
	391	[height=0.5,
		pos="1241.7,1271.6",
		width=0.75];
	19 -- 391	[pos="1134.1,966.69 1154,1023.1 1215.5,1197.5 1235.4,1253.8"];
	270	[height=0.5,
		pos="1309,85.919",
		width=0.75];
	269 -- 270	[pos="1171.3,178.33 1201.4,158.11 1259.4,119.22 1289.6,98.939"];
	274	[height=0.5,
		pos="1484.8,177.63",
		width=0.75];
	273 -- 274	[pos="1284.9,236.19 1328.1,223.53 1416.5,197.64 1459.7,184.96"];
	280	[height=0.5,
		pos="504.91,331.93",
		width=0.75];
	279 -- 280	[pos="692.44,270.44 651.69,283.8 570.03,310.58 529.25,323.95"];
	282 -- 283	[pos="881.32,246.78 858.99,252.71 826.52,261.34 804.2,267.27"];
	285	[height=0.5,
		pos="635.86,176.5",
		width=0.75];
	284 -- 285	[pos="807.67,194.09 769.76,190.21 700.87,183.15 662.85,179.26"];
	288	[height=0.5,
		pos="1084.5,59.149",
		width=0.75];
	287 -- 288	[pos="1037.7,177.3 1048,151.41 1067.1,103.07 1077.5,76.963"];
	292 -- 293	[pos="1201.7,517.77 1219.7,553.63 1261.1,636.38 1279.1,672.33"];
	10 -- 38	[pos="1500.5,651.34 1502.3,669.65 1505,697.82 1506.8,716.2"];
	10 -- 66	[pos="1472.8,627.99 1419.3,617.15 1297,592.42 1243.5,581.59"];
	10 -- 313	[pos="1477.9,645.23 1429,673.33 1307.4,743.13 1258.7,771.08"];
	314	[height=0.5,
		pos="1525.5,540.85",
		width=0.75];
	10 -- 314	[pos="1503.9,615.42 1508.7,599.06 1515.6,574.95 1520.4,558.61"];
	10 -- 316	[pos="1471.9,635.13 1409.2,639.56 1253.5,650.56 1190.6,655"];
	317	[height=0.5,
		pos="1558,390.44",
		width=0.75];
	10 -- 317	[pos="1503.1,615.38 1514.1,570.48 1542.7,453.24 1553.6,408.32"];
	320	[height=0.5,
		pos="1589.2,452.06",
		width=0.75];
	10 -- 320	[pos="1507.5,615.86 1524.7,581.23 1563.3,503.96 1580.6,469.38"];
	323	[height=0.5,
		pos="1392.2,463.93",
		width=0.75];
	10 -- 323	[pos="1488.2,616.38 1467.8,583.93 1423.2,513.11 1402.8,480.72"];
	10 -- 325	[pos="1486.9,616.86 1469.5,592.85 1437.2,548.35 1419.8,524.33"];
	326	[height=0.5,
		pos="1694.6,725.5",
		width=0.75];
	10 -- 326	[pos="1520.9,643.64 1558.5,661.36 1634.5,697.2 1672.3,714.99"];
	329	[height=0.5,
		pos="1749.2,648.52",
		width=0.75];
	10 -- 329	[pos="1526.1,634.9 1574.2,637.84 1673.8,643.92 1722,646.86"];
	96	[height=0.5,
		pos="1811.3,623.3",
		width=0.75];
	10 -- 96	[pos="1526,632.37 1585.1,630.49 1724.7,626.05 1783.9,624.17"];
	131	[height=0.5,
		pos="1495.9,382.91",
		width=0.75];
	10 -- 131	[pos="1498.6,615.23 1498,569.16 1496.7,447.35 1496.1,401.09"];
	165	[height=0.5,
		pos="1811.2,681.28",
		width=0.75];
	10 -- 165	[pos="1525.2,637.29 1584,646.34 1725.5,668.1 1784.6,677.19"];
	200	[height=0.5,
		pos="1759.6,725.36",
		width=0.75];
	10 -- 200	[pos="1522.9,641.74 1572.5,659.29 1686,699.35 1735.6,716.88"];
	231	[height=0.5,
		pos="1689.4,522.46",
		width=0.75];
	10 -- 231	[pos="1519.2,621.38 1555.8,600.11 1632.2,555.72 1668.9,534.39"];
	252	[height=0.5,
		pos="1615.3,679.4",
		width=0.75];
	10 -- 252	[pos="1522.1,642.46 1542.4,650.52 1571.7,662.13 1592,670.18"];
	276	[height=0.5,
		pos="1654.7,429.41",
		width=0.75];
	10 -- 276	[pos="1511.3,616.9 1540.5,578.64 1613.2,483.59 1642.3,445.54"];
	294 -- 295	[pos="1411.6,430.46 1380,445.45 1322.5,472.72 1290.9,487.68"];
	296 -- 297	[pos="956.93,544.69 887.61,553.7 701.75,577.87 632.46,586.88"];
	299	[height=0.5,
		pos="1093.9,147.2",
		width=0.75];
	298 -- 299	[pos="1218.7,307.03 1192.5,273.49 1132.7,196.92 1106.6,163.41"];
	302 -- 303	[pos="1137.3,415.72 1088.9,423.75 986.85,440.7 938.49,448.73"];
	305	[height=0.5,
		pos="1031.3,256.02",
		width=0.75];
	304 -- 305	[pos="1191.3,354.95 1156.7,333.56 1086,289.83 1051.3,268.4"];
	308	[height=0.5,
		pos="1338.4,163.92",
		width=0.75];
	307 -- 308	[pos="1415,278.28 1398.2,253.09 1366.3,205.48 1349.4,180.37"];
	311 -- 312	[pos="1500.4,695.29 1484.2,733.64 1445.6,825.28 1429.3,863.86"];
	314 -- 315	[pos="1499,536.6 1464.9,531.13 1406.2,521.7 1372.2,516.25"];
	318	[height=0.5,
		pos="1407.6,250.85",
		width=0.75];
	317 -- 318	[pos="1542.2,375.76 1513.3,349.02 1452.6,292.65 1423.6,265.75"];
	321	[height=0.5,
		pos="1451.4,338.87",
		width=0.75];
	320 -- 321	[pos="1572,437.95 1545.6,416.26 1495.3,374.95 1468.8,353.16"];
	323 -- 324	[pos="1365.2,465.31 1303.8,468.45 1154.2,476.09 1092.7,479.23"];
	327	[height=0.5,
		pos="1556.3,926.09",
		width=0.75];
	326 -- 327	[pos="1683.3,741.92 1657.3,779.62 1593.5,872.08 1567.5,909.73"];
	330	[height=0.5,
		pos="1699.1,769.55",
		width=0.75];
	329 -- 330	[pos="1741.9,666.12 1732.4,689.06 1715.9,728.97 1706.4,751.93"];
	333 -- 334	[pos="606.84,871.11 606.01,835.29 604.15,755.48 603.31,719.48"];
	336	[height=0.5,
		pos="407.15,984.45",
		width=0.75];
	335 -- 336	[pos="490.8,1021.8 472.78,1013.7 447.64,1002.5 429.63,994.48"];
	341	[height=0.5,
		pos="493.6,1350.7",
		width=0.75];
	340 -- 341	[pos="586.84,1224.2 566.52,1251.8 525.76,1307.1 505.54,1334.5"];
	345	[height=0.5,
		pos="710.13,174.02",
		width=0.75];
	344 -- 345	[pos="866.82,314.29 833.86,284.78 759.52,218.24 726.49,188.67"];
	350	[height=0.5,
		pos="1520.7,839.63",
		width=0.75];
	349 -- 350	[pos="1366.1,703.22 1398.8,732.06 1471.7,796.4 1504.4,825.2"];
	353	[height=0.5,
		pos="207.7,537.68",
		width=0.75];
	352 -- 353	[pos="283.2,644.06 266.55,620.6 235.98,577.54 219.3,554.04"];
	357	[height=0.5,
		pos="282.52,567.41",
		width=0.75];
	356 -- 357	[pos="345.84,663.87 331.79,642.47 307.59,605.6 293.52,584.18"];
	360	[height=0.5,
		pos="310.86,348.15",
		width=0.75];
	359 -- 360	[pos="343.57,548.44 336.84,507.2 320.51,407.25 313.81,366.2"];
	363 -- 364	[pos="697.2,1014.7 747.82,1023.7 858.27,1043.3 908.8,1052.3"];
	365 -- 366	[pos="653.06,389.69 639.35,404.74 618.59,427.53 604.82,442.64"];
	368	[height=0.5,
		pos="422.99,284.28",
		width=0.75];
	367 -- 368	[pos="542.89,326.02 516.31,316.77 473.78,301.97 447.17,292.7"];
	371	[height=0.5,
		pos="665.74,88.145",
		width=0.75];
	370 -- 371	[pos="693.58,200.37 687.44,175.61 676.38,131.03 670.21,106.16"];
	375	[height=0.5,
		pos="190.09,791.28",
		width=0.75];
	374 -- 375	[pos="400.59,650.75 357.36,679.62 252.72,749.47 209.38,778.4"];
	378 -- 379	[pos="966.2,607.4 996.66,642.34 1069.6,725.93 1100,760.83"];
	380 -- 381	[pos="789.06,467.24 822.9,444.88 892.19,399.12 925.91,376.85"];
	382 -- 383	[pos="606.18,763.36 610.38,799.25 619.74,879.34 623.93,915.19"];
	386 -- 387	[pos="801.28,670.3 843.86,701.73 949.51,779.69 992.18,811.18"];
	390	[height=0.5,
		pos="1141.2,1411.4",
		width=0.75];
	389 -- 390	[pos="1047.7,1259.5 1067.6,1291.9 1111,1362.4 1130.9,1394.7"];
	21 -- 22	[pos="1347.5,619.5 1293.8,619.11 1174.5,618.25 1120.8,617.86"];
	25	[height=0.5,
		pos="1401.2,1294.5",
		width=0.75];
	24 -- 25	[pos="1464.9,1278.2 1452.9,1281.3 1438.6,1285 1426.5,1288"];
	25 -- 26	[pos="1384.8,1280.2 1358.1,1256.9 1305.6,1211.3 1278.9,1188.1"];
	28 -- 29	[pos="512.73,903.31 488.02,874.48 435.9,813.71 411.03,784.7"];
	34 -- 35	[pos="763.72,1328.2 720.89,1311.9 630.46,1277.3 587.61,1261"];
	49 -- 50	[pos="1107.1,1347.3 1079,1317.4 1017.8,1252.4 989.79,1222.6"];
	58	[height=0.5,
		pos="89.051,959.87",
		width=0.75];
	57 -- 58	[pos="115.14,885.32 109.42,901.68 100.98,925.78 95.264,942.12"];
	58 -- 59	[pos="109.43,971.7 146.65,993.32 225.24,1039 262.48,1060.6"];
	62	[height=0.5,
		pos="854.03,18",
		width=0.75];
	61 -- 62	[pos="810.89,91.664 820.39,75.443 834.6,51.185 844.08,34.989"];
	62 -- 63	[pos="863.24,35.188 880.69,67.763 918.37,138.13 935.74,170.54"];
	69	[height=0.5,
		pos="247.99,1223.7",
		width=0.75];
	68 -- 69	[pos="225.06,1126.7 230.16,1148.3 238.68,1184.3 243.77,1205.9"];
	69 -- 70	[pos="273.11,1216.9 315.24,1205.4 399.66,1182.3 441.82,1170.8"];
	73	[height=0.5,
		pos="121.38,705.41",
		width=0.75];
	72 -- 73	[pos="204.1,626 185.6,643.76 155.2,672.95 136.85,690.56"];
	73 -- 74	[pos="139.84,718.58 164.62,736.27 208.41,767.51 233.35,785.32"];
	77 -- 78	[pos="390.01,403.55 415.01,416.99 456.36,439.23 481.32,452.65"];
	80 -- 81	[pos="793.78,215.91 828.82,233.77 897.64,268.84 932.65,286.69"];
	91	[height=0.5,
		pos="1758.4,575.89",
		width=0.75];
	90 -- 91	[pos="1698.3,664.69 1711.6,645.04 1733.8,612.33 1747.1,592.57"];
	91 -- 92	[pos="1731.3,577.42 1691.6,579.66 1617.9,583.81 1578.2,586.05"];
	95	[height=0.5,
		pos="1850.5,725.64",
		width=0.75];
	94 -- 95	[pos="1726.6,801.34 1753.9,784.64 1802.7,754.84 1830.2,738.05"];
	95 -- 96	[pos="1843.7,707.82 1836.5,689.03 1825.2,659.63 1818,640.92"];
	99	[height=0.5,
		pos="756.85,1381.2",
		width=0.75];
	98 -- 99	[pos="913.24,1382.8 878.55,1382.4 818.77,1381.8 784.03,1381.4"];
	99 -- 100	[pos="743.89,1365.2 723.96,1340.8 686.01,1294.1 665.99,1269.5"];
	102 -- 103	[pos="1486.5,765.92 1449.7,740.25 1368.5,683.64 1331.6,657.92"];
	108	[height=0.5,
		pos="1003.2,1412.7",
		width=0.75];
	107 -- 108	[pos="1051.8,1440.5 1043,1435.4 1032.8,1429.6 1024,1424.6"];
	108 -- 109	[pos="993.97,1395.5 976.22,1362.4 937.49,1290.1 919.77,1257.1"];
	111 -- 112	[pos="1504.3,1155.7 1480.2,1144.6 1442,1126.9 1418,1115.7"];
	119	[height=0.5,
		pos="867.37,151.31",
		width=0.75];
	118 -- 119	[pos="641.33,134.42 690.05,138.06 791.9,145.67 840.48,149.3"];
	119 -- 120	[pos="887.59,163.71 935.74,193.25 1056.8,267.52 1104.9,297"];
	123	[height=0.5,
		pos="27,959.24",
		width=0.75];
	122 -- 123	[pos="59.185,812.75 52.237,844.37 37.874,909.75 30.929,941.36"];
	123 -- 124	[pos="49.612,969.3 86.957,985.92 161.09,1018.9 198.34,1035.5"];
	127	[height=0.5,
		pos="782.54,152.8",
		width=0.75];
	126 -- 127	[pos="570.58,194.7 616.21,185.68 710.43,167.05 756.3,157.98"];
	127 -- 128	[pos="801.67,165.82 848.01,197.38 965.92,277.67 1012.3,309.28"];
	130 -- 131	[pos="1170.6,355.81 1236.2,361.27 1403.1,375.18 1468.8,380.65"];
	133 -- 134	[pos="255.81,950.92 296.47,967.68 380.53,1002.3 421.17,1019.1"];
	136 -- 137	[pos="203.17,729.3 232.17,747.55 285.92,781.39 314.92,799.65"];
	141 -- 142	[pos="326.27,433.5 351.45,442.19 390.77,455.76 416.02,464.47"];
	147	[height=0.5,
		pos="185.75,1163.7",
		width=0.75];
	146 -- 147	[pos="122.93,1028.1 136.53,1057.5 164.03,1116.8 177.68,1146.3"];
	147 -- 148	[pos="212.26,1159.2 262.5,1150.8 371.03,1132.6 421.02,1124.3"];
	151	[height=0.5,
		pos="435.46,1250.4",
		width=0.75];
	150 -- 151	[pos="271.18,1175.7 307.18,1192.1 377.27,1223.9 413.14,1240.2"];
	151 -- 152	[pos="461.62,1245.3 526.77,1232.6 695.69,1199.8 761.02,1187.2"];
	156	[height=0.5,
		pos="1680.8,895.67",
		width=0.75];
	155 -- 156	[pos="1710.1,1113.6 1704.2,1069.7 1689.2,957.88 1683.3,913.87"];
	156 -- 157	[pos="1675.8,877.8 1666.5,845.14 1646.9,776.2 1637.6,743.53"];
	160 -- 161	[pos="1425.3,615.5 1401.3,581.22 1346,502.14 1321.9,467.78"];
	164	[height=0.5,
		pos="1775.7,857.53",
		width=0.75];
	163 -- 164	[pos="1780.7,1024.8 1779.7,989.32 1777.3,911.2 1776.3,875.71"];
	164 -- 165	[pos="1779.3,839.66 1786.1,805.88 1800.8,733.02 1807.6,699.2"];
	168	[height=0.5,
		pos="863.4,1437.1",
		width=0.75];
	167 -- 168	[pos="980.71,1461.3 954.91,1456 915.53,1447.9 889.63,1442.5"];
	168 -- 169	[pos="851.59,1420.9 831.48,1393.2 790.8,1337.3 770.61,1309.5"];
	174	[height=0.5,
		pos="402.21,1351.3",
		width=0.75];
	173 -- 174	[pos="624.58,1352.2 576.57,1352 477.34,1351.6 429.36,1351.4"];
	174 -- 175	[pos="400.32,1333.1 396.14,1292.7 386.13,1196.1 381.95,1155.8"];
	181	[height=0.5,
		pos="313.3,1165.2",
		width=0.75];
	180 -- 181	[pos="419.32,1290.7 396.37,1263.5 349.95,1208.6 326.91,1181.3"];
	181 -- 182	[pos="318.21,1147.5 333.46,1092.5 379.83,925.41 395.15,870.21"];
	190 -- 191	[pos="629.89,1299.7 600.59,1292.4 552.89,1280.5 523.71,1273.2"];
	195	[height=0.5,
		pos="1618.8,904.54",
		width=0.75];
	194 -- 195	[pos="1648.1,1119.6 1642.1,1075.9 1627.2,966.3 1621.3,922.76"];
	195 -- 196	[pos="1613.9,886.57 1604.6,852.53 1584.6,779 1575.4,745.12"];
	199	[height=0.5,
		pos="1742.9,914.21",
		width=0.75];
	198 -- 199	[pos="1724.9,1068.7 1728.8,1035.6 1736.9,965.55 1740.8,932.38"];
	199 -- 200	[pos="1744.5,896.1 1747.7,860.01 1754.8,779.46 1758,743.41"];
	202 -- 203	[pos="834.16,1319 818.81,1303.5 795.16,1279.6 779.87,1264.2"];
	206	[height=0.5,
		pos="1323.2,1261.9",
		width=0.75];
	205 -- 206	[pos="1297.5,1363.1 1303.2,1340.7 1312.9,1302.3 1318.6,1279.8"];
	206 -- 207	[pos="1314.8,1244.6 1290.9,1195.1 1222.2,1052.8 1198.2,1003.3"];
	213 -- 214	[pos="505.56,1057.6 509.35,1014.2 518.89,905.19 522.68,861.9"];
	220 -- 221	[pos="1125.4,1036 1071.8,1048.6 947.98,1077.6 894.21,1090.2"];
	223 -- 224	[pos="1317.2,216.29 1285.6,220.5 1233.3,227.48 1201.8,231.69"];
	227	[height=0.5,
		pos="1649.6,369.22",
		width=0.75];
	226 -- 227	[pos="1693,380.9 1687,379.3 1680.7,377.59 1674.7,375.98"];
	227 -- 228	[pos="1629.6,381.33 1600.2,399.09 1545.9,432 1516.5,449.76"];
	230 -- 231	[pos="1717.5,491.3 1713,496.29 1708,501.82 1703.5,506.81"];
	240	[height=0.5,
		pos="1007,150.69",
		width=0.75];
	239 -- 240	[pos="1165.8,147.57 1130.6,148.27 1069.3,149.47 1034.1,150.16"];
	240 -- 241	[pos="992.86,166.08 969.17,191.83 921.76,243.34 897.93,269.24"];
	244	[height=0.5,
		pos="1588.5,1154.9",
		width=0.75];
	243 -- 244	[pos="1595.4,988.32 1593.9,1023.6 1590.7,1101.4 1589.3,1136.8"];
	244 -- 245	[pos="1561.5,1155.4 1490.3,1156.8 1298.1,1160.4 1226.8,1161.8"];
	251 -- 252	[pos="1378.2,851.41 1425.2,817.3 1549.5,727.11 1596.7,692.85"];
	255	[height=0.5,
		pos="294.75,710.39",
		width=0.75];
	254 -- 255	[pos="195.01,864.36 216.15,831.74 262.74,759.81 283.91,727.13"];
	255 -- 256	[pos="320.15,704.05 374.85,690.41 503.26,658.39 558.18,644.69"];
	258 -- 259	[pos="168.94,1102.7 204.74,1086.5 274.32,1054.9 310.16,1038.6"];
	261 -- 262	[pos="274.42,740.72 312.67,710.23 403.14,638.1 441.21,607.75"];
	271	[height=0.5,
		pos="1406.3,170.4",
		width=0.75];
	270 -- 271	[pos="1325.5,100.25 1343.4,115.78 1371.8,140.44 1389.7,156"];
	271 -- 272	[pos="1420,186.17 1440.1,209.29 1477.3,252.14 1497.4,275.27"];
	275	[height=0.5,
		pos="1652.4,279.36",
		width=0.75];
	274 -- 275	[pos="1505,189.9 1537.3,209.51 1600.2,247.67 1632.4,267.2"];
	275 -- 276	[pos="1652.7,297.46 1653.1,326.3 1654,382.36 1654.4,411.24"];
	280 -- 281	[pos="501.23,349.77 492.78,390.64 472.1,490.7 463.6,531.81"];
	285 -- 286	[pos="640.33,194.43 647.71,224.05 662.37,282.86 669.73,312.41"];
	289	[height=0.5,
		pos="1121.6,103.17",
		width=0.75];
	288 -- 289	[pos="1097.9,75.041 1101.3,79.08 1105,83.418 1108.4,87.448"];
	289 -- 290	[pos="1120.4,121.28 1118.7,146.47 1115.6,191.81 1113.9,217.1"];
	300	[height=0.5,
		pos="895.3,100.48",
		width=0.75];
	299 -- 300	[pos="1068.4,141.19 1030.3,132.24 959.23,115.52 921.08,106.55"];
	300 -- 301	[pos="888.88,117.98 879.01,144.87 860.22,196.1 850.3,223.13"];
	305 -- 306	[pos="1012.2,269.2 979.71,291.71 913.83,337.31 881.35,359.79"];
	309	[height=0.5,
		pos="1256.5,130.25",
		width=0.75];
	308 -- 309	[pos="1315.2,154.36 1304,149.77 1290.7,144.29 1279.6,139.71"];
	309 -- 310	[pos="1248.9,147.63 1236.3,176.35 1211.2,233.35 1198.6,262"];
	318 -- 319	[pos="1383.7,259.25 1323.1,280.54 1164,336.43 1103,357.86"];
	321 -- 322	[pos="1426.2,345.8 1361.9,363.52 1191.7,410.38 1127.1,428.18"];
	327 -- 328	[pos="1530.9,933.14 1484.4,946.05 1386.2,973.33 1340,986.17"];
	330 -- 331	[pos="1682.7,784.02 1644.3,817.85 1549.2,901.75 1510.7,935.64"];
	336 -- 337	[pos="410.98,966.59 420.62,921.67 445.79,804.38 455.44,759.42"];
	341 -- 342	[pos="510.57,1336.4 542.64,1309.2 611.82,1250.5 643.93,1223.3"];
	346	[height=0.5,
		pos="552.07,143.85",
		width=0.75];
	345 -- 346	[pos="684.03,169.04 654.75,163.45 607.51,154.43 578.21,148.84"];
	346 -- 347	[pos="556.85,161.82 564.34,189.94 578.74,244.05 586.25,272.26"];
	350 -- 351	[pos="1509.7,856.27 1492.7,881.85 1460.3,930.57 1443.2,956.28"];
	354	[height=0.5,
		pos="239.51,422.17",
		width=0.75];
	353 -- 354	[pos="212.67,519.63 218.64,497.93 228.61,461.74 234.58,440.09"];
	354 -- 355	[pos="266.54,423.11 302.92,424.36 367.29,426.59 403.76,427.85"];
	357 -- 358	[pos="305.23,557.43 325.39,548.57 354.69,535.69 374.83,526.84"];
	361	[height=0.5,
		pos="507.92,243.86",
		width=0.75];
	360 -- 361	[pos="332.32,336.79 370.23,316.73 448.59,275.26 486.48,255.21"];
	361 -- 362	[pos="532.36,251.92 576.31,266.4 668.19,296.68 712.01,311.13"];
	368 -- 369	[pos="431.44,301.52 439.47,317.91 451.49,342.42 459.51,358.78"];
	372	[height=0.5,
		pos="802.31,62.919",
		width=0.75];
	371 -- 372	[pos="692.08,83.282 716.26,78.815 751.9,72.231 776.06,67.768"];
	372 -- 373	[pos="817.08,78.128 848.58,110.57 922.07,186.25 953.76,218.87"];
	376	[height=0.5,
		pos="176.97,985.77",
		width=0.75];
	375 -- 376	[pos="188.85,809.57 186.35,846.74 180.69,930.66 178.19,967.66"];
	376 -- 377	[pos="203.99,985.53 264.3,985 409.32,983.73 469.89,983.2"];
	390 -- 391	[pos="1152.9,1395.1 1172.2,1368.3 1210.3,1315.2 1229.7,1288.2"];
}
