graph {
	graph [bb="0,0,1580.7,1089.6",
		outputorder=edgesfirst,
		overlap=prism,
		size="50,50!",
		start=2792
	];
	node [label="\N"];
	0	[height=0.5,
		pos="965.34,588.13",
		width=0.75];
	50	[height=0.5,
		pos="1066.4,732.82",
		width=0.75];
	0 -- 50	[pos="976.74,604.44 996.15,632.23 1035.4,688.44 1054.9,716.34"];
	81	[height=0.5,
		pos="991.3,732.43",
		width=0.75];
	0 -- 81	[pos="968.58,606.11 973.55,633.76 983.02,686.43 988.02,714.22"];
	85	[height=0.5,
		pos="1089.6,319.18",
		width=0.75];
	0 -- 85	[pos="973.3,570.89 995.69,522.43 1059,385.32 1081.5,336.61"];
	88	[height=0.5,
		pos="1027,338.02",
		width=0.75];
	0 -- 88	[pos="969.78,570.14 981.15,523.99 1011.3,401.81 1022.6,355.84"];
	104	[height=0.5,
		pos="1213.1,676.22",
		width=0.75];
	0 -- 104	[pos="989.55,596.73 1037,613.62 1141.9,650.9 1189.2,667.71"];
	108	[height=0.5,
		pos="964.26,367",
		width=0.75];
	0 -- 108	[pos="965.25,570.03 965.05,528.46 964.55,426.54 964.35,385.03"];
	112	[height=0.5,
		pos="1311.6,600.65",
		width=0.75];
	0 -- 112	[pos="992.52,589.11 1057.2,591.45 1220,597.34 1284.6,599.67"];
	114	[height=0.5,
		pos="1245.5,588.2",
		width=0.75];
	0 -- 114	[pos="992.46,588.13 1046,588.15 1164.8,588.18 1218.4,588.19"];
	119	[height=0.5,
		pos="1088.3,425.71",
		width=0.75];
	0 -- 119	[pos="977.58,571.96 1001.1,540.83 1052.6,472.89 1076.1,441.81"];
	128	[height=0.5,
		pos="1349.1,678.52",
		width=0.75];
	0 -- 128	[pos="990.82,594.13 1060.5,610.53 1253.5,655.99 1323.4,672.46"];
	129	[height=0.5,
		pos="842.41,735.91",
		width=0.75];
	0 -- 129	[pos="952.19,603.94 928.65,632.24 879.58,691.22 855.84,719.76"];
	135	[height=0.5,
		pos="883.08,611.3",
		width=0.75];
	0 -- 135	[pos="940.21,595.21 930.01,598.08 918.24,601.4 908.05,604.27"];
	150	[height=0.5,
		pos="1069.7,469.73",
		width=0.75];
	0 -- 150	[pos="979.42,572.16 999.46,549.44 1036,508.03 1055.9,485.44"];
	153	[height=0.5,
		pos="883.04,560.73",
		width=0.75];
	0 -- 153	[pos="941.1,580.05 930.47,576.52 918.04,572.38 907.4,568.84"];
	188	[height=0.5,
		pos="1134.5,733.42",
		width=0.75];
	0 -- 188	[pos="982.18,602.59 1014.6,630.44 1085.4,691.21 1117.7,719.01"];
	190	[height=0.5,
		pos="1150.3,415.52",
		width=0.75];
	0 -- 190	[pos="981.11,573.41 1016.1,540.8 1099.7,462.78 1134.6,430.2"];
	204	[height=0.5,
		pos="909.92,323",
		width=0.75];
	0 -- 204	[pos="961.53,569.9 951.38,521.35 923.78,389.29 913.68,341"];
	245	[height=0.5,
		pos="759.02,593.54",
		width=0.75];
	0 -- 245	[pos="937.94,588.85 898.37,589.88 825.65,591.79 786.2,592.83"];
	246	[height=0.5,
		pos="1198.3,738.54",
		width=0.75];
	0 -- 246	[pos="984.81,600.69 1028.7,629 1134.8,697.52 1178.7,725.9"];
	1	[height=0.5,
		pos="1026.3,396.72",
		width=0.75];
	51	[height=0.5,
		pos="871.93,455.45",
		width=0.75];
	1 -- 51	[pos="1002.5,405.77 973.4,416.84 924.46,435.46 895.48,446.49"];
	62	[height=0.5,
		pos="809.92,443.91",
		width=0.75];
	1 -- 62	[pos="1000.6,402.32 959.07,411.38 877.61,429.14 835.89,438.24"];
	72	[height=0.5,
		pos="879.75,190.92",
		width=0.75];
	1 -- 72	[pos="1014.5,380.23 987.02,341.6 918.7,245.63 891.34,207.2"];
	74	[height=0.5,
		pos="1163.2,177.34",
		width=0.75];
	1 -- 74	[pos="1036.8,379.87 1062.3,339.04 1127.1,235.14 1152.7,194.25"];
	76	[height=0.5,
		pos="1274.5,418.96",
		width=0.75];
	1 -- 76	[pos="1053.3,399.15 1101.1,403.42 1199.8,412.27 1247.5,416.54"];
	77	[height=0.5,
		pos="1249.9,544.19",
		width=0.75];
	1 -- 77	[pos="1045.7,409.55 1088.1,437.51 1188.4,503.66 1230.6,531.5"];
	80	[height=0.5,
		pos="933.67,257.7",
		width=0.75];
	1 -- 80	[pos="1015.3,380.23 997.45,353.47 962.45,300.91 944.64,274.17"];
	84	[height=0.5,
		pos="1238.9,309.37",
		width=0.75];
	1 -- 84	[pos="1049.4,387.21 1090.3,370.41 1174.9,335.67 1215.7,318.87"];
	87	[height=0.5,
		pos="1149.2,221.35",
		width=0.75];
	1 -- 87	[pos="1037.8,380.22 1061.3,346.71 1114.4,271.04 1137.8,237.68"];
	90	[height=0.5,
		pos="1171.3,500.18",
		width=0.75];
	1 -- 90	[pos="1044.9,410.04 1072.8,429.9 1124.9,467.08 1152.7,486.91"];
	96	[height=0.5,
		pos="924.92,665.02",
		width=0.75];
	1 -- 96	[pos="1019.6,414.33 1001.2,462.94 949.98,598.66 931.59,647.35"];
	102	[height=0.5,
		pos="942.35,204.47",
		width=0.75];
	1 -- 102	[pos="1018.7,379.32 1002.7,342.81 965.96,258.57 949.99,221.97"];
	117	[height=0.5,
		pos="1212.3,397.4",
		width=0.75];
	1 -- 117	[pos="1053.3,396.82 1088.6,396.95 1150,397.18 1185.3,397.3"];
	1 -- 119	[pos="1048.7,407.19 1054.3,409.85 1060.5,412.7 1066.1,415.36"];
	139	[height=0.5,
		pos="1004.5,218.95",
		width=0.75];
	1 -- 139	[pos="1024,378.7 1019.9,344.63 1010.9,271.13 1006.7,237.02"];
	1 -- 150	[pos="1036.3,413.66 1043.4,425.45 1052.7,441.11 1059.7,452.89"];
	151	[height=0.5,
		pos="1235.8,221.21",
		width=0.75];
	1 -- 151	[pos="1043.4,382.36 1082.8,349.37 1179.4,268.48 1218.7,235.53"];
	164	[height=0.5,
		pos="821.05,632.44",
		width=0.75];
	1 -- 164	[pos="1012.5,412.56 975.09,455.5 872.09,573.82 834.78,616.68"];
	167	[height=0.5,
		pos="786.98,257.97",
		width=0.75];
	1 -- 167	[pos="1005.9,384.89 960.77,358.75 853.03,296.27 807.67,269.97"];
	173	[height=0.5,
		pos="1078.2,588.23",
		width=0.75];
	1 -- 173	[pos="1031.1,414.74 1041.1,451.33 1063.5,533.97 1073.4,570.4"];
	177	[height=0.5,
		pos="804.69,379.16",
		width=0.75];
	1 -- 177	[pos="999.09,394.57 956.45,391.19 874.3,384.67 831.73,381.3"];
	178	[height=0.5,
		pos="602.6,474.24",
		width=0.75];
	1 -- 178	[pos="1000.1,401.51 924.22,415.39 704.86,455.53 628.87,469.43"];
	181	[height=0.5,
		pos="883.61,499.69",
		width=0.75];
	1 -- 181	[pos="1007.9,409.97 980.66,429.64 929.81,466.35 902.35,486.17"];
	191	[height=0.5,
		pos="1139.5,133.31",
		width=0.75];
	1 -- 191	[pos="1033.9,379.03 1054.5,331.04 1111.3,198.82 1131.9,150.93"];
	200	[height=0.5,
		pos="1180.1,265.36",
		width=0.75];
	1 -- 200	[pos="1043,382.41 1072.6,357.15 1133.8,304.91 1163.4,279.65"];
	223	[height=0.5,
		pos="1060.9,644.48",
		width=0.75];
	1 -- 223	[pos="1028.8,414.94 1035.2,460.76 1051.9,580.39 1058.3,626.23"];
	226	[height=0.5,
		pos="986.98,632.15",
		width=0.75];
	1 -- 226	[pos="1023.2,414.81 1015.9,458.63 997.33,570.12 990.01,614.01"];
	227	[height=0.5,
		pos="858.58,234.92",
		width=0.75];
	1 -- 227	[pos="1010.8,381.79 978.84,350.97 905.93,280.61 874.02,249.82"];
	232	[height=0.5,
		pos="1015.3,170.9",
		width=0.75];
	1 -- 232	[pos="1025.4,378.62 1023.3,336.34 1018.3,231.45 1016.2,189.08"];
	235	[height=0.5,
		pos="1121.8,544.21",
		width=0.75];
	1 -- 235	[pos="1037,413.36 1055.4,441.68 1092.5,498.98 1111,527.41"];
	242	[height=0.5,
		pos="719.24,430.72",
		width=0.75];
	1 -- 242	[pos="999.55,399.68 941.49,406.11 804.31,421.3 746.11,427.74"];
	249	[height=0.5,
		pos="1267.6,353.4",
		width=0.75];
	1 -- 249	[pos="1052.5,392 1099,383.67 1195,366.44 1241.4,358.12"];
	2	[height=0.5,
		pos="611.11,778.93",
		width=0.75];
	52	[height=0.5,
		pos="412.07,499.65",
		width=0.75];
	2 -- 52	[pos="599.25,762.29 563.85,712.62 459.18,565.75 423.86,516.2"];
	61	[height=0.5,
		pos="510.9,641.12",
		width=0.75];
	2 -- 61	[pos="599.22,762.58 579.93,736.06 542.05,683.96 522.77,657.45"];
	63	[height=0.5,
		pos="784.57,842.12",
		width=0.75];
	2 -- 63	[pos="634.86,787.58 667.99,799.65 727.7,821.4 760.82,833.47"];
	93	[height=0.5,
		pos="504.38,858.66",
		width=0.75];
	2 -- 93	[pos="593,792.45 573.38,807.12 542.23,830.38 522.57,845.07"];
	103	[height=0.5,
		pos="466.76,685.16",
		width=0.75];
	2 -- 103	[pos="591.64,766.28 564.09,748.39 514.01,715.85 486.38,697.9"];
	118	[height=0.5,
		pos="442.62,781.55",
		width=0.75];
	2 -- 118	[pos="584.04,779.35 552.59,779.84 501.03,780.64 469.62,781.13"];
	122	[height=0.5,
		pos="675.68,983.57",
		width=0.75];
	2 -- 122	[pos="616.72,796.73 628.97,835.53 657.93,927.32 670.12,965.95"];
	144	[height=0.5,
		pos="566.44,889.51",
		width=0.75];
	2 -- 144	[pos="603.93,796.7 595.59,817.33 581.92,851.17 573.59,871.79"];
	152	[height=0.5,
		pos="595.4,823.49",
		width=0.75];
	2 -- 152	[pos="604.9,796.54 603.83,799.56 602.73,802.69 601.66,805.71"];
	2 -- 164	[pos="630.11,765.67 670.08,737.78 762.45,673.33 802.25,645.56"];
	179	[height=0.5,
		pos="737.73,945.72",
		width=0.75];
	2 -- 179	[pos="623.48,795.22 647.75,827.19 701.33,897.78 725.49,929.6"];
	193	[height=0.5,
		pos="728.73,726.41",
		width=0.75];
	2 -- 193	[pos="633.79,768.8 654.62,759.5 685.32,745.8 706.12,736.51"];
	208	[height=0.5,
		pos="842.72,797.86",
		width=0.75];
	2 -- 208	[pos="638.13,781.14 682.76,784.78 771.35,792.03 815.87,795.67"];
	3	[height=0.5,
		pos="696.99,563.5",
		width=0.75];
	53	[height=0.5,
		pos="671.64,517.84",
		width=0.75];
	3 -- 53	[pos="687.55,546.5 685.46,542.74 683.26,538.77 681.17,535.01"];
	54	[height=0.5,
		pos="928.26,722.15",
		width=0.75];
	3 -- 54	[pos="715.91,576.48 759.39,606.31 865.98,679.43 909.4,709.21"];
	3 -- 62	[pos="711.75,547.87 733.51,524.82 773.95,482 795.51,459.17"];
	73	[height=0.5,
		pos="718.31,799.23",
		width=0.75];
	3 -- 73	[pos="698.62,581.61 702.59,625.48 712.69,737.12 716.67,781.06"];
	78	[height=0.5,
		pos="866.72,397.52",
		width=0.75];
	3 -- 78	[pos="712.35,548.48 744.5,517.04 818.58,444.59 851.02,412.87"];
	98	[height=0.5,
		pos="663.77,636.01",
		width=0.75];
	3 -- 98	[pos="688.95,581.05 683.72,592.45 676.95,607.25 671.74,618.62"];
	99	[height=0.5,
		pos="476.81,496.76",
		width=0.75];
	3 -- 99	[pos="672.16,555.98 629.76,543.12 543.89,517.09 501.55,504.26"];
	101	[height=0.5,
		pos="583.06,669.84",
		width=0.75];
	3 -- 101	[pos="681.15,578.29 659.38,598.6 620.46,634.93 598.77,655.18"];
	105	[height=0.5,
		pos="945.64,521",
		width=0.75];
	3 -- 105	[pos="723.6,558.95 771.46,550.77 871.5,533.67 919.22,525.52"];
	3 -- 135	[pos="722.47,570.05 758.01,579.18 822.07,595.63 857.6,604.76"];
	137	[height=0.5,
		pos="862.9,689.94",
		width=0.75];
	3 -- 137	[pos="715.06,577.27 747.06,601.66 813.3,652.14 845.1,676.38"];
	3 -- 153	[pos="724.04,563.1 759.32,562.57 820.66,561.66 855.96,561.13"];
	155	[height=0.5,
		pos="539.35,539.64",
		width=0.75];
	3 -- 155	[pos="670.6,559.51 641.5,555.1 594.95,548.06 565.82,543.65"];
	166	[height=0.5,
		pos="721.79,681.91",
		width=0.75];
	3 -- 166	[pos="700.75,581.49 705.42,603.74 713.31,641.43 717.99,663.76"];
	171	[height=0.5,
		pos="592.4,734.61",
		width=0.75];
	3 -- 171	[pos="686.77,580.22 666.77,612.93 622.69,685.06 602.66,717.83"];
	217	[height=0.5,
		pos="591.99,377.42",
		width=0.75];
	3 -- 217	[pos="687.3,546.33 667.24,510.79 621.4,429.55 601.5,394.28"];
	243	[height=0.5,
		pos="735.63,302.09",
		width=0.75];
	3 -- 243	[pos="699.64,545.53 706.7,497.78 725.88,368.08 732.96,320.18"];
	4	[height=0.5,
		pos="821.02,576.11",
		width=0.75];
	4 -- 51	[pos="828.42,558.56 838.07,535.69 854.86,495.9 864.52,473.01"];
	55	[height=0.5,
		pos="1007.7,500.09",
		width=0.75];
	4 -- 55	[pos="844.29,566.63 880.16,552.03 948.57,524.17 984.44,509.56"];
	68	[height=0.5,
		pos="650.69,683.36",
		width=0.75];
	4 -- 68	[pos="801.15,588.62 768.33,609.29 703.17,650.31 670.44,670.93"];
	89	[height=0.5,
		pos="654.05,386.05",
		width=0.75];
	4 -- 89	[pos="807.36,560.56 776.05,524.92 699.39,437.66 667.9,401.82"];
	4 -- 98	[pos="797.48,585.08 767.75,596.4 716.9,615.77 687.22,627.08"];
	141	[height=0.5,
		pos="572.96,605.54",
		width=0.75];
	4 -- 141	[pos="794,579.31 746.16,584.99 647.12,596.74 599.57,602.38"];
	154	[height=0.5,
		pos="1150.9,645.8",
		width=0.75];
	4 -- 154	[pos="846.91,581.58 908.58,594.6 1063.6,627.35 1125.2,640.35"];
	156	[height=0.5,
		pos="928.72,411.22",
		width=0.75];
	4 -- 156	[pos="831.94,559.39 852.58,527.79 897.11,459.62 917.78,427.98"];
	4 -- 166	[pos="806.38,591.72 787.51,611.84 754.91,646.6 736.17,666.58"];
	170	[height=0.5,
		pos="673.63,342.02",
		width=0.75];
	4 -- 170	[pos="810.42,559.27 783.23,516.08 711.23,401.73 684.14,358.7"];
	174	[height=0.5,
		pos="1016.4,544.1",
		width=0.75];
	4 -- 174	[pos="847.37,571.79 884.77,565.67 952.83,554.52 990.17,548.4"];
	176	[height=0.5,
		pos="659.67,730.5",
		width=0.75];
	4 -- 176	[pos="805.55,590.91 774.79,620.35 706.25,685.93 675.33,715.52"];
	4 -- 181	[pos="833.99,560.28 844.73,547.16 859.92,528.62 870.66,515.51"];
	182	[height=0.5,
		pos="722.39,856.56",
		width=0.75];
	4 -- 182	[pos="814.85,593.65 797.14,644.02 746.26,788.66 728.55,839.02"];
	189	[height=0.5,
		pos="780.35,771.5",
		width=0.75];
	4 -- 189	[pos="817.27,594.14 809.52,631.36 791.84,716.33 784.1,753.51"];
	4 -- 193	[pos="810.79,592.77 793.05,621.66 756.78,680.74 739.01,709.68"];
	195	[height=0.5,
		pos="634.97,562.33",
		width=0.75];
	4 -- 195	[pos="793.97,574.11 758.69,571.49 697.34,566.95 662.05,564.34"];
	231	[height=0.5,
		pos="904.76,766.84",
		width=0.75];
	4 -- 231	[pos="828.75,593.71 844.74,630.14 881.3,713.4 897.17,749.56"];
	241	[height=0.5,
		pos="797.69,323.01",
		width=0.75];
	4 -- 241	[pos="819.34,557.91 815.04,511.21 803.64,387.56 799.35,341.05"];
	5	[height=0.5,
		pos="739.48,157.03",
		width=0.75];
	56	[height=0.5,
		pos="1077.4,89.601",
		width=0.75];
	5 -- 56	[pos="765.43,151.85 828.34,139.3 988.38,107.37 1051.4,94.797"];
	65	[height=0.5,
		pos="568.71,66.198",
		width=0.75];
	5 -- 65	[pos="718.19,145.71 685.38,128.25 622.81,94.97 589.99,77.517"];
	5 -- 72	[pos="764.88,163.16 790.14,169.27 828.7,178.58 854.06,184.71"];
	95	[height=0.5,
		pos="851.11,18",
		width=0.75];
	5 -- 95	[pos="752.28,141.08 773.7,114.4 816.56,61.026 838.11,34.19"];
	113	[height=0.5,
		pos="725.55,54.575",
		width=0.75];
	5 -- 113	[pos="736.99,138.71 734.45,120.06 730.54,91.323 728.02,72.733"];
	132	[height=0.5,
		pos="788.04,38.776",
		width=0.75];
	5 -- 132	[pos="746.64,139.58 755.82,117.22 771.65,78.687 780.84,56.295"];
	157	[height=0.5,
		pos="480.98,121.31",
		width=0.75];
	5 -- 157	[pos="712.79,153.34 663.12,146.47 557.08,131.82 507.52,124.97"];
	158	[height=0.5,
		pos="941.83,160.39",
		width=0.75];
	5 -- 158	[pos="766.77,157.48 805.49,158.12 875.98,159.29 914.65,159.94"];
	165	[height=0.5,
		pos="543,114.15",
		width=0.75];
	5 -- 165	[pos="713.79,151.42 676.13,143.2 606.35,127.97 568.69,119.75"];
	203	[height=0.5,
		pos="561.35,184.09",
		width=0.75];
	5 -- 203	[pos="712.81,161.08 679.13,166.19 621.54,174.95 587.91,180.05"];
	5 -- 204	[pos="754.9,172.05 787.35,203.65 862.34,276.66 894.65,308.13"];
	219	[height=0.5,
		pos="590.71,319.36",
		width=0.75];
	5 -- 219	[pos="725.21,172.59 696.85,203.54 633.65,272.5 605.15,303.6"];
	5 -- 227	[pos="758.88,169.71 781.03,184.2 817.04,207.76 839.19,222.24"];
	5 -- 243	[pos="739,175.1 738.26,202.9 736.86,255.84 736.12,283.78"];
	248	[height=0.5,
		pos="498.19,170.36",
		width=0.75];
	5 -- 248	[pos="712.27,158.53 665.8,161.1 571.7,166.3 525.3,168.86"];
	6	[height=0.5,
		pos="1088.9,688.79",
		width=0.75];
	57	[height=0.5,
		pos="747.92,487.45",
		width=0.75];
	6 -- 57	[pos="1068.5,676.8 1008.1,641.07 829.46,535.6 768.55,499.63"];
	60	[height=0.5,
		pos="923.81,908.89",
		width=0.75];
	6 -- 60	[pos="1076.7,704.97 1046.2,745.68 966.51,851.96 935.97,892.68"];
	6 -- 63	[pos="1067,699.82 1010.8,728.11 862.18,803.01 806.25,831.19"];
	6 -- 104	[pos="1115.8,686.06 1136.7,683.95 1165.4,681.05 1186.2,678.94"];
	125	[height=0.5,
		pos="1181.7,870.1",
		width=0.75];
	6 -- 125	[pos="1097.6,705.85 1115.3,740.4 1155.2,818.33 1172.9,852.96"];
	159	[height=0.5,
		pos="1055.5,886.71",
		width=0.75];
	6 -- 159	[pos="1085.8,706.7 1079.5,744.29 1064.9,831.02 1058.5,868.69"];
	6 -- 173	[pos="1087,670.81 1085,652.62 1082.1,624.65 1080.1,606.39"];
	175	[height=0.5,
		pos="1379.5,631.33",
		width=0.75];
	6 -- 175	[pos="1114.9,683.64 1170.1,672.73 1298.2,647.4 1353.4,636.49"];
	183	[height=0.5,
		pos="1347.2,740.86",
		width=0.75];
	6 -- 183	[pos="1115.1,694.07 1164.7,704.07 1271.9,725.69 1321.3,735.65"];
	202	[height=0.5,
		pos="1118.5,857.93",
		width=0.75];
	6 -- 202	[pos="1092,706.89 1097.7,739.44 1109.7,807.5 1115.4,839.96"];
	210	[height=0.5,
		pos="1212.3,456.16",
		width=0.75];
	6 -- 210	[pos="1097.9,671.68 1120.8,628.66 1180.4,516.34 1203.2,473.29"];
	7	[height=0.5,
		pos="281.87,466.55",
		width=0.75];
	58	[height=0.5,
		pos="152.72,530.61",
		width=0.75];
	7 -- 58	[pos="259.96,477.41 236.21,489.19 198.52,507.89 174.73,519.69"];
	59	[height=0.5,
		pos="319.72,637.11",
		width=0.75];
	7 -- 59	[pos="285.85,484.48 293.12,517.24 308.47,586.4 315.74,619.17"];
	82	[height=0.5,
		pos="386.05,281.32",
		width=0.75];
	7 -- 82	[pos="291.49,449.45 311.33,414.17 356.64,333.62 376.46,298.37"];
	7 -- 99	[pos="308.57,470.69 345.9,476.47 413.28,486.92 450.44,492.67"];
	133	[height=0.5,
		pos="343.9,471.19",
		width=0.75];
	7 -- 133	[pos="308.9,468.57 311.51,468.77 314.16,468.96 316.77,469.16"];
	146	[height=0.5,
		pos="260.08,411.25",
		width=0.75];
	7 -- 146	[pos="274.98,449.05 272.43,442.59 269.55,435.28 267.01,428.82"];
	147	[height=0.5,
		pos="224.43,530.77",
		width=0.75];
	7 -- 147	[pos="267.97,482.09 259.07,492.04 247.56,504.92 238.61,514.92"];
	160	[height=0.5,
		pos="343.78,415.42",
		width=0.75];
	7 -- 160	[pos="299.12,452.31 307.7,445.21 318.06,436.67 326.63,429.59"];
	169	[height=0.5,
		pos="353.89,237.28",
		width=0.75];
	7 -- 169	[pos="287.52,448.56 300.98,405.7 334.82,297.96 348.26,255.19"];
	198	[height=0.5,
		pos="258.39,274.53",
		width=0.75];
	7 -- 198	[pos="279.66,448.48 275.19,411.89 265.09,329.36 260.61,292.69"];
	213	[height=0.5,
		pos="185.25,574.8",
		width=0.75];
	7 -- 213	[pos="268.03,482.06 249.66,502.64 217.42,538.76 199.07,559.32"];
	234	[height=0.5,
		pos="414.35,325.32",
		width=0.75];
	7 -- 234	[pos="296.3,451.17 321.78,424 374.47,367.84 399.94,340.68"];
	239	[height=0.5,
		pos="107.33,486.42",
		width=0.75];
	7 -- 239	[pos="254.98,469.61 222.08,473.35 166.74,479.66 133.96,483.39"];
	8	[height=0.5,
		pos="467.96,449.95",
		width=0.75];
	8 -- 61	[pos="472,467.93 480.18,504.37 498.64,586.53 506.84,623.05"];
	115	[height=0.5,
		pos="286.47,581.21",
		width=0.75];
	8 -- 115	[pos="449.56,463.26 414.77,488.42 339.74,542.68 304.92,567.86"];
	8 -- 160	[pos="442.83,442.96 421.29,436.97 390.41,428.39 368.88,422.4"];
	161	[height=0.5,
		pos="404.74,662.25",
		width=0.75];
	8 -- 161	[pos="462.68,467.69 450.78,507.65 421.98,604.36 410.05,644.42"];
	162	[height=0.5,
		pos="735.48,213.95",
		width=0.75];
	8 -- 162	[pos="484.29,435.54 532.05,393.41 671.1,270.75 719.02,228.47"];
	212	[height=0.5,
		pos="612,228.1",
		width=0.75];
	8 -- 212	[pos="478.79,433.27 505.55,392.06 574.56,285.76 601.24,244.66"];
	9	[height=0.5,
		pos="1273.4,500.19",
		width=0.75];
	9 -- 55	[pos="1246,500.18 1194.9,500.16 1085.9,500.12 1035,500.1"];
	64	[height=0.5,
		pos="1336.6,457.17",
		width=0.75];
	9 -- 64	[pos="1292.4,487.28 1300.4,481.84 1309.7,475.51 1317.7,470.07"];
	9 -- 105	[pos="1246.3,501.91 1184.7,505.82 1034.5,515.36 972.78,519.28"];
	9 -- 117	[pos="1263.3,483.22 1252,464.17 1233.8,433.46 1222.4,414.4"];
	126	[height=0.5,
		pos="1390.6,359.65",
		width=0.75];
	9 -- 126	[pos="1286.7,484.34 1309.2,457.35 1354.7,402.75 1377.3,375.65"];
	163	[height=0.5,
		pos="1366.9,556.45",
		width=0.75];
	9 -- 163	[pos="1293.7,512.4 1309.4,521.83 1331,534.83 1346.7,544.26"];
	9 -- 174	[pos="1246.9,504.72 1197.5,513.16 1092.1,531.18 1042.8,539.59"];
	197	[height=0.5,
		pos="1326.3,302.7",
		width=0.75];
	9 -- 197	[pos="1278.2,482.31 1288.3,444.81 1311.4,358.27 1321.5,320.68"];
	218	[height=0.5,
		pos="1409.3,509.21",
		width=0.75];
	9 -- 218	[pos="1300.6,501.99 1324.3,503.57 1358.5,505.84 1382.2,507.41"];
	221	[height=0.5,
		pos="1335.5,512.4",
		width=0.75];
	9 -- 221	[pos="1299.4,505.3 1302.7,505.95 1306.1,506.62 1309.4,507.27"];
	236	[height=0.5,
		pos="1287,653.68",
		width=0.75];
	9 -- 236	[pos="1275,518.4 1277.7,547.94 1282.8,605.97 1285.4,635.49"];
	9 -- 249	[pos="1272.7,482.19 1271.6,454.02 1269.5,399.81 1268.3,371.55"];
	10	[height=0.5,
		pos="503.43,235.93",
		width=0.75];
	10 -- 65	[pos="510.17,218.4 522.68,185.88 549.35,116.53 561.91,83.882"];
	10 -- 82	[pos="479.96,245 459.49,252.92 429.94,264.34 409.48,272.26"];
	10 -- 89	[pos="518.7,251.15 547.57,279.92 609.83,341.98 638.73,370.79"];
	91	[height=0.5,
		pos="630.92,94.338",
		width=0.75];
	10 -- 91	[pos="517.56,220.23 542.06,193.02 592.17,137.37 616.72,110.1"];
	116	[height=0.5,
		pos="405.75,369.34",
		width=0.75];
	10 -- 116	[pos="491.45,252.29 472.7,277.89 436.63,327.16 417.82,352.84"];
	121	[height=0.5,
		pos="286.58,149.26",
		width=0.75];
	10 -- 121	[pos="480.22,226.65 438.59,210.01 351.69,175.28 309.94,158.6"];
	134	[height=0.5,
		pos="374.01,135.51",
		width=0.75];
	10 -- 134	[pos="485.7,222.18 461.06,203.05 416.68,168.63 391.93,149.42"];
	10 -- 165	[pos="509.18,218.22 516.68,195.13 529.73,154.98 537.24,131.88"];
	168	[height=0.5,
		pos="759.02,102.83",
		width=0.75];
	10 -- 168	[pos="524.78,224.81 572.89,199.75 689.32,139.12 737.55,114.01"];
	10 -- 169	[pos="476.35,236.17 449.33,236.42 408.05,236.79 381.02,237.04"];
	10 -- 170	[pos="523.28,248.3 556.08,268.75 621.19,309.33 653.9,329.72"];
	192	[height=0.5,
		pos="696.14,112.99",
		width=0.75];
	10 -- 192	[pos="522.97,223.46 559.9,199.9 639.58,149.07 676.55,125.49"];
	205	[height=0.5,
		pos="622.4,138.36",
		width=0.75];
	10 -- 205	[pos="520.47,221.95 542.96,203.5 582.33,171.21 604.99,152.63"];
	10 -- 217	[pos="513.93,252.71 530.98,279.94 564.46,333.43 581.49,360.65"];
	11	[height=0.5,
		pos="514.87,814.5",
		width=0.75];
	66	[height=0.5,
		pos="594.19,1071.6",
		width=0.75];
	11 -- 66	[pos="520.32,832.17 534.81,879.14 574.17,1006.7 588.7,1053.8"];
	83	[height=0.5,
		pos="322.21,744.98",
		width=0.75];
	11 -- 83	[pos="490.86,805.84 453.84,792.48 383.24,767 346.22,753.64"];
	11 -- 144	[pos="526.31,831.15 534.86,843.58 546.48,860.49 555.02,872.91"];
	145	[height=0.5,
		pos="235.13,774.76",
		width=0.75];
	11 -- 145	[pos="488.3,810.73 434.97,803.15 315.45,786.17 261.93,778.57"];
	11 -- 171	[pos="529.82,799.1 543.55,784.95 563.78,764.1 577.5,749.97"];
	196	[height=0.5,
		pos="726.8,901.5",
		width=0.75];
	11 -- 196	[pos="537.95,823.98 578.72,840.71 663,875.31 703.74,892.04"];
	12	[height=0.5,
		pos="442.28,826.61",
		width=0.75];
	67	[height=0.5,
		pos="454.39,732.29",
		width=0.75];
	12 -- 67	[pos="444.61,808.42 446.76,791.72 449.92,767.1 452.06,750.42"];
	71	[height=0.5,
		pos="643.81,1027.6",
		width=0.75];
	12 -- 71	[pos="457.42,841.72 494.86,879.06 591.43,975.35 628.76,1012.6"];
	12 -- 93	[pos="463.65,837.64 469.82,840.83 476.57,844.31 482.76,847.5"];
	142	[height=0.5,
		pos="320.44,833.22",
		width=0.75];
	12 -- 142	[pos="415.24,828.08 395.05,829.17 367.58,830.66 347.4,831.76"];
	12 -- 161	[pos="438.19,808.71 430.97,777.09 416.04,711.73 408.82,680.13"];
	172	[height=0.5,
		pos="337.97,789.01",
		width=0.75];
	12 -- 172	[pos="418.35,817.99 401.38,811.87 378.72,803.7 361.79,797.6"];
	229	[height=0.5,
		pos="581.79,935.41",
		width=0.75];
	12 -- 229	[pos="459.95,840.39 486.63,861.21 536.96,900.45 563.82,921.4"];
	13	[height=0.5,
		pos="516.77,770.48",
		width=0.75];
	13 -- 59	[pos="497.51,757.45 459.75,731.89 376.36,675.45 338.76,650"];
	13 -- 68	[pos="536.24,757.81 561.63,741.29 605.79,712.57 631.19,696.04"];
	13 -- 101	[pos="527.71,753.86 540,735.21 559.81,705.14 572.1,686.48"];
	120	[height=0.5,
		pos="384.24,725.78",
		width=0.75];
	13 -- 120	[pos="492.46,762.28 468.55,754.22 432.25,741.97 408.4,733.93"];
	13 -- 152	[pos="535.8,783.31 548.07,791.58 563.97,802.31 576.27,810.59"];
	13 -- 176	[pos="541.99,763.42 568.11,756.12 608.68,744.77 634.7,737.49"];
	187	[height=0.5,
		pos="613.59,982.08",
		width=0.75];
	13 -- 187	[pos="524.69,787.79 542.89,827.57 587.52,925.1 605.69,964.82"];
	14	[height=0.5,
		pos="653.29,430.09",
		width=0.75];
	14 -- 53	[pos="657.1,448.27 660.26,463.43 664.76,484.91 667.91,499.98"];
	69	[height=0.5,
		pos="443.91,585.94",
		width=0.75];
	14 -- 69	[pos="635.08,443.65 595.38,473.2 501.46,543.1 461.93,572.52"];
	127	[height=0.5,
		pos="467.88,394.85",
		width=0.75];
	14 -- 127	[pos="627.12,425.12 591.78,418.4 529.19,406.5 493.92,399.8"];
	14 -- 177	[pos="677.62,421.91 705.87,412.4 752.2,396.82 780.42,387.32"];
	186	[height=0.5,
		pos="730.57,637.67",
		width=0.75];
	14 -- 186	[pos="659.88,447.79 674.48,487.01 709.41,580.84 724,620.02"];
	201	[height=0.5,
		pos="673.43,182.38",
		width=0.75];
	14 -- 201	[pos="654.78,411.88 658.5,366.07 668.22,246.46 671.95,200.62"];
	211	[height=0.5,
		pos="849.06,278.96",
		width=0.75];
	14 -- 211	[pos="671.01,416.41 708.19,387.71 793.97,321.49 831.24,292.72"];
	233	[height=0.5,
		pos="529.98,411.56",
		width=0.75];
	14 -- 233	[pos="626.84,426.12 606.04,422.99 577.19,418.65 556.39,415.53"];
	15	[height=0.5,
		pos="286.43,520.79",
		width=0.75];
	70	[height=0.5,
		pos="198.05,395.78",
		width=0.75];
	15 -- 70	[pos="274.88,504.45 257.94,480.49 226.55,436.09 209.61,412.13"];
	15 -- 83	[pos="289.3,538.76 296,580.74 312.62,684.87 319.33,726.93"];
	15 -- 103	[pos="302.44,535.38 336.66,566.57 416.61,639.44 450.8,670.61"];
	110	[height=0.5,
		pos="320.52,305.38",
		width=0.75];
	15 -- 110	[pos="289.28,502.8 295.7,462.25 311.22,364.12 317.65,323.48"];
	140	[height=0.5,
		pos="288.89,361.56",
		width=0.75];
	15 -- 140	[pos="286.72,502.53 287.19,471.81 288.14,410.19 288.61,379.61"];
	148	[height=0.5,
		pos="90.653,551.99",
		width=0.75];
	15 -- 148	[pos="260.03,525 222.56,530.97 154.36,541.84 116.95,547.8"];
	15 -- 178	[pos="312.85,516.91 372.36,508.14 516.39,486.93 576.04,478.15"];
	180	[height=0.5,
		pos="169.65,441.29",
		width=0.75];
	15 -- 180	[pos="267.41,507.84 245.69,493.06 210.38,469.02 188.67,454.24"];
	207	[height=0.5,
		pos="198.16,618.83",
		width=0.75];
	15 -- 207	[pos="272.25,536.55 255.78,554.84 228.76,584.84 212.3,603.12"];
	220	[height=0.5,
		pos="528.84,713.88",
		width=0.75];
	15 -- 220	[pos="303.87,534.68 348.49,570.22 466.44,664.18 511.24,699.86"];
	16	[height=0.5,
		pos="799.73,960.63",
		width=0.75];
	16 -- 60	[pos="822.78,951.02 845.07,941.73 878.64,927.73 900.89,918.45"];
	16 -- 71	[pos="776.73,970.51 747.16,983.21 696.15,1005.1 666.66,1017.8"];
	16 -- 179	[pos="774.15,954.48 770.55,953.61 766.85,952.72 763.25,951.86"];
	16 -- 182	[pos="787.65,944.37 773.12,924.82 748.88,892.21 734.39,872.7"];
	17	[height=0.5,
		pos="1441.8,628.06",
		width=0.75];
	75	[height=0.5,
		pos="1428.9,584.03",
		width=0.75];
	17 -- 75	[pos="1436.5,610.15 1435.7,607.39 1434.9,604.54 1434.1,601.78"];
	17 -- 77	[pos="1419,618.11 1382.1,601.97 1309.5,570.26 1272.6,554.13"];
	86	[height=0.5,
		pos="1288.2,786.31",
		width=0.75];
	17 -- 86	[pos="1427,643.23 1397.8,673.4 1332.5,740.63 1303.1,770.95"];
	17 -- 112	[pos="1415.7,622.58 1393,617.8 1360.3,610.9 1337.6,606.12"];
	130	[height=0.5,
		pos="1414.3,714.87",
		width=0.75];
	17 -- 130	[pos="1436.1,646.05 1431.3,661.05 1424.6,682.3 1419.9,697.21"];
	17 -- 154	[pos="1414.7,629.71 1359.2,633.09 1233.5,640.76 1178.1,644.14"];
	17 -- 183	[pos="1428.2,644.22 1410.1,665.79 1378.3,703.73 1360.4,725.09"];
	194	[height=0.5,
		pos="1551.9,694.08",
		width=0.75];
	17 -- 194	[pos="1462,640.17 1481.7,652 1511.6,669.93 1531.4,681.82"];
	17 -- 218	[pos="1436.9,610.27 1430.8,587.86 1420.3,549.59 1414.2,527.12"];
	225	[height=0.5,
		pos="1553.7,512.82",
		width=0.75];
	17 -- 225	[pos="1456.9,612.52 1478.4,590.4 1517.5,550.1 1538.9,528.12"];
	247	[height=0.5,
		pos="1474.5,539.83",
		width=0.75];
	17 -- 247	[pos="1448.4,610.21 1454.1,594.8 1462.3,572.67 1468,557.36"];
	18	[height=0.5,
		pos="1489.2,487.48",
		width=0.75];
	18 -- 75	[pos="1478.7,504.3 1467.7,522.02 1450.3,549.76 1439.3,567.4"];
	18 -- 76	[pos="1464.6,479.62 1423.3,466.44 1340.5,440.03 1299.2,426.84"];
	18 -- 175	[pos="1476.8,503.71 1455.8,531.33 1413.2,587.21 1392,614.95"];
	184	[height=0.5,
		pos="1491.7,437.71",
		width=0.75];
	18 -- 184	[pos="1490.1,469.23 1490.3,464.91 1490.6,460.29 1490.8,455.96"];
	222	[height=0.5,
		pos="1452.9,362.7",
		width=0.75];
	18 -- 222	[pos="1484,469.61 1477.1,445.89 1465,404.25 1458.1,380.55"];
	230	[height=0.5,
		pos="1503.8,628.75",
		width=0.75];
	18 -- 230	[pos="1491.1,505.66 1493.9,532.79 1499.1,583.55 1501.9,610.64"];
	18 -- 247	[pos="1484.2,505.21 1482.7,510.67 1481,516.67 1479.4,522.13"];
	19	[height=0.5,
		pos="1087.2,217.76",
		width=0.75];
	19 -- 78	[pos="1069.9,231.87 1028.6,265.47 925.06,349.95 883.93,383.48"];
	79	[height=0.5,
		pos="1234.6,162.53",
		width=0.75];
	19 -- 79	[pos="1110.9,208.89 1138.4,198.58 1183.5,181.68 1211,171.39"];
	19 -- 87	[pos="1114.2,219.33 1116.8,219.48 1119.5,219.63 1122.1,219.78"];
	109	[height=0.5,
		pos="1201.6,93.185",
		width=0.75];
	19 -- 109	[pos="1101.4,202.24 1123.3,178.37 1165.1,132.9 1187.1,108.91"];
	124	[height=0.5,
		pos="1264.1,265.29",
		width=0.75];
	19 -- 124	[pos="1112.5,224.57 1146.1,233.61 1205.2,249.47 1238.8,258.5"];
	19 -- 156	[pos="1074.2,233.6 1044.5,269.87 971.75,358.68 941.87,395.17"];
	185	[height=0.5,
		pos="971.48,116.2",
		width=0.75];
	19 -- 185	[pos="1070.6,203.21 1048.6,183.9 1010,150.02 988.02,130.72"];
	19 -- 211	[pos="1061.7,224.31 1015.8,236.09 920.05,260.71 874.35,272.46"];
	20	[height=0.5,
		pos="867.61,842.34",
		width=0.75];
	20 -- 81	[pos="884.03,827.74 907.69,806.72 951.11,768.14 974.8,747.09"];
	106	[height=0.5,
		pos="987.29,936.31",
		width=0.75];
	20 -- 106	[pos="885.27,856.2 907.9,873.97 946.9,904.59 969.56,922.39"];
	20 -- 186	[pos="856.39,825.59 830.63,787.11 767.47,692.78 741.75,654.36"];
	20 -- 189	[pos="850.37,828.34 835.07,815.92 812.84,797.88 797.56,785.47"];
	21	[height=0.5,
		pos="1152.2,336.57",
		width=0.75];
	21 -- 79	[pos="1160.4,319.25 1176.2,285.89 1210.7,213.09 1226.5,179.79"];
	21 -- 84	[pos="1176.8,328.85 1188.5,325.17 1202.5,320.79 1214.2,317.11"];
	94	[height=0.5,
		pos="1142.2,601.77",
		width=0.75];
	21 -- 94	[pos="1151.5,354.8 1149.7,403.36 1144.7,535.46 1142.9,583.77"];
	21 -- 158	[pos="1135.3,322.45 1096,289.46 998.24,207.63 958.77,174.58"];
	21 -- 190	[pos="1151.8,354.88 1151.5,367.64 1151,384.58 1150.7,397.31"];
	21 -- 200	[pos="1159.1,318.97 1163.4,308.09 1168.8,294.18 1173.1,283.25"];
	22	[height=0.5,
		pos="998.56,70.516",
		width=0.75];
	22 -- 85	[pos="1005.1,88.399 1021.9,134.28 1066.4,255.75 1083.1,301.46"];
	92	[height=0.5,
		pos="1244.4,49.179",
		width=0.75];
	22 -- 92	[pos="1025.3,68.192 1072.5,64.098 1169.9,55.647 1217.3,51.532"];
	22 -- 95	[pos="974.54,61.962 947.12,52.196 902.53,36.315 875.12,26.551"];
	22 -- 168	[pos="972.01,74.098 925.96,80.309 831.81,93.009 785.69,99.232"];
	22 -- 191	[pos="1021.2,80.606 1047.5,92.324 1090.6,111.54 1116.9,123.25"];
	23	[height=0.5,
		pos="934.34,864.87",
		width=0.75];
	23 -- 50	[pos="949.49,849.73 974.83,824.39 1025.5,773.69 1051,748.2"];
	23 -- 86	[pos="960.07,859.16 1025.4,844.65 1197.3,806.49 1262.5,792"];
	23 -- 96	[pos="933.48,846.79 931.69,808.83 927.57,721.26 925.77,683.21"];
	23 -- 159	[pos="960.62,869.61 980.94,873.27 1008.9,878.32 1029.2,881.98"];
	23 -- 196	[pos="908.05,869.51 868.24,876.54 793.08,889.81 753.2,896.84"];
	23 -- 231	[pos="928.91,846.89 923.57,829.2 915.47,802.36 910.15,784.71"];
	24	[height=0.5,
		pos="1297.5,171.15",
		width=0.75];
	24 -- 56	[pos="1273.5,162.26 1231.1,146.54 1143.2,113.98 1101,98.349"];
	24 -- 92	[pos="1289.9,153.67 1279.8,130.48 1262.1,89.791 1252,66.621"];
	24 -- 151	[pos="1280.3,185.09 1271.9,191.92 1261.8,200.13 1253.3,206.99"];
	24 -- 197	[pos="1301.4,189.16 1306.9,214.21 1316.8,259.32 1322.3,284.48"];
	24 -- 210	[pos="1292.2,188.97 1276.9,240.16 1232.9,387.16 1217.7,438.34"];
	228	[height=0.5,
		pos="1322.6,125.64",
		width=0.75];
	24 -- 228	[pos="1306.8,154.2 1308.9,150.46 1311.1,146.5 1313.1,142.75"];
	25	[height=0.5,
		pos="320.13,193.28",
		width=0.75];
	25 -- 52	[pos="325.47,211.08 341.72,265.22 390.45,427.59 406.72,481.8"];
	97	[height=0.5,
		pos="233.85,64.772",
		width=0.75];
	25 -- 97	[pos="309.03,176.74 292.46,152.07 261.45,105.88 244.91,81.245"];
	25 -- 134	[pos="334.57,177.8 342.3,169.51 351.79,159.33 359.53,151.04"];
	25 -- 140	[pos="316.78,211.29 310.77,243.68 298.2,311.39 292.21,343.68"];
	25 -- 198	[pos="307.63,209.72 296.85,223.91 281.37,244.29 270.65,258.39"];
	206	[height=0.5,
		pos="209.63,109.33",
		width=0.75];
	25 -- 206	[pos="301.88,179.42 281.28,163.77 247.99,138.47 227.53,122.93"];
	237	[height=0.5,
		pos="441.34,226.65",
		width=0.75];
	25 -- 237	[pos="345.24,200.2 366.05,205.92 395.46,214.02 416.26,219.75"];
	25 -- 248	[pos="346.79,189.85 380.45,185.51 438.03,178.1 471.64,173.78"];
	26	[height=0.5,
		pos="1077.4,153.59",
		width=0.75];
	26 -- 74	[pos="1102.7,160.58 1113.9,163.68 1127,167.3 1138.1,170.39"];
	100	[height=0.5,
		pos="1306.5,78.191",
		width=0.75];
	26 -- 100	[pos="1101.9,145.52 1146,131.01 1238.2,100.67 1282.1,86.202"];
	26 -- 109	[pos="1099.3,142.93 1121.9,131.95 1156.8,114.95 1179.5,103.94"];
	26 -- 162	[pos="1051.1,158.22 987.5,169.46 825.57,198.05 761.83,209.3"];
	199	[height=0.5,
		pos="901.86,66.207",
		width=0.75];
	26 -- 199	[pos="1055.5,142.7 1021.8,125.91 957.47,93.887 923.74,77.097"];
	27	[height=0.5,
		pos="809.25,146.92",
		width=0.75];
	27 -- 91	[pos="784.46,139.6 750.48,129.59 689.81,111.7 655.79,101.67"];
	27 -- 102	[pos="832.13,156.81 856.51,167.35 894.89,183.95 919.33,194.51"];
	27 -- 113	[pos="795.05,131.25 779.57,114.17 754.94,86.999 739.54,70.008"];
	27 -- 185	[pos="835.32,141.98 865.59,136.25 915.23,126.85 945.48,121.12"];
	27 -- 201	[pos="784.03,153.5 759.78,159.83 723.34,169.35 698.99,175.71"];
	27 -- 241	[pos="808.06,165.1 805.84,198.93 801.09,271.17 798.88,304.93"];
	28	[height=0.5,
		pos="992.54,820.85",
		width=0.75];
	28 -- 106	[pos="991.72,838.89 990.74,860.46 989.11,896.34 988.13,918.02"];
	143	[height=0.5,
		pos="800.89,691.86",
		width=0.75];
	28 -- 143	[pos="973.47,808.01 936.82,783.35 856.98,729.61 820.18,704.84"];
	28 -- 188	[pos="1012.6,808.51 1039.6,791.85 1087.6,762.33 1114.6,745.7"];
	28 -- 202	[pos="1017.4,828.18 1039.5,834.68 1071.6,844.12 1093.7,850.62"];
	224	[height=0.5,
		pos="1071.1,930.8",
		width=0.75];
	28 -- 224	[pos="1004.5,837.55 1019.3,858.34 1044.6,893.61 1059.4,914.3"];
	28 -- 226	[pos="992.01,802.76 990.95,766.69 988.58,686.21 987.51,650.19"];
	29	[height=0.5,
		pos="565.56,275.35",
		width=0.75];
	29 -- 57	[pos="579.26,291.29 613.14,330.69 700.52,432.32 734.3,471.61"];
	107	[height=0.5,
		pos="529.94,364.27",
		width=0.75];
	29 -- 107	[pos="558.52,292.91 552.28,308.5 543.2,331.16 536.96,346.73"];
	29 -- 167	[pos="592.71,273.22 635.32,269.87 717.42,263.43 759.96,260.09"];
	29 -- 203	[pos="564.73,257.32 563.99,241.32 562.92,218.07 562.18,202.08"];
	29 -- 234	[pos="541.26,283.37 513.05,292.7 466.78,307.99 438.59,317.31"];
	29 -- 237	[pos="542.19,266.19 520.13,257.54 487.19,244.63 465.02,235.94"];
	240	[height=0.5,
		pos="434.77,181.78",
		width=0.75];
	29 -- 240	[pos="547.1,262.14 522.31,244.41 478.52,213.07 453.56,195.22"];
	30	[height=0.5,
		pos="805.38,190.92",
		width=0.75];
	30 -- 80	[pos="826.85,202.09 850.53,214.42 888.42,234.14 912.13,246.48"];
	30 -- 108	[pos="819.48,206.54 849.63,239.96 920.07,318.02 950.19,351.41"];
	138	[height=0.5,
		pos="838.98,83.375",
		width=0.75];
	30 -- 138	[pos="810.92,173.16 817.15,153.23 827.19,121.1 833.42,101.16"];
	30 -- 199	[pos="817.79,174.87 836.22,151.05 870.61,106.6 889.19,82.59"];
	30 -- 205	[pos="780.32,183.72 745.37,173.68 682.38,155.59 647.44,145.55"];
	209	[height=0.5,
		pos="657.93,273.03",
		width=0.75];
	30 -- 209	[pos="784.56,202.51 756.62,218.07 707.24,245.56 679.11,261.23"];
	30 -- 212	[pos="779.3,195.93 742.29,203.05 674.93,216 637.97,223.1"];
	31	[height=0.5,
		pos="295.9,105.19",
		width=0.75];
	31 -- 97	[pos="276.27,92.404 269.03,87.686 260.82,82.341 253.57,77.617"];
	31 -- 110	[pos="298.13,123.31 302.8,161.33 313.59,249.05 318.27,287.16"];
	149	[height=0.5,
		pos="146.55,137.46",
		width=0.75];
	31 -- 149	[pos="269.88,110.81 242.47,116.74 199.56,126.01 172.26,131.9"];
	31 -- 157	[pos="322.81,107.54 357.9,110.59 418.93,115.9 454.03,118.96"];
	31 -- 206	[pos="268.6,106.5 258.43,106.99 246.9,107.54 236.75,108.03"];
	31 -- 240	[pos="316.99,116.83 343.24,131.3 387.8,155.88 413.94,170.29"];
	32	[height=0.5,
		pos="268.18,686.71",
		width=0.75];
	32 -- 69	[pos="288.68,674.95 322.45,655.59 389.4,617.19 423.26,597.78"];
	111	[height=0.5,
		pos="381.77,605.29",
		width=0.75];
	32 -- 111	[pos="286.68,673.44 307.81,658.3 342.16,633.68 363.28,618.54"];
	32 -- 172	[pos="279.39,703.14 292.41,722.24 313.77,753.54 326.78,772.62"];
	32 -- 207	[pos="252.64,671.64 241.03,660.4 225.25,645.09 213.65,633.85"];
	33	[height=0.5,
		pos="1224.9,632.21",
		width=0.75];
	33 -- 90	[pos="1217.8,614.68 1207.6,589.42 1188.8,543.08 1178.5,517.78"];
	33 -- 114	[pos="1233.1,614.81 1234.5,611.74 1236,608.54 1237.4,605.47"];
	33 -- 130	[pos="1247.8,642.18 1284.3,658.11 1355.3,689.12 1391.7,705"];
	33 -- 163	[pos="1246.2,620.87 1273,606.59 1318.7,582.19 1345.5,567.87"];
	33 -- 208	[pos="1202.2,642.08 1134.2,671.54 933.18,758.65 865.36,788.05"];
	33 -- 235	[pos="1207.9,617.68 1188.7,601.28 1157.6,574.76 1138.6,558.47"];
	34	[height=0.5,
		pos="257.81,730.73",
		width=0.75];
	34 -- 115	[pos="261.27,712.69 266.78,683.95 277.48,628.09 283,599.31"];
	34 -- 118	[pos="283.12,737.69 318.51,747.42 382.39,764.99 417.61,774.67"];
	123	[height=0.5,
		pos="342.7,681.14",
		width=0.75];
	34 -- 123	[pos="278.36,718.72 291.71,710.93 309.03,700.81 322.34,693.03"];
	34 -- 142	[pos="268.16,747.65 279.76,766.64 298.47,797.27 310.08,816.27"];
	34 -- 213	[pos="249.77,713.44 235.82,683.47 207.3,622.19 193.33,592.16"];
	214	[height=0.5,
		pos="205.05,662.84",
		width=0.75];
	34 -- 214	[pos="245.31,714.64 237.02,703.97 226.18,690.02 217.83,679.28"];
	35	[height=0.5,
		pos="348.53,561.2",
		width=0.75];
	35 -- 116	[pos="353.81,543.5 364.71,506.95 389.59,423.52 400.48,387"];
	35 -- 120	[pos="352.42,579.13 359.29,610.79 373.49,676.24 380.36,707.88"];
	35 -- 141	[pos="374.71,566.38 417.96,574.92 503.81,591.88 546.94,600.4"];
	35 -- 147	[pos="323.11,554.97 301.7,549.72 271.21,542.25 249.81,537"];
	35 -- 214	[pos="329.77,574.49 302.27,593.97 251.31,630.07 223.81,649.55"];
	238	[height=0.5,
		pos="477.28,541.92",
		width=0.75];
	35 -- 238	[pos="374.89,557.25 396.96,553.95 428.32,549.25 450.51,545.93"];
	36	[height=0.5,
		pos="156.25,310.43",
		width=0.75];
	36 -- 70	[pos="164.71,327.7 171.96,342.51 182.36,363.73 189.61,378.53"];
	36 -- 121	[pos="169.23,294.38 194.21,263.49 248.72,196.08 273.66,165.24"];
	36 -- 149	[pos="155.23,292.24 153.37,259.02 149.43,188.89 147.57,155.66"];
	36 -- 180	[pos="158.12,328.62 160.68,353.63 165.25,398.33 167.8,423.25"];
	215	[height=0.5,
		pos="45.266,452.67",
		width=0.75];
	36 -- 215	[pos="143.74,326.47 122.42,353.79 79.307,409.04 57.906,436.47"];
	37	[height=0.5,
		pos="714.57,1028",
		width=0.75];
	37 -- 66	[pos="690.79,1036.7 669.69,1044.3 639.02,1055.4 617.93,1063"];
	37 -- 122	[pos="700.97,1012.5 697.2,1008.2 693.11,1003.5 689.34,999.19"];
	37 -- 187	[pos="692.16,1017.8 675.43,1010.2 652.66,999.86 635.94,992.25"];
	216	[height=0.5,
		pos="868.56,961.35",
		width=0.75];
	37 -- 216	[pos="737.29,1018.2 766.41,1005.6 816.58,983.86 845.74,971.23"];
	38	[height=0.5,
		pos="510.37,596.88",
		width=0.75];
	38 -- 67	[pos="503.17,614.3 492.42,640.3 472.3,688.97 461.57,714.93"];
	38 -- 123	[pos="488.79,607.72 456.69,623.86 396.67,654.02 364.46,670.21"];
	38 -- 219	[pos="515.52,579.1 529.99,529.09 570.95,387.62 585.5,337.35"];
	244	[height=0.5,
		pos="349.97,517.17",
		width=0.75];
	38 -- 244	[pos="488.4,585.96 457.69,570.7 402.24,543.14 371.67,527.95"];
	38 -- 245	[pos="537.45,596.52 585.28,595.87 684.16,594.55 731.97,593.9"];
	39	[height=0.5,
		pos="1398.7,420.62",
		width=0.75];
	39 -- 64	[pos="1378.3,432.59 1371.6,436.58 1364,441.04 1357.2,445.05"];
	39 -- 124	[pos="1385,404.87 1359.2,375.1 1303.6,310.89 1277.8,281.08"];
	39 -- 184	[pos="1425.1,425.47 1437.7,427.8 1452.9,430.58 1465.5,432.91"];
	39 -- 221	[pos="1387.4,437.03 1375.9,453.63 1358.3,479.16 1346.9,495.83"];
	39 -- 225	[pos="1418.9,432.67 1448.7,450.34 1503.7,483.09 1533.5,500.76"];
	40	[height=0.5,
		pos="1055.7,831.49",
		width=0.75];
	40 -- 54	[pos="1039.1,817.2 1014.6,796.24 969.37,757.4 944.93,736.45"];
	40 -- 125	[pos="1080.3,839.03 1102.4,845.79 1134.6,855.66 1156.7,862.45"];
	131	[height=0.5,
		pos="1348.6,831.25",
		width=0.75];
	40 -- 131	[pos="1082.8,831.47 1138.4,831.42 1265.3,831.32 1321.2,831.28"];
	136	[height=0.5,
		pos="861.78,917.25",
		width=0.75];
	40 -- 136	[pos="1033.1,841.5 995.84,857.98 921.94,890.65 884.56,907.18"];
	40 -- 223	[pos="1056.2,813.22 1057.2,777.37 1059.4,698.23 1060.4,662.55"];
	40 -- 224	[pos="1058.6,849.7 1061.4,867.62 1065.6,894.82 1068.3,912.7"];
	40 -- 246	[pos="1075.3,818.76 1102.4,801.06 1151.3,769.19 1178.6,751.41"];
	41	[height=0.5,
		pos="1361.2,201.45",
		width=0.75];
	41 -- 100	[pos="1353.5,184.05 1343.1,160.56 1324.6,118.95 1314.2,95.501"];
	41 -- 126	[pos="1364.6,219.59 1370.3,250.11 1381.6,311.34 1387.3,341.71"];
	41 -- 222	[pos="1370.9,218.4 1388.4,249.29 1425.5,314.41 1443.1,345.49"];
	41 -- 228	[pos="1352.5,184.25 1346.1,171.84 1337.6,155.16 1331.3,142.77"];
	42	[height=0.5,
		pos="660.35,878.95",
		width=0.75];
	42 -- 73	[pos="672.36,862.43 682.37,848.65 696.56,829.14 706.51,815.45"];
	42 -- 129	[pos="678.14,864.97 713.03,837.55 790.08,777.02 824.81,749.73"];
	42 -- 136	[pos="686.68,883.95 725.39,891.31 797.23,904.97 835.76,912.3"];
	42 -- 220	[pos="647.5,862.82 622.3,831.18 566.64,761.33 541.55,729.83"];
	42 -- 229	[pos="641.73,892.33 629.21,901.33 612.77,913.15 600.27,922.13"];
	43	[height=0.5,
		pos="1484.4,719.55",
		width=0.75];
	43 -- 128	[pos="1459.6,712.02 1435.2,704.62 1398.2,693.38 1373.8,686"];
	43 -- 131	[pos="1467.2,733.69 1441.1,755.18 1391.7,795.8 1365.7,817.22"];
	43 -- 194	[pos="1508,710.64 1514.6,708.17 1521.7,705.49 1528.2,703.02"];
	43 -- 230	[pos="1488.3,701.61 1491.7,685.69 1496.6,662.56 1500,646.65"];
	44	[height=0.5,
		pos="875.26,127.4",
		width=0.75];
	44 -- 88	[pos="887.17,143.93 915.53,183.3 986.84,282.27 1015.1,321.57"];
	44 -- 132	[pos="860.07,111.96 844.06,95.696 819,70.235 803.05,54.036"];
	44 -- 138	[pos="862.16,111.51 858.91,107.56 855.43,103.34 852.18,99.393"];
	44 -- 139	[pos="893.77,140.52 918.19,157.82 960.95,188.12 985.56,205.56"];
	44 -- 192	[pos="848.45,125.24 814.68,122.52 757,117.88 723.14,115.16"];
	44 -- 232	[pos="899.98,135.07 925.43,142.98 964.86,155.22 990.39,163.15"];
	45	[height=0.5,
		pos="539.03,476.54",
		width=0.75];
	45 -- 111	[pos="521.9,490.56 491.65,515.33 429.12,566.53 398.88,591.28"];
	45 -- 133	[pos="511.9,475.8 474.72,474.78 408.33,472.96 371.11,471.94"];
	45 -- 195	[pos="555.3,491.09 572.95,506.87 600.94,531.9 618.61,547.71"];
	45 -- 233	[pos="536.51,458.44 535.25,449.43 533.74,438.56 532.49,429.56"];
	45 -- 242	[pos="564.47,470.07 598.81,461.34 659.65,445.87 693.93,437.15"];
	46	[height=0.5,
		pos="1005.6,776.84",
		width=0.75];
	46 -- 94	[pos="1018.2,760.69 1044.2,727.34 1103.6,651.21 1129.6,617.89"];
	46 -- 137	[pos="985.42,764.58 958.24,748.01 910.07,718.68 882.94,702.15"];
	46 -- 216	[pos="993.4,793.22 967.4,828.23 906.66,910.03 880.69,945.01"];
	46 -- 236	[pos="1028.6,766.76 1081.5,743.61 1211.2,686.85 1264,663.72"];
	47	[height=0.5,
		pos="601.74,518.3",
		width=0.75];
	47 -- 107	[pos="593.64,500.93 579.85,471.35 551.96,411.51 538.12,381.81"];
	47 -- 143	[pos="618.37,532.8 655.95,565.55 747.04,644.93 784.44,677.53"];
	47 -- 209	[pos="605.87,500.27 616.26,454.91 643.39,336.48 653.79,291.09"];
	47 -- 238	[pos="575.64,523.25 554.4,527.28 524.57,532.95 503.33,536.97"];
	48	[height=0.5,
		pos="27,580.33",
		width=0.75];
	48 -- 58	[pos="50.351,571.09 72.932,562.16 106.95,548.71 129.49,539.79"];
	48 -- 145	[pos="42.986,595.26 81.822,631.54 180.78,723.98 219.37,760.04"];
	48 -- 148	[pos="49.621,570.26 55.624,567.59 62.105,564.7 68.105,562.03"];
	48 -- 215	[pos="29.578,562.31 33.059,537.98 39.226,494.88 42.7,470.6"];
	48 -- 239	[pos="40.626,564.4 55.487,547.03 79.121,519.4 93.902,502.12"];
	49	[height=0.5,
		pos="405.94,455.61",
		width=0.75];
	49 -- 127	[pos="421.25,440.59 430.71,431.31 442.81,419.44 452.31,410.12"];
	49 -- 146	[pos="381.19,448.08 354.37,439.93 311.81,426.98 284.95,418.81"];
	49 -- 155	[pos="425.62,468.01 450.84,483.89 494.32,511.28 519.58,527.19"];
	49 -- 244	[pos="391.81,471.14 383.39,480.4 372.74,492.13 364.28,501.42"];
}
