graph {
	graph [bb="0,0,2129.9,1564.9",
		outputorder=edgesfirst,
		overlap=prism,
		size="50,50!",
		start=6122
	];
	node [label="\N"];
	0	[height=0.5,
		pos="1253,552.28",
		width=0.75];
	1	[height=0.5,
		pos="1445.1,412.17",
		width=0.75];
	0 -- 1	[pos="1271.4,538.85 1308.1,512.06 1390.1,452.31 1426.8,425.56"];
	100	[height=0.5,
		pos="1132.7,713.89",
		width=0.75];
	0 -- 100	[pos="1240.8,568.67 1217.7,599.64 1168,666.45 1145,697.46"];
	2	[height=0.5,
		pos="1317.1,241.23",
		width=0.75];
	1 -- 2	[pos="1432.9,395.78 1408.4,363.1 1353.8,290.2 1329.3,257.57"];
	292	[height=0.5,
		pos="1501.1,581.35",
		width=0.75];
	1 -- 292	[pos="1451,429.95 1461.8,462.45 1484.4,531.05 1495.2,563.55"];
	104	[height=0.5,
		pos="1232.4,668.63",
		width=0.75];
	100 -- 104	[pos="1155.4,703.62 1171.7,696.21 1193.6,686.26 1209.9,678.86"];
	101	[height=0.5,
		pos="997.79,882.98",
		width=0.75];
	100 -- 101	[pos="1120,729.8 1094.3,762.02 1036.3,834.7 1010.5,866.99"];
	3	[height=0.5,
		pos="1596.1,291.23",
		width=0.75];
	2 -- 3	[pos="1343.3,245.93 1396.5,255.46 1516.4,276.95 1569.7,286.5"];
	213	[height=0.5,
		pos="1026.4,316.83",
		width=0.75];
	2 -- 213	[pos="1291.8,247.8 1236.8,262.1 1106.9,295.88 1051.8,310.21"];
	107	[height=0.5,
		pos="1501.1,517.56",
		width=0.75];
	104 -- 107	[pos="1253.5,656.77 1303.7,628.53 1430,557.55 1480.1,529.36"];
	105	[height=0.5,
		pos="1019.2,806.68",
		width=0.75];
	104 -- 105	[pos="1212.7,681.37 1172.1,707.67 1079.4,767.7 1038.8,793.97"];
	4	[height=0.5,
		pos="1793.2,403.52",
		width=0.75];
	3 -- 4	[pos="1616.8,303.04 1654.7,324.6 1734.6,370.13 1772.5,391.71"];
	189	[height=0.5,
		pos="1347.8,187.85",
		width=0.75];
	3 -- 189	[pos="1573.2,281.69 1526,262.04 1418.4,217.27 1371,197.51"];
	110	[height=0.5,
		pos="1622.7,372.59",
		width=0.75];
	107 -- 110	[pos="1514.3,501.77 1537.7,473.89 1586.1,416.23 1609.5,388.36"];
	108	[height=0.5,
		pos="1465.7,625.36",
		width=0.75];
	107 -- 108	[pos="1495.2,535.36 1488.7,555.34 1478.1,587.55 1471.5,607.53"];
	5	[height=0.5,
		pos="1850.2,535.37",
		width=0.75];
	4 -- 5	[pos="1800.8,421.03 1811.7,446.25 1831.7,492.53 1842.6,517.79"];
	414	[height=0.5,
		pos="1742.2,447.55",
		width=0.75];
	4 -- 414	[pos="1776.5,417.94 1770.8,422.86 1764.4,428.35 1758.7,433.25"];
	113	[height=0.5,
		pos="1528.6,225.5",
		width=0.75];
	110 -- 113	[pos="1612.1,356 1594,327.75 1557.4,270.61 1539.3,242.25"];
	111	[height=0.5,
		pos="1722.8,349.14",
		width=0.75];
	110 -- 111	[pos="1648.2,366.61 1663.2,363.11 1682,358.7 1697,355.19"];
	6	[height=0.5,
		pos="1856.3,411.16",
		width=0.75];
	5 -- 6	[pos="1851.1,517.31 1852.2,493.76 1854.2,452.8 1855.4,429.24"];
	335	[height=0.5,
		pos="1857.4,850.76",
		width=0.75];
	5 -- 335	[pos="1850.6,553.69 1851.9,609.43 1855.7,776.58 1857,832.39"];
	116	[height=0.5,
		pos="1645.4,190.53",
		width=0.75];
	113 -- 116	[pos="1553.4,218.08 1573.2,212.15 1600.9,203.87 1620.7,197.94"];
	114	[height=0.5,
		pos="1342.1,285.27",
		width=0.75];
	113 -- 114	[pos="1504.2,233.31 1468.5,244.77 1402.3,266 1366.5,277.45"];
	7	[height=0.5,
		pos="1978.2,418.4",
		width=0.75];
	6 -- 7	[pos="1883.3,412.77 1903.5,413.97 1931,415.6 1951.2,416.8"];
	6 -- 111	[pos="1833.9,400.78 1809.3,389.33 1769.9,371.02 1745.2,359.55"];
	118	[height=0.5,
		pos="1659.5,305.25",
		width=0.75];
	116 -- 118	[pos="1647.7,208.71 1650.3,230.19 1654.6,265.72 1657.3,287.16"];
	117	[height=0.5,
		pos="1551.2,181.47",
		width=0.75];
	116 -- 117	[pos="1618.7,187.96 1605.9,186.73 1590.7,185.27 1578,184.05"];
	8	[height=0.5,
		pos="2043.8,490.49",
		width=0.75];
	7 -- 8	[pos="1992.4,434.04 2003.4,446.13 2018.6,462.79 2029.6,474.88"];
	417	[height=0.5,
		pos="1951.9,465.52",
		width=0.75];
	7 -- 417	[pos="1968.7,435.41 1966.3,439.63 1963.8,444.15 1961.5,448.38"];
	122	[height=0.5,
		pos="1669.6,446.35",
		width=0.75];
	118 -- 122	[pos="1660.8,323.41 1662.7,350.5 1666.4,401.21 1668.3,428.27"];
	119	[height=0.5,
		pos="1545.3,386.68",
		width=0.75];
	118 -- 119	[pos="1640.9,318.52 1619.7,333.66 1585.1,358.28 1563.9,373.42"];
	9	[height=0.5,
		pos="2102.9,595.21",
		width=0.75];
	8 -- 9	[pos="2053.6,507.78 2064.6,527.3 2082.4,558.85 2093.4,578.24"];
	418	[height=0.5,
		pos="2017.7,536.9",
		width=0.75];
	8 -- 418	[pos="2034.3,507.51 2032,511.54 2029.6,515.85 2027.3,519.89"];
	124	[height=0.5,
		pos="1555,625.37",
		width=0.75];
	122 -- 124	[pos="1658.8,463.2 1636.9,497.4 1587.5,574.65 1565.7,608.71"];
	123	[height=0.5,
		pos="1629.4,490.36",
		width=0.75];
	122 -- 123	[pos="1655.5,461.75 1651.7,466.01 1647.4,470.64 1643.5,474.9"];
	10	[height=0.5,
		pos="2102.3,652.67",
		width=0.75];
	9 -- 10	[pos="2102.7,613.39 2102.7,620.1 2102.6,627.7 2102.5,634.41"];
	324	[height=0.5,
		pos="1820.3,715.52",
		width=0.75];
	9 -- 324	[pos="2079.8,605.06 2026.7,627.67 1896.4,683.12 1843.3,705.71"];
	128	[height=0.5,
		pos="1694.1,821.53",
		width=0.75];
	124 -- 128	[pos="1566.6,641.76 1592.8,678.68 1656.2,768.04 1682.4,805.05"];
	125	[height=0.5,
		pos="1170.4,668.61",
		width=0.75];
	124 -- 125	[pos="1528.3,628.38 1457.8,636.3 1267.7,657.67 1197.2,665.6"];
	11	[height=0.5,
		pos="1867.8,487.2",
		width=0.75];
	10 -- 11	[pos="2083.5,639.41 2039.5,608.35 1930.2,531.19 1886.4,500.3"];
	156	[height=0.5,
		pos="1925.4,825.29",
		width=0.75];
	10 -- 156	[pos="2086.9,667.69 2053.5,700.34 1974.4,777.46 1940.9,810.19"];
	130	[height=0.5,
		pos="1660.1,1012.5",
		width=0.75];
	128 -- 130	[pos="1690.9,839.5 1684.4,875.9 1669.8,957.99 1663.3,994.46"];
	129	[height=0.5,
		pos="1698.9,881.27",
		width=0.75];
	128 -- 129	[pos="1695.6,839.78 1696.2,847.19 1696.9,855.73 1697.5,863.13"];
	12	[height=0.5,
		pos="1719.5,402.34",
		width=0.75];
	11 -- 12	[pos="1847.2,475.4 1819,459.28 1768.8,430.53 1740.5,414.32"];
	302	[height=0.5,
		pos="1916.5,571.32",
		width=0.75];
	11 -- 302	[pos="1877.7,504.22 1886.1,518.82 1898.2,539.74 1906.6,554.32"];
	132	[height=0.5,
		pos="1584.8,1119.1",
		width=0.75];
	130 -- 132	[pos="1648.3,1029.2 1634.2,1049.2 1610.6,1082.6 1596.5,1102.6"];
	131	[height=0.5,
		pos="1674.7,1056.6",
		width=0.75];
	130 -- 131	[pos="1666,1030.2 1666.9,1033.1 1667.9,1036 1668.8,1038.9"];
	13	[height=0.5,
		pos="1607.5,430.05",
		width=0.75];
	12 -- 13	[pos="1694.1,408.63 1675.8,413.16 1651.1,419.26 1632.8,423.78"];
	185	[height=0.5,
		pos="1402.7,368.16",
		width=0.75];
	12 -- 185	[pos="1692.8,399.46 1633.1,393.02 1489.6,377.54 1429.7,371.07"];
	135	[height=0.5,
		pos="1490,1165.1",
		width=0.75];
	132 -- 135	[pos="1562.8,1129.8 1547.5,1137.2 1527.2,1147.1 1511.9,1154.5"];
	133	[height=0.5,
		pos="1526.1,1209.1",
		width=0.75];
	132 -- 133	[pos="1573.8,1136.1 1563.2,1152.3 1547.4,1176.5 1536.9,1192.6"];
	14	[height=0.5,
		pos="1381.7,459.95",
		width=0.75];
	13 -- 14	[pos="1580.7,433.59 1537.2,439.35 1451.9,450.65 1408.5,456.41"];
	144	[height=0.5,
		pos="1581.1,546.7",
		width=0.75];
	13 -- 144	[pos="1603.4,448.02 1598.4,470 1590.1,506.99 1585.1,528.9"];
	138	[height=0.5,
		pos="1536,1049.8",
		width=0.75];
	135 -- 138	[pos="1497,1147.6 1505.7,1125.9 1520.3,1089.2 1529,1067.5"];
	136	[height=0.5,
		pos="1010.8,1264.1",
		width=0.75];
	135 -- 136	[pos="1463.9,1170.5 1380.3,1187.8 1119.8,1241.6 1036.6,1258.8"];
	15	[height=0.5,
		pos="1656.5,534.39",
		width=0.75];
	14 -- 15	[pos="1407.1,466.82 1459.4,481 1578.9,513.37 1631.2,527.54"];
	222	[height=0.5,
		pos="1040.6,500.82",
		width=0.75];
	14 -- 222	[pos="1354.9,463.16 1291.2,470.8 1130.9,490 1067.3,497.63"];
	140	[height=0.5,
		pos="1571.4,928.78",
		width=0.75];
	138 -- 140	[pos="1541.3,1032 1548,1009.1 1559.5,969.64 1566.2,946.71"];
	139	[height=0.5,
		pos="1474,1034.7",
		width=0.75];
	138 -- 139	[pos="1510.5,1043.6 1506.8,1042.7 1503.1,1041.8 1499.5,1040.9"];
	16	[height=0.5,
		pos="1439.1,537.83",
		width=0.75];
	15 -- 16	[pos="1629.4,534.82 1587.6,535.48 1507.9,536.74 1466.1,537.4"];
	305	[height=0.5,
		pos="1788.1,576.41",
		width=0.75];
	15 -- 305	[pos="1680.9,542.2 1704.4,549.7 1739.8,560.98 1763.4,568.51"];
	143	[height=0.5,
		pos="1735.3,753.3",
		width=0.75];
	140 -- 143	[pos="1586,913.21 1617.2,879.82 1690.1,801.71 1721.1,768.58"];
	141	[height=0.5,
		pos="1433.7,855.4",
		width=0.75];
	140 -- 141	[pos="1550.2,917.47 1524.4,903.73 1481.1,880.65 1455.2,866.84"];
	17	[height=0.5,
		pos="1383.5,755.43",
		width=0.75];
	16 -- 17	[pos="1434.5,555.64 1424.1,596.54 1398.5,696.84 1388,737.68"];
	145	[height=0.5,
		pos="1315,513.94",
		width=0.75];
	16 -- 145	[pos="1413,532.82 1391.9,528.75 1362.1,523.02 1341,518.95"];
	149	[height=0.5,
		pos="1763.1,865.81",
		width=0.75];
	143 -- 149	[pos="1739.7,771.12 1744.9,792.07 1753.4,826.62 1758.6,847.69"];
	143 -- 144	[pos="1723.2,737.09 1694.4,698.46 1621.9,601.38 1593.2,562.83"];
	18	[height=0.5,
		pos="1351,898.61",
		width=0.75];
	17 -- 18	[pos="1379.4,773.28 1373.2,800.71 1361.3,852.97 1355.1,880.54"];
	17 -- 108	[pos="1394.1,738.69 1409.9,713.72 1439.4,666.97 1455.2,642.03"];
	152	[height=0.5,
		pos="1724.6,980.68",
		width=0.75];
	149 -- 152	[pos="1757.1,883.76 1749.8,905.34 1737.8,941.33 1730.6,962.86"];
	150	[height=0.5,
		pos="1634.5,968.49",
		width=0.75];
	149 -- 150	[pos="1745.7,879.66 1721.2,899.25 1676.6,934.87 1651.9,954.53"];
	19	[height=0.5,
		pos="1397.4,1092",
		width=0.75];
	18 -- 19	[pos="1355.3,916.46 1364.1,953.31 1384.3,1037.4 1393.1,1074.2"];
	232	[height=0.5,
		pos="1109.8,809.07",
		width=0.75];
	18 -- 232	[pos="1327,889.7 1280.7,872.53 1179.9,835.08 1133.7,817.94"];
	155	[height=0.5,
		pos="1981.3,990.5",
		width=0.75];
	152 -- 155	[pos="1751.6,981.71 1800.9,983.6 1905,987.58 1954.3,989.47"];
	153	[height=0.5,
		pos="1598.1,1022.3",
		width=0.75];
	152 -- 153	[pos="1700.2,988.71 1677.8,996.08 1644.8,1007 1622.4,1014.3"];
	20	[height=0.5,
		pos="1271.5,1298.4",
		width=0.75];
	19 -- 20	[pos="1387.1,1108.9 1363.4,1147.7 1305.4,1242.8 1281.7,1281.5"];
	330	[height=0.5,
		pos="1498.6,1306.3",
		width=0.75];
	19 -- 330	[pos="1405.5,1109.2 1424.4,1149.3 1471.4,1248.9 1490.4,1289.1"];
	158	[height=0.5,
		pos="1741.1,1136.9",
		width=0.75];
	155 -- 158	[pos="1961.2,1002.7 1916,1030.3 1806.6,1097 1761.3,1124.6"];
	155 -- 156	[pos="1975.3,972.82 1964.6,941.11 1942.2,874.9 1931.4,843.09"];
	21	[height=0.5,
		pos="1013.1,1321.8",
		width=0.75];
	20 -- 21	[pos="1244.3,1300.8 1194.6,1305.4 1089.4,1314.9 1039.9,1319.4"];
	430	[height=0.5,
		pos="1237,1367.8",
		width=0.75];
	20 -- 430	[pos="1262.9,1315.5 1257.7,1326.1 1250.9,1339.7 1245.6,1350.4"];
	161	[height=0.5,
		pos="1727.7,1331.7",
		width=0.75];
	158 -- 161	[pos="1739.9,1155.3 1737.3,1192.5 1731.5,1276.5 1729,1313.6"];
	159	[height=0.5,
		pos="1634.1,906.78",
		width=0.75];
	158 -- 159	[pos="1733.1,1119.6 1713.3,1077 1662.2,967.14 1642.2,924.28"];
	22	[height=0.5,
		pos="930.73,1243.2",
		width=0.75];
	21 -- 22	[pos="997.6,1307 982.97,1293.1 961.14,1272.2 946.43,1258.2"];
	431	[height=0.5,
		pos="1064.7,1366",
		width=0.75];
	21 -- 431	[pos="1029.7,1336 1035.5,1341 1042,1346.5 1047.8,1351.5"];
	164	[height=0.5,
		pos="1968.2,1368.5",
		width=0.75];
	161 -- 164	[pos="1754.4,1335.8 1800.7,1342.9 1895.6,1357.4 1941.8,1364.4"];
	162	[height=0.5,
		pos="1523.3,1445.9",
		width=0.75];
	161 -- 162	[pos="1707,1343.3 1667.8,1365.2 1583.3,1412.4 1544.1,1434.3"];
	23	[height=0.5,
		pos="726.16,1334.1",
		width=0.75];
	22 -- 23	[pos="908.06,1253.3 868.74,1270.7 788.33,1306.5 748.94,1324"];
	22 -- 101	[pos="934.06,1225.3 945.47,1164 982.99,962.44 994.44,900.95"];
	166	[height=0.5,
		pos="1910.5,1421.2",
		width=0.75];
	164 -- 166	[pos="1952.1,1383.2 1944.1,1390.5 1934.5,1399.3 1926.5,1406.6"];
	165	[height=0.5,
		pos="1905.3,1366.5",
		width=0.75];
	164 -- 165	[pos="1941.2,1367.6 1938.2,1367.5 1935.2,1367.4 1932.3,1367.4"];
	24	[height=0.5,
		pos="558.92,1250",
		width=0.75];
	23 -- 24	[pos="704.3,1323.1 672.16,1306.9 612.51,1276.9 580.52,1260.9"];
	358	[height=0.5,
		pos="780.37,1468.6",
		width=0.75];
	23 -- 358	[pos="733.25,1351.7 743.64,1377.5 762.89,1425.2 773.28,1451"];
	168	[height=0.5,
		pos="1691.6,1385.1",
		width=0.75];
	166 -- 168	[pos="1884.1,1416.8 1842,1409.9 1760.2,1396.4 1718.1,1389.5"];
	167	[height=0.5,
		pos="1855.1,1465.3",
		width=0.75];
	166 -- 167	[pos="1892.9,1435.2 1886.5,1440.3 1879.2,1446.2 1872.7,1451.3"];
	25	[height=0.5,
		pos="699.54,1502.9",
		width=0.75];
	24 -- 25	[pos="568.36,1267 593.98,1313.1 664.57,1440 690.14,1486"];
	251	[height=0.5,
		pos="338.48,1088.2",
		width=0.75];
	24 -- 251	[pos="540.5,1236.5 498.91,1205.9 398.09,1131.9 356.69,1101.5"];
	170	[height=0.5,
		pos="1552.7,1350.5",
		width=0.75];
	168 -- 170	[pos="1666.1,1378.7 1641,1372.5 1603,1363 1578,1356.8"];
	169	[height=0.5,
		pos="1664.7,1429.1",
		width=0.75];
	168 -- 169	[pos="1681.3,1402 1679.2,1405.4 1677,1409 1675,1412.4"];
	26	[height=0.5,
		pos="927.31,1532.8",
		width=0.75];
	25 -- 26	[pos="726.12,1506.4 769.89,1512.1 856.67,1523.5 900.56,1529.3"];
	435	[height=0.5,
		pos="848.13,1497.9",
		width=0.75];
	25 -- 435	[pos="726.8,1502 753.61,1501.1 794.3,1499.7 821.05,1498.8"];
	172	[height=0.5,
		pos="1414.5,1256.8",
		width=0.75];
	170 -- 172	[pos="1533.4,1337.5 1507,1319.6 1459.8,1287.6 1433.5,1269.7"];
	171	[height=0.5,
		pos="1522.3,1397.8",
		width=0.75];
	170 -- 171	[pos="1542,1367.1 1539.1,1371.6 1535.9,1376.6 1533,1381.2"];
	27	[height=0.5,
		pos="1070.1,1507.2",
		width=0.75];
	26 -- 27	[pos="953.5,1528.1 979.11,1523.5 1017.9,1516.6 1043.6,1511.9"];
	436	[height=0.5,
		pos="997.37,1538.2",
		width=0.75];
	26 -- 436	[pos="954.2,1534.9 959.44,1535.3 964.95,1535.7 970.21,1536.1"];
	175	[height=0.5,
		pos="1349.9,1032.4",
		width=0.75];
	172 -- 175	[pos="1409.3,1238.8 1397.2,1196.7 1367.1,1092.1 1355,1050.2"];
	173	[height=0.5,
		pos="1195.7,1321.8",
		width=0.75];
	172 -- 173	[pos="1389.8,1264.2 1347.8,1276.6 1262.8,1301.9 1220.6,1314.4"];
	28	[height=0.5,
		pos="1218.2,1475.1",
		width=0.75];
	27 -- 28	[pos="1095.9,1501.6 1123,1495.7 1165.4,1486.5 1192.5,1480.6"];
	342	[height=0.5,
		pos="1093.1,1462.9",
		width=0.75];
	27 -- 342	[pos="1079.1,1489.9 1080.7,1486.7 1082.5,1483.4 1084.1,1480.2"];
	180	[height=0.5,
		pos="1245.9,813.71",
		width=0.75];
	175 -- 180	[pos="1341.7,1015.3 1322.3,974.48 1273.7,872.11 1254.2,831.1"];
	176	[height=0.5,
		pos="1247.3,866.74",
		width=0.75];
	175 -- 176	[pos="1339.5,1015.6 1319.8,983.87 1277.4,915.37 1257.7,883.58"];
	29	[height=0.5,
		pos="1061.4,1418",
		width=0.75];
	28 -- 29	[pos="1194.4,1466.4 1164.9,1455.6 1114.8,1437.4 1085.2,1426.7"];
	28 -- 162	[pos="1245,1472.5 1302.8,1467 1438.3,1454 1496.2,1448.5"];
	184	[height=0.5,
		pos="1245.1,508.19",
		width=0.75];
	180 -- 184	[pos="1245.8,795.52 1245.7,741.18 1245.3,580.51 1245.1,526.29"];
	181	[height=0.5,
		pos="1053.6,1101.4",
		width=0.75];
	180 -- 181	[pos="1234.7,830.42 1200.7,881.27 1098.8,1033.7 1064.8,1084.6"];
	30	[height=0.5,
		pos="889.05,1334.4",
		width=0.75];
	29 -- 30	[pos="1039.6,1407.4 1006.5,1391.4 944.1,1361.1 910.98,1345"];
	439	[height=0.5,
		pos="1123.5,1418.8",
		width=0.75];
	29 -- 439	[pos="1088.5,1418.4 1091.1,1418.4 1093.7,1418.4 1096.3,1418.5"];
	188	[height=0.5,
		pos="1203.9,198.68",
		width=0.75];
	184 -- 188	[pos="1242.7,490.21 1235.4,435.51 1213.6,271.48 1206.3,216.71"];
	184 -- 185	[pos="1261.3,493.73 1291.5,466.9 1356,409.68 1386.3,382.75"];
	31	[height=0.5,
		pos="991.58,1154.9",
		width=0.75];
	30 -- 31	[pos="898.7,1317.5 918.24,1283.3 962.3,1206.2 981.88,1171.9"];
	284	[height=0.5,
		pos="825.02,1176",
		width=0.75];
	30 -- 284	[pos="881.95,1316.8 869.64,1286.4 844.48,1224.1 832.15,1193.6"];
	191	[height=0.5,
		pos="1025.2,111.89",
		width=0.75];
	188 -- 191	[pos="1182,188.04 1147.7,171.38 1081.7,139.33 1047.3,122.62"];
	188 -- 189	[pos="1231,196.64 1256.7,194.71 1295.2,191.81 1320.8,189.87"];
	32	[height=0.5,
		pos="935.74,967.43",
		width=0.75];
	31 -- 32	[pos="986.22,1136.9 975.55,1101.1 951.74,1021.1 941.08,985.36"];
	182	[height=0.5,
		pos="990.99,1108.5",
		width=0.75];
	31 -- 182	[pos="991.35,1136.8 991.31,1133.5 991.26,1130 991.22,1126.6"];
	194	[height=0.5,
		pos="873.37,18",
		width=0.75];
	191 -- 194	[pos="1005.4,99.619 976.26,81.624 922.33,48.274 893.23,30.278"];
	192	[height=0.5,
		pos="759.44,194.09",
		width=0.75];
	191 -- 192	[pos="1000.7,119.48 950.18,135.1 835.07,170.7 784.29,186.41"];
	33	[height=0.5,
		pos="695.52,835.9",
		width=0.75];
	32 -- 33	[pos="914.84,955.99 869.41,931.11 762.08,872.34 716.54,847.41"];
	32 -- 105	[pos="944.66,950.23 960.72,919.29 994.28,854.61 1010.3,823.76"];
	198	[height=0.5,
		pos="906.32,62.032",
		width=0.75];
	194 -- 198	[pos="885.45,34.146 888.32,37.975 891.37,42.059 894.24,45.888"];
	195	[height=0.5,
		pos="686.24,187.15",
		width=0.75];
	194 -- 195	[pos="857.09,32.715 821.61,64.785 737.67,140.66 702.35,172.59"];
	34	[height=0.5,
		pos="521.86,938.88",
		width=0.75];
	33 -- 34	[pos="675.26,847.91 641.89,867.7 575.72,906.94 542.26,926.78"];
	383	[height=0.5,
		pos="536.24,706.26",
		width=0.75];
	33 -- 383	[pos="678.17,821.78 647.53,796.84 584.19,745.29 553.57,720.36"];
	201	[height=0.5,
		pos="737.79,238.12",
		width=0.75];
	198 -- 201	[pos="891.66,77.351 859.79,110.65 784.49,189.32 752.54,222.71"];
	199	[height=0.5,
		pos="1027.9,268.34",
		width=0.75];
	198 -- 199	[pos="916.27,78.915 939.11,117.7 995.13,212.79 1017.9,251.51"];
	35	[height=0.5,
		pos="671.44,961.55",
		width=0.75];
	34 -- 35	[pos="548.26,942.88 575.52,947.01 617.81,953.42 645.06,957.55"];
	444	[height=0.5,
		pos="523.4,988.23",
		width=0.75];
	34 -- 444	[pos="522.42,956.98 522.56,961.27 522.7,965.85 522.83,970.14"];
	204	[height=0.5,
		pos="572.26,445.62",
		width=0.75];
	201 -- 204	[pos="725.07,254.05 694.26,292.68 615.87,390.95 585.01,429.63"];
	202	[height=0.5,
		pos="700.34,479.71",
		width=0.75];
	201 -- 202	[pos="734.97,256.27 728.02,301.16 710.07,416.92 703.13,461.67"];
	36	[height=0.5,
		pos="397.81,1006.9",
		width=0.75];
	35 -- 36	[pos="645.21,965.89 593.04,974.53 476.8,993.78 424.37,1002.5"];
	177	[height=0.5,
		pos="873.68,1019.7",
		width=0.75];
	35 -- 177	[pos="696.24,968.68 735.06,979.85 809.74,1001.3 848.68,1012.5"];
	206	[height=0.5,
		pos="488.62,621.27",
		width=0.75];
	204 -- 206	[pos="564.09,462.78 548.1,496.36 512.84,570.4 496.82,604.04"];
	205	[height=0.5,
		pos="667.24,533.64",
		width=0.75];
	204 -- 205	[pos="588.37,460.55 605.94,476.84 633.89,502.73 651.37,518.93"];
	37	[height=0.5,
		pos="348.29,1225.7",
		width=0.75];
	36 -- 37	[pos="393.76,1024.8 384.45,1065.9 361.63,1166.8 352.33,1207.9"];
	207	[height=0.5,
		pos="366.43,862.93",
		width=0.75];
	36 -- 207	[pos="393.9,988.92 387.89,961.34 376.43,908.81 370.39,881.1"];
	212	[height=0.5,
		pos="688.88,407.07",
		width=0.75];
	206 -- 212	[pos="503.02,605.86 539.88,566.44 637.33,462.21 674.34,422.63"];
	206 -- 207	[pos="479.83,638.65 457.29,683.24 397.6,801.29 375.14,845.71"];
	38	[height=0.5,
		pos="416.63,1347.7",
		width=0.75];
	37 -- 38	[pos="357.8,1242.7 370.78,1265.8 393.93,1307.2 406.99,1330.5"];
	447	[height=0.5,
		pos="341.14,1330.9",
		width=0.75];
	37 -- 447	[pos="347.05,1244.1 345.74,1263.4 343.68,1293.6 342.37,1312.8"];
	215	[height=0.5,
		pos="510.52,378.54",
		width=0.75];
	212 -- 215	[pos="662.57,402.86 628.84,397.47 570.72,388.17 536.95,382.77"];
	212 -- 213	[pos="713.98,400.36 776.46,383.66 938.48,340.34 1001.1,323.58"];
	39	[height=0.5,
		pos="588.7,1326.3",
		width=0.75];
	38 -- 39	[pos="443.52,1344.3 475.84,1340.3 529.76,1333.6 562,1329.6"];
	362	[height=0.5,
		pos="350.52,1414",
		width=0.75];
	38 -- 362	[pos="401.63,1362.7 390.96,1373.4 376.68,1387.7 365.92,1398.5"];
	218	[height=0.5,
		pos="618.39,489.63",
		width=0.75];
	215 -- 218	[pos="525.52,393.99 546.13,415.21 582.98,453.16 603.52,474.32"];
	216	[height=0.5,
		pos="504.03,422.57",
		width=0.75];
	215 -- 216	[pos="507.84,396.7 507.47,399.26 507.08,401.89 506.7,404.45"];
	40	[height=0.5,
		pos="798.82,1246",
		width=0.75];
	39 -- 40	[pos="612.4,1317.2 652.86,1301.8 734.81,1270.5 775.21,1255"];
	371	[height=0.5,
		pos="664.1,1367.9",
		width=0.75];
	39 -- 371	[pos="609.71,1337.9 620.16,1343.6 632.77,1350.6 643.21,1356.4"];
	221	[height=0.5,
		pos="852.32,391.6",
		width=0.75];
	218 -- 221	[pos="641.68,479.88 686.52,461.08 784.37,420.08 829.13,401.32"];
	219	[height=0.5,
		pos="424.29,588.79",
		width=0.75];
	218 -- 219	[pos="596.88,500.63 559.57,519.69 483.28,558.66 445.9,577.75"];
	41	[height=0.5,
		pos="640.74,1149.9",
		width=0.75];
	40 -- 41	[pos="778.8,1233.9 748.56,1215.5 691.54,1180.8 661.1,1162.3"];
	40 -- 136	[pos="825.66,1248.3 866.32,1251.8 943.08,1258.4 983.81,1261.8"];
	227	[height=0.5,
		pos="750.92,435.55",
		width=0.75];
	221 -- 227	[pos="829.57,401.46 812.87,408.7 790.28,418.49 773.6,425.72"];
	221 -- 222	[pos="872.84,403.49 909.06,424.5 983.95,467.94 1020.2,488.94"];
	42	[height=0.5,
		pos="604.25,938.54",
		width=0.75];
	41 -- 42	[pos="637.63,1131.9 630.74,1092 614.24,996.41 607.36,956.51"];
	451	[height=0.5,
		pos="639,1105.9",
		width=0.75];
	41 -- 451	[pos="640.03,1131.8 639.92,1129.2 639.82,1126.6 639.72,1124"];
	231	[height=0.5,
		pos="956.52,605.88",
		width=0.75];
	227 -- 231	[pos="768.1,449.78 806.89,481.92 900.92,559.82 939.54,591.81"];
	228	[height=0.5,
		pos="675.84,324.64",
		width=0.75];
	227 -- 228	[pos="739.52,418.71 725.32,397.74 701.23,362.15 687.1,341.28"];
	43	[height=0.5,
		pos="647.75,790.86",
		width=0.75];
	42 -- 43	[pos="609.5,920.72 617.86,892.34 634.11,837.16 642.49,808.74"];
	208	[height=0.5,
		pos="491.02,870.83",
		width=0.75];
	42 -- 208	[pos="584.01,926.43 563.53,914.18 532.03,895.35 511.47,883.06"];
	236	[height=0.5,
		pos="825.61,608.38",
		width=0.75];
	231 -- 236	[pos="929.39,606.4 906.93,606.83 875.16,607.43 852.7,607.86"];
	231 -- 232	[pos="968.8,622.16 997.5,660.21 1068.7,754.58 1097.5,792.7"];
	44	[height=0.5,
		pos="403.86,748.83",
		width=0.75];
	43 -- 44	[pos="621.19,786.29 574.15,778.18 476.77,761.4 430.02,753.34"];
	395	[height=0.5,
		pos="890.52,613.6",
		width=0.75];
	43 -- 395	[pos="666,777.54 710.99,744.69 826.85,660.09 872.06,627.08"];
	242	[height=0.5,
		pos="504.55,563.33",
		width=0.75];
	236 -- 242	[pos="799.06,604.66 738.67,596.18 591.55,575.54 531.12,567.06"];
	237	[height=0.5,
		pos="1095.6,658.19",
		width=0.75];
	236 -- 237	[pos="851.99,613.25 903.75,622.79 1018,643.87 1069.5,653.37"];
	45	[height=0.5,
		pos="404.43,815.8",
		width=0.75];
	44 -- 45	[pos="404.01,767.13 404.09,776.58 404.19,788.07 404.27,797.52"];
	44 -- 219	[pos="406.16,730.78 410.09,700.05 418.02,637.88 421.97,607.02"];
	244	[height=0.5,
		pos="270.62,552.84",
		width=0.75];
	242 -- 244	[pos="477.25,562.1 432.18,560.08 342.7,556.07 297.74,554.06"];
	243	[height=0.5,
		pos="322.7,504.31",
		width=0.75];
	242 -- 243	[pos="480.02,555.37 445.22,544.07 381.87,523.52 347.12,512.24"];
	46	[height=0.5,
		pos="426.61,632.83",
		width=0.75];
	45 -- 46	[pos="406.63,797.58 410.89,762.51 420.16,685.98 424.41,650.97"];
	346	[height=0.5,
		pos="459.84,978.27",
		width=0.75];
	45 -- 346	[pos="410.46,833.49 421.12,864.74 443.16,929.35 453.81,960.59"];
	247	[height=0.5,
		pos="206.72,665.36",
		width=0.75];
	244 -- 247	[pos="260.91,569.93 248.83,591.2 228.33,627.3 216.3,648.48"];
	245	[height=0.5,
		pos="447.26,501.52",
		width=0.75];
	244 -- 245	[pos="295.55,545.6 329.22,535.82 388.85,518.49 422.45,508.73"];
	47	[height=0.5,
		pos="325.57,460.28",
		width=0.75];
	46 -- 47	[pos="416.74,615.97 397.42,582.99 354.83,510.25 335.48,477.2"];
	238	[height=0.5,
		pos="718.16,732.96",
		width=0.75];
	46 -- 238	[pos="450.96,641.2 505.98,660.09 639.32,705.88 694.08,724.69"];
	250	[height=0.5,
		pos="151.61,860.31",
		width=0.75];
	247 -- 250	[pos="201.63,683.35 191.13,720.49 167.17,805.26 156.68,842.36"];
	248	[height=0.5,
		pos="135.79,513.7",
		width=0.75];
	247 -- 248	[pos="198.58,647.96 184.9,618.71 157.45,560.01 143.83,530.9"];
	48	[height=0.5,
		pos="377.64,342.32",
		width=0.75];
	47 -- 48	[pos="333.25,442.87 343.1,420.57 360.07,382.13 369.93,359.79"];
	384	[height=0.5,
		pos="384.73,544.75",
		width=0.75];
	47 -- 384	[pos="337.26,476.97 347.7,491.87 362.9,513.58 373.27,528.38"];
	253	[height=0.5,
		pos="56.572,776.58",
		width=0.75];
	250 -- 253	[pos="135.05,845.73 117.61,830.36 90.307,806.3 72.936,791"];
	250 -- 251	[pos="164.75,876.34 199.06,918.17 291.06,1030.4 325.35,1072.2"];
	49	[height=0.5,
		pos="556.35,227.7",
		width=0.75];
	48 -- 49	[pos="397.11,329.83 431.39,307.84 502.18,262.45 536.64,240.35"];
	48 -- 216	[pos="397.39,354.86 421.13,369.93 460.74,395.08 484.42,410.12"];
	255	[height=0.5,
		pos="173.32,709.43",
		width=0.75];
	253 -- 255	[pos="77.175,764.73 98.383,752.53 131.25,733.62 152.53,721.39"];
	254	[height=0.5,
		pos="121.63,753.5",
		width=0.75];
	253 -- 254	[pos="80.426,768.12 86.083,766.11 92.117,763.97 97.774,761.96"];
	50	[height=0.5,
		pos="441.31,266.16",
		width=0.75];
	49 -- 50	[pos="531.95,235.86 512.43,242.38 485.18,251.49 465.67,258.01"];
	49 -- 192	[pos="582.9,223.31 621.93,216.85 694.36,204.87 733.21,198.44"];
	258	[height=0.5,
		pos="89.137,857.44",
		width=0.75];
	255 -- 258	[pos="163.66,726.41 147.51,754.81 115.19,811.64 98.94,840.21"];
	256	[height=0.5,
		pos="341.72,752.94",
		width=0.75];
	255 -- 256	[pos="198.53,715.94 230.28,724.14 284.51,738.16 316.34,746.38"];
	51	[height=0.5,
		pos="315.91,298.19",
		width=0.75];
	50 -- 51	[pos="415.93,272.64 394.18,278.2 363,286.16 341.25,291.72"];
	460	[height=0.5,
		pos="341.5,251.08",
		width=0.75];
	50 -- 460	[pos="414.82,262.16 400.38,259.98 382.56,257.28 368.11,255.1"];
	260	[height=0.5,
		pos="142.85,1014.6",
		width=0.75];
	258 -- 260	[pos="95.193,875.16 105.51,905.34 126.37,966.38 136.73,996.68"];
	259	[height=0.5,
		pos="127.98,906.27",
		width=0.75];
	258 -- 259	[pos="101.86,873.43 106.1,878.77 110.84,884.72 115.1,890.08"];
	52	[height=0.5,
		pos="326.32,386.35",
		width=0.75];
	51 -- 52	[pos="318.07,316.46 319.86,331.59 322.38,352.99 324.17,368.11"];
	461	[height=0.5,
		pos="253.53,296.5",
		width=0.75];
	51 -- 461	[pos="288.73,297.46 286.11,297.38 283.44,297.31 280.82,297.24"];
	263	[height=0.5,
		pos="222.07,1156.5",
		width=0.75];
	260 -- 263	[pos="152.4,1031.7 167.63,1059 197.23,1112 212.48,1139.3"];
	261	[height=0.5,
		pos="211.66,991.29",
		width=0.75];
	260 -- 261	[pos="167.3,1006.3 173.79,1004.1 180.8,1001.7 187.28,999.54"];
	53	[height=0.5,
		pos="551.7,334.54",
		width=0.75];
	52 -- 53	[pos="352.18,380.41 395.65,370.42 482.87,350.36 526.15,340.41"];
	52 -- 248	[pos="307,399.27 270.39,423.74 191.31,476.6 154.87,500.95"];
	265	[height=0.5,
		pos="386.59,1176.5",
		width=0.75];
	263 -- 265	[pos="248.87,1159.7 279.46,1163.5 329.22,1169.5 359.81,1173.2"];
	264	[height=0.5,
		pos="285.6,1176.6",
		width=0.75];
	263 -- 264	[pos="246.81,1164.3 251.41,1165.8 256.22,1167.3 260.82,1168.8"];
	54	[height=0.5,
		pos="887.16,437.82",
		width=0.75];
	53 -- 54	[pos="576.37,342.13 638.4,361.23 800.38,411.1 862.46,430.21"];
	463	[height=0.5,
		pos="448.5,363.32",
		width=0.75];
	53 -- 463	[pos="526.72,341.51 510.61,346 489.74,351.82 473.61,356.32"];
	267	[height=0.5,
		pos="576.99,1139.9",
		width=0.75];
	265 -- 267	[pos="412.67,1171.5 449.03,1164.5 514.58,1151.9 550.93,1145"];
	266	[height=0.5,
		pos="448.62,1165.2",
		width=0.75];
	265 -- 266	[pos="412.9,1171.7 416.07,1171.1 419.31,1170.5 422.47,1170"];
	55	[height=0.5,
		pos="675.77,279.07",
		width=0.75];
	54 -- 55	[pos="869.14,424.28 829.2,394.29 733.64,322.53 693.75,292.57"];
	54 -- 125	[pos="904.45,451.91 955.01,493.11 1102.2,613.07 1152.9,654.41"];
	271	[height=0.5,
		pos="766.77,1052.9",
		width=0.75];
	267 -- 271	[pos="599.51,1129.6 636.03,1112.9 707.78,1079.9 744.28,1063.2"];
	268	[height=0.5,
		pos="760.82,1153.2",
		width=0.75];
	267 -- 268	[pos="604.12,1141.9 638.98,1144.4 699.12,1148.7 733.89,1151.2"];
	56	[height=0.5,
		pos="510.18,466.59",
		width=0.75];
	55 -- 56	[pos="661.94,294.73 630.77,330.03 555.33,415.45 524.09,450.83"];
	55 -- 195	[pos="677.84,260.91 679.68,244.79 682.34,221.37 684.18,205.27"];
	274	[height=0.5,
		pos="647.49,1017.8",
		width=0.75];
	271 -- 274	[pos="742.05,1045.6 721.72,1039.6 693.02,1031.2 672.58,1025.2"];
	272	[height=0.5,
		pos="1004.4,1020.5",
		width=0.75];
	271 -- 272	[pos="793.57,1049.2 839.34,1043 932.03,1030.3 977.74,1024.1"];
	57	[height=0.5,
		pos="263.44,457.5",
		width=0.75];
	56 -- 57	[pos="482.83,465.58 435.28,463.83 337.91,460.24 290.54,458.49"];
	102	[height=0.5,
		pos="905.84,561.85",
		width=0.75];
	56 -- 102	[pos="535.84,472.76 607.42,490 808.74,538.47 880.24,555.68"];
	277	[height=0.5,
		pos="520.07,1080.3",
		width=0.75];
	274 -- 277	[pos="625.59,1028.6 602.25,1040 565.51,1058 542.12,1069.5"];
	275	[height=0.5,
		pos="801.17,887.69",
		width=0.75];
	274 -- 275	[pos="664.23,1003.7 693.79,978.62 754.91,926.87 784.45,901.85"];
	58	[height=0.5,
		pos="57.371,548.16",
		width=0.75];
	57 -- 58	[pos="240.6,467.54 200.89,485.02 119.57,520.79 80,538.2"];
	467	[height=0.5,
		pos="264.3,349.05",
		width=0.75];
	57 -- 467	[pos="263.59,439.1 263.75,419.04 264,387.13 264.16,367.17"];
	280	[height=0.5,
		pos="701.04,1105.9",
		width=0.75];
	277 -- 280	[pos="546.77,1084.1 581.09,1088.9 640.3,1097.3 674.52,1102.2"];
	278	[height=0.5,
		pos="349.63,1132.5",
		width=0.75];
	277 -- 278	[pos="495.29,1087.9 462.97,1097.8 406.77,1115 374.44,1124.9"];
	59	[height=0.5,
		pos="77.526,642.61",
		width=0.75];
	58 -- 59	[pos="61.257,566.37 64.849,583.2 70.154,608.06 73.72,624.77"];
	468	[height=0.5,
		pos="69.346,501.96",
		width=0.75];
	58 -- 468	[pos="62.035,530.17 62.902,526.82 63.808,523.33 64.675,519.98"];
	283	[height=0.5,
		pos="897.7,1063.8",
		width=0.75];
	280 -- 283	[pos="726.75,1100.4 764.44,1092.3 834.29,1077.4 871.98,1069.3"];
	281	[height=0.5,
		pos="585.68,1203.3",
		width=0.75];
	280 -- 281	[pos="684.02,1120.3 662.21,1138.7 624.62,1170.4 602.77,1188.9"];
	60	[height=0.5,
		pos="155.09,797.51",
		width=0.75];
	59 -- 60	[pos="86.123,659.77 101.03,689.55 131.52,750.43 146.45,780.26"];
	469	[height=0.5,
		pos="133.34,597.9",
		width=0.75];
	59 -- 469	[pos="94.878,628.71 101.53,623.38 109.13,617.29 115.8,611.95"];
	288	[height=0.5,
		pos="1173.5,788.17",
		width=0.75];
	283 -- 288	[pos="912.92,1048.6 961.14,1000.4 1110.2,851.46 1158.3,803.33"];
	283 -- 284	[pos="886.97,1080.4 873.23,1101.6 849.55,1138.2 835.78,1159.4"];
	61	[height=0.5,
		pos="27,842.17",
		width=0.75];
	60 -- 61	[pos="131,805.91 108.1,813.89 73.849,825.84 50.984,833.81"];
	470	[height=0.5,
		pos="217.3,788.9",
		width=0.75];
	60 -- 470	[pos="181.83,793.81 184.73,793.41 187.68,793 190.58,792.6"];
	291	[height=0.5,
		pos="1382.4,705.69",
		width=0.75];
	288 -- 291	[pos="1197,778.87 1237.3,762.99 1318.8,730.82 1358.9,714.96"];
	289	[height=0.5,
		pos="1113.7,561.86",
		width=0.75];
	288 -- 289	[pos="1168.8,770.41 1157.6,728.21 1129.6,622.28 1118.4,579.85"];
	62	[height=0.5,
		pos="142.55,1085",
		width=0.75];
	61 -- 62	[pos="35.31,859.64 56.629,904.44 113.07,1023.1 134.31,1067.7"];
	471	[height=0.5,
		pos="42.37,902.5",
		width=0.75];
	61 -- 471	[pos="31.529,859.95 33.512,867.73 35.835,876.85 37.821,884.64"];
	294	[height=0.5,
		pos="1743.4,634.42",
		width=0.75];
	291 -- 294	[pos="1408.4,700.56 1474.8,687.45 1650.5,652.76 1717.2,639.59"];
	291 -- 292	[pos="1396.9,690.44 1419.7,666.58 1463.5,620.66 1486.4,596.72"];
	63	[height=0.5,
		pos="268.73,1078.4",
		width=0.75];
	62 -- 63	[pos="169.61,1083.6 190.9,1082.5 220.42,1080.9 241.7,1079.8"];
	363	[height=0.5,
		pos="308.28,1278",
		width=0.75];
	62 -- 363	[pos="156.11,1100.8 187.26,1137.1 263.65,1226 294.76,1262.2"];
	299	[height=0.5,
		pos="1867.5,671.48",
		width=0.75];
	294 -- 299	[pos="1768.2,641.83 1789.9,648.29 1821.1,657.62 1842.7,664.08"];
	295	[height=0.5,
		pos="1661.1,622.45",
		width=0.75];
	294 -- 295	[pos="1716.9,630.56 1707.5,629.2 1696.9,627.66 1687.5,626.29"];
	64	[height=0.5,
		pos="325.48,912.14",
		width=0.75];
	63 -- 64	[pos="274.8,1060.6 285.72,1028.6 308.56,961.71 319.45,929.81"];
	347	[height=0.5,
		pos="448.61,1118.3",
		width=0.75];
	63 -- 347	[pos="294.5,1084.1 328.7,1091.7 388.71,1105 422.89,1112.6"];
	301	[height=0.5,
		pos="1929.5,677.64",
		width=0.75];
	299 -- 301	[pos="1894.5,674.16 1897.2,674.43 1900,674.71 1902.8,674.98"];
	300	[height=0.5,
		pos="1805.5,666.53",
		width=0.75];
	299 -- 300	[pos="1840.5,669.32 1837.8,669.11 1835.2,668.9 1832.6,668.7"];
	65	[height=0.5,
		pos="213.65,903.26",
		width=0.75];
	64 -- 65	[pos="298.41,909.99 280.83,908.59 258.01,906.78 240.47,905.39"];
	239	[height=0.5,
		pos="563.64,832.3",
		width=0.75];
	64 -- 239	[pos="349.63,904.05 395.27,888.75 493.73,855.74 539.43,840.42"];
	304	[height=0.5,
		pos="1979,728.64",
		width=0.75];
	301 -- 304	[pos="1944.3,692.94 1950.6,699.4 1957.9,706.9 1964.1,713.35"];
	301 -- 302	[pos="1927.3,659.6 1924.9,640.05 1921.1,609.03 1918.7,589.44"];
	66	[height=0.5,
		pos="280.3,812.21",
		width=0.75];
	65 -- 66	[pos="225.57,886.98 237.63,870.51 256.17,845.18 268.26,828.65"];
	350	[height=0.5,
		pos="335.77,1044.2",
		width=0.75];
	65 -- 350	[pos="227.19,918.87 250.66,945.96 298.66,1001.3 322.17,1028.5"];
	307	[height=0.5,
		pos="1855.5,800.16",
		width=0.75];
	304 -- 307	[pos="1958.6,740.45 1935.7,753.71 1898.8,775.08 1876,788.34"];
	304 -- 305	[pos="1961.4,714.6 1925,685.6 1842,619.4 1805.7,590.43"];
	67	[height=0.5,
		pos="466.48,773.91",
		width=0.75];
	66 -- 67	[pos="306.19,806.88 341.66,799.59 405,786.56 440.52,779.25"];
	476	[height=0.5,
		pos="297.61,856.54",
		width=0.75];
	66 -- 476	[pos="287.14,829.73 288.31,832.73 289.53,835.85 290.7,838.86"];
	310	[height=0.5,
		pos="2007,915.87",
		width=0.75];
	307 -- 310	[pos="1873.5,813.89 1902.7,836.16 1959.9,879.9 1989.1,902.16"];
	308	[height=0.5,
		pos="1619.4,673.44",
		width=0.75];
	307 -- 308	[pos="1834.2,788.69 1789.2,764.57 1685.3,708.82 1640.5,684.79"];
	68	[height=0.5,
		pos="612.68,623.23",
		width=0.75];
	67 -- 68	[pos="481.31,758.63 509.33,729.75 569.77,667.46 597.82,638.55"];
	209	[height=0.5,
		pos="677.12,892.94",
		width=0.75];
	67 -- 209	[pos="487.45,785.76 527.83,808.57 615.93,858.36 656.24,881.14"];
	312	[height=0.5,
		pos="1944.8,945.77",
		width=0.75];
	310 -- 312	[pos="1984.9,926.49 1979.1,929.31 1972.7,932.36 1966.9,935.18"];
	311	[height=0.5,
		pos="2000.3,871.57",
		width=0.75];
	310 -- 311	[pos="2004.3,897.85 2003.9,895.17 2003.5,892.4 2003,889.71"];
	69	[height=0.5,
		pos="969.37,525.9",
		width=0.75];
	68 -- 69	[pos="637.76,616.39 703.25,598.52 878.86,550.6 944.32,532.74"];
	68 -- 245	[pos="594.34,609.74 562.46,586.29 497.18,538.26 465.42,514.89"];
	314	[height=0.5,
		pos="2015.5,1085.3",
		width=0.75];
	312 -- 314	[pos="1953.5,962.88 1967.1,989.67 1993.2,1041.2 2006.8,1068.1"];
	313	[height=0.5,
		pos="1820.7,958.06",
		width=0.75];
	312 -- 313	[pos="1917.9,948.44 1897.1,950.5 1868.4,953.34 1847.6,955.4"];
	70	[height=0.5,
		pos="1294.4,650.41",
		width=0.75];
	69 -- 70	[pos="993.01,534.95 1053.1,557.95 1210.9,618.42 1270.9,641.39"];
	196	[height=0.5,
		pos="810.86,347.49",
		width=0.75];
	69 -- 196	[pos="955.58,510.38 925.6,476.64 854.78,396.93 824.73,363.1"];
	316	[height=0.5,
		pos="1865.8,1181",
		width=0.75];
	314 -- 316	[pos="1995.9,1097.8 1967.2,1116.2 1914.1,1150.1 1885.4,1168.5"];
	315	[height=0.5,
		pos="1935.9,1111.6",
		width=0.75];
	314 -- 315	[pos="1991.2,1093.4 1981.4,1096.6 1970.1,1100.3 1960.3,1103.5"];
	71	[height=0.5,
		pos="1465.6,767.38",
		width=0.75];
	70 -- 71	[pos="1313.4,663.37 1346.3,685.86 1413.6,731.83 1446.6,754.36"];
	325	[height=0.5,
		pos="1527.7,740.1",
		width=0.75];
	70 -- 325	[pos="1318.1,659.5 1362.8,676.69 1459.2,713.78 1504,730.99"];
	319	[height=0.5,
		pos="1776.3,1025.5",
		width=0.75];
	316 -- 319	[pos="1856,1164 1838.8,1134.1 1803.2,1072.3 1786,1042.5"];
	317	[height=0.5,
		pos="1929.7,1322.2",
		width=0.75];
	316 -- 317	[pos="1873.6,1198.3 1885.9,1225.4 1909.5,1277.6 1921.8,1304.7"];
	72	[height=0.5,
		pos="1507,669.38",
		width=0.75];
	71 -- 72	[pos="1473,749.86 1480.6,732.02 1492.2,704.53 1499.7,686.75"];
	326	[height=0.5,
		pos="1509.3,943.48",
		width=0.75];
	71 -- 326	[pos="1470.1,785.24 1478.4,818.99 1496.5,891.79 1504.8,925.58"];
	323	[height=0.5,
		pos="1758.6,932.96",
		width=0.75];
	319 -- 323	[pos="1772.8,1007.3 1769.7,990.91 1765.1,967.12 1762,950.9"];
	320	[height=0.5,
		pos="1589.1,807.35",
		width=0.75];
	319 -- 320	[pos="1762.8,1009.9 1728.4,969.69 1637.3,863.52 1602.7,823.19"];
	73	[height=0.5,
		pos="1277.7,409.49",
		width=0.75];
	72 -- 73	[pos="1493,653.51 1452,607.01 1332.3,471.39 1291.5,425.15"];
	72 -- 159	[pos="1516.1,686.45 1539.5,730.15 1601.4,845.66 1624.9,889.54"];
	329	[height=0.5,
		pos="1655.7,1168",
		width=0.75];
	323 -- 329	[pos="1751,950.24 1732,993.72 1682.3,1107.2 1663.3,1150.7"];
	323 -- 324	[pos="1763.7,915.16 1775.2,874.29 1803.7,774.07 1815.2,733.25"];
	74	[height=0.5,
		pos="1235.6,282.35",
		width=0.75];
	73 -- 74	[pos="1271.9,391.81 1263.8,367.66 1249.6,324.58 1241.5,300.29"];
	73 -- 199	[pos="1256.8,397.7 1209.7,371.06 1095.4,306.51 1048.5,280"];
	332	[height=0.5,
		pos="1801.4,1181.3",
		width=0.75];
	329 -- 332	[pos="1682.8,1170.5 1708.9,1172.9 1748.4,1176.4 1774.5,1178.8"];
	329 -- 330	[pos="1639.2,1182.6 1609.1,1209.1 1545.6,1264.9 1515.3,1291.6"];
	75	[height=0.5,
		pos="992.42,222.58",
		width=0.75];
	74 -- 75	[pos="1210,276.07 1163.3,264.59 1064.7,240.35 1018,228.87"];
	186	[height=0.5,
		pos="1214.1,414.85",
		width=0.75];
	74 -- 186	[pos="1232.6,300.5 1228.5,325.87 1221.1,371.67 1217,396.93"];
	334	[height=0.5,
		pos="1736.8,1070.7",
		width=0.75];
	332 -- 334	[pos="1791.6,1164.5 1779.4,1143.7 1758.9,1108.5 1746.7,1087.6"];
	333	[height=0.5,
		pos="1752.9,1233.8",
		width=0.75];
	332 -- 333	[pos="1787.1,1196.7 1780.9,1203.5 1773.5,1211.5 1767.3,1218.3"];
	76	[height=0.5,
		pos="1091.7,285.83",
		width=0.75];
	75 -- 76	[pos="1012,235.08 1029.4,246.16 1054.7,262.28 1072.1,273.36"];
	229	[height=0.5,
		pos="889.36,318.58",
		width=0.75];
	75 -- 229	[pos="976.32,237.58 956.96,255.62 924.66,285.7 905.35,303.69"];
	337	[height=0.5,
		pos="1541.6,1253.1",
		width=0.75];
	334 -- 337	[pos="1720.8,1085.6 1684.1,1119.9 1594.2,1204 1557.5,1238.3"];
	334 -- 335	[pos="1746.2,1053.4 1768.8,1012.3 1825.5,908.96 1848,867.93"];
	77	[height=0.5,
		pos="1103.6,459.93",
		width=0.75];
	76 -- 77	[pos="1093,304.13 1095.3,337.66 1100.1,408.53 1102.4,441.87"];
	120	[height=0.5,
		pos="1185.5,370.82",
		width=0.75];
	76 -- 120	[pos="1108.1,300.63 1125.3,316.23 1152.2,340.65 1169.4,356.18"];
	339	[height=0.5,
		pos="1336.2,1386.4",
		width=0.75];
	337 -- 339	[pos="1521.9,1265.9 1482.6,1291.4 1395,1348.2 1355.8,1373.7"];
	338	[height=0.5,
		pos="1603.7,1269.6",
		width=0.75];
	337 -- 338	[pos="1566.8,1259.8 1570.6,1260.8 1574.5,1261.9 1578.2,1262.9"];
	78	[height=0.5,
		pos="946.65,693.93",
		width=0.75];
	77 -- 78	[pos="1092.6,476.38 1063.8,519.35 986.49,634.55 957.68,677.49"];
	77 -- 114	[pos="1122,446.51 1166.4,414 1279.3,331.29 1323.8,298.73"];
	341	[height=0.5,
		pos="968.73,1444.7",
		width=0.75];
	339 -- 341	[pos="1309.8,1390.6 1242.1,1401.3 1063.3,1429.7 995.42,1440.4"];
	340	[height=0.5,
		pos="1398.3,1382.1",
		width=0.75];
	339 -- 340	[pos="1363.2,1384.5 1365.9,1384.4 1368.5,1384.2 1371.1,1384"];
	79	[height=0.5,
		pos="820.43,826.03",
		width=0.75];
	78 -- 79	[pos="931.92,709.34 907.6,734.79 859.32,785.33 835.06,810.72"];
	78 -- 275	[pos="934.49,710.11 907.11,746.59 840.84,834.86 813.39,871.42"];
	345	[height=0.5,
		pos="648.71,1242.4",
		width=0.75];
	341 -- 345	[pos="948.72,1432 891.11,1395.6 725.4,1290.9 668.32,1254.8"];
	341 -- 342	[pos="995.11,1448.5 1016.1,1451.6 1045.3,1455.9 1066.3,1459"];
	80	[height=0.5,
		pos="925.23,921.21",
		width=0.75];
	79 -- 80	[pos="836.8,840.9 856.49,858.78 889.33,888.61 908.97,906.44"];
	489	[height=0.5,
		pos="757.95,824.02",
		width=0.75];
	79 -- 489	[pos="793.21,825.16 790.58,825.07 787.91,824.99 785.28,824.9"];
	349	[height=0.5,
		pos="494.28,1222.4",
		width=0.75];
	345 -- 349	[pos="622.17,1239 593.88,1235.3 549.35,1229.6 521,1225.9"];
	345 -- 346	[pos="636.9,1225.9 602.98,1178.4 505.56,1042.2 471.65,994.78"];
	81	[height=0.5,
		pos="986.08,1064.5",
		width=0.75];
	80 -- 81	[pos="932.69,938.78 944.37,966.27 966.84,1019.2 978.56,1046.8"];
	490	[height=0.5,
		pos="873.76,876.31",
		width=0.75];
	80 -- 490	[pos="908.66,906.76 902.78,901.63 896.17,895.86 890.29,890.74"];
	353	[height=0.5,
		pos="478.49,1405.5",
		width=0.75];
	349 -- 353	[pos="492.71,1240.7 489.69,1275.7 483.08,1352.3 480.06,1387.3"];
	349 -- 350	[pos="480.49,1206.9 450.52,1173.2 379.69,1093.6 349.64,1059.8"];
	82	[height=0.5,
		pos="1239.7,1115.5",
		width=0.75];
	81 -- 82	[pos="1012.3,1069.7 1061,1079.5 1165,1100.5 1213.7,1110.2"];
	178	[height=0.5,
		pos="1025,976.43",
		width=0.75];
	81 -- 178	[pos="993.77,1047.1 1000.6,1031.6 1010.5,1009.2 1017.3,993.79"];
	355	[height=0.5,
		pos="535.62,1509.3",
		width=0.75];
	353 -- 355	[pos="487.93,1422.6 498.51,1441.8 515.58,1472.9 526.17,1492.1"];
	354	[height=0.5,
		pos="483.76,1339.4",
		width=0.75];
	353 -- 354	[pos="479.93,1387.4 480.68,1378.1 481.58,1366.8 482.32,1357.5"];
	83	[height=0.5,
		pos="1412,1048",
		width=0.75];
	82 -- 83	[pos="1263.3,1106.2 1296.3,1093.3 1355.8,1070 1388.7,1057.2"];
	492	[height=0.5,
		pos="1196.9,982.96",
		width=0.75];
	82 -- 492	[pos="1234,1097.9 1225.8,1072.5 1210.8,1026 1202.6,1000.6"];
	357	[height=0.5,
		pos="645.26,1546.9",
		width=0.75];
	355 -- 357	[pos="559.68,1517.5 577.96,1523.8 602.99,1532.4 621.25,1538.7"];
	356	[height=0.5,
		pos="553.39,1458.9",
		width=0.75];
	355 -- 356	[pos="541.84,1491.7 543.56,1486.8 545.43,1481.5 547.15,1476.6"];
	84	[height=0.5,
		pos="1287.9,1071.4",
		width=0.75];
	83 -- 84	[pos="1385.9,1052.9 1364.9,1056.9 1335.4,1062.5 1314.3,1066.5"];
	83 -- 153	[pos="1438.6,1044.3 1474,1039.5 1536.1,1030.9 1571.5,1026"];
	361	[height=0.5,
		pos="624.03,1486.9",
		width=0.75];
	357 -- 361	[pos="639,1529.2 636.26,1521.5 633.05,1512.4 630.31,1504.7"];
	357 -- 358	[pos="665.78,1535 691.17,1520.3 734.17,1495.4 759.66,1480.6"];
	85	[height=0.5,
		pos="1254.9,1210.3",
		width=0.75];
	84 -- 85	[pos="1283.6,1089.3 1277.3,1116 1265.4,1165.9 1259.1,1192.5"];
	234	[height=0.5,
		pos="1121.8,869.47",
		width=0.75];
	84 -- 234	[pos="1274.8,1055.6 1243.9,1017.9 1166.2,923.39 1135,885.53"];
	365	[height=0.5,
		pos="916.07,1488.8",
		width=0.75];
	361 -- 365	[pos="651.24,1487.1 706.89,1487.4 833.14,1488.2 888.82,1488.6"];
	361 -- 362	[pos="598.79,1480.2 546.68,1466.3 427.76,1434.6 375.7,1420.7"];
	86	[height=0.5,
		pos="1409.9,1303.8",
		width=0.75];
	85 -- 86	[pos="1275.1,1222.5 1304.9,1240.5 1359.9,1273.7 1389.7,1291.6"];
	374	[height=0.5,
		pos="1059.9,1199.9",
		width=0.75];
	85 -- 374	[pos="1227.8,1208.9 1190.6,1206.9 1124.3,1203.4 1087.1,1201.4"];
	368	[height=0.5,
		pos="807.07,1424.6",
		width=0.75];
	365 -- 368	[pos="895.82,1476.8 876.37,1465.4 847.12,1448.2 827.58,1436.6"];
	366	[height=0.5,
		pos="1174.9,1374.7",
		width=0.75];
	365 -- 366	[pos="939.05,1478.7 988.29,1457 1103.5,1406.2 1152.4,1384.7"];
	87	[height=0.5,
		pos="1299,1342.4",
		width=0.75];
	86 -- 87	[pos="1385.9,1312.2 1367.3,1318.7 1341.6,1327.6 1323,1334"];
	86 -- 133	[pos="1427.1,1289.8 1449.1,1271.9 1486.9,1241.1 1508.9,1223.1"];
	370	[height=0.5,
		pos="827.03,1334.3",
		width=0.75];
	368 -- 370	[pos="811.01,1406.7 814.49,1391 819.53,1368.2 823.02,1352.4"];
	369	[height=0.5,
		pos="730,1414.1",
		width=0.75];
	368 -- 369	[pos="780.55,1421 772.8,1419.9 764.33,1418.8 756.57,1417.7"];
	88	[height=0.5,
		pos="1137,1266.7",
		width=0.75];
	87 -- 88	[pos="1276.8,1332 1245.9,1317.6 1190.1,1291.5 1159.1,1277"];
	87 -- 173	[pos="1272.9,1337.2 1257.3,1334.1 1237.4,1330.1 1221.8,1327"];
	373	[height=0.5,
		pos="887.14,1155.6",
		width=0.75];
	370 -- 373	[pos="833.01,1316.5 844.53,1282.3 869.68,1207.5 881.18,1173.3"];
	370 -- 371	[pos="801.21,1339.7 770.8,1345.9 720.55,1356.3 690.07,1362.6"];
	89	[height=0.5,
		pos="1370.7,1437.8",
		width=0.75];
	88 -- 89	[pos="1155.3,1280.1 1199,1312.1 1308.8,1392.5 1352.5,1424.4"];
	210	[height=0.5,
		pos="923.81,1108.2",
		width=0.75];
	88 -- 210	[pos="1118.8,1253.2 1078.5,1223.2 982.16,1151.6 941.93,1121.7"];
	376	[height=0.5,
		pos="935.77,871.96",
		width=0.75];
	373 -- 376	[pos="890.26,1137.4 899.04,1086.2 923.93,941.02 932.68,889.98"];
	373 -- 374	[pos="912.64,1162.1 945.4,1170.5 1001.9,1185.1 1034.6,1193.4"];
	90	[height=0.5,
		pos="1540.2,1492.1",
		width=0.75];
	89 -- 90	[pos="1395.4,1445.7 1427.6,1456 1483.7,1474 1515.8,1484.3"];
	499	[height=0.5,
		pos="1308.5,1430.4",
		width=0.75];
	89 -- 499	[pos="1344,1434.6 1341.1,1434.3 1338.1,1433.9 1335.2,1433.6"];
	379	[height=0.5,
		pos="847.37,688.15",
		width=0.75];
	376 -- 379	[pos="927.45,854.67 910.6,819.64 872.61,740.64 855.73,705.53"];
	377	[height=0.5,
		pos="1070.7,702.2",
		width=0.75];
	376 -- 377	[pos="948.46,855.99 974.18,823.64 1032.2,750.68 1057.9,718.25"];
	91	[height=0.5,
		pos="1792.4,1425.2",
		width=0.75];
	90 -- 91	[pos="1565.3,1485.4 1613.5,1472.6 1718.6,1444.8 1767.1,1432"];
	500	[height=0.5,
		pos="1477.9,1490",
		width=0.75];
	90 -- 500	[pos="1513.1,1491.2 1510.4,1491.1 1507.8,1491 1505.2,1490.9"];
	382	[height=0.5,
		pos="662.66,577.65",
		width=0.75];
	379 -- 382	[pos="827.25,676.12 791.82,654.92 718.65,611.15 683.03,589.84"];
	380	[height=0.5,
		pos="731.36,544.5",
		width=0.75];
	379 -- 380	[pos="834.51,672.23 812.21,644.62 766.61,588.16 744.27,560.49"];
	92	[height=0.5,
		pos="1602.5,1449.8",
		width=0.75];
	91 -- 92	[pos="1765.6,1428.7 1729.4,1433.4 1665.3,1441.7 1629.2,1446.4"];
	91 -- 317	[pos="1810.4,1411.8 1836.7,1392 1885.4,1355.4 1911.7,1335.7"];
	386	[height=0.5,
		pos="924.13,362.88",
		width=0.75];
	382 -- 386	[pos="679.81,563.56 727.19,524.64 859.46,416 906.91,377.03"];
	382 -- 383	[pos="647.66,592.91 623.33,617.66 575.54,666.28 551.22,691.02"];
	93	[height=0.5,
		pos="1460.3,1378.8",
		width=0.75];
	92 -- 93	[pos="1580.6,1438.9 1553.8,1425.5 1508.7,1403 1482,1389.7"];
	502	[height=0.5,
		pos="1604.4,1498.9",
		width=0.75];
	92 -- 502	[pos="1603.2,1468.1 1603.4,1472.2 1603.5,1476.6 1603.7,1480.8"];
	388	[height=0.5,
		pos="1119.4,362.89",
		width=0.75];
	386 -- 388	[pos="951.29,362.88 988.49,362.88 1054.9,362.88 1092.2,362.89"];
	387	[height=0.5,
		pos="748.7,344.3",
		width=0.75];
	386 -- 387	[pos="897.11,360.02 864.04,356.52 808.42,350.62 775.47,347.13"];
	94	[height=0.5,
		pos="1459.5,1114.9",
		width=0.75];
	93 -- 94	[pos="1460.2,1360.7 1460.1,1312.5 1459.7,1181.5 1459.5,1133.2"];
	343	[height=0.5,
		pos="1239.8,1431",
		width=0.75];
	93 -- 343	[pos="1434.6,1384.9 1392.1,1395 1307.7,1414.9 1265.4,1425"];
	393	[height=0.5,
		pos="1138.4,200.49",
		width=0.75];
	388 -- 393	[pos="1121.5,344.89 1125.2,313.67 1132.6,249.84 1136.3,218.57"];
	389	[height=0.5,
		pos="1377,520.22",
		width=0.75];
	388 -- 389	[pos="1139.6,375.23 1187.8,404.64 1308.8,478.58 1356.9,507.93"];
	95	[height=0.5,
		pos="1143,1218.6",
		width=0.75];
	94 -- 95	[pos="1435.2,1122.9 1376.3,1142.2 1226.4,1191.3 1167.4,1210.6"];
	126	[height=0.5,
		pos="1418.4,900.36",
		width=0.75];
	94 -- 126	[pos="1456,1097 1448.3,1056.6 1429.6,958.85 1421.9,918.38"];
	399	[height=0.5,
		pos="1097.5,95.04",
		width=0.75];
	393 -- 399	[pos="1131.4,182.6 1123.9,163.09 1111.8,132.07 1104.3,112.66"];
	394	[height=0.5,
		pos="1151.2,415.9",
		width=0.75];
	393 -- 394	[pos="1139.5,218.48 1141.9,259.03 1147.7,357.16 1150.1,397.8"];
	96	[height=0.5,
		pos="1053.6,1151.2",
		width=0.75];
	95 -- 96	[pos="1124.9,1205 1109.4,1193.3 1087.2,1176.5 1071.7,1164.8"];
	359	[height=0.5,
		pos="936.13,1394.8",
		width=0.75];
	95 -- 359	[pos="1126.1,1233 1087.2,1266.2 991.83,1347.4 953,1380.4"];
	402	[height=0.5,
		pos="1221.9,41.268",
		width=0.75];
	399 -- 402	[pos="1120.3,85.177 1142.7,75.475 1176.8,60.749 1199.2,51.068"];
	400	[height=0.5,
		pos="850.57,106.05",
		width=0.75];
	399 -- 400	[pos="1070.1,96.261 1022.5,98.383 925.09,102.73 877.68,104.84"];
	97	[height=0.5,
		pos="1211.8,938.27",
		width=0.75];
	96 -- 97	[pos="1065.8,1134.8 1095.2,1095.2 1170.1,994.36 1199.6,954.68"];
	225	[height=0.5,
		pos="997.78,932.41",
		width=0.75];
	96 -- 225	[pos="1049,1133.3 1038.5,1092.1 1012.8,991.32 1002.3,950.25"];
	404	[height=0.5,
		pos="1253.7,110.41",
		width=0.75];
	402 -- 404	[pos="1229.9,58.717 1234.7,69.119 1240.8,82.288 1245.6,92.731"];
	403	[height=0.5,
		pos="1159.8,83.371",
		width=0.75];
	402 -- 403	[pos="1202.9,54.129 1195.4,59.256 1186.7,65.151 1179.1,70.299"];
	98	[height=0.5,
		pos="1307.9,820.01",
		width=0.75];
	97 -- 98	[pos="1224.8,922.32 1243.1,899.75 1276.5,858.72 1294.9,836.08"];
	507	[height=0.5,
		pos="1276.6,910.8",
		width=0.75];
	97 -- 507	[pos="1234.8,928.51 1240.9,925.92 1247.5,923.12 1253.6,920.53"];
	407	[height=0.5,
		pos="1412,324.15",
		width=0.75];
	404 -- 407	[pos="1265.9,126.83 1295.4,166.71 1370.7,268.33 1400,307.97"];
	405	[height=0.5,
		pos="1236.2,326.79",
		width=0.75];
	404 -- 405	[pos="1252.3,128.49 1249,169.22 1241,267.79 1237.7,308.61"];
	99	[height=0.5,
		pos="1194.8,735.45",
		width=0.75];
	98 -- 99	[pos="1289.7,806.42 1268.6,790.64 1234,764.77 1212.9,749"];
	508	[height=0.5,
		pos="1316,768.56",
		width=0.75];
	98 -- 508	[pos="1310.8,802.02 1311.5,797.03 1312.4,791.62 1313.2,786.63"];
	410	[height=0.5,
		pos="1379.3,231.91",
		width=0.75];
	407 -- 410	[pos="1405.7,306.37 1399.9,290.03 1391.4,265.96 1385.6,249.64"];
	408	[height=0.5,
		pos="1328.9,606.4",
		width=0.75];
	407 -- 408	[pos="1406.7,342.24 1391.6,393.22 1349.1,537.67 1334.1,588.47"];
	103	[height=0.5,
		pos="1052,605.89",
		width=0.75];
	99 -- 103	[pos="1178.6,720.84 1151.2,695.96 1095.8,645.63 1068.2,620.64"];
	411	[height=0.5,
		pos="1404.6,278.89",
		width=0.75];
	410 -- 411	[pos="1388.5,248.87 1390.7,253.08 1393.2,257.59 1395.4,261.8"];
	101 -- 102	[pos="992.71,865.26 976.67,809.24 927.19,636.39 911.01,579.91"];
	101 -- 181	[pos="1002.4,900.85 1012.8,941.91 1038.6,1042.6 1049.1,1083.6"];
	102 -- 103	[pos="930.63,569.32 957.5,577.42 1000.1,590.27 1027.1,598.38"];
	146	[height=0.5,
		pos="1053.9,364.75",
		width=0.75];
	102 -- 146	[pos="917.96,545.72 945.72,508.76 1013.7,418.28 1041.6,381.1"];
	292 -- 295	[pos="1526.4,587.86 1556.4,595.56 1605.9,608.29 1635.8,615.97"];
	293	[height=0.5,
		pos="1319.7,699.53",
		width=0.75];
	292 -- 293	[pos="1481.6,594 1446.8,616.69 1374.1,664.05 1339.2,686.8"];
	295 -- 320	[pos="1654.2,640.18 1640.4,675.52 1609.7,754.37 1596,789.67"];
	296	[height=0.5,
		pos="1663.8,578.43",
		width=0.75];
	295 -- 296	[pos="1662.2,604.29 1662.4,601.74 1662.5,599.11 1662.7,596.55"];
	320 -- 389	[pos="1577.1,791.09 1539.9,740.67 1426.6,587.32 1389.2,536.66"];
	321	[height=0.5,
		pos="1612.6,1072.4",
		width=0.75];
	320 -- 321	[pos="1590.8,825.56 1595,874.09 1606.7,1006.1 1611,1054.4"];
	389 -- 411	[pos="1379.1,502.08 1384.2,457.25 1397.5,341.62 1402.6,296.91"];
	390	[height=0.5,
		pos="1089.2,411.05",
		width=0.75];
	389 -- 390	[pos="1353.5,511.29 1299.4,490.76 1166.7,440.45 1112.7,419.95"];
	106	[height=0.5,
		pos="1157.7,619.71",
		width=0.75];
	103 -- 106	[pos="1078.6,609.38 1094.7,611.47 1115,614.13 1131,616.23"];
	412	[height=0.5,
		pos="1284.7,184.56",
		width=0.75];
	411 -- 412	[pos="1386.9,264.98 1364.3,247.14 1325.2,216.4 1302.5,198.54"];
	105 -- 106	[pos="1031.2,790.41 1057.4,755.05 1119.3,671.52 1145.6,636.07"];
	442	[height=0.5,
		pos="840.01,973.91",
		width=0.75];
	105 -- 442	[pos="1003.3,821.52 969.26,853.25 889.83,927.4 855.87,959.1"];
	213 -- 412	[pos="1048,305.78 1096.6,280.88 1214.2,220.63 1263,195.67"];
	214	[height=0.5,
		pos="813,476.04",
		width=0.75];
	213 -- 214	[pos="1008.2,330.4 967.88,360.48 871.42,432.45 831.15,462.5"];
	109	[height=0.5,
		pos="1456.7,456.21",
		width=0.75];
	106 -- 109	[pos="1178.7,608.22 1233.6,578.19 1380.9,497.7 1435.7,467.69"];
	413	[height=0.5,
		pos="1533.6,269.51",
		width=0.75];
	412 -- 413	[pos="1309,192.86 1356.7,209.15 1462,245.1 1509.5,261.31"];
	108 -- 109	[pos="1464.7,607.26 1463,574.79 1459.4,507 1457.7,474.44"];
	108 -- 141	[pos="1463.2,643.41 1457.2,686.41 1442.2,794.52 1436.2,837.43"];
	189 -- 413	[pos="1370.6,197.86 1406.3,213.58 1475.2,243.86 1510.9,259.55"];
	190	[height=0.5,
		pos="1162.6,244.49",
		width=0.75];
	189 -- 190	[pos="1323.2,195.37 1287.8,206.2 1222.7,226.09 1187.3,236.94"];
	112	[height=0.5,
		pos="1559.7,335.27",
		width=0.75];
	109 -- 112	[pos="1470.2,440.4 1489.9,417.22 1526.5,374.26 1546.2,351.08"];
	413 -- 414	[pos="1550.3,283.78 1589.3,317.12 1686.2,399.81 1725.4,433.22"];
	111 -- 112	[pos="1695.9,346.85 1665.6,344.28 1616.9,340.13 1586.7,337.56"];
	111 -- 119	[pos="1697,354.6 1663.3,361.71 1604.8,374.09 1571.1,381.21"];
	115	[height=0.5,
		pos="1448,222.63",
		width=0.75];
	112 -- 115	[pos="1544.6,320.08 1523.3,298.58 1484.6,259.5 1463.2,237.94"];
	415	[height=0.5,
		pos="1854.4,582.38",
		width=0.75];
	414 -- 415	[pos="1755.5,463.55 1777.1,489.5 1819.5,540.47 1841.1,566.41"];
	335 -- 415	[pos="1857.2,832.73 1856.6,783.96 1855.1,649.77 1854.6,600.68"];
	336	[height=0.5,
		pos="1805.3,1120.2",
		width=0.75];
	335 -- 336	[pos="1853.9,868.85 1844.4,917.93 1818.2,1053.2 1808.7,1102.2"];
	114 -- 115	[pos="1362.5,273.19 1381.3,262.1 1408.9,245.75 1427.6,234.67"];
	147	[height=0.5,
		pos="1209,463.24",
		width=0.75];
	114 -- 147	[pos="1329.9,301.69 1304.4,335.68 1246.3,413.38 1221.1,447.11"];
	115 -- 117	[pos="1471.4,213.29 1488.3,206.55 1511,197.5 1527.9,190.77"];
	416	[height=0.5,
		pos="1804.8,489.87",
		width=0.75];
	415 -- 416	[pos="1845.3,565.41 1836.4,548.83 1823,523.7 1814,507.05"];
	119 -- 296	[pos="1555.6,403.36 1578,439.62 1631,525.3 1653.5,561.66"];
	119 -- 120	[pos="1518.3,385.49 1451.6,382.55 1279.9,374.98 1212.9,372.02"];
	296 -- 416	[pos="1683.7,565.93 1710.6,549.05 1758.2,519.16 1785,502.31"];
	297	[height=0.5,
		pos="1369.9,846.03",
		width=0.75];
	296 -- 297	[pos="1647.6,593.2 1596.2,639.99 1437.4,784.58 1386.1,831.3"];
	121	[height=0.5,
		pos="1474,313.54",
		width=0.75];
	117 -- 121	[pos="1541.3,198.46 1526.4,223.82 1498.7,271.28 1483.9,296.61"];
	416 -- 417	[pos="1831.1,485.52 1857.7,481.11 1898.6,474.34 1925.3,469.92"];
	120 -- 121	[pos="1211.6,365.63 1266.4,354.76 1392.8,329.65 1447.8,318.75"];
	120 -- 202	[pos="1159.8,376.6 1075.7,395.46 809.98,455.11 726.02,473.95"];
	121 -- 123	[pos="1487.8,329.23 1517.3,362.78 1586.2,441.18 1615.6,474.7"];
	417 -- 418	[pos="1966.2,481.01 1977.2,492.98 1992.4,509.48 2003.5,521.45"];
	127	[height=0.5,
		pos="1657.5,727.84",
		width=0.75];
	123 -- 127	[pos="1631.5,508.6 1636.8,552.92 1650.1,665.83 1655.3,709.87"];
	419	[height=0.5,
		pos="2040.9,594.1",
		width=0.75];
	418 -- 419	[pos="2024.8,554.38 2027.6,561.34 2030.9,569.35 2033.7,576.34"];
	125 -- 126	[pos="1186.3,683.46 1231.1,725.32 1358,843.92 1402.7,885.63"];
	233	[height=0.5,
		pos="1008.7,709.43",
		width=0.75];
	125 -- 233	[pos="1145.1,674.99 1114.8,682.64 1064.3,695.38 1034,703.03"];
	324 -- 419	[pos="1841.4,703.88 1883.6,680.67 1977.7,628.89 2019.8,605.71"];
	324 -- 325	[pos="1793.3,717.79 1737.5,722.47 1610.3,733.16 1554.6,737.84"];
	126 -- 127	[pos="1436.8,887.11 1481.3,854.99 1594.5,773.3 1639.1,741.14"];
	126 -- 150	[pos="1443.2,908.17 1484.9,921.31 1568.5,947.68 1610,960.76"];
	127 -- 129	[pos="1662.3,745.74 1670.3,775.31 1686.2,833.99 1694.1,863.48"];
	420	[height=0.5,
		pos="1991.5,682.23",
		width=0.75];
	419 -- 420	[pos="2031.4,611.09 2022.6,626.7 2009.7,649.7 2001,665.29"];
	156 -- 420	[pos="1933.4,808.03 1946.1,780.54 1970.8,727.08 1983.5,699.54"];
	157	[height=0.5,
		pos="1882.8,915.97",
		width=0.75];
	156 -- 157	[pos="1917.2,842.77 1909.6,858.83 1898.5,882.5 1891,898.54"];
	129 -- 131	[pos="1696.4,899.36 1691.8,933.04 1681.8,1005 1677.2,1038.6"];
	421	[height=0.5,
		pos="1741,532.04",
		width=0.75];
	420 -- 421	[pos="1971.4,670.19 1924.5,642.07 1808.2,572.31 1761.2,544.13"];
	302 -- 421	[pos="1890.6,565.52 1857.3,558.08 1799.9,545.22 1766.7,537.79"];
	303	[height=0.5,
		pos="1933,617.08",
		width=0.75];
	302 -- 303	[pos="1922.8,588.88 1924,592.31 1925.3,595.91 1926.6,599.34"];
	134	[height=0.5,
		pos="1567.1,1163.3",
		width=0.75];
	131 -- 134	[pos="1659.3,1071.9 1638.8,1092.1 1602.9,1127.8 1582.5,1148"];
	422	[height=0.5,
		pos="1520.9,431.16",
		width=0.75];
	421 -- 422	[pos="1718.7,521.81 1676.5,502.47 1585.5,460.77 1543.3,441.41"];
	185 -- 390	[pos="1376.3,371.78 1317.2,379.86 1175.2,399.28 1115.9,407.39"];
	185 -- 186	[pos="1377.3,374.46 1341.2,383.39 1275.5,399.66 1239.5,408.58"];
	133 -- 134	[pos="1540,1193.6 1544.3,1188.8 1549,1183.6 1553.3,1178.8"];
	327	[height=0.5,
		pos="1522.7,1093.9",
		width=0.75];
	133 -- 327	[pos="1525.6,1191.1 1524.9,1169.6 1523.9,1133.8 1523.2,1112.2"];
	390 -- 394	[pos="1116.2,413.16 1118.8,413.37 1121.5,413.57 1124.1,413.78"];
	391	[height=0.5,
		pos="785.26,391.53",
		width=0.75];
	390 -- 391	[pos="1062.2,409.32 1004.5,405.61 869.79,396.96 812.17,393.26"];
	394 -- 422	[pos="1178.4,417.02 1246.8,419.84 1425.3,427.21 1493.7,430.03"];
	394 -- 395	[pos="1133.3,429.49 1085.7,465.6 956.33,563.69 908.56,599.92"];
	137	[height=0.5,
		pos="1428,1158.9",
		width=0.75];
	134 -- 137	[pos="1540,1162.4 1515.4,1161.7 1479.6,1160.5 1455.1,1159.8"];
	423	[height=0.5,
		pos="1563.1,475.2",
		width=0.75];
	422 -- 423	[pos="1535.7,446.56 1539.9,450.93 1544.4,455.67 1548.6,460.03"];
	144 -- 423	[pos="1576.6,528.65 1573.8,517.73 1570.3,503.86 1567.6,492.99"];
	144 -- 145	[pos="1554.1,543.38 1503,537.08 1392.5,523.49 1341.6,517.22"];
	136 -- 137	[pos="1036.2,1257.7 1110.8,1238.9 1328.1,1184.1 1402.6,1165.3"];
	450	[height=0.5,
		pos="750.5,1202",
		width=0.75];
	136 -- 450	[pos="985.34,1258.1 935.58,1246.2 825.87,1220 776.03,1208.1"];
	137 -- 139	[pos="1434.5,1141.4 1443.2,1117.8 1458.6,1076.2 1467.4,1052.6"];
	424	[height=0.5,
		pos="1394.6,604.84",
		width=0.75];
	423 -- 424	[pos="1545.4,488.83 1513,513.73 1444.7,566.29 1412.3,591.2"];
	222 -- 377	[pos="1043.4,519.04 1049.1,557.39 1062.3,645.98 1068,684.16"];
	223	[height=0.5,
		pos="907.73,481.87",
		width=0.75];
	222 -- 223	[pos="1014.1,497.03 990.88,493.72 957.43,488.95 934.26,485.65"];
	377 -- 424	[pos="1095.6,694.72 1155.9,676.6 1309.3,630.5 1369.6,612.35"];
	378	[height=0.5,
		pos="905.99,827.03",
		width=0.75];
	377 -- 378	[pos="1052.8,715.8 1021.1,739.81 955.58,789.45 923.91,813.45"];
	142	[height=0.5,
		pos="1487.5,899.44",
		width=0.75];
	139 -- 142	[pos="1475.8,1016.7 1478.4,990.87 1483.1,943.39 1485.7,917.48"];
	425	[height=0.5,
		pos="1725.9,578.56",
		width=0.75];
	424 -- 425	[pos="1421.4,602.72 1483.5,597.79 1636.5,585.65 1698.9,580.71"];
	141 -- 142	[pos="1451.1,869.58 1457.2,874.61 1464.1,880.26 1470.2,885.29"];
	141 -- 176	[pos="1406.6,857.05 1371.3,859.2 1309.8,862.94 1274.4,865.09"];
	305 -- 425	[pos="1761,577.35 1758.4,577.44 1755.8,577.53 1753.1,577.62"];
	306	[height=0.5,
		pos="2039.3,638.14",
		width=0.75];
	305 -- 306	[pos="1813.6,582.67 1861.8,594.5 1965.6,620.02 2013.8,631.87"];
	148	[height=0.5,
		pos="1444.9,674.7",
		width=0.75];
	142 -- 148	[pos="1484.1,881.43 1476.1,839.35 1456.4,734.96 1448.4,692.8"];
	426	[height=0.5,
		pos="1681.4,666.48",
		width=0.75];
	425 -- 426	[pos="1717.1,595.93 1709.3,611.34 1698,633.74 1690.2,649.14"];
	145 -- 237	[pos="1295.5,526.74 1253.9,554.12 1156.6,618.07 1115,645.42"];
	145 -- 146	[pos="1294.1,501.99 1245.1,473.98 1123.3,404.41 1074.5,376.56"];
	237 -- 308	[pos="1122.7,658.98 1212.8,661.6 1501.9,670.02 1592.2,672.65"];
	237 -- 238	[pos="1069.7,663.33 1000.7,676.99 813.45,714.08 744.28,727.78"];
	146 -- 147	[pos="1073.5,377.22 1103.2,396.07 1159.2,431.59 1189,450.56"];
	146 -- 400	[pos="1041.2,348.57 1004.6,302.11 899.79,168.68 863.28,122.23"];
	308 -- 426	[pos="1646,670.45 1648.9,670.12 1651.9,669.79 1654.8,669.47"];
	309	[height=0.5,
		pos="1882.3,756.15",
		width=0.75];
	308 -- 309	[pos="1644.1,681.22 1694.4,697.03 1807.8,732.72 1857.9,748.45"];
	147 -- 148	[pos="1225.2,477.78 1268.3,516.41 1385.4,621.32 1428.6,660.07"];
	397	[height=0.5,
		pos="986.18,373.75",
		width=0.75];
	147 -- 397	[pos="1185.6,453.83 1142.8,436.65 1052.4,400.36 1009.6,383.16"];
	151	[height=0.5,
		pos="1624.7,852.49",
		width=0.75];
	148 -- 151	[pos="1460.3,689.86 1494.2,723.45 1575.5,803.82 1609.4,837.37"];
	427	[height=0.5,
		pos="1496,820.78",
		width=0.75];
	426 -- 427	[pos="1664.3,680.72 1629,710.11 1548.4,777.21 1513.1,806.57"];
	176 -- 408	[pos="1252.9,848.85 1267.8,801.17 1308.5,671.5 1323.3,624.08"];
	176 -- 177	[pos="1224.2,876.2 1157.4,903.56 964.32,982.62 897.1,1010.2"];
	150 -- 151	[pos="1632.9,950.36 1631.1,928.57 1628.1,892.23 1626.2,870.49"];
	150 -- 321	[pos="1630.6,986.58 1626.6,1005.6 1620.4,1035.5 1616.4,1054.5"];
	408 -- 427	[pos="1341.4,622.52 1372.5,662.34 1452.6,765.06 1483.5,804.77"];
	409	[height=0.5,
		pos="1339.8,365.46",
		width=0.75];
	408 -- 409	[pos="1329.7,588.29 1331.7,543.64 1336.9,428.65 1338.9,383.78"];
	154	[height=0.5,
		pos="1696.5,930.36",
		width=0.75];
	151 -- 154	[pos="1638.9,867.88 1651.5,881.53 1669.8,901.36 1682.4,915.01"];
	428	[height=0.5,
		pos="1402.7,944.38",
		width=0.75];
	427 -- 428	[pos="1483.8,836.94 1466,860.63 1432.8,904.53 1414.9,928.22"];
	232 -- 272	[pos="1101.2,826.37 1081.4,866.11 1032.8,963.54 1013,1003.2"];
	232 -- 233	[pos="1094.4,793.93 1075.3,775.1 1042.9,743.13 1023.8,724.38"];
	272 -- 297	[pos="1026.5,1010 1091.6,978.87 1282.7,887.66 1347.9,856.56"];
	273	[height=0.5,
		pos="763.09,1108.8",
		width=0.75];
	272 -- 273	[pos="980.42,1029.3 934.15,1046.2 833.2,1083.2 787.02,1100.1"];
	297 -- 428	[pos="1375.8,863.61 1381.7,881.4 1390.9,908.76 1396.8,926.62"];
	298	[height=0.5,
		pos="1589.7,717.45",
		width=0.75];
	297 -- 298	[pos="1390.6,833.93 1432.6,809.36 1527.4,753.89 1569.3,729.42"];
	153 -- 154	[pos="1613.9,1007.5 1632.3,990.38 1662.4,962.24 1680.8,945.1"];
	493	[height=0.5,
		pos="1387.2,988.39",
		width=0.75];
	153 -- 493	[pos="1571.8,1018.1 1531.3,1011.6 1454,999.14 1413.5,992.61"];
	154 -- 157	[pos="1723.6,928.26 1758.9,925.54 1820.3,920.79 1855.7,918.06"];
	429	[height=0.5,
		pos="1284.4,1254.3",
		width=0.75];
	428 -- 429	[pos="1396,961.93 1375.3,1016.4 1312.1,1181.9 1291.2,1236.6"];
	330 -- 366	[pos="1472.6,1311.8 1412,1324.6 1261.7,1356.4 1201,1369.2"];
	331	[height=0.5,
		pos="1665.7,1259.5",
		width=0.75];
	330 -- 331	[pos="1523.6,1299.3 1555.2,1290.5 1609.2,1275.4 1640.8,1266.5"];
	366 -- 429	[pos="1189.3,1359 1210.2,1335.9 1249.1,1293.2 1270.1,1270.1"];
	367	[height=0.5,
		pos="869.52,1439.3",
		width=0.75];
	366 -- 367	[pos="1149.2,1380.2 1091.6,1392.3 953.31,1421.5 895.55,1433.8"];
	160	[height=0.5,
		pos="1673.6,1116.4",
		width=0.75];
	157 -- 160	[pos="1867.1,931.03 1828.2,968.27 1728,1064.3 1689.2,1101.4"];
	429 -- 430	[pos="1277,1272.1 1268.1,1293.4 1253.2,1328.9 1244.3,1350.2"];
	159 -- 160	[pos="1637.5,924.65 1644.9,964.16 1662.7,1058.5 1670.2,1098.3"];
	482	[height=0.5,
		pos="1461.4,723.35",
		width=0.75];
	159 -- 482	[pos="1619.7,891.45 1587.2,856.92 1508.5,773.37 1475.9,738.76"];
	163	[height=0.5,
		pos="1665.7,1312.6",
		width=0.75];
	160 -- 163	[pos="1672.9,1134.5 1671.4,1171.9 1667.9,1257.2 1666.4,1294.5"];
	430 -- 431	[pos="1209.7,1367.5 1177.4,1367.2 1124.1,1366.6 1091.9,1366.3"];
	162 -- 163	[pos="1539.1,1431.1 1566.4,1405.5 1622.4,1353.1 1649.8,1327.4"];
	438	[height=0.5,
		pos="1282,1496.5",
		width=0.75];
	162 -- 438	[pos="1497.5,1451.3 1451.1,1461 1354.4,1481.3 1308,1491.1"];
	163 -- 165	[pos="1691.3,1318.4 1737.3,1328.7 1833.3,1350.3 1879.4,1360.7"];
	432	[height=0.5,
		pos="943.23,1287.2",
		width=0.75];
	431 -- 432	[pos="1045.2,1353.4 1022.5,1338.7 985.35,1314.5 962.7,1299.8"];
	181 -- 432	[pos="1043.6,1118.2 1022.7,1153.5 974.29,1234.9 953.28,1270.3"];
	181 -- 182	[pos="1026.7,1104.4 1023.8,1104.8 1020.8,1105.1 1017.9,1105.4"];
	165 -- 167	[pos="1896.5,1383.7 1887.4,1401.7 1873.1,1429.9 1863.9,1448"];
	433	[height=0.5,
		pos="842.55,1378.4",
		width=0.75];
	432 -- 433	[pos="927.06,1301.9 908.27,1318.9 877.46,1346.8 858.69,1363.8"];
	358 -- 433	[pos="791.78,1452.1 802.99,1435.8 820.02,1411.1 831.22,1394.8"];
	358 -- 359	[pos="802.69,1458.1 832.3,1444 884.27,1419.4 913.86,1405.4"];
	167 -- 169	[pos="1829,1460.4 1792.7,1453.5 1727.1,1441 1690.8,1434.1"];
	434	[height=0.5,
		pos="654.8,1414.9",
		width=0.75];
	433 -- 434	[pos="816.45,1383.5 780.68,1390.4 716.8,1402.8 680.98,1409.8"];
	251 -- 281	[pos="360.85,1098.6 407.92,1120.5 516.67,1171.2 563.54,1193"];
	252	[height=0.5,
		pos="215.66,841.59",
		width=0.75];
	251 -- 252	[pos="329.84,1070.8 307.29,1025.6 246.83,904.17 224.29,858.91"];
	281 -- 434	[pos="591.46,1221 604.47,1260.8 635.95,1357.2 648.99,1397.1"];
	282	[height=0.5,
		pos="663.66,1061.8",
		width=0.75];
	281 -- 282	[pos="595.09,1186.2 610.08,1159 639.21,1106.2 654.22,1079"];
	169 -- 171	[pos="1638.9,1423.5 1613.3,1417.8 1574.1,1409.2 1548.4,1403.6"];
	434 -- 435	[pos="677.73,1424.7 714.94,1440.7 788.03,1472.1 825.22,1488.1"];
	174	[height=0.5,
		pos="1335.5,1298.4",
		width=0.75];
	171 -- 174	[pos="1500.9,1386.4 1464.8,1367.2 1392.5,1328.8 1356.7,1309.7"];
	435 -- 436	[pos="873.44,1504.7 900.89,1512.1 944.43,1523.9 971.93,1531.3"];
	173 -- 174	[pos="1222,1317.4 1246.8,1313.2 1283.9,1307 1308.8,1302.8"];
	269	[height=0.5,
		pos="868.53,1287.2",
		width=0.75];
	173 -- 269	[pos="1168.9,1319 1107.4,1312.5 956.64,1296.5 895.22,1290.1"];
	179	[height=0.5,
		pos="1177.7,1122.3",
		width=0.75];
	174 -- 179	[pos="1321.5,1282.8 1291.5,1249.3 1221.6,1171.3 1191.7,1137.9"];
	437	[height=0.5,
		pos="1140.8,1525.9",
		width=0.75];
	436 -- 437	[pos="1024.3,1535.9 1050,1533.7 1088.3,1530.4 1113.9,1528.2"];
	177 -- 178	[pos="898.67,1012.6 926.7,1004.6 971.92,991.62 999.97,983.6"];
	177 -- 268	[pos="860.29,1035.6 838.57,1061.2 795.91,1111.7 774.2,1137.3"];
	342 -- 437	[pos="1105.4,1479.1 1112.4,1488.4 1121.3,1500.1 1128.4,1509.5"];
	342 -- 343	[pos="1119,1457.3 1145.7,1451.5 1187,1442.5 1213.7,1436.7"];
	178 -- 179	[pos="1040.5,991.22 1069.7,1019.2 1132.9,1079.5 1162.2,1107.4"];
	224	[height=0.5,
		pos="959.19,762.65",
		width=0.75];
	178 -- 224	[pos="1019.5,958.57 1007.1,918.23 976.98,820.46 964.62,780.31"];
	183	[height=0.5,
		pos="1183.8,853.17",
		width=0.75];
	179 -- 183	[pos="1178.1,1104.2 1179.2,1055.3 1182.3,920.74 1183.4,871.52"];
	437 -- 438	[pos="1166.7,1520.5 1192,1515.2 1230.3,1507.3 1255.8,1502"];
	182 -- 183	[pos="1003.3,1092.1 1038.2,1046 1136.9,915.34 1171.6,869.39"];
	441	[height=0.5,
		pos="949.14,1199.2",
		width=0.75];
	182 -- 441	[pos="982.92,1126 975.51,1142 964.59,1165.7 957.19,1181.7"];
	187	[height=0.5,
		pos="1128.9,517.83",
		width=0.75];
	183 -- 187	[pos="1180.9,835.14 1171.4,776.91 1141.5,594.3 1131.9,535.95"];
	438 -- 439	[pos="1259.9,1485.7 1229.6,1470.9 1175.5,1444.3 1145.3,1429.6"];
	186 -- 187	[pos="1200.8,430.94 1184.8,450.29 1158.1,482.56 1142.2,501.85"];
	186 -- 289	[pos="1202.8,431.43 1183.5,459.66 1144.5,516.77 1125.1,545.12"];
	187 -- 190	[pos="1131.2,499.47 1137.3,449.68 1154.2,312.47 1160.3,262.77"];
	440	[height=0.5,
		pos="951.06,1350.8",
		width=0.75];
	439 -- 440	[pos="1100.2,1409.7 1067.3,1396.7 1007.5,1373.1 974.49,1360"];
	284 -- 440	[pos="836.87,1192.5 860.96,1225.9 915.34,1301.3 939.32,1334.5"];
	285	[height=0.5,
		pos="585.44,982.58",
		width=0.75];
	284 -- 285	[pos="807.79,1162.1 763.69,1126.5 647.12,1032.4 602.84,996.62"];
	193	[height=0.5,
		pos="1018.3,155.94",
		width=0.75];
	190 -- 193	[pos="1142.5,232.18 1114.9,215.26 1065.6,185.01 1038.2,168.15"];
	440 -- 441	[pos="950.82,1332.5 950.46,1303.4 949.74,1246.7 949.37,1217.5"];
	192 -- 193	[pos="786.16,190.15 835.89,182.82 942.07,167.17 991.68,159.85"];
	192 -- 223	[pos="768.27,211.23 794.65,262.42 872.63,413.75 898.95,464.82"];
	197	[height=0.5,
		pos="809.21,150.07",
		width=0.75];
	193 -- 197	[pos="990.93,155.17 950.75,154.04 876.21,151.95 836.22,150.83"];
	441 -- 442	[pos="940.76,1181.9 920.44,1139.9 868.76,1033.3 848.42,991.27"];
	195 -- 196	[pos="698.88,203.41 722.76,234.14 774.28,300.43 798.19,331.19"];
	465	[height=0.5,
		pos="623.56,228.83",
		width=0.75];
	195 -- 465	[pos="667.1,199.88 659.46,204.95 650.69,210.79 643.02,215.89"];
	196 -- 197	[pos="810.71,329.27 810.4,291.66 809.68,205.82 809.37,168.25"];
	240	[height=0.5,
		pos="674.7,621.69",
		width=0.75];
	196 -- 240	[pos="802.35,364.64 777.89,413.89 707.66,555.31 683.21,604.55"];
	200	[height=0.5,
		pos="894.2,176.28",
		width=0.75];
	197 -- 200	[pos="833.8,157.65 845.07,161.13 858.41,165.24 869.68,168.71"];
	443	[height=0.5,
		pos="615.1,876.32",
		width=0.75];
	442 -- 443	[pos="817.2,964.02 774.1,945.31 681.11,904.97 637.96,886.24"];
	199 -- 200	[pos="1009,255.35 983.66,237.9 938.9,207.07 913.41,189.5"];
	396	[height=0.5,
		pos="970.73,461.82",
		width=0.75];
	199 -- 396	[pos="1022.6,286.2 1011.7,323.05 986.86,407.19 975.99,444.01"];
	383 -- 443	[pos="544.23,723.5 559.35,756.1 591.95,826.4 607.08,859.03"];
	383 -- 384	[pos="521.71,690.77 492.83,659.98 428.47,591.38 399.44,560.43"];
	203	[height=0.5,
		pos="827.32,303.25",
		width=0.75];
	200 -- 203	[pos="885.18,193.4 872.42,217.63 849.22,261.68 836.41,285.99"];
	443 -- 444	[pos="601.96,892.36 584.53,913.63 553.93,950.97 536.51,972.23"];
	202 -- 203	[pos="712.06,463.43 736.25,429.81 791.46,353.08 815.63,319.49"];
	202 -- 256	[pos="682.55,493.26 621.5,539.78 420.83,692.67 359.61,739.31"];
	203 -- 205	[pos="815.81,319.82 786.27,362.33 708.07,474.88 678.65,517.22"];
	445	[height=0.5,
		pos="510.66,1125.7",
		width=0.75];
	444 -- 445	[pos="521.73,1006.2 519.29,1032.6 514.76,1081.4 512.32,1107.7"];
	268 -- 445	[pos="734.05,1150.2 686.03,1144.9 585.77,1133.9 537.61,1128.7"];
	268 -- 269	[pos="773.6,1169.1 794.33,1194.9 835.05,1245.6 855.77,1271.4"];
	211	[height=0.5,
		pos="867.55,782",
		width=0.75];
	205 -- 211	[pos="680.08,549.55 716.17,594.31 818.29,720.91 854.57,765.89"];
	446	[height=0.5,
		pos="410.67,1220.5",
		width=0.75];
	445 -- 446	[pos="495.03,1140.5 476.36,1158.2 445.28,1187.7 426.51,1205.5"];
	207 -- 208	[pos="393.47,864.65 414.36,865.97 443.15,867.79 464.04,869.12"];
	207 -- 261	[pos="349.28,877.16 319.53,901.83 258.69,952.28 228.89,977"];
	208 -- 209	[pos="517.68,874 553.06,878.2 615.16,885.58 650.51,889.78"];
	452	[height=0.5,
		pos="553.04,894.52",
		width=0.75];
	208 -- 452	[pos="514.47,879.79 519.41,881.67 524.62,883.66 529.56,885.55"];
	261 -- 278	[pos="226.42,1006.4 252.84,1033.4 307.91,1089.8 334.55,1117"];
	262	[height=0.5,
		pos="205.62,1047.5",
		width=0.75];
	261 -- 262	[pos="209.71,1009.4 209.03,1015.8 208.25,1023 207.56,1029.4"];
	278 -- 446	[pos="361.11,1149 372.02,1164.8 388.34,1188.3 399.24,1204"];
	279	[height=0.5,
		pos="499.97,1035.4",
		width=0.75];
	278 -- 279	[pos="369.29,1119.8 398.1,1101.2 451.5,1066.7 480.31,1048.1"];
	209 -- 210	[pos="693.69,907.4 738.63,946.62 862.45,1054.7 907.31,1093.8"];
	477	[height=0.5,
		pos="528.54,788.26",
		width=0.75];
	209 -- 477	[pos="658.31,879.68 629.72,859.55 575.69,821.48 547.2,801.41"];
	210 -- 211	[pos="920.7,1090.2 910.87,1033.2 880.47,856.9 870.65,799.95"];
	498	[height=0.5,
		pos="1073.8,1267.1",
		width=0.75];
	210 -- 498	[pos="938.46,1123.7 967.2,1154.2 1030.7,1221.4 1059.3,1251.7"];
	211 -- 214	[pos="864.3,763.77 854.6,709.36 825.91,548.46 816.23,494.17"];
	446 -- 447	[pos="400.11,1237.3 387.04,1258 364.91,1293.2 351.8,1314"];
	217	[height=0.5,
		pos="602.48,401.6",
		width=0.75];
	214 -- 217	[pos="788.85,467.5 748.24,453.14 666.76,424.33 626.35,410.04"];
	448	[height=0.5,
		pos="416.43,1402.3",
		width=0.75];
	447 -- 448	[pos="356.74,1345.7 369.66,1358 387.94,1375.3 400.85,1387.5"];
	216 -- 217	[pos="529.89,417.06 544.25,414 562.06,410.21 576.44,407.15"];
	458	[height=0.5,
		pos="388.42,416.33",
		width=0.75];
	216 -- 458	[pos="476.92,421.11 458.37,420.11 433.87,418.78 415.35,417.78"];
	362 -- 448	[pos="376.95,1409.3 381.25,1408.5 385.7,1407.7 390,1407"];
	362 -- 363	[pos="345,1396.2 336.91,1370.1 321.9,1321.8 313.81,1295.8"];
	220	[height=0.5,
		pos="590.77,578.86",
		width=0.75];
	217 -- 220	[pos="601.27,419.9 599.02,453.96 594.22,526.68 591.98,560.66"];
	449	[height=0.5,
		pos="602.05,1370.8",
		width=0.75];
	448 -- 449	[pos="442.63,1397.9 477.91,1391.9 540.32,1381.3 575.68,1375.3"];
	219 -- 220	[pos="451.41,587.17 482.37,585.33 532.71,582.32 563.67,580.48"];
	454	[height=0.5,
		pos="333.69,705.85",
		width=0.75];
	219 -- 454	[pos="411.69,605.07 394.38,627.43 363.43,667.42 346.18,689.71"];
	371 -- 449	[pos="637.07,1369.2 634.45,1369.3 631.8,1369.4 629.19,1369.6"];
	372	[height=0.5,
		pos="773.5,1290",
		width=0.75];
	371 -- 372	[pos="682.66,1354.7 702.78,1340.4 734.7,1317.7 754.85,1303.3"];
	226	[height=0.5,
		pos="829.1,737.97",
		width=0.75];
	220 -- 226	[pos="609.87,591.61 654.5,621.4 765.2,695.3 809.91,725.16"];
	449 -- 450	[pos="615.75,1355.3 644.03,1323.1 708.58,1249.7 736.83,1217.5"];
	223 -- 224	[pos="911.03,499.86 920.3,550.45 946.53,693.59 955.85,744.45"];
	223 -- 228	[pos="888.76,469 845.27,439.52 738.81,367.34 695.08,337.68"];
	224 -- 225	[pos="963.24,780.5 970.66,813.1 986.3,881.93 993.72,914.55"];
	491	[height=0.5,
		pos="1059.8,896.95",
		width=0.75];
	224 -- 491	[pos="971.32,778.85 990.66,804.66 1028.3,854.85 1047.6,880.69"];
	225 -- 226	[pos="984.26,916.83 952.68,880.42 874.33,790.11 842.69,753.63"];
	506	[height=0.5,
		pos="1115.7,1155.9",
		width=0.75];
	225 -- 506	[pos="1006.8,949.58 1028.8,991.18 1084.6,1097 1106.6,1138.7"];
	230	[height=0.5,
		pos="798.79,564.08",
		width=0.75];
	226 -- 230	[pos="825.97,720.01 820.17,686.69 807.78,615.64 801.95,582.19"];
	450 -- 451	[pos="733.56,1187.4 712.48,1169.2 676.71,1138.4 655.73,1120.3"];
	228 -- 229	[pos="702.88,323.87 743.84,322.71 821.17,320.52 862.2,319.35"];
	459	[height=0.5,
		pos="489.58,315.72",
		width=0.75];
	228 -- 459	[pos="648.75,323.34 613.44,321.65 552.03,318.71 516.7,317.02"];
	229 -- 230	[pos="882.85,336.24 866.14,381.54 821.89,501.46 805.24,546.58"];
	485	[height=0.5,
		pos="809.61,520.04",
		width=0.75];
	229 -- 485	[pos="882.42,336.11 867.34,374.21 831.71,464.22 816.59,502.42"];
	235	[height=0.5,
		pos="897.14,737.95",
		width=0.75];
	230 -- 235	[pos="808.4,581.07 827.2,614.31 868.66,687.6 887.49,720.9"];
	451 -- 452	[pos="631.82,1088.2 615.6,1048.3 576.29,951.67 560.14,911.98"];
	233 -- 234	[pos="1020.4,725.96 1042,756.63 1088.3,822.02 1110,852.8"];
	233 -- 380	[pos="988.28,697.31 937,666.8 803.09,587.17 751.78,556.64"];
	234 -- 235	[pos="1101.5,857.57 1058.8,832.59 960.36,774.96 917.59,749.93"];
	494	[height=0.5,
		pos="1252.4,1027",
		width=0.75];
	234 -- 494	[pos="1135.1,885.44 1160.1,915.63 1214.1,980.75 1239.1,1011"];
	241	[height=0.5,
		pos="550.64,646.94",
		width=0.75];
	235 -- 241	[pos="871.94,731.33 808.09,714.56 640.46,670.53 576.21,653.65"];
	453	[height=0.5,
		pos="610.57,746.3",
		width=0.75];
	452 -- 453	[pos="559.87,876.94 570.94,848.41 592.69,792.37 603.75,763.86"];
	238 -- 239	[pos="698.59,745.54 669.03,764.55 613.29,800.38 583.54,819.51"];
	456	[height=0.5,
		pos="364.55,661.84",
		width=0.75];
	238 -- 456	[pos="692.16,727.73 626.76,714.58 456.03,680.24 390.59,667.08"];
	239 -- 240	[pos="572.73,815.07 593.6,775.48 644.79,678.41 665.64,638.87"];
	239 -- 285	[pos="566.27,850.43 570.46,879.31 578.61,935.46 582.8,964.39"];
	240 -- 241	[pos="648.69,626.98 627.52,631.29 597.77,637.34 576.61,641.65"];
	479	[height=0.5,
		pos="995.27,649.92",
		width=0.75];
	240 -- 479	[pos="701.48,624.05 761.82,629.36 907.85,642.22 968.34,647.55"];
	395 -- 453	[pos="868.08,624.24 815.53,649.14 684.99,711.02 632.72,735.8"];
	395 -- 396	[pos="899.56,596.49 914.97,567.34 946.13,508.37 961.6,479.11"];
	241 -- 243	[pos="530.81,634.53 487.7,607.56 385.86,543.83 342.64,516.79"];
	453 -- 454	[pos="584.02,742.42 531.1,734.69 413.01,717.44 360.15,709.72"];
	246	[height=0.5,
		pos="202.58,547.52",
		width=0.75];
	243 -- 246	[pos="298.68,512.95 277.73,520.49 247.5,531.37 226.56,538.9"];
	455	[height=0.5,
		pos="342.31,797",
		width=0.75];
	454 -- 455	[pos="335.39,723.86 336.9,739.84 339.1,763.06 340.61,779.03"];
	245 -- 246	[pos="421.07,506.44 373.98,515.3 275.53,533.81 228.58,542.64"];
	245 -- 391	[pos="471.56,493.61 533.78,473.37 698.25,419.85 760.72,399.52"];
	346 -- 455	[pos="448.99,961.54 426.6,927.01 375.5,848.19 353.13,813.69"];
	346 -- 347	[pos="458.39,996.28 456.25,1023 452.25,1072.9 450.09,1099.9"];
	249	[height=0.5,
		pos="139.65,657.9",
		width=0.75];
	246 -- 249	[pos="192.75,564.77 180.93,585.51 161.2,620.09 149.41,640.78"];
	455 -- 456	[pos="345.27,779.05 349.52,753.2 357.33,705.75 361.59,679.86"];
	248 -- 249	[pos="136.28,531.97 137.02,559.7 138.42,612.14 139.16,639.79"];
	462	[height=0.5,
		pos="263.76,398.42",
		width=0.75];
	248 -- 462	[pos="152,499.1 176.61,476.93 223.15,435.01 247.69,412.9"];
	249 -- 252	[pos="146.93,675.52 161.46,710.63 193.88,788.96 208.4,824.03"];
	457	[height=0.5,
		pos="260.65,503.46",
		width=0.75];
	456 -- 457	[pos="353.63,645.19 333.73,614.85 291.77,550.89 271.74,520.36"];
	384 -- 457	[pos="360.51,536.69 338.79,529.46 307.06,518.91 285.23,511.64"];
	385	[height=0.5,
		pos="600.64,534.34",
		width=0.75];
	384 -- 385	[pos="412.07,543.43 453.61,541.43 532.12,537.64 573.51,535.65"];
	252 -- 254	[pos="199.71,826.65 182.31,810.35 154.65,784.43 137.34,768.22"];
	457 -- 458	[pos="279.78,490.42 303.87,473.99 345.01,445.93 369.16,429.46"];
	257	[height=0.5,
		pos="279.67,749.86",
		width=0.75];
	254 -- 257	[pos="148.79,752.87 177.83,752.2 223.59,751.15 252.59,750.48"];
	458 -- 459	[pos="403.78,401.05 422.91,382.03 455.37,349.75 474.4,330.82"];
	256 -- 257	[pos="314.69,751.6 312.07,751.47 309.42,751.33 306.81,751.2"];
	351	[height=0.5,
		pos="455.81,916.1",
		width=0.75];
	256 -- 351	[pos="353.29,769.48 375.16,800.75 422.32,868.21 444.22,899.51"];
	257 -- 259	[pos="264.85,765.14 235.92,794.96 172.24,860.63 143.09,890.69"];
	459 -- 460	[pos="466.77,305.76 438.86,293.58 391.9,273.08 364.09,260.95"];
	259 -- 262	[pos="137.35,923.3 152.27,950.44 181.28,1003.2 196.22,1030.4"];
	460 -- 461	[pos="319.75,262.31 306.12,269.35 288.61,278.39 275.03,285.4"];
	262 -- 264	[pos="216.08,1064.4 231.41,1089.1 259.82,1135 275.14,1159.7"];
	461 -- 462	[pos="255.36,314.72 257.22,333.27 260.09,361.86 261.95,380.35"];
	264 -- 266	[pos="312.52,1174.7 342.73,1172.6 391.44,1169.2 421.66,1167.1"];
	462 -- 463	[pos="289.84,393.46 324.95,386.79 387.07,374.99 422.26,368.3"];
	270	[height=0.5,
		pos="681.42,1194",
		width=0.75];
	266 -- 270	[pos="475.33,1168.5 520.11,1174 609.85,1185.1 654.67,1190.7"];
	464	[height=0.5,
		pos="613.71,315.72",
		width=0.75];
	463 -- 464	[pos="473.59,356.09 504.83,347.09 557.83,331.82 588.92,322.86"];
	269 -- 270	[pos="846.7,1276.4 810.65,1258.4 739.07,1222.7 703.11,1204.8"];
	497	[height=0.5,
		pos="1127.6,1311.1",
		width=0.75];
	269 -- 497	[pos="895.28,1289.7 944.92,1294.3 1050.8,1304 1100.6,1308.6"];
	380 -- 464	[pos="722.51,527.3 700.66,484.8 644.29,375.19 622.5,332.8"];
	381	[height=0.5,
		pos="784.69,693.97",
		width=0.75];
	380 -- 381	[pos="737.69,562.23 747.95,591 768.11,647.51 778.37,676.26"];
	270 -- 273	[pos="696.02,1178.7 710.79,1163.3 733.51,1139.7 748.34,1124.2"];
	464 -- 465	[pos="615.75,297.72 617.44,282.8 619.83,261.71 621.52,246.81"];
	276	[height=0.5,
		pos="712.59,1005.7",
		width=0.75];
	273 -- 276	[pos="754.52,1091.3 745.18,1072.2 730.32,1041.9 721.03,1022.9"];
	466	[height=0.5,
		pos="544.87,271.72",
		width=0.75];
	465 -- 466	[pos="602.47,240.32 591.18,246.47 577.31,254.03 566.01,260.19"];
	275 -- 276	[pos="788.85,904.1 771.93,926.63 741.67,966.93 724.8,989.39"];
	286	[height=0.5,
		pos="739.17,879.93",
		width=0.75];
	275 -- 286	[pos="774.51,884.36 771.63,884 768.69,883.63 765.8,883.27"];
	400 -- 466	[pos="829.55,117.44 773.71,147.7 622.04,229.9 566.02,260.25"];
	401	[height=0.5,
		pos="1035.4,66.854",
		width=0.75];
	400 -- 401	[pos="876.66,100.52 911.9,93.049 974.31,79.815 1009.5,72.358"];
	276 -- 279	[pos="686.09,1009.4 645.24,1015.1 567.33,1026 526.47,1031.7"];
	466 -- 467	[pos="519.47,278.72 466.06,293.44 342.62,327.46 289.44,342.12"];
	279 -- 282	[pos="526.27,1039.7 556.73,1044.6 606.61,1052.6 637.15,1057.6"];
	467 -- 468	[pos="246.66,362.89 209.63,391.93 124.2,458.93 87.092,488.04"];
	287	[height=0.5,
		pos="863.19,922.4",
		width=0.75];
	282 -- 287	[pos="682.43,1048.7 720.46,1022.1 806.21,962.22 844.32,935.59"];
	468 -- 469	[pos="80.492,518.67 92.237,536.28 110.62,563.85 122.32,581.38"];
	285 -- 286	[pos="604.6,969.79 634.06,950.12 690.16,912.65 719.77,892.89"];
	474	[height=0.5,
		pos="273.73,1019.6",
		width=0.75];
	285 -- 474	[pos="558.6,985.77 499.67,992.78 359.59,1009.4 300.62,1016.4"];
	286 -- 287	[pos="763.37,888.22 785.23,895.71 817.21,906.66 839.04,914.13"];
	488	[height=0.5,
		pos="719.77,778.69",
		width=0.75];
	286 -- 488	[pos="735.7,861.83 732.17,843.4 726.73,815 723.21,796.63"];
	290	[height=0.5,
		pos="1076,759.03",
		width=0.75];
	287 -- 290	[pos="880.97,908.75 921.03,878 1018,803.58 1058.1,772.76"];
	469 -- 470	[pos="140.94,615.19 156.88,651.46 193.68,735.16 209.66,771.51"];
	289 -- 290	[pos="1110.2,580.06 1103,617.72 1086.6,703.79 1079.4,741.17"];
	289 -- 405	[pos="1122.7,544.58 1145.3,501.1 1204.5,387.6 1227.2,344.1"];
	290 -- 293	[pos="1101.6,752.78 1148.4,741.35 1247.2,717.22 1294,705.79"];
	470 -- 471	[pos="197.91,801.49 164.29,823.33 95.532,867.97 61.846,889.85"];
	293 -- 298	[pos="1346.5,701.32 1398.2,704.74 1510.7,712.21 1562.5,715.65"];
	472	[height=0.5,
		pos="159.96,1129.6",
		width=0.75];
	471 -- 472	[pos="51.208,919.56 73,961.64 129.12,1070 151.02,1112.3"];
	363 -- 472	[pos="293.24,1262.9 264.81,1234.5 203.49,1173.1 175.03,1144.7"];
	364	[height=0.5,
		pos="540.51,1414.8",
		width=0.75];
	363 -- 364	[pos="328.89,1290.1 373.07,1316.2 476.44,1377.1 520.28,1402.9"];
	298 -- 300	[pos="1615.3,711.41 1656.8,701.61 1738.4,682.36 1779.9,672.57"];
	473	[height=0.5,
		pos="284.11,1132.2",
		width=0.75];
	472 -- 473	[pos="187.2,1130.1 207.9,1130.6 236.24,1131.2 256.93,1131.6"];
	347 -- 473	[pos="421.82,1120.5 391.32,1123.1 341.78,1127.3 311.17,1129.9"];
	348	[height=0.5,
		pos="673.09,1290",
		width=0.75];
	347 -- 348	[pos="466.6,1132 508.74,1164.3 613.42,1244.4 655.33,1276.4"];
	300 -- 303	[pos="1828.8,657.46 1851.7,648.6 1886.3,635.17 1909.3,626.26"];
	473 -- 474	[pos="282.44,1114.1 280.51,1093.1 277.33,1058.7 275.39,1037.7"];
	303 -- 306	[pos="1959,622.23 1975.5,625.5 1996.7,629.7 2013.2,632.97"];
	475	[height=0.5,
		pos="263.44,947.28",
		width=0.75];
	474 -- 475	[pos="271.13,1001.4 269.56,990.33 267.56,976.29 266,965.28"];
	350 -- 475	[pos="323.5,1027.7 310.12,1009.8 288.84,981.3 275.53,963.47"];
	350 -- 351	[pos="350.25,1028.7 373.32,1004.1 418.18,956.25 441.28,931.6"];
	306 -- 309	[pos="2021.3,651.68 1991.2,674.32 1930.9,719.63 1900.6,742.41"];
	475 -- 476	[pos="270.03,929.78 276.04,913.82 284.88,890.34 290.92,874.29"];
	309 -- 311	[pos="1897.8,771.24 1920.4,793.36 1962.3,834.36 1984.9,856.48"];
	476 -- 477	[pos="322.32,849.23 366.65,836.12 459.2,808.76 503.65,795.61"];
	311 -- 313	[pos="1978.3,882.17 1943.7,898.82 1877.1,930.89 1842.6,947.5"];
	478	[height=0.5,
		pos="722.68,665.71",
		width=0.75];
	477 -- 478	[pos="548.22,775.83 585.43,752.34 665.7,701.68 702.95,678.17"];
	391 -- 478	[pos="781.15,409.52 769.82,459.2 738.16,597.9 726.8,647.66"];
	392	[height=0.5,
		pos="821.53,208.97",
		width=0.75];
	391 -- 392	[pos="788.87,373.36 795.82,338.37 811,262 817.94,227.07"];
	313 -- 315	[pos="1832.8,974.2 1854.9,1003.6 1901.4,1065.6 1923.6,1095.2"];
	478 -- 479	[pos="749.82,664.14 802.07,661.11 916.08,654.51 968.24,651.48"];
	318	[height=0.5,
		pos="1831.6,1248.4",
		width=0.75];
	315 -- 318	[pos="1923.5,1127.8 1903.5,1154.2 1864,1205.9 1844,1232.2"];
	480	[height=0.5,
		pos="1256.8,720.8",
		width=0.75];
	479 -- 480	[pos="1020.3,656.71 1070.2,670.23 1181.3,700.34 1231.4,713.92"];
	325 -- 480	[pos="1500.7,738.18 1448.8,734.48 1335.5,726.41 1283.7,722.71"];
	325 -- 326	[pos="1526,758.15 1522.5,796.75 1514.4,886.91 1510.9,925.47"];
	317 -- 318	[pos="1911.7,1308.7 1894.1,1295.4 1867.5,1275.4 1849.8,1262.1"];
	501	[height=0.5,
		pos="1727.1,1452.2",
		width=0.75];
	317 -- 501	[pos="1909.9,1334.9 1871.1,1359.8 1785.4,1414.8 1746.7,1439.6"];
	322	[height=0.5,
		pos="1718.6,1189.6",
		width=0.75];
	318 -- 322	[pos="1810.1,1237.2 1790,1226.7 1760.1,1211.2 1740,1200.8"];
	481	[height=0.5,
		pos="1431.9,811.38",
		width=0.75];
	480 -- 481	[pos="1278.3,731.91 1312,749.34 1376.9,782.92 1410.6,800.33"];
	326 -- 481	[pos="1499.3,926.48 1484.5,901.12 1456.7,853.64 1441.9,828.32"];
	326 -- 327	[pos="1510.9,961.62 1513.5,990.54 1518.5,1046.7 1521.1,1075.7"];
	321 -- 322	[pos="1626.9,1088.2 1647.2,1110.7 1684.3,1151.7 1704.5,1174.1"];
	504	[height=0.5,
		pos="1476.5,1262.3",
		width=0.75];
	321 -- 504	[pos="1600.8,1088.9 1575,1124.9 1513.9,1210.1 1488.2,1245.9"];
	328	[height=0.5,
		pos="1656.5,1215.5",
		width=0.75];
	322 -- 328	[pos="1695.5,1199.3 1690.2,1201.4 1684.7,1203.8 1679.4,1205.9"];
	481 -- 482	[pos="1437.9,793.57 1443,778.29 1450.4,756.4 1455.5,741.14"];
	327 -- 328	[pos="1538.8,1108.6 1564.5,1131.9 1614.6,1177.4 1640.3,1200.8"];
	496	[height=0.5,
		pos="1351,1206.1",
		width=0.75];
	327 -- 496	[pos="1503.3,1106.6 1470.3,1128.2 1403.3,1171.9 1370.3,1193.5"];
	328 -- 331	[pos="1660.3,1233.4 1660.8,1236.1 1661.4,1238.8 1661.9,1241.5"];
	483	[height=0.5,
		pos="1191,552.51",
		width=0.75];
	482 -- 483	[pos="1441.5,710.79 1391.5,679.19 1260.9,596.7 1210.9,565.09"];
	396 -- 483	[pos="993.88,471.35 1036.2,488.77 1125.5,525.54 1167.8,542.96"];
	396 -- 397	[pos="973.93,443.57 976.6,428.35 980.38,406.8 983.04,391.67"];
	331 -- 333	[pos="1690.5,1252.2 1702.3,1248.8 1716.3,1244.6 1728.1,1241.1"];
	484	[height=0.5,
		pos="1027.1,417.79",
		width=0.75];
	483 -- 484	[pos="1173.7,538.34 1142.3,512.54 1076.2,458.13 1044.6,432.16"];
	405 -- 484	[pos="1213.4,336.7 1173.2,354.2 1090.1,390.39 1049.9,407.89"];
	406	[height=0.5,
		pos="1220.4,154.6",
		width=0.75];
	405 -- 406	[pos="1234.6,308.69 1231.5,275.62 1225.1,205.8 1222.1,172.72"];
	333 -- 336	[pos="1760.9,1216.6 1770.7,1195.2 1787.4,1159 1797.2,1137.6"];
	484 -- 485	[pos="1004.7,428.34 962.88,447.99 873.64,489.94 831.95,509.54"];
	336 -- 338	[pos="1787,1133.7 1748.6,1162.2 1659.9,1227.9 1621.7,1256.2"];
	486	[height=0.5,
		pos="654.79,702.27",
		width=0.75];
	485 -- 486	[pos="796.14,535.9 766.79,570.45 697.34,652.19 668.12,686.58"];
	351 -- 486	[pos="470.12,900.72 506.75,861.36 603.57,757.31 640.34,717.79"];
	352	[height=0.5,
		pos="514.98,1175.2",
		width=0.75];
	351 -- 352	[pos="459.88,933.91 470.69,981.24 500.04,1109.8 510.88,1157.3"];
	338 -- 340	[pos="1582.4,1281.2 1543,1302.9 1458.7,1349 1419.4,1370.6"];
	487	[height=0.5,
		pos="736.74,598.33",
		width=0.75];
	486 -- 487	[pos="667.6,686.03 682.99,666.5 708.67,633.93 724.02,614.45"];
	397 -- 487	[pos="969.81,388.48 924.51,429.27 797.83,543.33 752.84,583.83"];
	398	[height=0.5,
		pos="956.22,177.11",
		width=0.75];
	397 -- 398	[pos="983.42,355.6 977.71,318.14 964.68,232.63 958.98,195.21"];
	344	[height=0.5,
		pos="999.41,1400.6",
		width=0.75];
	340 -- 344	[pos="1371.2,1383.4 1298.4,1386.8 1099.4,1396 1026.6,1399.3"];
	487 -- 488	[pos="735.02,616.61 731.76,651.27 724.71,726.13 721.47,760.62"];
	343 -- 344	[pos="1213.2,1427.6 1167,1421.8 1072.5,1409.8 1026.2,1404"];
	503	[height=0.5,
		pos="1461.2,1442",
		width=0.75];
	343 -- 503	[pos="1266.9,1432.3 1309.5,1434.5 1391.6,1438.5 1434.1,1440.6"];
	344 -- 348	[pos="975.15,1392.4 914.74,1371.9 758.09,1318.8 697.51,1298.3"];
	488 -- 489	[pos="733.12,794.54 736.82,798.94 740.84,803.7 744.54,808.1"];
	348 -- 352	[pos="654.65,1276.6 624.18,1254.5 563.7,1210.6 533.31,1188.5"];
	489 -- 490	[pos="780.55,834.23 800.96,843.44 830.82,856.93 851.21,866.13"];
	352 -- 354	[pos="511.58,1193.1 505.57,1224.7 493.16,1290 487.16,1321.6"];
	490 -- 491	[pos="900.41,879.27 935.68,883.18 997.5,890.04 1032.9,893.97"];
	354 -- 356	[pos="493.59,1356.3 506.79,1378.9 530.1,1418.9 543.39,1441.7"];
	491 -- 492	[pos="1079.7,909.46 1105.7,925.76 1150.9,954.12 1176.9,970.43"];
	360	[height=0.5,
		pos="686.68,1458.9",
		width=0.75];
	356 -- 360	[pos="580.69,1458.9 603.69,1458.9 636.43,1458.9 659.42,1458.9"];
	492 -- 493	[pos="1224.2,983.73 1260.3,984.77 1323.9,986.58 1360,987.61"];
	359 -- 360	[pos="910.84,1401.3 863.03,1413.6 759.9,1440.1 712.04,1452.4"];
	505	[height=0.5,
		pos="1199,1262.6",
		width=0.75];
	359 -- 505	[pos="958.09,1383.8 1007.7,1358.8 1127.9,1298.4 1177.3,1273.6"];
	360 -- 364	[pos="661.88,1451.4 635,1443.3 592.35,1430.5 565.43,1422.4"];
	493 -- 494	[pos="1362.2,995.56 1338,1002.5 1301.5,1012.9 1277.3,1019.9"];
	364 -- 367	[pos="567.43,1416.8 629.28,1421.4 780.92,1432.7 842.68,1437.3"];
	495	[height=0.5,
		pos="1201.2,1166.3",
		width=0.75];
	494 -- 495	[pos="1245.9,1044.6 1236.1,1071.4 1217.5,1122.1 1207.6,1148.8"];
	374 -- 495	[pos="1085.5,1193.9 1111,1187.8 1149.8,1178.6 1175.3,1172.5"];
	375	[height=0.5,
		pos="825.11,1124.4",
		width=0.75];
	374 -- 375	[pos="1035.3,1192 990.04,1177.5 894.44,1146.7 849.47,1132.2"];
	367 -- 369	[pos="843.27,1434.5 818.33,1430 781.03,1423.3 756.13,1418.8"];
	495 -- 496	[pos="1226.6,1173.1 1254.3,1180.4 1298.2,1192.1 1325.8,1199.4"];
	369 -- 372	[pos="736.24,1396.3 744.5,1372.7 759.02,1331.3 767.28,1307.8"];
	496 -- 497	[pos="1328.8,1216.6 1286,1236.7 1192.5,1280.6 1149.8,1300.7"];
	372 -- 375	[pos="779.02,1272.3 788.93,1240.5 809.61,1174.1 819.55,1142.2"];
	497 -- 498	[pos="1110.3,1297 1104.1,1291.9 1097.2,1286.3 1091.1,1281.2"];
	375 -- 378	[pos="830.05,1106.2 844.52,1053 886.72,897.86 901.11,844.95"];
	498 -- 499	[pos="1092.6,1280.2 1136.5,1310.8 1245.6,1386.6 1289.6,1417.3"];
	378 -- 381	[pos="891.84,811.51 868.46,785.87 822.07,734.97 798.75,709.39"];
	499 -- 500	[pos="1332.4,1438.8 1364.6,1450.1 1421.6,1470.2 1453.9,1481.5"];
	381 -- 385	[pos="768.03,679.52 732.99,649.13 652.02,578.9 617.13,548.64"];
	500 -- 501	[pos="1504.6,1485.9 1552.6,1478.7 1652.8,1463.5 1700.7,1456.2"];
	385 -- 387	[pos="613.26,518.13 641.23,482.23 708.16,396.33 736.11,360.46"];
	501 -- 502	[pos="1703.5,1461.2 1681.7,1469.5 1649.7,1481.6 1628,1489.9"];
	387 -- 392	[pos="757.92,327.16 771.93,301.13 798.42,251.92 812.38,225.97"];
	502 -- 503	[pos="1581.1,1489.6 1554.4,1479 1511.1,1461.8 1484.5,1451.2"];
	392 -- 398	[pos="847.18,202.9 871.15,197.23 906.73,188.82 930.67,183.15"];
	503 -- 504	[pos="1462.7,1423.8 1465.7,1389.2 1472,1314.6 1475,1280.3"];
	398 -- 401	[pos="967.91,160.84 982.89,139.99 1008.7,104.07 1023.7,83.189"];
	504 -- 505	[pos="1449.4,1262.3 1396.3,1262.4 1279.4,1262.5 1226.2,1262.6"];
	401 -- 403	[pos="1062.1,70.397 1083.1,73.184 1112.2,77.048 1133.2,79.834"];
	505 -- 506	[pos="1186.3,1246.4 1170.6,1226.3 1143.8,1192 1128.2,1171.9"];
	403 -- 406	[pos="1173.3,99.18 1183.3,110.98 1197,127.04 1207,138.84"];
	506 -- 507	[pos="1126.7,1139.1 1156.2,1094.2 1236.3,972.09 1265.6,927.44"];
	406 -- 409	[pos="1230,171.5 1252.3,210.98 1307.8,308.92 1330.2,348.48"];
	507 -- 508	[pos="1281.5,893.07 1289.1,865.82 1303.5,813.9 1311.1,786.51"];
	509	[height=0.5,
		pos="1315,561.39",
		width=0.75];
	409 -- 509	[pos="1337.5,383.54 1332.8,420.86 1322,506.06 1317.3,543.35"];
	508 -- 509	[pos="1316,750.54 1315.8,711.36 1315.3,618.79 1315.1,579.52"];
}
