graph {
	graph [bb="0,0,725.19,616.76",
		outputorder=edgesfirst,
		overlap=prism,
		size="50,50!",
		start=6572
	];
	node [label="\N"];
	0	[height=0.5,
		pos="597.01,272.88",
		width=0.75];
	1	[height=0.5,
		pos="565.17,194.31",
		width=0.75];
	0 -- 1	[pos="589.95,255.44 584.67,242.42 577.49,224.7 572.22,211.69"];
	3	[height=0.5,
		pos="454.4,298.38",
		width=0.75];
	0 -- 3	[pos="570.85,277.55 545.28,282.12 506.55,289.05 480.87,293.64"];
	2	[height=0.5,
		pos="410.28,251.76",
		width=0.75];
	0 -- 2	[pos="570.26,269.85 534.76,265.84 472.45,258.79 436.98,254.78"];
	16	[height=0.5,
		pos="588.08,108.93",
		width=0.75];
	0 -- 16	[pos="596.02,254.7 594.3,223.19 590.79,158.75 589.07,127.18"];
	7	[height=0.5,
		pos="677.75,386.69",
		width=0.75];
	0 -- 7	[pos="608.58,289.18 623.93,310.82 650.86,348.79 666.2,370.41"];
	18	[height=0.5,
		pos="651.46,221.68",
		width=0.75];
	0 -- 18	[pos="612.76,258.07 619.92,251.33 628.38,243.38 635.56,236.63"];
	10	[height=0.5,
		pos="573.56,364.37",
		width=0.75];
	0 -- 10	[pos="592.38,290.95 588.27,306.99 582.29,330.31 578.18,346.33"];
	11	[height=0.5,
		pos="511.5,381.62",
		width=0.75];
	0 -- 11	[pos="584.39,288.92 568.23,309.48 540.36,344.92 524.17,365.51"];
	20	[height=0.5,
		pos="698.19,311.14",
		width=0.75];
	0 -- 20	[pos="620.73,281.85 636.97,287.99 658.41,296.09 674.62,302.22"];
	23	[height=0.5,
		pos="641.75,152.97",
		width=0.75];
	0 -- 23	[pos="603.61,255.18 612.07,232.51 626.65,193.44 635.13,170.74"];
	1 -- 3	[pos="549.3,209.22 528.24,229 491.28,263.72 470.24,283.49"];
	1 -- 2	[pos="541.31,203.16 512.12,213.98 463,232.2 433.91,242.99"];
	1 -- 16	[pos="570.03,176.2 573.94,161.61 579.42,141.22 583.31,126.72"];
	12	[height=0.5,
		pos="505.39,138.16",
		width=0.75];
	1 -- 12	[pos="549.47,179.55 540.75,171.37 529.94,161.21 521.2,153.01"];
	1 -- 18	[pos="589.67,202.08 601.33,205.78 615.23,210.19 626.9,213.89"];
	1 -- 23	[pos="586.51,182.79 597.13,177.06 609.93,170.15 620.54,164.42"];
	25	[height=0.5,
		pos="293.85,198.96",
		width=0.75];
	3 -- 25	[pos="434.39,285.99 403.54,266.88 344.71,230.45 313.86,211.35"];
	3 -- 7	[pos="477.88,307.66 520.78,324.62 611.34,360.43 654.25,377.39"];
	4	[height=0.5,
		pos="207.54,256.16",
		width=0.75];
	3 -- 4	[pos="427.98,293.86 380.47,285.73 281.14,268.74 233.76,260.64"];
	19	[height=0.5,
		pos="313.77,407.63",
		width=0.75];
	3 -- 19	[pos="436.59,312.21 409.54,333.23 358.4,372.96 331.44,393.91"];
	6	[height=0.5,
		pos="398.37,151.39",
		width=0.75];
	3 -- 6	[pos="447.64,280.65 436.87,252.4 415.93,197.48 405.15,169.19"];
	5	[height=0.5,
		pos="330.44,154.92",
		width=0.75];
	3 -- 5	[pos="440.9,282.75 417.05,255.15 367.76,198.11 343.92,170.53"];
	3 -- 12	[pos="460.05,280.62 469.85,249.82 489.9,186.85 499.72,156"];
	8	[height=0.5,
		pos="426.2,101.18",
		width=0.75];
	3 -- 8	[pos="451.8,280.18 446.43,242.61 434.16,156.86 428.8,119.33"];
	3 -- 18	[pos="477.78,289.28 515.7,274.52 590.2,245.52 628.11,230.77"];
	3 -- 10	[pos="475.43,310.02 497.21,322.09 531.04,340.82 552.74,352.84"];
	3 -- 11	[pos="465.68,314.82 475.69,329.41 490.24,350.62 500.24,365.21"];
	14	[height=0.5,
		pos="386.55,456.5",
		width=0.75];
	3 -- 14	[pos="446.88,315.9 433.84,346.3 407.17,408.44 394.1,438.89"];
	3 -- 20	[pos="481.42,299.79 528.28,302.24 624.1,307.26 671.05,309.71"];
	22	[height=0.5,
		pos="387.75,527.93",
		width=0.75];
	3 -- 22	[pos="449.17,316.39 436.71,359.3 405.39,467.17 392.96,510"];
	29	[height=0.5,
		pos="251.77,407.58",
		width=0.75];
	3 -- 29	[pos="433.1,309.86 394.08,330.88 311.59,375.34 272.78,396.25"];
	2 -- 3	[pos="424.72,267.02 429.55,272.12 434.93,277.8 439.77,282.92"];
	2 -- 16	[pos="427.65,237.8 461.64,210.5 536.59,150.29 570.64,122.94"];
	2 -- 25	[pos="387.83,241.58 367.21,232.23 336.83,218.45 316.23,209.11"];
	2 -- 19	[pos="399.95,268.44 381.47,298.28 342.95,360.5 324.32,390.6"];
	2 -- 6	[pos="408.09,233.35 405.93,215.13 402.64,187.41 400.5,169.35"];
	2 -- 5	[pos="397.09,235.77 382.3,217.82 358.44,188.89 343.64,170.93"];
	2 -- 12	[pos="423.5,235.96 441.57,214.38 473.8,175.89 491.97,154.19"];
	2 -- 8	[pos="412.2,233.59 415.26,204.65 421.21,148.39 424.27,119.41"];
	13	[height=0.5,
		pos="455.38,18",
		width=0.75];
	2 -- 13	[pos="413.74,233.8 422.14,190.29 443.5,79.59 451.91,36.016"];
	9	[height=0.5,
		pos="145.48,268.24",
		width=0.75];
	2 -- 9	[pos="382.94,253.46 332.06,256.63 223.43,263.39 172.67,266.55"];
	24	[height=0.5,
		pos="229.19,303.92",
		width=0.75];
	2 -- 24	[pos="385.48,258.9 350.89,268.86 288.55,286.82 253.98,296.78"];
	2 -- 10	[pos="429.33,264.9 460.79,286.6 523.25,329.67 554.63,351.32"];
	15	[height=0.5,
		pos="541.01,458.92",
		width=0.75];
	2 -- 15	[pos="420.75,268.36 445.23,307.15 505.96,403.37 530.49,442.24"];
	2 -- 11	[pos="422.89,267.94 442.39,292.96 479.64,340.74 499.04,365.64"];
	2 -- 14	[pos="408.17,269.93 403.67,308.78 393.15,399.55 388.65,438.37"];
	28	[height=0.5,
		pos="204.91,359.06",
		width=0.75];
	2 -- 28	[pos="388.69,263.04 349.14,283.7 265.54,327.38 226.21,347.93"];
	17	[height=0.5,
		pos="164.18,186.81",
		width=0.75];
	2 -- 17	[pos="384.87,245.05 337.59,232.57 236.63,205.93 189.45,193.48"];
	2 -- 23	[pos="433.32,241.92 477.69,222.99 574.51,181.67 618.81,162.77"];
	16 -- 23	[pos="605.36,123.11 611.49,128.14 618.38,133.79 624.51,138.82"];
	7 -- 20	[pos="682.59,368.78 685.85,356.74 690.13,340.93 693.38,328.91"];
	4 -- 25	[pos="226.69,243.46 240.9,234.05 260.19,221.27 274.45,211.82"];
	4 -- 19	[pos="219.11,272.66 239.54,301.79 281.79,362.03 302.22,391.15"];
	4 -- 5	[pos="224.62,242.08 247.97,222.85 289.62,188.54 313.1,169.2"];
	4 -- 9	[pos="181.58,261.21 178.26,261.86 174.86,262.52 171.53,263.17"];
	21	[height=0.5,
		pos="27.271,222.19",
		width=0.75];
	4 -- 21	[pos="181.32,251.22 147.15,244.78 87.707,233.57 53.515,227.13"];
	4 -- 24	[pos="215.35,273.4 217.29,277.67 219.37,282.26 221.31,286.54"];
	4 -- 28	[pos="207.07,274.55 206.59,293.28 205.85,322.15 205.37,340.82"];
	4 -- 17	[pos="197.04,239.37 190.23,228.47 181.38,214.32 174.58,203.44"];
	27	[height=0.5,
		pos="27,143.59",
		width=0.75];
	4 -- 27	[pos="187.53,243.68 152.73,221.98 81.489,177.56 46.825,155.95"];
	4 -- 29	[pos="212.78,274.12 221.3,303.26 238.02,360.51 246.53,389.64"];
	19 -- 24	[pos="300.56,391.43 284.67,371.94 258.16,339.44 242.31,320.01"];
	19 -- 28	[pos="291.22,397.57 272.53,389.23 246.11,377.44 227.44,369.11"];
	26	[height=0.5,
		pos="311.99,598.76",
		width=0.75];
	19 -- 26	[pos="313.6,425.96 313.26,462.49 312.5,544.01 312.16,580.49"];
	19 -- 22	[pos="324.06,424.36 338.11,447.21 363.18,487.98 377.31,510.96"];
	19 -- 29	[pos="286.76,407.61 284.15,407.61 281.5,407.61 278.89,407.6"];
	6 -- 25	[pos="375.95,161.6 358.31,169.62 333.86,180.75 316.24,188.77"];
	6 -- 12	[pos="425.1,148.09 441.44,146.07 462.28,143.49 478.63,141.47"];
	6 -- 8	[pos="407.79,134.39 410.69,129.16 413.89,123.4 416.79,118.16"];
	5 -- 25	[pos="317.23,170.82 313.96,174.76 310.44,178.99 307.17,182.94"];
	5 -- 6	[pos="357.68,153.51 362.1,153.28 366.69,153.04 371.12,152.81"];
	5 -- 8	[pos="351.22,143.26 367.28,134.24 389.41,121.83 405.46,112.82"];
	12 -- 13	[pos="498.12,120.69 488.64,97.905 472.15,58.285 462.66,35.493"];
	12 -- 18	[pos="526.01,149.95 553.85,165.87 603.16,194.06 630.94,209.95"];
	8 -- 12	[pos="448.68,111.68 459.48,116.72 472.37,122.74 483.13,127.76"];
	8 -- 13	[pos="432.39,83.539 437.34,69.423 444.25,49.724 449.2,35.615"];
	9 -- 21	[pos="122.12,259.14 101.54,251.12 71.676,239.49 50.981,231.42"];
	9 -- 24	[pos="168.35,277.99 180.16,283.02 194.53,289.15 206.34,294.18"];
	9 -- 28	[pos="156.38,284.9 167.1,301.28 183.38,326.16 194.08,342.5"];
	9 -- 17	[pos="149.63,250.17 152.73,236.68 156.95,218.32 160.04,204.83"];
	21 -- 27	[pos="27.208,203.96 27.164,191.26 27.106,174.39 27.063,161.72"];
	18 -- 20	[pos="660.47,238.93 668.74,254.77 680.94,278.12 689.21,293.94"];
	24 -- 28	[pos="221.51,321.36 218.67,327.8 215.46,335.09 212.62,341.53"];
	10 -- 15	[pos="567.44,382.16 561.62,399.06 552.92,424.34 547.11,441.22"];
	10 -- 11	[pos="548.32,371.39 544.42,372.47 540.4,373.59 536.52,374.67"];
	11 -- 15	[pos="518.2,399.16 523.03,411.81 529.52,428.81 534.34,441.45"];
	14 -- 19	[pos="367.43,443.66 356.81,436.53 343.65,427.69 333.02,420.56"];
	14 -- 26	[pos="377.55,473.66 363.22,501 335.37,554.16 321.02,581.54"];
	14 -- 22	[pos="386.85,474.52 387.03,485.27 387.26,498.87 387.44,509.66"];
	28 -- 29	[pos="219.73,374.41 225.2,380.07 231.4,386.49 236.88,392.16"];
	17 -- 25	[pos="191.05,189.33 213.31,191.41 244.78,194.36 267.02,196.45"];
	17 -- 21	[pos="138.75,193.38 114.16,199.74 77.111,209.31 52.566,215.65"];
	17 -- 24	[pos="173.64,203.84 185.96,226.04 207.39,264.65 219.72,286.87"];
	17 -- 27	[pos="139.66,179.08 114.84,171.27 76.681,159.24 51.776,151.39"];
	22 -- 26	[pos="372.05,542.61 359.05,554.77 340.67,571.96 327.67,584.11"];
}
