graph {
	graph [bb="0,0,759.36,569.19",
		outputorder=edgesfirst,
		overlap=prism,
		size="50,50!",
		start=8681
	];
	node [label="\N"];
	0	[height=0.5,
		pos="637,312.86",
		width=0.75];
	1	[height=0.5,
		pos="621.41,223.15",
		width=0.75];
	0 -- 1	[pos="633.85,294.7 631.14,279.14 627.27,256.84 624.56,241.28"];
	3	[height=0.5,
		pos="490.51,304.83",
		width=0.75];
	0 -- 3	[pos="609.79,311.37 583.48,309.92 543.84,307.75 517.57,306.31"];
	2	[height=0.5,
		pos="449.59,245.89",
		width=0.75];
	0 -- 2	[pos="612.89,304.24 576.9,291.38 509.55,267.32 473.62,254.48"];
	16	[height=0.5,
		pos="667.99,146.7",
		width=0.75];
	0 -- 16	[pos="640.38,294.76 646.34,262.8 658.66,196.72 664.62,164.77"];
	7	[height=0.5,
		pos="694.49,444.62",
		width=0.75];
	0 -- 7	[pos="644.64,330.36 655.63,355.56 675.81,401.81 686.82,427.05"];
	18	[height=0.5,
		pos="704.67,270.59",
		width=0.75];
	0 -- 18	[pos="656.94,300.4 665.67,294.95 675.9,288.56 684.64,283.1"];
	10	[height=0.5,
		pos="589.43,408.22",
		width=0.75];
	0 -- 10	[pos="628.28,330.35 619.69,347.55 606.66,373.67 598.1,390.84"];
	11	[height=0.5,
		pos="527.42,400.47",
		width=0.75];
	0 -- 11	[pos="619.4,326.93 598.95,343.28 565.41,370.09 544.98,386.43"];
	20	[height=0.5,
		pos="732.36,372.2",
		width=0.75];
	0 -- 20	[pos="656.76,325.15 673.02,335.27 695.96,349.55 712.3,359.71"];
	23	[height=0.5,
		pos="699.17,200.76",
		width=0.75];
	0 -- 23	[pos="646.44,295.83 658.13,274.76 677.92,239.09 689.64,217.95"];
	1 -- 3	[pos="601.53,235.56 576.93,250.91 535.27,276.9 510.58,292.3"];
	1 -- 2	[pos="594.56,226.71 562.29,230.98 508.44,238.1 476.25,242.37"];
	1 -- 16	[pos="631.75,206.19 639.47,193.52 649.97,176.28 657.68,163.62"];
	12	[height=0.5,
		pos="573.42,149.92",
		width=0.75];
	1 -- 12	[pos="610.52,206.54 602.67,194.55 592.11,178.44 584.26,166.47"];
	1 -- 18	[pos="641.99,234.88 654.8,242.18 671.22,251.53 684.04,258.83"];
	1 -- 23	[pos="646.44,215.94 655.32,213.39 665.31,210.51 674.19,207.96"];
	25	[height=0.5,
		pos="360.42,238.18",
		width=0.75];
	3 -- 25	[pos="469.03,293.82 444.92,281.47 406.05,261.55 381.93,249.2"];
	3 -- 7	[pos="509.7,317.98 548.67,344.69 636.69,405.01 675.5,431.61"];
	4	[height=0.5,
		pos="228.72,271.66",
		width=0.75];
	3 -- 4	[pos="463.97,301.46 413.79,295.11 305.56,281.4 255.33,275.03"];
	19	[height=0.5,
		pos="308.53,357.05",
		width=0.75];
	3 -- 19	[pos="465.59,311.98 430.84,321.95 368.19,339.93 333.44,349.9"];
	6	[height=0.5,
		pos="460.71,149.99",
		width=0.75];
	3 -- 6	[pos="487.03,286.76 481.29,256.93 469.89,197.7 464.16,167.94"];
	5	[height=0.5,
		pos="380.86,155.45",
		width=0.75];
	3 -- 5	[pos="478.57,288.56 457.47,259.82 413.87,200.42 392.79,171.7"];
	3 -- 12	[pos="499.7,287.66 515.64,257.88 548.22,197 564.19,167.17"];
	8	[height=0.5,
		pos="492.97,97.704",
		width=0.75];
	3 -- 8	[pos="490.72,286.81 491.19,247.64 492.29,155.1 492.75,115.83"];
	3 -- 18	[pos="516.77,300.63 557.87,294.06 636.96,281.41 678.2,274.82"];
	3 -- 10	[pos="505.11,320.08 523.81,339.63 556.04,373.32 574.77,392.9"];
	3 -- 11	[pos="497.28,322.37 503.9,339.52 513.92,365.49 520.57,382.71"];
	14	[height=0.5,
		pos="368.69,435.59",
		width=0.75];
	3 -- 14	[pos="476.06,320.34 452.61,345.51 406.56,394.94 383.13,420.1"];
	3 -- 20	[pos="515.48,311.78 561.82,324.69 660.65,352.22 707.16,365.18"];
	22	[height=0.5,
		pos="354.62,505.97",
		width=0.75];
	3 -- 22	[pos="479.39,321.29 453.91,359 391.52,451.34 365.89,489.28"];
	29	[height=0.5,
		pos="298.37,235.87",
		width=0.75];
	3 -- 29	[pos="466.56,296.23 429.65,282.98 359.24,257.72 322.32,244.47"];
	2 -- 3	[pos="460.99,262.31 466.57,270.35 473.28,280.01 478.89,288.09"];
	2 -- 16	[pos="472.14,235.65 514.1,216.59 603.7,175.9 645.56,156.88"];
	2 -- 25	[pos="422.35,243.54 411.29,242.58 398.54,241.48 387.49,240.52"];
	2 -- 19	[pos="432.01,259.75 404.98,281.05 353.49,321.62 326.33,343.02"];
	2 -- 6	[pos="451.68,227.85 453.67,210.71 456.64,185.07 458.63,167.95"];
	2 -- 5	[pos="437.3,229.72 424.87,213.36 405.75,188.2 393.27,171.78"];
	2 -- 12	[pos="467.33,232.14 490.87,213.9 532.19,181.88 555.71,163.64"];
	2 -- 8	[pos="454.82,228.02 463.16,199.54 479.37,144.17 487.72,115.64"];
	13	[height=0.5,
		pos="540.68,18",
		width=0.75];
	2 -- 13	[pos="456.59,228.39 473.54,185.97 516.68,78.045 533.66,35.564"];
	9	[height=0.5,
		pos="179.45,165.5",
		width=0.75];
	2 -- 9	[pos="424.66,238.47 373.2,223.16 255.73,188.2 204.32,172.9"];
	24	[height=0.5,
		pos="232.09,221.08",
		width=0.75];
	2 -- 24	[pos="422.92,242.85 381.18,238.09 300.86,228.93 258.98,224.15"];
	2 -- 10	[pos="463.25,261.75 490.06,292.87 549.23,361.56 575.91,392.53"];
	15	[height=0.5,
		pos="509.82,485.4",
		width=0.75];
	2 -- 15	[pos="454.12,263.89 465.31,308.39 494.17,423.14 505.32,467.51"];
	2 -- 11	[pos="458.22,263.03 473.18,292.74 503.77,353.49 518.76,383.26"];
	2 -- 14	[pos="442.13,263.4 426.71,299.54 391.54,382.03 376.14,418.13"];
	28	[height=0.5,
		pos="266.82,171.52",
		width=0.75];
	2 -- 28	[pos="426.44,236.47 391.38,222.21 325.19,195.27 290.07,180.98"];
	17	[height=0.5,
		pos="166.71,256.32",
		width=0.75];
	2 -- 17	[pos="422.47,246.89 368.4,248.89 247.75,253.33 193.75,255.33"];
	2 -- 23	[pos="475.83,241.15 523.76,232.48 624.96,214.18 672.91,205.51"];
	16 -- 23	[pos="677.68,163.51 681.4,169.95 685.65,177.31 689.38,183.77"];
	7 -- 20	[pos="703.46,427.46 709.5,415.91 717.42,400.76 723.45,389.24"];
	4 -- 25	[pos="254.11,265.2 277.43,259.28 311.81,250.54 335.1,244.61"];
	4 -- 19	[pos="243.36,287.32 257.76,302.73 279.61,326.12 293.98,341.49"];
	4 -- 5	[pos="246.77,257.87 276.05,235.51 333.57,191.57 362.83,169.22"];
	4 -- 9	[pos="220.58,254.13 211.4,234.34 196.55,202.36 187.43,182.7"];
	21	[height=0.5,
		pos="40.403,227.62",
		width=0.75];
	4 -- 21	[pos="202.93,265.63 166.87,257.2 101.78,241.98 65.882,233.58"];
	4 -- 24	[pos="229.94,253.4 230.25,248.76 230.58,243.78 230.89,239.14"];
	4 -- 28	[pos="235.53,253.76 242.47,235.53 253.15,207.44 260.07,189.27"];
	4 -- 17	[pos="203.14,265.33 199.54,264.44 195.83,263.53 192.23,262.64"];
	27	[height=0.5,
		pos="27,320.19",
		width=0.75];
	4 -- 27	[pos="203.17,277.81 164.48,287.12 91.419,304.69 52.658,314.02"];
	4 -- 29	[pos="250.38,260.53 258.84,256.18 268.53,251.21 276.97,246.87"];
	19 -- 24	[pos="299,340.11 284.35,314.05 256.46,264.42 241.74,238.24"];
	19 -- 28	[pos="304.45,338.92 296.46,303.36 278.81,224.85 270.85,189.45"];
	26	[height=0.5,
		pos="257.32,551.19",
		width=0.75];
	19 -- 26	[pos="303.8,374.97 294.05,411.95 271.78,496.37 262.04,533.31"];
	19 -- 22	[pos="313.99,374.72 322.86,403.38 340.29,459.68 349.15,488.32"];
	19 -- 29	[pos="307.01,338.91 305.09,316.07 301.82,277.04 299.9,254.14"];
	6 -- 25	[pos="444.15,164.55 425.57,180.89 395.6,207.24 377,223.59"];
	6 -- 12	[pos="487.99,149.97 505.71,149.96 528.71,149.95 546.38,149.94"];
	6 -- 8	[pos="471.09,133.16 474.78,127.19 478.92,120.47 482.6,114.5"];
	5 -- 25	[pos="376.42,173.4 372.99,187.28 368.27,206.39 364.84,220.26"];
	5 -- 6	[pos="407.89,153.6 416.22,153.03 425.38,152.4 433.7,151.84"];
	5 -- 8	[pos="402.47,144.32 422.33,134.09 451.59,119.02 471.42,108.8"];
	12 -- 13	[pos="569,132.13 562.76,106.95 551.4,61.184 545.13,35.931"];
	12 -- 18	[pos="589.51,164.72 614.7,187.87 663.17,232.44 688.44,255.67"];
	8 -- 12	[pos="512.44,110.34 525,118.49 541.27,129.05 553.84,137.22"];
	8 -- 13	[pos="503.09,80.801 511.18,67.275 522.48,48.398 530.58,34.879"];
	9 -- 21	[pos="156.8,175.62 130.94,187.17 88.895,205.96 63.043,217.51"];
	9 -- 24	[pos="194.11,180.98 201.41,188.69 210.22,197.98 217.51,205.68"];
	9 -- 28	[pos="206.61,167.37 217.13,168.1 229.15,168.92 239.67,169.65"];
	9 -- 17	[pos="176.93,183.44 174.71,199.26 171.49,222.21 169.26,238.11"];
	21 -- 27	[pos="37.755,245.91 35.39,262.25 31.946,286.03 29.597,302.26"];
	18 -- 20	[pos="709.62,288.75 714.66,307.25 722.43,335.75 727.45,354.19"];
	24 -- 28	[pos="243.66,204.58 247.37,199.28 251.48,193.42 255.19,188.12"];
	10 -- 15	[pos="574.08,423.1 559.98,436.76 539.2,456.91 525.12,470.56"];
	10 -- 11	[pos="562.77,404.88 559.88,404.52 556.94,404.16 554.05,403.8"];
	11 -- 15	[pos="523.69,418.48 520.7,432.89 516.53,453 513.55,467.41"];
	14 -- 19	[pos="356.23,419.32 345.9,405.84 331.3,386.78 320.98,373.3"];
	14 -- 26	[pos="353.67,451.18 332.3,473.37 293.35,513.79 272.1,535.84"];
	14 -- 22	[pos="365.07,453.72 362.98,464.14 360.37,477.2 358.28,487.66"];
	28 -- 29	[pos="275.28,188.76 279.8,198 285.36,209.34 289.9,218.58"];
	17 -- 25	[pos="193.64,253.8 230.55,250.34 296.45,244.17 333.4,240.71"];
	17 -- 21	[pos="141.15,250.52 119.38,245.57 88.24,238.49 66.359,233.52"];
	17 -- 24	[pos="187.76,244.98 195.22,240.95 203.62,236.43 211.08,232.4"];
	17 -- 27	[pos="144.26,266.58 118.19,278.5 75.438,298.05 49.391,309.96"];
	22 -- 26	[pos="332.05,516.46 316.33,523.76 295.46,533.46 279.76,540.76"];
}
