graph {
	graph [bb="0,0,1649.5,1041",
		outputorder=edgesfirst,
		overlap=prism,
		size="50,50!",
		start=4996
	];
	node [label="\N"];
	0	[height=0.5,
		pos="986.22,515.96",
		width=0.75];
	50	[height=0.5,
		pos="1089.1,301.73",
		width=0.75];
	0 -- 50	[pos="994.47,498.79 1013.7,458.68 1061.5,359.18 1080.8,318.98"];
	81	[height=0.5,
		pos="1005.2,358.73",
		width=0.75];
	0 -- 81	[pos="988.4,497.93 992.03,467.76 999.31,407.39 1003,377.04"];
	85	[height=0.5,
		pos="1091.6,727.15",
		width=0.75];
	0 -- 85	[pos="994.84,533.24 1014.7,572.95 1063.2,670.28 1083,709.93"];
	88	[height=0.5,
		pos="1026.7,724.04",
		width=0.75];
	0 -- 88	[pos="989.74,534.06 997.41,573.51 1015.6,666.85 1023.2,706.13"];
	104	[height=0.5,
		pos="1191.9,390.45",
		width=0.75];
	0 -- 104	[pos="1006.3,503.7 1045.6,479.7 1132.4,426.8 1171.7,402.76"];
	108	[height=0.5,
		pos="964.64,724.12",
		width=0.75];
	0 -- 108	[pos="984.34,534.07 980.26,573.44 970.62,666.44 966.52,705.91"];
	112	[height=0.5,
		pos="1348.8,430.89",
		width=0.75];
	0 -- 112	[pos="1011.7,509.98 1078.1,494.4 1255.9,452.68 1322.8,436.98"];
	114	[height=0.5,
		pos="1262.1,427.87",
		width=0.75];
	0 -- 114	[pos="1010.7,508.14 1063.1,491.43 1185.4,452.37 1237.7,435.67"];
	119	[height=0.5,
		pos="1118.2,611.42",
		width=0.75];
	0 -- 119	[pos="1004.6,529.24 1029.7,547.37 1074.4,579.72 1099.6,597.95"];
	128	[height=0.5,
		pos="1370.1,360.93",
		width=0.75];
	0 -- 128	[pos="1009.4,506.61 1077.8,478.99 1278.5,397.93 1346.9,370.29"];
	129	[height=0.5,
		pos="890.88,305.75",
		width=0.75];
	0 -- 129	[pos="978.26,498.4 960.27,458.73 916.66,362.59 898.76,323.11"];
	135	[height=0.5,
		pos="928.4,471.94",
		width=0.75];
	0 -- 135	[pos="968.24,502.27 961.35,497.02 953.48,491.03 946.56,485.77"];
	150	[height=0.5,
		pos="1055.8,617",
		width=0.75];
	0 -- 150	[pos="997.71,532.65 1010.7,551.48 1031.6,581.92 1044.5,600.63"];
	153	[height=0.5,
		pos="933.73,427.93",
		width=0.75];
	0 -- 153	[pos="976.1,498.99 966.81,483.4 953.11,460.42 943.82,444.85"];
	188	[height=0.5,
		pos="1067.2,389.81",
		width=0.75];
	0 -- 188	[pos="996.98,499.21 1012.5,475.08 1040.9,430.8 1056.4,406.63"];
	190	[height=0.5,
		pos="1183.6,644.53",
		width=0.75];
	0 -- 190	[pos="1005.9,528.76 1043.7,553.4 1126.2,607.18 1164,631.78"];
	204	[height=0.5,
		pos="906.08,679.06",
		width=0.75];
	0 -- 204	[pos="977.8,533.11 962.44,564.35 930.08,630.22 914.63,661.66"];
	245	[height=0.5,
		pos="804.35,437.9",
		width=0.75];
	0 -- 245	[pos="963.19,506.08 928.2,491.06 862.07,462.68 827.2,447.71"];
	246	[height=0.5,
		pos="1180.3,302.13",
		width=0.75];
	0 -- 246	[pos="1000.5,500.24 1036.5,460.6 1130.6,356.94 1166.3,317.59"];
	1	[height=0.5,
		pos="1012.9,661.05",
		width=0.75];
	51	[height=0.5,
		pos="915.65,590.57",
		width=0.75];
	1 -- 51	[pos="994.6,647.8 977.33,635.28 951.54,616.59 934.19,604.01"];
	62	[height=0.5,
		pos="853.61,585.86",
		width=0.75];
	1 -- 62	[pos="990.74,650.6 960.4,636.27 906.21,610.69 875.83,596.35"];
	72	[height=0.5,
		pos="931.3,819.7",
		width=0.75];
	1 -- 72	[pos="1004,678.34 988.31,708.85 955.86,771.94 940.18,802.44"];
	74	[height=0.5,
		pos="1246.9,838.33",
		width=0.75];
	1 -- 74	[pos="1030.9,674.67 1074.4,707.67 1185.2,791.62 1228.8,824.67"];
	76	[height=0.5,
		pos="1406.1,654.89",
		width=0.75];
	1 -- 76	[pos="1039.9,660.63 1111.8,659.5 1306.8,656.44 1378.9,655.31"];
	77	[height=0.5,
		pos="1308.4,526.98",
		width=0.75];
	1 -- 77	[pos="1035.6,650.76 1090.7,625.74 1231.2,561.99 1286.1,537.13"];
	80	[height=0.5,
		pos="993.32,834.3",
		width=0.75];
	1 -- 80	[pos="1010.8,679.27 1007.1,712.63 999.1,783.15 995.35,816.33"];
	84	[height=0.5,
		pos="1282.9,706.3",
		width=0.75];
	1 -- 84	[pos="1039.3,665.48 1090.9,674.13 1204.7,693.2 1256.4,701.86"];
	87	[height=0.5,
		pos="1200.7,794.32",
		width=0.75];
	1 -- 87	[pos="1031.6,674.32 1067.6,699.86 1146.2,755.61 1182.1,781.11"];
	90	[height=0.5,
		pos="1171.3,544.81",
		width=0.75];
	1 -- 90	[pos="1031.1,647.72 1061.4,625.42 1122.3,580.79 1152.8,558.35"];
	96	[height=0.5,
		pos="999.5,427.86",
		width=0.75];
	1 -- 96	[pos="1011.8,642.76 1009.3,599.16 1003,489.58 1000.5,446.07"];
	102	[height=0.5,
		pos="1005.9,768.92",
		width=0.75];
	1 -- 102	[pos="1011.7,679.35 1010.4,699.31 1008.4,731.04 1007.1,750.89"];
	117	[height=0.5,
		pos="1314,662.27",
		width=0.75];
	1 -- 117	[pos="1040.1,661.16 1097.3,661.39 1229.2,661.93 1286.6,662.16"];
	1 -- 119	[pos="1035,650.65 1053,642.18 1078.2,630.28 1096.2,621.81"];
	139	[height=0.5,
		pos="1091.9,845.66",
		width=0.75];
	1 -- 139	[pos="1020.3,678.42 1035.4,713.61 1069.3,792.95 1084.4,828.21"];
	1 -- 150	[pos="1027.9,645.65 1032.1,641.28 1036.8,636.53 1041,632.18"];
	151	[height=0.5,
		pos="1310.4,794.32",
		width=0.75];
	1 -- 151	[pos="1035.7,671.29 1091.3,696.16 1232.7,759.52 1287.9,784.24"];
	164	[height=0.5,
		pos="871.7,412.6",
		width=0.75];
	1 -- 164	[pos="1003.2,643.98 977.33,598.48 907,474.73 881.29,429.47"];
	167	[height=0.5,
		pos="809.82,732.61",
		width=0.75];
	1 -- 167	[pos="988.8,669.54 949.72,683.31 872.95,710.37 833.88,724.13"];
	173	[height=0.5,
		pos="1110.3,500.78",
		width=0.75];
	1 -- 173	[pos="1023.1,644.21 1041.8,613.51 1081.1,548.78 1099.9,517.89"];
	177	[height=0.5,
		pos="820.09,631.14",
		width=0.75];
	1 -- 177	[pos="986.49,656.96 949.67,651.24 883.3,640.95 846.49,635.23"];
	178	[height=0.5,
		pos="653.27,510.36",
		width=0.75];
	1 -- 178	[pos="989.85,651.4 925.05,624.25 741.72,547.42 676.59,520.13"];
	181	[height=0.5,
		pos="923.57,545.58",
		width=0.75];
	1 -- 181	[pos="1000.5,645 983.5,623.06 953.23,583.93 936.17,561.87"];
	191	[height=0.5,
		pos="1171.1,843.42",
		width=0.75];
	1 -- 191	[pos="1026.7,676.92 1056.7,711.5 1127.6,793.3 1157.5,827.72"];
	200	[height=0.5,
		pos="1245.7,750.31",
		width=0.75];
	1 -- 200	[pos="1036.5,670.1 1081.1,687.21 1177.4,724.11 1222,741.23"];
	223	[height=0.5,
		pos="1062.4,448.21",
		width=0.75];
	1 -- 223	[pos="1017.1,642.91 1026.5,602.6 1048.9,506 1058.2,466.01"];
	226	[height=0.5,
		pos="994.27,471.93",
		width=0.75];
	1 -- 226	[pos="1011.1,642.92 1007.5,606.77 999.61,526.11 996.05,490.01"];
	227	[height=0.5,
		pos="911.17,774.01",
		width=0.75];
	1 -- 227	[pos="998.75,676.76 979.32,698.34 944.57,736.93 925.2,758.44"];
	232	[height=0.5,
		pos="1068.1,801.61",
		width=0.75];
	1 -- 232	[pos="1019.8,678.57 1030.3,705.51 1050.5,756.81 1061.1,783.88"];
	235	[height=0.5,
		pos="1246.4,537.44",
		width=0.75];
	1 -- 235	[pos="1034.4,649.65 1079,626.04 1181,572.07 1225.2,548.64"];
	242	[height=0.5,
		pos="744.28,599.12",
		width=0.75];
	1 -- 242	[pos="987.14,655.12 935.79,643.28 821.24,616.86 769.96,605.04"];
	249	[height=0.5,
		pos="1295.3,618.26",
		width=0.75];
	1 -- 249	[pos="1039.5,657.03 1093.3,648.87 1214.7,630.48 1268.6,622.31"];
	2	[height=0.5,
		pos="649.52,241.24",
		width=0.75];
	52	[height=0.5,
		pos="483.87,469.31",
		width=0.75];
	2 -- 52	[pos="637.61,257.64 607.04,299.72 526.12,411.14 495.68,453.06"];
	61	[height=0.5,
		pos="566.37,378.43",
		width=0.75];
	2 -- 61	[pos="639.32,258.06 623.37,284.39 592.66,335.05 576.65,361.47"];
	63	[height=0.5,
		pos="882.42,217.72",
		width=0.75];
	2 -- 63	[pos="676.24,238.54 721.04,234.02 810.82,224.95 855.66,220.42"];
	93	[height=0.5,
		pos="544.54,154.44",
		width=0.75];
	2 -- 93	[pos="632.18,226.91 612.62,210.73 580.99,184.57 561.56,168.5"];
	103	[height=0.5,
		pos="452.93,307.14",
		width=0.75];
	2 -- 103	[pos="625.02,249.46 587.14,262.15 514.81,286.4 477.12,299.03"];
	118	[height=0.5,
		pos="468.79,189.79",
		width=0.75];
	2 -- 118	[pos="624.39,234.09 589.86,224.26 528.12,206.68 493.71,196.88"];
	122	[height=0.5,
		pos="716.24,63.092",
		width=0.75];
	2 -- 122	[pos="656.16,223.51 668.95,189.36 696.86,114.84 709.62,80.753"];
	144	[height=0.5,
		pos="609.24,153.19",
		width=0.75];
	2 -- 144	[pos="641.56,223.85 634.5,208.41 624.24,185.98 617.18,170.55"];
	152	[height=0.5,
		pos="606.62,197.23",
		width=0.75];
	2 -- 152	[pos="634.52,225.85 630.26,221.49 625.64,216.74 621.4,212.39"];
	2 -- 164	[pos="667.33,254.98 708.93,287.06 812.12,366.65 853.81,398.8"];
	179	[height=0.5,
		pos="780.5,106.12",
		width=0.75];
	2 -- 179	[pos="664.29,226.01 689.44,200.06 740.33,147.57 765.58,121.51"];
	193	[height=0.5,
		pos="763.04,312.58",
		width=0.75];
	2 -- 193	[pos="669.29,253.67 690,266.68 722.35,287.01 743.11,300.06"];
	208	[height=0.5,
		pos="950.22,217.52",
		width=0.75];
	2 -- 208	[pos="676.47,239.12 733.55,234.61 866.1,224.15 923.22,219.65"];
	3	[height=0.5,
		pos="794.78,482.82",
		width=0.75];
	53	[height=0.5,
		pos="732.72,504.66",
		width=0.75];
	3 -- 53	[pos="770.61,491.33 766.12,492.91 761.42,494.56 756.93,496.14"];
	54	[height=0.5,
		pos="952.93,314.73",
		width=0.75];
	3 -- 54	[pos="809.38,467.31 839.5,435.29 908.27,362.2 938.37,330.21"];
	3 -- 62	[pos="804.5,499.84 815.4,518.93 832.98,549.72 843.88,568.82"];
	73	[height=0.5,
		pos="721.12,268.53",
		width=0.75];
	3 -- 73	[pos="788.63,464.92 774.73,424.48 741.04,326.47 727.2,286.23"];
	78	[height=0.5,
		pos="888.18,634.82",
		width=0.75];
	3 -- 78	[pos="805.13,499.67 823.09,528.89 859.79,588.63 877.78,617.9"];
	98	[height=0.5,
		pos="759.41,371.42",
		width=0.75];
	3 -- 98	[pos="789.1,464.93 782.5,444.14 771.68,410.04 765.08,389.27"];
	99	[height=0.5,
		pos="561.17,511.06",
		width=0.75];
	3 -- 99	[pos="767.98,486.06 723.04,491.5 632.99,502.38 588.01,507.82"];
	101	[height=0.5,
		pos="628.78,351.91",
		width=0.75];
	3 -- 101	[pos="777.33,469.06 745.45,443.92 678.14,390.84 646.25,365.69"];
	105	[height=0.5,
		pos="986.13,562.94",
		width=0.75];
	3 -- 105	[pos="817.86,492.49 854.74,507.93 926.52,537.99 963.27,553.37"];
	3 -- 135	[pos="821.82,480.62 845,478.73 878.23,476.03 901.4,474.14"];
	137	[height=0.5,
		pos="931.61,360.96",
		width=0.75];
	3 -- 137	[pos="811.01,468.37 837.35,444.91 889.08,398.84 915.4,375.4"];
	3 -- 153	[pos="818.04,473.64 843.69,463.5 884.72,447.29 910.4,437.14"];
	155	[height=0.5,
		pos="577.17,466.93",
		width=0.75];
	3 -- 155	[pos="767.66,480.84 725.85,477.79 646.1,471.96 604.29,468.91"];
	166	[height=0.5,
		pos="823.75,368.56",
		width=0.75];
	3 -- 166	[pos="799.31,464.97 804.72,443.63 813.72,408.12 819.16,386.67"];
	171	[height=0.5,
		pos="639.04,285.28",
		width=0.75];
	3 -- 171	[pos="782.04,466.66 752.76,429.52 680.98,338.48 651.74,301.39"];
	217	[height=0.5,
		pos="614.44,634.4",
		width=0.75];
	3 -- 217	[pos="777.82,497.08 743.36,526.05 665.54,591.45 631.23,620.29"];
	243	[height=0.5,
		pos="775,688.51",
		width=0.75];
	3 -- 243	[pos="793.03,501.08 789.27,540.11 780.5,631.3 776.75,670.3"];
	4	[height=0.5,
		pos="866.36,471.27",
		width=0.75];
	4 -- 51	[pos="873.63,488.88 882.95,511.43 899.01,550.31 908.35,572.9"];
	55	[height=0.5,
		pos="1048.2,519.14",
		width=0.75];
	4 -- 55	[pos="891.65,477.93 926.3,487.05 988.17,503.33 1022.9,512.46"];
	68	[height=0.5,
		pos="690.94,366.63",
		width=0.75];
	4 -- 68	[pos="846.24,459.27 812.49,439.14 744.87,398.8 711.09,378.66"];
	89	[height=0.5,
		pos="696.38,643.78",
		width=0.75];
	4 -- 89	[pos="851.28,486.58 819.1,519.24 744.03,595.42 711.67,628.26"];
	4 -- 98	[pos="850.58,456.54 830.36,437.66 795.51,405.12 775.26,386.21"];
	141	[height=0.5,
		pos="639.56,435.12",
		width=0.75];
	4 -- 141	[pos="839.9,467.06 796.2,460.09 709.44,446.26 665.85,439.31"];
	154	[height=0.5,
		pos="1127.1,433.81",
		width=0.75];
	4 -- 154	[pos="892.8,467.48 942.78,460.3 1050.6,444.81 1100.6,437.62"];
	156	[height=0.5,
		pos="950.86,634.59",
		width=0.75];
	4 -- 156	[pos="875.25,488.44 891.43,519.73 925.56,585.68 941.84,617.16"];
	4 -- 166	[pos="859.13,453.85 851.3,434.96 838.87,404.99 831.02,386.07"];
	170	[height=0.5,
		pos="676.74,599.58",
		width=0.75];
	4 -- 170	[pos="847.14,484.28 810.7,508.94 732,562.2 695.74,586.73"];
	174	[height=0.5,
		pos="1048.3,563.64",
		width=0.75];
	4 -- 174	[pos="887.95,482.23 922.98,500.01 991.77,534.93 1026.8,552.69"];
	176	[height=0.5,
		pos="701.04,321.58",
		width=0.75];
	4 -- 176	[pos="850.21,456.65 818.68,428.1 749.27,365.25 717.5,336.48"];
	4 -- 181	[pos="878.77,487.4 888.37,499.86 901.59,517.03 911.18,529.49"];
	182	[height=0.5,
		pos="795.65,217.74",
		width=0.75];
	4 -- 182	[pos="861.39,453.45 848.41,406.9 813.59,282.08 800.62,235.55"];
	189	[height=0.5,
		pos="825.1,324.54",
		width=0.75];
	4 -- 189	[pos="861.38,453.57 853.45,425.37 838.04,370.54 830.09,342.3"];
	4 -- 193	[pos="855.5,454.59 835.71,424.19 793.98,360.1 774.07,329.52"];
	195	[height=0.5,
		pos="702.14,460.61",
		width=0.75];
	4 -- 195	[pos="839.24,469.51 808.73,467.53 759.45,464.33 729.03,462.36"];
	231	[height=0.5,
		pos="957.96,269.56",
		width=0.75];
	4 -- 231	[pos="874.33,453.73 891.7,415.48 932.78,325 950.07,286.92"];
	241	[height=0.5,
		pos="837.06,679.26",
		width=0.75];
	4 -- 241	[pos="863.81,489.37 858.27,528.7 845.18,621.63 839.62,661.06"];
	5	[height=0.5,
		pos="770.94,859.14",
		width=0.75];
	56	[height=0.5,
		pos="1065.3,889.7",
		width=0.75];
	5 -- 56	[pos="797.84,861.94 853.9,867.76 982.64,881.12 1038.5,886.93"];
	65	[height=0.5,
		pos="622.33,902.59",
		width=0.75];
	5 -- 65	[pos="746.06,866.42 718.63,874.43 674.75,887.26 647.28,895.29"];
	5 -- 72	[pos="796.35,852.89 826.29,845.53 875.74,833.37 905.74,825.99"];
	95	[height=0.5,
		pos="940.33,965.15",
		width=0.75];
	5 -- 95	[pos="790.7,871.51 823.25,891.88 887.79,932.27 920.43,952.7"];
	113	[height=0.5,
		pos="806.1,976.27",
		width=0.75];
	5 -- 113	[pos="776.28,876.93 782.89,898.95 794.08,936.22 800.71,958.31"];
	132	[height=0.5,
		pos="875.21,988.61",
		width=0.75];
	5 -- 132	[pos="783.72,875.02 803.74,899.87 842.25,947.68 862.32,972.6"];
	157	[height=0.5,
		pos="535.78,909.55",
		width=0.75];
	5 -- 157	[pos="744.87,864.73 699.55,874.45 606.75,894.34 561.6,904.02"];
	158	[height=0.5,
		pos="1003.2,879.91",
		width=0.75];
	5 -- 158	[pos="798.04,861.57 842.81,865.57 931.67,873.51 976.32,877.5"];
	165	[height=0.5,
		pos="618.3,946.94",
		width=0.75];
	5 -- 165	[pos="750.35,870.98 721.22,887.74 668.26,918.2 639.04,935.01"];
	203	[height=0.5,
		pos="646.39,858.54",
		width=0.75];
	5 -- 203	[pos="743.91,859.01 723.17,858.91 694.63,858.77 673.79,858.67"];
	5 -- 204	[pos="783.17,842.85 808.9,808.56 868.35,729.34 893.97,695.2"];
	219	[height=0.5,
		pos="650.99,718.41",
		width=0.75];
	5 -- 219	[pos="757.41,843.27 734.37,816.24 687.78,761.57 664.65,734.43"];
	5 -- 227	[pos="791.03,846.95 817.69,830.76 864.48,802.36 891.12,786.19"];
	5 -- 243	[pos="771.37,840.88 772.16,808.04 773.79,739.39 774.57,706.64"];
	248	[height=0.5,
		pos="560.3,861.12",
		width=0.75];
	5 -- 248	[pos="743.83,859.4 703.39,859.78 627.69,860.49 587.3,860.87"];
	6	[height=0.5,
		pos="1109.9,345.77",
		width=0.75];
	57	[height=0.5,
		pos="788.18,548.83",
		width=0.75];
	6 -- 57	[pos="1090.2,358.17 1032.8,394.42 865.59,499.96 807.97,536.33"];
	60	[height=0.5,
		pos="949.64,116.29",
		width=0.75];
	6 -- 60	[pos="1098.3,329.27 1068.8,286.93 990.51,174.82 961.06,132.65"];
	6 -- 63	[pos="1088.9,333.96 1045.5,309.56 946.64,253.88 903.36,229.51"];
	6 -- 104	[pos="1131,357.28 1143.2,363.95 1158.6,372.32 1170.9,378.98"];
	125	[height=0.5,
		pos="1210.4,176.65",
		width=0.75];
	6 -- 125	[pos="1119.9,328.94 1139.1,296.52 1181.2,225.78 1200.4,193.42"];
	159	[height=0.5,
		pos="1137.1,167.72",
		width=0.75];
	6 -- 159	[pos="1112.6,327.72 1117.8,293.6 1129.1,219.98 1134.3,185.82"];
	6 -- 173	[pos="1109.9,363.86 1110,393.57 1110.1,452.39 1110.2,482.33"];
	175	[height=0.5,
		pos="1434.1,375.61",
		width=0.75];
	6 -- 175	[pos="1136.7,348.24 1197.7,353.85 1346.2,367.53 1407.2,373.14"];
	183	[height=0.5,
		pos="1353.9,315.7",
		width=0.75];
	6 -- 183	[pos="1136.4,342.5 1183.3,336.73 1279.9,324.82 1327,319.02"];
	202	[height=0.5,
		pos="1152.2,220.68",
		width=0.75];
	6 -- 202	[pos="1115.8,328.12 1123.9,304.28 1138.2,262.04 1146.2,238.25"];
	210	[height=0.5,
		pos="1233.3,581.68",
		width=0.75];
	6 -- 210	[pos="1118.9,363.12 1141.8,406.85 1201.6,521.21 1224.4,564.62"];
	7	[height=0.5,
		pos="347.91,625.2",
		width=0.75];
	58	[height=0.5,
		pos="183.23,491.97",
		width=0.75];
	7 -- 58	[pos="330.6,611.2 298.97,585.61 232.19,531.59 200.56,505.99"];
	59	[height=0.5,
		pos="334.46,361.13",
		width=0.75];
	7 -- 59	[pos="346.98,607.05 344.53,558.81 337.86,427.79 335.39,379.4"];
	82	[height=0.5,
		pos="362,813.6",
		width=0.75];
	7 -- 82	[pos="349.26,643.27 351.95,679.28 357.96,759.62 360.65,795.59"];
	7 -- 99	[pos="369.14,613.84 410.01,591.96 499.22,544.22 540.03,522.38"];
	133	[height=0.5,
		pos="402.89,669.24",
		width=0.75];
	7 -- 133	[pos="365.3,639.14 371.72,644.28 378.99,650.1 385.42,655.24"];
	146	[height=0.5,
		pos="282.8,599.75",
		width=0.75];
	7 -- 146	[pos="324.4,616.01 318.57,613.74 312.33,611.29 306.49,609.01"];
	147	[height=0.5,
		pos="299.49,537.2",
		width=0.75];
	7 -- 147	[pos="338.57,608.23 330,592.65 317.36,569.68 308.8,554.11"];
	160	[height=0.5,
		pos="412.67,614.66",
		width=0.75];
	7 -- 160	[pos="374.25,620.91 378.17,620.28 382.22,619.62 386.14,618.98"];
	169	[height=0.5,
		pos="376.83,769.56",
		width=0.75];
	7 -- 169	[pos="351.51,643.19 357.05,670.86 367.61,723.54 373.18,751.34"];
	198	[height=0.5,
		pos="237.64,781.42",
		width=0.75];
	7 -- 198	[pos="336.32,641.63 315.19,671.55 270.66,734.64 249.41,764.75"];
	213	[height=0.5,
		pos="153.64,447.94",
		width=0.75];
	7 -- 213	[pos="331.68,610.4 295.02,576.95 206.17,495.88 169.69,462.59"];
	234	[height=0.5,
		pos="402.6,725.5",
		width=0.75];
	7 -- 234	[pos="357.18,642.22 367.24,660.66 383.2,689.92 393.27,708.4"];
	239	[height=0.5,
		pos="154.27,536",
		width=0.75];
	7 -- 239	[pos="325.7,614.97 288.44,597.81 213.8,563.42 176.52,546.25"];
	8	[height=0.5,
		pos="591.16,555.1",
		width=0.75];
	8 -- 61	[pos="588.6,536.86 583.84,502.91 573.67,430.44 568.92,396.57"];
	115	[height=0.5,
		pos="354.53,405.15",
		width=0.75];
	8 -- 115	[pos="571.39,542.57 526.85,514.34 419.05,446.03 374.4,417.74"];
	8 -- 160	[pos="566.72,563.25 532.54,574.66 470.84,595.25 436.82,606.6"];
	161	[height=0.5,
		pos="485.34,351.17",
		width=0.75];
	8 -- 161	[pos="582.32,538.06 562.4,499.67 514.2,406.78 494.23,368.3"];
	162	[height=0.5,
		pos="789.08,779.39",
		width=0.75];
	8 -- 162	[pos="605.08,570.87 641.42,612.05 738.86,722.47 775.18,763.63"];
	212	[height=0.5,
		pos="714.14,770.88",
		width=0.75];
	8 -- 212	[pos="600.81,572.03 623.8,612.37 681.59,713.77 704.54,754.02"];
	9	[height=0.5,
		pos="1386.5,578.68",
		width=0.75];
	9 -- 55	[pos="1360.3,574.05 1297.2,562.96 1138,534.93 1074.7,523.8"];
	64	[height=0.5,
		pos="1461.9,607.77",
		width=0.75];
	9 -- 64	[pos="1410,587.72 1419,591.22 1429.4,595.23 1438.5,598.73"];
	9 -- 105	[pos="1359.3,577.61 1286.2,574.73 1086,566.87 1013.1,564"];
	9 -- 117	[pos="1372.9,594.4 1359.9,609.34 1340.5,631.69 1327.5,646.61"];
	126	[height=0.5,
		pos="1433.9,709.56",
		width=0.75];
	9 -- 126	[pos="1392.9,596.33 1401.9,621.31 1418.4,666.72 1427.4,691.77"];
	163	[height=0.5,
		pos="1427,439.01",
		width=0.75];
	9 -- 163	[pos="1391.7,560.99 1399.4,534.27 1414,483.89 1421.8,456.99"];
	9 -- 174	[pos="1359.4,577.47 1296.1,574.65 1139,567.67 1075.6,564.85"];
	197	[height=0.5,
		pos="1370.6,706.29",
		width=0.75];
	9 -- 197	[pos="1384.3,596.69 1381.3,620.87 1375.9,663.61 1372.9,687.95"];
	218	[height=0.5,
		pos="1482.6,499.05",
		width=0.75];
	9 -- 218	[pos="1403.7,564.44 1421.2,549.95 1448.1,527.61 1465.6,513.16"];
	221	[height=0.5,
		pos="1448.6,550.54",
		width=0.75];
	9 -- 221	[pos="1408.9,568.52 1414.5,566 1420.4,563.3 1426,560.78"];
	236	[height=0.5,
		pos="1308.1,371.38",
		width=0.75];
	9 -- 236	[pos="1379.8,561 1365,521.84 1329.5,428.14 1314.7,389.01"];
	9 -- 249	[pos="1363.5,588.67 1349.6,594.71 1331.9,602.39 1318,608.41"];
	10	[height=0.5,
		pos="579.25,817.08",
		width=0.75];
	10 -- 65	[pos="587.97,834.38 595.44,849.22 606.15,870.48 613.62,885.31"];
	10 -- 82	[pos="552.18,816.64 510.43,815.98 430.82,814.7 389.07,814.03"];
	10 -- 89	[pos="590.48,800.46 612.87,767.34 662.82,693.43 685.18,660.35"];
	91	[height=0.5,
		pos="684.41,909.93",
		width=0.75];
	10 -- 91	[pos="595.68,831.59 615.44,849.03 648.39,878.13 668.09,895.52"];
	116	[height=0.5,
		pos="526.97,730.43",
		width=0.75];
	10 -- 116	[pos="569.17,800.37 559.97,785.13 546.44,762.7 537.2,747.38"];
	121	[height=0.5,
		pos="299.99,850.75",
		width=0.75];
	10 -- 121	[pos="552.47,820.31 499.1,826.74 379.99,841.11 326.68,847.53"];
	134	[height=0.5,
		pos="371.8,898.02",
		width=0.75];
	10 -- 134	[pos="555.86,826.21 515.91,841.79 435,873.36 395.1,888.93"];
	10 -- 165	[pos="584.6,834.86 592.03,859.59 605.42,904.12 612.89,928.96"];
	168	[height=0.5,
		pos="808.46,919.7",
		width=0.75];
	10 -- 168	[pos="602.07,827.29 646,846.96 741.88,889.89 785.74,909.52"];
	10 -- 169	[pos="553.61,811.06 514.78,801.94 441.47,784.73 402.57,775.6"];
	10 -- 170	[pos="587.07,799.65 605.32,758.92 650.6,657.9 668.89,617.1"];
	192	[height=0.5,
		pos="746.44,931.72",
		width=0.75];
	10 -- 192	[pos="598.11,830.01 630.22,852.03 695.16,896.56 727.4,918.67"];
	205	[height=0.5,
		pos="683.79,954.03",
		width=0.75];
	10 -- 205	[pos="591.65,833.33 611.77,859.68 651.29,911.46 671.4,937.8"];
	10 -- 217	[pos="582.75,798.89 589.5,763.88 604.22,687.47 610.95,652.51"];
	11	[height=0.5,
		pos="534.28,198.91",
		width=0.75];
	66	[height=0.5,
		pos="616,18",
		width=0.75];
	11 -- 66	[pos="542.11,181.57 557.73,146.99 592.59,69.831 608.19,35.294"];
	83	[height=0.5,
		pos="390.92,272.26",
		width=0.75];
	11 -- 83	[pos="512.81,209.89 485.79,223.72 439.62,247.34 412.52,261.2"];
	11 -- 144	[pos="554.37,186.66 565.12,180.1 578.33,172.04 589.1,165.48"];
	145	[height=0.5,
		pos="242.17,271.36",
		width=0.75];
	11 -- 145	[pos="508.87,205.22 453.62,218.92 323.11,251.28 267.73,265.02"];
	11 -- 171	[pos="551.58,213.18 570.99,229.18 602.29,254.99 621.71,271"];
	196	[height=0.5,
		pos="832.8,173.68",
		width=0.75];
	11 -- 196	[pos="561.3,196.63 617.99,191.84 748.8,180.78 805.62,175.98"];
	12	[height=0.5,
		pos="459.61,145.74",
		width=0.75];
	67	[height=0.5,
		pos="452.97,233.81",
		width=0.75];
	12 -- 67	[pos="458.23,163.99 457.09,179.1 455.48,200.48 454.35,215.59"];
	71	[height=0.5,
		pos="637.7,62.865",
		width=0.75];
	12 -- 71	[pos="481.8,135.41 516.02,119.49 581.29,89.118 615.51,73.193"];
	12 -- 93	[pos="486.48,148.49 496.49,149.52 507.85,150.68 517.84,151.7"];
	142	[height=0.5,
		pos="345,175.04",
		width=0.75];
	12 -- 142	[pos="434.17,152.24 415.18,157.1 389.34,163.7 370.36,168.55"];
	12 -- 161	[pos="461.89,163.97 466.78,202.96 478.19,294.03 483.07,332.98"];
	172	[height=0.5,
		pos="342.79,220.24",
		width=0.75];
	12 -- 172	[pos="440.05,158.21 418.49,171.96 383.99,193.96 362.4,207.73"];
	229	[height=0.5,
		pos="589.75,109.17",
		width=0.75];
	12 -- 229	[pos="484.7,138.69 507.75,132.21 541.71,122.67 564.73,116.2"];
	13	[height=0.5,
		pos="577,248.97",
		width=0.75];
	13 -- 59	[pos="554.62,259.32 508.41,280.69 402.95,329.46 356.79,350.8"];
	13 -- 68	[pos="591.89,264.35 613.73,286.9 654.2,328.69 676.04,351.25"];
	13 -- 101	[pos="585.78,266.43 595.36,285.48 610.6,315.77 620.13,334.71"];
	120	[height=0.5,
		pos="407.41,361.1",
		width=0.75];
	13 -- 120	[pos="557.54,261.83 524.83,283.46 459.2,326.86 426.64,348.38"];
	13 -- 152	[pos="586.7,232.03 589.94,226.37 593.55,220.06 596.8,214.39"];
	13 -- 176	[pos="597.48,260.96 620.46,274.41 657.53,296.11 680.52,309.57"];
	187	[height=0.5,
		pos="653.67,106.99",
		width=0.75];
	13 -- 187	[pos="586.25,231.84 600.98,204.55 629.63,151.5 644.39,124.17"];
	14	[height=0.5,
		pos="653.87,554.53",
		width=0.75];
	14 -- 53	[pos="673.77,541.95 685.81,534.33 701.11,524.65 713.11,517.07"];
	69	[height=0.5,
		pos="487.7,514.76",
		width=0.75];
	14 -- 69	[pos="628.27,548.41 597.04,540.93 544.57,528.37 513.33,520.9"];
	127	[height=0.5,
		pos="479.48,630.34",
		width=0.75];
	14 -- 127	[pos="631.07,564.44 597.65,578.97 535.71,605.89 502.28,620.42"];
	14 -- 177	[pos="676.29,564.86 708.1,579.52 766,606.21 797.77,620.85"];
	186	[height=0.5,
		pos="715.65,416.46",
		width=0.75];
	14 -- 186	[pos="661.69,537.05 673.58,510.49 696.04,460.28 707.89,433.81"];
	201	[height=0.5,
		pos="724.74,815.03",
		width=0.75];
	14 -- 201	[pos="658.74,572.44 671.69,620.03 706.85,749.27 719.83,797"];
	211	[height=0.5,
		pos="871.89,727.42",
		width=0.75];
	14 -- 211	[pos="671.34,568.39 712.16,600.76 813.43,681.06 854.33,713.5"];
	233	[height=0.5,
		pos="588.97,726.47",
		width=0.75];
	14 -- 233	[pos="647.17,572.28 634.7,605.32 608.08,675.86 595.64,708.82"];
	15	[height=0.5,
		pos="281.34,456.64",
		width=0.75];
	70	[height=0.5,
		pos="220.79,624.08",
		width=0.75];
	15 -- 70	[pos="274.98,474.24 263.35,506.4 238.79,574.29 227.16,606.46"];
	15 -- 83	[pos="291.46,439.62 312.33,404.5 359.97,324.32 380.83,289.23"];
	15 -- 103	[pos="297.8,442.3 330.51,413.8 403.4,350.3 436.27,321.65"];
	110	[height=0.5,
		pos="284.47,733",
		width=0.75];
	15 -- 110	[pos="281.55,474.77 282.11,524.85 283.7,664.65 284.26,714.8"];
	140	[height=0.5,
		pos="297.31,674.27",
		width=0.75];
	15 -- 140	[pos="282.68,474.82 285.68,515.78 292.96,614.92 295.97,655.99"];
	148	[height=0.5,
		pos="91.496,440.08",
		width=0.75];
	15 -- 148	[pos="254.55,454.3 218.47,451.16 154.63,445.59 118.46,442.44"];
	15 -- 178	[pos="307.79,460.46 376.17,470.34 558.21,496.63 626.71,506.52"];
	180	[height=0.5,
		pos="196.36,580.05",
		width=0.75];
	15 -- 180	[pos="270.06,473.03 253.81,496.63 223.97,539.95 207.7,563.59"];
	207	[height=0.5,
		pos="156.38,394.77",
		width=0.75];
	15 -- 207	[pos="259.58,445.86 236.78,434.58 201.18,416.95 178.32,405.63"];
	220	[height=0.5,
		pos="514.95,277.86",
		width=0.75];
	15 -- 220	[pos="299.29,442.91 342.77,409.63 453.4,324.96 496.94,291.64"];
	16	[height=0.5,
		pos="843.42,85.37",
		width=0.75];
	16 -- 60	[pos="868.32,92.62 885.37,97.583 907.88,104.14 924.89,109.09"];
	16 -- 71	[pos="816.52,82.428 777.1,78.115 704.03,70.121 664.6,65.807"];
	16 -- 179	[pos="818.91,93.454 814.36,94.956 809.6,96.526 805.04,98.029"];
	16 -- 182	[pos="837.07,102.95 827.94,128.27 811.17,174.73 802.02,200.09"];
	17	[height=0.5,
		pos="1498.1,384.88",
		width=0.75];
	75	[height=0.5,
		pos="1526.3,430.42",
		width=0.75];
	17 -- 75	[pos="1508.5,401.58 1510.9,405.54 1513.5,409.76 1516,413.72"];
	17 -- 77	[pos="1479.9,398.5 1443.7,425.66 1362.8,486.27 1326.6,513.39"];
	86	[height=0.5,
		pos="1240.6,248.71",
		width=0.75];
	17 -- 86	[pos="1476.6,373.5 1428,347.81 1310.2,285.53 1261.9,259.96"];
	17 -- 112	[pos="1473.4,392.48 1445.8,401 1401.1,414.75 1373.5,423.28"];
	130	[height=0.5,
		pos="1432.1,321.76",
		width=0.75];
	17 -- 130	[pos="1482.5,369.92 1471.9,359.86 1458.1,346.65 1447.6,336.61"];
	17 -- 154	[pos="1471.4,388.4 1403.1,397.41 1222.2,421.27 1153.8,430.29"];
	17 -- 183	[pos="1475.9,374.22 1448.7,361.18 1403,339.25 1375.9,326.25"];
	194	[height=0.5,
		pos="1559.1,306.69",
		width=0.75];
	17 -- 194	[pos="1510.7,368.68 1521.2,355.26 1536,336.28 1546.5,322.87"];
	17 -- 218	[pos="1495.6,402.97 1492.7,424.35 1487.9,459.7 1485,481.04"];
	225	[height=0.5,
		pos="1590.2,524.85",
		width=0.75];
	17 -- 225	[pos="1509,401.48 1526.8,428.42 1561.6,481.34 1579.3,508.26"];
	247	[height=0.5,
		pos="1551.1,475.83",
		width=0.75];
	17 -- 247	[pos="1508.1,401.98 1517.6,418.25 1531.7,442.56 1541.2,458.8"];
	18	[height=0.5,
		pos="1528.2,543.92",
		width=0.75];
	18 -- 75	[pos="1527.9,525.68 1527.6,504.5 1527,469.77 1526.6,448.61"];
	18 -- 76	[pos="1512,558.65 1488.6,579.88 1445.8,618.83 1422.4,640.09"];
	18 -- 175	[pos="1518.7,526.85 1500.6,494.59 1461.7,425.01 1443.7,392.72"];
	184	[height=0.5,
		pos="1622.5,572.36",
		width=0.75];
	18 -- 184	[pos="1553,551.39 1566.8,555.57 1584,560.76 1597.9,564.93"];
	222	[height=0.5,
		pos="1566,680.74",
		width=0.75];
	18 -- 222	[pos="1533.1,561.8 1540.4,588.02 1553.8,636.62 1561.1,662.85"];
	230	[height=0.5,
		pos="1563.8,386.25",
		width=0.75];
	18 -- 230	[pos="1532.3,525.83 1539.2,495.42 1552.9,434.4 1559.8,404.12"];
	18 -- 247	[pos="1534.2,526.03 1537.6,516.1 1541.7,503.78 1545.1,493.83"];
	19	[height=0.5,
		pos="1133.6,795.68",
		width=0.75];
	19 -- 78	[pos="1114.3,783.06 1068.5,753.06 953.69,677.76 907.68,647.6"];
	79	[height=0.5,
		pos="1309,845.02",
		width=0.75];
	19 -- 79	[pos="1158.7,802.75 1192.1,812.13 1250.6,828.59 1283.9,837.96"];
	19 -- 87	[pos="1160.9,795.13 1165.1,795.04 1169.4,794.95 1173.6,794.87"];
	109	[height=0.5,
		pos="1197.1,899.49",
		width=0.75];
	19 -- 109	[pos="1143.8,812.36 1155.5,831.61 1174.8,863.12 1186.7,882.5"];
	124	[height=0.5,
		pos="1364.7,750.31",
		width=0.75];
	19 -- 124	[pos="1159.6,790.56 1204.1,781.83 1294.3,764.13 1338.7,755.41"];
	19 -- 156	[pos="1117,781.1 1082.2,750.43 1001.9,679.56 967.23,649.02"];
	185	[height=0.5,
		pos="1066.9,958",
		width=0.75];
	19 -- 185	[pos="1126.4,813.05 1113.7,844.13 1087.1,908.92 1074.2,940.26"];
	19 -- 211	[pos="1108,789.01 1057.8,775.93 947.1,747.04 897.17,734.01"];
	20	[height=0.5,
		pos="890.93,261.74",
		width=0.75];
	20 -- 81	[pos="907.79,276.05 929.39,294.39 966.61,326 988.25,344.36"];
	106	[height=0.5,
		pos="964.93,165.74",
		width=0.75];
	20 -- 106	[pos="903.48,245.46 917.17,227.7 938.95,199.45 952.56,181.79"];
	20 -- 186	[pos="874.44,276.3 840.95,305.86 765.32,372.62 731.97,402.06"];
	20 -- 189	[pos="875.33,276.62 864.83,286.63 851.06,299.78 840.59,309.76"];
	21	[height=0.5,
		pos="1189.2,696.57",
		width=0.75];
	21 -- 79	[pos="1202,712.45 1224.9,740.88 1272.8,800.13 1295.9,828.79"];
	21 -- 84	[pos="1216,699.35 1228.6,700.66 1243.5,702.21 1256,703.51"];
	94	[height=0.5,
		pos="1187.6,477.85",
		width=0.75];
	21 -- 94	[pos="1189,678.29 1188.7,637.02 1188,536.99 1187.7,495.91"];
	21 -- 158	[pos="1173.9,711.57 1139,746.03 1053.3,830.54 1018.4,864.95"];
	21 -- 190	[pos="1187.2,678.37 1186.7,673.32 1186.1,667.85 1185.5,662.81"];
	21 -- 200	[pos="1204.9,711.54 1212.8,718.99 1222.2,727.97 1230,735.42"];
	22	[height=0.5,
		pos="1003.3,932.35",
		width=0.75];
	22 -- 85	[pos="1010.8,914.85 1027.5,876.09 1067.4,783.33 1084.1,744.6"];
	92	[height=0.5,
		pos="1234.6,945.16",
		width=0.75];
	22 -- 92	[pos="1030.2,933.84 1074.7,936.31 1162.8,941.19 1207.4,943.66"];
	22 -- 95	[pos="981.95,943.45 975.39,946.87 968.17,950.64 961.61,954.06"];
	22 -- 168	[pos="976.17,930.59 939.06,928.18 872.79,923.87 835.63,921.46"];
	22 -- 191	[pos="1024.5,921.09 1056.7,904.03 1117.5,871.82 1149.8,854.73"];
	23	[height=0.5,
		pos="1027.1,208.72",
		width=0.75];
	23 -- 50	[pos="1038.2,225.35 1049.5,242.28 1066.9,268.37 1078.1,285.25"];
	23 -- 86	[pos="1053.3,213.62 1094.4,221.32 1173.5,236.15 1214.5,243.83"];
	23 -- 96	[pos="1024.8,227.03 1019.6,268.38 1007,368.6 1001.8,409.76"];
	23 -- 159	[pos="1050.7,199.92 1069.1,193.05 1094.6,183.55 1113.2,176.64"];
	23 -- 196	[pos="1000.9,203.99 963.71,197.29 896.03,185.08 858.9,178.39"];
	23 -- 231	[pos="1010.7,223.14 999.86,232.7 985.65,245.2 974.71,254.82"];
	24	[height=0.5,
		pos="1372.5,836.62",
		width=0.75];
	24 -- 56	[pos="1346.3,841.15 1288.4,851.15 1150.1,875.05 1091.8,885.11"];
	24 -- 92	[pos="1355.1,850.37 1328.7,871.13 1278.9,910.29 1252.4,931.19"];
	24 -- 151	[pos="1353.6,823.7 1346,818.55 1337.3,812.63 1329.7,807.46"];
	24 -- 197	[pos="1372.3,818.5 1371.9,793.74 1371.2,749.57 1370.9,724.68"];
	24 -- 210	[pos="1363.2,819.5 1337.8,773.05 1267.9,645.08 1242.6,598.72"];
	228	[height=0.5,
		pos="1461.5,840.66",
		width=0.75];
	24 -- 228	[pos="1399.7,837.85 1410.8,838.35 1423.5,838.93 1434.5,839.43"];
	25	[height=0.5,
		pos="299.8,797.37",
		width=0.75];
	25 -- 52	[pos="309.44,780.19 341.25,723.5 442.66,542.76 474.33,486.32"];
	97	[height=0.5,
		pos="241.19,924.04",
		width=0.75];
	25 -- 97	[pos="291.77,814.72 280.61,838.84 260.52,882.27 249.31,906.49"];
	25 -- 134	[pos="311.69,813.99 325.11,832.75 346.8,863.08 360.13,881.71"];
	25 -- 140	[pos="299.43,779.2 298.96,755.93 298.15,715.82 297.68,692.51"];
	25 -- 198	[pos="274.52,790.88 270.75,789.92 266.87,788.92 263.1,787.95"];
	206	[height=0.5,
		pos="228.46,864.71",
		width=0.75];
	25 -- 206	[pos="283.97,812.31 272.15,823.47 256.06,838.66 244.25,849.81"];
	237	[height=0.5,
		pos="464.49,818.53",
		width=0.75];
	25 -- 237	[pos="326.63,800.82 357.34,804.76 407.35,811.19 437.95,815.12"];
	25 -- 248	[pos="325.25,803.6 375.05,815.78 484.86,842.66 534.74,854.86"];
	26	[height=0.5,
		pos="1131.4,900.97",
		width=0.75];
	26 -- 74	[pos="1152.5,889.48 1173.4,878.18 1205,861.03 1225.8,849.75"];
	100	[height=0.5,
		pos="1370.7,890.21",
		width=0.75];
	26 -- 100	[pos="1158.3,899.76 1204.3,897.69 1297.3,893.51 1343.4,891.43"];
	26 -- 109	[pos="1158.5,900.36 1162.3,900.27 1166.2,900.18 1170,900.1"];
	26 -- 162	[pos="1107.3,892.42 1044.4,870.1 875.94,810.24 813.12,787.93"];
	199	[height=0.5,
		pos="1018.6,1002",
		width=0.75];
	26 -- 199	[pos="1115.2,915.45 1093.8,934.66 1056.1,968.38 1034.7,987.58"];
	27	[height=0.5,
		pos="869.24,858.41",
		width=0.75];
	27 -- 91	[pos="844.31,865.36 809.04,875.19 744.91,893.06 709.53,902.93"];
	27 -- 102	[pos="888.53,845.78 914.43,828.82 960.19,798.85 986.27,781.78"];
	27 -- 113	[pos="860.06,875.55 848.09,897.89 827.27,936.75 815.29,959.11"];
	27 -- 185	[pos="891.15,869.45 929.26,888.64 1007.3,927.94 1045.2,947.07"];
	27 -- 201	[pos="844.4,850.95 817.93,843.01 776.27,830.5 749.74,822.53"];
	27 -- 241	[pos="865.98,840.25 859.79,805.82 846.44,731.46 840.28,697.2"];
	28	[height=0.5,
		pos="1020.7,301.8",
		width=0.75];
	28 -- 106	[pos="1013.5,284.29 1002.8,258.17 982.76,209.27 972.08,183.18"];
	143	[height=0.5,
		pos="852.08,526.85",
		width=0.75];
	28 -- 143	[pos="1008.5,317.99 977.51,359.41 895.48,468.92 864.32,510.51"];
	28 -- 188	[pos="1029.9,319.19 1038.1,334.72 1050,357.33 1058.2,372.76"];
	28 -- 202	[pos="1040.6,289.48 1065.4,274.23 1107.2,248.42 1132,233.12"];
	224	[height=0.5,
		pos="1071,127.57",
		width=0.75];
	28 -- 224	[pos="1025.9,283.81 1035.5,250.34 1056.2,178.86 1065.8,145.46"];
	28 -- 226	[pos="1017.8,320.01 1012.8,352.75 1002.1,421.21 997.07,453.85"];
	29	[height=0.5,
		pos="644.69,770.5",
		width=0.75];
	29 -- 57	[pos="655.48,753.84 682.13,712.66 750.88,606.44 777.46,565.38"];
	107	[height=0.5,
		pos="645.58,814.51",
		width=0.75];
	29 -- 107	[pos="645.06,788.65 645.11,791.21 645.16,793.84 645.22,796.4"];
	29 -- 167	[pos="670.49,764.58 701.52,757.46 753.26,745.59 784.2,738.49"];
	29 -- 203	[pos="645.05,788.74 645.34,803.85 645.75,825.22 646.04,840.32"];
	29 -- 234	[pos="618.32,765.6 571.75,756.94 475.48,739.04 428.93,730.39"];
	29 -- 237	[pos="619.26,777.28 584.91,786.43 524.08,802.65 489.8,811.78"];
	240	[height=0.5,
		pos="454.49,862.77",
		width=0.75];
	29 -- 240	[pos="622.5,781.27 585.85,799.05 513.09,834.34 476.54,852.08"];
	30	[height=0.5,
		pos="870.47,903.54",
		width=0.75];
	30 -- 80	[pos="891.31,891.8 913.9,879.06 949.75,858.86 972.38,846.1"];
	30 -- 108	[pos="879.5,886.34 897.5,852.04 937.66,775.53 955.63,741.28"];
	138	[height=0.5,
		pos="943.48,1023",
		width=0.75];
	30 -- 138	[pos="880.78,920.41 894.69,943.18 919.34,983.52 933.22,1006.2"];
	30 -- 199	[pos="889.84,916.42 918.23,935.29 970.84,970.28 999.23,989.15"];
	30 -- 205	[pos="845.29,910.35 809.56,920.01 744.54,937.6 708.86,947.25"];
	209	[height=0.5,
		pos="708.43,865.89",
		width=0.75];
	30 -- 209	[pos="844.79,897.58 814.45,890.53 764.27,878.87 733.98,871.83"];
	30 -- 212	[pos="853.74,889.34 823.81,863.94 761.41,810.99 731.23,785.37"];
	31	[height=0.5,
		pos="303.26,894.79",
		width=0.75];
	31 -- 97	[pos="281.2,905.18 275.49,907.88 269.33,910.78 263.59,913.48"];
	31 -- 110	[pos="301.14,876.55 297.53,845.47 290.23,782.63 286.61,751.43"];
	149	[height=0.5,
		pos="166.39,856.67",
		width=0.75];
	31 -- 149	[pos="278.15,887.8 253.46,880.92 215.97,870.48 191.33,863.61"];
	31 -- 157	[pos="330.38,896.51 375.19,899.36 464.13,905 508.82,907.84"];
	31 -- 206	[pos="280,885.44 271,881.82 260.71,877.68 251.7,874.06"];
	31 -- 240	[pos="329.25,889.29 357.04,883.41 400.82,874.13 428.58,868.26"];
	32	[height=0.5,
		pos="218.81,350.46",
		width=0.75];
	32 -- 69	[pos="239.02,362.81 288.98,393.33 417.81,472.06 467.62,502.49"];
	111	[height=0.5,
		pos="345.21,493.17",
		width=0.75];
	32 -- 111	[pos="232.58,366 256.9,393.45 307.16,450.2 331.46,477.64"];
	32 -- 172	[pos="233.52,335.01 257.38,309.95 304.25,260.72 328.1,235.67"];
	32 -- 207	[pos="200.08,363.76 192.18,369.36 183,375.88 175.1,381.49"];
	33	[height=0.5,
		pos="1244.8,346.34",
		width=0.75];
	33 -- 90	[pos="1238.3,363.95 1224.3,401.62 1191.7,489.61 1177.8,527.24"];
	33 -- 114	[pos="1248.6,364.43 1251.5,377.94 1255.4,396.33 1258.3,409.83"];
	33 -- 130	[pos="1271.6,342.82 1307.2,338.14 1369.7,329.94 1405.3,325.27"];
	33 -- 163	[pos="1266.4,357.33 1301.5,375.17 1370.4,410.2 1405.4,428.03"];
	33 -- 208	[pos="1222.2,336.44 1167.3,312.46 1027.8,251.46 972.92,227.44"];
	33 -- 235	[pos="1244.9,364.66 1245.2,401.19 1245.9,482.69 1246.2,519.17"];
	34	[height=0.5,
		pos="281.76,315.54",
		width=0.75];
	34 -- 115	[pos="294.77,331.56 308.01,347.87 328.42,373.01 341.63,389.27"];
	34 -- 118	[pos="301.07,302.56 337,278.4 413.73,226.81 449.58,202.7"];
	123	[height=0.5,
		pos="343.82,317.09",
		width=0.75];
	34 -- 123	[pos="308.8,316.22 311.41,316.28 314.06,316.35 316.68,316.41"];
	34 -- 142	[pos="289.64,298.03 301.83,270.96 325.09,219.26 337.22,192.33"];
	34 -- 213	[pos="267.06,330.73 242.48,356.13 193.29,406.97 168.56,432.53"];
	214	[height=0.5,
		pos="218.54,416.44",
		width=0.75];
	34 -- 214	[pos="271.32,332.2 259.61,350.9 240.71,381.05 228.99,399.75"];
	35	[height=0.5,
		pos="411.63,535.73",
		width=0.75];
	35 -- 116	[pos="421.67,552.67 443.54,589.58 495.27,676.92 517.04,713.67"];
	35 -- 120	[pos="411.2,517.7 410.39,484.23 408.66,412.88 407.85,379.29"];
	35 -- 141	[pos="434.32,525.71 478.01,506.43 573.34,464.35 616.96,445.09"];
	35 -- 147	[pos="384.49,536.08 366.99,536.31 344.31,536.61 326.78,536.84"];
	35 -- 214	[pos="391.7,523.41 354.6,500.49 275.38,451.56 238.37,428.69"];
	238	[height=0.5,
		pos="464.94,708.68",
		width=0.75];
	35 -- 238	[pos="417.14,553.59 427.38,586.82 449.25,657.77 459.47,690.92"];
	36	[height=0.5,
		pos="170,739.97",
		width=0.75];
	36 -- 70	[pos="177.61,722.62 187.18,700.77 203.54,663.45 213.13,641.55"];
	36 -- 121	[pos="186.73,754.22 211.69,775.5 258.4,815.31 283.32,836.55"];
	36 -- 149	[pos="169.44,758.2 168.76,780.12 167.63,816.69 166.95,838.56"];
	36 -- 180	[pos="172.98,721.93 178.04,691.22 188.28,629.1 193.36,598.26"];
	215	[height=0.5,
		pos="82.241,566.37",
		width=0.75];
	36 -- 215	[pos="161.27,722.69 144.45,689.41 107.74,616.8 90.942,583.58"];
	37	[height=0.5,
		pos="765.09,18.317",
		width=0.75];
	37 -- 66	[pos="737.75,18.259 710.85,18.202 670.01,18.115 643.17,18.058"];
	37 -- 122	[pos="749.09,32.978 743.75,37.875 737.8,43.334 732.44,48.245"];
	37 -- 187	[pos="747.68,32.172 726.87,48.733 692.24,76.291 671.33,92.938"];
	216	[height=0.5,
		pos="909.44,43.842",
		width=0.75];
	37 -- 216	[pos="791.23,22.94 817.23,27.537 856.91,34.553 883.01,39.168"];
	38	[height=0.5,
		pos="530.86,422.77",
		width=0.75];
	38 -- 67	[pos="523.67,405.33 508.83,369.33 474.97,287.17 460.14,251.21"];
	38 -- 123	[pos="510.13,411.05 474.17,390.74 400.66,349.2 364.64,328.85"];
	38 -- 219	[pos="538.01,440.38 559.38,492.96 622.56,648.43 643.87,700.89"];
	244	[height=0.5,
		pos="361.93,449.15",
		width=0.75];
	38 -- 244	[pos="504.46,426.89 472.82,431.83 420.1,440.07 388.42,445.01"];
	38 -- 245	[pos="558.08,424.27 610.5,427.18 724.9,433.51 777.24,436.4"];
	39	[height=0.5,
		pos="1523.9,629.75",
		width=0.75];
	39 -- 64	[pos="1499.8,621.19 1495.3,619.6 1490.6,617.94 1486.1,616.34"];
	39 -- 124	[pos="1506,643.35 1475.4,666.5 1413.5,713.33 1382.8,736.58"];
	39 -- 184	[pos="1544.4,617.86 1561.3,608.01 1585.2,594.08 1602.1,584.23"];
	39 -- 221	[pos="1509.4,614.48 1496.1,600.45 1476.4,579.78 1463,565.77"];
	39 -- 225	[pos="1534.6,612.9 1547,593.32 1567.2,561.22 1579.6,541.66"];
	40	[height=0.5,
		pos="1089.7,213.71",
		width=0.75];
	40 -- 54	[pos="1071.6,227.13 1045.4,246.45 997.38,281.91 971.17,301.26"];
	40 -- 125	[pos="1114.4,206.12 1135.3,199.73 1164.9,190.62 1185.7,184.23"];
	131	[height=0.5,
		pos="1280.6,204.55",
		width=0.75];
	40 -- 131	[pos="1116.7,212.42 1152.9,210.68 1217.1,207.6 1253.5,205.85"];
	136	[height=0.5,
		pos="887.53,129.67",
		width=0.75];
	40 -- 136	[pos="1066.5,204.07 1027.5,187.86 949.27,155.33 910.45,139.2"];
	40 -- 223	[pos="1087.6,231.72 1082.5,275.37 1069.6,386.43 1064.5,430.14"];
	40 -- 224	[pos="1085.9,195.86 1082.6,181.08 1078.1,160.17 1074.9,145.39"];
	40 -- 246	[pos="1105.1,228.71 1121.8,244.97 1148.2,270.77 1164.9,287.06"];
	41	[height=0.5,
		pos="1435.8,789.04",
		width=0.75];
	41 -- 100	[pos="1425,805.75 1413,824.49 1393.5,854.72 1381.5,873.48"];
	41 -- 126	[pos="1435.3,771.01 1435,758.09 1434.6,740.77 1434.3,727.8"];
	41 -- 222	[pos="1452.8,774.89 1477.7,754.13 1524,715.66 1549,694.9"];
	41 -- 228	[pos="1444.3,806.23 1447.1,811.74 1450.1,817.85 1452.9,823.37"];
	42	[height=0.5,
		pos="700.11,197.19",
		width=0.75];
	42 -- 73	[pos="705.41,215.19 708.62,226.09 712.69,239.93 715.89,250.78"];
	42 -- 129	[pos="720.89,209.02 757.59,229.9 833.45,273.07 870.13,293.94"];
	42 -- 136	[pos="724.23,188.5 760.21,175.54 827.57,151.27 863.5,138.33"];
	42 -- 220	[pos="677.41,207.08 641.87,222.57 573.49,252.35 537.84,267.89"];
	42 -- 229	[pos="682.38,183.05 661.66,166.53 627.61,139.37 607.07,122.99"];
	43	[height=0.5,
		pos="1494.8,287.69",
		width=0.75];
	43 -- 128	[pos="1474.5,299.62 1451.3,313.24 1413.6,335.39 1390.4,349"];
	43 -- 131	[pos="1471,278.48 1429.8,262.45 1345.2,229.65 1304.1,213.68"];
	43 -- 194	[pos="1519.8,295.09 1524.5,296.47 1529.4,297.9 1534,299.28"];
	43 -- 230	[pos="1506.5,304.41 1519.3,322.64 1539.6,351.64 1552.3,369.78"];
	44	[height=0.5,
		pos="941.24,920.22",
		width=0.75];
	44 -- 88	[pos="948.82,902.81 965.03,865.58 1002.9,778.6 1019.1,741.41"];
	44 -- 132	[pos="926.58,935.4 915.8,946.57 901.17,961.72 890.28,973"];
	44 -- 138	[pos="941.64,938.6 942.04,957.31 942.67,986.15 943.08,1004.8"];
	44 -- 139	[pos="963.15,909.38 991.71,895.24 1041.4,870.66 1070,856.52"];
	44 -- 192	[pos="914.15,921.82 877.04,924.01 810.77,927.93 773.61,930.12"];
	44 -- 232	[pos="957.04,905.44 981.35,882.71 1027.6,839.42 1052.1,816.58"];
	45	[height=0.5,
		pos="548.41,599.5",
		width=0.75];
	45 -- 111	[pos="527.05,588.32 488.03,567.9 405.63,524.78 366.59,504.35"];
	45 -- 133	[pos="526.31,610.09 498.96,623.2 452.65,645.39 425.2,658.55"];
	45 -- 195	[pos="564.57,584.9 594.02,558.3 656.11,502.2 685.74,475.44"];
	45 -- 233	[pos="554.05,617.16 561.76,641.28 575.5,684.3 583.25,708.56"];
	45 -- 242	[pos="575.65,599.45 613.07,599.38 679.98,599.24 717.28,599.17"];
	46	[height=0.5,
		pos="1076.1,257.72",
		width=0.75];
	46 -- 94	[pos="1084.9,274.99 1105.7,316.14 1158.1,419.59 1178.9,460.66"];
	46 -- 137	[pos="1057.5,271.01 1029.8,290.83 977.84,327.93 950.13,347.73"];
	46 -- 216	[pos="1063.6,241.65 1032.7,202.01 953.15,99.936 922.11,60.105"];
	46 -- 236	[pos="1097.9,268.41 1142.1,290.08 1241.8,338.93 1286.1,360.64"];
	47	[height=0.5,
		pos="713,726.71",
		width=0.75];
	47 -- 107	[pos="700.63,742.81 688.54,758.55 670.24,782.4 658.1,798.21"];
	47 -- 143	[pos="724.38,710.35 750.46,672.87 814.31,581.12 840.54,543.43"];
	47 -- 209	[pos="712.4,744.9 711.52,771.58 709.9,821.01 709.02,847.69"];
	47 -- 238	[pos="685.98,724.74 638.26,721.28 539.62,714.11 491.93,710.64"];
	48	[height=0.5,
		pos="27,423.24",
		width=0.75];
	48 -- 58	[pos="49.717,433.24 79.337,446.27 130.85,468.93 160.48,481.97"];
	48 -- 145	[pos="45.718,410.03 86.411,381.3 182.54,313.44 223.34,284.65"];
	48 -- 148	[pos="52.491,429.9 56.997,431.08 61.689,432.3 66.191,433.48"];
	48 -- 215	[pos="33.774,440.79 44.376,468.26 64.776,521.12 75.412,548.68"];
	48 -- 239	[pos="43.378,437.75 67.816,459.4 113.56,499.92 137.96,521.54"];
	49	[height=0.5,
		pos="344.88,581.2",
		width=0.75];
	49 -- 127	[pos="368.63,589.87 393.09,598.8 430.98,612.63 455.51,621.59"];
	49 -- 146	[pos="319.99,588.64 315.94,589.85 311.75,591.1 307.7,592.31"];
	49 -- 155	[pos="366.74,570.45 411.01,548.67 510.84,499.56 555.21,477.73"];
	49 -- 244	[pos="347.22,563.12 350.46,537.97 356.31,492.7 359.57,467.44"];
}
