graph {
	graph [bb="0,0,403.64,320.11",
		outputorder=edgesfirst,
		overlap=prism,
		size="50,50!",
		start=510
	];
	node [label="\N"];
	0	[height=0.5,
		pos="227.18,49.207",
		width=0.75];
	2	[height=0.5,
		pos="173.05,186.09",
		width=0.75];
	0 -- 2	[pos="220.21,66.822 209.82,93.105 190.36,142.3 179.98,168.54"];
	1	[height=0.5,
		pos="308.99,21.224",
		width=0.75];
	0 -- 1	[pos="251.28,40.962 261.84,37.351 274.21,33.122 284.78,29.506"];
	4	[height=0.5,
		pos="376.64,120.72",
		width=0.75];
	0 -- 4	[pos="249.23,59.759 277.49,73.279 326.19,96.583 354.49,110.12"];
	3	[height=0.5,
		pos="264.59,286.51",
		width=0.75];
	0 -- 3	[pos="230.05,67.433 237.03,111.71 254.82,224.54 261.76,268.54"];
	6	[height=0.5,
		pos="27,128.91",
		width=0.75];
	0 -- 6	[pos="203.82,58.506 165.25,73.865 88.68,104.35 50.206,119.67"];
	7	[height=0.5,
		pos="98.653,18",
		width=0.75];
	0 -- 7	[pos="201.78,43.041 179.4,37.606 146.93,29.723 124.43,24.259"];
	5	[height=0.5,
		pos="358.65,239.21",
		width=0.75];
	2 -- 5	[pos="198.08,193.26 233.6,203.42 298.25,221.92 333.72,232.07"];
	2 -- 3	[pos="187.35,201.78 204.55,220.65 233.24,252.11 250.39,270.93"];
	2 -- 6	[pos="149.58,176.91 122.33,166.24 77.635,148.74 50.406,138.08"];
	10	[height=0.5,
		pos="59.043,240.43",
		width=0.75];
	2 -- 10	[pos="151.06,196.57 131.01,206.13 101.5,220.19 81.346,229.8"];
	1 -- 2	[pos="295.96,37.032 270.04,68.465 212.29,138.5 186.24,170.09"];
	1 -- 4	[pos="320.16,37.654 332.7,56.089 352.91,85.821 365.45,104.27"];
	1 -- 5	[pos="313.06,39.063 322.37,79.939 345.17,180.01 354.53,221.12"];
	1 -- 7	[pos="281.92,20.809 241.65,20.192 166.36,19.038 125.95,18.418"];
	11	[height=0.5,
		pos="165.17,88.67",
		width=0.75];
	1 -- 11	[pos="286.84,31.615 259.89,44.252 214.66,65.464 187.59,78.157"];
	4 -- 5	[pos="373.9,138.72 370.52,160.99 364.8,198.69 361.41,221.04"];
	4 -- 11	[pos="350.28,116.73 309.65,110.57 232.16,98.823 191.52,92.665"];
	8	[height=0.5,
		pos="244.39,180.81",
		width=0.75];
	4 -- 8	[pos="354.2,130.91 329.88,141.96 291.3,159.5 266.94,170.57"];
	5 -- 8	[pos="337.16,228.22 316.86,217.85 286.57,202.37 266.18,191.94"];
	9	[height=0.5,
		pos="150.32,302.11",
		width=0.75];
	5 -- 9	[pos="333.93,246.67 293.84,258.78 215.08,282.56 175,294.66"];
	3 -- 4	[pos="275.75,270.01 297.22,238.23 344.09,168.88 365.53,137.16"];
	3 -- 5	[pos="286.41,275.54 301.6,267.9 321.79,257.75 336.95,250.12"];
	3 -- 10	[pos="238.98,280.77 199.48,271.91 124.16,255.03 84.66,246.17"];
	3 -- 9	[pos="238.09,290.13 219.76,292.63 195.46,295.95 177.08,298.46"];
	6 -- 10	[pos="32.148,146.83 38.128,167.64 47.934,201.77 53.908,222.56"];
	6 -- 7	[pos="37.883,112.07 51.428,91.101 74.419,55.513 87.903,34.641"];
	6 -- 11	[pos="52.022,121.63 77.063,114.33 115.36,103.18 140.34,95.904"];
	6 -- 9	[pos="38.602,145.21 62.105,178.22 115.11,252.65 138.66,285.73"];
	7 -- 10	[pos="95.412,36.202 87.966,78.016 69.71,180.53 62.274,222.29"];
	7 -- 11	[pos="113.09,33.334 124.24,45.188 139.62,61.52 150.77,73.366"];
	7 -- 8	[pos="112.63,33.611 140.41,64.651 202.32,133.81 230.25,165.01"];
	8 -- 10	[pos="219.78,188.73 184.23,200.16 118.9,221.18 83.463,232.57"];
	8 -- 11	[pos="230.96,165.18 216.39,148.24 193.27,121.35 178.68,104.38"];
	8 -- 9	[pos="231.9,196.92 213.91,220.12 180.88,262.7 162.86,285.94"];
	9 -- 10	[pos="130.96,289.03 115.37,278.49 93.563,263.76 78.06,253.28"];
	9 -- 11	[pos="151.59,283.91 154.39,243.59 161.1,147.1 163.91,106.82"];
}
