graph {
	graph [bb="0,0,1191.8,610.98",
		outputorder=edgesfirst,
		overlap=prism,
		size="50,50!",
		start=1958
	];
	node [label="\N"];
	0	[height=0.5,
		pos="606.06,397.18",
		width=0.75];
	37	[height=0.5,
		pos="437.63,427.34",
		width=0.75];
	0 -- 37	[pos="579.75,401.89 548.1,407.56 495.32,417.01 463.76,422.66"];
	2	[height=0.5,
		pos="823.57,408.98",
		width=0.75];
	0 -- 2	[pos="633.17,398.65 674.97,400.92 754.67,405.24 796.46,407.51"];
	25	[height=0.5,
		pos="668.5,429.11",
		width=0.75];
	0 -- 25	[pos="627.55,408.17 633.76,411.34 640.54,414.81 646.76,417.99"];
	3	[height=0.5,
		pos="890.02,421.14",
		width=0.75];
	0 -- 3	[pos="633.03,399.46 687.3,404.04 809.11,414.32 863.23,418.88"];
	4	[height=0.5,
		pos="550.43,327.85",
		width=0.75];
	0 -- 4	[pos="593.16,381.1 584.17,369.9 572.24,355.03 563.27,343.85"];
	5	[height=0.5,
		pos="488.43,325.83",
		width=0.75];
	0 -- 5	[pos="585.84,384.92 564.3,371.85 530.38,351.27 508.78,338.18"];
	18	[height=0.5,
		pos="502.45,371.88",
		width=0.75];
	0 -- 18	[pos="580.45,390.93 564.51,387.04 544.08,382.05 528.13,378.15"];
	62	[height=0.5,
		pos="440.42,369.9",
		width=0.75];
	0 -- 62	[pos="579.82,392.86 548.89,387.76 497.81,379.35 466.82,374.25"];
	9	[height=0.5,
		pos="554.35,226.26",
		width=0.75];
	0 -- 9	[pos="600.73,379.53 590.82,346.78 569.69,276.94 559.74,244.07"];
	34	[height=0.5,
		pos="792.52,355.39",
		width=0.75];
	0 -- 34	[pos="631.99,391.37 667.61,383.39 731.31,369.11 766.82,361.16"];
	12	[height=0.5,
		pos="378.34,383.28",
		width=0.75];
	0 -- 12	[pos="579.05,395.53 535.22,392.86 449.13,387.6 405.32,384.93"];
	20	[height=0.5,
		pos="378.4,329.51",
		width=0.75];
	0 -- 20	[pos="581.27,389.81 537.47,376.79 446.94,349.88 403.16,336.87"];
	39	[height=0.5,
		pos="523.94,528.17",
		width=0.75];
	0 -- 39	[pos="595.5,414.04 579.73,439.19 550.21,486.27 534.47,511.38"];
	49	[height=0.5,
		pos="606.48,452.66",
		width=0.75];
	0 -- 49	[pos="606.2,415.35 606.24,421.54 606.3,428.46 606.34,434.65"];
	64	[height=0.5,
		pos="735.55,462.99",
		width=0.75];
	0 -- 64	[pos="627.74,408.2 651.64,420.34 689.88,439.77 713.81,451.94"];
	28	[height=0.5,
		pos="544.47,484.17",
		width=0.75];
	0 -- 28	[pos="594.48,413.54 583.47,429.09 567,452.35 556,467.88"];
	71	[height=0.5,
		pos="499.68,431.5",
		width=0.75];
	0 -- 71	[pos="581.66,405.06 564.48,410.6 541.57,417.99 524.34,423.55"];
	54	[height=0.5,
		pos="612.45,329.51",
		width=0.75];
	0 -- 54	[pos="607.78,379.05 608.69,369.34 609.82,357.41 610.73,347.7"];
	35	[height=0.5,
		pos="482.44,475.51",
		width=0.75];
	0 -- 35	[pos="586.48,409.59 563.46,424.17 525.5,448.23 502.35,462.9"];
	57	[height=0.5,
		pos="673.51,473.12",
		width=0.75];
	0 -- 57	[pos="620.04,412.92 631.62,425.95 647.99,444.38 659.56,457.4"];
	77	[height=0.5,
		pos="674.51,287.25",
		width=0.75];
	0 -- 77	[pos="616.46,380.49 629.32,359.82 651.11,324.84 664.02,304.1"];
	37 -- 62	[pos="438.51,409.17 438.84,402.46 439.21,394.86 439.54,388.15"];
	1	[height=0.5,
		pos="796.49,233.45",
		width=0.75];
	67	[height=0.5,
		pos="854.55,364.94",
		width=0.75];
	1 -- 67	[pos="804.2,250.91 815.31,276.06 835.68,322.22 846.81,347.41"];
	1 -- 2	[pos="799.29,251.57 804.49,285.3 815.6,357.3 820.79,390.95"];
	1 -- 3	[pos="805.13,250.77 822.94,286.53 863.61,368.14 881.41,403.86"];
	8	[height=0.5,
		pos="916.58,330.77",
		width=0.75];
	1 -- 8	[pos="813.7,247.4 836.53,265.9 876.59,298.37 899.4,316.85"];
	1 -- 4	[pos="772.9,242.5 725.87,260.55 620.93,300.81 573.96,318.83"];
	36	[height=0.5,
		pos="617.98,199.19",
		width=0.75];
	1 -- 36	[pos="770.54,228.47 736.69,221.98 677.83,210.68 643.97,204.18"];
	10	[height=0.5,
		pos="978.66,250.1",
		width=0.75];
	1 -- 10	[pos="823.37,235.91 857.82,239.06 917.18,244.48 951.67,247.63"];
	1 -- 9	[pos="769.19,232.64 722.56,231.26 628.12,228.45 581.56,227.07"];
	1 -- 34	[pos="795.9,251.71 795.15,274.7 793.87,313.97 793.12,337.01"];
	41	[height=0.5,
		pos="858.53,226.4",
		width=0.75];
	1 -- 41	[pos="823.16,230.42 826.05,230.09 828.99,229.76 831.88,229.43"];
	43	[height=0.5,
		pos="920.59,202.44",
		width=0.75];
	1 -- 43	[pos="821.91,227.1 843.32,221.75 873.81,214.13 895.21,208.79"];
	52	[height=0.5,
		pos="854.6,278.08",
		width=0.75];
	1 -- 52	[pos="814.24,247.08 821.32,252.52 829.46,258.77 836.56,264.22"];
	23	[height=0.5,
		pos="652.68,135.01",
		width=0.75];
	1 -- 23	[pos="777.4,220.38 749.89,201.55 699.41,166.99 671.86,148.14"];
	50	[height=0.5,
		pos="687.37,90.961",
		width=0.75];
	1 -- 50	[pos="784.19,217.38 763.23,190.02 720.84,134.66 699.8,107.19"];
	73	[height=0.5,
		pos="581.65,155.18",
		width=0.75];
	1 -- 73	[pos="772.68,224.78 731.38,209.73 646.94,178.97 605.57,163.89"];
	29	[height=0.5,
		pos="916.63,284.54",
		width=0.75];
	1 -- 29	[pos="819.37,243.18 840.75,252.27 872.49,265.77 893.84,274.85"];
	44	[height=0.5,
		pos="671.72,243.21",
		width=0.75];
	1 -- 44	[pos="769.42,235.57 748.49,237.2 719.66,239.46 698.74,241.09"];
	53	[height=0.5,
		pos="867.9,158.42",
		width=0.75];
	1 -- 53	[pos="811.29,217.9 823.63,204.94 841.11,186.57 853.37,173.69"];
	74	[height=0.5,
		pos="730.47,331.25",
		width=0.75];
	1 -- 74	[pos="785.29,250.04 773.15,268.03 753.89,296.56 741.73,314.58"];
	58	[height=0.5,
		pos="796.94,146.59",
		width=0.75];
	1 -- 58	[pos="796.59,215.03 796.67,200.19 796.77,179.44 796.85,164.69"];
	1 -- 77	[pos="773.84,243.44 751.93,253.11 718.92,267.67 697.05,277.31"];
	65	[height=0.5,
		pos="760.76,102.54",
		width=0.75];
	1 -- 65	[pos="791.6,215.52 784.76,190.45 772.4,145.21 765.59,120.25"];
	79	[height=0.5,
		pos="736.55,277.47",
		width=0.75];
	1 -- 79	[pos="778.18,246.9 770.75,252.36 762.18,258.65 754.75,264.11"];
	2 -- 25	[pos="796.91,412.44 768.42,416.13 723.53,421.96 695.07,425.66"];
	2 -- 3	[pos="849.83,413.78 854.48,414.64 859.31,415.52 863.95,416.37"];
	2 -- 4	[pos="798.85,401.63 746.98,386.23 627.29,350.68 575.3,335.24"];
	7	[height=0.5,
		pos="978.97,322.72",
		width=0.75];
	2 -- 7	[pos="844.53,397.34 874.27,380.83 928.4,350.79 958.1,334.31"];
	17	[height=0.5,
		pos="824.21,481.66",
		width=0.75];
	2 -- 17	[pos="823.73,427.32 823.83,438.42 823.95,452.52 824.05,463.58"];
	2 -- 52	[pos="827.82,391.05 833.73,366.12 844.37,321.24 850.3,296.21"];
	22	[height=0.5,
		pos="762.19,507.03",
		width=0.75];
	2 -- 22	[pos="813.16,425.61 801.87,443.64 783.96,472.26 772.66,490.32"];
	26	[height=0.5,
		pos="907.15,465.23",
		width=0.75];
	2 -- 26	[pos="842.96,422.02 856.46,431.11 874.39,443.18 887.87,452.26"];
	46	[height=0.5,
		pos="730.51,397.6",
		width=0.75];
	2 -- 46	[pos="796.65,405.69 784.31,404.18 769.7,402.39 757.37,400.89"];
	2 -- 64	[pos="803.6,421.23 789.19,430.07 769.83,441.95 755.45,450.78"];
	2 -- 29	[pos="835.74,392.71 853.57,368.86 886.63,324.67 904.46,300.82"];
	2 -- 74	[pos="806.5,394.72 789.7,380.7 764.2,359.41 747.44,345.42"];
	2 -- 57	[pos="800.78,418.72 772.58,430.77 724.82,451.19 696.52,463.28"];
	25 -- 49	[pos="644.7,438.15 639.91,439.96 634.89,441.87 630.11,443.69"];
	25 -- 46	[pos="690.19,418.09 696.2,415.04 702.72,411.72 708.73,408.67"];
	25 -- 57	[pos="670.57,447.26 670.86,449.82 671.16,452.45 671.45,455"];
	3 -- 67	[pos="879.38,404.28 874.89,397.17 869.67,388.91 865.18,381.79"];
	3 -- 8	[pos="895.27,403.29 899.92,387.45 906.69,364.42 911.34,348.59"];
	3 -- 7	[pos="904.31,405.33 921.01,386.85 948.45,356.49 965.01,338.17"];
	3 -- 10	[pos="898.85,404.12 915.79,371.42 952.72,300.16 969.74,267.31"];
	3 -- 17	[pos="874.09,435.79 863.9,445.17 850.71,457.29 840.45,466.72"];
	3 -- 34	[pos="870.76,408.15 853.67,396.63 828.83,379.88 811.75,368.36"];
	19	[height=0.5,
		pos="1035.8,366.76",
		width=0.75];
	3 -- 19	[pos="913.77,412.28 940.87,402.17 984.95,385.72 1012.1,375.61"];
	13	[height=0.5,
		pos="824.83,548.96",
		width=0.75];
	3 -- 13	[pos="881.23,438.38 868.79,462.78 846.17,507.12 833.69,531.59"];
	42	[height=0.5,
		pos="887.22,555.01",
		width=0.75];
	3 -- 42	[pos="889.64,439.2 889.11,464.75 888.13,511.19 887.6,536.81"];
	3 -- 22	[pos="870.89,434 846.79,450.19 805.62,477.85 781.46,494.09"];
	24	[height=0.5,
		pos="949.85,511.33",
		width=0.75];
	3 -- 24	[pos="901,437.69 911.72,453.86 927.97,478.35 938.75,494.59"];
	3 -- 26	[pos="896.89,438.82 898.01,441.7 899.16,444.67 900.28,447.55"];
	31	[height=0.5,
		pos="952.18,386.09",
		width=0.75];
	3 -- 31	[pos="910.72,409.47 917.36,405.73 924.71,401.58 931.36,397.83"];
	3 -- 64	[pos="864.86,427.96 836.14,435.74 789.42,448.39 760.7,456.17"];
	38	[height=0.5,
		pos="1008.2,430.25",
		width=0.75];
	3 -- 38	[pos="917.14,423.23 936.35,424.71 962.03,426.69 981.21,428.17"];
	47	[height=0.5,
		pos="1013,474.28",
		width=0.75];
	3 -- 47	[pos="912.87,431.01 934.97,440.56 968.26,454.94 990.31,464.46"];
	40	[height=0.5,
		pos="1072,424.85",
		width=0.75];
	3 -- 40	[pos="917.27,421.7 951.68,422.4 1010.5,423.59 1044.9,424.29"];
	48	[height=0.5,
		pos="957.24,568.03",
		width=0.75];
	3 -- 48	[pos="898,438.57 910.93,466.84 936.34,522.37 949.27,550.63"];
	8 -- 67	[pos="895.58,342.34 889.11,345.9 881.99,349.82 875.53,353.39"];
	8 -- 10	[pos="929.14,314.45 939.98,300.36 955.55,280.12 966.33,266.12"];
	4 -- 25	[pos="567.1,342.15 589.6,361.44 629.46,395.63 651.92,414.89"];
	4 -- 5	[pos="523.42,326.97 520.81,326.89 518.16,326.8 515.55,326.72"];
	4 -- 36	[pos="559.4,310.77 572.32,286.16 596.03,241 608.97,216.35"];
	6	[height=0.5,
		pos="316.36,307.14",
		width=0.75];
	4 -- 6	[pos="523.58,325.48 478.55,321.49 388.32,313.51 343.26,309.52"];
	4 -- 62	[pos="526.83,336.87 508.27,343.97 482.53,353.8 463.98,360.89"];
	4 -- 9	[pos="551.13,309.69 551.85,291.2 552.95,262.7 553.66,244.27"];
	4 -- 12	[pos="525.78,335.8 492.97,346.36 435.32,364.93 402.68,375.44"];
	4 -- 20	[pos="523.17,328.12 490.96,328.43 437.69,328.94 405.53,329.25"];
	32	[height=0.5,
		pos="490.56,281.22",
		width=0.75];
	4 -- 32	[pos="532.79,314.11 525.07,308.1 516.02,301.05 508.28,295.02"];
	4 -- 49	[pos="558.23,345.21 568.87,368.92 587.86,411.21 598.57,435.06"];
	4 -- 46	[pos="573.98,336.97 608.49,350.34 672.45,375.11 706.96,388.48"];
	4 -- 73	[pos="553.72,309.7 559.73,276.45 572.43,206.16 578.41,173.09"];
	4 -- 44	[pos="569.12,314.81 591.84,298.95 629.99,272.33 652.81,256.4"];
	4 -- 74	[pos="577.78,328.37 611.81,329.01 669.58,330.1 703.46,330.74"];
	5 -- 18	[pos="493.81,343.5 494.86,346.95 495.96,350.57 497.01,354.03"];
	5 -- 62	[pos="472.44,340.5 467.31,345.21 461.64,350.42 456.5,355.14"];
	5 -- 9	[pos="499.61,308.94 511.81,290.52 531.2,261.22 543.33,242.9"];
	5 -- 32	[pos="489.29,307.69 489.42,304.98 489.56,302.2 489.69,299.49"];
	5 -- 71	[pos="490.39,344.24 492.45,363.63 495.68,393.99 497.74,413.31"];
	18 -- 32	[pos="500.04,353.54 497.97,337.7 494.98,314.96 492.92,299.23"];
	18 -- 28	[pos="509.02,389.43 516.86,410.4 529.92,445.3 537.81,466.38"];
	18 -- 71	[pos="501.6,390.1 501.26,397.49 500.86,406.02 500.52,413.4"];
	18 -- 35	[pos="498.97,389.93 495.32,408.84 489.62,438.36 485.96,457.32"];
	36 -- 73	[pos="604.86,183.3 601.61,179.36 598.12,175.14 594.86,171.19"];
	36 -- 44	[pos="635.28,213.36 641.41,218.39 648.32,224.04 654.45,229.07"];
	6 -- 12	[pos="329.51,323.29 340.1,336.3 354.9,354.49 365.43,367.42"];
	6 -- 20	[pos="340.17,315.73 344.82,317.4 349.69,319.16 354.35,320.84"];
	15	[height=0.5,
		pos="282.84,351.53",
		width=0.75];
	6 -- 15	[pos="304.07,323.42 301.16,327.28 298.05,331.4 295.13,335.25"];
	68	[height=0.5,
		pos="254.31,300.54",
		width=0.75];
	6 -- 68	[pos="289.69,304.31 286.93,304.01 284.12,303.71 281.36,303.42"];
	30	[height=0.5,
		pos="277.28,410.23",
		width=0.75];
	6 -- 30	[pos="309.73,324.63 302.55,343.59 291.14,373.67 283.94,392.66"];
	21	[height=0.5,
		pos="214.65,394.83",
		width=0.75];
	6 -- 21	[pos="299.57,321.62 280.72,337.87 250.33,364.07 231.47,380.33"];
	45	[height=0.5,
		pos="192.28,337.51",
		width=0.75];
	6 -- 45	[pos="290.95,313.36 269.54,318.6 239.06,326.06 217.66,331.3"];
	72	[height=0.5,
		pos="192.24,289.52",
		width=0.75];
	6 -- 72	[pos="289.74,303.36 268.79,300.39 239.76,296.27 218.83,293.29"];
	56	[height=0.5,
		pos="130.2,322.05",
		width=0.75];
	6 -- 56	[pos="289.29,309.31 254,312.14 192.61,317.05 157.3,319.88"];
	78	[height=0.5,
		pos="257.48,256.44",
		width=0.75];
	6 -- 78	[pos="299.65,292.75 291.62,285.84 282.04,277.59 274.04,270.69"];
	7 -- 10	[pos="978.89,304.39 978.85,293.3 978.79,279.21 978.74,268.17"];
	7 -- 19	[pos="996.64,336.41 1003.4,341.66 1011.1,347.66 1017.9,352.92"];
	14	[height=0.5,
		pos="1040.7,224.03",
		width=0.75];
	7 -- 14	[pos="989.45,305.98 1000.8,287.83 1018.8,259.03 1030.2,240.85"];
	11	[height=0.5,
		pos="1102.7,241.97",
		width=0.75];
	7 -- 11	[pos="998.31,310.1 1021.4,295.02 1059.9,269.93 1083.1,254.77"];
	27	[height=0.5,
		pos="1164.8,272.68",
		width=0.75];
	7 -- 27	[pos="1004,315.97 1039.5,306.42 1104,289.06 1139.5,279.48"];
	55	[height=0.5,
		pos="1143.4,316.99",
		width=0.75];
	7 -- 55	[pos="1006.1,321.77 1036.6,320.71 1085.7,319 1116.2,317.93"];
	7 -- 26	[pos="970.31,339.91 956.5,367.3 929.67,420.55 915.84,447.98"];
	7 -- 31	[pos="971.51,340.37 967.79,349.16 963.31,359.76 959.6,368.53"];
	7 -- 29	[pos="958.9,310.43 951.78,306.07 943.78,301.17 936.66,296.81"];
	51	[height=0.5,
		pos="1111.2,379.49",
		width=0.75];
	7 -- 51	[pos="1001.7,332.48 1025.9,342.88 1064.1,359.25 1088.3,369.67"];
	10 -- 14	[pos="1001.8,240.39 1007,238.19 1012.6,235.85 1017.8,233.66"];
	10 -- 11	[pos="1005.6,248.33 1026.3,246.98 1054.7,245.12 1075.4,243.76"];
	10 -- 43	[pos="961.55,236.06 954.06,229.91 945.28,222.71 937.78,216.55"];
	69	[height=0.5,
		pos="1077.7,180.02",
		width=0.75];
	10 -- 69	[pos="997.28,236.92 1015,224.39 1041.4,205.65 1059.1,193.14"];
	10 -- 53	[pos="961.36,235.77 940.55,218.55 905.84,189.82 885.09,172.64"];
	76	[height=0.5,
		pos="989.43,169.92",
		width=0.75];
	10 -- 76	[pos="981.1,231.91 982.87,218.78 985.24,201.15 987,188.05"];
	9 -- 18	[pos="548.09,243.83 538.12,271.81 518.72,326.23 508.73,354.26"];
	59	[height=0.5,
		pos="583.92,62.026",
		width=0.75];
	9 -- 59	[pos="557.57,208.37 563.25,176.86 574.96,111.81 580.66,80.143"];
	9 -- 32	[pos="537.59,240.7 528.29,248.71 516.75,258.65 507.43,266.68"];
	9 -- 23	[pos="570.15,211.6 588.5,194.57 618.59,166.65 636.92,149.63"];
	9 -- 50	[pos="569.35,211 594.9,185.02 646.57,132.46 672.22,106.37"];
	9 -- 73	[pos="561.1,208.69 565.27,197.84 570.6,183.95 574.79,173.04"];
	9 -- 54	[pos="563.95,243.31 574.71,262.44 592.07,293.29 602.84,312.44"];
	9 -- 77	[pos="576.11,237.3 597.89,248.36 631.19,265.26 652.91,276.29"];
	61	[height=0.5,
		pos="574.82,108.64",
		width=0.75];
	9 -- 61	[pos="557.5,208.14 561.36,185.97 567.85,148.67 571.69,126.58"];
	59 -- 61	[pos="580.43,79.913 579.75,83.405 579.03,87.068 578.35,90.565"];
	63	[height=0.5,
		pos="606.85,18",
		width=0.75];
	59 -- 63	[pos="592.85,44.878 594.51,41.691 596.25,38.361 597.91,35.173"];
	70	[height=0.5,
		pos="797.33,592.98",
		width=0.75];
	17 -- 70	[pos="819.89,499.55 814.87,520.32 806.65,554.39 801.64,575.14"];
	17 -- 22	[pos="801.12,491.11 796.02,493.19 790.62,495.4 785.51,497.49"];
	17 -- 26	[pos="850.45,476.46 860.23,474.53 871.32,472.33 881.08,470.4"];
	34 -- 54	[pos="765.95,351.57 731.91,346.68 673.23,338.25 639.13,333.35"];
	34 -- 77	[pos="771.97,343.52 750.44,331.09 716.81,311.68 695.23,299.21"];
	34 -- 79	[pos="780.65,338.87 771.16,325.64 757.9,307.19 748.41,293.97"];
	41 -- 43	[pos="881.99,217.34 886.93,215.44 892.15,213.42 897.09,211.51"];
	41 -- 52	[pos="857.15,244.47 856.77,249.48 856.36,254.92 855.98,259.93"];
	41 -- 58	[pos="846.06,210.25 835.38,196.4 820.07,176.56 809.39,162.72"];
	19 -- 31	[pos="1010.2,372.66 999.97,375.04 988.14,377.77 977.85,380.15"];
	19 -- 38	[pos="1028.3,384.11 1024.4,393.07 1019.6,403.97 1015.7,412.92"];
	19 -- 40	[pos="1046.3,383.56 1051,391.2 1056.7,400.22 1061.5,407.88"];
	19 -- 51	[pos="1062.2,371.21 1069.6,372.46 1077.6,373.81 1085,375.06"];
	14 -- 41	[pos="1013.4,224.38 978.99,224.83 920.08,225.6 885.69,226.05"];
	14 -- 27	[pos="1064,233.18 1086.1,241.82 1119,254.72 1141.1,263.4"];
	75	[height=0.5,
		pos="1139.8,194.02",
		width=0.75];
	14 -- 75	[pos="1065.5,216.53 1080.6,211.95 1099.9,206.11 1115,201.52"];
	14 -- 43	[pos="1014.4,219.29 994.32,215.69 966.9,210.77 946.89,207.17"];
	14 -- 69	[pos="1054.1,208.14 1057.4,204.1 1061.1,199.76 1064.5,195.74"];
	14 -- 55	[pos="1056.8,238.55 1075.9,255.91 1107.9,284.8 1127.2,302.26"];
	14 -- 29	[pos="1018.8,234.71 996.27,245.7 961.34,262.74 938.73,273.77"];
	14 -- 76	[pos="1026.2,208.67 1019.3,201.42 1011.1,192.79 1004.2,185.51"];
	11 -- 14	[pos="1077.9,234.78 1073.8,233.61 1069.6,232.39 1065.6,231.22"];
	11 -- 27	[pos="1124.4,252.71 1130.4,255.69 1137,258.92 1143,261.89"];
	11 -- 75	[pos="1115.3,225.74 1119.2,220.74 1123.4,215.24 1127.3,210.24"];
	11 -- 69	[pos="1095.6,224.38 1092.2,215.94 1088.1,205.86 1084.7,197.44"];
	27 -- 75	[pos="1159.1,254.83 1155,241.96 1149.5,224.66 1145.5,211.8"];
	27 -- 55	[pos="1156.5,289.94 1154.9,293.14 1153.3,296.5 1151.8,299.7"];
	12 -- 37	[pos="396.45,396.74 403.67,402.1 411.97,408.27 419.22,413.66"];
	12 -- 62	[pos="404.31,377.68 407.63,376.97 411.03,376.23 414.36,375.52"];
	12 -- 20	[pos="378.36,365.08 378.37,359.47 378.37,353.3 378.38,347.7"];
	12 -- 15	[pos="353.75,375.1 339.38,370.33 321.32,364.32 307.02,359.57"];
	12 -- 30	[pos="353.1,390.01 337.67,394.13 317.99,399.38 302.55,403.49"];
	12 -- 21	[pos="351.31,385.19 320.98,387.33 272.07,390.78 241.72,392.92"];
	60	[height=0.5,
		pos="282.9,471.36",
		width=0.75];
	12 -- 60	[pos="362.15,398.22 344.5,414.52 316.41,440.43 298.85,456.64"];
	33	[height=0.5,
		pos="340.17,427.33",
		width=0.75];
	12 -- 33	[pos="364.56,399.18 361.06,403.22 357.3,407.56 353.8,411.6"];
	20 -- 68	[pos="352.68,323.51 331.39,318.54 301.27,311.51 279.98,306.54"];
	20 -- 33	[pos="371.56,347 364.65,364.69 354.01,391.9 347.07,409.66"];
	13 -- 42	[pos="851.65,551.56 854.56,551.84 857.52,552.13 860.42,552.41"];
	13 -- 70	[pos="814.44,565.6 812.24,569.11 809.93,572.81 807.74,576.32"];
	13 -- 22	[pos="805.7,536.15 798.07,531.05 789.3,525.18 781.64,520.05"];
	13 -- 26	[pos="839.93,533.6 854.78,518.5 877.33,495.57 892.15,480.49"];
	42 -- 48	[pos="913.29,559.86 919.04,560.93 925.14,562.06 930.91,563.14"];
	15 -- 20	[pos="308.45,345.63 322.16,342.47 339,338.59 352.72,335.43"];
	15 -- 68	[pos="273.34,334.55 270.29,329.1 266.92,323.07 263.86,317.62"];
	15 -- 30	[pos="281.11,369.78 280.44,376.92 279.66,385.08 278.99,392.19"];
	15 -- 21	[pos="263.12,364.05 254.15,369.75 243.56,376.47 234.57,382.18"];
	15 -- 60	[pos="282.85,369.73 282.86,392.25 282.88,430.39 282.89,452.99"];
	15 -- 33	[pos="295,367.6 304.66,380.38 318.12,398.18 327.83,411.02"];
	15 -- 45	[pos="256.16,347.4 244.37,345.57 230.54,343.43 218.77,341.61"];
	68 -- 72	[pos="227.99,295.87 224.81,295.31 221.58,294.73 218.41,294.17"];
	68 -- 78	[pos="255.62,282.35 255.8,279.79 255.99,277.15 256.18,274.59"];
	16	[height=0.5,
		pos="27,344.8",
		width=0.75];
	66	[height=0.5,
		pos="68.18,298.83",
		width=0.75];
	16 -- 66	[pos="40.942,329.24 45.235,324.45 49.96,319.17 54.253,314.38"];
	16 -- 45	[pos="54.293,343.6 85.009,342.24 134.6,340.06 165.22,338.7"];
	16 -- 56	[pos="52.775,339.12 68.536,335.65 88.628,331.22 104.39,327.74"];
	66 -- 72	[pos="95.1,296.81 115.91,295.25 144.58,293.1 165.38,291.54"];
	43 -- 53	[pos="903.63,188.27 897.61,183.24 890.84,177.59 884.83,172.56"];
	43 -- 58	[pos="898.2,192.33 875.93,182.27 841.94,166.92 819.59,156.82"];
	43 -- 76	[pos="942.75,191.98 950.61,188.26 959.45,184.09 967.31,180.37"];
	69 -- 75	[pos="1103.3,185.79 1106.9,186.61 1110.6,187.44 1114.2,188.26"];
	22 -- 70	[pos="769.3,524.43 775.4,539.34 784.14,560.71 790.23,575.62"];
	22 -- 26	[pos="787.11,499.85 813.66,492.19 855.46,480.14 882.07,472.46"];
	22 -- 64	[pos="751.97,490.13 749.92,486.73 747.76,483.17 745.7,479.77"];
	21 -- 30	[pos="240.13,401.09 243.92,402.03 247.83,402.99 251.63,403.92"];
	39 -- 71	[pos="519.38,509.99 515.01,492.6 508.47,466.53 504.14,449.28"];
	23 -- 59	[pos="638.1,119.53 626.43,107.15 610.15,89.861 598.48,77.482"];
	23 -- 50	[pos="665.4,118.86 668.42,115.03 671.63,110.94 674.65,107.11"];
	23 -- 73	[pos="627.84,142.06 620.96,144.02 613.48,146.14 606.6,148.1"];
	23 -- 61	[pos="628.47,126.81 619.1,123.63 608.39,120.01 599.01,116.83"];
	23 -- 63	[pos="645.82,117.49 637.18,95.433 622.42,57.752 613.76,35.637"];
	50 -- 59	[pos="662.33,83.957 646.18,79.441 625.26,73.589 609.09,69.066"];
	50 -- 61	[pos="660.98,95.105 643.05,97.921 619.41,101.63 601.43,104.46"];
	50 -- 63	[pos="671.07,76.196 657.1,63.538 637.08,45.395 623.12,32.743"];
	24 -- 42	[pos="931.06,524.43 923.13,529.96 913.92,536.39 906,541.91"];
	24 -- 26	[pos="935.63,495.98 931.07,491.06 926.02,485.6 921.45,480.67"];
	24 -- 48	[pos="952.19,529.27 953.05,535.89 954.03,543.39 954.89,550.01"];
	26 -- 42	[pos="903.12,483.4 899.63,499.08 894.64,521.6 891.18,537.18"];
	26 -- 70	[pos="893.68,480.9 872.61,505.42 832.05,552.59 810.9,577.19"];
	26 -- 31	[pos="916.92,448.06 924.53,434.69 935.02,416.24 942.58,402.96"];
	31 -- 38	[pos="969.91,400.06 976.44,405.22 983.85,411.06 990.4,416.22"];
	31 -- 47	[pos="963.63,402.68 974.51,418.44 990.78,442.02 1001.6,457.77"];
	31 -- 51	[pos="979.16,384.97 1008.4,383.76 1054.8,381.83 1084.1,380.62"];
	49 -- 57	[pos="631.06,460.16 636.89,461.94 643.11,463.84 648.94,465.62"];
	46 -- 57	[pos="718.14,413.99 708.52,426.74 695.23,444.34 685.66,457.02"];
	28 -- 35	[pos="517.8,480.45 514.91,480.04 511.97,479.63 509.08,479.23"];
	29 -- 41	[pos="901.36,269.27 892.89,260.79 882.38,250.27 873.89,241.78"];
	29 -- 43	[pos="917.51,266.32 918.17,252.72 919.06,234.21 919.71,220.61"];
	29 -- 52	[pos="889.6,281.73 886.86,281.44 884.08,281.15 881.34,280.87"];
	38 -- 47	[pos="1010.2,448.42 1010.5,450.97 1010.8,453.6 1011,456.16"];
	38 -- 40	[pos="1035.3,427.96 1038.5,427.68 1041.9,427.4 1045.1,427.13"];
	38 -- 51	[pos="1030,419.49 1047.5,410.87 1071.9,398.85 1089.4,390.24"];
	33 -- 60	[pos="322.36,441.02 315.53,446.27 307.74,452.26 300.89,457.53"];
	54 -- 77	[pos="631.41,316.6 638.96,311.46 647.65,305.54 655.24,300.37"];
	54 -- 79	[pos="635.5,319.84 657.79,310.5 691.38,296.41 713.63,287.08"];
	35 -- 39	[pos="495.12,491.6 500.27,498.13 506.2,505.66 511.34,512.18"];
	35 -- 71	[pos="489.35,457.87 490.48,455 491.64,452.02 492.77,449.15"];
	40 -- 51	[pos="1085.5,409.24 1089.4,404.73 1093.7,399.8 1097.6,395.28"];
	53 -- 58	[pos="841.48,154.01 835.49,153.02 829.13,151.96 823.15,150.96"];
	53 -- 76	[pos="894.87,160.97 915.01,162.88 942.41,165.47 962.53,167.38"];
	53 -- 65	[pos="846.48,147.24 827.79,137.5 800.82,123.44 782.14,113.7"];
	45 -- 68	[pos="212.59,325.41 219.52,321.28 227.25,316.67 234.16,312.55"];
	45 -- 66	[pos="167.76,329.87 146.01,323.09 114.39,313.23 92.648,306.46"];
	45 -- 72	[pos="192.27,319.37 192.27,315.55 192.26,311.51 192.26,307.69"];
	45 -- 56	[pos="166.67,331.13 163.07,330.24 159.36,329.31 155.75,328.41"];
	45 -- 78	[pos="205.16,321.49 216.6,307.28 233.21,286.63 244.63,272.42"];
	72 -- 78	[pos="213.97,278.5 220.94,274.97 228.65,271.06 235.63,267.52"];
	58 -- 65	[pos="783.88,130.69 780.64,126.75 777.17,122.52 773.92,118.57"];
	77 -- 79	[pos="700.82,283.1 703.86,282.62 706.96,282.13 710,281.65"];
	56 -- 66	[pos="106.4,313.14 101.62,311.35 96.591,309.47 91.815,307.68"];
	56 -- 72	[pos="151.55,310.86 157.72,307.62 164.46,304.09 170.64,300.85"];
	61 -- 73	[pos="577.48,126.76 577.97,130.13 578.49,133.65 578.98,137.02"];
	61 -- 63	[pos="581.14,90.729 586.8,74.736 595.03,51.448 600.64,35.561"];
}
