graph {
	graph [bb="0,0,1306.8,843.62",
		outputorder=edgesfirst,
		overlap=prism,
		size="50,50!",
		start=9526
	];
	node [label="\N"];
	0	[height=0.5,
		pos="622.23,20.357",
		width=0.75];
	1	[height=0.5,
		pos="494.71,18",
		width=0.75];
	0 -- 1	[pos="595.19,19.857 573.55,19.457 543.34,18.899 521.71,18.499"];
	20	[height=0.5,
		pos="755.78,47.237",
		width=0.75];
	0 -- 20	[pos="648.3,25.604 671.83,30.34 706.27,37.272 729.78,42.004"];
	2	[height=0.5,
		pos="426.46,41.058",
		width=0.75];
	1 -- 2	[pos="470.45,26.194 464.02,28.369 457.07,30.717 450.64,32.89"];
	59	[height=0.5,
		pos="414.26,85.446",
		width=0.75];
	1 -- 59	[pos="477.65,32.303 463.99,43.749 444.94,59.722 431.29,71.163"];
	26	[height=0.5,
		pos="827.44,123.01",
		width=0.75];
	20 -- 26	[pos="770.28,62.572 782.72,75.719 800.53,94.562 812.96,107.7"];
	21	[height=0.5,
		pos="840.1,167.02",
		width=0.75];
	20 -- 21	[pos="767.51,63.893 783.62,86.779 812.42,127.7 828.48,150.51"];
	3	[height=0.5,
		pos="351.97,86.47",
		width=0.75];
	2 -- 3	[pos="406.5,53.227 395.81,59.743 382.69,67.746 371.99,74.267"];
	42	[height=0.5,
		pos="459.26,129.46",
		width=0.75];
	2 -- 42	[pos="433.1,58.947 438.83,74.384 447.05,96.555 452.75,111.9"];
	34	[height=0.5,
		pos="820.66,78.988",
		width=0.75];
	26 -- 34	[pos="824.68,105.11 824.27,102.44 823.85,99.691 823.44,97.022"];
	27	[height=0.5,
		pos="843.44,222.75",
		width=0.75];
	26 -- 27	[pos="830.38,141.31 833.26,159.3 837.64,186.62 840.53,204.57"];
	4	[height=0.5,
		pos="514.74,81.117",
		width=0.75];
	3 -- 4	[pos="379.22,85.574 409.35,84.583 457.62,82.996 487.68,82.007"];
	93	[height=0.5,
		pos="335.05,189.38",
		width=0.75];
	3 -- 93	[pos="349.03,104.39 345.94,123.17 341.12,152.49 338.02,171.31"];
	41	[height=0.5,
		pos="667.52,128.36",
		width=0.75];
	34 -- 41	[pos="796.05,86.92 767.48,96.134 720.62,111.24 692.07,120.45"];
	35	[height=0.5,
		pos="905.46,179.64",
		width=0.75];
	34 -- 35	[pos="833.91,94.715 849.75,113.51 876.1,144.8 892.03,163.69"];
	5	[height=0.5,
		pos="755.21,115.47",
		width=0.75];
	4 -- 5	[pos="541.39,84.925 587.74,91.546 682.63,105.1 728.81,111.7"];
	60	[height=0.5,
		pos="583.35,194.93",
		width=0.75];
	4 -- 60	[pos="524.86,97.911 537.84,119.43 560.2,156.52 573.19,178.07"];
	49	[height=0.5,
		pos="781.38,212.54",
		width=0.75];
	41 -- 49	[pos="685.82,141.89 707.06,157.59 741.9,183.36 763.13,199.05"];
	41 -- 42	[pos="640.3,128.5 600.38,128.71 526.41,129.1 486.49,129.31"];
	6	[height=0.5,
		pos="898.83,100.06",
		width=0.75];
	5 -- 6	[pos="781.89,112.61 807.52,109.86 846.06,105.72 871.81,102.96"];
	5 -- 27	[pos="768.23,131.3 784.91,151.58 813.66,186.54 830.37,206.85"];
	53	[height=0.5,
		pos="691.55,239",
		width=0.75];
	49 -- 53	[pos="756.36,219.91 743.9,223.58 728.88,228.01 716.44,231.67"];
	50	[height=0.5,
		pos="815.64,328.24",
		width=0.75];
	49 -- 50	[pos="786.66,230.37 793.08,252.05 803.85,288.43 810.3,310.21"];
	7	[height=0.5,
		pos="967.49,149.54",
		width=0.75];
	6 -- 7	[pos="917.23,113.32 927.08,120.42 939.18,129.14 949.04,136.24"];
	6 -- 21	[pos="884.91,115.93 875.55,126.6 863.26,140.62 853.92,151.27"];
	58	[height=0.5,
		pos="521.41,125.15",
		width=0.75];
	53 -- 58	[pos="672.36,226.16 639.6,204.24 573.24,159.84 540.53,137.94"];
	54	[height=0.5,
		pos="699.69,327.05",
		width=0.75];
	53 -- 54	[pos="693.23,257.24 694.63,272.36 696.61,293.72 698.01,308.83"];
	8	[height=0.5,
		pos="1029.5,131.88",
		width=0.75];
	7 -- 8	[pos="992.36,142.46 996.41,141.31 1000.6,140.11 1004.6,138.96"];
	22	[height=0.5,
		pos="921.58,245.22",
		width=0.75];
	7 -- 22	[pos="959.07,167.09 950.79,184.35 938.22,210.56 929.95,227.78"];
	67	[height=0.5,
		pos="521.28,169.15",
		width=0.75];
	58 -- 67	[pos="521.36,143.3 521.35,145.86 521.34,148.49 521.34,151.04"];
	58 -- 59	[pos="497.63,116.34 479.87,109.76 455.71,100.81 437.97,94.233"];
	9	[height=0.5,
		pos="1046.7,197.23",
		width=0.75];
	8 -- 9	[pos="1034.2,149.73 1036.6,158.96 1039.6,170.18 1042,179.4"];
	8 -- 35	[pos="1005.9,140.97 983.81,149.47 951.04,162.09 929,170.58"];
	75	[height=0.5,
		pos="572.39,292.36",
		width=0.75];
	67 -- 75	[pos="528.5,186.54 538.18,209.89 555.29,251.15 565.04,274.65"];
	68	[height=0.5,
		pos="459.22,201.31",
		width=0.75];
	67 -- 68	[pos="499.93,180.22 493.75,183.42 487.02,186.91 480.83,190.11"];
	10	[height=0.5,
		pos="1057.3,260.79",
		width=0.75];
	9 -- 10	[pos="1049.7,215.28 1051.1,223.79 1052.8,233.93 1054.2,242.48"];
	36	[height=0.5,
		pos="984.2,220.68",
		width=0.75];
	9 -- 36	[pos="1023.1,206.1 1018.1,207.97 1012.8,209.94 1007.9,211.8"];
	81	[height=0.5,
		pos="478.41,245.34",
		width=0.75];
	75 -- 81	[pos="550.59,281.45 535.41,273.86 515.24,263.77 500.09,256.19"];
	76	[height=0.5,
		pos="636.93,415.07",
		width=0.75];
	75 -- 76	[pos="581.36,309.42 593.62,332.73 615.49,374.32 627.82,397.76"];
	11	[height=0.5,
		pos="1058.1,319.09",
		width=0.75];
	10 -- 11	[pos="1057.5,278.92 1057.6,285.87 1057.7,293.8 1057.8,300.77"];
	37	[height=0.5,
		pos="944.22,310.66",
		width=0.75];
	10 -- 37	[pos="1034.7,270.76 1015,279.46 986.5,292.01 966.79,300.7"];
	86	[height=0.5,
		pos="310.07,144.86",
		width=0.75];
	81 -- 86	[pos="458.1,233.22 425.66,213.86 362.51,176.16 330.18,156.87"];
	82	[height=0.5,
		pos="467.57,333.4",
		width=0.75];
	81 -- 82	[pos="476.16,263.59 474.3,278.7 471.67,300.07 469.81,315.18"];
	12	[height=0.5,
		pos="1039.1,363.43",
		width=0.75];
	11 -- 12	[pos="1050.6,336.62 1049.3,339.71 1047.9,342.94 1046.6,346.03"];
	38	[height=0.5,
		pos="997.6,407.68",
		width=0.75];
	11 -- 38	[pos="1046.7,335.76 1035.9,351.59 1019.7,375.28 1008.9,391.1"];
	91	[height=0.5,
		pos="207.35,190.8",
		width=0.75];
	86 -- 91	[pos="287.53,154.94 270.4,162.6 246.96,173.09 229.84,180.74"];
	87	[height=0.5,
		pos="397.16,204.46",
		width=0.75];
	86 -- 87	[pos="328.97,157.8 343.58,167.79 363.7,181.57 378.3,191.56"];
	13	[height=0.5,
		pos="1062.4,445.49",
		width=0.75];
	12 -- 13	[pos="1044.2,381.24 1048.1,395 1053.4,413.96 1057.3,427.72"];
	23	[height=0.5,
		pos="940.96,363.64",
		width=0.75];
	12 -- 23	[pos="1012.1,363.49 998.32,363.52 981.68,363.55 967.96,363.58"];
	97	[height=0.5,
		pos="127.16,291.68",
		width=0.75];
	91 -- 97	[pos="194.47,207.01 179.5,225.83 154.96,256.7 140.01,275.51"];
	92	[height=0.5,
		pos="354.36,286.68",
		width=0.75];
	91 -- 92	[pos="226.88,203.53 254.99,221.87 306.6,255.53 334.76,273.9"];
	14	[height=0.5,
		pos="1006.6,503.08",
		width=0.75];
	13 -- 14	[pos="1047.7,460.62 1039.6,469.02 1029.5,479.43 1021.3,487.85"];
	28	[height=0.5,
		pos="878.86,349.09",
		width=0.75];
	13 -- 28	[pos="1041,434.24 1005.6,415.67 935.4,378.79 900.13,360.26"];
	100	[height=0.5,
		pos="142.54,423.75",
		width=0.75];
	97 -- 100	[pos="129.26,309.76 132.19,334.91 137.47,380.2 140.41,405.46"];
	98	[height=0.5,
		pos="247.83,360.86",
		width=0.75];
	97 -- 98	[pos="147.9,303.57 170.14,316.32 205.22,336.43 227.35,349.12"];
	15	[height=0.5,
		pos="1082,579.31",
		width=0.75];
	14 -- 15	[pos="1021.5,518.14 1034.7,531.51 1054,550.93 1067.2,564.28"];
	73	[height=0.5,
		pos="881.51,563.3",
		width=0.75];
	14 -- 73	[pos="984.52,513.71 961.8,524.65 926.58,541.6 903.79,552.57"];
	109	[height=0.5,
		pos="242.19,490.53",
		width=0.75];
	100 -- 109	[pos="161.75,436.63 179.4,448.45 205.4,465.88 223.03,477.7"];
	101	[height=0.5,
		pos="311.62,400.36",
		width=0.75];
	100 -- 101	[pos="169.33,420.04 200.99,415.66 253.35,408.42 284.96,404.05"];
	16	[height=0.5,
		pos="1067.6,644.84",
		width=0.75];
	15 -- 16	[pos="1078.1,597.22 1076,606.46 1073.6,617.71 1071.5,626.95"];
	29	[height=0.5,
		pos="944.55,504.48",
		width=0.75];
	15 -- 29	[pos="1060.9,567.78 1035,553.68 991.35,529.95 965.53,515.9"];
	114	[height=0.5,
		pos="98.324,467.78",
		width=0.75];
	109 -- 114	[pos="215.8,486.36 190,482.28 150.93,476.1 125.03,472.01"];
	110	[height=0.5,
		pos="366.25,487.2",
		width=0.75];
	109 -- 110	[pos="269.41,489.8 290.1,489.25 318.42,488.49 339.08,487.93"];
	17	[height=0.5,
		pos="1129.6,659.18",
		width=0.75];
	16 -- 17	[pos="1093.2,650.76 1096.8,651.59 1100.5,652.45 1104.1,653.28"];
	30	[height=0.5,
		pos="1005.5,621.46",
		width=0.75];
	16 -- 30	[pos="1043.8,635.87 1039,634.06 1034,632.17 1029.2,630.37"];
	118	[height=0.5,
		pos="52.597,409.81",
		width=0.75];
	114 -- 118	[pos="85.586,451.64 79.244,443.6 71.599,433.9 65.266,425.87"];
	115	[height=0.5,
		pos="180.14,467.75",
		width=0.75];
	114 -- 115	[pos="125.57,467.77 134.4,467.77 144.19,467.77 153.02,467.76"];
	18	[height=0.5,
		pos="1221.3,527.46",
		width=0.75];
	17 -- 18	[pos="1141,642.77 1158.6,617.52 1192.1,569.45 1209.7,544.08"];
	31	[height=0.5,
		pos="1002.7,665.7",
		width=0.75];
	17 -- 31	[pos="1102.4,660.58 1080.9,661.68 1051.3,663.21 1029.8,664.31"];
	124	[height=0.5,
		pos="156.95,335.7",
		width=0.75];
	118 -- 124	[pos="71.254,396.56 90.249,383.07 119.52,362.28 138.46,348.84"];
	119	[height=0.5,
		pos="161.62,379.72",
		width=0.75];
	118 -- 119	[pos="77.609,402.91 95.212,398.05 118.69,391.57 136.35,386.69"];
	19	[height=0.5,
		pos="1279.8,470.79",
		width=0.75];
	18 -- 19	[pos="1236.7,512.57 1245.2,504.3 1255.8,494.05 1264.3,485.78"];
	24	[height=0.5,
		pos="1124.6,445.56",
		width=0.75];
	18 -- 24	[pos="1204.4,513.19 1186.8,498.25 1159.2,474.92 1141.5,459.94"];
	129	[height=0.5,
		pos="27,311.03",
		width=0.75];
	124 -- 129	[pos="130.97,330.77 108.45,326.49 76.02,320.34 53.386,316.04"];
	125	[height=0.5,
		pos="374.52,333.15",
		width=0.75];
	124 -- 125	[pos="184.07,335.38 225.88,334.89 305.6,333.96 347.41,333.47"];
	25	[height=0.5,
		pos="1217.1,451.34",
		width=0.75];
	19 -- 25	[pos="1255,463.1 1250.6,461.74 1246.1,460.33 1241.7,458.97"];
	130	[height=0.5,
		pos="94.89,354.88",
		width=0.75];
	129 -- 130	[pos="46.637,323.71 55.565,329.48 66.111,336.29 75.062,342.08"];
	21 -- 22	[pos="855.81,182.1 870.24,195.95 891.51,216.36 905.92,230.19"];
	44	[height=0.5,
		pos="753.58,256.65",
		width=0.75];
	21 -- 44	[pos="825.42,182.23 809.51,198.71 784.27,224.86 768.33,241.37"];
	22 -- 23	[pos="924.53,263.21 928.17,285.46 934.33,323.15 937.99,345.49"];
	22 -- 50	[pos="903.61,259.3 884.01,274.66 852.84,299.09 833.34,314.37"];
	59 -- 68	[pos="421.09,103.04 429.54,124.82 443.85,161.69 452.33,183.54"];
	59 -- 60	[pos="433.66,98.005 466.19,119.07 531.37,161.27 563.92,182.35"];
	68 -- 82	[pos="460.36,219.4 461.95,244.55 464.82,289.84 466.41,315.1"];
	69	[height=0.5,
		pos="540.82,245.07",
		width=0.75];
	68 -- 69	[pos="480.66,212.8 492.65,219.24 507.55,227.23 519.53,233.65"];
	82 -- 92	[pos="444.39,323.83 424.85,315.77 397.04,304.3 377.51,296.24"];
	83	[height=0.5,
		pos="508.3,526.36",
		width=0.75];
	82 -- 83	[pos="471.4,351.55 479.18,388.42 496.76,471.68 504.51,508.4"];
	23 -- 24	[pos="963.47,373.69 998.71,389.41 1066.5,419.66 1101.9,435.44"];
	104	[height=0.5,
		pos="777.02,495.9",
		width=0.75];
	23 -- 104	[pos="923.72,377.55 892.32,402.88 826.11,456.3 794.52,481.79"];
	92 -- 101	[pos="347.68,304.45 339.65,325.8 326.26,361.42 318.25,382.73"];
	92 -- 93	[pos="350.82,268.84 347.36,251.39 342.11,224.96 338.63,207.44"];
	101 -- 115	[pos="290.21,411.34 265.76,423.87 226,444.25 201.55,456.78"];
	102	[height=0.5,
		pos="545.01,337.25",
		width=0.75];
	101 -- 102	[pos="337.04,393.49 382.06,381.32 475.24,356.12 519.98,344.02"];
	115 -- 130	[pos="167.93,451.58 151.72,430.12 123.28,392.47 107.08,371.03"];
	116	[height=0.5,
		pos="219.52,594.38",
		width=0.75];
	115 -- 116	[pos="185.7,485.62 193.21,509.76 206.5,552.51 213.99,576.6"];
	24 -- 25	[pos="1151.8,447.27 1163.9,448.02 1178,448.9 1190.1,449.65"];
	32	[height=0.5,
		pos="1069.3,535.03",
		width=0.75];
	24 -- 32	[pos="1114.2,462.39 1104.3,478.39 1089.5,502.31 1079.6,518.28"];
	33	[height=0.5,
		pos="1155.1,494.45",
		width=0.75];
	25 -- 33	[pos="1198.2,464.51 1190.5,469.86 1181.6,476.02 1173.9,481.36"];
	131	[height=0.5,
		pos="207.24,239.02",
		width=0.75];
	130 -- 131	[pos="109.58,339.74 131.11,317.53 171.01,276.38 192.55,254.17"];
	42 -- 87	[pos="446.09,145.36 435.55,158.09 420.85,175.86 410.31,188.58"];
	43	[height=0.5,
		pos="645.37,194.96",
		width=0.75];
	42 -- 43	[pos="483.21,137.89 518.85,150.43 585.46,173.87 621.22,186.46"];
	27 -- 28	[pos="848.44,240.58 855.19,264.66 867.15,307.31 873.88,331.34"];
	27 -- 43	[pos="816.73,219 778.82,213.68 709.82,204 671.97,198.69"];
	87 -- 131	[pos="370.76,209.27 334.47,215.87 269.59,227.67 233.42,234.25"];
	88	[height=0.5,
		pos="487.52,381.28",
		width=0.75];
	87 -- 88	[pos="405.99,221.74 423.31,255.63 461.55,330.46 478.79,364.19"];
	28 -- 29	[pos="886.26,366.61 898.88,396.46 924.4,456.82 937.07,486.78"];
	55	[height=0.5,
		pos="733.9,432.96",
		width=0.75];
	28 -- 55	[pos="858.39,360.93 830.92,376.82 782.38,404.91 754.72,420.91"];
	29 -- 30	[pos="953.42,521.49 964.98,543.67 985.1,582.24 996.67,604.43"];
	63	[height=0.5,
		pos="819.48,566.61",
		width=0.75];
	29 -- 63	[pos="922.76,515.3 899.95,526.64 864.31,544.34 841.43,555.7"];
	30 -- 31	[pos="1004.4,639.45 1004.2,642.13 1004,644.9 1003.8,647.58"];
	39	[height=0.5,
		pos="984.65,550.21",
		width=0.75];
	30 -- 39	[pos="1000.3,603.48 997.08,592.6 993.03,578.77 989.85,567.94"];
	31 -- 32	[pos="1011.4,648.62 1024.1,623.58 1047.8,577.16 1060.6,552.12"];
	65	[height=0.5,
		pos="874.1,680.1",
		width=0.75];
	31 -- 65	[pos="976.03,668.68 954.11,671.14 923.18,674.6 901.15,677.07"];
	32 -- 33	[pos="1091.4,524.58 1104.2,518.52 1120.3,510.92 1133.1,504.86"];
	51	[height=0.5,
		pos="888.84,460.46",
		width=0.75];
	32 -- 51	[pos="1046.1,525.43 1011.4,511.11 946.57,484.32 911.97,470.02"];
	40	[height=0.5,
		pos="1093,490",
		width=0.75];
	33 -- 40	[pos="1128.1,492.51 1125.4,492.32 1122.8,492.13 1120.2,491.95"];
	132	[height=0.5,
		pos="145.24,247.65",
		width=0.75];
	131 -- 132	[pos="180.58,242.73 177.7,243.13 174.76,243.54 171.87,243.94"];
	35 -- 36	[pos="926.98,190.85 938.09,196.65 951.61,203.69 962.71,209.48"];
	45	[height=0.5,
		pos="815.64,266.77",
		width=0.75];
	35 -- 45	[pos="889.82,194.82 873.33,210.81 847.52,235.84 831.11,251.77"];
	36 -- 37	[pos="976.49,238.03 969.41,253.96 958.98,277.44 951.9,293.36"];
	46	[height=0.5,
		pos="877.68,294.84",
		width=0.75];
	36 -- 46	[pos="965.16,233.94 945.77,247.44 915.89,268.24 896.56,281.7"];
	37 -- 38	[pos="953.52,327.56 963.25,345.26 978.46,372.9 988.23,390.65"];
	72	[height=0.5,
		pos="823.27,422.27",
		width=0.75];
	37 -- 72	[pos="928.41,325.25 905.23,346.64 862.27,386.28 839.08,407.68"];
	38 -- 39	[pos="995.96,425.74 993.48,453 988.81,504.41 986.32,531.86"];
	47	[height=0.5,
		pos="892.23,416.14",
		width=0.75];
	38 -- 47	[pos="970.74,409.84 954.88,411.11 934.89,412.72 919.04,413.99"];
	93 -- 98	[pos="326.37,206.44 309.69,239.23 273.35,310.67 256.6,343.6"];
	94	[height=0.5,
		pos="416.36,252.36",
		width=0.75];
	93 -- 94	[pos="352.69,203.04 366.24,213.54 384.86,227.97 398.47,238.51"];
	98 -- 119	[pos="221.96,366.51 211.05,368.9 198.38,371.67 187.47,374.06"];
	99	[height=0.5,
		pos="304.21,520.15",
		width=0.75];
	98 -- 99	[pos="254.08,378.51 264.91,409.13 287.07,471.74 297.93,502.42"];
	39 -- 40	[pos="1005.5,538.6 1024.7,527.94 1053,512.23 1072.2,501.58"];
	64	[height=0.5,
		pos="772.21,624.72",
		width=0.75];
	39 -- 64	[pos="960.7,558.61 919.9,572.92 837.37,601.87 796.41,616.23"];
	119 -- 132	[pos="159.38,361.63 156.26,336.48 150.64,291.2 147.51,265.95"];
	120	[height=0.5,
		pos="303.93,444.4",
		width=0.75];
	119 -- 120	[pos="184.17,389.97 210.82,402.08 254.89,422.11 281.49,434.2"];
	48	[height=0.5,
		pos="972.87,456.9",
		width=0.75];
	40 -- 48	[pos="1067.8,483.06 1047.3,477.41 1018.5,469.48 998.02,463.83"];
	133	[height=0.5,
		pos="271.14,205.91",
		width=0.75];
	132 -- 133	[pos="169.51,239.61 191.81,232.21 224.67,221.32 246.94,213.94"];
	43 -- 44	[pos="665.98,206.7 685.23,217.68 713.82,233.98 733.05,244.94"];
	43 -- 69	[pos="623.2,205.58 605.45,214.09 580.69,225.96 562.96,234.46"];
	44 -- 45	[pos="779.9,260.94 782.94,261.44 786.04,261.94 789.08,262.44"];
	44 -- 54	[pos="741.08,272.97 732.38,284.35 720.82,299.45 712.12,310.81"];
	60 -- 94	[pos="559.07,203.28 527.32,214.2 472.03,233.22 440.4,244.1"];
	61	[height=0.5,
		pos="672.24,371.07",
		width=0.75];
	60 -- 61	[pos="592.04,212.14 609.03,245.82 646.5,320.06 663.52,353.79"];
	45 -- 46	[pos="838.04,276.91 843.59,279.42 849.55,282.11 855.11,284.63"];
	70	[height=0.5,
		pos="646.45,283.04",
		width=0.75];
	45 -- 70	[pos="788.83,269.35 757.24,272.39 705.07,277.4 673.41,280.45"];
	46 -- 47	[pos="879.86,313 882.6,335.87 887.29,374.93 890.04,397.85"];
	71	[height=0.5,
		pos="734.59,388.9",
		width=0.75];
	46 -- 71	[pos="858.38,307.52 831.07,325.48 781.43,358.11 754.04,376.12"];
	47 -- 48	[pos="913.84,427.06 925.41,432.91 939.62,440.09 951.2,445.95"];
	103	[height=0.5,
		pos="594.68,459.18",
		width=0.75];
	47 -- 103	[pos="865.83,419.96 809.5,428.11 678.1,447.12 621.45,455.31"];
	94 -- 133	[pos="391.73,244.48 365.02,235.94 322.65,222.39 295.9,213.83"];
	95	[height=0.5,
		pos="549.62,393.2",
		width=0.75];
	94 -- 95	[pos="430.88,267.7 456.51,294.8 509.5,350.8 535.12,377.88"];
	52	[height=0.5,
		pos="943.53,596.98",
		width=0.75];
	48 -- 52	[pos="969.09,474.93 963.46,501.82 952.91,552.16 947.29,579.02"];
	134	[height=0.5,
		pos="292.32,284.29",
		width=0.75];
	133 -- 134	[pos="275.95,223.7 279.39,236.43 284.01,253.52 287.46,266.3"];
	50 -- 51	[pos="825.05,345.26 839.11,370.64 865.42,418.16 879.45,443.51"];
	50 -- 61	[pos="790.99,335.6 764.72,343.45 723.38,355.8 697.05,363.66"];
	69 -- 125	[pos="519.42,256.4 487.49,273.32 427.73,304.97 395.84,321.86"];
	69 -- 70	[pos="564.79,253.68 582.08,259.9 605.31,268.25 622.57,274.46"];
	51 -- 52	[pos="895.87,478.03 906.37,504.24 926.03,553.3 936.52,579.48"];
	56	[height=0.5,
		pos="757.46,580.68",
		width=0.75];
	51 -- 56	[pos="872.73,475.2 847.51,498.28 799,542.67 773.7,565.82"];
	125 -- 134	[pos="354.2,321.08 341.56,313.56 325.35,303.92 312.69,296.4"];
	126	[height=0.5,
		pos="447.35,470.99",
		width=0.75];
	125 -- 126	[pos="383.6,350.33 397.56,376.75 424.14,427.05 438.16,453.59"];
	57	[height=0.5,
		pos="834.27,636.06",
		width=0.75];
	52 -- 57	[pos="919.55,605.55 901.33,612.07 876.39,620.99 858.19,627.5"];
	135	[height=0.5,
		pos="312.46,346.08",
		width=0.75];
	134 -- 135	[pos="298.15,302.16 300.84,310.43 304.03,320.23 306.71,328.46"];
	54 -- 88	[pos="674.1,333.59 633.21,344.04 553.62,364.39 512.88,374.8"];
	54 -- 55	[pos="705.49,345.01 711.82,364.61 721.89,395.77 728.18,415.26"];
	88 -- 120	[pos="463.52,389.53 428.34,401.63 363.13,424.05 327.94,436.15"];
	89	[height=0.5,
		pos="446.25,564.16",
		width=0.75];
	88 -- 89	[pos="483.49,399.15 475.6,434.11 458.2,511.2 450.3,546.22"];
	55 -- 56	[pos="736.79,451.07 741.31,479.42 750.01,533.98 754.55,562.42"];
	62	[height=0.5,
		pos="676.77,479.41",
		width=0.75];
	55 -- 62	[pos="716.76,446.89 709.53,452.77 701.13,459.6 693.9,465.48"];
	120 -- 135	[pos="305.49,426.37 307.02,408.74 309.34,382.04 310.87,364.33"];
	121	[height=0.5,
		pos="285.07,564.17",
		width=0.75];
	120 -- 121	[pos="301.11,462.33 297.55,484.91 291.48,523.48 287.91,546.11"];
	56 -- 57	[pos="776.06,594.09 788.13,602.8 803.81,614.1 815.85,622.78"];
	107	[height=0.5,
		pos="534.02,659.13",
		width=0.75];
	56 -- 107	[pos="733.55,589.08 690.66,604.14 601.11,635.58 558.1,650.68"];
	66	[height=0.5,
		pos="936.1,723.56",
		width=0.75];
	57 -- 66	[pos="851.09,650.51 869.95,666.72 900.39,692.87 919.26,709.09"];
	136	[height=0.5,
		pos="509.26,289.38",
		width=0.75];
	135 -- 136	[pos="337.38,338.9 375.13,328.02 446.41,307.49 484.23,296.59"];
	61 -- 62	[pos="673.01,389.45 673.85,409.49 675.18,441.37 676.02,461.3"];
	61 -- 136	[pos="650.6,360.22 619.43,344.6 562.22,315.92 530.99,300.27"];
	62 -- 63	[pos="696.92,491.72 724.11,508.34 772.29,537.78 799.44,554.36"];
	105	[height=0.5,
		pos="633.43,537.35",
		width=0.75];
	62 -- 105	[pos="664.7,495.55 658.79,503.45 651.68,512.95 645.74,520.89"];
	63 -- 64	[pos="806.56,582.49 799.89,590.69 791.78,600.66 785.11,608.86"];
	78	[height=0.5,
		pos="669.71,637.75",
		width=0.75];
	63 -- 78	[pos="797.38,577.11 769.06,590.56 720.26,613.74 691.9,627.21"];
	64 -- 65	[pos="793.32,636.19 810.81,645.7 835.54,659.14 853.02,668.64"];
	64 -- 83	[pos="748.33,615.82 698.08,597.09 581.98,553.82 531.95,535.17"];
	65 -- 66	[pos="893.04,693.37 900.73,698.77 909.6,704.98 917.28,710.37"];
	79	[height=0.5,
		pos="710.68,682.05",
		width=0.75];
	65 -- 79	[pos="846.75,680.42 816.49,680.79 768.03,681.37 737.85,681.73"];
	74	[height=0.5,
		pos="799.13,700.22",
		width=0.75];
	66 -- 74	[pos="909.69,719.06 885.44,714.93 849.69,708.84 825.46,704.71"];
	137	[height=0.5,
		pos="425.5,377.42",
		width=0.75];
	136 -- 137	[pos="494.67,304.71 479.39,320.78 455.53,345.86 440.2,361.97"];
	70 -- 71	[pos="659.83,299.12 676.5,319.13 704.78,353.1 721.37,373.02"];
	70 -- 102	[pos="624.94,294.54 607.61,303.8 583.37,316.75 566.15,325.95"];
	71 -- 72	[pos="758.35,397.85 771.18,402.67 786.96,408.61 799.75,413.42"];
	71 -- 95	[pos="707.3,389.54 672.23,390.35 611.7,391.76 576.72,392.57"];
	72 -- 73	[pos="830.53,439.85 841.69,466.87 862.95,518.34 874.16,545.5"];
	72 -- 76	[pos="796.17,421.23 760.84,419.86 699.4,417.49 664.06,416.12"];
	73 -- 74	[pos="871.41,580.09 855.6,606.37 825.17,656.93 809.31,683.29"];
	77	[height=0.5,
		pos="695.44,563.91",
		width=0.75];
	73 -- 77	[pos="854.46,563.39 819.18,563.5 757.82,563.7 722.53,563.82"];
	102 -- 137	[pos="520.83,345.38 500.09,352.35 470.37,362.34 449.65,369.3"];
	102 -- 103	[pos="552.13,354.72 561.57,377.9 578.14,418.58 587.57,441.75"];
	80	[height=0.5,
		pos="717.42,726.25",
		width=0.75];
	74 -- 80	[pos="774.61,708.03 764.27,711.32 752.26,715.15 741.92,718.44"];
	138	[height=0.5,
		pos="438.42,426.07",
		width=0.75];
	137 -- 138	[pos="430.24,395.26 431.36,399.49 432.56,404.01 433.68,408.24"];
	76 -- 77	[pos="643.87,432.73 655.13,461.38 677.25,517.64 688.5,546.27"];
	139	[height=0.5,
		pos="509.62,437.22",
		width=0.75];
	76 -- 139	[pos="610.55,419.66 588.7,423.46 557.8,428.83 535.96,432.63"];
	95 -- 110	[pos="527.86,404.35 492.48,422.49 422.87,458.17 387.69,476.21"];
	96	[height=0.5,
		pos="428.27,518.7",
		width=0.75];
	95 -- 96	[pos="534.74,408.59 511.45,432.68 466.63,479.02 443.27,503.18"];
	77 -- 78	[pos="689.21,581.78 685.16,593.39 679.91,608.46 675.88,620.04"];
	106	[height=0.5,
		pos="576.24,581.39",
		width=0.75];
	77 -- 106	[pos="668.98,567.79 649.23,570.69 622.35,574.63 602.62,577.52"];
	78 -- 79	[pos="684.04,653.24 688.01,657.54 692.31,662.2 696.29,666.49"];
	112	[height=0.5,
		pos="382.64,652.21",
		width=0.75];
	78 -- 112	[pos="642.7,639.11 587.99,641.87 464.61,648.08 409.79,650.85"];
	110 -- 138	[pos="382.99,473.02 394.56,463.22 409.91,450.22 421.52,440.39"];
	111	[height=0.5,
		pos="406.71,608.17",
		width=0.75];
	110 -- 111	[pos="372.13,504.79 379.8,527.73 393.15,567.61 400.82,590.56"];
	79 -- 80	[pos="713.42,700.03 713.83,702.71 714.25,705.47 714.66,708.14"];
	84	[height=0.5,
		pos="601.38,680.79",
		width=0.75];
	79 -- 84	[pos="683.66,681.74 666.84,681.55 645.29,681.3 628.47,681.1"];
	85	[height=0.5,
		pos="599.74,726.18",
		width=0.75];
	80 -- 85	[pos="690.12,726.23 671.11,726.22 645.86,726.21 626.88,726.2"];
	138 -- 139	[pos="464.93,430.22 470.94,431.16 477.32,432.16 483.32,433.1"];
	83 -- 84	[pos="518.44,543.18 536.35,572.89 573.36,634.3 591.26,663.99"];
	122	[height=0.5,
		pos="320.6,682.04",
		width=0.75];
	83 -- 122	[pos="491.32,540.45 455.67,570.01 373.42,638.23 337.69,667.87"];
	84 -- 85	[pos="600.72,698.99 600.62,701.95 600.51,705.02 600.4,707.98"];
	84 -- 89	[pos="583.28,667.18 553.39,644.71 494.05,600.1 464.23,577.68"];
	90	[height=0.5,
		pos="454.24,652.56",
		width=0.75];
	85 -- 90	[pos="577.96,715.16 550.53,701.28 503.67,677.57 476.18,663.65"];
	140	[height=0.5,
		pos="509.36,481.26",
		width=0.75];
	139 -- 140	[pos="509.51,455.38 509.5,457.94 509.48,460.57 509.46,463.13"];
	103 -- 126	[pos="567.66,461.35 541.07,463.48 500.73,466.71 474.2,468.84"];
	103 -- 104	[pos="620.8,464.45 655.47,471.43 716.31,483.68 750.94,490.65"];
	89 -- 90	[pos="447.9,582.48 449.29,597.75 451.24,619.39 452.62,634.57"];
	146	[height=0.5,
		pos="401.07,727.53",
		width=0.75];
	89 -- 146	[pos="441.33,581.96 432.64,613.38 414.67,678.35 405.99,709.75"];
	126 -- 140	[pos="473.65,475.34 476.69,475.85 479.78,476.36 482.82,476.86"];
	127	[height=0.5,
		pos="281.58,637.61",
		width=0.75];
	126 -- 127	[pos="432.35,486.07 400.95,517.63 328.59,590.36 296.91,622.21"];
	90 -- 96	[pos="450.74,634.5 445.78,608.96 436.77,562.52 431.8,536.89"];
	141	[height=0.5,
		pos="571.37,517.32",
		width=0.75];
	140 -- 141	[pos="530.01,493.27 536.77,497.2 544.28,501.57 551.02,505.49"];
	104 -- 141	[pos="750.14,498.7 710.72,502.81 637.68,510.42 598.26,514.52"];
	104 -- 105	[pos="752.01,503.12 725.82,510.68 684.91,522.49 658.64,530.07"];
	96 -- 99	[pos="401.04,519.02 380.36,519.26 352.04,519.59 331.37,519.83"];
	142	[height=0.5,
		pos="597.5,625.4",
		width=0.75];
	141 -- 142	[pos="575.69,535.17 580.53,555.19 588.33,587.49 593.18,607.52"];
	105 -- 142	[pos="626.33,554.75 620.07,570.08 611,592.32 604.71,607.74"];
	105 -- 106	[pos="615.65,551.04 608.83,556.3 601.04,562.29 594.21,567.55"];
	108	[height=0.5,
		pos="344.69,608.19",
		width=0.75];
	99 -- 108	[pos="312.21,537.55 319.3,552.98 329.62,575.41 336.71,590.83"];
	143	[height=0.5,
		pos="463.51,696.74",
		width=0.75];
	142 -- 143	[pos="576.27,636.7 551.18,650.06 509.69,672.15 484.64,685.49"];
	106 -- 111	[pos="549.75,585.58 517.9,590.61 464.78,599 433.01,604.02"];
	106 -- 107	[pos="566.87,598.65 559.82,611.62 550.22,629.3 543.22,642.2"];
	111 -- 143	[pos="417.4,624.83 427.55,640.66 442.74,664.35 452.88,680.16"];
	111 -- 112	[pos="397.34,625.32 395.59,628.51 393.77,631.84 392.03,635.03"];
	107 -- 108	[pos="508.88,652.37 472.67,642.63 406.21,624.74 369.94,614.98"];
	147	[height=0.5,
		pos="418.1,771.87",
		width=0.75];
	107 -- 147	[pos="518.39,674.34 496.14,695.97 455.59,735.4 433.48,756.9"];
	113	[height=0.5,
		pos="258.23,681.63",
		width=0.75];
	108 -- 113	[pos="328.02,622.35 312.81,635.27 290.43,654.28 275.14,667.27"];
	144	[height=0.5,
		pos="336.17,726.05",
		width=0.75];
	143 -- 144	[pos="437.74,702.67 415.65,707.76 383.98,715.05 361.9,720.13"];
	112 -- 116	[pos="358.57,643.68 327.64,632.71 274.27,613.79 243.42,602.85"];
	112 -- 113	[pos="357.16,658.24 335.84,663.28 305.54,670.45 284.1,675.52"];
	116 -- 121	[pos="242.08,583.98 248.74,580.91 256.04,577.55 262.69,574.48"];
	117	[height=0.5,
		pos="196.23,680.34",
		width=0.75];
	116 -- 117	[pos="214.7,612.19 210.7,626.94 205.05,647.8 201.05,662.55"];
	121 -- 127	[pos="284.2,582.32 283.67,593.62 282.98,608.1 282.44,619.41"];
	121 -- 122	[pos="290.46,582.07 297.18,604.35 308.59,642.17 315.27,664.35"];
	127 -- 144	[pos="292.1,654.67 301.83,670.43 316.2,693.71 325.86,709.35"];
	128	[height=0.5,
		pos="271.35,775.11",
		width=0.75];
	127 -- 128	[pos="280.22,655.87 278.26,682.17 274.67,730.44 272.71,756.78"];
	113 -- 117	[pos="231.22,681.07 228.61,681.02 225.96,680.96 223.35,680.91"];
	145	[height=0.5,
		pos="333.55,770.07",
		width=0.75];
	144 -- 145	[pos="335.09,744.21 334.94,746.77 334.78,749.4 334.63,751.95"];
	122 -- 145	[pos="323.29,700.28 325.53,715.49 328.7,737.03 330.92,752.15"];
	123	[height=0.5,
		pos="226.95,725.68",
		width=0.75];
	122 -- 123	[pos="298.41,692.38 283.59,699.29 264.17,708.34 249.31,715.26"];
	117 -- 123	[pos="207.49,696.97 210.17,700.91 213.02,705.12 215.69,709.06"];
	145 -- 146	[pos="353.45,757.53 362.16,752.04 372.37,745.61 381.09,740.12"];
	123 -- 128	[pos="241,741.32 246.18,747.09 252.05,753.63 257.24,759.4"];
	146 -- 147	[pos="407.8,745.05 408.95,748.05 410.15,751.17 411.3,754.18"];
	148	[height=0.5,
		pos="330.06,825.62",
		width=0.75];
	128 -- 148	[pos="288.02,789.45 295.88,796.22 305.25,804.28 313.15,811.07"];
	147 -- 148	[pos="398.12,784.07 383.81,792.8 364.62,804.52 350.27,813.29"];
}
