graph {
	graph [bb="0,0,699.89,548.29",
		outputorder=edgesfirst,
		overlap=prism,
		size="50,50!",
		start=8410
	];
	node [label="\N"];
	0	[height=0.5,
		pos="670.85,359.61",
		width=0.75];
	1	[height=0.5,
		pos="569.75,396.52",
		width=0.75];
	0 -- 1	[pos="647.15,368.26 631.04,374.14 609.81,381.9 593.66,387.79"];
	10	[height=0.5,
		pos="672.89,267.41",
		width=0.75];
	0 -- 10	[pos="671.25,341.39 671.61,325.23 672.13,301.74 672.49,285.58"];
	2	[height=0.5,
		pos="435.37,484.14",
		width=0.75];
	1 -- 2	[pos="550.21,409.26 524.74,425.87 480.42,454.76 454.93,471.38"];
	11	[height=0.5,
		pos="608.17,254.28",
		width=0.75];
	1 -- 11	[pos="574.54,378.79 581.9,351.54 595.92,299.62 603.32,272.23"];
	13	[height=0.5,
		pos="592.86,201.23",
		width=0.75];
	10 -- 13	[pos="655.92,253.37 642.34,242.14 623.38,226.47 609.81,215.24"];
	10 -- 11	[pos="646.94,262.14 642.72,261.29 638.35,260.4 634.13,259.54"];
	3	[height=0.5,
		pos="299.54,476.67",
		width=0.75];
	2 -- 3	[pos="408.21,482.64 384.52,481.34 350.33,479.46 326.66,478.16"];
	37	[height=0.5,
		pos="333.8,530.29",
		width=0.75];
	2 -- 37	[pos="412.83,494.38 396,502.03 373.09,512.43 356.28,520.07"];
	16	[height=0.5,
		pos="546.11,292.44",
		width=0.75];
	13 -- 16	[pos="584.06,218.38 575.71,234.69 563.21,259.08 554.86,275.36"];
	14	[height=0.5,
		pos="471.31,118.53",
		width=0.75];
	13 -- 14	[pos="573.86,188.3 551.16,172.86 513.39,147.16 490.57,131.63"];
	4	[height=0.5,
		pos="141.64,410",
		width=0.75];
	3 -- 4	[pos="276.58,466.98 246.65,454.34 194.58,432.35 164.63,419.71"];
	24	[height=0.5,
		pos="311.31,432.63",
		width=0.75];
	3 -- 24	[pos="304.33,458.76 305.07,456 305.83,453.14 306.57,450.38"];
	20	[height=0.5,
		pos="497.44,370.6",
		width=0.75];
	16 -- 20	[pos="535.55,309.4 527.33,322.6 515.98,340.82 507.81,353.94"];
	17	[height=0.5,
		pos="484.09,259.98",
		width=0.75];
	16 -- 17	[pos="524.76,281.27 518.6,278.04 511.86,274.52 505.68,271.28"];
	5	[height=0.5,
		pos="89.061,302.94",
		width=0.75];
	4 -- 5	[pos="133.19,392.8 123.38,372.82 107.29,340.06 97.488,320.1"];
	31	[height=0.5,
		pos="107.93,356.06",
		width=0.75];
	4 -- 31	[pos="131.16,393.23 127.14,386.8 122.55,379.45 118.52,373"];
	23	[height=0.5,
		pos="373.36,400.46",
		width=0.75];
	20 -- 23	[pos="472.03,376.72 450.76,381.83 420.54,389.11 399.16,394.25"];
	21	[height=0.5,
		pos="435.39,357.01",
		width=0.75];
	20 -- 21	[pos="471.49,364.92 468.16,364.19 464.76,363.44 461.44,362.72"];
	6	[height=0.5,
		pos="125.21,184.28",
		width=0.75];
	5 -- 6	[pos="94.472,285.17 101.29,262.8 112.93,224.59 119.76,202.16"];
	40	[height=0.5,
		pos="27,324.71",
		width=0.75];
	5 -- 40	[pos="64.889,311.42 60.396,312.99 55.702,314.64 51.208,316.22"];
	26	[height=0.5,
		pos="283.56,352.03",
		width=0.75];
	23 -- 26	[pos="352.08,388.98 337.76,381.26 318.97,371.13 304.69,363.42"];
	23 -- 24	[pos="352.01,411.53 345.84,414.73 339.1,418.22 332.92,421.43"];
	7	[height=0.5,
		pos="222.02,89.637",
		width=0.75];
	6 -- 7	[pos="140.76,169.07 158.83,151.41 188.45,122.45 206.5,104.8"];
	32	[height=0.5,
		pos="119.92,228.47",
		width=0.75];
	6 -- 32	[pos="123.06,202.25 122.74,204.93 122.41,207.69 122.09,210.37"];
	28	[height=0.5,
		pos="206.34,325.79",
		width=0.75];
	26 -- 28	[pos="259.13,343.73 250.03,340.63 239.7,337.13 230.62,334.04"];
	27	[height=0.5,
		pos="269.22,285.72",
		width=0.75];
	26 -- 27	[pos="279.65,333.91 277.62,324.55 275.16,313.17 273.14,303.82"];
	8	[height=0.5,
		pos="376.08,60.086",
		width=0.75];
	7 -- 8	[pos="248.15,84.624 276.57,79.174 321.71,70.515 350.08,65.075"];
	42	[height=0.5,
		pos="97.897,108.9",
		width=0.75];
	7 -- 42	[pos="195.7,93.723 174.78,96.97 145.63,101.49 124.61,104.76"];
	30	[height=0.5,
		pos="203.69,412.79",
		width=0.75];
	28 -- 30	[pos="205.79,343.82 205.34,358.75 204.7,379.86 204.24,394.78"];
	29	[height=0.5,
		pos="199.15,223.11",
		width=0.75];
	28 -- 29	[pos="205.05,307.43 203.74,288.75 201.73,259.94 200.42,241.31"];
	9	[height=0.5,
		pos="495.86,46.956",
		width=0.75];
	8 -- 9	[pos="402.96,57.14 422.69,54.977 449.36,52.053 469.07,49.893"];
	8 -- 14	[pos="396.28,72.48 412.44,82.398 434.99,96.238 451.14,106.15"];
	35	[height=0.5,
		pos="237.52,477.69",
		width=0.75];
	30 -- 35	[pos="212.58,429.84 217.51,439.3 223.63,451.04 228.57,460.52"];
	30 -- 31	[pos="183.38,400.76 167.13,391.13 144.45,377.69 128.21,368.07"];
	12	[height=0.5,
		pos="595.38,138.91",
		width=0.75];
	9 -- 12	[pos="511.85,61.73 530.42,78.891 560.87,107.03 579.43,124.18"];
	36	[height=0.5,
		pos="373.36,467.02",
		width=0.75];
	35 -- 36	[pos="264.35,475.58 288.01,473.72 322.33,471.03 346.11,469.16"];
	11 -- 17	[pos="580.94,255.53 560.25,256.48 531.92,257.78 511.25,258.73"];
	11 -- 12	[pos="606.17,236.25 603.78,214.71 599.8,178.85 597.4,157.19"];
	17 -- 21	[pos="475.38,277.33 466.52,294.99 452.86,322.21 444.02,339.82"];
	18	[height=0.5,
		pos="386.98,161.7",
		width=0.75];
	17 -- 18	[pos="468.91,244.62 450.67,226.16 420.24,195.36 402.04,176.95"];
	21 -- 36	[pos="425.7,374.2 414.04,394.87 394.6,429.34 382.98,449.96"];
	22	[height=0.5,
		pos="421.39,279.05",
		width=0.75];
	21 -- 22	[pos="432.15,338.93 429.88,326.33 426.88,309.6 424.62,297.03"];
	15	[height=0.5,
		pos="533.37,107.5",
		width=0.75];
	12 -- 15	[pos="573.69,127.93 567.68,124.88 561.16,121.58 555.15,118.54"];
	36 -- 37	[pos="362.96,483.65 357.19,492.87 350.04,504.31 344.26,513.56"];
	14 -- 15	[pos="497.62,113.85 500.8,113.29 504.03,112.71 507.2,112.15"];
	14 -- 18	[pos="449.59,129.64 437,136.09 421.2,144.18 408.62,150.62"];
	19	[height=0.5,
		pos="460.11,175.02",
		width=0.75];
	15 -- 19	[pos="517.47,122.15 505.18,133.48 488.25,149.08 475.97,160.4"];
	38	[height=0.5,
		pos="175.47,504.61",
		width=0.75];
	37 -- 38	[pos="307.3,525.99 277.98,521.23 231.03,513.62 201.79,508.88"];
	24 -- 38	[pos="290.09,443.88 264.72,457.32 222.5,479.69 196.99,493.2"];
	25	[height=0.5,
		pos="345.59,335.38",
		width=0.75];
	24 -- 25	[pos="317.6,414.79 323.78,397.24 333.17,370.61 339.34,353.1"];
	18 -- 19	[pos="413.38,166.51 420.09,167.73 427.29,169.04 433.99,170.26"];
	33	[height=0.5,
		pos="226.4,138.99",
		width=0.75];
	18 -- 33	[pos="360.46,157.95 330.71,153.74 282.72,146.96 252.96,142.75"];
	19 -- 22	[pos="453.54,192.66 446.42,211.79 435.12,242.15 427.99,261.31"];
	39	[height=0.5,
		pos="79.58,425.78",
		width=0.75];
	38 -- 39	[pos="158.32,490.51 140.98,476.26 114.31,454.33 96.898,440.02"];
	31 -- 39	[pos="100.78,373.65 96.512,384.14 91.112,397.42 86.83,407.95"];
	31 -- 32	[pos="109.62,338.05 111.9,313.87 115.91,271.14 118.2,246.8"];
	22 -- 25	[pos="403.04,292.68 391.12,301.54 375.65,313.04 363.77,321.87"];
	39 -- 40	[pos="70.661,408.64 60.992,390.05 45.649,360.56 35.963,341.94"];
	25 -- 27	[pos="325.92,322.59 314.43,315.12 299.99,305.73 288.56,298.29"];
	41	[height=0.5,
		pos="40.559,209.67",
		width=0.75];
	40 -- 41	[pos="29.119,306.74 31.651,285.25 35.865,249.5 38.41,227.9"];
	32 -- 41	[pos="94.373,222.42 85.311,220.27 75.117,217.86 66.058,215.71"];
	32 -- 33	[pos="137.03,214.09 156.9,197.4 189.48,170.02 209.34,153.33"];
	27 -- 29	[pos="252.97,271.2 241.65,261.09 226.61,247.65 215.31,237.56"];
	41 -- 42	[pos="50.286,192.57 60.893,173.93 77.763,144.28 88.314,125.74"];
	34	[height=0.5,
		pos="159.96,111.34",
		width=0.75];
	29 -- 34	[pos="192.85,205.16 185.49,184.17 173.4,149.69 166.11,128.88"];
	43	[height=0.5,
		pos="147.5,62.003",
		width=0.75];
	42 -- 43	[pos="113.59,94.063 119.38,88.588 125.94,82.387 131.74,76.907"];
	33 -- 34	[pos="203.16,129.32 196.73,126.64 189.74,123.73 183.3,121.05"];
	33 -- 43	[pos="210.81,123.78 196.89,110.2 176.62,90.416 162.79,76.921"];
	44	[height=0.5,
		pos="110.5,18",
		width=0.75];
	34 -- 44	[pos="150.89,94.219 141.96,77.378 128.42,51.815 119.52,35.011"];
	43 -- 44	[pos="134.15,46.117 130.75,42.08 127.1,37.744 123.72,33.715"];
}
