graph {
	graph [bb="0,0,543.96,438.21",
		outputorder=edgesfirst,
		overlap=prism,
		size="50,50!",
		start=3207
	];
	node [label="\N"];
	0	[height=0.5,
		pos="422.05,106.97",
		width=0.75];
	8	[height=0.5,
		pos="241.84,19.49",
		width=0.75];
	0 -- 8	[pos="399.95,96.241 365.27,79.406 298.46,46.972 263.84,30.167"];
	2	[height=0.5,
		pos="242.37,206.6",
		width=0.75];
	0 -- 2	[pos="401.09,118.59 366.46,137.79 297.73,175.9 263.2,195.05"];
	6	[height=0.5,
		pos="351.92,18",
		width=0.75];
	0 -- 6	[pos="409.19,90.649 396.53,74.597 377.33,50.231 364.7,34.215"];
	9	[height=0.5,
		pos="351.98,238.67",
		width=0.75];
	0 -- 9	[pos="412.89,124.18 399.46,149.43 374.57,196.2 361.14,221.45"];
	1	[height=0.5,
		pos="434.71,293.86",
		width=0.75];
	0 -- 1	[pos="423.29,125.23 425.71,161.05 431.07,240.15 433.49,275.81"];
	14	[height=0.5,
		pos="176.8,123.22",
		width=0.75];
	8 -- 14	[pos="231.39,36.156 219.25,55.513 199.35,87.256 187.22,106.6"];
	16	[height=0.5,
		pos="308.04,136.35",
		width=0.75];
	8 -- 16	[pos="251.61,36.733 264.2,58.955 285.95,97.347 298.45,119.42"];
	2 -- 8	[pos="242.32,188.32 242.21,152.45 241.99,73.27 241.89,37.57"];
	3	[height=0.5,
		pos="73.519,123.15",
		width=0.75];
	2 -- 3	[pos="220.64,195.86 188.31,179.88 127.87,150.01 95.431,133.98"];
	12	[height=0.5,
		pos="82.855,242.61",
		width=0.75];
	2 -- 12	[pos="216.74,212.39 187.06,219.09 138.45,230.06 108.68,236.78"];
	5	[height=0.5,
		pos="128.06,368.71",
		width=0.75];
	2 -- 5	[pos="230.78,223.03 208.87,254.11 161.61,321.12 139.68,352.23"];
	15	[height=0.5,
		pos="251.13,376.68",
		width=0.75];
	2 -- 15	[pos="243.3,224.8 244.99,257.54 248.51,325.97 250.2,358.61"];
	3 -- 8	[pos="93.489,110.85 125.88,90.904 189.52,51.713 221.9,31.773"];
	3 -- 14	[pos="100.65,123.17 115.72,123.18 134.4,123.19 149.49,123.2"];
	4	[height=0.5,
		pos="27,286.62",
		width=0.75];
	3 -- 4	[pos="68.452,140.96 59.504,172.4 41.005,237.41 32.061,268.84"];
	3 -- 12	[pos="74.937,141.3 76.692,163.75 79.663,201.77 81.423,224.3"];
	11	[height=0.5,
		pos="180.85,265.65",
		width=0.75];
	3 -- 11	[pos="85.831,139.5 106.53,166.99 148.07,222.13 168.68,249.49"];
	14 -- 16	[pos="203.67,125.91 226.32,128.18 258.57,131.4 281.2,133.67"];
	6 -- 8	[pos="324.71,18.368 307.78,18.598 286.07,18.891 269.12,19.121"];
	6 -- 14	[pos="331.83,30.07 298.14,50.313 230.64,90.873 196.92,111.13"];
	6 -- 9	[pos="351.93,36.058 351.94,77.437 351.96,178.74 351.97,220.36"];
	6 -- 16	[pos="345.35,35.718 337.08,58.03 322.95,96.143 314.66,118.51"];
	4 -- 14	[pos="41.093,271.25 69.643,240.11 134.02,169.88 162.63,138.67"];
	4 -- 12	[pos="44.673,272.7 51.193,267.56 58.578,261.74 65.105,256.6"];
	4 -- 5	[pos="44.144,300.55 62.728,315.64 92.217,339.59 110.83,354.71"];
	4 -- 11	[pos="53.798,282.97 82.036,279.12 126.24,273.09 154.36,269.26"];
	7	[height=0.5,
		pos="189.12,420.21",
		width=0.75];
	4 -- 7	[pos="44.043,300.66 75.098,326.25 140.57,380.21 171.82,405.95"];
	12 -- 14	[pos="95.524,226.51 113.45,203.72 146.05,162.3 164.03,139.45"];
	12 -- 15	[pos="100.23,256.46 132.47,282.15 201.23,336.93 233.59,362.71"];
	5 -- 12	[pos="121.78,351.17 113.19,327.22 97.869,284.49 89.233,260.4"];
	5 -- 11	[pos="137.02,351.22 146.78,332.16 162.31,301.84 172.03,282.87"];
	5 -- 7	[pos="145.07,383.05 153.54,390.2 163.75,398.81 172.2,405.94"];
	5 -- 15	[pos="155.07,370.46 175.59,371.78 203.68,373.6 224.18,374.93"];
	10	[height=0.5,
		pos="331.86,357.96",
		width=0.75];
	5 -- 10	[pos="155.13,367.28 194.11,365.22 265.65,361.45 304.69,359.39"];
	11 -- 14	[pos="180.34,247.61 179.56,220.36 178.1,168.99 177.32,141.56"];
	11 -- 16	[pos="195.69,250.56 220.07,225.78 268.33,176.72 292.91,151.74"];
	9 -- 14	[pos="332.56,225.87 298.8,203.62 229.67,158.06 196.04,135.9"];
	9 -- 11	[pos="325.61,242.82 293.46,247.89 239.41,256.41 207.24,261.49"];
	9 -- 10	[pos="348.92,256.79 345.12,279.34 338.67,317.61 334.88,340.06"];
	13	[height=0.5,
		pos="516.96,388.23",
		width=0.75];
	9 -- 13	[pos="368.1,253.28 399.56,281.8 468.82,344.6 500.53,373.34"];
	9 -- 16	[pos="344.53,221.31 336.45,202.5 323.63,172.64 315.53,153.79"];
	7 -- 11	[pos="188.16,402.18 186.57,372.56 183.43,313.91 181.83,284.05"];
	7 -- 9	[pos="203.01,404.73 233.7,370.52 307.02,288.78 337.9,254.36"];
	7 -- 15	[pos="207.72,407.15 215.43,401.74 224.36,395.47 232.11,390.03"];
	7 -- 10	[pos="211.74,410.35 238.31,398.76 282.15,379.64 308.88,367.98"];
	10 -- 11	[pos="311.81,345.7 282.93,328.04 229.92,295.64 200.99,277.96"];
	10 -- 15	[pos="306.32,363.88 296.89,366.07 286.22,368.54 276.78,370.73"];
	10 -- 13	[pos="358.38,362.3 393.57,368.05 455.32,378.15 490.49,383.9"];
	10 -- 16	[pos="329.92,339.82 325.44,298.16 314.46,196.03 309.99,154.43"];
	1 -- 2	[pos="412.27,283.68 375.3,266.91 302.03,233.67 264.96,216.85"];
	1 -- 9	[pos="415.52,281.06 402.25,272.21 384.66,260.47 371.35,251.59"];
	1 -- 15	[pos="412.2,304.02 376.87,319.96 308.8,350.66 273.53,366.57"];
	1 -- 10	[pos="414.88,306.22 396.67,317.57 369.83,334.3 351.63,345.64"];
	1 -- 13	[pos="448.29,309.45 463.53,326.93 488.11,355.13 503.35,372.63"];
}
