graph {
	graph [bb="0,0,752.06,612.76",
		outputorder=edgesfirst,
		overlap=prism,
		size="50,50!",
		start=21
	];
	node [label="\N"];
	0	[height=0.5,
		pos="138.96,247.73",
		width=0.75];
	1	[height=0.5,
		pos="156.13,291.76",
		width=0.75];
	0 -- 1	[pos="145.84,265.38 146.96,268.26 148.12,271.23 149.24,274.1"];
	3	[height=0.5,
		pos="287.57,338.52",
		width=0.75];
	0 -- 3	[pos="159,259.98 187.36,277.31 238.92,308.8 267.37,326.18"];
	2	[height=0.5,
		pos="350.25,236",
		width=0.75];
	0 -- 2	[pos="166.15,246.22 206.72,243.97 282.66,239.75 323.17,237.5"];
	16	[height=0.5,
		pos="110.87,141.25",
		width=0.75];
	0 -- 16	[pos="134.19,229.67 129,209.97 120.74,178.64 115.57,159.05"];
	7	[height=0.5,
		pos="27,343.63",
		width=0.75];
	0 -- 7	[pos="121.95,262.3 100.79,280.43 64.866,311.2 43.797,329.24"];
	18	[height=0.5,
		pos="130.2,402.44",
		width=0.75];
	0 -- 18	[pos="137.94,265.78 136.26,295.43 132.93,354.14 131.24,384.03"];
	10	[height=0.5,
		pos="296.31,120.75",
		width=0.75];
	0 -- 10	[pos="156.4,233.66 186.65,209.25 248.49,159.34 278.79,134.89"];
	11	[height=0.5,
		pos="234.28,150.24",
		width=0.75];
	0 -- 11	[pos="153.85,232.5 171.76,214.18 201.63,183.63 219.49,165.36"];
	20	[height=0.5,
		pos="59.288,411.32",
		width=0.75];
	0 -- 20	[pos="130.58,264.93 115.32,296.27 83.146,362.33 67.791,393.86"];
	23	[height=0.5,
		pos="77.341,195.03",
		width=0.75];
	0 -- 23	[pos="122.12,233.33 113.43,225.89 102.85,216.85 94.157,209.41"];
	1 -- 3	[pos="180.24,300.33 203.95,308.77 239.95,321.58 263.61,330"];
	1 -- 2	[pos="181.11,284.58 218.39,273.87 288.15,253.84 325.37,243.15"];
	1 -- 16	[pos="150.76,273.9 142.05,244.93 124.94,188.04 116.24,159.09"];
	12	[height=0.5,
		pos="218.14,297.62",
		width=0.75];
	1 -- 12	[pos="183.15,294.31 185.76,294.56 188.41,294.81 191.02,295.06"];
	1 -- 18	[pos="151.85,310.03 147.02,330.67 139.2,364.02 134.4,384.51"];
	1 -- 23	[pos="143.12,275.78 128.52,257.86 104.98,228.96 90.371,211.02"];
	25	[height=0.5,
		pos="444.84,222.34",
		width=0.75];
	3 -- 25	[pos="305.91,324.97 336.22,302.58 396.38,258.14 426.6,235.81"];
	3 -- 7	[pos="260.17,339.06 210,340.04 103.93,342.12 54.026,343.1"];
	4	[height=0.5,
		pos="536.94,243.03",
		width=0.75];
	3 -- 4	[pos="311.03,329.54 358.55,311.34 465.73,270.3 513.36,252.06"];
	19	[height=0.5,
		pos="480.55,424.57",
		width=0.75];
	3 -- 19	[pos="310.08,348.56 347.17,365.1 420.69,397.88 457.88,414.46"];
	6	[height=0.5,
		pos="349.59,350.85",
		width=0.75];
	3 -- 6	[pos="313.51,343.68 316.83,344.34 320.23,345.01 323.55,345.67"];
	5	[height=0.5,
		pos="410.91,290.06",
		width=0.75];
	3 -- 5	[pos="311.06,329.29 333,320.67 365.59,307.87 387.51,299.25"];
	3 -- 12	[pos="267.11,326.47 258.15,321.2 247.66,315.01 238.69,309.73"];
	8	[height=0.5,
		pos="277.94,236.14",
		width=0.75];
	3 -- 8	[pos="285.85,320.22 284.09,301.59 281.39,272.87 279.64,254.29"];
	3 -- 18	[pos="264.35,347.96 234.51,360.08 183.02,380.99 153.26,393.08"];
	3 -- 10	[pos="288.3,320.33 289.94,279.34 293.93,180.13 295.58,139.05"];
	3 -- 11	[pos="282.55,320.81 272.4,284.92 249.5,204 239.32,168.04"];
	14	[height=0.5,
		pos="405.04,483.52",
		width=0.75];
	3 -- 14	[pos="300.59,354.59 323.17,382.47 369.34,439.45 391.97,467.37"];
	3 -- 20	[pos="263.14,346.32 219.31,360.29 127.83,389.46 83.887,403.48"];
	22	[height=0.5,
		pos="418.73,565.66",
		width=0.75];
	3 -- 22	[pos="297.42,355.6 321.79,397.79 384.64,506.62 408.94,548.7"];
	29	[height=0.5,
		pos="501.98,380.55",
		width=0.75];
	3 -- 29	[pos="313.86,343.68 355.12,351.77 434.62,367.35 475.81,375.42"];
	2 -- 3	[pos="339.9,252.93 328.29,271.92 309.55,302.56 297.93,321.57"];
	2 -- 16	[pos="326.86,226.74 281.1,208.63 180.2,168.69 134.36,150.55"];
	2 -- 25	[pos="376.85,232.16 389.86,230.28 405.46,228.03 418.44,226.15"];
	2 -- 19	[pos="361.59,252.4 386.23,288.07 444.44,372.32 469.15,408.07"];
	2 -- 6	[pos="350.15,254.2 350.03,275.7 349.82,311.26 349.7,332.73"];
	2 -- 5	[pos="366.51,250.48 375.21,258.24 385.9,267.77 394.61,275.53"];
	2 -- 12	[pos="327.84,246.45 303.55,257.78 265,275.77 240.66,287.12"];
	2 -- 8	[pos="322.91,236.05 317.15,236.06 311.08,236.08 305.32,236.09"];
	13	[height=0.5,
		pos="193.32,106.18",
		width=0.75];
	2 -- 13	[pos="333.16,221.86 302.97,196.89 240.56,145.26 210.39,120.31"];
	9	[height=0.5,
		pos="617.93,207.64",
		width=0.75];
	2 -- 9	[pos="377.39,233.12 428.83,227.67 539.93,215.9 591.11,210.48"];
	24	[height=0.5,
		pos="592.89,287.05",
		width=0.75];
	2 -- 24	[pos="376.22,241.46 422.92,251.29 520.54,271.83 567.11,281.63"];
	2 -- 10	[pos="342.06,218.49 331.86,196.71 314.56,159.73 304.41,138.04"];
	15	[height=0.5,
		pos="331.58,18",
		width=0.75];
	2 -- 15	[pos="348.69,217.79 345.17,176.65 336.63,76.948 333.12,36.006"];
	2 -- 11	[pos="332.13,222.6 310.47,206.58 274.43,179.93 252.66,163.83"];
	2 -- 14	[pos="354.28,254.2 364.44,300.08 391,420.07 401.08,465.62"];
	28	[height=0.5,
		pos="577.71,342.19",
		width=0.75];
	2 -- 28	[pos="372.48,246.37 415.96,266.67 511.84,311.44 555.4,331.77"];
	17	[height=0.5,
		pos="570.3,144.17",
		width=0.75];
	2 -- 17	[pos="373.39,226.34 415.65,208.71 504.87,171.48 547.14,153.84"];
	2 -- 23	[pos="323.59,231.99 271.28,224.14 155.78,206.8 103.71,198.99"];
	16 -- 23	[pos="100.45,157.97 96.449,164.39 91.885,171.7 87.876,178.13"];
	7 -- 20	[pos="35.315,361.06 40.098,371.09 46.092,383.66 50.889,393.71"];
	4 -- 25	[pos="511.28,237.27 498.61,234.42 483.36,231 470.67,228.15"];
	4 -- 19	[pos="531.43,260.76 520.65,295.47 496.88,372 486.08,406.76"];
	4 -- 5	[pos="513.23,251.87 490.7,260.28 457.01,272.85 434.51,281.25"];
	4 -- 9	[pos="559.93,232.98 570.96,228.16 584.15,222.4 595.16,217.59"];
	21	[height=0.5,
		pos="725.06,142.78",
		width=0.75];
	4 -- 21	[pos="558.15,231.72 594.38,212.42 667.75,173.32 703.93,154.04"];
	4 -- 24	[pos="554.64,256.96 561.17,262.1 568.57,267.92 575.11,273.06"];
	4 -- 28	[pos="544.22,260.75 551.65,278.8 563.08,306.62 570.48,324.61"];
	4 -- 17	[pos="542.9,225.35 548.93,207.47 558.22,179.97 564.27,162.03"];
	27	[height=0.5,
		pos="661.7,81.637",
		width=0.75];
	4 -- 27	[pos="549.35,226.96 573.15,196.19 624.92,129.22 648.96,98.117"];
	4 -- 29	[pos="532.36,261.01 525.67,287.36 513.25,336.21 506.55,362.57"];
	19 -- 24	[pos="493.65,408.53 515.3,382.03 558.27,329.42 579.87,302.99"];
	19 -- 28	[pos="497.47,410.22 515.31,395.1 543.22,371.43 560.98,356.37"];
	26	[height=0.5,
		pos="554.86,594.76",
		width=0.75];
	19 -- 26	[pos="488.22,442.14 502.5,474.84 532.98,544.66 547.23,577.28"];
	19 -- 22	[pos="472.97,441.87 461.1,468.95 438.27,521.05 426.37,548.21"];
	19 -- 29	[pos="488.89,407.43 490.45,404.24 492.07,400.91 493.62,397.72"];
	6 -- 25	[pos="361.66,334.57 379.98,309.85 414.61,263.13 432.87,238.49"];
	6 -- 12	[pos="326.4,341.45 302.51,331.78 265.51,316.8 241.55,307.1"];
	6 -- 8	[pos="339.02,333.92 325.4,312.11 301.85,274.43 288.32,252.76"];
	5 -- 25	[pos="419.47,272.97 424.58,262.78 431.04,249.89 436.16,239.66"];
	5 -- 6	[pos="395.75,305.08 386.39,314.36 374.41,326.24 365,335.57"];
	5 -- 8	[pos="387.75,280.66 363.49,270.83 325.61,255.47 301.28,245.61"];
	12 -- 13	[pos="215.8,279.61 211.07,243.13 200.4,160.85 195.66,124.29"];
	12 -- 18	[pos="204.78,313.54 188.16,333.36 159.94,366.99 143.39,386.72"];
	8 -- 12	[pos="263.16,251.34 254.03,260.73 242.34,272.74 233.17,282.17"];
	8 -- 13	[pos="267.05,219.42 250.8,194.47 220.39,147.76 204.16,122.84"];
	9 -- 21	[pos="638.08,195.44 657.23,183.84 685.88,166.5 705,154.93"];
	9 -- 24	[pos="612.37,225.26 608.25,238.33 602.65,256.08 598.52,269.2"];
	9 -- 28	[pos="612.59,225.5 604.89,251.24 590.78,298.47 583.07,324.25"];
	9 -- 17	[pos="605.66,191.29 598.61,181.89 589.76,170.11 582.69,160.68"];
	21 -- 27	[pos="709.4,127.67 699.58,118.19 686.97,106.02 677.18,96.577"];
	18 -- 20	[pos="103.39,405.8 97.743,406.51 91.783,407.25 86.134,407.96"];
	24 -- 28	[pos="588,304.8 586.27,311.1 584.32,318.18 582.59,324.47"];
	10 -- 15	[pos="302.46,102.85 308.93,83.994 319.06,54.474 325.5,35.693"];
	10 -- 11	[pos="274.27,131.23 268.56,133.94 262.4,136.87 256.67,139.59"];
	11 -- 15	[pos="246.21,134.02 264.88,108.64 300.81,59.809 319.55,34.347"];
	14 -- 19	[pos="422.94,469.55 434.97,460.15 450.77,447.82 462.78,438.44"];
	14 -- 26	[pos="423.12,496.93 451.91,518.32 507.89,559.88 536.72,581.29"];
	14 -- 22	[pos="408.08,501.74 410.37,515.45 413.48,534.13 415.75,547.76"];
	28 -- 29	[pos="556.21,353.08 545.98,358.26 533.77,364.45 523.53,369.63"];
	17 -- 25	[pos="550.42,156.56 526.93,171.2 488.07,195.4 464.62,210.02"];
	17 -- 21	[pos="597.61,143.93 625.9,143.67 669.84,143.28 698.02,143.02"];
	17 -- 24	[pos="573.16,162.27 577.5,189.75 585.72,241.71 590.05,269.1"];
	17 -- 27	[pos="589.24,131.22 604.92,120.48 627.11,105.31 642.79,94.578"];
	22 -- 26	[pos="444.66,571.2 468.88,576.38 504.84,584.07 529.03,589.24"];
}
