graph {
	graph [bb="0,0,1823.2,1289.9",
		outputorder=edgesfirst,
		overlap=prism,
		size="50,50!",
		start=9453
	];
	node [label="\N"];
	0	[height=0.5,
		pos="842.57,748.03",
		width=0.75];
	42	[height=0.5,
		pos="855.63,515.44",
		width=0.75];
	0 -- 42	[pos="843.6,729.78 846.04,686.3 852.18,577 854.61,533.6"];
	1	[height=0.5,
		pos="860.6,469.17",
		width=0.75];
	0 -- 1	[pos="843.75,729.74 847.03,679.09 856.18,537.46 859.44,487.17"];
	2	[height=0.5,
		pos="592,586.06",
		width=0.75];
	0 -- 2	[pos="822.91,735.32 776.07,705.05 658.32,628.93 611.57,598.71"];
	153	[height=0.5,
		pos="756.93,682.44",
		width=0.75];
	0 -- 153	[pos="824.83,734.44 810.22,723.26 789.62,707.48 774.94,696.24"];
	3	[height=0.5,
		pos="1032.4,588.66",
		width=0.75];
	0 -- 3	[pos="859.42,733.89 895.44,703.65 979.6,632.99 1015.6,602.77"];
	6	[height=0.5,
		pos="968.86,592.87",
		width=0.75];
	0 -- 6	[pos="855.61,732.01 879.81,702.28 931.42,638.88 955.71,609.04"];
	4	[height=0.5,
		pos="619.68,788.52",
		width=0.75];
	0 -- 4	[pos="816.13,752.84 773.12,760.65 688.51,776.02 645.75,783.79"];
	5	[height=0.5,
		pos="757.24,443.15",
		width=0.75];
	0 -- 5	[pos="837.61,730.33 822.53,676.44 777.31,514.86 762.21,460.91"];
	7	[height=0.5,
		pos="529.94,585.24",
		width=0.75];
	0 -- 7	[pos="821.08,736.85 763.97,707.1 608.87,626.34 551.58,596.51"];
	201	[height=0.5,
		pos="951.17,926.59",
		width=0.75];
	0 -- 201	[pos="852.79,764.83 873.49,798.86 920.16,875.61 940.9,909.71"];
	12	[height=0.5,
		pos="1246.4,809.03",
		width=0.75];
	0 -- 12	[pos="869.07,752.04 942.24,763.09 1146.5,793.94 1219.8,805.01"];
	19	[height=0.5,
		pos="656.31,486.88",
		width=0.75];
	0 -- 19	[pos="830.92,731.7 797.47,684.8 701.4,550.11 667.96,503.21"];
	229	[height=0.5,
		pos="726.52,531.23",
		width=0.75];
	0 -- 229	[pos="833.46,731.02 811.82,690.59 757.5,589.11 735.74,548.46"];
	11	[height=0.5,
		pos="1211.9,569.79",
		width=0.75];
	0 -- 11	[pos="864.57,737.42 930.26,705.72 1124.5,611.98 1190,580.35"];
	113	[height=0.5,
		pos="1106.7,616.02",
		width=0.75];
	0 -- 113	[pos="864.19,737.23 913.72,712.48 1035,651.87 1084.8,626.97"];
	255	[height=0.5,
		pos="790.83,532.86",
		width=0.75];
	0 -- 255	[pos="838.25,730.06 828.51,689.56 804.94,591.54 795.18,550.94"];
	138	[height=0.5,
		pos="1168.4,823.55",
		width=0.75];
	0 -- 138	[pos="868.14,753.96 928.9,768.04 1081.4,803.39 1142.5,817.55"];
	13	[height=0.5,
		pos="636.8,876.55",
		width=0.75];
	0 -- 13	[pos="822.84,760.36 783.61,784.86 696.2,839.45 656.77,864.08"];
	120	[height=0.5,
		pos="682.13,741.94",
		width=0.75];
	0 -- 120	[pos="815.35,747 785.76,745.88 738.75,744.09 709.21,742.96"];
	152	[height=0.5,
		pos="764.96,871.47",
		width=0.75];
	0 -- 152	[pos="832.1,764.68 817.29,788.24 790.36,831.07 775.51,854.7"];
	17	[height=0.5,
		pos="860.6,993.03",
		width=0.75];
	0 -- 17	[pos="843.9,766.05 847.23,811.36 855.93,929.66 859.27,974.99"];
	144	[height=0.5,
		pos="658.15,585.99",
		width=0.75];
	0 -- 144	[pos="826.21,733.65 791.21,702.9 709.45,631.06 674.48,600.34"];
	39	[height=0.5,
		pos="1080,462.72",
		width=0.75];
	0 -- 39	[pos="855.67,732.29 897.08,682.52 1024.8,528.96 1066.6,478.77"];
	29	[height=0.5,
		pos="1031.9,635.41",
		width=0.75];
	0 -- 29	[pos="862.83,735.98 899.17,714.36 975.04,669.22 1011.5,647.54"];
	31	[height=0.5,
		pos="1118,704.82",
		width=0.75];
	0 -- 31	[pos="868.98,743.89 921.62,735.63 1039.1,717.2 1091.6,708.95"];
	32	[height=0.5,
		pos="892.02,660.8",
		width=0.75];
	0 -- 32	[pos="852.34,730.8 861.07,715.41 873.77,693 882.44,677.71"];
	54	[height=0.5,
		pos="904.6,748.87",
		width=0.75];
	0 -- 54	[pos="869.6,748.4 872.21,748.43 874.86,748.47 877.47,748.5"];
	36	[height=0.5,
		pos="866.26,792.89",
		width=0.75];
	0 -- 36	[pos="851.66,765.25 853.49,768.71 855.41,772.34 857.23,775.8"];
	38	[height=0.5,
		pos="727.84,968.61",
		width=0.75];
	0 -- 38	[pos="833.57,765.34 812.12,806.58 758.21,910.23 736.8,951.38"];
	155	[height=0.5,
		pos="889.11,944.75",
		width=0.75];
	0 -- 155	[pos="846.78,765.84 855.62,803.2 876.01,889.4 884.87,926.84"];
	237	[height=0.5,
		pos="653,630.09",
		width=0.75];
	0 -- 237	[pos="822.64,735.64 786.23,712.98 709.37,665.16 672.94,642.5"];
	283	[height=0.5,
		pos="1067.4,751.22",
		width=0.75];
	0 -- 283	[pos="869.69,748.42 912.91,749.03 996.93,750.22 1040.2,750.83"];
	146	[height=0.5,
		pos="856.56,568.64",
		width=0.75];
	0 -- 146	[pos="843.99,729.85 846.67,695.46 852.46,621.3 855.14,586.87"];
	49	[height=0.5,
		pos="1230.5,859.1",
		width=0.75];
	0 -- 49	[pos="867.43,755.15 937.41,775.19 1135.5,831.92 1205.6,851.97"];
	106	[height=0.5,
		pos="789.85,953.96",
		width=0.75];
	0 -- 106	[pos="837.98,765.95 828.01,804.89 804.46,896.9 794.46,935.94"];
	140	[height=0.5,
		pos="907.78,704.85",
		width=0.75];
	0 -- 140	[pos="861.78,735.31 870.2,729.74 880.06,723.21 888.48,717.63"];
	86	[height=0.5,
		pos="844.26,616.8",
		width=0.75];
	0 -- 86	[pos="842.81,729.79 843.13,704.72 843.71,659.89 844.03,634.89"];
	242	[height=0.5,
		pos="1191.7,763.18",
		width=0.75];
	0 -- 242	[pos="869.68,749.21 934.73,752.03 1099.1,759.17 1164.4,762"];
	95	[height=0.5,
		pos="994.76,970.69",
		width=0.75];
	0 -- 95	[pos="854.01,764.77 882.28,806.13 955.2,912.82 983.39,954.06"];
	104	[height=0.5,
		pos="628.27,674.12",
		width=0.75];
	0 -- 104	[pos="818.4,739.7 777.14,725.47 693.56,696.64 652.35,682.43"];
	193	[height=0.5,
		pos="720.2,575.27",
		width=0.75];
	0 -- 193	[pos="830.84,731.47 807.45,698.45 755.26,624.77 731.9,591.78"];
	262	[height=0.5,
		pos="715.04,635.64",
		width=0.75];
	0 -- 262	[pos="826.16,733.57 801.67,711.99 755.84,671.59 731.39,650.05"];
	161	[height=0.5,
		pos="827,909.61",
		width=0.75];
	0 -- 161	[pos="840.82,766.26 837.83,797.29 831.78,860.05 828.78,891.21"];
	176	[height=0.5,
		pos="1059.6,544.64",
		width=0.75];
	0 -- 176	[pos="858.53,733.08 898.78,695.37 1004,596.78 1044,559.34"];
	42 -- 146	[pos="855.95,533.45 856.04,538.87 856.15,544.83 856.24,550.28"];
	42 -- 86	[pos="853.6,533.56 851.53,552.01 848.34,580.44 846.28,598.84"];
	158	[height=0.5,
		pos="949.17,332.06",
		width=0.75];
	42 -- 158	[pos="864.43,498.19 882.31,463.15 922.67,384.02 940.46,349.13"];
	195	[height=0.5,
		pos="887.15,317.96",
		width=0.75];
	42 -- 195	[pos="858.54,497.21 864.55,459.59 878.25,373.72 884.25,336.14"];
	1 -- 42	[pos="858.67,487.19 858.31,490.54 857.93,494.04 857.57,497.39"];
	10	[height=0.5,
		pos="892.08,420.08",
		width=0.75];
	1 -- 10	[pos="871.26,452.55 874.54,447.43 878.15,441.8 881.43,436.68"];
	1 -- 3	[pos="879.31,482.18 912.36,505.17 980.68,552.69 1013.7,575.66"];
	1 -- 6	[pos="874.31,484.84 895.02,508.5 934.07,553.12 954.92,576.94"];
	1 -- 5	[pos="835.32,462.8 819.3,458.77 798.66,453.58 782.62,449.54"];
	167	[height=0.5,
		pos="955.72,417.57",
		width=0.75];
	1 -- 167	[pos="881.71,457.72 897.47,449.16 918.92,437.53 934.67,428.99"];
	1 -- 229	[pos="838.16,479.56 813.41,491.01 773.81,509.34 749.03,520.81"];
	37	[height=0.5,
		pos="824.81,409.74",
		width=0.75];
	1 -- 37	[pos="850.44,452.3 845.56,444.2 839.74,434.53 834.87,426.45"];
	1 -- 255	[pos="844.42,483.94 833.15,494.23 818.18,507.9 806.93,518.17"];
	23	[height=0.5,
		pos="893.65,376.07",
		width=0.75];
	1 -- 23	[pos="866.97,451.22 872.86,434.63 881.56,410.12 887.41,393.65"];
	269	[height=0.5,
		pos="979.69,249.29",
		width=0.75];
	1 -- 269	[pos="869.95,451.91 892.21,410.81 948.17,307.48 970.39,266.46"];
	137	[height=0.5,
		pos="918.61,545.19",
		width=0.75];
	1 -- 137	[pos="872.9,485.29 882.75,498.19 896.49,516.19 906.32,529.09"];
	1 -- 32	[pos="863.56,487.2 869.54,523.72 883.05,606.08 889.05,642.68"];
	1 -- 146	[pos="859.86,487.41 859.13,505.36 858.03,532.6 857.3,550.51"];
	1 -- 86	[pos="858.6,487.27 855.46,515.61 849.43,570.13 846.28,598.55"];
	1 -- 158	[pos="871.28,452.63 888.31,426.28 921.4,375.05 938.45,348.66"];
	1 -- 195	[pos="863.75,451.23 868.86,422.13 878.9,364.96 884.01,335.88"];
	233	[height=0.5,
		pos="938.79,464.1",
		width=0.75];
	1 -- 233	[pos="887.51,467.42 895.37,466.92 903.97,466.36 911.83,465.85"];
	10 -- 37	[pos="865.5,416 860.79,415.27 855.9,414.52 851.21,413.8"];
	10 -- 255	[pos="878,435.76 858.66,457.31 824.07,495.84 804.79,517.32"];
	2 -- 153	[pos="612.55,598.07 644.24,616.59 704.68,651.91 736.37,670.43"];
	2 -- 3	[pos="619.22,586.22 698.17,586.69 926.64,588.04 1005.4,588.5"];
	66	[height=0.5,
		pos="574.28,276.25",
		width=0.75];
	2 -- 66	[pos="590.97,568.06 587.84,513.31 578.45,349.12 575.31,294.3"];
	2 -- 4	[pos="594.46,604.02 599.71,642.45 611.98,732.21 617.23,770.59"];
	79	[height=0.5,
		pos="744.19,748.46",
		width=0.75];
	2 -- 79	[pos="606.32,601.34 635.32,632.29 700.73,702.09 729.8,733.1"];
	2 -- 7	[pos="564.96,585.7 562.35,585.67 559.7,585.63 557.08,585.6"];
	198	[height=0.5,
		pos="479.3,540.52",
		width=0.75];
	2 -- 198	[pos="568.65,576.62 549.31,568.81 521.96,557.75 502.62,549.94"];
	9	[height=0.5,
		pos="471.55,426.87",
		width=0.75];
	2 -- 9	[pos="579.79,569.92 556.7,539.41 506.91,473.59 483.8,443.05"];
	157	[height=0.5,
		pos="543.01,636.38",
		width=0.75];
	2 -- 157	[pos="577.03,601.43 570.96,607.67 563.95,614.87 557.88,621.1"];
	2 -- 13	[pos="594.8,604.23 602.85,656.4 625.96,806.23 634,858.39"];
	15	[height=0.5,
		pos="557.22,783.19",
		width=0.75];
	2 -- 15	[pos="588.79,604.25 582.16,641.8 567.04,727.52 560.42,765.04"];
	2 -- 120	[pos="601.82,603.04 619.15,633.02 654.99,695.01 672.32,724.98"];
	20	[height=0.5,
		pos="818.98,689.74",
		width=0.75];
	2 -- 20	[pos="614.59,596.38 658.1,616.25 753.05,659.62 796.48,679.46"];
	57	[height=0.5,
		pos="781.83,628.03",
		width=0.75];
	2 -- 57	[pos="618,591.81 654.35,599.84 719.96,614.35 756.15,622.35"];
	71	[height=0.5,
		pos="382.95,564.3",
		width=0.75];
	2 -- 71	[pos="565.1,583.26 524.96,579.08 449.83,571.26 409.75,567.09"];
	46	[height=0.5,
		pos="353.69,480.17",
		width=0.75];
	2 -- 46	[pos="569.15,575.9 523.6,555.66 421.97,510.51 376.47,490.29"];
	27	[height=0.5,
		pos="701.03,347.28",
		width=0.75];
	2 -- 27	[pos="600.02,568.5 620.23,524.24 673.08,408.49 693.15,364.54"];
	33	[height=0.5,
		pos="391.55,608.32",
		width=0.75];
	2 -- 33	[pos="564.97,589.06 526.6,593.32 456.78,601.07 418.47,605.33"];
	2 -- 237	[pos="610.63,599.51 618.2,604.97 626.92,611.27 634.48,616.72"];
	53	[height=0.5,
		pos="480.96,638.14",
		width=0.75];
	2 -- 53	[pos="569.8,596.47 550.43,605.56 522.48,618.66 503.12,627.74"];
	210	[height=0.5,
		pos="782.23,576.9",
		width=0.75];
	2 -- 210	[pos="619.25,584.74 655.42,583 718.89,579.95 755.02,578.21"];
	126	[height=0.5,
		pos="739.35,487.18",
		width=0.75];
	2 -- 126	[pos="611.26,573.13 639.5,554.18 691.84,519.06 720.08,500.11"];
	72	[height=0.5,
		pos="553.07,739.15",
		width=0.75];
	2 -- 72	[pos="587.46,603.92 579.96,633.42 565.07,691.98 557.59,721.41"];
	88	[height=0.5,
		pos="690.3,697.92",
		width=0.75];
	2 -- 88	[pos="605.67,601.61 624.34,622.86 657.65,660.77 676.43,682.14"];
	217	[height=0.5,
		pos="463.4,593.44",
		width=0.75];
	2 -- 217	[pos="565.04,587.6 543.09,588.86 512.26,590.63 490.32,591.89"];
	2 -- 262	[pos="615.14,595.38 637,604.19 669.62,617.34 691.58,626.18"];
	177	[height=0.5,
		pos="491.04,697.9",
		width=0.75];
	2 -- 177	[pos="577.96,601.61 558.78,622.86 524.57,660.76 505.29,682.12"];
	197	[height=0.5,
		pos="566.25,680.41",
		width=0.75];
	2 -- 197	[pos="587.16,603.81 582.58,620.57 575.76,645.58 571.16,662.42"];
	215	[height=0.5,
		pos="415.72,520.28",
		width=0.75];
	2 -- 215	[pos="568.23,577.19 534.49,564.6 473.08,541.68 439.4,529.11"];
	273	[height=0.5,
		pos="433.91,476.27",
		width=0.75];
	2 -- 273	[pos="573.24,573.03 542.82,551.9 483.05,510.4 452.64,489.28"];
	153 -- 262	[pos="742.98,666.86 738.5,661.86 733.55,656.32 729.07,651.31"];
	3 -- 10	[pos="1019.2,572.8 992.46,540.67 932.15,468.22 905.35,436.02"];
	47	[height=0.5,
		pos="1044.4,796.07",
		width=0.75];
	3 -- 47	[pos="1033.4,606.71 1035.7,645.93 1041.1,738.6 1043.3,777.92"];
	3 -- 6	[pos="1005.5,590.45 1002.3,590.65 999.17,590.86 996.05,591.07"];
	3 -- 5	[pos="1010.8,577.24 959.37,550.04 830.07,481.66 778.73,454.52"];
	204	[height=0.5,
		pos="818.01,358.81",
		width=0.75];
	3 -- 204	[pos="1018,573.22 978.94,531.35 871.33,415.97 832.34,374.18"];
	3 -- 12	[pos="1047.1,603.81 1086.2,644.07 1192.4,753.4 1231.6,793.77"];
	3 -- 167	[pos="1024.6,571.31 1009.9,538.52 978.23,467.79 963.52,434.96"];
	3 -- 37	[pos="1015.8,574.32 976.89,540.82 880.48,457.72 841.53,424.15"];
	3 -- 11	[pos="1059.3,585.84 1093.2,582.27 1151.3,576.16 1185.1,572.6"];
	35	[height=0.5,
		pos="1000.9,500.62",
		width=0.75];
	3 -- 35	[pos="1026,570.85 1020.5,555.57 1012.7,533.68 1007.2,518.41"];
	151	[height=0.5,
		pos="1212.4,616.35",
		width=0.75];
	3 -- 151	[pos="1059,592.75 1093.1,598 1152,607.05 1186,612.29"];
	21	[height=0.5,
		pos="1372.4,442.23",
		width=0.75];
	3 -- 21	[pos="1055.2,578.83 1117.2,552.15 1287.8,478.65 1349.6,452.03"];
	16	[height=0.5,
		pos="1487.5,579.75",
		width=0.75];
	3 -- 16	[pos="1059.5,588.13 1140.4,586.55 1379.2,581.87 1460.3,580.29"];
	3 -- 20	[pos="1010.4,599.1 969.47,618.47 882.27,659.77 841.22,679.21"];
	3 -- 57	[pos="1006.1,592.8 957.93,600.36 856.34,616.32 808.19,623.89"];
	123	[height=0.5,
		pos="1198.5,521.49",
		width=0.75];
	3 -- 123	[pos="1055.5,579.32 1087.1,566.53 1143.6,543.67 1175.3,530.86"];
	40	[height=0.5,
		pos="1091.8,384.91",
		width=0.75];
	3 -- 40	[pos="1037.6,570.94 1048.8,532.4 1075.4,441.37 1086.6,402.74"];
	84	[height=0.5,
		pos="1107.5,339.8",
		width=0.75];
	3 -- 84	[pos="1037.8,570.76 1051.7,524.85 1088.4,403.27 1102.2,357.53"];
	111	[height=0.5,
		pos="1144,475.59",
		width=0.75];
	3 -- 111	[pos="1047.5,573.41 1068.8,551.83 1107.5,512.61 1128.8,490.96"];
	3 -- 27	[pos="1014.1,575.34 956.18,533.14 777.12,402.71 719.26,360.56"];
	98	[height=0.5,
		pos="689.16,435.39",
		width=0.75];
	3 -- 98	[pos="1009.9,578.61 947.69,550.83 774.06,473.3 711.76,445.48"];
	3 -- 29	[pos="1032.2,606.87 1032.2,610.25 1032.1,613.79 1032.1,617.17"];
	68	[height=0.5,
		pos="1017.8,423.33",
		width=0.75];
	3 -- 68	[pos="1030.8,570.65 1028,538.85 1022.2,473.11 1019.4,441.32"];
	3 -- 36	[pos="1019.4,604.69 988.31,642.87 910.23,738.84 879.24,776.94"];
	78	[height=0.5,
		pos="1073.3,250.85",
		width=0.75];
	3 -- 78	[pos="1034.6,570.5 1041.7,511.84 1063.9,327.89 1071.1,269.1"];
	3 -- 283	[pos="1036.3,606.68 1043,637.93 1056.8,701.82 1063.5,733.12"];
	170	[height=0.5,
		pos="1029.7,377.54",
		width=0.75];
	3 -- 170	[pos="1032.2,570.66 1031.7,530.87 1030.5,435.82 1030,395.8"];
	45	[height=0.5,
		pos="982.36,772.32",
		width=0.75];
	3 -- 45	[pos="1027.5,606.61 1017.9,641.81 996.74,719.53 987.19,754.57"];
	166	[height=0.5,
		pos="1156,660.76",
		width=0.75];
	3 -- 166	[pos="1052.8,600.57 1075.7,613.93 1112.6,635.47 1135.5,648.83"];
	80	[height=0.5,
		pos="1333.7,398.22",
		width=0.75];
	3 -- 80	[pos="1052.2,576.17 1106.8,541.66 1259.2,445.32 1313.9,410.76"];
	3 -- 210	[pos="1005.2,587.38 957.03,585.12 857.54,580.44 809.44,578.18"];
	59	[height=0.5,
		pos="969.81,665.59",
		width=0.75];
	3 -- 59	[pos="1019.4,604.6 1008.7,617.8 993.5,636.47 982.77,649.67"];
	69	[height=0.5,
		pos="969.79,728.28",
		width=0.75];
	3 -- 69	[pos="1024.6,606.06 1012.6,632.82 989.75,683.77 977.69,710.66"];
	65	[height=0.5,
		pos="1106.4,797.25",
		width=0.75];
	3 -- 65	[pos="1038.7,606.45 1052.7,645.85 1086.2,740.15 1100.1,779.51"];
	3 -- 126	[pos="1008.4,580.36 953.47,561.33 818.93,514.74 763.66,495.6"];
	116	[height=0.5,
		pos="1011.2,293.42",
		width=0.75];
	3 -- 116	[pos="1031.1,570.64 1027.3,517.93 1016.3,364.47 1012.5,311.58"];
	188	[height=0.5,
		pos="1124.4,571.86",
		width=0.75];
	3 -- 188	[pos="1058.5,583.89 1070.9,581.62 1085.8,578.92 1098.2,576.65"];
	134	[height=0.5,
		pos="1174.6,343.1",
		width=0.75];
	3 -- 134	[pos="1042.2,571.78 1068.2,526.92 1138.7,405.09 1164.8,360.1"];
	125	[height=0.5,
		pos="1121.7,519.59",
		width=0.75];
	3 -- 125	[pos="1050,575.02 1065.6,562.99 1088.1,545.54 1103.8,533.45"];
	294	[height=0.5,
		pos="1035.1,704.85",
		width=0.75];
	3 -- 294	[pos="1032.8,606.82 1033.3,628.64 1034.2,665.05 1034.7,686.82"];
	3 -- 233	[pos="1020.2,572.38 1002.2,548.51 968.97,504.26 951.03,480.39"];
	3 -- 176	[pos="1042.7,572.02 1044.9,568.51 1047.2,564.81 1049.3,561.31"];
	200	[height=0.5,
		pos="1129.5,748.84",
		width=0.75];
	3 -- 200	[pos="1042.6,605.5 1061.2,636.18 1100.4,700.87 1119.2,731.74"];
	275	[height=0.5,
		pos="1093.9,660.03",
		width=0.75];
	3 -- 275	[pos="1046.1,604.5 1056.3,616.33 1070.1,632.42 1080.3,644.23"];
	169	[height=0.5,
		pos="1020.9,840.08",
		width=0.75];
	47 -- 169	[pos="1035.2,813.21 1033.5,816.4 1031.7,819.73 1030,822.91"];
	149	[height=0.5,
		pos="1083,867.57",
		width=0.75];
	47 -- 149	[pos="1053.5,813.01 1059.6,824.25 1067.6,838.94 1073.7,850.25"];
	241	[height=0.5,
		pos="1145.1,870.6",
		width=0.75];
	47 -- 241	[pos="1062.9,809.74 1081,823.19 1108.6,843.6 1126.8,857.01"];
	47 -- 200	[pos="1065.4,784.39 1078.6,777.07 1095.6,767.68 1108.7,760.38"];
	47 -- 275	[pos="1050.8,778.56 1060.2,752.58 1077.9,704.09 1087.4,677.9"];
	131	[height=0.5,
		pos="574.24,212.49",
		width=0.75];
	66 -- 131	[pos="574.27,258.15 574.26,249.61 574.26,239.43 574.25,230.85"];
	247	[height=0.5,
		pos="565.97,62.033",
		width=0.75];
	66 -- 247	[pos="573.57,257.99 572,217.52 568.24,120.68 566.68,80.251"];
	66 -- 126	[pos="586.96,292.45 617.76,331.81 696.24,432.1 726.85,471.22"];
	100	[height=0.5,
		pos="622.37,151.47",
		width=0.75];
	66 -- 100	[pos="581.07,258.64 590.23,234.86 606.47,192.73 615.62,169"];
	133	[height=0.5,
		pos="622.14,106.06",
		width=0.75];
	66 -- 133	[pos="579.31,258.36 588.5,225.67 607.91,156.66 617.11,123.97"];
	299	[height=0.5,
		pos="508.72,106.06",
		width=0.75];
	66 -- 299	[pos="567.51,258.68 554.92,225.98 528.02,156.16 515.46,123.54"];
	297	[height=0.5,
		pos="656.43,204.85",
		width=0.75];
	66 -- 297	[pos="590.9,261.8 605.16,249.41 625.59,231.66 639.83,219.27"];
	6 -- 167	[pos="967.51,574.77 964.98,541.09 959.59,469.17 957.07,435.57"];
	6 -- 35	[pos="975.03,575.09 980.7,558.75 989.04,534.67 994.7,518.35"];
	6 -- 137	[pos="953.24,578.05 947.24,572.36 940.41,565.87 934.4,560.17"];
	6 -- 29	[pos="988.11,605.87 995.93,611.14 1004.9,617.22 1012.7,622.49"];
	6 -- 32	[pos="952.57,607.28 939.53,618.81 921.33,634.9 908.29,646.42"];
	6 -- 68	[pos="974.01,575.05 983.41,542.49 1003.2,473.75 1012.7,441.17"];
	6 -- 283	[pos="979.23,609.52 998.11,639.85 1037.9,703.8 1056.9,734.32"];
	6 -- 140	[pos="959.59,609.88 948.11,630.93 928.67,666.56 917.15,687.68"];
	6 -- 233	[pos="964.68,574.97 958.97,550.5 948.78,506.87 943.04,482.27"];
	4 -- 79	[pos="644.28,780.61 666.11,773.58 697.83,763.38 719.64,756.36"];
	4 -- 15	[pos="592.83,786.23 589.92,785.98 586.96,785.73 584.05,785.48"];
	18	[height=0.5,
		pos="429.13,747.22",
		width=0.75];
	4 -- 18	[pos="593.99,782.95 557.62,775.07 491.51,760.74 455.03,752.83"];
	261	[height=0.5,
		pos="484.34,839.64",
		width=0.75];
	4 -- 261	[pos="596.11,797.42 571.42,806.75 532.86,821.31 508.1,830.66"];
	4 -- 152	[pos="640.5,800.41 668.11,816.18 716.58,843.85 744.18,859.61"];
	194	[height=0.5,
		pos="365.9,780.9",
		width=0.75];
	4 -- 194	[pos="592.52,787.71 543.81,786.24 442.1,783.19 393.24,781.72"];
	94	[height=0.5,
		pos="428.66,696.37",
		width=0.75];
	4 -- 94	[pos="597.77,777.95 561.02,760.22 487.39,724.7 450.61,706.96"];
	4 -- 36	[pos="647.01,789.01 694.54,789.85 791.84,791.57 839.18,792.41"];
	4 -- 38	[pos="629.86,805.46 650.53,839.87 697.2,917.58 717.77,951.84"];
	58	[height=0.5,
		pos="495.14,795.63",
		width=0.75];
	4 -- 58	[pos="592.66,790.06 571.77,791.25 542.99,792.9 522.11,794.09"];
	224	[height=0.5,
		pos="611.86,832.55",
		width=0.75];
	4 -- 224	[pos="616.5,806.43 616.03,809.1 615.54,811.84 615.06,814.51"];
	4 -- 72	[pos="601.48,775.03 592.08,768.07 580.65,759.59 571.25,752.63"];
	213	[height=0.5,
		pos="431.5,795.63",
		width=0.75];
	4 -- 213	[pos="592.72,789.54 557.05,790.89 494.52,793.25 458.72,794.6"];
	196	[height=0.5,
		pos="795.95,792.49",
		width=0.75];
	79 -- 196	[pos="760.85,762.63 766.64,767.56 773.14,773.09 778.96,778.04"];
	79 -- 88	[pos="728.31,733.57 721.36,727.05 713.21,719.41 706.25,712.88"];
	5 -- 204	[pos="768.95,426.89 779.65,412.05 795.37,390.22 806.12,375.31"];
	5 -- 7	[pos="737.47,455.51 694.48,482.38 592.93,545.87 549.83,572.8"];
	5 -- 19	[pos="734.59,452.96 718.08,460.12 695.8,469.77 679.23,476.95"];
	8	[height=0.5,
		pos="684.34,391.35",
		width=0.75];
	5 -- 8	[pos="738.47,429.81 727.58,422.08 713.92,412.37 703.05,404.65"];
	5 -- 229	[pos="751.02,460.97 745.69,476.25 738.05,498.16 732.73,513.43"];
	5 -- 9	[pos="730.1,441.6 675.51,438.49 552.95,431.51 498.5,428.4"];
	44	[height=0.5,
		pos="818.34,175.26",
		width=0.75];
	5 -- 44	[pos="761.34,425.16 772.47,376.36 803.14,241.89 814.25,193.18"];
	5 -- 37	[pos="778.99,432.4 786.71,428.58 795.39,424.29 803.1,420.48"];
	5 -- 255	[pos="763.88,460.88 769.76,476.6 778.32,499.46 784.21,515.18"];
	22	[height=0.5,
		pos="714.49,250.14",
		width=0.75];
	5 -- 22	[pos="753.29,425.34 745.17,388.66 726.66,305.06 718.49,268.19"];
	5 -- 27	[pos="747.19,426.01 736.96,408.56 721.19,381.67 710.99,364.27"];
	5 -- 98	[pos="730.33,440.08 725.58,439.54 720.62,438.97 715.87,438.43"];
	253	[height=0.5,
		pos="825.1,277.13",
		width=0.75];
	5 -- 253	[pos="764.37,425.7 777.41,393.81 804.92,326.49 817.96,294.6"];
	127	[height=0.5,
		pos="838.9,219.29",
		width=0.75];
	5 -- 127	[pos="763.65,425.58 778.87,383.84 817.1,279.05 832.41,237.08"];
	230	[height=0.5,
		pos="763.09,303.78",
		width=0.75];
	5 -- 230	[pos="758,424.93 759.12,398.22 761.2,348.72 762.32,322.01"];
	109	[height=0.5,
		pos="776.52,233.1",
		width=0.75];
	5 -- 109	[pos="758.92,424.88 762.57,385.05 771.22,290.83 774.86,251.19"];
	238	[height=0.5,
		pos="755.13,189.07",
		width=0.75];
	5 -- 238	[pos="757.09,424.88 756.7,378 755.66,253.88 755.28,207.18"];
	204 -- 253	[pos="819.58,340.68 820.76,327.14 822.36,308.73 823.53,295.21"];
	7 -- 19	[pos="547.51,571.56 571.52,552.88 614.34,519.55 638.48,500.76"];
	7 -- 9	[pos="523.47,567.68 512.25,537.24 489.3,475 478.05,444.5"];
	7 -- 157	[pos="534.51,603.12 535.78,608.08 537.15,613.46 538.42,618.42"];
	7 -- 144	[pos="557.13,585.4 578.89,585.52 609.26,585.7 631,585.83"];
	25	[height=0.5,
		pos="315.48,524.17",
		width=0.75];
	7 -- 25	[pos="504.92,578.11 463.6,566.35 381.56,542.99 340.35,531.25"];
	30	[height=0.5,
		pos="164.57,685.76",
		width=0.75];
	7 -- 30	[pos="504.83,592.15 438.08,610.51 256.8,660.38 189.86,678.8"];
	7 -- 33	[pos="503.59,589.63 478.96,593.74 442.4,599.84 417.81,603.94"];
	96	[height=0.5,
		pos="252.93,614.22",
		width=0.75];
	7 -- 96	[pos="503.13,588.04 450.18,593.58 332.73,605.87 279.76,611.41"];
	263	[height=0.5,
		pos="366.6,721.74",
		width=0.75];
	7 -- 263	[pos="513.08,599.33 481.78,625.49 415.04,681.26 383.62,707.52"];
	7 -- 237	[pos="553.67,593.88 575.32,601.78 607.17,613.38 628.92,621.31"];
	212	[height=0.5,
		pos="314.99,617.68",
		width=0.75];
	7 -- 212	[pos="503.59,589.21 462.33,595.44 382.95,607.42 341.56,613.67"];
	7 -- 53	[pos="515.51,600.82 509.19,607.65 501.79,615.65 495.46,622.48"];
	101	[height=0.5,
		pos="242.54,701.23",
		width=0.75];
	7 -- 101	[pos="506.42,594.73 452.4,616.54 319.93,670 265.98,691.77"];
	7 -- 104	[pos="546.18,599.91 564.4,616.38 593.78,642.94 612.01,659.42"];
	277	[height=0.5,
		pos="310.8,671.71",
		width=0.75];
	7 -- 277	[pos="506.49,594.49 464.31,611.13 376.14,645.93 334.09,662.52"];
	132	[height=0.5,
		pos="320.89,572.78",
		width=0.75];
	7 -- 132	[pos="503.04,583.63 463.01,581.25 388.18,576.79 348.02,574.4"];
	145	[height=0.5,
		pos="418.95,652.35",
		width=0.75];
	7 -- 145	[pos="509.84,597.39 489.85,609.48 459.34,627.93 439.28,640.06"];
	7 -- 197	[pos="536.6,602.69 543.11,619.76 552.97,645.61 559.51,662.75"];
	257	[height=0.5,
		pos="304.6,722.33",
		width=0.75];
	7 -- 257	[pos="509.95,597.4 467.18,623.42 367.27,684.2 324.55,710.19"];
	12 -- 151	[pos="1243.2,790.9 1236.7,754.08 1222,670.94 1215.6,634.28"];
	12 -- 138	[pos="1220,813.94 1211.8,815.47 1202.7,817.16 1194.5,818.69"];
	12 -- 16	[pos="1262.2,793.98 1306,752.34 1428.5,635.9 1472,594.55"];
	28	[height=0.5,
		pos="1377.7,799.86",
		width=0.75];
	12 -- 28	[pos="1273.3,807.15 1296,805.57 1328.2,803.31 1350.9,801.73"];
	181	[height=0.5,
		pos="1460.8,775.23",
		width=0.75];
	12 -- 181	[pos="1272.7,804.88 1313.8,798.4 1393,785.92 1434.3,779.41"];
	12 -- 283	[pos="1221.9,801.11 1187.7,790.07 1126.1,770.17 1091.9,759.13"];
	12 -- 49	[pos="1240.7,826.82 1239.2,831.54 1237.6,836.64 1236.1,841.36"];
	67	[height=0.5,
		pos="1423.4,907.59",
		width=0.75];
	12 -- 67	[pos="1267.4,820.72 1301.5,839.69 1368.4,876.95 1402.4,895.91"];
	64	[height=0.5,
		pos="1383.8,953.86",
		width=0.75];
	12 -- 64	[pos="1260.9,824.25 1287.2,851.99 1342.7,910.48 1369.1,938.4"];
	136	[height=0.5,
		pos="1219.4,964.71",
		width=0.75];
	12 -- 136	[pos="1243.3,827.19 1238.1,857.19 1227.7,916.74 1222.5,946.66"];
	185	[height=0.5,
		pos="1372.4,863.58",
		width=0.75];
	12 -- 185	[pos="1269.2,818.9 1292.1,828.79 1327,843.91 1349.7,853.77"];
	118	[height=0.5,
		pos="1492.9,968.84",
		width=0.75];
	12 -- 118	[pos="1266.2,821.83 1312.4,851.83 1427.3,926.36 1473.4,956.19"];
	73	[height=0.5,
		pos="1430.8,997.97",
		width=0.75];
	12 -- 73	[pos="1261.2,824.17 1295.7,859.55 1381.4,947.31 1416,982.76"];
	218	[height=0.5,
		pos="1528.4,924.59",
		width=0.75];
	12 -- 218	[pos="1269.5,818.48 1322.4,840.15 1451.8,893.21 1505,915"];
	288	[height=0.5,
		pos="1259.8,920.52",
		width=0.75];
	12 -- 288	[pos="1248.6,827.44 1251.1,848.22 1255.1,881.81 1257.6,902.45"];
	216	[height=0.5,
		pos="1321.8,952.95",
		width=0.75];
	12 -- 216	[pos="1255.3,826.1 1269.9,853.8 1298.4,908.21 1312.9,935.89"];
	286	[height=0.5,
		pos="1496.1,880.55",
		width=0.75];
	12 -- 286	[pos="1271.3,816.14 1319,829.82 1423,859.62 1471,873.35"];
	19 -- 229	[pos="676.24,499.47 685.81,505.51 697.24,512.73 706.78,518.76"];
	19 -- 144	[pos="656.65,505.06 656.98,522.94 657.48,550.09 657.82,567.93"];
	19 -- 22	[pos="660.68,469.09 671.47,425.21 699.23,312.23 710.07,268.14"];
	150	[height=0.5,
		pos="603.9,320.31",
		width=0.75];
	19 -- 150	[pos="650.7,469.06 640.61,437 619.53,369.98 609.47,338.01"];
	52	[height=0.5,
		pos="512.25,294.72",
		width=0.75];
	19 -- 52	[pos="644.03,470.5 616.81,434.19 551.69,347.33 524.5,311.06"];
	251	[height=0.5,
		pos="500.2,338.75",
		width=0.75];
	19 -- 251	[pos="640.77,472.14 611,443.89 546.22,382.42 516.14,353.88"];
	248	[height=0.5,
		pos="665.96,294.96",
		width=0.75];
	19 -- 248	[pos="657.22,468.83 659.06,432.25 663.2,349.77 665.05,313.11"];
	245	[height=0.5,
		pos="530.48,382.84",
		width=0.75];
	19 -- 245	[pos="639.34,472.85 615.32,453 571.67,416.9 547.58,396.98"];
	19 -- 193	[pos="668.33,503.51 679.82,519.41 697.05,543.24 708.45,559.02"];
	164	[height=0.5,
		pos="446.25,294.55",
		width=0.75];
	19 -- 164	[pos="640.17,472.11 600.98,436.22 501.11,344.78 462.15,309.11"];
	171	[height=0.5,
		pos="593.09,364.35",
		width=0.75];
	19 -- 171	[pos="647.52,469.85 635.51,446.57 614.09,405.05 602.01,381.64"];
	276	[height=0.5,
		pos="636.29,248.87",
		width=0.75];
	19 -- 276	[pos="654.77,468.6 651.04,424.19 641.52,311.02 637.81,266.88"];
	270	[height=0.5,
		pos="496.6,470.88",
		width=0.75];
	19 -- 270	[pos="629.58,484.2 600.1,481.25 552.93,476.52 523.42,473.56"];
	198 -- 215	[pos="454.9,532.75 450.14,531.23 445.14,529.64 440.37,528.13"];
	198 -- 273	[pos="467.61,523.97 460.89,514.46 452.46,502.53 445.72,492.99"];
	167 -- 233	[pos="949.32,435.16 947.97,438.87 946.55,442.78 945.2,446.48"];
	8 -- 19	[pos="679.07,409.32 674.06,426.4 666.56,451.94 661.56,469"];
	8 -- 229	[pos="689.68,409.07 697.75,435.83 712.97,486.28 721.09,513.21"];
	8 -- 22	[pos="688.16,373.47 693.93,346.45 704.8,295.51 710.61,268.32"];
	8 -- 150	[pos="668.06,376.98 654.2,364.73 634.37,347.22 620.43,334.91"];
	8 -- 230	[pos="698.42,375.7 712.75,359.76 734.84,335.19 749.13,319.3"];
	8 -- 248	[pos="680.88,373.22 677.6,355.99 672.68,330.22 669.4,313.01"];
	9 -- 66	[pos="482.74,410.46 502.4,381.64 542.92,322.22 562.79,293.1"];
	14	[height=0.5,
		pos="345.06,392.13",
		width=0.75];
	9 -- 14	[pos="446.56,420 424.53,413.95 392.58,405.18 370.43,399.1"];
	43	[height=0.5,
		pos="230.58,342.79",
		width=0.75];
	9 -- 43	[pos="447.56,418.5 401.49,402.42 301.1,367.39 254.83,351.25"];
	9 -- 25	[pos="451.78,439.19 421.93,457.81 365.63,492.91 335.58,511.64"];
	9 -- 27	[pos="495.68,418.5 539.75,403.22 632.8,370.95 676.89,355.66"];
	9 -- 98	[pos="498.67,427.93 540.49,429.57 620.23,432.69 662.04,434.32"];
	9 -- 131	[pos="479.78,409.69 499.01,369.55 546.71,269.97 565.97,229.75"];
	81	[height=0.5,
		pos="422.54,369.17",
		width=0.75];
	9 -- 81	[pos="458.16,411.1 451.24,402.96 442.83,393.05 435.92,384.91"];
	50	[height=0.5,
		pos="322.03,436.13",
		width=0.75];
	9 -- 50	[pos="444.47,428.55 417.46,430.22 376.19,432.77 349.16,434.45"];
	190	[height=0.5,
		pos="354.14,348.12",
		width=0.75];
	9 -- 190	[pos="452.43,414.04 430.59,399.4 395.09,375.58 373.26,360.94"];
	77	[height=0.5,
		pos="416.7,249.93",
		width=0.75];
	9 -- 77	[pos="465.99,408.93 455.45,374.93 432.68,301.49 422.2,267.65"];
	228	[height=0.5,
		pos="442.16,161.88",
		width=0.75];
	9 -- 228	[pos="469.53,408.65 464.15,360.13 449.51,228.14 444.16,179.87"];
	82	[height=0.5,
		pos="377.91,175.9",
		width=0.75];
	9 -- 82	[pos="464.97,409.22 447.77,363.14 401.67,239.59 384.48,193.53"];
	281	[height=0.5,
		pos="302.98,181.87",
		width=0.75];
	9 -- 281	[pos="460.23,410.41 429.52,365.78 344.9,242.8 314.25,198.26"];
	121	[height=0.5,
		pos="321.92,225.93",
		width=0.75];
	9 -- 121	[pos="459.31,410.42 431.18,372.65 362.21,280.04 334.12,242.32"];
	227	[height=0.5,
		pos="292.6,304.1",
		width=0.75];
	9 -- 227	[pos="452.4,413.73 417.96,390.1 345.95,340.71 311.61,317.14"];
	221	[height=0.5,
		pos="354.65,288.34",
		width=0.75];
	9 -- 221	[pos="458.14,410.98 435.59,384.25 390.35,330.64 367.91,304.04"];
	9 -- 273	[pos="459.23,443.05 455.11,448.45 450.52,454.47 446.39,459.89"];
	265	[height=0.5,
		pos="441.31,205.89",
		width=0.75];
	9 -- 265	[pos="469.08,408.78 463.39,367.24 449.45,265.39 443.77,223.91"];
	55	[height=0.5,
		pos="873.58,108.26",
		width=0.75];
	44 -- 55	[pos="831.43,159.38 840.11,148.86 851.46,135.09 860.2,124.49"];
	44 -- 127	[pos="826.46,192.66 827.9,195.74 829.39,198.94 830.83,202.01"];
	44 -- 109	[pos="806.47,191.68 800.77,199.56 793.96,208.98 788.28,216.84"];
	44 -- 238	[pos="792.63,180.88 788.8,181.72 784.85,182.58 781.02,183.42"];
	162	[height=0.5,
		pos="811.53,131.1",
		width=0.75];
	44 -- 162	[pos="815.57,157.3 815.15,154.62 814.73,151.87 814.32,149.19"];
	37 -- 204	[pos="822.39,391.64 821.75,386.84 821.06,381.65 820.42,376.85"];
	37 -- 255	[pos="819.87,427.65 813.43,450.99 802.22,491.59 795.78,514.94"];
	37 -- 253	[pos="824.85,391.58 824.91,366.33 825.01,320.86 825.06,295.5"];
	11 -- 113	[pos="1189.4,579.7 1171.7,587.45 1147.3,598.17 1129.6,605.96"];
	11 -- 21	[pos="1229.4,555.89 1260.3,531.36 1324.1,480.63 1354.9,456.11"];
	11 -- 16	[pos="1239.1,570.77 1291.9,572.68 1407.9,576.87 1460.6,578.78"];
	93	[height=0.5,
		pos="1455.8,667.78",
		width=0.75];
	11 -- 93	[pos="1235.3,579.18 1281.9,597.91 1385.9,639.7 1432.5,658.41"];
	249	[height=0.5,
		pos="1328,742.84",
		width=0.75];
	11 -- 249	[pos="1223,586.38 1245.2,619.46 1294.8,693.26 1316.9,726.3"];
	108	[height=0.5,
		pos="1380,486.27",
		width=0.75];
	11 -- 108	[pos="1233.9,558.87 1266.2,542.82 1326.2,513.03 1358.3,497.06"];
	159	[height=0.5,
		pos="1383,667.77",
		width=0.75];
	11 -- 159	[pos="1232.5,581.61 1265.4,600.44 1329.3,637.05 1362.3,655.91"];
	24	[height=0.5,
		pos="1278.1,604.83",
		width=0.75];
	11 -- 24	[pos="1233.2,581.07 1240.8,585.07 1249.3,589.57 1256.8,593.57"];
	11 -- 123	[pos="1207,552.08 1205.8,547.88 1204.6,543.4 1203.4,539.2"];
	11 -- 40	[pos="1201,553.05 1178.2,517.86 1125.3,436.52 1102.6,401.48"];
	11 -- 39	[pos="1194.7,555.79 1169.4,535.27 1122.5,497.24 1097.2,476.72"];
	11 -- 84	[pos="1204.1,552.5 1184.7,509.88 1134.9,400.12 1115.5,357.29"];
	11 -- 111	[pos="1200.1,553.38 1187.7,536.2 1168.3,509.36 1155.9,492.13"];
	11 -- 28	[pos="1223.8,586.33 1254.4,628.78 1335.4,741.18 1365.9,783.46"];
	11 -- 31	[pos="1200.4,586.34 1182.4,612.26 1147.7,662.12 1129.6,688.12"];
	173	[height=0.5,
		pos="1429.1,623.77",
		width=0.75];
	11 -- 173	[pos="1237.2,576.08 1279,586.46 1361.7,607.02 1403.6,617.43"];
	70	[height=0.5,
		pos="1153.9,387.55",
		width=0.75];
	11 -- 70	[pos="1206.2,551.98 1195.1,517.05 1170.6,439.93 1159.5,405.16"];
	115	[height=0.5,
		pos="1271.5,373.54",
		width=0.75];
	11 -- 115	[pos="1217.3,552.02 1228.6,514.76 1254.7,428.76 1266.1,391.4"];
	63	[height=0.5,
		pos="1314.3,809.02",
		width=0.75];
	11 -- 63	[pos="1219.4,587.38 1238.4,631.62 1287.8,747.13 1306.7,791.4"];
	11 -- 242	[pos="1210,587.98 1206.2,624.93 1197.4,708.38 1193.6,745.18"];
	211	[height=0.5,
		pos="1171.5,431.56",
		width=0.75];
	11 -- 211	[pos="1206.7,552 1198.9,525.46 1184.4,475.78 1176.6,449.28"];
	220	[height=0.5,
		pos="1424.4,544.13",
		width=0.75];
	11 -- 220	[pos="1238.8,566.54 1279.7,561.6 1356.9,552.27 1397.7,547.35"];
	156	[height=0.5,
		pos="1236.7,311.95",
		width=0.75];
	11 -- 156	[pos="1213.7,551.66 1218.2,504.32 1230.4,377.38 1235,330.06"];
	11 -- 188	[pos="1184.7,570.43 1174.2,570.68 1162.1,570.97 1151.6,571.22"];
	128	[height=0.5,
		pos="1260.6,507.77",
		width=0.75];
	11 -- 128	[pos="1224.5,553.82 1231.7,544.63 1240.7,533.12 1248,523.9"];
	11 -- 125	[pos="1191,558.15 1176.4,550.04 1157.1,539.27 1142.5,531.17"];
	287	[height=0.5,
		pos="1316.5,552.89",
		width=0.75];
	11 -- 287	[pos="1238.3,565.52 1254.2,562.96 1274.3,559.71 1290.2,557.15"];
	239	[height=0.5,
		pos="1244.2,462.06",
		width=0.75];
	11 -- 239	[pos="1217.2,552 1223.2,532.04 1232.9,499.85 1238.9,479.88"];
	186	[height=0.5,
		pos="1309.3,663.85",
		width=0.75];
	11 -- 186	[pos="1227.6,584.9 1245.7,602.45 1275.5,631.24 1293.7,648.78"];
	274	[height=0.5,
		pos="1340.1,611.74",
		width=0.75];
	11 -- 274	[pos="1236.3,577.78 1259.2,585.24 1293,596.32 1315.8,603.78"];
	292	[height=0.5,
		pos="1266,764.91",
		width=0.75];
	11 -- 292	[pos="1216.9,587.79 1227.2,624.97 1250.7,709.81 1261,746.95"];
	271	[height=0.5,
		pos="1390.2,755.84",
		width=0.75];
	11 -- 271	[pos="1226.5,585.01 1260,619.99 1342.2,705.74 1375.7,740.66"];
	272	[height=0.5,
		pos="1439.9,711.8",
		width=0.75];
	11 -- 272	[pos="1231.7,582.14 1274.9,609 1376.7,672.45 1419.9,699.37"];
	35 -- 68	[pos="1004.8,482.7 1007.5,470.21 1011.2,453.63 1013.9,441.16"];
	138 -- 283	[pos="1149.9,810.28 1131.7,797.23 1104,777.42 1085.8,764.4"];
	138 -- 288	[pos="1183.1,839.13 1200.2,857.23 1228.1,886.9 1245.1,904.98"];
	157 -- 177	[pos="529.63,652.22 521.93,661.34 512.28,672.76 504.56,681.9"];
	157 -- 197	[pos="552.06,653.53 553.74,656.72 555.5,660.05 557.18,663.24"];
	21 -- 108	[pos="1375.5,460.15 1375.9,462.81 1376.4,465.56 1376.9,468.23"];
	74	[height=0.5,
		pos="1422.8,397.6",
		width=0.75];
	21 -- 74	[pos="1388.9,427.62 1394.5,422.64 1400.8,417.07 1406.4,412.1"];
	51	[height=0.5,
		pos="1548,486.7",
		width=0.75];
	21 -- 51	[pos="1397.9,448.7 1431.3,457.15 1489.5,471.88 1522.8,480.3"];
	219	[height=0.5,
		pos="1442.1,500.09",
		width=0.75];
	21 -- 219	[pos="1389.6,456.54 1400.4,465.5 1414.3,477.02 1425,485.95"];
	21 -- 80	[pos="1358.4,426.34 1354.9,422.31 1351,417.97 1347.5,413.94"];
	295	[height=0.5,
		pos="1360.7,354.2",
		width=0.75];
	21 -- 295	[pos="1370,423.99 1368,408.89 1365.1,387.52 1363.1,372.42"];
	117	[height=0.5,
		pos="1298.7,321.53",
		width=0.75];
	21 -- 117	[pos="1362.1,425.45 1348.1,402.52 1323.2,361.62 1309.1,338.56"];
	105	[height=0.5,
		pos="1504.1,533.55",
		width=0.75];
	21 -- 105	[pos="1391.2,455.32 1416.3,472.68 1460.3,503.15 1485.3,520.49"];
	21 -- 220	[pos="1381.2,459.52 1390.7,478.26 1405.9,507.99 1415.5,526.76"];
	21 -- 134	[pos="1350.4,431.25 1312.3,412.14 1234.3,373.02 1196.4,353.99"];
	13 -- 15	[pos="623.3,860.71 608.67,843.55 585.44,816.3 570.78,799.1"];
	13 -- 120	[pos="642.73,858.95 651.41,833.15 667.51,785.34 676.2,759.54"];
	13 -- 17	[pos="658.26,887.72 701.04,909.98 796.48,959.66 839.2,981.9"];
	34	[height=0.5,
		pos="713.94,1100.7",
		width=0.75];
	13 -- 34	[pos="642.86,894.14 657.24,935.94 693.35,1040.9 707.81,1082.9"];
	91	[height=0.5,
		pos="608.42,920.59",
		width=0.75];
	13 -- 91	[pos="626.07,893.2 623.81,896.71 621.42,900.41 619.16,903.92"];
	85	[height=0.5,
		pos="653.66,1056.7",
		width=0.75];
	13 -- 85	[pos="638.51,894.81 641.75,929.42 648.75,1004.2 651.97,1038.6"];
	13 -- 38	[pos="651.84,891.75 668.7,908.81 695.91,936.32 712.79,953.39"];
	48	[height=0.5,
		pos="718.12,1012.6",
		width=0.75];
	13 -- 48	[pos="646.94,893.51 662.6,919.73 692.52,969.8 708.11,995.89"];
	13 -- 106	[pos="658.41,887.48 687.41,902.15 738.66,928.07 767.86,942.84"];
	129	[height=0.5,
		pos="546.36,879.83",
		width=0.75];
	13 -- 129	[pos="609.67,877.53 598.22,877.95 584.92,878.43 573.48,878.85"];
	62	[height=0.5,
		pos="519.3,1083.9",
		width=0.75];
	13 -- 62	[pos="627.19,893.52 605.1,932.49 550.94,1028.1 528.88,1067"];
	189	[height=0.5,
		pos="459.5,1020.3",
		width=0.75];
	13 -- 189	[pos="619.48,890.59 585.58,918.06 510.85,978.64 476.9,1006.2"];
	83	[height=0.5,
		pos="420.24,970.03",
		width=0.75];
	13 -- 83	[pos="614.04,886.38 572.44,904.33 484.63,942.24 443.02,960.2"];
	165	[height=0.5,
		pos="356.45,940.7",
		width=0.75];
	13 -- 165	[pos="610.93,882.47 557.52,894.69 435.61,922.58 382.26,934.79"];
	103	[height=0.5,
		pos="630.75,1008.6",
		width=0.75];
	13 -- 103	[pos="635.97,894.64 634.82,919.79 632.74,965.07 631.58,990.33"];
	214	[height=0.5,
		pos="417.74,1064.3",
		width=0.75];
	13 -- 214	[pos="619.98,890.97 579.1,926 474.95,1015.3 434.32,1050.1"];
	223	[height=0.5,
		pos="482.31,949.51",
		width=0.75];
	13 -- 223	[pos="614.67,887 585.3,900.87 533.75,925.22 504.4,939.08"];
	142	[height=0.5,
		pos="457.24,1119.7",
		width=0.75];
	13 -- 142	[pos="624.74,892.88 592.03,937.19 501.9,1059.3 469.25,1103.5"];
	119	[height=0.5,
		pos="589.8,1052.6",
		width=0.75];
	13 -- 119	[pos="632.04,894.4 623.03,928.15 603.6,1000.9 594.58,1034.7"];
	122	[height=0.5,
		pos="544.46,963.31",
		width=0.75];
	13 -- 122	[pos="621.14,891.27 604.16,907.22 577.21,932.54 560.21,948.52"];
	222	[height=0.5,
		pos="407.46,896.69",
		width=0.75];
	13 -- 222	[pos="609.59,878.94 565.34,882.83 478.28,890.47 434.28,894.33"];
	192	[height=0.5,
		pos="665.79,964.61",
		width=0.75];
	13 -- 192	[pos="642.67,894.37 647.7,909.65 654.91,931.55 659.94,946.82"];
	15 -- 18	[pos="532.22,776.17 509.65,769.83 476.62,760.56 454.07,754.22"];
	15 -- 194	[pos="530.21,782.87 493.85,782.43 429.52,781.66 393.07,781.23"];
	15 -- 94	[pos="538.25,770.38 513.94,753.96 472.05,725.67 447.71,709.23"];
	15 -- 58	[pos="531.25,788.39 527.93,789.06 524.53,789.74 521.2,790.4"];
	15 -- 129	[pos="555.18,801.37 553.24,818.64 550.33,844.48 548.4,861.73"];
	15 -- 224	[pos="573.32,797.73 580.37,804.1 588.63,811.56 595.69,817.94"];
	15 -- 72	[pos="555.51,765.02 555.27,762.47 555.02,759.84 554.78,757.28"];
	15 -- 213	[pos="530.25,785.86 509.04,787.96 479.62,790.87 458.42,792.96"];
	14 -- 43	[pos="322.17,382.26 302.2,373.66 273.39,361.24 253.43,352.64"];
	14 -- 46	[pos="346.85,410.37 348.33,425.48 350.43,446.85 351.91,461.95"];
	14 -- 81	[pos="370,384.74 378.85,382.12 388.8,379.17 397.65,376.54"];
	114	[height=0.5,
		pos="107.66,307.45",
		width=0.75];
	14 -- 114	[pos="320.99,383.54 275.49,367.31 177.34,332.31 131.79,316.06"];
	14 -- 227	[pos="334.94,375.16 325.65,359.57 311.96,336.59 302.68,321.02"];
	147	[height=0.5,
		pos="168.53,358.33",
		width=0.75];
	14 -- 147	[pos="319.01,387.14 285.64,380.75 228.11,369.74 194.68,363.34"];
	284	[height=0.5,
		pos="177.38,402.68",
		width=0.75];
	14 -- 284	[pos="318.12,393.82 286.92,395.79 235.82,399 204.53,400.97"];
	182	[height=0.5,
		pos="171.89,294.9",
		width=0.75];
	14 -- 182	[pos="324.17,380.4 290.8,361.66 225.83,325.18 192.58,306.51"];
	14 -- 215	[pos="354.44,409.15 367.96,433.66 392.76,478.64 406.3,503.19"];
	14 -- 273	[pos="360.94,407.17 377.12,422.49 402.04,446.09 418.16,461.36"];
	18 -- 194	[pos="407.72,758.62 401.13,762.14 393.87,766 387.28,769.51"];
	18 -- 213	[pos="430.01,765.25 430.21,769.22 430.41,773.44 430.61,777.43"];
	43 -- 46	[pos="244.46,358.28 268.11,384.67 315.93,438.03 339.67,464.52"];
	141	[height=0.5,
		pos="37.57,402.86",
		width=0.75];
	43 -- 141	[pos="205.74,350.52 168.68,362.05 99.317,383.64 62.312,395.16"];
	43 -- 81	[pos="257.27,346.46 293.95,351.5 359.52,360.51 396.08,365.53"];
	43 -- 50	[pos="245.68,358.2 262.73,375.6 290.28,403.72 307.21,421"];
	252	[height=0.5,
		pos="252.26,480.4",
		width=0.75];
	43 -- 252	[pos="233.41,360.78 237.57,387.15 245.27,436.03 249.42,462.4"];
	43 -- 190	[pos="257.7,343.96 278.3,344.85 306.5,346.06 327.09,346.95"];
	60	[height=0.5,
		pos="166.26,447.43",
		width=0.75];
	43 -- 60	[pos="220.25,359.6 208.24,379.13 188.56,411.15 176.57,430.66"];
	43 -- 77	[pos="252.29,331.95 288.06,314.11 358.97,278.73 394.84,260.84"];
	43 -- 114	[pos="205.7,335.64 184.38,329.51 153.81,320.72 132.5,314.59"];
	43 -- 82	[pos="244.44,327.09 272.52,295.28 335.84,223.56 363.98,191.68"];
	43 -- 281	[pos="238.47,325.26 252.39,294.31 281.18,230.32 295.1,199.38"];
	43 -- 121	[pos="243.28,326.54 260.73,304.21 291.93,264.29 309.33,242.04"];
	293	[height=0.5,
		pos="38.049,274.32",
		width=0.75];
	43 -- 293	[pos="206.58,334.26 169.59,321.1 99.038,296.01 62.043,282.85"];
	43 -- 227	[pos="250.54,330.33 257.62,325.92 265.59,320.95 272.67,316.53"];
	172	[height=0.5,
		pos="106.47,359.22",
		width=0.75];
	43 -- 172	[pos="203.96,346.31 183.02,349.09 153.98,352.93 133.05,355.7"];
	43 -- 147	[pos="204.98,349.2 201.38,350.1 197.67,351.03 194.07,351.93"];
	168	[height=0.5,
		pos="44.373,357.91",
		width=0.75];
	43 -- 168	[pos="203.5,344.99 168.1,347.86 106.45,352.87 71.18,355.73"];
	148	[height=0.5,
		pos="104.21,468.23",
		width=0.75];
	43 -- 148	[pos="215.08,358.17 190.7,382.38 143.65,429.07 119.43,453.11"];
	260	[height=0.5,
		pos="100.82,407.64",
		width=0.75];
	43 -- 260	[pos="208.86,353.64 184.91,365.62 146.59,384.77 122.61,396.75"];
	43 -- 182	[pos="213.29,328.68 205.71,322.5 196.84,315.26 189.26,309.07"];
	43 -- 221	[pos="253.34,332.8 275.72,322.98 309.7,308.06 332.04,298.26"];
	43 -- 265	[pos="250.03,330.15 290.17,304.07 381.8,244.55 421.91,218.49"];
	290	[height=0.5,
		pos="178.89,230.46",
		width=0.75];
	43 -- 290	[pos="222.5,325.24 212.79,304.13 196.59,268.94 186.91,247.89"];
	16 -- 151	[pos="1460.9,583.29 1408.3,590.29 1291.7,605.8 1239,612.8"];
	16 -- 21	[pos="1474.3,563.98 1452.2,537.59 1408,484.79 1385.8,458.25"];
	16 -- 93	[pos="1481.1,597.57 1475.6,612.84 1467.7,634.73 1462.2,649.99"];
	16 -- 74	[pos="1481.2,561.96 1468.8,527.04 1441.4,449.96 1429,415.2"];
	16 -- 28	[pos="1478.9,597.02 1458.4,638.17 1406.8,741.6 1386.3,782.66"];
	16 -- 181	[pos="1485.1,597.79 1480,635.03 1468.3,720.03 1463.2,757.23"];
	16 -- 173	[pos="1469.4,593.44 1462.2,598.79 1454.1,604.91 1447,610.24"];
	16 -- 51	[pos="1498.3,563.12 1509.3,546.28 1526.1,520.4 1537.1,503.51"];
	16 -- 219	[pos="1477.9,562.86 1470.2,549.34 1459.4,530.47 1451.7,516.96"];
	16 -- 80	[pos="1474.1,563.96 1445.1,529.63 1376.3,448.52 1347.2,414.11"];
	163	[height=0.5,
		pos="1612.7,579.71",
		width=0.75];
	16 -- 163	[pos="1514.7,579.74 1535.7,579.74 1564.6,579.73 1585.6,579.72"];
	76	[height=0.5,
		pos="1548.1,414.9",
		width=0.75];
	16 -- 76	[pos="1494,562.11 1505.7,530.38 1530,464.05 1541.6,432.41"];
	102	[height=0.5,
		pos="1610.1,454.05",
		width=0.75];
	16 -- 102	[pos="1502.6,564.34 1526.2,540.08 1571.8,493.29 1595.3,469.2"];
	296	[height=0.5,
		pos="1517.8,711.82",
		width=0.75];
	16 -- 296	[pos="1491.6,597.56 1497.4,622.77 1507.9,668.59 1513.7,693.87"];
	16 -- 105	[pos="1493.9,562.02 1495.2,558.46 1496.5,554.72 1497.8,551.16"];
	16 -- 220	[pos="1466.8,568.09 1459.9,564.19 1452.2,559.85 1445.3,555.94"];
	231	[height=0.5,
		pos="1624.1,534.93",
		width=0.75];
	16 -- 231	[pos="1511.9,571.74 1536.6,563.63 1574.6,551.16 1599.4,543.02"];
	226	[height=0.5,
		pos="1635.2,623.74",
		width=0.75];
	16 -- 226	[pos="1512.2,587.11 1539.5,595.23 1583.1,608.22 1610.4,616.35"];
	180	[height=0.5,
		pos="1672.1,486.04",
		width=0.75];
	16 -- 180	[pos="1509.1,568.82 1544.5,550.81 1614.9,515.1 1650.4,497.05"];
	254	[height=0.5,
		pos="1486,425.24",
		width=0.75];
	16 -- 254	[pos="1487.4,561.73 1487.1,532.11 1486.5,473.48 1486.2,443.63"];
	264	[height=0.5,
		pos="1550.6,577.56",
		width=0.75];
	16 -- 264	[pos="1514.6,578.81 1517.6,578.71 1520.5,578.61 1523.5,578.5"];
	240	[height=0.5,
		pos="1576,667.78",
		width=0.75];
	16 -- 240	[pos="1502.9,595.09 1519.2,611.24 1544.6,636.53 1560.8,652.62"];
	16 -- 272	[pos="1481.2,597.29 1472.1,622.54 1455.4,668.89 1446.2,694.19"];
	93 -- 173	[pos="1445.5,650.89 1443.5,647.49 1441.3,643.93 1439.3,640.54"];
	93 -- 296	[pos="1474.4,680.99 1482.3,686.57 1491.4,693.04 1499.2,698.62"];
	93 -- 272	[pos="1449.4,685.43 1448.4,688.3 1447.3,691.27 1446.3,694.14"];
	152 -- 161	[pos="784.93,883.75 792.01,888.1 799.98,893 807.07,897.36"];
	17 -- 201	[pos="878.92,979.59 894.64,968.06 917.16,951.54 932.87,940.02"];
	17 -- 34	[pos="842.32,1006.5 814.22,1027.1 760.69,1066.4 732.45,1087.1"];
	41	[height=0.5,
		pos="784.71,1012.6",
		width=0.75];
	17 -- 41	[pos="835.33,999.56 827.22,1001.7 818.24,1004 810.13,1006.1"];
	17 -- 48	[pos="834.13,996.68 808.7,1000.2 770.47,1005.4 744.92,1009"];
	56	[height=0.5,
		pos="979.64,1102.9",
		width=0.75];
	17 -- 56	[pos="876.65,1007.9 899.37,1028.8 940.67,1067 963.46,1088"];
	17 -- 106	[pos="839.75,981.52 830.62,976.48 819.93,970.57 810.79,965.52"];
	17 -- 95	[pos="887.1,988.62 910.62,984.7 944.8,979.01 968.31,975.1"];
	203	[height=0.5,
		pos="1113.7,1016.2",
		width=0.75];
	17 -- 203	[pos="887.69,995.52 936.4,999.98 1038.2,1009.3 1086.8,1013.8"];
	110	[height=0.5,
		pos="1032.6,1058.8",
		width=0.75];
	17 -- 110	[pos="884.16,1002 917.01,1014.6 976.24,1037.3 1009.1,1049.8"];
	135	[height=0.5,
		pos="1051.1,1014.8",
		width=0.75];
	17 -- 135	[pos="887.49,996.1 923.8,1000.2 988.12,1007.6 1024.4,1011.7"];
	34 -- 85	[pos="695.53,1087.3 688.05,1081.8 679.43,1075.5 671.96,1070"];
	34 -- 38	[pos="715.85,1082.6 718.49,1057.5 723.26,1012.2 725.92,986.91"];
	34 -- 41	[pos="726.92,1084.6 739.69,1068.7 759.07,1044.5 771.81,1028.7"];
	139	[height=0.5,
		pos="643.77,1160.3",
		width=0.75];
	34 -- 139	[pos="696.95,1115.1 685.92,1124.5 671.6,1136.7 660.6,1146"];
	34 -- 48	[pos="714.81,1082.5 715.52,1067.3 716.54,1046 717.25,1030.9"];
	34 -- 56	[pos="741.38,1100.9 792.42,1101.4 901.43,1102.3 952.36,1102.7"];
	61	[height=0.5,
		pos="768.41,1144.7",
		width=0.75];
	34 -- 61	[pos="731.18,1114.6 737.53,1119.8 744.74,1125.6 751.1,1130.7"];
	75	[height=0.5,
		pos="763.37,1056.7",
		width=0.75];
	34 -- 75	[pos="730.13,1086.3 735.53,1081.5 741.56,1076.1 746.98,1071.3"];
	184	[height=0.5,
		pos="800.22,1100.7",
		width=0.75];
	34 -- 184	[pos="741.24,1100.7 751.41,1100.7 762.94,1100.7 773.1,1100.7"];
	92	[height=0.5,
		pos="528.84,1180.4",
		width=0.75];
	34 -- 92	[pos="691.25,1110.5 655.72,1125.8 587.36,1155.2 551.72,1170.5"];
	34 -- 142	[pos="686.96,1102.7 637.65,1106.4 533.57,1114.1 484.25,1117.7"];
	34 -- 119	[pos="690.59,1091.7 668.54,1083.1 635.62,1070.4 613.47,1061.8"];
	112	[height=0.5,
		pos="706.04,1155.2",
		width=0.75];
	34 -- 112	[pos="711.31,1118.9 710.47,1124.7 709.53,1131.1 708.69,1136.9"];
	206	[height=0.5,
		pos="831.12,1212.4",
		width=0.75];
	34 -- 206	[pos="729.74,1115.8 752.23,1137.2 793.21,1176.2 815.56,1197.5"];
	175	[height=0.5,
		pos="581.52,1127.2",
		width=0.75];
	34 -- 175	[pos="687.78,1105.9 664.56,1110.6 630.83,1117.3 607.63,1122"];
	154	[height=0.5,
		pos="632.91,1227",
		width=0.75];
	34 -- 154	[pos="703.18,1117.5 687.68,1141.6 659.24,1186 643.71,1210.2"];
	178	[height=0.5,
		pos="699.63,1204.3",
		width=0.75];
	34 -- 178	[pos="711.45,1118.8 708.84,1137.7 704.76,1167.2 702.15,1186.1"];
	183	[height=0.5,
		pos="762.43,1215.7",
		width=0.75];
	34 -- 183	[pos="721.31,1118.2 730.42,1139.8 745.85,1176.4 755,1198.1"];
	249 -- 292	[pos="1303.9,751.44 1299.4,753.04 1294.7,754.71 1290.2,756.3"];
	249 -- 271	[pos="1354,748.28 1357.4,748.97 1360.8,749.69 1364.1,750.38"];
	91 -- 223	[pos="582.59,926.51 560.83,931.5 529.85,938.61 508.1,943.6"];
	91 -- 122	[pos="589.23,933.41 581.13,938.82 571.73,945.1 563.64,950.5"];
	91 -- 192	[pos="626.26,934.28 633.1,939.53 640.91,945.52 647.77,950.78"];
	20 -- 79	[pos="801.26,703.65 789.34,713.02 773.68,725.3 761.79,734.64"];
	20 -- 57	[pos="808.83,672.88 803.59,664.17 797.21,653.58 791.97,644.87"];
	20 -- 36	[pos="827,707.24 835.75,726.32 849.66,756.67 858.36,775.65"];
	20 -- 45	[pos="840.68,700.71 872.01,716.54 929.59,745.65 960.83,761.44"];
	256	[height=0.5,
		pos="827.14,836.89",
		width=0.75];
	20 -- 256	[pos="819.98,707.78 821.55,736.03 824.56,790.37 826.13,818.7"];
	20 -- 59	[pos="845.26,685.53 872.77,681.13 915.75,674.25 943.34,669.83"];
	20 -- 69	[pos="844.23,696.19 872.06,703.3 916.59,714.68 944.47,721.81"];
	20 -- 196	[pos="814.97,707.64 810.77,726.38 804.2,755.66 799.99,774.45"];
	20 -- 88	[pos="792.01,691.45 770.05,692.85 739.19,694.81 717.24,696.21"];
	199	[height=0.5,
		pos="935.59,818.95",
		width=0.75];
	20 -- 199	[pos="833.05,705.33 855.46,730.16 899.03,778.44 921.48,803.31"];
	266	[height=0.5,
		pos="889.56,867.18",
		width=0.75];
	20 -- 266	[pos="826.01,707.4 839.54,741.41 869.06,815.63 882.57,849.59"];
	194 -- 213	[pos="391.82,786.72 396.41,787.75 401.18,788.82 405.76,789.85"];
	108 -- 220	[pos="1392.4,502.39 1398.4,510.28 1405.7,519.76 1411.8,527.7"];
	22 -- 44	[pos="733.06,236.75 751.96,223.12 781.09,202.12 799.93,188.53"];
	22 -- 150	[pos="694.72,262.68 674.59,275.46 643.57,295.14 623.5,307.87"];
	22 -- 55	[pos="730.92,235.49 761.4,208.3 826.41,150.33 857.01,123.04"];
	22 -- 127	[pos="739.97,243.82 761.44,238.49 792,230.92 813.46,225.6"];
	22 -- 230	[pos="728.55,265.65 734.94,272.71 742.49,281.04 748.9,288.11"];
	22 -- 52	[pos="688.47,255.87 649.63,264.43 576.95,280.45 538.18,289"];
	22 -- 248	[pos="698.6,264.81 693.29,269.72 687.38,275.18 682.05,280.1"];
	22 -- 109	[pos="739.72,243.21 743.61,242.14 747.63,241.04 751.52,239.97"];
	22 -- 238	[pos="725.6,233.45 731.33,224.83 738.3,214.35 744.04,205.74"];
	22 -- 162	[pos="727.58,234.08 746.1,211.36 779.76,170.07 798.34,147.28"];
	22 -- 171	[pos="698.62,265.07 675.36,286.96 632.24,327.53 608.97,349.42"];
	22 -- 276	[pos="687.14,249.69 679.48,249.57 671.15,249.43 663.5,249.31"];
	57 -- 210	[pos="781.97,609.86 782.01,605.04 782.05,599.83 782.09,595.01"];
	74 -- 80	[pos="1395.6,397.79 1384.5,397.87 1371.8,397.96 1360.7,398.03"];
	187	[height=0.5,
		pos="1608.4,369.03",
		width=0.75];
	74 -- 187	[pos="1449.4,393.51 1484.7,388.08 1546.6,378.54 1581.9,373.12"];
	74 -- 76	[pos="1449.3,401.27 1470.6,404.21 1500.3,408.3 1521.5,411.24"];
	74 -- 102	[pos="1447.6,405.1 1483.6,415.93 1549.6,435.82 1585.4,446.62"];
	74 -- 295	[pos="1403.8,384.35 1396.1,378.96 1387.2,372.76 1379.6,367.38"];
	289	[height=0.5,
		pos="1585.2,320.14",
		width=0.75];
	74 -- 289	[pos="1445,386.99 1476.1,372.16 1532.3,345.39 1563.3,330.62"];
	74 -- 254	[pos="1445.6,407.58 1451.4,410.12 1457.6,412.84 1463.4,415.37"];
	267	[height=0.5,
		pos="1539.7,364.8",
		width=0.75];
	74 -- 267	[pos="1447.9,390.57 1467.6,385.03 1495,377.36 1514.7,371.83"];
	159 -- 287	[pos="1373.2,650.82 1360.6,629.1 1339,591.66 1326.4,569.91"];
	159 -- 186	[pos="1356,666.33 1349.6,665.99 1342.7,665.63 1336.3,665.29"];
	159 -- 274	[pos="1370.6,651.57 1364.9,644.2 1358.3,635.49 1352.6,628.1"];
	150 -- 248	[pos="627.01,310.87 632.11,308.79 637.52,306.58 642.63,304.5"];
	150 -- 164	[pos="577.52,316 548.41,311.24 501.86,303.64 472.72,298.87"];
	23 -- 42	[pos="888.76,394.01 881.46,420.77 867.79,470.85 860.51,497.57"];
	23 -- 269	[pos="904.9,359.5 921.39,335.2 951.95,290.17 968.44,265.87"];
	23 -- 146	[pos="890.16,394.19 883.07,430.98 867.07,514.07 860.02,550.71"];
	23 -- 158	[pos="911.22,362.15 917.7,357.01 925.04,351.19 931.53,346.05"];
	23 -- 195	[pos="891.63,358 890.85,351.07 889.97,343.17 889.19,336.22"];
	24 -- 123	[pos="1263.5,589.55 1249.1,574.51 1227.3,551.68 1213,536.68"];
	24 -- 186	[pos="1287.1,621.9 1291.2,629.66 1296.1,638.83 1300.2,646.61"];
	123 -- 188	[pos="1179.4,534.46 1168.3,541.99 1154.5,551.42 1143.4,558.94"];
	123 -- 128	[pos="1224.1,515.83 1227.6,515.07 1231.2,514.28 1234.7,513.51"];
	123 -- 125	[pos="1171.2,520.82 1164,520.64 1156.1,520.45 1148.9,520.27"];
	123 -- 287	[pos="1223.8,528.23 1243.7,533.52 1271.4,540.87 1291.3,546.16"];
	123 -- 239	[pos="1211,505.25 1217.4,496.87 1225.3,486.67 1231.7,478.28"];
	123 -- 186	[pos="1211,537.55 1232.3,564.89 1275.3,620.19 1296.7,647.64"];
	123 -- 274	[pos="1218.2,534.04 1245.2,551.28 1293.6,582.11 1320.6,599.3"];
	40 -- 84	[pos="1097.9,367.34 1099.1,364.08 1100.3,360.66 1101.4,357.4"];
	40 -- 78	[pos="1089.3,366.83 1085.8,341.25 1079.3,294.74 1075.8,269.07"];
	40 -- 70	[pos="1118.9,386.06 1121.5,386.17 1124.1,386.29 1126.7,386.4"];
	40 -- 115	[pos="1118.7,383.21 1152.6,381.07 1210.5,377.4 1244.4,375.25"];
	40 -- 211	[pos="1112.3,396.93 1124.2,403.89 1139.1,412.63 1151,419.58"];
	143	[height=0.5,
		pos="1135.3,279.37",
		width=0.75];
	40 -- 143	[pos="1099,367.49 1107.1,347.93 1120,316.39 1128.1,296.82"];
	40 -- 156	[pos="1113.5,373.99 1140.8,360.24 1187.5,336.74 1214.9,322.95"];
	235	[height=0.5,
		pos="1242.8,267.95",
		width=0.75];
	40 -- 235	[pos="1109.4,371.27 1138.4,348.85 1195.6,304.47 1224.8,281.87"];
	25 -- 71	[pos="335.72,536.21 344.26,541.29 354.18,547.19 362.72,552.27"];
	25 -- 46	[pos="329.28,508.29 332.78,504.25 336.55,499.91 340.05,495.88"];
	25 -- 30	[pos="301.01,539.67 272.24,570.47 208.13,639.11 179.21,670.07"];
	25 -- 33	[pos="329.43,539.61 343.07,554.69 363.73,577.55 377.43,592.7"];
	25 -- 96	[pos="304.01,540.69 292.72,556.94 275.59,581.6 264.33,597.81"];
	25 -- 50	[pos="316.84,505.93 317.96,490.82 319.55,469.45 320.68,454.35"];
	25 -- 252	[pos="296.51,511.04 288.51,505.5 279.22,499.06 271.22,493.52"];
	25 -- 60	[pos="294.1,513.18 265.9,498.67 216.52,473.27 188.09,458.65"];
	97	[height=0.5,
		pos="253.43,565.99",
		width=0.75];
	25 -- 97	[pos="296.19,537.18 288.65,542.26 280.02,548.07 272.5,553.14"];
	90	[height=0.5,
		pos="191.41,526.29",
		width=0.75];
	25 -- 90	[pos="288.26,524.64 267.57,524.99 239.25,525.47 218.58,525.83"];
	25 -- 132	[pos="317.5,542.27 317.95,546.38 318.44,550.73 318.89,554.83"];
	25 -- 148	[pos="290,517.43 249.28,506.64 170.02,485.65 129.45,474.91"];
	71 -- 97	[pos="355.8,564.65 333.69,564.94 302.64,565.35 280.55,565.63"];
	71 -- 90	[pos="356.72,559.09 320.04,551.81 253.83,538.68 217.33,531.43"];
	71 -- 217	[pos="407.09,573.04 417.36,576.76 429.31,581.09 439.55,584.8"];
	26	[height=0.5,
		pos="1076,197.64",
		width=0.75];
	26 -- 39	[pos="1076.2,215.86 1077,264.29 1078.9,395.8 1079.7,444.38"];
	26 -- 78	[pos="1075.1,215.65 1074.8,221.2 1074.5,227.31 1074.2,232.85"];
	191	[height=0.5,
		pos="1108.6,152.51",
		width=0.75];
	26 -- 191	[pos="1087.7,181.35 1090.7,177.31 1093.8,172.98 1096.7,168.93"];
	26 -- 143	[pos="1088,214.18 1098.3,228.45 1113.2,248.95 1123.5,263.13"];
	207	[height=0.5,
		pos="1138,208.46",
		width=0.75];
	26 -- 207	[pos="1102.3,202.23 1105.4,202.78 1108.7,203.35 1111.9,203.9"];
	26 -- 116	[pos="1064.7,214.32 1052.8,231.9 1034.2,259.42 1022.4,276.93"];
	39 -- 113	[pos="1083.1,480.61 1088.2,509.99 1098.4,568.16 1103.5,597.77"];
	39 -- 170	[pos="1070,445.89 1061.2,430.96 1048.4,409.26 1039.6,394.34"];
	39 -- 70	[pos="1094.9,447.51 1107.7,434.47 1126.1,415.77 1139,402.74"];
	39 -- 211	[pos="1104.5,454.37 1117.7,449.86 1134,444.32 1147.2,439.82"];
	39 -- 143	[pos="1085.4,444.81 1096,409.67 1119.4,332.07 1129.9,297.09"];
	39 -- 207	[pos="1084,444.84 1094.7,398.16 1123.3,272.98 1133.9,226.32"];
	39 -- 116	[pos="1072.9,445.24 1059.7,412.8 1031.6,343.62 1018.4,311.06"];
	39 -- 176	[pos="1075.5,480.5 1072.2,494.14 1067.5,512.91 1064.1,526.62"];
	46 -- 71	[pos="359.9,498.01 364.86,512.29 371.79,532.21 376.75,546.48"];
	46 -- 252	[pos="326.51,480.23 311.96,480.26 294.08,480.3 279.52,480.34"];
	46 -- 60	[pos="327.24,475.55 291.52,469.31 228.24,458.26 192.59,452.03"];
	46 -- 172	[pos="331.76,469.43 284.84,446.48 175.23,392.86 128.36,369.93"];
	46 -- 147	[pos="334.23,467.36 298.67,443.96 223.59,394.56 188.01,371.15"];
	46 -- 284	[pos="331.01,470.2 297.15,455.32 233.79,427.47 199.98,412.61"];
	46 -- 148	[pos="326.52,478.87 278.53,476.57 179.31,471.82 131.35,469.52"];
	46 -- 260	[pos="328.52,472.95 280.05,459.05 174.28,428.71 125.89,414.83"];
	46 -- 215	[pos="373.32,492.86 380.56,497.54 388.76,502.84 396.01,507.53"];
	84 -- 111	[pos="1112.3,357.55 1119.3,383.58 1132.2,431.81 1139.2,457.83"];
	84 -- 156	[pos="1133.4,334.23 1155.9,329.37 1188.4,322.37 1210.9,317.51"];
	84 -- 235	[pos="1128.7,328.57 1153.9,315.15 1195.9,292.82 1221.3,279.33"];
	282	[height=0.5,
		pos="1309.5,245.67",
		width=0.75];
	84 -- 282	[pos="1129.9,329.37 1168.8,311.22 1248.5,274.08 1287.3,256.01"];
	111 -- 123	[pos="1160.9,489.86 1167.4,495.34 1174.9,501.58 1181.4,507.07"];
	111 -- 156	[pos="1153.6,458.7 1171.3,427.34 1209.2,360.48 1227,329"];
	111 -- 128	[pos="1169,482.5 1188.7,487.93 1216,495.45 1235.7,500.88"];
	111 -- 125	[pos="1135.3,492.73 1133.7,495.92 1132,499.24 1130.4,502.43"];
	111 -- 239	[pos="1170.6,472 1185.1,470.05 1203,467.63 1217.5,465.67"];
	27 -- 66	[pos="680.1,335.55 656.62,322.39 618.74,301.17 595.24,288"];
	27 -- 98	[pos="698.57,365.54 696.52,380.76 693.62,402.33 691.58,417.46"];
	27 -- 131	[pos="686.49,331.82 662.03,305.82 612.96,253.65 588.62,227.77"];
	27 -- 126	[pos="705.89,365 713.22,391.76 727.04,442.23 734.41,469.17"];
	89	[height=0.5,
		pos="693.09,160.8",
		width=0.75];
	27 -- 89	[pos="700.26,329.06 698.74,293.32 695.38,214.4 693.86,178.82"];
	27 -- 100	[pos="693.91,329.56 678.94,292.28 644.33,206.13 629.42,169.01"];
	234	[height=0.5,
		pos="746.34,116.79",
		width=0.75];
	27 -- 234	[pos="704.59,329.2 713.06,286.11 734.35,177.8 742.8,134.79"];
	27 -- 133	[pos="695.23,329.54 680.64,284.93 642.55,168.46 627.95,123.82"];
	202	[height=0.5,
		pos="684.28,90.142",
		width=0.75];
	27 -- 202	[pos="699.85,329.2 696.78,281.99 688.53,155.39 685.46,108.2"];
	27 -- 297	[pos="695.47,329.53 686.93,302.24 670.65,250.25 662.06,222.82"];
	28 -- 181	[pos="1402.6,792.47 1413.2,789.35 1425.4,785.73 1435.9,782.61"];
	28 -- 49	[pos="1354.4,809.24 1326.8,820.34 1281.2,838.68 1253.7,849.76"];
	28 -- 67	[pos="1385.3,817.65 1393.8,837.73 1407.5,870.19 1416,890.13"];
	28 -- 63	[pos="1351.2,803.69 1347.8,804.18 1344.3,804.68 1340.9,805.17"];
	99	[height=0.5,
		pos="1559.5,856.44",
		width=0.75];
	28 -- 99	[pos="1402.2,807.49 1436.9,818.29 1500,837.92 1534.8,848.75"];
	28 -- 185	[pos="1376.2,817.95 1375.5,826.48 1374.6,836.65 1373.9,845.22"];
	124	[height=0.5,
		pos="1442.3,836.51",
		width=0.75];
	28 -- 124	[pos="1398.5,811.66 1405.9,815.84 1414.2,820.55 1421.6,824.73"];
	28 -- 286	[pos="1396.7,812.82 1418.8,827.88 1455.1,852.57 1477.1,867.62"];
	28 -- 271	[pos="1382.8,781.95 1383.6,779.19 1384.4,776.34 1385.2,773.58"];
	28 -- 272	[pos="1389.4,783.29 1400.5,767.55 1417.1,744 1428.2,728.28"];
	29 -- 35	[pos="1027.8,617.51 1021.8,591.73 1010.9,544.41 1005,518.59"];
	29 -- 283	[pos="1037.4,653.25 1044.1,675.07 1055.3,711.8 1062,733.55"];
	30 -- 96	[pos="182.02,671.62 197.52,659.08 220.03,640.86 235.51,628.33"];
	30 -- 212	[pos="187.09,675.56 215.44,662.73 263.88,640.81 292.31,627.94"];
	30 -- 101	[pos="190.53,690.91 198.86,692.56 208.08,694.39 216.42,696.05"];
	208	[height=0.5,
		pos="104.76,733.1",
		width=0.75];
	30 -- 208	[pos="146.95,699.71 139.23,705.82 130.19,712.97 122.46,719.09"];
	30 -- 277	[pos="191.39,683.18 217.61,680.66 257.32,676.85 283.66,674.32"];
	30 -- 132	[pos="183.11,672.35 213.2,650.61 272.3,607.9 302.37,586.17"];
	174	[height=0.5,
		pos="102.51,670.44",
		width=0.75];
	30 -- 174	[pos="138.97,679.44 135.36,678.55 131.65,677.63 128.05,676.74"];
	232	[height=0.5,
		pos="42.73,720.43",
		width=0.75];
	30 -- 232	[pos="139.62,692.86 118.59,698.84 88.662,707.36 67.646,713.34"];
	225	[height=0.5,
		pos="131.26,596.87",
		width=0.75];
	30 -- 225	[pos="157.99,668.2 152.15,652.61 143.66,629.97 137.83,614.39"];
	298	[height=0.5,
		pos="27,668.86",
		width=0.75];
	30 -- 298	[pos="137.72,682.46 113.48,679.48 78.001,675.13 53.783,672.15"];
	30 -- 257	[pos="189.92,692.38 215.3,699.01 254.12,709.15 279.43,715.76"];
	31 -- 113	[pos="1115.7,686.85 1113.7,671.44 1111,649.36 1109,633.96"];
	32 -- 137	[pos="896.12,642.99 901.1,621.33 909.46,584.97 914.46,563.21"];
	32 -- 54	[pos="894.63,679.05 896.8,694.27 899.88,715.82 902.04,730.94"];
	32 -- 146	[pos="885.18,643.03 878.9,626.71 869.65,602.66 863.38,586.35"];
	32 -- 140	[pos="898.34,678.47 899.37,681.34 900.43,684.31 901.46,687.18"];
	32 -- 86	[pos="876.12,646.15 871.02,641.45 865.37,636.25 860.26,631.54"];
	54 -- 140	[pos="905.91,730.71 906.1,728.15 906.29,725.52 906.47,722.96"];
	33 -- 71	[pos="388.05,590.41 387.53,587.75 386.99,585 386.47,582.33"];
	33 -- 96	[pos="364.49,609.47 340.07,610.51 304.32,612.03 279.92,613.07"];
	33 -- 263	[pos="387.59,626.29 382.92,647.53 375.2,682.65 370.54,703.85"];
	33 -- 53	[pos="415.98,616.47 428.59,620.67 443.94,625.79 456.55,630"];
	33 -- 97	[pos="366.85,600.75 341.87,593.09 303.45,581.32 278.38,573.63"];
	33 -- 217	[pos="417.49,602.94 423.92,601.61 430.81,600.18 437.25,598.85"];
	33 -- 101	[pos="371.76,620.66 343.26,638.43 290.95,671.04 262.41,688.84"];
	33 -- 277	[pos="374.03,622.07 360.48,632.71 341.82,647.36 328.29,657.98"];
	33 -- 145	[pos="401.91,624.96 404.09,628.47 406.39,632.17 408.57,635.68"];
	33 -- 177	[pos="407.98,623.11 426.52,639.81 456.5,666.8 474.92,683.38"];
	96 -- 97	[pos="253.12,595.99 253.16,592.15 253.2,588.09 253.24,584.25"];
	179	[height=0.5,
		pos="166.84,729.76",
		width=0.75];
	96 -- 179	[pos="240.6,630.78 224.14,652.86 195.18,691.73 178.88,713.61"];
	96 -- 101	[pos="250.78,632.25 249,647.18 246.47,668.3 244.69,683.23"];
	96 -- 174	[pos="229.1,623.13 200.93,633.66 154.35,651.06 126.23,661.57"];
	209	[height=0.5,
		pos="190.9,641.1",
		width=0.75];
	96 -- 209	[pos="230.19,624.08 224.79,626.42 219.04,628.91 213.65,631.25"];
	96 -- 225	[pos="226.23,610.41 205.95,607.52 178.17,603.56 157.9,600.67"];
	85 -- 103	[pos="645.39,1039.3 643.29,1034.9 641.03,1030.2 638.93,1025.8"];
	85 -- 119	[pos="626.58,1054.9 623.31,1054.7 619.98,1054.5 616.72,1054.3"];
	85 -- 175	[pos="638.36,1071.6 626.12,1083.6 609.03,1100.3 596.8,1112.2"];
	68 -- 167	[pos="990.75,420.82 988.01,420.57 985.22,420.31 982.48,420.05"];
	36 -- 47	[pos="893.32,793.37 926.89,793.97 983.82,794.99 1017.4,795.59"];
	36 -- 79	[pos="842.43,784.22 820.92,776.39 789.45,764.93 767.95,757.11"];
	36 -- 152	[pos="848.61,806.58 830.13,820.91 801.27,843.3 782.74,857.68"];
	130	[height=0.5,
		pos="958.68,882.58",
		width=0.75];
	36 -- 130	[pos="881.94,808.11 899.04,824.7 926.23,851.08 943.24,867.59"];
	36 -- 45	[pos="892.6,788.22 911.6,784.86 937.14,780.33 956.12,776.97"];
	36 -- 256	[pos="852.14,808.78 848.55,812.82 844.69,817.15 841.11,821.18"];
	36 -- 169	[pos="891.1,800.47 919.95,809.28 967.25,823.72 996.08,832.52"];
	36 -- 199	[pos="890.12,801.86 897.17,804.51 904.88,807.41 911.92,810.06"];
	36 -- 266	[pos="871.9,810.88 875.57,822.56 880.32,837.72 883.97,849.36"];
	131 -- 297	[pos="601.15,209.98 610.24,209.14 620.37,208.2 629.46,207.35"];
	38 -- 152	[pos="734.65,950.79 741.35,933.27 751.51,906.66 758.19,889.18"];
	38 -- 91	[pos="704.53,959.24 683.49,950.78 652.69,938.4 631.67,929.94"];
	38 -- 155	[pos="754.47,964.67 784.44,960.24 832.83,953.08 862.71,948.66"];
	38 -- 56	[pos="749.31,980.06 796.88,1005.4 910.71,1066.2 958.23,1091.5"];
	38 -- 129	[pos="705.95,957.9 671.07,940.84 603.26,907.67 568.33,890.58"];
	38 -- 62	[pos="706.7,980.3 666.62,1002.5 580.06,1050.3 540.19,1072.3"];
	38 -- 75	[pos="734.86,986.01 741.05,1001.3 750.03,1023.6 756.25,1039"];
	38 -- 224	[pos="714.31,952.74 691.96,926.52 647.6,874.47 625.3,848.32"];
	38 -- 184	[pos="737.16,985.61 751.05,1011 777.06,1058.5 790.94,1083.8"];
	38 -- 95	[pos="754.9,968.82 806.06,969.22 916.41,970.08 967.62,970.48"];
	38 -- 112	[pos="725.71,986.84 721.53,1022.6 712.31,1101.6 708.15,1137.2"];
	38 -- 122	[pos="700.78,967.83 666.11,966.83 606.36,965.1 571.63,964.1"];
	38 -- 161	[pos="748.39,956.39 765.52,946.19 789.79,931.75 806.82,921.62"];
	278	[height=0.5,
		pos="862.27,1099.4",
		width=0.75];
	38 -- 278	[pos="743.26,983.62 769.06,1008.7 820.67,1058.9 846.62,1084.2"];
	38 -- 192	[pos="700.81,966.87 698.2,966.7 695.54,966.53 692.93,966.36"];
	155 -- 161	[pos="868.43,933.05 861.79,929.29 854.45,925.14 847.8,921.38"];
	41 -- 48	[pos="757.62,1012.6 753.59,1012.6 749.43,1012.6 745.39,1012.6"];
	41 -- 106	[pos="786.31,994.39 786.93,987.26 787.65,979.1 788.27,971.99"];
	139 -- 154	[pos="640.8,1178.5 639.27,1187.9 637.4,1199.4 635.87,1208.8"];
	139 -- 178	[pos="661.44,1174.2 667.96,1179.3 675.35,1185.2 681.88,1190.3"];
	205	[height=0.5,
		pos="660.28,1271.9",
		width=0.75];
	139 -- 205	[pos="646.42,1178.2 649.48,1198.9 654.5,1232.8 657.58,1253.6"];
	237 -- 262	[pos="680.03,632.51 682.64,632.74 685.29,632.98 687.9,633.21"];
	130 -- 199	[pos="952.25,864.85 949.05,856.03 945.19,845.39 941.99,836.58"];
	78 -- 84	[pos="1080,268.42 1086,284.02 1094.8,306.68 1100.8,322.26"];
	78 -- 191	[pos="1079.6,233.27 1086,215.48 1095.8,188.13 1102.2,170.27"];
	78 -- 143	[pos="1095.7,261.15 1101.2,263.7 1107.2,266.44 1112.7,268.99"];
	78 -- 207	[pos="1092.7,238.13 1100.9,232.77 1110.4,226.53 1118.6,221.17"];
	78 -- 116	[pos="1054.3,263.85 1046.6,269.13 1037.7,275.22 1030.1,280.49"];
	250	[height=0.5,
		pos="1072.3,107.52",
		width=0.75];
	78 -- 250	[pos="1073.1,232.7 1072.9,205.13 1072.6,153.01 1072.4,125.52"];
	48 -- 85	[pos="699.13,1025.6 690.81,1031.3 681.07,1037.9 672.74,1043.6"];
	48 -- 61	[pos="724.79,1030.2 734.41,1055.4 752.07,1101.8 761.7,1127.1"];
	48 -- 106	[pos="735.48,998.43 746.76,989.21 761.4,977.23 772.64,968.03"];
	48 -- 103	[pos="690.95,1011.4 680.43,1010.9 668.41,1010.4 657.89,1009.9"];
	212 -- 277	[pos="313.59,635.67 313.15,641.44 312.65,647.83 312.2,653.61"];
	107	[height=0.5,
		pos="1041.9,1123.9",
		width=0.75];
	56 -- 107	[pos="1003.9,1111.1 1008.4,1112.6 1013.1,1114.2 1017.6,1115.7"];
	56 -- 95	[pos="981.71,1084.8 984.59,1059.6 989.77,1014.3 992.67,989.01"];
	56 -- 110	[pos="996.7,1088.7 1002.8,1083.7 1009.6,1078 1015.6,1073"];
	236	[height=0.5,
		pos="1104.4,1081.4",
		width=0.75];
	56 -- 236	[pos="1005.8,1098.4 1026.9,1094.8 1056.6,1089.7 1077.8,1086"];
	170 -- 176	[pos="1032.9,395.42 1038.7,427.5 1050.7,494.47 1056.4,526.63"];
	70 -- 115	[pos="1180.6,384.37 1199.8,382.08 1225.7,379 1244.9,376.71"];
	70 -- 211	[pos="1160.9,405.19 1162.1,408.06 1163.3,411.04 1164.4,413.91"];
	70 -- 143	[pos="1150.7,369.2 1147.3,349.18 1141.8,317.36 1138.4,297.45"];
	115 -- 156	[pos="1261.8,356.39 1257,347.84 1251.2,337.55 1246.4,329.02"];
	115 -- 235	[pos="1266.6,355.63 1261.4,336.21 1253,305.4 1247.7,285.95"];
	191 -- 250	[pos="1095.7,136.52 1092.2,132.28 1088.5,127.7 1085.1,123.46"];
	141 -- 168	[pos="40.298,384.83 40.741,381.9 41.201,378.87 41.644,375.94"];
	141 -- 148	[pos="53.025,418.02 63.79,428.58 78.088,442.6 88.834,453.15"];
	81 -- 121	[pos="411,352.74 391.69,325.25 353.06,270.26 333.64,242.61"];
	81 -- 227	[pos="400.79,358.28 376.81,346.27 338.43,327.05 314.42,315.03"];
	81 -- 273	[pos="424.47,387.34 426.56,407.03 429.88,438.29 431.97,458.02"];
	50 -- 252	[pos="302.22,448.7 292.72,454.73 281.36,461.94 271.87,467.95"];
	50 -- 190	[pos="328.53,418.32 334.1,403.05 342.09,381.16 347.66,365.9"];
	50 -- 60	[pos="294.9,438.1 266.4,440.17 221.83,443.4 193.35,445.47"];
	55 -- 238	[pos="854.55,121.25 832.44,136.33 796.19,161.06 774.11,176.12"];
	55 -- 162	[pos="849.77,117.03 844.98,118.79 839.95,120.64 835.17,122.4"];
	230 -- 248	[pos="736.29,301.35 722.81,300.13 706.52,298.65 693.01,297.42"];
	230 -- 238	[pos="761.83,285.61 760.34,264.13 757.87,228.61 756.38,207.16"];
	45 -- 47	[pos="1005.8,781.3 1010.8,783.19 1016,785.18 1020.9,787.08"];
	45 -- 130	[pos="978.45,790.52 974.03,811.08 966.9,844.3 962.52,864.71"];
	45 -- 169	[pos="992.07,789.42 997.95,799.77 1005.4,812.91 1011.3,823.22"];
	45 -- 69	[pos="977.24,754.4 976.46,751.64 975.64,748.79 974.85,746.03"];
	45 -- 65	[pos="1008.4,777.54 1029.5,781.8 1059.3,787.78 1080.4,792.03"];
	45 -- 149	[pos="998.09,787.2 1017,805.1 1048.5,834.94 1067.4,852.79"];
	45 -- 199	[pos="967.3,787.33 961.96,792.65 955.95,798.65 950.62,803.97"];
	45 -- 294	[pos="994.85,756.33 1003.1,745.73 1014,731.86 1022.3,721.19"];
	166 -- 294	[pos="1132.1,669.47 1110.9,677.2 1080.1,688.43 1058.9,696.16"];
	166 -- 200	[pos="1150.6,678.58 1146,693.86 1139.5,715.77 1134.9,731.04"];
	256 -- 266	[pos="848.97,847.49 855.02,850.42 861.58,853.61 867.64,856.54"];
	61 -- 85	[pos="750.48,1131 728.92,1114.4 692.97,1086.8 671.46,1070.3"];
	49 -- 138	[pos="1209.8,847.26 1203.2,843.47 1195.8,839.26 1189.2,835.46"];
	49 -- 67	[pos="1256.1,865.54 1293.1,874.84 1361.1,891.93 1398,901.2"];
	49 -- 63	[pos="1250.8,846.98 1263.8,839.16 1280.8,829.03 1293.9,821.2"];
	49 -- 242	[pos="1223.4,841.51 1216.4,824.2 1205.8,797.93 1198.8,780.66"];
	49 -- 64	[pos="1250.5,871.49 1279.9,889.65 1334.4,923.3 1363.8,941.47"];
	49 -- 136	[pos="1228.5,877.5 1226.5,896.88 1223.3,927.22 1221.3,946.53"];
	49 -- 185	[pos="1257.5,859.95 1282.6,860.74 1319.8,861.92 1345,862.71"];
	49 -- 124	[pos="1257.3,856.24 1297.9,851.91 1374.7,843.73 1415.4,839.38"];
	49 -- 288	[pos="1238.8,876.54 1242.8,884.91 1247.6,894.91 1251.5,903.26"];
	49 -- 216	[pos="1245.6,874.6 1262.6,892.09 1290.1,920.37 1307,937.74"];
	243	[height=0.5,
		pos="1292.5,853.08",
		width=0.75];
	49 -- 243	[pos="1257.5,856.48 1260.2,856.21 1263,855.94 1265.8,855.67"];
	67 -- 185	[pos="1406.7,893.18 1401,888.27 1394.6,882.78 1389,877.87"];
	67 -- 118	[pos="1439.9,922.11 1450.9,931.87 1465.5,944.69 1476.5,954.43"];
	67 -- 73	[pos="1424.9,925.88 1426.2,941.56 1428,964.04 1429.3,979.71"];
	67 -- 218	[pos="1449.9,911.88 1465.8,914.46 1486,917.72 1501.9,920.3"];
	67 -- 286	[pos="1447.2,898.74 1455.3,895.72 1464.4,892.35 1472.5,889.33"];
	259	[height=0.5,
		pos="1529.1,1012.9",
		width=0.75];
	67 -- 259	[pos="1438.5,922.68 1458.6,942.7 1493.9,977.83 1514,997.84"];
	51 -- 74	[pos="1529.6,473.55 1505.9,456.71 1465,427.67 1441.3,410.8"];
	51 -- 219	[pos="1521.3,490.08 1505.2,492.11 1484.9,494.68 1468.8,496.71"];
	51 -- 163	[pos="1559.6,503.33 1571.4,520.26 1589.5,546.35 1601.2,563.23"];
	51 -- 102	[pos="1569.4,475.46 1575.6,472.22 1582.3,468.67 1588.5,465.42"];
	51 -- 105	[pos="1533.7,502.04 1528.9,507.17 1523.5,512.88 1518.7,518.02"];
	160	[height=0.5,
		pos="1733,376.22",
		width=0.75];
	51 -- 160	[pos="1568.2,474.67 1603.8,453.41 1677.3,409.48 1712.9,388.23"];
	285	[height=0.5,
		pos="1670.7,410",
		width=0.75];
	51 -- 285	[pos="1567.8,474.38 1590.5,460.15 1627.7,436.87 1650.7,422.55"];
	279	[height=0.5,
		pos="1722.6,530.06",
		width=0.75];
	51 -- 279	[pos="1573.4,493 1606.5,501.23 1664.1,515.52 1697.2,523.75"];
	51 -- 231	[pos="1567.6,499.12 1578.9,506.26 1593,515.22 1604.3,522.38"];
	51 -- 226	[pos="1558.7,503.5 1575.5,529.81 1607.6,580.41 1624.4,606.8"];
	51 -- 180	[pos="1575.3,486.55 1596,486.44 1624.3,486.29 1644.9,486.18"];
	244	[height=0.5,
		pos="1734.2,450.28",
		width=0.75];
	51 -- 244	[pos="1574.3,481.56 1609.8,474.62 1672.6,462.32 1708,455.39"];
	51 -- 264	[pos="1548.5,505.09 1549,520.96 1549.6,543.74 1550.1,559.51"];
	51 -- 240	[pos="1550.8,504.72 1556.2,539.43 1567.9,615.18 1573.3,649.83"];
	190 -- 221	[pos="354.3,329.86 354.36,322.44 354.44,313.89 354.5,306.49"];
	52 -- 150	[pos="537.29,301.71 550.23,305.32 565.96,309.72 578.89,313.33"];
	52 -- 251	[pos="507.35,312.63 506.59,315.39 505.81,318.24 505.06,321"];
	52 -- 248	[pos="539.38,294.76 567.39,294.81 610.84,294.88 638.85,294.92"];
	52 -- 245	[pos="515.94,312.55 519.08,327.74 523.58,349.47 526.73,364.73"];
	52 -- 164	[pos="485.02,294.65 481.19,294.64 477.25,294.63 473.41,294.62"];
	52 -- 171	[pos="529,309.15 542.87,321.1 562.49,338 576.36,349.94"];
	258	[height=0.5,
		pos="511.07,203.25",
		width=0.75];
	52 -- 258	[pos="512.02,276.65 511.81,260.61 511.51,237.31 511.31,221.28"];
	251 -- 258	[pos="501.64,320.76 503.72,294.84 507.54,247.27 509.62,221.32"];
	53 -- 157	[pos="507.99,637.37 510.61,637.3 513.26,637.22 515.87,637.15"];
	53 -- 145	[pos="455.38,644 451.91,644.8 448.35,645.61 444.87,646.41"];
	53 -- 177	[pos="483.98,656.07 485.26,663.63 486.74,672.42 488.02,679.98"];
	80 -- 295	[pos="1344.1,381.33 1346.2,377.93 1348.3,374.37 1350.4,370.98"];
	80 -- 117	[pos="1325.8,380.82 1320,368.27 1312.3,351.4 1306.6,338.86"];
	80 -- 134	[pos="1309.5,389.85 1279.6,379.46 1228.7,361.85 1198.8,351.46"];
	245 -- 251	[pos="519.2,366.42 516.71,362.8 514.08,358.96 511.58,355.33"];
	245 -- 270	[pos="523.62,400.66 517.71,416.03 509.21,438.11 503.33,453.39"];
	109 -- 127	[pos="802.25,227.4 805.88,226.6 809.6,225.78 813.23,224.97"];
	86 -- 137	[pos="859.67,601.96 872.43,589.67 890.47,572.29 903.22,560.01"];
	86 -- 146	[pos="848.84,598.87 849.88,594.8 850.98,590.49 852.02,586.43"];
	107 -- 236	[pos="1061,1110.9 1068.7,1105.7 1077.7,1099.6 1085.4,1094.3"];
	59 -- 69	[pos="969.81,683.72 969.8,691.97 969.8,701.7 969.8,709.97"];
	58 -- 261	[pos="490.75,813.53 490.09,816.19 489.42,818.94 488.76,821.61"];
	58 -- 129	[pos="505.51,812.67 514.45,827.37 527.3,848.49 536.19,863.1"];
	58 -- 224	[pos="519.61,803.37 539.53,809.67 567.51,818.52 587.42,824.82"];
	58 -- 213	[pos="467.78,795.63 464.82,795.63 461.8,795.63 458.83,795.63"];
	129 -- 224	[pos="564.96,866.41 573.88,859.96 584.54,852.27 593.45,845.84"];
	129 -- 213	[pos="528.16,866.49 506.78,850.81 471.5,824.95 449.99,809.19"];
	69 -- 199	[pos="963.19,745.76 957.18,761.71 948.33,785.18 942.28,801.21"];
	69 -- 294	[pos="993.73,719.69 999.41,717.65 1005.5,715.48 1011.1,713.44"];
	60 -- 141	[pos="142.06,439.05 119.05,431.08 84.64,419.16 61.667,411.2"];
	60 -- 252	[pos="189.76,456.44 201.9,461.09 216.66,466.75 228.79,471.4"];
	60 -- 168	[pos="148.02,434.03 125.04,417.15 85.784,388.32 62.746,371.4"];
	60 -- 148	[pos="142.09,455.53 137.6,457.04 132.91,458.61 128.41,460.11"];
	62 -- 139	[pos="539.29,1096.2 562.52,1110.4 600.61,1133.8 623.82,1148"];
	62 -- 189	[pos="504.82,1068.5 495.42,1058.5 483.22,1045.5 473.84,1035.5"];
	62 -- 214	[pos="493.14,1078.8 477.98,1075.9 458.95,1072.2 443.8,1069.3"];
	87	[height=0.5,
		pos="466.25,1163.8",
		width=0.75];
	62 -- 87	[pos="508.3,1100.4 499.2,1114.1 486.33,1133.5 477.23,1147.2"];
	62 -- 92	[pos="521.09,1102 522.8,1119.3 525.35,1145.1 527.05,1162.3"];
	62 -- 112	[pos="542.95,1092.9 578.87,1106.6 646.78,1132.6 682.58,1146.2"];
	62 -- 122	[pos="523.06,1065.8 527.81,1043.1 535.91,1004.3 540.67,981.49"];
	189 -- 214	[pos="444.9,1035.7 440.85,1039.9 436.46,1044.6 432.41,1048.8"];
	63 -- 249	[pos="1318,790.93 1320,781.6 1322.3,770.24 1324.3,760.9"];
	63 -- 99	[pos="1340.5,814.09 1387.7,823.22 1486.4,842.3 1533.4,851.4"];
	63 -- 242	[pos="1290.7,800.18 1268.9,792.06 1237,780.1 1215.3,771.99"];
	63 -- 124	[pos="1340.2,814.58 1362.4,819.35 1394.2,826.19 1416.4,830.96"];
	63 -- 243	[pos="1305.8,826.18 1304.2,829.37 1302.6,832.7 1301,835.89"];
	63 -- 292	[pos="1298.2,794.33 1293,789.62 1287.3,784.4 1282.2,779.68"];
	63 -- 271	[pos="1333.1,795.87 1344.7,787.69 1359.7,777.2 1371.4,769.02"];
	99 -- 124	[pos="1533.2,851.97 1513.9,848.68 1487.8,844.25 1468.5,840.97"];
	75 -- 184	[pos="776.68,1072.6 780.06,1076.6 783.69,1081 787.06,1085"];
	75 -- 112	[pos="753.39,1073.8 742.87,1091.9 726.39,1120.2 715.92,1138.2"];
	242 -- 243	[pos="1207.9,777.63 1226.6,794.3 1257.2,821.59 1276,838.37"];
	242 -- 292	[pos="1218.9,763.82 1225.4,763.97 1232.3,764.13 1238.8,764.28"];
	224 -- 261	[pos="584.81,834.05 563.17,835.25 532.98,836.93 511.35,838.14"];
	64 -- 67	[pos="1397.2,938.19 1401.3,933.37 1405.9,928.06 1410,923.24"];
	64 -- 185	[pos="1381.5,935.59 1379.5,919.92 1376.7,897.47 1374.7,881.82"];
	64 -- 73	[pos="1399.5,968.55 1404.5,973.26 1410,978.48 1415.1,983.19"];
	64 -- 216	[pos="1356.8,953.46 1354.2,953.42 1351.5,953.38 1348.9,953.34"];
	64 -- 259	[pos="1407.2,963.34 1434.3,974.36 1478.8,992.43 1505.8,1003.4"];
	65 -- 166	[pos="1112.8,779.69 1122.3,753.48 1140.1,704.42 1149.6,678.25"];
	65 -- 149	[pos="1100.5,815 1097,825.57 1092.5,838.97 1089,849.59"];
	65 -- 241	[pos="1115.4,814.26 1121.6,826.03 1129.8,841.62 1136.1,853.42"];
	65 -- 294	[pos="1094,781.16 1081,764.3 1060.7,737.97 1047.6,721.07"];
	65 -- 200	[pos="1114.6,780.05 1116.8,775.59 1119,770.79 1121.2,766.32"];
	268	[height=0.5,
		pos="1197.7,914.62",
		width=0.75];
	65 -- 268	[pos="1119.1,813.57 1136.6,835.99 1167.7,876.09 1185.1,898.44"];
	136 -- 138	[pos="1213.1,947.12 1203.3,920.07 1184.7,868.55 1174.9,841.36"];
	136 -- 288	[pos="1233.5,949.26 1237.4,944.98 1241.7,940.33 1245.6,936.04"];
	149 -- 241	[pos="1110.1,868.89 1112.7,869.02 1115.3,869.15 1118,869.27"];
	149 -- 268	[pos="1106.2,877.09 1126.1,885.25 1154.7,896.95 1174.5,905.11"];
	185 -- 286	[pos="1398.9,867.22 1419.8,870.08 1448.7,874.05 1469.6,876.91"];
	291	[height=0.5,
		pos="569.59,18",
		width=0.75];
	247 -- 291	[pos="567.46,43.869 567.67,41.31 567.89,38.68 568.1,36.122"];
	247 -- 299	[pos="548.17,75.722 541.34,80.973 533.55,86.964 526.71,92.228"];
	118 -- 218	[pos="1505.7,952.87 1508.9,948.9 1512.3,944.66 1515.5,940.69"];
	118 -- 259	[pos="1506,984.75 1509.2,988.69 1512.7,992.92 1515.9,996.87"];
	72 -- 94	[pos="528.79,730.8 506.87,723.26 474.78,712.23 452.88,704.7"];
	73 -- 118	[pos="1453.2,987.45 1458.9,984.78 1465,981.91 1470.7,979.25"];
	73 -- 218	[pos="1449.2,984.17 1466.7,970.97 1493,951.18 1510.5,938.08"];
	73 -- 259	[pos="1457.2,1002 1471.3,1004.1 1488.6,1006.7 1502.7,1008.9"];
	187 -- 289	[pos="1600.2,351.66 1598,347.04 1595.6,342.07 1593.5,337.46"];
	163 -- 231	[pos="1617.2,561.75 1618,558.83 1618.7,555.81 1619.5,552.89"];
	163 -- 226	[pos="1621.4,596.86 1623.1,600.05 1624.8,603.38 1626.4,606.57"];
	163 -- 240	[pos="1605.4,597.11 1599,612.55 1589.7,634.99 1583.3,650.42"];
	76 -- 187	[pos="1566.2,401.14 1573.8,395.33 1582.7,388.59 1590.3,382.78"];
	76 -- 102	[pos="1567.7,427.29 1574.9,431.86 1583.1,437.04 1590.4,441.61"];
	76 -- 180	[pos="1568.5,426.65 1591.5,439.83 1628.6,461.09 1651.6,474.27"];
	76 -- 289	[pos="1555.1,397.08 1561.7,380.03 1571.8,354.48 1578.4,337.56"];
	76 -- 254	[pos="1521.8,419.28 1518.7,419.79 1515.6,420.31 1512.6,420.81"];
	76 -- 267	[pos="1545.1,396.81 1544.3,392.22 1543.5,387.28 1542.7,382.7"];
	102 -- 187	[pos="1609.7,436.02 1609.5,421.59 1609.1,401.46 1608.8,387.03"];
	246	[height=0.5,
		pos="1796.2,419.71",
		width=0.75];
	102 -- 246	[pos="1636.4,449.21 1671.8,442.66 1734.7,431.07 1770.1,424.53"];
	102 -- 160	[pos="1629.8,441.55 1652.8,427.02 1690.4,403.2 1713.3,388.69"];
	102 -- 285	[pos="1628.6,440.6 1636.1,435.13 1644.8,428.83 1652.3,423.37"];
	102 -- 279	[pos="1629.2,466.95 1649.9,480.92 1682.7,503.1 1703.5,517.1"];
	102 -- 231	[pos="1613.2,472 1615.5,485.4 1618.6,503.64 1621,517.03"];
	102 -- 180	[pos="1631.8,465.24 1637.9,468.41 1644.6,471.86 1650.7,475.02"];
	102 -- 244	[pos="1637.3,453.22 1658,452.59 1686.3,451.73 1707,451.1"];
	280	[height=0.5,
		pos="1795.1,332.13",
		width=0.75];
	102 -- 280	[pos="1629.5,441.24 1665.1,417.82 1740.1,368.39 1775.6,344.96"];
	184 -- 278	[pos="827.26,1100.2 829.87,1100.1 832.52,1100 835.13,1100"];
	77 -- 81	[pos="417.59,268.04 418.69,290.45 420.55,328.4 421.65,350.89"];
	77 -- 228	[pos="421.85,232.11 426.27,216.83 432.6,194.94 437.02,179.67"];
	77 -- 82	[pos="407.7,232.76 401.44,220.8 393.11,204.92 386.86,192.98"];
	77 -- 121	[pos="391.3,243.5 377.7,240.05 361,235.82 347.39,232.38"];
	228 -- 265	[pos="441.81,180.03 441.76,182.59 441.71,185.22 441.66,187.77"];
	117 -- 134	[pos="1272.4,326.1 1251.3,329.76 1222,334.87 1200.9,338.53"];
	114 -- 293	[pos="85.634,296.97 77.509,293.1 68.304,288.72 60.17,284.85"];
	114 -- 172	[pos="107.24,325.56 107.13,330.57 107,336.01 106.89,341.03"];
	114 -- 147	[pos="124.61,321.62 133.06,328.68 143.23,337.19 151.66,344.23"];
	114 -- 182	[pos="133.78,302.34 137.67,301.58 141.68,300.8 145.58,300.04"];
	82 -- 228	[pos="403.67,170.28 407.86,169.37 412.2,168.42 416.39,167.5"];
	82 -- 281	[pos="350.86,178.06 344.07,178.6 336.78,179.18 329.99,179.72"];
	82 -- 121	[pos="361.71,190.37 354.35,196.95 345.65,204.72 338.27,211.32"];
	82 -- 265	[pos="400.08,186.39 406.22,189.3 412.89,192.45 419.04,195.36"];
	281 -- 290	[pos="279.64,191.01 257.59,199.64 224.69,212.52 202.54,221.2"];
	143 -- 207	[pos="1136,261.11 1136.4,250.6 1136.9,237.44 1137.3,226.91"];
	121 -- 228	[pos="343.14,214.62 364.98,202.99 398.83,184.96 420.75,173.28"];
	121 -- 281	[pos="314.43,208.52 313.15,205.53 311.82,202.43 310.53,199.45"];
	121 -- 290	[pos="294.68,226.79 269.23,227.6 231.44,228.79 206.02,229.6"];
	83 -- 189	[pos="432.88,986.2 437.36,991.93 442.41,998.38 446.89,1004.1"];
	83 -- 165	[pos="397.93,959.77 391.75,956.93 385.04,953.85 378.86,951"];
	83 -- 122	[pos="447.19,968.58 467.89,967.46 496.35,965.92 517.13,964.79"];
	83 -- 222	[pos="417.08,951.9 415.1,940.53 412.56,925.94 410.58,914.61"];
	165 -- 222	[pos="373.15,926.29 378.85,921.37 385.21,915.88 390.89,910.98"];
	103 -- 119	[pos="616.42,1024 612.46,1028.3 608.15,1032.9 604.18,1037.2"];
	103 -- 175	[pos="623.48,1026.1 614.18,1048.5 598.14,1087.2 588.81,1109.6"];
	87 -- 214	[pos="457.8,1146.4 448.89,1128.2 434.96,1099.6 426.09,1081.4"];
	87 -- 92	[pos="491.35,1170.4 495.43,1171.5 499.66,1172.6 503.74,1173.7"];
	87 -- 142	[pos="462.58,1145.9 462.04,1143.2 461.48,1140.4 460.93,1137.8"];
	92 -- 139	[pos="555.21,1175.8 573.9,1172.5 598.86,1168.1 617.52,1164.9"];
	92 -- 142	[pos="511.87,1166 500.46,1156.3 485.48,1143.7 474.09,1134"];
	88 -- 196	[pos="706.81,712.7 726.65,730.46 759.76,760.1 779.55,777.82"];
	89 -- 131	[pos="670.46,170.64 649.44,179.78 618.31,193.32 597.2,202.5"];
	89 -- 100	[pos="666.36,157.27 660.72,156.53 654.78,155.75 649.15,155"];
	89 -- 234	[pos="710.23,146.63 716.31,141.61 723.15,135.96 729.23,130.93"];
	89 -- 202	[pos="690.82,142.6 689.52,132.14 687.88,119.02 686.57,108.52"];
	90 -- 97	[pos="211.04,538.85 218.28,543.48 226.48,548.73 233.72,553.37"];
	95 -- 201	[pos="979.51,955.27 975.19,950.9 970.49,946.14 966.18,941.78"];
	95 -- 155	[pos="969.18,964.41 952.57,960.33 931.01,955.04 914.45,950.97"];
	95 -- 107	[pos="1000.3,988.57 1009.3,1018.1 1027.4,1076.7 1036.4,1106.1"];
	95 -- 203	[pos="1018.3,979.69 1039.1,987.67 1069.4,999.27 1090.3,1007.3"];
	95 -- 110	[pos="1002.2,988.1 1008.9,1003.6 1018.5,1026 1025.2,1041.4"];
	95 -- 236	[pos="1010,986.09 1030.9,1007.2 1068.4,1045.1 1089.3,1066.1"];
	95 -- 135	[pos="1012.3,984.4 1019,989.65 1026.7,995.65 1033.4,1000.9"];
	95 -- 161	[pos="970.72,961.94 938.74,950.29 882.54,929.83 850.72,918.25"];
	100 -- 131	[pos="609.73,167.5 602.71,176.4 594,187.44 586.97,196.35"];
	100 -- 247	[pos="611.76,134.65 601.68,118.66 586.6,94.746 576.53,78.78"];
	100 -- 234	[pos="647.46,144.45 668.97,138.44 699.79,129.81 721.29,123.8"];
	100 -- 133	[pos="622.28,133.26 622.26,130.3 622.25,127.23 622.23,124.27"];
	100 -- 202	[pos="637.67,136.31 647.27,126.81 659.59,114.6 669.15,105.13"];
	100 -- 291	[pos="615.47,134.02 605.36,108.44 586.61,61.036 576.49,35.453"];
	100 -- 297	[pos="632.96,168.07 637.02,174.43 641.66,181.7 645.73,188.08"];
	179 -- 208	[pos="139.79,731.22 137.18,731.36 134.53,731.5 131.91,731.64"];
	179 -- 209	[pos="171.71,711.82 175.89,696.44 181.87,674.39 186.04,659.02"];
	179 -- 225	[pos="162.04,711.84 155.25,686.48 142.91,640.37 136.1,614.93"];
	142 -- 214	[pos="445.6,1103.4 440.5,1096.2 434.53,1087.9 429.43,1080.7"];
	101 -- 179	[pos="219,710.1 209.89,713.54 199.48,717.46 190.36,720.9"];
	101 -- 208	[pos="216.95,707.15 192.36,712.84 155.39,721.39 130.68,727.11"];
	101 -- 277	[pos="265.27,691.4 272.56,688.25 280.64,684.76 287.94,681.6"];
	101 -- 209	[pos="228.97,685.44 221.44,676.67 212.1,665.79 204.56,657.01"];
	101 -- 257	[pos="266.71,709.45 271.2,710.98 275.9,712.57 280.39,714.1"];
	208 -- 232	[pos="78.814,727.8 75.494,727.12 72.095,726.43 68.773,725.75"];
	208 -- 298	[pos="87.504,718.84 74.617,708.2 57.084,693.72 44.21,683.08"];
	246 -- 280	[pos="1796,401.56 1795.8,386.53 1795.5,365.28 1795.3,350.26"];
	133 -- 247	[pos="604.37,92.128 597.81,86.989 590.38,81.167 583.82,76.023"];
	133 -- 234	[pos="649.09,108.39 669.92,110.19 698.62,112.67 719.44,114.47"];
	133 -- 202	[pos="647.42,99.584 651.18,98.62 655.06,97.626 658.83,96.662"];
	133 -- 291	[pos="612.01,89.079 602.7,73.486 588.99,50.503 579.69,34.926"];
	133 -- 299	[pos="594.98,106.06 577.15,106.06 553.92,106.06 536.06,106.06"];
	104 -- 144	[pos="634.32,656.29 639.5,641 646.93,619.08 652.11,603.8"];
	104 -- 237	[pos="637.76,657.22 639.61,653.93 641.56,650.46 643.41,647.16"];
	105 -- 219	[pos="1483.1,522.22 1476.8,518.81 1469.8,515.06 1463.5,511.64"];
	119 -- 175	[pos="587.8,1070.7 586.5,1082.3 584.83,1097.4 583.54,1109"];
	110 -- 236	[pos="1057.3,1066.6 1064.6,1068.9 1072.6,1071.4 1079.9,1073.7"];
	110 -- 135	[pos="1039.9,1041.4 1041.2,1038.4 1042.5,1035.3 1043.7,1032.3"];
	112 -- 139	[pos="678.91,1157.4 676.16,1157.6 673.36,1157.9 670.61,1158.1"];
	112 -- 184	[pos="726.48,1143.4 742.17,1134.3 763.74,1121.8 779.5,1112.7"];
	112 -- 206	[pos="728.4,1165.4 751.03,1175.7 785.82,1191.7 808.53,1202"];
	112 -- 178	[pos="703.69,1173.2 703.14,1177.5 702.54,1182 701.98,1186.3"];
	112 -- 205	[pos="699.19,1172.7 690.57,1194.7 675.83,1232.3 667.18,1254.3"];
	112 -- 183	[pos="720.57,1170.8 729.05,1179.9 739.71,1191.3 748.16,1200.4"];
	112 -- 278	[pos="730.11,1146.6 759.56,1136.1 809.09,1118.4 838.43,1107.9"];
	162 -- 238	[pos="796.71,146.33 788.48,154.79 778.28,165.27 770.04,173.74"];
	156 -- 235	[pos="1239.2,293.8 1239.6,291.25 1239.9,288.62 1240.3,286.06"];
	156 -- 282	[pos="1252.9,297.24 1264.9,286.26 1281.3,271.32 1293.4,260.34"];
	116 -- 170	[pos="1015.1,311.26 1018.3,325.53 1022.7,345.46 1025.8,359.73"];
	116 -- 191	[pos="1022.6,276.98 1041.2,249.97 1078.2,196.51 1097,169.28"];
	116 -- 250	[pos="1017.1,275.59 1028.7,240.06 1054.8,160.78 1066.4,125.29"];
	116 -- 176	[pos="1014.7,311.49 1023.6,357.84 1047.3,480.56 1056.2,526.74"];
	172 -- 293	[pos="93.604,343.25 81.37,328.07 63.076,305.37 50.862,290.22"];
	122 -- 189	[pos="525.19,976.23 511.28,985.55 492.59,998.08 478.71,1007.4"];
	122 -- 165	[pos="517.53,960.07 481.68,955.76 418.7,948.18 383.03,943.9"];
	122 -- 222	[pos="522.45,952.61 496.89,940.17 454.96,919.79 429.42,907.37"];
	122 -- 192	[pos="571.69,963.6 591.68,963.82 618.7,964.11 638.66,964.32"];
	128 -- 287	[pos="1278,521.8 1284.7,527.18 1292.3,533.32 1299,538.71"];
	128 -- 239	[pos="1254.3,490.23 1253.1,486.81 1251.8,483.22 1250.6,479.79"];
	125 -- 188	[pos="1122.6,537.88 1122.9,543.06 1123.2,548.69 1123.5,553.86"];
	218 -- 259	[pos="1528.6,942.89 1528.7,958.04 1528.9,979.47 1529,994.62"];
	132 -- 212	[pos="318.52,590.79 318.14,593.71 317.74,596.74 317.35,599.67"];
	135 -- 203	[pos="1078.4,1015.4 1081,1015.5 1083.7,1015.5 1086.3,1015.6"];
	202 -- 234	[pos="707.04,99.914 712.43,102.23 718.19,104.7 723.59,107.02"];
	199 -- 256	[pos="909.34,823.3 892.41,826.1 870.48,829.72 853.53,832.53"];
	199 -- 266	[pos="921.03,834.21 915.65,839.84 909.57,846.22 904.19,851.85"];
	145 -- 263	[pos="406.81,668.44 398.47,679.49 387.44,694.12 379.04,705.25"];
	154 -- 178	[pos="657,1218.8 662.97,1216.8 669.37,1214.6 675.36,1212.6"];
	154 -- 205	[pos="643.1,1243.7 645.35,1247.4 647.74,1251.3 649.99,1255"];
	147 -- 172	[pos="141.49,358.72 138.88,358.75 136.23,358.79 133.61,358.83"];
	147 -- 284	[pos="172.13,376.37 172.68,379.15 173.26,382.02 173.81,384.8"];
	147 -- 182	[pos="169.48,340.32 169.93,331.82 170.47,321.7 170.92,313.17"];
	193 -- 229	[pos="722.81,557.1 723.17,554.54 723.55,551.91 723.92,549.35"];
	148 -- 168	[pos="94.857,450.99 83.616,430.26 64.867,395.7 53.656,375.02"];
	148 -- 260	[pos="103.19,450.05 102.76,442.38 102.26,433.47 101.84,425.81"];
	241 -- 268	[pos="1162,884.77 1168.1,889.79 1174.8,895.45 1180.8,900.47"];
	164 -- 251	[pos="463.32,308.53 469.62,313.69 476.75,319.54 483.05,324.7"];
	164 -- 258	[pos="457.84,278.22 469.57,261.71 487.6,236.31 499.37,219.74"];
	178 -- 205	[pos="689.7,1221.4 683.69,1231.7 676.06,1244.8 670.07,1255.1"];
	178 -- 183	[pos="725.9,1209.1 729.26,1209.7 732.7,1210.3 736.07,1210.9"];
	235 -- 282	[pos="1267.2,259.78 1273,257.84 1279.2,255.78 1285,253.84"];
	158 -- 269	[pos="955.65,314.51 960.82,300.46 968.05,280.86 973.23,266.82"];
	158 -- 195	[pos="923.59,326.24 920.12,325.46 916.55,324.65 913.08,323.85"];
	186 -- 274	[pos="1319.2,647.08 1322.7,641.24 1326.6,634.7 1330,628.84"];
	274 -- 287	[pos="1333.1,594.08 1330.1,586.63 1326.6,577.98 1323.6,570.53"];
	160 -- 285	[pos="1711.9,387.65 1705.4,391.18 1698.3,395.05 1691.8,398.57"];
	160 -- 244	[pos="1733.3,394.52 1733.5,406 1733.7,420.74 1733.9,432.18"];
	160 -- 280	[pos="1751.6,362.99 1759.5,357.41 1768.6,350.93 1776.5,345.35"];
	226 -- 264	[pos="1614.3,612.33 1601.2,605.22 1584.6,596.12 1571.5,589.01"];
	226 -- 240	[pos="1617.1,637.19 1609.9,642.56 1601.6,648.72 1594.4,654.11"];
	171 -- 245	[pos="568.35,371.66 564.11,372.91 559.7,374.21 555.46,375.47"];
	171 -- 276	[pos="599.65,346.81 607.77,325.11 621.52,288.35 629.67,266.57"];
	171 -- 270	[pos="578.86,380.07 560.51,400.33 528.81,435.32 510.58,455.44"];
	174 -- 179	[pos="118.41,685.1 128.23,694.16 140.8,705.75 150.68,714.85"];
	174 -- 208	[pos="103.16,688.56 103.46,696.8 103.81,706.54 104.1,714.8"];
	174 -- 232	[pos="85.539,684.63 77.531,691.33 67.991,699.31 59.951,706.03"];
	174 -- 225	[pos="109.32,653 113.87,641.36 119.84,626.1 124.4,614.43"];
	232 -- 298	[pos="37.317,702.68 35.753,697.56 34.045,691.96 32.477,686.82"];
	183 -- 206	[pos="789.58,1214.4 794.38,1214.1 799.37,1213.9 804.17,1213.7"];
	209 -- 225	[pos="172.69,627.59 165.29,622.1 156.76,615.78 149.37,610.3"];
	180 -- 279	[pos="1688.6,500.45 1694.3,505.37 1700.6,510.86 1706.2,515.76"];
	180 -- 231	[pos="1657.2,501.24 1651.4,507.07 1644.9,513.72 1639.1,519.57"];
	180 -- 244	[pos="1692.8,474.13 1699.4,470.31 1706.7,466.08 1713.4,462.25"];
	182 -- 293	[pos="145.45,290.83 121.98,287.22 87.884,281.98 64.437,278.38"];
	182 -- 227	[pos="198.98,296.96 218.86,298.48 245.74,300.53 265.6,302.04"];
	244 -- 246	[pos="1756.2,439.41 1762.1,436.53 1768.4,433.42 1774.2,430.54"];
	244 -- 285	[pos="1714.4,437.75 1706.9,432.95 1698.2,427.47 1690.7,422.65"];
	244 -- 279	[pos="1731.5,468.38 1729.7,481.44 1727.1,498.99 1725.2,512.03"];
	244 -- 280	[pos="1743,433.1 1754.6,410.7 1774.7,371.74 1786.2,349.33"];
	192 -- 223	[pos="638.72,962.38 603.93,959.52 543.89,954.58 509.19,951.72"];
	254 -- 267	[pos="1499.9,409.68 1507.8,400.72 1517.8,389.5 1525.8,380.52"];
	215 -- 273	[pos="422.91,502.89 424.14,499.91 425.42,496.81 426.65,493.83"];
	200 -- 241	[pos="1131.8,766.81 1134.8,789.83 1139.9,829.5 1142.8,852.56"];
	200 -- 275	[pos="1122.5,731.29 1116.2,715.72 1107.2,693.1 1100.9,677.54"];
	200 -- 268	[pos="1136.7,766.27 1149.8,798.11 1177.4,865.32 1190.5,897.17"];
	243 -- 292	[pos="1287.1,835.24 1282.5,819.94 1275.9,798.02 1271.3,782.73"];
	257 -- 277	[pos="306.8,704.34 307.37,699.68 307.99,694.66 308.56,689.98"];
	272 -- 296	[pos="1467.1,711.81 1474.8,711.81 1483.1,711.81 1490.7,711.81"];
}
