graph {
	graph [bb="0,0,1274.4,872.28",
		outputorder=edgesfirst,
		overlap=prism,
		size="50,50!",
		start=1900
	];
	node [label="\N"];
	0	[height=0.5,
		pos="621.45,23.401",
		width=0.75];
	1	[height=0.5,
		pos="683.5,19.33",
		width=0.75];
	0 -- 1	[pos="648.48,21.627 651.1,21.456 653.75,21.282 656.36,21.111"];
	20	[height=0.5,
		pos="524.7,18",
		width=0.75];
	0 -- 20	[pos="594.5,21.897 581.19,21.154 565.17,20.259 551.84,19.515"];
	2	[height=0.5,
		pos="775.74,19.815",
		width=0.75];
	1 -- 2	[pos="710.67,19.473 722.58,19.535 736.52,19.609 748.44,19.671"];
	59	[height=0.5,
		pos="780.8,63.867",
		width=0.75];
	1 -- 59	[pos="706.07,29.66 721.79,36.855 742.66,46.411 758.36,53.594"];
	26	[height=0.5,
		pos="442.31,106.12",
		width=0.75];
	20 -- 26	[pos="510.35,33.349 495.32,49.424 471.85,74.529 456.78,90.649"];
	21	[height=0.5,
		pos="432.8,150.14",
		width=0.75];
	20 -- 21	[pos="513.24,34.468 495.63,59.789 462.09,108.02 444.39,133.46"];
	3	[height=0.5,
		pos="843.53,79.191",
		width=0.75];
	2 -- 3	[pos="792.15,34.188 802.65,43.386 816.24,55.285 826.8,64.537"];
	42	[height=0.5,
		pos="763.79,107.9",
		width=0.75];
	2 -- 42	[pos="773.26,38.066 771.21,53.183 768.31,74.561 766.26,89.672"];
	34	[height=0.5,
		pos="502.83,62.013",
		width=0.75];
	26 -- 34	[pos="460.8,92.645 468.31,87.173 476.96,80.867 484.46,75.403"];
	27	[height=0.5,
		pos="422.99,229.21",
		width=0.75];
	26 -- 27	[pos="439.46,124.28 435.81,147.55 429.51,187.67 425.86,210.97"];
	4	[height=0.5,
		pos="700.37,63.909",
		width=0.75];
	3 -- 4	[pos="816.6,76.317 791.01,73.584 752.73,69.499 727.17,66.771"];
	93	[height=0.5,
		pos="971.77,196.68",
		width=0.75];
	3 -- 93	[pos="859.52,93.834 884.09,116.35 930.9,159.23 955.59,181.86"];
	41	[height=0.5,
		pos="626.88,123.13",
		width=0.75];
	34 -- 41	[pos="524.72,72.8 547.26,83.904 582.18,101.11 604.79,112.25"];
	35	[height=0.5,
		pos="370.77,185.19",
		width=0.75];
	34 -- 35	[pos="486.9,76.871 461.52,100.55 412.17,146.57 386.76,170.28"];
	5	[height=0.5,
		pos="564.87,96.016",
		width=0.75];
	4 -- 5	[pos="674.88,69.948 650.81,75.652 614.89,84.164 590.7,89.895"];
	60	[height=0.5,
		pos="733.03,198.15",
		width=0.75];
	4 -- 60	[pos="704.7,81.736 710.95,107.41 722.42,154.54 728.67,180.25"];
	49	[height=0.5,
		pos="490.52,229.15",
		width=0.75];
	41 -- 49	[pos="609.05,136.99 582.92,157.31 534.49,194.97 508.35,215.29"];
	41 -- 42	[pos="653.6,120.16 677.72,117.48 713.03,113.55 737.14,110.87"];
	6	[height=0.5,
		pos="379.69,94.48",
		width=0.75];
	5 -- 6	[pos="537.55,95.79 502.43,95.498 441.85,94.996 406.83,94.705"];
	5 -- 27	[pos="549.14,110.78 521.87,136.38 466.11,188.73 438.79,214.38"];
	53	[height=0.5,
		pos="614.99,215.4",
		width=0.75];
	49 -- 53	[pos="517.22,226.2 538.22,223.88 567.34,220.66 588.33,218.34"];
	50	[height=0.5,
		pos="466.64,361.28",
		width=0.75];
	49 -- 50	[pos="487.25,247.25 482.68,272.55 474.42,318.22 469.87,343.4"];
	7	[height=0.5,
		pos="308.73,150.34",
		width=0.75];
	6 -- 7	[pos="362.15,108.29 351.31,116.82 337.45,127.73 326.56,136.3"];
	6 -- 21	[pos="394.2,109.69 401.7,117.54 410.81,127.1 418.3,134.95"];
	58	[height=0.5,
		pos="688.94,107.91",
		width=0.75];
	53 -- 58	[pos="626.54,198.6 640.43,178.41 663.61,144.73 677.46,124.59"];
	54	[height=0.5,
		pos="574.49,310.2",
		width=0.75];
	53 -- 54	[pos="607.56,232.79 600.3,249.79 589.3,275.53 582.01,292.6"];
	8	[height=0.5,
		pos="246.68,141.05",
		width=0.75];
	7 -- 8	[pos="282.05,146.35 279.16,145.91 276.22,145.47 273.33,145.04"];
	22	[height=0.5,
		pos="358.99,267.52",
		width=0.75];
	7 -- 22	[pos="316.25,167.88 325.73,189.97 341.91,227.71 351.41,249.86"];
	67	[height=0.5,
		pos="748.87,151.91",
		width=0.75];
	58 -- 67	[pos="707.24,121.35 714.68,126.81 723.25,133.1 730.67,138.55"];
	58 -- 59	[pos="711.17,97.248 725.62,90.324 744.36,81.336 758.77,74.431"];
	9	[height=0.5,
		pos="238.05,199.53",
		width=0.75];
	8 -- 9	[pos="244,159.23 242.95,166.34 241.75,174.47 240.7,181.56"];
	8 -- 35	[pos="270.6,149.56 292.58,157.38 324.97,168.9 346.92,176.71"];
	75	[height=0.5,
		pos="691.27,286.27",
		width=0.75];
	67 -- 75	[pos="741.34,169.48 730.3,195.23 709.84,242.95 698.81,268.7"];
	68	[height=0.5,
		pos="800.06,195.96",
		width=0.75];
	67 -- 68	[pos="765.63,166.34 771.34,171.25 777.73,176.75 783.43,181.65"];
	10	[height=0.5,
		pos="231.03,257.31",
		width=0.75];
	9 -- 10	[pos="235.87,217.49 235.03,224.39 234.08,232.25 233.24,239.16"];
	36	[height=0.5,
		pos="296.64,244.09",
		width=0.75];
	9 -- 36	[pos="255.95,213.14 263.08,218.57 271.29,224.81 278.45,230.26"];
	81	[height=0.5,
		pos="827.26,242.16",
		width=0.75];
	75 -- 81	[pos="715.59,278.38 740.18,270.4 778.01,258.13 802.7,250.13"];
	76	[height=0.5,
		pos="653.86,398.32",
		width=0.75];
	75 -- 76	[pos="685.35,304.02 678.34,325.01 666.75,359.7 659.76,380.65"];
	11	[height=0.5,
		pos="206.75,309.35",
		width=0.75];
	10 -- 11	[pos="222.95,274.64 220.35,280.2 217.48,286.35 214.88,291.92"];
	37	[height=0.5,
		pos="293.08,291.22",
		width=0.75];
	10 -- 37	[pos="252.04,268.79 258.51,272.33 265.63,276.22 272.09,279.75"];
	86	[height=0.5,
		pos="1000.6,151.87",
		width=0.75];
	81 -- 86	[pos="848.86,230.91 882.25,213.51 946.02,180.29 979.25,162.98"];
	82	[height=0.5,
		pos="832.96,330.21",
		width=0.75];
	81 -- 82	[pos="828.44,260.4 829.42,275.52 830.8,296.89 831.78,311.99"];
	12	[height=0.5,
		pos="211.58,354.54",
		width=0.75];
	11 -- 12	[pos="208.68,327.47 209,330.42 209.33,333.47 209.64,336.42"];
	38	[height=0.5,
		pos="289.98,386.9",
		width=0.75];
	11 -- 38	[pos="222.8,324.3 237.63,338.12 259.54,358.54 274.26,372.26"];
	91	[height=0.5,
		pos="1116.3,201.87",
		width=0.75];
	86 -- 91	[pos="1023.4,161.75 1043.7,170.52 1073.2,183.25 1093.5,192.01"];
	87	[height=0.5,
		pos="900.62,206.86",
		width=0.75];
	86 -- 87	[pos="979.38,163.53 962.3,172.93 938.43,186.07 921.45,195.4"];
	13	[height=0.5,
		pos="227.91,408.9",
		width=0.75];
	12 -- 13	[pos="216.93,372.34 218.75,378.41 220.79,385.19 222.61,391.25"];
	23	[height=0.5,
		pos="310.13,335.26",
		width=0.75];
	12 -- 23	[pos="237.73,349.43 252.1,346.61 269.86,343.14 284.2,340.34"];
	97	[height=0.5,
		pos="1130.8,305.91",
		width=0.75];
	91 -- 97	[pos="1118.8,219.99 1121.5,238.97 1125.6,268.62 1128.2,287.65"];
	92	[height=0.5,
		pos="989.82,278.25",
		width=0.75];
	91 -- 92	[pos="1096.3,213.97 1072.7,228.19 1033.9,251.65 1010.2,265.95"];
	14	[height=0.5,
		pos="278.71,491.03",
		width=0.75];
	13 -- 14	[pos="238.43,425.92 247.21,440.11 259.65,460.21 268.37,474.32"];
	28	[height=0.5,
		pos="372.19,361.51",
		width=0.75];
	13 -- 28	[pos="252.38,400.86 278.91,392.15 321.01,378.32 347.59,369.59"];
	100	[height=0.5,
		pos="1053.9,455.81",
		width=0.75];
	97 -- 100	[pos="1122,323.11 1107.2,351.87 1077.7,409.42 1062.9,438.36"];
	98	[height=0.5,
		pos="1026.6,369.68",
		width=0.75];
	97 -- 98	[pos="1110.7,318.21 1092.2,329.5 1065,346.14 1046.6,357.42"];
	15	[height=0.5,
		pos="257.7,572.98",
		width=0.75];
	14 -- 15	[pos="274.15,508.82 270.63,522.56 265.77,541.5 262.25,555.23"];
	73	[height=0.5,
		pos="393.23,537.85",
		width=0.75];
	14 -- 73	[pos="301.88,500.51 321.75,508.63 350.23,520.27 370.09,528.39"];
	109	[height=0.5,
		pos="1013,528.81",
		width=0.75];
	100 -- 109	[pos="1044.4,472.74 1037.9,484.45 1029.2,499.97 1022.6,511.72"];
	101	[height=0.5,
		pos="937.19,421",
		width=0.75];
	100 -- 101	[pos="1029.2,448.43 1009.3,442.52 981.71,434.28 961.91,428.37"];
	16	[height=0.5,
		pos="208.98,626.38",
		width=0.75];
	15 -- 16	[pos="243.61,588.43 237.2,595.45 229.63,603.75 223.21,610.79"];
	29	[height=0.5,
		pos="340.73,493.58",
		width=0.75];
	15 -- 29	[pos="273.31,558.05 288.16,543.85 310.36,522.62 325.18,508.45"];
	114	[height=0.5,
		pos="1152.1,494.6",
		width=0.75];
	109 -- 114	[pos="1038.5,522.53 1063.6,516.36 1101.7,506.99 1126.7,500.83"];
	110	[height=0.5,
		pos="880.74,480.15",
		width=0.75];
	109 -- 110	[pos="989.36,520.11 965.44,511.31 928.64,497.77 904.63,488.94"];
	17	[height=0.5,
		pos="142.76,630.88",
		width=0.75];
	16 -- 17	[pos="182.05,628.21 178.04,628.48 173.9,628.77 169.89,629.04"];
	30	[height=0.5,
		pos="293.06,617",
		width=0.75];
	16 -- 30	[pos="236.05,623.36 245.75,622.28 256.67,621.06 266.34,619.98"];
	118	[height=0.5,
		pos="1200.3,414.6",
		width=0.75];
	114 -- 118	[pos="1162.3,477.63 1170.5,464.06 1181.9,445.11 1190.1,431.54"];
	115	[height=0.5,
		pos="1080,501.44",
		width=0.75];
	114 -- 115	[pos="1125.3,497.15 1119.3,497.71 1113.1,498.31 1107.1,498.87"];
	18	[height=0.5,
		pos="89.569,495.33",
		width=0.75];
	17 -- 18	[pos="135.91,613.44 125.76,587.55 106.79,539.23 96.556,513.14"];
	31	[height=0.5,
		pos="281.95,661.01",
		width=0.75];
	17 -- 31	[pos="168.61,636.47 193.61,641.89 231.28,650.04 256.23,655.44"];
	124	[height=0.5,
		pos="1116.7,355.35",
		width=0.75];
	118 -- 124	[pos="1181.8,401.45 1167.9,391.63 1149,378.27 1135.2,368.47"];
	119	[height=0.5,
		pos="1088.6,410.62",
		width=0.75];
	118 -- 119	[pos="1173.3,413.63 1155.8,413.01 1133.3,412.21 1115.8,411.58"];
	19	[height=0.5,
		pos="27,475.27",
		width=0.75];
	18 -- 19	[pos="65.199,487.52 60.67,486.07 55.937,484.55 51.406,483.1"];
	24	[height=0.5,
		pos="151.65,419.57",
		width=0.75];
	18 -- 24	[pos="102.73,479.27 113.27,466.41 127.97,448.47 138.5,435.62"];
	129	[height=0.5,
		pos="1247.4,343.19",
		width=0.75];
	124 -- 129	[pos="1143.5,352.86 1165.9,350.78 1197.7,347.81 1220.3,345.72"];
	125	[height=0.5,
		pos="944.6,361.39",
		width=0.75];
	124 -- 125	[pos="1089.4,356.31 1057.2,357.44 1003.9,359.31 971.74,360.44"];
	25	[height=0.5,
		pos="89.573,446.69",
		width=0.75];
	19 -- 25	[pos="49.59,464.95 55.332,462.33 61.497,459.51 67.226,456.89"];
	130	[height=0.5,
		pos="1180.6,365.71",
		width=0.75];
	129 -- 130	[pos="1223.3,351.32 1217.3,353.33 1210.9,355.5 1204.9,357.51"];
	21 -- 22	[pos="422.22,166.96 408.19,189.27 383.56,228.43 369.54,250.73"];
	44	[height=0.5,
		pos="552.94,231.53",
		width=0.75];
	21 -- 44	[pos="451.83,163.03 474.33,178.28 511.53,203.48 533.99,218.69"];
	22 -- 23	[pos="347.16,283.92 339.48,294.57 329.51,308.39 321.85,319.02"];
	22 -- 50	[pos="375.81,282.17 396.03,299.78 429.77,329.16 449.94,346.73"];
	59 -- 68	[pos="783.44,81.957 787.1,107.11 793.71,152.4 797.39,177.66"];
	59 -- 60	[pos="774.55,81.423 765.4,107.16 748.43,154.86 739.28,180.59"];
	68 -- 82	[pos="804.43,213.78 810.72,239.46 822.27,286.59 828.57,312.31"];
	69	[height=0.5,
		pos="751.44,242.17",
		width=0.75];
	68 -- 69	[pos="784.41,210.83 778.85,216.11 772.61,222.05 767.06,227.32"];
	82 -- 92	[pos="857.47,322.09 886.94,312.33 936.09,296.05 965.48,286.31"];
	83	[height=0.5,
		pos="736.62,554.26",
		width=0.75];
	82 -- 83	[pos="825.4,347.79 807.39,389.68 762.12,494.96 744.14,536.76"];
	23 -- 24	[pos="288.76,346.63 258.42,362.77 203.22,392.14 172.94,408.25"];
	104	[height=0.5,
		pos="485.72,483.92",
		width=0.75];
	23 -- 104	[pos="326.96,349.52 360.53,377.93 435.41,441.33 468.94,469.71"];
	92 -- 101	[pos="983.37,295.75 973.27,323.15 953.83,375.87 943.7,403.35"];
	92 -- 93	[pos="985.82,260.15 982.83,246.63 978.76,228.24 975.77,214.74"];
	101 -- 115	[pos="957.96,432.7 985.04,447.95 1032.1,474.47 1059.2,489.73"];
	102	[height=0.5,
		pos="732.5,352.45",
		width=0.75];
	101 -- 102	[pos="912.91,412.87 873.51,399.67 796.13,373.76 756.76,360.57"];
	115 -- 130	[pos="1092.2,485.07 1111.5,458.98 1149.1,408.26 1168.4,382.14"];
	116	[height=0.5,
		pos="1048,618.23",
		width=0.75];
	115 -- 116	[pos="1075.2,519.18 1069.1,541.13 1058.9,578.3 1052.9,600.32"];
	24 -- 25	[pos="128.89,429.51 123.49,431.87 117.73,434.39 112.33,436.75"];
	32	[height=0.5,
		pos="216.66,517.85",
		width=0.75];
	24 -- 32	[pos="162.68,436.25 174.63,454.32 193.6,483 205.58,501.1"];
	33	[height=0.5,
		pos="151.6,466.99",
		width=0.75];
	25 -- 33	[pos="114.09,454.71 118.42,456.13 122.94,457.61 127.27,459.02"];
	131	[height=0.5,
		pos="1130.7,245.87",
		width=0.75];
	130 -- 131	[pos="1173.3,348.28 1163.9,325.56 1147.4,286.05 1138,263.32"];
	42 -- 87	[pos="782.25,121.25 808.36,140.13 855.83,174.47 882.02,193.41"];
	43	[height=0.5,
		pos="670.99,169.57",
		width=0.75];
	42 -- 43	[pos="744.56,120.68 728.64,131.26 706.11,146.23 690.19,156.81"];
	27 -- 28	[pos="416.25,246.78 406.53,272.08 388.7,318.52 378.96,343.87"];
	27 -- 43	[pos="448.6,223.05 496.24,211.59 597.98,187.13 645.52,175.69"];
	87 -- 131	[pos="927.01,211.34 971.28,218.84 1060,233.88 1104.3,241.39"];
	88	[height=0.5,
		pos="820.56,384.24",
		width=0.75];
	87 -- 88	[pos="892.8,224.19 877.49,258.1 843.75,332.87 828.42,366.84"];
	28 -- 29	[pos="367.95,379.32 361.94,404.53 351.03,450.35 345.01,475.63"];
	55	[height=0.5,
		pos="531.96,436.91",
		width=0.75];
	28 -- 55	[pos="394.4,371.99 424.84,386.36 479.2,412.01 509.67,426.39"];
	29 -- 30	[pos="333.9,511.27 324.84,534.73 308.94,575.91 299.88,599.35"];
	63	[height=0.5,
		pos="455.24,527.97",
		width=0.75];
	29 -- 63	[pos="365.58,501.05 384.79,506.81 411.25,514.76 430.44,520.53"];
	30 -- 31	[pos="288.54,634.9 287.87,637.56 287.18,640.31 286.5,642.98"];
	39	[height=0.5,
		pos="319.72,537.63",
		width=0.75];
	30 -- 39	[pos="298.98,599.38 303.4,586.23 309.41,568.34 313.82,555.2"];
	31 -- 32	[pos="274.07,643.74 261.52,616.22 237.13,562.74 224.56,535.18"];
	65	[height=0.5,
		pos="415.75,656.7",
		width=0.75];
	31 -- 65	[pos="309.03,660.13 332.24,659.39 365.51,658.31 388.72,657.57"];
	32 -- 33	[pos="198.88,503.95 189.7,496.78 178.53,488.05 169.36,480.87"];
	51	[height=0.5,
		pos="392.54,449.57",
		width=0.75];
	32 -- 51	[pos="240.01,508.79 273.65,495.72 335.39,471.75 369.09,458.67"];
	40	[height=0.5,
		pos="213.67,471.58",
		width=0.75];
	33 -- 40	[pos="178.64,468.99 181.26,469.18 183.91,469.38 186.52,469.57"];
	132	[height=0.5,
		pos="1192.7,251.9",
		width=0.75];
	131 -- 132	[pos="1157.7,248.5 1160.5,248.76 1163.3,249.03 1166,249.3"];
	35 -- 36	[pos="353.2,199.15 341.39,208.54 325.87,220.86 314.08,230.23"];
	45	[height=0.5,
		pos="441.09,273.24",
		width=0.75];
	35 -- 45	[pos="383.67,201.34 396.35,217.23 415.61,241.34 428.27,257.19"];
	36 -- 37	[pos="295.28,262.18 295.01,265.71 294.73,269.41 294.46,272.95"];
	46	[height=0.5,
		pos="423.97,317.26",
		width=0.75];
	36 -- 46	[pos="317.1,255.85 340.72,269.42 379.36,291.63 403.14,305.29"];
	37 -- 38	[pos="292.5,309.21 291.95,326.21 291.12,351.58 290.57,368.66"];
	72	[height=0.5,
		pos="466.68,434.81",
		width=0.75];
	37 -- 72	[pos="310.04,305.25 343.23,332.7 416.4,393.22 449.65,420.72"];
	38 -- 39	[pos="293.51,404.78 299.23,433.79 310.48,490.78 316.2,519.77"];
	47	[height=0.5,
		pos="404.67,405.55",
		width=0.75];
	38 -- 47	[pos="316.29,391.18 334.81,394.19 359.51,398.21 378.09,401.23"];
	93 -- 98	[pos="977.43,214.55 987.96,247.78 1010.4,318.75 1021,351.91"];
	94	[height=0.5,
		pos="894.98,286.15",
		width=0.75];
	93 -- 94	[pos="958.05,212.68 944.07,228.96 922.53,254.06 908.59,270.29"];
	98 -- 119	[pos="1045.9,382.41 1053.3,387.29 1061.7,392.86 1069.1,397.75"];
	99	[height=0.5,
		pos="931.02,528.33",
		width=0.75];
	98 -- 99	[pos="1016.4,386.66 997.96,417.19 959.51,481.03 941.17,511.47"];
	39 -- 40	[pos="299.77,525.21 280.81,513.4 252.46,495.74 233.52,483.95"];
	64	[height=0.5,
		pos="488.92,616.05",
		width=0.75];
	39 -- 64	[pos="342.19,548.04 374.64,563.08 434.28,590.72 466.63,605.72"];
	119 -- 132	[pos="1099.6,393.93 1119.5,363.53 1161.6,299.43 1181.6,268.84"];
	120	[height=0.5,
		pos="944.14,467.26",
		width=0.75];
	119 -- 120	[pos="1065.1,419.84 1038.2,430.38 994.53,447.51 967.66,458.04"];
	48	[height=0.5,
		pos="301.19,446.97",
		width=0.75];
	40 -- 48	[pos="238.98,464.46 250.69,461.17 264.56,457.27 276.23,453.99"];
	133	[height=0.5,
		pos="1042.9,234.06",
		width=0.75];
	132 -- 133	[pos="1166,248.71 1138.8,245.47 1096.9,240.49 1069.7,237.25"];
	43 -- 44	[pos="649.61,180.79 628.21,192.02 595.5,209.19 574.16,220.39"];
	43 -- 69	[pos="687.27,184.26 701.22,196.86 721.23,214.91 735.18,227.5"];
	44 -- 45	[pos="529.22,240.38 510.24,247.46 483.75,257.33 464.77,264.41"];
	44 -- 54	[pos="557.83,249.38 561.36,262.26 566.1,279.56 569.62,292.42"];
	60 -- 94	[pos="754.2,209.66 785.24,226.52 842.76,257.78 873.8,274.64"];
	61	[height=0.5,
		pos="602.51,354.24",
		width=0.75];
	60 -- 61	[pos="719.8,213.98 694.78,243.9 640.82,308.42 615.78,338.37"];
	45 -- 46	[pos="434.22,290.89 433.11,293.76 431.95,296.74 430.84,299.61"];
	70	[height=0.5,
		pos="627.45,266.03",
		width=0.75];
	45 -- 70	[pos="468.19,272.19 503.52,270.83 564.97,268.45 600.32,267.08"];
	46 -- 47	[pos="420.07,335.13 416.72,350.45 411.92,372.4 408.57,387.71"];
	71	[height=0.5,
		pos="528.68,392.89",
		width=0.75];
	46 -- 71	[pos="442.69,330.78 461.75,344.55 491.12,365.77 510.12,379.49"];
	47 -- 48	[pos="381.45,414.85 364.53,421.62 341.68,430.76 324.69,437.56"];
	103	[height=0.5,
		pos="718.05,458.85",
		width=0.75];
	47 -- 103	[pos="430.85,410 489.84,420.04 632.6,444.32 691.72,454.38"];
	94 -- 133	[pos="919.08,277.67 946.59,267.98 991.33,252.23 1018.8,242.54"];
	95	[height=0.5,
		pos="758.54,398.76",
		width=0.75];
	94 -- 95	[pos="877.98,300.18 851.83,321.76 802.04,362.87 775.76,384.55"];
	52	[height=0.5,
		pos="355.1,581.9",
		width=0.75];
	48 -- 52	[pos="308.24,464.61 318.57,490.47 337.72,538.39 348.05,564.26"];
	134	[height=0.5,
		pos="1068.6,283.39",
		width=0.75];
	133 -- 134	[pos="1051.9,251.32 1054.4,256.09 1057.1,261.28 1059.6,266.07"];
	50 -- 51	[pos="453.39,377.06 439.99,393.03 419.38,417.59 405.92,433.62"];
	50 -- 61	[pos="493.81,359.87 517.51,358.64 551.71,356.87 575.39,355.64"];
	69 -- 125	[pos="771.38,254.48 808.49,277.38 887.74,326.3 924.77,349.15"];
	69 -- 70	[pos="725.44,247.17 704.28,251.24 674.56,256.97 653.41,261.04"];
	51 -- 52	[pos="387.49,467.41 380.34,492.67 367.36,538.58 360.19,563.91"];
	56	[height=0.5,
		pos="516.96,572.03",
		width=0.75];
	51 -- 56	[pos="407.8,464.58 431.68,488.09 477.62,533.31 501.58,556.89"];
	125 -- 134	[pos="964.26,349.04 987.35,334.52 1025.4,310.56 1048.7,295.95"];
	126	[height=0.5,
		pos="791.55,472.28",
		width=0.75];
	125 -- 126	[pos="926.14,374.77 896.72,396.08 839.54,437.52 810.08,458.86"];
	57	[height=0.5,
		pos="426.86,612.64",
		width=0.75];
	52 -- 57	[pos="378.2,591.79 386.4,595.3 395.61,599.25 403.81,602.76"];
	135	[height=0.5,
		pos="1006.6,322.29",
		width=0.75];
	134 -- 135	[pos="1048.7,295.91 1041.6,300.36 1033.6,305.35 1026.5,309.79"];
	54 -- 88	[pos="599.44,317.71 646.73,331.94 748.86,362.67 795.91,376.83"];
	54 -- 55	[pos="568.58,327.82 560.5,351.89 546.08,394.83 537.96,419.03"];
	88 -- 120	[pos="839.6,397.03 862.76,412.59 901.62,438.7 924.88,454.32"];
	89	[height=0.5,
		pos="779.83,598.3",
		width=0.75];
	88 -- 89	[pos="817.16,402.12 809.49,442.42 790.94,539.93 783.25,580.32"];
	55 -- 56	[pos="529.93,455.13 527.07,480.92 521.87,527.8 519,553.67"];
	62	[height=0.5,
		pos="593.97,475.59",
		width=0.75];
	55 -- 62	[pos="551.92,449.36 559,453.78 566.96,458.75 574.04,463.16"];
	120 -- 135	[pos="951.68,449.78 963.69,421.91 987.03,367.74 999.06,339.84"];
	121	[height=0.5,
		pos="969.74,575.79",
		width=0.75];
	120 -- 121	[pos="948.37,485.18 953.11,505.29 960.76,537.73 965.51,557.84"];
	56 -- 57	[pos="494.22,582.28 480.46,588.48 462.98,596.36 449.28,602.54"];
	107	[height=0.5,
		pos="684.66,679.82",
		width=0.75];
	56 -- 107	[pos="536.53,584.61 568.84,605.38 632.99,646.61 665.22,667.32"];
	66	[height=0.5,
		pos="406.62,700.73",
		width=0.75];
	57 -- 66	[pos="422.77,630.47 419.26,645.75 414.22,667.66 410.71,682.93"];
	136	[height=0.5,
		pos="779.13,286.19",
		width=0.75];
	135 -- 136	[pos="980.08,318.08 936.24,311.12 849.22,297.31 805.5,290.37"];
	61 -- 62	[pos="601.23,372.4 599.62,395.28 596.87,434.36 595.25,457.3"];
	61 -- 136	[pos="625.96,345.2 659.74,332.18 721.74,308.3 755.58,295.26"];
	62 -- 63	[pos="570.43,484.47 544.92,494.11 504.45,509.39 478.89,519.04"];
	105	[height=0.5,
		pos="612.13,563.62",
		width=0.75];
	62 -- 105	[pos="597.73,493.83 600.87,509.04 605.31,530.59 608.43,545.71"];
	63 -- 64	[pos="462.06,545.8 467.94,561.18 476.39,583.27 482.23,598.55"];
	78	[height=0.5,
		pos="552.42,641.69",
		width=0.75];
	63 -- 78	[pos="468.76,543.78 487.32,565.51 520.52,604.36 539.02,626.01"];
	64 -- 65	[pos="468.15,627.59 458.27,633.08 446.47,639.63 436.58,645.13"];
	64 -- 83	[pos="514.5,609.67 562.09,597.8 663.7,572.45 711.18,560.61"];
	65 -- 66	[pos="412.04,674.61 411.49,677.28 410.92,680.03 410.36,682.7"];
	79	[height=0.5,
		pos="540.07,689.58",
		width=0.75];
	65 -- 79	[pos="440.91,663.35 462.48,669.06 493.39,677.23 514.95,682.93"];
	74	[height=0.5,
		pos="478.04,661.69",
		width=0.75];
	66 -- 74	[pos="427.66,689.23 436.88,684.19 447.67,678.29 456.9,673.25"];
	137	[height=0.5,
		pos="882.58,374.24",
		width=0.75];
	136 -- 137	[pos="796.21,300.73 815.49,317.14 846.66,343.67 865.81,359.97"];
	70 -- 71	[pos="614.94,282.1 596.04,306.37 560.42,352.13 541.4,376.56"];
	70 -- 102	[pos="644.8,280.3 664.38,296.41 696.03,322.45 715.48,338.44"];
	71 -- 72	[pos="509.4,405.93 501.87,411.02 493.24,416.85 485.73,421.93"];
	71 -- 95	[pos="555.95,393.59 600.19,394.72 687.09,396.94 731.31,398.07"];
	72 -- 73	[pos="454.87,451.36 441.17,470.59 418.69,502.12 405,521.33"];
	72 -- 76	[pos="492.7,429.73 528.36,422.78 592.05,410.37 627.75,403.41"];
	73 -- 74	[pos="404.49,554.29 420.71,577.98 450.48,621.45 466.73,645.18"];
	77	[height=0.5,
		pos="552.42,519.61",
		width=0.75];
	73 -- 77	[pos="419.87,534.79 449.26,531.43 496.27,526.04 525.69,522.67"];
	102 -- 137	[pos="758.99,356.29 786.34,360.26 828.76,366.43 856.11,370.4"];
	102 -- 103	[pos="730.05,370.5 727.39,390.06 723.18,421.11 720.51,440.71"];
	80	[height=0.5,
		pos="530.6,733.78",
		width=0.75];
	74 -- 80	[pos="489.97,678.05 498.57,689.85 510.13,705.7 518.72,717.49"];
	138	[height=0.5,
		pos="826.14,428.26",
		width=0.75];
	137 -- 138	[pos="866.86,389.29 859.03,396.78 849.59,405.81 841.78,413.29"];
	76 -- 77	[pos="640.6,414.18 621.16,437.42 585.13,480.5 565.68,503.75"];
	139	[height=0.5,
		pos="656.03,442.34",
		width=0.75];
	76 -- 139	[pos="654.75,416.48 654.88,419.04 655.01,421.67 655.13,424.22"];
	95 -- 110	[pos="777.91,411.66 800.79,426.9 838.63,452.1 861.47,467.32"];
	96	[height=0.5,
		pos="827.72,530.69",
		width=0.75];
	95 -- 96	[pos="767.59,416.01 780.84,441.29 805.41,488.15 818.67,513.44"];
	77 -- 78	[pos="552.42,537.62 552.42,560.71 552.42,600.49 552.42,623.6"];
	106	[height=0.5,
		pos="663.12,607.63",
		width=0.75];
	77 -- 106	[pos="570.2,533.75 590.98,550.28 625.14,577.44 645.74,593.82"];
	78 -- 79	[pos="547.82,659.52 546.8,663.46 545.73,667.63 544.71,671.57"];
	112	[height=0.5,
		pos="860.37,686.35",
		width=0.75];
	78 -- 112	[pos="578.94,645.54 637.15,653.98 775.55,674.05 833.8,682.5"];
	110 -- 138	[pos="864.95,465.14 857.64,458.2 848.99,449.97 841.71,443.06"];
	111	[height=0.5,
		pos="822.95,642.31",
		width=0.75];
	110 -- 111	[pos="874.45,497.81 863.33,529.01 840.35,593.49 829.24,624.67"];
	79 -- 80	[pos="536.22,707.56 535.64,710.23 535.05,712.99 534.48,715.67"];
	84	[height=0.5,
		pos="622.64,695.66",
		width=0.75];
	79 -- 84	[pos="567.11,691.57 576.23,692.24 586.41,692.99 595.54,693.67"];
	85	[height=0.5,
		pos="627.59,739.98",
		width=0.75];
	80 -- 85	[pos="557.62,735.51 570.96,736.36 587.02,737.39 600.38,738.24"];
	138 -- 139	[pos="799.18,430.49 767.33,433.13 714.65,437.49 682.86,440.12"];
	83 -- 84	[pos="723.76,570.21 701.87,597.36 657.6,652.29 635.62,679.56"];
	122	[height=0.5,
		pos="922.58,701.26",
		width=0.75];
	83 -- 122	[pos="754.11,568.09 789.56,596.11 869.48,659.29 905,687.36"];
	84 -- 85	[pos="624.66,713.69 624.96,716.37 625.26,719.14 625.56,721.83"];
	84 -- 89	[pos="642.55,683.33 672.62,664.71 729.32,629.58 759.59,610.84"];
	90	[height=0.5,
		pos="760.9,685.79",
		width=0.75];
	85 -- 90	[pos="650.81,730.54 675.13,720.66 713.11,705.22 737.5,695.3"];
	140	[height=0.5,
		pos="729.49,504.02",
		width=0.75];
	139 -- 140	[pos="673.07,456.64 684.93,466.61 700.7,479.84 712.55,489.79"];
	103 -- 126	[pos="744.17,463.63 750.94,464.86 758.23,466.19 765.02,467.43"];
	103 -- 104	[pos="690.94,461.78 646.18,466.61 557.31,476.19 512.65,481.01"];
	89 -- 90	[pos="775.91,616.43 772.66,631.44 768.06,652.68 764.82,667.69"];
	146	[height=0.5,
		pos="843.95,743.44",
		width=0.75];
	89 -- 146	[pos="787.57,615.81 799.89,643.7 823.84,697.94 836.18,725.87"];
	126 -- 140	[pos="769.85,483.38 763.83,486.46 757.31,489.79 751.29,492.87"];
	127	[height=0.5,
		pos="985.4,655.67",
		width=0.75];
	126 -- 127	[pos="807.42,487.29 843.86,521.76 933.2,606.29 969.59,640.71"];
	90 -- 96	[pos="768.43,668.3 781.27,638.51 807.22,578.26 820.11,548.35"];
	141	[height=0.5,
		pos="674.18,548.02",
		width=0.75];
	140 -- 141	[pos="711.99,517.94 705.53,523.08 698.22,528.9 691.76,534.04"];
	104 -- 141	[pos="509.97,492.17 546.16,504.48 613.89,527.51 650.02,539.8"];
	104 -- 105	[pos="505.47,496.37 529.08,511.26 568.37,536.03 592.1,550.99"];
	96 -- 99	[pos="854.86,530.07 869.92,529.72 888.61,529.3 903.7,528.95"];
	142	[height=0.5,
		pos="614.56,651.66",
		width=0.75];
	141 -- 142	[pos="664.34,565.14 653.29,584.34 635.47,615.31 624.42,634.52"];
	105 -- 142	[pos="612.63,581.86 613.05,596.97 613.64,618.34 614.06,633.44"];
	105 -- 106	[pos="628.82,578.03 634.51,582.95 640.87,588.44 646.56,593.34"];
	108	[height=0.5,
		pos="921.76,625",
		width=0.75];
	99 -- 108	[pos="929.28,546.51 927.62,563.8 925.15,589.64 923.49,606.9"];
	143	[height=0.5,
		pos="775.17,729.83",
		width=0.75];
	142 -- 143	[pos="636.56,662.37 667.23,677.29 722.51,704.2 753.18,719.13"];
	106 -- 111	[pos="688.8,613.21 718.53,619.66 767.25,630.23 797.07,636.7"];
	106 -- 107	[pos="668.44,625.48 671.76,636.58 676.01,650.82 679.32,661.93"];
	111 -- 143	[pos="813.51,659.6 805.08,675.04 792.8,697.53 784.42,712.87"];
	111 -- 112	[pos="836.46,658.21 839.89,662.25 843.58,666.59 847,670.62"];
	107 -- 108	[pos="710.49,673.85 756.1,663.3 850.38,641.5 895.97,630.96"];
	147	[height=0.5,
		pos="825.2,795.6",
		width=0.75];
	107 -- 147	[pos="701.9,694.01 728.87,716.24 780.77,758.99 807.83,781.29"];
	113	[height=0.5,
		pos="1005.1,706.39",
		width=0.75];
	108 -- 113	[pos="937.06,639.93 952.01,654.52 974.65,676.62 989.67,691.28"];
	144	[height=0.5,
		pos="906.03,756.2",
		width=0.75];
	143 -- 144	[pos="801.02,735.04 823.81,739.63 856.87,746.3 879.78,750.91"];
	112 -- 116	[pos="884.13,677.72 920.12,664.66 988.07,639.98 1024.1,626.89"];
	112 -- 113	[pos="886.92,690.03 912.88,693.62 952.2,699.06 978.27,702.67"];
	116 -- 121	[pos="1027,606.86 1015.8,600.77 1002,593.29 990.77,587.2"];
	117	[height=0.5,
		pos="1097.4,705.65",
		width=0.75];
	116 -- 117	[pos="1057.5,635.08 1066.2,650.46 1079,673.09 1087.7,688.55"];
	121 -- 127	[pos="973.3,593.92 975.86,606.99 979.3,624.56 981.86,637.62"];
	121 -- 122	[pos="963.09,593.5 954.1,617.42 938.18,659.78 929.21,683.64"];
	127 -- 144	[pos="972.65,671.82 957.84,690.58 933.55,721.35 918.75,740.09"];
	128	[height=0.5,
		pos="1000.2,809.92",
		width=0.75];
	127 -- 128	[pos="987.12,673.67 989.95,703.23 995.55,761.76 998.4,791.56"];
	113 -- 117	[pos="1032.3,706.17 1044.2,706.07 1058.2,705.96 1070.1,705.87"];
	145	[height=0.5,
		pos="936.22,800.24",
		width=0.75];
	144 -- 145	[pos="917.27,772.6 919.75,776.22 922.38,780.06 924.87,783.68"];
	122 -- 145	[pos="925.09,719.42 927.55,737.28 931.28,764.38 933.73,782.2"];
	123	[height=0.5,
		pos="1044,752.54",
		width=0.75];
	122 -- 123	[pos="945.43,710.91 967,720.02 999.2,733.61 1020.9,742.76"];
	117 -- 123	[pos="1080.8,720.23 1074.3,725.93 1066.9,732.45 1060.4,738.13"];
	145 -- 146	[pos="916.2,787.92 900.72,778.39 879.4,765.26 863.93,755.74"];
	123 -- 128	[pos="1031.6,768.83 1025.6,776.65 1018.5,785.99 1012.5,793.79"];
	146 -- 147	[pos="837.6,761.1 835.65,766.54 833.5,772.52 831.54,777.96"];
	148	[height=0.5,
		pos="931.31,854.28",
		width=0.75];
	128 -- 148	[pos="980.61,822.51 971.39,828.46 960.4,835.54 951.15,841.5"];
	147 -- 148	[pos="846.17,807.2 864.77,817.48 891.8,832.43 910.39,842.72"];
}
