graph {
	graph [bb="0,0,433.02,441.4",
		outputorder=edgesfirst,
		overlap=prism,
		size="50,50!",
		start=1047
	];
	node [label="\N"];
	1	[height=0.5,
		pos="179.9,211.6",
		width=0.75];
	2	[height=0.5,
		pos="323.52,179.12",
		width=0.75];
	1 -- 2	[pos="205.58,205.79 231.56,199.92 271.51,190.89 297.58,184.99"];
	5	[height=0.5,
		pos="336.82,275.76",
		width=0.75];
	1 -- 5	[pos="203.05,221.07 232.72,233.2 283.86,254.1 313.57,266.25"];
	3	[height=0.5,
		pos="256.89,152.04",
		width=0.75];
	1 -- 3	[pos="197.76,197.79 210.2,188.17 226.72,175.39 239.13,165.78"];
	4	[height=0.5,
		pos="279.8,319.76",
		width=0.75];
	1 -- 4	[pos="194.21,227.1 213.21,247.66 246.54,283.75 265.52,304.29"];
	8	[height=0.5,
		pos="27,268.84",
		width=0.75];
	1 -- 8	[pos="156.35,220.42 127.61,231.18 79.327,249.25 50.582,260.01"];
	2 -- 5	[pos="326.02,197.3 328.4,214.58 331.95,240.41 334.33,257.66"];
	2 -- 4	[pos="317.98,196.94 309.57,223.99 293.68,275.13 285.3,302.09"];
	7	[height=0.5,
		pos="350.39,18",
		width=0.75];
	2 -- 7	[pos="326.55,160.95 331.71,130.01 342.15,67.418 347.33,36.351"];
	6	[height=0.5,
		pos="406.02,423.4",
		width=0.75];
	5 -- 6	[pos="344.89,292.98 358.16,321.28 384.42,377.3 397.79,405.83"];
	3 -- 5	[pos="267.67,168.73 282.93,192.34 310.65,235.26 325.95,258.94"];
	3 -- 4	[pos="259.34,169.99 263.74,202.19 272.93,269.4 277.34,301.69"];
	3 -- 7	[pos="268.36,135.61 286.3,109.88 320.83,60.38 338.84,34.571"];
	4 -- 6	[pos="296.83,333.74 320.92,353.52 364.71,389.47 388.87,409.31"];
	0	[height=0.5,
		pos="189.49,283.01",
		width=0.75];
	0 -- 2	[pos="207.29,269.21 232.92,249.34 279.97,212.88 305.65,192.98"];
	0 -- 5	[pos="216.51,281.68 243.01,280.37 283.19,278.4 309.72,277.09"];
	0 -- 3	[pos="198.3,265.89 211.22,240.79 235.16,194.27 248.08,169.17"];
	0 -- 4	[pos="212.75,292.47 226.23,297.96 243.15,304.85 256.63,310.33"];
	0 -- 8	[pos="162.66,280.67 132.55,278.04 83.995,273.81 53.872,271.18"];
}
