graph {
	graph [bb="0,0,292.11,260.98",
		outputorder=edgesfirst,
		overlap=prism,
		size="50,50!",
		start=4663
	];
	node [label="\N"];
	0	[height=0.5,
		pos="171.69,86.337",
		width=0.75];
	2	[height=0.5,
		pos="171.68,174.43",
		width=0.75];
	0 -- 2	[pos="171.69,104.59 171.69,119.71 171.69,141.09 171.69,156.2"];
	1	[height=0.5,
		pos="212.77,18",
		width=0.75];
	0 -- 1	[pos="181.85,69.445 188.12,59.01 196.15,45.659 202.45,35.173"];
	4	[height=0.5,
		pos="265.11,88.553",
		width=0.75];
	0 -- 4	[pos="198.71,86.978 211,87.27 225.51,87.614 237.83,87.906"];
	3	[height=0.5,
		pos="212.71,242.98",
		width=0.75];
	0 -- 3	[pos="176.4,104.31 184.31,134.52 200.19,195.15 208.06,225.22"];
	6	[height=0.5,
		pos="27,130.45",
		width=0.75];
	0 -- 6	[pos="146.82,93.921 120.32,102 78.597,114.72 52.033,122.82"];
	7	[height=0.5,
		pos="43.333,43.64",
		width=0.75];
	0 -- 7	[pos="147.25,78.206 124.41,70.608 90.498,59.329 67.688,51.741"];
	5	[height=0.5,
		pos="264.78,172.3",
		width=0.75];
	2 -- 5	[pos="199.11,173.8 211.23,173.52 225.45,173.2 237.55,172.92"];
	2 -- 3	[pos="181.82,191.37 188.18,202 196.35,215.64 202.69,226.23"];
	2 -- 6	[pos="146.81,166.87 120.31,158.81 78.593,146.13 52.032,138.06"];
	10	[height=0.5,
		pos="43.111,216.93",
		width=0.75];
	2 -- 10	[pos="147.2,182.52 124.32,190.08 90.354,201.31 67.506,208.87"];
	1 -- 2	[pos="208.06,35.944 200.13,66.118 184.23,126.66 176.34,156.69"];
	1 -- 4	[pos="224.91,34.364 233.36,45.762 244.59,60.9 253.03,72.278"];
	1 -- 5	[pos="218.74,35.701 228.72,65.307 248.68,124.55 258.72,154.33"];
	1 -- 7	[pos="186.3,22.006 154.56,26.809 101.68,34.811 69.901,39.62"];
	11	[height=0.5,
		pos="115.39,35.578",
		width=0.75];
	1 -- 11	[pos="186.68,22.711 172.7,25.233 155.54,28.33 141.56,30.854"];
	4 -- 5	[pos="265.04,106.73 264.98,120.77 264.9,140.13 264.85,154.17"];
	4 -- 11	[pos="241.05,80.042 213.11,70.156 167.3,53.945 139.39,44.068"];
	8	[height=0.5,
		pos="118.82,130.42",
		width=0.75];
	4 -- 8	[pos="240.29,95.655 213.39,103.35 170.7,115.57 143.76,123.28"];
	5 -- 8	[pos="239.69,165.1 212.95,157.43 170.87,145.36 144.07,137.67"];
	9	[height=0.5,
		pos="115.45,225.2",
		width=0.75];
	5 -- 9	[pos="240.78,180.8 212.92,190.67 167.22,206.86 139.38,216.72"];
	3 -- 4	[pos="218.72,225.27 228.77,195.64 248.89,136.35 259.01,106.54"];
	3 -- 5	[pos="224.79,226.59 233.2,215.17 244.37,200.01 252.77,188.61"];
	3 -- 10	[pos="186.21,238.91 154.35,234.02 101.2,225.85 69.425,220.97"];
	3 -- 9	[pos="186.65,238.22 172.69,235.66 155.55,232.53 141.58,229.98"];
	6 -- 10	[pos="30.338,148.37 33.103,163.21 37.013,184.2 39.777,199.04"];
	6 -- 7	[pos="30.384,112.47 33.187,97.566 37.151,76.498 39.953,61.605"];
	6 -- 11	[pos="41.596,114.79 58.072,97.102 84.705,68.516 101.07,50.953"];
	6 -- 9	[pos="41.605,146.1 58.091,163.76 84.739,192.3 101.11,209.84"];
	7 -- 10	[pos="43.309,61.858 43.267,95.14 43.177,165.4 43.135,198.7"];
	7 -- 11	[pos="70.166,40.638 76.088,39.976 82.365,39.273 88.298,38.61"];
	7 -- 8	[pos="57.178,59.557 70.798,75.215 91.472,98.982 105.06,114.61"];
	8 -- 10	[pos="104.93,146.29 91.273,161.9 70.539,185.59 56.909,201.16"];
	8 -- 11	[pos="118.16,112.13 117.55,95.34 116.66,70.586 116.05,53.809"];
	8 -- 9	[pos="118.17,148.69 117.57,165.48 116.69,190.21 116.09,206.98"];
	9 -- 10	[pos="88.511,222.12 82.406,221.42 75.924,220.68 69.828,219.98"];
	9 -- 11	[pos="115.44,207.01 115.43,170.77 115.41,89.903 115.4,53.704"];
}
