graph {
	graph [bb="0,0,1286.7,875.91",
		outputorder=edgesfirst,
		overlap=prism,
		size="50,50!",
		start=5265
	];
	node [label="\N"];
	0	[height=0.5,
		pos="625.01,27.236",
		width=0.75];
	1	[height=0.5,
		pos="534.33,18",
		width=0.75];
	0 -- 1	[pos="598.29,24.515 586.59,23.323 572.88,21.927 561.17,20.734"];
	20	[height=0.5,
		pos="726.7,45.328",
		width=0.75];
	0 -- 20	[pos="651.2,31.895 666.38,34.596 685.43,37.986 700.6,40.685"];
	2	[height=0.5,
		pos="458.13,47.095",
		width=0.75];
	1 -- 2	[pos="510.64,27.046 501.46,30.549 490.98,34.552 481.81,38.054"];
	59	[height=0.5,
		pos="464.71,98.933",
		width=0.75];
	1 -- 59	[pos="520.57,33.99 508.29,48.27 490.4,69.066 478.19,83.251"];
	26	[height=0.5,
		pos="781.11,132.06",
		width=0.75];
	20 -- 26	[pos="737.19,62.051 746.82,77.41 761.03,100.05 770.65,115.39"];
	21	[height=0.5,
		pos="819.04,176.09",
		width=0.75];
	20 -- 21	[pos="738.21,61.625 755.9,86.683 789.61,134.41 807.39,159.59"];
	3	[height=0.5,
		pos="381.72,97.293",
		width=0.75];
	2 -- 3	[pos="438.85,59.762 427.27,67.372 412.58,77.021 401,84.63"];
	42	[height=0.5,
		pos="487.99,142.97",
		width=0.75];
	2 -- 42	[pos="463.75,65.128 469.12,82.376 477.17,108.23 482.5,125.34"];
	34	[height=0.5,
		pos="788.75,88.052",
		width=0.75];
	26 -- 34	[pos="784.22,114.16 784.68,111.5 785.16,108.75 785.62,106.08"];
	27	[height=0.5,
		pos="875.64,222.69",
		width=0.75];
	26 -- 27	[pos="796.72,147.03 814.23,163.82 842.48,190.9 860,207.7"];
	4	[height=0.5,
		pos="538.53,95.62",
		width=0.75];
	3 -- 4	[pos="409.04,97.002 437.82,96.695 482.87,96.214 511.53,95.908"];
	93	[height=0.5,
		pos="338.43,172.13",
		width=0.75];
	3 -- 93	[pos="371.9,114.27 364.81,126.52 355.29,142.98 348.22,155.22"];
	41	[height=0.5,
		pos="639.58,137.78",
		width=0.75];
	34 -- 41	[pos="764.45,96.152 736.71,105.4 691.6,120.44 663.87,129.68"];
	35	[height=0.5,
		pos="900.02,178.65",
		width=0.75];
	34 -- 35	[pos="806.14,102.21 827.04,119.23 861.91,147.62 882.76,164.59"];
	5	[height=0.5,
		pos="713.26,131.99",
		width=0.75];
	4 -- 5	[pos="564.31,100.99 597.35,107.86 654.29,119.72 687.38,126.6"];
	60	[height=0.5,
		pos="532.6,187",
		width=0.75];
	4 -- 60	[pos="537.36,113.67 536.32,129.69 534.81,152.97 533.77,168.98"];
	49	[height=0.5,
		pos="813.58,220.11",
		width=0.75];
	41 -- 49	[pos="661.62,148.2 695,164 758.01,193.82 791.45,209.63"];
	41 -- 42	[pos="612.48,138.71 584.97,139.65 542.63,141.1 515.11,142.04"];
	6	[height=0.5,
		pos="856.78,108.82",
		width=0.75];
	5 -- 6	[pos="739.59,127.74 765.32,123.59 804.3,117.3 830.14,113.12"];
	5 -- 27	[pos="734.16,143.66 765.34,161.08 823.69,193.67 854.82,211.06"];
	53	[height=0.5,
		pos="689.53,252.24",
		width=0.75];
	49 -- 53	[pos="788.18,226.69 766.77,232.23 736.3,240.13 714.9,245.67"];
	50	[height=0.5,
		pos="810.32,342.19",
		width=0.75];
	49 -- 50	[pos="813.1,238.12 812.48,261.2 811.42,300.99 810.81,324.1"];
	7	[height=0.5,
		pos="963.47,153.02",
		width=0.75];
	6 -- 7	[pos="879.93,118.41 897.83,125.82 922.48,136.04 940.36,143.44"];
	6 -- 21	[pos="847.26,125.8 841.58,135.92 834.4,148.73 828.7,158.89"];
	58	[height=0.5,
		pos="561.47,142.89",
		width=0.75];
	53 -- 58	[pos="672.79,237.95 648.25,216.99 602.76,178.15 578.21,157.19"];
	54	[height=0.5,
		pos="748.29,307",
		width=0.75];
	53 -- 54	[pos="705.28,266.92 713.71,274.77 724.06,284.42 732.5,292.29"];
	8	[height=0.5,
		pos="1030,144.09",
		width=0.75];
	7 -- 8	[pos="990.15,149.44 994.48,148.86 998.98,148.25 1003.3,147.67"];
	22	[height=0.5,
		pos="929.37,266.72",
		width=0.75];
	7 -- 22	[pos="958.14,170.78 951.77,192.02 941.17,227.35 934.77,248.7"];
	67	[height=0.5,
		pos="593.13,231.64",
		width=0.75];
	58 -- 67	[pos="567.72,160.43 573.24,175.88 581.24,198.3 586.78,213.84"];
	58 -- 59	[pos="539.03,132.7 523.39,125.6 502.63,116.16 487.03,109.07"];
	9	[height=0.5,
		pos="1051.1,205.93",
		width=0.75];
	8 -- 9	[pos="1036,161.65 1038.8,169.93 1042.2,179.8 1045,188.11"];
	8 -- 35	[pos="1004.6,150.84 981.73,156.93 948.21,165.84 925.33,171.92"];
	75	[height=0.5,
		pos="582.39,319.07",
		width=0.75];
	67 -- 75	[pos="590.91,249.75 589.06,264.76 586.46,285.98 584.61,300.98"];
	68	[height=0.5,
		pos="470.56,230.99",
		width=0.75];
	67 -- 68	[pos="565.93,231.49 545.62,231.38 517.98,231.24 497.68,231.13"];
	10	[height=0.5,
		pos="1064.8,276.32",
		width=0.75];
	9 -- 10	[pos="1054.6,224.05 1056.7,234.48 1059.2,247.55 1061.2,258.01"];
	36	[height=0.5,
		pos="991.37,249.95",
		width=0.75];
	9 -- 36	[pos="1032.9,219.37 1025.5,224.84 1016.9,231.13 1009.5,236.59"];
	81	[height=0.5,
		pos="456.78,275",
		width=0.75];
	75 -- 81	[pos="558.47,310.68 536.26,302.88 503.36,291.34 481.04,283.51"];
	76	[height=0.5,
		pos="662.53,393.18",
		width=0.75];
	75 -- 76	[pos="598.22,333.71 612.27,346.7 632.69,365.58 646.73,378.57"];
	11	[height=0.5,
		pos="1099.5,336.67",
		width=0.75];
	10 -- 11	[pos="1074.4,293.13 1079.2,301.36 1084.9,311.25 1089.6,319.53"];
	37	[height=0.5,
		pos="956.52,318.7",
		width=0.75];
	10 -- 37	[pos="1041.3,285.52 1023.1,292.63 998.11,302.42 979.96,309.52"];
	86	[height=0.5,
		pos="304.63,128.03",
		width=0.75];
	81 -- 86	[pos="441.36,260.1 412.19,231.93 349.29,171.17 320.1,142.97"];
	82	[height=0.5,
		pos="473.26,363.05",
		width=0.75];
	81 -- 82	[pos="460.2,293.24 463.04,308.46 467.07,330.01 469.9,345.13"];
	12	[height=0.5,
		pos="1091.5,389.07",
		width=0.75];
	11 -- 12	[pos="1096.7,354.7 1095.9,359.91 1095.1,365.6 1094.3,370.82"];
	38	[height=0.5,
		pos="992.52,420.99",
		width=0.75];
	11 -- 38	[pos="1081.8,350.59 1062,366.21 1030,391.41 1010.2,407.05"];
	91	[height=0.5,
		pos="207.82,213.92",
		width=0.75];
	86 -- 91	[pos="288.21,142.6 270.41,158.39 242.16,183.45 224.33,199.27"];
	87	[height=0.5,
		pos="372.98,216.43",
		width=0.75];
	86 -- 87	[pos="317.17,144.24 329.5,160.19 348.22,184.4 360.53,200.32"];
	13	[height=0.5,
		pos="1054.7,446.6",
		width=0.75];
	12 -- 13	[pos="1080.9,405.71 1076,413.28 1070.3,422.21 1065.4,429.8"];
	23	[height=0.5,
		pos="941.77,376.99",
		width=0.75];
	12 -- 23	[pos="1064.4,386.88 1037.3,384.69 995.77,381.34 968.7,379.16"];
	97	[height=0.5,
		pos="151.71,326.94",
		width=0.75];
	91 -- 97	[pos="199.3,231.08 188.75,252.32 170.9,288.29 160.31,309.61"];
	92	[height=0.5,
		pos="350.18,305.4",
		width=0.75];
	91 -- 92	[pos="227.32,226.44 254.43,243.87 303.23,275.24 330.46,292.73"];
	14	[height=0.5,
		pos="989.79,510.27",
		width=0.75];
	13 -- 14	[pos="1039.3,461.69 1028.9,471.84 1015.4,485.17 1005.1,495.29"];
	28	[height=0.5,
		pos="879.67,354.77",
		width=0.75];
	13 -- 28	[pos="1033.2,435.34 999.52,417.67 934.65,383.62 901.03,365.98"];
	100	[height=0.5,
		pos="192.35,452.24",
		width=0.75];
	97 -- 100	[pos="157.44,344.63 165.19,368.51 178.91,410.81 186.64,434.65"];
	98	[height=0.5,
		pos="285.74,372.88",
		width=0.75];
	97 -- 98	[pos="175.98,335.26 200.27,343.58 237.42,356.32 261.65,364.62"];
	15	[height=0.5,
		pos="1072.7,578.69",
		width=0.75];
	14 -- 15	[pos="1007,524.45 1021.2,536.19 1041.3,552.79 1055.5,564.53"];
	73	[height=0.5,
		pos="893.33,579.96",
		width=0.75];
	14 -- 73	[pos="971.19,523.71 954.11,536.05 928.93,554.24 911.87,566.57"];
	109	[height=0.5,
		pos="233.12,508.02",
		width=0.75];
	100 -- 109	[pos="204.36,468.68 209.62,475.87 215.78,484.3 221.05,491.51"];
	101	[height=0.5,
		pos="354.71,411.66",
		width=0.75];
	100 -- 101	[pos="217.71,445.9 248.13,438.3 298.8,425.63 329.25,418.02"];
	16	[height=0.5,
		pos="1079.5,654.22",
		width=0.75];
	15 -- 16	[pos="1074.3,596.97 1075.4,608.85 1076.8,624.26 1077.9,636.1"];
	29	[height=0.5,
		pos="927.66,513.6",
		width=0.75];
	15 -- 29	[pos="1050,568.52 1022.8,556.29 977.33,535.89 950.16,523.7"];
	114	[height=0.5,
		pos="109.06,490.11",
		width=0.75];
	109 -- 114	[pos="206.5,504.18 185.57,501.16 156.55,496.97 135.63,493.95"];
	110	[height=0.5,
		pos="357.15,499.78",
		width=0.75];
	109 -- 110	[pos="260.03,506.23 280.69,504.86 309.11,502.97 329.86,501.59"];
	17	[height=0.5,
		pos="1148.9,662.91",
		width=0.75];
	16 -- 17	[pos="1106.1,657.55 1111.3,658.2 1116.8,658.89 1122,659.54"];
	30	[height=0.5,
		pos="1017.4,622.69",
		width=0.75];
	16 -- 30	[pos="1057.8,643.19 1051.8,640.14 1045.2,636.82 1039.2,633.77"];
	118	[height=0.5,
		pos="66.779,438.86",
		width=0.75];
	114 -- 118	[pos="95.911,474.18 90.869,468.07 85.116,461.09 80.062,454.96"];
	115	[height=0.5,
		pos="171.1,496.67",
		width=0.75];
	114 -- 115	[pos="135.73,492.93 138.48,493.22 141.29,493.52 144.05,493.81"];
	18	[height=0.5,
		pos="1197.2,528.5",
		width=0.75];
	17 -- 18	[pos="1155.3,645.33 1164.5,619.58 1181.7,571.84 1190.9,546.08"];
	31	[height=0.5,
		pos="1006.5,667.24",
		width=0.75];
	17 -- 31	[pos="1121.8,663.73 1096.5,664.5 1058.8,665.65 1033.5,666.42"];
	124	[height=0.5,
		pos="152.02,371.63",
		width=0.75];
	118 -- 124	[pos="84.441,424.93 99.07,413.39 119.76,397.07 134.38,385.54"];
	119	[height=0.5,
		pos="214.18,408.21",
		width=0.75];
	118 -- 119	[pos="92.792,433.45 119.57,427.89 161.07,419.26 187.93,413.67"];
	19	[height=0.5,
		pos="1259.7,491.33",
		width=0.75];
	18 -- 19	[pos="1217.7,516.33 1224.7,512.18 1232.4,507.54 1239.4,503.4"];
	24	[height=0.5,
		pos="1135,446.59",
		width=0.75];
	18 -- 24	[pos="1184.9,512.32 1174,497.96 1158.2,477.09 1147.3,462.74"];
	129	[height=0.5,
		pos="27,369.44",
		width=0.75];
	124 -- 129	[pos="124.89,371.15 103.92,370.79 75.031,370.28 54.074,369.92"];
	125	[height=0.5,
		pos="410.84,366",
		width=0.75];
	124 -- 125	[pos="179.23,371.04 228.94,369.96 333.88,367.68 383.61,366.6"];
	25	[height=0.5,
		pos="1197.2,472.11",
		width=0.75];
	19 -- 25	[pos="1235,483.73 1230.6,482.39 1226.1,480.99 1221.7,479.65"];
	130	[height=0.5,
		pos="89.828,387.44",
		width=0.75];
	129 -- 130	[pos="51.831,376.56 56.084,377.77 60.506,379.04 64.765,380.26"];
	21 -- 22	[pos="836.28,190.25 857.01,207.28 891.58,235.67 912.25,252.66"];
	44	[height=0.5,
		pos="751.56,261.17",
		width=0.75];
	21 -- 44	[pos="806.35,192.09 794.28,207.3 776.24,230.05 764.19,245.24"];
	22 -- 23	[pos="931.42,284.93 933.71,305.36 937.42,338.31 939.72,358.75"];
	22 -- 50	[pos="909.71,279.18 887.65,293.16 852.08,315.72 830.01,329.71"];
	59 -- 68	[pos="465.51,117.02 466.62,142.16 468.63,187.44 469.75,212.7"];
	59 -- 60	[pos="477.16,115.09 489.41,130.98 508,155.09 520.23,170.95"];
	68 -- 82	[pos="470.93,249.07 471.44,274.22 472.37,319.5 472.88,344.75"];
	69	[height=0.5,
		pos="521.25,275",
		width=0.75];
	68 -- 69	[pos="487.15,245.4 492.81,250.31 499.14,255.8 504.78,260.71"];
	82 -- 92	[pos="450.97,352.61 428.66,342.16 394.55,326.18 372.3,315.77"];
	83	[height=0.5,
		pos="532.57,555.37",
		width=0.75];
	82 -- 83	[pos="478.73,380.79 490.03,417.43 515.82,501.06 527.11,537.67"];
	23 -- 24	[pos="965.86,385.66 1003.1,399.07 1074.2,424.68 1111.2,438.02"];
	104	[height=0.5,
		pos="787.85,472.79",
		width=0.75];
	23 -- 104	[pos="921.97,389.32 892.57,407.61 837.7,441.77 808.07,460.21"];
	92 -- 101	[pos="350.94,323.43 351.78,342.97 353.1,373.97 353.93,393.54"];
	92 -- 93	[pos="348.59,287.43 346.35,261.99 342.28,215.76 340.03,190.24"];
	101 -- 115	[pos="332.19,422.08 296.86,438.44 228.78,469.96 193.51,486.29"];
	102	[height=0.5,
		pos="547.88,366.58",
		width=0.75];
	101 -- 102	[pos="380.36,405.67 417.3,397.05 485.12,381.22 522.12,372.59"];
	115 -- 130	[pos="158.75,480.08 143.39,459.43 117.31,424.38 102.02,403.83"];
	116	[height=0.5,
		pos="239.03,620.37",
		width=0.75];
	115 -- 116	[pos="180.4,513.61 193.34,537.16 216.63,579.57 229.62,603.23"];
	24 -- 25	[pos="1158.2,456.09 1163.3,458.19 1168.7,460.41 1173.8,462.51"];
	32	[height=0.5,
		pos="1051.8,534.67",
		width=0.75];
	24 -- 32	[pos="1120.5,461.93 1105.4,478 1081.7,503.09 1066.4,519.2"];
	33	[height=0.5,
		pos="1135.1,504.09",
		width=0.75];
	25 -- 33	[pos="1175.5,483.29 1169.3,486.46 1162.6,489.91 1156.5,493.07"];
	131	[height=0.5,
		pos="208.27,268.86",
		width=0.75];
	130 -- 131	[pos="104.83,372.42 127.49,349.74 170.21,306.97 193.02,284.13"];
	42 -- 87	[pos="468.48,155.43 447.33,168.94 413.78,190.37 392.59,203.9"];
	43	[height=0.5,
		pos="655.19,208.19",
		width=0.75];
	42 -- 43	[pos="511.59,152.17 543.46,164.6 599.9,186.62 631.71,199.03"];
	27 -- 28	[pos="876.19,240.78 876.96,265.93 878.34,311.22 879.11,336.48"];
	27 -- 43	[pos="848.6,220.91 806.18,218.12 724.44,212.74 682.09,209.96"];
	87 -- 131	[pos="348.32,224.28 317.18,234.19 263.92,251.15 232.83,261.05"];
	88	[height=0.5,
		pos="478.83,407.57",
		width=0.75];
	87 -- 88	[pos="382.38,233.39 402.46,269.66 449.39,354.41 469.46,390.65"];
	28 -- 29	[pos="885.09,372.68 894.3,403.19 912.94,464.89 922.19,495.51"];
	55	[height=0.5,
		pos="750,409.74",
		width=0.75];
	28 -- 55	[pos="856.79,364.48 833.23,374.46 796.73,389.94 773.1,399.95"];
	29 -- 30	[pos="940.9,529.7 957.96,550.44 987.44,586.28 1004.4,606.89"];
	63	[height=0.5,
		pos="831.29,563.09",
		width=0.75];
	29 -- 63	[pos="905.79,524.83 889.91,532.99 868.52,543.97 852.74,552.07"];
	30 -- 31	[pos="1013,640.56 1012.3,643.46 1011.6,646.47 1010.9,649.37"];
	39	[height=0.5,
		pos="968.34,561.91",
		width=0.75];
	30 -- 39	[pos="1004.5,606.72 997.35,597.86 988.48,586.86 981.31,577.98"];
	31 -- 32	[pos="1012.5,649.63 1021.2,624.28 1037.1,577.74 1045.8,552.34"];
	65	[height=0.5,
		pos="930.03,690.31",
		width=0.75];
	31 -- 65	[pos="981.88,674.67 973.23,677.27 963.52,680.2 954.86,682.82"];
	32 -- 33	[pos="1075.9,525.82 1087.1,521.73 1100.3,516.88 1111.4,512.81"];
	51	[height=0.5,
		pos="860.37,455.81",
		width=0.75];
	32 -- 51	[pos="1028.7,525.15 991.94,510 920.4,480.53 883.55,465.35"];
	40	[height=0.5,
		pos="1073.1,490.62",
		width=0.75];
	33 -- 40	[pos="1109.2,498.46 1105.9,497.73 1102.5,497 1099.2,496.28"];
	132	[height=0.5,
		pos="142.71,259.52",
		width=0.75];
	131 -- 132	[pos="181.6,265.06 177.49,264.48 173.24,263.87 169.14,263.29"];
	35 -- 36	[pos="917.64,192.4 933.81,205.02 957.65,223.63 973.81,236.25"];
	45	[height=0.5,
		pos="851.74,266.71",
		width=0.75];
	35 -- 45	[pos="890.71,195.63 882.16,211.22 869.56,234.21 861.02,249.78"];
	36 -- 37	[pos="982.58,267.3 977.25,277.8 970.49,291.14 965.19,301.6"];
	46	[height=0.5,
		pos="872.35,310.74",
		width=0.75];
	36 -- 46	[pos="969.82,260.96 948.38,271.91 915.67,288.62 894.15,299.61"];
	37 -- 38	[pos="962.79,336.52 969.4,355.29 979.74,384.68 986.32,403.38"];
	72	[height=0.5,
		pos="817.59,408.55",
		width=0.75];
	37 -- 72	[pos="936.91,331.38 910.43,348.51 863.53,378.84 837.1,395.93"];
	38 -- 39	[pos="989.41,439.13 984.76,466.18 976.07,516.83 971.44,543.84"];
	47	[height=0.5,
		pos="879.62,403.86",
		width=0.75];
	38 -- 47	[pos="966.05,416.98 948.06,414.25 924.35,410.65 906.31,407.91"];
	93 -- 98	[pos="333.75,189.94 323.75,228.04 300.39,317.04 290.4,355.1"];
	94	[height=0.5,
		pos="394.4,260.73",
		width=0.75];
	93 -- 94	[pos="348.96,188.79 358.97,204.63 373.93,228.32 383.92,244.14"];
	98 -- 119	[pos="263.88,383.67 255,388.06 244.77,393.11 235.9,397.49"];
	99	[height=0.5,
		pos="295.14,502.52",
		width=0.75];
	98 -- 99	[pos="287.04,390.9 288.83,415.53 292.02,459.46 293.81,484.23"];
	39 -- 40	[pos="987.56,548.83 1006.5,535.97 1035.2,516.45 1054,503.62"];
	64	[height=0.5,
		pos="798.21,647.66",
		width=0.75];
	39 -- 64	[pos="946.79,572.77 914.16,589.22 852.54,620.27 819.85,636.75"];
	119 -- 132	[pos="205.84,390.86 192.07,362.21 164.73,305.34 150.99,276.76"];
	120	[height=0.5,
		pos="327.56,455.73",
		width=0.75];
	119 -- 120	[pos="237.12,417.83 256.79,426.07 284.99,437.89 304.65,446.13"];
	48	[height=0.5,
		pos="971.47,466.24",
		width=0.75];
	40 -- 48	[pos="1047.5,484.47 1032.1,480.77 1012.5,476.08 997.11,472.39"];
	133	[height=0.5,
		pos="275.57,197.87",
		width=0.75];
	132 -- 133	[pos="164.94,249.2 189.47,237.82 228.7,219.62 253.26,208.22"];
	43 -- 44	[pos="676.1,219.68 692.26,228.57 714.53,240.81 730.69,249.7"];
	43 -- 69	[pos="633.37,219.07 608.46,231.49 567.96,251.7 543.05,264.12"];
	44 -- 45	[pos="778.67,262.67 792.92,263.46 810.35,264.42 824.6,265.21"];
	44 -- 54	[pos="750.27,279.28 750.04,282.49 749.8,285.82 749.57,289.02"];
	60 -- 94	[pos="511.31,198.36 485.26,212.25 441.44,235.63 415.49,249.48"];
	61	[height=0.5,
		pos="686.26,348.52",
		width=0.75];
	60 -- 61	[pos="547.33,202.49 576.78,233.44 642.57,302.6 671.79,333.32"];
	45 -- 46	[pos="859.88,284.11 861.32,287.19 862.82,290.39 864.26,293.46"];
	70	[height=0.5,
		pos="662.24,296.28",
		width=0.75];
	45 -- 70	[pos="825.39,270.82 789.29,276.46 724.82,286.52 688.67,292.16"];
	46 -- 47	[pos="873.79,329.14 875.07,345.57 876.93,369.5 878.21,385.82"];
	71	[height=0.5,
		pos="748.28,365.51",
		width=0.75];
	46 -- 71	[pos="849.59,320.79 827.21,330.67 793.23,345.67 770.89,355.53"];
	47 -- 48	[pos="898.65,416.79 914.41,427.49 936.7,442.63 952.46,453.33"];
	103	[height=0.5,
		pos="602.9,437.31",
		width=0.75];
	47 -- 103	[pos="852.83,407.1 799.93,413.5 682.61,427.68 629.7,434.07"];
	94 -- 133	[pos="373.16,249.49 351.66,238.12 318.6,220.63 297.03,209.22"];
	95	[height=0.5,
		pos="540.86,420.91",
		width=0.75];
	94 -- 95	[pos="408.71,276.38 436.78,307.08 498.77,374.87 526.71,405.44"];
	52	[height=0.5,
		pos="955.37,610.33",
		width=0.75];
	48 -- 52	[pos="969.46,484.19 966.38,511.81 960.5,564.4 957.4,592.15"];
	134	[height=0.5,
		pos="287.87,305.15",
		width=0.75];
	133 -- 134	[pos="277.66,216.07 279.92,235.8 283.51,267.1 285.78,286.86"];
	50 -- 51	[pos="818.14,359.94 827.55,381.29 843.23,416.89 852.61,438.18"];
	50 -- 61	[pos="783.1,343.58 762.41,344.64 734.09,346.08 713.42,347.14"];
	69 -- 125	[pos="504,289.22 483.26,306.32 448.66,334.83 427.97,351.88"];
	69 -- 70	[pos="547.77,279 572.97,282.81 610.67,288.5 635.84,292.3"];
	51 -- 52	[pos="870.72,472.64 889,502.36 926.77,563.81 945.04,593.52"];
	56	[height=0.5,
		pos="769.24,603.62",
		width=0.75];
	51 -- 56	[pos="850.1,472.48 832.6,500.86 797.19,558.28 779.62,586.79"];
	125 -- 134	[pos="389.14,355.26 366.8,344.21 332.18,327.08 309.77,315.99"];
	126	[height=0.5,
		pos="470.58,498.09",
		width=0.75];
	125 -- 126	[pos="418.65,383.27 430.1,408.59 451.32,455.5 462.77,480.82"];
	57	[height=0.5,
		pos="860.26,650.37",
		width=0.75];
	52 -- 57	[pos="932.35,620.03 917.5,626.27 898.27,634.37 883.4,640.63"];
	135	[height=0.5,
		pos="348.78,349.58",
		width=0.75];
	134 -- 135	[pos="306.15,318.48 313.86,324.1 322.81,330.64 330.52,336.26"];
	54 -- 88	[pos="724.38,315.93 673.24,335.01 553.77,379.6 502.69,398.67"];
	54 -- 55	[pos="748.6,325.37 748.91,344.07 749.39,372.89 749.7,391.53"];
	88 -- 120	[pos="454.19,415.42 426.06,424.37 380.32,438.94 352.19,447.89"];
	89	[height=0.5,
		pos="470.49,585.34",
		width=0.75];
	88 -- 89	[pos="477.98,425.6 476.38,459.67 472.94,533.16 471.34,567.27"];
	55 -- 56	[pos="751.81,427.98 755.49,465.03 763.79,548.69 767.45,585.57"];
	62	[height=0.5,
		pos="713.73,453.79",
		width=0.75];
	55 -- 62	[pos="736.91,425.65 733.66,429.59 730.18,433.82 726.93,437.76"];
	120 -- 135	[pos="331.16,437.73 335.06,418.21 341.26,387.23 345.17,367.68"];
	121	[height=0.5,
		pos="292.2,568.95",
		width=0.75];
	120 -- 121	[pos="322.04,473.42 315.43,494.57 304.44,529.76 297.8,551.01"];
	56 -- 57	[pos="790.81,614.7 805.32,622.15 824.37,631.93 838.84,639.37"];
	107	[height=0.5,
		pos="547.37,683.21",
		width=0.75];
	56 -- 107	[pos="745.08,612.29 702.29,627.64 613.7,659.42 571.17,674.67"];
	66	[height=0.5,
		pos="953.65,734.41",
		width=0.75];
	57 -- 66	[pos="876.52,665.01 893.66,680.43 920.49,704.58 937.56,719.94"];
	136	[height=0.5,
		pos="497.32,319",
		width=0.75];
	135 -- 136	[pos="374.66,344.25 401.84,338.66 444.33,329.91 471.49,324.32"];
	61 -- 62	[pos="690.92,366.38 695.97,385.74 703.98,416.45 709.05,435.85"];
	61 -- 136	[pos="659.59,344.36 623.58,338.73 559.79,328.76 523.85,323.15"];
	62 -- 63	[pos="729.58,468.53 752.02,489.39 792.8,527.31 815.31,548.23"];
	105	[height=0.5,
		pos="656.72,557.01",
		width=0.75];
	62 -- 105	[pos="704.32,470.84 693.75,489.96 676.72,520.8 666.15,539.94"];
	63 -- 64	[pos="824.43,580.61 818.76,595.13 810.73,615.65 805.05,630.16"];
	78	[height=0.5,
		pos="695.21,657.42",
		width=0.75];
	63 -- 78	[pos="812.36,576.21 786.37,594.23 739.88,626.45 713.97,644.41"];
	64 -- 65	[pos="822.7,655.58 846.37,663.24 882.04,674.78 905.68,682.43"];
	64 -- 83	[pos="774.17,639.31 723.72,621.78 607.32,581.34 556.75,563.77"];
	65 -- 66	[pos="939.23,707.49 940.94,710.68 942.72,714.02 944.43,717.21"];
	79	[height=0.5,
		pos="757.45,693.14",
		width=0.75];
	65 -- 79	[pos="902.68,690.76 870.37,691.29 816.93,692.16 784.67,692.69"];
	74	[height=0.5,
		pos="827.31,694.39",
		width=0.75];
	66 -- 74	[pos="928.99,726.6 906.72,719.55 874.15,709.23 851.9,702.18"];
	137	[height=0.5,
		pos="416.75,410.05",
		width=0.75];
	136 -- 137	[pos="483.29,334.86 468.5,351.57 445.35,377.73 430.62,394.37"];
	70 -- 71	[pos="679.65,310.29 694.58,322.3 715.98,339.52 730.9,351.52"];
	70 -- 102	[pos="642.32,308.53 621.46,321.35 588.88,341.38 567.96,354.24"];
	71 -- 72	[pos="768.33,377.96 777.6,383.72 788.59,390.54 797.83,396.28"];
	71 -- 95	[pos="722.85,372.31 682.93,382.97 606.02,403.51 566.18,414.15"];
	72 -- 73	[pos="825.27,425.93 839.79,458.78 871.1,529.65 885.63,562.54"];
	72 -- 76	[pos="790.58,405.87 762.21,403.06 717.85,398.66 689.49,395.85"];
	73 -- 74	[pos="883.59,596.85 871.11,618.48 849.59,655.77 837.09,677.44"];
	77	[height=0.5,
		pos="707.19,601.02",
		width=0.75];
	73 -- 77	[pos="866.66,582.98 831.38,586.97 769.53,593.97 734.12,597.97"];
	102 -- 137	[pos="523.52,374.65 499.97,382.46 464.48,394.22 440.97,402.01"];
	102 -- 103	[pos="560.36,382.63 569.37,394.2 581.47,409.76 590.47,421.32"];
	80	[height=0.5,
		pos="763.84,737.17",
		width=0.75];
	74 -- 80	[pos="808.26,707.22 800.23,712.64 790.9,718.93 782.87,724.34"];
	138	[height=0.5,
		pos="451.92,454.07",
		width=0.75];
	137 -- 138	[pos="429.45,425.94 432.6,429.88 435.97,434.11 439.12,438.05"];
	76 -- 77	[pos="666.42,411.26 674.89,450.66 694.92,543.89 703.35,583.12"];
	139	[height=0.5,
		pos="537.9,465.2",
		width=0.75];
	76 -- 139	[pos="641.95,405.07 618.86,418.42 581.62,439.94 558.52,453.29"];
	95 -- 110	[pos="517.97,430.74 482.67,445.9 415.34,474.8 380.04,489.95"];
	96	[height=0.5,
		pos="400.8,543.86",
		width=0.75];
	95 -- 96	[pos="524.52,435.26 497.68,458.82 444.53,505.48 417.47,529.23"];
	77 -- 78	[pos="703.4,618.86 702,625.45 700.42,632.9 699.02,639.49"];
	106	[height=0.5,
		pos="589.27,599.42",
		width=0.75];
	77 -- 106	[pos="680.14,600.65 661.1,600.39 635.71,600.05 616.61,599.79"];
	78 -- 79	[pos="715.93,669.31 722.58,673.13 729.94,677.35 736.6,681.17"];
	112	[height=0.5,
		pos="415.6,673.37",
		width=0.75];
	78 -- 112	[pos="668.14,658.96 614.69,662.01 496.14,668.78 442.68,671.83"];
	110 -- 138	[pos="379.13,489.18 394.33,481.85 414.49,472.13 429.73,464.78"];
	111	[height=0.5,
		pos="420.09,629.36",
		width=0.75];
	110 -- 111	[pos="365.51,516.99 377.55,541.77 399.64,587.26 411.7,612.08"];
	79 -- 80	[pos="760.08,711.3 760.46,713.86 760.84,716.49 761.21,719.05"];
	84	[height=0.5,
		pos="622.94,697.28",
		width=0.75];
	79 -- 84	[pos="730.23,693.98 706.89,694.69 673.45,695.72 650.12,696.44"];
	85	[height=0.5,
		pos="626.26,741.32",
		width=0.75];
	80 -- 85	[pos="736.66,737.99 712.54,738.72 677.49,739.77 653.38,740.5"];
	138 -- 139	[pos="478.66,457.53 489.01,458.87 500.84,460.41 511.19,461.75"];
	83 -- 84	[pos="543.29,572.21 560.68,599.52 594.85,653.17 612.23,680.47"];
	122	[height=0.5,
		pos="353.54,698.65",
		width=0.75];
	83 -- 122	[pos="515.08,569.37 480.76,596.83 404.99,657.47 370.84,684.8"];
	84 -- 85	[pos="624.31,715.45 624.5,718 624.7,720.63 624.89,723.19"];
	84 -- 89	[pos="604.55,683.78 575.25,662.26 518.29,620.44 488.94,598.89"];
	90	[height=0.5,
		pos="485.1,679.51",
		width=0.75];
	85 -- 90	[pos="603.58,731.39 577.24,719.85 534.04,700.94 507.73,689.42"];
	140	[height=0.5,
		pos="532.63,509.23",
		width=0.75];
	139 -- 140	[pos="535.73,483.37 535.42,485.92 535.11,488.55 534.8,491.11"];
	103 -- 126	[pos="580.46,447.62 556.12,458.8 517.51,476.53 493.14,487.73"];
	103 -- 104	[pos="629.01,442.32 664.26,449.08 726.7,461.06 761.88,467.81"];
	89 -- 90	[pos="473.31,603.5 475.9,620.17 479.71,644.75 482.29,661.41"];
	146	[height=0.5,
		pos="423.29,734.96",
		width=0.75];
	89 -- 146	[pos="464.89,603.09 455.81,631.89 437.96,688.45 428.89,717.23"];
	126 -- 140	[pos="496.9,502.82 500.07,503.38 503.31,503.97 506.48,504.53"];
	127	[height=0.5,
		pos="305.33,641.33",
		width=0.75];
	126 -- 127	[pos="453.83,512.61 422.16,540.07 353.83,599.29 322.13,626.77"];
	90 -- 96	[pos="474.77,662.88 458.59,636.84 427.45,586.75 411.22,560.63"];
	141	[height=0.5,
		pos="594.67,549.13",
		width=0.75];
	140 -- 141	[pos="552.26,521.85 559.5,526.51 567.71,531.79 574.96,536.45"];
	104 -- 141	[pos="764.55,482 727.42,496.67 655.24,525.19 618.06,539.89"];
	104 -- 105	[pos="768.22,485.4 743.5,501.28 701.27,528.4 676.49,544.32"];
	96 -- 99	[pos="377.35,534.69 359.84,527.84 336.02,518.51 318.52,511.67"];
	142	[height=0.5,
		pos="609.64,643.44",
		width=0.75];
	141 -- 142	[pos="597.56,567.31 600.21,584.01 604.11,608.63 606.76,625.31"];
	105 -- 142	[pos="647.42,574.08 639.17,589.24 627.17,611.26 618.92,626.4"];
	105 -- 106	[pos="636.85,569.51 628.15,574.98 617.95,581.39 609.24,586.87"];
	108	[height=0.5,
		pos="357.11,597.29",
		width=0.75];
	99 -- 108	[pos="305.93,519.03 317.24,536.31 334.89,563.32 346.23,580.65"];
	143	[height=0.5,
		pos="485.3,723.73",
		width=0.75];
	142 -- 143	[pos="590.21,655.98 566.99,670.98 528.34,695.93 505,711"];
	106 -- 111	[pos="562.84,604.1 531.06,609.72 478.04,619.1 446.34,624.71"];
	106 -- 107	[pos="580.59,616.79 573.4,631.17 563.23,651.5 556.04,665.87"];
	111 -- 143	[pos="431.45,645.79 443.35,663.01 461.92,689.9 473.85,707.16"];
	111 -- 112	[pos="418.24,647.51 417.98,650.07 417.71,652.7 417.45,655.26"];
	107 -- 108	[pos="524.8,673.02 488.18,656.48 416.25,624 379.65,607.47"];
	147	[height=0.5,
		pos="426.44,790.43",
		width=0.75];
	107 -- 147	[pos="531.06,697.67 507.98,718.14 466.03,755.33 442.88,775.86"];
	113	[height=0.5,
		pos="282.22,702.46",
		width=0.75];
	108 -- 113	[pos="345.41,613.72 331.34,633.48 307.87,666.43 293.84,686.14"];
	144	[height=0.5,
		pos="361.28,752.64",
		width=0.75];
	143 -- 144	[pos="459.6,729.72 438.32,734.68 408.22,741.69 386.95,746.65"];
	112 -- 116	[pos="390.68,665.89 357.03,655.79 297.42,637.89 263.83,627.81"];
	112 -- 113	[pos="389.88,678.98 366.42,684.1 331.9,691.62 308.32,696.77"];
	116 -- 121	[pos="254.41,605.5 261.4,598.73 269.66,590.75 276.67,583.97"];
	117	[height=0.5,
		pos="174.66,711.47",
		width=0.75];
	116 -- 117	[pos="227.53,636.65 215.88,653.13 197.97,678.48 186.29,695.01"];
	121 -- 127	[pos="295.44,586.84 297.46,597.98 300.05,612.25 302.07,623.39"];
	121 -- 122	[pos="300.34,586.18 312.08,610.98 333.61,656.51 345.36,681.35"];
	127 -- 144	[pos="314.07,658.72 324.58,679.63 342.12,714.51 352.6,735.37"];
	128	[height=0.5,
		pos="277.41,813.88",
		width=0.75];
	127 -- 128	[pos="302.39,659.47 297.02,692.7 285.65,762.94 280.3,795.98"];
	113 -- 117	[pos="255.36,704.71 238.93,706.08 217.99,707.84 201.56,709.21"];
	145	[height=0.5,
		pos="340.32,796.66",
		width=0.75];
	144 -- 145	[pos="353,770.04 351.53,773.11 350.01,776.31 348.55,779.39"];
	122 -- 145	[pos="351.11,716.62 348.74,734.2 345.16,760.82 342.78,778.47"];
	123	[height=0.5,
		pos="225.56,762.1",
		width=0.75];
	122 -- 123	[pos="331.83,709.41 308.29,721.08 270.95,739.59 247.38,751.28"];
	117 -- 123	[pos="189.93,726.66 196.38,733.07 203.86,740.51 210.3,746.92"];
	145 -- 146	[pos="358.74,782.97 372.58,772.67 391.45,758.64 405.22,748.4"];
	123 -- 128	[pos="240.56,777.07 247.38,783.89 255.43,791.93 262.27,798.76"];
	146 -- 147	[pos="424.33,753.12 424.68,759.31 425.07,766.23 425.42,772.42"];
	148	[height=0.5,
		pos="333.04,857.91",
		width=0.75];
	128 -- 148	[pos="295.01,827.81 301.51,832.95 308.86,838.77 315.36,843.92"];
	147 -- 148	[pos="407.99,803.76 391.62,815.59 367.82,832.78 351.46,844.6"];
}
