graph {
	graph [bb="0,0,725.96,615.51",
		outputorder=edgesfirst,
		overlap=prism,
		size="50,50!",
		start=5665
	];
	node [label="\N"];
	0	[height=0.5,
		pos="596.1,270.5",
		width=0.75];
	1	[height=0.5,
		pos="563.2,193.24",
		width=0.75];
	0 -- 1	[pos="588.64,252.97 583.25,240.32 576.01,223.33 570.63,210.7"];
	3	[height=0.5,
		pos="459.34,294.73",
		width=0.75];
	0 -- 3	[pos="569.73,275.17 545.52,279.46 509.82,285.79 485.63,290.08"];
	2	[height=0.5,
		pos="403.92,250.73",
		width=0.75];
	0 -- 2	[pos="569.38,267.75 532.77,263.99 467.38,257.26 430.72,253.49"];
	16	[height=0.5,
		pos="582.42,107.46",
		width=0.75];
	0 -- 16	[pos="594.59,252.43 591.96,221.09 586.58,157.01 583.94,125.61"];
	7	[height=0.5,
		pos="679.44,379.63",
		width=0.75];
	0 -- 7	[pos="608.4,286.6 624.16,307.24 651.31,342.8 667.1,363.46"];
	18	[height=0.5,
		pos="651.4,216.63",
		width=0.75];
	0 -- 18	[pos="611.51,255.5 619.18,248.02 628.42,239.02 636.08,231.56"];
	10	[height=0.5,
		pos="572.57,364.23",
		width=0.75];
	0 -- 10	[pos="591.56,288.57 587.4,305.17 581.25,329.64 577.09,346.22"];
	11	[height=0.5,
		pos="510.52,379.1",
		width=0.75];
	0 -- 11	[pos="583.47,286.53 567.29,307.06 539.4,342.45 523.2,363.01"];
	20	[height=0.5,
		pos="698.96,304.02",
		width=0.75];
	0 -- 20	[pos="620.48,278.44 636.76,283.75 658.09,290.7 674.4,296.02"];
	23	[height=0.5,
		pos="637.04,151.49",
		width=0.75];
	0 -- 23	[pos="602.14,252.94 609.88,230.44 623.22,191.66 630.97,169.13"];
	1 -- 3	[pos="547.87,208.21 528.24,227.4 494.39,260.48 474.73,279.7"];
	1 -- 2	[pos="539.35,201.84 509.24,212.71 457.73,231.3 427.67,242.16"];
	1 -- 16	[pos="567.27,175.05 570.56,160.39 575.15,139.9 578.42,125.33"];
	12	[height=0.5,
		pos="503.9,136.22",
		width=0.75];
	1 -- 12	[pos="547.62,178.26 538.97,169.94 528.24,159.63 519.58,151.3"];
	1 -- 18	[pos="588.71,200 600.52,203.13 614.49,206.84 626.25,209.96"];
	1 -- 23	[pos="584.16,181.39 594.22,175.7 606.24,168.9 616.28,163.23"];
	25	[height=0.5,
		pos="293.11,195.6",
		width=0.75];
	3 -- 25	[pos="438.96,282.58 406.97,263.5 345.33,226.74 313.4,207.7"];
	3 -- 7	[pos="482.89,303.82 525.26,320.16 613.82,354.32 656.06,370.61"];
	4	[height=0.5,
		pos="210.24,250.92",
		width=0.75];
	3 -- 4	[pos="433.15,290.13 385.31,281.71 284.31,263.94 236.45,255.53"];
	19	[height=0.5,
		pos="308.85,411.44",
		width=0.75];
	3 -- 19	[pos="441.48,308.58 412.52,331.04 355.63,375.17 326.68,397.62"];
	6	[height=0.5,
		pos="398.21,150.31",
		width=0.75];
	3 -- 6	[pos="451.96,277.31 440.22,249.56 417.37,195.59 405.61,167.8"];
	5	[height=0.5,
		pos="331,151.56",
		width=0.75];
	3 -- 5	[pos="445.36,279.14 420.67,251.6 369.63,194.67 344.96,167.14"];
	3 -- 12	[pos="464.36,276.86 472.92,246.41 490.23,184.84 498.82,154.27"];
	8	[height=0.5,
		pos="425.2,99.917",
		width=0.75];
	3 -- 8	[pos="456.19,276.76 449.69,239.64 434.84,154.93 428.35,117.85"];
	3 -- 18	[pos="482.51,285.31 519.42,270.3 591.19,241.12 628.16,226.08"];
	3 -- 10	[pos="479.32,307 499.89,319.62 531.77,339.19 552.4,351.86"];
	3 -- 11	[pos="469.7,311.81 478.63,326.54 491.47,347.7 500.35,362.34"];
	14	[height=0.5,
		pos="384.3,455.12",
		width=0.75];
	3 -- 14	[pos="451.17,312.2 436.73,343.05 406.89,406.84 392.46,437.67"];
	3 -- 20	[pos="486.36,295.78 532.38,297.56 625.46,301.17 671.67,302.96"];
	22	[height=0.5,
		pos="386.72,525.34",
		width=0.75];
	3 -- 22	[pos="453.76,312.45 440.25,355.37 405.86,464.58 392.32,507.57"];
	29	[height=0.5,
		pos="279.89,361.02",
		width=0.75];
	3 -- 29	[pos="435.51,303.54 401.09,316.25 337.84,339.61 303.53,352.28"];
	2 -- 3	[pos="421.45,264.65 427.92,269.79 435.25,275.61 441.73,280.75"];
	2 -- 16	[pos="421.36,236.73 455.48,209.34 530.73,148.95 564.91,121.51"];
	2 -- 25	[pos="382.03,239.84 362.6,230.17 334.37,216.12 314.96,206.47"];
	2 -- 19	[pos="393.92,267.62 375.71,298.41 337.32,363.32 318.99,394.29"];
	2 -- 6	[pos="402.87,232.31 401.84,214.19 400.28,186.69 399.25,168.61"];
	2 -- 5	[pos="391.88,234.35 378.37,215.98 356.57,186.35 343.06,167.96"];
	2 -- 12	[pos="417.82,234.81 436.92,212.93 471.08,173.81 490.12,152.01"];
	2 -- 8	[pos="406.49,232.54 410.58,203.55 418.53,147.2 422.63,118.17"];
	13	[height=0.5,
		pos="450.66,18",
		width=0.75];
	2 -- 13	[pos="407.51,232.85 416.21,189.53 438.34,79.319 447.06,35.936"];
	9	[height=0.5,
		pos="143.14,271.65",
		width=0.75];
	2 -- 9	[pos="376.99,252.89 327.02,256.9 220.47,265.45 170.31,269.47"];
	24	[height=0.5,
		pos="208.9,310.08",
		width=0.75];
	2 -- 24	[pos="379.22,258.25 341.81,269.63 271.18,291.13 233.71,302.53"];
	2 -- 10	[pos="422.94,263.53 455.33,285.33 520.84,329.42 553.36,351.31"];
	15	[height=0.5,
		pos="537.17,458.04",
		width=0.75];
	2 -- 15	[pos="414.6,267.34 439.55,306.16 501.44,402.45 526.44,441.35"];
	2 -- 11	[pos="417.2,266.73 437.74,291.46 476.96,338.69 497.4,363.3"];
	2 -- 14	[pos="402.18,268.87 398.46,307.65 389.76,398.27 386.04,437.02"];
	28	[height=0.5,
		pos="206.2,367.83",
		width=0.75];
	2 -- 28	[pos="383.5,262.82 345.52,285.32 264.41,333.36 226.51,355.81"];
	17	[height=0.5,
		pos="160.61,188.67",
		width=0.75];
	2 -- 17	[pos="378.34,244.2 331.49,232.25 232.44,206.99 185.85,195.1"];
	2 -- 23	[pos="426.7,241.03 471.26,222.06 569.53,180.23 614.17,161.23"];
	16 -- 23	[pos="599.7,121.39 606.08,126.53 613.3,132.36 619.68,137.5"];
	7 -- 20	[pos="684.07,361.71 687.18,349.66 691.26,333.83 694.37,321.81"];
	4 -- 25	[pos="229.46,238.09 242.85,229.15 260.63,217.28 274,208.36"];
	4 -- 19	[pos="220.6,267.79 239.49,298.54 279.32,363.37 298.32,394.31"];
	4 -- 5	[pos="227.28,236.89 250.17,218.06 290.61,184.79 313.65,165.84"];
	4 -- 9	[pos="185.63,258.52 179.8,260.32 173.58,262.24 167.74,264.05"];
	21	[height=0.5,
		pos="27,221.27",
		width=0.75];
	4 -- 21	[pos="183.98,246.67 149.25,241.05 88.361,231.19 53.502,225.55"];
	4 -- 24	[pos="209.83,268.99 209.67,276.19 209.48,284.48 209.32,291.71"];
	4 -- 28	[pos="209.62,268.93 208.86,290.83 207.59,327.6 206.83,349.61"];
	4 -- 17	[pos="197.46,234.88 190.11,225.66 180.9,214.11 173.52,204.86"];
	27	[height=0.5,
		pos="27.897,141.82",
		width=0.75];
	4 -- 27	[pos="190.03,238.82 154.98,217.85 83.311,174.98 48.198,153.97"];
	4 -- 29	[pos="220.82,267.64 233.91,288.33 256.07,323.37 269.21,344.14"];
	19 -- 24	[pos="293.67,396.05 274.77,376.89 242.7,344.36 223.9,325.29"];
	19 -- 28	[pos="286.07,401.77 269.17,394.59 246.23,384.84 229.27,377.63"];
	26	[height=0.5,
		pos="309.15,597.51",
		width=0.75];
	19 -- 26	[pos="308.88,429.62 308.93,465.19 309.06,543.62 309.12,579.26"];
	19 -- 22	[pos="320.34,428.25 335.15,449.91 360.73,487.33 375.44,508.84"];
	19 -- 29	[pos="299.04,394.37 296.02,389.11 292.7,383.33 289.68,378.07"];
	6 -- 25	[pos="375.4,160.14 357.78,167.73 333.49,178.2 315.87,185.79"];
	6 -- 12	[pos="424.88,146.76 440.9,144.62 461.22,141.91 477.24,139.78"];
	6 -- 8	[pos="407.35,133.25 410.16,128 413.26,122.21 416.07,116.96"];
	5 -- 25	[pos="317.32,167.46 313.84,171.5 310.11,175.84 306.64,179.87"];
	5 -- 6	[pos="358.33,151.06 362.55,150.98 366.9,150.9 371.11,150.82"];
	5 -- 8	[pos="351.9,140.1 367.41,131.6 388.46,120.06 404.03,111.53"];
	12 -- 13	[pos="496.04,118.78 485.98,96.425 468.63,57.901 458.55,35.515"];
	12 -- 18	[pos="525.03,147.74 553.07,163.03 602.29,189.86 630.31,205.13"];
	8 -- 12	[pos="447.54,110.22 458.18,115.13 470.86,120.98 481.5,125.89"];
	8 -- 13	[pos="430.73,82.142 435,68.402 440.88,49.472 445.14,35.74"];
	9 -- 21	[pos="120.47,261.81 100.14,252.99 70.444,240.11 50.009,231.25"];
	9 -- 24	[pos="163.59,283.6 171.43,288.18 180.38,293.41 188.24,298.01"];
	9 -- 28	[pos="154.13,288.4 165.7,306.06 183.82,333.69 195.34,351.27"];
	9 -- 17	[pos="146.93,253.64 149.86,239.72 153.9,220.55 156.83,206.64"];
	21 -- 27	[pos="27.204,203.24 27.349,190.33 27.545,173.01 27.692,160.05"];
	18 -- 20	[pos="660.8,233.89 669.19,249.31 681.41,271.77 689.74,287.09"];
	24 -- 28	[pos="208.05,328.35 207.73,335.09 207.38,342.73 207.06,349.48"];
	10 -- 15	[pos="565.91,381.88 559.58,398.65 550.12,423.73 543.8,440.47"];
	10 -- 11	[pos="546.97,370.37 543.36,371.23 539.66,372.12 536.05,372.98"];
	11 -- 15	[pos="516.56,397.01 520.96,410.02 526.87,427.54 531.24,440.47"];
	14 -- 19	[pos="363.68,443.18 353.04,437.02 340.08,429.52 329.44,423.36"];
	14 -- 26	[pos="375.24,472.29 360.79,499.66 332.71,552.87 318.25,580.27"];
	14 -- 22	[pos="384.93,473.2 385.28,483.61 385.73,496.64 386.09,507.08"];
	28 -- 29	[pos="233.22,365.33 239.63,364.74 246.46,364.11 252.87,363.51"];
	17 -- 25	[pos="187.75,190.09 210.61,191.28 243.16,192.98 266.02,194.18"];
	17 -- 21	[pos="135.17,194.87 111.54,200.64 76.545,209.18 52.807,214.97"];
	17 -- 24	[pos="167.64,206.32 176.79,229.34 192.71,269.38 201.87,292.41"];
	17 -- 27	[pos="136.58,180.18 112.68,171.75 76.198,158.87 52.201,150.4"];
	22 -- 26	[pos="370.65,540.3 357.25,552.76 338.26,570.43 324.94,582.82"];
}
