graph {
	graph [bb="0,0,1260.3,855.14",
		outputorder=edgesfirst,
		overlap=prism,
		size="50,50!",
		start=1838
	];
	node [label="\N"];
	0	[height=0.5,
		pos="607.27,837.14",
		width=0.75];
	1	[height=0.5,
		pos="513.93,828.64",
		width=0.75];
	0 -- 1	[pos="580.27,834.68 567.89,833.56 553.24,832.22 540.87,831.09"];
	20	[height=0.5,
		pos="706.96,831.28",
		width=0.75];
	0 -- 20	[pos="634.25,835.56 648.43,834.72 665.77,833.7 679.96,832.87"];
	2	[height=0.5,
		pos="442.72,805.31",
		width=0.75];
	1 -- 2	[pos="489.42,820.61 482.18,818.24 474.26,815.64 467.03,813.27"];
	59	[height=0.5,
		pos="437.24,758.53",
		width=0.75];
	1 -- 59	[pos="497.67,813.77 484.57,801.79 466.25,785.04 453.22,773.13"];
	26	[height=0.5,
		pos="765.76,743.07",
		width=0.75];
	20 -- 26	[pos="718.02,814.69 728.54,798.92 744.26,775.33 754.75,759.59"];
	21	[height=0.5,
		pos="797.08,699.04",
		width=0.75];
	20 -- 21	[pos="718.19,814.8 735.46,789.46 768.35,741.19 785.71,715.73"];
	3	[height=0.5,
		pos="365.94,750.54",
		width=0.75];
	2 -- 3	[pos="424.13,792.05 412.15,783.5 396.62,772.43 384.62,763.86"];
	42	[height=0.5,
		pos="469.21,714.42",
		width=0.75];
	2 -- 42	[pos="447.95,787.35 452.59,771.42 459.34,748.26 463.98,732.34"];
	34	[height=0.5,
		pos="768.33,787.19",
		width=0.75];
	26 -- 34	[pos="766.82,761.27 766.97,763.83 767.12,766.47 767.27,769.03"];
	27	[height=0.5,
		pos="853.08,629.9",
		width=0.75];
	26 -- 27	[pos="778.27,726.85 794.87,705.34 824.01,667.58 840.59,646.08"];
	4	[height=0.5,
		pos="519.83,765.87",
		width=0.75];
	3 -- 4	[pos="392.74,753.21 420.9,756.02 464.93,760.4 493.07,763.21"];
	93	[height=0.5,
		pos="315.64,662.33",
		width=0.75];
	3 -- 93	[pos="356.24,733.53 347.33,717.91 334.2,694.89 325.3,679.29"];
	41	[height=0.5,
		pos="619.93,732.58",
		width=0.75];
	34 -- 41	[pos="744.49,778.42 716.79,768.23 671.38,751.51 643.72,741.33"];
	35	[height=0.5,
		pos="894.23,674.08",
		width=0.75];
	34 -- 35	[pos="784.53,772.64 808.7,750.92 853.95,710.27 878.09,688.58"];
	5	[height=0.5,
		pos="695.11,742.49",
		width=0.75];
	4 -- 5	[pos="546.45,762.32 579.49,757.91 635.51,750.44 668.53,746.04"];
	60	[height=0.5,
		pos="505.14,670.31",
		width=0.75];
	4 -- 60	[pos="517.07,747.9 514.46,730.92 510.56,705.59 507.94,688.53"];
	49	[height=0.5,
		pos="791.03,655",
		width=0.75];
	41 -- 49	[pos="642.3,722.44 675.09,707.57 735.86,680.01 768.65,665.15"];
	41 -- 42	[pos="593.33,729.37 565.87,726.07 523.25,720.93 495.79,717.63"];
	6	[height=0.5,
		pos="830.86,772.11",
		width=0.75];
	5 -- 6	[pos="720.97,748.13 745.12,753.4 780.98,761.23 805.1,766.49"];
	5 -- 27	[pos="713.86,729.14 744.26,707.47 803.98,664.9 834.37,643.24"];
	53	[height=0.5,
		pos="682.38,632.99",
		width=0.75];
	49 -- 53	[pos="765,649.73 747.93,646.27 725.68,641.76 708.57,638.29"];
	50	[height=0.5,
		pos="815.64,514.7",
		width=0.75];
	49 -- 50	[pos="794.19,636.95 798.92,610.01 807.76,559.58 812.48,532.68"];
	7	[height=0.5,
		pos="957.68,703.19",
		width=0.75];
	6 -- 7	[pos="851.8,760.73 875.3,747.96 913.2,727.37 936.71,714.59"];
	6 -- 21	[pos="822.85,754.79 817.51,743.23 810.5,728.07 805.14,716.48"];
	58	[height=0.5,
		pos="546.91,714.54",
		width=0.75];
	53 -- 58	[pos="662.1,645.2 636.56,660.57 592.93,686.84 567.33,702.25"];
	54	[height=0.5,
		pos="708.05,544.84",
		width=0.75];
	53 -- 54	[pos="687.57,615.15 692.03,599.86 698.41,577.94 702.86,562.65"];
	8	[height=0.5,
		pos="1021.3,721.35",
		width=0.75];
	7 -- 8	[pos="982.81,710.37 987.26,711.64 991.88,712.96 996.32,714.22"];
	22	[height=0.5,
		pos="939.72,585.62",
		width=0.75];
	7 -- 22	[pos="954.92,685.08 951.53,662.92 945.83,625.64 942.46,603.56"];
	67	[height=0.5,
		pos="567.22,670.4",
		width=0.75];
	58 -- 67	[pos="554.93,697.1 556.35,694.01 557.83,690.8 559.25,687.72"];
	58 -- 59	[pos="523.65,723.87 505.04,731.34 479.07,741.75 460.47,749.21"];
	9	[height=0.5,
		pos="1045,663.81",
		width=0.75];
	8 -- 9	[pos="1028.5,703.77 1031.5,696.63 1034.8,688.41 1037.8,681.28"];
	8 -- 35	[pos="997.67,712.57 975,704.13 940.91,691.45 918.13,682.97"];
	75	[height=0.5,
		pos="543.77,546.79",
		width=0.75];
	67 -- 75	[pos="563.81,652.42 559.36,628.99 551.63,588.23 547.18,564.79"];
	68	[height=0.5,
		pos="440.96,639.72",
		width=0.75];
	67 -- 68	[pos="541.67,664.19 519.76,658.87 488.37,651.24 466.48,645.92"];
	10	[height=0.5,
		pos="1063.9,588.87",
		width=0.75];
	9 -- 10	[pos="1049.5,646.05 1052.5,634.19 1056.4,618.65 1059.4,606.76"];
	36	[height=0.5,
		pos="1001.8,619.77",
		width=0.75];
	9 -- 36	[pos="1029.9,648.41 1025.6,644.04 1020.9,639.3 1016.7,634.94"];
	81	[height=0.5,
		pos="418.65,594.47",
		width=0.75];
	75 -- 81	[pos="520.23,555.76 498.01,564.23 464.83,576.87 442.5,585.38"];
	76	[height=0.5,
		pos="644.88,456.71",
		width=0.75];
	75 -- 76	[pos="560.01,532.32 578.88,515.51 609.82,487.94 628.67,471.14"];
	11	[height=0.5,
		pos="1097.1,544.83",
		width=0.75];
	10 -- 11	[pos="1076.1,572.72 1079,568.89 1082,564.81 1084.9,560.98"];
	37	[height=0.5,
		pos="1001.8,542.62",
		width=0.75];
	10 -- 37	[pos="1045.6,575.25 1037.6,569.28 1028.2,562.29 1020.2,556.31"];
	86	[height=0.5,
		pos="296.27,706.45",
		width=0.75];
	81 -- 86	[pos="402.65,609.11 379.2,630.57 335.73,670.34 312.27,691.81"];
	82	[height=0.5,
		pos="438.74,506.46",
		width=0.75];
	81 -- 82	[pos="422.72,576.66 426.18,561.49 431.13,539.79 434.61,524.54"];
	12	[height=0.5,
		pos="1088.3,500.79",
		width=0.75];
	11 -- 12	[pos="1093.5,526.92 1093,524.25 1092.5,521.5 1091.9,518.83"];
	38	[height=0.5,
		pos="1045.2,456.71",
		width=0.75];
	11 -- 38	[pos="1087.1,527.84 1077.9,512.24 1064.4,489.24 1055.2,473.65"];
	91	[height=0.5,
		pos="173.6,663.68",
		width=0.75];
	86 -- 91	[pos="272.32,698.1 250.85,690.61 219.49,679.68 197.9,672.15"];
	87	[height=0.5,
		pos="378.63,638.51",
		width=0.75];
	86 -- 87	[pos="313.33,692.37 327.47,680.71 347.46,664.22 361.59,652.57"];
	13	[height=0.5,
		pos="1110.4,451.66",
		width=0.75];
	12 -- 13	[pos="1096.2,483.33 1098.2,478.7 1100.5,473.69 1102.6,469.06"];
	23	[height=0.5,
		pos="981.89,498.58",
		width=0.75];
	12 -- 23	[pos="1061.2,500.23 1045.2,499.9 1025,499.48 1009,499.15"];
	97	[height=0.5,
		pos="140.22,575.57",
		width=0.75];
	91 -- 97	[pos="166.85,645.85 161.02,630.46 152.64,608.36 146.85,593.07"];
	92	[height=0.5,
		pos="293.8,577.06",
		width=0.75];
	91 -- 92	[pos="192.12,650.33 214.77,634.01 252.89,606.54 275.46,590.27"];
	14	[height=0.5,
		pos="1013.3,367.14",
		width=0.75];
	13 -- 14	[pos="1093.9,437.32 1076,421.78 1047.7,397.12 1029.8,381.55"];
	28	[height=0.5,
		pos="919.83,497.48",
		width=0.75];
	13 -- 28	[pos="1084.7,457.84 1048.2,466.61 981.84,482.57 945.43,491.33"];
	100	[height=0.5,
		pos="157.57,436.44",
		width=0.75];
	97 -- 100	[pos="142.49,557.38 145.81,530.71 151.97,481.3 155.3,454.63"];
	98	[height=0.5,
		pos="244.73,518.62",
		width=0.75];
	97 -- 98	[pos="161.37,564.04 179.5,554.16 205.49,540 223.61,530.13"];
	15	[height=0.5,
		pos="1086.3,275.18",
		width=0.75];
	14 -- 15	[pos="1026,351.12 1039.3,334.35 1060.1,308.14 1073.5,291.32"];
	73	[height=0.5,
		pos="906.69,288.66",
		width=0.75];
	14 -- 73	[pos="994.69,353.47 975.13,339.07 944.52,316.52 925.04,302.18"];
	109	[height=0.5,
		pos="256.44,356.12",
		width=0.75];
	100 -- 109	[pos="174.79,422.45 192.83,407.8 221,384.92 239.08,370.22"];
	101	[height=0.5,
		pos="290.03,439.6",
		width=0.75];
	100 -- 101	[pos="184.7,437.09 207.55,437.63 240.09,438.41 262.94,438.95"];
	16	[height=0.5,
		pos="1074.2,187.04",
		width=0.75];
	15 -- 16	[pos="1083.8,256.91 1081.7,241.69 1078.7,220.12 1076.7,204.98"];
	29	[height=0.5,
		pos="943.71,365.22",
		width=0.75];
	15 -- 29	[pos="1066.4,287.7 1039.2,304.9 990.51,335.66 963.36,352.81"];
	114	[height=0.5,
		pos="102.67,392.28",
		width=0.75];
	109 -- 114	[pos="230.7,362.18 202.23,368.87 156.63,379.59 128.23,386.27"];
	110	[height=0.5,
		pos="380.6,350.84",
		width=0.75];
	109 -- 110	[pos="283.69,354.97 304.39,354.08 332.73,352.88 353.41,352"];
	17	[height=0.5,
		pos="1136.2,166.31",
		width=0.75];
	16 -- 17	[pos="1098.4,178.97 1102.9,177.47 1107.6,175.9 1112.1,174.4"];
	30	[height=0.5,
		pos="1030.8,231.06",
		width=0.75];
	16 -- 30	[pos="1059,202.44 1054.7,206.8 1050,211.55 1045.7,215.89"];
	118	[height=0.5,
		pos="53.4,452.52",
		width=0.75];
	114 -- 118	[pos="89.722,408.11 82.537,416.89 73.626,427.79 66.428,436.59"];
	115	[height=0.5,
		pos="193.53,392.22",
		width=0.75];
	114 -- 115	[pos="129.93,392.26 141.43,392.25 154.79,392.24 166.29,392.24"];
	18	[height=0.5,
		pos="1165.3,333",
		width=0.75];
	17 -- 18	[pos="1139.4,184.47 1145,216.61 1156.6,283.17 1162.2,315.12"];
	31	[height=0.5,
		pos="994.77,182.13",
		width=0.75];
	17 -- 31	[pos="1109.3,169.32 1084.1,172.14 1046.8,176.31 1021.6,179.13"];
	124	[height=0.5,
		pos="151.87,480.59",
		width=0.75];
	118 -- 124	[pos="78.248,459.6 93.176,463.86 112.1,469.25 127.03,473.51"];
	119	[height=0.5,
		pos="182.49,525.41",
		width=0.75];
	118 -- 119	[pos="74.14,464.23 98.229,477.83 137.73,500.14 161.8,513.73"];
	19	[height=0.5,
		pos="1233.3,381.36",
		width=0.75];
	18 -- 19	[pos="1183.8,346.21 1193.4,353.04 1205.1,361.34 1214.7,368.16"];
	24	[height=0.5,
		pos="1172.6,456.09",
		width=0.75];
	18 -- 24	[pos="1166.3,351.16 1167.7,374.44 1170.1,414.55 1171.5,437.85"];
	129	[height=0.5,
		pos="27,532.27",
		width=0.75];
	124 -- 129	[pos="128.68,490.19 106.25,499.47 72.457,513.46 50.07,522.72"];
	125	[height=0.5,
		pos="348.2,489.02",
		width=0.75];
	124 -- 125	[pos="179.17,481.76 216.68,483.37 283.75,486.25 321.13,487.86"];
	25	[height=0.5,
		pos="1171.1,404.35",
		width=0.75];
	19 -- 25	[pos="1209.4,390.18 1204.6,391.95 1199.6,393.82 1194.8,395.59"];
	130	[height=0.5,
		pos="89.778,510.47",
		width=0.75];
	129 -- 130	[pos="51.092,523.9 55.795,522.27 60.728,520.55 65.439,518.92"];
	21 -- 22	[pos="814.57,685.13 841.94,663.36 894.62,621.48 922.08,599.64"];
	44	[height=0.5,
		pos="744.42,610.99",
		width=0.75];
	21 -- 44	[pos="786.93,682.06 777.6,666.47 763.86,643.49 754.54,627.91"];
	22 -- 23	[pos="948.05,568.42 955.44,553.16 966.19,530.99 973.57,515.74"];
	22 -- 50	[pos="918.95,573.75 896.04,560.65 859.4,539.71 836.47,526.6"];
	59 -- 68	[pos="437.81,740.48 438.51,718.15 439.69,680.34 440.39,657.93"];
	59 -- 60	[pos="449.7,742.35 461.95,726.43 480.54,702.27 492.77,686.39"];
	68 -- 82	[pos="440.66,621.47 440.24,595.95 439.47,549.89 439.04,524.49"];
	69	[height=0.5,
		pos="488.01,594.79",
		width=0.75];
	68 -- 69	[pos="456.63,624.76 461.66,619.96 467.22,614.64 472.25,609.84"];
	82 -- 92	[pos="416.73,517.18 389.49,530.45 343.36,552.92 316.02,566.23"];
	83	[height=0.5,
		pos="534.61,283.74",
		width=0.75];
	82 -- 83	[pos="446.27,488.98 464.19,447.35 509.24,342.69 527.13,301.13"];
	23 -- 24	[pos="1007.6,492.85 1044.1,484.72 1110.5,469.92 1146.9,461.8"];
	104	[height=0.5,
		pos="796.26,371.22",
		width=0.75];
	23 -- 104	[pos="963.07,485.67 927.49,461.26 850.75,408.61 815.13,384.17"];
	92 -- 101	[pos="293.3,558.8 292.58,532.51 291.25,484.26 290.53,457.93"];
	92 -- 93	[pos="298.43,595.14 302.16,609.71 307.38,630.08 311.09,644.57"];
	101 -- 115	[pos="268.13,428.85 252.34,421.09 231.12,410.67 215.34,402.93"];
	102	[height=0.5,
		pos="519.56,496.15",
		width=0.75];
	101 -- 102	[pos="315.47,445.87 359.59,456.74 449.81,478.97 494.01,489.85"];
	115 -- 130	[pos="179.54,408.17 159.63,430.86 123.34,472.22 103.55,494.77"];
	116	[height=0.5,
		pos="200.44,247.12",
		width=0.75];
	115 -- 116	[pos="194.39,374.13 195.72,346.33 198.24,293.37 199.56,265.43"];
	24 -- 25	[pos="1172.1,437.99 1171.9,432.98 1171.8,427.54 1171.6,422.52"];
	32	[height=0.5,
		pos="1075.2,319.52",
		width=0.75];
	24 -- 32	[pos="1160.8,439.62 1142.1,413.37 1105.7,362.34 1087,336.05"];
	33	[height=0.5,
		pos="1090.5,363.58",
		width=0.75];
	25 -- 33	[pos="1149.5,393.43 1137.9,387.58 1123.7,380.39 1112.1,374.54"];
	131	[height=0.5,
		pos="169.73,619.64",
		width=0.75];
	130 -- 131	[pos="101.92,527.05 117.03,547.69 142.69,582.72 157.73,603.26"];
	42 -- 87	[pos="452.17,700.14 435.98,686.57 411.76,666.27 395.59,652.72"];
	43	[height=0.5,
		pos="629.25,677.22",
		width=0.75];
	42 -- 43	[pos="494.92,708.45 524.78,701.51 573.76,690.12 603.6,683.19"];
	27 -- 28	[pos="861.81,612.59 874.6,587.21 898.31,540.18 911.1,514.8"];
	27 -- 43	[pos="826.97,635.42 783.84,644.54 698.22,662.64 655.2,671.74"];
	87 -- 131	[pos="351.75,636.08 311.64,632.46 236.56,625.68 196.51,622.06"];
	88	[height=0.5,
		pos="448.65,462.44",
		width=0.75];
	87 -- 88	[pos="385.6,620.98 399.02,587.23 428.31,513.59 441.71,479.89"];
	28 -- 29	[pos="923.1,479.37 927.67,454.04 935.93,408.32 940.48,383.11"];
	55	[height=0.5,
		pos="747.77,451.09",
		width=0.75];
	28 -- 55	[pos="894.44,490.64 861.82,481.84 805.52,466.66 772.98,457.88"];
	29 -- 30	[pos="954.56,348.5 971.24,322.79 1003,273.82 1019.8,247.99"];
	63	[height=0.5,
		pos="844.69,289.31",
		width=0.75];
	29 -- 63	[pos="925.55,351.3 907.68,337.6 880.56,316.81 862.74,303.14"];
	30 -- 31	[pos="1018.8,214.76 1014.9,209.54 1010.7,203.75 1006.8,198.52"];
	39	[height=0.5,
		pos="993.95,316.25",
		width=0.75];
	30 -- 39	[pos="1023.1,248.71 1016.8,263.43 1007.8,284.28 1001.4,298.91"];
	31 -- 32	[pos="1004.6,198.97 1020.1,225.34 1049.8,276.08 1065.3,302.54"];
	65	[height=0.5,
		pos="875.54,178.13",
		width=0.75];
	31 -- 65	[pos="967.72,181.22 948.34,180.57 922.35,179.7 902.91,179.05"];
	32 -- 33	[pos="1081.3,337.19 1082.3,340.06 1083.4,343.04 1084.3,345.91"];
	51	[height=0.5,
		pos="866.65,408.08",
		width=0.75];
	32 -- 51	[pos="1052.1,329.34 1011.9,346.41 929.6,381.35 889.55,398.36"];
	40	[height=0.5,
		pos="1107.8,407.64",
		width=0.75];
	33 -- 40	[pos="1097.3,381 1098.5,383.98 1099.7,387.08 1100.9,390.07"];
	132	[height=0.5,
		pos="107.67,621.84",
		width=0.75];
	131 -- 132	[pos="142.69,620.6 140.08,620.69 137.42,620.79 134.81,620.88"];
	35 -- 36	[pos="915.99,663.09 934.66,653.67 961.41,640.16 980.06,630.75"];
	45	[height=0.5,
		pos="838.26,585.85",
		width=0.75];
	35 -- 45	[pos="883.7,657.48 873.76,641.81 858.92,618.42 848.93,602.67"];
	36 -- 37	[pos="1001.8,601.49 1001.8,589.19 1001.8,573.05 1001.8,560.77"];
	46	[height=0.5,
		pos="877.67,541.68",
		width=0.75];
	36 -- 46	[pos="982.13,607.4 959.02,592.86 920.9,568.88 897.65,554.26"];
	37 -- 38	[pos="1010.6,525.24 1018.1,510.23 1029,488.69 1036.6,473.78"];
	72	[height=0.5,
		pos="809.79,453.83",
		width=0.75];
	37 -- 72	[pos="979.38,532.26 942.39,515.15 868.95,481.19 832.05,464.12"];
	38 -- 39	[pos="1038.8,439.21 1029,412.29 1010.3,361.03 1000.4,333.98"];
	47	[height=0.5,
		pos="871.91,452.19",
		width=0.75];
	38 -- 47	[pos="1018.1,456.01 985.66,455.16 931.58,453.75 899.08,452.9"];
	93 -- 98	[pos="307.08,645 293.45,617.38 266.96,563.68 253.31,536.02"];
	94	[height=0.5,
		pos="356.21,592.53",
		width=0.75];
	93 -- 94	[pos="325.46,645.44 331.74,634.62 339.87,620.64 346.19,609.76"];
	98 -- 119	[pos="217.97,521.54 215.07,521.85 212.12,522.18 209.22,522.49"];
	99	[height=0.5,
		pos="318.49,338.03",
		width=0.75];
	98 -- 99	[pos="251.94,500.98 266.07,466.36 297.29,389.94 311.36,355.48"];
	39 -- 40	[pos="1011.2,330.13 1032.6,347.31 1068.8,376.4 1090.3,393.63"];
	64	[height=0.5,
		pos="819.46,232.88",
		width=0.75];
	39 -- 64	[pos="971.86,305.69 938.38,289.7 875.19,259.5 841.66,243.48"];
	119 -- 132	[pos="169.79,541.77 155.95,559.61 133.94,587.98 120.18,605.72"];
	120	[height=0.5,
		pos="326.29,395.16",
		width=0.75];
	119 -- 120	[pos="198.7,510.72 226.32,485.71 282.19,435.11 309.92,410"];
	48	[height=0.5,
		pos="983.17,414.54",
		width=0.75];
	40 -- 48	[pos="1080.7,409.14 1059.8,410.3 1031,411.89 1010.2,413.05"];
	133	[height=0.5,
		pos="235.65,662.21",
		width=0.75];
	132 -- 133	[pos="132.35,629.63 155.01,636.77 188.41,647.31 211.05,654.45"];
	43 -- 44	[pos="649.84,665.38 670.67,653.4 702.71,634.98 723.62,622.95"];
	43 -- 69	[pos="608.71,665.24 581.93,649.61 535.36,622.43 508.57,606.8"];
	44 -- 45	[pos="769.57,604.25 783.03,600.65 799.57,596.22 813.04,592.61"];
	44 -- 54	[pos="735.06,593.95 729.67,584.15 722.91,571.88 717.51,562.05"];
	60 -- 94	[pos="483.8,659.17 455.49,644.38 405.8,618.43 377.51,603.66"];
	61	[height=0.5,
		pos="648.11,500.83",
		width=0.75];
	60 -- 61	[pos="518.59,654.37 545.84,622.07 607.29,549.23 634.59,516.86"];
	45 -- 46	[pos="852.49,569.91 856.19,565.76 860.17,561.29 863.86,557.16"];
	70	[height=0.5,
		pos="656.82,588.93",
		width=0.75];
	45 -- 70	[pos="811.1,586.31 776.79,586.9 718.12,587.89 683.87,588.47"];
	46 -- 47	[pos="876.5,523.57 875.5,508.05 874.07,485.79 873.07,470.27"];
	71	[height=0.5,
		pos="741.19,496.33",
		width=0.75];
	46 -- 71	[pos="853.27,533.58 828.43,525.32 790.14,512.6 765.38,504.37"];
	47 -- 48	[pos="896.05,444.02 914.71,437.7 940.43,429 959.08,422.69"];
	103	[height=0.5,
		pos="607.6,412.6",
		width=0.75];
	47 -- 103	[pos="845.11,448.17 794.32,440.57 684.61,424.13 634.07,416.56"];
	94 -- 133	[pos="335.76,604.36 313.59,617.17 278.41,637.5 256.2,650.34"];
	95	[height=0.5,
		pos="510.64,418.43",
		width=0.75];
	94 -- 95	[pos="370.18,576.78 399.59,543.63 467.53,467.03 496.81,434.02"];
	52	[height=0.5,
		pos="968.75,266.16",
		width=0.75];
	48 -- 52	[pos="981.41,396.35 978.64,367.87 973.31,313.07 970.53,284.5"];
	134	[height=0.5,
		pos="231.74,609.73",
		width=0.75];
	133 -- 134	[pos="234.31,644.15 233.92,638.93 233.5,633.23 233.11,628"];
	50 -- 51	[pos="824.06,497.09 833.57,477.22 848.94,445.1 858.38,425.36"];
	50 -- 61	[pos="788.72,512.47 757.46,509.88 706.19,505.64 674.96,503.05"];
	69 -- 125	[pos="470.02,581.18 443.17,560.87 392.93,522.86 366.12,502.58"];
	69 -- 70	[pos="515.13,593.85 546.63,592.76 598.29,590.96 629.76,589.87"];
	51 -- 52	[pos="878.36,391.8 897.95,364.57 937.15,310.08 956.86,282.69"];
	56	[height=0.5,
		pos="782.69,277.01",
		width=0.75];
	51 -- 56	[pos="856.02,391.48 839.95,366.41 809.67,319.12 793.5,293.89"];
	125 -- 134	[pos="333.45,504.3 311.05,527.52 268.7,571.42 246.37,594.56"];
	126	[height=0.5,
		pos="473.93,351.76",
		width=0.75];
	125 -- 126	[pos="362.38,473.54 386.53,447.18 435.37,393.86 459.61,367.39"];
	57	[height=0.5,
		pos="910.92,222.15",
		width=0.75];
	52 -- 57	[pos="950.77,252.48 943.87,247.23 936,241.24 929.09,235.98"];
	135	[height=0.5,
		pos="307.15,533.04",
		width=0.75];
	134 -- 135	[pos="246.64,594.57 259.86,581.13 279.08,561.59 292.29,548.16"];
	54 -- 88	[pos="683.64,537.09 634.2,521.38 522.72,485.97 473.18,470.23"];
	54 -- 55	[pos="715.52,527.2 722.62,510.44 733.24,485.38 740.33,468.64"];
	88 -- 120	[pos="427.62,450.87 405.21,438.55 369.93,419.15 347.46,406.8"];
	89	[height=0.5,
		pos="472.59,260.25",
		width=0.75];
	88 -- 89	[pos="450.82,444.14 455.38,405.64 465.91,316.69 470.44,278.36"];
	55 -- 56	[pos="751.38,433.11 758.09,399.67 772.41,328.25 779.1,294.88"];
	62	[height=0.5,
		pos="702.06,396.39",
		width=0.75];
	55 -- 62	[pos="734.55,435.27 728.54,428.07 721.44,419.58 715.41,412.36"];
	120 -- 135	[pos="323.79,413.19 320.12,439.61 313.33,488.58 309.66,515.01"];
	121	[height=0.5,
		pos="276.94,288.63",
		width=0.75];
	120 -- 121	[pos="318.14,377.57 308.94,357.71 294.07,325.62 284.94,305.9"];
	56 -- 57	[pos="805.61,267.2 828.95,257.22 864.92,241.83 888.19,231.88"];
	107	[height=0.5,
		pos="541.69,177.67",
		width=0.75];
	56 -- 107	[pos="759.58,267.48 713.51,248.49 610.74,206.13 564.73,187.17"];
	66	[height=0.5,
		pos="937.61,134.43",
		width=0.75];
	57 -- 66	[pos="916.32,204.4 920.95,189.18 927.59,167.37 932.22,152.16"];
	136	[height=0.5,
		pos="478.33,550.47",
		width=0.75];
	135 -- 136	[pos="333.9,535.76 365.97,539.03 419.39,544.47 451.49,547.74"];
	61 -- 62	[pos="657.02,483.59 667.01,464.23 683.13,433.02 693.14,413.66"];
	61 -- 136	[pos="623.06,508.16 590.87,517.57 535.32,533.81 503.21,543.2"];
	62 -- 63	[pos="720.12,382.83 747.41,362.34 798.86,323.72 826.32,303.1"];
	105	[height=0.5,
		pos="658.66,306.2",
		width=0.75];
	62 -- 105	[pos="693.69,379 686,363.03 674.68,339.49 667,323.54"];
	63 -- 64	[pos="836.85,271.76 833.78,264.9 830.27,257.06 827.22,250.22"];
	78	[height=0.5,
		pos="701.9,206.61",
		width=0.75];
	63 -- 78	[pos="824.23,277.46 797.09,261.74 749.44,234.15 722.32,218.44"];
	64 -- 65	[pos="834.79,217.92 842.7,210.19 852.33,200.79 860.24,193.07"];
	64 -- 83	[pos="793.18,237.57 738.91,247.26 615.05,269.38 560.84,279.06"];
	65 -- 66	[pos="894.17,165.02 902.02,159.49 911.15,153.07 919,147.54"];
	79	[height=0.5,
		pos="718.16,162.57",
		width=0.75];
	65 -- 79	[pos="848.49,175.46 819.58,172.6 774.01,168.09 745.13,165.24"];
	74	[height=0.5,
		pos="781.11,179.27",
		width=0.75];
	66 -- 74	[pos="912.47,141.64 883.17,150.03 835.09,163.8 805.93,172.15"];
	137	[height=0.5,
		pos="386.63,445.01",
		width=0.75];
	136 -- 137	[pos="464.41,534.46 447.07,514.52 417.64,480.68 400.39,460.84"];
	70 -- 71	[pos="671.13,573.22 686.74,556.09 711.56,528.84 727.09,511.8"];
	70 -- 102	[pos="637.73,576.03 611.66,558.4 565.15,526.97 538.93,509.24"];
	71 -- 72	[pos="761.03,484.03 770.06,478.44 780.71,471.84 789.76,466.24"];
	71 -- 95	[pos="716.95,488.14 672.67,473.18 579.19,441.59 534.9,426.62"];
	72 -- 73	[pos="819.8,436.77 838.37,405.13 877.96,337.64 896.6,305.87"];
	72 -- 76	[pos="782.56,454.3 751.91,454.84 702.43,455.7 671.88,456.23"];
	73 -- 74	[pos="890.28,274.36 866.21,253.4 821.6,214.54 797.53,193.57"];
	77	[height=0.5,
		pos="720.66,275.24",
		width=0.75];
	73 -- 77	[pos="879.64,286.71 844.37,284.17 783.03,279.74 747.74,277.2"];
	102 -- 137	[pos="496.1,487.13 471.95,477.84 434.53,463.44 410.3,454.12"];
	102 -- 103	[pos="535.3,481.21 551.32,466 576.02,442.57 591.99,427.4"];
	80	[height=0.5,
		pos="731.35,117.64",
		width=0.75];
	74 -- 80	[pos="768.29,163.4 760.92,154.27 751.69,142.83 744.29,133.67"];
	138	[height=0.5,
		pos="425.37,397.23",
		width=0.75];
	137 -- 138	[pos="399.53,429.1 403.67,424 408.25,418.34 412.39,413.23"];
	76 -- 77	[pos="652.14,439.31 666.63,404.62 698.95,327.23 713.41,292.59"];
	139	[height=0.5,
		pos="542.48,374.42",
		width=0.75];
	76 -- 139	[pos="627.51,442.75 608.68,427.62 578.8,403.61 559.94,388.45"];
	95 -- 110	[pos="489.17,407.27 465.07,394.74 426.21,374.55 402.1,362.02"];
	96	[height=0.5,
		pos="434.68,306.28",
		width=0.75];
	95 -- 96	[pos="499.43,401.88 485.07,380.67 460.32,344.13 445.93,322.89"];
	77 -- 78	[pos="715.73,257.21 712.99,247.2 709.6,234.79 706.86,224.76"];
	106	[height=0.5,
		pos="606.32,242.35",
		width=0.75];
	77 -- 106	[pos="695.85,268.11 676.8,262.63 650.61,255.09 631.48,249.59"];
	78 -- 79	[pos="708.42,188.95 709.48,186.08 710.58,183.11 711.64,180.23"];
	112	[height=0.5,
		pos="372.23,172.19",
		width=0.75];
	78 -- 112	[pos="675.2,203.82 613.42,197.37 461.2,181.48 399.18,175.01"];
	110 -- 138	[pos="395.26,366.03 400.15,371.1 405.61,376.76 410.52,381.85"];
	111	[height=0.5,
		pos="418.58,216.22",
		width=0.75];
	110 -- 111	[pos="385.64,332.97 392.91,307.22 406.24,259.96 413.52,234.17"];
	79 -- 80	[pos="723.37,144.81 724.27,141.77 725.19,138.61 726.09,135.56"];
	84	[height=0.5,
		pos="615.44,153.31",
		width=0.75];
	79 -- 84	[pos="691.17,160.14 676.08,158.77 657.32,157.08 642.25,155.72"];
	85	[height=0.5,
		pos="620.03,108.51",
		width=0.75];
	80 -- 85	[pos="704.4,115.43 687.03,114.01 664.51,112.16 647.11,110.73"];
	138 -- 139	[pos="451.36,392.17 470.77,388.39 497.17,383.25 516.57,379.47"];
	83 -- 84	[pos="545.01,266.95 560.54,241.91 589.58,195.03 605.08,170.03"];
	122	[height=0.5,
		pos="310.18,173.89",
		width=0.75];
	83 -- 122	[pos="512.69,273.01 469.78,252 375.18,205.7 332.2,184.66"];
	84 -- 85	[pos="617.28,135.34 617.58,132.42 617.89,129.4 618.19,126.47"];
	84 -- 89	[pos="597.35,166.85 570.02,187.31 518.49,225.88 490.98,246.47"];
	90	[height=0.5,
		pos="466.72,171.18",
		width=0.75];
	85 -- 90	[pos="596.74,118.03 567.93,129.81 519.14,149.75 490.22,161.58"];
	140	[height=0.5,
		pos="540.55,330.41",
		width=0.75];
	139 -- 140	[pos="541.68,356.27 541.57,353.71 541.46,351.08 541.34,348.52"];
	103 -- 126	[pos="585.22,402.41 560.55,391.18 521.08,373.22 496.38,361.98"];
	103 -- 104	[pos="633.43,406.93 669.46,399.03 734.41,384.79 770.44,376.89"];
	89 -- 90	[pos="471.4,242.22 470.38,226.77 468.92,204.62 467.9,189.18"];
	146	[height=0.5,
		pos="393.14,128.18",
		width=0.75];
	89 -- 146	[pos="462.53,243.52 447.33,218.25 418.67,170.62 403.37,145.19"];
	126 -- 140	[pos="498.36,343.93 504.15,342.07 510.33,340.09 516.12,338.24"];
	127	[height=0.5,
		pos="262.47,219.12",
		width=0.75];
	126 -- 127	[pos="454.04,339.28 413.63,313.94 322.39,256.71 282.16,231.47"];
	90 -- 96	[pos="462.46,189.12 456.34,214.96 445.09,262.38 438.95,288.26"];
	141	[height=0.5,
		pos="596.63,286.37",
		width=0.75];
	140 -- 141	[pos="558.29,316.47 564.84,311.33 572.26,305.51 578.81,300.36"];
	104 -- 141	[pos="773.36,361.49 734.96,345.16 658,312.45 619.57,296.12"];
	104 -- 105	[pos="774.16,360.78 748.48,348.64 706.37,328.74 680.71,316.62"];
	96 -- 99	[pos="409.47,313.17 389.98,318.49 363.13,325.83 343.65,331.16"];
	142	[height=0.5,
		pos="633.4,198.34",
		width=0.75];
	141 -- 142	[pos="603.9,268.97 610.34,253.54 619.71,231.12 626.15,215.7"];
	105 -- 142	[pos="654.49,288.39 649.81,268.41 642.26,236.17 637.57,216.18"];
	105 -- 106	[pos="645.45,290.09 637.46,280.34 627.3,267.95 619.34,258.24"];
	108	[height=0.5,
		pos="338.94,256.93",
		width=0.75];
	99 -- 108	[pos="323.03,320.03 326.41,306.59 331.03,288.3 334.41,274.88"];
	143	[height=0.5,
		pos="457.37,122.85",
		width=0.75];
	142 -- 143	[pos="610.38,188.47 576.56,173.96 513.78,147.04 480.11,132.6"];
	106 -- 111	[pos="579.82,238.67 544.14,233.7 481.02,224.91 445.25,219.93"];
	106 -- 107	[pos="591.33,227.35 581.04,217.05 567.42,203.42 557.05,193.04"];
	111 -- 143	[pos="425.88,198.66 432.81,181.96 443.19,157 450.11,140.33"];
	111 -- 112	[pos="402.89,201.31 398.06,196.72 392.74,191.67 387.91,187.08"];
	107 -- 108	[pos="518.04,186.92 478.97,202.19 401.41,232.5 362.44,247.74"];
	147	[height=0.5,
		pos="410.94,76.706",
		width=0.75];
	107 -- 147	[pos="523.78,163.84 498.75,144.51 453.55,109.61 428.63,90.365"];
	113	[height=0.5,
		pos="246.21,165.08",
		width=0.75];
	108 -- 113	[pos="323.63,241.76 306.45,224.74 278.74,197.29 261.55,180.27"];
	144	[height=0.5,
		pos="330.67,120.49",
		width=0.75];
	143 -- 144	[pos="430.19,122.34 408.81,121.95 379.17,121.39 357.8,121"];
	112 -- 116	[pos="349.42,182.14 316.47,196.51 255.92,222.92 223.07,237.25"];
	112 -- 113	[pos="345.2,170.67 323.94,169.47 294.45,167.8 273.2,166.6"];
	116 -- 121	[pos="221.75,258.68 232.36,264.44 245.15,271.38 255.74,277.13"];
	117	[height=0.5,
		pos="150.06,161.67",
		width=0.75];
	116 -- 117	[pos="190.48,230.24 181.65,215.26 168.81,193.49 159.99,178.52"];
	121 -- 127	[pos="273.21,270.73 271.07,260.43 268.38,247.53 266.24,237.2"];
	121 -- 122	[pos="282.13,270.7 288.38,249.15 298.8,213.19 305.03,191.69"];
	127 -- 144	[pos="274.04,202.39 286.66,184.14 306.72,155.12 319.27,136.97"];
	128	[height=0.5,
		pos="223.77,66.073",
		width=0.75];
	127 -- 128	[pos="257.96,201.27 250.54,171.93 235.86,113.86 228.38,84.29"];
	113 -- 117	[pos="219.17,164.12 206.06,163.65 190.35,163.1 177.23,162.63"];
	145	[height=0.5,
		pos="289.86,76.468",
		width=0.75];
	144 -- 145	[pos="316.39,105.09 312.44,100.83 308.15,96.199 304.19,91.93"];
	122 -- 145	[pos="306.46,156.02 302.81,138.55 297.29,112.09 293.63,94.553"];
	123	[height=0.5,
		pos="188.83,114.79",
		width=0.75];
	122 -- 123	[pos="288.21,163.18 266.21,152.47 232.58,136.09 210.64,125.41"];
	117 -- 123	[pos="163.18,145.8 167.23,140.91 171.68,135.53 175.72,130.64"];
	145 -- 146	[pos="311.76,87.435 329.29,96.21 353.75,108.46 371.27,117.23"];
	123 -- 128	[pos="200.66,98.295 204.3,93.216 208.31,87.626 211.96,82.548"];
	146 -- 147	[pos="399.27,110.47 401.08,105.23 403.06,99.504 404.86,94.278"];
	148	[height=0.5,
		pos="295.52,18",
		width=0.75];
	128 -- 148	[pos="243,53.19 253.29,46.293 265.94,37.821 276.24,30.918"];
	147 -- 148	[pos="389.23,65.663 368.59,55.168 337.73,39.472 317.13,28.993"];
}
