graph {
	graph [bb="0,0,1636.5,1060.3",
		outputorder=edgesfirst,
		overlap=prism,
		size="50,50!",
		start=7116
	];
	node [label="\N"];
	0	[height=0.5,
		pos="1098.1,429.59",
		width=0.75];
	50	[height=0.5,
		pos="1081.2,749.63",
		width=0.75];
	0 -- 50	[pos="1097.2,447.71 1094.2,503.91 1085.2,674.84 1082.2,731.31"];
	81	[height=0.5,
		pos="1203.2,538.93",
		width=0.75];
	0 -- 81	[pos="1112.8,444.79 1132.7,465.56 1168.3,502.61 1188.4,523.5"];
	85	[height=0.5,
		pos="1167.4,217.59",
		width=0.75];
	0 -- 85	[pos="1103.9,411.88 1117,371.97 1148.5,275.4 1161.6,235.4"];
	88	[height=0.5,
		pos="1086.7,201.98",
		width=0.75];
	0 -- 88	[pos="1097.2,411.34 1095.1,368.62 1089.8,262.49 1087.6,219.99"];
	104	[height=0.5,
		pos="1294.4,538.45",
		width=0.75];
	0 -- 104	[pos="1119.1,441.24 1156.9,462.19 1235.9,505.99 1273.5,526.89"];
	108	[height=0.5,
		pos="1003.3,194.11",
		width=0.75];
	0 -- 108	[pos="1091,411.89 1073.4,368.14 1027.9,255.31 1010.4,211.69"];
	112	[height=0.5,
		pos="1393.9,583.07",
		width=0.75];
	0 -- 112	[pos="1119.9,440.87 1174.7,469.33 1318.1,543.73 1372.5,571.98"];
	114	[height=0.5,
		pos="1262.3,670.99",
		width=0.75];
	0 -- 114	[pos="1109.4,446.18 1139.4,490.28 1220.9,610.05 1251,654.29"];
	119	[height=0.5,
		pos="1223.1,362.88",
		width=0.75];
	0 -- 119	[pos="1119.3,418.27 1142.3,406 1178.8,386.54 1201.8,374.25"];
	128	[height=0.5,
		pos="1494.8,401.05",
		width=0.75];
	0 -- 128	[pos="1125.1,427.65 1197.5,422.44 1395.4,408.2 1467.8,402.99"];
	129	[height=0.5,
		pos="898.47,517.69",
		width=0.75];
	0 -- 129	[pos="1075.6,439.52 1037.3,456.44 959.72,490.66 921.21,507.65"];
	135	[height=0.5,
		pos="947.06,473.65",
		width=0.75];
	0 -- 135	[pos="1073.2,436.86 1045.2,445.03 1000.1,458.19 972.05,466.36"];
	150	[height=0.5,
		pos="1137.7,341.54",
		width=0.75];
	0 -- 150	[pos="1106,412.19 1112.9,396.76 1123,374.32 1129.9,358.9"];
	153	[height=0.5,
		pos="968.85,517.69",
		width=0.75];
	0 -- 153	[pos="1079.1,442.58 1054.6,459.24 1012.5,487.95 988,504.63"];
	188	[height=0.5,
		pos="1370.5,315.62",
		width=0.75];
	0 -- 188	[pos="1121.4,419.87 1172.8,398.34 1295.9,346.82 1347.3,325.31"];
	190	[height=0.5,
		pos="1337.9,361.38",
		width=0.75];
	0 -- 190	[pos="1123.3,422.41 1169.5,409.28 1267.1,381.52 1313,368.45"];
	204	[height=0.5,
		pos="913.86,297.56",
		width=0.75];
	0 -- 204	[pos="1079.5,416.2 1044,390.83 967.56,336.03 932.32,310.78"];
	245	[height=0.5,
		pos="794.78,483.48",
		width=0.75];
	0 -- 245	[pos="1072,434.23 1014.7,444.41 878.34,468.63 820.95,478.83"];
	246	[height=0.5,
		pos="1378.9,479.39",
		width=0.75];
	0 -- 246	[pos="1124.3,434.23 1177.8,443.72 1299.2,465.25 1352.7,474.74"];
	1	[height=0.5,
		pos="1001.4,428.92",
		width=0.75];
	51	[height=0.5,
		pos="893.44,568.67",
		width=0.75];
	1 -- 51	[pos="989.01,444.95 968.3,471.76 926.85,525.42 906.01,552.4"];
	62	[height=0.5,
		pos="856.78,473.62",
		width=0.75];
	1 -- 62	[pos="976.86,436.5 950.27,444.72 908.07,457.76 881.43,466"];
	72	[height=0.5,
		pos="851.84,297.47",
		width=0.75];
	1 -- 72	[pos="984.82,414.35 956.07,389.08 897.29,337.42 868.49,312.1"];
	74	[height=0.5,
		pos="1121.9,285.01",
		width=0.75];
	1 -- 74	[pos="1014.7,412.97 1037.9,385.31 1085.3,328.75 1108.5,301.04"];
	76	[height=0.5,
		pos="1356.4,523.43",
		width=0.75];
	1 -- 76	[pos="1026.6,435.64 1091.9,453.01 1265.7,499.28 1331.1,516.68"];
	77	[height=0.5,
		pos="1325.1,627.06",
		width=0.75];
	1 -- 77	[pos="1021.6,441.31 1079.8,476.89 1246.8,579.09 1304.9,614.67"];
	80	[height=0.5,
		pos="873.74,210.53",
		width=0.75];
	1 -- 80	[pos="991.59,412.14 967.83,371.49 907.37,268.07 883.58,227.36"];
	84	[height=0.5,
		pos="1137.5,385.57",
		width=0.75];
	1 -- 84	[pos="1026,421.07 1050.7,413.21 1088.5,401.19 1113.1,393.36"];
	87	[height=0.5,
		pos="1160.2,450.91",
		width=0.75];
	1 -- 87	[pos="1028,432.6 1057.3,436.66 1104.2,443.15 1133.6,447.22"];
	90	[height=0.5,
		pos="1081.7,622.11",
		width=0.75];
	1 -- 90	[pos="1008.7,446.4 1023.9,483.09 1059.1,567.75 1074.4,604.53"];
	96	[height=0.5,
		pos="1098.7,705.6",
		width=0.75];
	1 -- 96	[pos="1007.6,446.64 1025.2,496.62 1075,638.22 1092.6,688.02"];
	102	[height=0.5,
		pos="892.42,385.58",
		width=0.75];
	1 -- 102	[pos="978.01,419.62 959.63,412.31 934.13,402.17 915.76,394.86"];
	117	[height=0.5,
		pos="1205.8,626.94",
		width=0.75];
	1 -- 117	[pos="1016.8,443.8 1054.6,480.5 1152.2,575.01 1190.3,611.89"];
	1 -- 119	[pos="1026.4,421.47 1069.1,408.75 1155.6,382.99 1198.2,370.3"];
	139	[height=0.5,
		pos="997.82,238.13",
		width=0.75];
	1 -- 139	[pos="1001,410.62 1000.4,374.16 998.84,292.79 998.16,256.37"];
	1 -- 150	[pos="1020.9,416.4 1046.8,399.79 1092.3,370.63 1118.2,354.04"];
	151	[height=0.5,
		pos="1308.4,314.65",
		width=0.75];
	1 -- 151	[pos="1025,420.14 1082.1,398.87 1227.5,344.76 1284.7,323.46"];
	164	[height=0.5,
		pos="778.34,610.72",
		width=0.75];
	1 -- 164	[pos="984.26,442.88 942.74,476.72 837.11,562.82 795.53,596.71"];
	167	[height=0.5,
		pos="786.79,355.19",
		width=0.75];
	1 -- 167	[pos="977.19,420.6 935.87,406.41 852.17,377.65 810.9,363.47"];
	173	[height=0.5,
		pos="1139.7,545.89",
		width=0.75];
	1 -- 173	[pos="1018.3,443.26 1044.9,465.71 1095.9,508.91 1122.6,531.43"];
	177	[height=0.5,
		pos="831.4,549.85",
		width=0.75];
	1 -- 177	[pos="982.88,442.09 950.18,465.35 882.58,513.44 849.9,536.69"];
	178	[height=0.5,
		pos="608.69,500.69",
		width=0.75];
	1 -- 178	[pos="975.32,433.68 903.97,446.72 706.09,482.89 634.75,495.93"];
	181	[height=0.5,
		pos="902.41,616.62",
		width=0.75];
	1 -- 181	[pos="992.43,445.9 973.64,481.55 930.26,563.81 911.42,599.54"];
	191	[height=0.5,
		pos="1059.9,246.88",
		width=0.75];
	1 -- 191	[pos="1007.1,411.13 1018.3,376.33 1042.9,299.6 1054.1,264.74"];
	200	[height=0.5,
		pos="1055.4,367.22",
		width=0.75];
	1 -- 200	[pos="1015,413.35 1023.1,404.07 1033.4,392.32 1041.6,383"];
	223	[height=0.5,
		pos="1214.9,494.91",
		width=0.75];
	1 -- 223	[pos="1026.3,436.62 1067.4,449.33 1149.1,474.58 1190.1,487.26"];
	226	[height=0.5,
		pos="1184.1,296.63",
		width=0.75];
	1 -- 226	[pos="1019.9,415.5 1055,390.08 1130.8,335.17 1165.8,309.88"];
	227	[height=0.5,
		pos="849.36,341.56",
		width=0.75];
	1 -- 227	[pos="980.89,417.13 951.87,400.46 899.13,370.15 870.02,353.43"];
	232	[height=0.5,
		pos="935.77,253.53",
		width=0.75];
	1 -- 232	[pos="994.74,411.13 982.13,377.43 954.89,304.63 942.34,271.1"];
	235	[height=0.5,
		pos="1022.8,679.96",
		width=0.75];
	1 -- 235	[pos="1002.9,446.97 1006.9,493.18 1017.3,615.34 1021.2,661.73"];
	242	[height=0.5,
		pos="716.31,593.3",
		width=0.75];
	1 -- 242	[pos="980.89,440.74 928.42,471 789.7,550.99 737.01,581.37"];
	249	[height=0.5,
		pos="1247.7,582.94",
		width=0.75];
	1 -- 249	[pos="1021.1,441.26 1067.3,470.1 1181.7,541.64 1227.9,570.53"];
	2	[height=0.5,
		pos="590.19,792.21",
		width=0.75];
	52	[height=0.5,
		pos="484.64,540.37",
		width=0.75];
	2 -- 52	[pos="582.77,774.5 563.34,728.15 511.17,603.68 491.92,557.73"];
	61	[height=0.5,
		pos="583.57,594.78",
		width=0.75];
	2 -- 61	[pos="589.58,773.99 588.32,736.38 585.44,650.53 584.18,612.95"];
	63	[height=0.5,
		pos="901.53,728.86",
		width=0.75];
	2 -- 63	[pos="616.2,786.92 674.8,774.99 816.63,746.13 875.38,734.18"];
	93	[height=0.5,
		pos="428.82,900.97",
		width=0.75];
	2 -- 93	[pos="571.04,805.11 539.99,826.04 478.98,867.16 447.94,888.08"];
	103	[height=0.5,
		pos="432.9,728.63",
		width=0.75];
	2 -- 103	[pos="566.98,782.83 537.24,770.81 485.99,750.09 456.2,738.05"];
	118	[height=0.5,
		pos="399.6,772.64",
		width=0.75];
	2 -- 118	[pos="563.28,789.45 526.96,785.72 462.62,779.11 426.36,775.39"];
	122	[height=0.5,
		pos="679.11,998.22",
		width=0.75];
	2 -- 122	[pos="597.77,809.77 614.57,848.7 654.77,941.82 671.55,980.7"];
	144	[height=0.5,
		pos="543.05,950.45",
		width=0.75];
	2 -- 144	[pos="584.87,810.05 575.82,840.44 557.51,901.91 548.42,932.43"];
	152	[height=0.5,
		pos="564.02,906.43",
		width=0.75];
	2 -- 152	[pos="586.1,810.06 581.21,831.39 573.08,866.89 568.17,888.33"];
	2 -- 164	[pos="605.58,777.36 640.87,743.32 727.24,660.01 762.73,625.78"];
	179	[height=0.5,
		pos="735.44,953.7",
		width=0.75];
	2 -- 179	[pos="604.11,807.69 631.81,838.48 693.51,907.08 721.34,938.03"];
	193	[height=0.5,
		pos="781.5,856.79",
		width=0.75];
	2 -- 193	[pos="614.42,800.39 651.12,812.78 720.4,836.17 757.16,848.58"];
	208	[height=0.5,
		pos="953.63,843.62",
		width=0.75];
	2 -- 208	[pos="616.62,795.95 683.59,805.42 859.41,830.29 926.81,839.82"];
	3	[height=0.5,
		pos="777.03,654.75",
		width=0.75];
	53	[height=0.5,
		pos="730.82,742.81",
		width=0.75];
	3 -- 53	[pos="767.9,672.15 759.74,687.69 747.87,710.31 739.77,725.75"];
	54	[height=0.5,
		pos="1019.6,632.76",
		width=0.75];
	3 -- 54	[pos="803.92,652.31 850.55,648.09 945.91,639.44 992.63,635.21"];
	3 -- 62	[pos="784.67,637.38 799.92,602.76 833.93,525.51 849.16,490.94"];
	73	[height=0.5,
		pos="792.85,766.52",
		width=0.75];
	3 -- 73	[pos="779.57,672.71 782.5,693.44 787.31,727.37 790.26,748.24"];
	78	[height=0.5,
		pos="957.71,572.36",
		width=0.75];
	3 -- 78	[pos="799.54,644.48 834.26,628.65 900.48,598.46 935.19,582.63"];
	98	[height=0.5,
		pos="891.57,818.76",
		width=0.75];
	3 -- 98	[pos="788.43,671.08 810.27,702.35 857.8,770.41 879.88,802.01"];
	99	[height=0.5,
		pos="558.3,547.28",
		width=0.75];
	3 -- 99	[pos="755.25,644.05 713.44,623.51 622.31,578.73 580.31,558.09"];
	101	[height=0.5,
		pos="652.22,818.36",
		width=0.75];
	3 -- 101	[pos="764.6,671.04 740.68,702.4 688.48,770.83 664.59,802.14"];
	105	[height=0.5,
		pos="1025.6,793.83",
		width=0.75];
	3 -- 105	[pos="797.79,666.37 844.58,692.55 957.82,755.91 1004.7,782.15"];
	3 -- 135	[pos="791.52,639.31 823.65,605.1 900.51,523.23 932.6,489.05"];
	137	[height=0.5,
		pos="957.81,887.79",
		width=0.75];
	3 -- 137	[pos="789.45,670.77 822.48,713.34 912.17,828.96 945.29,871.66"];
	3 -- 153	[pos="795.77,641.36 832.53,615.09 913.71,557.08 950.31,530.93"];
	155	[height=0.5,
		pos="589.68,658.89",
		width=0.75];
	3 -- 155	[pos="749.78,655.35 714.26,656.14 652.49,657.5 616.95,658.29"];
	166	[height=0.5,
		pos="854.88,774.43",
		width=0.75];
	3 -- 166	[pos="787.85,671.39 802.64,694.13 829.02,734.68 843.89,757.55"];
	171	[height=0.5,
		pos="617.02,862.39",
		width=0.75];
	3 -- 171	[pos="764.47,671.04 734.56,709.86 659.37,807.44 629.51,846.18"];
	217	[height=0.5,
		pos="657.42,456.67",
		width=0.75];
	3 -- 217	[pos="766.83,637.86 744.23,600.44 690.16,510.9 667.59,473.52"];
	243	[height=0.5,
		pos="719.45,434.59",
		width=0.75];
	3 -- 243	[pos="772.31,636.73 761.49,595.35 734.95,493.88 724.14,452.55"];
	4	[height=0.5,
		pos="830.99,704.7",
		width=0.75];
	4 -- 51	[pos="838.9,687.47 850.85,661.45 873.37,612.38 885.4,586.19"];
	55	[height=0.5,
		pos="1089.7,854.06",
		width=0.75];
	4 -- 55	[pos="851.72,716.67 900.28,744.7 1020.9,814.35 1069.2,842.24"];
	68	[height=0.5,
		pos="711.75,862.43",
		width=0.75];
	4 -- 68	[pos="818.68,720.98 795.83,751.21 747.11,815.66 724.17,846"];
	89	[height=0.5,
		pos="732.77,478.73",
		width=0.75];
	4 -- 89	[pos="823.45,687.34 805.16,645.28 758.65,538.27 740.34,496.15"];
	4 -- 98	[pos="840.19,722.02 851.64,743.58 871.08,780.18 882.48,801.64"];
	141	[height=0.5,
		pos="645.63,593.4",
		width=0.75];
	4 -- 141	[pos="810.8,692.58 775.14,671.17 701.43,626.91 665.79,605.51"];
	154	[height=0.5,
		pos="1186.8,815.94",
		width=0.75];
	4 -- 154	[pos="855.45,712.34 920.45,732.67 1097,787.86 1162.2,808.24"];
	156	[height=0.5,
		pos="957.43,667.6",
		width=0.75];
	4 -- 156	[pos="855.97,697.37 878.14,690.87 910.35,681.41 932.5,674.91"];
	4 -- 166	[pos="837.02,722.3 840.61,732.79 845.16,746.07 848.77,756.6"];
	170	[height=0.5,
		pos="670.74,505.23",
		width=0.75];
	4 -- 170	[pos="818.15,688.71 788.14,651.36 713.71,558.72 683.64,521.3"];
	174	[height=0.5,
		pos="1087.6,810.03",
		width=0.75];
	4 -- 174	[pos="854.22,714.23 902.95,734.24 1015.4,780.39 1064.3,800.45"];
	176	[height=0.5,
		pos="725.88,906.44",
		width=0.75];
	4 -- 176	[pos="822.03,721.9 802.17,760.01 754.66,851.21 734.82,889.28"];
	4 -- 181	[pos="844.09,688.54 856.98,672.65 876.54,648.53 889.4,632.67"];
	182	[height=0.5,
		pos="893.9,921.08",
		width=0.75];
	4 -- 182	[pos="836.14,722.41 847.94,762.98 876.82,862.32 888.68,903.13"];
	189	[height=0.5,
		pos="963.57,768.42",
		width=0.75];
	4 -- 189	[pos="853.18,715.36 877.65,727.13 916.8,745.94 941.31,757.72"];
	4 -- 193	[pos="825.22,722.44 815.68,751.75 796.75,809.93 787.24,839.16"];
	195	[height=0.5,
		pos="668.77,774.31",
		width=0.75];
	4 -- 195	[pos="808.09,714.52 777.17,727.79 722.41,751.29 691.55,764.53"];
	231	[height=0.5,
		pos="1019.4,931.95",
		width=0.75];
	4 -- 231	[pos="844.24,720.68 878.82,762.4 971.56,874.28 1006.1,915.98"];
	241	[height=0.5,
		pos="766.01,547.41",
		width=0.75];
	4 -- 241	[pos="823.79,687.26 811.3,657.03 785.76,595.21 773.24,564.93"];
	5	[height=0.5,
		pos="743.52,258.72",
		width=0.75];
	56	[height=0.5,
		pos="1034.4,150.07",
		width=0.75];
	5 -- 56	[pos="767.33,249.83 822.02,229.41 956.1,179.33 1010.7,158.93"];
	65	[height=0.5,
		pos="582.72,184.29",
		width=0.75];
	5 -- 65	[pos="721.17,248.37 690.53,234.19 635.82,208.87 605.15,194.67"];
	5 -- 72	[pos="767.56,267.32 785.51,273.74 809.94,282.48 827.87,288.89"];
	95	[height=0.5,
		pos="838.52,83.906",
		width=0.75];
	5 -- 95	[pos="752.81,241.64 770.97,208.22 811.01,134.53 829.2,101.06"];
	113	[height=0.5,
		pos="722.99,316.36",
		width=0.75];
	5 -- 113	[pos="737.25,276.33 734.75,283.34 731.88,291.41 729.37,298.46"];
	132	[height=0.5,
		pos="776.43,79.159",
		width=0.75];
	5 -- 132	[pos="746.8,240.85 753.09,206.52 766.8,131.71 773.12,97.226"];
	157	[height=0.5,
		pos="503.21,173.38",
		width=0.75];
	5 -- 157	[pos="719.6,250.23 673.66,233.91 573.54,198.35 527.39,181.96"];
	158	[height=0.5,
		pos="914.87,341.58",
		width=0.75];
	5 -- 158	[pos="765.57,269.38 798.48,285.29 860.06,315.07 892.91,330.95"];
	165	[height=0.5,
		pos="631.36,228.32",
		width=0.75];
	5 -- 165	[pos="718.35,251.9 699.88,246.89 674.9,240.12 656.45,235.12"];
	203	[height=0.5,
		pos="621.29,139.99",
		width=0.75];
	5 -- 203	[pos="728.04,243.68 704.53,220.85 660.08,177.67 636.64,154.91"];
	5 -- 204	[pos="769.39,264.62 801.6,271.96 856.25,284.42 888.3,291.73"];
	219	[height=0.5,
		pos="607.77,400.91",
		width=0.75];
	5 -- 219	[pos="729,273.94 703,301.16 648.82,357.92 622.61,385.37"];
	5 -- 227	[pos="761.48,272.77 781.06,288.1 812.2,312.47 831.67,327.71"];
	5 -- 243	[pos="741.04,276.88 736.41,310.67 726.54,382.82 721.92,416.53"];
	248	[height=0.5,
		pos="496.19,217.58",
		width=0.75];
	5 -- 248	[pos="717.06,254.32 669.45,246.4 569.94,229.84 522.47,221.95"];
	6	[height=0.5,
		pos="1143.8,661.57",
		width=0.75];
	57	[height=0.5,
		pos="875.81,429.6",
		width=0.75];
	6 -- 57	[pos="1127,647.06 1078.9,605.4 940.68,485.76 892.56,444.11"];
	60	[height=0.5,
		pos="1020.6,876.92",
		width=0.75];
	6 -- 60	[pos="1134.1,678.47 1111.1,718.73 1053.2,819.92 1030.2,860.1"];
	6 -- 63	[pos="1118.8,668.52 1072.4,681.41 973.36,708.91 926.77,721.85"];
	6 -- 104	[pos="1161.1,647.45 1190.1,623.7 1248.4,576.05 1277.3,552.41"];
	125	[height=0.5,
		pos="1324.4,675.85",
		width=0.75];
	6 -- 125	[pos="1170.8,663.71 1205,666.41 1263.4,671.03 1297.4,673.72"];
	159	[height=0.5,
		pos="1248.9,844.02",
		width=0.75];
	6 -- 159	[pos="1153.5,678.41 1173.4,713.08 1219,792.1 1239,826.96"];
	6 -- 173	[pos="1143.1,643.5 1142.4,621.89 1141.1,585.94 1140.3,564.22"];
	175	[height=0.5,
		pos="1469.4,631.8",
		width=0.75];
	6 -- 175	[pos="1170.7,659.11 1232,653.51 1381.2,639.87 1442.4,634.27"];
	183	[height=0.5,
		pos="1345.1,719.87",
		width=0.75];
	6 -- 183	[pos="1168.9,668.84 1207.7,680.07 1281.7,701.52 1320.3,712.69"];
	202	[height=0.5,
		pos="1356.8,410.95",
		width=0.75];
	6 -- 202	[pos="1157.1,645.9 1195.4,600.89 1305.2,471.62 1343.5,426.62"];
	210	[height=0.5,
		pos="1432.7,416.62",
		width=0.75];
	6 -- 210	[pos="1160.6,647.34 1211.6,604.05 1364.8,474.23 1415.9,430.89"];
	7	[height=0.5,
		pos="324,506.96",
		width=0.75];
	58	[height=0.5,
		pos="99.707,549.43",
		width=0.75];
	7 -- 58	[pos="297.83,511.92 254.61,520.1 168.82,536.35 125.71,544.51"];
	59	[height=0.5,
		pos="346.14,701.57",
		width=0.75];
	7 -- 59	[pos="326.04,524.92 330.25,561.9 339.84,646.19 344.07,683.37"];
	82	[height=0.5,
		pos="452.36,417.7",
		width=0.75];
	7 -- 82	[pos="342.94,493.79 367.21,476.91 409.03,447.83 433.34,430.93"];
	7 -- 99	[pos="350.42,511.51 395.54,519.27 486.93,535 531.98,542.75"];
	133	[height=0.5,
		pos="305.99,626.62",
		width=0.75];
	7 -- 133	[pos="321.3,524.88 317.91,547.43 312.11,585.97 308.71,608.59"];
	146	[height=0.5,
		pos="215.18,578.7",
		width=0.75];
	7 -- 146	[pos="304.8,519.62 285.03,532.66 254.39,552.85 234.56,565.93"];
	147	[height=0.5,
		pos="355.39,461.49",
		width=0.75];
	7 -- 147	[pos="335.33,490.55 338.14,486.47 341.15,482.11 343.97,478.03"];
	160	[height=0.5,
		pos="418.67,462.07",
		width=0.75];
	7 -- 160	[pos="346.44,496.32 361.53,489.17 381.34,479.77 396.39,472.64"];
	169	[height=0.5,
		pos="387.46,381.84",
		width=0.75];
	7 -- 169	[pos="332.69,489.83 344.78,466 366.54,423.1 378.67,399.17"];
	198	[height=0.5,
		pos="263.33,389.49",
		width=0.75];
	7 -- 198	[pos="315.18,489.88 303.67,467.61 283.67,428.88 272.16,406.6"];
	213	[height=0.5,
		pos="162.75,533.81",
		width=0.75];
	7 -- 213	[pos="297.73,511.34 267.75,516.33 218.99,524.45 189.01,529.44"];
	234	[height=0.5,
		pos="449.62,337.91",
		width=0.75];
	7 -- 234	[pos="336.05,490.75 360.06,458.44 413.63,386.34 437.61,354.07"];
	239	[height=0.5,
		pos="91.393,502.75",
		width=0.75];
	7 -- 239	[pos="296.86,506.47 252.16,505.66 163.54,504.06 118.72,503.25"];
	8	[height=0.5,
		pos="595.35,444.94",
		width=0.75];
	8 -- 61	[pos="593.93,463.01 591.67,491.81 587.27,547.8 585,576.64"];
	115	[height=0.5,
		pos="398.11,507.06",
		width=0.75];
	8 -- 115	[pos="570.77,452.68 532.87,464.62 460.59,487.38 422.69,499.31"];
	8 -- 160	[pos="568.52,447.54 535.21,450.77 478.75,456.25 445.47,459.48"];
	161	[height=0.5,
		pos="434.3,596.57",
		width=0.75];
	8 -- 161	[pos="579.62,459.75 548.91,488.67 481.29,552.33 450.34,581.47"];
	162	[height=0.5,
		pos="787.32,302.75",
		width=0.75];
	8 -- 162	[pos="613.76,431.31 650.55,404.06 732.74,343.18 769.25,316.14"];
	212	[height=0.5,
		pos="681.5,272.33",
		width=0.75];
	8 -- 212	[pos="603.93,427.76 620.44,394.67 656.48,322.47 672.96,289.44"];
	9	[height=0.5,
		pos="1257.4,717.47",
		width=0.75];
	9 -- 55	[pos="1240.1,731.58 1208,757.75 1139.4,813.56 1107.2,839.83"];
	64	[height=0.5,
		pos="1469.2,780.69",
		width=0.75];
	9 -- 64	[pos="1282.2,724.85 1322.8,737 1403.5,761.08 1444.3,773.26"];
	9 -- 105	[pos="1233.1,725.5 1188.5,740.17 1094.5,771.13 1050,785.8"];
	9 -- 117	[pos="1247.7,700.45 1238.5,684.26 1224.7,660.05 1215.5,643.89"];
	126	[height=0.5,
		pos="1503.1,499.29",
		width=0.75];
	9 -- 126	[pos="1273.9,702.82 1318.7,663.07 1442,553.56 1486.7,513.89"];
	163	[height=0.5,
		pos="1270.4,888.03",
		width=0.75];
	9 -- 163	[pos="1258.8,735.73 1261.3,768.55 1266.6,837.18 1269,869.91"];
	9 -- 174	[pos="1236.3,729.01 1203.7,746.8 1141.4,780.71 1108.8,798.5"];
	197	[height=0.5,
		pos="1440.9,460.78",
		width=0.75];
	9 -- 197	[pos="1269.2,701.03 1302.3,654.66 1396.3,523.29 1429.3,477.09"];
	218	[height=0.5,
		pos="1405.8,849.63",
		width=0.75];
	9 -- 218	[pos="1273.9,732.12 1302.4,757.53 1360.7,809.47 1389.3,834.92"];
	221	[height=0.5,
		pos="1469.1,829.18",
		width=0.75];
	9 -- 221	[pos="1278.9,728.8 1319.6,750.26 1407.5,796.63 1447.9,817.99"];
	236	[height=0.5,
		pos="1154,972.37",
		width=0.75];
	9 -- 236	[pos="1250.3,734.99 1231.4,781.56 1180.1,908.02 1161.2,954.72"];
	9 -- 249	[pos="1256.1,699.33 1254.3,673.65 1250.9,626.98 1249,601.22"];
	10	[height=0.5,
		pos="548.04,356.89",
		width=0.75];
	10 -- 65	[pos="551.69,338.74 558.36,305.51 572.48,235.24 579.12,202.19"];
	10 -- 82	[pos="528.21,369.49 511.79,379.92 488.57,394.68 472.16,405.12"];
	10 -- 89	[pos="567.46,369.7 602.94,393.1 677.84,442.5 713.33,465.91"];
	91	[height=0.5,
		pos="669.81,372.2",
		width=0.75];
	10 -- 91	[pos="574.76,360.25 595.07,362.8 622.86,366.29 643.15,368.84"];
	116	[height=0.5,
		pos="531.55,312.87",
		width=0.75];
	10 -- 116	[pos="541.43,339.24 540.35,336.37 539.24,333.39 538.16,330.52"];
	121	[height=0.5,
		pos="325.35,355.55",
		width=0.75];
	10 -- 121	[pos="520.73,356.72 477.88,356.46 395.31,355.97 352.53,355.71"];
	134	[height=0.5,
		pos="407.49,270.8",
		width=0.75];
	10 -- 134	[pos="527.9,344.55 501.18,328.19 454.29,299.47 427.59,283.11"];
	10 -- 165	[pos="558.76,340.34 574.67,315.79 604.38,269.96 620.42,245.21"];
	168	[height=0.5,
		pos="811.65,215.34",
		width=0.75];
	10 -- 168	[pos="569.17,345.54 618.52,319.04 740.96,253.29 790.42,226.74"];
	10 -- 169	[pos="521.52,361.01 491.77,365.63 443.79,373.09 414.02,377.71"];
	10 -- 170	[pos="561.17,372.76 584.66,401.17 633.64,460.38 657.33,489.02"];
	192	[height=0.5,
		pos="748.65,214.72",
		width=0.75];
	10 -- 192	[pos="566.55,343.77 604.67,316.75 691.56,255.18 729.89,228.02"];
	205	[height=0.5,
		pos="686.63,178.94",
		width=0.75];
	10 -- 205	[pos="560.58,340.78 586.9,306.99 647.63,229.01 674.02,195.14"];
	10 -- 217	[pos="564.18,371.61 584.86,390.48 620.5,422.99 641.21,441.89"];
	11	[height=0.5,
		pos="429.19,945.44",
		width=0.75];
	66	[height=0.5,
		pos="592.29,1036.2",
		width=0.75];
	11 -- 66	[pos="450.18,957.11 481.5,974.53 540.11,1007.1 571.38,1024.5"];
	83	[height=0.5,
		pos="337.57,778.89",
		width=0.75];
	11 -- 83	[pos="419.73,928.24 402.17,896.33 364.73,828.27 347.11,796.24"];
	11 -- 144	[pos="456.18,946.63 474.19,947.42 497.81,948.46 515.87,949.25"];
	145	[height=0.5,
		pos="251.85,809.66",
		width=0.75];
	11 -- 145	[pos="411.21,931.67 377.13,905.58 303.53,849.22 269.62,823.26"];
	11 -- 171	[pos="451.85,935.42 487.95,919.46 558.13,888.43 594.28,872.45"];
	196	[height=0.5,
		pos="806.37,909.01",
		width=0.75];
	11 -- 196	[pos="456.02,942.85 525.36,936.15 709.96,918.32 779.43,911.62"];
	12	[height=0.5,
		pos="404.08,825.12",
		width=0.75];
	67	[height=0.5,
		pos="427.97,684.59",
		width=0.75];
	12 -- 67	[pos="407.15,807.04 411.74,780.05 420.32,729.55 424.9,702.61"];
	71	[height=0.5,
		pos="631.62,947.67",
		width=0.75];
	12 -- 71	[pos="425.49,836.65 468.96,860.06 567.15,912.94 610.44,936.26"];
	12 -- 93	[pos="409.82,842.71 413.79,854.88 419.05,871.01 423.03,883.21"];
	142	[height=0.5,
		pos="275.56,763.34",
		width=0.75];
	12 -- 142	[pos="381.98,814.5 358.44,803.18 321.39,785.37 297.79,774.03"];
	12 -- 161	[pos="406.45,807.19 412.09,764.57 426.23,657.59 431.9,614.74"];
	172	[height=0.5,
		pos="282.96,904.32",
		width=0.75];
	12 -- 172	[pos="384.62,837.84 362.02,852.62 324.95,876.86 302.37,891.63"];
	229	[height=0.5,
		pos="528.15,812.95",
		width=0.75];
	12 -- 229	[pos="431,822.48 451.81,820.44 480.48,817.63 501.28,815.59"];
	13	[height=0.5,
		pos="490.91,856.95",
		width=0.75];
	13 -- 59	[pos="476.5,841.49 448.75,811.7 388.2,746.71 360.49,716.98"];
	13 -- 68	[pos="517.99,857.62 560.37,858.68 641.93,860.7 684.45,861.75"];
	13 -- 101	[pos="516.47,850.84 546.67,843.61 596.63,831.66 626.78,824.45"];
	120	[height=0.5,
		pos="463.63,640.59",
		width=0.75];
	13 -- 120	[pos="488.63,838.88 483.49,798.15 471.07,699.59 465.92,658.77"];
	13 -- 152	[pos="510.12,869.95 520.86,877.22 534.22,886.26 544.94,893.52"];
	13 -- 176	[pos="516.95,862.44 562.24,871.97 654.96,891.5 700.08,901"];
	187	[height=0.5,
		pos="616.37,991.72",
		width=0.75];
	13 -- 187	[pos="505.3,872.41 529.37,898.27 577.54,950.01 601.76,976.02"];
	14	[height=0.5,
		pos="682.56,692.22",
		width=0.75];
	14 -- 53	[pos="697.3,707.68 703.29,713.95 710.19,721.19 716.17,727.45"];
	69	[height=0.5,
		pos="466.14,810.86",
		width=0.75];
	14 -- 69	[pos="661.41,703.82 619.93,726.55 528.34,776.76 487.05,799.39"];
	127	[height=0.5,
		pos="512.52,684.61",
		width=0.75];
	14 -- 127	[pos="655.62,691.02 623.87,689.6 571.43,687.25 539.62,685.82"];
	14 -- 177	[pos="698.21,677.26 726.72,649.98 786.83,592.49 815.52,565.05"];
	186	[height=0.5,
		pos="842.47,660.65",
		width=0.75];
	14 -- 186	[pos="708.61,687.08 738.34,681.21 786.7,671.66 816.43,665.79"];
	201	[height=0.5,
		pos="692.23,549.27",
		width=0.75];
	14 -- 201	[pos="683.78,674.12 685.63,646.77 689.12,595.21 690.98,567.68"];
	211	[height=0.5,
		pos="840.39,613.37",
		width=0.75];
	14 -- 211	[pos="704.17,681.43 734.23,666.41 788.34,639.38 818.53,624.3"];
	233	[height=0.5,
		pos="528.17,761.51",
		width=0.75];
	14 -- 233	[pos="660.11,702.3 630.84,715.44 579.93,738.28 550.65,751.43"];
	15	[height=0.5,
		pos="298.57,579.26",
		width=0.75];
	70	[height=0.5,
		pos="171.55,489.36",
		width=0.75];
	15 -- 70	[pos="279.82,565.99 255.81,549 214.42,519.7 190.37,502.68"];
	15 -- 83	[pos="302.1,597.32 309.52,635.33 326.68,723.16 334.07,761"];
	15 -- 103	[pos="312.69,594.96 338.55,623.72 393.24,684.53 418.96,713.14"];
	110	[height=0.5,
		pos="325.38,407.01",
		width=0.75];
	15 -- 110	[pos="301.38,561.15 306.54,528.07 317.41,458.23 322.56,425.14"];
	140	[height=0.5,
		pos="293.33,452.4",
		width=0.75];
	15 -- 140	[pos="297.82,561.08 296.82,536.97 295.07,494.64 294.08,470.54"];
	148	[height=0.5,
		pos="122.11,599.25",
		width=0.75];
	15 -- 148	[pos="271.77,582.29 238.5,586.06 182.12,592.45 148.88,596.22"];
	15 -- 178	[pos="323.94,572.83 382.24,558.06 525.18,521.85 583.4,507.1"];
	180	[height=0.5,
		pos="231.27,445.22",
		width=0.75];
	15 -- 180	[pos="289.91,562.01 276.98,536.27 252.8,488.1 239.9,462.4"];
	207	[height=0.5,
		pos="215.31,708.75",
		width=0.75];
	15 -- 207	[pos="287.85,595.92 271.86,620.78 241.94,667.32 225.98,692.15"];
	220	[height=0.5,
		pos="526.68,638.83",
		width=0.75];
	15 -- 220	[pos="323.85,585.86 367.7,597.31 457.36,620.73 501.28,632.2"];
	16	[height=0.5,
		pos="830.8,953.78",
		width=0.75];
	16 -- 60	[pos="854.07,944.36 890.61,929.57 960.99,901.07 997.46,886.3"];
	16 -- 71	[pos="803.52,952.95 765.48,951.78 696.92,949.67 658.89,948.5"];
	16 -- 179	[pos="803.72,953.76 790.84,953.75 775.47,953.74 762.58,953.73"];
	16 -- 182	[pos="852.16,942.71 858.74,939.3 865.98,935.55 872.56,932.14"];
	17	[height=0.5,
		pos="1407.1,745.27",
		width=0.75];
	75	[height=0.5,
		pos="1536.4,698.51",
		width=0.75];
	17 -- 75	[pos="1431.1,736.59 1454.4,728.19 1489.3,715.53 1512.5,707.15"];
	17 -- 77	[pos="1395.7,728.84 1380.2,706.38 1352.4,666.32 1336.7,643.74"];
	86	[height=0.5,
		pos="1230.1,932.28",
		width=0.75];
	17 -- 86	[pos="1392.6,760.58 1359.4,795.73 1277.8,881.92 1244.5,917.02"];
	17 -- 112	[pos="1405.7,727.3 1403.1,696.12 1397.9,632.37 1395.4,601.13"];
	130	[height=0.5,
		pos="1332.5,868.79",
		width=0.75];
	17 -- 130	[pos="1396.9,762.19 1382.6,785.84 1356.8,828.54 1342.6,852.08"];
	17 -- 154	[pos="1382.7,753.11 1340.4,766.69 1253.8,794.46 1211.4,808.07"];
	17 -- 183	[pos="1384,735.81 1378.9,733.73 1373.5,731.51 1368.4,729.42"];
	194	[height=0.5,
		pos="1530.9,587.71",
		width=0.75];
	17 -- 194	[pos="1419.7,729.3 1443.4,699.1 1494.6,633.96 1518.3,603.73"];
	17 -- 218	[pos="1406.9,763.45 1406.7,782.49 1406.3,812.22 1406,831.31"];
	225	[height=0.5,
		pos="1531.2,786.88",
		width=0.75];
	17 -- 225	[pos="1431.4,753.39 1453.2,760.72 1485.2,771.45 1507.1,778.78"];
	247	[height=0.5,
		pos="1531.4,646.15",
		width=0.75];
	17 -- 247	[pos="1424.7,731.28 1448.4,712.39 1490.3,678.92 1514,660.07"];
	18	[height=0.5,
		pos="1506.2,543.45",
		width=0.75];
	18 -- 75	[pos="1509.7,561.54 1515.6,591.42 1527.1,650.73 1532.9,680.53"];
	18 -- 76	[pos="1479.4,539.87 1452.2,536.23 1410.1,530.61 1383,526.98"];
	18 -- 175	[pos="1498.9,560.91 1492.5,576.4 1483.1,598.9 1476.6,614.38"];
	184	[height=0.5,
		pos="1609.5,644.36",
		width=0.75];
	18 -- 184	[pos="1521.5,558.34 1541,577.42 1574.6,610.3 1594.2,629.41"];
	222	[height=0.5,
		pos="1571.4,402.71",
		width=0.75];
	18 -- 222	[pos="1514.2,526.19 1526.7,499.18 1550.8,447.21 1563.3,420.11"];
	230	[height=0.5,
		pos="1595.7,512.75",
		width=0.75];
	18 -- 230	[pos="1530.7,535.06 1543.4,530.69 1558.9,525.37 1571.6,521.02"];
	18 -- 247	[pos="1510.6,561.34 1515.2,580.07 1522.4,609.33 1527,628.12"];
	19	[height=0.5,
		pos="1030.9,540.26",
		width=0.75];
	19 -- 78	[pos="1008.1,550.24 999.32,554.11 989.25,558.52 980.44,562.39"];
	79	[height=0.5,
		pos="1275.8,450.91",
		width=0.75];
	19 -- 79	[pos="1054.8,531.53 1101.6,514.45 1204.9,476.79 1251.8,459.68"];
	19 -- 87	[pos="1049.7,527.27 1074.2,510.33 1116.9,480.87 1141.4,463.92"];
	109	[height=0.5,
		pos="1246.4,318.85",
		width=0.75];
	19 -- 109	[pos="1045.7,525.05 1085.1,484.6 1192,374.75 1231.5,334.18"];
	124	[height=0.5,
		pos="1397.5,644.31",
		width=0.75];
	19 -- 124	[pos="1055.8,547.33 1122.7,566.32 1305.6,618.24 1372.6,637.23"];
	19 -- 156	[pos="1021.1,557.17 1007.1,581.53 981.29,626.23 967.22,650.62"];
	185	[height=0.5,
		pos="939.36,429.64",
		width=0.75];
	19 -- 185	[pos="1017.8,524.41 1000.4,503.38 969.83,466.47 952.44,445.46"];
	19 -- 211	[pos="1007.1,549.38 970.43,563.46 900.35,590.36 863.83,604.38"];
	20	[height=0.5,
		pos="1019.7,588.31",
		width=0.75];
	20 -- 81	[pos="1044.9,581.55 1079.9,572.12 1143.1,555.12 1178.1,545.69"];
	106	[height=0.5,
		pos="1220.5,406.91",
		width=0.75];
	20 -- 106	[pos="1035.8,573.77 1073.4,539.81 1166.7,455.55 1204.3,421.52"];
	20 -- 186	[pos="996.56,597.77 962.59,611.63 899.62,637.33 865.65,651.19"];
	20 -- 189	[pos="1014.1,606.24 1003.4,640.76 979.88,716.1 969.14,750.57"];
	21	[height=0.5,
		pos="1055.3,474.5",
		width=0.75];
	21 -- 79	[pos="1082.4,471.61 1124.8,467.07 1206.6,458.32 1248.9,453.79"];
	21 -- 84	[pos="1069.7,459.01 1084.7,442.79 1108.1,417.45 1123.1,401.18"];
	94	[height=0.5,
		pos="1149.7,771.88",
		width=0.75];
	21 -- 94	[pos="1061,492.21 1077.7,545.1 1127.3,701.49 1144.1,754.26"];
	21 -- 158	[pos="1039.8,459.77 1012.8,434.22 957.56,381.97 930.51,356.38"];
	21 -- 190	[pos="1078.9,465.05 1132.3,443.71 1261.5,391.97 1314.5,370.72"];
	21 -- 200	[pos="1055.3,456.3 1055.4,436.57 1055.4,405.27 1055.4,385.51"];
	22	[height=0.5,
		pos="987.41,106.05",
		width=0.75];
	22 -- 85	[pos="1007.4,118.41 1042,139.85 1112.7,183.69 1147.4,205.17"];
	92	[height=0.5,
		pos="1203.7,145.23",
		width=0.75];
	22 -- 92	[pos="1013.5,110.78 1055.1,118.31 1135.9,132.95 1177.5,140.49"];
	22 -- 95	[pos="960.79,102.09 933.69,98.062 891.92,91.849 864.91,87.831"];
	22 -- 168	[pos="967.59,118.38 933.74,139.42 865.19,182.04 831.39,203.06"];
	22 -- 191	[pos="996.29,123.32 1010.2,150.35 1036.9,202.35 1050.9,229.47"];
	23	[height=0.5,
		pos="1082.8,898.06",
		width=0.75];
	23 -- 50	[pos="1082.6,879.86 1082.3,851.37 1081.7,796.56 1081.4,767.98"];
	23 -- 86	[pos="1108.5,904.02 1135.3,910.26 1177.3,920.01 1204.2,926.27"];
	23 -- 96	[pos="1084.3,879.95 1087.3,843.27 1094.2,760.55 1097.2,723.8"];
	23 -- 159	[pos="1107.3,890.09 1138.8,879.84 1193.1,862.16 1224.5,851.94"];
	23 -- 196	[pos="1055.8,899.13 1002.9,901.23 886.42,905.84 833.49,907.94"];
	23 -- 231	[pos="1061.7,909.34 1054.9,912.96 1047.4,916.97 1040.6,920.6"];
	24	[height=0.5,
		pos="1394.6,271.58",
		width=0.75];
	24 -- 56	[pos="1370.4,263.42 1304.9,241.34 1124.9,180.58 1059,158.36"];
	24 -- 92	[pos="1375.2,258.77 1338.6,234.55 1259.7,182.32 1223.1,158.08"];
	24 -- 151	[pos="1372.8,282.45 1359.8,288.98 1343.2,297.26 1330.1,303.79"];
	24 -- 197	[pos="1398.9,289.38 1407.8,325.44 1427.7,406.75 1436.5,442.89"];
	24 -- 210	[pos="1399.3,289.36 1406.6,317.2 1420.7,370.76 1428,398.69"];
	228	[height=0.5,
		pos="1487.2,268.18",
		width=0.75];
	24 -- 228	[pos="1421.9,270.58 1433.9,270.14 1448.1,269.62 1460.1,269.18"];
	25	[height=0.5,
		pos="387.55,328.55",
		width=0.75];
	25 -- 52	[pos="395.49,345.89 413.75,385.71 458.5,483.33 476.72,523.1"];
	97	[height=0.5,
		pos="324.56,291.91",
		width=0.75];
	25 -- 97	[pos="366.92,316.56 359.89,312.47 352.03,307.9 345.02,303.81"];
	25 -- 134	[pos="393.64,310.91 396.07,303.88 398.86,295.8 401.3,288.74"];
	25 -- 140	[pos="375.23,344.74 357.17,368.48 323.71,412.47 305.65,436.21"];
	25 -- 198	[pos="365.62,339.31 343.06,350.38 308.09,367.54 285.45,378.64"];
	206	[height=0.5,
		pos="345.46,240.63",
		width=0.75];
	25 -- 206	[pos="379.23,311.18 371.85,295.77 361.13,273.37 353.76,257.96"];
	237	[height=0.5,
		pos="434.12,225.21",
		width=0.75];
	25 -- 237	[pos="395.45,311.02 404.06,291.9 417.76,261.5 426.33,242.48"];
	25 -- 248	[pos="402.65,313.12 423.41,291.92 460.52,254.01 481.21,232.88"];
	26	[height=0.5,
		pos="1098.3,156.51",
		width=0.75];
	26 -- 74	[pos="1101.6,174.38 1106.1,198.79 1114.1,242.33 1118.6,266.88"];
	100	[height=0.5,
		pos="1416.3,226.93",
		width=0.75];
	26 -- 100	[pos="1124.1,162.21 1183.7,175.41 1330.5,207.92 1390.3,221.17"];
	26 -- 109	[pos="1112.5,172.08 1140.7,203.03 1203.6,271.99 1232,303.1"];
	26 -- 162	[pos="1076,167.03 1018.6,194.01 866.64,265.45 809.48,292.33"];
	199	[height=0.5,
		pos="933.08,18",
		width=0.75];
	26 -- 199	[pos="1081.3,142.21 1049.6,115.67 982.08,59.071 950.3,32.431"];
	27	[height=0.5,
		pos="781.63,399.44",
		width=0.75];
	27 -- 91	[pos="756.25,393.26 738.08,388.83 713.7,382.89 695.47,378.45"];
	27 -- 102	[pos="808.16,396.12 825.58,393.94 848.27,391.1 865.71,388.92"];
	27 -- 113	[pos="770.04,383.02 759.76,368.46 744.82,347.29 734.55,332.74"];
	27 -- 185	[pos="807.67,404.43 836.9,410.02 884.03,419.05 913.27,424.64"];
	27 -- 201	[pos="771.54,416.34 754.37,445.11 719.65,503.32 702.41,532.21"];
	27 -- 241	[pos="779.71,417.58 776.71,445.98 770.94,500.63 767.94,529.12"];
	28	[height=0.5,
		pos="1291.8,270.6",
		width=0.75];
	28 -- 106	[pos="1282.8,287.86 1269.1,314.08 1243.1,363.65 1229.5,389.78"];
	143	[height=0.5,
		pos="928.94,62.022",
		width=0.75];
	28 -- 143	[pos="1271.3,258.79 1207.5,222.16 1013.7,110.76 949.72,73.963"];
	28 -- 188	[pos="1312.5,282.43 1324,289.04 1338.4,297.26 1349.9,303.87"];
	28 -- 202	[pos="1299.8,287.81 1312.3,314.74 1336.3,366.57 1348.8,393.6"];
	224	[height=0.5,
		pos="1430.5,360.17",
		width=0.75];
	28 -- 224	[pos="1311.4,283.24 1337.8,300.31 1384.7,330.55 1411,347.59"];
	28 -- 226	[pos="1266.3,276.77 1249.2,280.89 1226.9,286.28 1209.8,290.41"];
	29	[height=0.5,
		pos="596.36,285.3",
		width=0.75];
	29 -- 57	[pos="617.82,296.38 669.84,323.24 802.18,391.58 854.27,418.48"];
	107	[height=0.5,
		pos="597.08,93.608",
		width=0.75];
	29 -- 107	[pos="596.43,267.27 596.56,230.73 596.87,148.34 597.01,111.73"];
	29 -- 167	[pos="620.09,294.01 656.68,307.44 726.47,333.05 763.06,346.48"];
	29 -- 203	[pos="599.47,267.19 604.24,239.35 613.34,186.31 618.14,158.33"];
	29 -- 234	[pos="572.46,293.87 545.17,303.65 500.8,319.56 473.51,329.34"];
	29 -- 237	[pos="572.42,276.43 541.66,265.04 488.57,245.38 457.89,234.02"];
	240	[height=0.5,
		pos="417.01,181.03",
		width=0.75];
	29 -- 240	[pos="575.79,273.34 541.28,253.28 472.15,213.09 437.62,193.01"];
	30	[height=0.5,
		pos="804.33,129.66",
		width=0.75];
	30 -- 80	[pos="818.05,145.63 830.29,159.9 848.13,180.68 860.29,194.86"];
	30 -- 108	[pos="828.73,137.56 866.91,149.93 940.38,173.73 978.69,186.14"];
	138	[height=0.5,
		pos="846.01,28.608",
		width=0.75];
	30 -- 138	[pos="811.59,112.05 819.24,93.508 831.21,64.478 838.83,46.008"];
	30 -- 199	[pos="820.9,115.29 845.62,93.848 891.89,53.72 916.58,32.313"];
	30 -- 205	[pos="781.36,139.27 760.62,147.96 730.27,160.67 709.55,169.35"];
	209	[height=0.5,
		pos="770.24,32.051",
		width=0.75];
	30 -- 209	[pos="798.08,111.75 791.93,94.142 782.59,67.411 776.45,49.839"];
	30 -- 212	[pos="790.72,145.47 767.11,172.89 718.83,228.97 695.18,256.44"];
	31	[height=0.5,
		pos="469.52,293.87",
		width=0.75];
	31 -- 97	[pos="442.25,293.5 416.34,293.15 377.58,292.63 351.7,292.28"];
	31 -- 110	[pos="451.85,307.74 424.18,329.46 370.95,371.24 343.2,393.03"];
	149	[height=0.5,
		pos="263.19,341.06",
		width=0.75];
	31 -- 149	[pos="443.81,299.75 404.16,308.82 328.55,326.11 288.9,335.18"];
	31 -- 157	[pos="474.49,276.09 480.86,253.31 491.84,214.05 498.22,191.23"];
	31 -- 206	[pos="446.77,284.1 424.52,274.56 390.83,260.1 368.49,250.51"];
	31 -- 240	[pos="461.32,276.24 451.45,255.04 435,219.68 425.16,198.54"];
	32	[height=0.5,
		pos="313.98,822.92",
		width=0.75];
	32 -- 69	[pos="340.84,820.79 368.56,818.6 411.58,815.18 439.3,812.99"];
	111	[height=0.5,
		pos="345.02,869.19",
		width=0.75];
	32 -- 111	[pos="325.01,839.37 327.87,843.62 330.95,848.22 333.82,852.49"];
	32 -- 172	[pos="307.25,840.59 302.05,854.24 294.88,873.05 289.68,886.69"];
	32 -- 207	[pos="300.26,807.05 281.41,785.24 247.7,746.23 228.91,724.49"];
	33	[height=0.5,
		pos="1211.7,764.58",
		width=0.75];
	33 -- 90	[pos="1197.5,749.06 1172.5,721.66 1120.9,665 1095.9,637.61"];
	33 -- 114	[pos="1221,747.42 1230.1,730.53 1244,704.9 1253.1,688.05"];
	33 -- 130	[pos="1228.5,779.07 1251.6,798.98 1292.8,834.58 1315.8,854.43"];
	33 -- 163	[pos="1219.9,781.75 1231,805.2 1250.9,847.03 1262.1,870.61"];
	33 -- 208	[pos="1187,772.16 1137.6,787.27 1027.6,820.97 978.3,836.06"];
	33 -- 235	[pos="1189.3,754.54 1153,738.3 1081.9,706.44 1045.5,690.12"];
	34	[height=0.5,
		pos="241.79,623.35",
		width=0.75];
	34 -- 115	[pos="260.02,609.78 290.15,587.37 349.94,542.89 379.99,520.54"];
	34 -- 118	[pos="257.49,638.21 287.74,666.83 353.75,729.27 383.95,757.84"];
	123	[height=0.5,
		pos="360.62,551.07",
		width=0.75];
	34 -- 123	[pos="261.94,611.09 283.8,597.8 318.47,576.71 340.37,563.39"];
	34 -- 142	[pos="246.13,641.37 252.62,668.25 264.75,718.56 271.23,745.4"];
	34 -- 213	[pos="228.02,607.75 213.6,591.42 191.08,565.91 176.63,549.53"];
	214	[height=0.5,
		pos="261.95,533.66",
		width=0.75];
	34 -- 214	[pos="245.87,605.2 249.39,589.54 254.45,567.05 257.95,551.48"];
	35	[height=0.5,
		pos="484.3,467.61",
		width=0.75];
	35 -- 116	[pos="489.72,449.86 498.79,420.17 516.93,360.76 526.05,330.89"];
	35 -- 120	[pos="482.13,485.79 478.16,519.02 469.78,589.15 465.81,622.39"];
	35 -- 141	[pos="501.87,481.31 532.91,505.51 597.06,555.53 628.08,579.71"];
	35 -- 147	[pos="457.28,466.33 435.28,465.28 404.37,463.81 382.38,462.77"];
	35 -- 214	[pos="459.23,475.06 416.41,487.78 329.69,513.54 286.94,526.24"];
	238	[height=0.5,
		pos="532.73,261.84",
		width=0.75];
	35 -- 238	[pos="488.52,449.71 497.67,410.79 519.31,318.86 528.49,279.85"];
	36	[height=0.5,
		pos="186.6,401.18",
		width=0.75];
	36 -- 70	[pos="183.48,419.45 180.88,434.68 177.2,456.27 174.62,471.42"];
	36 -- 121	[pos="211.09,393.12 236.45,384.78 275.84,371.83 301.11,363.52"];
	36 -- 149	[pos="204.36,387.23 216.74,377.52 233.17,364.62 245.52,354.93"];
	36 -- 180	[pos="201.72,416.09 206.28,420.58 211.28,425.52 215.86,430.03"];
	215	[height=0.5,
		pos="27,487.61",
		width=0.75];
	36 -- 215	[pos="165.4,412.65 134.79,429.23 78.544,459.69 48.027,476.22"];
	37	[height=0.5,
		pos="676.28,1042.3",
		width=0.75];
	37 -- 66	[pos="649.24,1040.3 639.65,1039.6 628.86,1038.8 619.28,1038.1"];
	37 -- 122	[pos="677.45,1024.1 677.61,1021.5 677.78,1018.9 677.95,1016.4"];
	37 -- 187	[pos="659.27,1027.9 651.11,1021 641.36,1012.8 633.21,1005.9"];
	216	[height=0.5,
		pos="882.58,1031.2",
		width=0.75];
	37 -- 216	[pos="703.25,1040.8 742.79,1038.7 816.06,1034.8 855.6,1032.6"];
	38	[height=0.5,
		pos="546.67,500.43",
		width=0.75];
	38 -- 67	[pos="535.93,517.1 513.38,552.07 461.37,632.77 438.77,667.83"];
	38 -- 123	[pos="521.58,507.26 486.07,516.93 421.53,534.5 385.91,544.19"];
	38 -- 219	[pos="557.03,483.55 568.27,465.25 586.1,436.21 597.36,417.88"];
	244	[height=0.5,
		pos="422.63,552.53",
		width=0.75];
	38 -- 244	[pos="523.63,510.11 501.35,519.47 467.78,533.57 445.54,542.91"];
	38 -- 245	[pos="573.69,498.59 621.42,495.32 720.09,488.58 767.79,485.32"];
	39	[height=0.5,
		pos="1474.4,698.01",
		width=0.75];
	39 -- 64	[pos="1473.2,716.36 1472.4,730.16 1471.2,748.96 1470.3,762.68"];
	39 -- 124	[pos="1455.4,684.74 1443.5,676.41 1428.2,665.73 1416.3,657.43"];
	39 -- 184	[pos="1497.6,688.79 1522.3,678.96 1561.3,663.49 1586.1,653.64"];
	39 -- 221	[pos="1473.6,716.25 1472.6,741.31 1470.9,786.12 1469.9,811.09"];
	39 -- 225	[pos="1485.1,714.73 1495.2,730.61 1510.4,754.37 1520.6,770.24"];
	40	[height=0.5,
		pos="1309.7,582.64",
		width=0.75];
	40 -- 54	[pos="1283.5,587.17 1228.4,596.69 1101.3,618.66 1046,628.2"];
	40 -- 125	[pos="1312.6,600.61 1315.2,617.12 1319,641.45 1321.6,657.94"];
	131	[height=0.5,
		pos="1439.3,538.8",
		width=0.75];
	40 -- 131	[pos="1334.1,574.39 1357.3,566.55 1391.9,554.83 1415,547.01"];
	136	[height=0.5,
		pos="965.33,723.99",
		width=0.75];
	40 -- 136	[pos="1286.6,592.13 1223.9,617.88 1051,688.83 988.36,714.53"];
	40 -- 223	[pos="1293.7,567.76 1276.1,551.53 1248.2,525.72 1230.7,509.57"];
	40 -- 224	[pos="1319,565.55 1341.5,524.14 1398.7,418.78 1421.2,377.31"];
	40 -- 246	[pos="1320.9,566.05 1333.8,546.78 1354.9,515.19 1367.8,495.94"];
	41	[height=0.5,
		pos="1527.1,336.74",
		width=0.75];
	41 -- 100	[pos="1511.7,321.47 1490.6,300.49 1452.7,262.98 1431.6,242.07"];
	41 -- 126	[pos="1524.5,354.76 1519.9,386 1510.4,449.89 1505.8,481.2"];
	41 -- 222	[pos="1538.3,353.39 1545,363.31 1553.4,375.88 1560.1,385.84"];
	41 -- 228	[pos="1517.3,319.79 1511.2,309.32 1503.4,295.93 1497.3,285.41"];
	42	[height=0.5,
		pos="744.6,698.78",
		width=0.75];
	42 -- 73	[pos="756.28,715.18 763.76,725.67 773.43,739.25 780.94,749.8"];
	42 -- 129	[pos="757.99,683.03 787.09,648.78 855.84,567.87 885.01,533.53"];
	42 -- 136	[pos="771.23,701.82 813.65,706.67 896.13,716.08 938.61,720.94"];
	42 -- 220	[pos="719.6,691.9 677.68,680.37 593.67,657.26 551.72,645.72"];
	42 -- 229	[pos="723.06,710.14 681.57,732.03 591.03,779.78 549.61,801.63"];
	43	[height=0.5,
		pos="1529.1,450.08",
		width=0.75];
	43 -- 128	[pos="1517.7,433.75 1514,428.52 1509.9,422.72 1506.3,417.47"];
	43 -- 131	[pos="1513.9,465.13 1497.3,481.45 1471.1,507.33 1454.6,523.68"];
	43 -- 194	[pos="1529.3,468.36 1529.7,494.68 1530.3,542.99 1530.7,569.36"];
	43 -- 230	[pos="1544.9,464.93 1555.5,474.92 1569.4,488.03 1580,498"];
	44	[height=0.5,
		pos="867.84,130.18",
		width=0.75];
	44 -- 88	[pos="892.1,138.14 934.18,151.94 1020.2,180.16 1062.4,193.99"];
	44 -- 132	[pos="847.1,118.6 832.24,110.31 812.32,99.188 797.41,90.867"];
	44 -- 138	[pos="863.94,112.02 859.96,93.534 853.84,65.042 849.88,46.61"];
	44 -- 139	[pos="884.83,144.29 909.74,164.98 955.91,203.32 980.82,224.01"];
	44 -- 192	[pos="849.22,143.39 826.83,159.27 789.48,185.76 767.14,201.6"];
	44 -- 232	[pos="877.29,147.33 890.26,170.9 913.47,213.03 926.4,236.52"];
	45	[height=0.5,
		pos="583.84,717.49",
		width=0.75];
	45 -- 111	[pos="563.89,730.16 518.82,758.79 409.6,828.17 364.74,856.66"];
	45 -- 133	[pos="559.18,709.42 506.46,692.18 383.27,651.89 330.59,634.67"];
	45 -- 195	[pos="603.11,730.38 617.01,739.68 635.69,752.18 649.57,761.46"];
	45 -- 233	[pos="566.23,731.42 559.73,736.56 552.37,742.38 545.86,747.52"];
	45 -- 242	[pos="599.56,702.75 625.05,678.85 675.13,631.9 700.61,608.02"];
	46	[height=0.5,
		pos="1053.7,976.14",
		width=0.75];
	46 -- 94	[pos="1061.9,958.72 1080,920.13 1123.4,827.8 1141.5,789.25"];
	46 -- 137	[pos="1037.8,961.55 1020.1,945.18 991.43,918.78 973.66,902.4"];
	46 -- 216	[pos="1029.2,984.03 996.64,994.49 939.55,1012.9 907.05,1023.3"];
	46 -- 236	[pos="1080.8,975.12 1095.1,974.58 1112.6,973.93 1126.8,973.39"];
	47	[height=0.5,
		pos="705.84,118.74",
		width=0.75];
	47 -- 107	[pos="680.07,112.78 662.73,108.78 639.97,103.52 622.67,99.521"];
	47 -- 143	[pos="731.44,112.23 774.47,101.29 860.82,79.341 903.65,68.452"];
	47 -- 209	[pos="717.96,102.43 729.47,86.935 746.69,63.757 758.18,48.283"];
	47 -- 238	[pos="688.61,132.98 655.43,160.41 583.02,220.27 549.89,247.66"];
	48	[height=0.5,
		pos="74.529,648.12",
		width=0.75];
	48 -- 58	[pos="79.147,630.02 83.69,612.21 90.585,585.18 95.118,567.42"];
	48 -- 145	[pos="90.578,662.74 124.25,693.42 201.96,764.2 235.71,794.95"];
	48 -- 148	[pos="89.324,632.92 94.999,627.09 101.47,620.44 107.16,614.6"];
	48 -- 215	[pos="69.261,630.33 60.125,599.47 41.444,536.39 32.292,505.48"];
	48 -- 239	[pos="76.631,630 79.862,602.14 86.017,549.09 89.265,521.1"];
	49	[height=0.5,
		pos="372.29,640.59",
		width=0.75];
	49 -- 127	[pos="397.04,648.36 422.67,656.41 462.48,668.9 488.02,676.92"];
	49 -- 146	[pos="348.77,631.33 319.07,619.62 268.26,599.61 238.6,587.93"];
	49 -- 155	[pos="399.39,642.87 441.16,646.39 520.82,653.09 562.59,656.61"];
	49 -- 244	[pos="382,623.61 390.91,608.02 404.05,585.04 412.95,569.46"];
}
