graph {
	graph [bb="0,0,869.32,724.64",
		outputorder=edgesfirst,
		overlap=prism,
		size="50,50!",
		start=2779
	];
	node [label="\N"];
	0	[height=0.5,
		pos="577.42,621.65",
		width=0.75];
	17	[height=0.5,
		pos="520.49,577.64",
		width=0.75];
	0 -- 17	[pos="559.72,607.97 552.93,602.72 545.18,596.73 538.37,591.47"];
	36	[height=0.5,
		pos="789.4,615.58",
		width=0.75];
	0 -- 36	[pos="604.7,620.87 645.41,619.7 721.59,617.52 762.23,616.36"];
	47	[height=0.5,
		pos="626.12,706.64",
		width=0.75];
	0 -- 47	[pos="587.28,638.85 595.78,653.69 608,675.01 616.45,689.76"];
	51	[height=0.5,
		pos="398.01,640.32",
		width=0.75];
	0 -- 51	[pos="550.56,624.45 516.64,627.98 458.63,634.01 424.76,637.54"];
	53	[height=0.5,
		pos="591.07,489.62",
		width=0.75];
	0 -- 53	[pos="579.29,603.57 581.89,578.43 586.57,533.15 589.18,507.9"];
	61	[height=0.5,
		pos="700.22,693.07",
		width=0.75];
	0 -- 61	[pos="597.98,633.6 620.65,646.79 656.91,667.88 679.6,681.07"];
	72	[height=0.5,
		pos="639.51,649.04",
		width=0.75];
	0 -- 72	[pos="600.19,631.69 605.59,634.07 611.35,636.61 616.75,639"];
	73	[height=0.5,
		pos="748.57,569.1",
		width=0.75];
	0 -- 73	[pos="602.31,614.01 634.85,604.02 691.51,586.62 723.93,576.66"];
	1	[height=0.5,
		pos="341.66,389.94",
		width=0.75];
	18	[height=0.5,
		pos="258.9,274.08",
		width=0.75];
	1 -- 18	[pos="329.8,373.34 314.07,351.31 286.46,312.66 270.74,290.65"];
	20	[height=0.5,
		pos="381.65,446.5",
		width=0.75];
	1 -- 20	[pos="353.23,406.3 358.48,413.74 364.7,422.52 369.97,429.98"];
	32	[height=0.5,
		pos="406.9,516.55",
		width=0.75];
	1 -- 32	[pos="350.46,407.01 362.91,431.18 385.54,475.1 398.03,499.34"];
	35	[height=0.5,
		pos="288.15,467.43",
		width=0.75];
	1 -- 35	[pos="330.31,406.37 321.23,419.52 308.56,437.87 299.48,451.02"];
	40	[height=0.5,
		pos="311.35,345.64",
		width=0.75];
	1 -- 40	[pos="330.37,373.44 327.88,369.8 325.24,365.94 322.75,362.3"];
	52	[height=0.5,
		pos="403.74,400.3",
		width=0.75];
	1 -- 52	[pos="367.99,394.33 371.03,394.84 374.13,395.36 377.17,395.87"];
	62	[height=0.5,
		pos="279.59,418.38",
		width=0.75];
	1 -- 62	[pos="319.25,400.21 313.7,402.75 307.74,405.48 302.17,408.03"];
	66	[height=0.5,
		pos="282.82,515.64",
		width=0.75];
	1 -- 66	[pos="333.6,407.15 322.4,431.09 302.22,474.19 290.97,498.23"];
	70	[height=0.5,
		pos="595.11,401.55",
		width=0.75];
	1 -- 70	[pos="368.78,391.18 417.44,393.41 519.01,398.06 567.8,400.3"];
	75	[height=0.5,
		pos="443.67,465.53",
		width=0.75];
	1 -- 75	[pos="359.9,403.45 378.46,417.21 407.08,438.42 425.59,452.13"];
	77	[height=0.5,
		pos="458.44,564.5",
		width=0.75];
	1 -- 77	[pos="352.86,406.68 375.18,440.04 424.98,514.49 447.28,547.82"];
	79	[height=0.5,
		pos="378.01,225.82",
		width=0.75];
	1 -- 79	[pos="345.62,372.06 352.61,340.49 367.07,275.23 374.06,243.68"];
	80	[height=0.5,
		pos="304.58,230.05",
		width=0.75];
	1 -- 80	[pos="337.48,371.91 330.36,341.2 315.96,279.09 308.81,248.26"];
	2	[height=0.5,
		pos="614.92,300.85",
		width=0.75];
	19	[height=0.5,
		pos="749.6,289.44",
		width=0.75];
	2 -- 19	[pos="641.85,298.57 665.34,296.58 699.24,293.7 722.72,291.72"];
	21	[height=0.5,
		pos="396.46,292.02",
		width=0.75];
	2 -- 21	[pos="587.69,299.75 545.72,298.05 465.66,294.81 423.68,293.12"];
	23	[height=0.5,
		pos="812.01,321.48",
		width=0.75];
	2 -- 23	[pos="641.91,303.67 679.55,307.61 747.4,314.72 785.03,318.66"];
	26	[height=0.5,
		pos="563.9,136.1",
		width=0.75];
	2 -- 26	[pos="609.46,283.22 599.69,251.67 579.33,185.91 569.48,154.1"];
	33	[height=0.5,
		pos="582.66,346.18",
		width=0.75];
	2 -- 33	[pos="603.28,317.21 600.39,321.27 597.29,325.62 594.4,329.68"];
	39	[height=0.5,
		pos="458.89,291.97",
		width=0.75];
	2 -- 39	[pos="587.74,299.3 559.19,297.68 514.55,295.14 486.02,293.52"];
	44	[height=0.5,
		pos="521.24,182.26",
		width=0.75];
	2 -- 44	[pos="602.29,284.85 584.41,262.22 551.91,221.08 533.98,198.38"];
	46	[height=0.5,
		pos="645.3,157.38",
		width=0.75];
	2 -- 46	[pos="618.71,282.97 624.53,255.47 635.62,203.11 641.47,175.49"];
	48	[height=0.5,
		pos="688.07,401.56",
		width=0.75];
	2 -- 48	[pos="627,317.48 640.64,336.25 662.68,366.6 676.22,385.24"];
	2 -- 53	[pos="612.63,318.95 608.08,355.03 597.9,435.53 593.35,471.57"];
	59	[height=0.5,
		pos="749.95,333.48",
		width=0.75];
	2 -- 59	[pos="640.32,306.98 664.31,312.78 700.11,321.43 724.21,327.26"];
	63	[height=0.5,
		pos="668.67,201.39",
		width=0.75];
	2 -- 63	[pos="624.28,283.52 634.15,265.27 649.59,236.69 659.42,218.52"];
	3	[height=0.5,
		pos="533.09,391.31",
		width=0.75];
	3 -- 17	[pos="531.86,409.51 529.44,445.23 524.11,524.08 521.7,559.64"];
	3 -- 20	[pos="509.09,400.05 480.74,410.39 433.84,427.48 405.53,437.8"];
	22	[height=0.5,
		pos="344.84,520.63",
		width=0.75];
	3 -- 22	[pos="514,404.42 477.83,429.27 399.69,482.95 363.7,507.68"];
	31	[height=0.5,
		pos="433.19,336.04",
		width=0.75];
	3 -- 31	[pos="511.9,379.59 494.83,370.14 470.97,356.94 454,347.55"];
	3 -- 33	[pos="549.05,376.78 554.59,371.73 560.82,366.06 566.39,360.99"];
	34	[height=0.5,
		pos="630.35,445.6",
		width=0.75];
	3 -- 34	[pos="554.19,403.09 570.62,412.26 593.29,424.91 609.62,434.03"];
	3 -- 52	[pos="505.97,393.19 483.9,394.73 452.89,396.88 430.82,398.42"];
	54	[height=0.5,
		pos="552.35,285.04",
		width=0.75];
	3 -- 54	[pos="536.36,373.28 539.9,353.74 545.52,322.73 549.06,303.15"];
	74	[height=0.5,
		pos="490.17,247.86",
		width=0.75];
	3 -- 74	[pos="527.74,373.43 519.47,345.79 503.68,293.01 495.45,265.51"];
	4	[height=0.5,
		pos="146.13,362.44",
		width=0.75];
	4 -- 21	[pos="171.05,355.43 218.91,341.97 323.2,312.63 371.27,299.1"];
	25	[height=0.5,
		pos="108.31,406.7",
		width=0.75];
	4 -- 25	[pos="132.48,378.42 129.01,382.48 125.28,386.84 121.81,390.89"];
	28	[height=0.5,
		pos="186.97,275.32",
		width=0.75];
	4 -- 28	[pos="154.2,345.23 161.31,330.05 171.63,308.05 178.78,292.8"];
	37	[height=0.5,
		pos="226.13,462.46",
		width=0.75];
	4 -- 37	[pos="158.99,378.51 173.92,397.17 198.4,427.78 213.31,446.43"];
	38	[height=0.5,
		pos="116.13,205.05",
		width=0.75];
	4 -- 38	[pos="142.69,344.39 136.93,314.19 125.42,253.76 119.62,223.38"];
	42	[height=0.5,
		pos="46.304,363.48",
		width=0.75];
	4 -- 42	[pos="119.12,362.72 104.91,362.87 87.549,363.05 73.341,363.2"];
	55	[height=0.5,
		pos="46.271,436.32",
		width=0.75];
	4 -- 55	[pos="127.82,375.99 109.8,389.32 82.449,409.55 64.471,422.85"];
	56	[height=0.5,
		pos="177.01,506.56",
		width=0.75];
	4 -- 56	[pos="149.98,380.4 155.9,408.02 167.17,460.62 173.12,488.38"];
	58	[height=0.5,
		pos="208.16,319.39",
		width=0.75];
	4 -- 58	[pos="165.08,349.29 172.78,343.95 181.65,337.79 189.33,332.46"];
	71	[height=0.5,
		pos="89.242,314.69",
		width=0.75];
	4 -- 71	[pos="129.06,348.11 121.86,342.07 113.5,335.05 106.3,329.01"];
	76	[height=0.5,
		pos="180.07,231.25",
		width=0.75];
	4 -- 76	[pos="150.78,344.47 157.28,319.35 169.01,274.01 175.48,249"];
	5	[height=0.5,
		pos="272.7,576.73",
		width=0.75];
	5 -- 22	[pos="290.53,562.86 301.71,554.16 316.07,543 327.21,534.34"];
	24	[height=0.5,
		pos="174.65,576.33",
		width=0.75];
	5 -- 24	[pos="245.65,576.62 232.04,576.56 215.59,576.5 201.95,576.44"];
	5 -- 37	[pos="265.42,558.87 256.67,537.4 242.08,501.6 233.36,480.19"];
	5 -- 51	[pos="294.24,587.66 317.19,599.31 353.32,617.64 376.33,629.32"];
	5 -- 56	[pos="254.25,563.2 237.3,550.77 212.33,532.46 195.4,520.05"];
	68	[height=0.5,
		pos="188.78,620.38",
		width=0.75];
	5 -- 68	[pos="251.09,587.97 238.56,594.48 222.84,602.66 210.32,609.17"];
	6	[height=0.5,
		pos="115,532.18",
		width=0.75];
	6 -- 25	[pos="114.03,513.94 112.76,490.14 110.55,448.77 109.28,424.96"];
	29	[height=0.5,
		pos="52.997,553.02",
		width=0.75];
	6 -- 29	[pos="90.851,540.3 86.363,541.81 81.673,543.38 77.183,544.89"];
	6 -- 35	[pos="138.71,523.31 171.78,510.95 231.39,488.66 264.45,476.29"];
	6 -- 55	[pos="103.34,515.92 90.704,498.29 70.649,470.32 57.988,452.66"];
	57	[height=0.5,
		pos="27,508.82",
		width=0.75];
	6 -- 57	[pos="89.548,525.42 77.771,522.3 63.824,518.59 52.093,515.48"];
	6 -- 66	[pos="141.96,529.52 173.28,526.44 224.63,521.38 255.92,518.29"];
	6 -- 68	[pos="128.19,547.95 141.54,563.9 162.06,588.44 175.46,604.45"];
	7	[height=0.5,
		pos="334.4,274.05",
		width=0.75];
	27	[height=0.5,
		pos="471.03,380.06",
		width=0.75];
	7 -- 27	[pos="352.26,287.91 378.45,308.23 426.98,345.88 453.17,366.2"];
	7 -- 28	[pos="307.36,274.29 280.84,274.51 240.63,274.86 214.09,275.09"];
	30	[height=0.5,
		pos="440.26,203.7",
		width=0.75];
	7 -- 30	[pos="353.82,261.15 372.92,248.45 401.91,229.19 420.97,216.52"];
	7 -- 31	[pos="354.39,286.6 371.53,297.35 396.1,312.77 413.23,323.51"];
	7 -- 39	[pos="360.8,277.85 381.78,280.87 411.01,285.08 432.1,288.12"];
	7 -- 40	[pos="328.7,291.75 325.18,302.68 320.68,316.67 317.14,327.65"];
	7 -- 58	[pos="310.36,282.69 287.9,290.76 254.55,302.73 232.12,310.79"];
	60	[height=0.5,
		pos="296.34,186.04",
		width=0.75];
	7 -- 60	[pos="326.88,256.67 320.21,241.23 310.51,218.81 303.85,203.39"];
	78	[height=0.5,
		pos="217.19,380.24",
		width=0.75];
	7 -- 78	[pos="318.1,288.82 295.71,309.11 255.67,345.38 233.35,365.6"];
	8	[height=0.5,
		pos="109.78,478.54",
		width=0.75];
	8 -- 24	[pos="120.79,495.13 132.72,513.11 151.64,541.65 163.59,559.66"];
	8 -- 29	[pos="97.462,494.7 87.937,507.2 74.814,524.41 65.295,536.89"];
	8 -- 42	[pos="100.42,461.56 88.415,439.81 67.729,402.31 55.709,380.52"];
	8 -- 57	[pos="85.839,487.3 74.856,491.32 61.867,496.07 50.891,500.08"];
	8 -- 62	[pos="133.75,470.05 166.12,458.59 223.44,438.27 255.74,426.83"];
	8 -- 71	[pos="107.51,460.38 103.56,428.89 95.485,364.49 91.529,332.93"];
	8 -- 78	[pos="126.1,463.61 146.4,445.03 180.86,413.49 201.07,394.99"];
	9	[height=0.5,
		pos="583.29,180.13",
		width=0.75];
	9 -- 30	[pos="557.05,184.45 531.41,188.68 492.57,195.08 466.81,199.32"];
	41	[height=0.5,
		pos="607.29,47.964",
		width=0.75];
	9 -- 41	[pos="586.57,162.03 591.17,136.72 599.47,91.036 604.04,65.845"];
	45	[height=0.5,
		pos="548.06,92.094",
		width=0.75];
	9 -- 45	[pos="576.33,162.73 570.19,147.4 561.29,125.16 555.12,109.75"];
	9 -- 46	[pos="607.08,171.4 611.73,169.69 616.6,167.91 621.26,166.2"];
	9 -- 54	[pos="578.04,197.92 572.35,217.22 563.32,247.83 557.62,267.15"];
	9 -- 63	[pos="608.9,186.51 619.81,189.22 632.49,192.38 643.36,195.09"];
	82	[height=0.5,
		pos="724.86,245.42",
		width=0.75];
	9 -- 82	[pos="605.72,190.47 632.23,202.7 676.07,222.92 702.53,235.12"];
	84	[height=0.5,
		pos="646.93,346.41",
		width=0.75];
	9 -- 84	[pos="589.98,197.61 602.2,229.54 628,296.96 640.23,328.91"];
	10	[height=0.5,
		pos="553.04,533.62",
		width=0.75];
	10 -- 27	[pos="543.95,516.6 528.19,487.08 495.95,426.73 480.16,397.16"];
	10 -- 32	[pos="526.23,530.49 499.86,527.41 459.84,522.73 433.53,519.66"];
	64	[height=0.5,
		pos="716.93,445.62",
		width=0.75];
	10 -- 64	[pos="574.13,522.3 605.51,505.45 664.17,473.95 695.66,457.04"];
	65	[height=0.5,
		pos="701.81,519.97",
		width=0.75];
	10 -- 65	[pos="579.98,531.15 606.77,528.69 647.67,524.94 674.57,522.47"];
	10 -- 72	[pos="565.43,550.16 581.96,572.22 611.05,611.04 627.43,632.9"];
	10 -- 75	[pos="533.23,521.29 513.54,509.03 483.47,490.31 463.7,478"];
	81	[height=0.5,
		pos="686.5,586.94",
		width=0.75];
	10 -- 81	[pos="576.29,542.91 600.63,552.64 638.66,567.83 663.07,577.58"];
	10 -- 84	[pos="561.7,516.35 579.59,480.68 620.41,399.27 638.28,363.64"];
	11	[height=0.5,
		pos="779.01,442.45",
		width=0.75];
	11 -- 23	[pos="783.88,424.6 790.12,401.73 800.87,362.31 807.12,339.4"];
	11 -- 34	[pos="751.74,443.03 724.92,443.6 684.21,444.46 657.44,445.02"];
	11 -- 36	[pos="780.1,460.65 782.1,493.9 786.31,564.1 788.31,597.37"];
	50	[height=0.5,
		pos="842.32,411.97",
		width=0.75];
	11 -- 50	[pos="801.15,431.79 807.29,428.84 813.95,425.63 820.09,422.67"];
	11 -- 59	[pos="774.21,424.46 768.83,404.27 760.15,371.7 754.76,351.5"];
	11 -- 65	[pos="763.76,457.77 750.14,471.44 730.3,491.36 716.77,504.95"];
	11 -- 73	[pos="774.71,460.33 768.91,484.46 758.63,527.22 752.84,551.31"];
	12	[height=0.5,
		pos="271.56,141.99",
		width=0.75];
	12 -- 18	[pos="269.82,160.08 267.42,185.24 263.08,230.52 260.66,255.79"];
	12 -- 38	[pos="248.29,151.44 218.9,163.36 168.65,183.75 139.3,195.65"];
	12 -- 60	[pos="281.07,158.9 282.93,162.2 284.87,165.66 286.73,168.96"];
	67	[height=0.5,
		pos="379.48,76.562",
		width=0.75];
	12 -- 67	[pos="291.6,129.84 310.87,118.16 339.82,100.6 359.17,88.873"];
	12 -- 76	[pos="256.04,157.14 239.11,173.65 212.19,199.91 195.36,216.34"];
	12 -- 80	[pos="278.24,159.81 284.01,175.19 292.29,197.27 298.02,212.56"];
	83	[height=0.5,
		pos="349.92,120.77",
		width=0.75];
	12 -- 83	[pos="296.78,135.16 305.73,132.74 315.8,130.01 324.74,127.59"];
	13	[height=0.5,
		pos="485.99,68.031",
		width=0.75];
	13 -- 26	[pos="502.51,82.467 515.74,94.019 534.19,110.14 547.4,121.69"];
	13 -- 41	[pos="512.31,63.677 532.66,60.311 560.69,55.673 581.02,52.31"];
	49	[height=0.5,
		pos="496.51,18",
		width=0.75];
	13 -- 49	[pos="489.79,49.969 490.76,45.379 491.79,40.449 492.76,35.868"];
	13 -- 67	[pos="459.11,70.184 442.97,71.477 422.49,73.117 406.35,74.41"];
	69	[height=0.5,
		pos="430.79,24.019",
		width=0.75];
	13 -- 69	[pos="468.52,54.106 462.08,48.968 454.78,43.148 448.33,38.005"];
	14	[height=0.5,
		pos="750.08,377.49",
		width=0.75];
	14 -- 19	[pos="749.98,359.25 749.9,344.13 749.78,322.77 749.7,307.66"];
	43	[height=0.5,
		pos="776.32,491.09",
		width=0.75];
	14 -- 43	[pos="754.24,395.49 759.15,416.76 767.28,451.94 772.18,473.18"];
	14 -- 50	[pos="773.84,386.37 787.61,391.52 804.89,397.98 818.65,403.12"];
	14 -- 64	[pos="741.71,394.68 736.73,404.93 730.41,417.91 725.4,428.19"];
	14 -- 70	[pos="723.44,381.63 694.97,386.05 650.1,393.01 621.66,397.43"];
	14 -- 82	[pos="746.63,359.4 741.8,334.11 733.08,288.46 728.27,263.29"];
	15	[height=0.5,
		pos="450.7,123.2",
		width=0.75];
	15 -- 44	[pos="467.78,137.5 478.87,146.78 493.27,158.83 504.33,168.09"];
	15 -- 45	[pos="475.27,115.35 490.03,110.64 508.74,104.66 523.5,99.941"];
	15 -- 49	[pos="458.27,105.83 466.75,86.336 480.44,54.9 488.94,35.397"];
	15 -- 69	[pos="447.05,105.01 443.45,87.113 438,59.95 434.42,42.095"];
	15 -- 74	[pos="456.36,141.06 463.86,164.76 477.03,206.35 484.53,230.03"];
	15 -- 79	[pos="439.02,139.69 425.46,158.84 403.21,190.24 389.66,209.38"];
	15 -- 83	[pos="423.69,122.55 409.24,122.2 391.48,121.77 377.01,121.42"];
	16	[height=0.5,
		pos="624.28,546.41",
		width=0.75];
	16 -- 43	[pos="648.04,537.77 676.52,527.41 723.96,510.14 752.48,499.77"];
	16 -- 47	[pos="624.49,564.48 624.84,595.25 625.56,657.5 625.91,688.39"];
	16 -- 48	[pos="631.97,528.94 644.24,501.1 668.07,446.98 680.35,419.1"];
	16 -- 61	[pos="633.14,563.52 647.69,591.63 676.51,647.28 691.18,675.61"];
	16 -- 77	[pos="597.27,549.36 566.34,552.73 515.98,558.23 485.17,561.59"];
	16 -- 81	[pos="643.62,559.02 651.04,563.85 659.51,569.36 666.95,574.21"];
}
