graph {
	graph [bb="0,0,1197.8,644.18",
		outputorder=edgesfirst,
		overlap=prism,
		size="50,50!",
		start=2739
	];
	node [label="\N"];
	0	[height=0.5,
		pos="591.62,369.32",
		width=0.75];
	37	[height=0.5,
		pos="695.69,425.46",
		width=0.75];
	0 -- 37	[pos="612.68,380.68 630.73,390.42 656.61,404.38 674.66,414.11"];
	2	[height=0.5,
		pos="429.09,421.15",
		width=0.75];
	0 -- 2	[pos="566.93,377.19 536.21,386.99 484.06,403.62 453.48,413.37"];
	25	[height=0.5,
		pos="571.68,413.36",
		width=0.75];
	0 -- 25	[pos="583.74,386.73 582.34,389.8 580.89,393.01 579.5,396.08"];
	3	[height=0.5,
		pos="369.11,467",
		width=0.75];
	0 -- 3	[pos="569.06,379.22 526.41,397.95 434.42,438.33 391.73,457.07"];
	4	[height=0.5,
		pos="628.48,325.32",
		width=0.75];
	0 -- 4	[pos="604.93,353.44 608.23,349.5 611.77,345.27 615.07,341.33"];
	5	[height=0.5,
		pos="611.25,275.68",
		width=0.75];
	0 -- 5	[pos="595.4,351.27 598.88,334.68 604,310.24 607.47,293.68"];
	18	[height=0.5,
		pos="657.16,226.23",
		width=0.75];
	0 -- 18	[pos="599.52,352.06 612.12,324.56 636.61,271.09 649.22,243.55"];
	62	[height=0.5,
		pos="693.26,367.35",
		width=0.75];
	0 -- 62	[pos="618.86,368.79 633.44,368.51 651.35,368.16 665.95,367.88"];
	9	[height=0.5,
		pos="588.78,209.54",
		width=0.75];
	0 -- 9	[pos="591.3,351.3 590.75,320.62 589.65,258.55 589.1,227.74"];
	34	[height=0.5,
		pos="455.49,368.4",
		width=0.75];
	0 -- 34	[pos="564.4,369.14 540.66,368.98 506.39,368.75 482.67,368.58"];
	12	[height=0.5,
		pos="781.57,367.28",
		width=0.75];
	0 -- 12	[pos="618.83,369.03 654.94,368.64 718.32,367.96 754.4,367.58"];
	20	[height=0.5,
		pos="757.74,411.29",
		width=0.75];
	0 -- 20	[pos="617.21,375.79 648.52,383.7 701.19,397.01 732.39,404.89"];
	39	[height=0.5,
		pos="726.33,323.26",
		width=0.75];
	0 -- 39	[pos="615.7,361.09 640.07,352.75 677.54,339.94 702,331.58"];
	49	[height=0.5,
		pos="633.69,436.02",
		width=0.75];
	0 -- 49	[pos="602.23,386.15 608.66,396.34 616.82,409.28 623.22,419.43"];
	64	[height=0.5,
		pos="447.64,465.18",
		width=0.75];
	0 -- 64	[pos="572.5,382.05 544.96,400.38 494.42,434.03 466.83,452.4"];
	28	[height=0.5,
		pos="719.55,209.17",
		width=0.75];
	0 -- 28	[pos="604.35,353.38 628.75,322.84 681.83,256.39 706.49,225.53"];
	71	[height=0.5,
		pos="675.85,279.24",
		width=0.75];
	0 -- 71	[pos="605.91,354.04 621.39,337.48 645.97,311.19 661.49,294.6"];
	54	[height=0.5,
		pos="547.81,323.16",
		width=0.75];
	0 -- 54	[pos="577.03,353.95 572.35,349.02 567.17,343.56 562.49,338.62"];
	35	[height=0.5,
		pos="740.84,253.17",
		width=0.75];
	0 -- 35	[pos="609.32,355.54 638.04,333.19 694.46,289.28 723.16,266.94"];
	57	[height=0.5,
		pos="557.45,488.58",
		width=0.75];
	0 -- 57	[pos="586.5,387.17 580.06,409.66 569.06,448.06 562.6,470.6"];
	77	[height=0.5,
		pos="485.78,317.6",
		width=0.75];
	0 -- 77	[pos="569.69,358.61 551.52,349.73 525.84,337.18 507.68,328.31"];
	37 -- 62	[pos="694.93,407.39 694.64,400.46 694.31,392.55 694.02,385.6"];
	1	[height=0.5,
		pos="361.73,275.45",
		width=0.75];
	67	[height=0.5,
		pos="367.09,411.85",
		width=0.75];
	1 -- 67	[pos="362.44,293.56 363.47,319.65 365.35,367.53 366.38,393.66"];
	1 -- 2	[pos="369.72,292.74 382.69,320.78 408.15,375.86 421.11,403.89"];
	1 -- 3	[pos="362.43,293.47 363.83,329.98 367,412.31 368.41,448.89"];
	8	[height=0.5,
		pos="307.71,367.83",
		width=0.75];
	1 -- 8	[pos="351.82,292.39 342.08,309.06 327.28,334.36 317.55,350.99"];
	1 -- 4	[pos="387.8,280.32 438.79,289.86 551.23,310.88 602.32,320.43"];
	36	[height=0.5,
		pos="495.61,234.92",
		width=0.75];
	1 -- 36	[pos="386.6,267.92 410.65,260.64 446.87,249.68 470.87,242.41"];
	10	[height=0.5,
		pos="229.34,308.16",
		width=0.75];
	1 -- 10	[pos="336.2,281.76 312.76,287.55 278.2,296.09 254.78,301.87"];
	1 -- 9	[pos="386.9,268.14 430.66,255.44 520.25,229.43 563.85,216.78"];
	1 -- 34	[pos="377.22,290.8 394.69,308.12 422.94,336.13 440.3,353.34"];
	41	[height=0.5,
		pos="299.69,275.93",
		width=0.75];
	1 -- 41	[pos="334.7,275.66 332.09,275.68 329.44,275.7 326.83,275.72"];
	43	[height=0.5,
		pos="237.65,256.46",
		width=0.75];
	1 -- 43	[pos="335.11,271.38 314.18,268.17 285.15,263.73 264.22,260.53"];
	52	[height=0.5,
		pos="354.98,319.96",
		width=0.75];
	1 -- 52	[pos="358.99,293.56 358.56,296.35 358.13,299.23 357.7,302.02"];
	23	[height=0.5,
		pos="464.64,154.6",
		width=0.75];
	1 -- 23	[pos="375.19,259.65 394.91,236.49 431.46,193.57 451.18,170.4"];
	50	[height=0.5,
		pos="413.07,106.46",
		width=0.75];
	1 -- 50	[pos="367.13,257.68 376.99,225.23 397.8,156.71 407.67,124.24"];
	73	[height=0.5,
		pos="526.71,190.89",
		width=0.75];
	1 -- 73	[pos="383.3,264.4 414.92,248.19 473.52,218.16 505.14,201.95"];
	29	[height=0.5,
		pos="291.39,323.82",
		width=0.75];
	1 -- 29	[pos="342.88,288.41 332.79,295.35 320.39,303.88 310.29,310.82"];
	44	[height=0.5,
		pos="547.83,278.96",
		width=0.75];
	1 -- 44	[pos="388.79,275.96 424.07,276.62 485.44,277.78 520.73,278.45"];
	53	[height=0.5,
		pos="266.49,212.42",
		width=0.75];
	1 -- 53	[pos="342.46,262.69 325.93,251.76 302.25,236.08 285.73,225.15"];
	74	[height=0.5,
		pos="518.67,369.33",
		width=0.75];
	1 -- 74	[pos="381.93,287.53 412.06,305.56 468.46,339.3 498.55,357.3"];
	58	[height=0.5,
		pos="328.53,170.69",
		width=0.75];
	1 -- 58	[pos="356.1,257.68 349.99,238.41 340.3,207.85 334.19,188.55"];
	1 -- 77	[pos="385.94,283.68 407.8,291.11 439.79,301.98 461.63,309.4"];
	65	[height=0.5,
		pos="350.99,126.65",
		width=0.75];
	1 -- 65	[pos="360.42,257.2 358.35,228.64 354.39,173.69 352.32,145.04"];
	79	[height=0.5,
		pos="423.76,274.66",
		width=0.75];
	1 -- 79	[pos="388.76,275.1 391.37,275.07 394.02,275.04 396.64,275"];
	2 -- 25	[pos="456.25,419.67 481.62,418.28 519.29,416.22 544.62,414.84"];
	2 -- 3	[pos="411.1,434.91 403.5,440.71 394.68,447.45 387.09,453.26"];
	2 -- 4	[pos="451.19,410.53 489.52,392.11 567.89,354.44 606.29,335.99"];
	7	[height=0.5,
		pos="240.83,391.95",
		width=0.75];
	2 -- 7	[pos="402.52,417.03 366.64,411.46 303.08,401.6 267.27,396.05"];
	17	[height=0.5,
		pos="420.82,520.08",
		width=0.75];
	2 -- 17	[pos="427.58,439.3 426.08,457.15 423.82,484.24 422.33,502.05"];
	2 -- 52	[pos="417.19,404.89 403.36,386.01 380.68,355.05 366.86,336.18"];
	22	[height=0.5,
		pos="482.86,509.19",
		width=0.75];
	2 -- 22	[pos="439.46,438.13 448.98,453.72 463.02,476.69 472.53,492.27"];
	26	[height=0.5,
		pos="358.79,513.09",
		width=0.75];
	2 -- 26	[pos="416.52,437.59 403.73,454.32 384.01,480.11 371.25,496.8"];
	46	[height=0.5,
		pos="509.65,441.93",
		width=0.75];
	2 -- 46	[pos="454.58,427.73 464.08,430.18 474.84,432.95 484.32,435.4"];
	2 -- 64	[pos="436.42,438.55 437.68,441.53 438.98,444.63 440.24,447.62"];
	2 -- 29	[pos="410.52,408.02 384.24,389.45 336.47,355.68 310.11,337.05"];
	2 -- 74	[pos="449.87,409.13 464.34,400.76 483.56,389.64 498.01,381.28"];
	2 -- 57	[pos="450.58,432.44 474.27,444.88 512.17,464.79 535.9,477.25"];
	25 -- 49	[pos="595.47,422.06 600.12,423.76 604.99,425.54 609.65,427.24"];
	25 -- 46	[pos="549.28,423.68 543.73,426.23 537.78,428.98 532.22,431.54"];
	25 -- 57	[pos="568.23,431.57 566,443.4 563.09,458.75 560.86,470.54"];
	3 -- 67	[pos="368.45,448.94 368.23,442.91 367.98,436.19 367.76,430.14"];
	3 -- 8	[pos="358.69,450.18 347.4,431.94 329.48,403.01 318.17,384.74"];
	3 -- 7	[pos="348.78,455.11 324.91,441.14 285.51,418.09 261.49,404.03"];
	3 -- 10	[pos="355.2,451.19 328.4,420.75 269.94,354.31 243.19,323.91"];
	3 -- 17	[pos="384.07,482.36 390.99,489.46 399.18,497.87 406.07,504.95"];
	3 -- 34	[pos="382.99,451.16 399.11,432.76 425.54,402.59 441.65,384.2"];
	19	[height=0.5,
		pos="210.88,436",
		width=0.75];
	3 -- 19	[pos="342.98,461.88 313.66,456.14 266.38,446.88 237.05,441.13"];
	13	[height=0.5,
		pos="462,564.09",
		width=0.75];
	3 -- 13	[pos="384.03,482.6 401.47,500.83 430.13,530.78 447.42,548.85"];
	42	[height=0.5,
		pos="399.13,593.21",
		width=0.75];
	3 -- 42	[pos="373.35,484.82 379.04,508.73 389.09,551 394.82,575.07"];
	3 -- 22	[pos="392.96,475.85 412.37,483.05 439.64,493.16 459.05,500.36"];
	24	[height=0.5,
		pos="336.87,557.55",
		width=0.75];
	3 -- 24	[pos="362.74,484.89 357.05,500.87 348.77,524.14 343.12,540.01"];
	3 -- 26	[pos="365.09,484.96 364.34,488.29 363.56,491.78 362.81,495.12"];
	31	[height=0.5,
		pos="272.93,460.02",
		width=0.75];
	3 -- 31	[pos="342.06,465.04 328.84,464.08 312.97,462.93 299.78,461.97"];
	3 -- 64	[pos="396.13,466.38 404.03,466.19 412.66,465.99 420.56,465.81"];
	38	[height=0.5,
		pos="238.73,504.07",
		width=0.75];
	3 -- 38	[pos="343.97,474.15 320.88,480.72 286.85,490.39 263.79,496.95"];
	47	[height=0.5,
		pos="274.82,548.34",
		width=0.75];
	3 -- 47	[pos="352.25,481.55 335.09,496.35 308.64,519.17 291.53,533.93"];
	40	[height=0.5,
		pos="176.68,489.07",
		width=0.75];
	3 -- 40	[pos="342.35,470.07 305.69,474.28 240.22,481.78 203.52,485.99"];
	48	[height=0.5,
		pos="333.25,626.18",
		width=0.75];
	3 -- 48	[pos="365.06,484.95 358.18,515.52 344.25,577.36 337.33,608.05"];
	8 -- 67	[pos="325.85,381.28 333.08,386.64 341.39,392.8 348.65,398.18"];
	8 -- 10	[pos="289.53,353.99 276.78,344.28 259.81,331.37 247.14,321.72"];
	4 -- 25	[pos="617.8,341.88 607.71,357.52 592.65,380.86 582.51,396.58"];
	4 -- 5	[pos="622.36,307.68 620.73,303 618.98,297.94 617.35,293.26"];
	4 -- 36	[pos="609.45,312.37 584.19,295.19 539.85,265.02 514.61,247.85"];
	6	[height=0.5,
		pos="819.77,428.78",
		width=0.75];
	4 -- 6	[pos="649.69,336.79 686.55,356.73 762.03,397.55 798.76,417.42"];
	4 -- 62	[pos="647.92,337.93 656.12,343.25 665.64,349.43 673.84,354.75"];
	4 -- 9	[pos="622.45,307.74 614.99,285.97 602.35,249.13 594.86,227.29"];
	4 -- 12	[pos="653.76,332.25 682.21,340.05 728.15,352.64 756.51,360.41"];
	4 -- 20	[pos="647.84,338.19 672.2,354.4 713.83,382.09 738.26,398.34"];
	32	[height=0.5,
		pos="650.96,182.22",
		width=0.75];
	4 -- 32	[pos="631.33,307.2 635.65,279.67 643.83,227.63 648.14,200.2"];
	4 -- 49	[pos="629.34,343.6 630.31,364.11 631.86,397.19 632.83,417.72"];
	4 -- 46	[pos="612.95,340.57 590.17,362.91 547.96,404.33 525.19,426.68"];
	4 -- 73	[pos="616.21,309.11 596.65,283.27 558.62,233.04 539.03,207.16"];
	4 -- 44	[pos="607.71,313.38 595.67,306.46 580.56,297.77 568.53,290.86"];
	4 -- 74	[pos="605.2,334.65 586.56,342.12 560.55,352.55 541.92,360.01"];
	5 -- 18	[pos="625.52,260.3 631,254.4 637.24,247.67 642.73,241.76"];
	5 -- 62	[pos="625.16,291.23 640.24,308.08 664.17,334.83 679.28,351.72"];
	5 -- 9	[pos="605.23,257.95 602,248.46 598.04,236.81 594.82,227.31"];
	5 -- 32	[pos="618.72,258.1 625.82,241.39 636.44,216.4 643.53,199.72"];
	5 -- 71	[pos="638.27,277.17 641.73,277.36 645.27,277.55 648.73,277.74"];
	18 -- 32	[pos="654.6,208.07 654.24,205.52 653.87,202.89 653.51,200.33"];
	18 -- 28	[pos="682.17,219.39 686.24,218.28 690.46,217.12 694.53,216.01"];
	18 -- 71	[pos="663.38,243.88 665.38,249.54 667.59,255.81 669.59,261.48"];
	18 -- 35	[pos="681.81,234.17 692.71,237.67 705.49,241.79 716.36,245.29"];
	36 -- 73	[pos="507.19,218.53 509.75,214.91 512.46,211.07 515.02,207.45"];
	36 -- 44	[pos="512.42,249.1 518.38,254.13 525.09,259.78 531.05,264.81"];
	6 -- 12	[pos="809.33,411.98 803.94,403.3 797.38,392.74 791.99,384.07"];
	6 -- 20	[pos="794.9,421.77 790.85,420.63 786.66,419.45 782.62,418.31"];
	15	[height=0.5,
		pos="880.25,384.67",
		width=0.75];
	6 -- 15	[pos="838.24,415.31 845.75,409.83 854.4,403.53 861.89,398.06"];
	68	[height=0.5,
		pos="881.8,456",
		width=0.75];
	6 -- 68	[pos="842.51,438.76 847.91,441.13 853.66,443.65 859.06,446.02"];
	30	[height=0.5,
		pos="942.33,363.48",
		width=0.75];
	6 -- 30	[pos="841.12,417.4 863.61,405.42 898.82,386.66 921.23,374.72"];
	21	[height=0.5,
		pos="901.69,319.18",
		width=0.75];
	6 -- 21	[pos="831.86,412.61 847.34,391.89 874.04,356.17 889.55,335.42"];
	45	[height=0.5,
		pos="991.45,451.83",
		width=0.75];
	6 -- 45	[pos="846.59,432.38 878.85,436.71 932.65,443.93 964.82,448.25"];
	72	[height=0.5,
		pos="991.79,502.22",
		width=0.75];
	6 -- 72	[pos="842.61,438.53 875.51,452.58 935.9,478.36 968.85,492.43"];
	56	[height=0.5,
		pos="1053.8,472.29",
		width=0.75];
	6 -- 56	[pos="846.16,433.69 891.24,442.06 982.54,459.03 1027.5,467.4"];
	78	[height=0.5,
		pos="929.76,500.04",
		width=0.75];
	6 -- 78	[pos="839.18,441.35 859.16,454.3 890.12,474.36 910.17,487.35"];
	7 -- 10	[pos="238.34,373.77 236.41,359.71 233.75,340.35 231.83,326.31"];
	7 -- 19	[pos="229.68,408.35 227.22,411.97 224.61,415.81 222.15,419.44"];
	14	[height=0.5,
		pos="164.9,301.12",
		width=0.75];
	7 -- 14	[pos="227.61,376.13 213.75,359.56 192.12,333.68 178.23,317.06"];
	11	[height=0.5,
		pos="89.34,324.68",
		width=0.75];
	7 -- 11	[pos="218.15,381.88 189.59,369.19 140.81,347.53 112.18,334.82"];
	27	[height=0.5,
		pos="44.957,368.69",
		width=0.75];
	7 -- 27	[pos="214.01,388.76 176.6,384.32 109.17,376.32 71.771,371.88"];
	55	[height=0.5,
		pos="65.226,412.7",
		width=0.75];
	7 -- 55	[pos="214.16,395.1 181.06,399.01 124.95,405.64 91.86,409.55"];
	7 -- 26	[pos="255.77,407.29 278.46,430.59 321.35,474.65 343.97,497.88"];
	7 -- 31	[pos="248.93,409.13 253.76,419.37 259.88,432.33 264.72,442.61"];
	7 -- 29	[pos="252.82,375.8 260.76,365.1 271.15,351.1 279.15,340.32"];
	51	[height=0.5,
		pos="114.64,456.75",
		width=0.75];
	7 -- 51	[pos="219.43,402.94 196.22,414.86 159.4,433.77 136.15,445.7"];
	10 -- 14	[pos="202.38,305.22 198.93,304.84 195.4,304.45 191.95,304.08"];
	10 -- 11	[pos="202.67,311.31 177.92,314.23 141.25,318.55 116.38,321.49"];
	10 -- 43	[pos="232.24,290.08 233.05,285.07 233.92,279.63 234.73,274.62"];
	69	[height=0.5,
		pos="95.299,272.71",
		width=0.75];
	10 -- 69	[pos="204.12,301.49 180.16,295.16 144.32,285.68 120.4,279.35"];
	10 -- 53	[pos="236.15,290.6 242.85,273.33 253.03,247.1 259.72,229.87"];
	76	[height=0.5,
		pos="168.07,232.95",
		width=0.75];
	10 -- 76	[pos="216.34,292.21 205.94,279.45 191.43,261.64 181.04,248.88"];
	9 -- 18	[pos="614.24,215.75 619.86,217.12 625.82,218.58 631.45,219.95"];
	59	[height=0.5,
		pos="500.58,66.52",
		width=0.75];
	9 -- 59	[pos="578.49,192.85 561.58,165.44 528.12,111.17 511.08,83.544"];
	9 -- 32	[pos="611.58,199.52 616.99,197.15 622.75,194.61 628.16,192.24"];
	9 -- 23	[pos="566.01,199.46 543.61,189.55 509.61,174.5 487.26,164.61"];
	9 -- 50	[pos="568.28,197.51 534.42,177.65 467.21,138.22 433.44,118.41"];
	9 -- 73	[pos="563.89,202.06 559.84,200.85 555.65,199.59 551.61,198.37"];
	9 -- 54	[pos="582.38,227.29 574.68,248.64 561.85,284.24 554.17,305.53"];
	9 -- 77	[pos="574.02,225.02 554.44,245.57 520.07,281.62 500.51,302.15"];
	61	[height=0.5,
		pos="504.66,110.57",
		width=0.75];
	9 -- 61	[pos="575.26,193.64 559.56,175.17 533.82,144.88 518.14,126.43"];
	59 -- 61	[pos="502.26,84.69 502.5,87.249 502.74,89.88 502.98,92.439"];
	63	[height=0.5,
		pos="452.96,18",
		width=0.75];
	59 -- 63	[pos="485.78,51.434 480.1,45.648 473.61,39.045 467.92,33.244"];
	70	[height=0.5,
		pos="491.14,609.45",
		width=0.75];
	17 -- 70	[pos="433.39,536.06 446.11,552.23 465.67,577.09 478.44,593.31"];
	17 -- 22	[pos="447.13,515.46 450.3,514.91 453.54,514.34 456.71,513.78"];
	17 -- 26	[pos="394.15,517.08 391.26,516.75 388.32,516.42 385.43,516.09"];
	34 -- 54	[pos="477.37,357.68 491.98,350.52 511.13,341.14 525.77,333.96"];
	34 -- 77	[pos="465.58,351.49 468.81,346.06 472.39,340.05 475.63,334.62"];
	34 -- 79	[pos="449.53,350.77 443.89,334.11 435.48,309.26 429.81,292.53"];
	41 -- 43	[pos="275.17,268.24 270.97,266.92 266.61,265.55 262.4,264.23"];
	41 -- 52	[pos="317.19,289.87 323.64,295.01 330.95,300.83 337.41,305.97"];
	41 -- 58	[pos="304.59,258.08 309.89,238.73 318.3,208.02 323.61,188.63"];
	19 -- 31	[pos="234.34,445.08 239.28,447 244.5,449.01 249.44,450.93"];
	19 -- 38	[pos="218.05,453.53 222.18,463.62 227.35,476.25 231.49,486.37"];
	19 -- 40	[pos="200.06,452.79 196.07,458.99 191.54,466.01 187.55,472.21"];
	19 -- 51	[pos="185.09,441.56 171.28,444.54 154.32,448.2 140.5,451.18"];
	14 -- 41	[pos="191.21,296.2 214.96,291.77 249.72,285.27 273.45,280.84"];
	14 -- 27	[pos="144,312.89 121.99,325.29 87.532,344.71 65.609,357.06"];
	75	[height=0.5,
		pos="27,305.78",
		width=0.75];
	14 -- 75	[pos="137.65,302.04 113.48,302.86 78.345,304.04 54.187,304.86"];
	14 -- 43	[pos="184.78,288.92 194.96,282.67 207.33,275.07 217.54,268.8"];
	14 -- 69	[pos="141.72,291.66 134.29,288.63 126.05,285.27 118.61,282.23"];
	14 -- 55	[pos="151.04,316.64 132.1,337.83 98.33,375.64 79.289,396.96"];
	14 -- 29	[pos="191.11,305.82 212.82,309.72 243.52,315.23 265.22,319.12"];
	14 -- 76	[pos="165.75,282.85 166.2,273.07 166.76,261.06 167.22,251.27"];
	11 -- 14	[pos="114.08,316.96 122.52,314.33 131.94,311.4 140.36,308.77"];
	11 -- 27	[pos="73.817,340.07 69.417,344.43 64.632,349.18 60.246,353.53"];
	11 -- 75	[pos="64.702,317.21 60.482,315.93 56.094,314.6 51.868,313.32"];
	11 -- 69	[pos="91.424,306.5 92.001,301.47 92.628,296 93.206,290.97"];
	27 -- 75	[pos="39.859,350.83 37.412,342.26 34.489,332.02 32.048,323.47"];
	27 -- 55	[pos="52.968,386.09 54.384,389.16 55.859,392.36 57.273,395.43"];
	12 -- 37	[pos="762.51,380.19 748.28,389.84 728.91,402.95 714.7,412.58"];
	12 -- 62	[pos="754.11,367.3 743.38,367.31 731.1,367.32 720.4,367.33"];
	12 -- 20	[pos="772.29,384.43 770.56,387.61 768.76,390.94 767.03,394.13"];
	12 -- 15	[pos="807.76,371.9 822.03,374.41 839.65,377.52 853.95,380.04"];
	12 -- 30	[pos="808.84,366.64 838.49,365.94 885.6,364.82 915.19,364.12"];
	12 -- 21	[pos="804.73,358.01 825.86,349.55 856.95,337.1 878.19,328.59"];
	60	[height=0.5,
		pos="892.02,275.18",
		width=0.75];
	12 -- 60	[pos="798.83,352.89 819.58,335.59 854.18,306.73 874.88,289.47"];
	33	[height=0.5,
		pos="839.63,323.25",
		width=0.75];
	12 -- 33	[pos="799.62,353.59 806.68,348.24 814.75,342.12 821.79,336.78"];
	20 -- 68	[pos="781.66,419.91 803.63,427.83 836.01,439.5 857.96,447.41"];
	20 -- 33	[pos="772,395.96 786.94,379.9 810.28,354.81 825.26,338.7"];
	13 -- 42	[pos="439.66,574.44 433.73,577.18 427.33,580.15 421.4,582.89"];
	13 -- 70	[pos="472.69,580.73 475.22,584.67 477.92,588.88 480.46,592.82"];
	13 -- 22	[pos="468.72,546.42 471.1,540.15 473.78,533.1 476.16,526.83"];
	13 -- 26	[pos="440.11,553.28 422.6,544.62 398.15,532.54 380.65,523.89"];
	42 -- 48	[pos="377.19,604.18 370,607.78 362.03,611.77 354.86,615.36"];
	15 -- 20	[pos="854.57,390.25 833.8,394.77 804.68,401.09 783.81,405.63"];
	15 -- 68	[pos="880.64,402.67 880.88,413.4 881.17,426.99 881.41,437.76"];
	15 -- 30	[pos="904.43,376.42 908.93,374.88 913.62,373.28 918.12,371.74"];
	15 -- 21	[pos="886.11,366.78 889.14,357.54 892.82,346.29 895.84,337.05"];
	15 -- 60	[pos="882.2,366.59 884.38,346.3 887.89,313.59 890.07,293.29"];
	15 -- 33	[pos="869.15,367.89 863.42,359.22 856.45,348.68 850.72,340.01"];
	15 -- 45	[pos="900.39,396.83 920.42,408.93 950.98,427.39 971.09,439.53"];
	68 -- 72	[pos="904.86,465.69 923.63,473.58 950,484.66 968.77,492.54"];
	68 -- 78	[pos="897.77,470.67 902.89,475.37 908.57,480.58 913.69,485.29"];
	16	[height=0.5,
		pos="1170.8,466.49",
		width=0.75];
	66	[height=0.5,
		pos="1115.9,515.62",
		width=0.75];
	16 -- 66	[pos="1154.6,480.96 1147.5,487.3 1139.2,494.73 1132.1,501.08"];
	16 -- 45	[pos="1143.9,464.3 1110.1,461.53 1052.4,456.81 1018.5,454.04"];
	16 -- 56	[pos="1143.7,467.84 1124.8,468.77 1099.7,470.01 1080.8,470.95"];
	66 -- 72	[pos="1088.9,512.71 1068.1,510.46 1039.5,507.37 1018.7,505.12"];
	43 -- 53	[pos="248.55,239.81 250.85,236.3 253.27,232.6 255.57,229.09"];
	43 -- 58	[pos="253.48,241.52 270.16,225.78 296.27,201.14 312.88,185.46"];
	43 -- 76	[pos="213.31,248.24 206.57,245.96 199.25,243.49 192.51,241.21"];
	69 -- 75	[pos="73.313,283.36 65.513,287.13 56.741,291.38 48.945,295.16"];
	22 -- 70	[pos="484.38,527.58 485.87,545.67 488.14,573.13 489.63,591.18"];
	22 -- 26	[pos="455.63,510.05 434.95,510.7 406.62,511.59 385.95,512.24"];
	22 -- 64	[pos="470.15,493.3 466.99,489.36 463.61,485.14 460.45,481.19"];
	21 -- 30	[pos="915.9,334.67 919.84,338.96 924.11,343.62 928.05,347.92"];
	39 -- 71	[pos="709.8,308.85 704.28,304.03 698.12,298.67 692.59,293.84"];
	23 -- 59	[pos="471.74,137.2 478,121.86 487.08,99.608 493.37,84.188"];
	23 -- 50	[pos="448.89,139.9 442.61,134.03 435.39,127.29 429.08,121.41"];
	23 -- 73	[pos="484.97,166.48 491.75,170.45 499.32,174.88 506.13,178.86"];
	23 -- 61	[pos="478.64,139.2 482.51,134.93 486.72,130.3 490.6,126.03"];
	23 -- 63	[pos="463.09,136.46 460.85,110.33 456.75,62.383 454.52,36.215"];
	50 -- 59	[pos="435.61,96.173 448.67,90.21 465.07,82.727 478.12,76.771"];
	50 -- 61	[pos="440.05,107.67 451.87,108.2 465.71,108.82 477.55,109.35"];
	50 -- 63	[pos="420.95,88.981 427.94,73.474 438.11,50.937 445.09,35.44"];
	24 -- 42	[pos="357.6,569.42 364.25,573.23 371.62,577.45 378.28,581.26"];
	24 -- 26	[pos="345.41,540.24 347,537.02 348.65,533.66 350.24,530.44"];
	24 -- 48	[pos="335.92,575.58 335.39,585.59 334.74,598 334.21,608.03"];
	26 -- 42	[pos="367.54,530.48 374.35,544.01 383.76,562.68 390.53,576.13"];
	26 -- 70	[pos="377.19,526.49 402.48,544.9 447.69,577.82 472.89,596.17"];
	26 -- 31	[pos="338.87,500.79 325,492.21 306.58,480.82 292.74,472.27"];
	31 -- 38	[pos="260.39,476.18 257.42,480.01 254.24,484.09 251.27,487.92"];
	31 -- 47	[pos="273.32,478.32 273.64,493.48 274.1,514.92 274.43,530.07"];
	31 -- 51	[pos="245.72,459.46 216.64,458.86 170.81,457.91 141.76,457.31"];
	49 -- 57	[pos="614.84,449.01 603.11,457.1 588.08,467.46 576.34,475.55"];
	46 -- 57	[pos="525.03,456.95 530.49,462.27 536.63,468.27 542.09,473.59"];
	28 -- 35	[pos="727.84,226.31 729.39,229.5 731,232.82 732.54,236.01"];
	29 -- 41	[pos="294.53,305.72 295.19,301.9 295.89,297.88 296.55,294.06"];
	29 -- 43	[pos="278.66,307.86 270.21,297.27 259.17,283.43 250.67,272.78"];
	29 -- 52	[pos="318.36,322.18 321.48,322 324.65,321.8 327.77,321.61"];
	38 -- 47	[pos="251.76,520.06 254.99,524.02 258.45,528.27 261.69,532.24"];
	38 -- 40	[pos="213.13,497.89 209.53,497.01 205.82,496.12 202.22,495.25"];
	38 -- 51	[pos="215.1,495.06 193.02,486.64 160.24,474.14 138.18,465.73"];
	33 -- 60	[pos="855.63,308.56 862.13,302.6 869.62,295.73 876.11,289.77"];
	54 -- 77	[pos="520.78,320.74 518.17,320.51 515.52,320.27 512.91,320.03"];
	54 -- 79	[pos="524.48,314.04 502.44,305.42 469.56,292.56 447.41,283.9"];
	35 -- 39	[pos="737.11,271.22 734.96,281.61 732.26,294.62 730.1,305.03"];
	35 -- 71	[pos="717.38,262.59 711.42,264.98 705.01,267.54 699.06,269.93"];
	40 -- 51	[pos="155.33,477.95 149.16,474.74 142.42,471.23 136.24,468"];
	53 -- 58	[pos="285.78,199.44 293.32,194.37 301.94,188.57 309.46,183.51"];
	53 -- 76	[pos="240.63,217.81 226.28,220.81 208.48,224.52 194.1,227.52"];
	53 -- 65	[pos="281.6,197.08 296.98,181.47 320.68,157.41 336.01,141.85"];
	45 -- 68	[pos="964.35,452.86 947.48,453.5 925.86,454.33 908.98,454.97"];
	45 -- 66	[pos="1013.1,462.94 1036,474.65 1071.7,492.97 1094.4,504.63"];
	45 -- 72	[pos="991.58,470.02 991.61,474.53 991.64,479.37 991.67,483.88"];
	45 -- 56	[pos="1015.8,459.8 1020.3,461.28 1025,462.83 1029.5,464.31"];
	45 -- 78	[pos="973.61,465.77 965.35,472.23 955.57,479.87 947.35,486.29"];
	72 -- 78	[pos="964.76,501.27 962.15,501.18 959.5,501.08 956.89,500.99"];
	58 -- 65	[pos="337.28,153.54 338.9,150.35 340.6,147.01 342.23,143.83"];
	77 -- 79	[pos="466.83,304.49 459.14,299.16 450.27,293.02 442.59,287.7"];
	56 -- 66	[pos="1072.8,485.52 1080.5,490.9 1089.4,497.09 1097,502.46"];
	56 -- 72	[pos="1031.8,482.92 1025.9,485.75 1019.6,488.79 1013.8,491.62"];
	61 -- 73	[pos="509.55,128.39 513.21,141.7 518.18,159.82 521.83,173.11"];
	61 -- 63	[pos="495.17,93.589 485.85,76.887 471.69,51.535 462.38,34.871"];
}
