graph {
	graph [bb="0,0,1251.8,854.56",
		outputorder=edgesfirst,
		overlap=prism,
		size="50,50!",
		start=4382
	];
	node [label="\N"];
	0	[height=0.5,
		pos="594.65,826.24",
		width=0.75];
	1	[height=0.5,
		pos="532.61,836.56",
		width=0.75];
	0 -- 1	[pos="568.34,830.62 565.3,831.12 562.2,831.64 559.16,832.14"];
	20	[height=0.5,
		pos="686.04,809.24",
		width=0.75];
	0 -- 20	[pos="621.09,821.32 633.32,819.05 647.8,816.35 659.98,814.09"];
	2	[height=0.5,
		pos="446.68,832.33",
		width=0.75];
	1 -- 2	[pos="505.42,835.22 495.29,834.72 483.81,834.16 473.69,833.66"];
	59	[height=0.5,
		pos="434.3,788.29",
		width=0.75];
	1 -- 59	[pos="510.79,825.85 494.5,817.85 472.34,806.96 456.06,798.97"];
	26	[height=0.5,
		pos="756.93,721.18",
		width=0.75];
	20 -- 26	[pos="699.04,793.09 711.83,777.2 731.25,753.08 744.01,737.23"];
	21	[height=0.5,
		pos="790.64,677.17",
		width=0.75];
	20 -- 21	[pos="698.66,793.31 718.76,767.92 757.85,718.58 777.98,693.16"];
	3	[height=0.5,
		pos="370.46,768.81",
		width=0.75];
	2 -- 3	[pos="429.77,818.23 417.13,807.71 399.95,793.38 387.33,782.87"];
	42	[height=0.5,
		pos="446.03,744.27",
		width=0.75];
	2 -- 42	[pos="446.55,814.08 446.44,798.97 446.28,777.6 446.17,762.49"];
	34	[height=0.5,
		pos="695.69,765.22",
		width=0.75];
	26 -- 34	[pos="738.55,734.39 730.8,739.97 721.8,746.44 714.05,752.01"];
	27	[height=0.5,
		pos="794.27,615.85",
		width=0.75];
	26 -- 27	[pos="763.26,703.31 770.17,683.83 781.16,652.84 788.03,633.46"];
	4	[height=0.5,
		pos="514.4,792.5",
		width=0.75];
	3 -- 4	[pos="396.86,773.15 422.83,777.43 462.25,783.92 488.16,788.18"];
	93	[height=0.5,
		pos="294.12,644.17",
		width=0.75];
	3 -- 93	[pos="360.16,752 345.59,728.21 319.11,684.97 304.49,661.11"];
	41	[height=0.5,
		pos="571.62,738.74",
		width=0.75];
	34 -- 41	[pos="669.68,759.67 648.5,755.15 618.76,748.8 597.6,744.29"];
	35	[height=0.5,
		pos="852.66,660.95",
		width=0.75];
	34 -- 35	[pos="714.93,752.43 745.06,732.42 803.03,693.92 833.25,673.84"];
	5	[height=0.5,
		pos="633.67,739.77",
		width=0.75];
	4 -- 5	[pos="537.11,782.46 558.33,773.07 589.84,759.14 611.04,749.77"];
	60	[height=0.5,
		pos="480.21,656.23",
		width=0.75];
	4 -- 60	[pos="509.93,774.68 503.38,748.57 491.24,700.17 484.68,674.05"];
	49	[height=0.5,
		pos="732.2,633.15",
		width=0.75];
	41 -- 49	[pos="590.99,726.01 621.85,705.71 681.85,666.26 712.76,645.93"];
	41 -- 42	[pos="544.68,739.93 523.63,740.85 494.51,742.14 473.36,743.07"];
	6	[height=0.5,
		pos="821.44,733.88",
		width=0.75];
	5 -- 6	[pos="660.97,738.91 696.67,737.79 758.84,735.84 794.41,734.73"];
	5 -- 27	[pos="651.47,726.03 682.34,702.21 745.47,653.51 776.39,629.65"];
	53	[height=0.5,
		pos="595.74,627.7",
		width=0.75];
	49 -- 53	[pos="705.24,632.07 681.47,631.12 647,629.75 623.11,628.79"];
	50	[height=0.5,
		pos="747.6,481.64",
		width=0.75];
	49 -- 50	[pos="734.03,615.17 736.97,586.17 742.75,529.35 745.73,500.06"];
	7	[height=0.5,
		pos="914.68,691.91",
		width=0.75];
	6 -- 7	[pos="844.01,723.72 858.56,717.17 877.42,708.68 891.99,702.12"];
	6 -- 21	[pos="812.2,716.86 808.3,709.69 803.77,701.35 799.88,694.17"];
	58	[height=0.5,
		pos="509.02,746.54",
		width=0.75];
	53 -- 58	[pos="583.68,644.22 567.11,666.93 537.49,707.53 520.97,730.16"];
	54	[height=0.5,
		pos="649.32,538.56",
		width=0.75];
	53 -- 54	[pos="605.82,610.93 615.34,595.09 629.54,571.46 639.1,555.55"];
	8	[height=0.5,
		pos="977.23,706.57",
		width=0.75];
	7 -- 8	[pos="940.48,697.96 944.11,698.81 947.85,699.69 951.48,700.54"];
	22	[height=0.5,
		pos="835.21,571.53",
		width=0.75];
	7 -- 22	[pos="903.63,675.17 888.44,652.17 861.3,611.05 846.16,588.12"];
	67	[height=0.5,
		pos="463.83,700.25",
		width=0.75];
	58 -- 67	[pos="494.22,731.38 489.28,726.32 483.77,720.68 478.81,715.6"];
	58 -- 59	[pos="488.21,758.17 477.84,763.96 465.35,770.94 455,776.72"];
	9	[height=0.5,
		pos="977.26,648.06",
		width=0.75];
	8 -- 9	[pos="977.24,688.38 977.24,681.4 977.25,673.44 977.25,666.44"];
	8 -- 35	[pos="953.5,697.88 931.48,689.82 898.85,677.87 876.72,669.76"];
	75	[height=0.5,
		pos="546.09,558.76",
		width=0.75];
	67 -- 75	[pos="473.59,683.47 489.33,656.38 520.18,603.31 536.08,575.96"];
	68	[height=0.5,
		pos="418.18,652.19",
		width=0.75];
	67 -- 68	[pos="449.39,685.05 444.06,679.43 438.02,673.08 432.69,667.46"];
	10	[height=0.5,
		pos="988.16,588.37",
		width=0.75];
	9 -- 10	[pos="980.53,630.15 981.91,622.59 983.51,613.82 984.89,606.26"];
	36	[height=0.5,
		pos="911.83,590.11",
		width=0.75];
	9 -- 36	[pos="960.75,633.44 950.76,624.58 938.06,613.34 928.11,604.53"];
	81	[height=0.5,
		pos="432.4,593.2",
		width=0.75];
	75 -- 81	[pos="521.42,566.23 502.35,572.01 476.08,579.97 457.02,585.74"];
	76	[height=0.5,
		pos="599.88,450.5",
		width=0.75];
	75 -- 76	[pos="554.73,541.36 564.77,521.16 581.23,488.03 591.26,467.85"];
	11	[height=0.5,
		pos="1019.2,539.99",
		width=0.75];
	10 -- 11	[pos="998.85,571.72 1001.9,566.91 1005.3,561.66 1008.4,556.83"];
	37	[height=0.5,
		pos="930.3,543.48",
		width=0.75];
	10 -- 37	[pos="970.49,574.66 963.44,569.19 955.34,562.91 948.27,557.42"];
	86	[height=0.5,
		pos="262.35,688.46",
		width=0.75];
	81 -- 86	[pos="411.55,604.88 378.82,623.22 315.77,658.54 283.11,676.83"];
	82	[height=0.5,
		pos="437.57,505.17",
		width=0.75];
	81 -- 82	[pos="433.47,574.96 434.36,559.85 435.61,538.49 436.5,523.39"];
	12	[height=0.5,
		pos="1013.6,493.05",
		width=0.75];
	11 -- 12	[pos="1017.1,521.98 1016.6,518.46 1016.2,514.77 1015.8,511.25"];
	38	[height=0.5,
		pos="951.53,454.6",
		width=0.75];
	11 -- 38	[pos="1006.5,523.93 994.39,508.66 976.29,485.83 964.21,470.59"];
	91	[height=0.5,
		pos="170.09,635.16",
		width=0.75];
	86 -- 91	[pos="241.88,676.63 226.59,667.8 205.78,655.78 190.51,646.96"];
	87	[height=0.5,
		pos="356.13,626.74",
		width=0.75];
	86 -- 87	[pos="281.79,675.67 297.88,665.08 320.64,650.1 336.73,639.51"];
	13	[height=0.5,
		pos="1013.6,432.12",
		width=0.75];
	12 -- 13	[pos="1013.6,474.77 1013.6,467.06 1013.6,458.1 1013.6,450.39"];
	23	[height=0.5,
		pos="892.54,498.63",
		width=0.75];
	12 -- 23	[pos="986.42,494.3 966.49,495.22 939.53,496.46 919.61,497.38"];
	97	[height=0.5,
		pos="111.39,537.39",
		width=0.75];
	91 -- 97	[pos="159.86,618.13 149.09,600.19 132.23,572.1 121.5,554.23"];
	92	[height=0.5,
		pos="297.52,555.28",
		width=0.75];
	91 -- 92	[pos="190,622.68 213.94,607.67 253.87,582.64 277.75,567.67"];
	14	[height=0.5,
		pos="976.64,354.2",
		width=0.75];
	13 -- 14	[pos="1005.4,414.83 999.25,401.91 990.93,384.34 984.81,371.44"];
	28	[height=0.5,
		pos="830.48,527.48",
		width=0.75];
	13 -- 28	[pos="992.21,443.25 957.02,461.57 887.27,497.9 851.98,516.28"];
	100	[height=0.5,
		pos="168.33,392.76",
		width=0.75];
	97 -- 100	[pos="118.26,519.95 129.2,492.15 150.48,438.1 161.44,410.27"];
	98	[height=0.5,
		pos="213.85,490.13",
		width=0.75];
	97 -- 98	[pos="133.62,527.14 150.69,519.27 174.16,508.44 191.31,500.53"];
	15	[height=0.5,
		pos="998.51,285.82",
		width=0.75];
	14 -- 15	[pos="982.27,336.59 985.51,326.46 989.57,313.77 992.82,303.61"];
	73	[height=0.5,
		pos="850.94,302.79",
		width=0.75];
	14 -- 73	[pos="953.58,344.77 931.04,335.55 896.91,321.59 874.27,312.34"];
	109	[height=0.5,
		pos="231.83,319.3",
		width=0.75];
	100 -- 109	[pos="182.11,376.82 192.83,364.41 207.63,347.29 218.29,334.96"];
	101	[height=0.5,
		pos="276.22,446.6",
		width=0.75];
	100 -- 101	[pos="190.16,403.65 208.88,412.99 235.71,426.38 254.42,435.72"];
	16	[height=0.5,
		pos="1037,223.58",
		width=0.75];
	15 -- 16	[pos="1008.8,269.14 1014.3,260.21 1021.1,249.24 1026.6,240.3"];
	29	[height=0.5,
		pos="899.99,354.19",
		width=0.75];
	15 -- 29	[pos="979.52,299.01 962.07,311.11 936.36,328.96 918.93,341.05"];
	114	[height=0.5,
		pos="105.96,365.96",
		width=0.75];
	109 -- 114	[pos="208.15,328.08 185.79,336.37 152.42,348.74 129.96,357.06"];
	110	[height=0.5,
		pos="356.32,366.74",
		width=0.75];
	109 -- 110	[pos="255.54,328.34 277.69,336.78 310.58,349.31 332.7,357.74"];
	17	[height=0.5,
		pos="1099,209.11",
		width=0.75];
	16 -- 17	[pos="1062.6,217.61 1066.2,216.77 1069.9,215.91 1073.5,215.07"];
	30	[height=0.5,
		pos="974.95,234.13",
		width=0.75];
	16 -- 30	[pos="1010.7,228.05 1007.6,228.57 1004.5,229.1 1001.5,229.61"];
	118	[height=0.5,
		pos="49.243,416.32",
		width=0.75];
	114 -- 118	[pos="89.557,380.53 82.097,387.15 73.287,394.97 65.808,401.61"];
	115	[height=0.5,
		pos="169.81,345.84",
		width=0.75];
	114 -- 115	[pos="130.47,358.24 135.25,356.73 140.27,355.15 145.06,353.64"];
	18	[height=0.5,
		pos="1162.8,332.43",
		width=0.75];
	17 -- 18	[pos="1107.9,226.26 1120,249.69 1141.6,291.47 1153.8,315.03"];
	31	[height=0.5,
		pos="963.75,178.21",
		width=0.75];
	17 -- 31	[pos="1073.3,203.23 1049.2,197.73 1013.5,189.57 989.42,184.08"];
	124	[height=0.5,
		pos="151.8,486.23",
		width=0.75];
	118 -- 124	[pos="68.534,429.47 86.869,441.97 114.29,460.66 132.6,473.14"];
	119	[height=0.5,
		pos="166.49,442.2",
		width=0.75];
	118 -- 119	[pos="74.974,422 94.523,426.31 121.29,432.22 140.82,436.53"];
	19	[height=0.5,
		pos="1224.8,356.62",
		width=0.75];
	18 -- 19	[pos="1186.2,341.57 1191.2,343.5 1196.4,345.54 1201.3,347.46"];
	24	[height=0.5,
		pos="1108.2,438.34",
		width=0.75];
	18 -- 24	[pos="1153.8,349.92 1143.6,369.66 1127.2,401.57 1117.1,421.17"];
	129	[height=0.5,
		pos="27,501.42",
		width=0.75];
	124 -- 129	[pos="125.03,489.49 103.97,492.06 74.774,495.61 53.729,498.17"];
	125	[height=0.5,
		pos="337.87,506.7",
		width=0.75];
	124 -- 125	[pos="178.46,489.17 213.73,493.04 275.56,499.85 310.95,503.74"];
	25	[height=0.5,
		pos="1162.8,394.3",
		width=0.75];
	19 -- 25	[pos="1204.9,368.75 1197.9,372.97 1190.1,377.7 1183.1,381.94"];
	130	[height=0.5,
		pos="89.392,462.33",
		width=0.75];
	129 -- 130	[pos="46.741,489.05 54.024,484.49 62.275,479.32 69.565,474.75"];
	21 -- 22	[pos="798,659.72 806.26,640.15 819.57,608.58 827.84,589"];
	44	[height=0.5,
		pos="670.15,619.86",
		width=0.75];
	21 -- 44	[pos="768.54,666.66 746.94,656.38 714.21,640.82 692.51,630.5"];
	22 -- 23	[pos="847.93,555.35 857.43,543.27 870.36,526.83 879.85,514.76"];
	22 -- 50	[pos="820.34,556.28 804.23,539.75 778.67,513.52 762.53,496.96"];
	59 -- 68	[pos="432.16,770.21 429.08,744.18 423.42,696.41 420.33,670.33"];
	59 -- 60	[pos="440.4,770.75 449.18,745.5 465.3,699.14 474.09,673.84"];
	68 -- 82	[pos="420.56,634.16 424.28,605.94 431.44,551.65 435.17,523.34"];
	69	[height=0.5,
		pos="495.67,612.22",
		width=0.75];
	68 -- 69	[pos="439.77,641.05 450.51,635.51 463.47,628.83 474.2,623.29"];
	82 -- 92	[pos="413.49,513.78 387.84,522.96 347.46,537.41 321.75,546.61"];
	83	[height=0.5,
		pos="478.81,309.5",
		width=0.75];
	82 -- 83	[pos="441.37,487.11 449.23,449.84 467.17,364.75 475.01,327.51"];
	23 -- 24	[pos="917.7,491.59 959.27,479.98 1041.8,456.91 1083.2,445.33"];
	104	[height=0.5,
		pos="775.61,349.77",
		width=0.75];
	23 -- 104	[pos="879.8,482.41 857.31,453.78 810.81,394.59 788.33,365.97"];
	92 -- 101	[pos="294,537.33 290.05,517.19 283.69,484.72 279.74,464.57"];
	92 -- 93	[pos="296.81,573.7 296.23,589.05 295.39,610.81 294.81,626.08"];
	101 -- 115	[pos="260.52,431.73 240.4,412.68 205.73,379.85 185.58,360.77"];
	102	[height=0.5,
		pos="522.74,498.24",
		width=0.75];
	101 -- 102	[pos="302.13,452.03 349.48,461.95 449.44,482.89 496.81,492.81"];
	115 -- 130	[pos="158.29,362.53 143,384.67 116.17,423.54 100.89,445.67"];
	116	[height=0.5,
		pos="217.4,246.79",
		width=0.75];
	115 -- 116	[pos="178.1,328.59 186.78,310.52 200.34,282.3 209.04,264.18"];
	24 -- 25	[pos="1125.5,424.4 1131.9,419.26 1139.1,413.44 1145.5,408.29"];
	32	[height=0.5,
		pos="1042.1,329.91",
		width=0.75];
	24 -- 32	[pos="1097.9,421.39 1085.5,401.02 1064.7,367.05 1052.3,346.73"];
	33	[height=0.5,
		pos="1100.7,375.36",
		width=0.75];
	25 -- 33	[pos="1137.9,386.7 1133.9,385.47 1129.7,384.19 1125.6,382.95"];
	131	[height=0.5,
		pos="170.09,589.37",
		width=0.75];
	130 -- 131	[pos="99.942,478.93 115.41,503.28 144.07,548.41 159.54,572.76"];
	42 -- 87	[pos="433.53,727.93 416.36,705.47 385.65,665.33 368.53,642.95"];
	43	[height=0.5,
		pos="542.25,672.69",
		width=0.75];
	42 -- 43	[pos="464.13,730.81 481.22,718.09 506.73,699.11 523.91,686.34"];
	27 -- 28	[pos="801.43,598.39 807.77,582.9 817,560.39 823.34,544.91"];
	27 -- 43	[pos="768.25,621.72 719.83,632.64 616.44,655.96 568.13,666.85"];
	87 -- 131	[pos="330.27,621.55 294.82,614.43 231.53,601.71 196.04,594.58"];
	88	[height=0.5,
		pos="452.19,461.15",
		width=0.75];
	87 -- 88	[pos="365.87,609.95 384.28,578.21 423.99,509.75 442.42,477.98"];
	28 -- 29	[pos="837.52,509.91 850.85,476.7 879.58,405.06 892.92,371.81"];
	55	[height=0.5,
		pos="712.75,402.75",
		width=0.75];
	28 -- 55	[pos="816.04,512.19 793.45,488.25 749.97,442.18 727.31,418.17"];
	29 -- 30	[pos="910.41,337.5 924.65,314.69 950.06,274.01 964.38,251.07"];
	63	[height=0.5,
		pos="788.91,305.77",
		width=0.75];
	29 -- 63	[pos="877.24,344.27 858.08,335.92 830.79,324.02 811.63,315.67"];
	30 -- 31	[pos="971.35,216.13 970.07,209.74 968.63,202.56 967.35,196.18"];
	39	[height=0.5,
		pos="936.45,310.16",
		width=0.75];
	30 -- 39	[pos="966.22,251.38 959.92,263.83 951.45,280.55 945.15,292.98"];
	31 -- 32	[pos="972.58,195.32 987.62,224.45 1018,283.38 1033.1,312.63"];
	65	[height=0.5,
		pos="895.01,179.93",
		width=0.75];
	31 -- 65	[pos="936.58,178.89 931.93,179.01 927.09,179.13 922.43,179.25"];
	32 -- 33	[pos="1060,343.79 1067.3,349.43 1075.6,355.93 1082.9,361.56"];
	51	[height=0.5,
		pos="850.13,399.99",
		width=0.75];
	32 -- 51	[pos="1018.1,338.64 981.26,352.11 910.93,377.79 874.05,391.25"];
	40	[height=0.5,
		pos="1038.7,384.2",
		width=0.75];
	33 -- 40	[pos="1074,379.16 1071.1,379.57 1068.2,379.99 1065.3,380.4"];
	132	[height=0.5,
		pos="108.04,587.8",
		width=0.75];
	131 -- 132	[pos="143.06,588.69 140.44,588.62 137.79,588.55 135.18,588.49"];
	35 -- 36	[pos="866.09,644.88 875.77,633.28 888.79,617.7 898.46,606.12"];
	45	[height=0.5,
		pos="755.3,571.83",
		width=0.75];
	35 -- 45	[pos="836.58,646.23 818.54,629.72 789.45,603.09 771.4,586.57"];
	36 -- 37	[pos="918.81,572.48 920.29,568.77 921.84,564.85 923.31,561.14"];
	46	[height=0.5,
		pos="768.45,527.81",
		width=0.75];
	36 -- 46	[pos="889.11,580.24 862.42,568.64 818.39,549.51 791.54,537.84"];
	37 -- 38	[pos="934.6,525.5 938.28,510.07 943.56,487.97 947.24,472.56"];
	72	[height=0.5,
		pos="781.87,435.72",
		width=0.75];
	37 -- 72	[pos="911.8,530.05 883.2,509.29 828.59,469.64 800.13,448.98"];
	38 -- 39	[pos="949.65,436.6 946.76,408.92 941.26,356.21 938.35,328.39"];
	47	[height=0.5,
		pos="851.68,444.02",
		width=0.75];
	38 -- 47	[pos="924.77,451.77 910.45,450.25 892.85,448.38 878.51,446.86"];
	93 -- 98	[pos="285.22,627.1 269.79,597.49 238.24,536.95 222.79,507.28"];
	94	[height=0.5,
		pos="370.34,578.62",
		width=0.75];
	93 -- 94	[pos="311.03,629.62 323.75,618.69 341.09,603.78 353.73,592.9"];
	98 -- 119	[pos="198.87,474.96 193.34,469.37 187.08,463.03 181.54,457.43"];
	99	[height=0.5,
		pos="294.23,357.33",
		width=0.75];
	98 -- 99	[pos="224.03,473.31 239.41,447.91 268.4,400.01 283.87,374.44"];
	39 -- 40	[pos="955.2,323.74 973.64,337.1 1001.6,357.38 1020,370.7"];
	64	[height=0.5,
		pos="749.09,247.18",
		width=0.75];
	39 -- 64	[pos="912.34,302.06 876.46,290 809.4,267.46 773.41,255.36"];
	119 -- 132	[pos="159.44,459.76 148.21,487.74 126.37,542.15 115.12,570.17"];
	120	[height=0.5,
		pos="291.15,402.6",
		width=0.75];
	119 -- 120	[pos="191.12,434.37 212.98,427.43 244.74,417.34 266.57,410.4"];
	48	[height=0.5,
		pos="940.77,398.22",
		width=0.75];
	40 -- 48	[pos="1012.2,387.99 998.24,389.99 981.21,392.43 967.28,394.42"];
	133	[height=0.5,
		pos="232.11,620.43",
		width=0.75];
	132 -- 133	[pos="133.45,594.48 154.86,600.11 185.34,608.13 206.74,613.76"];
	43 -- 44	[pos="565.41,663.12 588.59,653.55 624.04,638.91 647.16,629.36"];
	43 -- 69	[pos="529.77,656.49 523.08,647.81 514.87,637.15 508.18,628.47"];
	44 -- 45	[pos="690.76,608.23 704.05,600.74 721.27,591.03 734.58,583.52"];
	44 -- 54	[pos="665.52,601.82 662.07,588.34 657.37,570.01 653.93,556.55"];
	60 -- 94	[pos="461.58,643.07 441.37,628.8 409.31,606.15 389.07,591.85"];
	61	[height=0.5,
		pos="625.98,494.54",
		width=0.75];
	60 -- 61	[pos="494.19,640.73 521.98,609.9 583.9,541.22 611.83,510.23"];
	45 -- 46	[pos="760.65,553.93 761.48,551.17 762.33,548.31 763.15,545.56"];
	70	[height=0.5,
		pos="608.14,583.23",
		width=0.75];
	45 -- 70	[pos="728.31,573.92 701.76,575.98 661.45,579.1 634.96,581.16"];
	46 -- 47	[pos="783.72,512.44 798.74,497.32 821.53,474.38 836.51,459.29"];
	71	[height=0.5,
		pos="685.52,446.76",
		width=0.75];
	46 -- 71	[pos="752.85,512.56 737.93,497.98 715.57,476.13 700.77,461.66"];
	47 -- 48	[pos="873.25,432.93 887.15,425.79 905.17,416.52 919.09,409.36"];
	103	[height=0.5,
		pos="576.73,406.48",
		width=0.75];
	47 -- 103	[pos="825.07,440.39 772.51,433.21 655.93,417.29 603.36,410.11"];
	94 -- 133	[pos="345.62,586.09 320.62,593.66 282.17,605.29 257.07,612.88"];
	95	[height=0.5,
		pos="515.99,450.51",
		width=0.75];
	94 -- 95	[pos="386.76,564.17 414.74,539.57 471.32,489.8 499.4,465.1"];
	52	[height=0.5,
		pos="912.95,266.16",
		width=0.75];
	48 -- 52	[pos="936.96,380.13 931.63,354.85 922.02,309.2 916.72,284.03"];
	134	[height=0.5,
		pos="233.97,551.65",
		width=0.75];
	133 -- 134	[pos="232.6,602.36 232.87,592.33 233.2,579.89 233.47,569.84"];
	50 -- 51	[pos="764.99,467.78 783.85,452.77 813.76,428.95 832.65,413.91"];
	50 -- 61	[pos="720.91,484.47 700.77,486.6 673.25,489.52 653.02,491.67"];
	69 -- 125	[pos="476.32,599.28 446.03,579.03 387.76,540.06 357.37,519.74"];
	69 -- 70	[pos="520.91,605.72 539.3,600.98 564.13,594.58 582.6,589.82"];
	51 -- 52	[pos="858.22,382.76 870.21,357.21 892.61,309.5 904.7,283.74"];
	56	[height=0.5,
		pos="726.89,291.22",
		width=0.75];
	51 -- 56	[pos="833.77,385.54 810.19,364.74 766.93,326.56 743.32,305.72"];
	125 -- 134	[pos="315.06,516.56 297.74,524.06 274.02,534.32 256.71,541.81"];
	126	[height=0.5,
		pos="452.14,364.53",
		width=0.75];
	125 -- 126	[pos="350.75,490.67 372.7,463.36 417.09,408.14 439.13,380.73"];
	57	[height=0.5,
		pos="841.81,224.49",
		width=0.75];
	52 -- 57	[pos="892.38,254.11 882.86,248.53 871.58,241.93 862.1,236.37"];
	135	[height=0.5,
		pos="275.85,507.5",
		width=0.75];
	134 -- 135	[pos="248.62,536.21 252.67,531.93 257.08,527.29 261.14,523.01"];
	54 -- 88	[pos="625.93,529.37 587.99,514.48 513.46,485.21 475.54,470.32"];
	54 -- 55	[pos="657.35,521.36 669.49,495.38 692.37,446.39 704.58,420.24"];
	88 -- 120	[pos="428.43,452.51 397.98,441.44 345.5,422.36 315.01,411.27"];
	89	[height=0.5,
		pos="416.8,267.82",
		width=0.75];
	88 -- 89	[pos="448.86,442.96 442.1,406.02 426.83,322.6 420.1,285.82"];
	55 -- 56	[pos="715.09,384.33 717.72,363.54 721.98,329.94 724.6,309.29"];
	62	[height=0.5,
		pos="640.6,364.92",
		width=0.75];
	55 -- 62	[pos="691.49,391.6 682.18,386.72 671.28,381.01 661.95,376.12"];
	120 -- 135	[pos="288.49,420.87 285.68,440.12 281.28,470.26 278.49,489.44"];
	121	[height=0.5,
		pos="280.55,275.27",
		width=0.75];
	120 -- 121	[pos="289.63,384.35 287.62,360.15 284.08,317.67 282.07,293.48"];
	56 -- 57	[pos="747.43,279.29 768.35,267.14 800.59,248.42 821.44,236.32"];
	107	[height=0.5,
		pos="520.2,176.88",
		width=0.75];
	56 -- 107	[pos="705.93,279.62 666.32,257.71 580.87,210.44 541.22,188.51"];
	66	[height=0.5,
		pos="896.57,135.89",
		width=0.75];
	57 -- 66	[pos="852.11,207.83 861.84,192.09 876.36,168.6 886.13,152.78"];
	136	[height=0.5,
		pos="484.08,549.17",
		width=0.75];
	135 -- 136	[pos="301.8,512.69 341.81,520.7 418.12,535.97 458.13,543.98"];
	61 -- 62	[pos="628.01,476.51 630.79,451.89 635.74,407.97 638.53,383.21"];
	61 -- 136	[pos="602.54,503.56 576.25,513.68 533.85,530.01 507.54,540.14"];
	62 -- 63	[pos="663.77,355.68 691.47,344.63 737.57,326.25 765.41,315.14"];
	105	[height=0.5,
		pos="602.85,305.5",
		width=0.75];
	62 -- 105	[pos="629.88,348.05 624.74,339.96 618.59,330.28 613.46,322.2"];
	63 -- 64	[pos="777.61,289.14 772.18,281.15 765.7,271.62 760.29,263.65"];
	78	[height=0.5,
		pos="664.7,221.26",
		width=0.75];
	63 -- 78	[pos="769.78,292.75 746.37,276.82 706.98,250.03 683.65,234.16"];
	64 -- 65	[pos="771.57,236.82 799.07,224.15 845.34,202.82 872.74,190.19"];
	64 -- 83	[pos="723.18,253.16 671.51,265.07 556.25,291.65 504.65,303.54"];
	65 -- 66	[pos="895.65,161.77 895.74,159.21 895.84,156.58 895.93,154.02"];
	79	[height=0.5,
		pos="702.85,177.17",
		width=0.75];
	65 -- 79	[pos="867.88,179.54 831.36,179.02 766.75,178.09 730.15,177.56"];
	74	[height=0.5,
		pos="796.77,169.4",
		width=0.75];
	66 -- 74	[pos="872.42,144 856.84,149.23 836.66,156.01 821.06,161.24"];
	137	[height=0.5,
		pos="388.35,461.15",
		width=0.75];
	136 -- 137	[pos="467.84,534.24 450.13,517.95 421.96,492.06 404.35,475.86"];
	70 -- 71	[pos="617.78,566.22 632.61,540.07 660.85,490.26 675.75,463.98"];
	70 -- 102	[pos="592.87,568.04 577.33,552.57 553.38,528.73 537.88,513.31"];
	71 -- 72	[pos="712.36,443.69 725.72,442.15 741.83,440.31 755.17,438.78"];
	71 -- 95	[pos="658.28,447.36 626.64,448.06 574.77,449.21 543.16,449.91"];
	72 -- 73	[pos="790.76,418.62 804.02,393.09 828.84,345.32 842.08,319.83"];
	72 -- 76	[pos="755.01,437.9 720.61,440.7 661.31,445.51 626.85,448.31"];
	73 -- 74	[pos="843.86,285.35 833.48,259.79 814.24,212.41 803.86,186.84"];
	77	[height=0.5,
		pos="664.87,314.42",
		width=0.75];
	73 -- 77	[pos="823.88,304.48 788.6,306.69 727.25,310.52 691.96,312.73"];
	102 -- 137	[pos="497.78,491.35 473.79,484.73 437.73,474.78 413.63,468.13"];
	102 -- 103	[pos="532.65,481.41 542.33,464.96 556.99,440.04 566.71,423.51"];
	80	[height=0.5,
		pos="710.2,132.96",
		width=0.75];
	74 -- 80	[pos="773.57,159.63 761.05,154.36 745.65,147.88 733.16,142.63"];
	138	[height=0.5,
		pos="418.36,410.33",
		width=0.75];
	137 -- 138	[pos="398.34,444.23 401.55,438.8 405.1,432.79 408.31,427.35"];
	76 -- 77	[pos="608.11,433.27 620.55,407.23 643.99,358.15 656.5,331.94"];
	139	[height=0.5,
		pos="514.21,399.35",
		width=0.75];
	76 -- 139	[pos="579.58,438.38 565.92,430.23 547.99,419.52 534.37,411.39"];
	95 -- 110	[pos="494.46,439.21 463.9,423.18 408.28,394 377.77,377.99"];
	96	[height=0.5,
		pos="400.82,318.96",
		width=0.75];
	95 -- 96	[pos="502.33,434.9 480.16,409.58 436.62,359.85 414.47,334.55"];
	77 -- 78	[pos="664.84,296.01 664.81,279.58 664.76,255.64 664.73,239.31"];
	106	[height=0.5,
		pos="558.18,260.5",
		width=0.75];
	77 -- 106	[pos="643.28,303.51 624.77,294.15 598.24,280.74 579.74,271.39"];
	78 -- 79	[pos="678.47,205.34 681.97,201.3 685.73,196.95 689.23,192.92"];
	112	[height=0.5,
		pos="390.21,179.78",
		width=0.75];
	78 -- 112	[pos="637.88,217.21 585.27,209.26 469.11,191.7 416.73,183.79"];
	110 -- 138	[pos="374.94,379.82 382.79,385.34 391.91,391.74 399.76,397.26"];
	111	[height=0.5,
		pos="404.58,223.78",
		width=0.75];
	110 -- 111	[pos="362.34,348.93 371.64,321.38 389.39,268.78 398.64,241.38"];
	79 -- 80	[pos="705.84,159.19 706.29,156.51 706.74,153.75 707.19,151.07"];
	84	[height=0.5,
		pos="583.54,164.37",
		width=0.75];
	79 -- 84	[pos="676.08,174.3 656.43,172.19 629.86,169.34 610.23,167.23"];
	85	[height=0.5,
		pos="591.52,120.29",
		width=0.75];
	80 -- 85	[pos="683.27,130.09 663.85,128.01 637.74,125.23 618.35,123.16"];
	138 -- 139	[pos="445.06,407.27 458.24,405.76 474.11,403.94 487.32,402.43"];
	83 -- 84	[pos="490.62,293.13 510.74,265.26 551.42,208.88 571.61,180.9"];
	122	[height=0.5,
		pos="328.07,164.23",
		width=0.75];
	83 -- 122	[pos="463.25,294.5 434.36,266.66 372.77,207.3 343.77,179.36"];
	84 -- 85	[pos="586.79,146.44 587.27,143.77 587.77,141.02 588.25,138.35"];
	84 -- 89	[pos="563.76,176.64 531.76,196.5 468.97,235.45 436.82,255.4"];
	90	[height=0.5,
		pos="453.45,175.1",
		width=0.75];
	85 -- 90	[pos="568.1,129.59 542.71,139.67 502.42,155.66 476.99,165.76"];
	140	[height=0.5,
		pos="515.58,355.34",
		width=0.75];
	139 -- 140	[pos="514.77,381.2 514.85,378.64 514.93,376.01 515.01,373.46"];
	103 -- 126	[pos="552.41,398.29 530.46,390.9 498.33,380.08 476.4,372.7"];
	103 -- 104	[pos="601.92,399.29 640.17,388.39 712.49,367.77 750.62,356.9"];
	89 -- 90	[pos="423.7,250.38 430.21,233.91 439.92,209.32 446.47,192.78"];
	146	[height=0.5,
		pos="392.14,119.78",
		width=0.75];
	89 -- 146	[pos="413.78,249.66 409.04,221.25 399.93,166.58 395.19,138.08"];
	126 -- 140	[pos="478.68,360.69 482.07,360.2 485.55,359.69 488.95,359.2"];
	127	[height=0.5,
		pos="280.53,208.87",
		width=0.75];
	126 -- 127	[pos="436,349.89 403.29,320.22 329.53,253.32 296.76,223.58"];
	90 -- 96	[pos="447,192.74 436.9,220.35 417.46,273.48 407.33,301.18"];
	141	[height=0.5,
		pos="540.84,311.31",
		width=0.75];
	140 -- 141	[pos="525.27,338.44 527.17,335.15 529.15,331.68 531.05,328.38"];
	104 -- 141	[pos="749.13,345.44 703.93,338.03 612.36,323.03 567.22,315.63"];
	104 -- 105	[pos="750.12,343.24 717.36,334.85 660.83,320.36 628.16,311.98"];
	96 -- 99	[pos="376.9,327.57 359.34,333.89 335.6,342.44 318.07,348.75"];
	142	[height=0.5,
		pos="590.35,215.48",
		width=0.75];
	141 -- 142	[pos="549.7,294.17 558.65,276.84 572.42,250.18 581.41,232.78"];
	105 -- 142	[pos="600.32,287.28 598.15,271.66 595.05,249.28 592.88,233.67"];
	105 -- 106	[pos="587.73,290.26 583.07,285.57 577.94,280.41 573.29,275.72"];
	108	[height=0.5,
		pos="342.57,242.11",
		width=0.75];
	99 -- 108	[pos="301.57,339.83 310.65,318.18 326.04,281.51 335.16,259.78"];
	143	[height=0.5,
		pos="463.85,131.07",
		width=0.75];
	142 -- 143	[pos="571.14,202.66 547.36,186.79 507.11,159.93 483.25,144.01"];
	106 -- 111	[pos="532.47,254.35 504.03,247.55 458.49,236.67 430.12,229.89"];
	106 -- 107	[pos="550.31,243.17 543.79,228.82 534.58,208.53 528.06,194.19"];
	111 -- 143	[pos="415.18,207.21 425.9,190.44 442.39,164.65 453.15,147.82"];
	111 -- 112	[pos="398.82,206.14 397.88,203.27 396.91,200.3 395.97,197.43"];
	107 -- 108	[pos="496.25,185.68 462.25,198.16 400.37,220.89 366.43,233.35"];
	147	[height=0.5,
		pos="414.4,75.737",
		width=0.75];
	107 -- 147	[pos="504.59,161.96 484.59,142.84 450.11,109.88 430.08,90.722"];
	113	[height=0.5,
		pos="252.25,162.18",
		width=0.75];
	108 -- 113	[pos="326,227.45 309.71,213.03 284.97,191.14 268.71,176.75"];
	144	[height=0.5,
		pos="329.79,120.2",
		width=0.75];
	143 -- 144	[pos="437.04,128.9 413.81,127.01 380.36,124.3 357.01,122.4"];
	112 -- 116	[pos="366.54,188.96 333.45,201.79 273.72,224.95 240.78,237.72"];
	112 -- 113	[pos="363.61,176.38 339.18,173.27 303.17,168.68 278.77,165.56"];
	116 -- 121	[pos="239.84,256.91 245.8,259.6 252.23,262.5 258.18,265.18"];
	117	[height=0.5,
		pos="140.09,152.89",
		width=0.75];
	116 -- 117	[pos="204.28,230.86 190.07,213.59 167.51,186.2 153.27,168.9"];
	121 -- 127	[pos="280.55,257.13 280.54,247.76 280.54,236.36 280.54,226.99"];
	121 -- 122	[pos="287.98,257.92 296.85,237.18 311.62,202.67 320.54,181.82"];
	127 -- 144	[pos="290.03,191.77 298.75,176.07 311.6,152.92 320.32,137.24"];
	128	[height=0.5,
		pos="228.16,61.126",
		width=0.75];
	127 -- 128	[pos="274.32,191.34 264.29,163.06 244.65,107.65 234.53,79.091"];
	113 -- 117	[pos="225.38,159.95 207.76,158.5 184.79,156.59 167.13,155.13"];
	145	[height=0.5,
		pos="295.44,76.169",
		width=0.75];
	144 -- 145	[pos="317.19,104.05 314.21,100.22 311.02,96.14 308.03,92.312"];
	122 -- 145	[pos="321.47,146.41 315.77,131.03 307.59,108.94 301.92,93.662"];
	123	[height=0.5,
		pos="185.15,106.13",
		width=0.75];
	122 -- 123	[pos="304.79,154.76 278.21,143.96 234.99,126.39 208.42,115.59"];
	117 -- 123	[pos="154.85,137.58 159.88,132.36 165.5,126.53 170.52,121.32"];
	145 -- 146	[pos="317.87,86.283 333.38,93.278 353.94,102.55 369.5,109.57"];
	123 -- 128	[pos="199.71,90.895 204.19,86.203 209.13,81.039 213.61,76.347"];
	146 -- 147	[pos="400.81,102.62 402.42,99.436 404.1,96.104 405.71,92.916"];
	148	[height=0.5,
		pos="298.98,18",
		width=0.75];
	128 -- 148	[pos="248.26,48.883 257.75,43.106 269.05,36.223 278.58,30.423"];
	147 -- 148	[pos="392.69,64.877 372.05,54.554 341.19,39.117 320.59,28.811"];
}
