graph {
	graph [bb="0,0,372.64,290.67",
		outputorder=edgesfirst,
		overlap=prism,
		size="50,50!",
		start=1243
	];
	node [label="\N"];
	0	[height=0.5,
		pos="207.91,272.67",
		width=0.75];
	2	[height=0.5,
		pos="203.93,196.3",
		width=0.75];
	0 -- 2	[pos="206.97,254.57 206.34,242.48 205.51,226.64 204.88,214.53"];
	1	[height=0.5,
		pos="187.66,87.466",
		width=0.75];
	0 -- 1	[pos="205.93,254.57 202.06,219.17 193.53,141.1 189.65,105.63"];
	4	[height=0.5,
		pos="70.101,146.73",
		width=0.75];
	0 -- 4	[pos="191.83,257.97 165.28,233.71 112.56,185.53 86.076,161.33"];
	3	[height=0.5,
		pos="81.625,270.37",
		width=0.75];
	0 -- 3	[pos="180.82,272.18 159.51,271.79 129.97,271.25 108.67,270.86"];
	6	[height=0.5,
		pos="345.64,183.5",
		width=0.75];
	0 -- 6	[pos="227.35,260.08 253.45,243.18 299.57,213.32 325.85,196.31"];
	7	[height=0.5,
		pos="323.38,94.726",
		width=0.75];
	0 -- 7	[pos="218.77,255.93 240.83,221.93 290.66,145.15 312.63,111.29"];
	5	[height=0.5,
		pos="27,97.281",
		width=0.75];
	2 -- 5	[pos="182.94,184.55 148.8,165.44 81.639,127.86 47.69,108.86"];
	2 -- 3	[pos="183.74,208.53 161.07,222.25 124.53,244.39 101.85,258.12"];
	2 -- 6	[pos="230.92,193.86 256.13,191.58 293.57,188.2 318.75,185.93"];
	10	[height=0.5,
		pos="269.91,230.39",
		width=0.75];
	2 -- 10	[pos="225.54,207.46 232.9,211.27 241.13,215.52 248.49,219.32"];
	1 -- 2	[pos="190.35,105.44 193.36,125.6 198.23,158.12 201.24,178.3"];
	1 -- 4	[pos="166.1,98.336 145.02,108.96 113.09,125.06 91.925,135.73"];
	1 -- 5	[pos="160.77,89.109 131.11,90.921 83.672,93.819 53.979,95.633"];
	1 -- 7	[pos="214.8,88.918 238.47,90.184 272.63,92.011 296.29,93.277"];
	11	[height=0.5,
		pos="251.91,18",
		width=0.75];
	1 -- 11	[pos="201.92,72.05 212.57,60.538 227.05,44.875 237.69,33.374"];
	4 -- 5	[pos="56.463,131.08 51.432,125.31 45.733,118.77 40.697,112.99"];
	4 -- 11	[pos="88.872,133.44 123.8,108.7 198.39,55.896 233.24,31.219"];
	8	[height=0.5,
		pos="148.85,27.095",
		width=0.75];
	4 -- 8	[pos="81.051,130.09 96.097,107.24 123,66.37 138,43.588"];
	5 -- 8	[pos="47.671,85.375 70.078,72.469 105.63,51.989 128.08,39.059"];
	9	[height=0.5,
		pos="153.55,151.7",
		width=0.75];
	5 -- 9	[pos="49.917,107.14 72.852,117 107.93,132.08 130.8,141.92"];
	3 -- 4	[pos="79.949,252.39 77.764,228.95 73.964,188.18 71.779,164.73"];
	3 -- 5	[pos="75.985,252.5 65.49,219.25 43.081,148.24 32.609,115.06"];
	3 -- 10	[pos="107.41,264.9 143.37,257.26 208.19,243.5 244.14,235.87"];
	3 -- 9	[pos="91.777,253.62 105.41,231.13 129.49,191.39 143.22,168.75"];
	6 -- 10	[pos="325.74,195.82 314.7,202.66 301,211.14 289.94,217.99"];
	6 -- 7	[pos="341.13,165.53 337.27,150.13 331.73,128.06 327.87,112.66"];
	6 -- 11	[pos="335.96,166.41 318,134.7 279.7,67.072 261.67,35.243"];
	6 -- 9	[pos="319.33,179.14 282.65,173.07 216.52,162.13 179.85,156.06"];
	7 -- 10	[pos="316.5,112.18 306.29,138.09 287.23,186.46 276.94,212.57"];
	7 -- 11	[pos="308.91,79.199 296.51,65.887 278.74,46.808 266.35,33.503"];
	7 -- 8	[pos="299.84,85.605 266.44,72.661 205.64,49.103 172.29,36.179"];
	8 -- 10	[pos="158.97,44.078 181.81,82.442 237.18,175.42 259.91,213.6"];
	8 -- 11	[pos="175.66,24.729 190.81,23.392 209.69,21.726 224.88,20.386"];
	8 -- 9	[pos="149.54,45.214 150.43,68.839 151.98,109.93 152.87,133.56"];
	9 -- 10	[pos="172.77,164.7 194.33,179.28 229.1,202.79 250.67,217.38"];
	9 -- 11	[pos="165.61,135.31 184.49,109.65 220.81,60.273 239.75,34.529"];
}
