graph {
	graph [bb="0,0,863.89,706.78",
		outputorder=edgesfirst,
		overlap=prism,
		size="50,50!",
		start=4744
	];
	node [label="\N"];
	0	[height=0.5,
		pos="564.71,639.34",
		width=0.75];
	17	[height=0.5,
		pos="511.34,589.78",
		width=0.75];
	0 -- 17	[pos="548.7,624.47 541.94,618.19 534.1,610.91 527.34,604.64"];
	36	[height=0.5,
		pos="676.73,632.25",
		width=0.75];
	0 -- 36	[pos="591.83,637.62 609.31,636.51 631.97,635.08 649.48,633.97"];
	47	[height=0.5,
		pos="605.27,688.78",
		width=0.75];
	0 -- 47	[pos="577.77,655.25 582.4,660.9 587.61,667.25 592.24,672.89"];
	51	[height=0.5,
		pos="409.52,652.94",
		width=0.75];
	0 -- 51	[pos="537.68,641.71 509.28,644.2 464.88,648.09 436.5,650.58"];
	53	[height=0.5,
		pos="589.55,489.98",
		width=0.75];
	0 -- 53	[pos="567.71,621.32 572.48,592.61 581.76,536.81 586.54,508.06"];
	61	[height=0.5,
		pos="667.32,676.25",
		width=0.75];
	0 -- 61	[pos="588.51,647.9 604.97,653.82 626.79,661.67 643.3,667.6"];
	72	[height=0.5,
		pos="574.41,578.01",
		width=0.75];
	0 -- 72	[pos="567.57,621.27 568.82,613.35 570.29,604.09 571.54,596.16"];
	73	[height=0.5,
		pos="740.79,621.71",
		width=0.75];
	0 -- 73	[pos="591.45,636.66 624.64,633.34 680.91,627.7 714.08,624.38"];
	1	[height=0.5,
		pos="366.15,424.9",
		width=0.75];
	18	[height=0.5,
		pos="309.12,232.16",
		width=0.75];
	1 -- 18	[pos="360.89,407.11 350.03,370.39 325.22,286.58 314.37,249.9"];
	20	[height=0.5,
		pos="360.5,470.55",
		width=0.75];
	1 -- 20	[pos="363.92,442.94 363.54,446.03 363.14,449.25 362.76,452.34"];
	32	[height=0.5,
		pos="489.15,495.51",
		width=0.75];
	1 -- 32	[pos="386.74,436.72 409.45,449.75 445.76,470.6 468.49,483.65"];
	35	[height=0.5,
		pos="298.49,465.11",
		width=0.75];
	1 -- 35	[pos="345.85,436.96 337.29,442.05 327.34,447.97 318.78,453.05"];
	40	[height=0.5,
		pos="303.49,378.68",
		width=0.75];
	1 -- 40	[pos="348.03,411.53 339.79,405.45 330.06,398.27 321.79,392.18"];
	52	[height=0.5,
		pos="418.4,514.6",
		width=0.75];
	1 -- 52	[pos="375.98,441.77 385.32,457.81 399.29,481.79 408.62,497.8"];
	62	[height=0.5,
		pos="237.85,421.08",
		width=0.75];
	1 -- 62	[pos="338.94,424.09 317.17,423.44 286.79,422.53 265.02,421.89"];
	66	[height=0.5,
		pos="304.37,514.6",
		width=0.75];
	1 -- 66	[pos="354.82,441.35 343.74,457.43 326.96,481.79 315.84,497.94"];
	70	[height=0.5,
		pos="543.46,398.49",
		width=0.75];
	1 -- 70	[pos="392.7,420.94 426.22,415.95 483.55,407.41 517.02,402.42"];
	75	[height=0.5,
		pos="511.26,448.48",
		width=0.75];
	1 -- 75	[pos="392.43,429.17 418.57,433.42 458.45,439.9 484.68,444.16"];
	77	[height=0.5,
		pos="492.25,545.51",
		width=0.75];
	1 -- 77	[pos="381.62,439.69 405.82,462.83 452.39,507.38 476.67,530.6"];
	79	[height=0.5,
		pos="371.13,242.31",
		width=0.75];
	1 -- 79	[pos="366.65,406.72 367.6,371.72 369.68,295.35 370.63,260.41"];
	80	[height=0.5,
		pos="247.09,249.95",
		width=0.75];
	1 -- 80	[pos="354.95,408.44 332.26,375.09 281.09,299.91 258.35,266.49"];
	2	[height=0.5,
		pos="584.99,302",
		width=0.75];
	19	[height=0.5,
		pos="709.06,313.92",
		width=0.75];
	2 -- 19	[pos="611.91,304.59 632.72,306.59 661.39,309.34 682.19,311.34"];
	21	[height=0.5,
		pos="372.57,333.95",
		width=0.75];
	2 -- 21	[pos="558.52,305.99 517.7,312.12 439.86,323.83 399.05,329.97"];
	23	[height=0.5,
		pos="659.44,401.95",
		width=0.75];
	2 -- 23	[pos="597.28,318.51 611.16,337.14 633.6,367.25 647.38,385.75"];
	26	[height=0.5,
		pos="522.27,153.6",
		width=0.75];
	2 -- 26	[pos="577.55,284.4 565.48,255.84 541.76,199.73 529.7,171.19"];
	33	[height=0.5,
		pos="538.1,346.06",
		width=0.75];
	2 -- 33	[pos="569.12,316.92 564.23,321.51 558.85,326.57 553.96,331.16"];
	39	[height=0.5,
		pos="453.92,312.34",
		width=0.75];
	2 -- 39	[pos="558.15,304.12 535.68,305.89 503.76,308.41 481.17,310.19"];
	44	[height=0.5,
		pos="498.04,198.29",
		width=0.75];
	2 -- 44	[pos="571.78,286.25 555.44,266.76 527.77,233.75 511.37,214.19"];
	46	[height=0.5,
		pos="675.76,254.22",
		width=0.75];
	2 -- 46	[pos="606.5,290.68 620.97,283.06 639.97,273.06 654.4,265.46"];
	48	[height=0.5,
		pos="651.23,445.98",
		width=0.75];
	2 -- 48	[pos="592.98,319.37 605.71,347.04 630.46,400.84 643.21,428.55"];
	2 -- 53	[pos="585.43,320.03 586.3,355.87 588.23,435.72 589.1,471.74"];
	59	[height=0.5,
		pos="713.14,357.93",
		width=0.75];
	2 -- 59	[pos="607.61,311.87 630.89,322.03 666.96,337.78 690.32,347.97"];
	63	[height=0.5,
		pos="634.05,210.17",
		width=0.75];
	2 -- 63	[pos="594.22,284.73 602.99,268.31 616.11,243.76 624.86,227.36"];
	3	[height=0.5,
		pos="449.09,426.46",
		width=0.75];
	3 -- 17	[pos="455.75,443.94 467.67,475.21 492.52,540.4 504.54,571.93"];
	3 -- 20	[pos="427.19,437.36 413.46,444.2 395.83,452.97 382.15,459.78"];
	22	[height=0.5,
		pos="363.72,558.63",
		width=0.75];
	3 -- 22	[pos="438.28,443.2 421.86,468.63 390.82,516.69 374.45,542.03"];
	31	[height=0.5,
		pos="407.13,380.29",
		width=0.75];
	3 -- 31	[pos="434.89,410.83 430.51,406.02 425.7,400.72 421.32,395.91"];
	3 -- 33	[pos="465.42,411.72 481.48,397.21 505.85,375.19 521.88,360.71"];
	34	[height=0.5,
		pos="554.52,533.99",
		width=0.75];
	3 -- 34	[pos="464.2,441.87 484.24,462.31 519.41,498.18 539.44,518.61"];
	3 -- 52	[pos="442.88,444.3 437.55,459.59 429.92,481.51 424.6,496.79"];
	54	[height=0.5,
		pos="522.97,281.5",
		width=0.75];
	3 -- 54	[pos="457.86,409.27 472.07,381.37 500,326.56 514.21,298.68"];
	74	[height=0.5,
		pos="460.95,265.83",
		width=0.75];
	3 -- 74	[pos="450.43,408.35 452.71,377.5 457.31,315.09 459.6,284.12"];
	4	[height=0.5,
		pos="148.22,358.78",
		width=0.75];
	4 -- 21	[pos="175.29,355.78 218.52,351 302.69,341.68 345.76,336.92"];
	25	[height=0.5,
		pos="109.67,423.69",
		width=0.75];
	4 -- 25	[pos="138.09,375.83 132.47,385.3 125.5,397.04 119.87,406.52"];
	28	[height=0.5,
		pos="185.06,287.86",
		width=0.75];
	4 -- 28	[pos="157.14,341.61 162.85,330.62 170.23,316.41 175.97,305.36"];
	37	[height=0.5,
		pos="173.66,510.12",
		width=0.75];
	4 -- 37	[pos="151.24,376.73 156.14,405.86 165.76,463.08 170.65,492.19"];
	38	[height=0.5,
		pos="154.33,243.53",
		width=0.75];
	4 -- 38	[pos="149.18,340.77 150.32,319.24 152.21,283.42 153.36,261.79"];
	42	[height=0.5,
		pos="73.879,336.21",
		width=0.75];
	4 -- 42	[pos="123.47,351.26 115.44,348.82 106.54,346.12 98.527,343.69"];
	55	[height=0.5,
		pos="47.61,452.62",
		width=0.75];
	4 -- 55	[pos="132.5,373.44 113.71,390.97 82.441,420.13 63.552,437.75"];
	56	[height=0.5,
		pos="235.81,481",
		width=0.75];
	4 -- 56	[pos="160.04,375.26 176.75,398.59 207.14,440.99 223.91,464.38"];
	58	[height=0.5,
		pos="210.27,333.04",
		width=0.75];
	4 -- 58	[pos="171.33,349.19 176.43,347.08 181.83,344.83 186.94,342.72"];
	71	[height=0.5,
		pos="47.34,380.64",
		width=0.75];
	4 -- 71	[pos="122.51,364.35 107.44,367.61 88.475,371.73 73.362,375"];
	76	[height=0.5,
		pos="92.323,223.43",
		width=0.75];
	4 -- 76	[pos="141.03,341.36 130.36,315.51 110.43,267.26 99.666,241.21"];
	5	[height=0.5,
		pos="268.09,584.1",
		width=0.75];
	5 -- 22	[pos="293.22,577.41 307.16,573.7 324.46,569.09 338.43,565.37"];
	24	[height=0.5,
		pos="130.01,568.8",
		width=0.75];
	5 -- 24	[pos="241.14,581.12 216.81,578.42 181.2,574.48 156.89,571.78"];
	5 -- 37	[pos="250.33,570.19 233.45,556.96 208.2,537.18 191.34,523.98"];
	5 -- 51	[pos="290.19,594.86 316.76,607.79 361.07,629.36 387.57,642.26"];
	5 -- 56	[pos="262.47,566.14 256.54,547.22 247.27,517.6 241.37,498.75"];
	68	[height=0.5,
		pos="148.67,613.82",
		width=0.75];
	5 -- 68	[pos="242.76,590.41 222.63,595.41 194.6,602.39 174.37,607.42"];
	6	[height=0.5,
		pos="111.51,524.76",
		width=0.75];
	6 -- 25	[pos="111.18,506.69 110.85,488.41 110.34,460.29 110,441.95"];
	29	[height=0.5,
		pos="48.807,548.08",
		width=0.75];
	6 -- 29	[pos="87.805,533.58 82.811,535.43 77.542,537.39 72.546,539.25"];
	6 -- 35	[pos="135.96,516.96 171.79,505.53 238.2,484.35 274.04,472.91"];
	6 -- 55	[pos="97.645,509.11 86.927,497.01 72.16,480.34 61.448,468.25"];
	57	[height=0.5,
		pos="27,501.44",
		width=0.75];
	6 -- 57	[pos="86.155,517.77 75.361,514.79 62.806,511.32 52.047,508.35"];
	6 -- 66	[pos="138.73,523.33 175.49,521.39 240.6,517.96 277.28,516.02"];
	6 -- 68	[pos="118.85,542.36 125.37,557.97 134.83,580.66 141.34,596.26"];
	7	[height=0.5,
		pos="313.94,286.96",
		width=0.75];
	27	[height=0.5,
		pos="469.2,356.47",
		width=0.75];
	7 -- 27	[pos="336.52,297.06 365.95,310.24 417.15,333.16 446.6,346.35"];
	7 -- 28	[pos="286.92,287.15 265.07,287.3 234.44,287.51 212.48,287.67"];
	30	[height=0.5,
		pos="433.15,221.78",
		width=0.75];
	7 -- 30	[pos="334.98,275.45 356.64,263.62 390.2,245.27 411.92,233.39"];
	7 -- 31	[pos="328.91,301.95 346.2,319.27 374.49,347.6 391.89,365.03"];
	7 -- 39	[pos="340.27,291.73 365.29,296.27 402.72,303.05 427.71,307.58"];
	7 -- 40	[pos="311.88,305.08 310.04,321.16 307.38,344.53 305.55,360.6"];
	7 -- 58	[pos="291.45,296.96 274.17,304.63 250.42,315.19 233.08,322.9"];
	60	[height=0.5,
		pos="249.13,188.13",
		width=0.75];
	7 -- 60	[pos="302.95,270.19 290.96,251.91 271.89,222.83 259.96,204.64"];
	78	[height=0.5,
		pos="220.01,377.07",
		width=0.75];
	7 -- 78	[pos="298.43,301.84 281.03,318.53 252.96,345.46 235.54,362.17"];
	8	[height=0.5,
		pos="111.54,478.3",
		width=0.75];
	8 -- 24	[pos="115.19,496.18 118.42,512.05 123.13,535.11 126.37,550.96"];
	8 -- 29	[pos="97.615,493.79 87.219,505.35 73.076,521.08 62.69,532.63"];
	8 -- 42	[pos="106.77,460.31 99.524,432.97 85.83,381.3 78.61,354.06"];
	8 -- 57	[pos="86.173,485.25 75.376,488.2 62.817,491.64 52.054,494.59"];
	8 -- 62	[pos="134.12,468.07 157.11,457.66 192.54,441.6 215.46,431.22"];
	8 -- 71	[pos="100.65,461.74 88.841,443.78 70.109,415.28 58.283,397.29"];
	8 -- 78	[pos="127.54,463.37 148.17,444.12 183.81,410.86 204.29,391.74"];
	9	[height=0.5,
		pos="564.15,197.67",
		width=0.75];
	9 -- 30	[pos="537.96,202.49 515.11,206.7 482.14,212.77 459.3,216.97"];
	41	[height=0.5,
		pos="591.48,65.556",
		width=0.75];
	9 -- 41	[pos="567.9,179.58 573.13,154.28 582.57,108.61 587.78,83.431"];
	45	[height=0.5,
		pos="532,109.59",
		width=0.75];
	9 -- 45	[pos="557.65,179.85 552.03,164.46 543.97,142.37 538.38,127.08"];
	9 -- 46	[pos="585.67,208.57 605.31,218.52 634.19,233.16 653.93,243.16"];
	9 -- 54	[pos="555.62,215.04 548.55,229.43 538.56,249.77 531.49,264.16"];
	9 -- 63	[pos="590.58,202.39 596.15,203.39 602.02,204.44 607.59,205.44"];
	82	[height=0.5,
		pos="752.66,269.79",
		width=0.75];
	9 -- 82	[pos="587.65,206.66 623.87,220.51 692.95,246.94 729.17,260.8"];
	84	[height=0.5,
		pos="647,298.26",
		width=0.75];
	9 -- 84	[pos="577.47,213.83 593.02,232.72 618.58,263.75 634,282.47"];
	10	[height=0.5,
		pos="587.69,445.51",
		width=0.75];
	10 -- 27	[pos="569.69,431.99 547.42,415.25 509.71,386.92 487.37,370.12"];
	10 -- 32	[pos="565.82,456.61 549.49,464.89 527.27,476.17 510.96,484.45"];
	64	[height=0.5,
		pos="774.82,404.04",
		width=0.75];
	10 -- 64	[pos="613.32,439.83 648.95,431.93 713.11,417.71 748.9,409.78"];
	65	[height=0.5,
		pos="755.65,450.1",
		width=0.75];
	10 -- 65	[pos="614.67,446.25 645.92,447.1 697.11,448.5 728.45,449.36"];
	10 -- 72	[pos="585.87,463.66 583.34,488.89 578.79,534.32 576.25,559.66"];
	10 -- 75	[pos="560.53,446.57 553.32,446.85 545.53,447.15 538.33,447.43"];
	81	[height=0.5,
		pos="676.45,543.2",
		width=0.75];
	10 -- 81	[pos="601.95,461.21 618.51,479.44 645.67,509.33 662.22,527.54"];
	10 -- 84	[pos="594.73,428.04 606.14,399.7 628.56,344.04 639.97,315.71"];
	11	[height=0.5,
		pos="735.73,496.06",
		width=0.75];
	11 -- 23	[pos="722.79,480.1 708.76,462.79 686.5,435.33 672.45,417.99"];
	11 -- 34	[pos="709.77,501.5 675.32,508.71 614.86,521.36 580.43,528.56"];
	11 -- 36	[pos="728.14,513.59 716.81,539.74 695.61,588.68 684.3,614.79"];
	50	[height=0.5,
		pos="836.89,432.69",
		width=0.75];
	11 -- 50	[pos="755.72,483.54 773.45,472.43 799.22,456.29 816.94,445.19"];
	11 -- 59	[pos="732.78,478.01 728.45,451.53 720.42,402.47 716.09,375.99"];
	11 -- 65	[pos="743.26,478.69 744.85,475.03 746.52,471.16 748.11,467.5"];
	11 -- 73	[pos="736.46,514.07 737.41,537.82 739.09,579.4 740.05,603.33"];
	12	[height=0.5,
		pos="240.16,144",
		width=0.75];
	12 -- 18	[pos="252.8,160.17 265.25,176.08 284.13,200.22 296.55,216.09"];
	12 -- 38	[pos="226.37,159.99 210.25,178.68 183.77,209.38 167.8,227.9"];
	12 -- 60	[pos="243.81,161.95 244.35,164.62 244.91,167.38 245.45,170.05"];
	67	[height=0.5,
		pos="362.05,87.837",
		width=0.75];
	12 -- 67	[pos="262.51,133.7 284.51,123.57 317.89,108.19 339.83,98.074"];
	12 -- 76	[pos="218.97,155.38 190.87,170.48 141.55,196.98 113.46,212.07"];
	12 -- 80	[pos="241.36,162.46 242.64,181.9 244.63,212.34 245.9,231.71"];
	83	[height=0.5,
		pos="332.47,131.94",
		width=0.75];
	12 -- 83	[pos="266.86,140.51 279.11,138.91 293.59,137.02 305.83,135.42"];
	13	[height=0.5,
		pos="478.25,65.389",
		width=0.75];
	13 -- 26	[pos="486.95,82.817 494.72,98.383 506.02,121.05 513.74,136.51"];
	13 -- 41	[pos="505.37,65.429 523.17,65.455 546.36,65.489 564.19,65.516"];
	49	[height=0.5,
		pos="495.24,18",
		width=0.75];
	13 -- 49	[pos="484.58,47.743 485.97,43.848 487.45,39.72 488.85,35.819"];
	13 -- 67	[pos="452.17,70.427 433.04,74.124 407.16,79.123 388.04,82.816"];
	69	[height=0.5,
		pos="432.6,21.192",
		width=0.75];
	13 -- 69	[pos="462.8,50.426 458.04,45.818 452.8,40.746 448.04,36.139"];
	14	[height=0.5,
		pos="775.22,358.81",
		width=0.75];
	14 -- 19	[pos="756.08,345.83 747.38,339.93 737.1,332.95 728.38,327.03"];
	43	[height=0.5,
		pos="815.45,494.14",
		width=0.75];
	14 -- 43	[pos="780.48,376.51 788.19,402.44 802.48,450.51 810.19,476.44"];
	14 -- 50	[pos="788.6,374.84 799.02,387.32 813.39,404.54 823.75,416.95"];
	14 -- 64	[pos="775.06,376.95 775.03,379.9 775.01,382.95 774.98,385.9"];
	14 -- 70	[pos="748.63,363.37 703.93,371.02 614.23,386.37 569.73,393.99"];
	14 -- 82	[pos="770.65,340.8 766.74,325.35 761.13,303.21 757.22,287.77"];
	15	[height=0.5,
		pos="438.25,134.49",
		width=0.75];
	15 -- 44	[pos="452.72,149.94 462.12,159.97 474.33,172.98 483.7,182.99"];
	15 -- 45	[pos="463.37,127.82 476.82,124.25 493.34,119.86 506.8,116.28"];
	15 -- 49	[pos="446.66,117.3 457.43,95.28 476,57.319 486.79,35.26"];
	15 -- 69	[pos="437.34,116.29 436.29,95.147 434.56,60.475 433.51,39.35"];
	15 -- 74	[pos="441.36,152.48 445.68,177.49 453.46,222.52 457.81,247.64"];
	15 -- 79	[pos="427.76,151.34 415.15,171.59 394.12,205.38 381.54,225.58"];
	15 -- 83	[pos="411.01,133.84 395.22,133.45 375.4,132.98 359.62,132.6"];
	16	[height=0.5,
		pos="636.9,588.23",
		width=0.75];
	16 -- 43	[pos="658.08,577.07 692.35,559.01 759.58,523.58 794.02,505.43"];
	16 -- 47	[pos="631.24,606.21 625.49,624.51 616.61,652.71 610.87,670.96"];
	16 -- 48	[pos="638.71,570.21 641.45,543 646.62,491.69 649.38,464.3"];
	16 -- 61	[pos="643.05,606.04 648.33,621.31 655.9,643.2 661.18,658.46"];
	16 -- 77	[pos="612.03,580.89 585.54,573.06 543.83,560.74 517.28,552.9"];
	16 -- 81	[pos="650.73,572.48 654.56,568.12 658.72,563.38 662.56,559.02"];
}
