graph {
	graph [bb="0,0,293.59,262.3",
		outputorder=edgesfirst,
		overlap=prism,
		size="50,50!",
		start=3663
	];
	node [label="\N"];
	0	[height=0.5,
		pos="115.78,35.683",
		width=0.75];
	2	[height=0.5,
		pos="119.35,131.2",
		width=0.75];
	0 -- 2	[pos="116.47,54.099 117.1,71.121 118.04,96.263 118.68,113.16"];
	1	[height=0.5,
		pos="43.083,44.397",
		width=0.75];
	0 -- 1	[pos="89.121,38.878 82.8,39.636 76.056,40.444 69.735,41.202"];
	4	[height=0.5,
		pos="27,131.63",
		width=0.75];
	0 -- 4	[pos="101.51,51.099 84.947,69.003 57.78,98.364 41.228,116.25"];
	3	[height=0.5,
		pos="116.45,226.56",
		width=0.75];
	0 -- 3	[pos="115.84,53.985 115.97,90.468 116.26,171.87 116.39,208.31"];
	6	[height=0.5,
		pos="266.47,88.819",
		width=0.75];
	0 -- 6	[pos="139.65,44.103 167.7,53.994 213.99,70.313 242.2,80.262"];
	7	[height=0.5,
		pos="213.61,18",
		width=0.75];
	0 -- 7	[pos="141.99,30.944 156.03,28.407 173.27,25.291 187.32,22.752"];
	5	[height=0.5,
		pos="43.677,218.81",
		width=0.75];
	2 -- 5	[pos="105.82,146.86 92.133,162.71 71.083,187.08 57.344,202.98"];
	2 -- 3	[pos="118.79,149.58 118.28,166.58 117.51,191.68 117,208.55"];
	2 -- 6	[pos="144.31,124.01 171.36,116.22 214.29,103.85 241.39,96.043"];
	10	[height=0.5,
		pos="266.59,172.96",
		width=0.75];
	2 -- 10	[pos="144.33,138.28 171.4,145.96 214.37,158.15 241.49,165.84"];
	1 -- 2	[pos="57.071,60.317 70.833,75.979 91.72,99.751 105.45,115.38"];
	1 -- 4	[pos="39.75,62.471 36.99,77.443 33.087,98.613 30.328,113.58"];
	1 -- 5	[pos="43.144,62.404 43.258,95.825 43.501,167.09 43.615,200.63"];
	1 -- 7	[pos="69.728,40.272 101.76,35.313 155.2,27.042 187.15,22.095"];
	11	[height=0.5,
		pos="172.43,87.193",
		width=0.75];
	1 -- 11	[pos="67.412,52.446 90.538,60.098 125.12,71.54 148.21,79.18"];
	4 -- 5	[pos="30.456,149.69 33.318,164.65 37.365,185.81 40.226,200.77"];
	4 -- 11	[pos="51.671,124.09 78.414,115.92 120.85,102.95 147.64,94.769"];
	8	[height=0.5,
		pos="172.73,175.48",
		width=0.75];
	4 -- 8	[pos="51.722,139.07 78.52,147.13 121.04,159.93 147.89,168"];
	5 -- 8	[pos="67.952,210.66 91.025,202.91 125.53,191.33 148.57,183.59"];
	9	[height=0.5,
		pos="214.23,244.3",
		width=0.75];
	5 -- 9	[pos="70.326,222.79 102.37,227.58 155.81,235.57 187.76,240.34"];
	3 -- 4	[pos="102.08,211.3 85.488,193.7 58.338,164.89 41.634,147.16"];
	3 -- 5	[pos="89.768,223.71 83.44,223.04 76.689,222.32 70.36,221.65"];
	3 -- 10	[pos="140.58,217.94 168.59,207.94 214.54,191.54 242.53,181.55"];
	3 -- 9	[pos="142.66,231.31 156.68,233.86 173.91,236.98 187.95,239.53"];
	6 -- 10	[pos="266.49,107.08 266.52,121.19 266.54,140.63 266.56,154.74"];
	6 -- 7	[pos="254.21,72.393 245.67,60.952 234.33,45.757 225.8,34.336"];
	6 -- 11	[pos="239.27,88.348 226.79,88.133 212.04,87.878 199.57,87.662"];
	6 -- 9	[pos="260.47,106.65 250.4,136.65 230.18,196.82 220.15,226.67"];
	7 -- 10	[pos="219.69,35.776 229.91,65.666 250.41,125.64 260.59,155.39"];
	7 -- 11	[pos="203.64,34.75 197.26,45.469 189.01,59.335 182.6,70.117"];
	7 -- 8	[pos="209,35.759 201.15,66.003 185.27,127.18 177.39,157.54"];
	8 -- 10	[pos="199.88,174.75 212.33,174.41 227.06,174.02 239.51,173.69"];
	8 -- 11	[pos="172.67,157.19 172.62,142.03 172.55,120.61 172.5,105.46"];
	8 -- 9	[pos="182.99,192.49 189.42,203.16 197.68,216.85 204.09,227.48"];
	9 -- 10	[pos="226.11,228.11 234.56,216.6 245.87,201.18 254.39,189.58"];
	9 -- 11	[pos="209.43,226.28 201.37,195.97 185.2,135.17 177.17,105.01"];
}
