graph {
	graph [bb="0,0,1141.9,662.33",
		outputorder=edgesfirst,
		overlap=prism,
		size="50,50!",
		start=1941
	];
	node [label="\N"];
	0	[height=0.5,
		pos="564.63,370.14",
		width=0.75];
	37	[height=0.5,
		pos="460.52,455.29",
		width=0.75];
	0 -- 37	[pos="547.44,384.2 528.15,399.98 497.04,425.42 477.74,441.21"];
	2	[height=0.5,
		pos="753.62,446.56",
		width=0.75];
	0 -- 2	[pos="587.8,379.52 624.07,394.18 693.87,422.4 730.26,437.12"];
	25	[height=0.5,
		pos="584.6,414.18",
		width=0.75];
	0 -- 25	[pos="572.52,387.55 573.92,390.63 575.37,393.83 576.76,396.91"];
	3	[height=0.5,
		pos="848.75,469.8",
		width=0.75];
	0 -- 3	[pos="588.85,378.64 642.53,397.47 770.97,442.52 824.59,461.32"];
	4	[height=0.5,
		pos="531.99,325.95",
		width=0.75];
	0 -- 4	[pos="552.66,353.94 549.82,350.09 546.79,345.99 543.96,342.15"];
	5	[height=0.5,
		pos="539.75,277.55",
		width=0.75];
	0 -- 5	[pos="559.83,352.29 555.43,335.89 548.93,311.73 544.53,295.35"];
	18	[height=0.5,
		pos="511.75,233.28",
		width=0.75];
	0 -- 18	[pos="557.82,352.53 547.67,326.25 528.67,277.06 518.53,250.82"];
	62	[height=0.5,
		pos="488.26,374.68",
		width=0.75];
	0 -- 62	[pos="537.49,371.76 530.28,372.18 522.51,372.64 515.31,373.07"];
	9	[height=0.5,
		pos="584.31,212.37",
		width=0.75];
	0 -- 9	[pos="566.88,352.05 570.66,321.77 578.22,261.2 582.01,230.75"];
	34	[height=0.5,
		pos="716.51,376.48",
		width=0.75];
	0 -- 34	[pos="591.78,371.28 619.34,372.43 661.76,374.2 689.33,375.35"];
	12	[height=0.5,
		pos="379.68,365.91",
		width=0.75];
	0 -- 12	[pos="537.34,369.52 502.27,368.72 441.75,367.33 406.78,366.53"];
	20	[height=0.5,
		pos="426.25,411.23",
		width=0.75];
	0 -- 20	[pos="539.89,377.49 514.85,384.92 476.36,396.35 451.24,403.81"];
	39	[height=0.5,
		pos="407.86,320.27",
		width=0.75];
	0 -- 39	[pos="540.13,362.35 510.77,353.01 461.84,337.45 432.44,328.09"];
	49	[height=0.5,
		pos="522.56,440.5",
		width=0.75];
	0 -- 49	[pos="554.44,387.18 547.83,398.24 539.24,412.6 532.65,423.63"];
	64	[height=0.5,
		pos="708.66,490.76",
		width=0.75];
	0 -- 64	[pos="581.71,384.45 609.43,407.67 663.89,453.26 691.59,476.46"];
	28	[height=0.5,
		pos="433.5,195.5",
		width=0.75];
	0 -- 28	[pos="552.52,354.03 527.61,320.84 470.81,245.2 445.76,211.83"];
	71	[height=0.5,
		pos="469.99,283.65",
		width=0.75];
	0 -- 71	[pos="548.57,355.47 531.17,339.57 503.55,314.33 486.12,298.39"];
	54	[height=0.5,
		pos="600.17,326.14",
		width=0.75];
	0 -- 54	[pos="577.46,354.26 580.64,350.32 584.05,346.1 587.23,342.15"];
	35	[height=0.5,
		pos="413.22,239.55",
		width=0.75];
	0 -- 35	[pos="547.84,355.67 518.74,330.57 459.24,279.24 430.08,254.09"];
	57	[height=0.5,
		pos="603.29,498.27",
		width=0.75];
	0 -- 57	[pos="570,387.96 577.39,412.44 590.6,456.21 597.96,480.61"];
	77	[height=0.5,
		pos="674.51,319.5",
		width=0.75];
	0 -- 77	[pos="586.86,359.9 605.8,351.17 632.89,338.68 651.93,329.91"];
	37 -- 62	[pos="466.68,437.4 471.31,423.94 477.61,405.61 482.21,392.24"];
	1	[height=0.5,
		pos="788.27,282.92",
		width=0.75];
	67	[height=0.5,
		pos="782.57,400.21",
		width=0.75];
	1 -- 67	[pos="787.39,300.99 786.32,322.97 784.53,359.85 783.46,381.92"];
	1 -- 2	[pos="784.49,300.75 777.86,332.06 764.2,396.62 757.5,428.26"];
	1 -- 3	[pos="794.07,300.84 805.63,336.56 831.43,416.26 842.97,451.93"];
	8	[height=0.5,
		pos="844.64,376.8",
		width=0.75];
	1 -- 8	[pos="798.35,299.71 808.54,316.69 824.23,342.8 834.46,359.85"];
	1 -- 4	[pos="761.81,287.37 712.57,295.63 607.43,313.28 558.31,321.53"];
	36	[height=0.5,
		pos="649.8,238.09",
		width=0.75];
	1 -- 36	[pos="763.83,275.01 738.68,266.87 699.69,254.25 674.46,246.08"];
	10	[height=0.5,
		pos="925.18,320.34",
		width=0.75];
	1 -- 10	[pos="813.38,289.79 837.93,296.5 875.11,306.66 899.76,313.4"];
	1 -- 9	[pos="764.07,274.55 724.81,260.98 647.71,234.3 608.47,220.73"];
	1 -- 34	[pos="775.77,299.22 762.6,316.39 741.98,343.27 728.86,360.37"];
	41	[height=0.5,
		pos="863.39,276.3",
		width=0.75];
	1 -- 41	[pos="815.39,280.53 822.28,279.93 829.68,279.27 836.56,278.67"];
	43	[height=0.5,
		pos="925.45,257.3",
		width=0.75];
	1 -- 43	[pos="814.39,278.04 838.8,273.48 875.04,266.72 899.42,262.16"];
	52	[height=0.5,
		pos="800.15,327.01",
		width=0.75];
	1 -- 52	[pos="793.1,300.86 793.84,303.62 794.61,306.48 795.36,309.24"];
	23	[height=0.5,
		pos="708,150.05",
		width=0.75];
	1 -- 23	[pos="778.1,266.1 762.74,240.68 733.79,192.75 718.33,167.17"];
	50	[height=0.5,
		pos="759.2,105.29",
		width=0.75];
	1 -- 50	[pos="785.32,264.91 779.75,230.87 767.73,157.43 762.16,123.35"];
	73	[height=0.5,
		pos="646.37,194.07",
		width=0.75];
	1 -- 73	[pos="768.54,270.57 741.58,253.69 693.5,223.58 666.39,206.61"];
	29	[height=0.5,
		pos="863.14,332.77",
		width=0.75];
	1 -- 29	[pos="807.55,295.76 818.73,303.2 832.76,312.54 843.93,319.97"];
	44	[height=0.5,
		pos="612.3,282.12",
		width=0.75];
	1 -- 44	[pos="761.16,282.8 728.09,282.65 672.52,282.4 639.44,282.24"];
	53	[height=0.5,
		pos="898.77,213.25",
		width=0.75];
	1 -- 53	[pos="808.02,270.47 828.01,257.86 858.75,238.48 878.81,225.84"];
	74	[height=0.5,
		pos="651.9,376.43",
		width=0.75];
	1 -- 74	[pos="769.31,295.93 743.4,313.69 697.19,345.37 671.14,363.24"];
	58	[height=0.5,
		pos="836.73,173.9",
		width=0.75];
	1 -- 58	[pos="796.05,265.41 805.1,245.06 819.93,211.7 828.96,191.37"];
	1 -- 77	[pos="763.86,290.77 744.67,296.94 718.06,305.5 698.87,311.67"];
	65	[height=0.5,
		pos="821.21,121.48",
		width=0.75];
	1 -- 65	[pos="791.92,265.03 798.25,234 811.2,170.54 817.54,139.46"];
	79	[height=0.5,
		pos="726.21,272.99",
		width=0.75];
	1 -- 79	[pos="761.95,278.71 758.91,278.22 755.81,277.73 752.76,277.24"];
	2 -- 25	[pos="727.58,441.57 695.82,435.49 642.45,425.27 610.67,419.18"];
	2 -- 3	[pos="779.12,452.79 792.77,456.12 809.53,460.22 823.19,463.55"];
	2 -- 4	[pos="732.37,435 690.01,411.94 595.49,360.5 553.18,337.48"];
	7	[height=0.5,
		pos="948.77,401.6",
		width=0.75];
	2 -- 7	[pos="779.54,440.59 816.97,431.97 885.75,416.12 923.06,407.53"];
	17	[height=0.5,
		pos="810.47,535.64",
		width=0.75];
	2 -- 17	[pos="764.32,463.32 774.48,479.24 789.68,503.06 799.82,518.96"];
	2 -- 52	[pos="760.49,428.92 769.28,406.32 784.45,367.36 793.26,344.73"];
	22	[height=0.5,
		pos="748.44,534.76",
		width=0.75];
	2 -- 22	[pos="752.55,464.84 751.66,479.97 750.4,501.38 749.52,516.51"];
	26	[height=0.5,
		pos="872.48,521.91",
		width=0.75];
	2 -- 26	[pos="773.25,459 795.27,472.97 830.79,495.48 852.83,509.45"];
	46	[height=0.5,
		pos="646.63,451.49",
		width=0.75];
	2 -- 46	[pos="726.63,447.81 710.41,448.55 689.84,449.5 673.62,450.25"];
	2 -- 64	[pos="738.4,461.52 733.71,466.13 728.55,471.2 723.87,475.81"];
	2 -- 29	[pos="768.39,431.22 789.3,409.5 827.29,370.02 848.26,348.23"];
	2 -- 74	[pos="734.49,433.37 716.3,420.83 689.11,402.08 670.95,389.56"];
	2 -- 57	[pos="729.47,454.87 701.42,464.52 655.41,480.35 627.38,489.99"];
	25 -- 49	[pos="561.5,423.98 556.26,426.21 550.7,428.56 545.47,430.78"];
	25 -- 46	[pos="604.91,426.4 611.84,430.57 619.58,435.22 626.49,439.38"];
	25 -- 57	[pos="588.56,432.02 591.74,446.29 596.16,466.2 599.33,480.47"];
	3 -- 67	[pos="834.07,454.35 823.1,442.82 808.17,427.13 797.22,415.61"];
	3 -- 8	[pos="847.94,451.43 847.22,435.02 846.16,411.12 845.44,394.82"];
	3 -- 7	[pos="868.04,456.65 885.86,444.5 912.19,426.55 929.89,414.48"];
	3 -- 10	[pos="857.52,452.65 872.18,423.98 901.53,366.6 916.28,337.75"];
	3 -- 17	[pos="838.89,486.76 833.22,496.51 826.12,508.73 820.43,518.52"];
	3 -- 34	[pos="830.09,456.63 804.88,438.84 760.23,407.34 735.08,389.59"];
	19	[height=0.5,
		pos="996.59,445.64",
		width=0.75];
	3 -- 19	[pos="875.18,465.48 901.93,461.11 943.05,454.39 969.89,450.01"];
	13	[height=0.5,
		pos="724.02,579.01",
		width=0.75];
	3 -- 13	[pos="832.19,484.3 808.33,505.19 764.55,543.53 740.65,564.45"];
	42	[height=0.5,
		pos="787.11,602.54",
		width=0.75];
	3 -- 42	[pos="840.7,487.15 828.88,512.59 806.99,559.74 795.17,585.18"];
	3 -- 22	[pos="828.94,482.63 811.24,494.1 785.46,510.79 767.88,522.17"];
	24	[height=0.5,
		pos="861.08,580.14",
		width=0.75];
	3 -- 24	[pos="850.79,488.02 853.07,508.46 856.76,541.43 859.04,561.89"];
	3 -- 26	[pos="856.66,487.15 859.19,492.72 862,498.88 864.54,504.46"];
	31	[height=0.5,
		pos="934.52,482.16",
		width=0.75];
	3 -- 31	[pos="875.42,473.64 885.75,475.13 897.55,476.83 907.87,478.32"];
	3 -- 64	[pos="822.4,473.74 797.52,477.46 760.37,483.02 735.37,486.76"];
	38	[height=0.5,
		pos="936.15,540.68",
		width=0.75];
	3 -- 38	[pos="866.02,483.8 881.34,496.23 903.61,514.29 918.92,526.7"];
	47	[height=0.5,
		pos="923.1,584.8",
		width=0.75];
	3 -- 47	[pos="859.72,486.77 873.86,508.63 898.28,546.42 912.32,568.13"];
	40	[height=0.5,
		pos="998.16,503.33",
		width=0.75];
	3 -- 40	[pos="874.44,475.56 901.8,481.7 944.88,491.37 972.31,497.53"];
	48	[height=0.5,
		pos="863.17,644.33",
		width=0.75];
	3 -- 48	[pos="850.24,487.82 853.01,521.26 858.9,592.58 861.67,626.14"];
	8 -- 67	[pos="820.82,385.78 816.03,387.59 811.01,389.48 806.22,391.29"];
	8 -- 10	[pos="863.32,363.71 876.24,354.65 893.37,342.64 906.32,333.56"];
	4 -- 25	[pos="542.13,342.96 551.45,358.58 565.18,381.62 574.49,397.22"];
	4 -- 5	[pos="534.88,307.92 535.52,303.95 536.2,299.73 536.83,295.75"];
	4 -- 36	[pos="550.14,312.41 572.21,295.95 609.27,268.32 631.44,251.79"];
	6	[height=0.5,
		pos="364.2,430.31",
		width=0.75];
	4 -- 6	[pos="512.08,338.33 479.79,358.41 416.36,397.87 384.08,417.94"];
	4 -- 62	[pos="517.91,341.63 512.92,347.2 507.3,353.46 502.31,359.02"];
	4 -- 9	[pos="539.94,308.7 549.77,287.35 566.42,251.21 576.29,229.78"];
	4 -- 12	[pos="506.84,332.55 478.62,339.95 433.1,351.89 404.86,359.3"];
	4 -- 20	[pos="514.53,340.03 494.94,355.83 463.34,381.31 443.73,397.13"];
	32	[height=0.5,
		pos="516.59,188.4",
		width=0.75];
	4 -- 32	[pos="529.98,307.96 527.03,281.6 521.56,232.75 518.61,206.39"];
	4 -- 49	[pos="530.5,344.1 528.73,365.55 525.81,401.02 524.04,422.44"];
	4 -- 46	[pos="546.05,341.34 568.05,365.44 610.39,411.8 632.46,435.97"];
	4 -- 73	[pos="545.56,310.3 567.57,284.92 610.82,235.06 632.82,209.7"];
	4 -- 44	[pos="553.09,314.43 564.9,307.99 579.56,299.99 591.34,293.56"];
	4 -- 74	[pos="554.83,335.56 576.03,344.49 607.44,357.71 628.74,366.68"];
	5 -- 18	[pos="529.17,260.81 526.94,257.29 524.58,253.57 522.35,250.04"];
	5 -- 62	[pos="530.55,294.91 521.17,312.59 506.73,339.84 497.38,357.46"];
	5 -- 9	[pos="551,261.1 557.7,251.3 566.18,238.88 572.91,229.04"];
	5 -- 32	[pos="535.07,259.51 531.05,244.04 525.29,221.87 521.27,206.41"];
	5 -- 71	[pos="512.98,279.89 507.75,280.35 502.27,280.83 497.04,281.28"];
	18 -- 32	[pos="513.69,215.28 514.01,212.36 514.34,209.33 514.65,206.4"];
	18 -- 28	[pos="489.54,222.55 478.87,217.4 466.13,211.25 455.5,206.12"];
	18 -- 71	[pos="498.54,249.22 493.66,255.1 488.14,261.76 483.26,267.64"];
	18 -- 35	[pos="484.83,234.99 470.93,235.88 454.01,236.95 440.11,237.84"];
	36 -- 73	[pos="648.39,219.93 648.19,217.38 647.98,214.75 647.78,212.19"];
	36 -- 44	[pos="636.26,253.99 632.82,258.03 629.13,262.37 625.69,266.4"];
	6 -- 12	[pos="368.51,412.37 370.66,403.44 373.24,392.67 375.39,383.75"];
	6 -- 20	[pos="388.72,422.77 392.92,421.48 397.29,420.13 401.5,418.84"];
	15	[height=0.5,
		pos="317.29,386.03",
		width=0.75];
	6 -- 15	[pos="348.58,415.57 343.57,410.84 338.02,405.6 333,400.86"];
	68	[height=0.5,
		pos="302.17,465.44",
		width=0.75];
	6 -- 68	[pos="343.55,442.01 336.92,445.76 329.58,449.91 322.95,453.67"];
	30	[height=0.5,
		pos="255.2,363.32",
		width=0.75];
	6 -- 30	[pos="344.21,418.02 324.54,405.94 294.69,387.59 275.07,375.53"];
	21	[height=0.5,
		pos="279.45,318.85",
		width=0.75];
	6 -- 21	[pos="351.69,413.86 335.58,392.67 307.73,356.05 291.73,335"];
	45	[height=0.5,
		pos="186.65,444.06",
		width=0.75];
	6 -- 45	[pos="337.23,432.4 303.77,434.99 247.03,439.38 213.58,441.97"];
	72	[height=0.5,
		pos="186.47,503.81",
		width=0.75];
	6 -- 72	[pos="340.96,439.92 306.81,454.04 243.42,480.25 209.43,494.31"];
	56	[height=0.5,
		pos="124.44,463.52",
		width=0.75];
	6 -- 56	[pos="337.63,433.99 291.54,440.37 197.3,453.43 151.13,459.82"];
	78	[height=0.5,
		pos="248.52,509.46",
		width=0.75];
	6 -- 78	[pos="345.36,443.2 323.97,457.83 289.28,481.57 267.74,496.31"];
	7 -- 10	[pos="943.54,383.57 939.6,370.01 934.23,351.52 930.32,338.05"];
	7 -- 19	[pos="964.7,416.27 969.8,420.97 975.46,426.18 980.57,430.89"];
	14	[height=0.5,
		pos="988.98,308.05",
		width=0.75];
	7 -- 14	[pos="956.34,384.01 963.52,367.28 974.28,342.27 981.45,325.57"];
	11	[height=0.5,
		pos="1052.9,334.93",
		width=0.75];
	7 -- 11	[pos="968.35,389.06 986.96,377.14 1014.8,359.32 1033.4,347.41"];
	27	[height=0.5,
		pos="1104.7,378.96",
		width=0.75];
	7 -- 27	[pos="975.22,397.76 1003.9,393.6 1049.4,386.99 1078.1,382.82"];
	55	[height=0.5,
		pos="1094.5,422.99",
		width=0.75];
	7 -- 55	[pos="975.16,405.48 1001.4,409.33 1041.5,415.21 1067.8,419.07"];
	7 -- 26	[pos="938.17,418.33 923.59,441.32 897.53,482.41 883,505.32"];
	7 -- 31	[pos="945.61,419.48 943.27,432.74 940.08,450.74 937.72,464.05"];
	7 -- 29	[pos="931.44,387.67 916.59,375.73 895.29,358.61 880.45,346.68"];
	51	[height=0.5,
		pos="1060.2,467.03",
		width=0.75];
	7 -- 51	[pos="969.21,413.6 989.31,425.41 1019.8,443.33 1039.9,455.1"];
	10 -- 14	[pos="951.13,315.34 954.99,314.6 958.98,313.83 962.85,313.08"];
	10 -- 11	[pos="951.94,323.4 973.73,325.89 1004.3,329.39 1026.1,331.88"];
	10 -- 43	[pos="925.26,302.11 925.29,293.82 925.33,284.02 925.37,275.71"];
	69	[height=0.5,
		pos="1051,278.13",
		width=0.75];
	10 -- 69	[pos="949.44,312.2 971.72,304.73 1004.6,293.71 1026.8,286.24"];
	10 -- 53	[pos="920.7,302.18 915.81,282.36 908.04,250.86 903.18,231.15"];
	76	[height=0.5,
		pos="987.64,235.09",
		width=0.75];
	10 -- 76	[pos="937.22,303.9 948.28,288.81 964.58,266.56 975.63,251.48"];
	9 -- 18	[pos="559.34,219.57 552.12,221.65 544.24,223.92 537.01,226"];
	59	[height=0.5,
		pos="653.85,62.027",
		width=0.75];
	9 -- 59	[pos="592.28,195.13 605.63,166.28 632.33,108.56 645.75,79.536"];
	9 -- 32	[pos="560.24,203.85 553.86,201.59 546.96,199.15 540.58,196.89"];
	9 -- 23	[pos="605.85,201.52 628.42,190.15 663.66,172.39 686.28,160.99"];
	9 -- 50	[pos="604.37,200.09 638.02,179.49 705.43,138.21 739.1,117.6"];
	9 -- 73	[pos="609.19,205.03 613.24,203.84 617.43,202.6 621.48,201.41"];
	9 -- 54	[pos="586.82,230.4 589.79,251.7 594.7,286.93 597.66,308.2"];
	9 -- 77	[pos="597.62,228.18 614.67,248.43 644.06,283.35 661.14,303.63"];
	61	[height=0.5,
		pos="650.8,106.04",
		width=0.75];
	9 -- 61	[pos="594.7,195.76 607.12,175.9 627.78,142.85 640.27,122.89"];
	59 -- 61	[pos="652.6,80.184 652.42,82.742 652.24,85.371 652.06,87.928"];
	63	[height=0.5,
		pos="690.02,18",
		width=0.75];
	59 -- 63	[pos="666.91,46.133 670.15,42.192 673.62,37.966 676.86,34.019"];
	70	[height=0.5,
		pos="694.71,624.64",
		width=0.75];
	17 -- 70	[pos="792.63,549.35 770.94,566.03 734.54,594.02 712.76,610.77"];
	17 -- 22	[pos="783.44,535.26 780.83,535.22 778.18,535.18 775.57,535.15"];
	17 -- 26	[pos="836.41,529.9 839.86,529.13 843.4,528.35 846.85,527.59"];
	34 -- 54	[pos="693.8,366.66 673.3,357.79 643.3,344.81 622.82,335.94"];
	34 -- 77	[pos="704.58,360.31 698.96,352.67 692.26,343.58 686.61,335.92"];
	34 -- 79	[pos="718.2,358.45 719.96,339.57 722.73,310.09 724.5,291.15"];
	41 -- 43	[pos="888.27,268.68 892.32,267.45 896.51,266.16 900.56,264.92"];
	41 -- 52	[pos="846.11,290.16 837.33,297.2 826.68,305.74 817.85,312.82"];
	41 -- 58	[pos="858.74,258.47 853.88,239.78 846.29,210.61 841.41,191.87"];
	19 -- 31	[pos="976.27,457.6 969.48,461.59 961.91,466.04 955.1,470.05"];
	19 -- 38	[pos="985.78,462.63 974.78,479.93 957.83,506.59 946.86,523.83"];
	19 -- 40	[pos="997.09,463.9 997.27,470.63 997.48,478.26 997.66,485"];
	19 -- 51	[pos="1021,453.85 1025.9,455.5 1031,457.23 1035.9,458.88"];
	14 -- 41	[pos="963.57,301.62 941.78,296.12 910.54,288.22 888.76,282.72"];
	14 -- 27	[pos="1008.9,320.24 1030.1,333.22 1063.4,353.67 1084.7,366.69"];
	75	[height=0.5,
		pos="1114.9,306.23",
		width=0.75];
	14 -- 75	[pos="1016,307.66 1037.1,307.35 1066.3,306.93 1087.5,306.62"];
	14 -- 43	[pos="971.62,294.18 962.66,287.02 951.75,278.31 942.79,271.15"];
	14 -- 69	[pos="1011,297.42 1016.9,294.59 1023.2,291.55 1029,288.73"];
	14 -- 55	[pos="1003.2,323.55 1023.3,345.49 1059.9,385.36 1080.1,407.37"];
	14 -- 29	[pos="962.91,313.17 941.31,317.41 910.77,323.41 889.18,327.65"];
	14 -- 76	[pos="988.65,290.01 988.44,278.79 988.18,264.4 987.97,253.17"];
	11 -- 14	[pos="1029.8,325.22 1024.1,322.82 1017.9,320.24 1012.2,317.83"];
	11 -- 27	[pos="1069.5,349.1 1075.3,354.03 1081.9,359.56 1087.7,364.51"];
	11 -- 75	[pos="1075.3,324.57 1080.8,322 1086.8,319.24 1092.3,316.67"];
	11 -- 69	[pos="1052.3,316.65 1052.1,310.16 1051.8,302.86 1051.6,296.38"];
	27 -- 75	[pos="1107.2,360.98 1108.8,349.79 1110.8,335.45 1112.4,324.25"];
	27 -- 55	[pos="1100.5,396.87 1099.9,399.53 1099.3,402.28 1098.7,404.95"];
	12 -- 37	[pos="393.76,381.48 408.51,397.78 431.54,423.25 446.33,439.6"];
	12 -- 62	[pos="406.52,368.08 423.22,369.43 444.63,371.16 461.35,372.5"];
	12 -- 20	[pos="395.18,381 400.26,385.95 405.9,391.43 410.97,396.36"];
	12 -- 15	[pos="355.02,373.86 350.66,375.27 346.12,376.73 341.77,378.14"];
	12 -- 30	[pos="352.67,365.35 331.93,364.92 303.42,364.33 282.59,363.89"];
	12 -- 21	[pos="357.43,355.47 340.82,347.67 318.22,337.05 301.63,329.26"];
	60	[height=0.5,
		pos="291.36,274.46",
		width=0.75];
	12 -- 60	[pos="364.69,350.4 348.35,333.48 322.37,306.57 306.12,289.74"];
	33	[height=0.5,
		pos="341.52,319.02",
		width=0.75];
	12 -- 33	[pos="366.76,350.04 362.78,345.15 358.4,339.77 354.42,334.88"];
	20 -- 68	[pos="403.49,421.17 381.1,430.95 347.12,445.8 324.79,455.56"];
	20 -- 33	[pos="411.87,395.59 396.2,378.53 371.27,351.4 355.68,334.43"];
	13 -- 42	[pos="747.87,587.91 752.9,589.78 758.2,591.76 763.22,593.63"];
	13 -- 70	[pos="713.27,595.75 710.72,599.71 708.01,603.95 705.46,607.91"];
	13 -- 22	[pos="733.39,562.03 735.22,558.72 737.14,555.24 738.98,551.92"];
	13 -- 26	[pos="747.55,569.97 775.34,559.27 821.32,541.59 849.07,530.92"];
	42 -- 48	[pos="808.3,614.18 818.85,619.97 831.56,626.96 842.1,632.75"];
	15 -- 20	[pos="342.83,391.94 360.19,395.95 383.08,401.24 400.48,405.27"];
	15 -- 68	[pos="313.86,404.05 311.38,417.04 308.06,434.51 305.59,447.49"];
	15 -- 30	[pos="293.46,377.32 288.81,375.61 283.93,373.83 279.27,372.13"];
	15 -- 21	[pos="307.74,369.08 302.05,358.97 294.84,346.17 289.12,336.03"];
	15 -- 60	[pos="313.12,368.1 308.28,347.28 300.35,313.14 295.51,292.34"];
	15 -- 33	[pos="323.65,368.42 327.19,358.65 331.57,346.53 335.11,336.74"];
	15 -- 45	[pos="294.53,396.14 270.56,406.79 233.03,423.46 209.15,434.07"];
	68 -- 72	[pos="277.92,473.48 258.17,480.03 230.43,489.23 210.69,495.78"];
	68 -- 78	[pos="284.9,479.61 278.77,484.64 271.88,490.29 265.76,495.32"];
	16	[height=0.5,
		pos="27,459.7",
		width=0.75];
	66	[height=0.5,
		pos="72.483,508",
		width=0.75];
	16 -- 66	[pos="41.391,474.98 46.7,480.62 52.715,487.01 58.029,492.65"];
	16 -- 45	[pos="53.722,457.08 83.194,454.2 130.34,449.58 159.84,446.69"];
	16 -- 56	[pos="54.143,460.77 67.658,461.29 83.949,461.93 97.443,462.46"];
	66 -- 72	[pos="99.495,507 117.53,506.34 141.17,505.47 159.25,504.81"];
	43 -- 53	[pos="915.21,240.4 913.15,237 910.99,233.43 908.94,230.04"];
	43 -- 58	[pos="909.59,242.39 893.44,227.21 868.55,203.81 852.45,188.68"];
	43 -- 76	[pos="949.32,248.78 953.97,247.11 958.86,245.37 963.53,243.7"];
	69 -- 75	[pos="1073.7,288.12 1079.7,290.77 1086.2,293.63 1092.3,296.28"];
	22 -- 70	[pos="738.34,551.67 728.73,567.74 714.36,591.77 704.77,607.81"];
	22 -- 26	[pos="775.36,531.97 796.17,529.82 824.83,526.85 845.62,524.69"];
	22 -- 64	[pos="734.08,518.87 730.34,514.74 726.32,510.29 722.6,506.18"];
	21 -- 30	[pos="270.14,335.91 268.27,339.34 266.31,342.95 264.44,346.37"];
	39 -- 71	[pos="428.2,308.28 435,304.28 442.57,299.81 449.39,295.79"];
	23 -- 59	[pos="697.56,133.08 687.97,117.49 673.84,94.519 664.26,78.948"];
	23 -- 50	[pos="724.48,135.65 730.33,130.53 736.9,124.78 742.75,119.68"];
	23 -- 73	[pos="689.51,163.26 681.71,168.83 672.64,175.3 664.85,180.87"];
	23 -- 61	[pos="690.21,136.37 683.39,131.12 675.61,125.13 668.77,119.87"];
	23 -- 63	[pos="705.53,131.97 702.11,106.82 695.95,61.546 692.51,36.29"];
	50 -- 59	[pos="736.08,95.798 718.52,88.585 694.47,78.708 676.92,71.5"];
	50 -- 61	[pos="732.13,105.48 715.57,105.59 694.47,105.74 677.91,105.86"];
	50 -- 63	[pos="746.51,89.282 734.11,73.63 715.32,49.923 702.86,34.205"];
	24 -- 42	[pos="836.45,587.59 828.55,589.99 819.8,592.64 811.88,595.03"];
	24 -- 26	[pos="864.62,562.03 866.01,554.95 867.6,546.86 868.98,539.8"];
	24 -- 48	[pos="861.67,598.36 861.96,607.11 862.3,617.56 862.58,626.28"];
	26 -- 42	[pos="856.83,536.7 841.52,551.15 818.33,573.05 802.96,587.57"];
	26 -- 70	[pos="851.74,533.89 817.49,553.69 749.49,592.99 715.32,612.73"];
	26 -- 31	[pos="892.11,509.33 899.36,504.69 907.56,499.43 914.81,494.79"];
	31 -- 38	[pos="935.03,500.35 935.22,507.33 935.44,515.3 935.64,522.29"];
	31 -- 47	[pos="932.48,500.51 930.4,519.19 927.19,547.98 925.12,566.61"];
	31 -- 51	[pos="961.17,478.95 982.49,476.38 1012.3,472.8 1033.6,470.23"];
	49 -- 57	[pos="541.28,453.9 554.32,463.23 571.65,475.63 584.67,484.95"];
	46 -- 57	[pos="632.44,466.81 627.7,471.93 622.42,477.63 617.66,482.76"];
	28 -- 35	[pos="425.49,212.91 424.07,215.98 422.59,219.19 421.18,222.26"];
	29 -- 41	[pos="863.22,314.59 863.25,308.14 863.28,300.89 863.31,294.45"];
	29 -- 43	[pos="876.36,316.76 886.93,303.96 901.69,286.08 912.25,273.28"];
	29 -- 52	[pos="836.06,330.29 833.13,330.03 830.14,329.75 827.21,329.49"];
	38 -- 47	[pos="930.91,558.37 930.06,561.25 929.18,564.23 928.33,567.1"];
	38 -- 40	[pos="956.45,528.45 963.38,524.28 971.11,519.62 978.02,515.46"];
	38 -- 51	[pos="956.35,528.68 979.41,514.99 1016.9,492.71 1040,479.02"];
	33 -- 60	[pos="325.09,304.43 319.49,299.45 313.24,293.9 307.65,288.93"];
	54 -- 77	[pos="627.01,323.75 633.66,323.15 640.79,322.51 647.46,321.92"];
	54 -- 79	[pos="622.99,316.52 645.69,306.94 680.34,292.33 703.13,282.72"];
	35 -- 39	[pos="412.01,257.87 411.13,271.08 409.95,288.83 409.07,302.03"];
	35 -- 71	[pos="430.87,253.26 437.64,258.52 445.37,264.52 452.15,269.79"];
	40 -- 51	[pos="1018.5,491.44 1025.2,487.47 1032.8,483.05 1039.6,479.07"];
	53 -- 58	[pos="879.14,200.8 871.9,196.21 863.7,191 856.45,186.4"];
	53 -- 76	[pos="924.48,219.57 936.37,222.49 950.45,225.95 962.3,228.86"];
	53 -- 65	[pos="885.26,197.27 871.03,180.42 848.74,154.06 834.57,137.28"];
	45 -- 68	[pos="212.87,448.91 231.77,452.41 257.18,457.11 276.06,460.61"];
	45 -- 66	[pos="165.98,455.64 145.42,467.15 114.03,484.73 93.39,496.29"];
	45 -- 72	[pos="186.6,462.31 186.57,469.72 186.55,478.27 186.52,485.67"];
	45 -- 56	[pos="162.07,451.75 157.85,453.07 153.48,454.44 149.26,455.76"];
	45 -- 78	[pos="201.32,459.56 211.18,469.98 224.12,483.67 233.96,494.07"];
	72 -- 78	[pos="213.5,506.27 216.12,506.51 218.77,506.75 221.38,506.99"];
	58 -- 65	[pos="831.48,156.15 829.86,150.69 828.08,144.67 826.46,139.21"];
	77 -- 79	[pos="690.58,305.04 696.75,299.49 703.78,293.16 709.96,287.6"];
	56 -- 66	[pos="107.71,477.84 101.78,482.92 95.108,488.63 89.177,493.71"];
	56 -- 72	[pos="144.07,476.27 151.31,480.97 159.51,486.3 166.76,491.01"];
	61 -- 73	[pos="649.88,124.28 649.12,139.39 648.05,160.75 647.29,175.86"];
	61 -- 63	[pos="658.55,88.648 665.43,73.213 675.42,50.783 682.29,35.358"];
}
