100
36 61
209 38
122 233
245 175
48 175
177 216
202 167
46 169
69 246
123 94
43 164
299 266
151 88
290 28
146 87
103 120
28 58
220 164
196 52
153 34
48 184
243 221
31 284
204 142
191 179
103 187
83 85
85 128
245 17
169 39
53 187
156 140
17 204
282 278
151 80
292 56
137 221
201 28
196 1
186 230
226 192
286 139
272 66
293 85
74 115
67 276
26 135
270 90
297 61
168 217
41 262
222 152
95 38
47 19
220 78
60 141
37 275
266 106
238 153
192 278
283 91
126 248
122 255
11 245
281 68
159 138
255 109
286 286
202 289
19 60
139 259
207 43
63 66
273 299
124 229
149 66
225 139
140 214
112 262
234 115
169 77
128 104
111 46
36 232
152 279
13 64
208 113
26 31
208 49
21 212
293 263
267 102
179 198
31 53
288 284
213 123
83 56
171 15
44 29
167 189
0 2
0 5
0 9
0 11
0 12
0 15
0 18
0 22
0 23
0 25
0 26
0 27
0 28
0 30
0 31
0 33
0 34
0 37
0 39
0 40
0 41
0 43
0 44
0 46
0 47
0 49
0 51
0 54
0 56
0 59
0 60
0 62
0 63
0 68
0 69
0 70
0 71
0 72
0 74
0 76
0 77
0 79
0 80
0 86
0 89
0 96
0 99
1 3
1 4
1 6
1 7
1 9
1 12
1 13
1 15
1 16
1 19
1 20
1 21
1 23
1 24
1 26
1 27
1 32
1 33
1 34
1 38
1 39
1 40
1 45
1 47
1 49
1 50
1 51
1 52
1 55
1 58
1 60
1 61
1 62
1 64
1 66
1 67
1 69
1 70
1 71
1 72
1 76
1 80
1 81
1 82
1 84
1 86
1 89
1 91
1 93
1 97
1 98
1 99
2 86
2 67
2 5
2 71
2 72
2 9
2 10
2 11
2 13
2 16
2 17
2 82
2 20
2 85
2 73
2 24
2 26
2 27
2 28
2 29
2 94
2 95
2 96
2 33
2 99
2 37
2 39
2 80
2 41
2 92
2 45
2 46
2 47
2 48
2 50
2 52
2 54
2 55
2 58
2 63
3 5
3 6
3 11
3 12
3 16
3 17
3 18
3 19
3 21
3 24
3 25
3 26
3 27
3 28
3 30
3 33
3 34
3 35
3 36
3 37
3 39
3 40
3 43
3 46
3 47
3 50
3 57
3 58
3 59
3 60
3 62
3 64
3 66
3 67
3 69
3 70
3 71
3 73
3 74
3 77
3 78
3 83
3 86
3 87
3 92
3 93
3 94
3 95
3 96
3 97
3 98
4 7
4 11
4 13
4 14
4 15
4 17
4 18
4 19
4 20
4 21
4 23
4 26
4 27
4 29
4 31
4 32
4 33
4 34
4 35
4 38
4 40
4 41
4 43
4 44
4 46
4 50
4 51
4 52
4 59
4 62
4 64
4 65
4 67
4 68
4 71
4 73
4 79
4 80
4 82
4 83
4 86
4 87
4 90
4 91
4 95
4 96
4 97
4 98
5 6
5 8
5 12
5 13
5 15
5 20
5 22
5 29
5 33
5 35
5 38
5 41
5 47
5 48
5 49
5 51
5 52
5 55
5 56
5 58
5 59
5 61
5 63
5 66
5 67
5 70
5 72
5 73
5 74
5 75
5 78
5 79
5 80
5 81
5 83
5 84
5 85
5 87
5 88
5 91
5 93
5 97
6 7
6 8
6 9
6 11
6 12
6 13
6 14
6 15
6 18
6 19
6 20
6 26
6 27
6 28
6 29
6 30
6 32
6 34
6 35
6 38
6 39
6 41
6 43
6 45
6 49
6 50
6 51
6 52
6 53
6 54
6 55
6 56
6 57
6 60
6 63
6 67
6 68
6 69
6 70
6 72
6 73
6 78
6 79
6 80
6 81
6 83
6 84
6 85
6 86
6 87
6 89
6 92
6 94
6 96
6 97
6 98
6 99
7 12
7 13
7 14
7 16
7 17
7 18
7 20
7 24
7 30
7 31
7 35
7 39
7 41
7 47
7 50
7 51
7 53
7 54
7 55
7 56
7 58
7 59
7 60
7 62
7 65
7 67
7 68
7 70
7 73
7 74
7 75
7 77
7 81
7 84
7 85
7 88
7 89
7 91
7 92
7 95
7 97
7 98
8 64
8 66
8 71
8 74
8 75
8 12
8 77
8 78
8 79
8 80
8 81
8 83
8 22
8 23
8 25
8 26
8 27
8 93
8 69
8 96
8 34
8 36
8 70
8 95
8 43
8 44
8 47
8 48
8 49
8 51
8 89
8 55
8 56
8 57
8 87
8 59
8 61
8 62
8 63
9 64
9 73
9 74
9 11
9 76
9 66
9 78
9 92
9 81
9 18
9 20
9 21
9 86
9 87
9 24
9 89
9 90
9 27
9 28
9 29
9 94
9 31
9 32
9 84
9 70
9 38
9 39
9 41
9 46
9 48
9 49
9 53
9 55
9 72
9 57
9 58
9 95
9 61
10 13
10 14
10 15
10 21
10 22
10 23
10 24
10 26
10 27
10 33
10 34
10 36
10 39
10 41
10 42
10 43
10 44
10 45
10 46
10 49
10 50
10 52
10 55
10 56
10 57
10 58
10 62
10 66
10 70
10 72
10 73
10 75
10 76
10 77
10 81
10 82
10 83
10 84
10 86
10 87
10 88
10 89
10 90
10 91
10 93
10 94
10 97
10 98
11 12
11 13
11 15
11 16
11 18
11 19
11 20
11 22
11 23
11 26
11 29
11 30
11 31
11 32
11 33
11 36
11 39
11 40
11 42
11 43
11 45
11 48
11 51
11 54
11 57
11 58
11 62
11 63
11 64
11 65
11 66
11 67
11 68
11 70
11 71
11 73
11 74
11 77
11 78
11 79
11 81
11 82
11 85
11 86
11 88
11 91
11 95
12 14
12 15
12 20
12 22
12 26
12 28
12 33
12 35
12 37
12 38
12 39
12 42
12 44
12 49
12 51
12 52
12 55
12 56
12 58
12 62
12 63
12 67
12 69
12 70
12 71
12 73
12 75
12 77
12 80
12 82
12 86
12 87
12 88
12 90
12 91
12 92
12 94
12 95
12 96
12 98
13 21
13 22
13 26
13 27
13 28
13 30
13 32
13 36
13 38
13 39
13 41
13 42
13 46
13 48
13 49
13 53
13 55
13 58
13 62
13 63
13 64
13 65
13 66
13 69
13 70
13 71
13 72
13 74
13 77
13 78
13 79
13 83
13 85
13 87
13 89
13 91
13 92
13 93
13 95
13 96
14 16
14 18
14 20
14 21
14 22
14 23
14 24
14 26
14 27
14 28
14 29
14 31
14 32
14 35
14 37
14 38
14 40
14 41
14 42
14 43
14 44
14 45
14 48
14 53
14 54
14 56
14 58
14 60
14 61
14 62
14 63
14 67
14 71
14 72
14 74
14 75
14 82
14 83
14 84
14 89
14 91
14 92
14 93
14 95
14 97
15 17
15 18
15 19
15 20
15 22
15 26
15 28
15 31
15 32
15 33
15 35
15 36
15 37
15 38
15 39
15 46
15 47
15 50
15 52
15 54
15 55
15 56
15 57
15 58
15 60
15 61
15 62
15 64
15 67
15 68
15 69
15 70
15 74
15 76
15 78
15 79
15 81
15 85
15 86
15 87
15 88
15 90
15 91
15 92
15 93
15 95
15 96
15 97
15 98
15 99
16 64
16 98
16 76
16 77
16 79
16 80
16 75
16 19
16 21
16 86
16 87
16 89
16 26
16 27
16 90
16 30
16 34
16 91
16 36
16 40
16 42
16 71
16 78
16 45
16 48
16 49
16 52
16 94
16 57
16 61
16 85
16 63
17 65
17 86
17 70
17 72
17 73
17 79
17 81
17 18
17 67
17 84
17 21
17 22
17 23
17 24
17 25
17 27
17 29
17 94
17 31
17 32
17 33
17 34
17 91
17 39
17 40
17 44
17 93
17 53
17 54
17 59
17 60
17 61
17 63
18 21
18 22
18 24
18 25
18 26
18 35
18 36
18 41
18 42
18 43
18 44
18 48
18 50
18 52
18 53
18 54
18 56
18 58
18 61
18 63
18 65
18 66
18 67
18 68
18 72
18 74
18 75
18 77
18 82
18 86
18 87
18 88
18 89
18 90
18 94
18 95
18 97
19 22
19 23
19 25
19 27
19 28
19 29
19 34
19 35
19 36
19 39
19 41
19 42
19 46
19 48
19 51
19 52
19 54
19 56
19 57
19 58
19 59
19 60
19 61
19 62
19 63
19 65
19 67
19 69
19 72
19 73
19 75
19 77
19 78
19 79
19 80
19 81
19 82
19 85
19 86
19 88
19 89
19 93
19 94
19 95
19 98
19 99
20 22
20 24
20 25
20 30
20 31
20 32
20 34
20 36
20 38
20 40
20 43
20 45
20 48
20 50
20 52
20 57
20 58
20 61
20 62
20 67
20 72
20 74
20 75
20 76
20 79
20 80
20 81
20 82
20 83
20 84
20 88
20 89
20 92
20 95
20 96
20 99
21 22
21 24
21 25
21 26
21 28
21 29
21 31
21 33
21 36
21 37
21 38
21 40
21 41
21 42
21 45
21 52
21 53
21 54
21 55
21 57
21 62
21 66
21 68
21 69
21 70
21 71
21 72
21 73
21 74
21 75
21 76
21 77
21 80
21 81
21 82
21 83
21 84
21 85
21 88
21 89
21 91
21 92
21 98
22 27
22 29
22 30
22 31
22 32
22 33
22 34
22 37
22 41
22 42
22 43
22 44
22 45
22 48
22 49
22 50
22 51
22 53
22 54
22 56
22 58
22 59
22 65
22 66
22 67
22 69
22 70
22 72
22 74
22 75
22 78
22 80
22 81
22 84
22 89
22 90
22 92
22 93
22 95
22 96
22 97
22 98
23 70
23 71
23 73
23 79
23 82
23 84
23 89
23 88
23 25
23 27
23 28
23 81
23 96
23 33
23 98
23 35
23 37
23 39
23 40
23 64
23 99
23 51
23 53
23 54
23 57
23 58
23 95
23 74
24 27
24 30
24 33
24 34
24 35
24 36
24 37
24 38
24 40
24 41
24 42
24 43
24 44
24 46
24 48
24 50
24 51
24 52
24 53
24 54
24 55
24 57
24 58
24 62
24 63
24 68
24 70
24 71
24 72
24 74
24 75
24 77
24 79
24 87
24 88
24 89
24 91
24 92
24 94
24 96
24 99
25 26
25 28
25 29
25 30
25 32
25 35
25 36
25 37
25 40
25 41
25 43
25 44
25 45
25 47
25 48
25 49
25 51
25 53
25 57
25 59
25 60
25 61
25 62
25 63
25 64
25 67
25 68
25 69
25 71
25 73
25 74
25 75
25 76
25 77
25 83
25 84
25 85
25 88
25 89
25 90
25 92
25 95
25 99
26 27
26 28
26 29
26 30
26 32
26 34
26 35
26 36
26 39
26 41
26 42
26 43
26 44
26 46
26 49
26 54
26 57
26 60
26 61
26 63
26 64
26 65
26 66
26 69
26 71
26 74
26 83
26 89
26 93
26 97
26 99
27 29
27 30
27 37
27 38
27 39
27 40
27 42
27 44
27 48
27 50
27 53
27 54
27 56
27 57
27 59
27 60
27 61
27 66
27 67
27 70
27 71
27 73
27 74
27 77
27 79
27 80
27 81
27 82
27 83
27 84
27 85
27 86
27 87
27 88
27 89
27 90
27 91
27 92
27 95
27 97
27 99
28 29
28 31
28 33
28 35
28 36
28 38
28 39
28 40
28 41
28 42
28 44
28 45
28 47
28 48
28 49
28 52
28 53
28 56
28 60
28 61
28 62
28 63
28 65
28 70
28 71
28 73
28 78
28 79
28 80
28 83
28 85
28 86
28 87
28 88
28 91
28 92
28 95
28 98
28 99
29 30
29 32
29 34
29 36
29 38
29 39
29 42
29 44
29 45
29 46
29 47
29 50
29 51
29 52
29 53
29 54
29 59
29 60
29 62
29 64
29 66
29 67
29 70
29 71
29 73
29 74
29 75
29 83
29 84
29 85
29 86
29 88
29 90
29 93
29 94
29 95
30 31
30 34
30 35
30 36
30 37
30 39
30 40
30 42
30 43
30 44
30 45
30 46
30 50
30 52
30 53
30 54
30 58
30 59
30 62
30 69
30 71
30 73
30 75
30 76
30 77
30 78
30 79
30 82
30 85
30 86
30 87
30 88
30 93
30 95
30 97
30 98
30 99
31 32
31 36
31 38
31 39
31 42
31 44
31 47
31 48
31 50
31 51
31 52
31 53
31 54
31 55
31 56
31 57
31 59
31 60
31 62
31 63
31 64
31 65
31 67
31 69
31 72
31 73
31 79
31 82
31 85
31 92
31 93
31 94
31 96
31 97
31 98
31 99
32 33
32 34
32 38
32 39
32 40
32 43
32 45
32 48
32 50
32 51
32 52
32 54
32 56
32 57
32 59
32 61
32 64
32 65
32 66
32 69
32 71
32 73
32 75
32 76
32 81
32 83
32 87
32 91
32 95
32 98
33 35
33 36
33 38
33 40
33 41
33 42
33 47
33 48
33 49
33 50
33 51
33 52
33 53
33 54
33 55
33 57
33 60
33 61
33 62
33 63
33 64
33 65
33 66
33 69
33 70
33 71
33 72
33 76
33 78
33 80
33 82
33 83
33 85
33 86
33 91
33 92
33 94
33 96
33 97
33 98
33 99
34 66
34 86
34 65
34 76
34 64
34 87
34 68
34 92
34 95
34 84
34 98
34 36
34 70
34 81
34 41
34 43
34 71
34 47
34 50
34 51
34 53
34 55
34 57
34 59
34 61
34 63
35 36
35 38
35 39
35 40
35 43
35 44
35 50
35 51
35 52
35 53
35 55
35 56
35 60
35 61
35 63
35 66
35 70
35 71
35 76
35 81
35 83
35 84
35 85
35 86
35 89
35 91
35 93
35 95
35 97
35 98
35 99
36 37
36 38
36 39
36 42
36 47
36 49
36 52
36 54
36 58
36 63
36 64
36 66
36 69
36 76
36 78
36 79
36 80
36 81
36 84
36 86
36 88
36 89
36 90
36 91
36 96
37 39
37 40
37 42
37 43
37 47
37 48
37 50
37 51
37 52
37 55
37 56
37 57
37 60
37 62
37 63
37 64
37 65
37 67
37 69
37 73
37 74
37 75
37 79
37 83
37 88
37 89
37 90
37 91
37 92
37 94
37 95
37 96
38 39
38 41
38 43
38 44
38 45
38 46
38 51
38 52
38 53
38 54
38 57
38 59
38 60
38 63
38 64
38 65
38 67
38 68
38 69
38 71
38 72
38 73
38 75
38 76
38 78
38 80
38 84
38 89
38 93
39 47
39 49
39 53
39 58
39 60
39 61
39 62
39 64
39 66
39 67
39 69
39 70
39 71
39 72
39 74
39 76
39 77
39 79
39 80
39 82
39 83
39 84
39 91
39 92
39 94
39 96
39 97
40 43
40 44
40 45
40 48
40 50
40 51
40 52
40 54
40 56
40 62
40 63
40 66
40 69
40 72
40 74
40 80
40 81
40 83
40 85
40 86
40 88
40 91
40 92
40 94
40 96
40 99
41 43
41 49
41 50
41 52
41 55
41 57
41 59
41 63
41 64
41 66
41 67
41 68
41 71
41 72
41 76
41 78
41 80
41 81
41 83
41 84
41 85
41 88
41 89
41 93
41 94
41 95
41 96
41 98
41 99
42 44
42 45
42 46
42 48
42 49
42 50
42 51
42 54
42 57
42 60
42 63
42 64
42 65
42 66
42 69
42 70
42 72
42 75
42 77
42 78
42 79
42 81
42 83
42 84
42 85
42 89
42 90
42 93
42 94
42 99
43 45
43 49
43 52
43 53
43 58
43 60
43 61
43 63
43 73
43 74
43 75
43 76
43 79
43 81
43 83
43 85
43 87
43 91
43 92
43 95
43 97
43 98
44 65
44 68
44 73
44 83
44 78
44 97
44 70
44 92
44 46
44 93
44 76
44 49
44 72
44 88
44 58
44 95
44 85
45 47
45 48
45 49
45 51
45 53
45 55
45 58
45 60
45 61
45 64
45 67
45 69
45 71
45 72
45 76
45 79
45 80
45 82
45 83
45 84
45 86
45 89
45 92
45 93
45 95
45 97
46 49
46 52
46 53
46 57
46 60
46 62
46 64
46 66
46 68
46 70
46 71
46 72
46 73
46 74
46 76
46 77
46 79
46 80
46 83
46 89
46 90
46 91
46 93
46 94
46 95
46 97
46 98
46 99
47 48
47 49
47 50
47 51
47 53
47 54
47 55
47 56
47 57
47 59
47 61
47 63
47 65
47 66
47 68
47 75
47 76
47 77
47 78
47 82
47 83
47 84
47 89
47 90
47 91
47 92
47 93
47 95
47 96
47 98
48 67
48 66
48 74
48 79
48 88
48 91
48 82
48 92
48 80
48 49
48 50
48 51
48 53
48 73
48 72
48 58
48 95
48 60
48 63
49 50
49 51
49 54
49 57
49 58
49 59
49 61
49 64
49 65
49 66
49 68
49 69
49 70
49 71
49 72
49 74
49 75
49 78
49 80
49 85
49 90
49 92
49 94
49 97
50 52
50 53
50 54
50 57
50 60
50 61
50 63
50 66
50 67
50 69
50 71
50 73
50 75
50 77
50 78
50 84
50 87
50 89
50 90
50 93
50 94
50 97
50 98
50 99
51 52
51 53
51 54
51 55
51 56
51 57
51 60
51 61
51 66
51 68
51 71
51 74
51 75
51 76
51 78
51 79
51 82
51 85
51 88
51 89
51 91
51 93
51 95
51 97
51 98
51 99
52 53
52 55
52 56
52 57
52 58
52 60
52 63
52 66
52 67
52 69
52 70
52 72
52 73
52 76
52 77
52 80
52 82
52 83
52 84
52 85
52 88
52 90
52 94
52 96
52 97
53 55
53 56
53 58
53 61
53 63
53 64
53 66
53 68
53 70
53 72
53 76
53 78
53 83
53 84
53 85
53 87
53 89
53 91
53 92
53 94
53 95
53 98
53 99
54 55
54 56
54 58
54 59
54 60
54 62
54 63
54 64
54 65
54 69
54 71
54 72
54 73
54 75
54 77
54 83
54 85
54 87
54 88
54 92
54 94
54 96
55 64
55 77
55 80
55 83
55 85
55 91
55 92
55 71
55 78
55 99
55 72
55 73
55 56
55 57
55 95
55 74
55 62
55 63
56 64
56 83
56 67
56 75
56 81
56 78
56 74
56 90
56 69
56 97
56 65
56 92
56 93
56 94
56 70
56 61
56 63
57 61
57 65
57 66
57 67
57 69
57 72
57 73
57 76
57 77
57 79
57 85
57 86
57 87
57 88
57 90
57 91
57 93
57 94
57 95
57 97
57 98
57 99
58 59
58 63
58 64
58 67
58 69
58 70
58 72
58 76
58 78
58 82
58 83
58 84
58 88
58 89
58 91
58 94
58 95
58 96
58 97
58 98
59 65
59 70
59 96
59 74
59 76
59 98
59 78
59 79
59 85
59 88
59 90
59 97
59 99
59 71
59 93
59 94
59 72
59 61
59 63
60 61
60 65
60 67
60 70
60 72
60 75
60 76
60 80
60 81
60 82
60 83
60 86
60 87
60 89
60 90
60 91
60 93
60 94
60 97
60 98
61 64
61 68
61 70
61 71
61 73
61 74
61 75
61 77
61 81
61 84
61 88
61 89
61 95
61 98
61 99
62 63
62 64
62 66
62 68
62 71
62 72
62 74
62 75
62 77
62 80
62 81
62 82
62 84
62 85
62 86
62 88
62 89
62 90
62 91
62 95
62 98
63 66
63 68
63 71
63 73
63 74
63 75
63 76
63 82
63 84
63 91
63 93
63 96
63 97
64 65
64 67
64 68
64 70
64 75
64 76
64 78
64 81
64 82
64 83
64 85
64 86
64 87
64 88
64 89
64 90
64 93
64 94
64 96
64 98
64 99
65 96
65 66
65 86
65 70
65 72
65 74
65 76
65 80
65 84
65 85
65 68
65 92
65 71
65 82
65 83
65 95
66 67
66 69
66 70
66 72
66 73
66 75
66 76
66 78
66 79
66 80
66 81
66 84
66 85
66 91
66 93
66 94
66 95
66 97
66 99
67 68
67 69
67 70
67 71
67 73
67 74
67 76
67 78
67 79
67 80
67 81
67 82
67 83
67 84
67 85
67 86
67 90
67 93
67 94
67 96
67 99
68 69
68 72
68 73
68 76
68 98
68 80
68 99
68 84
68 86
68 87
68 75
68 93
68 95
68 97
68 91
68 71
68 82
69 70
69 71
69 72
69 76
69 77
69 80
69 83
69 84
69 86
69 87
69 88
69 89
69 90
69 91
69 92
69 94
69 97
69 98
70 74
70 75
70 76
70 82
70 85
70 86
70 87
70 89
70 94
70 97
71 73
71 75
71 77
71 79
71 80
71 91
71 95
71 96
71 97
71 98
71 99
72 74
72 78
72 81
72 83
72 87
72 90
72 95
72 96
72 98
72 99
73 74
73 75
73 76
73 80
73 81
73 86
73 87
73 88
73 90
73 96
73 97
74 75
74 80
74 81
74 83
74 84
74 85
74 92
74 93
74 94
74 96
74 98
75 78
75 81
75 84
75 85
75 88
75 89
75 92
75 93
75 94
75 96
75 97
75 99
76 80
76 81
76 82
76 83
76 85
76 93
76 94
77 78
77 79
77 88
77 87
77 90
77 92
77 93
77 96
77 97
77 91
77 82
77 94
78 79
78 81
78 83
78 84
78 87
78 89
78 91
78 93
78 95
78 96
78 97
78 98
78 99
79 81
79 82
79 83
79 84
79 85
79 86
79 92
79 94
79 96
79 97
80 82
80 85
80 86
80 87
80 92
80 95
80 96
80 99
81 82
81 85
81 88
81 89
81 90
81 95
81 99
82 83
82 85
82 86
82 87
82 89
82 90
82 91
82 95
83 85
83 87
83 90
83 93
83 95
83 96
83 98
83 99
84 87
84 92
84 93
84 94
84 95
84 97
84 99
85 86
85 88
85 89
85 91
85 92
85 94
85 96
85 99
86 87
86 88
86 90
86 95
86 97
87 89
87 91
87 92
87 93
87 94
87 95
87 97
87 99
88 90
88 91
88 92
88 93
88 94
88 95
88 96
88 98
89 90
89 92
89 95
89 97
89 98
90 95
90 91
90 92
90 99
91 92
92 94
92 95
92 96
92 98
93 97
93 98
94 95
94 96
94 97
94 98
94 99
96 98
98 99
