100
69 78
248 179
111 277
199 30
254 62
257 122
206 82
273 55
106 8
238 82
232 233
74 209
296 88
185 279
106 84
263 182
100 162
190 14
180 187
78 216
227 105
232 38
224 64
86 263
205 243
27 199
160 3
160 216
167 272
205 81
290 232
31 91
188 261
37 237
231 122
81 24
53 194
216 83
58 281
171 229
261 76
109 209
76 79
146 40
249 268
269 105
173 276
3 45
184 183
165 243
300 32
143 205
25 224
42 132
211 46
48 111
63 286
98 271
208 15
261 195
163 122
81 297
296 209
171 270
71 26
18 171
187 69
266 95
150 256
17 282
169 20
230 121
8 105
125 86
272 284
102 39
53 9
228 150
242 16
159 160
236 107
5 241
154 58
117 209
128 67
83 205
252 187
22 257
99 209
50 252
131 121
129 112
40 134
134 186
117 270
240 92
103 128
6 232
241 103
234 41
0 1
0 3
0 6
0 8
0 9
0 12
0 14
0 16
0 17
0 22
0 27
0 30
0 31
0 32
0 33
0 35
0 37
0 42
0 44
0 45
0 48
0 49
0 51
0 52
0 54
0 55
0 56
0 57
0 58
0 61
0 62
0 66
0 67
0 69
0 72
0 73
0 75
0 77
0 81
0 82
0 83
0 84
0 85
0 89
0 90
0 92
0 95
0 99
1 3
1 5
1 7
1 10
1 11
1 12
1 14
1 15
1 16
1 17
1 18
1 22
1 24
1 27
1 33
1 38
1 39
1 43
1 44
1 45
1 46
1 47
1 52
1 53
1 54
1 56
1 58
1 60
1 62
1 65
1 67
1 68
1 70
1 73
1 74
1 76
1 78
1 81
1 82
1 84
1 85
1 87
1 90
1 91
1 95
1 97
1 99
2 4
2 7
2 8
2 9
2 10
2 13
2 14
2 16
2 17
2 18
2 19
2 21
2 26
2 28
2 31
2 32
2 34
2 43
2 44
2 45
2 47
2 49
2 51
2 55
2 57
2 58
2 59
2 62
2 63
2 64
2 67
2 68
2 69
2 71
2 72
2 76
2 77
2 79
2 80
2 82
2 84
2 91
2 92
2 93
2 94
2 96
2 97
2 99
3 4
3 68
3 7
3 8
3 73
3 74
3 11
3 76
3 13
3 14
3 15
3 16
3 81
3 83
3 84
3 78
3 86
3 23
3 25
3 90
3 79
3 30
3 97
3 98
3 35
3 77
3 37
3 65
3 40
3 87
3 72
3 50
3 51
3 56
3 58
3 91
3 60
3 61
3 85
3 63
4 6
4 8
4 9
4 11
4 12
4 14
4 15
4 16
4 17
4 18
4 20
4 21
4 24
4 25
4 30
4 31
4 35
4 37
4 38
4 39
4 40
4 41
4 42
4 43
4 44
4 46
4 47
4 48
4 50
4 53
4 54
4 55
4 59
4 60
4 62
4 63
4 64
4 66
4 67
4 68
4 69
4 72
4 73
4 74
4 77
4 78
4 79
4 80
4 83
4 86
4 93
4 94
4 95
4 98
5 67
5 98
5 6
5 97
5 9
5 10
5 12
5 13
5 77
5 15
5 80
5 17
5 84
5 85
5 23
5 88
5 26
5 92
5 90
5 31
5 33
5 34
5 99
5 36
5 38
5 81
5 40
5 41
5 44
5 46
5 49
5 50
5 51
5 53
5 54
5 56
5 57
5 58
6 9
6 11
6 15
6 16
6 17
6 18
6 19
6 20
6 22
6 25
6 29
6 30
6 32
6 33
6 34
6 35
6 37
6 40
6 43
6 44
6 45
6 47
6 48
6 49
6 52
6 53
6 55
6 59
6 60
6 61
6 66
6 67
6 68
6 69
6 71
6 72
6 74
6 75
6 76
6 78
6 79
6 82
6 83
6 85
6 88
6 90
6 91
6 94
6 95
6 96
6 99
7 8
7 9
7 13
7 17
7 21
7 22
7 24
7 25
7 26
7 28
7 29
7 32
7 33
7 36
7 37
7 38
7 39
7 42
7 43
7 44
7 47
7 48
7 51
7 53
7 55
7 56
7 57
7 60
7 64
7 65
7 68
7 71
7 73
7 74
7 76
7 78
7 79
7 81
7 83
7 84
7 85
7 87
7 95
7 96
7 97
7 98
8 10
8 11
8 12
8 20
8 23
8 25
8 26
8 28
8 29
8 30
8 38
8 40
8 42
8 44
8 46
8 50
8 51
8 52
8 53
8 55
8 57
8 58
8 60
8 67
8 68
8 69
8 71
8 72
8 73
8 74
8 75
8 76
8 77
8 79
8 85
8 88
8 90
8 91
8 92
8 94
8 95
8 96
8 97
8 98
8 99
9 10
9 11
9 14
9 15
9 17
9 19
9 20
9 21
9 24
9 27
9 28
9 33
9 34
9 35
9 38
9 44
9 50
9 51
9 53
9 55
9 58
9 59
9 60
9 61
9 62
9 64
9 66
9 68
9 70
9 71
9 72
9 73
9 74
9 77
9 78
9 79
9 81
9 82
9 84
9 89
9 91
9 92
9 93
9 94
9 96
9 97
9 98
10 67
10 66
10 70
10 65
10 11
10 12
10 13
10 14
10 15
10 16
10 81
10 83
10 20
10 78
10 86
10 87
10 68
10 91
10 28
10 93
10 30
10 69
10 84
10 80
10 99
10 37
10 96
10 43
10 44
10 46
10 47
10 72
10 50
10 52
10 73
10 57
10 62
10 63
11 18
11 22
11 23
11 24
11 26
11 27
11 30
11 32
11 34
11 37
11 40
11 43
11 45
11 47
11 51
11 52
11 53
11 55
11 56
11 58
11 60
11 66
11 68
11 70
11 71
11 72
11 75
11 80
11 81
11 83
11 87
11 88
11 89
11 90
11 91
11 93
11 96
11 97
11 98
12 13
12 15
12 16
12 19
12 21
12 23
12 24
12 29
12 30
12 31
12 32
12 33
12 36
12 37
12 38
12 41
12 45
12 55
12 56
12 58
12 62
12 64
12 66
12 67
12 69
12 70
12 72
12 75
12 76
12 77
12 78
12 79
12 80
12 82
12 83
12 86
12 88
12 90
12 92
12 94
12 97
12 98
13 14
13 16
13 18
13 19
13 23
13 24
13 27
13 29
13 32
13 33
13 34
13 35
13 36
13 37
13 42
13 43
13 45
13 47
13 48
13 50
13 51
13 55
13 57
13 59
13 62
13 63
13 66
13 67
13 69
13 72
13 73
13 75
13 76
13 80
13 82
13 83
13 85
13 86
13 87
13 89
13 90
13 92
13 96
14 18
14 20
14 21
14 27
14 28
14 29
14 31
14 32
14 33
14 34
14 36
14 37
14 40
14 41
14 48
14 50
14 51
14 53
14 54
14 57
14 59
14 60
14 65
14 69
14 71
14 74
14 75
14 77
14 79
14 81
14 82
14 83
14 86
14 87
14 88
14 90
14 91
14 92
14 94
14 95
14 96
14 97
14 98
15 16
15 17
15 18
15 22
15 23
15 25
15 27
15 29
15 30
15 33
15 37
15 38
15 45
15 47
15 50
15 51
15 52
15 53
15 54
15 55
15 58
15 60
15 61
15 63
15 67
15 71
15 72
15 73
15 74
15 75
15 77
15 78
15 79
15 80
15 83
15 84
15 85
15 89
15 90
15 92
15 96
15 98
15 99
16 17
16 18
16 20
16 21
16 22
16 23
16 24
16 25
16 28
16 29
16 30
16 31
16 32
16 33
16 35
16 36
16 37
16 38
16 40
16 41
16 42
16 43
16 44
16 47
16 53
16 55
16 56
16 60
16 63
16 64
16 65
16 66
16 69
16 73
16 76
16 77
16 78
16 79
16 83
16 84
16 96
16 97
16 98
17 20
17 21
17 23
17 25
17 27
17 28
17 29
17 30
17 31
17 32
17 34
17 35
17 36
17 40
17 41
17 42
17 43
17 46
17 48
17 49
17 53
17 57
17 60
17 64
17 65
17 66
17 69
17 72
17 74
17 75
17 76
17 77
17 79
17 80
17 81
17 82
17 83
17 84
17 85
17 88
17 96
17 97
17 99
18 19
18 21
18 30
18 32
18 33
18 36
18 39
18 41
18 42
18 43
18 45
18 52
18 55
18 58
18 59
18 62
18 64
18 69
18 70
18 72
18 73
18 76
18 77
18 78
18 79
18 80
18 82
18 83
18 85
18 86
18 87
18 88
18 89
18 90
18 92
18 93
18 96
18 97
18 99
19 20
19 21
19 22
19 23
19 25
19 29
19 32
19 34
19 37
19 38
19 39
19 40
19 42
19 43
19 44
19 45
19 50
19 54
19 55
19 58
19 60
19 63
19 67
19 69
19 70
19 71
19 73
19 74
19 79
19 81
19 82
19 83
19 84
19 85
19 88
19 89
19 90
19 93
19 95
19 96
19 97
19 98
20 21
20 23
20 25
20 26
20 30
20 31
20 32
20 33
20 34
20 36
20 40
20 41
20 42
20 44
20 47
20 49
20 51
20 52
20 53
20 54
20 56
20 59
20 61
20 62
20 68
20 69
20 71
20 74
20 76
20 78
20 80
20 85
20 87
20 88
20 89
20 91
20 92
20 93
20 96
20 97
20 99
21 22
21 24
21 30
21 32
21 37
21 38
21 40
21 41
21 43
21 44
21 45
21 47
21 49
21 56
21 57
21 58
21 59
21 60
21 62
21 63
21 64
21 67
21 68
21 71
21 72
21 75
21 77
21 78
21 79
21 80
21 82
21 85
21 86
21 94
21 95
21 97
21 99
22 25
22 26
22 27
22 28
22 29
22 31
22 32
22 33
22 36
22 38
22 42
22 43
22 44
22 46
22 49
22 51
22 53
22 58
22 59
22 60
22 63
22 64
22 65
22 66
22 69
22 70
22 71
22 72
22 73
22 74
22 76
22 79
22 83
22 90
22 95
22 97
22 98
23 24
23 27
23 28
23 29
23 31
23 32
23 34
23 35
23 36
23 37
23 40
23 42
23 44
23 45
23 46
23 48
23 49
23 53
23 55
23 56
23 57
23 59
23 63
23 64
23 65
23 66
23 67
23 68
23 69
23 70
23 72
23 76
23 77
23 79
23 82
23 83
23 86
23 88
23 89
23 90
23 92
23 93
23 94
23 99
24 25
24 26
24 27
24 30
24 36
24 37
24 38
24 39
24 40
24 41
24 43
24 46
24 48
24 49
24 52
24 54
24 56
24 58
24 59
24 60
24 61
24 63
24 65
24 67
24 68
24 70
24 73
24 74
24 76
24 77
24 78
24 79
24 80
24 82
24 83
24 84
24 85
24 86
24 88
24 89
24 90
24 91
24 96
24 98
25 26
25 36
25 37
25 39
25 40
25 41
25 42
25 46
25 50
25 51
25 52
25 54
25 56
25 60
25 61
25 62
25 63
25 64
25 69
25 72
25 74
25 75
25 77
25 78
25 79
25 80
25 81
25 83
25 84
25 85
25 89
25 91
25 96
25 97
25 98
26 65
26 67
26 97
26 70
26 73
26 74
26 66
26 77
26 80
26 88
26 82
26 85
26 27
26 28
26 93
26 69
26 31
26 33
26 98
26 99
26 36
26 39
26 40
26 45
26 46
26 50
26 53
26 54
26 56
26 57
26 61
26 86
27 28
27 29
27 31
27 32
27 36
27 38
27 39
27 40
27 44
27 47
27 49
27 50
27 51
27 53
27 54
27 57
27 61
27 62
27 63
27 64
27 67
27 68
27 69
27 72
27 75
27 77
27 78
27 80
27 81
27 85
27 87
27 90
27 91
27 92
27 93
27 96
28 29
28 31
28 32
28 34
28 35
28 38
28 39
28 41
28 42
28 43
28 44
28 45
28 48
28 49
28 52
28 53
28 55
28 56
28 58
28 59
28 61
28 65
28 68
28 69
28 74
28 77
28 83
28 87
28 93
28 94
28 98
28 99
29 32
29 34
29 35
29 38
29 39
29 40
29 41
29 43
29 46
29 47
29 49
29 50
29 51
29 53
29 54
29 56
29 58
29 60
29 64
29 65
29 67
29 69
29 72
29 73
29 74
29 79
29 80
29 81
29 82
29 84
29 85
29 86
29 92
29 93
29 97
29 99
30 31
30 32
30 34
30 35
30 36
30 37
30 39
30 43
30 45
30 52
30 53
30 55
30 58
30 59
30 64
30 65
30 66
30 67
30 68
30 72
30 75
30 76
30 78
30 79
30 81
30 86
30 87
30 88
30 89
30 92
30 95
30 96
30 97
31 32
31 35
31 37
31 39
31 40
31 41
31 42
31 46
31 47
31 49
31 50
31 53
31 56
31 57
31 62
31 66
31 67
31 72
31 74
31 80
31 81
31 82
31 83
31 85
31 86
31 87
31 88
31 89
31 92
31 93
31 94
31 96
31 99
32 33
32 36
32 37
32 38
32 40
32 41
32 42
32 44
32 45
32 48
32 53
32 56
32 57
32 59
32 61
32 63
32 64
32 66
32 67
32 69
32 70
32 72
32 74
32 75
32 76
32 77
32 80
32 84
32 92
32 96
32 97
32 98
32 99
33 35
33 38
33 39
33 41
33 42
33 44
33 45
33 46
33 48
33 49
33 50
33 54
33 55
33 57
33 59
33 61
33 65
33 67
33 68
33 69
33 74
33 75
33 76
33 77
33 80
33 83
33 84
33 85
33 86
33 89
33 91
33 92
33 95
33 96
33 97
33 99
34 35
34 37
34 38
34 39
34 42
34 43
34 45
34 47
34 48
34 49
34 50
34 51
34 52
34 53
34 55
34 56
34 58
34 62
34 63
34 64
34 65
34 70
34 71
34 73
34 76
34 78
34 79
34 83
34 84
34 88
34 90
34 91
34 92
34 97
34 98
35 38
35 41
35 42
35 44
35 45
35 47
35 48
35 49
35 51
35 52
35 53
35 54
35 55
35 56
35 57
35 58
35 60
35 61
35 63
35 65
35 68
35 69
35 71
35 72
35 73
35 74
35 77
35 78
35 79
35 80
35 81
35 82
35 85
35 87
35 88
35 90
35 91
35 92
35 93
35 95
35 99
36 37
36 38
36 39
36 42
36 43
36 47
36 49
36 50
36 51
36 53
36 54
36 55
36 56
36 61
36 63
36 64
36 66
36 69
36 70
36 75
36 76
36 77
36 79
36 81
36 82
36 83
36 84
36 89
36 92
36 98
36 99
37 38
37 43
37 44
37 48
37 49
37 57
37 58
37 59
37 60
37 62
37 63
37 64
37 65
37 77
37 78
37 80
37 81
37 84
37 85
37 90
37 92
37 93
37 94
37 97
37 99
38 40
38 41
38 44
38 45
38 49
38 50
38 51
38 54
38 55
38 56
38 59
38 60
38 61
38 64
38 65
38 67
38 69
38 70
38 71
38 72
38 73
38 74
38 75
38 77
38 90
38 92
38 93
38 94
38 97
38 98
38 99
39 40
39 42
39 44
39 45
39 48
39 52
39 53
39 54
39 57
39 59
39 60
39 61
39 63
39 65
39 66
39 67
39 70
39 73
39 76
39 79
39 81
39 86
39 88
39 89
39 90
39 93
39 94
39 95
39 99
40 44
40 47
40 51
40 56
40 58
40 59
40 61
40 62
40 63
40 68
40 70
40 75
40 77
40 80
40 81
40 82
40 83
40 86
40 88
40 89
40 90
40 92
40 95
40 98
40 99
41 66
41 97
41 72
41 73
41 74
41 75
41 83
41 86
41 87
41 78
41 88
41 81
41 95
41 44
41 46
41 76
41 99
41 54
41 55
41 84
41 59
41 62
42 44
42 45
42 47
42 51
42 52
42 53
42 55
42 56
42 59
42 61
42 62
42 64
42 65
42 66
42 67
42 69
42 70
42 72
42 74
42 80
42 81
42 82
42 85
42 88
42 89
42 93
42 94
42 95
42 97
42 99
43 75
43 69
43 72
43 78
43 84
43 87
43 98
43 95
43 66
43 71
43 45
43 46
43 48
43 49
43 50
43 82
43 54
43 55
43 58
43 59
43 63
44 46
44 47
44 50
44 52
44 53
44 55
44 58
44 59
44 60
44 61
44 63
44 66
44 67
44 69
44 72
44 73
44 76
44 78
44 80
44 81
44 89
44 91
44 92
44 94
44 95
44 96
44 97
44 99
45 46
45 48
45 50
45 51
45 53
45 54
45 55
45 57
45 59
45 60
45 64
45 65
45 66
45 67
45 71
45 76
45 77
45 79
45 85
45 86
45 89
45 92
45 94
45 96
45 99
46 47
46 51
46 52
46 53
46 55
46 57
46 62
46 63
46 65
46 66
46 67
46 69
46 70
46 72
46 74
46 76
46 77
46 78
46 80
46 83
46 85
46 87
46 89
46 90
46 93
46 95
46 98
47 48
47 49
47 52
47 56
47 59
47 60
47 63
47 65
47 67
47 69
47 70
47 72
47 73
47 76
47 77
47 78
47 80
47 81
47 83
47 85
47 86
47 87
47 89
47 91
47 92
47 95
47 96
47 99
48 51
48 52
48 53
48 55
48 56
48 60
48 61
48 62
48 63
48 65
48 67
48 69
48 71
48 72
48 73
48 76
48 77
48 78
48 79
48 80
48 81
48 82
48 84
48 85
48 88
48 89
48 90
48 93
48 95
48 96
48 97
48 98
48 99
49 64
49 73
49 87
49 77
49 82
49 83
49 89
49 90
49 81
49 91
49 93
49 50
49 51
49 53
49 56
49 57
49 58
49 59
49 70
49 63
50 51
50 52
50 53
50 56
50 58
50 59
50 61
50 65
50 66
50 67
50 74
50 76
50 79
50 80
50 81
50 82
50 84
50 86
50 93
50 95
50 99
51 53
51 55
51 58
51 60
51 62
51 63
51 69
51 70
51 71
51 73
51 75
51 76
51 79
51 80
51 83
51 87
51 88
51 92
51 94
51 95
51 96
51 97
51 98
51 99
52 54
52 57
52 59
52 61
52 62
52 63
52 68
52 69
52 71
52 72
52 74
52 76
52 78
52 79
52 80
52 82
52 83
52 84
52 85
52 86
52 89
52 90
52 92
52 94
52 95
53 54
53 55
53 56
53 57
53 58
53 59
53 61
53 63
53 64
53 65
53 70
53 71
53 72
53 73
53 74
53 75
53 82
53 83
53 89
53 90
53 92
53 93
53 94
53 97
54 55
54 57
54 59
54 62
54 63
54 64
54 66
54 67
54 72
54 74
54 77
54 79
54 81
54 83
54 84
54 87
54 90
54 92
54 93
54 94
54 96
55 62
55 63
55 64
55 66
55 67
55 68
55 69
55 71
55 75
55 76
55 79
55 80
55 83
55 87
55 93
55 97
56 58
56 60
56 61
56 62
56 63
56 65
56 68
56 70
56 71
56 76
56 81
56 82
56 83
56 85
56 87
56 90
56 91
56 92
56 94
56 95
56 98
57 58
57 59
57 60
57 63
57 64
57 65
57 69
57 70
57 72
57 74
57 76
57 77
57 78
57 80
57 83
57 87
57 91
57 97
57 98
58 59
58 61
58 62
58 63
58 66
58 67
58 68
58 70
58 74
58 75
58 76
58 77
58 80
58 82
58 84
58 85
58 86
58 87
58 89
58 91
58 92
58 93
58 94
58 95
58 98
59 60
59 61
59 64
59 65
59 66
59 76
59 77
59 83
59 84
59 86
59 87
59 89
59 93
59 95
59 98
59 99
60 61
60 62
60 63
60 64
60 66
60 69
60 72
60 73
60 75
60 76
60 77
60 81
60 83
60 84
60 87
60 89
60 90
60 91
60 96
60 97
60 98
61 63
61 65
61 68
61 69
61 71
61 72
61 73
61 74
61 77
61 78
61 79
61 85
61 87
61 88
61 89
61 90
61 91
61 92
61 94
61 96
61 97
61 99
62 63
62 64
62 66
62 67
62 69
62 70
62 71
62 72
62 73
62 75
62 78
62 81
62 82
62 83
62 85
62 89
62 90
62 93
62 94
62 95
62 96
62 97
63 66
63 67
63 68
63 70
63 73
63 79
63 82
63 83
63 89
63 90
63 91
63 92
63 93
63 94
63 95
63 96
64 65
64 66
64 71
64 76
64 79
64 80
64 81
64 83
64 85
64 86
64 89
64 90
64 91
64 92
64 94
64 95
64 96
64 98
65 69
65 70
65 74
65 76
65 77
65 78
65 79
65 80
65 82
65 83
65 86
65 87
65 88
65 89
65 95
65 97
65 98
66 68
66 71
66 75
66 80
66 81
66 82
66 83
66 85
66 87
66 89
66 90
66 91
66 92
66 94
66 96
66 98
66 99
67 68
67 70
67 75
67 76
67 77
67 86
67 90
67 91
67 92
67 93
67 94
67 96
67 98
67 99
68 74
68 76
68 78
68 77
68 80
68 81
68 89
68 90
68 93
68 98
68 70
68 99
68 91
68 79
68 94
69 70
69 72
69 79
69 81
69 82
69 84
69 87
69 88
69 93
69 98
70 71
70 73
70 74
70 75
70 77
70 78
70 79
70 81
70 82
70 83
70 84
70 88
70 90
70 91
70 92
70 94
70 95
70 98
70 99
71 75
71 98
71 81
71 88
71 89
71 90
71 79
71 92
71 95
71 97
71 72
71 91
71 85
72 74
72 76
72 78
72 80
72 84
72 88
72 90
72 91
72 92
72 96
72 98
73 74
73 81
73 82
73 83
73 84
73 85
73 87
73 88
73 91
73 92
73 94
73 95
73 96
73 97
73 99
74 76
74 77
74 78
74 80
74 81
74 84
74 86
74 87
74 88
74 91
74 92
74 98
74 99
75 79
75 97
75 77
75 80
75 83
75 84
75 89
75 98
75 99
75 81
75 78
75 94
76 79
76 81
76 82
76 83
76 85
76 87
76 90
76 93
76 95
76 96
76 99
77 79
77 80
77 82
77 83
77 87
77 88
77 89
77 90
77 93
77 95
77 97
77 99
78 79
78 80
78 81
78 82
78 84
78 85
78 88
78 89
78 96
78 98
78 99
79 80
79 81
79 82
79 84
79 85
79 89
79 93
79 94
79 99
80 81
80 82
80 85
80 86
80 88
80 89
80 90
80 92
80 95
80 96
80 97
80 99
81 84
81 86
81 87
81 89
81 91
81 95
81 96
82 84
82 86
82 87
82 89
82 93
82 95
82 96
82 98
83 84
83 85
83 89
83 90
83 91
83 92
83 93
83 95
83 97
83 98
83 99
84 85
84 86
84 87
84 88
84 89
84 95
84 96
85 86
85 87
85 88
85 89
85 90
85 91
85 93
85 94
85 95
85 97
86 89
86 96
86 98
86 99
86 90
86 93
86 94
87 88
87 89
87 90
87 91
87 92
87 93
87 99
88 98
88 96
88 97
88 99
88 95
89 90
89 91
89 96
89 98
89 99
90 92
90 93
90 94
90 95
90 96
90 98
91 93
91 94
91 96
91 99
92 95
92 96
92 97
92 99
93 94
93 95
93 96
93 98
94 96
94 97
94 98
95 97
95 98
96 99
97 99
