100
193 44
251 283
176 276
8 3
274 223
220 138
166 284
157 19
29 56
92 217
106 142
121 173
3 223
157 258
61 15
132 122
296 88
64 219
193 82
118 210
200 17
37 155
75 104
194 100
93 44
292 91
118 103
8 209
151 57
171 276
140 72
2 105
121 202
52 56
258 67
49 89
219 251
81 269
79 55
69 114
129 295
61 119
27 41
211 241
121 105
228 200
112 34
201 257
4 275
195 236
6 11
164 39
198 43
246 207
215 53
22 124
148 148
27 40
234 263
102 27
182 1
48 72
238 55
46 130
294 187
35 272
279 253
21 222
296 141
83 97
256 144
59 208
118 287
13 143
59 292
171 255
231 101
233 70
283 124
227 117
132 116
201 101
75 12
186 225
55 213
132 292
266 210
45 237
24 182
266 51
182 106
94 120
28 138
199 284
212 292
96 165
182 38
211 297
43 20
80 234
0 4
0 8
0 10
0 11
0 13
0 15
0 17
0 20
0 22
0 23
0 24
0 25
0 29
0 30
0 31
0 35
0 40
0 41
0 45
0 46
0 50
0 51
0 53
0 55
0 58
0 59
0 60
0 62
0 63
0 68
0 69
0 70
0 71
0 72
0 73
0 76
0 78
0 80
0 81
0 82
0 83
0 90
0 93
0 94
0 96
0 97
0 98
1 2
1 4
1 5
1 8
1 11
1 13
1 14
1 16
1 18
1 19
1 21
1 22
1 27
1 30
1 32
1 33
1 34
1 36
1 38
1 41
1 43
1 44
1 49
1 51
1 55
1 57
1 61
1 62
1 63
1 64
1 66
1 68
1 69
1 70
1 71
1 73
1 75
1 76
1 77
1 78
1 83
1 85
1 86
1 88
1 89
1 91
1 92
1 96
1 98
1 99
2 3
2 5
2 9
2 12
2 13
2 14
2 16
2 18
2 20
2 21
2 22
2 23
2 28
2 29
2 33
2 34
2 36
2 40
2 45
2 48
2 50
2 51
2 52
2 53
2 54
2 56
2 58
2 59
2 63
2 65
2 67
2 68
2 70
2 72
2 75
2 79
2 81
2 82
2 84
2 85
2 86
2 87
2 88
2 90
2 91
2 92
2 93
2 99
3 64
3 68
3 67
3 66
3 69
3 81
3 71
3 96
3 74
3 86
3 12
3 13
3 14
3 79
3 16
3 17
3 83
3 20
3 22
3 25
3 26
3 27
3 28
3 29
3 32
3 33
3 34
3 90
3 39
3 40
3 45
3 93
3 47
3 48
3 51
3 53
3 54
3 58
3 59
3 61
3 63
4 6
4 8
4 10
4 12
4 13
4 14
4 17
4 18
4 21
4 23
4 25
4 26
4 32
4 33
4 36
4 37
4 38
4 39
4 44
4 46
4 49
4 51
4 53
4 54
4 55
4 57
4 59
4 61
4 63
4 64
4 66
4 67
4 70
4 74
4 76
4 78
4 79
4 80
4 83
4 87
4 88
4 93
4 94
5 6
5 10
5 12
5 13
5 16
5 17
5 18
5 21
5 23
5 25
5 28
5 30
5 33
5 34
5 35
5 38
5 41
5 42
5 43
5 46
5 47
5 48
5 52
5 53
5 56
5 59
5 60
5 62
5 64
5 67
5 69
5 72
5 74
5 75
5 76
5 80
5 81
5 82
5 85
5 86
5 88
5 89
5 97
5 99
6 8
6 12
6 13
6 14
6 15
6 16
6 17
6 21
6 22
6 23
6 27
6 30
6 34
6 35
6 37
6 39
6 41
6 42
6 44
6 46
6 47
6 48
6 50
6 52
6 53
6 54
6 55
6 57
6 58
6 62
6 63
6 64
6 65
6 67
6 70
6 71
6 72
6 73
6 75
6 76
6 77
6 80
6 81
6 82
6 83
6 85
6 86
6 87
6 89
6 90
6 92
6 93
6 97
6 98
6 99
7 96
7 67
7 68
7 86
7 70
7 71
7 72
7 9
7 10
7 87
7 76
7 77
7 78
7 81
7 18
7 19
7 20
7 22
7 23
7 89
7 26
7 91
7 92
7 29
7 94
7 31
7 32
7 33
7 98
7 35
7 82
7 90
7 38
7 39
7 42
7 44
7 45
7 46
7 99
7 51
7 57
7 84
8 12
8 13
8 15
8 16
8 17
8 20
8 22
8 23
8 24
8 27
8 30
8 31
8 34
8 38
8 40
8 41
8 44
8 46
8 47
8 51
8 52
8 55
8 56
8 57
8 59
8 60
8 61
8 62
8 65
8 66
8 67
8 68
8 71
8 72
8 73
8 74
8 77
8 83
8 84
8 89
8 90
8 92
8 94
8 96
9 68
9 66
9 76
9 10
9 12
9 13
9 77
9 15
9 16
9 88
9 84
9 78
9 22
9 23
9 24
9 25
9 26
9 27
9 28
9 94
9 31
9 34
9 35
9 36
9 92
9 71
9 44
9 45
9 47
9 48
9 50
9 79
9 54
9 55
9 58
9 62
10 11
10 12
10 14
10 17
10 18
10 21
10 24
10 25
10 26
10 28
10 30
10 31
10 36
10 38
10 39
10 40
10 41
10 42
10 44
10 45
10 46
10 48
10 49
10 51
10 52
10 58
10 59
10 62
10 64
10 65
10 66
10 70
10 71
10 73
10 75
10 76
10 77
10 78
10 79
10 84
10 85
10 86
10 89
10 93
10 94
10 95
10 96
10 98
10 99
11 15
11 16
11 18
11 19
11 21
11 23
11 24
11 25
11 26
11 27
11 28
11 29
11 31
11 35
11 36
11 37
11 41
11 43
11 45
11 46
11 48
11 49
11 50
11 58
11 59
11 60
11 61
11 62
11 63
11 64
11 65
11 67
11 70
11 71
11 75
11 76
11 77
11 83
11 85
11 86
11 87
11 89
11 90
11 91
11 93
11 95
11 97
11 99
12 18
12 19
12 21
12 22
12 25
12 30
12 31
12 34
12 37
12 38
12 39
12 42
12 43
12 45
12 46
12 49
12 51
12 52
12 53
12 54
12 55
12 60
12 61
12 62
12 63
12 64
12 68
12 69
12 70
12 72
12 73
12 75
12 76
12 77
12 78
12 79
12 82
12 83
12 86
12 89
12 90
12 94
12 96
12 97
12 98
13 16
13 21
13 22
13 23
13 27
13 28
13 31
13 33
13 34
13 35
13 42
13 43
13 45
13 46
13 47
13 50
13 51
13 52
13 54
13 55
13 57
13 59
13 60
13 61
13 63
13 66
13 67
13 69
13 71
13 72
13 74
13 75
13 78
13 79
13 80
13 82
13 86
13 87
13 89
13 91
13 95
13 97
13 98
14 15
14 17
14 19
14 21
14 26
14 29
14 30
14 31
14 33
14 34
14 35
14 39
14 40
14 43
14 46
14 47
14 51
14 52
14 53
14 54
14 62
14 64
14 67
14 68
14 70
14 71
14 74
14 75
14 76
14 77
14 78
14 79
14 82
14 83
14 84
14 90
14 92
14 95
14 97
14 99
15 16
15 17
15 20
15 24
15 25
15 26
15 27
15 28
15 29
15 32
15 34
15 35
15 37
15 38
15 41
15 42
15 43
15 44
15 47
15 48
15 49
15 50
15 51
15 56
15 57
15 61
15 64
15 68
15 71
15 75
15 76
15 81
15 82
15 83
15 85
15 90
15 91
15 92
15 94
15 95
16 17
16 22
16 23
16 26
16 27
16 30
16 33
16 34
16 35
16 36
16 39
16 41
16 43
16 47
16 48
16 49
16 51
16 53
16 55
16 56
16 57
16 61
16 62
16 63
16 65
16 66
16 71
16 72
16 74
16 75
16 76
16 77
16 78
16 79
16 86
16 87
16 88
16 89
16 90
16 91
16 92
16 93
16 94
16 95
16 97
16 99
17 20
17 23
17 26
17 27
17 28
17 30
17 33
17 35
17 36
17 38
17 42
17 44
17 45
17 46
17 47
17 48
17 50
17 53
17 57
17 58
17 59
17 60
17 62
17 63
17 64
17 66
17 67
17 71
17 72
17 73
17 74
17 76
17 77
17 78
17 79
17 80
17 82
17 83
17 84
17 86
17 89
17 92
17 94
17 95
17 96
17 98
18 20
18 21
18 22
18 23
18 24
18 27
18 31
18 36
18 38
18 43
18 44
18 45
18 46
18 48
18 53
18 54
18 58
18 59
18 60
18 61
18 62
18 63
18 67
18 68
18 69
18 74
18 75
18 78
18 81
18 83
18 86
18 88
18 89
18 91
18 96
18 97
18 98
19 20
19 24
19 25
19 26
19 29
19 30
19 32
19 34
19 36
19 38
19 41
19 43
19 45
19 47
19 48
19 50
19 53
19 54
19 57
19 58
19 60
19 62
19 64
19 69
19 71
19 72
19 73
19 74
19 77
19 78
19 79
19 80
19 81
19 82
19 83
19 87
19 88
19 89
19 93
19 95
20 22
20 25
20 26
20 28
20 29
20 30
20 31
20 33
20 40
20 41
20 42
20 43
20 44
20 45
20 49
20 50
20 52
20 53
20 54
20 55
20 56
20 57
20 58
20 59
20 60
20 63
20 64
20 66
20 67
20 72
20 76
20 78
20 79
20 80
20 81
20 83
20 86
20 90
20 91
20 92
20 93
20 94
20 98
21 23
21 27
21 30
21 32
21 35
21 36
21 37
21 41
21 42
21 43
21 45
21 46
21 49
21 50
21 51
21 54
21 55
21 57
21 58
21 60
21 63
21 65
21 66
21 67
21 69
21 72
21 73
21 75
21 82
21 83
21 85
21 87
21 91
21 92
21 93
21 96
21 98
22 23
22 24
22 27
22 32
22 34
22 36
22 37
22 40
22 42
22 44
22 45
22 46
22 48
22 49
22 52
22 54
22 55
22 57
22 58
22 60
22 61
22 62
22 63
22 65
22 66
22 67
22 69
22 70
22 71
22 74
22 78
22 79
22 82
22 83
22 85
22 88
22 90
22 91
22 92
23 25
23 30
23 38
23 39
23 41
23 45
23 49
23 50
23 53
23 54
23 55
23 56
23 58
23 59
23 67
23 70
23 71
23 72
23 73
23 75
23 80
23 84
23 87
23 89
23 90
23 92
23 93
23 94
23 97
23 99
24 25
24 27
24 29
24 32
24 33
24 34
24 35
24 36
24 37
24 40
24 43
24 47
24 48
24 49
24 50
24 51
24 52
24 55
24 56
24 57
24 58
24 60
24 64
24 65
24 70
24 71
24 72
24 73
24 74
24 76
24 77
24 80
24 82
24 83
24 87
24 88
24 89
24 93
24 94
24 95
24 99
25 28
25 30
25 32
25 34
25 36
25 37
25 38
25 39
25 40
25 42
25 43
25 44
25 45
25 46
25 47
25 48
25 50
25 53
25 54
25 55
25 57
25 58
25 60
25 63
25 64
25 65
25 66
25 68
25 71
25 74
25 78
25 79
25 80
25 87
25 89
25 91
25 92
25 95
25 96
25 97
26 28
26 30
26 31
26 32
26 33
26 34
26 35
26 36
26 39
26 40
26 41
26 44
26 45
26 46
26 47
26 48
26 52
26 53
26 54
26 55
26 57
26 59
26 60
26 62
26 63
26 65
26 67
26 70
26 72
26 73
26 75
26 76
26 79
26 80
26 81
26 83
26 85
26 88
26 89
26 95
26 96
26 98
27 30
27 31
27 36
27 37
27 38
27 40
27 42
27 44
27 49
27 52
27 53
27 57
27 59
27 60
27 61
27 63
27 65
27 66
27 68
27 70
27 71
27 72
27 73
27 74
27 75
27 76
27 77
27 81
27 86
27 87
27 89
27 90
27 95
27 96
28 35
28 36
28 37
28 40
28 41
28 42
28 43
28 50
28 52
28 53
28 54
28 56
28 59
28 62
28 63
28 64
28 65
28 68
28 69
28 72
28 74
28 76
28 77
28 78
28 82
28 88
28 89
28 90
28 92
28 93
28 94
28 95
28 98
28 99
29 30
29 31
29 32
29 33
29 34
29 36
29 39
29 41
29 42
29 43
29 44
29 46
29 48
29 49
29 51
29 52
29 53
29 58
29 59
29 62
29 63
29 65
29 66
29 67
29 69
29 70
29 71
29 75
29 78
29 81
29 82
29 83
29 85
29 86
29 89
29 90
29 94
29 96
29 97
29 99
30 31
30 32
30 37
30 38
30 39
30 46
30 48
30 50
30 51
30 53
30 55
30 56
30 57
30 58
30 60
30 62
30 63
30 64
30 65
30 66
30 71
30 72
30 75
30 76
30 77
30 80
30 81
30 82
30 83
30 84
30 86
30 87
30 90
30 92
30 93
30 95
30 99
31 32
31 33
31 35
31 36
31 42
31 43
31 45
31 50
31 53
31 54
31 55
31 56
31 57
31 58
31 59
31 65
31 67
31 68
31 69
31 71
31 72
31 75
31 76
31 78
31 79
31 81
31 82
31 83
31 86
31 87
31 89
31 91
31 93
31 97
31 98
31 99
32 35
32 38
32 39
32 40
32 42
32 43
32 44
32 45
32 49
32 53
32 55
32 56
32 57
32 61
32 62
32 63
32 66
32 67
32 69
32 70
32 73
32 75
32 79
32 81
32 82
32 83
32 90
32 91
32 96
32 97
32 99
33 35
33 36
33 37
33 42
33 46
33 48
33 49
33 51
33 53
33 54
33 55
33 58
33 64
33 65
33 66
33 67
33 70
33 71
33 73
33 77
33 79
33 80
33 81
33 82
33 87
33 88
33 89
33 92
33 94
33 95
33 97
33 98
34 35
34 36
34 37
34 38
34 40
34 41
34 42
34 43
34 45
34 51
34 52
34 53
34 54
34 55
34 59
34 61
34 62
34 64
34 65
34 67
34 69
34 72
34 74
34 75
34 77
34 78
34 79
34 80
34 82
34 83
34 84
34 86
34 87
34 88
34 89
34 92
34 93
34 98
34 99
35 37
35 42
35 43
35 44
35 46
35 47
35 49
35 51
35 52
35 54
35 55
35 56
35 59
35 60
35 61
35 64
35 65
35 66
35 67
35 69
35 71
35 74
35 76
35 77
35 78
35 82
35 83
35 88
35 89
35 91
35 92
35 93
35 94
35 95
35 96
35 98
36 37
36 40
36 42
36 43
36 46
36 48
36 52
36 53
36 57
36 59
36 60
36 64
36 65
36 66
36 67
36 72
36 75
36 77
36 78
36 82
36 83
36 85
36 86
36 87
36 88
36 93
36 95
36 97
36 99
37 40
37 42
37 48
37 50
37 51
37 52
37 53
37 55
37 56
37 59
37 64
37 65
37 66
37 67
37 70
37 71
37 73
37 74
37 76
37 78
37 80
37 82
37 83
37 84
37 85
37 94
37 96
37 97
37 98
37 99
38 79
38 66
38 73
38 87
38 98
38 80
38 84
38 85
38 88
38 90
38 95
38 97
38 99
38 81
38 41
38 44
38 82
38 46
38 76
38 49
38 50
38 51
38 52
38 89
38 60
38 63
39 64
39 65
39 66
39 72
39 81
39 67
39 90
39 91
39 68
39 80
39 99
39 40
39 43
39 45
39 93
39 49
39 94
39 51
39 53
39 89
39 58
39 60
39 61
40 42
40 44
40 45
40 46
40 47
40 50
40 51
40 52
40 55
40 59
40 61
40 62
40 64
40 65
40 66
40 67
40 69
40 78
40 79
40 80
40 82
40 87
40 88
40 90
40 97
40 99
41 45
41 48
41 49
41 50
41 51
41 52
41 53
41 54
41 55
41 57
41 58
41 59
41 60
41 61
41 62
41 63
41 67
41 70
41 71
41 76
41 79
41 81
41 83
41 87
41 91
41 92
41 93
41 94
41 96
42 45
42 46
42 47
42 50
42 51
42 52
42 54
42 56
42 59
42 61
42 66
42 69
42 72
42 75
42 77
42 79
42 81
42 83
42 84
42 85
42 86
42 88
42 90
42 97
42 98
42 99
43 64
43 65
43 72
43 73
43 74
43 86
43 90
43 79
43 80
43 84
43 92
43 46
43 48
43 99
43 55
43 57
43 85
44 64
44 69
44 77
44 78
44 85
44 88
44 94
44 79
44 97
44 90
44 95
44 71
44 82
44 47
44 72
44 50
44 51
44 55
44 57
44 91
44 74
44 62
44 65
45 49
45 51
45 52
45 53
45 54
45 56
45 58
45 63
45 64
45 65
45 69
45 71
45 73
45 74
45 75
45 78
45 81
45 83
45 84
45 86
45 88
45 89
45 92
45 94
45 96
45 97
45 99
46 49
46 51
46 52
46 53
46 54
46 57
46 58
46 60
46 64
46 65
46 68
46 69
46 72
46 73
46 75
46 76
46 77
46 78
46 80
46 82
46 83
46 86
46 90
46 91
46 92
46 96
46 97
46 98
47 50
47 55
47 56
47 57
47 58
47 59
47 63
47 64
47 65
47 66
47 67
47 68
47 74
47 75
47 83
47 84
47 85
47 87
47 88
47 90
47 92
47 93
47 95
47 96
47 97
47 98
47 99
48 51
48 52
48 55
48 56
48 57
48 59
48 60
48 61
48 63
48 71
48 73
48 74
48 78
48 79
48 80
48 84
48 87
48 90
48 92
48 93
48 95
48 96
48 97
49 51
49 52
49 53
49 54
49 55
49 56
49 60
49 61
49 62
49 63
49 64
49 65
49 66
49 67
49 68
49 70
49 71
49 72
49 73
49 78
49 79
49 81
49 82
49 84
49 86
49 87
49 88
49 89
49 90
49 91
49 92
49 94
49 96
49 98
50 51
50 52
50 56
50 58
50 59
50 62
50 63
50 64
50 66
50 69
50 76
50 78
50 80
50 83
50 85
50 86
50 88
50 89
50 93
50 95
50 96
50 97
50 99
51 53
51 54
51 55
51 56
51 57
51 59
51 63
51 64
51 70
51 71
51 72
51 73
51 74
51 77
51 80
51 81
51 83
51 85
51 91
51 95
51 97
51 99
52 54
52 56
52 58
52 61
52 63
52 66
52 68
52 71
52 72
52 74
52 77
52 78
52 80
52 82
52 83
52 88
52 89
52 91
52 97
52 98
52 99
53 55
53 57
53 60
53 62
53 64
53 65
53 66
53 67
53 70
53 73
53 76
53 78
53 81
53 84
53 86
53 87
53 92
53 96
54 59
54 61
54 64
54 65
54 66
54 68
54 69
54 71
54 72
54 73
54 74
54 75
54 77
54 78
54 79
54 80
54 81
54 82
54 83
54 84
54 86
54 87
54 89
54 92
54 99
55 56
55 57
55 58
55 60
55 63
55 66
55 67
55 70
55 72
55 73
55 74
55 76
55 77
55 79
55 80
55 81
55 84
55 86
55 88
55 91
55 92
55 96
55 98
56 57
56 58
56 61
56 62
56 65
56 69
56 72
56 73
56 75
56 76
56 77
56 78
56 79
56 80
56 81
56 83
56 85
56 87
56 91
56 95
56 96
56 99
57 59
57 65
57 66
57 69
57 70
57 72
57 74
57 76
57 78
57 79
57 80
57 81
57 82
57 84
57 88
57 92
58 59
58 62
58 64
58 65
58 66
58 67
58 68
58 69
58 70
58 78
58 79
58 82
58 83
58 84
58 85
58 86
58 87
58 88
58 94
58 99
59 62
59 63
59 64
59 66
59 67
59 70
59 73
59 75
59 77
59 79
59 80
59 81
59 83
59 86
59 87
59 88
59 92
59 93
59 95
59 96
60 61
60 68
60 69
60 77
60 78
60 80
60 83
60 84
60 85
60 86
60 87
60 89
60 91
60 93
60 94
60 95
60 97
60 98
60 99
61 86
61 70
61 65
61 73
61 78
61 81
61 67
61 68
61 93
61 95
61 80
61 71
61 82
61 91
61 99
61 72
62 65
62 67
62 69
62 70
62 74
62 75
62 76
62 77
62 78
62 80
62 81
62 82
62 83
62 84
62 89
62 90
62 92
62 93
62 97
63 67
63 69
63 70
63 71
63 72
63 75
63 77
63 79
63 81
63 82
63 83
63 86
63 88
63 89
63 90
63 93
63 99
64 65
64 66
64 67
64 69
64 72
64 74
64 78
64 79
64 84
64 85
64 87
64 89
64 90
64 92
64 93
64 95
64 96
64 97
65 66
65 69
65 71
65 73
65 74
65 75
65 76
65 77
65 78
65 84
65 88
65 91
65 92
65 93
65 94
65 95
66 71
66 74
66 75
66 76
66 80
66 81
66 82
66 83
66 89
66 93
66 94
66 95
66 97
66 98
66 99
67 68
67 69
67 70
67 71
67 72
67 80
67 81
67 84
67 86
67 91
67 95
67 97
67 99
68 70
68 80
68 81
68 84
68 85
68 86
68 87
68 93
68 97
68 98
68 91
68 92
68 71
68 89
68 73
68 72
69 72
69 74
69 75
69 78
69 79
69 82
69 83
69 86
69 90
69 94
69 95
69 97
70 72
70 74
70 75
70 76
70 82
70 83
70 84
70 86
70 87
70 89
70 92
70 93
70 96
70 97
70 99
71 77
71 78
71 82
71 86
71 88
71 89
71 90
71 91
71 92
71 94
71 99
72 78
72 80
72 85
72 87
72 89
72 90
72 91
72 94
72 96
72 98
72 99
73 74
73 75
73 78
73 82
73 83
73 85
73 86
73 87
73 88
73 91
73 93
73 94
73 95
73 99
74 78
74 82
74 83
74 91
74 94
74 95
74 96
74 98
74 99
75 76
75 78
75 79
75 80
75 82
75 90
75 94
75 95
75 96
75 97
75 98
75 99
76 78
76 79
76 81
76 82
76 83
76 84
76 85
76 86
76 87
76 88
76 90
76 91
76 93
76 94
76 95
76 96
76 98
77 78
77 80
77 81
77 82
77 83
77 85
77 88
77 89
77 91
77 93
77 94
77 95
77 97
77 99
78 79
78 80
78 83
78 87
78 88
78 90
78 91
78 92
78 94
78 96
78 97
78 98
78 99
79 86
79 87
79 88
79 95
79 97
79 98
80 81
80 82
80 84
80 88
80 91
80 93
80 94
80 96
80 98
81 89
81 90
81 93
81 95
81 97
81 99
82 84
82 85
82 86
82 88
82 90
82 93
82 96
83 84
83 86
83 88
83 90
83 91
83 94
83 96
84 85
84 87
84 88
84 89
84 90
84 93
84 94
84 95
84 97
84 99
85 99
85 88
85 89
85 92
85 95
85 96
85 90
86 87
86 88
86 90
86 91
86 92
86 95
86 96
86 97
86 98
86 99
87 88
87 89
87 92
87 93
87 94
87 95
87 97
87 99
88 90
88 91
88 93
88 95
88 96
88 97
88 98
89 92
89 94
89 95
89 97
89 98
89 99
90 93
90 94
90 97
90 98
90 99
91 94
91 96
91 97
91 98
91 99
92 94
92 95
92 96
92 97
93 94
93 95
93 97
93 98
93 99
94 95
94 96
94 99
95 96
95 97
95 99
96 98
97 98
97 99
