100
109 292
203 210
244 246
279 213
294 54
111 298
194 196
234 27
22 191
60 176
167 189
219 9
231 93
203 177
248 10
156 41
173 56
134 157
61 182
109 218
12 87
209 227
139 269
16 15
4 281
248 99
84 181
44 292
161 92
161 298
183 240
198 206
196 50
144 170
74 198
241 212
97 9
95 127
48 108
181 200
39 282
130 228
261 82
222 265
23 115
124 276
239 242
289 52
129 234
82 2
129 30
295 247
71 147
245 45
58 300
131 300
231 257
127 199
125 168
153 221
10 247
158 158
200 99
278 60
133 36
28 20
111 107
41 40
228 261
132 239
53 95
274 177
243 178
279 246
175 102
121 189
142 243
25 124
222 50
290 59
144 278
45 174
73 20
274 115
131 108
146 282
206 30
98 18
292 191
150 126
9 219
254 23
45 89
230 227
283 231
159 176
172 67
141 241
48 77
186 20
0 2
0 4
0 5
0 6
0 7
0 10
0 11
0 12
0 14
0 15
0 17
0 20
0 25
0 29
0 30
0 33
0 34
0 35
0 37
0 40
0 42
0 44
0 46
0 48
0 50
0 52
0 53
0 54
0 57
0 60
0 65
0 67
0 72
0 73
0 74
0 75
0 76
0 77
0 79
0 82
0 83
0 84
0 86
0 87
0 89
0 90
0 91
0 92
0 94
0 95
0 97
0 98
0 99
1 2
1 3
1 4
1 5
1 6
1 7
1 8
1 10
1 12
1 16
1 17
1 18
1 20
1 21
1 22
1 23
1 24
1 26
1 31
1 32
1 33
1 35
1 36
1 37
1 39
1 40
1 42
1 45
1 47
1 49
1 50
1 53
1 54
1 55
1 58
1 60
1 62
1 64
1 65
1 66
1 68
1 69
1 71
1 75
1 76
1 78
1 79
1 82
1 83
1 84
1 85
1 86
1 87
1 88
1 96
2 4
2 5
2 8
2 11
2 16
2 19
2 20
2 23
2 24
2 25
2 26
2 28
2 32
2 33
2 35
2 36
2 37
2 38
2 39
2 42
2 43
2 46
2 48
2 49
2 53
2 55
2 57
2 58
2 61
2 64
2 68
2 71
2 72
2 75
2 78
2 79
2 81
2 82
2 87
2 89
2 91
2 92
2 93
2 95
2 96
2 98
2 99
3 64
3 67
3 68
3 86
3 70
3 97
3 72
3 9
3 74
3 87
3 12
3 98
3 15
3 16
3 17
3 82
3 22
3 23
3 26
3 79
3 90
3 80
3 34
3 91
3 38
3 39
3 40
3 41
3 42
3 43
3 45
3 93
3 48
3 49
3 50
3 51
3 54
3 73
3 57
3 59
4 7
4 8
4 10
4 11
4 17
4 19
4 20
4 22
4 25
4 26
4 27
4 29
4 30
4 32
4 33
4 36
4 37
4 40
4 43
4 53
4 54
4 58
4 60
4 64
4 66
4 68
4 69
4 70
4 71
4 75
4 76
4 78
4 80
4 81
4 87
4 88
4 89
4 90
4 93
4 95
4 96
4 97
4 98
4 99
5 6
5 7
5 15
5 16
5 17
5 19
5 21
5 22
5 24
5 27
5 29
5 31
5 34
5 38
5 39
5 41
5 42
5 43
5 44
5 45
5 46
5 48
5 49
5 51
5 52
5 53
5 54
5 57
5 59
5 60
5 62
5 64
5 65
5 66
5 68
5 70
5 71
5 72
5 73
5 77
5 78
5 81
5 82
5 83
5 87
5 88
5 90
5 93
5 95
5 97
5 98
6 9
6 12
6 13
6 14
6 17
6 20
6 21
6 23
6 30
6 31
6 34
6 35
6 40
6 45
6 48
6 51
6 52
6 53
6 54
6 55
6 56
6 57
6 58
6 62
6 63
6 64
6 65
6 66
6 70
6 71
6 72
6 74
6 77
6 78
6 79
6 81
6 85
6 87
6 88
6 91
6 92
6 94
6 95
6 96
6 97
6 98
6 99
7 9
7 11
7 12
7 13
7 14
7 15
7 17
7 19
7 23
7 27
7 28
7 29
7 30
7 31
7 35
7 37
7 38
7 39
7 40
7 44
7 47
7 48
7 49
7 50
7 51
7 52
7 53
7 54
7 55
7 56
7 57
7 58
7 59
7 60
7 62
7 64
7 67
7 71
7 73
7 75
7 76
7 78
7 84
7 87
7 90
7 92
7 95
8 9
8 12
8 13
8 14
8 15
8 22
8 23
8 24
8 25
8 26
8 27
8 35
8 36
8 37
8 41
8 42
8 45
8 47
8 50
8 53
8 57
8 60
8 61
8 63
8 64
8 68
8 70
8 72
8 73
8 78
8 80
8 81
8 82
8 84
8 86
8 87
8 88
8 89
8 90
8 91
8 94
8 98
8 99
9 10
9 11
9 12
9 13
9 15
9 16
9 17
9 20
9 25
9 26
9 27
9 28
9 30
9 31
9 33
9 34
9 42
9 43
9 45
9 48
9 50
9 53
9 55
9 60
9 63
9 66
9 67
9 68
9 70
9 76
9 77
9 78
9 79
9 83
9 85
9 87
9 90
9 91
9 92
9 93
9 94
9 96
9 97
10 13
10 14
10 16
10 18
10 19
10 21
10 22
10 23
10 29
10 32
10 35
10 36
10 42
10 44
10 45
10 46
10 47
10 48
10 50
10 52
10 54
10 55
10 56
10 57
10 58
10 61
10 62
10 64
10 72
10 75
10 76
10 78
10 81
10 83
10 84
10 85
10 89
10 90
10 91
10 92
10 93
10 94
10 95
10 96
10 97
10 98
10 99
11 14
11 15
11 16
11 19
11 25
11 26
11 29
11 33
11 34
11 36
11 38
11 39
11 40
11 41
11 48
11 49
11 54
11 55
11 57
11 58
11 62
11 64
11 66
11 68
11 69
11 70
11 71
11 72
11 73
11 76
11 77
11 79
11 80
11 82
11 84
11 85
11 86
11 87
11 90
11 92
11 93
11 97
12 13
12 14
12 15
12 18
12 21
12 25
12 27
12 28
12 29
12 30
12 32
12 34
12 35
12 36
12 37
12 38
12 39
12 40
12 42
12 43
12 44
12 48
12 49
12 50
12 51
12 52
12 53
12 55
12 57
12 60
12 62
12 63
12 64
12 65
12 67
12 68
12 69
12 73
12 76
12 78
12 79
12 81
12 82
12 84
12 87
12 88
12 89
12 91
12 93
12 94
12 96
13 15
13 17
13 18
13 19
13 20
13 22
13 23
13 24
13 26
13 31
13 34
13 35
13 36
13 37
13 38
13 39
13 40
13 42
13 48
13 52
13 53
13 54
13 55
13 56
13 57
13 61
13 62
13 63
13 65
13 67
13 70
13 71
13 73
13 77
13 78
13 79
13 82
13 84
13 85
13 86
13 88
13 89
13 93
13 94
13 95
13 97
13 98
14 17
14 18
14 21
14 22
14 23
14 24
14 27
14 29
14 30
14 31
14 32
14 33
14 35
14 38
14 41
14 43
14 44
14 45
14 46
14 47
14 48
14 49
14 50
14 52
14 53
14 54
14 55
14 57
14 59
14 60
14 61
14 65
14 66
14 67
14 68
14 69
14 72
14 73
14 75
14 76
14 77
14 79
14 81
14 84
14 85
14 86
14 90
14 91
14 92
14 94
14 95
14 97
14 98
15 16
15 18
15 19
15 20
15 22
15 23
15 25
15 27
15 29
15 30
15 31
15 33
15 34
15 36
15 37
15 41
15 46
15 49
15 52
15 53
15 55
15 56
15 58
15 62
15 63
15 64
15 67
15 68
15 70
15 71
15 72
15 77
15 78
15 79
15 80
15 82
15 84
15 86
15 88
15 89
15 90
15 91
15 96
15 97
15 98
16 18
16 20
16 23
16 26
16 31
16 35
16 36
16 37
16 38
16 39
16 41
16 43
16 44
16 47
16 48
16 49
16 51
16 53
16 55
16 58
16 59
16 60
16 61
16 63
16 65
16 71
16 73
16 74
16 77
16 82
16 83
16 84
16 85
16 88
16 89
16 90
16 94
16 96
16 98
17 19
17 20
17 21
17 22
17 23
17 24
17 25
17 26
17 28
17 29
17 30
17 31
17 34
17 39
17 44
17 45
17 46
17 48
17 50
17 53
17 57
17 63
17 64
17 66
17 67
17 71
17 74
17 75
17 76
17 81
17 82
17 84
17 86
17 89
17 91
17 92
17 94
17 98
17 99
18 19
18 24
18 25
18 26
18 29
18 31
18 33
18 34
18 38
18 40
18 42
18 43
18 45
18 48
18 52
18 53
18 54
18 56
18 57
18 59
18 61
18 63
18 64
18 65
18 66
18 68
18 74
18 77
18 79
18 80
18 82
18 84
18 90
18 95
18 97
18 98
18 99
19 21
19 24
19 26
19 30
19 31
19 32
19 33
19 36
19 37
19 39
19 40
19 44
19 45
19 47
19 48
19 49
19 53
19 59
19 61
19 63
19 64
19 66
19 68
19 69
19 72
19 77
19 80
19 81
19 82
19 83
19 85
19 86
19 87
19 88
19 90
19 92
19 93
19 94
19 95
19 97
20 21
20 23
20 24
20 25
20 28
20 29
20 31
20 34
20 36
20 37
20 43
20 45
20 48
20 49
20 51
20 52
20 54
20 55
20 56
20 57
20 58
20 62
20 63
20 66
20 67
20 73
20 77
20 80
20 81
20 82
20 83
20 84
20 90
20 91
20 92
20 93
20 97
20 98
21 22
21 23
21 26
21 29
21 32
21 36
21 37
21 39
21 40
21 42
21 43
21 47
21 48
21 50
21 52
21 54
21 56
21 57
21 58
21 60
21 61
21 64
21 65
21 66
21 67
21 68
21 69
21 70
21 72
21 73
21 74
21 78
21 83
21 88
21 90
21 91
21 94
21 95
21 96
21 98
22 24
22 25
22 26
22 32
22 35
22 37
22 38
22 39
22 40
22 42
22 44
22 45
22 46
22 47
22 49
22 51
22 52
22 55
22 56
22 58
22 59
22 60
22 61
22 64
22 66
22 68
22 70
22 71
22 73
22 74
22 75
22 78
22 80
22 81
22 83
22 84
22 88
22 89
22 90
22 91
22 96
22 98
22 99
23 25
23 27
23 35
23 37
23 38
23 41
23 42
23 44
23 48
23 50
23 52
23 53
23 54
23 55
23 56
23 59
23 60
23 62
23 66
23 69
23 70
23 75
23 79
23 80
23 81
23 82
23 85
23 93
23 94
23 95
23 96
23 98
23 99
24 25
24 27
24 28
24 29
24 31
24 33
24 34
24 37
24 38
24 39
24 42
24 45
24 47
24 51
24 53
24 54
24 56
24 57
24 58
24 60
24 61
24 63
24 64
24 65
24 67
24 68
24 69
24 70
24 71
24 74
24 75
24 76
24 78
24 83
24 84
24 87
24 89
24 91
24 93
24 94
24 95
24 99
25 26
25 28
25 29
25 32
25 33
25 35
25 36
25 37
25 38
25 40
25 41
25 47
25 48
25 56
25 57
25 58
25 60
25 61
25 62
25 64
25 65
25 66
25 68
25 69
25 70
25 71
25 72
25 73
25 83
25 85
25 86
25 87
25 88
25 90
25 92
25 96
25 98
26 27
26 28
26 29
26 31
26 32
26 33
26 34
26 36
26 39
26 40
26 41
26 44
26 45
26 46
26 48
26 49
26 54
26 55
26 56
26 57
26 60
26 62
26 63
26 67
26 69
26 70
26 72
26 74
26 77
26 79
26 83
26 85
26 88
26 90
26 91
26 92
26 94
26 95
26 96
26 99
27 30
27 31
27 34
27 38
27 39
27 40
27 41
27 43
27 44
27 45
27 46
27 48
27 49
27 51
27 54
27 55
27 56
27 57
27 60
27 61
27 62
27 64
27 69
27 70
27 73
27 79
27 80
27 81
27 82
27 83
27 87
27 89
27 90
27 93
27 96
28 65
28 72
28 75
28 98
28 89
28 80
28 85
28 86
28 88
28 91
28 92
28 29
28 30
28 32
28 84
28 34
28 99
28 36
28 38
28 42
28 43
28 44
28 45
28 96
28 93
28 51
28 53
28 54
28 73
28 56
28 57
28 60
28 62
28 63
29 33
29 34
29 36
29 37
29 39
29 40
29 41
29 42
29 44
29 45
29 49
29 52
29 53
29 55
29 61
29 62
29 63
29 64
29 65
29 66
29 68
29 69
29 71
29 73
29 75
29 76
29 77
29 81
29 82
29 83
29 87
29 89
29 90
29 91
29 92
29 94
29 97
29 99
30 32
30 34
30 35
30 37
30 38
30 39
30 40
30 42
30 47
30 49
30 51
30 52
30 54
30 55
30 56
30 57
30 58
30 60
30 63
30 64
30 67
30 68
30 70
30 71
30 72
30 73
30 74
30 76
30 79
30 83
30 86
30 88
30 89
30 95
30 96
30 97
31 32
31 37
31 39
31 42
31 45
31 49
31 51
31 52
31 53
31 56
31 58
31 59
31 60
31 64
31 65
31 69
31 70
31 71
31 72
31 75
31 76
31 78
31 79
31 81
31 83
31 84
31 85
31 86
31 89
31 93
31 96
31 97
31 99
32 34
32 37
32 38
32 39
32 40
32 41
32 43
32 46
32 47
32 50
32 51
32 52
32 55
32 56
32 57
32 58
32 59
32 60
32 64
32 66
32 69
32 70
32 71
32 72
32 73
32 75
32 76
32 77
32 78
32 81
32 82
32 83
32 84
32 85
32 87
32 88
32 90
32 92
32 93
32 94
32 95
32 97
32 98
33 69
33 65
33 74
33 98
33 80
33 90
33 73
33 91
33 92
33 94
33 95
33 96
33 34
33 35
33 37
33 38
33 40
33 42
33 45
33 47
33 83
33 52
33 53
33 55
33 58
33 59
33 60
33 61
33 62
34 35
34 37
34 40
34 44
34 46
34 47
34 52
34 54
34 56
34 57
34 58
34 59
34 61
34 62
34 63
34 64
34 70
34 72
34 73
34 74
34 75
34 77
34 79
34 80
34 82
34 83
34 84
34 85
34 86
34 87
34 88
34 90
34 94
34 95
34 98
35 36
35 38
35 39
35 42
35 44
35 45
35 46
35 47
35 49
35 52
35 56
35 57
35 59
35 62
35 63
35 64
35 65
35 68
35 69
35 72
35 74
35 82
35 83
35 85
35 87
35 90
35 93
35 94
35 95
35 97
36 37
36 39
36 43
36 44
36 45
36 48
36 50
36 53
36 55
36 56
36 60
36 66
36 70
36 72
36 76
36 77
36 78
36 79
36 82
36 83
36 86
36 87
36 90
36 91
36 93
36 94
36 96
37 38
37 40
37 41
37 43
37 45
37 47
37 48
37 53
37 54
37 56
37 57
37 58
37 60
37 61
37 62
37 65
37 66
37 72
37 74
37 75
37 82
37 83
37 85
37 87
37 88
37 89
37 91
37 92
37 94
37 96
37 98
37 99
38 40
38 41
38 42
38 52
38 54
38 55
38 56
38 61
38 62
38 63
38 64
38 65
38 67
38 69
38 70
38 72
38 73
38 74
38 75
38 76
38 77
38 78
38 81
38 82
38 83
38 84
38 86
38 87
38 89
38 91
38 93
38 94
38 98
38 99
39 40
39 41
39 44
39 45
39 47
39 50
39 51
39 52
39 55
39 62
39 63
39 67
39 69
39 73
39 74
39 78
39 80
39 81
39 89
39 90
39 91
39 92
39 94
39 97
39 98
40 44
40 45
40 47
40 48
40 49
40 51
40 54
40 55
40 57
40 58
40 61
40 62
40 63
40 66
40 71
40 72
40 73
40 74
40 76
40 78
40 79
40 81
40 88
40 89
40 92
40 95
41 44
41 47
41 48
41 49
41 53
41 55
41 56
41 57
41 58
41 59
41 61
41 62
41 64
41 67
41 69
41 74
41 75
41 77
41 78
41 79
41 80
41 81
41 82
41 83
41 84
41 85
41 86
41 87
41 92
41 96
41 98
41 99
42 47
42 48
42 49
42 50
42 51
42 53
42 54
42 55
42 57
42 58
42 59
42 61
42 62
42 65
42 66
42 67
42 72
42 73
42 76
42 77
42 79
42 80
42 82
42 83
42 85
42 86
42 88
42 91
42 92
42 93
42 94
42 95
42 97
42 98
43 65
43 71
43 79
43 81
43 89
43 90
43 94
43 69
43 84
43 99
43 97
43 92
43 78
43 46
43 47
43 48
43 76
43 54
43 56
43 57
43 58
43 59
43 60
43 62
43 85
44 45
44 46
44 51
44 52
44 58
44 59
44 61
44 63
44 64
44 66
44 67
44 69
44 73
44 74
44 76
44 78
44 79
44 80
44 81
44 83
44 86
44 91
44 92
44 93
44 94
44 95
44 97
45 46
45 49
45 52
45 54
45 56
45 58
45 59
45 60
45 61
45 63
45 65
45 66
45 67
45 68
45 69
45 72
45 73
45 74
45 75
45 76
45 78
45 79
45 80
45 85
45 88
45 91
45 92
45 93
45 94
45 97
45 99
46 50
46 51
46 52
46 53
46 54
46 55
46 58
46 59
46 60
46 62
46 64
46 68
46 70
46 71
46 73
46 75
46 77
46 78
46 79
46 81
46 83
46 84
46 85
46 87
46 88
46 89
46 90
46 92
46 93
46 95
46 97
46 99
47 48
47 49
47 53
47 55
47 56
47 58
47 59
47 60
47 62
47 64
47 65
47 67
47 68
47 70
47 71
47 72
47 73
47 79
47 82
47 85
47 87
47 88
47 89
47 90
47 91
47 92
47 93
47 95
47 97
48 49
48 51
48 53
48 55
48 56
48 57
48 58
48 59
48 61
48 64
48 65
48 69
48 71
48 74
48 77
48 78
48 79
48 80
48 81
48 83
48 85
48 88
48 89
48 91
48 93
48 94
48 95
48 99
49 54
49 58
49 59
49 61
49 63
49 64
49 66
49 67
49 69
49 73
49 74
49 76
49 78
49 79
49 80
49 81
49 83
49 84
49 87
49 88
49 89
49 91
49 92
49 93
49 97
50 96
50 69
50 70
50 77
50 79
50 82
50 67
50 89
50 74
50 91
50 92
50 93
50 94
50 97
50 64
50 71
50 72
50 51
50 52
50 56
50 58
50 59
50 60
50 61
50 62
50 85
51 53
51 57
51 58
51 59
51 61
51 64
51 66
51 68
51 69
51 70
51 71
51 73
51 77
51 78
51 80
51 81
51 82
51 85
51 86
51 88
51 90
51 91
51 94
51 98
51 99
52 57
52 58
52 59
52 60
52 61
52 62
52 63
52 65
52 66
52 67
52 69
52 71
52 73
52 75
52 76
52 82
52 85
52 88
52 89
52 92
52 93
52 96
52 98
53 57
53 58
53 59
53 60
53 62
53 64
53 65
53 71
53 73
53 74
53 76
53 77
53 78
53 79
53 80
53 82
53 83
53 85
53 86
53 90
53 92
53 94
53 95
53 96
53 98
53 99
54 58
54 59
54 60
54 62
54 64
54 65
54 66
54 67
54 70
54 71
54 72
54 73
54 74
54 75
54 76
54 78
54 79
54 80
54 84
54 85
54 86
54 89
54 90
54 95
54 97
54 98
55 56
55 57
55 59
55 67
55 70
55 75
55 80
55 81
55 86
55 87
55 88
55 89
55 90
55 91
55 94
55 95
55 96
55 98
55 99
56 57
56 58
56 61
56 63
56 64
56 65
56 66
56 68
56 70
56 73
56 74
56 75
56 76
56 78
56 79
56 82
56 83
56 84
56 86
56 87
56 88
56 91
56 92
56 93
56 95
56 96
56 97
56 99
57 61
57 63
57 64
57 65
57 75
57 76
57 79
57 81
57 82
57 83
57 85
57 86
57 89
57 90
57 93
57 95
57 98
58 59
58 60
58 63
58 67
58 68
58 70
58 71
58 72
58 74
58 76
58 79
58 81
58 85
58 86
58 87
58 88
58 90
58 92
58 93
58 95
58 97
58 98
58 99
59 60
59 62
59 63
59 66
59 67
59 68
59 69
59 71
59 73
59 74
59 76
59 77
59 78
59 79
59 80
59 81
59 87
59 90
59 91
59 92
59 99
60 61
60 63
60 64
60 67
60 70
60 72
60 73
60 75
60 76
60 77
60 79
60 81
60 84
60 85
60 87
60 89
60 90
60 91
60 98
61 62
61 65
61 67
61 71
61 72
61 77
61 78
61 80
61 82
61 83
61 86
61 88
61 90
61 91
61 94
61 95
61 99
62 67
62 68
62 72
62 75
62 76
62 77
62 78
62 80
62 81
62 85
62 92
62 93
62 94
62 98
63 66
63 68
63 69
63 71
63 72
63 73
63 75
63 76
63 78
63 80
63 83
63 86
63 90
63 93
63 94
63 96
63 97
64 65
64 66
64 67
64 70
64 72
64 74
64 75
64 76
64 77
64 80
64 83
64 84
64 85
64 87
64 88
64 89
64 90
64 94
64 96
64 98
64 99
65 66
65 70
65 71
65 75
65 84
65 86
65 88
65 90
65 91
65 92
65 93
65 95
65 99
66 67
66 68
66 69
66 71
66 73
66 76
66 77
66 78
66 80
66 82
66 83
66 88
66 90
66 92
66 93
66 96
66 98
66 99
67 68
67 70
67 74
67 76
67 79
67 80
67 81
67 82
67 84
67 88
67 89
67 90
67 91
67 95
67 96
68 70
68 71
68 74
68 75
68 76
68 77
68 78
68 80
68 81
68 85
68 86
68 87
68 88
68 89
68 90
68 92
68 94
68 95
68 96
68 97
68 98
68 99
69 70
69 71
69 73
69 75
69 76
69 77
69 79
69 80
69 83
69 84
69 85
69 86
69 87
69 88
69 90
69 93
69 94
69 96
69 99
70 74
70 79
70 80
70 81
70 82
70 85
70 86
70 92
70 93
70 94
70 95
70 98
70 99
71 73
71 75
71 76
71 78
71 79
71 80
71 81
71 82
71 83
71 84
71 85
71 87
71 89
71 91
71 92
71 93
71 94
71 95
71 96
71 97
71 98
71 99
72 74
72 75
72 78
72 80
72 81
72 83
72 84
72 85
72 86
72 87
72 89
72 91
72 94
72 95
72 98
72 99
73 76
73 81
73 82
73 83
73 86
73 88
73 89
73 94
73 96
73 98
74 77
74 78
74 82
74 84
74 87
74 90
74 91
74 94
74 95
74 96
74 99
75 77
75 79
75 82
75 87
75 89
75 91
75 92
75 95
75 97
76 77
76 81
76 86
76 87
76 91
76 92
76 95
76 98
77 78
77 81
77 84
77 85
77 87
77 88
77 89
77 91
77 92
77 94
77 96
77 97
77 98
77 99
78 79
78 80
78 81
78 82
78 84
78 85
78 88
78 90
78 91
78 92
78 93
78 95
79 80
79 81
79 82
79 83
79 88
79 91
79 93
79 95
79 96
79 97
79 98
79 99
80 81
80 82
80 83
80 88
80 90
80 91
80 92
80 97
80 98
80 99
81 82
81 86
81 87
81 90
81 93
81 95
81 96
81 97
81 99
82 83
82 85
82 86
82 87
82 88
82 89
82 91
82 93
82 94
82 95
82 97
82 98
83 85
83 86
83 87
83 89
83 91
83 93
83 94
83 96
83 97
83 99
84 87
84 90
84 92
84 94
84 96
84 97
84 99
85 87
85 91
85 92
85 93
85 95
85 96
85 97
86 89
86 91
86 92
86 97
86 98
87 89
87 90
87 92
87 93
87 94
87 95
87 98
87 99
88 89
88 90
88 91
88 93
88 94
88 95
88 96
88 97
88 99
89 90
89 91
89 97
89 98
89 99
90 93
90 94
91 93
91 96
91 98
92 98
92 99
93 94
93 96
93 97
94 95
94 96
94 97
94 98
94 99
95 96
95 97
95 99
96 97
96 98
97 98
97 99
