graph {
		0 -- 1
		0 -- 5
		0 -- 6
		0 -- 8
		0 -- 10
		0 -- 14
		0 -- 15
		0 -- 16
		0 -- 17
		0 -- 20
		0 -- 24
		0 -- 27
		0 -- 30
		0 -- 35
		0 -- 36
		0 -- 37
		0 -- 38
		0 -- 39
		0 -- 40
		0 -- 42
		0 -- 44
		0 -- 47
		0 -- 48
		0 -- 49
		0 -- 50
		0 -- 51
		0 -- 52
		0 -- 54
		0 -- 55
		0 -- 56
		0 -- 57
		0 -- 58
		0 -- 63
		0 -- 66
		0 -- 67
		0 -- 69
		0 -- 72
		0 -- 75
		0 -- 76
		0 -- 77
		0 -- 78
		0 -- 83
		0 -- 86
		0 -- 88
		0 -- 90
		0 -- 92
		0 -- 93
		0 -- 94
		0 -- 95
		0 -- 96
		0 -- 97
		0 -- 98
		0 -- 99
		1 -- 4
		1 -- 9
		1 -- 10
		1 -- 11
		1 -- 12
		1 -- 13
		1 -- 14
		1 -- 17
		1 -- 18
		1 -- 19
		1 -- 20
		1 -- 21
		1 -- 24
		1 -- 28
		1 -- 29
		1 -- 30
		1 -- 32
		1 -- 33
		1 -- 34
		1 -- 35
		1 -- 36
		1 -- 37
		1 -- 38
		1 -- 39
		1 -- 40
		1 -- 41
		1 -- 46
		1 -- 51
		1 -- 54
		1 -- 55
		1 -- 56
		1 -- 59
		1 -- 60
		1 -- 61
		1 -- 63
		1 -- 65
		1 -- 66
		1 -- 70
		1 -- 71
		1 -- 75
		1 -- 76
		1 -- 77
		1 -- 79
		1 -- 80
		1 -- 81
		1 -- 82
		1 -- 85
		1 -- 88
		1 -- 89
		1 -- 91
		1 -- 92
		1 -- 96
		1 -- 98
		2 -- 5
		2 -- 6
		2 -- 7
		2 -- 8
		2 -- 10
		2 -- 11
		2 -- 13
		2 -- 17
		2 -- 19
		2 -- 22
		2 -- 23
		2 -- 25
		2 -- 26
		2 -- 30
		2 -- 31
		2 -- 32
		2 -- 37
		2 -- 38
		2 -- 43
		2 -- 46
		2 -- 50
		2 -- 51
		2 -- 52
		2 -- 53
		2 -- 54
		2 -- 56
		2 -- 57
		2 -- 60
		2 -- 63
		2 -- 64
		2 -- 68
		2 -- 70
		2 -- 71
		2 -- 72
		2 -- 73
		2 -- 74
		2 -- 76
		2 -- 77
		2 -- 85
		2 -- 86
		2 -- 88
		2 -- 90
		2 -- 94
		2 -- 96
		2 -- 97
		2 -- 99
		3 -- 64
		3 -- 67
		3 -- 4
		3 -- 5
		3 -- 70
		3 -- 8
		3 -- 73
		3 -- 10
		3 -- 75
		3 -- 13
		3 -- 14
		3 -- 77
		3 -- 80
		3 -- 18
		3 -- 20
		3 -- 78
		3 -- 88
		3 -- 89
		3 -- 98
		3 -- 27
		3 -- 92
		3 -- 93
		3 -- 30
		3 -- 69
		3 -- 97
		3 -- 34
		3 -- 91
		3 -- 39
		3 -- 95
		3 -- 44
		3 -- 46
		3 -- 47
		3 -- 72
		3 -- 50
		3 -- 52
		3 -- 53
		3 -- 54
		3 -- 56
		3 -- 59
		3 -- 60
		3 -- 74
		3 -- 63
		4 -- 5
		4 -- 6
		4 -- 8
		4 -- 12
		4 -- 16
		4 -- 17
		4 -- 18
		4 -- 20
		4 -- 21
		4 -- 24
		4 -- 25
		4 -- 26
		4 -- 27
		4 -- 32
		4 -- 34
		4 -- 37
		4 -- 39
		4 -- 41
		4 -- 42
		4 -- 43
		4 -- 51
		4 -- 52
		4 -- 53
		4 -- 54
		4 -- 55
		4 -- 59
		4 -- 65
		4 -- 66
		4 -- 67
		4 -- 68
		4 -- 69
		4 -- 70
		4 -- 71
		4 -- 74
		4 -- 75
		4 -- 76
		4 -- 79
		4 -- 81
		4 -- 82
		4 -- 84
		4 -- 90
		4 -- 97
		4 -- 98
		5 -- 6
		5 -- 8
		5 -- 9
		5 -- 11
		5 -- 12
		5 -- 13
		5 -- 16
		5 -- 18
		5 -- 22
		5 -- 23
		5 -- 24
		5 -- 29
		5 -- 33
		5 -- 34
		5 -- 35
		5 -- 36
		5 -- 38
		5 -- 39
		5 -- 41
		5 -- 44
		5 -- 46
		5 -- 47
		5 -- 48
		5 -- 51
		5 -- 56
		5 -- 58
		5 -- 59
		5 -- 60
		5 -- 63
		5 -- 65
		5 -- 67
		5 -- 69
		5 -- 73
		5 -- 74
		5 -- 76
		5 -- 77
		5 -- 78
		5 -- 79
		5 -- 82
		5 -- 83
		5 -- 85
		5 -- 88
		5 -- 93
		5 -- 95
		5 -- 97
		5 -- 98
		6 -- 7
		6 -- 8
		6 -- 11
		6 -- 12
		6 -- 13
		6 -- 17
		6 -- 19
		6 -- 23
		6 -- 24
		6 -- 26
		6 -- 28
		6 -- 29
		6 -- 30
		6 -- 34
		6 -- 35
		6 -- 36
		6 -- 37
		6 -- 39
		6 -- 43
		6 -- 44
		6 -- 45
		6 -- 50
		6 -- 52
		6 -- 53
		6 -- 55
		6 -- 62
		6 -- 63
		6 -- 65
		6 -- 66
		6 -- 69
		6 -- 70
		6 -- 71
		6 -- 72
		6 -- 73
		6 -- 75
		6 -- 78
		6 -- 79
		6 -- 80
		6 -- 81
		6 -- 82
		6 -- 84
		6 -- 87
		6 -- 88
		6 -- 89
		6 -- 91
		6 -- 93
		6 -- 95
		6 -- 96
		6 -- 97
		6 -- 99
		7 -- 64
		7 -- 67
		7 -- 68
		7 -- 69
		7 -- 71
		7 -- 73
		7 -- 79
		7 -- 11
		7 -- 66
		7 -- 14
		7 -- 15
		7 -- 88
		7 -- 82
		7 -- 99
		7 -- 20
		7 -- 78
		7 -- 22
		7 -- 24
		7 -- 25
		7 -- 26
		7 -- 27
		7 -- 29
		7 -- 30
		7 -- 32
		7 -- 33
		7 -- 35
		7 -- 77
		7 -- 70
		7 -- 40
		7 -- 43
		7 -- 45
		7 -- 46
		7 -- 50
		7 -- 51
		7 -- 52
		7 -- 53
		7 -- 55
		7 -- 90
		7 -- 59
		7 -- 63
		8 -- 10
		8 -- 11
		8 -- 12
		8 -- 14
		8 -- 16
		8 -- 17
		8 -- 18
		8 -- 19
		8 -- 21
		8 -- 22
		8 -- 23
		8 -- 26
		8 -- 27
		8 -- 29
		8 -- 30
		8 -- 33
		8 -- 34
		8 -- 35
		8 -- 38
		8 -- 40
		8 -- 41
		8 -- 43
		8 -- 44
		8 -- 45
		8 -- 48
		8 -- 50
		8 -- 51
		8 -- 54
		8 -- 55
		8 -- 56
		8 -- 59
		8 -- 60
		8 -- 61
		8 -- 70
		8 -- 73
		8 -- 75
		8 -- 77
		8 -- 79
		8 -- 80
		8 -- 83
		8 -- 84
		8 -- 87
		8 -- 90
		8 -- 91
		8 -- 93
		8 -- 95
		8 -- 96
		8 -- 97
		8 -- 98
		9 -- 11
		9 -- 12
		9 -- 15
		9 -- 17
		9 -- 18
		9 -- 21
		9 -- 23
		9 -- 24
		9 -- 25
		9 -- 26
		9 -- 27
		9 -- 28
		9 -- 29
		9 -- 32
		9 -- 33
		9 -- 35
		9 -- 36
		9 -- 37
		9 -- 38
		9 -- 39
		9 -- 40
		9 -- 44
		9 -- 45
		9 -- 47
		9 -- 49
		9 -- 50
		9 -- 51
		9 -- 53
		9 -- 54
		9 -- 55
		9 -- 56
		9 -- 57
		9 -- 60
		9 -- 61
		9 -- 62
		9 -- 67
		9 -- 68
		9 -- 71
		9 -- 75
		9 -- 82
		9 -- 83
		9 -- 85
		9 -- 86
		9 -- 87
		9 -- 90
		9 -- 91
		9 -- 92
		9 -- 93
		9 -- 94
		9 -- 96
		9 -- 98
		9 -- 99
		10 -- 11
		10 -- 12
		10 -- 14
		10 -- 15
		10 -- 21
		10 -- 23
		10 -- 25
		10 -- 26
		10 -- 28
		10 -- 30
		10 -- 31
		10 -- 32
		10 -- 33
		10 -- 35
		10 -- 36
		10 -- 37
		10 -- 38
		10 -- 39
		10 -- 43
		10 -- 44
		10 -- 47
		10 -- 49
		10 -- 50
		10 -- 51
		10 -- 55
		10 -- 56
		10 -- 57
		10 -- 60
		10 -- 61
		10 -- 63
		10 -- 66
		10 -- 67
		10 -- 68
		10 -- 70
		10 -- 71
		10 -- 74
		10 -- 83
		10 -- 84
		10 -- 89
		10 -- 92
		10 -- 93
		10 -- 94
		10 -- 96
		10 -- 98
		10 -- 99
		11 -- 16
		11 -- 17
		11 -- 18
		11 -- 19
		11 -- 21
		11 -- 24
		11 -- 26
		11 -- 28
		11 -- 29
		11 -- 32
		11 -- 40
		11 -- 41
		11 -- 42
		11 -- 44
		11 -- 46
		11 -- 47
		11 -- 48
		11 -- 50
		11 -- 54
		11 -- 56
		11 -- 59
		11 -- 61
		11 -- 64
		11 -- 65
		11 -- 67
		11 -- 69
		11 -- 72
		11 -- 73
		11 -- 76
		11 -- 77
		11 -- 78
		11 -- 79
		11 -- 87
		11 -- 89
		11 -- 90
		11 -- 91
		11 -- 94
		11 -- 98
		12 -- 14
		12 -- 16
		12 -- 18
		12 -- 22
		12 -- 24
		12 -- 26
		12 -- 29
		12 -- 33
		12 -- 36
		12 -- 37
		12 -- 42
		12 -- 43
		12 -- 45
		12 -- 47
		12 -- 49
		12 -- 50
		12 -- 53
		12 -- 55
		12 -- 57
		12 -- 58
		12 -- 59
		12 -- 60
		12 -- 62
		12 -- 63
		12 -- 66
		12 -- 67
		12 -- 70
		12 -- 72
		12 -- 78
		12 -- 79
		12 -- 80
		12 -- 84
		12 -- 90
		12 -- 91
		12 -- 93
		12 -- 94
		12 -- 99
		13 -- 15
		13 -- 16
		13 -- 17
		13 -- 18
		13 -- 19
		13 -- 23
		13 -- 27
		13 -- 30
		13 -- 34
		13 -- 35
		13 -- 36
		13 -- 37
		13 -- 39
		13 -- 40
		13 -- 42
		13 -- 43
		13 -- 44
		13 -- 45
		13 -- 46
		13 -- 47
		13 -- 49
		13 -- 50
		13 -- 52
		13 -- 53
		13 -- 55
		13 -- 56
		13 -- 57
		13 -- 59
		13 -- 60
		13 -- 61
		13 -- 64
		13 -- 65
		13 -- 66
		13 -- 68
		13 -- 70
		13 -- 71
		13 -- 72
		13 -- 74
		13 -- 75
		13 -- 78
		13 -- 79
		13 -- 80
		13 -- 84
		13 -- 87
		13 -- 89
		13 -- 90
		13 -- 93
		13 -- 95
		13 -- 96
		13 -- 99
		14 -- 15
		14 -- 19
		14 -- 20
		14 -- 21
		14 -- 22
		14 -- 23
		14 -- 26
		14 -- 27
		14 -- 29
		14 -- 31
		14 -- 32
		14 -- 33
		14 -- 35
		14 -- 37
		14 -- 38
		14 -- 40
		14 -- 41
		14 -- 47
		14 -- 49
		14 -- 54
		14 -- 55
		14 -- 56
		14 -- 62
		14 -- 63
		14 -- 67
		14 -- 68
		14 -- 70
		14 -- 71
		14 -- 74
		14 -- 76
		14 -- 78
		14 -- 81
		14 -- 82
		14 -- 88
		14 -- 92
		14 -- 93
		14 -- 94
		14 -- 96
		15 -- 16
		15 -- 17
		15 -- 18
		15 -- 20
		15 -- 21
		15 -- 23
		15 -- 24
		15 -- 27
		15 -- 30
		15 -- 31
		15 -- 32
		15 -- 33
		15 -- 36
		15 -- 37
		15 -- 39
		15 -- 40
		15 -- 42
		15 -- 45
		15 -- 49
		15 -- 51
		15 -- 52
		15 -- 53
		15 -- 54
		15 -- 56
		15 -- 57
		15 -- 58
		15 -- 59
		15 -- 61
		15 -- 62
		15 -- 65
		15 -- 69
		15 -- 73
		15 -- 77
		15 -- 79
		15 -- 80
		15 -- 82
		15 -- 84
		15 -- 87
		15 -- 89
		15 -- 90
		15 -- 91
		15 -- 92
		15 -- 93
		15 -- 95
		15 -- 97
		15 -- 98
		16 -- 64
		16 -- 66
		16 -- 67
		16 -- 68
		16 -- 65
		16 -- 76
		16 -- 78
		16 -- 83
		16 -- 20
		16 -- 86
		16 -- 87
		16 -- 25
		16 -- 92
		16 -- 30
		16 -- 95
		16 -- 84
		16 -- 34
		16 -- 37
		16 -- 38
		16 -- 39
		16 -- 40
		16 -- 44
		16 -- 96
		16 -- 47
		16 -- 48
		16 -- 51
		16 -- 52
		16 -- 89
		16 -- 57
		16 -- 59
		16 -- 60
		16 -- 63
		17 -- 19
		17 -- 20
		17 -- 23
		17 -- 24
		17 -- 25
		17 -- 27
		17 -- 28
		17 -- 33
		17 -- 35
		17 -- 37
		17 -- 38
		17 -- 42
		17 -- 43
		17 -- 44
		17 -- 46
		17 -- 48
		17 -- 50
		17 -- 54
		17 -- 55
		17 -- 57
		17 -- 61
		17 -- 62
		17 -- 66
		17 -- 67
		17 -- 70
		17 -- 71
		17 -- 73
		17 -- 74
		17 -- 76
		17 -- 78
		17 -- 79
		17 -- 80
		17 -- 81
		17 -- 84
		17 -- 85
		17 -- 87
		17 -- 89
		17 -- 96
		17 -- 98
		17 -- 99
		18 -- 22
		18 -- 23
		18 -- 26
		18 -- 28
		18 -- 30
		18 -- 31
		18 -- 33
		18 -- 34
		18 -- 39
		18 -- 42
		18 -- 43
		18 -- 46
		18 -- 48
		18 -- 51
		18 -- 52
		18 -- 53
		18 -- 56
		18 -- 57
		18 -- 58
		18 -- 59
		18 -- 60
		18 -- 61
		18 -- 64
		18 -- 68
		18 -- 69
		18 -- 70
		18 -- 73
		18 -- 76
		18 -- 77
		18 -- 78
		18 -- 79
		18 -- 80
		18 -- 84
		18 -- 85
		18 -- 86
		18 -- 89
		18 -- 91
		18 -- 96
		18 -- 99
		19 -- 21
		19 -- 23
		19 -- 26
		19 -- 32
		19 -- 33
		19 -- 35
		19 -- 36
		19 -- 40
		19 -- 41
		19 -- 43
		19 -- 44
		19 -- 47
		19 -- 49
		19 -- 52
		19 -- 55
		19 -- 56
		19 -- 59
		19 -- 61
		19 -- 63
		19 -- 66
		19 -- 67
		19 -- 68
		19 -- 72
		19 -- 75
		19 -- 77
		19 -- 79
		19 -- 80
		19 -- 81
		19 -- 85
		19 -- 88
		19 -- 89
		19 -- 90
		19 -- 92
		19 -- 95
		19 -- 96
		19 -- 97
		20 -- 23
		20 -- 24
		20 -- 26
		20 -- 27
		20 -- 28
		20 -- 31
		20 -- 32
		20 -- 34
		20 -- 37
		20 -- 38
		20 -- 39
		20 -- 40
		20 -- 42
		20 -- 45
		20 -- 46
		20 -- 48
		20 -- 49
		20 -- 50
		20 -- 58
		20 -- 59
		20 -- 60
		20 -- 61
		20 -- 62
		20 -- 64
		20 -- 65
		20 -- 67
		20 -- 68
		20 -- 70
		20 -- 71
		20 -- 72
		20 -- 76
		20 -- 77
		20 -- 81
		20 -- 83
		20 -- 88
		20 -- 89
		20 -- 91
		20 -- 92
		20 -- 93
		20 -- 94
		20 -- 95
		20 -- 98
		21 -- 24
		21 -- 25
		21 -- 28
		21 -- 29
		21 -- 32
		21 -- 34
		21 -- 35
		21 -- 36
		21 -- 37
		21 -- 39
		21 -- 41
		21 -- 43
		21 -- 44
		21 -- 45
		21 -- 48
		21 -- 49
		21 -- 50
		21 -- 51
		21 -- 52
		21 -- 54
		21 -- 55
		21 -- 57
		21 -- 59
		21 -- 60
		21 -- 62
		21 -- 63
		21 -- 65
		21 -- 68
		21 -- 72
		21 -- 73
		21 -- 74
		21 -- 78
		21 -- 79
		21 -- 81
		21 -- 84
		21 -- 87
		21 -- 89
		21 -- 95
		22 -- 23
		22 -- 24
		22 -- 25
		22 -- 26
		22 -- 30
		22 -- 31
		22 -- 32
		22 -- 36
		22 -- 38
		22 -- 42
		22 -- 44
		22 -- 45
		22 -- 47
		22 -- 48
		22 -- 50
		22 -- 52
		22 -- 54
		22 -- 57
		22 -- 58
		22 -- 59
		22 -- 60
		22 -- 64
		22 -- 69
		22 -- 70
		22 -- 71
		22 -- 74
		22 -- 75
		22 -- 76
		22 -- 80
		22 -- 82
		22 -- 84
		22 -- 85
		22 -- 86
		22 -- 87
		22 -- 90
		22 -- 91
		22 -- 92
		22 -- 94
		22 -- 95
		23 -- 24
		23 -- 26
		23 -- 27
		23 -- 36
		23 -- 37
		23 -- 41
		23 -- 42
		23 -- 43
		23 -- 46
		23 -- 49
		23 -- 50
		23 -- 53
		23 -- 54
		23 -- 57
		23 -- 58
		23 -- 59
		23 -- 62
		23 -- 63
		23 -- 64
		23 -- 65
		23 -- 67
		23 -- 68
		23 -- 70
		23 -- 72
		23 -- 76
		23 -- 77
		23 -- 81
		23 -- 86
		23 -- 87
		23 -- 89
		23 -- 90
		23 -- 91
		23 -- 92
		23 -- 93
		23 -- 94
		23 -- 96
		23 -- 97
		23 -- 98
		23 -- 99
		24 -- 25
		24 -- 28
		24 -- 30
		24 -- 32
		24 -- 35
		24 -- 36
		24 -- 39
		24 -- 40
		24 -- 42
		24 -- 43
		24 -- 44
		24 -- 47
		24 -- 49
		24 -- 50
		24 -- 51
		24 -- 54
		24 -- 56
		24 -- 59
		24 -- 62
		24 -- 63
		24 -- 64
		24 -- 65
		24 -- 66
		24 -- 67
		24 -- 69
		24 -- 72
		24 -- 75
		24 -- 77
		24 -- 78
		24 -- 80
		24 -- 82
		24 -- 83
		24 -- 88
		24 -- 89
		24 -- 91
		24 -- 92
		24 -- 95
		24 -- 96
		24 -- 97
		24 -- 99
		25 -- 27
		25 -- 35
		25 -- 36
		25 -- 37
		25 -- 38
		25 -- 40
		25 -- 41
		25 -- 42
		25 -- 43
		25 -- 44
		25 -- 46
		25 -- 47
		25 -- 48
		25 -- 50
		25 -- 51
		25 -- 53
		25 -- 54
		25 -- 55
		25 -- 56
		25 -- 59
		25 -- 61
		25 -- 65
		25 -- 66
		25 -- 68
		25 -- 70
		25 -- 71
		25 -- 72
		25 -- 73
		25 -- 74
		25 -- 76
		25 -- 79
		25 -- 82
		25 -- 84
		25 -- 87
		25 -- 89
		25 -- 94
		25 -- 96
		25 -- 97
		25 -- 98
		25 -- 99
		26 -- 27
		26 -- 29
		26 -- 30
		26 -- 32
		26 -- 33
		26 -- 35
		26 -- 38
		26 -- 41
		26 -- 44
		26 -- 47
		26 -- 48
		26 -- 49
		26 -- 50
		26 -- 51
		26 -- 53
		26 -- 54
		26 -- 55
		26 -- 56
		26 -- 57
		26 -- 58
		26 -- 59
		26 -- 60
		26 -- 61
		26 -- 62
		26 -- 63
		26 -- 64
		26 -- 68
		26 -- 69
		26 -- 70
		26 -- 71
		26 -- 77
		26 -- 79
		26 -- 81
		26 -- 85
		26 -- 87
		26 -- 88
		26 -- 90
		26 -- 92
		26 -- 97
		27 -- 28
		27 -- 29
		27 -- 30
		27 -- 31
		27 -- 32
		27 -- 34
		27 -- 41
		27 -- 43
		27 -- 48
		27 -- 51
		27 -- 53
		27 -- 54
		27 -- 55
		27 -- 58
		27 -- 59
		27 -- 61
		27 -- 62
		27 -- 63
		27 -- 65
		27 -- 67
		27 -- 68
		27 -- 69
		27 -- 73
		27 -- 75
		27 -- 76
		27 -- 77
		27 -- 78
		27 -- 79
		27 -- 80
		27 -- 82
		27 -- 83
		27 -- 87
		27 -- 88
		27 -- 90
		27 -- 91
		27 -- 92
		27 -- 94
		27 -- 99
		28 -- 32
		28 -- 34
		28 -- 37
		28 -- 39
		28 -- 41
		28 -- 44
		28 -- 45
		28 -- 48
		28 -- 49
		28 -- 51
		28 -- 53
		28 -- 55
		28 -- 56
		28 -- 57
		28 -- 59
		28 -- 60
		28 -- 61
		28 -- 62
		28 -- 64
		28 -- 65
		28 -- 67
		28 -- 68
		28 -- 72
		28 -- 74
		28 -- 81
		28 -- 82
		28 -- 85
		28 -- 86
		28 -- 87
		28 -- 90
		28 -- 91
		28 -- 92
		28 -- 93
		28 -- 95
		28 -- 96
		29 -- 30
		29 -- 31
		29 -- 33
		29 -- 34
		29 -- 35
		29 -- 36
		29 -- 38
		29 -- 40
		29 -- 44
		29 -- 48
		29 -- 50
		29 -- 53
		29 -- 54
		29 -- 55
		29 -- 57
		29 -- 58
		29 -- 61
		29 -- 62
		29 -- 66
		29 -- 67
		29 -- 68
		29 -- 72
		29 -- 76
		29 -- 78
		29 -- 79
		29 -- 82
		29 -- 84
		29 -- 87
		29 -- 88
		29 -- 90
		29 -- 92
		29 -- 93
		29 -- 94
		29 -- 97
		30 -- 32
		30 -- 36
		30 -- 38
		30 -- 39
		30 -- 40
		30 -- 43
		30 -- 47
		30 -- 49
		30 -- 50
		30 -- 53
		30 -- 56
		30 -- 58
		30 -- 59
		30 -- 60
		30 -- 61
		30 -- 65
		30 -- 67
		30 -- 68
		30 -- 69
		30 -- 73
		30 -- 74
		30 -- 75
		30 -- 76
		30 -- 80
		30 -- 81
		30 -- 83
		30 -- 84
		30 -- 88
		30 -- 92
		30 -- 93
		30 -- 94
		30 -- 97
		30 -- 98
		31 -- 35
		31 -- 38
		31 -- 41
		31 -- 42
		31 -- 45
		31 -- 46
		31 -- 47
		31 -- 48
		31 -- 50
		31 -- 51
		31 -- 54
		31 -- 55
		31 -- 56
		31 -- 58
		31 -- 59
		31 -- 60
		31 -- 63
		31 -- 65
		31 -- 66
		31 -- 67
		31 -- 68
		31 -- 71
		31 -- 73
		31 -- 75
		31 -- 76
		31 -- 77
		31 -- 78
		31 -- 79
		31 -- 81
		31 -- 83
		31 -- 84
		31 -- 86
		31 -- 89
		31 -- 90
		31 -- 91
		31 -- 92
		32 -- 33
		32 -- 35
		32 -- 37
		32 -- 39
		32 -- 42
		32 -- 44
		32 -- 46
		32 -- 50
		32 -- 51
		32 -- 52
		32 -- 54
		32 -- 55
		32 -- 59
		32 -- 60
		32 -- 61
		32 -- 64
		32 -- 66
		32 -- 68
		32 -- 69
		32 -- 70
		32 -- 71
		32 -- 72
		32 -- 79
		32 -- 82
		32 -- 83
		32 -- 86
		32 -- 87
		32 -- 88
		32 -- 90
		32 -- 91
		32 -- 92
		32 -- 93
		32 -- 94
		32 -- 96
		32 -- 97
		33 -- 34
		33 -- 35
		33 -- 38
		33 -- 39
		33 -- 43
		33 -- 45
		33 -- 46
		33 -- 47
		33 -- 50
		33 -- 54
		33 -- 55
		33 -- 58
		33 -- 59
		33 -- 60
		33 -- 64
		33 -- 68
		33 -- 70
		33 -- 71
		33 -- 74
		33 -- 76
		33 -- 78
		33 -- 80
		33 -- 82
		33 -- 84
		33 -- 85
		33 -- 86
		33 -- 88
		33 -- 91
		33 -- 92
		33 -- 94
		33 -- 96
		33 -- 97
		33 -- 98
		34 -- 67
		34 -- 86
		34 -- 88
		34 -- 89
		34 -- 90
		34 -- 95
		34 -- 96
		34 -- 98
		34 -- 85
		34 -- 37
		34 -- 39
		34 -- 92
		34 -- 45
		34 -- 46
		34 -- 93
		34 -- 48
		34 -- 99
		34 -- 50
		34 -- 52
		34 -- 53
		34 -- 54
		34 -- 55
		34 -- 56
		34 -- 57
		34 -- 58
		34 -- 62
		34 -- 63
		35 -- 37
		35 -- 38
		35 -- 40
		35 -- 42
		35 -- 43
		35 -- 49
		35 -- 52
		35 -- 54
		35 -- 56
		35 -- 57
		35 -- 58
		35 -- 59
		35 -- 61
		35 -- 63
		35 -- 65
		35 -- 70
		35 -- 71
		35 -- 73
		35 -- 74
		35 -- 77
		35 -- 80
		35 -- 81
		35 -- 83
		35 -- 84
		35 -- 85
		35 -- 87
		35 -- 91
		35 -- 94
		35 -- 96
		35 -- 98
		35 -- 99
		36 -- 41
		36 -- 45
		36 -- 47
		36 -- 48
		36 -- 49
		36 -- 50
		36 -- 51
		36 -- 52
		36 -- 55
		36 -- 60
		36 -- 62
		36 -- 66
		36 -- 68
		36 -- 69
		36 -- 74
		36 -- 78
		36 -- 80
		36 -- 81
		36 -- 83
		36 -- 84
		36 -- 85
		36 -- 87
		36 -- 88
		36 -- 89
		36 -- 92
		36 -- 93
		36 -- 97
		37 -- 38
		37 -- 39
		37 -- 41
		37 -- 43
		37 -- 45
		37 -- 47
		37 -- 48
		37 -- 52
		37 -- 55
		37 -- 56
		37 -- 57
		37 -- 59
		37 -- 60
		37 -- 61
		37 -- 62
		37 -- 63
		37 -- 65
		37 -- 70
		37 -- 75
		37 -- 76
		37 -- 77
		37 -- 78
		37 -- 79
		37 -- 81
		37 -- 85
		37 -- 86
		37 -- 87
		37 -- 88
		37 -- 90
		37 -- 91
		37 -- 93
		37 -- 96
		37 -- 99
		38 -- 39
		38 -- 43
		38 -- 44
		38 -- 45
		38 -- 49
		38 -- 51
		38 -- 52
		38 -- 55
		38 -- 58
		38 -- 63
		38 -- 65
		38 -- 66
		38 -- 67
		38 -- 68
		38 -- 70
		38 -- 75
		38 -- 76
		38 -- 78
		38 -- 79
		38 -- 80
		38 -- 83
		38 -- 86
		38 -- 87
		38 -- 89
		38 -- 91
		38 -- 92
		38 -- 96
		38 -- 98
		38 -- 99
		39 -- 40
		39 -- 41
		39 -- 42
		39 -- 43
		39 -- 44
		39 -- 45
		39 -- 48
		39 -- 49
		39 -- 50
		39 -- 52
		39 -- 55
		39 -- 59
		39 -- 61
		39 -- 62
		39 -- 65
		39 -- 67
		39 -- 68
		39 -- 70
		39 -- 73
		39 -- 74
		39 -- 75
		39 -- 76
		39 -- 78
		39 -- 84
		39 -- 86
		39 -- 88
		39 -- 89
		39 -- 91
		39 -- 92
		39 -- 93
		39 -- 96
		39 -- 99
		40 -- 43
		40 -- 44
		40 -- 47
		40 -- 48
		40 -- 50
		40 -- 52
		40 -- 53
		40 -- 54
		40 -- 55
		40 -- 56
		40 -- 57
		40 -- 59
		40 -- 61
		40 -- 63
		40 -- 64
		40 -- 65
		40 -- 68
		40 -- 69
		40 -- 71
		40 -- 72
		40 -- 73
		40 -- 74
		40 -- 77
		40 -- 78
		40 -- 79
		40 -- 86
		40 -- 91
		40 -- 95
		40 -- 99
		41 -- 42
		41 -- 43
		41 -- 44
		41 -- 45
		41 -- 48
		41 -- 49
		41 -- 51
		41 -- 52
		41 -- 53
		41 -- 56
		41 -- 57
		41 -- 58
		41 -- 60
		41 -- 61
		41 -- 62
		41 -- 63
		41 -- 65
		41 -- 66
		41 -- 70
		41 -- 71
		41 -- 72
		41 -- 73
		41 -- 75
		41 -- 76
		41 -- 77
		41 -- 82
		41 -- 84
		41 -- 85
		41 -- 87
		41 -- 93
		41 -- 95
		41 -- 96
		41 -- 98
		41 -- 99
		42 -- 64
		42 -- 75
		42 -- 68
		42 -- 65
		42 -- 96
		42 -- 74
		42 -- 92
		42 -- 99
		42 -- 81
		42 -- 94
		42 -- 97
		42 -- 98
		42 -- 70
		42 -- 87
		42 -- 49
		42 -- 52
		42 -- 54
		42 -- 88
		42 -- 58
		42 -- 95
		42 -- 62
		43 -- 45
		43 -- 46
		43 -- 50
		43 -- 54
		43 -- 55
		43 -- 56
		43 -- 60
		43 -- 62
		43 -- 63
		43 -- 66
		43 -- 68
		43 -- 69
		43 -- 71
		43 -- 73
		43 -- 74
		43 -- 80
		43 -- 81
		43 -- 84
		43 -- 85
		43 -- 87
		43 -- 88
		43 -- 91
		43 -- 93
		43 -- 96
		44 -- 45
		44 -- 46
		44 -- 47
		44 -- 48
		44 -- 55
		44 -- 56
		44 -- 57
		44 -- 64
		44 -- 66
		44 -- 67
		44 -- 69
		44 -- 70
		44 -- 71
		44 -- 72
		44 -- 73
		44 -- 74
		44 -- 76
		44 -- 78
		44 -- 79
		44 -- 80
		44 -- 83
		44 -- 88
		44 -- 90
		44 -- 91
		44 -- 94
		44 -- 95
		44 -- 96
		44 -- 98
		44 -- 99
		45 -- 47
		45 -- 50
		45 -- 52
		45 -- 55
		45 -- 57
		45 -- 60
		45 -- 62
		45 -- 64
		45 -- 66
		45 -- 68
		45 -- 72
		45 -- 73
		45 -- 74
		45 -- 78
		45 -- 80
		45 -- 81
		45 -- 83
		45 -- 84
		45 -- 87
		45 -- 90
		45 -- 91
		45 -- 93
		45 -- 95
		45 -- 98
		46 -- 47
		46 -- 54
		46 -- 56
		46 -- 57
		46 -- 60
		46 -- 61
		46 -- 63
		46 -- 64
		46 -- 66
		46 -- 67
		46 -- 68
		46 -- 70
		46 -- 72
		46 -- 73
		46 -- 74
		46 -- 81
		46 -- 82
		46 -- 83
		46 -- 84
		46 -- 86
		46 -- 87
		46 -- 89
		46 -- 92
		46 -- 94
		46 -- 95
		46 -- 97
		46 -- 98
		46 -- 99
		47 -- 48
		47 -- 53
		47 -- 58
		47 -- 59
		47 -- 60
		47 -- 62
		47 -- 63
		47 -- 64
		47 -- 65
		47 -- 67
		47 -- 68
		47 -- 69
		47 -- 74
		47 -- 76
		47 -- 77
		47 -- 79
		47 -- 80
		47 -- 81
		47 -- 82
		47 -- 84
		47 -- 85
		47 -- 86
		47 -- 89
		47 -- 91
		47 -- 92
		47 -- 93
		47 -- 95
		47 -- 97
		47 -- 98
		48 -- 49
		48 -- 50
		48 -- 52
		48 -- 53
		48 -- 54
		48 -- 57
		48 -- 58
		48 -- 59
		48 -- 61
		48 -- 62
		48 -- 65
		48 -- 66
		48 -- 67
		48 -- 68
		48 -- 70
		48 -- 71
		48 -- 72
		48 -- 76
		48 -- 77
		48 -- 78
		48 -- 80
		48 -- 81
		48 -- 83
		48 -- 84
		48 -- 87
		48 -- 89
		48 -- 95
		48 -- 97
		49 -- 51
		49 -- 52
		49 -- 53
		49 -- 55
		49 -- 56
		49 -- 59
		49 -- 61
		49 -- 62
		49 -- 64
		49 -- 68
		49 -- 69
		49 -- 71
		49 -- 76
		49 -- 78
		49 -- 80
		49 -- 81
		49 -- 82
		49 -- 83
		49 -- 85
		49 -- 86
		49 -- 89
		49 -- 92
		49 -- 93
		49 -- 94
		49 -- 95
		49 -- 97
		50 -- 51
		50 -- 52
		50 -- 54
		50 -- 59
		50 -- 63
		50 -- 64
		50 -- 65
		50 -- 68
		50 -- 71
		50 -- 73
		50 -- 74
		50 -- 76
		50 -- 77
		50 -- 83
		50 -- 84
		50 -- 86
		50 -- 88
		50 -- 89
		50 -- 90
		51 -- 52
		51 -- 54
		51 -- 58
		51 -- 61
		51 -- 63
		51 -- 65
		51 -- 67
		51 -- 70
		51 -- 71
		51 -- 72
		51 -- 73
		51 -- 74
		51 -- 75
		51 -- 77
		51 -- 80
		51 -- 81
		51 -- 82
		51 -- 83
		51 -- 93
		51 -- 96
		51 -- 98
		52 -- 53
		52 -- 57
		52 -- 62
		52 -- 64
		52 -- 67
		52 -- 69
		52 -- 70
		52 -- 71
		52 -- 73
		52 -- 74
		52 -- 79
		52 -- 82
		52 -- 84
		52 -- 85
		52 -- 86
		52 -- 87
		52 -- 93
		52 -- 95
		52 -- 96
		53 -- 55
		53 -- 56
		53 -- 60
		53 -- 62
		53 -- 64
		53 -- 66
		53 -- 69
		53 -- 71
		53 -- 76
		53 -- 77
		53 -- 80
		53 -- 81
		53 -- 82
		53 -- 83
		53 -- 85
		53 -- 86
		53 -- 89
		53 -- 91
		53 -- 92
		53 -- 95
		53 -- 96
		53 -- 99
		54 -- 58
		54 -- 63
		54 -- 64
		54 -- 65
		54 -- 66
		54 -- 68
		54 -- 69
		54 -- 71
		54 -- 72
		54 -- 76
		54 -- 77
		54 -- 78
		54 -- 79
		54 -- 82
		54 -- 84
		54 -- 88
		54 -- 90
		54 -- 91
		54 -- 94
		54 -- 95
		54 -- 97
		55 -- 56
		55 -- 57
		55 -- 59
		55 -- 60
		55 -- 63
		55 -- 64
		55 -- 68
		55 -- 75
		55 -- 78
		55 -- 79
		55 -- 80
		55 -- 82
		55 -- 84
		55 -- 85
		55 -- 87
		55 -- 88
		55 -- 89
		55 -- 92
		55 -- 94
		55 -- 97
		55 -- 98
		56 -- 57
		56 -- 58
		56 -- 60
		56 -- 61
		56 -- 64
		56 -- 66
		56 -- 68
		56 -- 70
		56 -- 73
		56 -- 76
		56 -- 77
		56 -- 80
		56 -- 82
		56 -- 84
		56 -- 89
		56 -- 91
		56 -- 94
		56 -- 95
		56 -- 96
		56 -- 99
		57 -- 62
		57 -- 63
		57 -- 66
		57 -- 68
		57 -- 69
		57 -- 72
		57 -- 76
		57 -- 78
		57 -- 79
		57 -- 80
		57 -- 81
		57 -- 83
		57 -- 84
		57 -- 86
		57 -- 90
		57 -- 91
		57 -- 96
		58 -- 59
		58 -- 60
		58 -- 62
		58 -- 64
		58 -- 65
		58 -- 67
		58 -- 70
		58 -- 71
		58 -- 75
		58 -- 78
		58 -- 80
		58 -- 83
		58 -- 85
		58 -- 88
		58 -- 89
		58 -- 90
		58 -- 91
		58 -- 92
		58 -- 93
		58 -- 95
		58 -- 98
		59 -- 60
		59 -- 63
		59 -- 64
		59 -- 65
		59 -- 66
		59 -- 67
		59 -- 68
		59 -- 71
		59 -- 72
		59 -- 77
		59 -- 79
		59 -- 80
		59 -- 81
		59 -- 83
		59 -- 84
		59 -- 86
		59 -- 88
		59 -- 91
		59 -- 92
		59 -- 95
		59 -- 97
		59 -- 98
		60 -- 61
		60 -- 62
		60 -- 64
		60 -- 65
		60 -- 66
		60 -- 68
		60 -- 80
		60 -- 81
		60 -- 83
		60 -- 84
		60 -- 85
		60 -- 86
		60 -- 91
		60 -- 92
		60 -- 93
		60 -- 96
		60 -- 97
		61 -- 81
		61 -- 65
		61 -- 76
		61 -- 78
		61 -- 80
		61 -- 85
		61 -- 92
		61 -- 95
		61 -- 98
		61 -- 71
		61 -- 93
		61 -- 84
		61 -- 74
		61 -- 62
		62 -- 64
		62 -- 65
		62 -- 66
		62 -- 67
		62 -- 68
		62 -- 69
		62 -- 70
		62 -- 74
		62 -- 76
		62 -- 81
		62 -- 84
		62 -- 85
		62 -- 86
		62 -- 88
		62 -- 89
		62 -- 90
		62 -- 91
		62 -- 94
		62 -- 96
		62 -- 98
		63 -- 64
		63 -- 65
		63 -- 66
		63 -- 67
		63 -- 69
		63 -- 70
		63 -- 71
		63 -- 74
		63 -- 76
		63 -- 77
		63 -- 79
		63 -- 80
		63 -- 84
		63 -- 85
		63 -- 88
		63 -- 90
		63 -- 91
		63 -- 92
		63 -- 93
		63 -- 95
		63 -- 96
		64 -- 65
		64 -- 70
		64 -- 71
		64 -- 74
		64 -- 75
		64 -- 79
		64 -- 80
		64 -- 81
		64 -- 82
		64 -- 83
		64 -- 84
		64 -- 85
		64 -- 87
		64 -- 91
		64 -- 93
		64 -- 94
		64 -- 96
		64 -- 97
		64 -- 98
		64 -- 99
		65 -- 68
		65 -- 69
		65 -- 70
		65 -- 73
		65 -- 74
		65 -- 76
		65 -- 79
		65 -- 80
		65 -- 81
		65 -- 84
		65 -- 85
		65 -- 88
		65 -- 90
		65 -- 92
		65 -- 94
		65 -- 98
		66 -- 69
		66 -- 73
		66 -- 78
		66 -- 79
		66 -- 86
		66 -- 91
		66 -- 88
		66 -- 97
		66 -- 70
		66 -- 96
		66 -- 76
		67 -- 70
		67 -- 81
		67 -- 85
		67 -- 68
		67 -- 98
		67 -- 91
		67 -- 93
		67 -- 71
		67 -- 94
		68 -- 70
		68 -- 71
		68 -- 72
		68 -- 76
		68 -- 77
		68 -- 79
		68 -- 84
		68 -- 87
		68 -- 88
		68 -- 90
		68 -- 91
		68 -- 92
		68 -- 96
		68 -- 99
		69 -- 73
		69 -- 76
		69 -- 77
		69 -- 80
		69 -- 88
		69 -- 99
		69 -- 84
		69 -- 85
		69 -- 90
		69 -- 97
		69 -- 91
		69 -- 70
		69 -- 96
		69 -- 94
		70 -- 71
		70 -- 72
		70 -- 74
		70 -- 75
		70 -- 77
		70 -- 78
		70 -- 79
		70 -- 81
		70 -- 82
		70 -- 85
		70 -- 87
		70 -- 89
		70 -- 90
		70 -- 91
		70 -- 95
		70 -- 96
		70 -- 97
		70 -- 99
		71 -- 72
		71 -- 77
		71 -- 78
		71 -- 80
		71 -- 82
		71 -- 84
		71 -- 92
		71 -- 93
		71 -- 95
		71 -- 99
		72 -- 73
		72 -- 78
		72 -- 77
		72 -- 80
		72 -- 88
		72 -- 82
		72 -- 92
		72 -- 97
		72 -- 93
		72 -- 76
		73 -- 75
		73 -- 77
		73 -- 78
		73 -- 79
		73 -- 80
		73 -- 81
		73 -- 82
		73 -- 84
		73 -- 91
		73 -- 92
		73 -- 95
		73 -- 96
		73 -- 97
		73 -- 98
		73 -- 99
		74 -- 76
		74 -- 77
		74 -- 80
		74 -- 81
		74 -- 83
		74 -- 84
		74 -- 86
		74 -- 88
		74 -- 92
		74 -- 93
		74 -- 95
		74 -- 97
		75 -- 79
		75 -- 77
		75 -- 80
		75 -- 81
		75 -- 82
		75 -- 85
		75 -- 87
		75 -- 89
		75 -- 92
		75 -- 97
		75 -- 91
		75 -- 99
		75 -- 95
		76 -- 80
		76 -- 81
		76 -- 88
		76 -- 89
		76 -- 91
		76 -- 93
		76 -- 95
		76 -- 96
		76 -- 97
		76 -- 99
		77 -- 78
		77 -- 79
		77 -- 81
		77 -- 82
		77 -- 85
		77 -- 86
		77 -- 93
		77 -- 94
		77 -- 95
		77 -- 97
		78 -- 79
		78 -- 80
		78 -- 81
		78 -- 83
		78 -- 86
		78 -- 92
		78 -- 93
		78 -- 94
		78 -- 95
		79 -- 81
		79 -- 82
		79 -- 84
		79 -- 86
		79 -- 88
		79 -- 89
		79 -- 91
		79 -- 92
		79 -- 93
		79 -- 96
		79 -- 97
		79 -- 99
		80 -- 81
		80 -- 82
		80 -- 84
		80 -- 85
		80 -- 87
		80 -- 90
		80 -- 91
		80 -- 93
		80 -- 94
		80 -- 95
		80 -- 99
		81 -- 82
		81 -- 83
		81 -- 84
		81 -- 85
		81 -- 86
		81 -- 87
		81 -- 88
		81 -- 91
		81 -- 92
		81 -- 93
		81 -- 96
		81 -- 98
		81 -- 99
		82 -- 86
		82 -- 85
		82 -- 87
		82 -- 90
		82 -- 93
		82 -- 97
		83 -- 99
		83 -- 86
		83 -- 89
		83 -- 92
		83 -- 97
		83 -- 96
		83 -- 95
		84 -- 85
		84 -- 86
		84 -- 89
		84 -- 90
		84 -- 92
		84 -- 97
		84 -- 98
		84 -- 99
		85 -- 97
		85 -- 88
		85 -- 92
		85 -- 86
		86 -- 96
		86 -- 98
		86 -- 87
		86 -- 99
		87 -- 90
		87 -- 91
		87 -- 92
		87 -- 96
		87 -- 97
		87 -- 98
		87 -- 99
		88 -- 93
		88 -- 94
		88 -- 96
		88 -- 97
		88 -- 98
		88 -- 99
		89 -- 98
		89 -- 93
		89 -- 97
		89 -- 99
		89 -- 95
		90 -- 98
		90 -- 94
		90 -- 97
		90 -- 96
		90 -- 93
		90 -- 99
		91 -- 93
		91 -- 94
		91 -- 96
		91 -- 97
		92 -- 93
		92 -- 95
		92 -- 96
		93 -- 94
		93 -- 95
		93 -- 97
		93 -- 98
		93 -- 99
		94 -- 97
		94 -- 95
		94 -- 96
		95 -- 97
		95 -- 98
		95 -- 99
		96 -- 98
		97 -- 99
}