graph {
		0 -- 1
		0 -- 2
		0 -- 3
		0 -- 4
		0 -- 5
		0 -- 7
		0 -- 10
		0 -- 11
		0 -- 14
		0 -- 16
		0 -- 19
		0 -- 20
		0 -- 21
		0 -- 22
		0 -- 29
		0 -- 30
		0 -- 32
		0 -- 33
		0 -- 34
		0 -- 36
		0 -- 37
		0 -- 39
		0 -- 40
		0 -- 41
		0 -- 42
		0 -- 43
		0 -- 44
		0 -- 45
		0 -- 46
		0 -- 47
		0 -- 48
		0 -- 51
		0 -- 52
		0 -- 54
		0 -- 56
		0 -- 58
		0 -- 61
		0 -- 62
		0 -- 66
		0 -- 67
		0 -- 71
		0 -- 73
		0 -- 74
		0 -- 75
		0 -- 76
		0 -- 81
		0 -- 83
		0 -- 84
		0 -- 87
		0 -- 88
		0 -- 91
		0 -- 92
		0 -- 93
		0 -- 94
		0 -- 95
		1 -- 2
		1 -- 5
		1 -- 7
		1 -- 9
		1 -- 12
		1 -- 13
		1 -- 14
		1 -- 16
		1 -- 17
		1 -- 20
		1 -- 21
		1 -- 22
		1 -- 23
		1 -- 24
		1 -- 25
		1 -- 26
		1 -- 27
		1 -- 28
		1 -- 29
		1 -- 30
		1 -- 35
		1 -- 36
		1 -- 37
		1 -- 38
		1 -- 42
		1 -- 44
		1 -- 45
		1 -- 49
		1 -- 51
		1 -- 52
		1 -- 56
		1 -- 58
		1 -- 59
		1 -- 60
		1 -- 61
		1 -- 64
		1 -- 66
		1 -- 67
		1 -- 69
		1 -- 71
		1 -- 73
		1 -- 74
		1 -- 79
		1 -- 80
		1 -- 82
		1 -- 86
		1 -- 88
		1 -- 92
		1 -- 93
		1 -- 96
		1 -- 97
		2 -- 3
		2 -- 5
		2 -- 6
		2 -- 8
		2 -- 9
		2 -- 10
		2 -- 11
		2 -- 14
		2 -- 15
		2 -- 17
		2 -- 19
		2 -- 20
		2 -- 22
		2 -- 24
		2 -- 26
		2 -- 27
		2 -- 29
		2 -- 30
		2 -- 31
		2 -- 32
		2 -- 34
		2 -- 35
		2 -- 39
		2 -- 40
		2 -- 43
		2 -- 47
		2 -- 48
		2 -- 51
		2 -- 55
		2 -- 57
		2 -- 60
		2 -- 62
		2 -- 64
		2 -- 67
		2 -- 68
		2 -- 69
		2 -- 73
		2 -- 74
		2 -- 77
		2 -- 79
		2 -- 80
		2 -- 81
		2 -- 83
		2 -- 84
		2 -- 88
		2 -- 93
		2 -- 99
		3 -- 6
		3 -- 7
		3 -- 8
		3 -- 9
		3 -- 10
		3 -- 12
		3 -- 15
		3 -- 16
		3 -- 17
		3 -- 19
		3 -- 20
		3 -- 23
		3 -- 24
		3 -- 26
		3 -- 28
		3 -- 31
		3 -- 33
		3 -- 35
		3 -- 36
		3 -- 38
		3 -- 39
		3 -- 40
		3 -- 41
		3 -- 44
		3 -- 45
		3 -- 51
		3 -- 52
		3 -- 53
		3 -- 55
		3 -- 61
		3 -- 66
		3 -- 68
		3 -- 70
		3 -- 72
		3 -- 73
		3 -- 74
		3 -- 76
		3 -- 77
		3 -- 78
		3 -- 81
		3 -- 91
		3 -- 93
		3 -- 94
		3 -- 98
		3 -- 99
		4 -- 96
		4 -- 67
		4 -- 68
		4 -- 86
		4 -- 70
		4 -- 7
		4 -- 8
		4 -- 76
		4 -- 10
		4 -- 11
		4 -- 12
		4 -- 77
		4 -- 78
		4 -- 18
		4 -- 83
		4 -- 84
		4 -- 85
		4 -- 22
		4 -- 87
		4 -- 25
		4 -- 27
		4 -- 93
		4 -- 30
		4 -- 95
		4 -- 32
		4 -- 97
		4 -- 38
		4 -- 44
		4 -- 82
		4 -- 47
		4 -- 49
		4 -- 52
		4 -- 54
		4 -- 72
		4 -- 58
		4 -- 60
		4 -- 63
		5 -- 6
		5 -- 8
		5 -- 10
		5 -- 11
		5 -- 13
		5 -- 14
		5 -- 15
		5 -- 19
		5 -- 21
		5 -- 24
		5 -- 25
		5 -- 28
		5 -- 32
		5 -- 34
		5 -- 35
		5 -- 38
		5 -- 40
		5 -- 42
		5 -- 45
		5 -- 47
		5 -- 48
		5 -- 50
		5 -- 51
		5 -- 54
		5 -- 56
		5 -- 61
		5 -- 62
		5 -- 63
		5 -- 64
		5 -- 67
		5 -- 70
		5 -- 72
		5 -- 75
		5 -- 77
		5 -- 80
		5 -- 84
		5 -- 88
		5 -- 89
		5 -- 91
		5 -- 93
		5 -- 95
		5 -- 96
		5 -- 97
		5 -- 99
		6 -- 8
		6 -- 9
		6 -- 11
		6 -- 13
		6 -- 15
		6 -- 16
		6 -- 19
		6 -- 20
		6 -- 22
		6 -- 25
		6 -- 26
		6 -- 27
		6 -- 28
		6 -- 29
		6 -- 30
		6 -- 31
		6 -- 33
		6 -- 39
		6 -- 40
		6 -- 41
		6 -- 42
		6 -- 45
		6 -- 47
		6 -- 49
		6 -- 50
		6 -- 51
		6 -- 52
		6 -- 55
		6 -- 56
		6 -- 58
		6 -- 59
		6 -- 60
		6 -- 61
		6 -- 62
		6 -- 63
		6 -- 69
		6 -- 70
		6 -- 71
		6 -- 75
		6 -- 76
		6 -- 78
		6 -- 85
		6 -- 86
		6 -- 87
		6 -- 89
		6 -- 90
		6 -- 92
		6 -- 94
		6 -- 96
		6 -- 97
		6 -- 99
		7 -- 9
		7 -- 10
		7 -- 14
		7 -- 15
		7 -- 17
		7 -- 18
		7 -- 21
		7 -- 22
		7 -- 23
		7 -- 24
		7 -- 26
		7 -- 30
		7 -- 32
		7 -- 37
		7 -- 39
		7 -- 40
		7 -- 41
		7 -- 43
		7 -- 45
		7 -- 47
		7 -- 50
		7 -- 51
		7 -- 52
		7 -- 54
		7 -- 57
		7 -- 59
		7 -- 61
		7 -- 63
		7 -- 64
		7 -- 67
		7 -- 68
		7 -- 70
		7 -- 72
		7 -- 75
		7 -- 77
		7 -- 78
		7 -- 80
		7 -- 82
		7 -- 84
		7 -- 87
		7 -- 91
		7 -- 92
		7 -- 93
		7 -- 94
		7 -- 95
		7 -- 96
		7 -- 97
		7 -- 98
		7 -- 99
		8 -- 10
		8 -- 11
		8 -- 13
		8 -- 14
		8 -- 15
		8 -- 16
		8 -- 20
		8 -- 27
		8 -- 29
		8 -- 33
		8 -- 35
		8 -- 36
		8 -- 38
		8 -- 39
		8 -- 40
		8 -- 41
		8 -- 45
		8 -- 47
		8 -- 49
		8 -- 50
		8 -- 51
		8 -- 54
		8 -- 56
		8 -- 57
		8 -- 63
		8 -- 67
		8 -- 69
		8 -- 70
		8 -- 72
		8 -- 73
		8 -- 77
		8 -- 81
		8 -- 83
		8 -- 84
		8 -- 86
		8 -- 87
		8 -- 89
		8 -- 92
		8 -- 95
		8 -- 96
		8 -- 97
		8 -- 99
		9 -- 10
		9 -- 11
		9 -- 14
		9 -- 15
		9 -- 16
		9 -- 19
		9 -- 22
		9 -- 26
		9 -- 27
		9 -- 28
		9 -- 30
		9 -- 31
		9 -- 32
		9 -- 33
		9 -- 36
		9 -- 39
		9 -- 42
		9 -- 45
		9 -- 47
		9 -- 49
		9 -- 54
		9 -- 55
		9 -- 59
		9 -- 61
		9 -- 62
		9 -- 64
		9 -- 65
		9 -- 66
		9 -- 71
		9 -- 72
		9 -- 73
		9 -- 74
		9 -- 75
		9 -- 76
		9 -- 77
		9 -- 79
		9 -- 80
		9 -- 84
		9 -- 85
		9 -- 86
		9 -- 87
		9 -- 89
		9 -- 91
		9 -- 92
		9 -- 93
		9 -- 95
		9 -- 96
		9 -- 98
		9 -- 99
		10 -- 11
		10 -- 17
		10 -- 20
		10 -- 21
		10 -- 22
		10 -- 23
		10 -- 24
		10 -- 25
		10 -- 26
		10 -- 27
		10 -- 28
		10 -- 33
		10 -- 35
		10 -- 36
		10 -- 37
		10 -- 38
		10 -- 41
		10 -- 42
		10 -- 43
		10 -- 44
		10 -- 45
		10 -- 47
		10 -- 49
		10 -- 52
		10 -- 54
		10 -- 55
		10 -- 56
		10 -- 57
		10 -- 59
		10 -- 60
		10 -- 61
		10 -- 63
		10 -- 64
		10 -- 66
		10 -- 67
		10 -- 71
		10 -- 72
		10 -- 73
		10 -- 74
		10 -- 78
		10 -- 84
		10 -- 86
		10 -- 87
		10 -- 94
		10 -- 95
		10 -- 96
		10 -- 97
		10 -- 99
		11 -- 12
		11 -- 13
		11 -- 16
		11 -- 17
		11 -- 21
		11 -- 23
		11 -- 24
		11 -- 25
		11 -- 26
		11 -- 30
		11 -- 31
		11 -- 33
		11 -- 39
		11 -- 40
		11 -- 42
		11 -- 50
		11 -- 52
		11 -- 53
		11 -- 54
		11 -- 55
		11 -- 60
		11 -- 63
		11 -- 64
		11 -- 66
		11 -- 67
		11 -- 69
		11 -- 70
		11 -- 71
		11 -- 72
		11 -- 73
		11 -- 76
		11 -- 77
		11 -- 89
		11 -- 90
		11 -- 91
		11 -- 93
		11 -- 94
		11 -- 95
		11 -- 96
		12 -- 15
		12 -- 16
		12 -- 17
		12 -- 18
		12 -- 19
		12 -- 20
		12 -- 22
		12 -- 24
		12 -- 26
		12 -- 28
		12 -- 29
		12 -- 30
		12 -- 31
		12 -- 34
		12 -- 35
		12 -- 37
		12 -- 39
		12 -- 40
		12 -- 41
		12 -- 44
		12 -- 48
		12 -- 50
		12 -- 52
		12 -- 54
		12 -- 55
		12 -- 59
		12 -- 64
		12 -- 69
		12 -- 71
		12 -- 72
		12 -- 74
		12 -- 75
		12 -- 80
		12 -- 82
		12 -- 83
		12 -- 86
		12 -- 87
		12 -- 88
		12 -- 92
		12 -- 93
		12 -- 97
		13 -- 14
		13 -- 16
		13 -- 17
		13 -- 20
		13 -- 21
		13 -- 22
		13 -- 23
		13 -- 28
		13 -- 29
		13 -- 30
		13 -- 31
		13 -- 34
		13 -- 37
		13 -- 40
		13 -- 43
		13 -- 44
		13 -- 45
		13 -- 47
		13 -- 48
		13 -- 50
		13 -- 51
		13 -- 52
		13 -- 54
		13 -- 56
		13 -- 57
		13 -- 58
		13 -- 59
		13 -- 62
		13 -- 63
		13 -- 65
		13 -- 67
		13 -- 68
		13 -- 69
		13 -- 70
		13 -- 71
		13 -- 73
		13 -- 76
		13 -- 77
		13 -- 83
		13 -- 84
		13 -- 86
		13 -- 88
		13 -- 89
		13 -- 90
		13 -- 91
		13 -- 92
		13 -- 93
		13 -- 95
		13 -- 98
		13 -- 99
		14 -- 16
		14 -- 17
		14 -- 19
		14 -- 27
		14 -- 29
		14 -- 31
		14 -- 33
		14 -- 34
		14 -- 36
		14 -- 41
		14 -- 43
		14 -- 44
		14 -- 48
		14 -- 49
		14 -- 50
		14 -- 51
		14 -- 52
		14 -- 56
		14 -- 57
		14 -- 66
		14 -- 68
		14 -- 69
		14 -- 71
		14 -- 72
		14 -- 77
		14 -- 81
		14 -- 82
		14 -- 84
		14 -- 85
		14 -- 86
		14 -- 87
		14 -- 89
		14 -- 91
		14 -- 94
		14 -- 96
		14 -- 97
		14 -- 99
		15 -- 16
		15 -- 18
		15 -- 21
		15 -- 22
		15 -- 23
		15 -- 24
		15 -- 26
		15 -- 27
		15 -- 29
		15 -- 32
		15 -- 33
		15 -- 34
		15 -- 35
		15 -- 36
		15 -- 37
		15 -- 39
		15 -- 41
		15 -- 42
		15 -- 43
		15 -- 44
		15 -- 48
		15 -- 51
		15 -- 53
		15 -- 54
		15 -- 55
		15 -- 58
		15 -- 59
		15 -- 65
		15 -- 66
		15 -- 67
		15 -- 68
		15 -- 69
		15 -- 71
		15 -- 73
		15 -- 74
		15 -- 75
		15 -- 76
		15 -- 77
		15 -- 81
		15 -- 83
		15 -- 85
		15 -- 86
		15 -- 87
		15 -- 90
		15 -- 91
		15 -- 92
		15 -- 97
		15 -- 99
		16 -- 17
		16 -- 19
		16 -- 20
		16 -- 21
		16 -- 22
		16 -- 29
		16 -- 31
		16 -- 32
		16 -- 36
		16 -- 37
		16 -- 40
		16 -- 42
		16 -- 43
		16 -- 44
		16 -- 46
		16 -- 51
		16 -- 53
		16 -- 55
		16 -- 56
		16 -- 58
		16 -- 60
		16 -- 61
		16 -- 62
		16 -- 66
		16 -- 71
		16 -- 76
		16 -- 79
		16 -- 80
		16 -- 82
		16 -- 83
		16 -- 90
		16 -- 91
		16 -- 92
		16 -- 95
		16 -- 97
		16 -- 98
		16 -- 99
		17 -- 18
		17 -- 19
		17 -- 20
		17 -- 22
		17 -- 24
		17 -- 26
		17 -- 27
		17 -- 28
		17 -- 31
		17 -- 32
		17 -- 37
		17 -- 38
		17 -- 39
		17 -- 40
		17 -- 41
		17 -- 43
		17 -- 44
		17 -- 52
		17 -- 54
		17 -- 55
		17 -- 59
		17 -- 60
		17 -- 61
		17 -- 63
		17 -- 66
		17 -- 71
		17 -- 73
		17 -- 74
		17 -- 76
		17 -- 77
		17 -- 79
		17 -- 80
		17 -- 81
		17 -- 82
		17 -- 85
		17 -- 86
		17 -- 88
		17 -- 90
		17 -- 95
		17 -- 97
		17 -- 98
		17 -- 99
		18 -- 21
		18 -- 23
		18 -- 24
		18 -- 31
		18 -- 32
		18 -- 33
		18 -- 34
		18 -- 36
		18 -- 37
		18 -- 38
		18 -- 42
		18 -- 44
		18 -- 45
		18 -- 47
		18 -- 49
		18 -- 50
		18 -- 51
		18 -- 54
		18 -- 56
		18 -- 57
		18 -- 58
		18 -- 60
		18 -- 61
		18 -- 63
		18 -- 65
		18 -- 67
		18 -- 69
		18 -- 73
		18 -- 74
		18 -- 76
		18 -- 77
		18 -- 78
		18 -- 79
		18 -- 81
		18 -- 82
		18 -- 83
		18 -- 85
		18 -- 86
		18 -- 88
		18 -- 90
		18 -- 92
		18 -- 95
		18 -- 97
		19 -- 20
		19 -- 21
		19 -- 22
		19 -- 23
		19 -- 27
		19 -- 30
		19 -- 34
		19 -- 39
		19 -- 40
		19 -- 42
		19 -- 47
		19 -- 50
		19 -- 51
		19 -- 52
		19 -- 55
		19 -- 56
		19 -- 57
		19 -- 58
		19 -- 61
		19 -- 62
		19 -- 63
		19 -- 64
		19 -- 66
		19 -- 69
		19 -- 72
		19 -- 73
		19 -- 74
		19 -- 75
		19 -- 77
		19 -- 78
		19 -- 79
		19 -- 83
		19 -- 84
		19 -- 85
		19 -- 87
		19 -- 88
		19 -- 91
		19 -- 94
		19 -- 95
		20 -- 23
		20 -- 25
		20 -- 27
		20 -- 31
		20 -- 32
		20 -- 35
		20 -- 36
		20 -- 37
		20 -- 38
		20 -- 40
		20 -- 41
		20 -- 44
		20 -- 46
		20 -- 47
		20 -- 48
		20 -- 49
		20 -- 51
		20 -- 52
		20 -- 53
		20 -- 57
		20 -- 58
		20 -- 59
		20 -- 62
		20 -- 70
		20 -- 71
		20 -- 74
		20 -- 76
		20 -- 80
		20 -- 85
		20 -- 86
		20 -- 87
		20 -- 90
		20 -- 91
		20 -- 92
		20 -- 94
		20 -- 95
		20 -- 98
		20 -- 99
		21 -- 23
		21 -- 24
		21 -- 25
		21 -- 26
		21 -- 27
		21 -- 28
		21 -- 29
		21 -- 30
		21 -- 31
		21 -- 32
		21 -- 33
		21 -- 35
		21 -- 37
		21 -- 38
		21 -- 41
		21 -- 43
		21 -- 51
		21 -- 56
		21 -- 57
		21 -- 60
		21 -- 63
		21 -- 69
		21 -- 70
		21 -- 75
		21 -- 77
		21 -- 78
		21 -- 81
		21 -- 82
		21 -- 85
		21 -- 87
		21 -- 89
		21 -- 91
		21 -- 93
		21 -- 94
		21 -- 96
		21 -- 97
		21 -- 99
		22 -- 23
		22 -- 24
		22 -- 25
		22 -- 28
		22 -- 30
		22 -- 33
		22 -- 35
		22 -- 38
		22 -- 40
		22 -- 42
		22 -- 46
		22 -- 47
		22 -- 49
		22 -- 52
		22 -- 53
		22 -- 55
		22 -- 56
		22 -- 58
		22 -- 60
		22 -- 62
		22 -- 63
		22 -- 64
		22 -- 65
		22 -- 66
		22 -- 67
		22 -- 72
		22 -- 73
		22 -- 74
		22 -- 75
		22 -- 76
		22 -- 77
		22 -- 81
		22 -- 82
		22 -- 86
		22 -- 89
		22 -- 91
		22 -- 95
		22 -- 97
		22 -- 98
		23 -- 24
		23 -- 28
		23 -- 31
		23 -- 32
		23 -- 34
		23 -- 35
		23 -- 41
		23 -- 42
		23 -- 43
		23 -- 44
		23 -- 45
		23 -- 47
		23 -- 48
		23 -- 51
		23 -- 52
		23 -- 53
		23 -- 55
		23 -- 57
		23 -- 58
		23 -- 59
		23 -- 61
		23 -- 63
		23 -- 68
		23 -- 69
		23 -- 71
		23 -- 72
		23 -- 73
		23 -- 76
		23 -- 78
		23 -- 79
		23 -- 82
		23 -- 83
		23 -- 84
		23 -- 85
		23 -- 91
		23 -- 92
		23 -- 93
		23 -- 94
		23 -- 95
		23 -- 96
		23 -- 97
		23 -- 99
		24 -- 25
		24 -- 28
		24 -- 30
		24 -- 33
		24 -- 38
		24 -- 42
		24 -- 43
		24 -- 44
		24 -- 46
		24 -- 50
		24 -- 53
		24 -- 54
		24 -- 59
		24 -- 62
		24 -- 63
		24 -- 64
		24 -- 65
		24 -- 66
		24 -- 67
		24 -- 69
		24 -- 73
		24 -- 74
		24 -- 75
		24 -- 79
		24 -- 80
		24 -- 81
		24 -- 82
		24 -- 83
		24 -- 84
		24 -- 87
		24 -- 90
		24 -- 93
		24 -- 94
		24 -- 95
		24 -- 96
		24 -- 98
		25 -- 29
		25 -- 30
		25 -- 31
		25 -- 33
		25 -- 39
		25 -- 40
		25 -- 41
		25 -- 46
		25 -- 49
		25 -- 50
		25 -- 51
		25 -- 52
		25 -- 54
		25 -- 55
		25 -- 57
		25 -- 67
		25 -- 68
		25 -- 69
		25 -- 70
		25 -- 73
		25 -- 76
		25 -- 77
		25 -- 78
		25 -- 80
		25 -- 83
		25 -- 85
		25 -- 86
		25 -- 88
		25 -- 93
		25 -- 94
		25 -- 95
		25 -- 96
		25 -- 97
		25 -- 98
		26 -- 28
		26 -- 29
		26 -- 30
		26 -- 31
		26 -- 32
		26 -- 33
		26 -- 34
		26 -- 40
		26 -- 41
		26 -- 42
		26 -- 47
		26 -- 48
		26 -- 50
		26 -- 51
		26 -- 54
		26 -- 55
		26 -- 56
		26 -- 57
		26 -- 58
		26 -- 59
		26 -- 60
		26 -- 61
		26 -- 63
		26 -- 65
		26 -- 66
		26 -- 68
		26 -- 69
		26 -- 72
		26 -- 74
		26 -- 76
		26 -- 80
		26 -- 82
		26 -- 83
		26 -- 84
		26 -- 87
		26 -- 88
		26 -- 92
		26 -- 94
		27 -- 29
		27 -- 30
		27 -- 33
		27 -- 34
		27 -- 39
		27 -- 42
		27 -- 45
		27 -- 46
		27 -- 50
		27 -- 53
		27 -- 54
		27 -- 55
		27 -- 57
		27 -- 59
		27 -- 60
		27 -- 61
		27 -- 62
		27 -- 63
		27 -- 67
		27 -- 68
		27 -- 69
		27 -- 72
		27 -- 73
		27 -- 75
		27 -- 78
		27 -- 79
		27 -- 81
		27 -- 82
		27 -- 83
		27 -- 86
		27 -- 87
		27 -- 88
		27 -- 92
		27 -- 95
		27 -- 96
		27 -- 97
		28 -- 68
		28 -- 87
		28 -- 79
		28 -- 98
		28 -- 83
		28 -- 89
		28 -- 92
		28 -- 93
		28 -- 30
		28 -- 95
		28 -- 32
		28 -- 33
		28 -- 34
		28 -- 99
		28 -- 36
		28 -- 70
		28 -- 43
		28 -- 44
		28 -- 96
		28 -- 47
		28 -- 48
		28 -- 50
		28 -- 51
		28 -- 74
		28 -- 55
		28 -- 58
		28 -- 60
		28 -- 61
		28 -- 62
		29 -- 34
		29 -- 35
		29 -- 39
		29 -- 45
		29 -- 46
		29 -- 47
		29 -- 48
		29 -- 50
		29 -- 52
		29 -- 54
		29 -- 56
		29 -- 59
		29 -- 63
		29 -- 64
		29 -- 65
		29 -- 67
		29 -- 68
		29 -- 69
		29 -- 72
		29 -- 74
		29 -- 75
		29 -- 78
		29 -- 81
		29 -- 82
		29 -- 84
		29 -- 85
		29 -- 88
		29 -- 90
		29 -- 92
		29 -- 95
		29 -- 97
		30 -- 32
		30 -- 33
		30 -- 35
		30 -- 36
		30 -- 37
		30 -- 38
		30 -- 39
		30 -- 40
		30 -- 42
		30 -- 45
		30 -- 46
		30 -- 47
		30 -- 50
		30 -- 53
		30 -- 57
		30 -- 58
		30 -- 60
		30 -- 62
		30 -- 64
		30 -- 65
		30 -- 66
		30 -- 67
		30 -- 74
		30 -- 75
		30 -- 78
		30 -- 79
		30 -- 80
		30 -- 81
		30 -- 83
		30 -- 85
		30 -- 87
		30 -- 90
		30 -- 91
		30 -- 92
		30 -- 96
		30 -- 98
		30 -- 99
		31 -- 32
		31 -- 33
		31 -- 34
		31 -- 39
		31 -- 42
		31 -- 45
		31 -- 47
		31 -- 48
		31 -- 49
		31 -- 53
		31 -- 54
		31 -- 55
		31 -- 60
		31 -- 64
		31 -- 66
		31 -- 71
		31 -- 73
		31 -- 74
		31 -- 76
		31 -- 77
		31 -- 82
		31 -- 83
		31 -- 86
		31 -- 87
		31 -- 89
		31 -- 92
		31 -- 93
		31 -- 95
		31 -- 96
		31 -- 99
		32 -- 33
		32 -- 34
		32 -- 42
		32 -- 43
		32 -- 45
		32 -- 46
		32 -- 47
		32 -- 48
		32 -- 50
		32 -- 51
		32 -- 53
		32 -- 54
		32 -- 55
		32 -- 56
		32 -- 62
		32 -- 64
		32 -- 67
		32 -- 69
		32 -- 71
		32 -- 76
		32 -- 78
		32 -- 79
		32 -- 84
		32 -- 85
		32 -- 87
		32 -- 88
		32 -- 89
		32 -- 90
		32 -- 92
		32 -- 98
		33 -- 35
		33 -- 36
		33 -- 37
		33 -- 38
		33 -- 39
		33 -- 43
		33 -- 44
		33 -- 46
		33 -- 47
		33 -- 48
		33 -- 52
		33 -- 53
		33 -- 54
		33 -- 55
		33 -- 58
		33 -- 60
		33 -- 62
		33 -- 63
		33 -- 64
		33 -- 66
		33 -- 67
		33 -- 72
		33 -- 73
		33 -- 74
		33 -- 78
		33 -- 82
		33 -- 83
		33 -- 85
		33 -- 86
		33 -- 87
		33 -- 89
		33 -- 92
		33 -- 93
		33 -- 95
		33 -- 99
		34 -- 36
		34 -- 37
		34 -- 38
		34 -- 41
		34 -- 42
		34 -- 43
		34 -- 44
		34 -- 45
		34 -- 47
		34 -- 48
		34 -- 50
		34 -- 54
		34 -- 56
		34 -- 57
		34 -- 59
		34 -- 60
		34 -- 63
		34 -- 65
		34 -- 66
		34 -- 68
		34 -- 71
		34 -- 72
		34 -- 77
		34 -- 81
		34 -- 83
		34 -- 85
		34 -- 86
		34 -- 87
		34 -- 91
		34 -- 94
		34 -- 95
		34 -- 98
		34 -- 99
		35 -- 65
		35 -- 73
		35 -- 75
		35 -- 78
		35 -- 82
		35 -- 83
		35 -- 89
		35 -- 79
		35 -- 92
		35 -- 69
		35 -- 96
		35 -- 98
		35 -- 99
		35 -- 36
		35 -- 38
		35 -- 43
		35 -- 44
		35 -- 45
		35 -- 48
		35 -- 49
		35 -- 53
		35 -- 54
		35 -- 55
		35 -- 84
		35 -- 58
		35 -- 95
		35 -- 60
		35 -- 62
		36 -- 66
		36 -- 97
		36 -- 71
		36 -- 75
		36 -- 76
		36 -- 98
		36 -- 81
		36 -- 83
		36 -- 88
		36 -- 90
		36 -- 84
		36 -- 38
		36 -- 39
		36 -- 42
		36 -- 43
		36 -- 82
		36 -- 48
		36 -- 99
		36 -- 52
		36 -- 53
		36 -- 56
		36 -- 57
		36 -- 60
		36 -- 94
		36 -- 63
		37 -- 38
		37 -- 39
		37 -- 40
		37 -- 41
		37 -- 42
		37 -- 44
		37 -- 45
		37 -- 47
		37 -- 48
		37 -- 50
		37 -- 51
		37 -- 52
		37 -- 56
		37 -- 60
		37 -- 63
		37 -- 65
		37 -- 66
		37 -- 67
		37 -- 68
		37 -- 69
		37 -- 70
		37 -- 75
		37 -- 77
		37 -- 78
		37 -- 80
		37 -- 81
		37 -- 83
		37 -- 84
		37 -- 87
		37 -- 90
		37 -- 91
		37 -- 92
		37 -- 94
		37 -- 95
		37 -- 98
		37 -- 99
		38 -- 39
		38 -- 40
		38 -- 41
		38 -- 42
		38 -- 43
		38 -- 46
		38 -- 49
		38 -- 50
		38 -- 51
		38 -- 55
		38 -- 57
		38 -- 60
		38 -- 61
		38 -- 65
		38 -- 66
		38 -- 68
		38 -- 72
		38 -- 73
		38 -- 74
		38 -- 76
		38 -- 77
		38 -- 79
		38 -- 81
		38 -- 83
		38 -- 85
		38 -- 86
		38 -- 87
		38 -- 89
		38 -- 92
		38 -- 93
		38 -- 94
		38 -- 97
		39 -- 68
		39 -- 82
		39 -- 90
		39 -- 86
		39 -- 87
		39 -- 71
		39 -- 67
		39 -- 91
		39 -- 81
		39 -- 41
		39 -- 42
		39 -- 43
		39 -- 45
		39 -- 48
		39 -- 99
		39 -- 89
		39 -- 51
		39 -- 54
		39 -- 55
		39 -- 58
		39 -- 61
		39 -- 63
		40 -- 41
		40 -- 45
		40 -- 48
		40 -- 49
		40 -- 55
		40 -- 56
		40 -- 57
		40 -- 58
		40 -- 64
		40 -- 65
		40 -- 66
		40 -- 67
		40 -- 69
		40 -- 71
		40 -- 74
		40 -- 75
		40 -- 78
		40 -- 81
		40 -- 82
		40 -- 88
		40 -- 89
		40 -- 90
		40 -- 92
		40 -- 93
		40 -- 94
		40 -- 95
		40 -- 96
		40 -- 97
		40 -- 99
		41 -- 44
		41 -- 49
		41 -- 52
		41 -- 53
		41 -- 54
		41 -- 57
		41 -- 58
		41 -- 59
		41 -- 61
		41 -- 63
		41 -- 65
		41 -- 66
		41 -- 67
		41 -- 68
		41 -- 69
		41 -- 72
		41 -- 73
		41 -- 74
		41 -- 76
		41 -- 78
		41 -- 79
		41 -- 80
		41 -- 81
		41 -- 85
		41 -- 87
		41 -- 89
		41 -- 94
		41 -- 96
		41 -- 97
		41 -- 98
		41 -- 99
		42 -- 45
		42 -- 47
		42 -- 49
		42 -- 53
		42 -- 55
		42 -- 56
		42 -- 58
		42 -- 59
		42 -- 61
		42 -- 63
		42 -- 64
		42 -- 65
		42 -- 69
		42 -- 70
		42 -- 71
		42 -- 73
		42 -- 74
		42 -- 75
		42 -- 76
		42 -- 77
		42 -- 78
		42 -- 79
		42 -- 84
		42 -- 85
		42 -- 86
		42 -- 87
		42 -- 88
		42 -- 91
		42 -- 93
		42 -- 94
		42 -- 95
		42 -- 97
		42 -- 98
		42 -- 99
		43 -- 44
		43 -- 47
		43 -- 48
		43 -- 50
		43 -- 51
		43 -- 57
		43 -- 59
		43 -- 60
		43 -- 61
		43 -- 64
		43 -- 68
		43 -- 69
		43 -- 70
		43 -- 75
		43 -- 76
		43 -- 77
		43 -- 78
		43 -- 79
		43 -- 83
		43 -- 84
		43 -- 85
		43 -- 86
		43 -- 87
		43 -- 91
		43 -- 92
		43 -- 93
		43 -- 95
		43 -- 98
		44 -- 46
		44 -- 50
		44 -- 51
		44 -- 52
		44 -- 54
		44 -- 55
		44 -- 56
		44 -- 58
		44 -- 62
		44 -- 64
		44 -- 65
		44 -- 67
		44 -- 68
		44 -- 70
		44 -- 73
		44 -- 77
		44 -- 79
		44 -- 82
		44 -- 83
		44 -- 84
		44 -- 87
		44 -- 89
		44 -- 90
		44 -- 91
		44 -- 96
		44 -- 97
		44 -- 98
		44 -- 99
		45 -- 46
		45 -- 47
		45 -- 48
		45 -- 49
		45 -- 51
		45 -- 52
		45 -- 53
		45 -- 64
		45 -- 68
		45 -- 69
		45 -- 70
		45 -- 74
		45 -- 75
		45 -- 77
		45 -- 78
		45 -- 79
		45 -- 82
		45 -- 83
		45 -- 84
		45 -- 85
		45 -- 86
		45 -- 90
		45 -- 92
		45 -- 94
		45 -- 97
		45 -- 99
		46 -- 64
		46 -- 67
		46 -- 68
		46 -- 86
		46 -- 65
		46 -- 72
		46 -- 96
		46 -- 74
		46 -- 75
		46 -- 77
		46 -- 78
		46 -- 99
		46 -- 89
		46 -- 90
		46 -- 91
		46 -- 80
		46 -- 48
		46 -- 49
		46 -- 51
		46 -- 94
		46 -- 56
		46 -- 84
		46 -- 58
		46 -- 60
		47 -- 49
		47 -- 51
		47 -- 52
		47 -- 54
		47 -- 57
		47 -- 58
		47 -- 59
		47 -- 60
		47 -- 66
		47 -- 68
		47 -- 69
		47 -- 71
		47 -- 73
		47 -- 74
		47 -- 75
		47 -- 76
		47 -- 78
		47 -- 79
		47 -- 82
		47 -- 84
		47 -- 87
		47 -- 91
		47 -- 94
		47 -- 97
		48 -- 49
		48 -- 50
		48 -- 52
		48 -- 55
		48 -- 62
		48 -- 64
		48 -- 65
		48 -- 67
		48 -- 68
		48 -- 69
		48 -- 71
		48 -- 72
		48 -- 74
		48 -- 75
		48 -- 81
		48 -- 82
		48 -- 84
		48 -- 89
		48 -- 93
		48 -- 94
		48 -- 96
		48 -- 97
		49 -- 57
		49 -- 59
		49 -- 60
		49 -- 62
		49 -- 63
		49 -- 67
		49 -- 68
		49 -- 70
		49 -- 71
		49 -- 72
		49 -- 74
		49 -- 75
		49 -- 76
		49 -- 77
		49 -- 79
		49 -- 80
		49 -- 81
		49 -- 83
		49 -- 84
		49 -- 87
		49 -- 90
		49 -- 91
		49 -- 92
		49 -- 93
		49 -- 95
		49 -- 97
		50 -- 52
		50 -- 54
		50 -- 57
		50 -- 58
		50 -- 60
		50 -- 62
		50 -- 63
		50 -- 64
		50 -- 65
		50 -- 70
		50 -- 71
		50 -- 72
		50 -- 73
		50 -- 75
		50 -- 76
		50 -- 78
		50 -- 80
		50 -- 82
		50 -- 83
		50 -- 87
		50 -- 89
		50 -- 90
		50 -- 98
		50 -- 99
		51 -- 57
		51 -- 58
		51 -- 59
		51 -- 63
		51 -- 65
		51 -- 72
		51 -- 73
		51 -- 75
		51 -- 80
		51 -- 82
		51 -- 83
		51 -- 84
		51 -- 85
		51 -- 88
		51 -- 91
		51 -- 93
		51 -- 95
		51 -- 98
		51 -- 99
		52 -- 55
		52 -- 56
		52 -- 58
		52 -- 60
		52 -- 66
		52 -- 67
		52 -- 68
		52 -- 69
		52 -- 70
		52 -- 72
		52 -- 74
		52 -- 77
		52 -- 78
		52 -- 79
		52 -- 82
		52 -- 84
		52 -- 85
		52 -- 86
		52 -- 87
		52 -- 88
		52 -- 89
		52 -- 90
		52 -- 92
		52 -- 93
		52 -- 95
		52 -- 96
		52 -- 98
		52 -- 99
		53 -- 64
		53 -- 86
		53 -- 70
		53 -- 73
		53 -- 74
		53 -- 82
		53 -- 67
		53 -- 89
		53 -- 90
		53 -- 98
		53 -- 84
		53 -- 80
		53 -- 91
		53 -- 94
		53 -- 54
		53 -- 56
		53 -- 57
		54 -- 55
		54 -- 56
		54 -- 63
		54 -- 68
		54 -- 72
		54 -- 73
		54 -- 78
		54 -- 80
		54 -- 81
		54 -- 84
		54 -- 91
		54 -- 93
		54 -- 95
		54 -- 96
		54 -- 97
		54 -- 98
		55 -- 56
		55 -- 57
		55 -- 58
		55 -- 59
		55 -- 62
		55 -- 63
		55 -- 65
		55 -- 66
		55 -- 69
		55 -- 70
		55 -- 73
		55 -- 76
		55 -- 77
		55 -- 78
		55 -- 80
		55 -- 81
		55 -- 83
		55 -- 85
		55 -- 86
		55 -- 88
		55 -- 91
		55 -- 94
		55 -- 95
		55 -- 98
		56 -- 58
		56 -- 60
		56 -- 61
		56 -- 62
		56 -- 64
		56 -- 65
		56 -- 66
		56 -- 67
		56 -- 70
		56 -- 71
		56 -- 72
		56 -- 78
		56 -- 79
		56 -- 80
		56 -- 81
		56 -- 82
		56 -- 83
		56 -- 84
		56 -- 87
		56 -- 88
		56 -- 89
		56 -- 91
		56 -- 93
		56 -- 97
		56 -- 99
		57 -- 58
		57 -- 60
		57 -- 61
		57 -- 62
		57 -- 64
		57 -- 65
		57 -- 67
		57 -- 69
		57 -- 73
		57 -- 75
		57 -- 78
		57 -- 79
		57 -- 80
		57 -- 81
		57 -- 82
		57 -- 84
		57 -- 86
		57 -- 88
		57 -- 90
		57 -- 91
		57 -- 92
		57 -- 93
		57 -- 96
		57 -- 97
		58 -- 61
		58 -- 69
		58 -- 72
		58 -- 73
		58 -- 74
		58 -- 77
		58 -- 78
		58 -- 80
		58 -- 82
		58 -- 83
		58 -- 84
		58 -- 87
		58 -- 88
		58 -- 89
		58 -- 93
		58 -- 94
		58 -- 98
		59 -- 61
		59 -- 65
		59 -- 66
		59 -- 67
		59 -- 68
		59 -- 69
		59 -- 71
		59 -- 74
		59 -- 75
		59 -- 76
		59 -- 79
		59 -- 80
		59 -- 82
		59 -- 85
		59 -- 86
		59 -- 87
		59 -- 88
		59 -- 89
		59 -- 90
		59 -- 95
		59 -- 96
		60 -- 61
		60 -- 62
		60 -- 63
		60 -- 65
		60 -- 66
		60 -- 67
		60 -- 68
		60 -- 69
		60 -- 70
		60 -- 71
		60 -- 72
		60 -- 73
		60 -- 74
		60 -- 80
		60 -- 81
		60 -- 83
		60 -- 85
		60 -- 86
		60 -- 87
		60 -- 88
		60 -- 89
		60 -- 93
		60 -- 96
		61 -- 63
		61 -- 64
		61 -- 65
		61 -- 67
		61 -- 68
		61 -- 70
		61 -- 74
		61 -- 75
		61 -- 79
		61 -- 82
		61 -- 84
		61 -- 86
		61 -- 87
		61 -- 89
		61 -- 90
		61 -- 91
		61 -- 92
		61 -- 94
		62 -- 64
		62 -- 67
		62 -- 73
		62 -- 74
		62 -- 75
		62 -- 76
		62 -- 78
		62 -- 81
		62 -- 82
		62 -- 83
		62 -- 84
		62 -- 85
		62 -- 86
		62 -- 87
		62 -- 90
		62 -- 95
		62 -- 96
		62 -- 97
		62 -- 99
		63 -- 64
		63 -- 65
		63 -- 66
		63 -- 67
		63 -- 68
		63 -- 70
		63 -- 71
		63 -- 74
		63 -- 77
		63 -- 78
		63 -- 79
		63 -- 81
		63 -- 83
		63 -- 84
		63 -- 85
		63 -- 86
		63 -- 87
		63 -- 89
		63 -- 91
		63 -- 92
		63 -- 93
		63 -- 96
		64 -- 66
		64 -- 67
		64 -- 68
		64 -- 71
		64 -- 73
		64 -- 74
		64 -- 75
		64 -- 78
		64 -- 79
		64 -- 80
		64 -- 81
		64 -- 82
		64 -- 84
		64 -- 85
		64 -- 86
		64 -- 88
		64 -- 89
		64 -- 91
		64 -- 97
		64 -- 99
		65 -- 66
		65 -- 68
		65 -- 71
		65 -- 72
		65 -- 73
		65 -- 75
		65 -- 76
		65 -- 77
		65 -- 79
		65 -- 80
		65 -- 82
		65 -- 85
		65 -- 87
		65 -- 88
		65 -- 89
		65 -- 91
		65 -- 93
		65 -- 95
		65 -- 97
		65 -- 98
		65 -- 99
		66 -- 67
		66 -- 68
		66 -- 69
		66 -- 70
		66 -- 71
		66 -- 74
		66 -- 75
		66 -- 77
		66 -- 78
		66 -- 79
		66 -- 80
		66 -- 82
		66 -- 86
		66 -- 87
		66 -- 88
		66 -- 90
		66 -- 92
		66 -- 93
		66 -- 96
		66 -- 97
		66 -- 98
		66 -- 99
		67 -- 69
		67 -- 71
		67 -- 76
		67 -- 77
		67 -- 80
		67 -- 83
		67 -- 85
		67 -- 87
		67 -- 88
		67 -- 89
		67 -- 90
		67 -- 91
		67 -- 92
		67 -- 94
		67 -- 95
		67 -- 96
		67 -- 97
		67 -- 99
		68 -- 69
		68 -- 72
		68 -- 75
		68 -- 77
		68 -- 80
		68 -- 81
		68 -- 87
		68 -- 88
		68 -- 89
		68 -- 90
		68 -- 91
		68 -- 95
		69 -- 71
		69 -- 72
		69 -- 73
		69 -- 76
		69 -- 78
		69 -- 80
		69 -- 86
		69 -- 87
		69 -- 88
		69 -- 89
		69 -- 90
		69 -- 91
		69 -- 94
		69 -- 95
		69 -- 98
		69 -- 99
		70 -- 71
		70 -- 73
		70 -- 75
		70 -- 76
		70 -- 80
		70 -- 86
		70 -- 88
		70 -- 89
		70 -- 90
		70 -- 91
		70 -- 92
		70 -- 94
		70 -- 95
		70 -- 96
		70 -- 97
		70 -- 98
		70 -- 99
		71 -- 75
		71 -- 76
		71 -- 78
		71 -- 79
		71 -- 81
		71 -- 82
		71 -- 84
		71 -- 86
		71 -- 89
		71 -- 90
		71 -- 92
		71 -- 93
		71 -- 94
		71 -- 95
		71 -- 98
		72 -- 73
		72 -- 74
		72 -- 75
		72 -- 77
		72 -- 78
		72 -- 80
		72 -- 84
		72 -- 87
		72 -- 89
		72 -- 90
		72 -- 91
		72 -- 92
		72 -- 93
		72 -- 94
		72 -- 95
		72 -- 96
		72 -- 97
		73 -- 74
		73 -- 76
		73 -- 79
		73 -- 84
		73 -- 86
		73 -- 88
		73 -- 89
		73 -- 90
		73 -- 92
		73 -- 96
		73 -- 97
		73 -- 98
		73 -- 99
		74 -- 79
		74 -- 80
		74 -- 83
		74 -- 84
		74 -- 87
		74 -- 88
		74 -- 91
		74 -- 95
		74 -- 96
		74 -- 98
		74 -- 99
		75 -- 78
		75 -- 79
		75 -- 80
		75 -- 81
		75 -- 83
		75 -- 85
		75 -- 91
		75 -- 94
		76 -- 80
		76 -- 82
		76 -- 83
		76 -- 86
		76 -- 89
		76 -- 92
		76 -- 93
		76 -- 96
		76 -- 99
		77 -- 78
		77 -- 79
		77 -- 80
		77 -- 81
		77 -- 82
		77 -- 87
		77 -- 89
		77 -- 91
		77 -- 94
		77 -- 96
		77 -- 97
		77 -- 99
		78 -- 79
		78 -- 80
		78 -- 81
		78 -- 82
		78 -- 84
		78 -- 88
		78 -- 89
		78 -- 90
		78 -- 91
		78 -- 92
		78 -- 94
		78 -- 95
		78 -- 98
		78 -- 99
		79 -- 80
		79 -- 83
		79 -- 85
		79 -- 86
		79 -- 87
		79 -- 89
		79 -- 93
		79 -- 94
		79 -- 96
		79 -- 98
		79 -- 99
		80 -- 82
		80 -- 84
		80 -- 85
		80 -- 86
		80 -- 88
		80 -- 89
		80 -- 90
		80 -- 91
		80 -- 92
		80 -- 93
		80 -- 95
		80 -- 96
		80 -- 97
		80 -- 98
		80 -- 99
		81 -- 86
		81 -- 84
		81 -- 87
		81 -- 89
		81 -- 92
		81 -- 93
		81 -- 94
		82 -- 87
		82 -- 89
		82 -- 90
		82 -- 92
		82 -- 96
		82 -- 98
		83 -- 85
		83 -- 90
		83 -- 91
		83 -- 95
		83 -- 96
		83 -- 98
		83 -- 99
		84 -- 85
		84 -- 91
		84 -- 93
		84 -- 98
		84 -- 99
		85 -- 98
		85 -- 90
		85 -- 92
		85 -- 99
		85 -- 87
		86 -- 87
		86 -- 88
		86 -- 89
		86 -- 95
		86 -- 97
		86 -- 98
		87 -- 88
		87 -- 92
		87 -- 93
		87 -- 97
		88 -- 97
		88 -- 98
		88 -- 89
		89 -- 90
		89 -- 92
		89 -- 93
		89 -- 94
		89 -- 95
		89 -- 98
		90 -- 95
		90 -- 97
		90 -- 98
		91 -- 93
		91 -- 94
		91 -- 96
		91 -- 97
		91 -- 98
		92 -- 93
		92 -- 94
		92 -- 95
		92 -- 98
		92 -- 99
		93 -- 95
		93 -- 97
		93 -- 98
		93 -- 99
		94 -- 95
		94 -- 97
		94 -- 99
		95 -- 99
		96 -- 99
		97 -- 99
}