100
106 13
174 277
218 100
21 55
276 264
108 105
175 264
276 160
83 110
272 9
124 262
28 8
113 253
101 286
35 220
275 99
116 175
252 50
111 11
269 277
116 250
41 20
94 247
98 128
96 152
154 118
171 236
180 172
230 262
272 192
38 191
245 83
9 41
182 219
265 5
89 239
10 265
272 221
181 257
141 136
83 192
286 159
294 251
45 87
188 136
251 185
219 267
95 124
241 28
269 66
165 5
254 62
238 42
78 172
126 103
169 30
194 67
174 88
77 183
163 159
149 274
221 218
292 280
144 80
125 200
8 289
284 49
28 9
256 49
265 243
33 193
180 215
219 68
46 279
201 44
197 234
12 199
285 194
274 20
88 213
254 273
271 93
286 23
175 142
29 5
285 129
87 286
166 216
275 283
124 198
79 33
109 143
294 249
102 249
226 17
204 155
56 234
8 208
152 91
292 253
0 64
0 1
0 66
0 3
0 4
0 69
0 7
0 9
0 11
0 12
0 13
0 78
0 15
0 17
0 18
0 20
0 22
0 89
0 68
0 90
0 86
0 95
0 32
0 98
0 38
0 81
0 92
0 82
0 46
0 48
0 50
0 55
0 56
0 84
1 3
1 5
1 10
1 11
1 12
1 14
1 16
1 19
1 21
1 26
1 27
1 28
1 29
1 33
1 38
1 39
1 40
1 41
1 42
1 43
1 45
1 46
1 47
1 50
1 53
1 54
1 55
1 56
1 58
1 62
1 66
1 70
1 71
1 74
1 76
1 82
1 83
1 84
1 85
1 86
1 90
1 91
1 95
1 98
1 99
2 3
2 4
2 5
2 7
2 8
2 9
2 11
2 12
2 13
2 14
2 15
2 16
2 18
2 19
2 20
2 22
2 24
2 25
2 26
2 27
2 32
2 33
2 34
2 35
2 37
2 42
2 45
2 52
2 56
2 57
2 62
2 63
2 64
2 66
2 70
2 71
2 72
2 73
2 78
2 79
2 85
2 90
2 91
2 92
2 97
2 98
2 99
3 6
3 8
3 11
3 16
3 22
3 23
3 24
3 25
3 27
3 28
3 29
3 30
3 31
3 32
3 34
3 35
3 36
3 39
3 42
3 45
3 47
3 50
3 51
3 52
3 54
3 56
3 57
3 58
3 61
3 62
3 63
3 65
3 66
3 67
3 69
3 72
3 74
3 75
3 78
3 79
3 81
3 82
3 85
3 87
3 88
3 90
3 91
3 94
3 95
4 5
4 7
4 11
4 12
4 13
4 14
4 16
4 17
4 21
4 22
4 23
4 27
4 28
4 29
4 31
4 32
4 37
4 38
4 39
4 40
4 41
4 44
4 45
4 46
4 47
4 48
4 50
4 51
4 53
4 55
4 56
4 59
4 61
4 62
4 64
4 65
4 66
4 71
4 72
4 73
4 75
4 76
4 77
4 78
4 80
4 82
4 83
4 84
4 87
4 89
4 95
4 96
4 97
4 99
5 10
5 11
5 13
5 15
5 17
5 18
5 23
5 25
5 27
5 31
5 32
5 33
5 34
5 36
5 37
5 38
5 39
5 42
5 43
5 46
5 47
5 48
5 49
5 50
5 51
5 55
5 56
5 57
5 58
5 59
5 61
5 62
5 65
5 67
5 70
5 74
5 75
5 76
5 78
5 79
5 80
5 82
5 83
5 84
5 89
5 90
5 91
5 93
5 94
5 95
5 96
5 98
5 99
6 7
6 8
6 11
6 12
6 13
6 15
6 18
6 19
6 20
6 21
6 22
6 25
6 26
6 29
6 31
6 34
6 36
6 38
6 40
6 42
6 43
6 44
6 47
6 49
6 50
6 51
6 52
6 53
6 54
6 56
6 59
6 60
6 61
6 63
6 65
6 70
6 73
6 80
6 81
6 83
6 84
6 89
6 92
6 93
6 94
6 97
6 98
7 8
7 9
7 12
7 14
7 16
7 17
7 18
7 20
7 21
7 22
7 23
7 26
7 27
7 32
7 33
7 35
7 37
7 39
7 45
7 47
7 49
7 52
7 55
7 58
7 59
7 62
7 63
7 68
7 70
7 73
7 74
7 75
7 76
7 77
7 78
7 79
7 81
7 82
7 84
7 86
7 87
7 90
7 91
7 92
7 93
7 96
7 98
8 9
8 12
8 13
8 17
8 20
8 21
8 22
8 27
8 28
8 30
8 33
8 35
8 38
8 39
8 40
8 41
8 44
8 45
8 46
8 47
8 48
8 54
8 56
8 59
8 61
8 62
8 63
8 64
8 66
8 69
8 74
8 76
8 77
8 80
8 84
8 86
8 89
8 90
8 92
8 93
8 94
8 95
8 96
9 10
9 12
9 13
9 14
9 16
9 19
9 20
9 22
9 24
9 27
9 28
9 32
9 33
9 36
9 37
9 38
9 40
9 43
9 46
9 48
9 49
9 50
9 52
9 53
9 54
9 55
9 56
9 60
9 61
9 62
9 63
9 67
9 68
9 69
9 70
9 71
9 73
9 74
9 78
9 80
9 82
9 83
9 84
9 85
9 86
9 88
9 90
9 91
9 96
9 97
9 98
10 11
10 12
10 17
10 20
10 22
10 25
10 27
10 28
10 29
10 33
10 34
10 36
10 37
10 38
10 39
10 40
10 46
10 48
10 49
10 55
10 57
10 59
10 60
10 61
10 63
10 64
10 69
10 74
10 76
10 78
10 79
10 81
10 83
10 85
10 86
10 89
10 90
10 91
10 94
10 96
10 97
10 98
10 99
11 12
11 13
11 14
11 16
11 21
11 23
11 24
11 26
11 29
11 31
11 32
11 35
11 36
11 39
11 44
11 49
11 52
11 53
11 54
11 55
11 56
11 57
11 61
11 62
11 63
11 66
11 67
11 69
11 71
11 73
11 74
11 76
11 78
11 79
11 80
11 81
11 83
11 87
11 89
11 90
11 91
11 92
11 94
11 96
11 99
12 14
12 16
12 19
12 20
12 21
12 24
12 25
12 27
12 28
12 30
12 31
12 32
12 33
12 34
12 35
12 36
12 39
12 40
12 41
12 42
12 43
12 45
12 46
12 47
12 48
12 50
12 52
12 53
12 54
12 55
12 56
12 57
12 59
12 60
12 61
12 62
12 64
12 66
12 71
12 74
12 78
12 80
12 82
12 89
12 93
12 94
12 96
13 17
13 20
13 21
13 22
13 23
13 25
13 26
13 30
13 32
13 34
13 36
13 37
13 40
13 43
13 44
13 46
13 47
13 48
13 49
13 50
13 51
13 52
13 53
13 59
13 60
13 62
13 64
13 70
13 72
13 73
13 74
13 75
13 76
13 77
13 81
13 83
13 85
13 86
13 87
13 89
13 90
14 15
14 18
14 19
14 22
14 23
14 25
14 26
14 29
14 30
14 36
14 38
14 39
14 46
14 47
14 48
14 58
14 59
14 60
14 61
14 62
14 64
14 68
14 71
14 74
14 75
14 78
14 79
14 81
14 82
14 86
14 87
14 91
14 92
14 93
14 95
14 96
14 97
15 65
15 72
15 73
15 76
15 66
15 79
15 17
15 82
15 83
15 20
15 22
15 25
15 27
15 86
15 93
15 94
15 81
15 96
15 97
15 34
15 35
15 70
15 39
15 40
15 42
15 43
15 44
15 45
15 99
15 52
15 57
15 58
15 59
15 60
15 61
16 17
16 18
16 19
16 20
16 22
16 26
16 28
16 32
16 33
16 38
16 39
16 42
16 43
16 49
16 53
16 56
16 60
16 61
16 63
16 64
16 65
16 66
16 67
16 72
16 73
16 75
16 76
16 77
16 78
16 79
16 80
16 81
16 82
16 83
16 84
16 85
16 87
16 91
16 92
16 93
16 95
17 19
17 22
17 23
17 28
17 31
17 33
17 34
17 35
17 36
17 38
17 39
17 41
17 42
17 44
17 47
17 49
17 50
17 52
17 55
17 59
17 60
17 62
17 63
17 65
17 67
17 68
17 69
17 71
17 73
17 75
17 77
17 78
17 80
17 81
17 82
17 84
17 85
17 87
17 89
17 90
17 91
17 92
17 93
17 95
17 96
17 97
17 99
18 19
18 20
18 21
18 22
18 28
18 33
18 35
18 37
18 41
18 45
18 47
18 48
18 50
18 52
18 58
18 63
18 64
18 65
18 66
18 67
18 68
18 69
18 70
18 71
18 72
18 73
18 75
18 76
18 78
18 79
18 80
18 81
18 82
18 84
18 86
18 88
18 94
18 95
18 96
18 99
19 21
19 22
19 23
19 25
19 26
19 29
19 30
19 36
19 38
19 39
19 40
19 42
19 44
19 45
19 46
19 47
19 48
19 50
19 56
19 58
19 61
19 62
19 65
19 66
19 67
19 70
19 71
19 73
19 76
19 79
19 80
19 81
19 82
19 84
19 86
19 90
19 91
19 93
19 95
19 96
20 21
20 23
20 24
20 25
20 26
20 30
20 34
20 36
20 37
20 38
20 39
20 42
20 44
20 46
20 49
20 50
20 51
20 52
20 53
20 54
20 56
20 57
20 59
20 60
20 62
20 64
20 65
20 66
20 67
20 68
20 69
20 72
20 73
20 74
20 76
20 81
20 83
20 85
20 86
20 90
20 93
20 96
20 97
20 98
21 23
21 24
21 25
21 26
21 28
21 29
21 31
21 34
21 35
21 36
21 38
21 39
21 40
21 41
21 43
21 44
21 47
21 51
21 53
21 55
21 56
21 58
21 59
21 61
21 66
21 68
21 69
21 70
21 71
21 73
21 74
21 76
21 79
21 80
21 81
21 83
21 84
21 85
21 88
21 90
21 93
21 94
21 95
21 99
22 23
22 25
22 27
22 28
22 29
22 30
22 32
22 35
22 36
22 39
22 40
22 44
22 48
22 51
22 52
22 54
22 55
22 56
22 58
22 59
22 60
22 61
22 64
22 65
22 66
22 69
22 72
22 79
22 85
22 87
22 89
22 90
22 91
22 92
22 96
22 97
23 25
23 26
23 27
23 29
23 30
23 31
23 32
23 34
23 35
23 36
23 37
23 38
23 39
23 41
23 42
23 45
23 46
23 47
23 50
23 53
23 55
23 56
23 63
23 64
23 65
23 66
23 68
23 69
23 72
23 80
23 81
23 83
23 85
23 86
23 91
23 92
23 93
23 95
23 96
23 97
23 98
23 99
24 65
24 68
24 69
24 71
24 74
24 66
24 78
24 81
24 75
24 83
24 87
24 91
24 29
24 94
24 95
24 32
24 33
24 35
24 36
24 97
24 41
24 42
24 43
24 44
24 82
24 46
24 49
24 52
24 55
24 84
24 58
24 60
24 61
24 85
25 30
25 34
25 36
25 38
25 39
25 41
25 42
25 44
25 45
25 46
25 50
25 52
25 53
25 55
25 56
25 58
25 64
25 66
25 67
25 68
25 72
25 74
25 75
25 78
25 79
25 80
25 83
25 87
25 88
25 90
25 91
25 92
25 96
25 99
26 27
26 28
26 29
26 31
26 35
26 37
26 39
26 41
26 42
26 44
26 47
26 52
26 53
26 55
26 59
26 64
26 66
26 68
26 70
26 71
26 74
26 77
26 78
26 79
26 82
26 85
26 87
26 88
26 91
26 93
26 95
26 96
27 30
27 31
27 32
27 35
27 38
27 39
27 40
27 41
27 43
27 45
27 47
27 48
27 49
27 51
27 52
27 54
27 58
27 60
27 62
27 63
27 65
27 69
27 73
27 76
27 78
27 79
27 82
27 83
27 84
27 86
27 87
27 91
27 93
27 95
27 96
27 99
28 64
28 69
28 71
28 83
28 68
28 91
28 86
28 29
28 94
28 31
28 96
28 33
28 35
28 36
28 37
28 97
28 39
28 41
28 42
28 43
28 93
28 49
28 54
28 55
28 56
28 57
28 59
28 60
28 74
28 85
29 30
29 31
29 33
29 39
29 40
29 43
29 44
29 46
29 48
29 49
29 51
29 54
29 56
29 58
29 60
29 62
29 63
29 64
29 66
29 67
29 69
29 71
29 73
29 76
29 79
29 81
29 82
29 83
29 84
29 87
29 88
29 89
29 90
29 91
29 92
29 94
29 96
29 97
29 98
30 31
30 34
30 36
30 37
30 41
30 42
30 43
30 44
30 45
30 49
30 50
30 53
30 54
30 59
30 63
30 67
30 69
30 70
30 71
30 73
30 74
30 77
30 78
30 79
30 80
30 81
30 83
30 85
30 86
30 87
30 88
30 90
30 97
31 64
31 65
31 83
31 72
31 73
31 74
31 98
31 78
31 67
31 84
31 86
31 68
31 69
31 33
31 34
31 91
31 38
31 92
31 43
31 44
31 46
31 47
31 49
31 51
31 94
31 57
31 58
31 61
32 89
32 81
32 82
32 67
32 66
32 83
32 90
32 69
32 80
32 34
32 87
32 42
32 43
32 51
32 52
32 54
32 56
32 58
32 95
32 60
32 62
32 63
33 34
33 35
33 36
33 37
33 40
33 41
33 42
33 43
33 53
33 55
33 56
33 62
33 66
33 72
33 73
33 76
33 77
33 79
33 80
33 81
33 83
33 84
33 85
33 87
33 88
33 89
33 95
33 97
33 98
33 99
34 35
34 37
34 41
34 42
34 43
34 44
34 49
34 54
34 55
34 56
34 57
34 58
34 59
34 60
34 61
34 62
34 63
34 65
34 66
34 69
34 71
34 75
34 77
34 78
34 80
34 81
34 83
34 86
34 88
34 89
34 90
34 91
34 96
35 36
35 37
35 40
35 41
35 42
35 44
35 45
35 47
35 51
35 52
35 55
35 59
35 60
35 64
35 67
35 70
35 74
35 75
35 77
35 79
35 80
35 82
35 84
35 85
35 87
35 88
35 89
35 93
35 96
35 99
36 39
36 40
36 41
36 43
36 46
36 51
36 53
36 57
36 58
36 60
36 62
36 63
36 64
36 65
36 67
36 68
36 70
36 71
36 73
36 78
36 79
36 82
36 83
36 84
36 87
36 91
36 94
36 96
36 98
37 65
37 71
37 87
37 76
37 78
37 79
37 80
37 81
37 83
37 66
37 68
37 91
37 38
37 39
37 41
37 42
37 43
37 46
37 47
37 48
37 49
37 50
37 53
37 89
37 57
37 94
37 62
38 39
38 43
38 44
38 46
38 51
38 52
38 54
38 55
38 59
38 60
38 61
38 63
38 64
38 66
38 67
38 68
38 69
38 73
38 74
38 76
38 77
38 79
38 81
38 85
38 87
38 88
38 90
38 91
38 93
38 94
38 95
38 97
39 40
39 41
39 43
39 46
39 48
39 49
39 53
39 54
39 58
39 60
39 63
39 64
39 69
39 70
39 72
39 74
39 75
39 76
39 77
39 80
39 81
39 87
39 89
39 90
39 93
39 94
39 95
39 96
39 97
40 66
40 67
40 71
40 83
40 78
40 80
40 81
40 84
40 68
40 41
40 97
40 46
40 48
40 72
40 50
40 79
40 54
40 58
40 76
40 60
40 74
40 85
40 63
41 43
41 46
41 47
41 48
41 51
41 52
41 53
41 55
41 58
41 60
41 62
41 65
41 68
41 69
41 70
41 72
41 73
41 74
41 75
41 79
41 82
41 84
41 85
41 86
41 89
41 91
41 92
41 93
41 95
41 96
41 97
41 98
41 99
42 44
42 46
42 47
42 48
42 49
42 50
42 51
42 52
42 54
42 59
42 60
42 61
42 65
42 66
42 68
42 69
42 70
42 71
42 74
42 75
42 77
42 79
42 85
42 87
42 88
42 89
42 91
42 93
42 95
42 98
42 99
43 46
43 47
43 49
43 51
43 52
43 56
43 58
43 60
43 63
43 65
43 70
43 72
43 74
43 75
43 77
43 78
43 82
43 83
43 84
43 86
43 88
43 89
43 91
43 92
43 94
43 98
44 45
44 46
44 48
44 52
44 53
44 55
44 56
44 57
44 58
44 61
44 63
44 65
44 66
44 67
44 69
44 70
44 71
44 73
44 74
44 75
44 76
44 77
44 79
44 81
44 82
44 83
44 84
44 85
44 87
44 89
44 92
44 93
44 95
44 97
45 64
45 68
45 79
45 83
45 66
45 77
45 80
45 81
45 84
45 85
45 86
45 95
45 96
45 97
45 67
45 70
45 71
45 47
45 48
45 51
45 52
45 53
45 54
45 55
45 56
45 62
45 63
46 47
46 48
46 49
46 55
46 56
46 60
46 61
46 62
46 65
46 66
46 67
46 68
46 70
46 77
46 78
46 80
46 81
46 82
46 85
46 89
46 90
46 91
46 92
46 95
46 96
46 97
46 98
47 48
47 51
47 55
47 57
47 59
47 61
47 63
47 64
47 67
47 68
47 70
47 71
47 72
47 74
47 75
47 76
47 77
47 82
47 84
47 85
47 86
47 89
47 92
47 94
47 95
47 96
47 99
48 67
48 71
48 75
48 79
48 84
48 78
48 87
48 88
48 74
48 86
48 95
48 98
48 99
48 49
48 52
48 73
48 58
48 60
48 61
48 63
49 51
49 54
49 56
49 58
49 59
49 60
49 61
49 62
49 63
49 64
49 65
49 66
49 67
49 68
49 69
49 70
49 73
49 80
49 81
49 83
49 88
49 89
49 90
49 95
49 97
49 98
49 99
50 83
50 74
50 75
50 78
50 79
50 85
50 86
50 90
50 92
50 95
50 84
50 99
50 94
50 89
50 51
50 53
50 54
50 55
50 56
50 57
50 87
50 59
50 70
50 61
51 53
51 60
51 62
51 63
51 64
51 66
51 67
51 69
51 70
51 71
51 72
51 74
51 76
51 77
51 78
51 82
51 83
51 84
51 86
51 87
51 88
51 89
51 91
51 92
51 93
51 95
51 96
51 98
51 99
52 55
52 56
52 60
52 61
52 63
52 66
52 69
52 70
52 71
52 72
52 74
52 75
52 80
52 86
52 87
52 89
52 90
52 93
52 94
53 59
53 60
53 62
53 63
53 65
53 66
53 68
53 70
53 71
53 77
53 79
53 80
53 81
53 84
53 85
53 87
53 90
53 92
53 95
53 96
53 98
54 74
54 79
54 80
54 81
54 82
54 67
54 87
54 88
54 72
54 99
54 70
54 92
54 56
54 57
54 61
54 63
55 56
55 58
55 59
55 60
55 61
55 62
55 63
55 64
55 66
55 67
55 69
55 70
55 72
55 73
55 74
55 78
55 80
55 83
55 87
55 90
55 93
55 95
55 99
56 58
56 59
56 63
56 64
56 65
56 69
56 71
56 72
56 74
56 76
56 77
56 81
56 82
56 88
56 90
56 91
56 94
56 95
56 97
56 98
57 65
57 72
57 76
57 66
57 78
57 75
57 83
57 85
57 88
57 90
57 93
57 69
57 97
57 99
57 92
57 82
57 84
57 59
57 60
58 62
58 63
58 64
58 66
58 67
58 70
58 73
58 75
58 76
58 77
58 80
58 83
58 84
58 85
58 94
58 95
58 96
59 61
59 64
59 65
59 68
59 70
59 73
59 74
59 75
59 76
59 77
59 79
59 80
59 81
59 84
59 86
59 87
59 90
59 91
59 92
59 94
59 96
59 97
59 98
60 62
60 63
60 65
60 66
60 70
60 71
60 73
60 75
60 77
60 79
60 80
60 81
60 84
60 85
60 87
60 88
60 90
60 93
60 94
60 96
60 98
60 99
61 66
61 68
61 71
61 76
61 78
61 83
61 85
61 88
61 89
61 90
61 94
61 95
61 96
61 97
62 63
62 66
62 68
62 70
62 73
62 75
62 77
62 79
62 82
62 84
62 85
62 91
62 92
62 96
62 99
63 64
63 65
63 66
63 67
63 72
63 73
63 74
63 75
63 76
63 77
63 79
63 83
63 84
63 85
63 88
63 90
63 94
63 95
63 96
63 97
63 98
63 99
64 67
64 71
64 74
64 77
64 79
64 81
64 82
64 84
64 85
64 87
64 89
64 90
64 91
64 92
64 94
64 95
64 98
65 66
65 67
65 68
65 69
65 72
65 73
65 74
65 75
65 79
65 80
65 82
65 83
65 85
65 86
65 88
65 89
65 90
65 92
65 98
65 99
66 69
66 75
66 81
66 83
66 86
66 88
66 89
66 90
66 92
66 95
66 97
67 68
67 76
67 79
67 93
67 69
67 98
67 81
67 96
67 82
67 99
68 70
68 71
68 72
68 73
68 76
68 77
68 78
68 82
68 85
68 86
68 87
68 88
68 91
68 96
68 97
68 98
68 99
69 73
69 79
69 80
69 81
69 83
69 85
69 90
69 93
69 94
69 97
69 99
70 74
70 75
70 81
70 83
70 84
70 88
70 89
70 91
70 92
70 95
71 72
71 74
71 76
71 77
71 78
71 79
71 84
71 85
71 86
71 88
71 90
71 93
71 94
71 95
71 98
72 73
72 74
72 75
72 89
72 77
72 85
72 88
72 79
72 93
72 94
72 99
72 82
73 78
73 79
73 81
73 82
73 83
73 86
73 88
73 90
73 94
73 96
73 99
74 76
74 79
74 81
74 83
74 84
74 86
74 89
74 95
74 96
74 97
74 98
74 99
75 77
75 78
75 79
75 80
75 81
75 85
75 86
75 87
75 88
75 90
75 91
75 92
75 94
75 96
76 77
76 79
76 81
76 84
76 87
76 89
76 90
76 91
76 92
76 94
76 95
76 96
76 98
76 99
77 78
77 81
77 82
77 83
77 86
77 87
77 88
77 90
77 92
77 93
77 94
77 95
77 97
77 98
77 99
78 79
78 83
78 84
78 86
78 87
78 88
78 90
78 91
78 92
78 96
78 98
79 82
79 83
79 84
79 86
79 87
79 88
79 91
79 92
79 93
79 95
79 97
79 99
80 86
80 91
80 93
80 96
80 87
80 85
81 85
81 86
81 87
81 89
81 91
81 93
81 96
81 98
81 99
82 83
82 86
82 87
82 88
82 91
82 92
82 93
82 97
82 98
82 99
83 84
83 85
83 87
83 88
83 91
83 92
83 94
83 95
83 96
83 98
83 99
84 85
84 87
84 90
84 91
84 93
84 94
84 96
84 98
85 87
85 88
85 90
85 91
85 94
85 95
85 97
86 87
86 88
86 89
86 90
86 92
86 95
86 98
87 88
87 89
87 90
87 93
87 94
87 95
87 97
88 89
88 90
88 92
88 93
88 95
88 96
88 99
89 90
89 93
89 94
89 95
89 97
89 98
90 98
90 99
91 93
91 94
91 95
91 96
91 99
92 94
92 98
93 94
93 95
93 96
93 97
93 99
94 95
94 97
94 99
95 98
95 99
97 98
98 99
