100
189 126
212 298
18 248
196 141
38 60
254 246
67 69
197 145
118 190
63 116
123 152
62 296
182 154
65 195
3 178
195 290
4 39
121 120
148 97
87 219
153 171
293 110
79 82
240 31
276 292
202 281
227 4
251 68
201 74
117 131
242 85
192 236
244 227
19 89
12 232
252 59
10 155
76 77
234 202
91 11
115 210
217 192
80 84
258 69
6 163
23 258
234 191
3 133
59 221
269 7
98 3
148 230
89 83
272 96
150 15
244 8
62 300
100 236
171 54
69 142
211 127
118 32
13 268
149 197
290 267
120 77
298 7
263 291
277 50
39 292
80 200
151 217
102 166
128 119
229 201
83 31
141 38
1 27
274 19
162 269
253 76
214 258
152 96
132 116
5 80
279 34
300 175
137 272
122 249
293 231
1 107
294 249
81 87
23 84
236 14
108 42
4 274
15 97
230 200
262 240
0 2
0 4
0 5
0 8
0 10
0 11
0 12
0 15
0 17
0 20
0 22
0 23
0 24
0 25
0 27
0 28
0 29
0 32
0 33
0 34
0 35
0 37
0 38
0 39
0 40
0 41
0 44
0 46
0 47
0 48
0 49
0 50
0 52
0 54
0 56
0 57
0 60
0 61
0 64
0 66
0 67
0 69
0 71
0 72
0 73
0 77
0 84
0 87
0 90
0 91
0 92
0 94
0 97
0 98
0 99
1 5
1 9
1 10
1 11
1 12
1 13
1 15
1 16
1 17
1 18
1 23
1 25
1 28
1 30
1 31
1 33
1 34
1 35
1 36
1 41
1 42
1 44
1 48
1 49
1 50
1 55
1 56
1 64
1 66
1 68
1 70
1 74
1 75
1 76
1 78
1 80
1 81
1 83
1 85
1 86
1 90
1 91
1 92
1 93
1 95
1 97
2 6
2 7
2 9
2 10
2 12
2 13
2 14
2 15
2 17
2 20
2 21
2 22
2 28
2 30
2 31
2 33
2 34
2 35
2 37
2 38
2 39
2 40
2 41
2 42
2 43
2 44
2 46
2 47
2 51
2 55
2 58
2 59
2 62
2 65
2 66
2 68
2 70
2 72
2 76
2 77
2 78
2 80
2 84
2 85
2 86
2 89
2 90
2 93
2 95
2 96
2 99
3 7
3 8
3 9
3 10
3 11
3 12
3 14
3 15
3 16
3 17
3 18
3 23
3 27
3 28
3 33
3 34
3 35
3 36
3 37
3 38
3 39
3 41
3 42
3 43
3 47
3 51
3 52
3 54
3 55
3 57
3 60
3 62
3 66
3 67
3 68
3 70
3 75
3 76
3 77
3 80
3 81
3 82
3 84
3 85
3 88
3 89
3 91
3 92
3 93
3 94
3 95
3 98
4 64
4 83
4 5
4 79
4 72
4 9
4 10
4 11
4 12
4 13
4 14
4 15
4 16
4 17
4 18
4 19
4 86
4 24
4 89
4 27
4 28
4 29
4 30
4 31
4 97
4 35
4 38
4 81
4 95
4 43
4 82
4 46
4 47
4 48
4 51
4 94
4 54
4 56
4 88
4 59
4 61
4 63
5 6
5 8
5 11
5 13
5 16
5 19
5 20
5 22
5 24
5 25
5 26
5 27
5 28
5 29
5 32
5 36
5 40
5 41
5 42
5 43
5 45
5 49
5 50
5 55
5 56
5 59
5 61
5 63
5 64
5 65
5 66
5 68
5 69
5 72
5 73
5 74
5 75
5 76
5 77
5 78
5 81
5 83
5 87
5 88
5 91
5 92
5 94
5 95
5 97
5 98
6 64
6 65
6 75
6 8
6 73
6 10
6 11
6 76
6 14
6 15
6 88
6 18
6 83
6 20
6 78
6 22
6 87
6 24
6 89
6 26
6 27
6 29
6 30
6 96
6 33
6 98
6 91
6 36
6 90
6 38
6 39
6 40
6 43
6 99
6 94
6 51
6 53
6 54
6 84
6 59
6 74
7 8
7 9
7 10
7 13
7 14
7 15
7 18
7 20
7 21
7 25
7 26
7 27
7 28
7 30
7 37
7 40
7 41
7 42
7 43
7 44
7 45
7 46
7 48
7 49
7 50
7 52
7 53
7 54
7 58
7 59
7 61
7 62
7 64
7 67
7 69
7 70
7 71
7 72
7 73
7 75
7 79
7 80
7 81
7 82
7 83
7 84
7 85
7 87
7 88
7 90
7 92
7 93
7 95
7 96
7 97
7 99
8 10
8 11
8 14
8 15
8 19
8 21
8 23
8 24
8 26
8 28
8 33
8 34
8 39
8 44
8 45
8 50
8 52
8 54
8 58
8 61
8 62
8 63
8 67
8 69
8 71
8 75
8 76
8 77
8 78
8 81
8 82
8 84
8 85
8 88
8 91
8 93
8 94
8 95
8 96
8 97
8 98
9 10
9 11
9 12
9 13
9 14
9 15
9 17
9 19
9 20
9 21
9 26
9 27
9 32
9 41
9 43
9 45
9 48
9 49
9 54
9 56
9 59
9 60
9 61
9 62
9 63
9 67
9 70
9 71
9 73
9 75
9 77
9 78
9 79
9 80
9 82
9 83
9 87
9 89
9 91
9 94
9 95
9 99
10 12
10 14
10 19
10 22
10 24
10 26
10 27
10 29
10 30
10 34
10 36
10 38
10 39
10 40
10 45
10 46
10 50
10 51
10 53
10 54
10 56
10 58
10 59
10 60
10 61
10 62
10 63
10 64
10 65
10 67
10 69
10 71
10 72
10 76
10 77
10 89
10 92
10 93
10 94
10 95
10 97
10 98
11 14
11 15
11 16
11 17
11 20
11 22
11 26
11 30
11 32
11 33
11 34
11 38
11 45
11 47
11 48
11 49
11 51
11 52
11 54
11 56
11 63
11 64
11 65
11 66
11 68
11 71
11 78
11 80
11 81
11 82
11 85
11 87
11 88
11 91
11 93
11 95
11 96
11 99
12 13
12 14
12 16
12 19
12 26
12 31
12 34
12 35
12 36
12 37
12 38
12 40
12 41
12 42
12 44
12 46
12 48
12 50
12 51
12 52
12 58
12 63
12 65
12 66
12 67
12 68
12 69
12 70
12 71
12 72
12 73
12 76
12 80
12 81
12 82
12 83
12 84
12 85
12 89
12 90
12 92
12 93
12 94
12 95
12 96
12 97
12 98
13 16
13 17
13 18
13 19
13 20
13 21
13 24
13 33
13 34
13 35
13 36
13 37
13 38
13 39
13 40
13 42
13 44
13 46
13 49
13 52
13 54
13 55
13 58
13 61
13 63
13 65
13 66
13 68
13 69
13 71
13 73
13 74
13 76
13 77
13 84
13 87
13 88
13 90
13 91
13 92
13 93
13 95
13 98
13 99
14 16
14 18
14 19
14 21
14 22
14 23
14 24
14 25
14 28
14 29
14 31
14 32
14 33
14 35
14 41
14 44
14 46
14 48
14 49
14 51
14 54
14 55
14 56
14 57
14 58
14 62
14 63
14 64
14 67
14 70
14 71
14 73
14 74
14 79
14 80
14 83
14 84
14 85
14 86
14 88
14 90
14 93
14 95
14 97
14 99
15 17
15 20
15 22
15 23
15 24
15 26
15 27
15 28
15 30
15 31
15 34
15 36
15 39
15 42
15 43
15 44
15 46
15 47
15 49
15 51
15 55
15 56
15 59
15 61
15 63
15 66
15 67
15 68
15 70
15 72
15 74
15 76
15 77
15 80
15 81
15 83
15 84
15 85
15 88
15 89
15 92
15 93
15 99
16 17
16 20
16 22
16 23
16 24
16 25
16 26
16 27
16 28
16 30
16 32
16 33
16 38
16 39
16 41
16 42
16 43
16 46
16 47
16 48
16 50
16 52
16 56
16 58
16 59
16 60
16 64
16 65
16 66
16 67
16 68
16 69
16 72
16 76
16 79
16 85
16 87
16 88
16 89
16 90
16 91
16 92
16 95
16 97
16 98
17 18
17 21
17 22
17 23
17 25
17 27
17 28
17 31
17 34
17 35
17 36
17 37
17 38
17 39
17 42
17 46
17 47
17 48
17 55
17 57
17 58
17 59
17 61
17 62
17 65
17 67
17 69
17 70
17 71
17 73
17 77
17 79
17 88
17 91
17 94
17 95
17 96
17 97
17 98
18 19
18 20
18 22
18 27
18 28
18 32
18 33
18 35
18 36
18 37
18 39
18 41
18 42
18 43
18 45
18 46
18 47
18 48
18 51
18 53
18 54
18 55
18 57
18 58
18 60
18 64
18 66
18 67
18 70
18 71
18 72
18 73
18 74
18 75
18 76
18 77
18 79
18 84
18 86
18 90
18 96
18 97
18 99
19 21
19 22
19 23
19 26
19 30
19 31
19 35
19 41
19 42
19 47
19 48
19 49
19 50
19 51
19 52
19 53
19 54
19 56
19 59
19 60
19 62
19 63
19 64
19 65
19 66
19 67
19 70
19 72
19 74
19 75
19 76
19 81
19 82
19 84
19 86
19 87
19 88
19 89
19 90
19 91
19 92
19 93
19 94
19 98
20 22
20 23
20 24
20 25
20 28
20 29
20 30
20 31
20 34
20 35
20 36
20 37
20 40
20 41
20 42
20 43
20 44
20 46
20 51
20 57
20 59
20 60
20 61
20 63
20 64
20 66
20 67
20 71
20 72
20 73
20 76
20 78
20 80
20 81
20 85
20 86
20 87
20 89
20 92
20 94
20 95
20 98
20 99
21 24
21 26
21 27
21 29
21 33
21 35
21 36
21 40
21 44
21 46
21 48
21 51
21 54
21 55
21 57
21 58
21 61
21 62
21 65
21 67
21 69
21 71
21 77
21 78
21 79
21 81
21 84
21 86
21 88
21 89
21 90
21 91
21 92
21 93
21 95
21 97
21 99
22 24
22 25
22 26
22 28
22 29
22 31
22 35
22 37
22 38
22 39
22 40
22 42
22 43
22 46
22 48
22 49
22 53
22 54
22 55
22 57
22 58
22 60
22 61
22 62
22 63
22 64
22 65
22 67
22 68
22 69
22 70
22 71
22 76
22 80
22 82
22 83
22 84
22 86
22 88
22 90
22 94
22 97
22 99
23 25
23 28
23 29
23 30
23 32
23 35
23 36
23 39
23 40
23 41
23 42
23 43
23 45
23 47
23 48
23 49
23 50
23 51
23 52
23 54
23 55
23 58
23 60
23 64
23 65
23 68
23 73
23 74
23 75
23 76
23 78
23 80
23 81
23 86
23 89
23 90
23 93
23 95
23 96
23 98
23 99
24 25
24 29
24 36
24 37
24 40
24 42
24 43
24 44
24 45
24 52
24 56
24 58
24 60
24 61
24 62
24 64
24 67
24 68
24 71
24 74
24 76
24 77
24 79
24 80
24 82
24 84
24 85
24 86
24 87
24 90
24 91
24 92
24 96
24 97
25 86
25 68
25 81
25 80
25 77
25 82
25 97
25 78
25 90
25 27
25 28
25 93
25 94
25 69
25 96
25 33
25 34
25 35
25 37
25 39
25 40
25 41
25 95
25 71
25 44
25 46
25 49
25 91
25 52
25 55
25 57
25 59
26 27
26 28
26 31
26 32
26 33
26 36
26 41
26 42
26 43
26 44
26 47
26 48
26 53
26 55
26 60
26 62
26 64
26 65
26 67
26 70
26 71
26 73
26 74
26 79
26 80
26 82
26 83
26 84
26 87
26 88
26 90
26 91
26 95
26 97
26 98
27 28
27 29
27 32
27 33
27 34
27 37
27 38
27 39
27 40
27 41
27 43
27 46
27 48
27 49
27 50
27 53
27 57
27 58
27 60
27 61
27 62
27 63
27 66
27 69
27 70
27 75
27 78
27 84
27 85
27 86
27 89
27 90
27 91
27 92
27 94
27 99
28 29
28 32
28 33
28 34
28 36
28 39
28 41
28 42
28 43
28 44
28 45
28 47
28 48
28 50
28 56
28 58
28 59
28 61
28 62
28 63
28 64
28 67
28 68
28 70
28 71
28 72
28 73
28 74
28 75
28 77
28 79
28 80
28 81
28 86
28 90
28 91
28 93
28 95
28 97
28 98
29 96
29 67
29 73
29 87
29 86
29 92
29 88
29 82
29 90
29 30
29 31
29 32
29 34
29 35
29 38
29 39
29 40
29 41
29 42
29 43
29 78
29 46
29 98
29 49
29 94
29 55
29 58
29 60
29 61
29 85
30 33
30 36
30 37
30 42
30 44
30 46
30 47
30 48
30 52
30 53
30 56
30 57
30 58
30 60
30 62
30 63
30 64
30 67
30 68
30 69
30 72
30 74
30 77
30 78
30 79
30 80
30 82
30 84
30 86
30 89
30 90
30 92
30 93
31 69
31 65
31 72
31 76
31 74
31 98
31 80
31 78
31 87
31 88
31 68
31 79
31 92
31 94
31 96
31 33
31 34
31 99
31 42
31 43
31 44
31 46
31 50
31 52
31 53
31 54
31 57
31 58
31 61
31 85
32 33
32 34
32 37
32 38
32 39
32 40
32 42
32 43
32 44
32 45
32 47
32 49
32 50
32 52
32 53
32 54
32 55
32 56
32 60
32 66
32 68
32 69
32 70
32 73
32 74
32 75
32 76
32 78
32 80
32 81
32 83
32 84
32 85
32 87
32 88
32 89
32 90
32 93
32 97
32 99
33 36
33 37
33 39
33 42
33 43
33 46
33 47
33 49
33 50
33 52
33 53
33 54
33 56
33 57
33 58
33 60
33 62
33 63
33 65
33 70
33 71
33 73
33 74
33 75
33 76
33 79
33 80
33 81
33 85
33 86
33 87
33 90
33 91
33 94
33 98
34 35
34 36
34 37
34 40
34 41
34 42
34 43
34 45
34 47
34 48
34 51
34 54
34 55
34 57
34 59
34 60
34 61
34 66
34 68
34 69
34 70
34 71
34 74
34 75
34 76
34 77
34 80
34 82
34 84
34 87
34 88
34 89
34 91
34 92
34 93
34 96
34 98
34 99
35 38
35 45
35 52
35 54
35 55
35 56
35 57
35 58
35 59
35 60
35 66
35 70
35 71
35 73
35 75
35 76
35 77
35 79
35 81
35 83
35 88
35 89
35 90
35 91
35 92
35 94
35 95
35 99
36 37
36 38
36 41
36 43
36 46
36 47
36 49
36 50
36 53
36 54
36 58
36 61
36 62
36 63
36 66
36 68
36 73
36 74
36 75
36 77
36 79
36 80
36 83
36 84
36 85
36 86
36 88
36 89
36 90
36 93
36 94
36 98
36 99
37 39
37 40
37 41
37 44
37 45
37 48
37 51
37 52
37 53
37 55
37 56
37 58
37 61
37 62
37 63
37 64
37 65
37 68
37 69
37 70
37 73
37 77
37 81
37 85
37 88
37 90
37 92
37 93
37 94
38 41
38 44
38 47
38 49
38 50
38 51
38 53
38 54
38 60
38 64
38 65
38 66
38 67
38 69
38 70
38 71
38 75
38 76
38 79
38 83
38 84
38 86
38 87
38 89
38 91
38 92
38 93
38 96
38 98
39 40
39 41
39 42
39 44
39 45
39 49
39 51
39 54
39 58
39 59
39 60
39 61
39 65
39 66
39 67
39 69
39 72
39 73
39 74
39 75
39 78
39 79
39 80
39 81
39 84
39 86
39 88
39 92
39 94
39 95
40 41
40 44
40 46
40 53
40 54
40 57
40 59
40 60
40 62
40 63
40 65
40 67
40 68
40 69
40 75
40 76
40 77
40 83
40 85
40 86
40 89
40 93
40 95
40 97
40 98
41 43
41 46
41 48
41 55
41 56
41 57
41 58
41 59
41 60
41 61
41 63
41 64
41 66
41 68
41 71
41 72
41 74
41 75
41 77
41 82
41 83
41 87
41 90
41 91
41 95
41 96
41 97
41 99
42 43
42 46
42 47
42 48
42 49
42 50
42 52
42 53
42 55
42 58
42 59
42 65
42 70
42 74
42 75
42 77
42 81
42 82
42 85
42 89
42 90
42 93
42 95
42 96
43 48
43 49
43 50
43 54
43 57
43 59
43 64
43 65
43 68
43 69
43 70
43 71
43 73
43 74
43 76
43 81
43 82
43 86
43 87
43 90
43 91
43 92
43 93
43 96
44 46
44 49
44 52
44 53
44 55
44 63
44 65
44 67
44 68
44 69
44 70
44 71
44 73
44 74
44 76
44 77
44 84
44 85
44 87
44 89
44 92
44 95
44 99
45 65
45 75
45 70
45 76
45 77
45 78
45 80
45 81
45 86
45 89
45 90
45 94
45 69
45 95
45 71
45 82
45 46
45 48
45 72
45 50
45 56
45 59
45 60
45 62
45 63
46 47
46 48
46 50
46 51
46 57
46 61
46 63
46 66
46 67
46 68
46 71
46 72
46 73
46 74
46 75
46 77
46 79
46 80
46 81
46 82
46 85
46 86
46 87
46 90
46 94
46 98
47 48
47 50
47 52
47 55
47 56
47 57
47 58
47 64
47 65
47 69
47 70
47 71
47 72
47 74
47 75
47 76
47 79
47 80
47 84
47 86
47 88
47 89
47 93
47 94
48 49
48 50
48 57
48 59
48 60
48 61
48 62
48 63
48 64
48 67
48 73
48 75
48 76
48 81
48 82
48 83
48 86
48 89
48 91
48 92
48 94
48 95
48 98
49 51
49 52
49 58
49 64
49 65
49 66
49 67
49 69
49 72
49 74
49 75
49 76
49 77
49 79
49 80
49 81
49 83
49 84
49 85
49 86
49 88
49 90
49 91
49 94
49 96
49 97
50 52
50 54
50 60
50 63
50 64
50 65
50 66
50 68
50 69
50 70
50 71
50 72
50 75
50 79
50 80
50 81
50 82
50 83
50 84
50 87
50 88
50 89
50 90
50 94
50 97
51 52
51 54
51 55
51 59
51 61
51 64
51 67
51 71
51 73
51 74
51 75
51 76
51 77
51 78
51 79
51 80
51 81
51 82
51 83
51 84
51 86
51 89
51 90
51 91
51 92
51 98
52 53
52 57
52 59
52 62
52 63
52 68
52 71
52 72
52 74
52 75
52 76
52 84
52 87
52 88
52 89
52 90
52 91
52 92
52 93
52 94
52 95
52 96
52 98
53 64
53 96
53 66
53 67
53 68
53 78
53 79
53 81
53 84
53 87
53 88
53 90
53 82
53 93
53 83
53 94
53 55
53 57
53 58
53 70
53 61
53 63
54 55
54 57
54 58
54 60
54 64
54 65
54 67
54 71
54 72
54 73
54 75
54 76
54 77
54 78
54 85
54 86
54 87
54 88
54 90
54 91
54 95
54 96
54 98
54 99
55 56
55 58
55 61
55 63
55 64
55 68
55 70
55 71
55 72
55 73
55 75
55 79
55 81
55 83
55 84
55 88
55 90
55 91
55 93
55 95
55 98
56 57
56 58
56 60
56 61
56 63
56 66
56 68
56 69
56 70
56 71
56 72
56 74
56 75
56 76
56 78
56 79
56 81
56 83
56 84
56 85
56 86
56 91
56 93
56 94
56 97
56 99
57 60
57 61
57 66
57 68
57 70
57 72
57 76
57 77
57 78
57 79
57 81
57 82
57 85
57 86
57 87
57 88
57 90
57 91
57 93
57 94
57 98
58 60
58 63
58 64
58 66
58 67
58 69
58 71
58 72
58 73
58 79
58 81
58 84
58 87
58 88
58 90
58 93
58 94
58 95
58 97
58 98
59 61
59 64
59 65
59 66
59 71
59 72
59 74
59 75
59 77
59 78
59 80
59 83
59 84
59 88
59 89
59 90
59 91
59 93
59 94
59 95
59 96
59 99
60 64
60 65
60 67
60 71
60 73
60 75
60 76
60 80
60 82
60 83
60 84
60 86
60 87
60 89
60 90
60 95
60 97
60 98
61 62
61 64
61 66
61 67
61 70
61 71
61 72
61 73
61 77
61 79
61 84
61 85
61 86
61 88
61 90
61 92
61 94
61 96
61 99
62 68
62 74
62 86
62 79
62 82
62 84
62 87
62 89
62 95
62 91
62 92
62 78
62 72
62 83
62 63
63 64
63 70
63 97
63 92
63 87
63 89
63 69
63 99
63 84
63 95
64 65
64 66
64 69
64 70
64 72
64 74
64 76
64 77
64 79
64 80
64 82
64 83
64 86
64 92
64 93
64 97
64 99
65 69
65 72
65 74
65 77
65 79
65 80
65 81
65 83
65 84
65 87
65 89
65 94
65 95
65 99
66 71
66 78
66 80
66 82
66 84
66 85
66 92
66 94
66 95
66 96
66 97
66 98
66 99
67 68
67 69
67 70
67 71
67 72
67 73
67 75
67 76
67 78
67 80
67 81
67 83
67 84
67 85
67 86
67 87
67 88
67 90
67 91
67 95
67 97
68 70
68 73
68 76
68 77
68 80
68 81
68 82
68 83
68 85
68 87
68 89
68 90
68 91
68 98
69 70
69 71
69 72
69 75
69 76
69 77
69 78
69 79
69 83
69 84
69 86
69 87
69 90
69 91
69 93
69 95
69 96
69 98
69 99
70 71
70 73
70 74
70 77
70 79
70 80
70 82
70 87
70 90
70 91
70 93
70 98
71 72
71 76
71 77
71 81
71 83
71 86
71 88
71 90
71 95
71 97
71 98
72 76
72 78
72 82
72 83
72 84
72 85
72 86
72 87
72 89
72 91
72 93
72 95
72 97
72 99
73 76
73 77
73 83
73 84
73 85
73 86
73 87
73 89
73 93
73 95
73 98
74 76
74 81
74 84
74 85
74 87
74 88
74 89
74 92
74 94
74 96
74 97
74 98
74 99
75 76
75 78
75 79
75 80
75 82
75 85
75 86
75 87
75 89
75 91
75 93
75 94
75 98
76 78
76 79
76 80
76 82
76 83
76 85
76 89
76 90
76 93
76 94
76 97
76 98
76 99
77 80
77 81
77 82
77 83
77 84
77 87
77 89
77 90
77 91
77 92
77 94
77 95
77 99
78 79
78 81
78 83
78 90
78 82
78 95
78 93
78 94
78 89
78 85
79 99
79 91
79 90
79 80
79 94
79 85
80 81
80 83
80 85
80 88
80 90
80 93
80 94
80 96
80 97
80 98
80 99
81 83
81 84
81 86
81 87
81 89
81 92
81 95
81 97
81 98
82 88
82 90
82 87
82 94
83 85
83 86
83 87
83 88
83 89
83 90
83 91
83 92
83 94
83 95
83 97
83 99
84 86
84 91
84 94
84 97
84 98
84 99
85 86
85 88
85 94
85 96
85 97
85 98
85 99
86 89
86 90
86 92
86 94
86 96
86 97
86 98
87 90
87 92
87 94
87 95
87 96
87 97
87 98
88 89
88 91
88 92
88 93
88 94
88 95
88 96
88 97
88 99
89 91
89 92
89 93
89 95
89 96
89 97
90 91
90 93
90 94
90 95
90 96
90 98
91 93
91 94
91 96
91 97
91 99
92 93
92 96
92 98
93 98
93 99
94 95
94 96
94 98
95 97
95 99
96 98
96 99
97 99
