100
251 59
244 295
282 219
141 23
29 4
122 68
170 146
263 85
147 155
198 185
219 47
204 206
251 208
45 192
141 270
266 197
48 298
201 244
63 49
279 97
146 214
48 60
76 252
26 203
187 201
78 51
58 32
83 47
248 130
33 288
263 250
171 16
117 198
153 267
164 212
207 41
103 85
47 113
267 184
93 78
71 49
188 289
35 287
23 287
155 127
190 277
300 157
58 34
122 293
230 204
280 285
279 92
136 94
19 247
47 186
120 151
130 64
40 141
102 200
79 69
133 150
185 215
244 157
263 6
214 166
139 194
225 260
229 242
167 289
126 284
36 81
174 21
204 64
17 295
166 210
248 240
275 188
265 219
51 123
289 36
264 130
242 257
260 261
195 289
38 98
45 15
25 186
37 144
256 144
234 26
151 78
133 189
38 20
84 260
120 279
213 77
58 81
291 154
215 186
93 40
0 2
0 3
0 4
0 5
0 6
0 11
0 13
0 14
0 17
0 20
0 22
0 26
0 27
0 28
0 31
0 32
0 33
0 34
0 36
0 37
0 39
0 42
0 43
0 44
0 45
0 47
0 48
0 50
0 51
0 52
0 54
0 55
0 58
0 59
0 65
0 67
0 69
0 71
0 73
0 75
0 76
0 77
0 78
0 79
0 80
0 81
0 82
0 83
0 84
0 85
0 90
0 91
0 94
0 96
0 97
0 98
0 99
1 2
1 3
1 4
1 5
1 7
1 8
1 11
1 13
1 14
1 15
1 17
1 18
1 19
1 22
1 25
1 27
1 30
1 31
1 34
1 35
1 36
1 42
1 47
1 49
1 50
1 51
1 52
1 56
1 59
1 60
1 62
1 66
1 68
1 72
1 73
1 77
1 78
1 80
1 81
1 83
1 84
1 86
1 88
1 91
1 94
1 95
1 97
2 3
2 6
2 10
2 11
2 14
2 15
2 17
2 19
2 21
2 22
2 25
2 27
2 30
2 40
2 41
2 42
2 43
2 45
2 46
2 47
2 49
2 50
2 51
2 54
2 55
2 56
2 59
2 60
2 61
2 63
2 64
2 66
2 68
2 72
2 74
2 76
2 77
2 79
2 81
2 83
2 85
2 86
2 88
2 89
2 94
2 96
2 99
3 4
3 5
3 7
3 8
3 10
3 11
3 12
3 13
3 14
3 15
3 17
3 18
3 19
3 23
3 24
3 25
3 26
3 30
3 33
3 34
3 35
3 36
3 37
3 38
3 39
3 42
3 43
3 44
3 45
3 46
3 47
3 49
3 51
3 52
3 54
3 56
3 58
3 60
3 61
3 62
3 63
3 64
3 65
3 67
3 72
3 75
3 76
3 77
3 80
3 83
3 86
3 87
3 88
3 89
3 90
3 91
3 92
3 95
3 96
3 97
3 98
4 5
4 6
4 8
4 10
4 14
4 15
4 17
4 19
4 20
4 21
4 22
4 24
4 25
4 27
4 28
4 29
4 30
4 32
4 33
4 34
4 35
4 37
4 39
4 40
4 41
4 45
4 47
4 49
4 50
4 52
4 58
4 59
4 61
4 62
4 63
4 65
4 66
4 67
4 70
4 72
4 73
4 74
4 75
4 80
4 85
4 87
4 96
4 97
4 98
4 99
5 6
5 9
5 13
5 17
5 19
5 23
5 24
5 25
5 26
5 27
5 29
5 33
5 34
5 35
5 36
5 37
5 42
5 43
5 44
5 46
5 47
5 49
5 51
5 52
5 54
5 55
5 58
5 60
5 61
5 62
5 64
5 66
5 69
5 70
5 71
5 72
5 78
5 79
5 80
5 81
5 82
5 86
5 89
5 91
5 92
5 95
5 97
6 7
6 8
6 11
6 13
6 15
6 19
6 20
6 22
6 23
6 24
6 28
6 29
6 30
6 33
6 36
6 37
6 39
6 41
6 42
6 45
6 46
6 47
6 52
6 54
6 55
6 56
6 57
6 58
6 64
6 67
6 69
6 70
6 72
6 78
6 81
6 83
6 87
6 88
6 89
6 90
6 92
6 93
6 95
6 96
6 97
6 99
7 8
7 10
7 12
7 13
7 15
7 16
7 17
7 18
7 20
7 25
7 27
7 28
7 30
7 34
7 35
7 39
7 41
7 42
7 44
7 45
7 46
7 47
7 48
7 49
7 52
7 54
7 56
7 60
7 63
7 65
7 68
7 69
7 72
7 73
7 74
7 77
7 79
7 81
7 85
7 90
7 91
7 94
7 96
7 97
8 10
8 12
8 13
8 14
8 15
8 19
8 22
8 24
8 26
8 27
8 28
8 29
8 30
8 32
8 34
8 37
8 38
8 40
8 44
8 45
8 46
8 47
8 48
8 52
8 53
8 54
8 55
8 57
8 62
8 63
8 65
8 66
8 68
8 71
8 72
8 73
8 76
8 78
8 79
8 82
8 84
8 85
8 86
8 87
8 90
8 91
8 92
8 94
8 97
9 64
9 65
9 67
9 81
9 73
9 10
9 87
9 14
9 15
9 80
9 17
9 18
9 83
9 20
9 23
9 24
9 89
9 26
9 79
9 28
9 93
9 69
9 31
9 32
9 97
9 98
9 35
9 82
9 39
9 40
9 42
9 43
9 44
9 45
9 96
9 47
9 48
9 52
9 53
9 88
9 60
9 74
10 11
10 12
10 13
10 17
10 19
10 20
10 22
10 24
10 26
10 28
10 30
10 35
10 36
10 37
10 38
10 45
10 46
10 48
10 52
10 54
10 56
10 57
10 59
10 60
10 61
10 64
10 65
10 66
10 67
10 68
10 70
10 73
10 77
10 78
10 79
10 81
10 86
10 90
10 91
10 93
10 94
10 95
10 96
10 99
11 15
11 18
11 19
11 20
11 23
11 25
11 26
11 28
11 30
11 31
11 32
11 33
11 37
11 38
11 40
11 41
11 42
11 43
11 48
11 49
11 50
11 52
11 59
11 60
11 62
11 63
11 64
11 65
11 71
11 72
11 75
11 76
11 78
11 80
11 81
11 82
11 83
11 85
11 90
11 91
11 97
11 98
12 64
12 86
12 70
12 73
12 87
12 77
12 14
12 15
12 16
12 17
12 82
12 83
12 78
12 22
12 23
12 24
12 89
12 90
12 30
12 81
12 33
12 34
12 35
12 36
12 39
12 40
12 42
12 43
12 44
12 48
12 49
12 50
12 53
12 54
12 55
12 57
12 59
12 60
12 62
13 18
13 19
13 21
13 24
13 27
13 29
13 30
13 31
13 35
13 36
13 37
13 39
13 42
13 46
13 50
13 53
13 55
13 56
13 58
13 59
13 62
13 64
13 65
13 68
13 70
13 71
13 72
13 73
13 76
13 78
13 81
13 82
13 85
13 86
13 89
13 90
13 91
13 93
13 94
13 95
13 97
14 15
14 18
14 23
14 26
14 27
14 28
14 29
14 32
14 34
14 37
14 38
14 39
14 43
14 45
14 46
14 48
14 49
14 51
14 52
14 53
14 57
14 58
14 59
14 60
14 61
14 65
14 67
14 71
14 72
14 74
14 76
14 78
14 79
14 81
14 82
14 83
14 86
14 89
14 91
14 92
14 93
14 96
14 97
14 98
14 99
15 17
15 19
15 23
15 27
15 28
15 30
15 37
15 38
15 39
15 41
15 42
15 44
15 47
15 48
15 49
15 50
15 51
15 52
15 53
15 56
15 57
15 59
15 64
15 67
15 69
15 71
15 72
15 73
15 75
15 80
15 81
15 84
15 86
15 87
15 90
15 91
15 94
15 97
15 98
15 99
16 64
16 65
16 98
16 86
16 74
16 77
16 78
16 79
16 81
16 83
16 20
16 22
16 24
16 25
16 90
16 28
16 29
16 88
16 33
16 34
16 99
16 36
16 38
16 39
16 40
16 42
16 71
16 44
16 47
16 48
16 51
16 52
16 53
16 54
16 55
16 84
16 58
16 59
16 60
16 94
17 18
17 19
17 24
17 25
17 28
17 32
17 33
17 37
17 39
17 40
17 41
17 44
17 45
17 47
17 51
17 54
17 58
17 60
17 65
17 66
17 68
17 70
17 71
17 72
17 74
17 76
17 78
17 82
17 84
17 85
17 88
17 91
17 92
17 96
17 97
17 98
17 99
18 22
18 24
18 26
18 27
18 32
18 35
18 36
18 37
18 38
18 41
18 44
18 45
18 46
18 48
18 58
18 62
18 63
18 64
18 65
18 67
18 70
18 72
18 74
18 76
18 77
18 78
18 80
18 81
18 84
18 85
18 86
18 88
18 91
18 92
18 94
18 95
18 96
18 98
19 20
19 23
19 24
19 25
19 28
19 29
19 30
19 31
19 33
19 34
19 35
19 42
19 44
19 49
19 52
19 54
19 55
19 56
19 57
19 61
19 62
19 63
19 65
19 66
19 67
19 69
19 70
19 72
19 74
19 75
19 76
19 77
19 81
19 82
19 84
19 86
19 89
19 90
19 91
19 93
19 94
19 95
19 96
19 98
19 99
20 23
20 24
20 28
20 29
20 32
20 35
20 37
20 40
20 43
20 44
20 45
20 46
20 48
20 51
20 55
20 56
20 60
20 61
20 62
20 65
20 67
20 68
20 69
20 70
20 73
20 76
20 77
20 79
20 80
20 81
20 83
20 84
20 87
20 88
20 89
20 92
20 94
20 96
21 64
21 67
21 69
21 71
21 72
21 73
21 74
21 87
21 78
21 81
21 99
21 84
21 97
21 22
21 23
21 25
21 91
21 28
21 93
21 30
21 31
21 33
21 34
21 35
21 37
21 39
21 42
21 43
21 44
21 46
21 48
21 49
21 51
21 54
21 55
21 56
21 58
21 60
21 61
21 63
22 24
22 25
22 29
22 30
22 31
22 34
22 36
22 39
22 40
22 43
22 45
22 50
22 51
22 54
22 55
22 57
22 60
22 61
22 62
22 63
22 66
22 68
22 71
22 73
22 76
22 77
22 78
22 80
22 83
22 84
22 87
22 89
22 90
22 91
22 92
22 93
22 97
22 98
22 99
23 24
23 25
23 28
23 29
23 30
23 33
23 35
23 36
23 41
23 46
23 49
23 51
23 52
23 57
23 58
23 60
23 61
23 63
23 65
23 68
23 69
23 70
23 71
23 72
23 74
23 76
23 77
23 78
23 80
23 81
23 84
23 86
23 87
23 88
23 89
23 91
23 96
23 97
23 98
23 99
24 25
24 28
24 31
24 33
24 34
24 35
24 37
24 39
24 42
24 46
24 47
24 48
24 49
24 52
24 53
24 57
24 58
24 61
24 64
24 66
24 67
24 68
24 69
24 71
24 73
24 78
24 81
24 82
24 84
24 87
24 90
24 94
25 26
25 28
25 29
25 30
25 31
25 35
25 41
25 50
25 54
25 56
25 59
25 61
25 62
25 63
25 64
25 66
25 67
25 68
25 70
25 73
25 74
25 75
25 76
25 81
25 83
25 84
25 87
25 91
25 94
25 95
25 97
25 98
26 27
26 28
26 29
26 32
26 33
26 35
26 37
26 38
26 41
26 42
26 44
26 45
26 48
26 51
26 52
26 53
26 58
26 60
26 61
26 67
26 74
26 77
26 79
26 80
26 81
26 86
26 87
26 89
26 91
26 93
26 94
26 95
26 96
26 97
26 98
26 99
27 28
27 34
27 36
27 40
27 41
27 44
27 45
27 48
27 52
27 53
27 56
27 59
27 60
27 61
27 63
27 65
27 66
27 71
27 73
27 77
27 78
27 79
27 80
27 81
27 82
27 86
27 87
27 88
27 89
27 92
27 93
27 94
27 97
27 98
28 31
28 32
28 33
28 34
28 35
28 36
28 37
28 38
28 43
28 47
28 51
28 53
28 54
28 56
28 57
28 60
28 63
28 64
28 65
28 67
28 68
28 77
28 79
28 81
28 83
28 85
28 86
28 88
28 89
28 90
28 91
28 92
28 94
29 31
29 34
29 36
29 37
29 39
29 40
29 41
29 42
29 45
29 49
29 50
29 51
29 52
29 59
29 60
29 61
29 62
29 65
29 66
29 74
29 75
29 76
29 79
29 80
29 84
29 85
29 86
29 87
29 88
29 89
29 91
29 94
29 95
29 97
29 99
30 33
30 39
30 43
30 45
30 46
30 51
30 53
30 56
30 59
30 62
30 64
30 66
30 67
30 69
30 76
30 78
30 79
30 81
30 82
30 86
30 87
30 89
30 90
30 92
30 93
30 95
30 99
31 32
31 34
31 35
31 37
31 39
31 41
31 42
31 45
31 49
31 51
31 52
31 55
31 56
31 58
31 61
31 63
31 66
31 67
31 68
31 69
31 70
31 74
31 76
31 77
31 79
31 80
31 81
31 82
31 83
31 86
31 87
31 93
31 94
31 96
31 98
32 65
32 75
32 69
32 70
32 97
32 80
32 83
32 78
32 86
32 88
32 91
32 94
32 33
32 34
32 35
32 37
32 38
32 41
32 42
32 45
32 99
32 72
32 52
32 53
32 54
32 56
32 84
32 58
32 61
32 62
32 63
33 36
33 39
33 40
33 42
33 43
33 44
33 46
33 47
33 49
33 50
33 51
33 53
33 54
33 55
33 56
33 59
33 61
33 62
33 64
33 66
33 69
33 70
33 73
33 74
33 75
33 77
33 79
33 82
33 84
33 85
33 86
33 87
33 88
33 90
33 91
33 92
33 94
33 98
34 35
34 40
34 41
34 44
34 46
34 48
34 49
34 51
34 53
34 55
34 57
34 61
34 62
34 63
34 64
34 65
34 66
34 68
34 69
34 70
34 71
34 72
34 78
34 83
34 90
34 92
34 93
34 94
34 95
34 96
34 99
35 36
35 38
35 41
35 42
35 48
35 49
35 50
35 51
35 52
35 53
35 54
35 55
35 56
35 57
35 59
35 60
35 62
35 64
35 65
35 70
35 72
35 73
35 75
35 76
35 77
35 78
35 79
35 82
35 83
35 84
35 87
35 90
35 91
35 92
35 93
35 94
35 96
35 97
35 99
36 37
36 42
36 43
36 45
36 50
36 52
36 53
36 54
36 57
36 58
36 59
36 61
36 68
36 69
36 71
36 73
36 79
36 80
36 81
36 82
36 83
36 86
36 87
36 89
36 91
36 92
36 94
36 95
36 97
37 39
37 41
37 42
37 44
37 45
37 49
37 51
37 54
37 56
37 58
37 59
37 60
37 61
37 62
37 63
37 65
37 66
37 67
37 72
37 73
37 74
37 75
37 77
37 80
37 81
37 84
37 88
37 89
37 91
37 92
37 95
38 64
38 68
38 69
38 71
38 73
38 76
38 77
38 67
38 84
38 78
38 86
38 87
38 72
38 79
38 90
38 95
38 80
38 97
38 41
38 44
38 93
38 47
38 49
38 83
38 54
38 55
38 56
38 57
38 60
38 74
38 63
39 40
39 42
39 43
39 45
39 47
39 49
39 50
39 51
39 52
39 54
39 55
39 58
39 60
39 61
39 63
39 65
39 67
39 68
39 70
39 72
39 73
39 74
39 78
39 79
39 86
39 88
39 89
39 93
39 94
39 97
39 98
40 43
40 45
40 47
40 51
40 57
40 58
40 61
40 63
40 64
40 68
40 71
40 72
40 73
40 77
40 78
40 79
40 81
40 82
40 84
40 86
40 87
40 88
40 89
40 90
40 92
40 96
40 97
40 98
40 99
41 42
41 45
41 46
41 48
41 53
41 56
41 57
41 58
41 59
41 60
41 61
41 64
41 65
41 67
41 70
41 71
41 76
41 78
41 79
41 80
41 82
41 83
41 84
41 85
41 87
41 89
41 91
41 94
41 98
42 43
42 45
42 46
42 49
42 50
42 52
42 57
42 58
42 60
42 61
42 64
42 66
42 67
42 70
42 71
42 72
42 74
42 75
42 76
42 77
42 78
42 86
42 87
42 88
42 94
42 95
42 98
43 44
43 47
43 50
43 54
43 56
43 57
43 60
43 61
43 63
43 64
43 66
43 68
43 70
43 71
43 72
43 73
43 74
43 75
43 77
43 86
43 89
43 90
43 91
43 92
43 93
43 94
43 97
43 98
44 45
44 46
44 47
44 49
44 50
44 51
44 53
44 57
44 58
44 60
44 62
44 63
44 67
44 70
44 71
44 73
44 75
44 78
44 79
44 80
44 83
44 85
44 86
44 89
44 90
44 94
44 95
44 96
44 98
44 99
45 46
45 48
45 50
45 52
45 54
45 62
45 64
45 65
45 69
45 72
45 75
45 82
45 83
45 84
45 85
45 91
45 93
45 94
45 96
45 98
45 99
46 48
46 49
46 50
46 51
46 52
46 53
46 56
46 59
46 60
46 63
46 64
46 68
46 71
46 72
46 75
46 76
46 77
46 78
46 79
46 80
46 84
46 88
46 90
46 91
46 93
46 94
46 99
47 49
47 50
47 51
47 53
47 54
47 55
47 56
47 60
47 61
47 62
47 63
47 64
47 65
47 68
47 70
47 71
47 73
47 74
47 75
47 80
47 83
47 85
47 86
47 90
47 94
47 96
48 50
48 53
48 54
48 55
48 56
48 57
48 58
48 59
48 63
48 65
48 68
48 72
48 74
48 76
48 78
48 80
48 85
48 86
48 87
48 88
48 91
48 92
48 95
48 96
49 50
49 52
49 53
49 55
49 59
49 60
49 61
49 65
49 66
49 67
49 68
49 71
49 72
49 74
49 77
49 79
49 81
49 86
49 87
49 88
49 89
49 90
49 91
49 92
49 94
49 98
49 99
50 70
50 65
50 72
50 80
50 81
50 82
50 89
50 90
50 92
50 98
50 54
50 59
50 60
50 61
51 52
51 54
51 55
51 57
51 58
51 62
51 63
51 65
51 67
51 70
51 71
51 73
51 74
51 75
51 83
51 85
51 86
51 87
51 91
51 92
51 94
51 95
51 97
51 99
52 53
52 54
52 55
52 56
52 57
52 60
52 63
52 66
52 67
52 69
52 71
52 72
52 73
52 78
52 84
52 86
52 87
52 88
52 89
52 90
52 93
52 94
52 95
52 97
52 98
53 56
53 58
53 59
53 60
53 61
53 62
53 63
53 64
53 67
53 69
53 71
53 74
53 77
53 78
53 79
53 80
53 84
53 85
53 86
53 88
53 91
53 94
53 95
53 96
53 97
53 99
54 57
54 58
54 59
54 61
54 62
54 65
54 67
54 68
54 69
54 70
54 71
54 74
54 76
54 77
54 80
54 82
54 83
54 86
54 87
54 88
54 90
54 92
54 93
54 94
54 97
54 98
55 64
55 68
55 71
55 73
55 74
55 78
55 79
55 87
55 88
55 89
55 90
55 91
55 92
55 94
55 96
55 99
55 56
55 84
55 95
56 59
56 61
56 62
56 66
56 67
56 68
56 71
56 73
56 74
56 75
56 77
56 78
56 80
56 81
56 83
56 84
56 87
56 90
56 92
56 93
56 95
56 98
57 61
57 62
57 64
57 66
57 67
57 71
57 72
57 73
57 76
57 77
57 79
57 82
57 84
57 85
57 87
57 88
57 90
57 91
57 95
57 96
57 99
58 59
58 61
58 62
58 63
58 64
58 65
58 66
58 69
58 71
58 72
58 75
58 76
58 79
58 80
58 81
58 82
58 83
58 84
58 86
58 87
58 88
58 90
58 91
58 92
58 93
58 96
58 97
58 98
59 60
59 62
59 63
59 65
59 69
59 72
59 73
59 74
59 78
59 80
59 81
59 82
59 83
59 84
59 85
59 88
59 92
59 93
59 95
59 96
59 98
60 61
60 63
60 64
60 65
60 69
60 70
60 71
60 75
60 76
60 77
60 83
60 84
60 85
60 86
60 87
60 88
60 89
60 91
60 93
60 94
60 96
60 99
61 63
61 64
61 67
61 68
61 69
61 71
61 75
61 76
61 81
61 82
61 83
61 85
61 86
61 87
61 91
61 92
61 94
61 95
61 97
61 99
62 65
62 70
62 72
62 73
62 74
62 76
62 80
62 81
62 82
62 84
62 88
62 90
62 95
62 96
62 98
62 99
63 67
63 68
63 69
63 76
63 77
63 78
63 79
63 80
63 82
63 84
63 85
63 86
63 87
63 89
63 90
63 92
63 93
63 94
63 96
63 98
64 66
64 67
64 68
64 69
64 71
64 73
64 78
64 79
64 83
64 85
64 86
64 87
64 88
64 89
64 90
64 94
64 95
64 98
65 67
65 68
65 69
65 72
65 74
65 76
65 81
65 84
65 86
65 87
65 89
65 93
65 94
65 96
65 97
66 67
66 68
66 75
66 76
66 77
66 78
66 79
66 80
66 84
66 87
66 88
66 86
66 96
66 90
66 91
66 95
67 68
67 70
67 73
67 74
67 75
67 76
67 87
67 89
67 90
67 97
67 99
68 69
68 70
68 71
68 72
68 73
68 74
68 76
68 79
68 80
68 81
68 83
68 87
68 88
68 89
68 90
68 93
68 96
68 98
69 71
69 72
69 75
69 76
69 78
69 80
69 81
69 82
69 85
69 86
69 88
69 90
69 92
69 94
69 95
69 97
69 98
70 71
70 73
70 74
70 78
70 79
70 81
70 82
70 87
70 93
70 94
70 96
70 97
70 98
70 99
71 74
71 78
71 79
71 81
71 82
71 84
71 85
71 86
71 88
71 89
71 91
71 94
71 98
72 73
72 74
72 75
72 76
72 77
72 78
72 80
72 87
72 88
72 89
72 90
72 92
72 94
72 99
73 74
73 76
73 79
73 82
73 83
73 84
73 85
73 90
73 97
73 98
74 77
74 78
74 82
74 84
74 85
74 86
74 87
74 90
74 96
75 96
75 97
75 77
75 80
75 81
75 82
75 85
75 88
75 79
75 94
75 99
76 77
76 78
76 80
76 81
76 82
76 87
76 88
76 91
76 93
76 97
76 98
76 99
77 83
77 84
77 87
77 88
77 91
77 93
77 95
77 97
77 99
78 82
78 84
78 85
78 89
78 94
78 96
78 98
78 99
79 80
79 82
79 83
79 85
79 86
79 88
79 89
79 91
79 96
79 99
80 81
80 82
80 83
80 84
80 88
80 91
80 93
80 95
80 97
80 98
80 99
81 84
81 86
81 87
81 88
81 90
81 92
81 97
81 98
82 85
82 88
82 90
82 92
82 93
82 95
82 98
83 84
83 85
83 94
83 96
83 97
83 98
83 99
84 86
84 90
84 94
84 95
84 96
84 98
85 86
85 88
85 89
85 91
85 94
85 95
85 96
85 98
85 97
86 87
86 88
86 93
86 96
86 97
86 98
86 99
87 88
87 91
87 92
88 89
88 91
88 93
88 94
88 95
88 96
89 90
89 93
89 94
89 95
89 96
89 98
90 92
90 94
90 98
91 94
91 95
91 97
91 98
91 99
92 97
92 93
92 96
92 94
93 98
93 96
93 97
93 99
94 95
94 97
95 99
96 99
98 99
