100
134 115
36 98
73 119
116 283
283 43
38 273
65 162
145 257
104 130
123 136
227 39
225 284
120 27
145 185
117 226
223 152
195 250
186 170
179 2
202 143
141 181
114 233
194 141
181 68
149 200
118 84
175 72
76 192
29 137
226 102
33 128
25 88
201 42
39 131
60 27
121 193
49 175
26 188
21 121
26 1
2 209
69 275
118 157
128 188
275 160
218 263
235 100
296 287
71 132
238 88
192 205
240 186
158 89
44 256
138 9
75 232
266 6
54 33
205 192
55 218
299 243
173 151
239 54
287 231
126 137
163 72
101 188
164 269
144 222
279 280
243 94
253 108
85 147
126 108
261 286
217 44
136 25
249 280
288 116
185 34
86 200
267 272
237 31
251 185
111 204
134 61
220 130
75 8
296 21
261 278
131 105
215 16
31 48
61 134
62 13
30 298
195 111
78 57
132 218
123 163
0 1
0 3
0 11
0 16
0 18
0 21
0 22
0 23
0 27
0 29
0 31
0 38
0 39
0 40
0 41
0 42
0 43
0 44
0 45
0 46
0 47
0 48
0 49
0 51
0 52
0 56
0 60
0 61
0 64
0 65
0 66
0 67
0 69
0 71
0 73
0 77
0 78
0 79
0 80
0 83
0 84
0 86
0 89
0 95
0 96
0 98
0 99
1 64
1 67
1 4
1 70
1 65
1 8
1 10
1 12
1 13
1 80
1 17
1 18
1 19
1 84
1 21
1 88
1 25
1 26
1 28
1 30
1 31
1 96
1 33
1 34
1 37
1 38
1 81
1 40
1 45
1 48
1 72
1 94
1 54
1 55
1 57
1 58
1 95
1 74
1 62
1 85
2 4
2 9
2 10
2 11
2 14
2 16
2 18
2 26
2 27
2 29
2 30
2 32
2 34
2 35
2 36
2 38
2 44
2 45
2 46
2 48
2 50
2 51
2 52
2 55
2 57
2 58
2 59
2 62
2 64
2 66
2 67
2 68
2 69
2 70
2 72
2 76
2 79
2 80
2 81
2 83
2 84
2 85
2 87
2 89
2 93
2 94
2 97
2 98
2 99
3 6
3 7
3 8
3 9
3 10
3 15
3 16
3 18
3 21
3 22
3 24
3 29
3 31
3 32
3 33
3 35
3 36
3 37
3 42
3 43
3 46
3 49
3 51
3 52
3 56
3 57
3 58
3 61
3 66
3 67
3 70
3 73
3 76
3 78
3 79
3 81
3 85
3 87
3 88
3 91
3 93
3 96
3 97
3 99
4 64
4 66
4 5
4 70
4 65
4 9
4 75
4 13
4 78
4 81
4 20
4 21
4 24
4 68
4 98
4 91
4 28
4 29
4 88
4 84
4 97
4 34
4 36
4 38
4 96
4 40
4 43
4 45
4 46
4 51
4 54
4 55
4 57
4 58
4 59
4 62
5 65
5 66
5 67
5 86
5 70
5 71
5 76
5 74
5 12
5 77
5 14
5 80
5 81
5 99
5 84
5 78
5 22
5 87
5 24
5 68
5 90
5 27
5 92
5 29
5 98
5 35
5 36
5 38
5 39
5 41
5 44
5 45
5 46
5 93
5 50
5 53
5 55
5 57
5 59
5 61
5 85
6 7
6 8
6 9
6 10
6 12
6 15
6 16
6 17
6 19
6 20
6 21
6 22
6 23
6 26
6 27
6 28
6 29
6 30
6 32
6 33
6 34
6 35
6 36
6 41
6 44
6 46
6 47
6 48
6 49
6 52
6 53
6 55
6 56
6 57
6 61
6 62
6 63
6 64
6 65
6 66
6 69
6 70
6 71
6 73
6 74
6 75
6 76
6 77
6 78
6 81
6 85
6 87
6 88
6 89
6 90
6 91
6 92
6 93
6 94
6 95
6 96
6 97
6 99
7 9
7 13
7 14
7 18
7 20
7 24
7 28
7 30
7 31
7 32
7 37
7 39
7 46
7 48
7 49
7 51
7 52
7 53
7 56
7 58
7 61
7 64
7 65
7 66
7 67
7 68
7 69
7 70
7 74
7 75
7 77
7 78
7 79
7 80
7 81
7 83
7 85
7 86
7 87
7 88
7 89
7 90
7 91
7 92
7 93
7 94
7 95
7 98
8 11
8 14
8 15
8 16
8 19
8 20
8 21
8 26
8 28
8 31
8 33
8 34
8 38
8 42
8 44
8 45
8 46
8 48
8 49
8 50
8 51
8 52
8 55
8 56
8 57
8 60
8 61
8 62
8 65
8 67
8 68
8 69
8 74
8 75
8 76
8 79
8 80
8 81
8 82
8 84
8 87
8 88
8 92
8 94
8 96
8 97
9 10
9 11
9 12
9 13
9 16
9 17
9 18
9 20
9 22
9 23
9 24
9 25
9 26
9 28
9 29
9 30
9 31
9 33
9 35
9 38
9 40
9 42
9 44
9 46
9 47
9 51
9 53
9 55
9 57
9 60
9 62
9 64
9 65
9 66
9 67
9 68
9 70
9 72
9 74
9 75
9 80
9 81
9 83
9 85
9 88
9 94
9 95
9 99
10 11
10 12
10 16
10 17
10 19
10 20
10 21
10 24
10 25
10 26
10 27
10 28
10 31
10 33
10 38
10 39
10 40
10 41
10 43
10 44
10 48
10 54
10 55
10 56
10 57
10 60
10 62
10 65
10 66
10 67
10 68
10 69
10 70
10 72
10 76
10 77
10 80
10 81
10 82
10 86
10 88
10 89
10 90
10 93
10 95
10 96
11 12
11 14
11 15
11 16
11 18
11 21
11 24
11 31
11 32
11 33
11 36
11 38
11 39
11 40
11 45
11 46
11 47
11 48
11 49
11 51
11 52
11 53
11 56
11 57
11 60
11 66
11 69
11 74
11 75
11 76
11 78
11 79
11 80
11 81
11 82
11 83
11 84
11 85
11 86
11 87
11 89
11 90
11 92
11 93
11 95
11 98
12 13
12 14
12 15
12 18
12 20
12 21
12 22
12 25
12 26
12 27
12 29
12 30
12 35
12 36
12 39
12 41
12 42
12 44
12 45
12 46
12 47
12 51
12 55
12 56
12 57
12 59
12 60
12 63
12 64
12 65
12 66
12 68
12 69
12 70
12 71
12 72
12 73
12 74
12 75
12 76
12 77
12 79
12 82
12 84
12 85
12 86
12 87
12 89
12 91
12 93
12 97
12 98
12 99
13 14
13 15
13 19
13 20
13 24
13 26
13 27
13 33
13 36
13 38
13 39
13 41
13 43
13 45
13 49
13 50
13 51
13 52
13 53
13 54
13 55
13 60
13 61
13 62
13 63
13 64
13 65
13 70
13 71
13 72
13 76
13 77
13 80
13 81
13 84
13 85
13 86
13 89
13 92
13 95
13 96
13 97
13 99
14 15
14 16
14 17
14 18
14 21
14 22
14 23
14 25
14 26
14 27
14 28
14 30
14 34
14 37
14 39
14 40
14 41
14 43
14 47
14 48
14 49
14 50
14 53
14 54
14 55
14 56
14 58
14 62
14 63
14 64
14 66
14 71
14 73
14 76
14 79
14 80
14 84
14 90
14 91
14 92
14 93
14 94
15 18
15 19
15 20
15 23
15 25
15 27
15 29
15 30
15 31
15 32
15 34
15 36
15 38
15 39
15 45
15 50
15 51
15 54
15 59
15 61
15 64
15 65
15 67
15 68
15 69
15 70
15 71
15 74
15 75
15 78
15 79
15 80
15 83
15 84
15 87
15 91
15 92
15 94
15 96
15 97
15 99
16 18
16 19
16 20
16 23
16 24
16 25
16 27
16 28
16 32
16 33
16 34
16 36
16 40
16 41
16 45
16 47
16 49
16 50
16 56
16 58
16 63
16 65
16 68
16 70
16 72
16 75
16 77
16 82
16 83
16 84
16 88
16 89
16 90
16 91
16 95
16 99
17 19
17 20
17 21
17 23
17 25
17 26
17 27
17 30
17 31
17 32
17 34
17 35
17 39
17 40
17 42
17 45
17 47
17 48
17 49
17 50
17 55
17 56
17 57
17 62
17 67
17 68
17 70
17 71
17 74
17 77
17 82
17 84
17 85
17 86
17 88
17 90
17 91
17 92
17 97
17 99
18 21
18 22
18 27
18 31
18 32
18 34
18 35
18 36
18 37
18 40
18 44
18 45
18 46
18 47
18 48
18 49
18 51
18 52
18 54
18 57
18 60
18 61
18 62
18 64
18 67
18 68
18 70
18 73
18 75
18 76
18 77
18 79
18 80
18 81
18 83
18 85
18 87
18 89
18 90
18 94
18 97
18 98
18 99
19 23
19 24
19 26
19 28
19 29
19 32
19 37
19 43
19 44
19 47
19 48
19 52
19 53
19 59
19 62
19 63
19 64
19 65
19 66
19 67
19 69
19 70
19 71
19 72
19 73
19 75
19 76
19 77
19 80
19 81
19 84
19 86
19 89
19 91
19 93
19 94
19 95
19 96
20 23
20 24
20 25
20 26
20 27
20 28
20 29
20 32
20 33
20 34
20 36
20 39
20 44
20 46
20 49
20 51
20 52
20 53
20 58
20 60
20 62
20 64
20 65
20 66
20 67
20 70
20 72
20 73
20 78
20 84
20 85
20 88
20 91
20 92
20 93
20 97
20 99
21 22
21 23
21 24
21 25
21 26
21 32
21 36
21 37
21 38
21 39
21 45
21 47
21 49
21 51
21 52
21 53
21 56
21 60
21 61
21 63
21 65
21 66
21 67
21 69
21 72
21 73
21 74
21 78
21 80
21 81
21 82
21 83
21 87
21 89
21 93
21 94
21 95
21 96
21 98
22 23
22 24
22 25
22 27
22 28
22 30
22 32
22 33
22 35
22 36
22 41
22 42
22 43
22 44
22 45
22 48
22 49
22 52
22 54
22 55
22 60
22 61
22 63
22 64
22 65
22 68
22 71
22 72
22 74
22 75
22 76
22 77
22 81
22 84
22 85
22 89
22 90
22 91
22 92
22 93
22 94
22 95
22 96
22 99
23 26
23 28
23 29
23 31
23 32
23 34
23 36
23 37
23 38
23 40
23 42
23 43
23 44
23 45
23 46
23 47
23 48
23 51
23 52
23 53
23 56
23 62
23 63
23 64
23 68
23 72
23 73
23 77
23 78
23 80
23 85
23 88
23 89
23 92
23 93
23 94
23 96
23 99
24 28
24 29
24 30
24 33
24 37
24 39
24 40
24 41
24 42
24 44
24 45
24 46
24 47
24 49
24 50
24 53
24 55
24 57
24 62
24 67
24 68
24 70
24 71
24 72
24 74
24 76
24 78
24 79
24 80
24 83
24 85
24 86
24 87
24 90
24 93
24 96
24 97
25 28
25 29
25 30
25 33
25 34
25 36
25 38
25 39
25 41
25 43
25 50
25 52
25 53
25 54
25 55
25 57
25 59
25 60
25 61
25 62
25 63
25 64
25 65
25 68
25 69
25 70
25 71
25 72
25 73
25 74
25 76
25 79
25 80
25 82
25 83
25 85
25 88
25 90
25 91
25 93
25 96
25 97
26 28
26 30
26 31
26 32
26 33
26 39
26 40
26 41
26 44
26 46
26 49
26 51
26 52
26 55
26 56
26 58
26 59
26 61
26 66
26 67
26 70
26 72
26 75
26 78
26 79
26 80
26 81
26 83
26 84
26 88
26 91
26 96
26 99
27 28
27 29
27 33
27 35
27 39
27 42
27 43
27 47
27 50
27 51
27 57
27 59
27 61
27 62
27 63
27 65
27 67
27 68
27 69
27 70
27 71
27 74
27 78
27 82
27 86
27 87
27 88
27 89
27 90
27 91
27 92
27 93
27 94
27 95
27 96
28 31
28 36
28 37
28 42
28 43
28 44
28 45
28 46
28 47
28 49
28 51
28 52
28 54
28 55
28 59
28 60
28 62
28 63
28 64
28 65
28 67
28 68
28 69
28 70
28 72
28 75
28 77
28 78
28 79
28 80
28 81
28 88
28 90
28 91
28 96
28 97
28 99
29 30
29 31
29 33
29 36
29 38
29 39
29 44
29 45
29 48
29 49
29 50
29 51
29 52
29 55
29 56
29 57
29 61
29 62
29 70
29 72
29 73
29 77
29 79
29 80
29 81
29 83
29 84
29 86
29 87
29 90
29 92
29 94
29 95
29 97
29 98
29 99
30 33
30 34
30 37
30 39
30 43
30 45
30 46
30 47
30 48
30 50
30 51
30 52
30 53
30 54
30 56
30 57
30 60
30 61
30 63
30 65
30 68
30 69
30 70
30 72
30 73
30 74
30 76
30 77
30 80
30 82
30 83
30 88
30 89
30 92
30 95
30 96
30 99
31 32
31 33
31 34
31 37
31 38
31 41
31 42
31 44
31 45
31 46
31 49
31 50
31 55
31 58
31 62
31 63
31 65
31 66
31 68
31 69
31 71
31 74
31 75
31 76
31 79
31 80
31 81
31 83
31 86
31 87
31 88
31 90
31 95
31 98
32 33
32 34
32 37
32 40
32 44
32 45
32 47
32 48
32 51
32 52
32 56
32 59
32 61
32 63
32 64
32 65
32 68
32 69
32 77
32 78
32 79
32 82
32 83
32 84
32 90
32 92
32 94
32 95
32 96
32 99
33 34
33 35
33 37
33 39
33 44
33 45
33 47
33 48
33 54
33 57
33 59
33 60
33 61
33 63
33 64
33 65
33 68
33 69
33 70
33 71
33 74
33 75
33 77
33 79
33 80
33 81
33 84
33 89
33 92
33 93
33 94
34 35
34 38
34 39
34 44
34 45
34 48
34 49
34 50
34 51
34 52
34 54
34 58
34 60
34 61
34 64
34 65
34 66
34 67
34 69
34 71
34 76
34 78
34 80
34 81
34 83
34 86
34 88
34 89
34 93
34 96
35 37
35 38
35 39
35 44
35 46
35 49
35 50
35 51
35 52
35 53
35 56
35 58
35 59
35 60
35 65
35 67
35 68
35 70
35 71
35 72
35 73
35 75
35 77
35 78
35 79
35 81
35 82
35 83
35 85
35 86
35 90
35 93
35 94
35 95
35 97
35 98
36 38
36 39
36 41
36 44
36 46
36 47
36 49
36 50
36 51
36 53
36 55
36 56
36 58
36 59
36 60
36 61
36 63
36 64
36 65
36 66
36 67
36 71
36 72
36 74
36 76
36 83
36 84
36 87
36 92
36 96
37 39
37 42
37 43
37 46
37 47
37 48
37 51
37 53
37 54
37 55
37 57
37 58
37 59
37 63
37 65
37 68
37 70
37 72
37 73
37 74
37 75
37 76
37 78
37 80
37 83
37 85
37 87
37 88
37 89
37 90
37 92
37 93
37 94
37 98
38 40
38 41
38 42
38 48
38 49
38 50
38 52
38 55
38 56
38 58
38 59
38 60
38 62
38 64
38 65
38 66
38 67
38 68
38 70
38 71
38 73
38 74
38 76
38 79
38 80
38 85
38 88
38 90
38 93
38 94
38 98
39 42
39 43
39 45
39 47
39 49
39 50
39 52
39 55
39 56
39 57
39 61
39 62
39 64
39 65
39 66
39 70
39 71
39 73
39 79
39 83
39 85
39 86
39 88
39 89
39 90
39 91
39 92
39 97
39 98
40 42
40 45
40 48
40 49
40 51
40 53
40 57
40 59
40 61
40 62
40 64
40 65
40 68
40 78
40 80
40 81
40 82
40 83
40 85
40 86
40 87
40 89
40 91
40 92
40 93
40 94
40 95
40 96
40 97
40 99
41 44
41 45
41 46
41 48
41 50
41 52
41 53
41 54
41 57
41 58
41 59
41 60
41 61
41 63
41 64
41 65
41 68
41 69
41 70
41 71
41 73
41 75
41 78
41 81
41 82
41 84
41 87
41 89
41 91
41 94
41 96
41 99
42 66
42 86
42 70
42 71
42 74
42 81
42 78
42 79
42 80
42 82
42 99
42 84
42 85
42 89
42 90
42 93
42 96
42 97
42 91
42 45
42 51
42 73
42 56
42 57
42 95
42 62
42 63
43 44
43 45
43 46
43 47
43 50
43 51
43 52
43 53
43 55
43 57
43 58
43 61
43 62
43 63
43 64
43 65
43 66
43 67
43 68
43 69
43 70
43 71
43 73
43 75
43 81
43 82
43 87
43 88
43 93
43 94
43 95
43 97
43 99
44 48
44 50
44 54
44 56
44 57
44 58
44 60
44 61
44 62
44 63
44 66
44 67
44 68
44 69
44 71
44 72
44 73
44 74
44 78
44 80
44 81
44 84
44 85
44 86
44 87
44 88
44 89
44 91
44 93
44 98
45 46
45 47
45 48
45 49
45 50
45 51
45 53
45 54
45 55
45 57
45 58
45 59
45 60
45 61
45 62
45 63
45 65
45 68
45 71
45 73
45 74
45 75
45 76
45 77
45 78
45 79
45 82
45 83
45 85
45 86
45 87
45 89
45 91
45 93
46 47
46 48
46 51
46 52
46 54
46 55
46 56
46 58
46 59
46 63
46 64
46 65
46 66
46 68
46 70
46 72
46 74
46 75
46 76
46 77
46 78
46 81
46 84
46 85
46 86
46 87
46 88
46 89
46 90
46 92
46 94
46 95
46 96
46 98
46 99
47 52
47 56
47 60
47 61
47 63
47 65
47 67
47 68
47 70
47 71
47 72
47 73
47 74
47 76
47 80
47 81
47 82
47 83
47 85
47 86
47 88
47 89
47 91
47 92
47 94
47 98
48 49
48 50
48 52
48 54
48 55
48 56
48 57
48 58
48 59
48 63
48 65
48 67
48 68
48 69
48 72
48 73
48 76
48 77
48 78
48 80
48 81
48 82
48 87
48 88
48 89
48 90
48 91
48 96
48 97
48 98
48 99
49 51
49 52
49 53
49 57
49 61
49 63
49 64
49 67
49 69
49 71
49 73
49 74
49 78
49 80
49 83
49 85
49 86
49 90
49 91
49 93
49 97
50 52
50 53
50 54
50 56
50 58
50 64
50 65
50 66
50 67
50 68
50 69
50 73
50 74
50 75
50 76
50 78
50 79
50 80
50 81
50 85
50 87
50 88
50 89
50 91
50 92
50 93
50 96
50 97
51 52
51 57
51 64
51 68
51 69
51 70
51 71
51 72
51 73
51 74
51 75
51 77
51 82
51 83
51 84
51 86
51 87
51 89
51 90
51 91
51 92
51 93
51 94
51 96
51 98
51 99
52 57
52 58
52 62
52 63
52 64
52 67
52 68
52 70
52 74
52 79
52 80
52 82
52 83
52 84
52 86
52 87
52 88
52 89
52 91
52 96
52 99
53 55
53 57
53 58
53 60
53 61
53 62
53 64
53 65
53 67
53 70
53 71
53 72
53 74
53 77
53 78
53 79
53 80
53 81
53 85
53 86
53 89
53 90
53 96
53 98
54 64
54 66
54 67
54 69
54 70
54 65
54 73
54 75
54 76
54 81
54 83
54 84
54 78
54 90
54 93
54 82
54 71
54 94
54 55
54 59
54 61
54 85
54 63
55 56
55 58
55 60
55 68
55 69
55 72
55 75
55 76
55 79
55 81
55 84
55 85
55 87
55 88
55 90
55 91
55 94
55 96
55 97
55 99
56 58
56 62
56 65
56 70
56 71
56 72
56 74
56 75
56 76
56 77
56 79
56 81
56 82
56 84
56 85
56 89
56 90
56 91
56 94
56 96
56 98
57 59
57 62
57 64
57 65
57 66
57 73
57 74
57 76
57 80
57 81
57 82
57 83
57 84
57 85
57 87
57 88
57 95
57 97
58 59
58 60
58 63
58 66
58 67
58 71
58 73
58 74
58 75
58 77
58 81
58 82
58 84
58 91
58 96
58 97
58 98
58 99
59 61
59 62
59 63
59 64
59 65
59 66
59 67
59 68
59 69
59 70
59 73
59 77
59 81
59 85
59 86
59 87
59 89
59 90
59 91
59 93
59 94
59 97
59 98
59 99
60 62
60 63
60 64
60 65
60 70
60 71
60 73
60 75
60 78
60 79
60 80
60 81
60 82
60 83
60 87
60 89
60 90
60 93
60 94
60 97
60 98
60 99
61 62
61 63
61 68
61 70
61 72
61 75
61 77
61 78
61 79
61 83
61 84
61 85
61 87
61 90
61 92
61 93
61 95
61 97
61 98
62 63
62 68
62 69
62 71
62 75
62 81
62 83
62 86
62 88
62 91
62 92
62 93
62 96
62 97
63 64
63 66
63 70
63 71
63 72
63 74
63 80
63 81
63 82
63 84
63 86
63 87
63 93
63 94
63 95
63 96
63 97
64 65
64 70
64 72
64 73
64 76
64 77
64 78
64 80
64 83
64 84
64 86
64 87
64 90
64 91
64 93
64 94
64 99
65 68
65 69
65 70
65 71
65 72
65 75
65 78
65 81
65 83
65 85
65 86
65 87
65 91
65 92
65 94
65 95
65 98
66 67
66 68
66 70
66 71
66 72
66 74
66 75
66 77
66 79
66 80
66 81
66 82
66 84
66 86
66 87
66 90
66 91
66 92
66 95
66 96
66 97
66 98
66 99
67 69
67 70
67 71
67 72
67 73
67 79
67 80
67 84
67 86
67 89
67 92
67 93
67 96
67 98
68 71
68 74
68 77
68 79
68 80
68 83
68 86
68 87
68 88
68 89
68 90
68 92
68 93
68 95
68 96
68 97
69 71
69 72
69 73
69 74
69 75
69 76
69 77
69 78
69 80
69 82
69 85
69 86
69 91
69 94
69 95
70 73
70 75
70 77
70 78
70 79
70 82
70 84
70 85
70 88
70 93
70 95
70 96
71 73
71 76
71 77
71 79
71 81
71 84
71 86
71 87
71 91
71 92
71 93
71 94
71 95
71 99
72 74
72 75
72 76
72 82
72 83
72 87
72 88
72 89
72 90
72 91
72 94
72 97
72 98
73 74
73 76
73 78
73 81
73 83
73 85
73 86
73 89
73 95
73 99
74 77
74 79
74 80
74 82
74 84
74 86
74 87
74 88
74 90
74 91
74 92
74 97
74 98
74 99
75 76
75 77
75 81
75 82
75 83
75 85
75 86
75 87
75 88
75 89
75 90
75 91
75 94
75 95
75 97
75 98
75 99
76 78
76 79
76 81
76 82
76 83
76 84
76 85
76 87
76 89
76 90
76 93
76 94
76 95
76 96
76 97
76 98
76 99
77 78
77 79
77 80
77 82
77 83
77 87
77 88
77 90
77 92
77 93
77 94
77 95
77 99
78 82
78 83
78 84
78 85
78 87
78 90
78 93
78 95
78 97
78 99
79 80
79 81
79 82
79 83
79 87
79 88
79 89
79 91
79 93
79 95
79 96
79 97
79 98
79 99
80 82
80 83
80 85
80 87
80 89
80 93
80 94
80 96
80 98
80 99
81 83
81 84
81 85
81 87
81 90
81 91
81 92
81 96
81 97
81 99
82 83
82 84
82 85
82 86
82 87
82 90
82 91
82 92
82 94
82 95
82 98
82 99
83 84
83 86
83 87
83 88
83 90
83 91
83 93
83 94
83 95
83 98
84 85
84 86
84 87
84 88
84 89
84 92
84 94
84 95
84 96
85 86
85 87
85 88
85 89
85 91
85 93
85 95
85 98
85 99
86 88
86 92
87 88
87 89
87 92
87 94
87 95
87 98
87 99
88 89
88 91
88 92
88 93
88 94
88 95
88 99
89 93
89 94
90 95
90 96
90 97
90 98
91 93
91 94
91 96
91 98
92 96
92 93
92 98
93 95
93 96
93 97
93 98
94 96
94 97
95 96
96 97
96 98
96 99
97 98
97 99
98 99
