100
226 71
290 137
127 16
198 150
289 20
108 207
284 47
104 129
246 121
19 66
172 63
183 268
255 294
164 1
14 121
270 155
143 79
172 86
47 280
172 19
17 1
59 120
70 155
102 19
204 179
14 16
215 64
250 273
232 122
36 278
225 267
254 29
262 260
67 144
77 152
7 156
35 87
60 119
142 234
69 219
213 32
101 193
133 109
209 196
48 52
191 287
174 161
147 38
209 198
198 157
126 72
263 112
184 97
194 229
149 266
83 144
284 242
52 163
283 22
42 122
143 266
45 169
92 109
244 190
205 207
250 283
276 77
295 181
34 284
237 42
53 92
57 162
53 245
203 107
110 256
254 98
212 193
68 110
271 80
99 54
286 187
183 273
103 212
93 122
263 29
33 95
257 69
281 196
69 36
180 176
103 243
37 292
218 90
142 236
275 12
36 35
245 154
281 209
20 190
50 240
0 1
0 5
0 7
0 9
0 11
0 13
0 15
0 16
0 17
0 22
0 26
0 27
0 32
0 33
0 35
0 39
0 41
0 43
0 46
0 49
0 52
0 55
0 57
0 58
0 61
0 62
0 64
0 66
0 67
0 68
0 70
0 75
0 78
0 79
0 81
0 83
0 84
0 85
0 87
0 88
0 89
0 92
0 93
0 97
1 2
1 3
1 5
1 6
1 7
1 8
1 12
1 13
1 14
1 15
1 17
1 18
1 20
1 21
1 23
1 24
1 28
1 31
1 33
1 35
1 36
1 37
1 38
1 43
1 44
1 45
1 46
1 48
1 50
1 52
1 53
1 57
1 58
1 61
1 64
1 67
1 69
1 71
1 72
1 73
1 74
1 75
1 79
1 80
1 81
1 82
1 84
1 86
1 87
1 90
1 91
1 94
1 97
2 3
2 4
2 6
2 7
2 14
2 17
2 18
2 20
2 21
2 24
2 25
2 28
2 30
2 32
2 37
2 39
2 40
2 43
2 46
2 48
2 50
2 52
2 53
2 55
2 56
2 58
2 59
2 60
2 62
2 63
2 64
2 67
2 68
2 69
2 70
2 71
2 72
2 76
2 77
2 80
2 81
2 83
2 84
2 85
2 86
2 87
2 88
2 89
2 95
2 97
2 99
3 4
3 5
3 8
3 9
3 13
3 14
3 16
3 18
3 19
3 25
3 27
3 30
3 31
3 32
3 33
3 37
3 38
3 42
3 45
3 47
3 50
3 51
3 53
3 54
3 57
3 60
3 61
3 62
3 63
3 65
3 69
3 73
3 74
3 75
3 77
3 78
3 80
3 81
3 82
3 83
3 84
3 86
3 88
3 90
3 91
3 92
3 95
3 98
4 96
4 5
4 71
4 72
4 10
4 11
4 76
4 98
4 78
4 80
4 81
4 83
4 20
4 85
4 22
4 23
4 24
4 25
4 27
4 86
4 29
4 69
4 95
4 33
4 34
4 36
4 40
4 41
4 42
4 43
4 44
4 47
4 48
4 49
4 50
4 74
4 53
4 84
4 58
4 59
4 61
5 6
5 7
5 9
5 10
5 13
5 14
5 17
5 18
5 23
5 24
5 25
5 27
5 28
5 29
5 33
5 36
5 37
5 39
5 40
5 50
5 51
5 52
5 55
5 56
5 58
5 60
5 62
5 64
5 70
5 73
5 74
5 75
5 76
5 77
5 78
5 81
5 82
5 84
5 85
5 86
5 87
5 88
5 89
5 91
5 92
5 93
5 94
5 95
5 98
6 7
6 8
6 10
6 12
6 13
6 14
6 15
6 17
6 22
6 23
6 28
6 29
6 30
6 31
6 32
6 33
6 36
6 40
6 41
6 43
6 44
6 48
6 49
6 52
6 53
6 55
6 60
6 61
6 62
6 63
6 65
6 67
6 69
6 73
6 74
6 75
6 76
6 77
6 78
6 80
6 86
6 90
6 93
6 94
6 97
6 98
6 99
7 9
7 12
7 13
7 19
7 21
7 22
7 24
7 25
7 27
7 28
7 30
7 31
7 32
7 33
7 35
7 39
7 40
7 43
7 44
7 45
7 47
7 48
7 50
7 52
7 54
7 55
7 56
7 57
7 60
7 63
7 65
7 68
7 70
7 71
7 73
7 77
7 78
7 79
7 81
7 82
7 83
7 86
7 89
7 90
7 93
7 94
7 95
7 96
7 98
8 9
8 12
8 15
8 18
8 20
8 21
8 23
8 27
8 28
8 31
8 32
8 33
8 35
8 36
8 37
8 38
8 39
8 43
8 44
8 45
8 47
8 48
8 49
8 50
8 51
8 53
8 54
8 57
8 58
8 59
8 60
8 61
8 63
8 65
8 70
8 73
8 74
8 75
8 76
8 78
8 80
8 81
8 82
8 83
8 85
8 87
8 88
8 89
8 90
8 91
8 92
8 95
8 96
8 97
9 11
9 12
9 16
9 18
9 19
9 20
9 22
9 24
9 26
9 28
9 30
9 32
9 34
9 37
9 38
9 39
9 40
9 41
9 42
9 43
9 44
9 45
9 47
9 48
9 52
9 58
9 59
9 60
9 61
9 63
9 64
9 67
9 68
9 73
9 77
9 79
9 81
9 83
9 84
9 89
9 90
9 97
9 98
10 12
10 14
10 15
10 17
10 18
10 20
10 24
10 25
10 28
10 29
10 31
10 33
10 36
10 39
10 41
10 42
10 44
10 49
10 50
10 51
10 53
10 54
10 55
10 58
10 60
10 62
10 65
10 67
10 68
10 70
10 71
10 74
10 76
10 77
10 80
10 83
10 89
10 90
10 91
10 92
10 93
10 97
10 98
10 99
11 17
11 18
11 19
11 21
11 22
11 24
11 26
11 30
11 31
11 33
11 35
11 36
11 37
11 39
11 40
11 41
11 45
11 46
11 48
11 49
11 52
11 54
11 57
11 61
11 64
11 65
11 66
11 67
11 69
11 72
11 73
11 74
11 75
11 78
11 81
11 86
11 87
11 92
11 93
11 94
11 98
12 13
12 14
12 15
12 17
12 23
12 24
12 25
12 26
12 27
12 29
12 30
12 31
12 36
12 37
12 39
12 41
12 42
12 43
12 46
12 47
12 48
12 49
12 51
12 55
12 58
12 60
12 68
12 71
12 72
12 74
12 77
12 78
12 80
12 85
12 86
12 88
12 90
12 94
12 95
12 96
12 98
13 14
13 16
13 17
13 18
13 20
13 21
13 25
13 27
13 28
13 32
13 33
13 37
13 42
13 45
13 46
13 47
13 48
13 51
13 54
13 55
13 56
13 57
13 59
13 61
13 63
13 65
13 66
13 67
13 68
13 74
13 75
13 77
13 78
13 81
13 82
13 83
13 84
13 86
13 89
13 92
13 98
13 99
14 18
14 20
14 21
14 22
14 28
14 29
14 30
14 31
14 35
14 37
14 43
14 44
14 47
14 49
14 50
14 54
14 55
14 57
14 58
14 61
14 66
14 68
14 70
14 71
14 73
14 74
14 75
14 78
14 82
14 83
14 84
14 85
14 87
14 88
14 93
14 95
14 96
14 98
15 17
15 19
15 21
15 22
15 23
15 24
15 26
15 27
15 31
15 32
15 38
15 40
15 42
15 47
15 48
15 49
15 50
15 52
15 55
15 56
15 58
15 61
15 64
15 65
15 66
15 67
15 68
15 69
15 70
15 71
15 74
15 75
15 76
15 78
15 79
15 81
15 83
15 84
15 85
15 86
15 88
15 90
15 91
15 93
15 96
15 97
16 19
16 21
16 22
16 25
16 30
16 32
16 33
16 35
16 39
16 40
16 45
16 47
16 48
16 51
16 52
16 55
16 56
16 57
16 59
16 60
16 61
16 62
16 63
16 64
16 65
16 67
16 68
16 72
16 73
16 74
16 75
16 76
16 77
16 78
16 80
16 81
16 82
16 84
16 86
16 88
16 89
16 90
16 91
16 93
16 96
17 18
17 20
17 21
17 23
17 30
17 31
17 32
17 35
17 37
17 39
17 40
17 41
17 43
17 44
17 50
17 51
17 52
17 53
17 54
17 56
17 57
17 61
17 63
17 65
17 66
17 67
17 68
17 70
17 72
17 76
17 80
17 81
17 88
17 89
17 90
17 94
17 97
17 98
18 21
18 22
18 24
18 25
18 27
18 32
18 33
18 35
18 36
18 37
18 40
18 42
18 44
18 45
18 47
18 48
18 49
18 50
18 51
18 52
18 53
18 54
18 57
18 60
18 61
18 62
18 67
18 70
18 71
18 72
18 74
18 75
18 77
18 78
18 79
18 80
18 83
18 84
18 87
18 88
18 89
18 90
18 92
18 96
18 97
19 20
19 21
19 27
19 28
19 29
19 30
19 31
19 33
19 35
19 39
19 41
19 42
19 43
19 44
19 45
19 46
19 50
19 51
19 52
19 55
19 56
19 57
19 59
19 61
19 64
19 66
19 71
19 72
19 73
19 74
19 75
19 76
19 77
19 78
19 79
19 82
19 85
19 87
19 88
19 90
19 91
19 92
19 98
19 99
20 21
20 23
20 24
20 26
20 29
20 30
20 31
20 32
20 33
20 34
20 35
20 36
20 41
20 42
20 44
20 45
20 46
20 47
20 51
20 52
20 55
20 57
20 59
20 63
20 64
20 65
20 66
20 69
20 70
20 71
20 72
20 73
20 74
20 76
20 77
20 78
20 80
20 82
20 86
20 87
20 89
20 91
20 96
20 98
21 22
21 23
21 24
21 25
21 26
21 27
21 29
21 31
21 34
21 35
21 37
21 38
21 39
21 42
21 43
21 44
21 45
21 46
21 47
21 49
21 52
21 53
21 54
21 55
21 57
21 60
21 62
21 67
21 68
21 71
21 73
21 75
21 76
21 79
21 80
21 81
21 82
21 83
21 85
21 87
21 88
21 89
21 90
21 95
21 97
22 86
22 74
22 94
22 99
22 73
22 68
22 26
22 28
22 29
22 30
22 31
22 96
22 80
22 35
22 82
22 37
22 38
22 39
22 40
22 43
22 44
22 45
22 48
22 53
22 55
22 56
22 58
22 95
22 61
22 62
23 25
23 26
23 28
23 29
23 33
23 39
23 41
23 42
23 43
23 50
23 52
23 54
23 55
23 58
23 61
23 62
23 64
23 65
23 68
23 70
23 71
23 72
23 74
23 75
23 76
23 77
23 79
23 80
23 81
23 84
23 85
23 87
23 91
23 95
23 97
23 98
23 99
24 25
24 28
24 29
24 37
24 40
24 44
24 45
24 46
24 47
24 53
24 55
24 56
24 58
24 63
24 64
24 65
24 67
24 72
24 73
24 74
24 75
24 76
24 77
24 78
24 80
24 82
24 84
24 87
24 88
24 90
24 91
24 94
24 96
25 27
25 28
25 29
25 30
25 33
25 34
25 35
25 37
25 39
25 41
25 42
25 45
25 47
25 49
25 50
25 51
25 52
25 53
25 54
25 55
25 56
25 60
25 61
25 62
25 64
25 66
25 67
25 69
25 70
25 71
25 77
25 79
25 80
25 82
25 85
25 88
25 90
25 94
25 95
25 96
25 97
26 67
26 68
26 69
26 71
26 72
26 86
26 99
26 90
26 79
26 28
26 93
26 91
26 36
26 37
26 38
26 43
26 45
26 46
26 49
26 52
26 53
26 54
26 55
26 84
26 58
26 60
26 62
26 85
27 65
27 73
27 74
27 86
27 93
27 94
27 96
27 97
27 67
27 36
27 37
27 40
27 42
27 71
27 44
27 82
27 47
27 48
27 49
27 50
27 52
27 53
27 55
27 56
27 57
27 58
27 59
27 60
27 62
27 85
28 29
28 31
28 34
28 38
28 40
28 41
28 42
28 45
28 47
28 52
28 53
28 56
28 57
28 60
28 63
28 67
28 72
28 73
28 76
28 79
28 85
28 86
28 87
28 89
28 93
28 94
28 97
28 98
28 99
29 34
29 35
29 38
29 39
29 42
29 47
29 48
29 49
29 50
29 51
29 53
29 55
29 59
29 60
29 64
29 65
29 66
29 67
29 68
29 71
29 73
29 75
29 76
29 81
29 82
29 85
29 86
29 88
29 89
29 90
29 91
29 92
29 96
29 97
29 98
29 99
30 32
30 34
30 35
30 37
30 38
30 39
30 41
30 43
30 44
30 46
30 47
30 50
30 51
30 56
30 60
30 62
30 63
30 65
30 67
30 70
30 71
30 73
30 74
30 75
30 76
30 77
30 78
30 80
30 81
30 83
30 84
30 87
30 88
30 89
30 92
30 94
30 95
30 98
31 68
31 69
31 77
31 80
31 71
31 91
31 90
31 94
31 96
31 34
31 35
31 41
31 42
31 67
31 78
31 98
31 49
31 50
31 83
31 74
31 54
31 84
31 59
31 60
31 61
31 85
32 35
32 36
32 37
32 38
32 44
32 46
32 48
32 51
32 52
32 54
32 55
32 56
32 57
32 58
32 60
32 62
32 64
32 67
32 71
32 74
32 75
32 77
32 80
32 86
32 87
32 90
32 93
32 95
32 96
32 97
32 99
33 35
33 36
33 39
33 42
33 44
33 45
33 46
33 47
33 49
33 50
33 51
33 52
33 56
33 60
33 61
33 63
33 64
33 67
33 68
33 71
33 74
33 76
33 77
33 78
33 82
33 83
33 84
33 85
33 88
33 90
33 91
33 92
33 93
33 94
33 98
33 99
34 68
34 96
34 66
34 67
34 70
34 71
34 76
34 77
34 89
34 81
34 73
34 87
34 88
34 91
34 84
34 35
34 37
34 38
34 40
34 42
34 43
34 44
34 46
34 51
34 52
34 94
34 54
34 55
34 57
34 95
34 60
34 62
34 85
35 36
35 37
35 41
35 42
35 43
35 47
35 48
35 49
35 50
35 51
35 52
35 53
35 54
35 58
35 64
35 65
35 67
35 69
35 70
35 72
35 74
35 77
35 80
35 81
35 82
35 83
35 84
35 86
35 87
35 88
35 89
35 93
35 95
35 97
35 98
36 38
36 39
36 40
36 43
36 44
36 48
36 49
36 50
36 51
36 55
36 56
36 57
36 60
36 66
36 67
36 69
36 71
36 73
36 74
36 76
36 77
36 79
36 82
36 83
36 84
36 87
36 88
36 90
36 95
36 98
36 99
37 38
37 39
37 40
37 41
37 43
37 44
37 45
37 47
37 48
37 49
37 51
37 53
37 58
37 59
37 61
37 62
37 67
37 68
37 70
37 71
37 72
37 74
37 75
37 76
37 80
37 85
37 89
37 90
37 93
37 96
37 98
37 99
38 39
38 42
38 46
38 47
38 48
38 50
38 52
38 53
38 54
38 55
38 57
38 60
38 62
38 64
38 65
38 66
38 67
38 70
38 72
38 74
38 76
38 78
38 79
38 80
38 84
38 87
38 88
38 90
38 91
38 93
38 95
38 96
39 44
39 46
39 51
39 52
39 54
39 55
39 56
39 57
39 59
39 60
39 64
39 65
39 68
39 69
39 71
39 72
39 74
39 75
39 77
39 78
39 79
39 81
39 83
39 85
39 86
39 89
39 90
39 92
39 93
39 95
39 97
40 42
40 43
40 44
40 45
40 48
40 50
40 52
40 53
40 57
40 58
40 60
40 61
40 63
40 64
40 69
40 70
40 71
40 72
40 74
40 75
40 76
40 78
40 79
40 81
40 82
40 88
40 89
40 91
40 92
40 93
40 96
41 43
41 45
41 48
41 49
41 50
41 53
41 54
41 58
41 59
41 60
41 62
41 66
41 67
41 68
41 69
41 70
41 71
41 74
41 75
41 76
41 77
41 78
41 80
41 82
41 84
41 87
41 89
41 91
41 93
41 94
41 97
42 43
42 44
42 45
42 46
42 48
42 51
42 52
42 53
42 54
42 56
42 58
42 59
42 61
42 62
42 64
42 66
42 68
42 69
42 70
42 71
42 72
42 75
42 77
42 79
42 81
42 83
42 86
42 87
42 88
42 89
42 90
42 91
42 97
42 98
42 99
43 44
43 46
43 47
43 48
43 49
43 50
43 51
43 53
43 54
43 55
43 56
43 57
43 58
43 61
43 62
43 68
43 69
43 70
43 72
43 73
43 74
43 77
43 78
43 82
43 84
43 86
43 87
43 88
43 89
43 90
43 91
43 92
43 97
43 98
44 45
44 46
44 47
44 50
44 52
44 54
44 56
44 59
44 62
44 63
44 69
44 70
44 74
44 75
44 78
44 80
44 81
44 82
44 83
44 85
44 91
44 92
44 93
44 94
44 95
44 96
44 99
45 47
45 52
45 54
45 55
45 57
45 58
45 61
45 62
45 64
45 66
45 67
45 68
45 70
45 71
45 72
45 76
45 78
45 81
45 82
45 86
45 88
45 89
45 93
45 96
45 98
45 99
46 47
46 48
46 49
46 50
46 53
46 54
46 55
46 58
46 59
46 60
46 61
46 62
46 63
46 66
46 67
46 68
46 72
46 74
46 76
46 80
46 81
46 82
46 85
46 90
46 94
46 96
46 98
46 99
47 48
47 50
47 51
47 53
47 55
47 58
47 59
47 60
47 63
47 65
47 70
47 71
47 74
47 76
47 82
47 83
47 85
47 86
47 88
47 89
47 91
47 92
47 93
47 96
47 97
47 98
47 99
48 50
48 52
48 54
48 55
48 56
48 58
48 59
48 61
48 68
48 70
48 73
48 75
48 76
48 78
48 79
48 81
48 82
48 84
48 87
48 89
48 93
48 94
48 95
48 96
48 97
48 98
48 99
49 53
49 55
49 56
49 63
49 64
49 69
49 70
49 72
49 74
49 76
49 77
49 78
49 79
49 80
49 83
49 84
49 90
49 93
49 94
49 96
49 98
49 99
50 52
50 53
50 54
50 58
50 59
50 60
50 62
50 63
50 64
50 65
50 66
50 68
50 71
50 75
50 79
50 80
50 82
50 83
50 84
50 85
50 88
50 91
50 92
50 93
50 94
50 96
50 98
50 99
51 66
51 81
51 78
51 87
51 67
51 69
51 84
51 82
51 83
51 74
51 89
51 57
51 95
51 61
51 63
52 54
52 55
52 57
52 58
52 59
52 61
52 63
52 64
52 65
52 68
52 70
52 73
52 75
52 77
52 78
52 79
52 80
52 81
52 82
52 84
52 90
52 91
52 92
52 94
52 96
52 97
52 98
53 54
53 56
53 59
53 60
53 63
53 64
53 65
53 67
53 70
53 74
53 77
53 78
53 80
53 81
53 83
53 84
53 85
53 86
53 87
53 88
53 89
53 90
53 92
53 93
53 95
53 96
53 97
53 98
53 99
54 56
54 58
54 59
54 60
54 61
54 62
54 63
54 65
54 67
54 70
54 71
54 72
54 76
54 79
54 80
54 81
54 83
54 84
54 86
54 87
54 95
54 96
54 97
54 98
55 56
55 57
55 59
55 60
55 61
55 63
55 64
55 70
55 73
55 75
55 78
55 81
55 84
55 85
55 86
55 91
55 92
55 95
55 97
55 99
56 65
56 67
56 97
56 72
56 74
56 86
56 78
56 82
56 93
56 99
56 80
56 59
56 60
56 61
57 61
57 65
57 66
57 67
57 74
57 75
57 76
57 80
57 82
57 83
57 86
57 91
57 93
57 94
57 95
57 96
57 97
57 98
58 59
58 61
58 62
58 63
58 64
58 66
58 68
58 69
58 72
58 73
58 74
58 77
58 79
58 81
58 82
58 87
58 89
58 91
58 93
59 60
59 62
59 63
59 64
59 65
59 68
59 69
59 73
59 75
59 77
59 78
59 79
59 80
59 84
59 85
59 87
59 89
59 90
59 91
59 93
59 94
59 96
59 99
60 61
60 64
60 65
60 66
60 68
60 69
60 70
60 71
60 76
60 77
60 78
60 79
60 80
60 81
60 82
60 85
60 89
60 90
60 91
60 97
61 62
61 63
61 65
61 67
61 70
61 71
61 72
61 74
61 75
61 76
61 77
61 78
61 80
61 81
61 83
61 87
61 88
61 89
61 92
61 93
61 95
61 96
61 97
62 66
62 67
62 69
62 73
62 74
62 75
62 80
62 81
62 83
62 84
62 85
62 86
62 88
62 89
62 90
62 91
62 93
62 94
62 96
62 99
63 66
63 86
63 94
63 77
63 85
63 73
63 87
63 90
63 96
63 99
63 70
63 97
63 71
63 72
64 67
64 68
64 69
64 70
64 74
64 76
64 78
64 79
64 80
64 82
64 83
64 84
64 87
64 88
64 92
64 95
64 96
64 97
64 99
65 66
65 97
65 69
65 88
65 74
65 95
65 84
65 80
65 70
65 72
65 79
65 90
66 67
66 68
66 69
66 70
66 71
66 72
66 73
66 76
66 77
66 78
66 79
66 84
66 86
66 89
66 93
66 94
66 95
66 96
66 98
67 76
67 79
67 80
67 83
67 86
67 87
67 92
67 93
67 94
67 95
67 98
67 99
68 70
68 71
68 73
68 74
68 76
68 79
68 80
68 83
68 84
68 87
68 88
68 89
68 90
68 91
68 92
68 94
68 97
69 72
69 78
69 81
69 86
69 88
69 79
69 93
69 70
70 71
70 73
70 74
70 75
70 77
70 78
70 84
70 85
70 88
70 91
70 92
70 97
70 98
70 99
71 72
71 74
71 75
71 83
71 85
71 86
71 87
71 88
71 89
71 95
71 96
71 97
71 98
71 99
72 73
72 75
72 76
72 78
72 79
72 80
72 81
72 84
72 85
72 87
72 92
72 95
72 97
72 98
73 74
73 75
73 80
73 81
73 83
73 86
73 87
73 89
73 90
73 94
73 95
73 98
74 75
74 76
74 77
74 78
74 83
74 84
74 86
74 87
74 90
74 93
74 96
74 97
74 98
74 99
75 77
75 79
75 80
75 81
75 84
75 85
75 89
75 90
75 92
75 93
75 94
75 99
76 80
76 84
76 86
76 89
76 92
76 94
76 96
76 97
76 98
77 79
77 81
77 84
77 86
77 87
77 88
77 89
77 94
77 95
77 96
77 98
78 81
78 82
78 91
78 93
78 94
78 95
78 96
79 80
79 81
79 86
79 88
79 91
79 93
79 98
79 99
79 82
80 82
80 89
80 95
80 96
81 82
81 86
81 88
81 89
81 91
81 92
81 96
81 99
82 83
82 87
82 90
82 93
82 95
82 99
83 84
83 85
83 86
83 87
83 88
83 91
83 92
83 93
83 94
83 96
83 97
83 99
84 85
84 86
84 87
84 90
84 91
84 92
84 97
84 98
85 98
85 88
85 91
85 99
85 90
86 88
86 89
86 90
86 91
86 93
86 94
86 95
86 99
87 88
87 90
87 91
87 92
87 94
87 95
87 96
87 97
87 98
88 89
88 90
88 91
88 94
89 90
89 91
89 92
89 95
89 97
90 91
90 92
90 94
90 95
90 97
90 98
90 99
91 92
91 94
91 96
91 97
92 95
92 96
92 94
93 95
93 98
93 99
94 99
95 96
95 97
96 97
96 99
