100
5 220
287 176
236 257
212 131
136 281
258 58
283 29
61 125
196 99
100 91
51 212
266 88
217 101
197 164
37 132
119 23
179 268
196 255
228 237
173 299
270 223
20 263
297 43
214 104
195 31
272 15
140 248
96 178
222 40
20 191
234 221
120 184
40 27
99 146
249 45
279 246
41 30
118 76
239 125
197 273
32 82
114 222
51 261
130 217
187 279
243 41
177 114
73 3
54 99
225 96
164 227
56 151
164 9
257 175
279 279
22 257
271 117
246 162
80 55
98 264
10 251
250 150
140 81
212 146
27 127
193 279
227 251
61 63
207 150
103 208
293 40
133 50
199 112
136 54
247 26
13 281
30 14
265 10
142 14
247 187
288 292
152 283
206 53
21 137
293 117
227 231
7 98
82 211
148 276
85 72
253 185
200 33
279 253
147 61
162 206
133 282
45 171
213 170
157 94
118 94
0 1
0 2
0 3
0 5
0 9
0 17
0 20
0 22
0 24
0 26
0 28
0 29
0 30
0 32
0 33
0 34
0 35
0 36
0 37
0 38
0 40
0 41
0 42
0 46
0 50
0 51
0 53
0 54
0 55
0 59
0 60
0 61
0 64
0 65
0 67
0 68
0 69
0 70
0 72
0 73
0 75
0 76
0 78
0 79
0 82
0 83
0 84
0 85
0 87
0 89
0 92
0 93
0 95
0 96
0 97
1 3
1 4
1 5
1 6
1 7
1 9
1 11
1 12
1 14
1 16
1 17
1 20
1 22
1 27
1 29
1 31
1 32
1 33
1 34
1 35
1 42
1 43
1 44
1 51
1 52
1 53
1 58
1 59
1 63
1 64
1 67
1 72
1 73
1 74
1 76
1 80
1 81
1 82
1 83
1 84
1 85
1 87
1 88
1 89
1 93
1 96
2 3
2 4
2 5
2 7
2 11
2 13
2 14
2 16
2 17
2 18
2 19
2 21
2 22
2 25
2 27
2 29
2 30
2 32
2 33
2 34
2 35
2 37
2 38
2 39
2 44
2 49
2 51
2 55
2 57
2 58
2 62
2 66
2 67
2 68
2 71
2 72
2 76
2 77
2 79
2 81
2 82
2 84
2 86
2 87
2 88
2 90
2 92
2 94
2 99
3 4
3 5
3 7
3 8
3 9
3 12
3 14
3 15
3 21
3 22
3 23
3 24
3 26
3 27
3 29
3 30
3 31
3 33
3 34
3 37
3 38
3 40
3 45
3 47
3 48
3 50
3 54
3 55
3 56
3 58
3 59
3 60
3 61
3 63
3 64
3 66
3 68
3 70
3 71
3 78
3 82
3 84
3 85
3 89
3 91
3 92
3 93
3 97
3 98
4 6
4 7
4 8
4 10
4 14
4 15
4 16
4 17
4 19
4 20
4 21
4 25
4 27
4 28
4 32
4 34
4 35
4 36
4 37
4 38
4 42
4 45
4 47
4 48
4 49
4 50
4 52
4 53
4 54
4 58
4 61
4 62
4 70
4 72
4 75
4 76
4 82
4 83
4 85
4 86
4 87
4 88
4 89
4 90
4 92
4 93
4 95
4 96
5 6
5 8
5 10
5 11
5 13
5 14
5 17
5 18
5 19
5 24
5 26
5 27
5 28
5 30
5 31
5 33
5 35
5 36
5 37
5 38
5 45
5 46
5 49
5 51
5 54
5 63
5 64
5 65
5 67
5 70
5 72
5 76
5 80
5 82
5 83
5 88
5 89
5 90
5 91
5 93
5 95
5 97
5 98
6 7
6 14
6 15
6 16
6 18
6 20
6 21
6 22
6 24
6 27
6 32
6 33
6 36
6 39
6 40
6 45
6 46
6 47
6 48
6 49
6 50
6 52
6 55
6 57
6 59
6 60
6 62
6 63
6 66
6 72
6 73
6 74
6 75
6 81
6 83
6 85
6 88
6 89
6 90
6 92
6 93
6 94
6 97
6 98
7 10
7 12
7 13
7 16
7 18
7 21
7 22
7 23
7 25
7 28
7 29
7 30
7 32
7 34
7 36
7 37
7 38
7 39
7 42
7 44
7 45
7 46
7 47
7 48
7 51
7 53
7 55
7 56
7 59
7 60
7 65
7 66
7 70
7 71
7 72
7 73
7 79
7 82
7 83
7 84
7 86
7 91
7 93
7 94
7 97
7 98
7 99
8 10
8 11
8 12
8 14
8 19
8 20
8 25
8 26
8 28
8 30
8 33
8 39
8 42
8 44
8 46
8 47
8 48
8 49
8 50
8 51
8 52
8 53
8 56
8 57
8 58
8 62
8 63
8 64
8 65
8 66
8 67
8 68
8 69
8 70
8 78
8 80
8 83
8 84
8 86
8 87
8 88
8 89
8 90
8 91
8 92
8 93
8 95
8 96
9 10
9 16
9 17
9 19
9 20
9 24
9 29
9 30
9 33
9 34
9 36
9 37
9 38
9 40
9 45
9 46
9 53
9 54
9 55
9 56
9 57
9 59
9 61
9 62
9 64
9 67
9 68
9 71
9 72
9 73
9 74
9 75
9 76
9 79
9 87
9 88
9 89
9 91
9 92
9 93
9 96
10 12
10 21
10 22
10 28
10 30
10 32
10 36
10 37
10 38
10 39
10 40
10 42
10 43
10 46
10 47
10 48
10 49
10 50
10 53
10 54
10 59
10 61
10 63
10 64
10 65
10 70
10 73
10 74
10 76
10 77
10 81
10 82
10 83
10 84
10 87
10 88
10 91
10 92
10 94
10 95
10 99
11 70
11 65
11 75
11 12
11 98
11 16
11 17
11 82
11 19
11 20
11 21
11 88
11 25
11 26
11 91
11 94
11 69
11 96
11 33
11 34
11 38
11 40
11 71
11 44
11 46
11 47
11 48
11 72
11 52
11 53
11 60
11 61
11 62
11 85
12 64
12 68
12 70
12 13
12 78
12 79
12 16
12 75
12 19
12 84
12 23
12 89
12 71
12 92
12 93
12 94
12 31
12 96
12 34
12 99
12 65
12 39
12 42
12 67
12 82
12 46
12 47
12 48
12 49
12 51
12 53
12 59
12 74
12 63
13 14
13 17
13 18
13 19
13 20
13 21
13 23
13 24
13 26
13 29
13 30
13 31
13 33
13 35
13 38
13 39
13 40
13 41
13 44
13 45
13 49
13 53
13 54
13 57
13 59
13 60
13 62
13 64
13 67
13 72
13 75
13 77
13 78
13 80
13 81
13 84
13 86
13 87
13 89
13 95
13 96
13 98
14 17
14 18
14 21
14 26
14 29
14 30
14 31
14 32
14 36
14 37
14 38
14 39
14 40
14 47
14 49
14 51
14 53
14 56
14 57
14 61
14 62
14 64
14 65
14 68
14 69
14 70
14 71
14 72
14 74
14 76
14 78
14 79
14 80
14 83
14 84
14 85
14 87
14 88
14 90
14 91
14 96
15 83
15 86
15 98
15 73
15 74
15 77
15 79
15 16
15 17
15 18
15 19
15 84
15 22
15 26
15 91
15 90
15 30
15 31
15 32
15 67
15 36
15 37
15 81
15 43
15 44
15 46
15 93
15 48
15 51
15 52
15 55
15 56
15 57
15 58
15 95
15 60
16 17
16 18
16 20
16 23
16 25
16 26
16 29
16 30
16 31
16 32
16 36
16 37
16 38
16 39
16 41
16 43
16 44
16 45
16 47
16 49
16 51
16 52
16 54
16 56
16 58
16 59
16 60
16 61
16 63
16 65
16 66
16 67
16 69
16 72
16 75
16 78
16 80
16 82
16 83
16 84
16 85
16 86
16 88
16 89
16 91
16 93
16 94
16 95
16 96
16 98
17 18
17 21
17 23
17 26
17 27
17 32
17 33
17 36
17 37
17 39
17 42
17 44
17 47
17 48
17 52
17 55
17 56
17 60
17 62
17 64
17 65
17 67
17 70
17 71
17 72
17 73
17 75
17 77
17 80
17 81
17 85
17 88
17 89
17 90
17 92
17 94
17 95
17 97
17 98
17 99
18 19
18 21
18 23
18 24
18 25
18 26
18 27
18 28
18 30
18 33
18 35
18 36
18 37
18 38
18 39
18 40
18 41
18 42
18 43
18 44
18 45
18 56
18 57
18 58
18 59
18 62
18 63
18 65
18 67
18 69
18 72
18 74
18 75
18 76
18 77
18 79
18 80
18 81
18 82
18 86
18 89
18 90
18 92
18 93
18 96
18 98
18 99
19 20
19 23
19 24
19 26
19 27
19 29
19 30
19 33
19 36
19 37
19 39
19 41
19 44
19 45
19 48
19 49
19 55
19 57
19 59
19 62
19 65
19 66
19 68
19 72
19 73
19 76
19 77
19 83
19 89
19 93
19 94
19 95
19 96
19 98
19 99
20 21
20 25
20 29
20 30
20 31
20 32
20 33
20 34
20 35
20 39
20 40
20 41
20 43
20 44
20 47
20 50
20 52
20 53
20 54
20 56
20 57
20 58
20 59
20 63
20 65
20 68
20 69
20 70
20 71
20 72
20 76
20 78
20 83
20 86
20 89
20 91
20 92
20 93
20 94
20 97
20 98
21 24
21 25
21 26
21 27
21 28
21 30
21 31
21 32
21 33
21 34
21 35
21 40
21 45
21 46
21 47
21 50
21 51
21 52
21 56
21 57
21 59
21 61
21 63
21 66
21 67
21 68
21 69
21 71
21 73
21 75
21 76
21 77
21 78
21 79
21 80
21 81
21 83
21 88
21 89
21 90
21 91
21 92
21 93
21 95
21 96
22 23
22 24
22 26
22 34
22 35
22 36
22 37
22 38
22 40
22 41
22 43
22 45
22 47
22 49
22 52
22 53
22 55
22 56
22 59
22 61
22 64
22 65
22 67
22 68
22 70
22 72
22 74
22 75
22 79
22 81
22 82
22 83
22 85
22 86
22 88
22 89
22 90
22 92
22 93
22 97
22 98
22 99
23 25
23 29
23 30
23 33
23 35
23 38
23 39
23 40
23 41
23 42
23 44
23 45
23 48
23 52
23 53
23 56
23 58
23 59
23 63
23 64
23 66
23 67
23 70
23 71
23 73
23 75
23 76
23 78
23 79
23 80
23 81
23 83
23 85
23 88
23 89
23 91
23 93
23 94
23 95
23 98
24 26
24 29
24 30
24 31
24 35
24 37
24 39
24 43
24 44
24 45
24 46
24 50
24 52
24 53
24 55
24 57
24 61
24 64
24 65
24 66
24 67
24 69
24 70
24 71
24 72
24 74
24 76
24 77
24 79
24 80
24 82
24 83
24 84
24 88
24 91
24 92
24 95
24 96
25 26
25 27
25 28
25 32
25 33
25 34
25 36
25 38
25 41
25 42
25 46
25 47
25 48
25 49
25 50
25 51
25 53
25 54
25 56
25 57
25 61
25 63
25 64
25 68
25 69
25 74
25 75
25 76
25 77
25 83
25 87
25 88
25 89
25 90
25 91
25 92
25 93
25 95
25 97
26 27
26 33
26 36
26 37
26 38
26 43
26 44
26 47
26 50
26 51
26 53
26 54
26 56
26 57
26 60
26 61
26 63
26 69
26 70
26 71
26 72
26 73
26 74
26 76
26 77
26 78
26 82
26 83
26 86
26 87
26 89
26 92
26 93
26 95
27 29
27 30
27 32
27 35
27 36
27 40
27 43
27 45
27 46
27 48
27 50
27 51
27 53
27 54
27 56
27 60
27 62
27 63
27 64
27 65
27 66
27 69
27 71
27 72
27 74
27 75
27 76
27 78
27 80
27 84
27 86
27 88
27 90
27 92
27 94
27 95
27 96
28 64
28 66
28 78
28 81
28 95
28 84
28 86
28 89
28 71
28 91
28 92
28 29
28 30
28 69
28 96
28 33
28 98
28 35
28 37
28 65
28 42
28 43
28 82
28 47
28 52
28 54
28 55
28 57
28 90
28 59
28 60
28 61
28 63
29 31
29 33
29 34
29 36
29 38
29 39
29 42
29 45
29 47
29 48
29 49
29 50
29 51
29 54
29 55
29 58
29 59
29 60
29 61
29 62
29 67
29 68
29 70
29 73
29 74
29 76
29 81
29 84
29 85
29 86
29 89
29 90
29 91
29 93
29 94
29 96
29 98
29 99
30 31
30 34
30 35
30 36
30 39
30 40
30 44
30 47
30 49
30 50
30 51
30 53
30 56
30 57
30 59
30 61
30 62
30 63
30 65
30 67
30 68
30 76
30 78
30 79
30 81
30 82
30 84
30 87
30 89
30 92
30 93
30 94
30 95
30 96
30 97
30 99
31 32
31 34
31 36
31 37
31 38
31 39
31 41
31 45
31 46
31 47
31 48
31 51
31 52
31 54
31 56
31 58
31 60
31 61
31 62
31 63
31 66
31 70
31 71
31 72
31 75
31 77
31 79
31 81
31 82
31 84
31 85
31 87
31 88
31 89
31 92
31 93
31 94
31 95
31 97
31 98
31 99
32 33
32 35
32 38
32 42
32 43
32 44
32 45
32 49
32 53
32 54
32 57
32 60
32 61
32 67
32 68
32 71
32 72
32 73
32 74
32 77
32 78
32 79
32 81
32 82
32 85
32 86
32 90
32 91
32 92
32 95
32 96
32 97
33 34
33 36
33 37
33 39
33 40
33 41
33 42
33 43
33 46
33 47
33 48
33 50
33 52
33 54
33 55
33 56
33 61
33 63
33 64
33 65
33 68
33 73
33 78
33 81
33 83
33 85
33 87
33 88
33 89
33 91
33 92
33 93
33 96
34 39
34 40
34 44
34 47
34 49
34 51
34 54
34 57
34 60
34 61
34 62
34 64
34 67
34 69
34 70
34 71
34 72
34 73
34 74
34 77
34 79
34 81
34 84
34 85
34 87
34 93
34 94
34 97
34 99
35 70
35 64
35 96
35 79
35 83
35 77
35 88
35 66
35 89
35 95
35 98
35 99
35 36
35 92
35 42
35 44
35 45
35 72
35 51
35 52
35 55
35 84
35 59
35 61
35 62
35 63
36 37
36 39
36 40
36 42
36 43
36 44
36 45
36 46
36 48
36 49
36 52
36 55
36 57
36 58
36 59
36 60
36 61
36 62
36 63
36 64
36 65
36 69
36 73
36 75
36 76
36 79
36 80
36 82
36 84
36 88
36 93
36 95
36 97
36 98
36 99
37 42
37 43
37 44
37 45
37 48
37 50
37 52
37 56
37 57
37 58
37 59
37 60
37 61
37 62
37 63
37 66
37 71
37 72
37 73
37 74
37 78
37 82
37 83
37 85
37 87
37 88
37 90
37 91
37 95
37 97
37 98
37 99
38 39
38 43
38 44
38 45
38 46
38 52
38 54
38 56
38 57
38 63
38 65
38 66
38 68
38 70
38 71
38 75
38 76
38 78
38 80
38 84
38 86
38 89
38 91
38 93
38 94
38 95
38 96
38 98
39 43
39 44
39 49
39 51
39 54
39 57
39 58
39 62
39 63
39 64
39 65
39 67
39 71
39 73
39 74
39 75
39 76
39 77
39 78
39 79
39 82
39 83
39 84
39 85
39 88
39 90
39 93
39 96
39 97
39 98
39 99
40 41
40 42
40 46
40 49
40 52
40 54
40 55
40 56
40 58
40 59
40 61
40 64
40 68
40 70
40 71
40 73
40 74
40 77
40 78
40 79
40 80
40 81
40 83
40 85
40 86
40 87
40 88
40 89
40 90
40 91
40 94
40 97
41 42
41 43
41 46
41 47
41 48
41 49
41 50
41 51
41 53
41 54
41 55
41 56
41 59
41 60
41 62
41 65
41 66
41 67
41 69
41 70
41 71
41 73
41 75
41 77
41 78
41 79
41 83
41 85
41 87
41 91
41 92
41 94
41 95
41 96
41 97
41 98
41 99
42 66
42 68
42 76
42 75
42 78
42 99
42 84
42 88
42 71
42 95
42 98
42 65
42 43
42 44
42 47
42 90
42 72
42 51
42 53
42 56
42 57
42 87
42 61
43 44
43 45
43 46
43 47
43 49
43 50
43 51
43 52
43 55
43 56
43 58
43 62
43 64
43 65
43 67
43 68
43 70
43 71
43 76
43 78
43 79
43 84
43 85
43 86
43 88
43 89
43 91
43 96
43 97
44 46
44 47
44 48
44 49
44 50
44 51
44 52
44 54
44 55
44 58
44 61
44 64
44 66
44 68
44 69
44 71
44 72
44 75
44 76
44 80
44 84
44 86
44 87
44 89
44 90
44 93
44 95
44 97
44 99
45 47
45 48
45 49
45 50
45 51
45 53
45 56
45 60
45 64
45 67
45 70
45 71
45 72
45 73
45 74
45 76
45 78
45 79
45 82
45 83
45 84
45 85
45 87
45 88
45 91
45 92
45 94
45 95
45 98
46 48
46 49
46 50
46 51
46 53
46 56
46 57
46 58
46 61
46 62
46 63
46 64
46 65
46 66
46 68
46 69
46 72
46 74
46 76
46 77
46 78
46 79
46 85
46 86
46 87
46 88
46 89
46 90
46 91
46 92
46 94
46 96
46 97
47 48
47 49
47 50
47 51
47 54
47 56
47 58
47 59
47 63
47 64
47 65
47 66
47 67
47 68
47 70
47 71
47 77
47 79
47 80
47 81
47 83
47 84
47 86
47 87
47 88
47 93
47 94
47 95
47 96
47 98
47 99
48 51
48 52
48 53
48 54
48 56
48 57
48 58
48 59
48 65
48 66
48 69
48 72
48 75
48 76
48 81
48 82
48 83
48 87
48 90
48 92
48 94
48 98
48 99
49 51
49 52
49 57
49 58
49 61
49 62
49 65
49 66
49 67
49 69
49 70
49 71
49 73
49 74
49 77
49 78
49 79
49 82
49 85
49 86
49 87
49 89
49 96
49 97
49 98
50 53
50 54
50 55
50 56
50 59
50 61
50 68
50 70
50 72
50 73
50 74
50 75
50 80
50 83
50 84
50 86
50 87
50 88
50 92
50 93
50 94
50 95
50 96
51 56
51 58
51 61
51 62
51 63
51 67
51 69
51 70
51 72
51 73
51 75
51 82
51 83
51 84
51 85
51 87
51 89
51 92
51 93
51 95
51 96
51 98
51 99
52 56
52 57
52 58
52 59
52 61
52 65
52 66
52 71
52 72
52 73
52 74
52 77
52 80
52 81
52 83
52 85
52 86
52 88
52 89
52 92
52 94
52 97
53 54
53 55
53 56
53 60
53 65
53 68
53 69
53 70
53 72
53 73
53 74
53 78
53 81
53 83
53 84
53 86
53 88
53 91
53 93
53 94
53 96
53 97
53 99
54 57
54 58
54 62
54 65
54 66
54 71
54 72
54 74
54 75
54 76
54 77
54 78
54 83
54 84
54 88
54 89
54 96
54 98
55 57
55 58
55 63
55 67
55 70
55 71
55 73
55 74
55 75
55 76
55 77
55 79
55 80
55 81
55 83
55 85
55 88
55 89
55 91
55 92
55 93
55 95
55 98
55 99
56 60
56 61
56 65
56 66
56 67
56 69
56 70
56 72
56 75
56 78
56 79
56 85
56 86
56 87
56 89
56 94
57 60
57 64
57 68
57 69
57 72
57 73
57 74
57 75
57 76
57 78
57 83
57 84
57 88
57 89
57 90
57 92
57 95
57 97
57 99
58 59
58 63
58 65
58 67
58 70
58 72
58 73
58 74
58 76
58 77
58 78
58 79
58 81
58 82
58 84
58 87
58 90
58 91
58 94
58 95
59 64
59 65
59 66
59 67
59 71
59 73
59 75
59 76
59 79
59 82
59 84
59 85
59 87
59 88
59 90
59 91
59 94
59 97
59 98
60 82
60 68
60 98
60 74
60 78
60 75
60 67
60 84
60 87
60 88
60 89
60 99
60 93
60 79
60 90
60 95
60 70
60 61
60 63
61 62
61 63
61 66
61 69
61 71
61 73
61 74
61 75
61 76
61 80
61 81
61 82
61 84
61 87
61 88
61 89
61 91
61 92
61 94
61 97
62 64
62 75
62 77
62 80
62 84
62 85
62 86
62 83
62 97
62 82
62 93
62 99
62 72
62 70
63 64
63 65
63 66
63 67
63 68
63 70
63 71
63 73
63 76
63 80
63 82
63 84
63 91
63 92
63 94
63 97
64 65
64 68
64 70
64 76
64 80
64 85
64 86
64 87
64 88
64 89
64 90
64 91
64 93
64 94
64 95
64 96
64 97
64 98
65 68
65 69
65 70
65 71
65 74
65 82
65 83
65 87
65 88
65 89
65 94
65 95
65 98
66 68
66 74
66 75
66 99
66 77
66 78
66 79
66 81
66 82
66 92
66 93
66 71
66 87
66 85
67 69
67 72
67 76
67 79
67 80
67 83
67 84
67 88
67 89
67 90
67 91
67 93
67 95
67 97
67 98
67 99
68 69
68 70
68 75
68 79
68 81
68 89
68 92
68 93
68 84
68 76
68 83
69 70
69 72
69 73
69 76
69 77
69 78
69 79
69 82
69 84
69 85
69 86
69 89
69 90
69 93
69 94
69 95
69 96
69 97
70 71
70 74
70 75
70 76
70 80
70 81
70 82
70 83
70 84
70 85
70 86
70 87
70 90
70 91
70 93
70 97
70 98
70 99
71 72
71 73
71 85
71 87
71 88
71 89
71 90
71 92
71 95
71 97
71 98
72 74
72 76
72 77
72 79
72 93
72 94
72 95
72 96
72 97
72 99
73 74
73 75
73 82
73 83
73 84
73 92
73 95
73 97
73 98
74 75
74 76
74 80
74 81
74 86
74 88
74 89
74 91
74 93
74 94
74 99
75 79
75 80
75 81
75 82
75 83
75 86
75 91
75 94
75 98
76 77
76 82
76 83
76 85
76 87
76 88
76 90
76 92
76 95
76 97
76 99
77 96
77 86
77 87
77 79
77 90
77 94
77 82
77 88
77 85
78 80
78 81
78 83
78 89
78 90
78 91
78 92
78 93
78 95
78 97
78 99
79 80
79 82
79 83
79 87
79 91
79 92
79 93
79 94
79 95
79 96
79 97
79 98
80 83
80 86
80 89
80 90
80 95
80 97
80 98
80 81
80 82
80 88
81 82
81 84
81 85
81 87
81 88
81 90
81 91
81 93
81 94
81 95
81 96
81 97
82 83
82 86
82 89
82 93
82 99
83 85
83 89
83 90
83 96
83 98
84 85
84 87
84 88
84 89
84 90
84 92
84 93
84 94
84 95
84 97
84 98
85 86
85 87
85 89
85 92
85 94
85 96
85 99
86 87
86 98
86 99
86 97
86 92
87 88
87 90
87 91
87 93
87 96
87 97
87 99
88 89
88 94
88 96
88 97
88 98
89 90
89 92
89 94
89 97
90 91
90 92
90 98
91 93
91 94
91 95
91 96
91 97
91 98
92 96
92 97
92 98
93 96
94 95
94 96
94 99
96 97
96 98
97 98
97 99
98 99
