graph {
		0 -- 1
		0 -- 2
		0 -- 3
		0 -- 5
		0 -- 7
		0 -- 8
		0 -- 9
		0 -- 11
		0 -- 12
		0 -- 14
		0 -- 16
		0 -- 19
		0 -- 20
		0 -- 21
		0 -- 26
		0 -- 29
		0 -- 31
		0 -- 34
		0 -- 35
		0 -- 37
		0 -- 38
		0 -- 39
		0 -- 41
		0 -- 44
		0 -- 47
		0 -- 49
		0 -- 50
		0 -- 52
		0 -- 55
		0 -- 56
		0 -- 59
		0 -- 60
		0 -- 62
		0 -- 63
		0 -- 65
		0 -- 67
		0 -- 73
		0 -- 74
		0 -- 76
		0 -- 77
		0 -- 78
		0 -- 82
		0 -- 83
		0 -- 84
		0 -- 87
		0 -- 88
		0 -- 93
		0 -- 94
		0 -- 97
		0 -- 99
		1 -- 2
		1 -- 4
		1 -- 5
		1 -- 6
		1 -- 14
		1 -- 17
		1 -- 19
		1 -- 20
		1 -- 22
		1 -- 24
		1 -- 29
		1 -- 34
		1 -- 36
		1 -- 37
		1 -- 39
		1 -- 40
		1 -- 43
		1 -- 45
		1 -- 46
		1 -- 47
		1 -- 49
		1 -- 50
		1 -- 55
		1 -- 57
		1 -- 58
		1 -- 59
		1 -- 63
		1 -- 64
		1 -- 66
		1 -- 67
		1 -- 69
		1 -- 76
		1 -- 77
		1 -- 78
		1 -- 79
		1 -- 81
		1 -- 82
		1 -- 83
		1 -- 84
		1 -- 85
		1 -- 86
		1 -- 87
		1 -- 88
		1 -- 92
		1 -- 93
		1 -- 94
		1 -- 97
		1 -- 98
		2 -- 3
		2 -- 5
		2 -- 7
		2 -- 12
		2 -- 18
		2 -- 20
		2 -- 23
		2 -- 24
		2 -- 25
		2 -- 26
		2 -- 27
		2 -- 28
		2 -- 29
		2 -- 31
		2 -- 32
		2 -- 34
		2 -- 35
		2 -- 36
		2 -- 37
		2 -- 39
		2 -- 40
		2 -- 43
		2 -- 44
		2 -- 46
		2 -- 48
		2 -- 49
		2 -- 50
		2 -- 53
		2 -- 55
		2 -- 58
		2 -- 59
		2 -- 60
		2 -- 61
		2 -- 63
		2 -- 64
		2 -- 65
		2 -- 72
		2 -- 74
		2 -- 75
		2 -- 79
		2 -- 80
		2 -- 84
		2 -- 89
		2 -- 90
		2 -- 91
		2 -- 92
		2 -- 93
		2 -- 95
		2 -- 96
		3 -- 5
		3 -- 6
		3 -- 9
		3 -- 10
		3 -- 12
		3 -- 14
		3 -- 17
		3 -- 19
		3 -- 23
		3 -- 27
		3 -- 29
		3 -- 30
		3 -- 33
		3 -- 34
		3 -- 35
		3 -- 36
		3 -- 37
		3 -- 39
		3 -- 41
		3 -- 42
		3 -- 44
		3 -- 45
		3 -- 49
		3 -- 50
		3 -- 51
		3 -- 52
		3 -- 55
		3 -- 56
		3 -- 57
		3 -- 58
		3 -- 59
		3 -- 60
		3 -- 61
		3 -- 62
		3 -- 64
		3 -- 65
		3 -- 66
		3 -- 67
		3 -- 70
		3 -- 72
		3 -- 73
		3 -- 74
		3 -- 78
		3 -- 79
		3 -- 82
		3 -- 83
		3 -- 85
		3 -- 86
		3 -- 87
		3 -- 88
		3 -- 89
		3 -- 90
		3 -- 91
		3 -- 93
		3 -- 96
		3 -- 97
		4 -- 6
		4 -- 7
		4 -- 13
		4 -- 14
		4 -- 15
		4 -- 16
		4 -- 20
		4 -- 21
		4 -- 22
		4 -- 24
		4 -- 26
		4 -- 27
		4 -- 31
		4 -- 35
		4 -- 36
		4 -- 37
		4 -- 38
		4 -- 39
		4 -- 41
		4 -- 42
		4 -- 44
		4 -- 45
		4 -- 51
		4 -- 52
		4 -- 53
		4 -- 54
		4 -- 58
		4 -- 64
		4 -- 65
		4 -- 67
		4 -- 69
		4 -- 77
		4 -- 78
		4 -- 79
		4 -- 83
		4 -- 84
		4 -- 85
		4 -- 86
		4 -- 90
		4 -- 92
		4 -- 94
		4 -- 95
		4 -- 97
		4 -- 99
		5 -- 6
		5 -- 9
		5 -- 14
		5 -- 16
		5 -- 17
		5 -- 19
		5 -- 20
		5 -- 21
		5 -- 23
		5 -- 24
		5 -- 26
		5 -- 27
		5 -- 31
		5 -- 32
		5 -- 34
		5 -- 36
		5 -- 38
		5 -- 40
		5 -- 41
		5 -- 42
		5 -- 44
		5 -- 46
		5 -- 47
		5 -- 49
		5 -- 50
		5 -- 52
		5 -- 54
		5 -- 55
		5 -- 56
		5 -- 64
		5 -- 65
		5 -- 66
		5 -- 67
		5 -- 72
		5 -- 73
		5 -- 74
		5 -- 79
		5 -- 80
		5 -- 83
		5 -- 87
		5 -- 88
		5 -- 89
		5 -- 90
		5 -- 91
		5 -- 92
		5 -- 94
		5 -- 99
		6 -- 7
		6 -- 8
		6 -- 9
		6 -- 10
		6 -- 11
		6 -- 12
		6 -- 17
		6 -- 19
		6 -- 20
		6 -- 23
		6 -- 24
		6 -- 25
		6 -- 27
		6 -- 29
		6 -- 31
		6 -- 32
		6 -- 35
		6 -- 36
		6 -- 37
		6 -- 41
		6 -- 42
		6 -- 43
		6 -- 45
		6 -- 46
		6 -- 48
		6 -- 51
		6 -- 52
		6 -- 55
		6 -- 56
		6 -- 58
		6 -- 60
		6 -- 61
		6 -- 62
		6 -- 65
		6 -- 66
		6 -- 70
		6 -- 71
		6 -- 73
		6 -- 74
		6 -- 76
		6 -- 78
		6 -- 79
		6 -- 80
		6 -- 83
		6 -- 84
		6 -- 85
		6 -- 86
		6 -- 87
		6 -- 88
		6 -- 90
		6 -- 91
		6 -- 95
		6 -- 98
		6 -- 99
		7 -- 10
		7 -- 12
		7 -- 13
		7 -- 15
		7 -- 16
		7 -- 18
		7 -- 21
		7 -- 23
		7 -- 25
		7 -- 28
		7 -- 29
		7 -- 30
		7 -- 31
		7 -- 32
		7 -- 37
		7 -- 38
		7 -- 41
		7 -- 42
		7 -- 44
		7 -- 45
		7 -- 46
		7 -- 47
		7 -- 49
		7 -- 52
		7 -- 54
		7 -- 56
		7 -- 57
		7 -- 58
		7 -- 59
		7 -- 62
		7 -- 64
		7 -- 66
		7 -- 68
		7 -- 69
		7 -- 74
		7 -- 75
		7 -- 78
		7 -- 79
		7 -- 81
		7 -- 82
		7 -- 83
		7 -- 86
		7 -- 87
		7 -- 88
		7 -- 89
		7 -- 94
		7 -- 95
		7 -- 99
		8 -- 11
		8 -- 17
		8 -- 18
		8 -- 20
		8 -- 21
		8 -- 22
		8 -- 27
		8 -- 28
		8 -- 32
		8 -- 34
		8 -- 36
		8 -- 37
		8 -- 39
		8 -- 43
		8 -- 45
		8 -- 48
		8 -- 49
		8 -- 50
		8 -- 53
		8 -- 54
		8 -- 55
		8 -- 56
		8 -- 57
		8 -- 59
		8 -- 60
		8 -- 61
		8 -- 63
		8 -- 64
		8 -- 65
		8 -- 66
		8 -- 67
		8 -- 69
		8 -- 70
		8 -- 71
		8 -- 72
		8 -- 73
		8 -- 78
		8 -- 79
		8 -- 82
		8 -- 84
		8 -- 85
		8 -- 88
		8 -- 89
		8 -- 91
		8 -- 92
		8 -- 93
		8 -- 94
		8 -- 96
		8 -- 97
		8 -- 98
		9 -- 10
		9 -- 15
		9 -- 16
		9 -- 17
		9 -- 21
		9 -- 22
		9 -- 24
		9 -- 25
		9 -- 27
		9 -- 30
		9 -- 34
		9 -- 36
		9 -- 38
		9 -- 44
		9 -- 45
		9 -- 48
		9 -- 50
		9 -- 56
		9 -- 57
		9 -- 58
		9 -- 60
		9 -- 62
		9 -- 66
		9 -- 67
		9 -- 68
		9 -- 72
		9 -- 74
		9 -- 75
		9 -- 76
		9 -- 78
		9 -- 80
		9 -- 81
		9 -- 82
		9 -- 83
		9 -- 86
		9 -- 88
		9 -- 90
		9 -- 91
		9 -- 93
		9 -- 98
		10 -- 15
		10 -- 18
		10 -- 19
		10 -- 20
		10 -- 21
		10 -- 24
		10 -- 25
		10 -- 27
		10 -- 28
		10 -- 30
		10 -- 33
		10 -- 36
		10 -- 37
		10 -- 40
		10 -- 41
		10 -- 42
		10 -- 43
		10 -- 44
		10 -- 45
		10 -- 50
		10 -- 51
		10 -- 52
		10 -- 57
		10 -- 58
		10 -- 61
		10 -- 62
		10 -- 63
		10 -- 66
		10 -- 67
		10 -- 68
		10 -- 69
		10 -- 71
		10 -- 74
		10 -- 78
		10 -- 79
		10 -- 81
		10 -- 85
		10 -- 88
		10 -- 89
		10 -- 90
		10 -- 91
		10 -- 92
		10 -- 94
		10 -- 99
		11 -- 12
		11 -- 15
		11 -- 21
		11 -- 22
		11 -- 24
		11 -- 25
		11 -- 27
		11 -- 28
		11 -- 39
		11 -- 40
		11 -- 42
		11 -- 44
		11 -- 45
		11 -- 47
		11 -- 50
		11 -- 51
		11 -- 53
		11 -- 54
		11 -- 55
		11 -- 58
		11 -- 60
		11 -- 62
		11 -- 64
		11 -- 65
		11 -- 66
		11 -- 67
		11 -- 71
		11 -- 72
		11 -- 73
		11 -- 74
		11 -- 75
		11 -- 76
		11 -- 78
		11 -- 79
		11 -- 80
		11 -- 83
		11 -- 87
		11 -- 88
		11 -- 89
		11 -- 90
		11 -- 91
		11 -- 93
		11 -- 95
		11 -- 96
		11 -- 97
		12 -- 14
		12 -- 15
		12 -- 17
		12 -- 19
		12 -- 20
		12 -- 24
		12 -- 26
		12 -- 27
		12 -- 28
		12 -- 29
		12 -- 30
		12 -- 33
		12 -- 35
		12 -- 36
		12 -- 37
		12 -- 39
		12 -- 43
		12 -- 44
		12 -- 48
		12 -- 51
		12 -- 52
		12 -- 54
		12 -- 57
		12 -- 59
		12 -- 62
		12 -- 64
		12 -- 67
		12 -- 71
		12 -- 75
		12 -- 77
		12 -- 80
		12 -- 83
		12 -- 84
		12 -- 85
		12 -- 86
		12 -- 87
		12 -- 92
		12 -- 94
		12 -- 95
		12 -- 96
		12 -- 97
		12 -- 98
		13 -- 64
		13 -- 96
		13 -- 66
		13 -- 69
		13 -- 75
		13 -- 15
		13 -- 81
		13 -- 18
		13 -- 83
		13 -- 20
		13 -- 97
		13 -- 23
		13 -- 25
		13 -- 26
		13 -- 27
		13 -- 28
		13 -- 30
		13 -- 84
		13 -- 33
		13 -- 99
		13 -- 37
		13 -- 38
		13 -- 39
		13 -- 40
		13 -- 92
		13 -- 42
		13 -- 43
		13 -- 46
		13 -- 49
		13 -- 51
		13 -- 52
		13 -- 94
		13 -- 89
		13 -- 57
		13 -- 58
		13 -- 59
		13 -- 60
		13 -- 62
		13 -- 63
		14 -- 15
		14 -- 18
		14 -- 20
		14 -- 21
		14 -- 22
		14 -- 23
		14 -- 24
		14 -- 27
		14 -- 28
		14 -- 30
		14 -- 31
		14 -- 32
		14 -- 33
		14 -- 35
		14 -- 37
		14 -- 39
		14 -- 43
		14 -- 45
		14 -- 46
		14 -- 49
		14 -- 51
		14 -- 52
		14 -- 53
		14 -- 54
		14 -- 55
		14 -- 57
		14 -- 62
		14 -- 64
		14 -- 69
		14 -- 73
		14 -- 75
		14 -- 76
		14 -- 78
		14 -- 79
		14 -- 80
		14 -- 81
		14 -- 84
		14 -- 87
		14 -- 88
		14 -- 89
		14 -- 91
		14 -- 92
		14 -- 93
		14 -- 94
		14 -- 97
		14 -- 98
		15 -- 16
		15 -- 17
		15 -- 22
		15 -- 23
		15 -- 24
		15 -- 25
		15 -- 28
		15 -- 30
		15 -- 31
		15 -- 33
		15 -- 34
		15 -- 38
		15 -- 39
		15 -- 43
		15 -- 44
		15 -- 45
		15 -- 46
		15 -- 47
		15 -- 48
		15 -- 49
		15 -- 52
		15 -- 55
		15 -- 57
		15 -- 60
		15 -- 62
		15 -- 65
		15 -- 66
		15 -- 68
		15 -- 69
		15 -- 70
		15 -- 72
		15 -- 74
		15 -- 76
		15 -- 81
		15 -- 82
		15 -- 84
		15 -- 87
		15 -- 91
		15 -- 97
		16 -- 66
		16 -- 75
		16 -- 76
		16 -- 17
		16 -- 18
		16 -- 19
		16 -- 20
		16 -- 85
		16 -- 22
		16 -- 23
		16 -- 88
		16 -- 25
		16 -- 26
		16 -- 93
		16 -- 31
		16 -- 32
		16 -- 97
		16 -- 98
		16 -- 99
		16 -- 42
		16 -- 43
		16 -- 50
		16 -- 83
		16 -- 53
		16 -- 89
		16 -- 56
		16 -- 57
		16 -- 87
		16 -- 60
		16 -- 62
		16 -- 63
		17 -- 18
		17 -- 19
		17 -- 20
		17 -- 21
		17 -- 22
		17 -- 26
		17 -- 30
		17 -- 34
		17 -- 38
		17 -- 39
		17 -- 40
		17 -- 41
		17 -- 42
		17 -- 43
		17 -- 44
		17 -- 49
		17 -- 54
		17 -- 55
		17 -- 56
		17 -- 57
		17 -- 58
		17 -- 62
		17 -- 63
		17 -- 65
		17 -- 66
		17 -- 67
		17 -- 71
		17 -- 73
		17 -- 74
		17 -- 76
		17 -- 78
		17 -- 84
		17 -- 89
		17 -- 91
		17 -- 92
		17 -- 94
		17 -- 95
		17 -- 99
		18 -- 21
		18 -- 23
		18 -- 24
		18 -- 25
		18 -- 26
		18 -- 27
		18 -- 28
		18 -- 29
		18 -- 31
		18 -- 33
		18 -- 36
		18 -- 44
		18 -- 45
		18 -- 46
		18 -- 47
		18 -- 48
		18 -- 49
		18 -- 57
		18 -- 58
		18 -- 62
		18 -- 63
		18 -- 65
		18 -- 68
		18 -- 69
		18 -- 70
		18 -- 71
		18 -- 72
		18 -- 75
		18 -- 77
		18 -- 78
		18 -- 80
		18 -- 81
		18 -- 82
		18 -- 83
		18 -- 84
		18 -- 85
		18 -- 86
		18 -- 87
		18 -- 88
		18 -- 89
		18 -- 92
		18 -- 93
		18 -- 96
		18 -- 97
		18 -- 99
		19 -- 20
		19 -- 21
		19 -- 22
		19 -- 26
		19 -- 31
		19 -- 32
		19 -- 33
		19 -- 34
		19 -- 40
		19 -- 41
		19 -- 42
		19 -- 43
		19 -- 45
		19 -- 46
		19 -- 47
		19 -- 48
		19 -- 49
		19 -- 50
		19 -- 52
		19 -- 54
		19 -- 56
		19 -- 57
		19 -- 58
		19 -- 60
		19 -- 61
		19 -- 65
		19 -- 66
		19 -- 67
		19 -- 68
		19 -- 70
		19 -- 72
		19 -- 73
		19 -- 76
		19 -- 79
		19 -- 81
		19 -- 83
		19 -- 84
		19 -- 87
		19 -- 88
		19 -- 89
		19 -- 90
		19 -- 91
		19 -- 93
		19 -- 94
		19 -- 99
		20 -- 22
		20 -- 24
		20 -- 25
		20 -- 26
		20 -- 29
		20 -- 30
		20 -- 31
		20 -- 32
		20 -- 33
		20 -- 34
		20 -- 35
		20 -- 38
		20 -- 39
		20 -- 43
		20 -- 44
		20 -- 45
		20 -- 46
		20 -- 52
		20 -- 54
		20 -- 56
		20 -- 57
		20 -- 64
		20 -- 65
		20 -- 67
		20 -- 68
		20 -- 76
		20 -- 77
		20 -- 79
		20 -- 80
		20 -- 81
		20 -- 84
		20 -- 85
		20 -- 86
		20 -- 92
		20 -- 93
		20 -- 94
		20 -- 98
		20 -- 99
		21 -- 22
		21 -- 23
		21 -- 24
		21 -- 25
		21 -- 26
		21 -- 28
		21 -- 30
		21 -- 32
		21 -- 34
		21 -- 35
		21 -- 38
		21 -- 40
		21 -- 43
		21 -- 45
		21 -- 46
		21 -- 48
		21 -- 50
		21 -- 51
		21 -- 58
		21 -- 59
		21 -- 60
		21 -- 61
		21 -- 62
		21 -- 63
		21 -- 65
		21 -- 67
		21 -- 68
		21 -- 70
		21 -- 71
		21 -- 77
		21 -- 78
		21 -- 81
		21 -- 82
		21 -- 84
		21 -- 88
		21 -- 90
		21 -- 91
		21 -- 93
		21 -- 96
		21 -- 99
		22 -- 23
		22 -- 24
		22 -- 25
		22 -- 28
		22 -- 29
		22 -- 30
		22 -- 31
		22 -- 33
		22 -- 36
		22 -- 38
		22 -- 41
		22 -- 42
		22 -- 45
		22 -- 52
		22 -- 53
		22 -- 55
		22 -- 56
		22 -- 57
		22 -- 63
		22 -- 64
		22 -- 67
		22 -- 68
		22 -- 69
		22 -- 70
		22 -- 71
		22 -- 72
		22 -- 73
		22 -- 74
		22 -- 79
		22 -- 81
		22 -- 83
		22 -- 84
		22 -- 88
		22 -- 89
		22 -- 91
		22 -- 92
		22 -- 94
		22 -- 96
		22 -- 97
		23 -- 24
		23 -- 26
		23 -- 27
		23 -- 29
		23 -- 31
		23 -- 34
		23 -- 35
		23 -- 37
		23 -- 43
		23 -- 46
		23 -- 47
		23 -- 52
		23 -- 54
		23 -- 55
		23 -- 56
		23 -- 64
		23 -- 66
		23 -- 68
		23 -- 71
		23 -- 73
		23 -- 74
		23 -- 75
		23 -- 76
		23 -- 77
		23 -- 79
		23 -- 82
		23 -- 85
		23 -- 89
		23 -- 90
		23 -- 91
		23 -- 93
		23 -- 94
		23 -- 96
		23 -- 97
		23 -- 98
		24 -- 25
		24 -- 26
		24 -- 29
		24 -- 31
		24 -- 34
		24 -- 35
		24 -- 37
		24 -- 39
		24 -- 40
		24 -- 41
		24 -- 42
		24 -- 43
		24 -- 44
		24 -- 46
		24 -- 48
		24 -- 51
		24 -- 52
		24 -- 53
		24 -- 54
		24 -- 56
		24 -- 57
		24 -- 61
		24 -- 62
		24 -- 67
		24 -- 70
		24 -- 71
		24 -- 72
		24 -- 73
		24 -- 74
		24 -- 76
		24 -- 77
		24 -- 79
		24 -- 82
		24 -- 85
		24 -- 86
		24 -- 91
		24 -- 92
		24 -- 95
		24 -- 96
		24 -- 97
		24 -- 98
		24 -- 99
		25 -- 27
		25 -- 29
		25 -- 31
		25 -- 37
		25 -- 40
		25 -- 42
		25 -- 43
		25 -- 45
		25 -- 46
		25 -- 48
		25 -- 51
		25 -- 53
		25 -- 54
		25 -- 55
		25 -- 56
		25 -- 57
		25 -- 59
		25 -- 63
		25 -- 65
		25 -- 66
		25 -- 68
		25 -- 70
		25 -- 74
		25 -- 76
		25 -- 79
		25 -- 80
		25 -- 82
		25 -- 84
		25 -- 86
		25 -- 87
		25 -- 90
		25 -- 93
		25 -- 96
		25 -- 97
		26 -- 27
		26 -- 30
		26 -- 31
		26 -- 36
		26 -- 40
		26 -- 42
		26 -- 44
		26 -- 46
		26 -- 47
		26 -- 48
		26 -- 51
		26 -- 52
		26 -- 55
		26 -- 57
		26 -- 58
		26 -- 59
		26 -- 60
		26 -- 61
		26 -- 62
		26 -- 65
		26 -- 66
		26 -- 68
		26 -- 71
		26 -- 73
		26 -- 74
		26 -- 76
		26 -- 77
		26 -- 80
		26 -- 81
		26 -- 83
		26 -- 84
		26 -- 88
		26 -- 89
		26 -- 90
		26 -- 91
		26 -- 97
		26 -- 99
		27 -- 28
		27 -- 30
		27 -- 32
		27 -- 35
		27 -- 37
		27 -- 38
		27 -- 41
		27 -- 44
		27 -- 46
		27 -- 48
		27 -- 50
		27 -- 51
		27 -- 53
		27 -- 55
		27 -- 56
		27 -- 58
		27 -- 59
		27 -- 61
		27 -- 63
		27 -- 65
		27 -- 68
		27 -- 69
		27 -- 70
		27 -- 71
		27 -- 73
		27 -- 75
		27 -- 76
		27 -- 77
		27 -- 79
		27 -- 82
		27 -- 86
		27 -- 88
		27 -- 89
		27 -- 90
		27 -- 93
		27 -- 94
		27 -- 95
		27 -- 97
		28 -- 64
		28 -- 75
		28 -- 68
		28 -- 74
		28 -- 76
		28 -- 83
		28 -- 84
		28 -- 87
		28 -- 89
		28 -- 90
		28 -- 29
		28 -- 30
		28 -- 32
		28 -- 33
		28 -- 36
		28 -- 97
		28 -- 41
		28 -- 42
		28 -- 44
		28 -- 82
		28 -- 93
		28 -- 49
		28 -- 79
		28 -- 52
		28 -- 78
		28 -- 57
		28 -- 58
		28 -- 61
		29 -- 31
		29 -- 32
		29 -- 34
		29 -- 35
		29 -- 36
		29 -- 37
		29 -- 38
		29 -- 40
		29 -- 43
		29 -- 44
		29 -- 45
		29 -- 48
		29 -- 49
		29 -- 51
		29 -- 53
		29 -- 56
		29 -- 62
		29 -- 63
		29 -- 66
		29 -- 69
		29 -- 70
		29 -- 71
		29 -- 73
		29 -- 75
		29 -- 77
		29 -- 79
		29 -- 81
		29 -- 83
		29 -- 85
		29 -- 86
		29 -- 93
		29 -- 95
		29 -- 97
		29 -- 98
		30 -- 36
		30 -- 38
		30 -- 39
		30 -- 40
		30 -- 41
		30 -- 46
		30 -- 48
		30 -- 49
		30 -- 50
		30 -- 52
		30 -- 54
		30 -- 59
		30 -- 60
		30 -- 61
		30 -- 62
		30 -- 63
		30 -- 64
		30 -- 66
		30 -- 67
		30 -- 68
		30 -- 69
		30 -- 70
		30 -- 71
		30 -- 74
		30 -- 75
		30 -- 76
		30 -- 82
		30 -- 83
		30 -- 84
		30 -- 89
		30 -- 92
		30 -- 95
		30 -- 96
		31 -- 32
		31 -- 33
		31 -- 37
		31 -- 40
		31 -- 41
		31 -- 42
		31 -- 44
		31 -- 47
		31 -- 53
		31 -- 55
		31 -- 57
		31 -- 59
		31 -- 61
		31 -- 64
		31 -- 66
		31 -- 67
		31 -- 68
		31 -- 75
		31 -- 76
		31 -- 77
		31 -- 79
		31 -- 80
		31 -- 83
		31 -- 84
		31 -- 87
		31 -- 94
		31 -- 95
		31 -- 99
		32 -- 34
		32 -- 37
		32 -- 39
		32 -- 41
		32 -- 43
		32 -- 44
		32 -- 45
		32 -- 47
		32 -- 48
		32 -- 50
		32 -- 51
		32 -- 52
		32 -- 53
		32 -- 54
		32 -- 55
		32 -- 56
		32 -- 58
		32 -- 60
		32 -- 63
		32 -- 64
		32 -- 65
		32 -- 69
		32 -- 70
		32 -- 71
		32 -- 74
		32 -- 79
		32 -- 81
		32 -- 82
		32 -- 83
		32 -- 85
		32 -- 86
		32 -- 87
		32 -- 88
		32 -- 89
		32 -- 91
		32 -- 93
		33 -- 35
		33 -- 37
		33 -- 38
		33 -- 39
		33 -- 40
		33 -- 41
		33 -- 44
		33 -- 46
		33 -- 49
		33 -- 50
		33 -- 52
		33 -- 53
		33 -- 54
		33 -- 55
		33 -- 57
		33 -- 63
		33 -- 66
		33 -- 68
		33 -- 69
		33 -- 73
		33 -- 77
		33 -- 80
		33 -- 81
		33 -- 82
		33 -- 83
		33 -- 84
		33 -- 85
		33 -- 86
		33 -- 89
		33 -- 90
		33 -- 91
		33 -- 93
		33 -- 97
		33 -- 98
		33 -- 99
		34 -- 35
		34 -- 39
		34 -- 44
		34 -- 45
		34 -- 48
		34 -- 49
		34 -- 51
		34 -- 52
		34 -- 54
		34 -- 56
		34 -- 57
		34 -- 60
		34 -- 62
		34 -- 64
		34 -- 65
		34 -- 67
		34 -- 68
		34 -- 70
		34 -- 71
		34 -- 72
		34 -- 74
		34 -- 78
		34 -- 79
		34 -- 80
		34 -- 83
		34 -- 84
		34 -- 85
		34 -- 87
		34 -- 88
		34 -- 96
		34 -- 97
		34 -- 98
		35 -- 36
		35 -- 38
		35 -- 39
		35 -- 41
		35 -- 44
		35 -- 45
		35 -- 49
		35 -- 50
		35 -- 51
		35 -- 53
		35 -- 54
		35 -- 55
		35 -- 62
		35 -- 63
		35 -- 64
		35 -- 65
		35 -- 66
		35 -- 67
		35 -- 69
		35 -- 70
		35 -- 74
		35 -- 75
		35 -- 77
		35 -- 78
		35 -- 79
		35 -- 80
		35 -- 81
		35 -- 83
		35 -- 86
		35 -- 87
		35 -- 88
		35 -- 89
		35 -- 92
		35 -- 93
		35 -- 97
		36 -- 37
		36 -- 38
		36 -- 39
		36 -- 47
		36 -- 48
		36 -- 49
		36 -- 51
		36 -- 52
		36 -- 55
		36 -- 57
		36 -- 59
		36 -- 60
		36 -- 62
		36 -- 63
		36 -- 70
		36 -- 76
		36 -- 78
		36 -- 79
		36 -- 81
		36 -- 82
		36 -- 84
		36 -- 86
		36 -- 87
		36 -- 91
		36 -- 93
		36 -- 94
		36 -- 96
		37 -- 42
		37 -- 43
		37 -- 44
		37 -- 45
		37 -- 46
		37 -- 47
		37 -- 48
		37 -- 50
		37 -- 51
		37 -- 53
		37 -- 55
		37 -- 61
		37 -- 62
		37 -- 65
		37 -- 66
		37 -- 67
		37 -- 68
		37 -- 70
		37 -- 71
		37 -- 74
		37 -- 75
		37 -- 78
		37 -- 79
		37 -- 80
		37 -- 82
		37 -- 84
		37 -- 85
		37 -- 86
		37 -- 90
		37 -- 91
		37 -- 92
		37 -- 94
		37 -- 97
		37 -- 98
		37 -- 99
		38 -- 45
		38 -- 46
		38 -- 52
		38 -- 54
		38 -- 56
		38 -- 60
		38 -- 62
		38 -- 63
		38 -- 65
		38 -- 66
		38 -- 67
		38 -- 68
		38 -- 71
		38 -- 72
		38 -- 77
		38 -- 78
		38 -- 79
		38 -- 80
		38 -- 81
		38 -- 83
		38 -- 84
		38 -- 86
		38 -- 87
		38 -- 90
		38 -- 91
		38 -- 92
		38 -- 93
		38 -- 94
		38 -- 95
		39 -- 40
		39 -- 45
		39 -- 46
		39 -- 48
		39 -- 51
		39 -- 53
		39 -- 54
		39 -- 60
		39 -- 63
		39 -- 64
		39 -- 65
		39 -- 66
		39 -- 69
		39 -- 71
		39 -- 72
		39 -- 75
		39 -- 76
		39 -- 77
		39 -- 78
		39 -- 79
		39 -- 80
		39 -- 81
		39 -- 83
		39 -- 85
		39 -- 90
		39 -- 95
		39 -- 97
		39 -- 98
		39 -- 99
		40 -- 42
		40 -- 43
		40 -- 44
		40 -- 45
		40 -- 49
		40 -- 53
		40 -- 54
		40 -- 56
		40 -- 59
		40 -- 60
		40 -- 61
		40 -- 62
		40 -- 66
		40 -- 67
		40 -- 72
		40 -- 74
		40 -- 75
		40 -- 78
		40 -- 85
		40 -- 88
		40 -- 89
		40 -- 90
		40 -- 91
		40 -- 94
		40 -- 96
		40 -- 97
		40 -- 98
		40 -- 99
		41 -- 44
		41 -- 46
		41 -- 50
		41 -- 51
		41 -- 52
		41 -- 53
		41 -- 54
		41 -- 57
		41 -- 62
		41 -- 63
		41 -- 68
		41 -- 69
		41 -- 71
		41 -- 72
		41 -- 73
		41 -- 75
		41 -- 76
		41 -- 79
		41 -- 80
		41 -- 83
		41 -- 84
		41 -- 85
		41 -- 89
		41 -- 94
		41 -- 96
		41 -- 97
		42 -- 45
		42 -- 46
		42 -- 47
		42 -- 48
		42 -- 49
		42 -- 51
		42 -- 53
		42 -- 54
		42 -- 55
		42 -- 56
		42 -- 60
		42 -- 61
		42 -- 62
		42 -- 63
		42 -- 66
		42 -- 67
		42 -- 71
		42 -- 73
		42 -- 77
		42 -- 79
		42 -- 81
		42 -- 82
		42 -- 83
		42 -- 85
		42 -- 88
		42 -- 89
		42 -- 96
		42 -- 97
		42 -- 99
		43 -- 45
		43 -- 47
		43 -- 49
		43 -- 53
		43 -- 55
		43 -- 56
		43 -- 58
		43 -- 59
		43 -- 63
		43 -- 64
		43 -- 65
		43 -- 67
		43 -- 71
		43 -- 72
		43 -- 74
		43 -- 76
		43 -- 78
		43 -- 79
		43 -- 80
		43 -- 82
		43 -- 84
		43 -- 85
		43 -- 87
		43 -- 88
		43 -- 89
		43 -- 90
		43 -- 91
		43 -- 92
		43 -- 93
		43 -- 94
		43 -- 95
		43 -- 96
		43 -- 99
		44 -- 45
		44 -- 46
		44 -- 47
		44 -- 48
		44 -- 50
		44 -- 51
		44 -- 52
		44 -- 55
		44 -- 56
		44 -- 57
		44 -- 60
		44 -- 61
		44 -- 62
		44 -- 63
		44 -- 66
		44 -- 70
		44 -- 71
		44 -- 73
		44 -- 75
		44 -- 76
		44 -- 78
		44 -- 80
		44 -- 81
		44 -- 84
		44 -- 86
		44 -- 87
		44 -- 89
		44 -- 91
		44 -- 96
		45 -- 46
		45 -- 47
		45 -- 50
		45 -- 58
		45 -- 59
		45 -- 61
		45 -- 62
		45 -- 63
		45 -- 64
		45 -- 65
		45 -- 66
		45 -- 67
		45 -- 68
		45 -- 69
		45 -- 70
		45 -- 75
		45 -- 77
		45 -- 78
		45 -- 79
		45 -- 80
		45 -- 81
		45 -- 83
		45 -- 84
		45 -- 85
		45 -- 86
		45 -- 87
		45 -- 88
		45 -- 90
		45 -- 91
		45 -- 93
		45 -- 95
		45 -- 96
		45 -- 97
		46 -- 47
		46 -- 48
		46 -- 49
		46 -- 50
		46 -- 51
		46 -- 53
		46 -- 55
		46 -- 56
		46 -- 58
		46 -- 59
		46 -- 62
		46 -- 64
		46 -- 68
		46 -- 70
		46 -- 72
		46 -- 73
		46 -- 75
		46 -- 77
		46 -- 78
		46 -- 80
		46 -- 81
		46 -- 82
		46 -- 83
		46 -- 84
		46 -- 85
		46 -- 86
		46 -- 88
		46 -- 89
		46 -- 93
		46 -- 95
		46 -- 96
		47 -- 67
		47 -- 68
		47 -- 64
		47 -- 73
		47 -- 79
		47 -- 78
		47 -- 71
		47 -- 84
		47 -- 75
		47 -- 90
		47 -- 94
		47 -- 80
		47 -- 91
		47 -- 97
		47 -- 93
		47 -- 99
		47 -- 49
		47 -- 51
		47 -- 54
		47 -- 56
		47 -- 87
		47 -- 95
		47 -- 61
		47 -- 62
		48 -- 49
		48 -- 50
		48 -- 53
		48 -- 56
		48 -- 58
		48 -- 62
		48 -- 63
		48 -- 71
		48 -- 73
		48 -- 74
		48 -- 75
		48 -- 76
		48 -- 77
		48 -- 78
		48 -- 79
		48 -- 81
		48 -- 82
		48 -- 85
		48 -- 87
		48 -- 88
		48 -- 89
		48 -- 90
		48 -- 92
		48 -- 94
		48 -- 96
		48 -- 97
		48 -- 98
		48 -- 99
		49 -- 51
		49 -- 52
		49 -- 61
		49 -- 63
		49 -- 64
		49 -- 65
		49 -- 66
		49 -- 67
		49 -- 68
		49 -- 69
		49 -- 72
		49 -- 73
		49 -- 78
		49 -- 80
		49 -- 81
		49 -- 83
		49 -- 85
		49 -- 86
		49 -- 87
		49 -- 88
		49 -- 90
		49 -- 92
		49 -- 93
		49 -- 94
		49 -- 95
		50 -- 51
		50 -- 54
		50 -- 56
		50 -- 62
		50 -- 63
		50 -- 65
		50 -- 67
		50 -- 68
		50 -- 70
		50 -- 73
		50 -- 76
		50 -- 79
		50 -- 81
		50 -- 82
		50 -- 84
		50 -- 87
		50 -- 90
		50 -- 91
		50 -- 92
		50 -- 93
		50 -- 96
		50 -- 97
		50 -- 98
		50 -- 99
		51 -- 52
		51 -- 55
		51 -- 56
		51 -- 57
		51 -- 58
		51 -- 59
		51 -- 60
		51 -- 61
		51 -- 64
		51 -- 66
		51 -- 67
		51 -- 69
		51 -- 72
		51 -- 73
		51 -- 74
		51 -- 76
		51 -- 80
		51 -- 82
		51 -- 85
		51 -- 87
		51 -- 88
		51 -- 89
		51 -- 90
		51 -- 91
		51 -- 93
		51 -- 94
		51 -- 95
		51 -- 96
		51 -- 97
		51 -- 98
		52 -- 55
		52 -- 56
		52 -- 57
		52 -- 58
		52 -- 60
		52 -- 61
		52 -- 62
		52 -- 64
		52 -- 66
		52 -- 67
		52 -- 68
		52 -- 69
		52 -- 71
		52 -- 72
		52 -- 76
		52 -- 78
		52 -- 85
		52 -- 89
		52 -- 90
		52 -- 95
		52 -- 96
		52 -- 97
		53 -- 55
		53 -- 59
		53 -- 60
		53 -- 63
		53 -- 64
		53 -- 65
		53 -- 67
		53 -- 69
		53 -- 70
		53 -- 75
		53 -- 77
		53 -- 78
		53 -- 79
		53 -- 80
		53 -- 82
		53 -- 84
		53 -- 85
		53 -- 86
		53 -- 88
		53 -- 89
		53 -- 91
		53 -- 97
		54 -- 55
		54 -- 59
		54 -- 63
		54 -- 65
		54 -- 67
		54 -- 69
		54 -- 70
		54 -- 72
		54 -- 73
		54 -- 75
		54 -- 77
		54 -- 78
		54 -- 81
		54 -- 83
		54 -- 84
		54 -- 88
		54 -- 90
		54 -- 91
		54 -- 93
		54 -- 94
		54 -- 95
		54 -- 97
		54 -- 98
		55 -- 56
		55 -- 57
		55 -- 58
		55 -- 59
		55 -- 60
		55 -- 61
		55 -- 62
		55 -- 63
		55 -- 66
		55 -- 67
		55 -- 68
		55 -- 72
		55 -- 75
		55 -- 76
		55 -- 77
		55 -- 82
		55 -- 83
		55 -- 85
		55 -- 87
		55 -- 88
		55 -- 89
		55 -- 91
		55 -- 94
		55 -- 96
		55 -- 97
		55 -- 99
		56 -- 63
		56 -- 64
		56 -- 65
		56 -- 69
		56 -- 70
		56 -- 73
		56 -- 74
		56 -- 75
		56 -- 76
		56 -- 79
		56 -- 84
		56 -- 86
		56 -- 87
		56 -- 89
		56 -- 91
		56 -- 92
		56 -- 93
		56 -- 94
		57 -- 59
		57 -- 60
		57 -- 62
		57 -- 63
		57 -- 65
		57 -- 67
		57 -- 69
		57 -- 70
		57 -- 74
		57 -- 77
		57 -- 80
		57 -- 81
		57 -- 87
		57 -- 93
		57 -- 94
		57 -- 96
		57 -- 97
		57 -- 98
		58 -- 59
		58 -- 60
		58 -- 63
		58 -- 64
		58 -- 68
		58 -- 69
		58 -- 71
		58 -- 73
		58 -- 74
		58 -- 75
		58 -- 76
		58 -- 79
		58 -- 83
		58 -- 86
		58 -- 87
		58 -- 90
		58 -- 92
		58 -- 93
		58 -- 95
		58 -- 96
		58 -- 99
		59 -- 62
		59 -- 65
		59 -- 67
		59 -- 70
		59 -- 73
		59 -- 74
		59 -- 75
		59 -- 76
		59 -- 77
		59 -- 80
		59 -- 81
		59 -- 82
		59 -- 83
		59 -- 84
		59 -- 87
		59 -- 88
		59 -- 89
		59 -- 91
		59 -- 94
		59 -- 95
		59 -- 97
		59 -- 98
		59 -- 99
		60 -- 61
		60 -- 63
		60 -- 69
		60 -- 71
		60 -- 73
		60 -- 76
		60 -- 77
		60 -- 78
		60 -- 79
		60 -- 82
		60 -- 83
		60 -- 85
		60 -- 86
		60 -- 95
		60 -- 96
		60 -- 97
		60 -- 98
		60 -- 99
		61 -- 64
		61 -- 65
		61 -- 69
		61 -- 73
		61 -- 83
		61 -- 66
		61 -- 78
		61 -- 81
		61 -- 89
		61 -- 90
		61 -- 97
		61 -- 98
		61 -- 91
		61 -- 88
		61 -- 85
		62 -- 63
		62 -- 64
		62 -- 66
		62 -- 67
		62 -- 70
		62 -- 71
		62 -- 72
		62 -- 73
		62 -- 81
		62 -- 83
		62 -- 84
		62 -- 86
		62 -- 89
		62 -- 91
		62 -- 95
		62 -- 99
		63 -- 64
		63 -- 66
		63 -- 67
		63 -- 70
		63 -- 71
		63 -- 72
		63 -- 73
		63 -- 75
		63 -- 80
		63 -- 81
		63 -- 85
		63 -- 86
		63 -- 88
		63 -- 89
		63 -- 95
		63 -- 97
		63 -- 98
		63 -- 99
		64 -- 66
		64 -- 67
		64 -- 68
		64 -- 70
		64 -- 71
		64 -- 72
		64 -- 77
		64 -- 78
		64 -- 82
		64 -- 83
		64 -- 84
		64 -- 87
		64 -- 90
		64 -- 91
		64 -- 93
		64 -- 95
		64 -- 97
		64 -- 98
		65 -- 67
		65 -- 71
		65 -- 72
		65 -- 73
		65 -- 74
		65 -- 75
		65 -- 76
		65 -- 78
		65 -- 79
		65 -- 82
		65 -- 83
		65 -- 85
		65 -- 92
		65 -- 93
		65 -- 94
		66 -- 72
		66 -- 73
		66 -- 74
		66 -- 75
		66 -- 78
		66 -- 79
		66 -- 80
		66 -- 82
		66 -- 83
		66 -- 85
		66 -- 86
		66 -- 88
		66 -- 91
		66 -- 92
		66 -- 93
		66 -- 95
		66 -- 99
		67 -- 68
		67 -- 69
		67 -- 71
		67 -- 72
		67 -- 74
		67 -- 75
		67 -- 77
		67 -- 79
		67 -- 80
		67 -- 86
		67 -- 87
		67 -- 88
		67 -- 89
		67 -- 91
		67 -- 92
		67 -- 94
		67 -- 95
		67 -- 96
		67 -- 98
		67 -- 99
		68 -- 71
		68 -- 72
		68 -- 75
		68 -- 77
		68 -- 78
		68 -- 80
		68 -- 81
		68 -- 84
		68 -- 86
		68 -- 88
		68 -- 89
		68 -- 91
		68 -- 92
		68 -- 93
		68 -- 95
		68 -- 96
		69 -- 73
		69 -- 75
		69 -- 76
		69 -- 79
		69 -- 80
		69 -- 81
		69 -- 83
		69 -- 84
		69 -- 85
		69 -- 86
		69 -- 88
		69 -- 89
		69 -- 90
		69 -- 94
		69 -- 95
		70 -- 96
		70 -- 71
		70 -- 79
		70 -- 75
		70 -- 89
		70 -- 77
		70 -- 78
		70 -- 88
		70 -- 87
		70 -- 90
		70 -- 92
		70 -- 97
		70 -- 72
		71 -- 72
		71 -- 73
		71 -- 74
		71 -- 75
		71 -- 76
		71 -- 78
		71 -- 80
		71 -- 81
		71 -- 82
		71 -- 83
		71 -- 85
		71 -- 86
		71 -- 87
		71 -- 91
		71 -- 94
		71 -- 96
		71 -- 99
		72 -- 74
		72 -- 80
		72 -- 84
		72 -- 87
		72 -- 75
		72 -- 94
		72 -- 79
		72 -- 91
		72 -- 82
		72 -- 73
		73 -- 74
		73 -- 76
		73 -- 77
		73 -- 78
		73 -- 79
		73 -- 80
		73 -- 82
		73 -- 83
		73 -- 84
		73 -- 85
		73 -- 86
		73 -- 87
		73 -- 88
		73 -- 89
		73 -- 90
		73 -- 92
		73 -- 98
		74 -- 78
		74 -- 79
		74 -- 83
		74 -- 84
		74 -- 88
		74 -- 89
		74 -- 90
		74 -- 92
		74 -- 95
		74 -- 96
		74 -- 97
		74 -- 98
		74 -- 99
		75 -- 77
		75 -- 78
		75 -- 81
		75 -- 89
		75 -- 91
		75 -- 98
		76 -- 77
		76 -- 82
		76 -- 85
		76 -- 86
		76 -- 87
		76 -- 88
		76 -- 89
		76 -- 90
		76 -- 91
		76 -- 98
		76 -- 99
		77 -- 78
		77 -- 81
		77 -- 82
		77 -- 83
		77 -- 84
		77 -- 85
		77 -- 86
		77 -- 87
		77 -- 88
		77 -- 89
		77 -- 90
		77 -- 91
		77 -- 92
		77 -- 95
		77 -- 96
		77 -- 97
		77 -- 98
		77 -- 99
		78 -- 79
		78 -- 81
		78 -- 82
		78 -- 83
		78 -- 84
		78 -- 86
		78 -- 89
		78 -- 92
		78 -- 94
		78 -- 96
		78 -- 99
		79 -- 80
		79 -- 82
		79 -- 85
		79 -- 89
		79 -- 94
		79 -- 95
		79 -- 96
		79 -- 97
		79 -- 98
		80 -- 81
		80 -- 82
		80 -- 85
		80 -- 86
		80 -- 89
		80 -- 91
		80 -- 94
		80 -- 96
		80 -- 97
		80 -- 99
		81 -- 82
		81 -- 85
		81 -- 86
		81 -- 87
		81 -- 88
		81 -- 89
		81 -- 90
		81 -- 91
		81 -- 93
		81 -- 95
		81 -- 96
		81 -- 97
		81 -- 98
		81 -- 99
		82 -- 84
		82 -- 88
		82 -- 89
		82 -- 90
		82 -- 92
		82 -- 94
		82 -- 97
		82 -- 98
		82 -- 99
		83 -- 88
		83 -- 92
		83 -- 95
		83 -- 96
		83 -- 97
		83 -- 98
		83 -- 99
		84 -- 86
		84 -- 88
		84 -- 89
		84 -- 91
		84 -- 93
		84 -- 94
		84 -- 95
		84 -- 96
		84 -- 97
		84 -- 99
		85 -- 86
		85 -- 87
		85 -- 89
		85 -- 90
		85 -- 91
		85 -- 93
		85 -- 94
		85 -- 97
		85 -- 99
		86 -- 88
		86 -- 89
		86 -- 90
		86 -- 92
		86 -- 93
		86 -- 94
		86 -- 95
		86 -- 97
		87 -- 94
		87 -- 95
		87 -- 96
		87 -- 98
		87 -- 99
		88 -- 91
		88 -- 93
		88 -- 94
		88 -- 98
		89 -- 92
		89 -- 93
		89 -- 94
		89 -- 96
		89 -- 99
		90 -- 95
		90 -- 98
		90 -- 99
		91 -- 92
		91 -- 93
		91 -- 95
		91 -- 96
		91 -- 97
		92 -- 93
		92 -- 96
		92 -- 98
		93 -- 94
		93 -- 96
		93 -- 98
		93 -- 99
		94 -- 95
		94 -- 96
		94 -- 97
		94 -- 99
		95 -- 97
		96 -- 98
		96 -- 99
		97 -- 99
}