graph {
		0 -- 64
		0 -- 1
		0 -- 75
		0 -- 4
		0 -- 5
		0 -- 68
		0 -- 71
		0 -- 8
		0 -- 9
		0 -- 11
		0 -- 12
		0 -- 13
		0 -- 78
		0 -- 77
		0 -- 80
		0 -- 83
		0 -- 85
		0 -- 22
		0 -- 25
		0 -- 27
		0 -- 86
		0 -- 29
		0 -- 95
		0 -- 96
		0 -- 97
		0 -- 39
		0 -- 41
		0 -- 43
		0 -- 44
		0 -- 46
		0 -- 49
		0 -- 50
		0 -- 73
		0 -- 58
		0 -- 59
		0 -- 60
		0 -- 61
		0 -- 63
		1 -- 5
		1 -- 6
		1 -- 7
		1 -- 10
		1 -- 12
		1 -- 13
		1 -- 18
		1 -- 23
		1 -- 25
		1 -- 27
		1 -- 28
		1 -- 30
		1 -- 31
		1 -- 32
		1 -- 33
		1 -- 34
		1 -- 38
		1 -- 39
		1 -- 40
		1 -- 41
		1 -- 48
		1 -- 52
		1 -- 56
		1 -- 58
		1 -- 59
		1 -- 60
		1 -- 61
		1 -- 62
		1 -- 63
		1 -- 66
		1 -- 68
		1 -- 69
		1 -- 71
		1 -- 72
		1 -- 76
		1 -- 78
		1 -- 79
		1 -- 80
		1 -- 83
		1 -- 85
		1 -- 89
		1 -- 90
		1 -- 91
		1 -- 92
		1 -- 93
		1 -- 96
		1 -- 98
		1 -- 99
		2 -- 5
		2 -- 10
		2 -- 11
		2 -- 13
		2 -- 16
		2 -- 17
		2 -- 18
		2 -- 19
		2 -- 20
		2 -- 21
		2 -- 24
		2 -- 25
		2 -- 26
		2 -- 27
		2 -- 28
		2 -- 30
		2 -- 31
		2 -- 32
		2 -- 33
		2 -- 36
		2 -- 37
		2 -- 38
		2 -- 40
		2 -- 45
		2 -- 46
		2 -- 48
		2 -- 50
		2 -- 51
		2 -- 52
		2 -- 53
		2 -- 54
		2 -- 57
		2 -- 58
		2 -- 59
		2 -- 60
		2 -- 63
		2 -- 67
		2 -- 69
		2 -- 70
		2 -- 74
		2 -- 77
		2 -- 79
		2 -- 82
		2 -- 83
		2 -- 85
		2 -- 86
		2 -- 87
		2 -- 88
		2 -- 92
		2 -- 93
		2 -- 94
		3 -- 5
		3 -- 8
		3 -- 10
		3 -- 12
		3 -- 13
		3 -- 15
		3 -- 18
		3 -- 22
		3 -- 27
		3 -- 31
		3 -- 33
		3 -- 38
		3 -- 39
		3 -- 40
		3 -- 42
		3 -- 43
		3 -- 44
		3 -- 46
		3 -- 47
		3 -- 48
		3 -- 50
		3 -- 52
		3 -- 54
		3 -- 55
		3 -- 56
		3 -- 58
		3 -- 59
		3 -- 60
		3 -- 65
		3 -- 66
		3 -- 67
		3 -- 69
		3 -- 74
		3 -- 75
		3 -- 79
		3 -- 80
		3 -- 84
		3 -- 87
		3 -- 89
		3 -- 90
		3 -- 91
		3 -- 92
		3 -- 95
		3 -- 99
		4 -- 9
		4 -- 11
		4 -- 12
		4 -- 13
		4 -- 16
		4 -- 17
		4 -- 18
		4 -- 20
		4 -- 21
		4 -- 23
		4 -- 25
		4 -- 26
		4 -- 30
		4 -- 33
		4 -- 37
		4 -- 46
		4 -- 47
		4 -- 49
		4 -- 50
		4 -- 51
		4 -- 53
		4 -- 55
		4 -- 58
		4 -- 59
		4 -- 60
		4 -- 61
		4 -- 63
		4 -- 64
		4 -- 65
		4 -- 66
		4 -- 71
		4 -- 73
		4 -- 77
		4 -- 80
		4 -- 82
		4 -- 83
		4 -- 84
		4 -- 85
		4 -- 86
		4 -- 87
		4 -- 88
		4 -- 90
		4 -- 91
		4 -- 92
		4 -- 93
		4 -- 94
		4 -- 95
		4 -- 96
		4 -- 97
		4 -- 98
		4 -- 99
		5 -- 8
		5 -- 15
		5 -- 19
		5 -- 20
		5 -- 21
		5 -- 22
		5 -- 24
		5 -- 29
		5 -- 30
		5 -- 32
		5 -- 33
		5 -- 34
		5 -- 36
		5 -- 41
		5 -- 43
		5 -- 45
		5 -- 48
		5 -- 51
		5 -- 52
		5 -- 56
		5 -- 59
		5 -- 60
		5 -- 61
		5 -- 62
		5 -- 64
		5 -- 66
		5 -- 67
		5 -- 68
		5 -- 69
		5 -- 70
		5 -- 71
		5 -- 73
		5 -- 74
		5 -- 75
		5 -- 81
		5 -- 82
		5 -- 83
		5 -- 84
		5 -- 85
		5 -- 86
		5 -- 88
		5 -- 89
		5 -- 90
		5 -- 91
		5 -- 93
		5 -- 94
		5 -- 95
		5 -- 96
		6 -- 66
		6 -- 67
		6 -- 97
		6 -- 70
		6 -- 65
		6 -- 8
		6 -- 73
		6 -- 75
		6 -- 12
		6 -- 77
		6 -- 78
		6 -- 79
		6 -- 16
		6 -- 18
		6 -- 83
		6 -- 20
		6 -- 21
		6 -- 87
		6 -- 88
		6 -- 25
		6 -- 26
		6 -- 27
		6 -- 92
		6 -- 90
		6 -- 30
		6 -- 32
		6 -- 33
		6 -- 35
		6 -- 39
		6 -- 45
		6 -- 96
		6 -- 93
		6 -- 76
		6 -- 49
		6 -- 91
		6 -- 94
		6 -- 84
		6 -- 58
		6 -- 61
		6 -- 62
		6 -- 85
		7 -- 64
		7 -- 66
		7 -- 75
		7 -- 98
		7 -- 70
		7 -- 8
		7 -- 73
		7 -- 11
		7 -- 76
		7 -- 13
		7 -- 14
		7 -- 77
		7 -- 18
		7 -- 19
		7 -- 84
		7 -- 78
		7 -- 22
		7 -- 25
		7 -- 90
		7 -- 91
		7 -- 29
		7 -- 30
		7 -- 31
		7 -- 96
		7 -- 33
		7 -- 34
		7 -- 35
		7 -- 36
		7 -- 38
		7 -- 39
		7 -- 45
		7 -- 46
		7 -- 93
		7 -- 72
		7 -- 50
		7 -- 52
		7 -- 82
		7 -- 85
		7 -- 95
		7 -- 94
		7 -- 62
		7 -- 63
		8 -- 9
		8 -- 10
		8 -- 11
		8 -- 16
		8 -- 17
		8 -- 18
		8 -- 19
		8 -- 20
		8 -- 28
		8 -- 32
		8 -- 33
		8 -- 35
		8 -- 36
		8 -- 37
		8 -- 38
		8 -- 39
		8 -- 40
		8 -- 45
		8 -- 47
		8 -- 50
		8 -- 52
		8 -- 56
		8 -- 59
		8 -- 62
		8 -- 64
		8 -- 70
		8 -- 72
		8 -- 73
		8 -- 74
		8 -- 75
		8 -- 77
		8 -- 78
		8 -- 81
		8 -- 83
		8 -- 85
		8 -- 86
		8 -- 87
		8 -- 89
		8 -- 90
		8 -- 93
		8 -- 95
		9 -- 10
		9 -- 13
		9 -- 14
		9 -- 15
		9 -- 16
		9 -- 18
		9 -- 20
		9 -- 21
		9 -- 26
		9 -- 27
		9 -- 28
		9 -- 30
		9 -- 33
		9 -- 34
		9 -- 36
		9 -- 38
		9 -- 39
		9 -- 41
		9 -- 43
		9 -- 44
		9 -- 46
		9 -- 52
		9 -- 53
		9 -- 57
		9 -- 58
		9 -- 59
		9 -- 62
		9 -- 63
		9 -- 64
		9 -- 67
		9 -- 70
		9 -- 76
		9 -- 77
		9 -- 78
		9 -- 81
		9 -- 82
		9 -- 83
		9 -- 84
		9 -- 85
		9 -- 87
		9 -- 88
		9 -- 90
		9 -- 92
		9 -- 93
		9 -- 99
		10 -- 15
		10 -- 16
		10 -- 22
		10 -- 23
		10 -- 24
		10 -- 25
		10 -- 26
		10 -- 27
		10 -- 30
		10 -- 31
		10 -- 32
		10 -- 34
		10 -- 38
		10 -- 39
		10 -- 42
		10 -- 45
		10 -- 48
		10 -- 50
		10 -- 51
		10 -- 52
		10 -- 53
		10 -- 54
		10 -- 55
		10 -- 56
		10 -- 57
		10 -- 58
		10 -- 59
		10 -- 60
		10 -- 64
		10 -- 67
		10 -- 68
		10 -- 69
		10 -- 71
		10 -- 78
		10 -- 81
		10 -- 83
		10 -- 85
		10 -- 87
		10 -- 88
		10 -- 89
		10 -- 91
		10 -- 93
		10 -- 94
		10 -- 97
		10 -- 99
		11 -- 12
		11 -- 14
		11 -- 15
		11 -- 16
		11 -- 21
		11 -- 22
		11 -- 24
		11 -- 25
		11 -- 27
		11 -- 28
		11 -- 31
		11 -- 32
		11 -- 34
		11 -- 35
		11 -- 37
		11 -- 38
		11 -- 39
		11 -- 43
		11 -- 44
		11 -- 45
		11 -- 46
		11 -- 48
		11 -- 49
		11 -- 50
		11 -- 51
		11 -- 53
		11 -- 54
		11 -- 56
		11 -- 57
		11 -- 58
		11 -- 60
		11 -- 63
		11 -- 70
		11 -- 72
		11 -- 73
		11 -- 77
		11 -- 78
		11 -- 83
		11 -- 88
		11 -- 92
		11 -- 93
		11 -- 95
		11 -- 99
		12 -- 13
		12 -- 14
		12 -- 15
		12 -- 16
		12 -- 19
		12 -- 23
		12 -- 25
		12 -- 26
		12 -- 27
		12 -- 28
		12 -- 29
		12 -- 30
		12 -- 35
		12 -- 36
		12 -- 37
		12 -- 39
		12 -- 40
		12 -- 41
		12 -- 44
		12 -- 45
		12 -- 48
		12 -- 55
		12 -- 57
		12 -- 58
		12 -- 59
		12 -- 60
		12 -- 61
		12 -- 62
		12 -- 66
		12 -- 68
		12 -- 69
		12 -- 71
		12 -- 75
		12 -- 77
		12 -- 79
		12 -- 80
		12 -- 82
		12 -- 84
		12 -- 85
		12 -- 87
		12 -- 88
		12 -- 89
		12 -- 90
		12 -- 91
		12 -- 92
		12 -- 93
		12 -- 95
		12 -- 97
		12 -- 98
		13 -- 16
		13 -- 19
		13 -- 20
		13 -- 22
		13 -- 23
		13 -- 25
		13 -- 26
		13 -- 27
		13 -- 31
		13 -- 32
		13 -- 35
		13 -- 36
		13 -- 37
		13 -- 38
		13 -- 41
		13 -- 42
		13 -- 43
		13 -- 45
		13 -- 50
		13 -- 51
		13 -- 52
		13 -- 56
		13 -- 60
		13 -- 62
		13 -- 64
		13 -- 66
		13 -- 69
		13 -- 70
		13 -- 71
		13 -- 73
		13 -- 77
		13 -- 78
		13 -- 79
		13 -- 83
		13 -- 84
		13 -- 89
		13 -- 90
		13 -- 91
		13 -- 93
		13 -- 94
		13 -- 95
		13 -- 96
		13 -- 97
		14 -- 16
		14 -- 17
		14 -- 18
		14 -- 19
		14 -- 20
		14 -- 21
		14 -- 22
		14 -- 23
		14 -- 24
		14 -- 26
		14 -- 27
		14 -- 28
		14 -- 32
		14 -- 33
		14 -- 34
		14 -- 38
		14 -- 41
		14 -- 42
		14 -- 43
		14 -- 44
		14 -- 49
		14 -- 53
		14 -- 62
		14 -- 66
		14 -- 67
		14 -- 68
		14 -- 71
		14 -- 72
		14 -- 74
		14 -- 75
		14 -- 82
		14 -- 83
		14 -- 87
		14 -- 89
		14 -- 90
		14 -- 93
		14 -- 94
		14 -- 95
		14 -- 96
		14 -- 97
		14 -- 98
		14 -- 99
		15 -- 16
		15 -- 17
		15 -- 19
		15 -- 23
		15 -- 24
		15 -- 25
		15 -- 26
		15 -- 27
		15 -- 31
		15 -- 32
		15 -- 33
		15 -- 34
		15 -- 37
		15 -- 40
		15 -- 41
		15 -- 42
		15 -- 45
		15 -- 47
		15 -- 51
		15 -- 55
		15 -- 61
		15 -- 63
		15 -- 74
		15 -- 75
		15 -- 76
		15 -- 77
		15 -- 78
		15 -- 79
		15 -- 82
		15 -- 85
		15 -- 86
		15 -- 87
		15 -- 88
		15 -- 89
		15 -- 90
		15 -- 92
		15 -- 93
		15 -- 94
		15 -- 96
		15 -- 98
		16 -- 20
		16 -- 21
		16 -- 24
		16 -- 25
		16 -- 26
		16 -- 27
		16 -- 28
		16 -- 30
		16 -- 32
		16 -- 34
		16 -- 35
		16 -- 36
		16 -- 37
		16 -- 41
		16 -- 43
		16 -- 45
		16 -- 46
		16 -- 49
		16 -- 50
		16 -- 51
		16 -- 52
		16 -- 54
		16 -- 56
		16 -- 57
		16 -- 58
		16 -- 59
		16 -- 60
		16 -- 61
		16 -- 62
		16 -- 65
		16 -- 66
		16 -- 67
		16 -- 68
		16 -- 69
		16 -- 72
		16 -- 77
		16 -- 79
		16 -- 81
		16 -- 83
		16 -- 84
		16 -- 85
		16 -- 90
		16 -- 91
		16 -- 94
		16 -- 95
		16 -- 96
		17 -- 82
		17 -- 67
		17 -- 70
		17 -- 71
		17 -- 73
		17 -- 74
		17 -- 75
		17 -- 66
		17 -- 81
		17 -- 18
		17 -- 20
		17 -- 85
		17 -- 23
		17 -- 26
		17 -- 79
		17 -- 28
		17 -- 95
		17 -- 33
		17 -- 99
		17 -- 36
		17 -- 37
		17 -- 38
		17 -- 40
		17 -- 42
		17 -- 44
		17 -- 45
		17 -- 46
		17 -- 48
		17 -- 49
		17 -- 77
		17 -- 53
		17 -- 55
		17 -- 58
		17 -- 59
		17 -- 62
		18 -- 19
		18 -- 22
		18 -- 23
		18 -- 24
		18 -- 29
		18 -- 30
		18 -- 33
		18 -- 34
		18 -- 35
		18 -- 38
		18 -- 40
		18 -- 42
		18 -- 44
		18 -- 45
		18 -- 49
		18 -- 51
		18 -- 52
		18 -- 54
		18 -- 55
		18 -- 56
		18 -- 57
		18 -- 58
		18 -- 59
		18 -- 60
		18 -- 62
		18 -- 63
		18 -- 64
		18 -- 65
		18 -- 66
		18 -- 67
		18 -- 70
		18 -- 71
		18 -- 72
		18 -- 77
		18 -- 78
		18 -- 79
		18 -- 80
		18 -- 81
		18 -- 86
		18 -- 90
		18 -- 92
		18 -- 94
		18 -- 97
		19 -- 21
		19 -- 22
		19 -- 24
		19 -- 27
		19 -- 28
		19 -- 32
		19 -- 33
		19 -- 34
		19 -- 36
		19 -- 37
		19 -- 39
		19 -- 40
		19 -- 44
		19 -- 46
		19 -- 49
		19 -- 50
		19 -- 56
		19 -- 57
		19 -- 61
		19 -- 62
		19 -- 64
		19 -- 66
		19 -- 67
		19 -- 69
		19 -- 70
		19 -- 76
		19 -- 78
		19 -- 79
		19 -- 80
		19 -- 83
		19 -- 86
		19 -- 88
		19 -- 91
		19 -- 94
		19 -- 95
		19 -- 99
		20 -- 21
		20 -- 24
		20 -- 25
		20 -- 26
		20 -- 28
		20 -- 29
		20 -- 32
		20 -- 36
		20 -- 37
		20 -- 40
		20 -- 45
		20 -- 46
		20 -- 47
		20 -- 50
		20 -- 51
		20 -- 52
		20 -- 53
		20 -- 57
		20 -- 60
		20 -- 61
		20 -- 63
		20 -- 66
		20 -- 68
		20 -- 70
		20 -- 71
		20 -- 72
		20 -- 74
		20 -- 76
		20 -- 77
		20 -- 80
		20 -- 81
		20 -- 82
		20 -- 84
		20 -- 85
		20 -- 86
		20 -- 87
		20 -- 90
		20 -- 96
		20 -- 98
		21 -- 65
		21 -- 72
		21 -- 74
		21 -- 76
		21 -- 79
		21 -- 86
		21 -- 88
		21 -- 90
		21 -- 27
		21 -- 28
		21 -- 29
		21 -- 69
		21 -- 31
		21 -- 84
		21 -- 98
		21 -- 35
		21 -- 36
		21 -- 93
		21 -- 92
		21 -- 43
		21 -- 46
		21 -- 47
		21 -- 99
		21 -- 50
		21 -- 53
		21 -- 55
		21 -- 56
		21 -- 57
		21 -- 94
		21 -- 63
		22 -- 23
		22 -- 26
		22 -- 28
		22 -- 30
		22 -- 31
		22 -- 32
		22 -- 33
		22 -- 34
		22 -- 35
		22 -- 36
		22 -- 40
		22 -- 42
		22 -- 43
		22 -- 45
		22 -- 46
		22 -- 47
		22 -- 49
		22 -- 50
		22 -- 51
		22 -- 53
		22 -- 54
		22 -- 62
		22 -- 63
		22 -- 64
		22 -- 65
		22 -- 66
		22 -- 68
		22 -- 70
		22 -- 73
		22 -- 76
		22 -- 77
		22 -- 78
		22 -- 79
		22 -- 80
		22 -- 85
		22 -- 87
		22 -- 88
		22 -- 90
		22 -- 91
		22 -- 92
		22 -- 93
		22 -- 97
		22 -- 98
		23 -- 28
		23 -- 31
		23 -- 32
		23 -- 34
		23 -- 35
		23 -- 36
		23 -- 38
		23 -- 40
		23 -- 41
		23 -- 42
		23 -- 43
		23 -- 44
		23 -- 45
		23 -- 48
		23 -- 52
		23 -- 53
		23 -- 54
		23 -- 56
		23 -- 58
		23 -- 59
		23 -- 60
		23 -- 64
		23 -- 67
		23 -- 68
		23 -- 69
		23 -- 70
		23 -- 71
		23 -- 73
		23 -- 74
		23 -- 76
		23 -- 77
		23 -- 79
		23 -- 80
		23 -- 82
		23 -- 83
		23 -- 84
		23 -- 87
		23 -- 90
		23 -- 91
		23 -- 93
		23 -- 94
		23 -- 95
		23 -- 96
		23 -- 99
		24 -- 64
		24 -- 65
		24 -- 74
		24 -- 70
		24 -- 72
		24 -- 73
		24 -- 76
		24 -- 66
		24 -- 81
		24 -- 89
		24 -- 26
		24 -- 27
		24 -- 92
		24 -- 90
		24 -- 30
		24 -- 96
		24 -- 80
		24 -- 36
		24 -- 38
		24 -- 42
		24 -- 43
		24 -- 45
		24 -- 49
		24 -- 51
		24 -- 52
		24 -- 82
		24 -- 54
		24 -- 57
		24 -- 59
		24 -- 60
		24 -- 61
		25 -- 28
		25 -- 30
		25 -- 33
		25 -- 41
		25 -- 42
		25 -- 44
		25 -- 47
		25 -- 50
		25 -- 53
		25 -- 54
		25 -- 55
		25 -- 57
		25 -- 58
		25 -- 59
		25 -- 61
		25 -- 62
		25 -- 63
		25 -- 64
		25 -- 66
		25 -- 67
		25 -- 69
		25 -- 70
		25 -- 71
		25 -- 72
		25 -- 75
		25 -- 78
		25 -- 81
		25 -- 82
		25 -- 84
		25 -- 85
		25 -- 86
		25 -- 87
		25 -- 88
		25 -- 91
		25 -- 94
		25 -- 95
		25 -- 96
		25 -- 97
		25 -- 98
		26 -- 27
		26 -- 28
		26 -- 29
		26 -- 31
		26 -- 35
		26 -- 38
		26 -- 43
		26 -- 45
		26 -- 47
		26 -- 49
		26 -- 54
		26 -- 56
		26 -- 58
		26 -- 61
		26 -- 64
		26 -- 65
		26 -- 66
		26 -- 67
		26 -- 69
		26 -- 71
		26 -- 72
		26 -- 74
		26 -- 75
		26 -- 79
		26 -- 80
		26 -- 81
		26 -- 83
		26 -- 85
		26 -- 90
		26 -- 96
		26 -- 98
		26 -- 99
		27 -- 30
		27 -- 34
		27 -- 36
		27 -- 41
		27 -- 42
		27 -- 43
		27 -- 47
		27 -- 51
		27 -- 53
		27 -- 54
		27 -- 56
		27 -- 57
		27 -- 59
		27 -- 65
		27 -- 66
		27 -- 68
		27 -- 73
		27 -- 74
		27 -- 75
		27 -- 76
		27 -- 83
		27 -- 84
		27 -- 85
		27 -- 86
		27 -- 87
		27 -- 93
		27 -- 94
		27 -- 96
		27 -- 97
		28 -- 30
		28 -- 31
		28 -- 34
		28 -- 35
		28 -- 36
		28 -- 37
		28 -- 39
		28 -- 40
		28 -- 43
		28 -- 49
		28 -- 50
		28 -- 54
		28 -- 58
		28 -- 59
		28 -- 65
		28 -- 71
		28 -- 72
		28 -- 75
		28 -- 76
		28 -- 82
		28 -- 84
		28 -- 85
		28 -- 86
		28 -- 89
		28 -- 92
		28 -- 93
		28 -- 95
		28 -- 96
		29 -- 65
		29 -- 68
		29 -- 70
		29 -- 74
		29 -- 80
		29 -- 86
		29 -- 93
		29 -- 30
		29 -- 95
		29 -- 96
		29 -- 33
		29 -- 35
		29 -- 36
		29 -- 37
		29 -- 39
		29 -- 41
		29 -- 71
		29 -- 45
		29 -- 47
		29 -- 48
		29 -- 49
		29 -- 52
		29 -- 82
		29 -- 56
		29 -- 84
		29 -- 58
		29 -- 59
		29 -- 60
		29 -- 94
		29 -- 62
		29 -- 85
		30 -- 34
		30 -- 35
		30 -- 36
		30 -- 37
		30 -- 44
		30 -- 46
		30 -- 47
		30 -- 49
		30 -- 52
		30 -- 53
		30 -- 54
		30 -- 57
		30 -- 61
		30 -- 62
		30 -- 63
		30 -- 64
		30 -- 67
		30 -- 69
		30 -- 71
		30 -- 72
		30 -- 74
		30 -- 75
		30 -- 76
		30 -- 78
		30 -- 81
		30 -- 82
		30 -- 83
		30 -- 86
		30 -- 89
		30 -- 90
		30 -- 95
		30 -- 96
		30 -- 98
		31 -- 66
		31 -- 69
		31 -- 73
		31 -- 78
		31 -- 80
		31 -- 75
		31 -- 83
		31 -- 68
		31 -- 94
		31 -- 95
		31 -- 34
		31 -- 36
		31 -- 37
		31 -- 39
		31 -- 41
		31 -- 42
		31 -- 43
		31 -- 45
		31 -- 47
		31 -- 50
		31 -- 51
		31 -- 52
		31 -- 53
		31 -- 55
		31 -- 57
		31 -- 87
		31 -- 61
		32 -- 34
		32 -- 35
		32 -- 40
		32 -- 41
		32 -- 43
		32 -- 46
		32 -- 47
		32 -- 48
		32 -- 53
		32 -- 57
		32 -- 58
		32 -- 62
		32 -- 64
		32 -- 65
		32 -- 68
		32 -- 71
		32 -- 73
		32 -- 74
		32 -- 76
		32 -- 79
		32 -- 84
		32 -- 86
		32 -- 87
		32 -- 88
		32 -- 89
		32 -- 90
		32 -- 92
		32 -- 93
		32 -- 94
		32 -- 97
		33 -- 34
		33 -- 36
		33 -- 38
		33 -- 39
		33 -- 41
		33 -- 43
		33 -- 45
		33 -- 46
		33 -- 49
		33 -- 51
		33 -- 55
		33 -- 56
		33 -- 58
		33 -- 62
		33 -- 63
		33 -- 64
		33 -- 67
		33 -- 68
		33 -- 71
		33 -- 72
		33 -- 74
		33 -- 76
		33 -- 77
		33 -- 78
		33 -- 82
		33 -- 83
		33 -- 84
		33 -- 85
		33 -- 86
		33 -- 88
		33 -- 89
		33 -- 92
		33 -- 96
		33 -- 99
		34 -- 37
		34 -- 41
		34 -- 42
		34 -- 43
		34 -- 44
		34 -- 45
		34 -- 46
		34 -- 48
		34 -- 49
		34 -- 52
		34 -- 53
		34 -- 55
		34 -- 61
		34 -- 62
		34 -- 63
		34 -- 64
		34 -- 65
		34 -- 66
		34 -- 69
		34 -- 72
		34 -- 73
		34 -- 76
		34 -- 78
		34 -- 79
		34 -- 80
		34 -- 83
		34 -- 84
		34 -- 88
		34 -- 89
		34 -- 90
		34 -- 92
		34 -- 94
		34 -- 96
		34 -- 97
		34 -- 98
		35 -- 36
		35 -- 43
		35 -- 45
		35 -- 46
		35 -- 49
		35 -- 51
		35 -- 52
		35 -- 53
		35 -- 56
		35 -- 57
		35 -- 58
		35 -- 59
		35 -- 60
		35 -- 61
		35 -- 62
		35 -- 63
		35 -- 64
		35 -- 66
		35 -- 67
		35 -- 68
		35 -- 69
		35 -- 72
		35 -- 73
		35 -- 75
		35 -- 77
		35 -- 79
		35 -- 86
		35 -- 87
		35 -- 88
		35 -- 89
		35 -- 90
		35 -- 93
		35 -- 94
		35 -- 97
		35 -- 99
		36 -- 38
		36 -- 39
		36 -- 40
		36 -- 41
		36 -- 42
		36 -- 43
		36 -- 44
		36 -- 48
		36 -- 52
		36 -- 53
		36 -- 54
		36 -- 55
		36 -- 56
		36 -- 61
		36 -- 62
		36 -- 64
		36 -- 65
		36 -- 68
		36 -- 72
		36 -- 73
		36 -- 74
		36 -- 75
		36 -- 76
		36 -- 77
		36 -- 79
		36 -- 80
		36 -- 81
		36 -- 82
		36 -- 83
		36 -- 86
		36 -- 88
		36 -- 89
		36 -- 91
		36 -- 92
		36 -- 93
		36 -- 95
		36 -- 96
		36 -- 99
		37 -- 38
		37 -- 39
		37 -- 40
		37 -- 44
		37 -- 47
		37 -- 48
		37 -- 50
		37 -- 53
		37 -- 54
		37 -- 56
		37 -- 57
		37 -- 59
		37 -- 60
		37 -- 61
		37 -- 65
		37 -- 66
		37 -- 67
		37 -- 68
		37 -- 69
		37 -- 70
		37 -- 74
		37 -- 77
		37 -- 79
		37 -- 81
		37 -- 85
		37 -- 86
		37 -- 87
		37 -- 88
		37 -- 91
		37 -- 94
		37 -- 95
		37 -- 96
		37 -- 97
		38 -- 39
		38 -- 40
		38 -- 41
		38 -- 42
		38 -- 43
		38 -- 44
		38 -- 45
		38 -- 46
		38 -- 47
		38 -- 48
		38 -- 49
		38 -- 50
		38 -- 51
		38 -- 52
		38 -- 54
		38 -- 55
		38 -- 59
		38 -- 61
		38 -- 64
		38 -- 65
		38 -- 66
		38 -- 68
		38 -- 72
		38 -- 73
		38 -- 74
		38 -- 76
		38 -- 77
		38 -- 78
		38 -- 79
		38 -- 82
		38 -- 84
		38 -- 86
		38 -- 87
		38 -- 92
		38 -- 93
		38 -- 94
		38 -- 97
		38 -- 99
		39 -- 40
		39 -- 43
		39 -- 44
		39 -- 46
		39 -- 47
		39 -- 51
		39 -- 52
		39 -- 57
		39 -- 58
		39 -- 61
		39 -- 63
		39 -- 64
		39 -- 65
		39 -- 68
		39 -- 71
		39 -- 72
		39 -- 73
		39 -- 76
		39 -- 78
		39 -- 80
		39 -- 81
		39 -- 82
		39 -- 83
		39 -- 84
		39 -- 85
		39 -- 86
		39 -- 89
		39 -- 90
		39 -- 92
		39 -- 93
		39 -- 95
		39 -- 96
		39 -- 98
		39 -- 99
		40 -- 41
		40 -- 42
		40 -- 43
		40 -- 44
		40 -- 49
		40 -- 50
		40 -- 57
		40 -- 58
		40 -- 62
		40 -- 64
		40 -- 65
		40 -- 66
		40 -- 67
		40 -- 68
		40 -- 70
		40 -- 72
		40 -- 75
		40 -- 76
		40 -- 77
		40 -- 79
		40 -- 80
		40 -- 82
		40 -- 83
		40 -- 87
		40 -- 88
		40 -- 90
		40 -- 91
		40 -- 93
		40 -- 94
		40 -- 96
		40 -- 99
		41 -- 42
		41 -- 43
		41 -- 47
		41 -- 51
		41 -- 53
		41 -- 57
		41 -- 59
		41 -- 63
		41 -- 65
		41 -- 66
		41 -- 67
		41 -- 68
		41 -- 71
		41 -- 72
		41 -- 73
		41 -- 74
		41 -- 76
		41 -- 77
		41 -- 78
		41 -- 80
		41 -- 85
		41 -- 87
		41 -- 91
		41 -- 96
		41 -- 99
		42 -- 65
		42 -- 68
		42 -- 69
		42 -- 70
		42 -- 71
		42 -- 72
		42 -- 73
		42 -- 75
		42 -- 83
		42 -- 78
		42 -- 94
		42 -- 97
		42 -- 99
		42 -- 95
		42 -- 82
		42 -- 47
		42 -- 51
		42 -- 52
		42 -- 77
		42 -- 54
		42 -- 56
		42 -- 57
		42 -- 87
		42 -- 59
		42 -- 85
		43 -- 44
		43 -- 50
		43 -- 51
		43 -- 52
		43 -- 57
		43 -- 60
		43 -- 67
		43 -- 70
		43 -- 73
		43 -- 77
		43 -- 80
		43 -- 81
		43 -- 82
		43 -- 84
		43 -- 88
		43 -- 90
		43 -- 92
		43 -- 93
		43 -- 95
		43 -- 96
		43 -- 97
		43 -- 99
		44 -- 45
		44 -- 47
		44 -- 51
		44 -- 52
		44 -- 54
		44 -- 55
		44 -- 56
		44 -- 61
		44 -- 63
		44 -- 65
		44 -- 66
		44 -- 67
		44 -- 68
		44 -- 71
		44 -- 72
		44 -- 74
		44 -- 75
		44 -- 76
		44 -- 78
		44 -- 81
		44 -- 88
		44 -- 89
		44 -- 90
		44 -- 91
		44 -- 93
		44 -- 94
		44 -- 95
		44 -- 98
		44 -- 99
		45 -- 46
		45 -- 47
		45 -- 49
		45 -- 50
		45 -- 53
		45 -- 55
		45 -- 60
		45 -- 62
		45 -- 69
		45 -- 71
		45 -- 72
		45 -- 73
		45 -- 75
		45 -- 82
		45 -- 83
		45 -- 84
		45 -- 85
		45 -- 88
		45 -- 89
		45 -- 92
		45 -- 94
		45 -- 96
		46 -- 48
		46 -- 49
		46 -- 50
		46 -- 51
		46 -- 52
		46 -- 56
		46 -- 57
		46 -- 58
		46 -- 60
		46 -- 61
		46 -- 65
		46 -- 66
		46 -- 67
		46 -- 68
		46 -- 69
		46 -- 72
		46 -- 75
		46 -- 78
		46 -- 84
		46 -- 85
		46 -- 86
		46 -- 88
		46 -- 90
		46 -- 91
		46 -- 92
		46 -- 99
		47 -- 49
		47 -- 50
		47 -- 51
		47 -- 54
		47 -- 56
		47 -- 58
		47 -- 60
		47 -- 62
		47 -- 63
		47 -- 64
		47 -- 67
		47 -- 68
		47 -- 69
		47 -- 70
		47 -- 71
		47 -- 72
		47 -- 79
		47 -- 80
		47 -- 81
		47 -- 83
		47 -- 85
		47 -- 86
		47 -- 87
		47 -- 89
		47 -- 90
		47 -- 93
		47 -- 94
		47 -- 95
		47 -- 97
		48 -- 65
		48 -- 72
		48 -- 76
		48 -- 66
		48 -- 79
		48 -- 75
		48 -- 83
		48 -- 86
		48 -- 88
		48 -- 98
		48 -- 92
		48 -- 94
		48 -- 95
		48 -- 71
		48 -- 82
		48 -- 93
		48 -- 49
		48 -- 50
		48 -- 52
		48 -- 54
		48 -- 55
		48 -- 56
		48 -- 87
		48 -- 59
		48 -- 60
		48 -- 74
		49 -- 51
		49 -- 53
		49 -- 54
		49 -- 55
		49 -- 57
		49 -- 59
		49 -- 60
		49 -- 61
		49 -- 64
		49 -- 65
		49 -- 66
		49 -- 72
		49 -- 75
		49 -- 76
		49 -- 77
		49 -- 78
		49 -- 79
		49 -- 80
		49 -- 81
		49 -- 83
		49 -- 84
		49 -- 88
		49 -- 90
		49 -- 91
		49 -- 93
		49 -- 94
		49 -- 96
		49 -- 97
		49 -- 99
		50 -- 51
		50 -- 61
		50 -- 62
		50 -- 63
		50 -- 64
		50 -- 65
		50 -- 67
		50 -- 68
		50 -- 69
		50 -- 72
		50 -- 73
		50 -- 74
		50 -- 75
		50 -- 77
		50 -- 78
		50 -- 79
		50 -- 80
		50 -- 81
		50 -- 82
		50 -- 84
		50 -- 86
		50 -- 88
		50 -- 89
		50 -- 90
		50 -- 91
		50 -- 93
		50 -- 95
		50 -- 97
		51 -- 53
		51 -- 56
		51 -- 57
		51 -- 58
		51 -- 60
		51 -- 61
		51 -- 63
		51 -- 67
		51 -- 68
		51 -- 70
		51 -- 74
		51 -- 76
		51 -- 77
		51 -- 78
		51 -- 79
		51 -- 85
		51 -- 86
		51 -- 87
		51 -- 93
		51 -- 94
		51 -- 95
		51 -- 97
		51 -- 98
		51 -- 99
		52 -- 55
		52 -- 60
		52 -- 61
		52 -- 62
		52 -- 63
		52 -- 66
		52 -- 67
		52 -- 69
		52 -- 71
		52 -- 74
		52 -- 75
		52 -- 77
		52 -- 80
		52 -- 81
		52 -- 82
		52 -- 86
		52 -- 88
		52 -- 90
		52 -- 92
		52 -- 98
		53 -- 65
		53 -- 69
		53 -- 71
		53 -- 76
		53 -- 89
		53 -- 92
		53 -- 82
		53 -- 86
		53 -- 97
		53 -- 81
		53 -- 87
		53 -- 54
		53 -- 73
		53 -- 84
		53 -- 85
		53 -- 95
		53 -- 74
		53 -- 62
		53 -- 63
		54 -- 65
		54 -- 68
		54 -- 69
		54 -- 75
		54 -- 73
		54 -- 66
		54 -- 79
		54 -- 88
		54 -- 67
		54 -- 85
		54 -- 97
		54 -- 91
		54 -- 56
		54 -- 87
		54 -- 59
		54 -- 61
		54 -- 86
		54 -- 63
		55 -- 64
		55 -- 66
		55 -- 97
		55 -- 75
		55 -- 77
		55 -- 80
		55 -- 83
		55 -- 84
		55 -- 86
		55 -- 90
		55 -- 79
		55 -- 93
		55 -- 96
		55 -- 95
		55 -- 82
		55 -- 56
		55 -- 59
		55 -- 60
		55 -- 61
		55 -- 62
		56 -- 57
		56 -- 58
		56 -- 59
		56 -- 62
		56 -- 63
		56 -- 65
		56 -- 67
		56 -- 69
		56 -- 70
		56 -- 71
		56 -- 72
		56 -- 74
		56 -- 75
		56 -- 77
		56 -- 78
		56 -- 79
		56 -- 80
		56 -- 81
		56 -- 82
		56 -- 84
		56 -- 85
		56 -- 87
		56 -- 89
		56 -- 94
		56 -- 97
		56 -- 98
		56 -- 99
		57 -- 60
		57 -- 61
		57 -- 62
		57 -- 63
		57 -- 64
		57 -- 65
		57 -- 67
		57 -- 68
		57 -- 70
		57 -- 71
		57 -- 72
		57 -- 75
		57 -- 77
		57 -- 78
		57 -- 79
		57 -- 80
		57 -- 82
		57 -- 84
		57 -- 85
		57 -- 86
		57 -- 87
		57 -- 91
		57 -- 92
		57 -- 93
		57 -- 94
		57 -- 96
		57 -- 97
		57 -- 98
		58 -- 72
		58 -- 77
		58 -- 67
		58 -- 90
		58 -- 86
		58 -- 75
		58 -- 94
		58 -- 68
		58 -- 98
		58 -- 92
		58 -- 82
		58 -- 76
		58 -- 73
		58 -- 95
		59 -- 62
		59 -- 64
		59 -- 66
		59 -- 68
		59 -- 71
		59 -- 74
		59 -- 75
		59 -- 76
		59 -- 78
		59 -- 79
		59 -- 80
		59 -- 82
		59 -- 86
		59 -- 87
		59 -- 88
		59 -- 89
		59 -- 90
		59 -- 92
		59 -- 93
		59 -- 95
		59 -- 96
		59 -- 99
		60 -- 63
		60 -- 65
		60 -- 66
		60 -- 67
		60 -- 70
		60 -- 71
		60 -- 74
		60 -- 76
		60 -- 77
		60 -- 79
		60 -- 80
		60 -- 82
		60 -- 84
		60 -- 89
		60 -- 90
		60 -- 92
		60 -- 93
		60 -- 94
		60 -- 95
		60 -- 96
		60 -- 97
		60 -- 99
		61 -- 65
		61 -- 66
		61 -- 75
		61 -- 76
		61 -- 79
		61 -- 82
		61 -- 83
		61 -- 84
		61 -- 85
		61 -- 88
		61 -- 89
		61 -- 90
		61 -- 92
		61 -- 93
		61 -- 94
		61 -- 95
		61 -- 98
		61 -- 99
		62 -- 63
		62 -- 64
		62 -- 65
		62 -- 66
		62 -- 68
		62 -- 69
		62 -- 71
		62 -- 76
		62 -- 77
		62 -- 78
		62 -- 79
		62 -- 81
		62 -- 83
		62 -- 84
		62 -- 85
		62 -- 88
		62 -- 89
		62 -- 91
		62 -- 95
		62 -- 97
		62 -- 98
		62 -- 99
		63 -- 66
		63 -- 67
		63 -- 74
		63 -- 78
		63 -- 80
		63 -- 83
		63 -- 84
		63 -- 85
		63 -- 86
		63 -- 88
		63 -- 90
		63 -- 91
		63 -- 96
		63 -- 97
		63 -- 98
		63 -- 99
		64 -- 65
		64 -- 69
		64 -- 73
		64 -- 74
		64 -- 79
		64 -- 80
		64 -- 81
		64 -- 82
		64 -- 83
		64 -- 84
		64 -- 85
		64 -- 91
		64 -- 92
		64 -- 93
		64 -- 95
		64 -- 97
		64 -- 98
		64 -- 99
		65 -- 67
		65 -- 68
		65 -- 69
		65 -- 70
		65 -- 71
		65 -- 74
		65 -- 75
		65 -- 76
		65 -- 78
		65 -- 79
		65 -- 80
		65 -- 81
		65 -- 82
		65 -- 84
		65 -- 85
		65 -- 88
		65 -- 89
		65 -- 91
		65 -- 94
		65 -- 96
		65 -- 97
		65 -- 98
		66 -- 67
		66 -- 71
		66 -- 73
		66 -- 75
		66 -- 78
		66 -- 79
		66 -- 80
		66 -- 81
		66 -- 82
		66 -- 84
		66 -- 86
		66 -- 89
		66 -- 91
		66 -- 92
		66 -- 95
		66 -- 97
		66 -- 98
		66 -- 99
		67 -- 69
		67 -- 71
		67 -- 72
		67 -- 74
		67 -- 75
		67 -- 80
		67 -- 87
		67 -- 88
		67 -- 89
		67 -- 90
		67 -- 91
		67 -- 92
		67 -- 93
		67 -- 94
		67 -- 96
		67 -- 97
		67 -- 99
		68 -- 69
		68 -- 70
		68 -- 72
		68 -- 75
		68 -- 78
		68 -- 81
		68 -- 83
		68 -- 84
		68 -- 86
		68 -- 90
		68 -- 93
		68 -- 96
		68 -- 98
		69 -- 70
		69 -- 71
		69 -- 73
		69 -- 74
		69 -- 75
		69 -- 76
		69 -- 79
		69 -- 80
		69 -- 82
		69 -- 86
		69 -- 88
		69 -- 89
		69 -- 91
		69 -- 92
		69 -- 93
		69 -- 94
		69 -- 96
		69 -- 97
		69 -- 98
		70 -- 75
		70 -- 77
		70 -- 85
		70 -- 91
		70 -- 88
		70 -- 84
		70 -- 96
		70 -- 82
		70 -- 93
		70 -- 72
		70 -- 87
		71 -- 72
		71 -- 77
		71 -- 78
		71 -- 81
		71 -- 84
		71 -- 85
		71 -- 89
		71 -- 90
		71 -- 92
		71 -- 93
		71 -- 96
		72 -- 73
		72 -- 75
		72 -- 77
		72 -- 78
		72 -- 80
		72 -- 82
		72 -- 83
		72 -- 85
		72 -- 88
		72 -- 89
		72 -- 92
		72 -- 94
		72 -- 97
		72 -- 99
		73 -- 74
		73 -- 75
		73 -- 76
		73 -- 77
		73 -- 80
		73 -- 81
		73 -- 84
		73 -- 85
		73 -- 86
		73 -- 87
		73 -- 91
		73 -- 93
		73 -- 94
		73 -- 96
		73 -- 99
		74 -- 76
		74 -- 78
		74 -- 88
		74 -- 89
		74 -- 90
		74 -- 92
		74 -- 93
		74 -- 96
		74 -- 99
		75 -- 76
		75 -- 78
		75 -- 83
		75 -- 86
		75 -- 88
		75 -- 89
		75 -- 91
		75 -- 92
		75 -- 95
		76 -- 79
		76 -- 80
		76 -- 81
		76 -- 88
		76 -- 89
		76 -- 91
		76 -- 92
		76 -- 94
		76 -- 97
		76 -- 98
		77 -- 78
		77 -- 79
		77 -- 84
		77 -- 87
		77 -- 88
		77 -- 89
		77 -- 90
		77 -- 91
		77 -- 94
		77 -- 95
		77 -- 98
		78 -- 79
		78 -- 80
		78 -- 83
		78 -- 84
		78 -- 85
		78 -- 86
		78 -- 88
		78 -- 90
		78 -- 91
		78 -- 92
		78 -- 93
		78 -- 95
		78 -- 96
		78 -- 97
		79 -- 80
		79 -- 82
		79 -- 83
		79 -- 84
		79 -- 86
		79 -- 87
		79 -- 88
		79 -- 89
		79 -- 92
		79 -- 96
		79 -- 97
		79 -- 98
		79 -- 99
		80 -- 81
		80 -- 82
		80 -- 83
		80 -- 84
		80 -- 88
		80 -- 93
		80 -- 94
		80 -- 95
		80 -- 98
		81 -- 82
		81 -- 84
		81 -- 85
		81 -- 86
		81 -- 87
		81 -- 88
		81 -- 92
		81 -- 93
		81 -- 94
		81 -- 96
		81 -- 97
		81 -- 98
		81 -- 99
		82 -- 83
		82 -- 84
		82 -- 85
		82 -- 86
		82 -- 88
		82 -- 92
		82 -- 93
		82 -- 99
		83 -- 84
		83 -- 89
		83 -- 90
		83 -- 91
		83 -- 92
		83 -- 95
		83 -- 99
		84 -- 86
		84 -- 87
		84 -- 89
		84 -- 94
		84 -- 97
		84 -- 99
		85 -- 86
		85 -- 89
		85 -- 90
		85 -- 91
		85 -- 92
		85 -- 95
		85 -- 98
		85 -- 99
		86 -- 87
		86 -- 89
		86 -- 90
		86 -- 93
		86 -- 94
		86 -- 96
		86 -- 97
		86 -- 98
		86 -- 99
		87 -- 96
		87 -- 92
		87 -- 98
		87 -- 99
		88 -- 90
		88 -- 91
		88 -- 94
		88 -- 96
		88 -- 97
		89 -- 90
		89 -- 91
		89 -- 94
		89 -- 96
		90 -- 96
		90 -- 97
		90 -- 98
		90 -- 99
		91 -- 93
		91 -- 94
		91 -- 96
		91 -- 98
		91 -- 99
		92 -- 94
		92 -- 95
		92 -- 97
		92 -- 99
		93 -- 98
		94 -- 96
		94 -- 97
		94 -- 98
		95 -- 96
		95 -- 97
		95 -- 99
		97 -- 98
		97 -- 99
		98 -- 99
}