100
28 116
60 99
125 193
238 268
190 128
204 226
269 76
274 262
123 228
62 197
279 19
202 18
222 195
147 139
82 235
149 282
123 153
120 234
157 30
209 34
294 211
253 190
103 193
281 182
169 73
66 30
232 81
30 98
282 179
273 8
176 209
295 283
88 281
107 18
72 56
171 260
271 175
123 235
238 158
177 299
293 269
256 257
115 38
208 195
37 85
264 127
258 94
174 70
126 255
168 214
246 138
136 285
279 152
297 176
135 78
37 75
1 66
129 89
133 223
43 176
235 6
261 139
43 166
196 73
17 47
63 72
119 2
124 292
228 250
274 145
51 70
61 55
65 65
216 272
265 159
94 76
57 6
58 67
178 157
116 158
273 33
59 25
291 50
87 243
76 15
243 158
206 1
96 120
86 221
104 53
91 267
76 142
104 263
278 293
190 95
270 3
188 157
26 156
67 152
167 52
0 2
0 3
0 4
0 5
0 7
0 9
0 12
0 13
0 16
0 17
0 19
0 25
0 27
0 29
0 31
0 32
0 34
0 36
0 39
0 42
0 43
0 44
0 45
0 47
0 49
0 52
0 54
0 57
0 59
0 60
0 61
0 64
0 67
0 70
0 71
0 72
0 74
0 76
0 78
0 80
0 81
0 85
0 86
0 87
0 90
0 91
0 95
0 99
1 64
1 65
1 68
1 69
1 72
1 9
1 74
1 12
1 86
1 78
1 17
1 18
1 83
1 22
1 87
1 24
1 25
1 90
1 28
1 29
1 30
1 31
1 34
1 99
1 36
1 39
1 42
1 43
1 93
1 94
1 51
1 53
1 54
1 57
1 58
1 60
1 61
2 3
2 5
2 9
2 10
2 11
2 15
2 17
2 18
2 19
2 20
2 21
2 22
2 23
2 27
2 29
2 34
2 35
2 36
2 37
2 38
2 41
2 42
2 45
2 46
2 47
2 51
2 53
2 56
2 57
2 61
2 62
2 64
2 69
2 70
2 75
2 82
2 83
2 84
2 85
2 86
2 88
2 89
2 91
2 93
2 94
2 96
3 64
3 75
3 66
3 68
3 65
3 72
3 9
3 11
3 12
3 13
3 78
3 15
3 99
3 20
3 96
3 86
3 23
3 88
3 25
3 26
3 27
3 32
3 35
3 36
3 37
3 38
3 39
3 71
3 45
3 46
3 48
3 49
3 76
3 56
3 57
3 59
3 60
3 61
3 62
4 5
4 7
4 9
4 10
4 14
4 15
4 16
4 17
4 19
4 20
4 24
4 29
4 31
4 32
4 33
4 34
4 37
4 39
4 41
4 42
4 44
4 45
4 46
4 51
4 58
4 59
4 62
4 64
4 65
4 71
4 73
4 74
4 75
4 76
4 80
4 81
4 82
4 83
4 85
4 86
4 87
4 91
4 93
4 94
4 95
4 96
4 99
5 65
5 75
5 69
5 6
5 8
5 10
5 11
5 77
5 78
5 79
5 16
5 81
5 18
5 83
5 21
5 23
5 88
5 25
5 91
5 29
5 30
5 68
5 33
5 98
5 35
5 39
5 41
5 43
5 82
5 46
5 47
5 50
5 94
5 55
5 87
5 60
5 74
5 62
6 7
6 8
6 10
6 11
6 13
6 14
6 15
6 16
6 19
6 22
6 24
6 26
6 27
6 31
6 32
6 34
6 38
6 39
6 40
6 42
6 43
6 44
6 45
6 48
6 51
6 52
6 54
6 56
6 58
6 60
6 61
6 67
6 68
6 69
6 70
6 73
6 77
6 79
6 80
6 81
6 83
6 87
6 89
6 92
6 93
6 95
6 97
6 99
7 8
7 9
7 11
7 16
7 17
7 18
7 20
7 26
7 30
7 31
7 32
7 36
7 37
7 38
7 40
7 41
7 43
7 45
7 47
7 48
7 49
7 51
7 53
7 55
7 56
7 59
7 60
7 61
7 62
7 64
7 67
7 69
7 70
7 72
7 73
7 74
7 75
7 79
7 82
7 83
7 84
7 87
7 89
7 90
7 91
7 92
7 94
7 96
7 97
8 9
8 11
8 12
8 14
8 16
8 17
8 19
8 20
8 21
8 23
8 26
8 28
8 31
8 32
8 35
8 36
8 39
8 40
8 43
8 44
8 45
8 47
8 48
8 52
8 53
8 54
8 55
8 59
8 60
8 63
8 64
8 65
8 67
8 68
8 70
8 71
8 73
8 74
8 83
8 84
8 86
8 87
8 89
8 91
8 92
8 94
8 96
8 97
8 98
9 10
9 12
9 16
9 18
9 19
9 20
9 22
9 24
9 26
9 27
9 28
9 29
9 30
9 31
9 32
9 38
9 39
9 40
9 41
9 42
9 43
9 44
9 47
9 51
9 52
9 54
9 57
9 62
9 63
9 64
9 65
9 66
9 72
9 75
9 76
9 80
9 82
9 83
9 84
9 85
9 86
9 87
9 88
9 90
9 94
9 96
10 11
10 15
10 16
10 18
10 19
10 20
10 21
10 27
10 29
10 31
10 32
10 36
10 38
10 40
10 43
10 45
10 46
10 47
10 48
10 49
10 51
10 56
10 57
10 58
10 60
10 62
10 65
10 67
10 73
10 74
10 75
10 83
10 84
10 90
10 91
10 93
10 94
10 97
10 99
11 12
11 16
11 20
11 24
11 26
11 27
11 28
11 30
11 32
11 35
11 36
11 37
11 41
11 42
11 47
11 51
11 57
11 58
11 59
11 60
11 62
11 63
11 67
11 72
11 73
11 75
11 78
11 80
11 81
11 82
11 86
11 87
11 89
11 90
11 91
11 93
11 97
11 98
12 13
12 16
12 18
12 19
12 21
12 23
12 24
12 26
12 27
12 29
12 32
12 34
12 36
12 38
12 40
12 41
12 42
12 44
12 45
12 46
12 47
12 48
12 59
12 60
12 61
12 62
12 63
12 64
12 65
12 68
12 69
12 71
12 72
12 76
12 77
12 78
12 79
12 80
12 82
12 85
12 87
12 89
12 90
12 92
12 93
12 94
12 95
12 96
12 97
12 99
13 14
13 17
13 19
13 23
13 24
13 25
13 26
13 32
13 33
13 37
13 38
13 41
13 42
13 43
13 44
13 45
13 46
13 49
13 52
13 53
13 55
13 57
13 58
13 60
13 61
13 66
13 67
13 69
13 71
13 76
13 77
13 78
13 79
13 84
13 85
13 86
13 87
13 88
13 89
13 90
13 91
13 93
13 96
13 98
13 99
14 15
14 17
14 18
14 19
14 20
14 21
14 24
14 25
14 26
14 27
14 29
14 34
14 35
14 36
14 39
14 40
14 43
14 45
14 46
14 47
14 48
14 49
14 50
14 51
14 55
14 59
14 60
14 61
14 62
14 64
14 65
14 66
14 68
14 69
14 70
14 72
14 73
14 74
14 76
14 77
14 84
14 90
14 95
14 96
15 17
15 18
15 22
15 24
15 25
15 27
15 28
15 29
15 30
15 39
15 40
15 41
15 42
15 43
15 44
15 45
15 48
15 49
15 51
15 54
15 55
15 56
15 57
15 58
15 59
15 60
15 61
15 62
15 64
15 67
15 69
15 74
15 76
15 77
15 78
15 79
15 80
15 83
15 84
15 86
15 87
15 88
15 90
15 91
15 92
15 93
15 94
15 96
15 97
15 99
16 18
16 19
16 21
16 23
16 24
16 25
16 27
16 28
16 29
16 30
16 32
16 33
16 35
16 39
16 40
16 42
16 43
16 44
16 45
16 46
16 48
16 49
16 50
16 52
16 53
16 54
16 55
16 56
16 58
16 60
16 62
16 63
16 66
16 67
16 71
16 73
16 74
16 76
16 79
16 83
16 85
16 87
16 89
16 90
16 91
16 92
16 93
16 95
16 96
16 98
17 18
17 19
17 21
17 27
17 30
17 31
17 32
17 36
17 38
17 40
17 43
17 48
17 49
17 50
17 51
17 53
17 55
17 58
17 59
17 61
17 65
17 69
17 72
17 74
17 75
17 77
17 78
17 80
17 81
17 83
17 85
17 86
17 89
17 93
17 94
17 95
17 97
17 98
18 19
18 24
18 25
18 29
18 36
18 38
18 40
18 43
18 44
18 45
18 46
18 48
18 51
18 53
18 54
18 57
18 58
18 60
18 61
18 63
18 65
18 66
18 68
18 69
18 71
18 72
18 74
18 75
18 79
18 80
18 83
18 84
18 85
18 89
18 90
18 92
18 93
18 94
18 96
18 97
18 99
19 21
19 22
19 26
19 27
19 28
19 29
19 32
19 33
19 37
19 41
19 44
19 50
19 51
19 52
19 54
19 55
19 56
19 57
19 59
19 61
19 62
19 63
19 64
19 66
19 67
19 68
19 69
19 72
19 75
19 78
19 79
19 80
19 81
19 83
19 86
19 87
19 89
19 90
19 92
19 93
19 94
19 95
19 97
19 98
19 99
20 22
20 24
20 27
20 30
20 32
20 33
20 34
20 37
20 38
20 39
20 40
20 41
20 42
20 44
20 45
20 46
20 48
20 52
20 53
20 56
20 57
20 58
20 59
20 60
20 61
20 62
20 63
20 69
20 70
20 76
20 78
20 80
20 82
20 83
20 84
20 86
20 87
20 89
20 90
20 94
20 96
20 98
20 99
21 25
21 29
21 32
21 33
21 34
21 36
21 37
21 42
21 44
21 45
21 49
21 53
21 55
21 56
21 57
21 58
21 59
21 61
21 64
21 65
21 67
21 68
21 69
21 72
21 74
21 75
21 79
21 81
21 84
21 87
21 88
21 92
21 93
21 95
21 96
21 99
22 23
22 26
22 27
22 29
22 31
22 36
22 38
22 39
22 42
22 43
22 44
22 46
22 47
22 48
22 50
22 51
22 52
22 53
22 54
22 55
22 57
22 59
22 60
22 65
22 66
22 67
22 68
22 72
22 73
22 74
22 76
22 77
22 79
22 80
22 84
22 85
22 88
22 89
22 92
22 95
22 97
22 99
23 26
23 27
23 28
23 31
23 32
23 34
23 35
23 36
23 39
23 41
23 44
23 45
23 46
23 48
23 51
23 53
23 56
23 57
23 58
23 63
23 64
23 68
23 70
23 72
23 74
23 75
23 76
23 77
23 81
23 82
23 84
23 88
23 91
23 92
23 93
23 94
23 96
23 99
24 25
24 28
24 31
24 33
24 35
24 37
24 41
24 42
24 45
24 46
24 51
24 53
24 54
24 55
24 57
24 59
24 64
24 67
24 68
24 69
24 71
24 72
24 75
24 76
24 78
24 80
24 83
24 87
24 88
24 89
24 90
24 92
24 94
24 98
25 26
25 28
25 29
25 30
25 33
25 34
25 35
25 36
25 38
25 39
25 40
25 41
25 42
25 43
25 45
25 46
25 47
25 49
25 55
25 57
25 58
25 67
25 69
25 72
25 74
25 75
25 76
25 77
25 78
25 81
25 85
25 89
25 92
25 93
25 94
25 95
25 99
26 27
26 29
26 30
26 31
26 32
26 34
26 39
26 40
26 43
26 44
26 47
26 48
26 51
26 53
26 54
26 55
26 58
26 59
26 60
26 61
26 62
26 66
26 67
26 68
26 69
26 70
26 73
26 75
26 76
26 78
26 79
26 80
26 81
26 84
26 85
26 86
26 92
26 94
26 95
26 96
26 98
26 99
27 29
27 31
27 34
27 38
27 40
27 41
27 44
27 46
27 48
27 52
27 53
27 55
27 56
27 61
27 62
27 64
27 66
27 67
27 68
27 69
27 70
27 71
27 73
27 74
27 75
27 77
27 81
27 82
27 86
27 87
27 88
27 90
27 91
27 93
27 95
27 96
27 97
27 99
28 29
28 31
28 32
28 33
28 35
28 36
28 38
28 40
28 41
28 42
28 45
28 46
28 47
28 49
28 51
28 54
28 55
28 58
28 61
28 63
28 65
28 66
28 71
28 75
28 76
28 77
28 78
28 79
28 80
28 81
28 82
28 83
28 85
28 88
28 89
28 90
28 92
28 94
28 97
29 31
29 34
29 36
29 37
29 39
29 40
29 44
29 45
29 46
29 47
29 49
29 51
29 53
29 57
29 59
29 60
29 62
29 64
29 65
29 66
29 70
29 71
29 74
29 76
29 78
29 79
29 81
29 82
29 83
29 86
29 88
29 93
29 94
29 95
29 96
29 98
29 99
30 31
30 32
30 35
30 36
30 38
30 39
30 40
30 42
30 44
30 45
30 46
30 50
30 51
30 54
30 55
30 57
30 60
30 61
30 63
30 64
30 65
30 66
30 67
30 69
30 72
30 73
30 76
30 78
30 80
30 81
30 83
30 84
30 91
30 93
30 97
30 98
31 36
31 39
31 41
31 45
31 46
31 47
31 48
31 51
31 52
31 53
31 54
31 56
31 57
31 60
31 63
31 64
31 65
31 66
31 68
31 69
31 71
31 73
31 75
31 77
31 78
31 79
31 81
31 83
31 85
31 87
31 89
31 94
31 95
31 98
31 99
32 36
32 37
32 40
32 41
32 43
32 46
32 48
32 49
32 52
32 53
32 54
32 55
32 57
32 58
32 59
32 62
32 64
32 69
32 70
32 72
32 73
32 75
32 77
32 79
32 80
32 83
32 85
32 86
32 87
32 89
32 91
32 93
32 99
33 34
33 35
33 37
33 38
33 39
33 41
33 42
33 45
33 46
33 48
33 49
33 50
33 51
33 52
33 56
33 57
33 62
33 63
33 64
33 68
33 69
33 70
33 72
33 73
33 75
33 76
33 80
33 83
33 84
33 88
33 89
33 90
33 92
33 93
33 96
33 99
34 35
34 37
34 40
34 41
34 42
34 43
34 44
34 48
34 50
34 51
34 52
34 53
34 56
34 57
34 61
34 66
34 67
34 68
34 71
34 73
34 74
34 75
34 77
34 78
34 79
34 82
34 83
34 85
34 90
34 93
34 94
34 97
34 98
35 36
35 37
35 38
35 42
35 45
35 46
35 48
35 50
35 53
35 56
35 57
35 58
35 59
35 60
35 61
35 63
35 64
35 69
35 71
35 72
35 73
35 74
35 77
35 79
35 80
35 82
35 86
35 88
35 89
35 91
35 92
35 93
35 94
35 95
35 98
35 99
36 37
36 39
36 40
36 41
36 42
36 50
36 51
36 52
36 55
36 58
36 64
36 67
36 68
36 72
36 73
36 74
36 77
36 78
36 80
36 81
36 82
36 83
36 84
36 86
36 87
36 88
36 92
36 98
37 39
37 40
37 48
37 52
37 56
37 58
37 60
37 62
37 64
37 66
37 67
37 68
37 70
37 72
37 75
37 77
37 80
37 83
37 85
37 86
37 88
37 89
37 91
37 93
37 94
37 95
37 96
37 97
38 41
38 44
38 45
38 46
38 47
38 48
38 52
38 56
38 58
38 61
38 62
38 63
38 64
38 65
38 66
38 67
38 69
38 70
38 74
38 76
38 78
38 79
38 81
38 82
38 84
38 85
38 87
38 89
38 91
38 92
38 93
38 94
38 97
38 98
39 41
39 42
39 51
39 52
39 55
39 57
39 59
39 61
39 62
39 63
39 65
39 66
39 67
39 70
39 71
39 72
39 73
39 75
39 77
39 78
39 80
39 82
39 84
39 89
39 90
39 93
39 94
39 96
39 97
39 99
40 42
40 43
40 47
40 49
40 51
40 52
40 54
40 55
40 56
40 58
40 59
40 60
40 61
40 63
40 65
40 68
40 69
40 71
40 72
40 74
40 76
40 77
40 78
40 80
40 86
40 89
40 90
40 91
40 92
40 93
40 94
40 97
41 42
41 43
41 46
41 48
41 52
41 55
41 56
41 59
41 62
41 63
41 64
41 66
41 70
41 71
41 72
41 73
41 74
41 77
41 79
41 80
41 81
41 82
41 87
41 88
41 92
41 94
42 47
42 48
42 49
42 52
42 53
42 54
42 56
42 60
42 63
42 64
42 65
42 66
42 72
42 74
42 77
42 78
42 80
42 82
42 84
42 85
42 88
42 90
42 92
42 94
42 95
42 96
42 97
42 98
43 46
43 49
43 54
43 55
43 56
43 59
43 60
43 62
43 63
43 64
43 65
43 68
43 75
43 78
43 81
43 82
43 83
43 84
43 86
43 88
43 90
43 91
43 92
43 93
43 94
43 95
43 96
43 98
43 99
44 45
44 48
44 50
44 51
44 54
44 57
44 58
44 60
44 61
44 63
44 66
44 68
44 71
44 72
44 73
44 74
44 75
44 78
44 83
44 84
44 86
44 88
44 91
44 94
44 95
44 96
44 98
45 46
45 49
45 51
45 52
45 55
45 56
45 57
45 61
45 65
45 66
45 68
45 71
45 72
45 73
45 74
45 77
45 78
45 81
45 83
45 85
45 91
45 93
45 96
45 97
45 98
45 99
46 47
46 48
46 51
46 52
46 53
46 55
46 56
46 57
46 61
46 62
46 63
46 64
46 67
46 68
46 69
46 71
46 72
46 73
46 74
46 77
46 80
46 81
46 82
46 85
46 89
46 90
46 92
46 93
46 94
46 97
46 98
46 99
47 48
47 49
47 50
47 52
47 55
47 56
47 58
47 59
47 63
47 64
47 65
47 67
47 68
47 70
47 72
47 75
47 76
47 78
47 80
47 81
47 82
47 83
47 89
47 90
47 91
47 92
47 93
47 94
47 97
47 98
47 99
48 51
48 53
48 54
48 55
48 56
48 57
48 60
48 61
48 62
48 64
48 68
48 69
48 70
48 72
48 77
48 78
48 81
48 82
48 83
48 84
48 86
48 87
48 88
48 90
48 92
48 94
48 95
48 98
49 50
49 52
49 53
49 56
49 57
49 58
49 66
49 67
49 69
49 70
49 72
49 75
49 80
49 81
49 82
49 84
49 85
49 86
49 88
49 90
49 91
49 92
49 93
49 96
49 97
49 99
50 66
50 67
50 71
50 72
50 74
50 79
50 82
50 78
50 87
50 88
50 90
50 92
50 93
50 69
50 97
50 80
50 53
50 54
50 56
50 57
50 58
50 60
50 61
50 85
51 52
51 53
51 54
51 57
51 58
51 60
51 63
51 66
51 67
51 69
51 70
51 72
51 79
51 81
51 84
51 89
51 90
51 92
51 94
51 96
51 98
51 99
52 57
52 58
52 59
52 60
52 64
52 65
52 66
52 71
52 74
52 75
52 76
52 77
52 79
52 83
52 84
52 88
52 89
52 91
52 94
52 99
53 54
53 56
53 57
53 59
53 65
53 68
53 69
53 70
53 71
53 73
53 75
53 78
53 81
53 82
53 84
53 86
53 88
53 92
53 96
53 98
54 66
54 71
54 69
54 65
54 94
54 81
54 84
54 88
54 91
54 80
54 98
54 72
54 56
54 57
54 59
54 60
54 63
55 56
55 57
55 60
55 62
55 65
55 66
55 69
55 71
55 73
55 75
55 76
55 78
55 79
55 81
55 82
55 84
55 85
55 86
55 89
55 91
55 92
55 93
55 94
55 99
56 60
56 61
56 64
56 65
56 67
56 68
56 75
56 77
56 78
56 81
56 82
56 83
56 84
56 86
56 89
56 90
56 91
56 94
56 97
56 99
57 58
57 61
57 62
57 63
57 65
57 68
57 71
57 73
57 74
57 75
57 79
57 81
57 83
57 85
57 87
57 89
57 90
57 93
57 95
57 98
57 99
58 64
58 69
58 70
58 77
58 78
58 79
58 80
58 82
58 83
58 87
58 90
58 94
58 95
58 96
58 97
58 98
59 60
59 64
59 65
59 66
59 67
59 68
59 70
59 71
59 73
59 74
59 77
59 78
59 80
59 82
59 85
59 86
59 96
59 98
60 61
60 66
60 68
60 69
60 72
60 74
60 76
60 77
60 79
60 80
60 82
60 83
60 87
60 88
60 89
60 90
60 91
60 93
60 94
60 97
61 62
61 64
61 65
61 66
61 67
61 71
61 73
61 74
61 77
61 79
61 80
61 81
61 83
61 84
61 88
61 90
61 94
61 96
61 97
61 98
62 66
62 67
62 68
62 77
62 79
62 80
62 81
62 82
62 85
62 86
62 87
62 88
62 89
62 90
62 94
62 97
62 98
62 99
63 64
63 66
63 67
63 68
63 69
63 70
63 78
63 79
63 80
63 81
63 83
63 84
63 86
63 87
63 90
63 92
63 94
63 95
63 96
64 66
64 67
64 68
64 70
64 72
64 76
64 82
64 83
64 84
64 85
64 87
64 88
64 89
64 90
64 93
64 94
64 96
64 97
65 66
65 68
65 71
65 74
65 75
65 76
65 78
65 80
65 83
65 84
65 85
65 86
65 87
65 88
65 90
65 91
65 93
65 95
65 96
65 98
65 99
66 70
66 72
66 73
66 75
66 76
66 77
66 78
66 79
66 81
66 83
66 84
66 87
66 88
66 90
66 91
66 92
66 94
67 83
67 86
67 73
67 76
67 77
67 88
67 79
67 96
67 85
68 71
68 72
68 75
68 77
68 79
68 80
68 81
68 82
68 84
68 85
68 89
68 91
68 92
68 94
68 96
69 73
69 75
69 76
69 80
69 81
69 82
69 83
69 86
69 90
69 91
69 92
69 94
69 95
69 96
69 97
70 97
70 73
70 74
70 79
70 82
70 83
70 78
70 86
70 88
70 94
70 90
70 71
70 96
70 99
71 98
71 77
71 81
71 99
71 84
71 86
71 87
71 90
71 97
72 74
72 78
72 83
72 84
72 85
72 87
72 90
72 91
72 92
72 95
72 96
72 97
72 98
72 99
73 74
73 76
73 79
73 80
73 81
73 82
73 88
73 89
73 90
73 92
73 93
73 95
73 96
73 97
74 76
74 78
74 79
74 81
74 82
74 86
74 88
74 90
74 91
74 93
74 96
74 99
75 76
75 77
75 78
75 81
75 83
75 84
75 86
75 87
75 89
75 90
75 92
75 93
75 94
75 95
75 99
76 77
76 78
76 80
76 81
76 82
76 83
76 85
76 88
76 89
76 90
76 91
76 93
76 94
76 95
76 96
77 79
77 82
77 85
77 86
77 88
77 89
77 91
77 93
77 94
77 98
78 79
78 80
78 81
78 82
78 83
78 86
78 91
78 92
78 98
78 99
79 81
79 82
79 83
79 84
79 89
79 91
79 92
79 93
79 94
79 95
80 82
80 85
80 87
80 88
80 93
80 95
80 96
80 98
80 99
81 87
81 90
81 91
81 94
81 97
82 85
82 86
82 88
82 89
82 90
82 91
82 94
82 95
82 98
83 84
83 85
83 89
83 90
83 92
83 94
83 95
83 97
83 98
84 86
84 87
84 89
84 92
84 93
84 94
84 95
84 96
84 97
85 88
85 90
85 92
85 95
85 97
85 98
85 99
86 87
86 89
86 90
86 93
86 95
86 96
86 97
87 88
87 89
87 90
87 92
87 93
87 94
87 95
87 96
87 97
87 98
87 99
88 90
88 95
88 98
88 99
89 90
89 92
89 98
89 99
90 95
90 97
91 98
92 97
92 98
92 99
93 96
93 99
94 95
94 96
94 97
94 98
95 98
96 97
97 98
