graph {
		0 -- 2
		0 -- 5
		0 -- 8
		0 -- 10
		0 -- 12
		0 -- 15
		0 -- 18
		0 -- 21
		0 -- 23
		0 -- 26
		0 -- 28
		0 -- 29
		0 -- 30
		0 -- 31
		0 -- 32
		0 -- 33
		0 -- 35
		0 -- 37
		0 -- 40
		0 -- 45
		0 -- 46
		0 -- 47
		0 -- 48
		0 -- 49
		0 -- 50
		0 -- 51
		0 -- 54
		0 -- 64
		0 -- 65
		0 -- 67
		0 -- 68
		0 -- 69
		0 -- 70
		0 -- 75
		0 -- 77
		0 -- 78
		0 -- 80
		0 -- 81
		0 -- 82
		0 -- 83
		0 -- 86
		0 -- 88
		0 -- 89
		0 -- 92
		0 -- 97
		0 -- 98
		1 -- 3
		1 -- 4
		1 -- 6
		1 -- 8
		1 -- 9
		1 -- 11
		1 -- 15
		1 -- 18
		1 -- 23
		1 -- 25
		1 -- 27
		1 -- 28
		1 -- 34
		1 -- 37
		1 -- 38
		1 -- 39
		1 -- 41
		1 -- 42
		1 -- 45
		1 -- 46
		1 -- 48
		1 -- 49
		1 -- 52
		1 -- 53
		1 -- 54
		1 -- 55
		1 -- 57
		1 -- 58
		1 -- 61
		1 -- 62
		1 -- 63
		1 -- 67
		1 -- 68
		1 -- 70
		1 -- 72
		1 -- 73
		1 -- 75
		1 -- 76
		1 -- 79
		1 -- 82
		1 -- 86
		1 -- 91
		1 -- 93
		1 -- 95
		1 -- 96
		1 -- 99
		2 -- 3
		2 -- 4
		2 -- 8
		2 -- 9
		2 -- 10
		2 -- 11
		2 -- 12
		2 -- 13
		2 -- 16
		2 -- 22
		2 -- 26
		2 -- 27
		2 -- 28
		2 -- 31
		2 -- 33
		2 -- 35
		2 -- 38
		2 -- 39
		2 -- 42
		2 -- 43
		2 -- 45
		2 -- 46
		2 -- 49
		2 -- 50
		2 -- 51
		2 -- 53
		2 -- 57
		2 -- 58
		2 -- 59
		2 -- 60
		2 -- 61
		2 -- 62
		2 -- 65
		2 -- 66
		2 -- 68
		2 -- 69
		2 -- 70
		2 -- 71
		2 -- 72
		2 -- 75
		2 -- 78
		2 -- 79
		2 -- 80
		2 -- 81
		2 -- 84
		2 -- 87
		2 -- 90
		2 -- 91
		2 -- 93
		2 -- 96
		2 -- 97
		3 -- 6
		3 -- 7
		3 -- 11
		3 -- 13
		3 -- 16
		3 -- 18
		3 -- 20
		3 -- 21
		3 -- 22
		3 -- 23
		3 -- 24
		3 -- 27
		3 -- 28
		3 -- 29
		3 -- 35
		3 -- 40
		3 -- 42
		3 -- 43
		3 -- 46
		3 -- 49
		3 -- 51
		3 -- 52
		3 -- 55
		3 -- 56
		3 -- 57
		3 -- 58
		3 -- 59
		3 -- 60
		3 -- 61
		3 -- 64
		3 -- 65
		3 -- 67
		3 -- 69
		3 -- 71
		3 -- 76
		3 -- 78
		3 -- 79
		3 -- 82
		3 -- 83
		3 -- 86
		3 -- 90
		3 -- 93
		3 -- 97
		3 -- 99
		4 -- 7
		4 -- 8
		4 -- 10
		4 -- 11
		4 -- 14
		4 -- 16
		4 -- 18
		4 -- 19
		4 -- 21
		4 -- 22
		4 -- 23
		4 -- 27
		4 -- 34
		4 -- 38
		4 -- 39
		4 -- 43
		4 -- 44
		4 -- 46
		4 -- 47
		4 -- 48
		4 -- 49
		4 -- 51
		4 -- 54
		4 -- 56
		4 -- 57
		4 -- 58
		4 -- 60
		4 -- 63
		4 -- 64
		4 -- 66
		4 -- 67
		4 -- 69
		4 -- 70
		4 -- 73
		4 -- 74
		4 -- 76
		4 -- 78
		4 -- 80
		4 -- 81
		4 -- 82
		4 -- 83
		4 -- 85
		4 -- 86
		4 -- 88
		4 -- 89
		4 -- 90
		4 -- 91
		4 -- 92
		4 -- 95
		4 -- 96
		4 -- 99
		5 -- 7
		5 -- 8
		5 -- 12
		5 -- 13
		5 -- 15
		5 -- 16
		5 -- 19
		5 -- 22
		5 -- 23
		5 -- 24
		5 -- 29
		5 -- 30
		5 -- 32
		5 -- 33
		5 -- 37
		5 -- 38
		5 -- 39
		5 -- 43
		5 -- 44
		5 -- 46
		5 -- 47
		5 -- 49
		5 -- 50
		5 -- 51
		5 -- 52
		5 -- 54
		5 -- 55
		5 -- 57
		5 -- 59
		5 -- 60
		5 -- 62
		5 -- 64
		5 -- 66
		5 -- 67
		5 -- 71
		5 -- 73
		5 -- 76
		5 -- 78
		5 -- 79
		5 -- 81
		5 -- 82
		5 -- 84
		5 -- 86
		5 -- 87
		5 -- 99
		6 -- 83
		6 -- 65
		6 -- 9
		6 -- 74
		6 -- 11
		6 -- 76
		6 -- 14
		6 -- 15
		6 -- 16
		6 -- 17
		6 -- 18
		6 -- 19
		6 -- 20
		6 -- 78
		6 -- 88
		6 -- 25
		6 -- 26
		6 -- 27
		6 -- 93
		6 -- 30
		6 -- 31
		6 -- 84
		6 -- 80
		6 -- 99
		6 -- 38
		6 -- 41
		6 -- 42
		6 -- 46
		6 -- 47
		6 -- 48
		6 -- 79
		6 -- 55
		6 -- 57
		6 -- 58
		6 -- 59
		6 -- 60
		6 -- 95
		7 -- 8
		7 -- 9
		7 -- 10
		7 -- 11
		7 -- 18
		7 -- 19
		7 -- 22
		7 -- 24
		7 -- 26
		7 -- 29
		7 -- 30
		7 -- 31
		7 -- 35
		7 -- 37
		7 -- 38
		7 -- 39
		7 -- 42
		7 -- 43
		7 -- 45
		7 -- 48
		7 -- 50
		7 -- 51
		7 -- 53
		7 -- 55
		7 -- 57
		7 -- 58
		7 -- 59
		7 -- 61
		7 -- 65
		7 -- 66
		7 -- 69
		7 -- 70
		7 -- 73
		7 -- 75
		7 -- 76
		7 -- 78
		7 -- 79
		7 -- 80
		7 -- 81
		7 -- 82
		7 -- 86
		7 -- 90
		7 -- 91
		7 -- 93
		7 -- 94
		7 -- 97
		7 -- 98
		7 -- 99
		8 -- 11
		8 -- 12
		8 -- 13
		8 -- 14
		8 -- 16
		8 -- 18
		8 -- 24
		8 -- 26
		8 -- 27
		8 -- 28
		8 -- 31
		8 -- 33
		8 -- 35
		8 -- 36
		8 -- 37
		8 -- 38
		8 -- 42
		8 -- 43
		8 -- 46
		8 -- 47
		8 -- 48
		8 -- 49
		8 -- 51
		8 -- 52
		8 -- 53
		8 -- 55
		8 -- 59
		8 -- 61
		8 -- 63
		8 -- 65
		8 -- 66
		8 -- 68
		8 -- 69
		8 -- 70
		8 -- 71
		8 -- 72
		8 -- 74
		8 -- 76
		8 -- 77
		8 -- 79
		8 -- 80
		8 -- 84
		8 -- 86
		8 -- 87
		8 -- 88
		8 -- 89
		8 -- 93
		8 -- 95
		8 -- 96
		8 -- 97
		8 -- 98
		9 -- 11
		9 -- 13
		9 -- 16
		9 -- 18
		9 -- 23
		9 -- 25
		9 -- 26
		9 -- 27
		9 -- 29
		9 -- 32
		9 -- 34
		9 -- 35
		9 -- 36
		9 -- 40
		9 -- 42
		9 -- 44
		9 -- 45
		9 -- 47
		9 -- 48
		9 -- 49
		9 -- 51
		9 -- 52
		9 -- 53
		9 -- 54
		9 -- 55
		9 -- 59
		9 -- 60
		9 -- 61
		9 -- 62
		9 -- 65
		9 -- 66
		9 -- 67
		9 -- 70
		9 -- 71
		9 -- 72
		9 -- 73
		9 -- 74
		9 -- 82
		9 -- 83
		9 -- 85
		9 -- 87
		9 -- 89
		9 -- 90
		9 -- 91
		9 -- 93
		9 -- 96
		9 -- 99
		10 -- 11
		10 -- 12
		10 -- 15
		10 -- 20
		10 -- 21
		10 -- 22
		10 -- 25
		10 -- 27
		10 -- 29
		10 -- 30
		10 -- 31
		10 -- 32
		10 -- 34
		10 -- 35
		10 -- 36
		10 -- 37
		10 -- 40
		10 -- 41
		10 -- 46
		10 -- 47
		10 -- 50
		10 -- 51
		10 -- 52
		10 -- 53
		10 -- 56
		10 -- 57
		10 -- 58
		10 -- 60
		10 -- 62
		10 -- 66
		10 -- 68
		10 -- 72
		10 -- 73
		10 -- 75
		10 -- 77
		10 -- 78
		10 -- 79
		10 -- 81
		10 -- 85
		10 -- 86
		10 -- 88
		10 -- 93
		10 -- 94
		10 -- 95
		10 -- 96
		11 -- 12
		11 -- 13
		11 -- 14
		11 -- 15
		11 -- 16
		11 -- 17
		11 -- 21
		11 -- 24
		11 -- 25
		11 -- 28
		11 -- 30
		11 -- 32
		11 -- 37
		11 -- 38
		11 -- 42
		11 -- 43
		11 -- 48
		11 -- 51
		11 -- 52
		11 -- 53
		11 -- 54
		11 -- 55
		11 -- 56
		11 -- 58
		11 -- 59
		11 -- 60
		11 -- 62
		11 -- 67
		11 -- 70
		11 -- 72
		11 -- 74
		11 -- 77
		11 -- 80
		11 -- 84
		11 -- 86
		11 -- 88
		11 -- 90
		11 -- 91
		11 -- 93
		11 -- 95
		11 -- 98
		11 -- 99
		12 -- 13
		12 -- 15
		12 -- 17
		12 -- 18
		12 -- 19
		12 -- 20
		12 -- 22
		12 -- 23
		12 -- 24
		12 -- 26
		12 -- 27
		12 -- 29
		12 -- 30
		12 -- 33
		12 -- 35
		12 -- 37
		12 -- 39
		12 -- 41
		12 -- 43
		12 -- 47
		12 -- 48
		12 -- 52
		12 -- 53
		12 -- 54
		12 -- 56
		12 -- 57
		12 -- 58
		12 -- 59
		12 -- 61
		12 -- 62
		12 -- 63
		12 -- 65
		12 -- 66
		12 -- 67
		12 -- 68
		12 -- 69
		12 -- 70
		12 -- 72
		12 -- 75
		12 -- 77
		12 -- 78
		12 -- 79
		12 -- 81
		12 -- 82
		12 -- 84
		12 -- 86
		12 -- 87
		12 -- 90
		12 -- 91
		12 -- 94
		12 -- 95
		12 -- 98
		13 -- 14
		13 -- 18
		13 -- 19
		13 -- 20
		13 -- 26
		13 -- 27
		13 -- 29
		13 -- 31
		13 -- 32
		13 -- 35
		13 -- 41
		13 -- 43
		13 -- 53
		13 -- 56
		13 -- 59
		13 -- 62
		13 -- 64
		13 -- 65
		13 -- 66
		13 -- 67
		13 -- 69
		13 -- 70
		13 -- 71
		13 -- 72
		13 -- 77
		13 -- 78
		13 -- 79
		13 -- 80
		13 -- 81
		13 -- 82
		13 -- 83
		13 -- 84
		13 -- 87
		13 -- 90
		13 -- 93
		13 -- 95
		13 -- 96
		13 -- 97
		13 -- 98
		13 -- 99
		14 -- 16
		14 -- 17
		14 -- 18
		14 -- 21
		14 -- 23
		14 -- 24
		14 -- 27
		14 -- 28
		14 -- 30
		14 -- 31
		14 -- 32
		14 -- 37
		14 -- 39
		14 -- 40
		14 -- 44
		14 -- 45
		14 -- 47
		14 -- 48
		14 -- 50
		14 -- 55
		14 -- 57
		14 -- 60
		14 -- 66
		14 -- 67
		14 -- 68
		14 -- 69
		14 -- 72
		14 -- 74
		14 -- 75
		14 -- 82
		14 -- 83
		14 -- 84
		14 -- 86
		14 -- 90
		14 -- 91
		14 -- 92
		14 -- 93
		14 -- 94
		14 -- 96
		14 -- 97
		15 -- 16
		15 -- 18
		15 -- 19
		15 -- 21
		15 -- 23
		15 -- 24
		15 -- 26
		15 -- 31
		15 -- 32
		15 -- 36
		15 -- 38
		15 -- 40
		15 -- 44
		15 -- 47
		15 -- 48
		15 -- 51
		15 -- 53
		15 -- 56
		15 -- 58
		15 -- 59
		15 -- 63
		15 -- 64
		15 -- 65
		15 -- 68
		15 -- 71
		15 -- 72
		15 -- 75
		15 -- 77
		15 -- 79
		15 -- 80
		15 -- 82
		15 -- 83
		15 -- 85
		15 -- 87
		15 -- 89
		15 -- 91
		15 -- 93
		15 -- 94
		15 -- 96
		15 -- 98
		15 -- 99
		16 -- 17
		16 -- 18
		16 -- 19
		16 -- 20
		16 -- 21
		16 -- 23
		16 -- 25
		16 -- 26
		16 -- 32
		16 -- 39
		16 -- 40
		16 -- 43
		16 -- 44
		16 -- 47
		16 -- 49
		16 -- 50
		16 -- 51
		16 -- 52
		16 -- 53
		16 -- 54
		16 -- 56
		16 -- 57
		16 -- 59
		16 -- 63
		16 -- 65
		16 -- 68
		16 -- 71
		16 -- 73
		16 -- 74
		16 -- 76
		16 -- 78
		16 -- 80
		16 -- 81
		16 -- 83
		16 -- 87
		16 -- 91
		16 -- 93
		16 -- 95
		16 -- 96
		16 -- 98
		16 -- 99
		17 -- 20
		17 -- 22
		17 -- 23
		17 -- 24
		17 -- 26
		17 -- 27
		17 -- 29
		17 -- 32
		17 -- 34
		17 -- 35
		17 -- 36
		17 -- 38
		17 -- 39
		17 -- 42
		17 -- 44
		17 -- 46
		17 -- 48
		17 -- 52
		17 -- 54
		17 -- 55
		17 -- 57
		17 -- 59
		17 -- 60
		17 -- 63
		17 -- 64
		17 -- 65
		17 -- 67
		17 -- 68
		17 -- 71
		17 -- 72
		17 -- 75
		17 -- 77
		17 -- 79
		17 -- 80
		17 -- 83
		17 -- 85
		17 -- 86
		17 -- 87
		17 -- 88
		17 -- 90
		17 -- 91
		17 -- 95
		17 -- 96
		17 -- 97
		18 -- 19
		18 -- 20
		18 -- 21
		18 -- 24
		18 -- 25
		18 -- 28
		18 -- 29
		18 -- 30
		18 -- 31
		18 -- 34
		18 -- 41
		18 -- 44
		18 -- 45
		18 -- 46
		18 -- 47
		18 -- 49
		18 -- 50
		18 -- 59
		18 -- 60
		18 -- 68
		18 -- 70
		18 -- 73
		18 -- 75
		18 -- 76
		18 -- 77
		18 -- 78
		18 -- 80
		18 -- 81
		18 -- 83
		18 -- 84
		18 -- 85
		18 -- 87
		18 -- 89
		18 -- 91
		18 -- 93
		18 -- 94
		18 -- 95
		18 -- 96
		18 -- 97
		18 -- 98
		18 -- 99
		19 -- 23
		19 -- 28
		19 -- 29
		19 -- 30
		19 -- 33
		19 -- 34
		19 -- 37
		19 -- 39
		19 -- 41
		19 -- 42
		19 -- 43
		19 -- 44
		19 -- 46
		19 -- 48
		19 -- 50
		19 -- 53
		19 -- 54
		19 -- 55
		19 -- 60
		19 -- 61
		19 -- 62
		19 -- 63
		19 -- 66
		19 -- 70
		19 -- 71
		19 -- 72
		19 -- 76
		19 -- 77
		19 -- 80
		19 -- 81
		19 -- 84
		19 -- 88
		19 -- 89
		19 -- 91
		19 -- 94
		19 -- 99
		20 -- 23
		20 -- 24
		20 -- 28
		20 -- 30
		20 -- 34
		20 -- 36
		20 -- 38
		20 -- 39
		20 -- 42
		20 -- 45
		20 -- 47
		20 -- 51
		20 -- 55
		20 -- 56
		20 -- 57
		20 -- 61
		20 -- 67
		20 -- 68
		20 -- 70
		20 -- 73
		20 -- 75
		20 -- 76
		20 -- 77
		20 -- 78
		20 -- 79
		20 -- 81
		20 -- 82
		20 -- 83
		20 -- 84
		20 -- 85
		20 -- 86
		20 -- 89
		20 -- 92
		20 -- 93
		20 -- 95
		20 -- 97
		20 -- 98
		20 -- 99
		21 -- 64
		21 -- 74
		21 -- 65
		21 -- 72
		21 -- 81
		21 -- 67
		21 -- 78
		21 -- 22
		21 -- 89
		21 -- 24
		21 -- 68
		21 -- 90
		21 -- 27
		21 -- 28
		21 -- 29
		21 -- 32
		21 -- 80
		21 -- 35
		21 -- 36
		21 -- 97
		21 -- 40
		21 -- 45
		21 -- 46
		21 -- 48
		21 -- 49
		21 -- 52
		21 -- 53
		21 -- 99
		21 -- 56
		21 -- 88
		21 -- 58
		21 -- 60
		21 -- 61
		21 -- 63
		22 -- 68
		22 -- 65
		22 -- 76
		22 -- 75
		22 -- 82
		22 -- 86
		22 -- 89
		22 -- 25
		22 -- 26
		22 -- 91
		22 -- 28
		22 -- 90
		22 -- 31
		22 -- 96
		22 -- 97
		22 -- 98
		22 -- 35
		22 -- 40
		22 -- 41
		22 -- 95
		22 -- 43
		22 -- 45
		22 -- 47
		22 -- 51
		22 -- 55
		22 -- 57
		22 -- 59
		22 -- 60
		22 -- 74
		22 -- 62
		22 -- 63
		23 -- 25
		23 -- 28
		23 -- 30
		23 -- 32
		23 -- 33
		23 -- 34
		23 -- 36
		23 -- 37
		23 -- 40
		23 -- 42
		23 -- 43
		23 -- 45
		23 -- 46
		23 -- 47
		23 -- 50
		23 -- 51
		23 -- 52
		23 -- 58
		23 -- 59
		23 -- 60
		23 -- 62
		23 -- 66
		23 -- 67
		23 -- 68
		23 -- 70
		23 -- 72
		23 -- 74
		23 -- 75
		23 -- 76
		23 -- 78
		23 -- 80
		23 -- 82
		23 -- 85
		23 -- 88
		23 -- 92
		23 -- 94
		23 -- 95
		23 -- 97
		23 -- 99
		24 -- 26
		24 -- 28
		24 -- 31
		24 -- 32
		24 -- 34
		24 -- 35
		24 -- 37
		24 -- 41
		24 -- 42
		24 -- 44
		24 -- 45
		24 -- 46
		24 -- 48
		24 -- 50
		24 -- 53
		24 -- 57
		24 -- 58
		24 -- 59
		24 -- 61
		24 -- 68
		24 -- 70
		24 -- 71
		24 -- 73
		24 -- 74
		24 -- 75
		24 -- 77
		24 -- 79
		24 -- 80
		24 -- 81
		24 -- 83
		24 -- 84
		24 -- 87
		24 -- 89
		24 -- 91
		24 -- 92
		24 -- 93
		24 -- 94
		25 -- 64
		25 -- 66
		25 -- 75
		25 -- 68
		25 -- 69
		25 -- 65
		25 -- 72
		25 -- 78
		25 -- 79
		25 -- 81
		25 -- 83
		25 -- 85
		25 -- 26
		25 -- 27
		25 -- 86
		25 -- 30
		25 -- 32
		25 -- 33
		25 -- 99
		25 -- 36
		25 -- 96
		25 -- 40
		25 -- 44
		25 -- 82
		25 -- 80
		25 -- 48
		25 -- 49
		25 -- 54
		25 -- 73
		25 -- 56
		25 -- 59
		25 -- 60
		25 -- 62
		26 -- 29
		26 -- 33
		26 -- 36
		26 -- 37
		26 -- 39
		26 -- 41
		26 -- 42
		26 -- 43
		26 -- 45
		26 -- 47
		26 -- 48
		26 -- 50
		26 -- 53
		26 -- 56
		26 -- 60
		26 -- 64
		26 -- 66
		26 -- 69
		26 -- 70
		26 -- 71
		26 -- 73
		26 -- 75
		26 -- 78
		26 -- 79
		26 -- 80
		26 -- 81
		26 -- 85
		26 -- 86
		26 -- 87
		26 -- 88
		26 -- 89
		26 -- 90
		26 -- 91
		26 -- 92
		26 -- 93
		26 -- 96
		27 -- 32
		27 -- 35
		27 -- 36
		27 -- 37
		27 -- 39
		27 -- 40
		27 -- 41
		27 -- 43
		27 -- 44
		27 -- 45
		27 -- 47
		27 -- 49
		27 -- 51
		27 -- 52
		27 -- 53
		27 -- 55
		27 -- 56
		27 -- 59
		27 -- 60
		27 -- 61
		27 -- 64
		27 -- 66
		27 -- 68
		27 -- 71
		27 -- 72
		27 -- 73
		27 -- 75
		27 -- 76
		27 -- 77
		27 -- 79
		27 -- 81
		27 -- 85
		27 -- 87
		27 -- 90
		27 -- 91
		27 -- 94
		27 -- 95
		27 -- 96
		27 -- 98
		27 -- 99
		28 -- 29
		28 -- 31
		28 -- 32
		28 -- 33
		28 -- 34
		28 -- 37
		28 -- 39
		28 -- 41
		28 -- 42
		28 -- 43
		28 -- 45
		28 -- 46
		28 -- 48
		28 -- 54
		28 -- 56
		28 -- 57
		28 -- 58
		28 -- 60
		28 -- 63
		28 -- 66
		28 -- 68
		28 -- 74
		28 -- 76
		28 -- 78
		28 -- 80
		28 -- 81
		28 -- 82
		28 -- 84
		28 -- 88
		28 -- 89
		28 -- 90
		28 -- 91
		28 -- 92
		28 -- 93
		28 -- 97
		29 -- 33
		29 -- 34
		29 -- 35
		29 -- 36
		29 -- 38
		29 -- 39
		29 -- 41
		29 -- 42
		29 -- 43
		29 -- 44
		29 -- 45
		29 -- 47
		29 -- 50
		29 -- 51
		29 -- 52
		29 -- 53
		29 -- 54
		29 -- 60
		29 -- 63
		29 -- 66
		29 -- 67
		29 -- 69
		29 -- 72
		29 -- 74
		29 -- 75
		29 -- 76
		29 -- 78
		29 -- 80
		29 -- 81
		29 -- 82
		29 -- 83
		29 -- 84
		29 -- 85
		29 -- 90
		29 -- 91
		29 -- 92
		29 -- 94
		29 -- 95
		29 -- 96
		29 -- 99
		30 -- 31
		30 -- 32
		30 -- 34
		30 -- 36
		30 -- 37
		30 -- 39
		30 -- 40
		30 -- 42
		30 -- 43
		30 -- 49
		30 -- 50
		30 -- 52
		30 -- 54
		30 -- 57
		30 -- 60
		30 -- 62
		30 -- 66
		30 -- 71
		30 -- 73
		30 -- 74
		30 -- 77
		30 -- 78
		30 -- 79
		30 -- 82
		30 -- 83
		30 -- 86
		30 -- 87
		30 -- 88
		30 -- 94
		30 -- 97
		30 -- 99
		31 -- 64
		31 -- 66
		31 -- 69
		31 -- 89
		31 -- 80
		31 -- 81
		31 -- 99
		31 -- 87
		31 -- 68
		31 -- 71
		31 -- 32
		31 -- 97
		31 -- 34
		31 -- 35
		31 -- 37
		31 -- 65
		31 -- 40
		31 -- 43
		31 -- 46
		31 -- 47
		31 -- 72
		31 -- 94
		31 -- 52
		31 -- 53
		31 -- 54
		31 -- 57
		31 -- 58
		31 -- 61
		31 -- 62
		32 -- 33
		32 -- 34
		32 -- 35
		32 -- 37
		32 -- 38
		32 -- 41
		32 -- 43
		32 -- 44
		32 -- 45
		32 -- 46
		32 -- 48
		32 -- 50
		32 -- 51
		32 -- 52
		32 -- 54
		32 -- 55
		32 -- 56
		32 -- 58
		32 -- 59
		32 -- 60
		32 -- 61
		32 -- 64
		32 -- 65
		32 -- 67
		32 -- 68
		32 -- 73
		32 -- 74
		32 -- 75
		32 -- 78
		32 -- 79
		32 -- 81
		32 -- 82
		32 -- 83
		32 -- 84
		32 -- 85
		32 -- 90
		32 -- 92
		32 -- 93
		32 -- 94
		32 -- 96
		32 -- 98
		33 -- 64
		33 -- 67
		33 -- 76
		33 -- 75
		33 -- 78
		33 -- 80
		33 -- 82
		33 -- 86
		33 -- 91
		33 -- 69
		33 -- 98
		33 -- 35
		33 -- 96
		33 -- 40
		33 -- 44
		33 -- 46
		33 -- 47
		33 -- 99
		33 -- 50
		33 -- 53
		33 -- 89
		33 -- 56
		33 -- 57
		33 -- 58
		33 -- 95
		33 -- 60
		34 -- 36
		34 -- 38
		34 -- 39
		34 -- 40
		34 -- 41
		34 -- 47
		34 -- 53
		34 -- 55
		34 -- 57
		34 -- 58
		34 -- 60
		34 -- 62
		34 -- 63
		34 -- 64
		34 -- 67
		34 -- 68
		34 -- 71
		34 -- 72
		34 -- 73
		34 -- 74
		34 -- 76
		34 -- 77
		34 -- 78
		34 -- 85
		34 -- 86
		34 -- 87
		34 -- 88
		34 -- 90
		34 -- 92
		34 -- 93
		34 -- 96
		34 -- 97
		34 -- 98
		34 -- 99
		35 -- 36
		35 -- 37
		35 -- 38
		35 -- 39
		35 -- 41
		35 -- 42
		35 -- 44
		35 -- 45
		35 -- 47
		35 -- 50
		35 -- 56
		35 -- 57
		35 -- 62
		35 -- 63
		35 -- 65
		35 -- 66
		35 -- 71
		35 -- 76
		35 -- 77
		35 -- 81
		35 -- 82
		35 -- 85
		35 -- 87
		35 -- 89
		35 -- 90
		35 -- 91
		35 -- 94
		35 -- 96
		35 -- 97
		36 -- 37
		36 -- 38
		36 -- 40
		36 -- 41
		36 -- 42
		36 -- 43
		36 -- 46
		36 -- 47
		36 -- 48
		36 -- 51
		36 -- 52
		36 -- 54
		36 -- 55
		36 -- 56
		36 -- 57
		36 -- 58
		36 -- 61
		36 -- 63
		36 -- 64
		36 -- 68
		36 -- 70
		36 -- 71
		36 -- 76
		36 -- 78
		36 -- 80
		36 -- 82
		36 -- 83
		36 -- 84
		36 -- 88
		36 -- 89
		36 -- 90
		36 -- 91
		36 -- 92
		36 -- 93
		36 -- 97
		36 -- 98
		36 -- 99
		37 -- 40
		37 -- 41
		37 -- 46
		37 -- 47
		37 -- 52
		37 -- 55
		37 -- 56
		37 -- 57
		37 -- 58
		37 -- 61
		37 -- 64
		37 -- 68
		37 -- 69
		37 -- 73
		37 -- 74
		37 -- 75
		37 -- 76
		37 -- 77
		37 -- 80
		37 -- 81
		37 -- 82
		37 -- 84
		37 -- 86
		37 -- 88
		37 -- 92
		37 -- 93
		37 -- 96
		37 -- 97
		37 -- 99
		38 -- 64
		38 -- 67
		38 -- 74
		38 -- 75
		38 -- 83
		38 -- 85
		38 -- 86
		38 -- 89
		38 -- 90
		38 -- 92
		38 -- 95
		38 -- 97
		38 -- 65
		38 -- 39
		38 -- 40
		38 -- 42
		38 -- 43
		38 -- 45
		38 -- 48
		38 -- 72
		38 -- 52
		38 -- 82
		38 -- 99
		38 -- 55
		38 -- 84
		38 -- 58
		38 -- 62
		39 -- 41
		39 -- 44
		39 -- 46
		39 -- 49
		39 -- 52
		39 -- 55
		39 -- 56
		39 -- 58
		39 -- 59
		39 -- 60
		39 -- 61
		39 -- 63
		39 -- 65
		39 -- 68
		39 -- 73
		39 -- 74
		39 -- 75
		39 -- 76
		39 -- 78
		39 -- 79
		39 -- 84
		39 -- 88
		39 -- 90
		39 -- 92
		39 -- 98
		39 -- 99
		40 -- 43
		40 -- 44
		40 -- 45
		40 -- 51
		40 -- 53
		40 -- 54
		40 -- 58
		40 -- 59
		40 -- 60
		40 -- 63
		40 -- 64
		40 -- 65
		40 -- 66
		40 -- 67
		40 -- 72
		40 -- 73
		40 -- 74
		40 -- 76
		40 -- 79
		40 -- 81
		40 -- 82
		40 -- 84
		40 -- 85
		40 -- 87
		40 -- 89
		40 -- 90
		40 -- 91
		40 -- 92
		40 -- 95
		40 -- 96
		40 -- 98
		41 -- 43
		41 -- 49
		41 -- 51
		41 -- 52
		41 -- 53
		41 -- 54
		41 -- 56
		41 -- 59
		41 -- 60
		41 -- 62
		41 -- 66
		41 -- 67
		41 -- 68
		41 -- 71
		41 -- 72
		41 -- 73
		41 -- 74
		41 -- 75
		41 -- 76
		41 -- 78
		41 -- 81
		41 -- 82
		41 -- 85
		41 -- 86
		41 -- 88
		41 -- 89
		41 -- 92
		41 -- 93
		41 -- 94
		41 -- 95
		41 -- 96
		41 -- 97
		41 -- 99
		42 -- 46
		42 -- 47
		42 -- 48
		42 -- 49
		42 -- 52
		42 -- 54
		42 -- 58
		42 -- 61
		42 -- 62
		42 -- 63
		42 -- 67
		42 -- 68
		42 -- 70
		42 -- 71
		42 -- 73
		42 -- 74
		42 -- 75
		42 -- 78
		42 -- 79
		42 -- 80
		42 -- 82
		42 -- 83
		42 -- 84
		42 -- 86
		42 -- 87
		42 -- 88
		42 -- 90
		42 -- 91
		42 -- 97
		42 -- 98
		42 -- 99
		43 -- 44
		43 -- 46
		43 -- 47
		43 -- 48
		43 -- 49
		43 -- 50
		43 -- 51
		43 -- 55
		43 -- 60
		43 -- 62
		43 -- 63
		43 -- 64
		43 -- 65
		43 -- 66
		43 -- 67
		43 -- 68
		43 -- 72
		43 -- 73
		43 -- 75
		43 -- 77
		43 -- 78
		43 -- 80
		43 -- 83
		43 -- 85
		43 -- 86
		43 -- 87
		43 -- 88
		43 -- 90
		43 -- 91
		43 -- 92
		43 -- 93
		43 -- 94
		43 -- 95
		43 -- 98
		43 -- 99
		44 -- 65
		44 -- 66
		44 -- 70
		44 -- 79
		44 -- 84
		44 -- 78
		44 -- 87
		44 -- 94
		44 -- 95
		44 -- 96
		44 -- 80
		44 -- 99
		44 -- 49
		44 -- 50
		44 -- 83
		44 -- 54
		44 -- 88
		44 -- 58
		44 -- 91
		44 -- 60
		44 -- 85
		44 -- 63
		45 -- 47
		45 -- 51
		45 -- 53
		45 -- 55
		45 -- 57
		45 -- 58
		45 -- 59
		45 -- 62
		45 -- 63
		45 -- 64
		45 -- 65
		45 -- 66
		45 -- 68
		45 -- 69
		45 -- 70
		45 -- 72
		45 -- 73
		45 -- 74
		45 -- 75
		45 -- 76
		45 -- 86
		45 -- 87
		45 -- 88
		45 -- 94
		45 -- 98
		46 -- 49
		46 -- 51
		46 -- 53
		46 -- 54
		46 -- 56
		46 -- 59
		46 -- 60
		46 -- 62
		46 -- 64
		46 -- 70
		46 -- 73
		46 -- 74
		46 -- 75
		46 -- 76
		46 -- 79
		46 -- 81
		46 -- 83
		46 -- 84
		46 -- 85
		46 -- 90
		46 -- 91
		46 -- 96
		46 -- 99
		47 -- 48
		47 -- 49
		47 -- 50
		47 -- 51
		47 -- 52
		47 -- 53
		47 -- 54
		47 -- 59
		47 -- 60
		47 -- 61
		47 -- 62
		47 -- 65
		47 -- 66
		47 -- 69
		47 -- 70
		47 -- 77
		47 -- 78
		47 -- 79
		47 -- 84
		47 -- 86
		47 -- 87
		47 -- 88
		47 -- 90
		47 -- 92
		47 -- 93
		47 -- 95
		47 -- 98
		48 -- 52
		48 -- 55
		48 -- 56
		48 -- 59
		48 -- 60
		48 -- 61
		48 -- 62
		48 -- 63
		48 -- 65
		48 -- 66
		48 -- 67
		48 -- 68
		48 -- 73
		48 -- 77
		48 -- 79
		48 -- 84
		48 -- 89
		48 -- 90
		48 -- 92
		48 -- 97
		49 -- 51
		49 -- 54
		49 -- 57
		49 -- 58
		49 -- 62
		49 -- 66
		49 -- 70
		49 -- 72
		49 -- 74
		49 -- 75
		49 -- 76
		49 -- 78
		49 -- 79
		49 -- 80
		49 -- 82
		49 -- 84
		49 -- 85
		49 -- 91
		49 -- 92
		49 -- 95
		49 -- 96
		49 -- 98
		49 -- 99
		50 -- 51
		50 -- 53
		50 -- 55
		50 -- 56
		50 -- 57
		50 -- 58
		50 -- 62
		50 -- 67
		50 -- 69
		50 -- 73
		50 -- 74
		50 -- 76
		50 -- 77
		50 -- 78
		50 -- 80
		50 -- 85
		50 -- 86
		50 -- 87
		50 -- 88
		50 -- 89
		50 -- 93
		50 -- 94
		50 -- 95
		50 -- 96
		50 -- 98
		51 -- 52
		51 -- 53
		51 -- 54
		51 -- 57
		51 -- 58
		51 -- 59
		51 -- 60
		51 -- 61
		51 -- 62
		51 -- 65
		51 -- 66
		51 -- 68
		51 -- 69
		51 -- 70
		51 -- 73
		51 -- 74
		51 -- 76
		51 -- 78
		51 -- 79
		51 -- 80
		51 -- 81
		51 -- 83
		51 -- 84
		51 -- 86
		51 -- 87
		51 -- 90
		51 -- 91
		51 -- 92
		51 -- 94
		51 -- 98
		51 -- 99
		52 -- 55
		52 -- 59
		52 -- 61
		52 -- 67
		52 -- 69
		52 -- 70
		52 -- 71
		52 -- 72
		52 -- 73
		52 -- 75
		52 -- 77
		52 -- 78
		52 -- 79
		52 -- 80
		52 -- 81
		52 -- 83
		52 -- 84
		52 -- 85
		52 -- 87
		52 -- 88
		52 -- 89
		52 -- 92
		52 -- 99
		53 -- 54
		53 -- 55
		53 -- 56
		53 -- 61
		53 -- 63
		53 -- 64
		53 -- 65
		53 -- 66
		53 -- 68
		53 -- 69
		53 -- 71
		53 -- 73
		53 -- 75
		53 -- 76
		53 -- 81
		53 -- 82
		53 -- 83
		53 -- 84
		53 -- 86
		53 -- 92
		53 -- 93
		53 -- 95
		54 -- 57
		54 -- 60
		54 -- 69
		54 -- 71
		54 -- 72
		54 -- 73
		54 -- 74
		54 -- 75
		54 -- 76
		54 -- 78
		54 -- 81
		54 -- 83
		54 -- 84
		54 -- 86
		54 -- 90
		54 -- 91
		54 -- 92
		54 -- 93
		54 -- 94
		54 -- 97
		54 -- 98
		55 -- 56
		55 -- 57
		55 -- 59
		55 -- 63
		55 -- 65
		55 -- 66
		55 -- 69
		55 -- 71
		55 -- 72
		55 -- 73
		55 -- 75
		55 -- 76
		55 -- 77
		55 -- 79
		55 -- 82
		55 -- 83
		55 -- 84
		55 -- 85
		55 -- 87
		55 -- 88
		55 -- 89
		55 -- 90
		55 -- 92
		55 -- 95
		55 -- 96
		55 -- 97
		55 -- 98
		56 -- 57
		56 -- 59
		56 -- 60
		56 -- 61
		56 -- 62
		56 -- 63
		56 -- 66
		56 -- 68
		56 -- 70
		56 -- 72
		56 -- 73
		56 -- 77
		56 -- 82
		56 -- 85
		56 -- 86
		56 -- 87
		56 -- 92
		56 -- 94
		56 -- 95
		56 -- 96
		56 -- 97
		56 -- 98
		56 -- 99
		57 -- 59
		57 -- 61
		57 -- 62
		57 -- 63
		57 -- 65
		57 -- 66
		57 -- 70
		57 -- 71
		57 -- 74
		57 -- 76
		57 -- 77
		57 -- 87
		57 -- 88
		57 -- 90
		57 -- 96
		57 -- 97
		57 -- 98
		57 -- 99
		58 -- 60
		58 -- 62
		58 -- 63
		58 -- 67
		58 -- 68
		58 -- 69
		58 -- 71
		58 -- 72
		58 -- 73
		58 -- 75
		58 -- 76
		58 -- 78
		58 -- 79
		58 -- 80
		58 -- 82
		58 -- 83
		58 -- 84
		58 -- 87
		58 -- 89
		58 -- 91
		58 -- 92
		58 -- 93
		58 -- 98
		59 -- 68
		59 -- 96
		59 -- 66
		59 -- 77
		59 -- 81
		59 -- 88
		59 -- 69
		59 -- 98
		59 -- 71
		59 -- 92
		59 -- 94
		60 -- 62
		60 -- 64
		60 -- 65
		60 -- 66
		60 -- 67
		60 -- 68
		60 -- 69
		60 -- 70
		60 -- 71
		60 -- 73
		60 -- 76
		60 -- 78
		60 -- 82
		60 -- 83
		60 -- 84
		60 -- 86
		60 -- 87
		60 -- 88
		60 -- 89
		60 -- 90
		60 -- 92
		60 -- 93
		60 -- 95
		60 -- 98
		60 -- 99
		61 -- 64
		61 -- 74
		61 -- 75
		61 -- 66
		61 -- 81
		61 -- 87
		61 -- 90
		61 -- 88
		61 -- 84
		61 -- 91
		61 -- 65
		61 -- 71
		61 -- 96
		61 -- 99
		61 -- 73
		61 -- 62
		61 -- 85
		62 -- 63
		62 -- 65
		62 -- 66
		62 -- 68
		62 -- 72
		62 -- 73
		62 -- 74
		62 -- 76
		62 -- 77
		62 -- 80
		62 -- 82
		62 -- 83
		62 -- 84
		62 -- 86
		62 -- 87
		62 -- 88
		62 -- 89
		62 -- 94
		62 -- 95
		62 -- 96
		62 -- 98
		63 -- 64
		63 -- 65
		63 -- 66
		63 -- 70
		63 -- 71
		63 -- 74
		63 -- 75
		63 -- 76
		63 -- 78
		63 -- 82
		63 -- 83
		63 -- 84
		63 -- 85
		63 -- 86
		63 -- 87
		63 -- 88
		63 -- 89
		63 -- 90
		63 -- 91
		63 -- 96
		63 -- 98
		63 -- 99
		64 -- 65
		64 -- 71
		64 -- 73
		64 -- 75
		64 -- 78
		64 -- 82
		64 -- 83
		64 -- 88
		64 -- 92
		64 -- 90
		64 -- 69
		64 -- 99
		64 -- 96
		64 -- 93
		64 -- 85
		65 -- 66
		65 -- 68
		65 -- 70
		65 -- 71
		65 -- 73
		65 -- 77
		65 -- 80
		65 -- 83
		65 -- 85
		65 -- 86
		65 -- 87
		65 -- 90
		65 -- 93
		65 -- 94
		65 -- 95
		65 -- 99
		66 -- 67
		66 -- 68
		66 -- 69
		66 -- 71
		66 -- 72
		66 -- 73
		66 -- 74
		66 -- 75
		66 -- 79
		66 -- 80
		66 -- 82
		66 -- 83
		66 -- 85
		66 -- 86
		66 -- 87
		66 -- 90
		66 -- 91
		66 -- 95
		66 -- 97
		66 -- 98
		66 -- 99
		67 -- 70
		67 -- 71
		67 -- 72
		67 -- 73
		67 -- 76
		67 -- 77
		67 -- 79
		67 -- 80
		67 -- 81
		67 -- 83
		67 -- 84
		67 -- 86
		67 -- 88
		67 -- 91
		67 -- 92
		67 -- 93
		67 -- 98
		68 -- 70
		68 -- 73
		68 -- 74
		68 -- 76
		68 -- 79
		68 -- 80
		68 -- 82
		68 -- 83
		68 -- 86
		68 -- 89
		68 -- 91
		68 -- 93
		68 -- 94
		68 -- 95
		68 -- 96
		68 -- 97
		68 -- 98
		68 -- 99
		69 -- 70
		69 -- 71
		69 -- 72
		69 -- 73
		69 -- 75
		69 -- 77
		69 -- 78
		69 -- 80
		69 -- 82
		69 -- 85
		69 -- 87
		69 -- 88
		69 -- 93
		69 -- 94
		69 -- 95
		69 -- 96
		70 -- 71
		70 -- 73
		70 -- 74
		70 -- 75
		70 -- 76
		70 -- 78
		70 -- 79
		70 -- 83
		70 -- 85
		70 -- 86
		70 -- 88
		70 -- 89
		70 -- 90
		70 -- 91
		70 -- 95
		70 -- 98
		71 -- 73
		71 -- 75
		71 -- 76
		71 -- 77
		71 -- 79
		71 -- 83
		71 -- 92
		71 -- 93
		71 -- 94
		71 -- 97
		72 -- 73
		72 -- 74
		72 -- 75
		72 -- 76
		72 -- 77
		72 -- 79
		72 -- 82
		72 -- 83
		72 -- 86
		72 -- 88
		72 -- 92
		72 -- 93
		72 -- 95
		72 -- 97
		73 -- 76
		73 -- 80
		73 -- 81
		73 -- 87
		73 -- 88
		73 -- 90
		73 -- 93
		73 -- 94
		73 -- 96
		73 -- 98
		73 -- 99
		74 -- 75
		74 -- 77
		74 -- 78
		74 -- 81
		74 -- 82
		74 -- 83
		74 -- 84
		74 -- 85
		74 -- 87
		74 -- 88
		74 -- 89
		74 -- 92
		74 -- 93
		74 -- 94
		74 -- 97
		74 -- 99
		75 -- 77
		75 -- 79
		75 -- 80
		75 -- 82
		75 -- 86
		75 -- 87
		75 -- 89
		75 -- 90
		75 -- 91
		75 -- 92
		75 -- 93
		75 -- 95
		75 -- 97
		76 -- 80
		76 -- 83
		76 -- 85
		76 -- 86
		76 -- 87
		76 -- 88
		76 -- 89
		76 -- 91
		76 -- 93
		77 -- 98
		77 -- 85
		77 -- 86
		77 -- 90
		77 -- 93
		77 -- 84
		77 -- 81
		77 -- 91
		77 -- 79
		78 -- 79
		78 -- 80
		78 -- 81
		78 -- 83
		78 -- 85
		78 -- 87
		78 -- 88
		78 -- 91
		78 -- 92
		78 -- 93
		78 -- 94
		78 -- 96
		78 -- 97
		78 -- 98
		78 -- 99
		79 -- 80
		79 -- 81
		79 -- 83
		79 -- 84
		79 -- 87
		79 -- 88
		79 -- 89
		79 -- 90
		79 -- 92
		79 -- 94
		79 -- 96
		79 -- 98
		79 -- 99
		80 -- 81
		80 -- 84
		80 -- 85
		80 -- 86
		80 -- 87
		80 -- 91
		80 -- 92
		80 -- 94
		80 -- 97
		80 -- 99
		81 -- 82
		81 -- 84
		81 -- 86
		81 -- 87
		81 -- 91
		81 -- 92
		81 -- 95
		81 -- 99
		82 -- 83
		82 -- 84
		82 -- 87
		82 -- 88
		82 -- 90
		82 -- 95
		82 -- 96
		82 -- 97
		82 -- 99
		83 -- 87
		83 -- 88
		83 -- 89
		83 -- 90
		83 -- 91
		83 -- 92
		83 -- 95
		83 -- 98
		84 -- 85
		84 -- 86
		84 -- 89
		84 -- 90
		84 -- 91
		84 -- 92
		84 -- 96
		84 -- 99
		85 -- 87
		85 -- 90
		85 -- 91
		85 -- 92
		85 -- 93
		85 -- 94
		85 -- 98
		85 -- 99
		86 -- 87
		86 -- 89
		86 -- 92
		86 -- 95
		86 -- 97
		86 -- 98
		87 -- 88
		87 -- 90
		87 -- 92
		87 -- 95
		87 -- 96
		87 -- 98
		88 -- 91
		88 -- 92
		88 -- 93
		88 -- 95
		88 -- 96
		88 -- 97
		88 -- 99
		89 -- 91
		89 -- 92
		89 -- 94
		89 -- 95
		89 -- 97
		89 -- 98
		89 -- 99
		90 -- 91
		90 -- 95
		90 -- 97
		90 -- 98
		90 -- 99
		91 -- 96
		91 -- 97
		91 -- 99
		92 -- 93
		92 -- 95
		92 -- 96
		92 -- 99
		93 -- 95
		93 -- 98
		94 -- 98
		94 -- 95
		94 -- 99
		95 -- 98
		96 -- 97
		96 -- 98
		97 -- 99
}