100
219 162
107 102
231 300
48 255
170 232
67 221
47 115
48 145
43 273
119 274
203 257
202 98
31 112
243 43
229 243
102 278
262 125
250 85
139 21
260 239
125 10
41 81
80 149
234 137
90 172
79 176
201 17
48 263
51 236
287 117
224 33
266 4
115 172
290 122
102 266
209 102
158 7
64 197
14 73
48 41
47 185
38 165
231 148
24 55
7 97
78 163
65 90
289 57
41 180
300 126
241 63
139 290
170 66
44 230
139 6
188 43
58 230
32 114
191 42
269 59
230 70
57 204
188 174
21 81
179 297
64 46
229 295
40 4
149 143
164 134
3 272
119 163
297 86
263 55
131 204
45 91
96 48
219 51
254 123
223 68
270 264
49 45
183 145
298 272
106 28
195 186
194 148
221 144
14 23
252 168
179 298
202 259
35 249
286 258
144 253
298 1
200 245
18 42
27 161
294 157
0 2
0 5
0 7
0 8
0 9
0 11
0 14
0 16
0 18
0 20
0 21
0 22
0 24
0 30
0 31
0 34
0 35
0 37
0 38
0 41
0 48
0 49
0 55
0 57
0 62
0 63
0 64
0 68
0 69
0 70
0 73
0 74
0 75
0 78
0 82
0 84
0 85
0 86
0 88
0 89
0 90
0 93
0 94
0 97
0 99
1 66
1 67
1 69
1 70
1 71
1 73
1 74
1 75
1 76
1 13
1 14
1 79
1 16
1 19
1 20
1 78
1 22
1 23
1 24
1 89
1 27
1 28
1 29
1 30
1 31
1 96
1 87
1 36
1 38
1 92
1 42
1 43
1 44
1 46
1 48
1 49
1 51
1 55
1 86
1 57
1 58
1 61
1 62
2 83
2 69
2 71
2 8
2 9
2 10
2 12
2 77
2 14
2 79
2 16
2 81
2 82
2 19
2 20
2 87
2 98
2 29
2 30
2 31
2 33
2 34
2 35
2 39
2 80
2 42
2 46
2 93
2 48
2 76
2 50
2 51
2 53
2 99
2 55
2 56
2 84
2 58
2 94
2 74
3 4
3 5
3 6
3 8
3 9
3 10
3 11
3 12
3 13
3 15
3 19
3 20
3 21
3 22
3 26
3 27
3 29
3 31
3 36
3 37
3 38
3 40
3 42
3 43
3 44
3 45
3 46
3 56
3 58
3 59
3 60
3 61
3 63
3 68
3 70
3 71
3 72
3 73
3 74
3 75
3 76
3 77
3 78
3 87
3 90
3 91
3 92
3 94
3 97
3 99
4 6
4 7
4 9
4 10
4 12
4 13
4 15
4 17
4 18
4 19
4 20
4 22
4 25
4 31
4 32
4 37
4 38
4 39
4 40
4 41
4 42
4 44
4 46
4 48
4 49
4 54
4 58
4 62
4 64
4 65
4 68
4 70
4 71
4 72
4 75
4 76
4 78
4 79
4 82
4 84
4 88
4 89
4 90
4 91
4 92
4 93
4 94
4 95
4 96
4 98
5 6
5 13
5 15
5 17
5 19
5 20
5 22
5 25
5 27
5 28
5 29
5 31
5 33
5 34
5 35
5 36
5 37
5 39
5 40
5 41
5 45
5 46
5 47
5 48
5 51
5 52
5 54
5 56
5 58
5 59
5 61
5 63
5 64
5 66
5 68
5 69
5 71
5 72
5 73
5 76
5 78
5 80
5 81
5 82
5 88
5 89
5 90
5 91
5 93
5 94
5 96
5 97
5 98
6 7
6 8
6 10
6 11
6 14
6 16
6 17
6 19
6 21
6 23
6 27
6 33
6 35
6 36
6 37
6 40
6 41
6 44
6 46
6 48
6 50
6 52
6 53
6 56
6 57
6 60
6 61
6 62
6 64
6 65
6 66
6 67
6 70
6 72
6 73
6 74
6 76
6 80
6 83
6 88
6 89
6 93
6 94
6 98
7 10
7 11
7 17
7 19
7 20
7 21
7 23
7 25
7 26
7 27
7 28
7 29
7 33
7 36
7 37
7 38
7 39
7 40
7 43
7 46
7 49
7 50
7 52
7 53
7 56
7 58
7 60
7 63
7 64
7 66
7 68
7 69
7 70
7 71
7 72
7 74
7 75
7 77
7 78
7 79
7 80
7 82
7 83
7 86
7 87
7 92
7 93
7 94
7 95
7 96
7 97
7 98
7 99
8 9
8 11
8 12
8 16
8 22
8 24
8 25
8 30
8 31
8 34
8 35
8 36
8 37
8 39
8 41
8 43
8 45
8 47
8 48
8 49
8 51
8 52
8 54
8 55
8 57
8 58
8 59
8 62
8 63
8 64
8 66
8 67
8 68
8 70
8 75
8 76
8 77
8 78
8 79
8 82
8 83
8 85
8 86
8 89
8 90
8 91
8 94
8 95
8 99
9 10
9 11
9 12
9 15
9 16
9 17
9 18
9 19
9 20
9 22
9 25
9 26
9 27
9 28
9 29
9 30
9 32
9 35
9 36
9 37
9 39
9 44
9 47
9 48
9 49
9 51
9 52
9 56
9 60
9 64
9 67
9 69
9 73
9 76
9 77
9 81
9 82
9 83
9 85
9 86
9 88
9 89
9 92
9 95
9 97
9 98
10 11
10 12
10 14
10 16
10 17
10 21
10 23
10 26
10 28
10 30
10 35
10 37
10 39
10 41
10 44
10 47
10 50
10 53
10 54
10 55
10 56
10 58
10 59
10 60
10 63
10 65
10 67
10 68
10 69
10 70
10 71
10 72
10 75
10 76
10 78
10 85
10 86
10 88
10 89
10 90
10 92
10 93
10 94
10 96
10 97
10 98
10 99
11 12
11 14
11 19
11 20
11 21
11 22
11 23
11 24
11 29
11 34
11 37
11 39
11 43
11 44
11 49
11 52
11 57
11 58
11 59
11 60
11 61
11 62
11 63
11 65
11 66
11 67
11 68
11 69
11 70
11 71
11 74
11 75
11 79
11 83
11 84
11 85
11 86
11 87
11 88
11 90
11 96
11 97
11 99
12 13
12 14
12 15
12 16
12 18
12 19
12 20
12 21
12 23
12 25
12 26
12 28
12 29
12 30
12 31
12 32
12 33
12 37
12 38
12 39
12 42
12 43
12 44
12 46
12 47
12 48
12 49
12 51
12 55
12 56
12 60
12 61
12 62
12 65
12 67
12 68
12 75
12 77
12 80
12 84
12 86
12 88
12 89
12 90
12 92
12 94
12 96
12 97
12 99
13 18
13 20
13 21
13 25
13 26
13 28
13 29
13 32
13 33
13 36
13 37
13 39
13 43
13 44
13 46
13 48
13 49
13 52
13 55
13 57
13 59
13 60
13 61
13 63
13 65
13 66
13 70
13 71
13 73
13 77
13 79
13 80
13 81
13 82
13 83
13 86
13 88
13 90
13 93
13 94
13 95
13 97
13 98
13 99
14 15
14 17
14 18
14 19
14 21
14 25
14 26
14 27
14 30
14 31
14 34
14 35
14 36
14 37
14 38
14 40
14 41
14 42
14 43
14 45
14 50
14 54
14 56
14 61
14 62
14 64
14 68
14 72
14 73
14 75
14 78
14 79
14 81
14 82
14 84
14 88
14 90
14 91
14 92
14 94
14 95
14 96
14 98
15 18
15 24
15 25
15 27
15 28
15 34
15 35
15 37
15 38
15 41
15 42
15 45
15 46
15 47
15 48
15 50
15 52
15 53
15 54
15 55
15 58
15 60
15 64
15 66
15 68
15 71
15 73
15 74
15 75
15 76
15 79
15 80
15 85
15 90
15 91
15 92
15 93
15 94
15 95
15 98
16 18
16 19
16 20
16 22
16 23
16 24
16 28
16 31
16 35
16 38
16 40
16 43
16 44
16 48
16 54
16 57
16 67
16 69
16 73
16 75
16 77
16 78
16 81
16 82
16 83
16 85
16 86
16 88
16 89
16 90
16 92
16 93
16 94
16 95
16 96
16 98
16 99
17 22
17 23
17 25
17 27
17 28
17 29
17 30
17 34
17 36
17 37
17 38
17 39
17 41
17 47
17 49
17 52
17 56
17 57
17 58
17 59
17 62
17 63
17 64
17 66
17 67
17 69
17 70
17 73
17 75
17 76
17 77
17 78
17 79
17 81
17 82
17 83
17 84
17 86
17 87
17 88
17 91
17 92
17 95
17 99
18 64
18 71
18 86
18 65
18 20
18 22
18 23
18 24
18 68
18 26
18 27
18 92
18 90
18 30
18 31
18 32
18 33
18 91
18 77
18 38
18 40
18 43
18 80
18 93
18 48
18 89
18 53
18 54
18 73
18 57
18 94
18 60
18 61
18 62
18 63
19 21
19 24
19 25
19 27
19 28
19 29
19 30
19 31
19 32
19 34
19 37
19 40
19 42
19 43
19 44
19 46
19 47
19 52
19 57
19 59
19 60
19 61
19 66
19 70
19 72
19 78
19 79
19 83
19 84
19 86
19 88
19 90
19 91
19 95
19 99
20 21
20 24
20 26
20 28
20 29
20 30
20 31
20 32
20 35
20 36
20 38
20 39
20 40
20 45
20 47
20 50
20 52
20 53
20 58
20 60
20 63
20 64
20 70
20 73
20 78
20 80
20 83
20 84
20 87
20 88
20 92
20 95
20 96
21 24
21 27
21 30
21 31
21 32
21 35
21 36
21 37
21 44
21 45
21 48
21 50
21 53
21 54
21 57
21 61
21 62
21 63
21 64
21 65
21 66
21 68
21 70
21 72
21 75
21 77
21 78
21 79
21 80
21 84
21 85
21 87
21 88
21 96
21 98
21 99
22 24
22 25
22 26
22 27
22 30
22 31
22 33
22 34
22 35
22 40
22 41
22 42
22 43
22 44
22 46
22 48
22 49
22 50
22 52
22 54
22 55
22 56
22 61
22 65
22 66
22 68
22 69
22 73
22 74
22 77
22 79
22 80
22 82
22 83
22 85
22 86
22 87
22 89
22 92
22 93
22 94
22 95
22 96
23 24
23 29
23 36
23 37
23 38
23 39
23 40
23 41
23 43
23 44
23 48
23 49
23 50
23 53
23 54
23 56
23 58
23 59
23 61
23 62
23 65
23 66
23 69
23 70
23 71
23 72
23 73
23 76
23 81
23 83
23 84
23 86
23 89
23 92
23 93
23 95
23 98
23 99
24 25
24 26
24 27
24 31
24 32
24 33
24 35
24 36
24 37
24 39
24 41
24 43
24 44
24 45
24 47
24 48
24 51
24 52
24 53
24 54
24 55
24 57
24 61
24 63
24 65
24 66
24 67
24 68
24 69
24 70
24 71
24 72
24 75
24 80
24 81
24 82
24 83
24 85
24 87
24 90
24 91
24 93
24 95
24 96
24 98
24 99
25 26
25 27
25 28
25 30
25 31
25 34
25 35
25 36
25 37
25 41
25 42
25 43
25 44
25 45
25 47
25 48
25 51
25 54
25 57
25 61
25 62
25 64
25 66
25 67
25 69
25 71
25 75
25 80
25 82
25 83
25 85
25 88
25 93
25 94
25 96
25 97
25 98
25 99
26 28
26 29
26 30
26 31
26 32
26 33
26 34
26 35
26 40
26 42
26 43
26 45
26 46
26 47
26 48
26 49
26 50
26 52
26 54
26 61
26 62
26 63
26 64
26 66
26 68
26 70
26 73
26 74
26 78
26 80
26 82
26 84
26 85
26 88
26 89
26 90
26 91
26 92
26 97
27 28
27 30
27 33
27 35
27 39
27 40
27 41
27 43
27 45
27 46
27 50
27 54
27 56
27 57
27 58
27 61
27 62
27 65
27 67
27 68
27 69
27 70
27 77
27 79
27 80
27 81
27 83
27 84
27 87
27 88
27 90
27 92
27 93
27 94
27 96
28 29
28 30
28 32
28 33
28 34
28 35
28 38
28 39
28 40
28 43
28 47
28 48
28 50
28 52
28 53
28 54
28 56
28 57
28 59
28 60
28 62
28 64
28 66
28 67
28 69
28 73
28 74
28 75
28 76
28 79
28 80
28 84
28 85
28 86
28 88
28 89
28 90
28 91
28 92
28 93
28 94
28 96
28 97
28 98
29 32
29 33
29 35
29 41
29 42
29 45
29 47
29 48
29 51
29 53
29 55
29 59
29 60
29 63
29 65
29 69
29 70
29 72
29 76
29 77
29 78
29 81
29 82
29 83
29 85
29 86
29 89
29 91
29 94
29 96
30 31
30 34
30 35
30 36
30 38
30 40
30 41
30 42
30 43
30 44
30 47
30 51
30 54
30 56
30 58
30 60
30 61
30 62
30 63
30 64
30 66
30 71
30 82
30 84
30 86
30 87
30 88
30 89
30 92
30 95
30 96
31 33
31 34
31 35
31 37
31 39
31 40
31 41
31 42
31 43
31 46
31 48
31 49
31 50
31 53
31 55
31 56
31 57
31 59
31 60
31 61
31 63
31 65
31 66
31 67
31 68
31 70
31 71
31 73
31 76
31 78
31 80
31 81
31 83
31 84
31 86
31 87
31 88
31 90
31 93
31 94
31 95
31 96
31 98
31 99
32 34
32 35
32 36
32 37
32 40
32 45
32 46
32 48
32 50
32 56
32 61
32 64
32 67
32 69
32 70
32 71
32 72
32 76
32 77
32 79
32 80
32 84
32 85
32 88
32 89
32 90
32 91
32 92
32 94
32 96
32 97
32 98
33 36
33 41
33 44
33 48
33 49
33 50
33 51
33 52
33 54
33 56
33 60
33 64
33 69
33 72
33 73
33 75
33 77
33 79
33 81
33 83
33 84
33 86
33 88
33 90
33 91
33 92
33 93
33 95
33 96
33 97
33 98
33 99
34 35
34 36
34 37
34 38
34 40
34 41
34 44
34 45
34 46
34 47
34 49
34 50
34 52
34 53
34 54
34 55
34 56
34 57
34 59
34 61
34 62
34 67
34 68
34 73
34 76
34 78
34 80
34 81
34 83
34 84
34 89
34 90
34 95
34 96
34 98
34 99
35 38
35 39
35 40
35 41
35 42
35 44
35 50
35 52
35 53
35 54
35 55
35 56
35 57
35 59
35 60
35 62
35 63
35 64
35 69
35 71
35 72
35 73
35 74
35 76
35 77
35 80
35 82
35 83
35 86
35 87
35 89
35 91
35 93
35 95
35 96
35 98
36 38
36 40
36 41
36 42
36 46
36 48
36 49
36 50
36 51
36 53
36 59
36 60
36 62
36 63
36 65
36 68
36 71
36 73
36 74
36 76
36 79
36 80
36 82
36 84
36 85
36 86
36 89
36 91
36 94
36 95
36 96
36 99
37 44
37 46
37 48
37 49
37 51
37 52
37 57
37 59
37 60
37 61
37 63
37 66
37 68
37 71
37 72
37 75
37 76
37 77
37 79
37 84
37 85
37 86
37 89
37 91
37 93
38 42
38 43
38 45
38 46
38 50
38 56
38 58
38 59
38 61
38 64
38 65
38 69
38 70
38 71
38 72
38 74
38 78
38 80
38 83
38 87
38 89
38 90
38 91
38 92
38 95
38 96
38 99
39 41
39 43
39 44
39 48
39 49
39 51
39 52
39 60
39 63
39 64
39 65
39 67
39 68
39 69
39 71
39 72
39 75
39 78
39 82
39 83
39 86
39 87
39 88
39 89
39 92
39 93
39 94
39 95
40 42
40 43
40 44
40 46
40 47
40 48
40 50
40 54
40 55
40 60
40 61
40 62
40 63
40 64
40 68
40 71
40 73
40 74
40 78
40 80
40 81
40 82
40 84
40 86
40 88
40 89
40 91
40 92
40 93
40 97
40 99
41 44
41 46
41 47
41 48
41 49
41 50
41 51
41 55
41 56
41 63
41 65
41 66
41 69
41 70
41 72
41 73
41 76
41 77
41 79
41 80
41 81
41 85
41 86
41 90
41 91
41 95
41 99
42 43
42 44
42 45
42 47
42 48
42 49
42 50
42 51
42 52
42 53
42 55
42 56
42 58
42 60
42 63
42 66
42 67
42 68
42 74
42 75
42 77
42 78
42 79
42 80
42 81
42 85
42 86
42 88
42 90
42 91
42 94
42 95
42 96
42 97
42 98
43 46
43 47
43 49
43 50
43 53
43 55
43 63
43 65
43 66
43 67
43 68
43 71
43 72
43 73
43 75
43 80
43 81
43 83
43 84
43 87
43 88
43 90
43 91
43 95
43 97
43 98
44 45
44 47
44 48
44 54
44 55
44 57
44 61
44 65
44 67
44 69
44 71
44 72
44 73
44 76
44 78
44 80
44 84
44 85
44 87
44 88
44 90
44 94
44 97
44 99
45 83
45 75
45 76
45 98
45 78
45 67
45 87
45 94
45 95
45 90
45 82
45 46
45 48
45 50
45 51
45 53
45 55
45 56
45 57
45 60
45 85
45 63
46 49
46 50
46 51
46 52
46 53
46 56
46 57
46 58
46 59
46 60
46 61
46 62
46 63
46 64
46 65
46 69
46 70
46 71
46 74
46 75
46 79
46 80
46 81
46 86
46 89
46 90
46 91
46 93
46 94
46 95
46 96
47 64
47 65
47 66
47 98
47 68
47 70
47 75
47 77
47 80
47 85
47 89
47 79
47 96
47 97
47 81
47 93
47 72
47 73
47 56
47 88
47 59
47 63
48 50
48 52
48 55
48 61
48 62
48 63
48 68
48 71
48 72
48 73
48 75
48 79
48 84
48 86
48 88
48 89
48 91
48 92
48 93
48 97
48 99
49 52
49 55
49 62
49 63
49 64
49 66
49 69
49 71
49 73
49 75
49 77
49 78
49 80
49 81
49 82
49 83
49 86
49 88
49 89
49 94
49 95
49 96
49 97
49 98
49 99
50 51
50 54
50 55
50 56
50 59
50 60
50 61
50 65
50 67
50 70
50 71
50 72
50 73
50 74
50 77
50 79
50 80
50 81
50 82
50 83
50 85
50 90
50 98
51 53
51 54
51 55
51 56
51 57
51 61
51 63
51 64
51 66
51 67
51 69
51 71
51 72
51 73
51 76
51 80
51 81
51 84
51 86
51 88
51 89
51 92
51 93
51 94
51 95
51 96
51 97
52 55
52 57
52 59
52 60
52 62
52 67
52 68
52 69
52 73
52 74
52 75
52 76
52 78
52 79
52 80
52 82
52 84
52 87
52 93
52 96
52 97
53 64
53 65
53 67
53 73
53 87
53 66
53 77
53 80
53 88
53 99
53 89
53 90
53 79
53 94
53 96
53 78
53 91
53 82
53 84
53 95
53 74
53 85
54 60
54 62
54 63
54 64
54 69
54 70
54 71
54 72
54 73
54 74
54 75
54 78
54 80
54 81
54 83
54 86
54 88
54 89
54 93
54 94
54 95
54 96
54 98
54 99
55 56
55 58
55 61
55 64
55 68
55 69
55 71
55 74
55 76
55 77
55 80
55 81
55 82
55 83
55 84
55 87
55 90
55 91
55 92
55 94
55 96
55 97
55 98
56 59
56 61
56 63
56 64
56 65
56 69
56 70
56 73
56 77
56 79
56 80
56 82
56 84
56 85
56 86
56 90
56 91
56 92
56 93
56 97
56 98
56 99
57 62
57 63
57 66
57 67
57 69
57 71
57 72
57 75
57 76
57 77
57 79
57 83
57 86
57 88
57 89
57 91
57 92
57 94
57 95
57 97
57 98
58 64
58 70
58 76
58 78
58 80
58 82
58 83
58 86
58 68
58 90
58 92
58 97
58 98
58 91
58 71
58 99
58 72
58 79
58 89
58 87
58 59
58 60
58 62
59 65
59 93
59 70
59 80
59 82
59 84
59 98
59 89
59 90
59 69
59 97
59 81
59 92
59 67
59 87
59 72
59 94
59 61
59 62
59 63
60 61
60 62
60 65
60 67
60 68
60 69
60 70
60 71
60 74
60 75
60 76
60 77
60 78
60 79
60 80
60 81
60 82
60 83
60 85
60 86
60 91
60 92
60 93
60 94
60 97
60 98
61 66
61 69
61 73
61 74
61 76
61 83
61 84
61 86
61 88
61 89
61 90
61 92
61 93
61 94
61 97
61 98
61 99
62 64
62 66
62 67
62 69
62 72
62 74
62 77
62 80
62 83
62 84
62 86
62 89
62 90
62 94
62 95
62 96
62 98
62 99
63 67
63 70
63 72
63 73
63 75
63 76
63 77
63 84
63 85
63 86
63 88
63 89
63 90
63 92
63 93
63 97
64 65
64 67
64 76
64 78
64 83
64 84
64 85
64 86
64 87
64 92
64 94
64 95
64 96
64 99
65 66
65 67
65 69
65 72
65 74
65 78
65 80
65 82
65 85
65 86
65 87
65 89
65 90
65 93
65 95
65 96
65 97
65 98
66 68
66 70
66 74
66 75
66 77
66 78
66 83
66 84
66 85
66 86
66 87
66 88
66 89
66 91
66 92
66 93
66 94
66 95
66 97
66 98
66 99
67 69
67 70
67 71
67 72
67 73
67 74
67 75
67 76
67 77
67 79
67 81
67 83
67 86
67 87
67 88
67 90
67 91
67 95
67 96
67 97
67 98
68 80
68 82
68 83
68 84
68 87
68 88
68 90
68 91
68 94
68 95
68 96
68 99
69 70
69 71
69 73
69 78
69 80
69 81
69 82
69 83
69 84
69 86
69 87
69 89
69 92
69 93
69 94
69 95
69 96
70 73
70 77
70 78
70 79
70 81
70 83
70 84
70 86
70 87
70 88
70 89
70 90
70 91
70 92
70 98
70 99
71 73
71 74
71 76
71 78
71 79
71 81
71 83
71 84
71 85
71 86
71 92
71 96
72 73
72 74
72 79
72 81
72 87
72 89
72 90
72 91
72 92
72 94
72 95
72 96
72 97
73 74
73 77
73 80
73 81
73 87
73 91
73 94
73 96
73 97
73 99
74 80
74 81
74 87
74 88
74 89
74 93
74 92
74 83
75 76
75 77
75 78
75 81
75 83
75 84
75 85
75 88
75 89
75 90
76 78
76 80
76 81
76 87
76 88
76 89
76 90
76 91
76 93
76 98
77 96
77 86
77 88
77 94
77 98
77 97
77 82
77 83
78 80
78 83
78 84
78 85
78 86
78 87
78 89
78 91
78 92
78 93
78 94
78 99
79 82
79 83
79 84
79 85
79 86
79 87
79 89
79 91
79 92
79 94
79 98
80 81
80 82
80 83
80 85
80 86
80 88
80 89
80 92
80 94
80 97
80 98
81 97
81 95
81 98
81 86
81 96
81 91
82 83
82 86
82 87
82 88
82 90
82 92
82 93
82 94
82 95
83 84
83 86
83 88
83 91
83 97
83 98
83 99
84 85
84 88
84 89
84 90
84 95
84 98
84 99
85 86
85 87
85 98
85 91
85 96
86 88
86 89
86 91
86 92
86 94
86 95
86 98
86 99
87 92
87 93
87 94
87 96
87 98
87 99
88 89
88 90
88 91
88 92
88 94
88 96
88 98
88 99
89 90
89 91
89 94
89 96
89 97
89 98
90 91
90 93
90 96
90 98
91 96
91 98
91 99
92 95
92 99
93 94
93 97
93 98
93 99
94 95
94 99
95 99
96 97
96 98
97 98
97 99
