100
236 74
277 139
246 145
207 144
276 282
63 202
167 62
57 171
42 3
177 69
99 48
253 265
26 278
13 16
69 118
163 136
64 35
165 18
122 8
267 244
250 243
166 47
88 144
21 146
253 27
229 72
246 255
111 275
90 288
294 44
148 146
175 84
252 217
115 227
170 109
291 147
241 156
56 222
189 186
156 291
87 291
276 83
176 60
278 120
77 272
57 273
45 294
115 297
219 22
59 43
40 290
267 14
253 95
121 2
14 130
124 282
290 136
168 289
254 51
225 184
214 233
262 238
116 22
108 249
105 54
279 156
111 268
30 212
164 233
170 125
211 191
275 12
186 32
114 42
57 292
110 29
223 281
237 61
271 104
229 140
251 181
163 80
256 79
247 52
50 226
60 60
271 83
263 207
56 41
168 144
295 112
183 108
251 16
207 286
131 61
112 265
105 87
203 212
174 214
35 119
0 64
0 1
0 3
0 97
0 69
0 65
0 9
0 75
0 76
0 14
0 79
0 16
0 81
0 18
0 67
0 84
0 21
0 22
0 24
0 25
0 92
0 96
0 80
0 98
0 35
0 36
0 38
0 39
0 47
0 99
0 83
0 73
0 56
0 57
0 61
0 63
1 2
1 3
1 5
1 8
1 11
1 14
1 19
1 22
1 24
1 26
1 27
1 28
1 30
1 31
1 33
1 37
1 38
1 39
1 40
1 43
1 44
1 47
1 52
1 53
1 54
1 57
1 58
1 63
1 65
1 66
1 69
1 70
1 72
1 74
1 75
1 78
1 79
1 81
1 82
1 85
1 86
1 88
1 89
1 90
1 92
1 94
1 97
1 99
2 3
2 4
2 6
2 7
2 15
2 16
2 22
2 23
2 24
2 25
2 26
2 29
2 30
2 31
2 32
2 34
2 37
2 41
2 46
2 47
2 48
2 52
2 53
2 54
2 56
2 58
2 59
2 61
2 66
2 70
2 71
2 73
2 75
2 77
2 80
2 83
2 86
2 89
2 92
2 93
2 95
2 96
2 97
2 98
3 5
3 9
3 11
3 13
3 14
3 19
3 20
3 21
3 23
3 25
3 27
3 28
3 30
3 33
3 34
3 35
3 37
3 38
3 40
3 42
3 43
3 44
3 48
3 49
3 52
3 53
3 56
3 58
3 61
3 65
3 66
3 67
3 69
3 70
3 74
3 76
3 77
3 78
3 80
3 81
3 84
3 85
3 86
3 89
3 90
3 91
3 97
4 10
4 11
4 12
4 15
4 16
4 20
4 21
4 22
4 24
4 25
4 27
4 28
4 30
4 31
4 32
4 35
4 36
4 37
4 40
4 42
4 44
4 46
4 48
4 50
4 51
4 52
4 62
4 63
4 65
4 66
4 68
4 70
4 73
4 74
4 76
4 77
4 79
4 81
4 82
4 83
4 84
4 85
4 87
4 88
4 90
4 93
4 94
4 97
4 98
4 99
5 11
5 12
5 13
5 14
5 16
5 18
5 23
5 26
5 29
5 31
5 32
5 33
5 35
5 38
5 40
5 41
5 46
5 49
5 52
5 55
5 56
5 60
5 61
5 62
5 66
5 68
5 69
5 70
5 71
5 74
5 75
5 77
5 78
5 81
5 82
5 83
5 84
5 85
5 87
5 88
5 90
5 91
5 92
5 93
5 97
5 99
6 79
6 75
6 72
6 9
6 10
6 11
6 66
6 15
6 16
6 17
6 82
6 19
6 22
6 23
6 24
6 89
6 90
6 27
6 95
6 32
6 34
6 87
6 36
6 40
6 41
6 43
6 44
6 45
6 46
6 47
6 48
6 99
6 91
6 51
6 74
6 55
6 88
6 58
6 60
6 61
6 62
7 9
7 10
7 11
7 12
7 15
7 16
7 17
7 18
7 19
7 20
7 22
7 23
7 24
7 25
7 26
7 29
7 33
7 35
7 41
7 44
7 45
7 46
7 47
7 48
7 52
7 54
7 58
7 61
7 62
7 63
7 66
7 68
7 71
7 72
7 73
7 75
7 76
7 77
7 79
7 82
7 85
7 92
7 96
7 98
8 10
8 11
8 13
8 16
8 18
8 19
8 20
8 25
8 29
8 30
8 31
8 32
8 33
8 34
8 35
8 36
8 38
8 39
8 40
8 41
8 42
8 44
8 47
8 52
8 57
8 59
8 60
8 66
8 70
8 75
8 76
8 77
8 78
8 79
8 80
8 81
8 83
8 84
8 87
8 88
8 91
8 93
8 95
8 96
8 97
9 17
9 18
9 19
9 20
9 21
9 23
9 25
9 26
9 30
9 31
9 34
9 36
9 38
9 40
9 42
9 45
9 47
9 48
9 50
9 52
9 54
9 56
9 57
9 59
9 63
9 64
9 66
9 68
9 70
9 75
9 76
9 78
9 80
9 81
9 82
9 85
9 87
9 89
9 90
9 91
9 94
9 96
9 99
10 11
10 12
10 16
10 19
10 20
10 21
10 22
10 23
10 25
10 26
10 27
10 30
10 31
10 33
10 34
10 35
10 36
10 37
10 38
10 39
10 40
10 42
10 43
10 45
10 48
10 49
10 50
10 53
10 54
10 58
10 59
10 60
10 61
10 62
10 63
10 64
10 67
10 70
10 73
10 74
10 75
10 77
10 78
10 81
10 85
10 87
10 88
10 92
10 94
10 95
11 12
11 14
11 15
11 16
11 23
11 24
11 28
11 31
11 32
11 34
11 35
11 37
11 38
11 40
11 41
11 48
11 49
11 50
11 51
11 52
11 53
11 54
11 55
11 56
11 57
11 58
11 61
11 63
11 64
11 69
11 71
11 72
11 73
11 76
11 78
11 80
11 87
11 88
11 90
11 91
11 92
11 93
11 94
11 96
11 97
11 98
11 99
12 13
12 16
12 18
12 20
12 21
12 22
12 25
12 26
12 27
12 30
12 31
12 33
12 35
12 37
12 39
12 40
12 41
12 42
12 44
12 48
12 51
12 52
12 53
12 55
12 58
12 60
12 63
12 64
12 65
12 67
12 70
12 73
12 74
12 77
12 79
12 82
12 83
12 84
12 85
12 88
12 90
12 91
12 96
13 14
13 18
13 19
13 22
13 23
13 24
13 25
13 29
13 30
13 32
13 34
13 37
13 39
13 40
13 41
13 46
13 47
13 53
13 54
13 56
13 60
13 62
13 64
13 65
13 68
13 71
13 73
13 75
13 78
13 79
13 81
13 82
13 85
13 88
13 89
13 90
13 91
13 92
13 94
13 95
13 97
14 66
14 70
14 71
14 64
14 77
14 15
14 80
14 17
14 75
14 20
14 22
14 87
14 72
14 26
14 79
14 81
14 30
14 31
14 98
14 35
14 36
14 37
14 38
14 39
14 40
14 82
14 47
14 49
14 52
14 53
14 54
14 55
14 56
14 59
15 17
15 18
15 19
15 20
15 22
15 24
15 25
15 26
15 29
15 30
15 33
15 41
15 42
15 47
15 48
15 51
15 56
15 58
15 60
15 61
15 62
15 65
15 70
15 72
15 74
15 76
15 77
15 82
15 83
15 85
15 86
15 87
15 88
15 89
15 90
15 91
15 92
15 94
15 96
15 98
16 17
16 18
16 19
16 20
16 24
16 27
16 28
16 29
16 30
16 31
16 32
16 35
16 36
16 37
16 38
16 39
16 41
16 43
16 44
16 45
16 48
16 54
16 56
16 59
16 60
16 61
16 67
16 68
16 70
16 72
16 74
16 76
16 78
16 79
16 81
16 82
16 83
16 84
16 87
16 88
16 89
16 92
16 93
16 95
16 96
16 99
17 19
17 22
17 26
17 27
17 29
17 30
17 32
17 34
17 35
17 36
17 40
17 44
17 45
17 46
17 49
17 50
17 51
17 52
17 55
17 59
17 62
17 64
17 66
17 67
17 68
17 69
17 72
17 74
17 75
17 77
17 83
17 84
17 85
17 87
17 94
17 96
17 98
17 99
18 19
18 20
18 21
18 25
18 26
18 27
18 28
18 31
18 34
18 36
18 37
18 38
18 40
18 41
18 45
18 46
18 48
18 49
18 50
18 51
18 52
18 56
18 57
18 58
18 59
18 61
18 62
18 63
18 68
18 69
18 70
18 72
18 73
18 77
18 82
18 84
18 87
18 90
18 92
18 96
18 98
19 20
19 21
19 22
19 24
19 27
19 30
19 33
19 34
19 35
19 36
19 39
19 40
19 41
19 48
19 51
19 53
19 58
19 59
19 62
19 65
19 66
19 68
19 69
19 71
19 72
19 73
19 74
19 76
19 78
19 81
19 82
19 84
19 86
19 88
19 90
19 92
19 94
19 95
19 96
19 99
20 22
20 24
20 25
20 28
20 31
20 34
20 36
20 37
20 38
20 40
20 41
20 42
20 44
20 47
20 50
20 51
20 52
20 53
20 55
20 56
20 57
20 63
20 68
20 71
20 74
20 75
20 77
20 82
20 84
20 85
20 86
20 87
20 88
20 89
20 90
20 92
20 93
20 94
20 95
20 96
20 98
20 99
21 64
21 66
21 71
21 72
21 75
21 77
21 79
21 81
21 84
21 96
21 89
21 25
21 27
21 92
21 93
21 30
21 32
21 97
21 35
21 36
21 37
21 39
21 42
21 43
21 44
21 46
21 47
21 76
21 91
21 53
21 56
21 94
22 23
22 24
22 25
22 27
22 28
22 30
22 36
22 37
22 41
22 42
22 43
22 45
22 47
22 48
22 49
22 51
22 53
22 55
22 57
22 58
22 59
22 61
22 62
22 67
22 72
22 74
22 75
22 76
22 77
22 78
22 80
22 81
22 83
22 86
22 87
22 88
22 89
22 90
22 93
22 95
22 97
22 98
23 26
23 29
23 32
23 33
23 36
23 38
23 39
23 42
23 43
23 45
23 47
23 50
23 52
23 55
23 57
23 58
23 59
23 60
23 65
23 69
23 70
23 72
23 73
23 75
23 76
23 79
23 80
23 82
23 83
23 84
23 85
23 87
23 90
23 91
23 92
23 96
24 28
24 29
24 30
24 31
24 33
24 34
24 35
24 38
24 40
24 41
24 42
24 43
24 45
24 46
24 48
24 50
24 52
24 54
24 55
24 58
24 60
24 63
24 64
24 67
24 71
24 73
24 75
24 84
24 86
24 89
24 90
24 93
24 94
24 97
24 99
25 26
25 30
25 32
25 33
25 34
25 37
25 47
25 48
25 49
25 51
25 52
25 54
25 55
25 56
25 60
25 63
25 64
25 65
25 68
25 71
25 72
25 73
25 74
25 76
25 81
25 82
25 83
25 84
25 85
25 88
25 89
25 91
25 93
25 98
26 29
26 30
26 31
26 35
26 36
26 38
26 41
26 43
26 45
26 46
26 48
26 49
26 50
26 52
26 54
26 55
26 57
26 58
26 59
26 63
26 65
26 70
26 73
26 74
26 76
26 77
26 78
26 79
26 81
26 83
26 85
26 86
26 87
26 90
26 92
26 95
26 96
27 28
27 30
27 32
27 33
27 35
27 36
27 37
27 38
27 42
27 44
27 45
27 47
27 49
27 50
27 51
27 52
27 53
27 55
27 56
27 59
27 63
27 64
27 66
27 68
27 69
27 71
27 74
27 75
27 77
27 79
27 81
27 83
27 84
27 90
27 97
28 29
28 32
28 33
28 34
28 35
28 38
28 39
28 41
28 43
28 44
28 47
28 52
28 53
28 54
28 55
28 58
28 59
28 60
28 63
28 64
28 66
28 72
28 73
28 74
28 75
28 77
28 80
28 84
28 87
28 90
28 91
28 95
28 96
28 97
28 98
29 30
29 32
29 33
29 35
29 36
29 38
29 42
29 43
29 47
29 48
29 51
29 57
29 58
29 62
29 65
29 67
29 69
29 70
29 72
29 79
29 80
29 81
29 82
29 85
29 86
29 87
29 88
29 89
29 90
29 91
29 92
29 93
29 94
29 98
30 32
30 34
30 36
30 38
30 39
30 40
30 41
30 42
30 43
30 44
30 46
30 47
30 48
30 49
30 50
30 51
30 54
30 57
30 58
30 60
30 64
30 65
30 69
30 70
30 71
30 73
30 74
30 77
30 81
30 83
30 85
30 87
30 89
30 90
30 91
30 94
30 96
30 97
30 99
31 32
31 33
31 35
31 37
31 40
31 44
31 48
31 51
31 54
31 55
31 57
31 58
31 60
31 61
31 62
31 63
31 64
31 65
31 66
31 70
31 71
31 73
31 74
31 75
31 77
31 78
31 80
31 81
31 85
31 86
31 88
31 89
31 94
31 96
31 98
31 99
32 34
32 35
32 36
32 37
32 41
32 45
32 52
32 53
32 54
32 55
32 56
32 57
32 59
32 60
32 61
32 62
32 65
32 66
32 69
32 71
32 73
32 75
32 76
32 77
32 81
32 82
32 83
32 86
32 87
32 89
32 90
32 94
32 95
32 96
32 97
32 98
32 99
33 66
33 68
33 73
33 75
33 77
33 78
33 80
33 88
33 86
33 98
33 69
33 96
33 97
33 34
33 35
33 36
33 37
33 38
33 41
33 71
33 44
33 46
33 48
33 79
33 55
33 57
33 61
34 65
34 68
34 74
34 97
34 78
34 91
34 93
34 36
34 70
34 38
34 81
34 42
34 43
34 44
34 96
34 72
34 83
34 52
34 53
34 54
34 73
34 57
34 84
34 61
34 63
35 37
35 41
35 44
35 46
35 47
35 48
35 49
35 50
35 51
35 52
35 53
35 57
35 59
35 60
35 62
35 65
35 66
35 67
35 69
35 72
35 74
35 75
35 77
35 80
35 81
35 82
35 83
35 84
35 85
35 87
35 88
35 92
35 94
35 96
35 98
35 99
36 39
36 40
36 44
36 47
36 49
36 50
36 51
36 52
36 53
36 54
36 56
36 59
36 62
36 64
36 65
36 70
36 71
36 72
36 77
36 78
36 80
36 82
36 83
36 84
36 85
36 88
36 89
36 90
36 91
36 92
36 93
36 94
36 97
36 98
36 99
37 39
37 41
37 43
37 44
37 47
37 48
37 50
37 52
37 54
37 56
37 59
37 61
37 64
37 65
37 69
37 70
37 71
37 74
37 75
37 77
37 79
37 80
37 83
37 85
37 86
37 88
37 91
37 98
38 39
38 42
38 43
38 45
38 46
38 47
38 48
38 49
38 50
38 51
38 52
38 54
38 55
38 56
38 58
38 60
38 61
38 62
38 67
38 70
38 73
38 74
38 75
38 76
38 77
38 79
38 84
38 85
38 87
38 90
38 92
38 94
38 97
38 98
39 40
39 41
39 42
39 43
39 46
39 47
39 48
39 50
39 52
39 55
39 57
39 61
39 62
39 65
39 66
39 67
39 68
39 70
39 71
39 73
39 74
39 76
39 77
39 78
39 80
39 82
39 84
39 86
39 92
39 95
39 97
39 98
40 41
40 42
40 44
40 45
40 47
40 48
40 50
40 51
40 52
40 54
40 55
40 58
40 60
40 61
40 62
40 69
40 70
40 71
40 73
40 76
40 77
40 79
40 80
40 83
40 87
40 90
40 91
40 92
40 97
40 98
40 99
41 44
41 45
41 47
41 54
41 56
41 57
41 59
41 61
41 62
41 65
41 66
41 68
41 69
41 71
41 72
41 74
41 75
41 78
41 80
41 82
41 85
41 87
41 89
41 91
41 93
41 94
41 97
41 98
42 44
42 45
42 47
42 49
42 50
42 52
42 53
42 56
42 61
42 65
42 66
42 67
42 68
42 69
42 70
42 71
42 72
42 74
42 76
42 78
42 82
42 87
42 89
42 90
42 93
42 94
42 96
42 97
42 99
43 45
43 46
43 48
43 52
43 54
43 56
43 57
43 59
43 65
43 66
43 67
43 70
43 71
43 72
43 73
43 74
43 75
43 77
43 79
43 81
43 88
43 89
43 92
43 93
43 95
43 98
43 99
44 45
44 46
44 48
44 51
44 53
44 54
44 61
44 62
44 63
44 66
44 69
44 71
44 75
44 76
44 77
44 78
44 80
44 82
44 84
44 85
44 87
44 88
44 93
44 95
44 98
45 47
45 48
45 49
45 51
45 55
45 56
45 57
45 59
45 60
45 61
45 62
45 66
45 68
45 70
45 76
45 77
45 78
45 80
45 81
45 84
45 85
45 87
45 88
45 89
45 90
45 93
45 96
45 97
45 98
45 99
46 48
46 50
46 52
46 53
46 54
46 55
46 56
46 59
46 60
46 63
46 65
46 69
46 71
46 72
46 74
46 75
46 76
46 79
46 80
46 83
46 84
46 85
46 86
46 88
46 89
46 90
46 92
46 95
46 98
46 99
47 49
47 53
47 55
47 57
47 58
47 61
47 63
47 67
47 69
47 72
47 73
47 74
47 75
47 76
47 79
47 82
47 84
47 87
47 88
47 89
47 93
47 99
48 49
48 52
48 59
48 60
48 61
48 62
48 69
48 70
48 71
48 72
48 74
48 77
48 84
48 85
48 88
48 91
48 93
48 94
48 95
48 96
48 98
49 64
49 65
49 66
49 70
49 75
49 76
49 77
49 80
49 78
49 87
49 86
49 97
49 81
49 91
49 50
49 82
49 52
49 53
49 55
49 58
49 59
49 94
49 62
50 51
50 53
50 55
50 56
50 60
50 63
50 65
50 66
50 67
50 68
50 71
50 75
50 76
50 82
50 85
50 90
50 91
50 93
50 94
50 96
50 97
50 98
50 99
51 52
51 53
51 55
51 56
51 61
51 62
51 63
51 65
51 69
51 70
51 71
51 74
51 75
51 80
51 81
51 82
51 84
51 85
51 86
51 87
51 88
51 90
51 92
51 93
51 94
51 95
52 54
52 60
52 62
52 66
52 67
52 70
52 72
52 75
52 77
52 78
52 82
52 90
52 92
52 93
52 95
52 96
52 97
53 56
53 58
53 59
53 62
53 64
53 65
53 66
53 67
53 68
53 69
53 71
53 72
53 76
53 78
53 83
53 84
53 85
53 87
53 88
53 90
53 91
53 92
53 93
53 95
53 97
53 99
54 55
54 56
54 58
54 59
54 60
54 62
54 64
54 65
54 68
54 69
54 70
54 71
54 73
54 75
54 76
54 78
54 79
54 80
54 81
54 84
54 87
54 88
54 89
54 93
54 94
54 96
55 56
55 58
55 59
55 61
55 62
55 63
55 65
55 69
55 71
55 74
55 75
55 77
55 78
55 80
55 83
55 86
55 87
55 88
55 93
55 94
55 99
56 58
56 60
56 61
56 63
56 66
56 67
56 70
56 71
56 72
56 74
56 76
56 78
56 79
56 80
56 81
56 82
56 84
56 88
56 89
56 93
56 94
56 95
56 98
57 59
57 64
57 65
57 69
57 72
57 73
57 75
57 79
57 80
57 81
57 83
57 84
57 85
57 89
57 90
57 91
57 93
57 94
57 95
57 96
57 97
57 98
57 99
58 60
58 63
58 64
58 65
58 66
58 67
58 69
58 71
58 73
58 74
58 75
58 77
58 78
58 79
58 80
58 83
58 84
58 85
58 86
58 87
58 88
58 91
58 92
58 93
58 94
58 95
58 98
58 99
59 60
59 61
59 63
59 67
59 69
59 71
59 73
59 74
59 76
59 77
59 82
59 85
59 86
59 89
59 91
59 93
59 94
59 95
59 97
59 98
59 99
60 61
60 62
60 64
60 65
60 66
60 68
60 70
60 72
60 73
60 75
60 77
60 79
60 80
60 81
60 82
60 83
60 84
60 85
60 87
60 89
60 91
60 94
60 97
61 64
61 65
61 66
61 69
61 71
61 74
61 75
61 76
61 77
61 78
61 82
61 84
61 86
61 89
61 92
61 98
61 99
62 65
62 66
62 67
62 68
62 70
62 72
62 73
62 74
62 75
62 78
62 79
62 81
62 82
62 84
62 86
62 92
62 93
62 96
62 99
63 64
63 65
63 66
63 67
63 70
63 71
63 72
63 73
63 74
63 77
63 78
63 79
63 81
63 83
63 85
63 86
63 87
63 89
63 90
63 94
63 95
63 96
63 97
63 98
63 99
64 66
64 67
64 70
64 71
64 73
64 74
64 75
64 76
64 77
64 79
64 80
64 81
64 85
64 88
64 89
64 93
64 94
64 96
64 97
64 99
65 69
65 71
65 73
65 74
65 75
65 76
65 78
65 80
65 83
65 88
65 90
65 93
65 94
65 95
65 96
65 97
65 98
65 99
66 67
66 69
66 77
66 83
66 84
66 85
66 86
66 87
66 88
66 90
66 91
66 92
66 93
66 94
66 95
66 96
66 97
67 69
67 81
67 97
67 76
67 75
67 78
67 79
67 82
67 87
67 91
67 92
67 94
67 95
67 80
67 93
68 70
68 74
68 75
68 89
68 78
68 79
68 85
68 86
68 87
68 98
68 69
68 97
68 91
68 82
68 80
68 71
68 73
69 74
69 76
69 77
69 78
69 81
69 85
69 88
69 92
69 93
70 72
70 74
70 75
70 76
70 77
70 78
70 79
70 82
70 84
70 90
70 93
70 94
70 96
70 97
70 99
71 74
71 76
71 79
71 80
71 83
71 85
71 89
71 90
71 91
71 92
71 94
71 95
71 96
71 98
72 73
72 74
72 75
72 77
72 78
72 79
72 82
72 83
72 87
72 89
72 90
72 92
72 94
72 95
72 96
72 97
72 99
73 74
73 75
73 77
73 78
73 81
73 82
73 84
73 86
73 87
73 88
73 89
73 90
73 92
73 99
74 77
74 80
74 81
74 83
74 85
74 86
74 89
74 92
74 95
74 96
75 76
75 79
75 80
75 83
75 84
75 86
75 87
75 89
75 92
75 94
75 98
75 99
76 81
76 82
76 84
76 86
76 87
76 88
76 91
76 92
76 93
76 96
76 97
76 99
77 79
77 81
77 84
77 85
77 87
77 88
77 89
77 90
77 91
77 94
77 96
77 97
77 99
78 84
78 87
78 88
78 94
78 95
78 96
78 98
78 99
79 80
79 81
79 82
79 84
79 86
79 88
79 89
79 90
79 93
79 94
79 97
80 82
80 83
80 85
80 86
80 87
80 88
80 93
80 95
80 96
80 99
81 83
81 84
81 85
81 88
81 89
81 90
81 93
81 94
81 96
81 97
82 83
82 84
82 85
82 87
82 89
82 91
82 92
82 97
82 98
83 96
83 88
83 90
83 93
83 91
83 94
84 85
84 86
84 90
84 93
84 95
84 96
84 97
84 99
85 90
85 91
85 94
85 96
85 97
85 99
86 88
86 87
86 89
86 92
86 91
86 99
87 94
87 96
87 97
87 98
88 90
88 95
89 90
89 91
89 92
89 93
89 94
89 95
89 97
89 98
89 99
90 95
91 94
91 95
91 96
91 97
91 98
91 99
92 95
92 98
93 98
94 96
94 97
94 99
95 98
96 98
96 99
