graph {
		0 -- 1
		0 -- 6
		0 -- 7
		0 -- 9
		0 -- 10
		0 -- 12
		0 -- 13
		0 -- 15
		0 -- 19
		0 -- 20
		0 -- 21
		0 -- 25
		0 -- 27
		0 -- 29
		0 -- 31
		0 -- 33
		0 -- 36
		0 -- 37
		0 -- 38
		0 -- 40
		0 -- 41
		0 -- 42
		0 -- 43
		0 -- 45
		0 -- 48
		0 -- 49
		0 -- 50
		0 -- 51
		0 -- 57
		0 -- 58
		0 -- 59
		0 -- 60
		0 -- 63
		0 -- 64
		0 -- 65
		0 -- 66
		0 -- 68
		0 -- 69
		0 -- 71
		0 -- 74
		0 -- 77
		0 -- 78
		0 -- 79
		0 -- 81
		0 -- 84
		0 -- 85
		0 -- 89
		0 -- 93
		0 -- 94
		0 -- 95
		0 -- 96
		0 -- 98
		1 -- 4
		1 -- 5
		1 -- 8
		1 -- 9
		1 -- 10
		1 -- 12
		1 -- 13
		1 -- 15
		1 -- 16
		1 -- 19
		1 -- 20
		1 -- 21
		1 -- 24
		1 -- 25
		1 -- 28
		1 -- 30
		1 -- 32
		1 -- 33
		1 -- 34
		1 -- 37
		1 -- 39
		1 -- 40
		1 -- 41
		1 -- 42
		1 -- 44
		1 -- 45
		1 -- 46
		1 -- 48
		1 -- 49
		1 -- 50
		1 -- 52
		1 -- 54
		1 -- 57
		1 -- 59
		1 -- 60
		1 -- 61
		1 -- 63
		1 -- 64
		1 -- 65
		1 -- 70
		1 -- 71
		1 -- 72
		1 -- 73
		1 -- 77
		1 -- 79
		1 -- 82
		1 -- 83
		1 -- 84
		1 -- 86
		1 -- 89
		1 -- 90
		1 -- 91
		1 -- 92
		1 -- 93
		1 -- 96
		1 -- 97
		1 -- 99
		2 -- 3
		2 -- 4
		2 -- 5
		2 -- 7
		2 -- 8
		2 -- 12
		2 -- 14
		2 -- 17
		2 -- 19
		2 -- 20
		2 -- 21
		2 -- 23
		2 -- 24
		2 -- 25
		2 -- 26
		2 -- 29
		2 -- 30
		2 -- 32
		2 -- 33
		2 -- 36
		2 -- 37
		2 -- 39
		2 -- 43
		2 -- 44
		2 -- 47
		2 -- 50
		2 -- 51
		2 -- 53
		2 -- 54
		2 -- 55
		2 -- 56
		2 -- 57
		2 -- 58
		2 -- 60
		2 -- 61
		2 -- 63
		2 -- 69
		2 -- 71
		2 -- 72
		2 -- 74
		2 -- 75
		2 -- 76
		2 -- 78
		2 -- 80
		2 -- 81
		2 -- 83
		2 -- 85
		2 -- 87
		2 -- 88
		2 -- 90
		2 -- 91
		2 -- 94
		2 -- 95
		2 -- 97
		2 -- 98
		2 -- 99
		3 -- 9
		3 -- 10
		3 -- 12
		3 -- 14
		3 -- 15
		3 -- 16
		3 -- 19
		3 -- 21
		3 -- 22
		3 -- 24
		3 -- 26
		3 -- 27
		3 -- 32
		3 -- 33
		3 -- 34
		3 -- 36
		3 -- 38
		3 -- 40
		3 -- 42
		3 -- 44
		3 -- 47
		3 -- 49
		3 -- 51
		3 -- 52
		3 -- 54
		3 -- 55
		3 -- 57
		3 -- 61
		3 -- 62
		3 -- 65
		3 -- 66
		3 -- 70
		3 -- 71
		3 -- 73
		3 -- 74
		3 -- 75
		3 -- 76
		3 -- 81
		3 -- 84
		3 -- 87
		3 -- 88
		3 -- 89
		3 -- 90
		3 -- 91
		3 -- 93
		3 -- 94
		3 -- 95
		3 -- 96
		3 -- 97
		3 -- 98
		4 -- 6
		4 -- 7
		4 -- 10
		4 -- 13
		4 -- 17
		4 -- 20
		4 -- 22
		4 -- 23
		4 -- 30
		4 -- 33
		4 -- 34
		4 -- 35
		4 -- 36
		4 -- 37
		4 -- 39
		4 -- 40
		4 -- 41
		4 -- 45
		4 -- 46
		4 -- 47
		4 -- 48
		4 -- 49
		4 -- 54
		4 -- 55
		4 -- 56
		4 -- 57
		4 -- 58
		4 -- 64
		4 -- 66
		4 -- 67
		4 -- 68
		4 -- 69
		4 -- 73
		4 -- 76
		4 -- 80
		4 -- 84
		4 -- 85
		4 -- 90
		4 -- 92
		4 -- 94
		4 -- 96
		4 -- 97
		4 -- 98
		4 -- 99
		5 -- 6
		5 -- 7
		5 -- 8
		5 -- 10
		5 -- 11
		5 -- 13
		5 -- 14
		5 -- 15
		5 -- 18
		5 -- 19
		5 -- 20
		5 -- 22
		5 -- 23
		5 -- 28
		5 -- 30
		5 -- 31
		5 -- 33
		5 -- 34
		5 -- 35
		5 -- 36
		5 -- 41
		5 -- 44
		5 -- 45
		5 -- 48
		5 -- 51
		5 -- 52
		5 -- 53
		5 -- 54
		5 -- 55
		5 -- 56
		5 -- 57
		5 -- 60
		5 -- 62
		5 -- 64
		5 -- 65
		5 -- 67
		5 -- 68
		5 -- 70
		5 -- 72
		5 -- 74
		5 -- 75
		5 -- 76
		5 -- 77
		5 -- 79
		5 -- 80
		5 -- 82
		5 -- 83
		5 -- 90
		5 -- 94
		5 -- 95
		5 -- 97
		5 -- 98
		5 -- 99
		6 -- 7
		6 -- 9
		6 -- 12
		6 -- 15
		6 -- 17
		6 -- 19
		6 -- 24
		6 -- 26
		6 -- 31
		6 -- 32
		6 -- 33
		6 -- 34
		6 -- 35
		6 -- 37
		6 -- 40
		6 -- 44
		6 -- 45
		6 -- 46
		6 -- 51
		6 -- 55
		6 -- 60
		6 -- 62
		6 -- 66
		6 -- 71
		6 -- 72
		6 -- 73
		6 -- 76
		6 -- 77
		6 -- 79
		6 -- 80
		6 -- 83
		6 -- 84
		6 -- 86
		6 -- 87
		6 -- 88
		6 -- 90
		6 -- 91
		6 -- 92
		6 -- 93
		6 -- 96
		6 -- 97
		6 -- 98
		6 -- 99
		7 -- 9
		7 -- 11
		7 -- 12
		7 -- 14
		7 -- 19
		7 -- 22
		7 -- 26
		7 -- 27
		7 -- 29
		7 -- 31
		7 -- 32
		7 -- 34
		7 -- 35
		7 -- 38
		7 -- 42
		7 -- 46
		7 -- 47
		7 -- 48
		7 -- 49
		7 -- 50
		7 -- 53
		7 -- 54
		7 -- 57
		7 -- 60
		7 -- 61
		7 -- 62
		7 -- 66
		7 -- 68
		7 -- 69
		7 -- 70
		7 -- 73
		7 -- 77
		7 -- 79
		7 -- 80
		7 -- 81
		7 -- 83
		7 -- 85
		7 -- 87
		7 -- 89
		7 -- 95
		7 -- 97
		7 -- 98
		7 -- 99
		8 -- 68
		8 -- 70
		8 -- 71
		8 -- 72
		8 -- 9
		8 -- 74
		8 -- 75
		8 -- 76
		8 -- 13
		8 -- 79
		8 -- 16
		8 -- 17
		8 -- 82
		8 -- 83
		8 -- 85
		8 -- 86
		8 -- 25
		8 -- 28
		8 -- 29
		8 -- 81
		8 -- 96
		8 -- 97
		8 -- 98
		8 -- 36
		8 -- 37
		8 -- 39
		8 -- 42
		8 -- 44
		8 -- 46
		8 -- 48
		8 -- 49
		8 -- 50
		8 -- 51
		8 -- 52
		8 -- 54
		8 -- 55
		8 -- 59
		8 -- 61
		8 -- 62
		9 -- 11
		9 -- 12
		9 -- 16
		9 -- 22
		9 -- 23
		9 -- 24
		9 -- 33
		9 -- 34
		9 -- 35
		9 -- 36
		9 -- 39
		9 -- 41
		9 -- 42
		9 -- 46
		9 -- 47
		9 -- 49
		9 -- 52
		9 -- 53
		9 -- 54
		9 -- 55
		9 -- 56
		9 -- 58
		9 -- 59
		9 -- 60
		9 -- 62
		9 -- 64
		9 -- 66
		9 -- 68
		9 -- 70
		9 -- 72
		9 -- 73
		9 -- 74
		9 -- 75
		9 -- 76
		9 -- 78
		9 -- 82
		9 -- 85
		9 -- 89
		9 -- 90
		9 -- 92
		9 -- 93
		9 -- 94
		9 -- 98
		9 -- 99
		10 -- 11
		10 -- 12
		10 -- 13
		10 -- 15
		10 -- 16
		10 -- 17
		10 -- 18
		10 -- 20
		10 -- 21
		10 -- 23
		10 -- 24
		10 -- 25
		10 -- 26
		10 -- 27
		10 -- 28
		10 -- 29
		10 -- 31
		10 -- 33
		10 -- 35
		10 -- 36
		10 -- 38
		10 -- 39
		10 -- 43
		10 -- 44
		10 -- 48
		10 -- 49
		10 -- 50
		10 -- 51
		10 -- 53
		10 -- 54
		10 -- 55
		10 -- 56
		10 -- 58
		10 -- 59
		10 -- 60
		10 -- 61
		10 -- 63
		10 -- 64
		10 -- 65
		10 -- 67
		10 -- 70
		10 -- 74
		10 -- 75
		10 -- 78
		10 -- 79
		10 -- 81
		10 -- 82
		10 -- 85
		10 -- 86
		10 -- 89
		10 -- 92
		10 -- 95
		10 -- 96
		10 -- 97
		11 -- 13
		11 -- 14
		11 -- 19
		11 -- 21
		11 -- 23
		11 -- 28
		11 -- 32
		11 -- 33
		11 -- 34
		11 -- 37
		11 -- 38
		11 -- 40
		11 -- 42
		11 -- 43
		11 -- 44
		11 -- 45
		11 -- 48
		11 -- 49
		11 -- 51
		11 -- 52
		11 -- 53
		11 -- 54
		11 -- 55
		11 -- 56
		11 -- 58
		11 -- 60
		11 -- 61
		11 -- 64
		11 -- 65
		11 -- 66
		11 -- 68
		11 -- 72
		11 -- 73
		11 -- 74
		11 -- 75
		11 -- 76
		11 -- 77
		11 -- 78
		11 -- 83
		11 -- 84
		11 -- 85
		11 -- 86
		11 -- 88
		11 -- 90
		11 -- 93
		11 -- 96
		11 -- 97
		11 -- 98
		12 -- 15
		12 -- 18
		12 -- 19
		12 -- 21
		12 -- 22
		12 -- 25
		12 -- 26
		12 -- 27
		12 -- 30
		12 -- 31
		12 -- 32
		12 -- 34
		12 -- 36
		12 -- 37
		12 -- 38
		12 -- 39
		12 -- 43
		12 -- 44
		12 -- 45
		12 -- 46
		12 -- 48
		12 -- 49
		12 -- 54
		12 -- 55
		12 -- 56
		12 -- 57
		12 -- 58
		12 -- 59
		12 -- 62
		12 -- 64
		12 -- 66
		12 -- 68
		12 -- 70
		12 -- 71
		12 -- 74
		12 -- 75
		12 -- 76
		12 -- 77
		12 -- 78
		12 -- 79
		12 -- 81
		12 -- 84
		12 -- 85
		12 -- 86
		12 -- 92
		12 -- 93
		12 -- 94
		12 -- 95
		12 -- 96
		12 -- 97
		13 -- 14
		13 -- 15
		13 -- 16
		13 -- 17
		13 -- 18
		13 -- 22
		13 -- 25
		13 -- 27
		13 -- 28
		13 -- 29
		13 -- 33
		13 -- 35
		13 -- 36
		13 -- 37
		13 -- 40
		13 -- 43
		13 -- 47
		13 -- 53
		13 -- 54
		13 -- 55
		13 -- 57
		13 -- 62
		13 -- 64
		13 -- 66
		13 -- 68
		13 -- 69
		13 -- 70
		13 -- 76
		13 -- 77
		13 -- 78
		13 -- 81
		13 -- 84
		13 -- 85
		13 -- 88
		13 -- 89
		13 -- 90
		13 -- 92
		13 -- 93
		13 -- 94
		13 -- 98
		13 -- 99
		14 -- 65
		14 -- 68
		14 -- 72
		14 -- 73
		14 -- 78
		14 -- 79
		14 -- 92
		14 -- 98
		14 -- 19
		14 -- 20
		14 -- 22
		14 -- 87
		14 -- 24
		14 -- 26
		14 -- 28
		14 -- 94
		14 -- 69
		14 -- 95
		14 -- 33
		14 -- 67
		14 -- 36
		14 -- 37
		14 -- 41
		14 -- 42
		14 -- 71
		14 -- 45
		14 -- 47
		14 -- 48
		14 -- 49
		14 -- 54
		14 -- 55
		14 -- 59
		14 -- 60
		14 -- 61
		15 -- 16
		15 -- 17
		15 -- 18
		15 -- 19
		15 -- 23
		15 -- 26
		15 -- 29
		15 -- 30
		15 -- 32
		15 -- 33
		15 -- 34
		15 -- 35
		15 -- 37
		15 -- 39
		15 -- 41
		15 -- 42
		15 -- 44
		15 -- 46
		15 -- 47
		15 -- 50
		15 -- 51
		15 -- 57
		15 -- 59
		15 -- 60
		15 -- 62
		15 -- 64
		15 -- 68
		15 -- 69
		15 -- 72
		15 -- 73
		15 -- 75
		15 -- 76
		15 -- 78
		15 -- 82
		15 -- 83
		15 -- 84
		15 -- 85
		15 -- 87
		15 -- 88
		15 -- 91
		15 -- 93
		15 -- 94
		15 -- 97
		16 -- 17
		16 -- 18
		16 -- 19
		16 -- 20
		16 -- 22
		16 -- 23
		16 -- 25
		16 -- 26
		16 -- 29
		16 -- 30
		16 -- 32
		16 -- 35
		16 -- 38
		16 -- 39
		16 -- 44
		16 -- 46
		16 -- 47
		16 -- 49
		16 -- 50
		16 -- 51
		16 -- 53
		16 -- 54
		16 -- 55
		16 -- 59
		16 -- 61
		16 -- 64
		16 -- 65
		16 -- 67
		16 -- 71
		16 -- 73
		16 -- 74
		16 -- 75
		16 -- 78
		16 -- 81
		16 -- 82
		16 -- 83
		16 -- 85
		16 -- 86
		16 -- 88
		16 -- 89
		16 -- 91
		16 -- 92
		16 -- 95
		16 -- 98
		16 -- 99
		17 -- 19
		17 -- 21
		17 -- 26
		17 -- 31
		17 -- 33
		17 -- 36
		17 -- 37
		17 -- 38
		17 -- 41
		17 -- 42
		17 -- 44
		17 -- 45
		17 -- 46
		17 -- 48
		17 -- 50
		17 -- 51
		17 -- 53
		17 -- 54
		17 -- 56
		17 -- 60
		17 -- 61
		17 -- 62
		17 -- 64
		17 -- 65
		17 -- 67
		17 -- 68
		17 -- 69
		17 -- 73
		17 -- 74
		17 -- 75
		17 -- 77
		17 -- 78
		17 -- 79
		17 -- 80
		17 -- 82
		17 -- 85
		17 -- 87
		17 -- 88
		17 -- 89
		17 -- 90
		17 -- 91
		17 -- 92
		17 -- 96
		17 -- 97
		18 -- 65
		18 -- 66
		18 -- 67
		18 -- 68
		18 -- 76
		18 -- 77
		18 -- 98
		18 -- 19
		18 -- 20
		18 -- 78
		18 -- 88
		18 -- 25
		18 -- 74
		18 -- 27
		18 -- 28
		18 -- 29
		18 -- 80
		18 -- 34
		18 -- 35
		18 -- 36
		18 -- 37
		18 -- 38
		18 -- 41
		18 -- 42
		18 -- 44
		18 -- 45
		18 -- 99
		18 -- 91
		18 -- 83
		18 -- 52
		18 -- 54
		18 -- 56
		18 -- 84
		18 -- 90
		18 -- 61
		18 -- 85
		18 -- 63
		19 -- 20
		19 -- 23
		19 -- 24
		19 -- 26
		19 -- 31
		19 -- 34
		19 -- 35
		19 -- 38
		19 -- 39
		19 -- 40
		19 -- 42
		19 -- 43
		19 -- 44
		19 -- 46
		19 -- 48
		19 -- 50
		19 -- 51
		19 -- 53
		19 -- 54
		19 -- 56
		19 -- 57
		19 -- 60
		19 -- 69
		19 -- 74
		19 -- 77
		19 -- 79
		19 -- 80
		19 -- 83
		19 -- 84
		19 -- 85
		19 -- 86
		19 -- 87
		19 -- 88
		19 -- 89
		19 -- 93
		19 -- 95
		19 -- 98
		20 -- 22
		20 -- 28
		20 -- 31
		20 -- 32
		20 -- 34
		20 -- 35
		20 -- 36
		20 -- 38
		20 -- 39
		20 -- 42
		20 -- 43
		20 -- 45
		20 -- 47
		20 -- 48
		20 -- 49
		20 -- 52
		20 -- 54
		20 -- 57
		20 -- 58
		20 -- 59
		20 -- 60
		20 -- 61
		20 -- 62
		20 -- 63
		20 -- 64
		20 -- 66
		20 -- 67
		20 -- 68
		20 -- 70
		20 -- 71
		20 -- 72
		20 -- 74
		20 -- 76
		20 -- 77
		20 -- 80
		20 -- 82
		20 -- 86
		20 -- 88
		20 -- 89
		20 -- 91
		20 -- 92
		20 -- 94
		20 -- 96
		20 -- 97
		20 -- 98
		20 -- 99
		21 -- 69
		21 -- 73
		21 -- 66
		21 -- 78
		21 -- 79
		21 -- 80
		21 -- 83
		21 -- 85
		21 -- 86
		21 -- 23
		21 -- 24
		21 -- 89
		21 -- 26
		21 -- 91
		21 -- 90
		21 -- 30
		21 -- 95
		21 -- 34
		21 -- 35
		21 -- 38
		21 -- 40
		21 -- 98
		21 -- 88
		21 -- 76
		21 -- 52
		21 -- 53
		21 -- 54
		21 -- 55
		21 -- 57
		21 -- 58
		21 -- 60
		21 -- 63
		22 -- 24
		22 -- 27
		22 -- 28
		22 -- 29
		22 -- 31
		22 -- 32
		22 -- 33
		22 -- 34
		22 -- 35
		22 -- 39
		22 -- 40
		22 -- 41
		22 -- 43
		22 -- 45
		22 -- 47
		22 -- 49
		22 -- 51
		22 -- 52
		22 -- 57
		22 -- 58
		22 -- 60
		22 -- 61
		22 -- 62
		22 -- 64
		22 -- 65
		22 -- 66
		22 -- 67
		22 -- 70
		22 -- 73
		22 -- 74
		22 -- 76
		22 -- 77
		22 -- 78
		22 -- 83
		22 -- 87
		22 -- 88
		22 -- 89
		22 -- 90
		22 -- 93
		22 -- 94
		22 -- 96
		22 -- 97
		22 -- 98
		23 -- 26
		23 -- 28
		23 -- 30
		23 -- 31
		23 -- 32
		23 -- 33
		23 -- 34
		23 -- 35
		23 -- 36
		23 -- 38
		23 -- 40
		23 -- 41
		23 -- 42
		23 -- 43
		23 -- 45
		23 -- 46
		23 -- 54
		23 -- 57
		23 -- 58
		23 -- 59
		23 -- 60
		23 -- 61
		23 -- 66
		23 -- 68
		23 -- 69
		23 -- 71
		23 -- 73
		23 -- 75
		23 -- 76
		23 -- 78
		23 -- 79
		23 -- 83
		23 -- 84
		23 -- 85
		23 -- 88
		23 -- 89
		23 -- 90
		23 -- 91
		23 -- 93
		23 -- 94
		23 -- 95
		23 -- 96
		23 -- 98
		24 -- 26
		24 -- 27
		24 -- 29
		24 -- 31
		24 -- 32
		24 -- 35
		24 -- 37
		24 -- 40
		24 -- 41
		24 -- 43
		24 -- 44
		24 -- 45
		24 -- 48
		24 -- 49
		24 -- 50
		24 -- 52
		24 -- 54
		24 -- 55
		24 -- 57
		24 -- 58
		24 -- 59
		24 -- 61
		24 -- 62
		24 -- 63
		24 -- 66
		24 -- 69
		24 -- 70
		24 -- 73
		24 -- 75
		24 -- 78
		24 -- 82
		24 -- 85
		24 -- 87
		24 -- 88
		24 -- 90
		24 -- 91
		24 -- 93
		24 -- 94
		24 -- 95
		24 -- 96
		24 -- 99
		25 -- 26
		25 -- 28
		25 -- 29
		25 -- 30
		25 -- 31
		25 -- 34
		25 -- 35
		25 -- 37
		25 -- 38
		25 -- 46
		25 -- 47
		25 -- 49
		25 -- 50
		25 -- 51
		25 -- 52
		25 -- 53
		25 -- 54
		25 -- 55
		25 -- 56
		25 -- 59
		25 -- 60
		25 -- 62
		25 -- 64
		25 -- 65
		25 -- 67
		25 -- 68
		25 -- 69
		25 -- 70
		25 -- 71
		25 -- 75
		25 -- 86
		25 -- 89
		25 -- 90
		25 -- 91
		25 -- 93
		25 -- 96
		25 -- 99
		26 -- 27
		26 -- 29
		26 -- 32
		26 -- 33
		26 -- 34
		26 -- 35
		26 -- 36
		26 -- 37
		26 -- 39
		26 -- 43
		26 -- 45
		26 -- 49
		26 -- 51
		26 -- 54
		26 -- 57
		26 -- 66
		26 -- 68
		26 -- 70
		26 -- 73
		26 -- 74
		26 -- 79
		26 -- 82
		26 -- 87
		26 -- 88
		26 -- 89
		26 -- 92
		26 -- 93
		26 -- 94
		26 -- 95
		27 -- 28
		27 -- 30
		27 -- 31
		27 -- 34
		27 -- 35
		27 -- 36
		27 -- 40
		27 -- 41
		27 -- 42
		27 -- 43
		27 -- 44
		27 -- 47
		27 -- 49
		27 -- 51
		27 -- 55
		27 -- 56
		27 -- 58
		27 -- 60
		27 -- 61
		27 -- 62
		27 -- 63
		27 -- 64
		27 -- 67
		27 -- 71
		27 -- 72
		27 -- 74
		27 -- 75
		27 -- 76
		27 -- 78
		27 -- 82
		27 -- 84
		27 -- 86
		27 -- 87
		27 -- 88
		27 -- 91
		27 -- 93
		27 -- 96
		27 -- 97
		27 -- 98
		28 -- 34
		28 -- 35
		28 -- 36
		28 -- 37
		28 -- 38
		28 -- 39
		28 -- 40
		28 -- 42
		28 -- 44
		28 -- 46
		28 -- 48
		28 -- 52
		28 -- 55
		28 -- 58
		28 -- 59
		28 -- 63
		28 -- 66
		28 -- 67
		28 -- 70
		28 -- 73
		28 -- 77
		28 -- 78
		28 -- 79
		28 -- 80
		28 -- 81
		28 -- 85
		28 -- 86
		28 -- 87
		28 -- 89
		28 -- 90
		28 -- 92
		28 -- 93
		28 -- 98
		29 -- 31
		29 -- 36
		29 -- 38
		29 -- 39
		29 -- 40
		29 -- 43
		29 -- 44
		29 -- 45
		29 -- 46
		29 -- 47
		29 -- 52
		29 -- 54
		29 -- 55
		29 -- 61
		29 -- 62
		29 -- 63
		29 -- 65
		29 -- 67
		29 -- 68
		29 -- 70
		29 -- 74
		29 -- 76
		29 -- 78
		29 -- 81
		29 -- 82
		29 -- 84
		29 -- 85
		29 -- 89
		29 -- 90
		29 -- 92
		29 -- 93
		29 -- 96
		29 -- 97
		29 -- 99
		30 -- 33
		30 -- 34
		30 -- 35
		30 -- 36
		30 -- 37
		30 -- 41
		30 -- 44
		30 -- 47
		30 -- 48
		30 -- 52
		30 -- 54
		30 -- 56
		30 -- 58
		30 -- 60
		30 -- 64
		30 -- 66
		30 -- 67
		30 -- 68
		30 -- 69
		30 -- 73
		30 -- 74
		30 -- 76
		30 -- 79
		30 -- 80
		30 -- 81
		30 -- 84
		30 -- 86
		30 -- 89
		30 -- 91
		30 -- 92
		30 -- 94
		30 -- 96
		30 -- 97
		30 -- 98
		31 -- 33
		31 -- 34
		31 -- 35
		31 -- 38
		31 -- 39
		31 -- 42
		31 -- 44
		31 -- 47
		31 -- 49
		31 -- 50
		31 -- 53
		31 -- 54
		31 -- 58
		31 -- 62
		31 -- 63
		31 -- 64
		31 -- 65
		31 -- 67
		31 -- 69
		31 -- 71
		31 -- 72
		31 -- 73
		31 -- 74
		31 -- 75
		31 -- 80
		31 -- 81
		31 -- 82
		31 -- 84
		31 -- 85
		31 -- 86
		31 -- 87
		31 -- 88
		31 -- 90
		31 -- 93
		31 -- 94
		31 -- 96
		31 -- 98
		32 -- 34
		32 -- 35
		32 -- 38
		32 -- 40
		32 -- 41
		32 -- 42
		32 -- 43
		32 -- 45
		32 -- 46
		32 -- 49
		32 -- 50
		32 -- 51
		32 -- 53
		32 -- 54
		32 -- 55
		32 -- 56
		32 -- 57
		32 -- 59
		32 -- 60
		32 -- 61
		32 -- 62
		32 -- 63
		32 -- 64
		32 -- 65
		32 -- 66
		32 -- 67
		32 -- 68
		32 -- 69
		32 -- 71
		32 -- 72
		32 -- 76
		32 -- 80
		32 -- 82
		32 -- 85
		32 -- 87
		32 -- 88
		32 -- 91
		32 -- 92
		32 -- 95
		32 -- 96
		32 -- 97
		32 -- 98
		33 -- 35
		33 -- 36
		33 -- 37
		33 -- 38
		33 -- 39
		33 -- 40
		33 -- 41
		33 -- 46
		33 -- 47
		33 -- 48
		33 -- 49
		33 -- 50
		33 -- 52
		33 -- 53
		33 -- 55
		33 -- 56
		33 -- 57
		33 -- 61
		33 -- 63
		33 -- 64
		33 -- 67
		33 -- 69
		33 -- 71
		33 -- 74
		33 -- 75
		33 -- 77
		33 -- 80
		33 -- 81
		33 -- 82
		33 -- 88
		33 -- 89
		33 -- 91
		33 -- 92
		33 -- 95
		33 -- 97
		34 -- 36
		34 -- 37
		34 -- 44
		34 -- 45
		34 -- 46
		34 -- 47
		34 -- 48
		34 -- 50
		34 -- 51
		34 -- 53
		34 -- 54
		34 -- 57
		34 -- 59
		34 -- 61
		34 -- 62
		34 -- 65
		34 -- 66
		34 -- 67
		34 -- 68
		34 -- 70
		34 -- 71
		34 -- 72
		34 -- 75
		34 -- 77
		34 -- 78
		34 -- 79
		34 -- 80
		34 -- 81
		34 -- 83
		34 -- 84
		34 -- 85
		34 -- 86
		34 -- 87
		34 -- 88
		34 -- 89
		34 -- 90
		34 -- 91
		34 -- 92
		34 -- 94
		34 -- 98
		35 -- 40
		35 -- 42
		35 -- 44
		35 -- 46
		35 -- 48
		35 -- 49
		35 -- 50
		35 -- 51
		35 -- 52
		35 -- 53
		35 -- 54
		35 -- 56
		35 -- 57
		35 -- 58
		35 -- 59
		35 -- 62
		35 -- 63
		35 -- 64
		35 -- 65
		35 -- 66
		35 -- 69
		35 -- 70
		35 -- 71
		35 -- 72
		35 -- 73
		35 -- 74
		35 -- 75
		35 -- 76
		35 -- 77
		35 -- 78
		35 -- 80
		35 -- 81
		35 -- 82
		35 -- 85
		35 -- 87
		35 -- 93
		35 -- 97
		35 -- 99
		36 -- 37
		36 -- 43
		36 -- 48
		36 -- 49
		36 -- 50
		36 -- 52
		36 -- 53
		36 -- 54
		36 -- 56
		36 -- 60
		36 -- 61
		36 -- 63
		36 -- 65
		36 -- 66
		36 -- 68
		36 -- 71
		36 -- 73
		36 -- 74
		36 -- 75
		36 -- 78
		36 -- 79
		36 -- 80
		36 -- 81
		36 -- 85
		36 -- 87
		36 -- 88
		36 -- 89
		36 -- 91
		36 -- 94
		36 -- 95
		36 -- 97
		36 -- 98
		37 -- 40
		37 -- 42
		37 -- 43
		37 -- 44
		37 -- 45
		37 -- 46
		37 -- 47
		37 -- 48
		37 -- 49
		37 -- 50
		37 -- 51
		37 -- 53
		37 -- 55
		37 -- 56
		37 -- 57
		37 -- 59
		37 -- 60
		37 -- 61
		37 -- 62
		37 -- 63
		37 -- 64
		37 -- 67
		37 -- 68
		37 -- 71
		37 -- 73
		37 -- 75
		37 -- 78
		37 -- 80
		37 -- 81
		37 -- 82
		37 -- 83
		37 -- 84
		37 -- 86
		37 -- 89
		37 -- 90
		37 -- 94
		37 -- 95
		37 -- 96
		37 -- 98
		37 -- 99
		38 -- 39
		38 -- 41
		38 -- 46
		38 -- 47
		38 -- 48
		38 -- 49
		38 -- 52
		38 -- 53
		38 -- 55
		38 -- 56
		38 -- 57
		38 -- 58
		38 -- 59
		38 -- 60
		38 -- 63
		38 -- 65
		38 -- 66
		38 -- 67
		38 -- 68
		38 -- 70
		38 -- 72
		38 -- 73
		38 -- 74
		38 -- 78
		38 -- 79
		38 -- 82
		38 -- 83
		38 -- 84
		38 -- 85
		38 -- 87
		38 -- 90
		38 -- 91
		38 -- 93
		38 -- 95
		38 -- 99
		39 -- 41
		39 -- 45
		39 -- 46
		39 -- 48
		39 -- 50
		39 -- 54
		39 -- 57
		39 -- 62
		39 -- 64
		39 -- 65
		39 -- 67
		39 -- 70
		39 -- 72
		39 -- 73
		39 -- 74
		39 -- 77
		39 -- 78
		39 -- 79
		39 -- 81
		39 -- 83
		39 -- 85
		39 -- 86
		39 -- 87
		39 -- 89
		39 -- 92
		39 -- 93
		39 -- 95
		39 -- 99
		40 -- 43
		40 -- 44
		40 -- 45
		40 -- 46
		40 -- 47
		40 -- 48
		40 -- 50
		40 -- 53
		40 -- 54
		40 -- 55
		40 -- 56
		40 -- 58
		40 -- 60
		40 -- 61
		40 -- 62
		40 -- 67
		40 -- 68
		40 -- 69
		40 -- 71
		40 -- 72
		40 -- 73
		40 -- 76
		40 -- 77
		40 -- 78
		40 -- 80
		40 -- 87
		40 -- 90
		40 -- 92
		40 -- 93
		40 -- 94
		40 -- 97
		40 -- 98
		40 -- 99
		41 -- 42
		41 -- 44
		41 -- 45
		41 -- 47
		41 -- 49
		41 -- 50
		41 -- 51
		41 -- 54
		41 -- 55
		41 -- 56
		41 -- 57
		41 -- 58
		41 -- 61
		41 -- 62
		41 -- 63
		41 -- 64
		41 -- 65
		41 -- 66
		41 -- 69
		41 -- 71
		41 -- 73
		41 -- 74
		41 -- 76
		41 -- 78
		41 -- 80
		41 -- 81
		41 -- 89
		41 -- 90
		41 -- 91
		41 -- 93
		41 -- 98
		42 -- 44
		42 -- 52
		42 -- 55
		42 -- 57
		42 -- 59
		42 -- 61
		42 -- 65
		42 -- 67
		42 -- 70
		42 -- 71
		42 -- 72
		42 -- 73
		42 -- 74
		42 -- 76
		42 -- 78
		42 -- 79
		42 -- 82
		42 -- 83
		42 -- 88
		42 -- 89
		42 -- 90
		42 -- 91
		42 -- 92
		42 -- 95
		42 -- 97
		42 -- 99
		43 -- 44
		43 -- 47
		43 -- 49
		43 -- 50
		43 -- 52
		43 -- 53
		43 -- 54
		43 -- 55
		43 -- 56
		43 -- 58
		43 -- 60
		43 -- 66
		43 -- 68
		43 -- 69
		43 -- 70
		43 -- 72
		43 -- 74
		43 -- 75
		43 -- 80
		43 -- 81
		43 -- 82
		43 -- 87
		43 -- 89
		43 -- 90
		43 -- 92
		43 -- 95
		43 -- 98
		43 -- 99
		44 -- 46
		44 -- 48
		44 -- 49
		44 -- 50
		44 -- 52
		44 -- 56
		44 -- 59
		44 -- 61
		44 -- 62
		44 -- 63
		44 -- 64
		44 -- 65
		44 -- 66
		44 -- 71
		44 -- 73
		44 -- 74
		44 -- 76
		44 -- 77
		44 -- 78
		44 -- 79
		44 -- 80
		44 -- 82
		44 -- 84
		44 -- 89
		44 -- 92
		44 -- 96
		44 -- 97
		44 -- 98
		44 -- 99
		45 -- 46
		45 -- 47
		45 -- 49
		45 -- 50
		45 -- 51
		45 -- 55
		45 -- 58
		45 -- 61
		45 -- 64
		45 -- 66
		45 -- 67
		45 -- 69
		45 -- 70
		45 -- 72
		45 -- 73
		45 -- 74
		45 -- 76
		45 -- 80
		45 -- 81
		45 -- 83
		45 -- 84
		45 -- 85
		45 -- 86
		45 -- 89
		45 -- 90
		45 -- 92
		45 -- 94
		45 -- 95
		45 -- 96
		46 -- 47
		46 -- 49
		46 -- 57
		46 -- 60
		46 -- 61
		46 -- 62
		46 -- 64
		46 -- 68
		46 -- 69
		46 -- 70
		46 -- 71
		46 -- 72
		46 -- 73
		46 -- 74
		46 -- 75
		46 -- 76
		46 -- 80
		46 -- 82
		46 -- 83
		46 -- 87
		46 -- 92
		46 -- 95
		46 -- 96
		46 -- 97
		46 -- 99
		47 -- 49
		47 -- 50
		47 -- 51
		47 -- 53
		47 -- 54
		47 -- 55
		47 -- 56
		47 -- 59
		47 -- 61
		47 -- 63
		47 -- 65
		47 -- 66
		47 -- 68
		47 -- 71
		47 -- 72
		47 -- 75
		47 -- 78
		47 -- 80
		47 -- 81
		47 -- 83
		47 -- 94
		47 -- 96
		47 -- 98
		47 -- 99
		48 -- 53
		48 -- 55
		48 -- 61
		48 -- 62
		48 -- 64
		48 -- 66
		48 -- 67
		48 -- 73
		48 -- 75
		48 -- 76
		48 -- 78
		48 -- 79
		48 -- 80
		48 -- 82
		48 -- 83
		48 -- 84
		48 -- 85
		48 -- 86
		48 -- 87
		48 -- 88
		48 -- 89
		48 -- 91
		48 -- 92
		48 -- 94
		48 -- 95
		48 -- 96
		48 -- 97
		48 -- 98
		49 -- 51
		49 -- 52
		49 -- 54
		49 -- 56
		49 -- 58
		49 -- 59
		49 -- 61
		49 -- 67
		49 -- 68
		49 -- 71
		49 -- 72
		49 -- 73
		49 -- 76
		49 -- 79
		49 -- 81
		49 -- 82
		49 -- 84
		49 -- 85
		49 -- 86
		49 -- 88
		49 -- 90
		49 -- 91
		49 -- 92
		49 -- 95
		49 -- 98
		50 -- 55
		50 -- 56
		50 -- 60
		50 -- 61
		50 -- 62
		50 -- 63
		50 -- 66
		50 -- 67
		50 -- 69
		50 -- 71
		50 -- 72
		50 -- 74
		50 -- 75
		50 -- 80
		50 -- 81
		50 -- 83
		50 -- 89
		50 -- 91
		50 -- 93
		50 -- 97
		50 -- 98
		50 -- 99
		51 -- 52
		51 -- 54
		51 -- 55
		51 -- 59
		51 -- 60
		51 -- 61
		51 -- 63
		51 -- 65
		51 -- 66
		51 -- 68
		51 -- 69
		51 -- 71
		51 -- 73
		51 -- 75
		51 -- 76
		51 -- 79
		51 -- 80
		51 -- 81
		51 -- 83
		51 -- 84
		51 -- 85
		51 -- 86
		51 -- 87
		51 -- 90
		51 -- 91
		51 -- 92
		51 -- 94
		51 -- 95
		51 -- 97
		51 -- 98
		52 -- 53
		52 -- 54
		52 -- 55
		52 -- 56
		52 -- 58
		52 -- 60
		52 -- 61
		52 -- 64
		52 -- 66
		52 -- 70
		52 -- 72
		52 -- 73
		52 -- 74
		52 -- 76
		52 -- 78
		52 -- 80
		52 -- 84
		52 -- 86
		52 -- 87
		52 -- 88
		52 -- 89
		52 -- 92
		52 -- 93
		52 -- 94
		52 -- 95
		52 -- 96
		53 -- 54
		53 -- 55
		53 -- 57
		53 -- 58
		53 -- 61
		53 -- 62
		53 -- 64
		53 -- 65
		53 -- 67
		53 -- 68
		53 -- 69
		53 -- 73
		53 -- 76
		53 -- 77
		53 -- 78
		53 -- 79
		53 -- 81
		53 -- 84
		53 -- 85
		53 -- 87
		53 -- 90
		53 -- 93
		53 -- 95
		53 -- 97
		54 -- 55
		54 -- 58
		54 -- 59
		54 -- 63
		54 -- 64
		54 -- 67
		54 -- 68
		54 -- 72
		54 -- 74
		54 -- 75
		54 -- 76
		54 -- 77
		54 -- 78
		54 -- 79
		54 -- 80
		54 -- 81
		54 -- 82
		54 -- 83
		54 -- 84
		54 -- 85
		54 -- 86
		54 -- 92
		54 -- 93
		54 -- 95
		54 -- 96
		55 -- 56
		55 -- 58
		55 -- 59
		55 -- 62
		55 -- 63
		55 -- 64
		55 -- 66
		55 -- 69
		55 -- 71
		55 -- 72
		55 -- 74
		55 -- 81
		55 -- 82
		55 -- 84
		55 -- 85
		55 -- 88
		55 -- 89
		55 -- 90
		55 -- 92
		55 -- 93
		55 -- 94
		55 -- 97
		55 -- 98
		55 -- 99
		56 -- 61
		56 -- 62
		56 -- 64
		56 -- 66
		56 -- 67
		56 -- 69
		56 -- 70
		56 -- 71
		56 -- 72
		56 -- 73
		56 -- 77
		56 -- 79
		56 -- 80
		56 -- 81
		56 -- 83
		56 -- 84
		56 -- 87
		56 -- 89
		56 -- 91
		56 -- 92
		56 -- 93
		56 -- 94
		56 -- 95
		56 -- 97
		56 -- 98
		57 -- 70
		57 -- 64
		57 -- 74
		57 -- 77
		57 -- 98
		57 -- 88
		57 -- 82
		57 -- 79
		57 -- 95
		57 -- 91
		57 -- 59
		57 -- 62
		57 -- 63
		58 -- 59
		58 -- 60
		58 -- 61
		58 -- 62
		58 -- 66
		58 -- 67
		58 -- 68
		58 -- 72
		58 -- 73
		58 -- 76
		58 -- 82
		58 -- 83
		58 -- 84
		58 -- 87
		58 -- 91
		58 -- 92
		58 -- 94
		58 -- 96
		58 -- 97
		58 -- 99
		59 -- 60
		59 -- 63
		59 -- 65
		59 -- 66
		59 -- 68
		59 -- 71
		59 -- 75
		59 -- 77
		59 -- 81
		59 -- 85
		59 -- 88
		59 -- 89
		59 -- 90
		59 -- 91
		59 -- 93
		59 -- 98
		60 -- 62
		60 -- 63
		60 -- 64
		60 -- 65
		60 -- 66
		60 -- 68
		60 -- 70
		60 -- 71
		60 -- 76
		60 -- 79
		60 -- 80
		60 -- 82
		60 -- 83
		60 -- 90
		60 -- 91
		60 -- 93
		60 -- 96
		60 -- 97
		60 -- 98
		61 -- 62
		61 -- 64
		61 -- 65
		61 -- 66
		61 -- 67
		61 -- 68
		61 -- 72
		61 -- 74
		61 -- 81
		61 -- 84
		61 -- 89
		61 -- 90
		61 -- 91
		61 -- 95
		61 -- 98
		62 -- 63
		62 -- 64
		62 -- 67
		62 -- 69
		62 -- 70
		62 -- 75
		62 -- 77
		62 -- 79
		62 -- 80
		62 -- 82
		62 -- 83
		62 -- 85
		62 -- 86
		62 -- 87
		62 -- 90
		62 -- 91
		62 -- 92
		62 -- 93
		62 -- 94
		62 -- 95
		62 -- 98
		63 -- 64
		63 -- 66
		63 -- 67
		63 -- 70
		63 -- 71
		63 -- 72
		63 -- 74
		63 -- 75
		63 -- 76
		63 -- 77
		63 -- 78
		63 -- 84
		63 -- 88
		63 -- 89
		63 -- 92
		63 -- 94
		63 -- 96
		63 -- 98
		63 -- 99
		64 -- 65
		64 -- 66
		64 -- 68
		64 -- 70
		64 -- 72
		64 -- 73
		64 -- 75
		64 -- 79
		64 -- 80
		64 -- 84
		64 -- 89
		64 -- 92
		64 -- 93
		65 -- 66
		65 -- 67
		65 -- 69
		65 -- 71
		65 -- 73
		65 -- 74
		65 -- 76
		65 -- 80
		65 -- 81
		65 -- 84
		65 -- 85
		65 -- 86
		65 -- 87
		65 -- 92
		65 -- 93
		65 -- 94
		65 -- 95
		65 -- 97
		65 -- 98
		66 -- 68
		66 -- 69
		66 -- 71
		66 -- 74
		66 -- 75
		66 -- 76
		66 -- 79
		66 -- 80
		66 -- 82
		66 -- 83
		66 -- 84
		66 -- 85
		66 -- 86
		66 -- 88
		66 -- 91
		66 -- 94
		66 -- 95
		66 -- 96
		66 -- 99
		67 -- 68
		67 -- 69
		67 -- 70
		67 -- 72
		67 -- 75
		67 -- 80
		67 -- 83
		67 -- 85
		67 -- 86
		67 -- 87
		67 -- 88
		67 -- 89
		67 -- 96
		67 -- 97
		68 -- 69
		68 -- 70
		68 -- 73
		68 -- 79
		68 -- 80
		68 -- 82
		68 -- 84
		68 -- 85
		68 -- 88
		68 -- 89
		68 -- 93
		69 -- 71
		69 -- 72
		69 -- 73
		69 -- 76
		69 -- 78
		69 -- 82
		69 -- 83
		69 -- 84
		69 -- 86
		69 -- 88
		69 -- 91
		69 -- 92
		69 -- 93
		69 -- 94
		69 -- 95
		69 -- 99
		70 -- 73
		70 -- 74
		70 -- 75
		70 -- 79
		70 -- 80
		70 -- 81
		70 -- 83
		70 -- 84
		70 -- 85
		70 -- 86
		70 -- 88
		70 -- 93
		70 -- 94
		70 -- 96
		70 -- 97
		70 -- 98
		70 -- 99
		71 -- 73
		71 -- 77
		71 -- 78
		71 -- 81
		71 -- 83
		71 -- 84
		71 -- 86
		71 -- 89
		71 -- 90
		71 -- 94
		71 -- 95
		71 -- 97
		72 -- 73
		72 -- 74
		72 -- 75
		72 -- 76
		72 -- 78
		72 -- 79
		72 -- 82
		72 -- 84
		72 -- 85
		72 -- 86
		72 -- 89
		72 -- 91
		72 -- 96
		72 -- 99
		73 -- 74
		73 -- 75
		73 -- 76
		73 -- 80
		73 -- 88
		73 -- 89
		73 -- 92
		73 -- 93
		73 -- 94
		73 -- 97
		73 -- 98
		73 -- 99
		74 -- 75
		74 -- 76
		74 -- 78
		74 -- 79
		74 -- 81
		74 -- 82
		74 -- 85
		74 -- 95
		74 -- 96
		74 -- 99
		75 -- 77
		75 -- 78
		75 -- 82
		75 -- 84
		75 -- 86
		75 -- 87
		75 -- 88
		75 -- 92
		75 -- 93
		75 -- 98
		76 -- 77
		76 -- 80
		76 -- 83
		76 -- 84
		76 -- 85
		76 -- 86
		76 -- 88
		76 -- 89
		76 -- 90
		76 -- 91
		76 -- 92
		76 -- 96
		76 -- 97
		77 -- 86
		77 -- 97
		77 -- 78
		77 -- 79
		77 -- 80
		77 -- 91
		77 -- 81
		77 -- 84
		77 -- 92
		77 -- 82
		77 -- 99
		77 -- 83
		78 -- 79
		78 -- 80
		78 -- 81
		78 -- 82
		78 -- 84
		78 -- 86
		78 -- 90
		78 -- 92
		78 -- 93
		78 -- 95
		79 -- 80
		79 -- 84
		79 -- 85
		79 -- 86
		79 -- 87
		79 -- 89
		79 -- 92
		79 -- 95
		79 -- 97
		79 -- 98
		80 -- 82
		80 -- 83
		80 -- 85
		80 -- 87
		80 -- 90
		80 -- 95
		80 -- 96
		80 -- 97
		80 -- 98
		80 -- 99
		81 -- 83
		81 -- 84
		81 -- 85
		81 -- 86
		81 -- 87
		81 -- 88
		81 -- 89
		81 -- 93
		82 -- 84
		82 -- 88
		82 -- 90
		82 -- 93
		82 -- 96
		82 -- 97
		82 -- 98
		82 -- 99
		83 -- 84
		83 -- 87
		83 -- 89
		83 -- 91
		83 -- 92
		83 -- 96
		83 -- 99
		84 -- 88
		84 -- 90
		84 -- 91
		84 -- 94
		84 -- 96
		85 -- 87
		85 -- 88
		85 -- 90
		85 -- 91
		85 -- 98
		86 -- 87
		86 -- 88
		86 -- 90
		86 -- 91
		86 -- 92
		86 -- 93
		86 -- 94
		86 -- 96
		86 -- 97
		86 -- 99
		87 -- 96
		87 -- 89
		87 -- 93
		88 -- 93
		88 -- 94
		88 -- 97
		88 -- 98
		89 -- 91
		89 -- 92
		89 -- 99
		90 -- 91
		90 -- 94
		90 -- 97
		90 -- 98
		91 -- 92
		91 -- 95
		91 -- 96
		91 -- 97
		91 -- 99
		92 -- 93
		92 -- 94
		92 -- 95
		92 -- 96
		92 -- 98
		93 -- 96
		93 -- 97
		93 -- 98
		94 -- 95
		94 -- 99
		95 -- 97
		95 -- 98
		96 -- 98
		97 -- 98
}