100
254 116
31 74
141 7
48 13
47 135
48 112
54 131
126 136
107 187
72 236
282 151
253 258
7 121
195 39
183 87
211 81
156 156
222 146
12 266
210 21
281 79
236 69
275 184
56 48
42 277
75 66
60 288
137 39
240 4
208 59
178 119
284 98
285 49
286 266
84 165
97 297
21 67
297 220
264 120
153 182
141 119
289 32
248 273
273 23
61 290
274 194
224 284
117 290
51 94
98 7
173 284
111 300
232 233
122 31
209 274
3 144
107 290
252 95
297 20
154 128
223 81
121 56
74 35
286 8
61 171
82 115
145 184
233 84
277 63
178 268
214 82
213 193
40 38
189 93
14 189
117 272
250 77
227 207
196 151
276 151
98 247
162 296
94 10
298 147
40 299
76 52
112 160
299 97
227 132
173 86
253 193
232 162
299 211
145 297
9 81
101 226
35 296
214 284
116 95
36 63
0 1
0 2
0 3
0 4
0 7
0 8
0 9
0 10
0 15
0 17
0 18
0 19
0 23
0 24
0 26
0 29
0 32
0 33
0 43
0 44
0 46
0 49
0 50
0 51
0 52
0 53
0 58
0 60
0 66
0 69
0 70
0 73
0 74
0 75
0 76
0 77
0 79
0 80
0 82
0 85
0 87
0 88
0 90
0 91
0 92
0 93
0 95
0 97
0 99
1 3
1 5
1 6
1 7
1 8
1 9
1 11
1 13
1 16
1 17
1 18
1 21
1 24
1 26
1 27
1 30
1 31
1 33
1 37
1 39
1 44
1 47
1 48
1 50
1 52
1 53
1 54
1 58
1 59
1 62
1 64
1 66
1 69
1 70
1 73
1 74
1 75
1 76
1 87
1 89
1 90
1 91
1 94
1 95
1 96
1 97
1 99
2 3
2 4
2 5
2 6
2 11
2 13
2 14
2 15
2 16
2 17
2 22
2 24
2 27
2 31
2 32
2 34
2 35
2 37
2 38
2 45
2 49
2 50
2 52
2 53
2 56
2 58
2 62
2 63
2 64
2 66
2 69
2 70
2 74
2 75
2 77
2 79
2 80
2 82
2 85
2 88
2 90
2 92
2 93
2 96
3 4
3 7
3 8
3 12
3 14
3 17
3 18
3 19
3 20
3 22
3 23
3 25
3 26
3 27
3 28
3 29
3 33
3 34
3 40
3 41
3 42
3 43
3 48
3 49
3 50
3 52
3 53
3 56
3 61
3 62
3 63
3 65
3 66
3 67
3 69
3 73
3 74
3 75
3 79
3 80
3 82
3 84
3 85
3 86
3 87
3 88
3 89
3 90
3 91
3 94
3 95
3 96
3 99
4 5
4 9
4 10
4 16
4 17
4 18
4 19
4 20
4 21
4 22
4 23
4 24
4 27
4 31
4 32
4 34
4 36
4 37
4 38
4 40
4 41
4 42
4 43
4 50
4 53
4 64
4 66
4 68
4 70
4 71
4 74
4 75
4 77
4 78
4 79
4 81
4 86
4 89
4 90
4 94
4 96
4 98
4 99
5 7
5 10
5 11
5 13
5 17
5 20
5 21
5 22
5 23
5 27
5 28
5 29
5 30
5 32
5 34
5 35
5 39
5 40
5 41
5 42
5 47
5 49
5 56
5 57
5 58
5 59
5 60
5 61
5 62
5 64
5 65
5 66
5 68
5 70
5 71
5 72
5 73
5 74
5 75
5 76
5 77
5 79
5 81
5 82
5 83
5 84
5 87
5 88
5 91
5 92
5 94
5 96
5 97
6 10
6 11
6 12
6 15
6 16
6 19
6 21
6 23
6 25
6 27
6 28
6 29
6 30
6 31
6 32
6 33
6 34
6 35
6 37
6 38
6 40
6 43
6 44
6 45
6 48
6 49
6 52
6 53
6 55
6 56
6 58
6 59
6 60
6 62
6 64
6 66
6 67
6 68
6 69
6 70
6 71
6 72
6 74
6 77
6 78
6 81
6 82
6 83
6 88
6 89
6 91
6 94
6 99
7 83
7 97
7 65
7 72
7 9
7 10
7 12
7 14
7 71
7 92
7 82
7 67
7 20
7 21
7 73
7 89
7 25
7 26
7 27
7 28
7 30
7 80
7 34
7 35
7 39
7 40
7 41
7 43
7 76
7 51
7 94
7 55
7 57
7 60
7 61
7 85
7 63
8 66
8 69
8 97
8 9
8 11
8 76
8 77
8 78
8 15
8 16
8 18
8 19
8 22
8 87
8 89
8 28
8 93
8 95
8 32
8 80
8 34
8 99
8 92
8 42
8 67
8 44
8 82
8 47
8 49
8 53
8 56
8 62
8 63
9 10
9 11
9 12
9 15
9 16
9 18
9 19
9 21
9 24
9 26
9 27
9 29
9 30
9 31
9 33
9 36
9 40
9 41
9 45
9 47
9 49
9 50
9 51
9 54
9 55
9 56
9 58
9 61
9 64
9 65
9 69
9 71
9 78
9 80
9 81
9 82
9 84
9 85
9 86
9 97
10 11
10 13
10 14
10 17
10 19
10 26
10 27
10 28
10 29
10 30
10 31
10 32
10 34
10 37
10 38
10 39
10 40
10 43
10 44
10 46
10 47
10 49
10 50
10 56
10 57
10 58
10 59
10 60
10 61
10 64
10 66
10 67
10 68
10 69
10 71
10 72
10 75
10 76
10 79
10 83
10 84
10 85
10 88
10 91
10 93
10 97
10 98
11 12
11 13
11 14
11 15
11 19
11 22
11 26
11 29
11 30
11 31
11 32
11 34
11 35
11 36
11 37
11 41
11 42
11 44
11 45
11 46
11 47
11 48
11 49
11 50
11 52
11 53
11 59
11 61
11 62
11 64
11 65
11 66
11 67
11 68
11 70
11 71
11 72
11 73
11 78
11 79
11 80
11 84
11 85
11 93
11 96
11 98
12 13
12 14
12 16
12 17
12 18
12 21
12 22
12 23
12 25
12 26
12 27
12 28
12 32
12 34
12 35
12 37
12 39
12 41
12 43
12 44
12 45
12 47
12 54
12 56
12 60
12 61
12 64
12 66
12 67
12 68
12 70
12 72
12 74
12 77
12 78
12 81
12 82
12 84
12 89
12 91
12 94
12 95
12 96
12 97
12 99
13 14
13 15
13 21
13 24
13 25
13 26
13 27
13 29
13 31
13 32
13 34
13 38
13 41
13 42
13 44
13 45
13 46
13 49
13 52
13 53
13 58
13 59
13 60
13 64
13 66
13 67
13 68
13 70
13 71
13 72
13 73
13 74
13 75
13 77
13 79
13 81
13 85
13 89
13 91
13 93
13 95
13 96
14 16
14 19
14 20
14 21
14 22
14 24
14 30
14 34
14 35
14 37
14 39
14 45
14 47
14 48
14 49
14 50
14 52
14 54
14 56
14 58
14 59
14 60
14 62
14 63
14 64
14 65
14 67
14 68
14 69
14 70
14 71
14 72
14 77
14 78
14 79
14 81
14 83
14 84
14 87
14 88
14 89
14 90
14 91
14 92
14 93
14 95
14 97
14 98
15 17
15 18
15 19
15 23
15 28
15 30
15 31
15 32
15 34
15 36
15 39
15 41
15 42
15 43
15 47
15 48
15 49
15 51
15 52
15 54
15 55
15 56
15 63
15 67
15 69
15 76
15 77
15 80
15 81
15 84
15 85
15 89
15 90
15 91
15 92
15 94
15 97
15 99
16 69
16 65
16 75
16 98
16 17
16 18
16 83
16 78
16 22
16 87
16 88
16 90
16 27
16 86
16 93
16 30
16 32
16 97
16 34
16 35
16 37
16 39
16 44
16 82
16 46
16 47
16 99
16 50
16 52
16 53
16 59
16 70
16 94
16 63
17 18
17 19
17 20
17 22
17 24
17 25
17 26
17 27
17 29
17 31
17 32
17 33
17 35
17 36
17 37
17 38
17 40
17 42
17 43
17 46
17 47
17 49
17 50
17 51
17 54
17 56
17 59
17 62
17 63
17 64
17 67
17 70
17 72
17 75
17 76
17 77
17 78
17 82
17 92
17 94
17 96
18 21
18 22
18 26
18 30
18 32
18 33
18 34
18 35
18 42
18 43
18 44
18 45
18 46
18 47
18 48
18 49
18 50
18 53
18 55
18 56
18 57
18 59
18 63
18 64
18 65
18 67
18 68
18 73
18 77
18 78
18 79
18 84
18 85
18 89
18 91
18 93
18 94
18 96
19 24
19 25
19 26
19 30
19 31
19 32
19 34
19 37
19 39
19 41
19 43
19 45
19 48
19 49
19 50
19 52
19 53
19 54
19 55
19 56
19 58
19 60
19 62
19 67
19 68
19 72
19 74
19 75
19 76
19 80
19 81
19 82
19 84
19 86
19 88
19 89
19 90
19 91
19 92
19 96
20 21
20 24
20 25
20 29
20 30
20 32
20 36
20 39
20 43
20 47
20 48
20 49
20 51
20 52
20 53
20 54
20 56
20 58
20 59
20 60
20 61
20 62
20 63
20 65
20 66
20 67
20 68
20 69
20 71
20 72
20 73
20 75
20 77
20 78
20 79
20 80
20 83
20 85
20 88
20 89
20 90
20 91
20 92
20 93
20 95
20 97
20 99
21 23
21 24
21 25
21 27
21 28
21 32
21 34
21 35
21 37
21 38
21 39
21 40
21 42
21 43
21 49
21 50
21 51
21 52
21 56
21 57
21 58
21 59
21 60
21 63
21 64
21 65
21 67
21 68
21 69
21 70
21 71
21 74
21 79
21 80
21 83
21 86
21 87
21 88
21 89
21 90
21 92
21 93
21 96
21 97
21 99
22 23
22 24
22 29
22 30
22 31
22 32
22 33
22 34
22 35
22 36
22 37
22 38
22 39
22 40
22 41
22 42
22 45
22 46
22 47
22 50
22 51
22 56
22 61
22 67
22 71
22 73
22 74
22 76
22 77
22 78
22 79
22 81
22 82
22 83
22 84
22 86
22 89
22 90
22 91
22 92
22 94
22 96
22 97
22 99
23 25
23 28
23 29
23 30
23 33
23 34
23 35
23 36
23 38
23 41
23 43
23 44
23 46
23 52
23 54
23 55
23 57
23 58
23 61
23 63
23 65
23 68
23 69
23 71
23 72
23 73
23 74
23 80
23 82
23 83
23 84
23 85
23 87
23 91
23 92
23 94
23 95
23 96
23 98
24 25
24 29
24 33
24 37
24 39
24 42
24 44
24 45
24 46
24 47
24 50
24 52
24 53
24 58
24 61
24 63
24 65
24 68
24 70
24 73
24 75
24 77
24 78
24 80
24 81
24 82
24 83
24 84
24 86
24 88
24 89
24 93
24 94
24 95
25 27
25 28
25 29
25 30
25 34
25 35
25 40
25 41
25 42
25 46
25 47
25 49
25 52
25 55
25 61
25 62
25 63
25 66
25 68
25 74
25 75
25 79
25 81
25 82
25 83
25 84
25 85
25 86
25 89
25 94
25 95
25 96
25 97
25 98
26 28
26 29
26 30
26 31
26 32
26 34
26 35
26 36
26 37
26 39
26 41
26 42
26 44
26 45
26 46
26 48
26 51
26 52
26 56
26 59
26 60
26 62
26 63
26 68
26 69
26 70
26 72
26 74
26 75
26 76
26 80
26 83
26 88
26 89
26 90
26 92
26 95
26 96
26 97
26 99
27 28
27 30
27 31
27 32
27 34
27 37
27 42
27 43
27 44
27 47
27 49
27 50
27 51
27 54
27 56
27 59
27 60
27 62
27 65
27 66
27 69
27 71
27 73
27 74
27 76
27 79
27 81
27 83
27 84
27 87
27 89
27 92
27 94
27 95
28 30
28 31
28 33
28 35
28 37
28 38
28 39
28 40
28 42
28 44
28 46
28 49
28 54
28 60
28 65
28 66
28 67
28 68
28 70
28 71
28 72
28 73
28 74
28 76
28 77
28 79
28 80
28 82
28 83
28 85
28 86
28 89
28 92
28 93
28 97
29 34
29 35
29 36
29 37
29 40
29 41
29 43
29 44
29 47
29 50
29 52
29 55
29 61
29 62
29 63
29 64
29 65
29 69
29 71
29 72
29 73
29 74
29 75
29 76
29 78
29 83
29 85
29 86
29 88
29 96
29 97
29 98
30 32
30 33
30 35
30 37
30 40
30 45
30 54
30 55
30 56
30 59
30 61
30 64
30 66
30 68
30 69
30 71
30 72
30 77
30 79
30 80
30 81
30 83
30 88
30 91
30 95
30 96
30 97
30 98
31 64
31 98
31 69
31 71
31 76
31 82
31 86
31 66
31 89
31 68
31 90
31 96
31 97
31 34
31 35
31 36
31 40
31 44
31 93
31 91
31 79
31 53
31 54
31 55
31 56
31 74
31 85
31 63
32 34
32 38
32 39
32 41
32 42
32 43
32 45
32 46
32 47
32 48
32 49
32 50
32 51
32 52
32 53
32 54
32 55
32 56
32 57
32 59
32 60
32 61
32 62
32 69
32 70
32 76
32 81
32 82
32 83
32 84
32 87
32 89
32 93
32 96
32 97
32 99
33 34
33 35
33 39
33 40
33 41
33 42
33 44
33 45
33 46
33 50
33 51
33 52
33 54
33 55
33 56
33 60
33 63
33 64
33 67
33 68
33 69
33 72
33 73
33 75
33 79
33 80
33 83
33 86
33 89
33 90
33 92
33 94
33 95
33 98
34 37
34 38
34 39
34 41
34 42
34 43
34 44
34 46
34 47
34 48
34 50
34 51
34 53
34 58
34 59
34 61
34 63
34 64
34 65
34 66
34 69
34 71
34 72
34 73
34 75
34 76
34 81
34 83
34 84
34 86
34 87
34 88
34 91
34 92
34 95
34 96
35 36
35 37
35 38
35 42
35 45
35 46
35 47
35 48
35 50
35 53
35 54
35 55
35 57
35 60
35 61
35 62
35 63
35 65
35 73
35 76
35 78
35 81
35 83
35 84
35 86
35 87
35 89
35 91
35 92
35 95
35 97
36 64
36 65
36 86
36 81
36 77
36 82
36 88
36 91
36 92
36 84
36 90
36 38
36 39
36 40
36 41
36 42
36 45
36 46
36 93
36 48
36 50
36 51
36 52
36 54
36 55
36 57
36 58
36 59
36 62
36 63
37 38
37 39
37 41
37 43
37 45
37 47
37 48
37 50
37 53
37 54
37 57
37 59
37 60
37 61
37 62
37 63
37 67
37 68
37 72
37 74
37 79
37 81
37 85
37 86
37 87
37 88
37 89
37 91
37 94
38 40
38 41
38 42
38 46
38 49
38 50
38 52
38 54
38 55
38 56
38 58
38 59
38 60
38 62
38 63
38 64
38 68
38 70
38 72
38 74
38 75
38 77
38 78
38 79
38 80
38 82
38 83
38 85
38 86
38 87
38 88
38 89
38 93
38 94
38 97
38 98
38 99
39 40
39 41
39 44
39 45
39 46
39 47
39 50
39 52
39 54
39 55
39 56
39 58
39 60
39 62
39 63
39 67
39 71
39 72
39 74
39 75
39 77
39 78
39 80
39 81
39 83
39 86
39 90
39 92
39 95
39 97
39 98
39 99
40 42
40 43
40 44
40 45
40 46
40 47
40 50
40 52
40 54
40 55
40 56
40 57
40 58
40 60
40 64
40 66
40 68
40 70
40 72
40 73
40 74
40 78
40 81
40 82
40 83
40 85
40 86
40 89
40 90
40 93
40 94
40 95
40 98
40 99
41 42
41 43
41 49
41 50
41 52
41 56
41 61
41 65
41 68
41 69
41 70
41 72
41 73
41 77
41 78
41 79
41 81
41 82
41 83
41 84
41 85
41 86
41 91
41 92
41 93
41 95
41 97
42 44
42 45
42 46
42 48
42 52
42 54
42 55
42 57
42 60
42 61
42 64
42 66
42 67
42 70
42 71
42 73
42 74
42 82
42 84
42 85
42 90
42 92
42 94
42 97
42 99
43 44
43 46
43 47
43 50
43 54
43 57
43 60
43 62
43 63
43 65
43 66
43 67
43 70
43 71
43 72
43 73
43 74
43 77
43 81
43 85
43 86
43 87
43 89
43 90
43 95
43 96
43 99
44 47
44 48
44 49
44 50
44 53
44 54
44 56
44 58
44 59
44 64
44 67
44 69
44 74
44 75
44 79
44 80
44 86
44 87
44 88
44 89
44 90
44 95
44 97
44 99
45 46
45 51
45 52
45 54
45 55
45 56
45 58
45 60
45 63
45 64
45 65
45 66
45 68
45 70
45 71
45 72
45 73
45 74
45 76
45 79
45 80
45 81
45 82
45 83
45 84
45 85
45 86
45 88
45 89
45 91
45 95
45 96
45 98
45 99
46 48
46 51
46 52
46 53
46 54
46 55
46 60
46 61
46 62
46 67
46 68
46 69
46 71
46 77
46 79
46 81
46 82
46 83
46 85
46 86
46 87
46 91
46 95
46 97
46 99
47 48
47 49
47 50
47 51
47 53
47 54
47 55
47 56
47 59
47 62
47 63
47 64
47 66
47 69
47 70
47 73
47 75
47 79
47 80
47 81
47 84
47 85
47 88
47 93
47 94
47 97
47 98
48 49
48 50
48 52
48 53
48 54
48 56
48 61
48 62
48 67
48 73
48 77
48 79
48 80
48 81
48 82
48 83
48 85
48 86
48 87
48 89
48 92
48 93
48 94
48 96
48 99
49 50
49 51
49 53
49 56
49 57
49 58
49 59
49 61
49 62
49 63
49 64
49 65
49 68
49 69
49 71
49 72
49 73
49 74
49 75
49 78
49 80
49 86
49 88
49 89
49 91
49 94
49 95
49 96
49 97
49 98
50 53
50 54
50 55
50 57
50 58
50 62
50 66
50 67
50 69
50 71
50 74
50 76
50 80
50 81
50 83
50 85
50 86
50 88
50 93
50 95
50 99
51 64
51 66
51 67
51 69
51 70
51 79
51 75
51 76
51 77
51 78
51 82
51 87
51 93
51 95
51 96
51 71
51 52
51 73
51 58
51 60
51 63
52 58
52 59
52 60
52 64
52 66
52 67
52 71
52 72
52 73
52 74
52 76
52 78
52 79
52 80
52 81
52 82
52 84
52 86
52 87
52 91
52 92
52 94
52 95
52 99
53 54
53 58
53 61
53 62
53 63
53 64
53 65
53 66
53 68
53 70
53 71
53 72
53 76
53 77
53 78
53 81
53 86
53 87
53 88
53 89
53 91
53 94
53 95
53 96
53 99
54 55
54 57
54 58
54 59
54 60
54 61
54 65
54 66
54 67
54 69
54 70
54 72
54 76
54 77
54 80
54 82
54 84
54 85
54 89
54 90
54 94
54 98
54 99
55 58
55 61
55 63
55 64
55 66
55 67
55 68
55 69
55 70
55 74
55 77
55 81
55 82
55 85
55 86
55 87
55 90
55 91
55 95
55 96
55 99
56 59
56 60
56 65
56 69
56 71
56 72
56 73
56 75
56 77
56 78
56 79
56 80
56 81
56 82
56 83
56 85
56 86
56 88
56 91
56 92
56 96
57 64
57 65
57 66
57 67
57 70
57 72
57 75
57 76
57 78
57 79
57 80
57 99
57 84
57 89
57 71
57 92
57 90
57 69
57 97
57 98
57 87
57 58
57 59
57 60
57 74
58 59
58 60
58 61
58 62
58 65
58 69
58 74
58 76
58 77
58 81
58 82
58 83
58 85
58 86
58 91
58 92
58 97
58 98
59 60
59 62
59 64
59 68
59 72
59 73
59 74
59 75
59 76
59 77
59 78
59 79
59 81
59 83
59 84
59 86
59 87
59 91
59 93
59 96
59 99
60 61
60 62
60 64
60 65
60 67
60 69
60 72
60 73
60 75
60 79
60 80
60 85
60 90
60 92
60 94
60 95
60 97
60 98
60 99
61 62
61 65
61 66
61 68
61 69
61 70
61 73
61 74
61 76
61 78
61 83
61 85
61 86
61 88
61 89
61 90
61 91
61 92
61 93
61 96
61 99
62 71
62 74
62 76
62 78
62 80
62 84
62 85
62 86
62 87
62 88
62 90
62 92
62 93
62 95
62 96
63 64
63 65
63 67
63 68
63 71
63 72
63 73
63 74
63 76
63 77
63 78
63 80
63 81
63 82
63 84
63 86
63 88
63 92
63 96
63 98
63 99
64 65
64 66
64 67
64 73
64 74
64 83
64 87
64 88
64 90
64 91
64 93
64 94
64 96
65 66
65 67
65 68
65 70
65 75
65 77
65 78
65 80
65 81
65 82
65 84
65 85
65 87
65 89
65 90
65 91
65 97
65 98
66 68
66 70
66 73
66 76
66 78
66 81
66 82
66 84
66 86
66 88
66 89
66 91
66 92
66 94
66 97
66 99
67 69
67 70
67 71
67 74
67 75
67 78
67 79
67 80
67 87
67 91
67 94
67 95
68 73
68 79
68 80
68 81
68 92
68 90
68 74
68 89
68 84
69 70
69 74
69 75
69 76
69 79
69 85
69 88
69 89
69 93
69 94
69 97
69 98
70 72
70 74
70 77
70 79
70 81
70 83
70 84
70 85
70 88
70 90
70 91
70 92
70 94
70 99
71 76
71 82
71 83
71 85
71 86
71 87
71 89
71 90
71 91
71 94
71 95
71 96
71 97
71 98
71 99
72 73
72 74
72 75
72 77
72 78
72 81
72 82
72 83
72 84
72 87
72 88
72 91
72 92
72 93
72 94
72 95
72 98
72 99
73 77
73 78
73 79
73 83
73 85
73 87
73 88
73 90
73 93
73 99
74 77
74 78
74 79
74 83
74 87
74 88
74 89
74 90
74 94
74 95
74 96
74 98
75 79
75 83
75 84
75 87
75 88
75 89
75 90
75 92
75 93
75 94
75 95
75 96
75 97
75 98
75 99
76 98
76 86
76 78
76 87
76 88
76 81
76 92
76 99
77 78
77 80
77 81
77 83
77 85
77 87
77 88
77 91
77 92
77 94
77 95
77 97
77 99
78 80
78 83
78 86
78 88
78 90
78 91
78 92
78 93
78 94
78 95
78 96
79 83
79 87
79 88
79 91
79 92
79 93
79 94
79 97
79 99
80 81
80 82
80 84
80 86
80 90
80 92
80 94
80 96
80 98
81 83
81 84
81 87
81 89
81 92
81 94
81 95
81 98
81 99
82 86
82 89
82 92
83 85
83 86
83 89
83 91
83 94
83 95
83 98
84 89
84 90
84 91
84 93
84 94
84 96
84 97
84 98
84 99
85 91
85 92
85 95
85 96
85 99
86 89
86 91
86 92
86 93
86 97
86 98
86 99
87 98
87 89
87 94
87 97
87 91
88 89
88 91
88 93
88 94
88 96
88 99
89 92
89 95
89 96
89 97
89 99
90 98
90 96
91 96
92 94
93 97
93 95
94 96
94 98
95 97
95 98
96 99
97 99
