graph {
		0 -- 1
		0 -- 4
		0 -- 5
		0 -- 6
		0 -- 7
		0 -- 9
		0 -- 13
		0 -- 16
		0 -- 18
		0 -- 21
		0 -- 22
		0 -- 23
		0 -- 25
		0 -- 26
		0 -- 27
		0 -- 29
		0 -- 30
		0 -- 31
		0 -- 33
		0 -- 34
		0 -- 35
		0 -- 36
		0 -- 37
		0 -- 40
		0 -- 41
		0 -- 44
		0 -- 47
		0 -- 51
		0 -- 53
		0 -- 58
		0 -- 60
		0 -- 61
		0 -- 62
		0 -- 63
		0 -- 64
		0 -- 65
		0 -- 66
		0 -- 69
		0 -- 70
		0 -- 72
		0 -- 75
		0 -- 76
		0 -- 77
		0 -- 78
		0 -- 80
		0 -- 81
		0 -- 84
		0 -- 86
		0 -- 87
		0 -- 95
		0 -- 96
		0 -- 97
		1 -- 2
		1 -- 3
		1 -- 5
		1 -- 6
		1 -- 7
		1 -- 9
		1 -- 10
		1 -- 12
		1 -- 13
		1 -- 15
		1 -- 18
		1 -- 19
		1 -- 21
		1 -- 22
		1 -- 24
		1 -- 25
		1 -- 26
		1 -- 27
		1 -- 28
		1 -- 29
		1 -- 33
		1 -- 34
		1 -- 36
		1 -- 37
		1 -- 38
		1 -- 39
		1 -- 40
		1 -- 43
		1 -- 46
		1 -- 47
		1 -- 48
		1 -- 50
		1 -- 51
		1 -- 52
		1 -- 53
		1 -- 56
		1 -- 57
		1 -- 59
		1 -- 60
		1 -- 61
		1 -- 62
		1 -- 67
		1 -- 71
		1 -- 76
		1 -- 81
		1 -- 82
		1 -- 84
		1 -- 86
		1 -- 87
		1 -- 88
		1 -- 89
		1 -- 92
		1 -- 93
		1 -- 96
		1 -- 97
		1 -- 99
		2 -- 4
		2 -- 5
		2 -- 7
		2 -- 8
		2 -- 10
		2 -- 11
		2 -- 12
		2 -- 13
		2 -- 15
		2 -- 18
		2 -- 20
		2 -- 21
		2 -- 28
		2 -- 29
		2 -- 31
		2 -- 34
		2 -- 36
		2 -- 37
		2 -- 38
		2 -- 39
		2 -- 40
		2 -- 42
		2 -- 45
		2 -- 48
		2 -- 51
		2 -- 54
		2 -- 56
		2 -- 57
		2 -- 59
		2 -- 61
		2 -- 62
		2 -- 63
		2 -- 64
		2 -- 65
		2 -- 66
		2 -- 71
		2 -- 72
		2 -- 76
		2 -- 77
		2 -- 81
		2 -- 82
		2 -- 83
		2 -- 85
		2 -- 87
		2 -- 91
		2 -- 92
		2 -- 93
		2 -- 94
		2 -- 96
		2 -- 97
		2 -- 99
		3 -- 5
		3 -- 8
		3 -- 11
		3 -- 12
		3 -- 18
		3 -- 21
		3 -- 22
		3 -- 23
		3 -- 24
		3 -- 25
		3 -- 32
		3 -- 33
		3 -- 34
		3 -- 35
		3 -- 36
		3 -- 41
		3 -- 42
		3 -- 44
		3 -- 46
		3 -- 47
		3 -- 49
		3 -- 50
		3 -- 51
		3 -- 54
		3 -- 56
		3 -- 57
		3 -- 59
		3 -- 63
		3 -- 64
		3 -- 66
		3 -- 71
		3 -- 72
		3 -- 74
		3 -- 75
		3 -- 79
		3 -- 80
		3 -- 82
		3 -- 83
		3 -- 84
		3 -- 85
		3 -- 86
		3 -- 89
		3 -- 90
		3 -- 93
		3 -- 94
		3 -- 95
		3 -- 96
		3 -- 98
		4 -- 5
		4 -- 6
		4 -- 8
		4 -- 12
		4 -- 13
		4 -- 14
		4 -- 16
		4 -- 17
		4 -- 18
		4 -- 19
		4 -- 22
		4 -- 23
		4 -- 25
		4 -- 32
		4 -- 34
		4 -- 41
		4 -- 45
		4 -- 48
		4 -- 50
		4 -- 57
		4 -- 58
		4 -- 60
		4 -- 62
		4 -- 63
		4 -- 64
		4 -- 65
		4 -- 67
		4 -- 72
		4 -- 73
		4 -- 74
		4 -- 78
		4 -- 81
		4 -- 83
		4 -- 84
		4 -- 85
		4 -- 87
		4 -- 89
		4 -- 92
		4 -- 95
		4 -- 96
		4 -- 97
		4 -- 98
		4 -- 99
		5 -- 7
		5 -- 9
		5 -- 10
		5 -- 11
		5 -- 12
		5 -- 13
		5 -- 14
		5 -- 15
		5 -- 18
		5 -- 21
		5 -- 22
		5 -- 25
		5 -- 29
		5 -- 30
		5 -- 32
		5 -- 33
		5 -- 36
		5 -- 37
		5 -- 38
		5 -- 39
		5 -- 41
		5 -- 43
		5 -- 44
		5 -- 45
		5 -- 46
		5 -- 47
		5 -- 48
		5 -- 49
		5 -- 52
		5 -- 53
		5 -- 57
		5 -- 60
		5 -- 62
		5 -- 63
		5 -- 66
		5 -- 70
		5 -- 71
		5 -- 72
		5 -- 77
		5 -- 78
		5 -- 80
		5 -- 81
		5 -- 86
		5 -- 88
		5 -- 89
		5 -- 90
		5 -- 91
		5 -- 93
		5 -- 96
		5 -- 97
		5 -- 98
		5 -- 99
		6 -- 66
		6 -- 81
		6 -- 7
		6 -- 8
		6 -- 79
		6 -- 75
		6 -- 12
		6 -- 13
		6 -- 77
		6 -- 17
		6 -- 18
		6 -- 19
		6 -- 84
		6 -- 21
		6 -- 87
		6 -- 88
		6 -- 68
		6 -- 90
		6 -- 27
		6 -- 92
		6 -- 93
		6 -- 32
		6 -- 97
		6 -- 34
		6 -- 35
		6 -- 36
		6 -- 38
		6 -- 39
		6 -- 42
		6 -- 71
		6 -- 82
		6 -- 46
		6 -- 47
		6 -- 48
		6 -- 50
		6 -- 51
		6 -- 52
		6 -- 53
		6 -- 56
		6 -- 61
		7 -- 8
		7 -- 9
		7 -- 11
		7 -- 14
		7 -- 16
		7 -- 17
		7 -- 18
		7 -- 20
		7 -- 22
		7 -- 24
		7 -- 25
		7 -- 26
		7 -- 27
		7 -- 28
		7 -- 35
		7 -- 36
		7 -- 38
		7 -- 39
		7 -- 40
		7 -- 41
		7 -- 42
		7 -- 44
		7 -- 48
		7 -- 49
		7 -- 50
		7 -- 52
		7 -- 53
		7 -- 56
		7 -- 62
		7 -- 63
		7 -- 65
		7 -- 67
		7 -- 72
		7 -- 73
		7 -- 75
		7 -- 77
		7 -- 78
		7 -- 79
		7 -- 80
		7 -- 82
		7 -- 90
		7 -- 91
		7 -- 92
		7 -- 94
		7 -- 95
		7 -- 96
		7 -- 97
		7 -- 99
		8 -- 9
		8 -- 10
		8 -- 11
		8 -- 13
		8 -- 14
		8 -- 16
		8 -- 17
		8 -- 18
		8 -- 20
		8 -- 22
		8 -- 23
		8 -- 25
		8 -- 30
		8 -- 32
		8 -- 33
		8 -- 34
		8 -- 35
		8 -- 39
		8 -- 41
		8 -- 47
		8 -- 50
		8 -- 52
		8 -- 53
		8 -- 54
		8 -- 56
		8 -- 57
		8 -- 58
		8 -- 59
		8 -- 60
		8 -- 62
		8 -- 64
		8 -- 65
		8 -- 66
		8 -- 67
		8 -- 70
		8 -- 73
		8 -- 74
		8 -- 77
		8 -- 85
		8 -- 86
		8 -- 87
		8 -- 91
		8 -- 94
		8 -- 95
		8 -- 96
		8 -- 98
		9 -- 11
		9 -- 14
		9 -- 16
		9 -- 18
		9 -- 19
		9 -- 20
		9 -- 21
		9 -- 22
		9 -- 23
		9 -- 25
		9 -- 28
		9 -- 36
		9 -- 40
		9 -- 42
		9 -- 43
		9 -- 45
		9 -- 48
		9 -- 49
		9 -- 50
		9 -- 52
		9 -- 55
		9 -- 56
		9 -- 57
		9 -- 58
		9 -- 59
		9 -- 60
		9 -- 63
		9 -- 66
		9 -- 67
		9 -- 68
		9 -- 69
		9 -- 74
		9 -- 77
		9 -- 78
		9 -- 79
		9 -- 85
		9 -- 86
		9 -- 87
		9 -- 89
		9 -- 90
		9 -- 91
		9 -- 95
		9 -- 97
		9 -- 98
		10 -- 11
		10 -- 12
		10 -- 13
		10 -- 15
		10 -- 17
		10 -- 18
		10 -- 22
		10 -- 27
		10 -- 28
		10 -- 30
		10 -- 32
		10 -- 34
		10 -- 35
		10 -- 36
		10 -- 39
		10 -- 41
		10 -- 42
		10 -- 43
		10 -- 44
		10 -- 45
		10 -- 46
		10 -- 49
		10 -- 50
		10 -- 51
		10 -- 52
		10 -- 54
		10 -- 58
		10 -- 60
		10 -- 61
		10 -- 63
		10 -- 64
		10 -- 70
		10 -- 71
		10 -- 72
		10 -- 73
		10 -- 75
		10 -- 76
		10 -- 77
		10 -- 78
		10 -- 79
		10 -- 80
		10 -- 82
		10 -- 86
		10 -- 87
		10 -- 89
		10 -- 93
		10 -- 95
		10 -- 97
		10 -- 98
		11 -- 15
		11 -- 17
		11 -- 19
		11 -- 20
		11 -- 21
		11 -- 22
		11 -- 23
		11 -- 25
		11 -- 29
		11 -- 30
		11 -- 34
		11 -- 37
		11 -- 40
		11 -- 41
		11 -- 42
		11 -- 45
		11 -- 47
		11 -- 48
		11 -- 49
		11 -- 50
		11 -- 51
		11 -- 52
		11 -- 54
		11 -- 55
		11 -- 56
		11 -- 62
		11 -- 64
		11 -- 71
		11 -- 74
		11 -- 76
		11 -- 77
		11 -- 79
		11 -- 80
		11 -- 81
		11 -- 82
		11 -- 83
		11 -- 85
		11 -- 87
		11 -- 88
		11 -- 89
		11 -- 91
		11 -- 94
		11 -- 95
		11 -- 96
		11 -- 97
		11 -- 98
		11 -- 99
		12 -- 13
		12 -- 14
		12 -- 15
		12 -- 16
		12 -- 20
		12 -- 21
		12 -- 22
		12 -- 23
		12 -- 29
		12 -- 31
		12 -- 32
		12 -- 33
		12 -- 35
		12 -- 36
		12 -- 37
		12 -- 39
		12 -- 40
		12 -- 41
		12 -- 42
		12 -- 44
		12 -- 45
		12 -- 46
		12 -- 48
		12 -- 49
		12 -- 50
		12 -- 51
		12 -- 53
		12 -- 56
		12 -- 57
		12 -- 60
		12 -- 61
		12 -- 62
		12 -- 63
		12 -- 64
		12 -- 67
		12 -- 74
		12 -- 76
		12 -- 81
		12 -- 82
		12 -- 83
		12 -- 84
		12 -- 85
		12 -- 87
		12 -- 88
		12 -- 90
		12 -- 91
		12 -- 92
		12 -- 94
		12 -- 95
		12 -- 96
		12 -- 97
		12 -- 98
		13 -- 17
		13 -- 19
		13 -- 20
		13 -- 23
		13 -- 24
		13 -- 25
		13 -- 27
		13 -- 28
		13 -- 29
		13 -- 33
		13 -- 34
		13 -- 35
		13 -- 38
		13 -- 39
		13 -- 42
		13 -- 46
		13 -- 47
		13 -- 48
		13 -- 50
		13 -- 51
		13 -- 53
		13 -- 58
		13 -- 59
		13 -- 67
		13 -- 69
		13 -- 71
		13 -- 73
		13 -- 76
		13 -- 77
		13 -- 79
		13 -- 83
		13 -- 84
		13 -- 85
		13 -- 87
		13 -- 88
		13 -- 91
		13 -- 93
		13 -- 94
		14 -- 18
		14 -- 20
		14 -- 21
		14 -- 22
		14 -- 24
		14 -- 26
		14 -- 29
		14 -- 30
		14 -- 31
		14 -- 32
		14 -- 40
		14 -- 43
		14 -- 45
		14 -- 46
		14 -- 48
		14 -- 49
		14 -- 52
		14 -- 54
		14 -- 56
		14 -- 57
		14 -- 58
		14 -- 59
		14 -- 60
		14 -- 62
		14 -- 63
		14 -- 64
		14 -- 65
		14 -- 66
		14 -- 68
		14 -- 69
		14 -- 70
		14 -- 72
		14 -- 74
		14 -- 75
		14 -- 76
		14 -- 78
		14 -- 80
		14 -- 84
		14 -- 86
		14 -- 90
		14 -- 91
		14 -- 93
		14 -- 95
		14 -- 97
		14 -- 98
		14 -- 99
		15 -- 16
		15 -- 19
		15 -- 22
		15 -- 23
		15 -- 24
		15 -- 25
		15 -- 28
		15 -- 29
		15 -- 30
		15 -- 31
		15 -- 35
		15 -- 36
		15 -- 40
		15 -- 44
		15 -- 46
		15 -- 47
		15 -- 48
		15 -- 49
		15 -- 50
		15 -- 51
		15 -- 53
		15 -- 55
		15 -- 57
		15 -- 58
		15 -- 66
		15 -- 69
		15 -- 70
		15 -- 72
		15 -- 74
		15 -- 75
		15 -- 79
		15 -- 80
		15 -- 81
		15 -- 82
		15 -- 84
		15 -- 85
		15 -- 86
		15 -- 87
		15 -- 88
		15 -- 89
		15 -- 90
		15 -- 92
		15 -- 95
		15 -- 96
		15 -- 97
		15 -- 99
		16 -- 66
		16 -- 86
		16 -- 70
		16 -- 75
		16 -- 78
		16 -- 19
		16 -- 21
		16 -- 22
		16 -- 23
		16 -- 89
		16 -- 79
		16 -- 92
		16 -- 29
		16 -- 94
		16 -- 95
		16 -- 33
		16 -- 35
		16 -- 93
		16 -- 41
		16 -- 97
		16 -- 46
		16 -- 47
		16 -- 76
		16 -- 72
		16 -- 91
		16 -- 53
		16 -- 85
		16 -- 57
		16 -- 59
		16 -- 62
		16 -- 63
		17 -- 21
		17 -- 22
		17 -- 24
		17 -- 25
		17 -- 27
		17 -- 28
		17 -- 30
		17 -- 31
		17 -- 32
		17 -- 35
		17 -- 36
		17 -- 37
		17 -- 38
		17 -- 39
		17 -- 40
		17 -- 41
		17 -- 42
		17 -- 43
		17 -- 45
		17 -- 46
		17 -- 49
		17 -- 52
		17 -- 56
		17 -- 60
		17 -- 61
		17 -- 62
		17 -- 63
		17 -- 64
		17 -- 65
		17 -- 72
		17 -- 78
		17 -- 80
		17 -- 84
		17 -- 85
		17 -- 88
		17 -- 89
		17 -- 90
		17 -- 91
		17 -- 95
		17 -- 96
		17 -- 97
		17 -- 98
		18 -- 19
		18 -- 20
		18 -- 21
		18 -- 25
		18 -- 27
		18 -- 28
		18 -- 29
		18 -- 30
		18 -- 32
		18 -- 36
		18 -- 37
		18 -- 38
		18 -- 39
		18 -- 41
		18 -- 43
		18 -- 44
		18 -- 45
		18 -- 47
		18 -- 48
		18 -- 50
		18 -- 51
		18 -- 52
		18 -- 56
		18 -- 58
		18 -- 59
		18 -- 63
		18 -- 64
		18 -- 65
		18 -- 66
		18 -- 68
		18 -- 70
		18 -- 73
		18 -- 75
		18 -- 76
		18 -- 79
		18 -- 80
		18 -- 83
		18 -- 84
		18 -- 85
		18 -- 86
		18 -- 88
		18 -- 90
		18 -- 91
		18 -- 92
		18 -- 95
		18 -- 97
		18 -- 98
		19 -- 20
		19 -- 21
		19 -- 22
		19 -- 24
		19 -- 25
		19 -- 27
		19 -- 29
		19 -- 31
		19 -- 32
		19 -- 36
		19 -- 42
		19 -- 43
		19 -- 45
		19 -- 46
		19 -- 50
		19 -- 51
		19 -- 54
		19 -- 55
		19 -- 56
		19 -- 60
		19 -- 61
		19 -- 62
		19 -- 65
		19 -- 72
		19 -- 73
		19 -- 74
		19 -- 75
		19 -- 79
		19 -- 82
		19 -- 83
		19 -- 84
		19 -- 86
		19 -- 87
		19 -- 88
		19 -- 90
		19 -- 91
		19 -- 92
		19 -- 93
		19 -- 94
		19 -- 95
		19 -- 96
		19 -- 97
		19 -- 98
		20 -- 21
		20 -- 22
		20 -- 25
		20 -- 26
		20 -- 29
		20 -- 31
		20 -- 32
		20 -- 33
		20 -- 34
		20 -- 36
		20 -- 37
		20 -- 38
		20 -- 42
		20 -- 43
		20 -- 44
		20 -- 45
		20 -- 48
		20 -- 49
		20 -- 50
		20 -- 51
		20 -- 54
		20 -- 55
		20 -- 57
		20 -- 58
		20 -- 61
		20 -- 64
		20 -- 66
		20 -- 67
		20 -- 69
		20 -- 72
		20 -- 73
		20 -- 74
		20 -- 76
		20 -- 81
		20 -- 82
		20 -- 83
		20 -- 84
		20 -- 86
		20 -- 88
		20 -- 89
		20 -- 90
		20 -- 91
		20 -- 92
		20 -- 93
		20 -- 94
		20 -- 95
		20 -- 96
		20 -- 97
		20 -- 98
		20 -- 99
		21 -- 24
		21 -- 25
		21 -- 26
		21 -- 27
		21 -- 31
		21 -- 34
		21 -- 35
		21 -- 36
		21 -- 39
		21 -- 42
		21 -- 43
		21 -- 44
		21 -- 45
		21 -- 48
		21 -- 50
		21 -- 51
		21 -- 52
		21 -- 56
		21 -- 57
		21 -- 59
		21 -- 60
		21 -- 61
		21 -- 63
		21 -- 64
		21 -- 75
		21 -- 76
		21 -- 77
		21 -- 78
		21 -- 81
		21 -- 82
		21 -- 84
		21 -- 85
		21 -- 87
		21 -- 94
		22 -- 26
		22 -- 27
		22 -- 31
		22 -- 32
		22 -- 33
		22 -- 36
		22 -- 37
		22 -- 39
		22 -- 40
		22 -- 41
		22 -- 43
		22 -- 44
		22 -- 50
		22 -- 53
		22 -- 56
		22 -- 57
		22 -- 58
		22 -- 59
		22 -- 62
		22 -- 63
		22 -- 64
		22 -- 66
		22 -- 70
		22 -- 72
		22 -- 75
		22 -- 78
		22 -- 79
		22 -- 80
		22 -- 81
		22 -- 85
		22 -- 87
		22 -- 88
		22 -- 90
		22 -- 92
		22 -- 93
		22 -- 94
		22 -- 97
		23 -- 24
		23 -- 25
		23 -- 26
		23 -- 28
		23 -- 29
		23 -- 30
		23 -- 33
		23 -- 34
		23 -- 36
		23 -- 38
		23 -- 39
		23 -- 46
		23 -- 47
		23 -- 49
		23 -- 50
		23 -- 51
		23 -- 52
		23 -- 54
		23 -- 55
		23 -- 56
		23 -- 57
		23 -- 58
		23 -- 63
		23 -- 65
		23 -- 66
		23 -- 67
		23 -- 70
		23 -- 72
		23 -- 73
		23 -- 74
		23 -- 76
		23 -- 77
		23 -- 78
		23 -- 81
		23 -- 83
		23 -- 87
		23 -- 88
		23 -- 91
		23 -- 92
		23 -- 93
		23 -- 94
		23 -- 98
		23 -- 99
		24 -- 25
		24 -- 26
		24 -- 29
		24 -- 30
		24 -- 32
		24 -- 33
		24 -- 35
		24 -- 36
		24 -- 40
		24 -- 41
		24 -- 42
		24 -- 45
		24 -- 51
		24 -- 52
		24 -- 53
		24 -- 54
		24 -- 56
		24 -- 59
		24 -- 65
		24 -- 67
		24 -- 70
		24 -- 71
		24 -- 77
		24 -- 80
		24 -- 83
		24 -- 84
		24 -- 85
		24 -- 86
		24 -- 87
		24 -- 88
		24 -- 89
		24 -- 90
		24 -- 96
		24 -- 97
		24 -- 98
		25 -- 26
		25 -- 28
		25 -- 31
		25 -- 32
		25 -- 33
		25 -- 34
		25 -- 35
		25 -- 36
		25 -- 40
		25 -- 41
		25 -- 43
		25 -- 45
		25 -- 46
		25 -- 48
		25 -- 49
		25 -- 50
		25 -- 51
		25 -- 53
		25 -- 54
		25 -- 57
		25 -- 59
		25 -- 61
		25 -- 62
		25 -- 65
		25 -- 68
		25 -- 70
		25 -- 71
		25 -- 72
		25 -- 73
		25 -- 75
		25 -- 77
		25 -- 80
		25 -- 81
		25 -- 85
		25 -- 86
		25 -- 87
		25 -- 88
		25 -- 89
		25 -- 90
		25 -- 91
		25 -- 92
		25 -- 94
		25 -- 95
		25 -- 97
		25 -- 98
		26 -- 29
		26 -- 30
		26 -- 31
		26 -- 32
		26 -- 34
		26 -- 35
		26 -- 36
		26 -- 37
		26 -- 39
		26 -- 40
		26 -- 41
		26 -- 42
		26 -- 45
		26 -- 47
		26 -- 49
		26 -- 50
		26 -- 52
		26 -- 53
		26 -- 54
		26 -- 55
		26 -- 58
		26 -- 59
		26 -- 60
		26 -- 61
		26 -- 64
		26 -- 67
		26 -- 68
		26 -- 70
		26 -- 71
		26 -- 73
		26 -- 74
		26 -- 75
		26 -- 77
		26 -- 79
		26 -- 80
		26 -- 83
		26 -- 85
		26 -- 86
		26 -- 88
		26 -- 91
		26 -- 95
		26 -- 96
		26 -- 98
		27 -- 28
		27 -- 30
		27 -- 31
		27 -- 33
		27 -- 34
		27 -- 36
		27 -- 37
		27 -- 38
		27 -- 40
		27 -- 41
		27 -- 42
		27 -- 44
		27 -- 45
		27 -- 46
		27 -- 48
		27 -- 49
		27 -- 50
		27 -- 51
		27 -- 52
		27 -- 55
		27 -- 56
		27 -- 57
		27 -- 58
		27 -- 59
		27 -- 61
		27 -- 62
		27 -- 64
		27 -- 65
		27 -- 66
		27 -- 71
		27 -- 74
		27 -- 75
		27 -- 78
		27 -- 82
		27 -- 84
		27 -- 91
		27 -- 92
		27 -- 96
		27 -- 97
		28 -- 30
		28 -- 33
		28 -- 35
		28 -- 38
		28 -- 40
		28 -- 43
		28 -- 44
		28 -- 45
		28 -- 50
		28 -- 51
		28 -- 54
		28 -- 56
		28 -- 58
		28 -- 59
		28 -- 61
		28 -- 64
		28 -- 69
		28 -- 72
		28 -- 74
		28 -- 75
		28 -- 76
		28 -- 78
		28 -- 80
		28 -- 81
		28 -- 83
		28 -- 85
		28 -- 87
		28 -- 88
		28 -- 92
		28 -- 93
		28 -- 94
		28 -- 95
		28 -- 97
		28 -- 98
		28 -- 99
		29 -- 31
		29 -- 38
		29 -- 39
		29 -- 40
		29 -- 42
		29 -- 43
		29 -- 44
		29 -- 46
		29 -- 49
		29 -- 51
		29 -- 53
		29 -- 54
		29 -- 56
		29 -- 58
		29 -- 61
		29 -- 63
		29 -- 64
		29 -- 68
		29 -- 69
		29 -- 72
		29 -- 74
		29 -- 75
		29 -- 76
		29 -- 77
		29 -- 79
		29 -- 82
		29 -- 83
		29 -- 88
		29 -- 89
		29 -- 91
		29 -- 94
		29 -- 96
		29 -- 99
		30 -- 32
		30 -- 34
		30 -- 35
		30 -- 36
		30 -- 38
		30 -- 40
		30 -- 43
		30 -- 44
		30 -- 45
		30 -- 46
		30 -- 49
		30 -- 52
		30 -- 53
		30 -- 54
		30 -- 55
		30 -- 59
		30 -- 60
		30 -- 61
		30 -- 62
		30 -- 64
		30 -- 67
		30 -- 68
		30 -- 71
		30 -- 73
		30 -- 76
		30 -- 77
		30 -- 79
		30 -- 81
		30 -- 83
		30 -- 84
		30 -- 86
		30 -- 88
		30 -- 90
		30 -- 91
		30 -- 96
		30 -- 98
		31 -- 34
		31 -- 35
		31 -- 37
		31 -- 38
		31 -- 40
		31 -- 41
		31 -- 42
		31 -- 43
		31 -- 44
		31 -- 46
		31 -- 47
		31 -- 48
		31 -- 52
		31 -- 53
		31 -- 54
		31 -- 55
		31 -- 57
		31 -- 58
		31 -- 59
		31 -- 60
		31 -- 62
		31 -- 63
		31 -- 69
		31 -- 75
		31 -- 77
		31 -- 78
		31 -- 82
		31 -- 84
		31 -- 85
		31 -- 86
		31 -- 87
		31 -- 88
		31 -- 94
		31 -- 98
		32 -- 34
		32 -- 36
		32 -- 43
		32 -- 44
		32 -- 47
		32 -- 49
		32 -- 52
		32 -- 53
		32 -- 54
		32 -- 55
		32 -- 56
		32 -- 57
		32 -- 59
		32 -- 61
		32 -- 62
		32 -- 66
		32 -- 68
		32 -- 71
		32 -- 72
		32 -- 73
		32 -- 76
		32 -- 79
		32 -- 80
		32 -- 82
		32 -- 84
		32 -- 85
		32 -- 86
		32 -- 88
		32 -- 89
		32 -- 92
		32 -- 93
		32 -- 96
		32 -- 98
		32 -- 99
		33 -- 35
		33 -- 37
		33 -- 38
		33 -- 40
		33 -- 41
		33 -- 42
		33 -- 43
		33 -- 46
		33 -- 47
		33 -- 48
		33 -- 53
		33 -- 54
		33 -- 55
		33 -- 56
		33 -- 57
		33 -- 58
		33 -- 60
		33 -- 61
		33 -- 62
		33 -- 63
		33 -- 64
		33 -- 65
		33 -- 68
		33 -- 70
		33 -- 72
		33 -- 74
		33 -- 75
		33 -- 76
		33 -- 79
		33 -- 80
		33 -- 81
		33 -- 82
		33 -- 85
		33 -- 87
		33 -- 91
		33 -- 93
		33 -- 95
		33 -- 96
		33 -- 97
		33 -- 99
		34 -- 35
		34 -- 38
		34 -- 41
		34 -- 42
		34 -- 44
		34 -- 46
		34 -- 50
		34 -- 51
		34 -- 52
		34 -- 58
		34 -- 60
		34 -- 61
		34 -- 66
		34 -- 67
		34 -- 68
		34 -- 70
		34 -- 71
		34 -- 72
		34 -- 73
		34 -- 74
		34 -- 75
		34 -- 77
		34 -- 81
		34 -- 83
		34 -- 84
		34 -- 85
		34 -- 86
		34 -- 87
		34 -- 88
		34 -- 89
		34 -- 90
		34 -- 91
		34 -- 92
		34 -- 94
		34 -- 95
		34 -- 96
		34 -- 97
		34 -- 99
		35 -- 37
		35 -- 41
		35 -- 42
		35 -- 43
		35 -- 44
		35 -- 47
		35 -- 48
		35 -- 49
		35 -- 51
		35 -- 53
		35 -- 54
		35 -- 62
		35 -- 66
		35 -- 71
		35 -- 72
		35 -- 73
		35 -- 74
		35 -- 75
		35 -- 76
		35 -- 77
		35 -- 79
		35 -- 83
		35 -- 85
		35 -- 88
		35 -- 91
		35 -- 94
		35 -- 95
		35 -- 98
		35 -- 99
		36 -- 38
		36 -- 41
		36 -- 42
		36 -- 44
		36 -- 47
		36 -- 50
		36 -- 51
		36 -- 53
		36 -- 54
		36 -- 55
		36 -- 56
		36 -- 58
		36 -- 59
		36 -- 64
		36 -- 65
		36 -- 66
		36 -- 70
		36 -- 71
		36 -- 73
		36 -- 74
		36 -- 77
		36 -- 79
		36 -- 81
		36 -- 84
		36 -- 86
		36 -- 90
		36 -- 95
		36 -- 99
		37 -- 67
		37 -- 71
		37 -- 64
		37 -- 77
		37 -- 78
		37 -- 80
		37 -- 99
		37 -- 87
		37 -- 86
		37 -- 94
		37 -- 96
		37 -- 40
		37 -- 92
		37 -- 82
		37 -- 49
		37 -- 72
		37 -- 84
		37 -- 58
		37 -- 59
		37 -- 60
		37 -- 61
		37 -- 63
		38 -- 39
		38 -- 41
		38 -- 42
		38 -- 43
		38 -- 44
		38 -- 45
		38 -- 47
		38 -- 48
		38 -- 53
		38 -- 55
		38 -- 58
		38 -- 59
		38 -- 61
		38 -- 64
		38 -- 66
		38 -- 67
		38 -- 69
		38 -- 74
		38 -- 75
		38 -- 79
		38 -- 80
		38 -- 81
		38 -- 82
		38 -- 83
		38 -- 84
		38 -- 85
		38 -- 87
		38 -- 88
		38 -- 89
		38 -- 90
		38 -- 91
		38 -- 92
		38 -- 93
		38 -- 94
		38 -- 96
		38 -- 97
		39 -- 41
		39 -- 42
		39 -- 43
		39 -- 44
		39 -- 49
		39 -- 50
		39 -- 51
		39 -- 52
		39 -- 53
		39 -- 54
		39 -- 59
		39 -- 61
		39 -- 62
		39 -- 69
		39 -- 72
		39 -- 74
		39 -- 75
		39 -- 77
		39 -- 78
		39 -- 79
		39 -- 80
		39 -- 81
		39 -- 82
		39 -- 87
		39 -- 88
		39 -- 94
		39 -- 96
		39 -- 97
		39 -- 98
		39 -- 99
		40 -- 42
		40 -- 43
		40 -- 44
		40 -- 45
		40 -- 47
		40 -- 48
		40 -- 52
		40 -- 53
		40 -- 54
		40 -- 55
		40 -- 57
		40 -- 59
		40 -- 61
		40 -- 65
		40 -- 66
		40 -- 69
		40 -- 71
		40 -- 74
		40 -- 75
		40 -- 77
		40 -- 81
		40 -- 83
		40 -- 84
		40 -- 85
		40 -- 86
		40 -- 87
		40 -- 91
		40 -- 95
		40 -- 97
		40 -- 98
		40 -- 99
		41 -- 42
		41 -- 44
		41 -- 45
		41 -- 46
		41 -- 47
		41 -- 48
		41 -- 49
		41 -- 53
		41 -- 54
		41 -- 55
		41 -- 57
		41 -- 61
		41 -- 63
		41 -- 68
		41 -- 69
		41 -- 70
		41 -- 71
		41 -- 72
		41 -- 73
		41 -- 74
		41 -- 75
		41 -- 76
		41 -- 78
		41 -- 79
		41 -- 81
		41 -- 82
		41 -- 84
		41 -- 85
		41 -- 86
		41 -- 89
		41 -- 90
		41 -- 91
		41 -- 93
		41 -- 95
		42 -- 43
		42 -- 44
		42 -- 46
		42 -- 48
		42 -- 49
		42 -- 50
		42 -- 52
		42 -- 53
		42 -- 55
		42 -- 56
		42 -- 58
		42 -- 61
		42 -- 62
		42 -- 64
		42 -- 66
		42 -- 67
		42 -- 71
		42 -- 72
		42 -- 73
		42 -- 76
		42 -- 78
		42 -- 79
		42 -- 80
		42 -- 81
		42 -- 82
		42 -- 83
		42 -- 84
		42 -- 86
		42 -- 87
		42 -- 88
		42 -- 89
		42 -- 92
		42 -- 93
		42 -- 95
		42 -- 96
		42 -- 97
		42 -- 98
		42 -- 99
		43 -- 44
		43 -- 45
		43 -- 46
		43 -- 47
		43 -- 51
		43 -- 53
		43 -- 54
		43 -- 57
		43 -- 58
		43 -- 60
		43 -- 61
		43 -- 62
		43 -- 63
		43 -- 65
		43 -- 67
		43 -- 68
		43 -- 76
		43 -- 77
		43 -- 78
		43 -- 80
		43 -- 81
		43 -- 82
		43 -- 83
		43 -- 84
		43 -- 87
		43 -- 91
		43 -- 93
		43 -- 94
		43 -- 95
		43 -- 96
		43 -- 97
		44 -- 45
		44 -- 48
		44 -- 49
		44 -- 50
		44 -- 52
		44 -- 54
		44 -- 56
		44 -- 57
		44 -- 61
		44 -- 65
		44 -- 67
		44 -- 68
		44 -- 69
		44 -- 70
		44 -- 72
		44 -- 74
		44 -- 78
		44 -- 82
		44 -- 85
		44 -- 87
		44 -- 88
		44 -- 89
		44 -- 92
		44 -- 93
		44 -- 95
		44 -- 97
		44 -- 98
		45 -- 51
		45 -- 52
		45 -- 57
		45 -- 61
		45 -- 62
		45 -- 63
		45 -- 65
		45 -- 67
		45 -- 68
		45 -- 70
		45 -- 71
		45 -- 72
		45 -- 73
		45 -- 74
		45 -- 80
		45 -- 83
		45 -- 87
		45 -- 89
		45 -- 90
		45 -- 91
		45 -- 92
		45 -- 93
		45 -- 94
		45 -- 99
		46 -- 49
		46 -- 51
		46 -- 54
		46 -- 55
		46 -- 59
		46 -- 60
		46 -- 61
		46 -- 62
		46 -- 63
		46 -- 67
		46 -- 71
		46 -- 73
		46 -- 74
		46 -- 75
		46 -- 76
		46 -- 77
		46 -- 78
		46 -- 81
		46 -- 83
		46 -- 84
		46 -- 85
		46 -- 87
		46 -- 88
		46 -- 93
		46 -- 94
		46 -- 97
		46 -- 99
		47 -- 49
		47 -- 53
		47 -- 57
		47 -- 58
		47 -- 60
		47 -- 64
		47 -- 65
		47 -- 66
		47 -- 67
		47 -- 68
		47 -- 69
		47 -- 70
		47 -- 72
		47 -- 73
		47 -- 76
		47 -- 80
		47 -- 81
		47 -- 87
		47 -- 89
		47 -- 90
		47 -- 91
		47 -- 92
		47 -- 94
		47 -- 95
		47 -- 98
		47 -- 99
		48 -- 49
		48 -- 50
		48 -- 52
		48 -- 53
		48 -- 56
		48 -- 57
		48 -- 58
		48 -- 60
		48 -- 61
		48 -- 66
		48 -- 69
		48 -- 70
		48 -- 71
		48 -- 72
		48 -- 73
		48 -- 74
		48 -- 75
		48 -- 78
		48 -- 79
		48 -- 80
		48 -- 81
		48 -- 83
		48 -- 86
		48 -- 87
		48 -- 90
		48 -- 91
		48 -- 93
		48 -- 95
		48 -- 98
		48 -- 99
		49 -- 51
		49 -- 53
		49 -- 55
		49 -- 56
		49 -- 59
		49 -- 62
		49 -- 64
		49 -- 66
		49 -- 67
		49 -- 69
		49 -- 70
		49 -- 72
		49 -- 75
		49 -- 79
		49 -- 85
		49 -- 87
		49 -- 89
		49 -- 90
		49 -- 92
		49 -- 94
		49 -- 95
		49 -- 97
		49 -- 98
		49 -- 99
		50 -- 52
		50 -- 53
		50 -- 55
		50 -- 56
		50 -- 57
		50 -- 58
		50 -- 63
		50 -- 64
		50 -- 68
		50 -- 69
		50 -- 70
		50 -- 71
		50 -- 77
		50 -- 79
		50 -- 81
		50 -- 82
		50 -- 83
		50 -- 84
		50 -- 89
		50 -- 90
		50 -- 95
		50 -- 97
		50 -- 98
		50 -- 99
		51 -- 55
		51 -- 60
		51 -- 61
		51 -- 63
		51 -- 64
		51 -- 65
		51 -- 69
		51 -- 71
		51 -- 72
		51 -- 73
		51 -- 76
		51 -- 77
		51 -- 79
		51 -- 81
		51 -- 82
		51 -- 84
		51 -- 85
		51 -- 86
		51 -- 89
		51 -- 91
		51 -- 92
		52 -- 53
		52 -- 55
		52 -- 56
		52 -- 57
		52 -- 58
		52 -- 61
		52 -- 64
		52 -- 66
		52 -- 67
		52 -- 69
		52 -- 70
		52 -- 72
		52 -- 73
		52 -- 77
		52 -- 78
		52 -- 79
		52 -- 81
		52 -- 83
		52 -- 87
		52 -- 91
		52 -- 92
		52 -- 93
		52 -- 94
		52 -- 96
		52 -- 97
		52 -- 99
		53 -- 55
		53 -- 56
		53 -- 58
		53 -- 59
		53 -- 60
		53 -- 61
		53 -- 63
		53 -- 66
		53 -- 67
		53 -- 69
		53 -- 70
		53 -- 71
		53 -- 72
		53 -- 73
		53 -- 75
		53 -- 76
		53 -- 77
		53 -- 79
		53 -- 84
		53 -- 85
		53 -- 91
		53 -- 94
		53 -- 95
		53 -- 97
		54 -- 60
		54 -- 61
		54 -- 63
		54 -- 66
		54 -- 67
		54 -- 69
		54 -- 71
		54 -- 77
		54 -- 78
		54 -- 80
		54 -- 84
		54 -- 85
		54 -- 88
		54 -- 90
		54 -- 91
		54 -- 92
		54 -- 93
		54 -- 94
		54 -- 96
		54 -- 99
		55 -- 64
		55 -- 65
		55 -- 68
		55 -- 69
		55 -- 70
		55 -- 74
		55 -- 82
		55 -- 88
		55 -- 89
		55 -- 90
		55 -- 91
		55 -- 96
		55 -- 93
		55 -- 99
		55 -- 59
		55 -- 60
		55 -- 62
		55 -- 95
		56 -- 61
		56 -- 67
		56 -- 68
		56 -- 69
		56 -- 70
		56 -- 71
		56 -- 73
		56 -- 74
		56 -- 85
		56 -- 86
		56 -- 87
		56 -- 88
		56 -- 89
		56 -- 92
		56 -- 94
		56 -- 96
		56 -- 99
		57 -- 59
		57 -- 62
		57 -- 63
		57 -- 64
		57 -- 65
		57 -- 68
		57 -- 73
		57 -- 74
		57 -- 75
		57 -- 77
		57 -- 87
		57 -- 89
		57 -- 90
		57 -- 91
		57 -- 92
		57 -- 96
		57 -- 98
		58 -- 59
		58 -- 60
		58 -- 61
		58 -- 63
		58 -- 64
		58 -- 65
		58 -- 66
		58 -- 67
		58 -- 69
		58 -- 71
		58 -- 72
		58 -- 74
		58 -- 75
		58 -- 77
		58 -- 78
		58 -- 86
		58 -- 87
		58 -- 88
		58 -- 89
		58 -- 92
		58 -- 93
		58 -- 96
		58 -- 97
		58 -- 99
		59 -- 60
		59 -- 63
		59 -- 65
		59 -- 71
		59 -- 75
		59 -- 76
		59 -- 77
		59 -- 80
		59 -- 82
		59 -- 84
		59 -- 86
		59 -- 87
		59 -- 91
		59 -- 92
		59 -- 98
		60 -- 61
		60 -- 63
		60 -- 66
		60 -- 70
		60 -- 74
		60 -- 75
		60 -- 76
		60 -- 77
		60 -- 80
		60 -- 84
		60 -- 87
		60 -- 88
		60 -- 89
		60 -- 92
		60 -- 93
		60 -- 94
		60 -- 98
		60 -- 99
		61 -- 65
		61 -- 67
		61 -- 71
		61 -- 72
		61 -- 76
		61 -- 79
		61 -- 80
		61 -- 81
		61 -- 82
		61 -- 83
		61 -- 84
		61 -- 86
		61 -- 91
		61 -- 92
		61 -- 94
		61 -- 96
		61 -- 97
		62 -- 64
		62 -- 67
		62 -- 69
		62 -- 70
		62 -- 72
		62 -- 74
		62 -- 75
		62 -- 76
		62 -- 77
		62 -- 78
		62 -- 81
		62 -- 84
		62 -- 85
		62 -- 90
		62 -- 91
		62 -- 92
		62 -- 93
		62 -- 95
		62 -- 99
		63 -- 68
		63 -- 71
		63 -- 75
		63 -- 77
		63 -- 80
		63 -- 84
		63 -- 85
		63 -- 86
		63 -- 91
		63 -- 92
		63 -- 93
		63 -- 94
		63 -- 96
		63 -- 98
		64 -- 65
		64 -- 67
		64 -- 71
		64 -- 72
		64 -- 73
		64 -- 74
		64 -- 77
		64 -- 78
		64 -- 80
		64 -- 81
		64 -- 83
		64 -- 86
		64 -- 87
		64 -- 88
		64 -- 89
		64 -- 90
		64 -- 91
		64 -- 93
		64 -- 94
		64 -- 95
		64 -- 97
		65 -- 68
		65 -- 69
		65 -- 70
		65 -- 73
		65 -- 75
		65 -- 77
		65 -- 81
		65 -- 82
		65 -- 83
		65 -- 84
		65 -- 85
		65 -- 86
		65 -- 90
		65 -- 91
		65 -- 92
		65 -- 94
		65 -- 98
		66 -- 67
		66 -- 70
		66 -- 71
		66 -- 73
		66 -- 75
		66 -- 77
		66 -- 78
		66 -- 80
		66 -- 81
		66 -- 83
		66 -- 85
		66 -- 87
		66 -- 88
		66 -- 89
		66 -- 91
		66 -- 92
		66 -- 93
		66 -- 94
		66 -- 96
		66 -- 97
		66 -- 99
		67 -- 68
		67 -- 70
		67 -- 76
		67 -- 80
		67 -- 82
		67 -- 85
		67 -- 86
		67 -- 88
		67 -- 90
		67 -- 91
		67 -- 94
		67 -- 95
		67 -- 99
		68 -- 69
		68 -- 97
		68 -- 76
		68 -- 77
		68 -- 79
		68 -- 98
		68 -- 81
		68 -- 90
		68 -- 78
		68 -- 73
		68 -- 89
		68 -- 91
		68 -- 86
		68 -- 95
		68 -- 99
		68 -- 94
		68 -- 85
		69 -- 73
		69 -- 74
		69 -- 75
		69 -- 76
		69 -- 77
		69 -- 78
		69 -- 80
		69 -- 81
		69 -- 83
		69 -- 85
		69 -- 86
		69 -- 89
		69 -- 91
		69 -- 93
		69 -- 94
		69 -- 98
		69 -- 99
		70 -- 71
		70 -- 74
		70 -- 75
		70 -- 77
		70 -- 79
		70 -- 82
		70 -- 83
		70 -- 84
		70 -- 85
		70 -- 87
		70 -- 92
		70 -- 93
		70 -- 94
		70 -- 95
		70 -- 96
		70 -- 97
		70 -- 99
		71 -- 72
		71 -- 73
		71 -- 75
		71 -- 81
		71 -- 82
		71 -- 84
		71 -- 85
		71 -- 86
		71 -- 88
		71 -- 89
		71 -- 90
		71 -- 91
		71 -- 92
		71 -- 94
		71 -- 95
		71 -- 96
		71 -- 97
		72 -- 73
		72 -- 76
		72 -- 77
		72 -- 78
		72 -- 81
		72 -- 86
		72 -- 87
		72 -- 88
		72 -- 89
		72 -- 91
		72 -- 92
		72 -- 93
		72 -- 95
		72 -- 98
		72 -- 99
		73 -- 74
		73 -- 76
		73 -- 79
		73 -- 80
		73 -- 81
		73 -- 82
		73 -- 84
		73 -- 85
		73 -- 89
		73 -- 90
		73 -- 94
		73 -- 95
		73 -- 96
		73 -- 97
		73 -- 98
		74 -- 75
		74 -- 76
		74 -- 78
		74 -- 80
		74 -- 81
		74 -- 82
		74 -- 83
		74 -- 87
		74 -- 88
		74 -- 90
		74 -- 91
		74 -- 96
		74 -- 97
		74 -- 98
		75 -- 76
		75 -- 77
		75 -- 78
		75 -- 79
		75 -- 80
		75 -- 81
		75 -- 83
		75 -- 87
		75 -- 88
		75 -- 90
		75 -- 91
		75 -- 92
		75 -- 94
		75 -- 96
		75 -- 97
		76 -- 77
		76 -- 78
		76 -- 80
		76 -- 84
		76 -- 86
		76 -- 87
		76 -- 92
		76 -- 94
		76 -- 95
		76 -- 96
		76 -- 97
		77 -- 80
		77 -- 82
		77 -- 83
		77 -- 85
		77 -- 88
		77 -- 91
		77 -- 92
		77 -- 93
		77 -- 97
		78 -- 79
		78 -- 81
		78 -- 82
		78 -- 83
		78 -- 87
		78 -- 88
		78 -- 90
		78 -- 91
		78 -- 93
		78 -- 96
		78 -- 98
		78 -- 99
		79 -- 96
		79 -- 83
		79 -- 94
		79 -- 88
		79 -- 95
		79 -- 98
		79 -- 82
		79 -- 93
		80 -- 82
		80 -- 85
		80 -- 87
		80 -- 88
		80 -- 89
		80 -- 90
		80 -- 92
		80 -- 93
		80 -- 94
		80 -- 95
		80 -- 98
		81 -- 87
		81 -- 89
		81 -- 90
		81 -- 91
		81 -- 93
		81 -- 94
		81 -- 97
		81 -- 98
		82 -- 84
		82 -- 85
		82 -- 87
		82 -- 88
		82 -- 91
		82 -- 93
		82 -- 95
		82 -- 99
		83 -- 84
		83 -- 86
		83 -- 88
		83 -- 89
		83 -- 90
		83 -- 91
		83 -- 94
		84 -- 85
		84 -- 86
		84 -- 89
		84 -- 91
		84 -- 92
		84 -- 96
		85 -- 86
		85 -- 87
		85 -- 90
		85 -- 92
		85 -- 96
		86 -- 88
		86 -- 90
		86 -- 92
		86 -- 93
		86 -- 94
		86 -- 97
		87 -- 90
		87 -- 91
		87 -- 92
		87 -- 93
		87 -- 94
		87 -- 95
		87 -- 96
		88 -- 91
		88 -- 92
		88 -- 94
		88 -- 98
		88 -- 99
		89 -- 90
		89 -- 91
		89 -- 93
		89 -- 96
		89 -- 98
		89 -- 99
		90 -- 95
		90 -- 96
		90 -- 99
		91 -- 94
		91 -- 98
		91 -- 99
		92 -- 94
		92 -- 95
		92 -- 97
		92 -- 98
		93 -- 97
		93 -- 99
		94 -- 95
		94 -- 96
		94 -- 97
		94 -- 98
		94 -- 99
		95 -- 96
		96 -- 97
		96 -- 98
		96 -- 99
		97 -- 98
}