graph {
		0 -- 6
		0 -- 7
		0 -- 9
		0 -- 10
		0 -- 11
		0 -- 12
		0 -- 18
		0 -- 19
		0 -- 20
		0 -- 21
		0 -- 23
		0 -- 24
		0 -- 25
		0 -- 26
		0 -- 27
		0 -- 28
		0 -- 29
		0 -- 30
		0 -- 32
		0 -- 37
		0 -- 38
		0 -- 40
		0 -- 42
		0 -- 43
		0 -- 44
		0 -- 46
		0 -- 47
		0 -- 48
		0 -- 50
		0 -- 53
		0 -- 57
		0 -- 59
		0 -- 60
		0 -- 61
		0 -- 65
		0 -- 67
		0 -- 68
		0 -- 71
		0 -- 72
		0 -- 73
		0 -- 74
		0 -- 76
		0 -- 78
		0 -- 80
		0 -- 81
		0 -- 82
		0 -- 83
		0 -- 86
		0 -- 87
		0 -- 88
		0 -- 90
		0 -- 92
		0 -- 94
		0 -- 97
		0 -- 98
		1 -- 2
		1 -- 3
		1 -- 5
		1 -- 6
		1 -- 9
		1 -- 10
		1 -- 12
		1 -- 14
		1 -- 16
		1 -- 17
		1 -- 20
		1 -- 23
		1 -- 25
		1 -- 26
		1 -- 27
		1 -- 28
		1 -- 30
		1 -- 32
		1 -- 34
		1 -- 35
		1 -- 36
		1 -- 37
		1 -- 39
		1 -- 40
		1 -- 41
		1 -- 43
		1 -- 44
		1 -- 48
		1 -- 54
		1 -- 56
		1 -- 58
		1 -- 59
		1 -- 60
		1 -- 61
		1 -- 62
		1 -- 63
		1 -- 64
		1 -- 66
		1 -- 69
		1 -- 72
		1 -- 73
		1 -- 76
		1 -- 77
		1 -- 79
		1 -- 81
		1 -- 84
		1 -- 86
		1 -- 88
		1 -- 90
		1 -- 92
		1 -- 93
		1 -- 95
		1 -- 96
		1 -- 97
		1 -- 98
		2 -- 8
		2 -- 9
		2 -- 11
		2 -- 13
		2 -- 14
		2 -- 17
		2 -- 18
		2 -- 20
		2 -- 23
		2 -- 24
		2 -- 25
		2 -- 26
		2 -- 27
		2 -- 29
		2 -- 30
		2 -- 33
		2 -- 35
		2 -- 36
		2 -- 37
		2 -- 39
		2 -- 41
		2 -- 42
		2 -- 43
		2 -- 44
		2 -- 50
		2 -- 52
		2 -- 56
		2 -- 57
		2 -- 60
		2 -- 63
		2 -- 64
		2 -- 65
		2 -- 66
		2 -- 67
		2 -- 68
		2 -- 69
		2 -- 76
		2 -- 79
		2 -- 84
		2 -- 85
		2 -- 86
		2 -- 87
		2 -- 88
		2 -- 98
		3 -- 4
		3 -- 5
		3 -- 6
		3 -- 9
		3 -- 11
		3 -- 12
		3 -- 13
		3 -- 14
		3 -- 15
		3 -- 16
		3 -- 21
		3 -- 22
		3 -- 25
		3 -- 28
		3 -- 29
		3 -- 31
		3 -- 32
		3 -- 33
		3 -- 35
		3 -- 36
		3 -- 37
		3 -- 38
		3 -- 40
		3 -- 42
		3 -- 43
		3 -- 48
		3 -- 51
		3 -- 52
		3 -- 56
		3 -- 62
		3 -- 65
		3 -- 67
		3 -- 68
		3 -- 70
		3 -- 71
		3 -- 77
		3 -- 78
		3 -- 79
		3 -- 81
		3 -- 84
		3 -- 88
		3 -- 90
		3 -- 92
		3 -- 93
		3 -- 94
		3 -- 97
		3 -- 98
		4 -- 5
		4 -- 9
		4 -- 11
		4 -- 13
		4 -- 14
		4 -- 15
		4 -- 17
		4 -- 19
		4 -- 20
		4 -- 25
		4 -- 34
		4 -- 35
		4 -- 38
		4 -- 39
		4 -- 40
		4 -- 41
		4 -- 42
		4 -- 43
		4 -- 44
		4 -- 45
		4 -- 48
		4 -- 51
		4 -- 54
		4 -- 55
		4 -- 56
		4 -- 65
		4 -- 66
		4 -- 71
		4 -- 72
		4 -- 74
		4 -- 75
		4 -- 77
		4 -- 79
		4 -- 83
		4 -- 84
		4 -- 86
		4 -- 87
		4 -- 89
		4 -- 91
		4 -- 92
		4 -- 93
		4 -- 95
		4 -- 96
		4 -- 97
		4 -- 99
		5 -- 6
		5 -- 7
		5 -- 10
		5 -- 12
		5 -- 13
		5 -- 14
		5 -- 15
		5 -- 16
		5 -- 18
		5 -- 19
		5 -- 20
		5 -- 21
		5 -- 24
		5 -- 25
		5 -- 26
		5 -- 27
		5 -- 28
		5 -- 29
		5 -- 34
		5 -- 37
		5 -- 38
		5 -- 40
		5 -- 41
		5 -- 42
		5 -- 43
		5 -- 44
		5 -- 47
		5 -- 48
		5 -- 49
		5 -- 50
		5 -- 52
		5 -- 53
		5 -- 54
		5 -- 58
		5 -- 60
		5 -- 61
		5 -- 63
		5 -- 65
		5 -- 68
		5 -- 69
		5 -- 70
		5 -- 72
		5 -- 73
		5 -- 75
		5 -- 76
		5 -- 78
		5 -- 81
		5 -- 83
		5 -- 86
		5 -- 88
		5 -- 89
		5 -- 90
		5 -- 91
		5 -- 96
		5 -- 97
		6 -- 9
		6 -- 11
		6 -- 14
		6 -- 17
		6 -- 19
		6 -- 26
		6 -- 29
		6 -- 32
		6 -- 33
		6 -- 35
		6 -- 36
		6 -- 38
		6 -- 46
		6 -- 48
		6 -- 49
		6 -- 51
		6 -- 52
		6 -- 53
		6 -- 58
		6 -- 59
		6 -- 60
		6 -- 62
		6 -- 63
		6 -- 64
		6 -- 66
		6 -- 71
		6 -- 72
		6 -- 75
		6 -- 76
		6 -- 77
		6 -- 78
		6 -- 79
		6 -- 82
		6 -- 83
		6 -- 88
		6 -- 89
		6 -- 91
		6 -- 93
		6 -- 94
		6 -- 95
		6 -- 96
		6 -- 98
		6 -- 99
		7 -- 11
		7 -- 13
		7 -- 18
		7 -- 21
		7 -- 23
		7 -- 24
		7 -- 25
		7 -- 32
		7 -- 35
		7 -- 37
		7 -- 40
		7 -- 42
		7 -- 43
		7 -- 44
		7 -- 45
		7 -- 46
		7 -- 47
		7 -- 48
		7 -- 49
		7 -- 50
		7 -- 51
		7 -- 53
		7 -- 54
		7 -- 58
		7 -- 59
		7 -- 61
		7 -- 62
		7 -- 64
		7 -- 68
		7 -- 72
		7 -- 77
		7 -- 78
		7 -- 80
		7 -- 84
		7 -- 85
		7 -- 86
		7 -- 87
		7 -- 88
		7 -- 89
		7 -- 90
		7 -- 92
		7 -- 93
		7 -- 94
		7 -- 95
		7 -- 96
		7 -- 97
		7 -- 98
		7 -- 99
		8 -- 9
		8 -- 10
		8 -- 11
		8 -- 12
		8 -- 13
		8 -- 14
		8 -- 15
		8 -- 16
		8 -- 19
		8 -- 23
		8 -- 28
		8 -- 29
		8 -- 31
		8 -- 32
		8 -- 33
		8 -- 34
		8 -- 36
		8 -- 37
		8 -- 38
		8 -- 43
		8 -- 44
		8 -- 45
		8 -- 47
		8 -- 50
		8 -- 53
		8 -- 55
		8 -- 56
		8 -- 61
		8 -- 63
		8 -- 64
		8 -- 65
		8 -- 67
		8 -- 68
		8 -- 70
		8 -- 72
		8 -- 73
		8 -- 74
		8 -- 76
		8 -- 77
		8 -- 80
		8 -- 82
		8 -- 84
		8 -- 85
		8 -- 86
		8 -- 90
		8 -- 92
		8 -- 93
		8 -- 94
		8 -- 95
		8 -- 96
		8 -- 99
		9 -- 10
		9 -- 11
		9 -- 12
		9 -- 13
		9 -- 16
		9 -- 22
		9 -- 26
		9 -- 28
		9 -- 29
		9 -- 30
		9 -- 33
		9 -- 34
		9 -- 36
		9 -- 37
		9 -- 38
		9 -- 42
		9 -- 44
		9 -- 47
		9 -- 50
		9 -- 51
		9 -- 52
		9 -- 53
		9 -- 54
		9 -- 56
		9 -- 57
		9 -- 58
		9 -- 59
		9 -- 61
		9 -- 62
		9 -- 63
		9 -- 64
		9 -- 65
		9 -- 68
		9 -- 73
		9 -- 77
		9 -- 78
		9 -- 80
		9 -- 88
		9 -- 89
		9 -- 90
		9 -- 91
		9 -- 94
		9 -- 96
		9 -- 99
		10 -- 12
		10 -- 15
		10 -- 16
		10 -- 17
		10 -- 20
		10 -- 21
		10 -- 26
		10 -- 27
		10 -- 30
		10 -- 33
		10 -- 36
		10 -- 39
		10 -- 42
		10 -- 44
		10 -- 45
		10 -- 47
		10 -- 51
		10 -- 53
		10 -- 55
		10 -- 57
		10 -- 59
		10 -- 60
		10 -- 61
		10 -- 64
		10 -- 65
		10 -- 66
		10 -- 67
		10 -- 68
		10 -- 69
		10 -- 72
		10 -- 74
		10 -- 75
		10 -- 76
		10 -- 77
		10 -- 79
		10 -- 80
		10 -- 82
		10 -- 91
		10 -- 92
		10 -- 94
		10 -- 96
		10 -- 97
		10 -- 99
		11 -- 12
		11 -- 14
		11 -- 15
		11 -- 17
		11 -- 18
		11 -- 19
		11 -- 21
		11 -- 23
		11 -- 25
		11 -- 26
		11 -- 28
		11 -- 29
		11 -- 30
		11 -- 31
		11 -- 37
		11 -- 38
		11 -- 39
		11 -- 41
		11 -- 43
		11 -- 44
		11 -- 51
		11 -- 55
		11 -- 56
		11 -- 59
		11 -- 63
		11 -- 69
		11 -- 70
		11 -- 72
		11 -- 73
		11 -- 75
		11 -- 77
		11 -- 78
		11 -- 79
		11 -- 80
		11 -- 82
		11 -- 87
		11 -- 88
		11 -- 90
		11 -- 91
		11 -- 92
		11 -- 93
		11 -- 94
		11 -- 95
		11 -- 96
		11 -- 97
		12 -- 15
		12 -- 16
		12 -- 17
		12 -- 18
		12 -- 20
		12 -- 22
		12 -- 25
		12 -- 28
		12 -- 29
		12 -- 32
		12 -- 33
		12 -- 34
		12 -- 40
		12 -- 44
		12 -- 45
		12 -- 46
		12 -- 47
		12 -- 51
		12 -- 53
		12 -- 54
		12 -- 55
		12 -- 57
		12 -- 58
		12 -- 61
		12 -- 62
		12 -- 63
		12 -- 65
		12 -- 69
		12 -- 71
		12 -- 74
		12 -- 75
		12 -- 77
		12 -- 82
		12 -- 84
		12 -- 86
		12 -- 87
		12 -- 90
		12 -- 91
		12 -- 93
		12 -- 96
		12 -- 97
		13 -- 14
		13 -- 18
		13 -- 24
		13 -- 27
		13 -- 30
		13 -- 32
		13 -- 34
		13 -- 36
		13 -- 38
		13 -- 39
		13 -- 40
		13 -- 41
		13 -- 47
		13 -- 49
		13 -- 50
		13 -- 51
		13 -- 53
		13 -- 56
		13 -- 57
		13 -- 60
		13 -- 61
		13 -- 63
		13 -- 64
		13 -- 66
		13 -- 67
		13 -- 70
		13 -- 71
		13 -- 72
		13 -- 74
		13 -- 78
		13 -- 79
		13 -- 80
		13 -- 81
		13 -- 83
		13 -- 84
		13 -- 86
		13 -- 87
		13 -- 89
		13 -- 90
		13 -- 91
		13 -- 92
		13 -- 93
		13 -- 96
		13 -- 97
		13 -- 99
		14 -- 18
		14 -- 19
		14 -- 20
		14 -- 22
		14 -- 23
		14 -- 26
		14 -- 34
		14 -- 37
		14 -- 40
		14 -- 41
		14 -- 44
		14 -- 45
		14 -- 46
		14 -- 49
		14 -- 50
		14 -- 52
		14 -- 56
		14 -- 59
		14 -- 61
		14 -- 66
		14 -- 67
		14 -- 69
		14 -- 73
		14 -- 77
		14 -- 78
		14 -- 79
		14 -- 80
		14 -- 82
		14 -- 83
		14 -- 86
		14 -- 88
		14 -- 91
		14 -- 92
		14 -- 94
		14 -- 96
		15 -- 17
		15 -- 20
		15 -- 21
		15 -- 22
		15 -- 25
		15 -- 26
		15 -- 27
		15 -- 29
		15 -- 30
		15 -- 36
		15 -- 37
		15 -- 39
		15 -- 40
		15 -- 41
		15 -- 44
		15 -- 45
		15 -- 47
		15 -- 48
		15 -- 50
		15 -- 51
		15 -- 53
		15 -- 54
		15 -- 56
		15 -- 57
		15 -- 62
		15 -- 64
		15 -- 66
		15 -- 67
		15 -- 69
		15 -- 73
		15 -- 74
		15 -- 76
		15 -- 78
		15 -- 79
		15 -- 80
		15 -- 81
		15 -- 82
		15 -- 84
		15 -- 86
		15 -- 87
		15 -- 91
		15 -- 93
		15 -- 95
		15 -- 98
		15 -- 99
		16 -- 66
		16 -- 68
		16 -- 65
		16 -- 80
		16 -- 17
		16 -- 18
		16 -- 19
		16 -- 84
		16 -- 21
		16 -- 22
		16 -- 23
		16 -- 24
		16 -- 25
		16 -- 27
		16 -- 86
		16 -- 93
		16 -- 30
		16 -- 95
		16 -- 32
		16 -- 33
		16 -- 34
		16 -- 91
		16 -- 38
		16 -- 81
		16 -- 92
		16 -- 97
		16 -- 71
		16 -- 82
		16 -- 73
		16 -- 50
		16 -- 53
		16 -- 55
		16 -- 59
		16 -- 63
		17 -- 20
		17 -- 21
		17 -- 26
		17 -- 32
		17 -- 34
		17 -- 36
		17 -- 37
		17 -- 41
		17 -- 43
		17 -- 45
		17 -- 46
		17 -- 47
		17 -- 48
		17 -- 49
		17 -- 51
		17 -- 52
		17 -- 53
		17 -- 55
		17 -- 56
		17 -- 61
		17 -- 66
		17 -- 67
		17 -- 68
		17 -- 69
		17 -- 71
		17 -- 73
		17 -- 74
		17 -- 77
		17 -- 78
		17 -- 79
		17 -- 81
		17 -- 82
		17 -- 83
		17 -- 84
		17 -- 85
		17 -- 86
		17 -- 87
		17 -- 89
		17 -- 90
		17 -- 92
		17 -- 93
		17 -- 95
		17 -- 96
		17 -- 97
		17 -- 98
		17 -- 99
		18 -- 64
		18 -- 67
		18 -- 79
		18 -- 77
		18 -- 81
		18 -- 82
		18 -- 99
		18 -- 84
		18 -- 21
		18 -- 98
		18 -- 23
		18 -- 24
		18 -- 26
		18 -- 27
		18 -- 28
		18 -- 69
		18 -- 34
		18 -- 87
		18 -- 36
		18 -- 38
		18 -- 39
		18 -- 41
		18 -- 95
		18 -- 71
		18 -- 44
		18 -- 47
		18 -- 48
		18 -- 49
		18 -- 50
		18 -- 51
		18 -- 58
		18 -- 91
		18 -- 60
		19 -- 22
		19 -- 26
		19 -- 27
		19 -- 30
		19 -- 31
		19 -- 32
		19 -- 36
		19 -- 38
		19 -- 41
		19 -- 43
		19 -- 45
		19 -- 46
		19 -- 49
		19 -- 50
		19 -- 51
		19 -- 52
		19 -- 53
		19 -- 57
		19 -- 59
		19 -- 62
		19 -- 65
		19 -- 66
		19 -- 67
		19 -- 69
		19 -- 71
		19 -- 72
		19 -- 73
		19 -- 74
		19 -- 75
		19 -- 79
		19 -- 83
		19 -- 84
		19 -- 88
		19 -- 91
		19 -- 92
		19 -- 93
		19 -- 94
		19 -- 95
		19 -- 96
		19 -- 97
		19 -- 98
		20 -- 21
		20 -- 23
		20 -- 26
		20 -- 28
		20 -- 32
		20 -- 33
		20 -- 34
		20 -- 36
		20 -- 40
		20 -- 49
		20 -- 52
		20 -- 54
		20 -- 58
		20 -- 59
		20 -- 60
		20 -- 61
		20 -- 62
		20 -- 64
		20 -- 65
		20 -- 66
		20 -- 67
		20 -- 70
		20 -- 71
		20 -- 72
		20 -- 78
		20 -- 80
		20 -- 82
		20 -- 83
		20 -- 85
		20 -- 88
		20 -- 89
		20 -- 91
		20 -- 93
		20 -- 95
		20 -- 96
		20 -- 97
		21 -- 25
		21 -- 27
		21 -- 29
		21 -- 30
		21 -- 32
		21 -- 33
		21 -- 34
		21 -- 35
		21 -- 36
		21 -- 39
		21 -- 40
		21 -- 50
		21 -- 51
		21 -- 54
		21 -- 59
		21 -- 60
		21 -- 66
		21 -- 67
		21 -- 69
		21 -- 70
		21 -- 71
		21 -- 73
		21 -- 76
		21 -- 77
		21 -- 79
		21 -- 80
		21 -- 82
		21 -- 83
		21 -- 84
		21 -- 86
		21 -- 89
		21 -- 90
		21 -- 94
		21 -- 95
		21 -- 97
		21 -- 99
		22 -- 23
		22 -- 24
		22 -- 25
		22 -- 27
		22 -- 28
		22 -- 30
		22 -- 33
		22 -- 35
		22 -- 36
		22 -- 37
		22 -- 38
		22 -- 39
		22 -- 42
		22 -- 45
		22 -- 48
		22 -- 49
		22 -- 50
		22 -- 51
		22 -- 52
		22 -- 53
		22 -- 54
		22 -- 55
		22 -- 56
		22 -- 58
		22 -- 62
		22 -- 66
		22 -- 67
		22 -- 68
		22 -- 70
		22 -- 71
		22 -- 72
		22 -- 73
		22 -- 74
		22 -- 75
		22 -- 81
		22 -- 85
		22 -- 86
		22 -- 88
		22 -- 89
		22 -- 91
		22 -- 92
		22 -- 93
		22 -- 96
		22 -- 98
		22 -- 99
		23 -- 27
		23 -- 28
		23 -- 30
		23 -- 35
		23 -- 37
		23 -- 38
		23 -- 39
		23 -- 40
		23 -- 42
		23 -- 43
		23 -- 46
		23 -- 47
		23 -- 48
		23 -- 52
		23 -- 55
		23 -- 58
		23 -- 59
		23 -- 61
		23 -- 62
		23 -- 63
		23 -- 64
		23 -- 67
		23 -- 68
		23 -- 72
		23 -- 73
		23 -- 75
		23 -- 76
		23 -- 77
		23 -- 78
		23 -- 81
		23 -- 83
		23 -- 84
		23 -- 86
		23 -- 89
		23 -- 90
		23 -- 94
		23 -- 95
		23 -- 97
		24 -- 25
		24 -- 26
		24 -- 27
		24 -- 28
		24 -- 29
		24 -- 39
		24 -- 40
		24 -- 41
		24 -- 43
		24 -- 45
		24 -- 46
		24 -- 49
		24 -- 52
		24 -- 54
		24 -- 56
		24 -- 58
		24 -- 60
		24 -- 64
		24 -- 66
		24 -- 68
		24 -- 70
		24 -- 72
		24 -- 73
		24 -- 74
		24 -- 75
		24 -- 78
		24 -- 83
		24 -- 84
		24 -- 86
		24 -- 90
		24 -- 91
		24 -- 92
		24 -- 93
		24 -- 96
		24 -- 98
		24 -- 99
		25 -- 26
		25 -- 27
		25 -- 29
		25 -- 31
		25 -- 33
		25 -- 34
		25 -- 36
		25 -- 37
		25 -- 42
		25 -- 43
		25 -- 44
		25 -- 45
		25 -- 46
		25 -- 49
		25 -- 53
		25 -- 55
		25 -- 56
		25 -- 57
		25 -- 58
		25 -- 59
		25 -- 60
		25 -- 61
		25 -- 63
		25 -- 70
		25 -- 71
		25 -- 72
		25 -- 73
		25 -- 74
		25 -- 77
		25 -- 80
		25 -- 87
		25 -- 88
		25 -- 91
		25 -- 95
		25 -- 99
		26 -- 28
		26 -- 30
		26 -- 31
		26 -- 32
		26 -- 33
		26 -- 34
		26 -- 36
		26 -- 37
		26 -- 39
		26 -- 41
		26 -- 45
		26 -- 46
		26 -- 47
		26 -- 49
		26 -- 53
		26 -- 55
		26 -- 57
		26 -- 59
		26 -- 60
		26 -- 61
		26 -- 64
		26 -- 66
		26 -- 68
		26 -- 73
		26 -- 74
		26 -- 77
		26 -- 80
		26 -- 81
		26 -- 83
		26 -- 84
		26 -- 85
		26 -- 88
		26 -- 89
		26 -- 90
		26 -- 93
		26 -- 95
		26 -- 97
		26 -- 98
		27 -- 28
		27 -- 29
		27 -- 30
		27 -- 31
		27 -- 32
		27 -- 36
		27 -- 37
		27 -- 39
		27 -- 41
		27 -- 42
		27 -- 43
		27 -- 44
		27 -- 45
		27 -- 49
		27 -- 50
		27 -- 52
		27 -- 53
		27 -- 54
		27 -- 57
		27 -- 58
		27 -- 61
		27 -- 63
		27 -- 65
		27 -- 66
		27 -- 67
		27 -- 68
		27 -- 69
		27 -- 70
		27 -- 71
		27 -- 72
		27 -- 73
		27 -- 75
		27 -- 77
		27 -- 78
		27 -- 79
		27 -- 81
		27 -- 82
		27 -- 83
		27 -- 84
		27 -- 85
		27 -- 86
		27 -- 89
		27 -- 90
		27 -- 92
		27 -- 93
		27 -- 94
		27 -- 95
		27 -- 96
		27 -- 97
		27 -- 99
		28 -- 31
		28 -- 34
		28 -- 36
		28 -- 39
		28 -- 41
		28 -- 42
		28 -- 43
		28 -- 44
		28 -- 50
		28 -- 51
		28 -- 52
		28 -- 54
		28 -- 55
		28 -- 56
		28 -- 58
		28 -- 60
		28 -- 69
		28 -- 73
		28 -- 75
		28 -- 76
		28 -- 77
		28 -- 79
		28 -- 81
		28 -- 83
		28 -- 85
		28 -- 86
		28 -- 87
		28 -- 90
		28 -- 91
		28 -- 92
		28 -- 94
		28 -- 97
		29 -- 30
		29 -- 31
		29 -- 32
		29 -- 33
		29 -- 34
		29 -- 35
		29 -- 37
		29 -- 39
		29 -- 41
		29 -- 42
		29 -- 43
		29 -- 46
		29 -- 47
		29 -- 48
		29 -- 51
		29 -- 53
		29 -- 55
		29 -- 60
		29 -- 61
		29 -- 67
		29 -- 72
		29 -- 74
		29 -- 75
		29 -- 76
		29 -- 77
		29 -- 78
		29 -- 81
		29 -- 83
		29 -- 84
		29 -- 86
		29 -- 89
		29 -- 90
		29 -- 95
		29 -- 96
		29 -- 98
		30 -- 32
		30 -- 34
		30 -- 36
		30 -- 37
		30 -- 39
		30 -- 40
		30 -- 41
		30 -- 46
		30 -- 49
		30 -- 51
		30 -- 54
		30 -- 58
		30 -- 62
		30 -- 64
		30 -- 65
		30 -- 66
		30 -- 67
		30 -- 68
		30 -- 69
		30 -- 70
		30 -- 71
		30 -- 72
		30 -- 73
		30 -- 74
		30 -- 77
		30 -- 78
		30 -- 79
		30 -- 80
		30 -- 83
		30 -- 86
		30 -- 87
		30 -- 89
		30 -- 91
		30 -- 95
		31 -- 64
		31 -- 65
		31 -- 66
		31 -- 69
		31 -- 73
		31 -- 74
		31 -- 76
		31 -- 77
		31 -- 78
		31 -- 92
		31 -- 81
		31 -- 75
		31 -- 85
		31 -- 86
		31 -- 89
		31 -- 88
		31 -- 95
		31 -- 34
		31 -- 91
		31 -- 39
		31 -- 40
		31 -- 41
		31 -- 42
		31 -- 93
		31 -- 99
		31 -- 49
		31 -- 51
		31 -- 54
		31 -- 72
		31 -- 58
		31 -- 62
		31 -- 63
		32 -- 33
		32 -- 35
		32 -- 37
		32 -- 38
		32 -- 39
		32 -- 41
		32 -- 42
		32 -- 47
		32 -- 52
		32 -- 54
		32 -- 55
		32 -- 56
		32 -- 58
		32 -- 59
		32 -- 61
		32 -- 62
		32 -- 63
		32 -- 69
		32 -- 71
		32 -- 73
		32 -- 74
		32 -- 75
		32 -- 76
		32 -- 80
		32 -- 83
		32 -- 84
		32 -- 85
		32 -- 91
		32 -- 92
		32 -- 96
		32 -- 97
		32 -- 98
		33 -- 37
		33 -- 38
		33 -- 39
		33 -- 43
		33 -- 46
		33 -- 47
		33 -- 50
		33 -- 51
		33 -- 52
		33 -- 55
		33 -- 56
		33 -- 58
		33 -- 60
		33 -- 61
		33 -- 62
		33 -- 66
		33 -- 67
		33 -- 69
		33 -- 71
		33 -- 72
		33 -- 73
		33 -- 75
		33 -- 76
		33 -- 80
		33 -- 83
		33 -- 85
		33 -- 88
		33 -- 89
		33 -- 92
		33 -- 93
		33 -- 94
		33 -- 95
		33 -- 96
		33 -- 97
		33 -- 98
		33 -- 99
		34 -- 41
		34 -- 43
		34 -- 45
		34 -- 47
		34 -- 51
		34 -- 53
		34 -- 54
		34 -- 56
		34 -- 61
		34 -- 62
		34 -- 64
		34 -- 65
		34 -- 67
		34 -- 70
		34 -- 72
		34 -- 73
		34 -- 76
		34 -- 77
		34 -- 80
		34 -- 81
		34 -- 85
		34 -- 86
		34 -- 87
		34 -- 89
		34 -- 91
		34 -- 92
		34 -- 93
		34 -- 95
		34 -- 96
		34 -- 97
		34 -- 98
		34 -- 99
		35 -- 64
		35 -- 69
		35 -- 73
		35 -- 75
		35 -- 76
		35 -- 77
		35 -- 79
		35 -- 82
		35 -- 67
		35 -- 71
		35 -- 36
		35 -- 37
		35 -- 93
		35 -- 40
		35 -- 41
		35 -- 43
		35 -- 46
		35 -- 47
		35 -- 48
		35 -- 49
		35 -- 50
		35 -- 52
		35 -- 53
		35 -- 56
		35 -- 87
		35 -- 70
		35 -- 61
		35 -- 63
		36 -- 37
		36 -- 38
		36 -- 41
		36 -- 44
		36 -- 45
		36 -- 46
		36 -- 47
		36 -- 49
		36 -- 51
		36 -- 53
		36 -- 55
		36 -- 56
		36 -- 57
		36 -- 58
		36 -- 59
		36 -- 61
		36 -- 63
		36 -- 64
		36 -- 66
		36 -- 67
		36 -- 69
		36 -- 71
		36 -- 72
		36 -- 73
		36 -- 76
		36 -- 77
		36 -- 78
		36 -- 79
		36 -- 83
		36 -- 85
		36 -- 86
		36 -- 87
		36 -- 90
		36 -- 91
		36 -- 92
		36 -- 94
		36 -- 95
		36 -- 98
		37 -- 38
		37 -- 39
		37 -- 41
		37 -- 45
		37 -- 47
		37 -- 48
		37 -- 49
		37 -- 50
		37 -- 53
		37 -- 55
		37 -- 56
		37 -- 61
		37 -- 66
		37 -- 67
		37 -- 68
		37 -- 72
		37 -- 76
		37 -- 77
		37 -- 80
		37 -- 81
		37 -- 82
		37 -- 85
		37 -- 86
		37 -- 87
		37 -- 88
		37 -- 89
		37 -- 90
		37 -- 95
		37 -- 99
		38 -- 40
		38 -- 42
		38 -- 43
		38 -- 44
		38 -- 45
		38 -- 47
		38 -- 49
		38 -- 55
		38 -- 56
		38 -- 58
		38 -- 63
		38 -- 65
		38 -- 68
		38 -- 69
		38 -- 70
		38 -- 71
		38 -- 76
		38 -- 77
		38 -- 78
		38 -- 80
		38 -- 81
		38 -- 82
		38 -- 84
		38 -- 87
		38 -- 89
		38 -- 90
		38 -- 92
		38 -- 94
		38 -- 95
		38 -- 97
		39 -- 40
		39 -- 42
		39 -- 43
		39 -- 44
		39 -- 45
		39 -- 46
		39 -- 49
		39 -- 55
		39 -- 56
		39 -- 57
		39 -- 60
		39 -- 61
		39 -- 62
		39 -- 63
		39 -- 64
		39 -- 65
		39 -- 66
		39 -- 67
		39 -- 68
		39 -- 69
		39 -- 73
		39 -- 75
		39 -- 78
		39 -- 79
		39 -- 80
		39 -- 81
		39 -- 85
		39 -- 86
		39 -- 88
		39 -- 92
		39 -- 94
		40 -- 41
		40 -- 42
		40 -- 45
		40 -- 48
		40 -- 50
		40 -- 51
		40 -- 57
		40 -- 58
		40 -- 60
		40 -- 61
		40 -- 63
		40 -- 64
		40 -- 69
		40 -- 71
		40 -- 72
		40 -- 74
		40 -- 76
		40 -- 77
		40 -- 84
		40 -- 87
		40 -- 88
		40 -- 90
		40 -- 91
		40 -- 93
		40 -- 95
		40 -- 97
		40 -- 99
		41 -- 42
		41 -- 48
		41 -- 49
		41 -- 54
		41 -- 56
		41 -- 58
		41 -- 59
		41 -- 61
		41 -- 64
		41 -- 72
		41 -- 74
		41 -- 76
		41 -- 77
		41 -- 81
		41 -- 82
		41 -- 83
		41 -- 84
		41 -- 85
		41 -- 87
		41 -- 88
		41 -- 89
		41 -- 90
		41 -- 91
		41 -- 93
		41 -- 96
		42 -- 75
		42 -- 84
		42 -- 71
		42 -- 69
		42 -- 97
		42 -- 98
		42 -- 90
		42 -- 95
		42 -- 43
		42 -- 44
		42 -- 46
		42 -- 48
		42 -- 74
		42 -- 94
		42 -- 54
		42 -- 56
		42 -- 57
		42 -- 59
		42 -- 60
		42 -- 61
		42 -- 62
		42 -- 63
		43 -- 44
		43 -- 46
		43 -- 48
		43 -- 53
		43 -- 55
		43 -- 56
		43 -- 59
		43 -- 61
		43 -- 64
		43 -- 66
		43 -- 69
		43 -- 72
		43 -- 74
		43 -- 76
		43 -- 78
		43 -- 81
		43 -- 86
		43 -- 88
		43 -- 91
		43 -- 92
		43 -- 93
		43 -- 98
		43 -- 99
		44 -- 48
		44 -- 50
		44 -- 54
		44 -- 56
		44 -- 65
		44 -- 66
		44 -- 67
		44 -- 70
		44 -- 71
		44 -- 73
		44 -- 75
		44 -- 76
		44 -- 80
		44 -- 81
		44 -- 82
		44 -- 83
		44 -- 84
		44 -- 85
		44 -- 86
		44 -- 88
		44 -- 91
		44 -- 94
		44 -- 95
		44 -- 98
		44 -- 99
		45 -- 46
		45 -- 49
		45 -- 54
		45 -- 55
		45 -- 57
		45 -- 58
		45 -- 59
		45 -- 60
		45 -- 63
		45 -- 64
		45 -- 67
		45 -- 68
		45 -- 69
		45 -- 70
		45 -- 71
		45 -- 73
		45 -- 77
		45 -- 78
		45 -- 81
		45 -- 82
		45 -- 83
		45 -- 84
		45 -- 85
		45 -- 86
		45 -- 87
		45 -- 94
		45 -- 95
		45 -- 98
		46 -- 47
		46 -- 48
		46 -- 50
		46 -- 53
		46 -- 54
		46 -- 56
		46 -- 57
		46 -- 59
		46 -- 60
		46 -- 61
		46 -- 62
		46 -- 66
		46 -- 67
		46 -- 68
		46 -- 72
		46 -- 73
		46 -- 74
		46 -- 75
		46 -- 77
		46 -- 80
		46 -- 82
		46 -- 85
		46 -- 86
		46 -- 89
		46 -- 90
		46 -- 91
		46 -- 92
		46 -- 97
		46 -- 99
		47 -- 48
		47 -- 49
		47 -- 51
		47 -- 57
		47 -- 59
		47 -- 62
		47 -- 67
		47 -- 68
		47 -- 70
		47 -- 71
		47 -- 72
		47 -- 74
		47 -- 75
		47 -- 76
		47 -- 80
		47 -- 82
		47 -- 83
		47 -- 84
		47 -- 88
		47 -- 90
		47 -- 91
		47 -- 94
		47 -- 95
		47 -- 98
		47 -- 99
		48 -- 49
		48 -- 50
		48 -- 51
		48 -- 52
		48 -- 55
		48 -- 56
		48 -- 57
		48 -- 59
		48 -- 61
		48 -- 62
		48 -- 66
		48 -- 72
		48 -- 74
		48 -- 77
		48 -- 78
		48 -- 79
		48 -- 80
		48 -- 81
		48 -- 82
		48 -- 83
		48 -- 86
		48 -- 89
		48 -- 91
		48 -- 92
		48 -- 97
		49 -- 53
		49 -- 54
		49 -- 58
		49 -- 62
		49 -- 65
		49 -- 67
		49 -- 70
		49 -- 71
		49 -- 72
		49 -- 78
		49 -- 80
		49 -- 82
		49 -- 83
		49 -- 84
		49 -- 87
		49 -- 91
		49 -- 93
		49 -- 94
		49 -- 96
		50 -- 65
		50 -- 79
		50 -- 75
		50 -- 88
		50 -- 78
		50 -- 95
		50 -- 77
		50 -- 82
		50 -- 91
		50 -- 51
		50 -- 53
		50 -- 54
		50 -- 56
		50 -- 57
		50 -- 58
		50 -- 60
		50 -- 61
		50 -- 85
		50 -- 63
		51 -- 55
		51 -- 56
		51 -- 61
		51 -- 63
		51 -- 64
		51 -- 66
		51 -- 67
		51 -- 69
		51 -- 70
		51 -- 71
		51 -- 74
		51 -- 80
		51 -- 81
		51 -- 82
		51 -- 85
		51 -- 86
		51 -- 91
		51 -- 92
		51 -- 96
		51 -- 98
		52 -- 64
		52 -- 65
		52 -- 72
		52 -- 74
		52 -- 75
		52 -- 66
		52 -- 79
		52 -- 78
		52 -- 90
		52 -- 94
		52 -- 69
		52 -- 98
		52 -- 70
		52 -- 84
		52 -- 81
		52 -- 99
		52 -- 91
		52 -- 57
		52 -- 87
		52 -- 95
		52 -- 61
		52 -- 85
		53 -- 54
		53 -- 55
		53 -- 56
		53 -- 57
		53 -- 58
		53 -- 61
		53 -- 64
		53 -- 65
		53 -- 66
		53 -- 68
		53 -- 70
		53 -- 71
		53 -- 72
		53 -- 73
		53 -- 76
		53 -- 77
		53 -- 79
		53 -- 80
		53 -- 82
		53 -- 84
		53 -- 87
		53 -- 89
		53 -- 90
		53 -- 92
		53 -- 94
		53 -- 96
		53 -- 98
		54 -- 57
		54 -- 61
		54 -- 62
		54 -- 63
		54 -- 64
		54 -- 68
		54 -- 72
		54 -- 73
		54 -- 75
		54 -- 77
		54 -- 79
		54 -- 80
		54 -- 83
		54 -- 84
		54 -- 85
		54 -- 86
		54 -- 87
		54 -- 89
		54 -- 90
		54 -- 91
		54 -- 92
		54 -- 95
		54 -- 97
		54 -- 98
		55 -- 65
		55 -- 66
		55 -- 67
		55 -- 69
		55 -- 70
		55 -- 71
		55 -- 75
		55 -- 84
		55 -- 97
		55 -- 88
		55 -- 98
		55 -- 87
		55 -- 92
		55 -- 56
		55 -- 57
		55 -- 58
		55 -- 74
		56 -- 57
		56 -- 58
		56 -- 59
		56 -- 63
		56 -- 64
		56 -- 66
		56 -- 68
		56 -- 71
		56 -- 74
		56 -- 75
		56 -- 79
		56 -- 81
		56 -- 84
		56 -- 85
		56 -- 88
		56 -- 90
		56 -- 93
		56 -- 94
		56 -- 98
		57 -- 59
		57 -- 62
		57 -- 65
		57 -- 66
		57 -- 67
		57 -- 68
		57 -- 70
		57 -- 71
		57 -- 74
		57 -- 75
		57 -- 76
		57 -- 77
		57 -- 80
		57 -- 86
		57 -- 87
		57 -- 88
		57 -- 89
		57 -- 90
		57 -- 91
		57 -- 93
		57 -- 96
		57 -- 97
		57 -- 98
		57 -- 99
		58 -- 66
		58 -- 72
		58 -- 74
		58 -- 87
		58 -- 83
		58 -- 85
		58 -- 90
		58 -- 98
		58 -- 97
		58 -- 71
		58 -- 73
		58 -- 76
		58 -- 60
		58 -- 61
		58 -- 62
		59 -- 68
		59 -- 69
		59 -- 72
		59 -- 86
		59 -- 91
		59 -- 94
		59 -- 80
		59 -- 65
		59 -- 97
		59 -- 74
		59 -- 63
		60 -- 66
		60 -- 71
		60 -- 73
		60 -- 76
		60 -- 78
		60 -- 77
		60 -- 80
		60 -- 81
		60 -- 83
		60 -- 86
		60 -- 87
		60 -- 79
		60 -- 94
		60 -- 68
		60 -- 96
		60 -- 98
		60 -- 90
		60 -- 70
		60 -- 91
		61 -- 63
		61 -- 64
		61 -- 65
		61 -- 73
		61 -- 74
		61 -- 76
		61 -- 78
		61 -- 81
		61 -- 85
		61 -- 87
		61 -- 88
		61 -- 89
		61 -- 94
		61 -- 98
		62 -- 64
		62 -- 66
		62 -- 97
		62 -- 72
		62 -- 87
		62 -- 77
		62 -- 80
		62 -- 85
		62 -- 79
		62 -- 92
		62 -- 91
		62 -- 70
		62 -- 67
		62 -- 83
		62 -- 94
		62 -- 73
		63 -- 65
		63 -- 66
		63 -- 69
		63 -- 76
		63 -- 77
		63 -- 79
		63 -- 80
		63 -- 81
		63 -- 83
		63 -- 85
		63 -- 86
		63 -- 87
		63 -- 89
		63 -- 90
		63 -- 92
		63 -- 95
		63 -- 96
		63 -- 97
		63 -- 99
		64 -- 65
		64 -- 68
		64 -- 73
		64 -- 74
		64 -- 75
		64 -- 76
		64 -- 81
		64 -- 83
		64 -- 85
		64 -- 86
		64 -- 87
		64 -- 88
		64 -- 90
		64 -- 91
		64 -- 93
		64 -- 96
		64 -- 97
		64 -- 99
		65 -- 68
		65 -- 70
		65 -- 71
		65 -- 73
		65 -- 75
		65 -- 76
		65 -- 77
		65 -- 78
		65 -- 79
		65 -- 81
		65 -- 84
		65 -- 85
		65 -- 87
		65 -- 88
		65 -- 90
		65 -- 91
		65 -- 92
		65 -- 94
		65 -- 96
		66 -- 67
		66 -- 70
		66 -- 72
		66 -- 73
		66 -- 77
		66 -- 79
		66 -- 80
		66 -- 83
		66 -- 84
		66 -- 89
		66 -- 92
		66 -- 94
		66 -- 96
		66 -- 97
		66 -- 98
		67 -- 70
		67 -- 71
		67 -- 74
		67 -- 75
		67 -- 76
		67 -- 77
		67 -- 82
		67 -- 86
		67 -- 87
		67 -- 89
		67 -- 90
		67 -- 91
		67 -- 93
		67 -- 94
		67 -- 95
		67 -- 96
		67 -- 97
		67 -- 98
		68 -- 71
		68 -- 73
		68 -- 74
		68 -- 75
		68 -- 76
		68 -- 77
		68 -- 82
		68 -- 83
		68 -- 84
		68 -- 85
		68 -- 91
		68 -- 92
		68 -- 93
		68 -- 94
		68 -- 97
		68 -- 98
		69 -- 72
		69 -- 77
		69 -- 80
		69 -- 87
		69 -- 98
		69 -- 94
		69 -- 82
		69 -- 83
		69 -- 95
		69 -- 74
		70 -- 71
		70 -- 72
		70 -- 73
		70 -- 74
		70 -- 75
		70 -- 77
		70 -- 78
		70 -- 79
		70 -- 80
		70 -- 81
		70 -- 82
		70 -- 85
		70 -- 88
		70 -- 90
		70 -- 91
		70 -- 93
		70 -- 96
		70 -- 97
		70 -- 98
		71 -- 74
		71 -- 81
		71 -- 85
		71 -- 87
		71 -- 89
		71 -- 90
		71 -- 92
		71 -- 93
		71 -- 94
		71 -- 98
		71 -- 99
		72 -- 78
		72 -- 80
		72 -- 83
		72 -- 84
		72 -- 85
		72 -- 86
		72 -- 87
		72 -- 88
		72 -- 90
		72 -- 91
		72 -- 92
		72 -- 94
		73 -- 74
		73 -- 75
		73 -- 77
		73 -- 78
		73 -- 79
		73 -- 80
		73 -- 82
		73 -- 88
		73 -- 92
		73 -- 95
		74 -- 75
		74 -- 78
		74 -- 80
		74 -- 81
		74 -- 83
		74 -- 87
		74 -- 94
		74 -- 95
		74 -- 96
		74 -- 98
		75 -- 76
		75 -- 80
		75 -- 82
		75 -- 83
		75 -- 84
		75 -- 87
		75 -- 89
		75 -- 93
		75 -- 94
		75 -- 96
		75 -- 97
		75 -- 98
		76 -- 77
		76 -- 78
		76 -- 82
		76 -- 83
		76 -- 84
		76 -- 88
		76 -- 90
		76 -- 91
		76 -- 93
		76 -- 94
		76 -- 97
		76 -- 98
		76 -- 99
		77 -- 78
		77 -- 82
		77 -- 84
		77 -- 86
		77 -- 87
		77 -- 89
		77 -- 94
		77 -- 96
		77 -- 97
		77 -- 98
		77 -- 99
		78 -- 81
		78 -- 83
		78 -- 84
		78 -- 86
		78 -- 87
		78 -- 88
		78 -- 90
		78 -- 92
		78 -- 95
		78 -- 98
		79 -- 80
		79 -- 86
		79 -- 88
		79 -- 89
		79 -- 96
		79 -- 92
		79 -- 83
		79 -- 85
		80 -- 82
		80 -- 85
		80 -- 88
		80 -- 90
		80 -- 94
		80 -- 96
		80 -- 97
		81 -- 82
		81 -- 83
		81 -- 84
		81 -- 88
		81 -- 89
		81 -- 92
		81 -- 94
		81 -- 98
		82 -- 83
		82 -- 85
		82 -- 87
		82 -- 88
		82 -- 89
		82 -- 91
		82 -- 93
		82 -- 95
		82 -- 97
		82 -- 99
		83 -- 90
		83 -- 92
		84 -- 85
		84 -- 89
		84 -- 90
		84 -- 94
		84 -- 95
		84 -- 97
		85 -- 87
		85 -- 88
		85 -- 89
		85 -- 90
		85 -- 91
		85 -- 92
		85 -- 96
		85 -- 98
		86 -- 87
		86 -- 88
		86 -- 89
		86 -- 91
		86 -- 92
		86 -- 93
		86 -- 94
		86 -- 96
		87 -- 89
		87 -- 92
		87 -- 93
		87 -- 94
		87 -- 97
		88 -- 90
		88 -- 92
		88 -- 94
		88 -- 98
		88 -- 99
		89 -- 94
		89 -- 90
		89 -- 97
		90 -- 91
		90 -- 92
		90 -- 94
		90 -- 95
		90 -- 97
		90 -- 98
		90 -- 99
		91 -- 93
		91 -- 95
		91 -- 96
		91 -- 97
		91 -- 98
		92 -- 93
		92 -- 99
		93 -- 96
		93 -- 97
		93 -- 98
		93 -- 99
		94 -- 96
		95 -- 97
		95 -- 98
		95 -- 99
		96 -- 97
		96 -- 99
		97 -- 99
		98 -- 99
}