100
236 6
203 13
235 47
206 43
36 145
270 142
156 192
137 71
149 149
242 89
52 194
247 183
157 256
77 51
258 267
182 233
47 4
137 173
140 172
74 221
124 84
214 42
291 265
13 184
106 74
209 45
222 68
64 155
238 6
121 79
22 104
192 281
147 91
220 43
240 277
11 130
268 32
228 107
52 191
241 238
21 19
183 79
164 148
67 149
107 7
146 10
284 269
179 177
200 271
273 255
237 289
93 293
51 267
76 60
48 111
132 273
178 104
46 283
205 180
222 283
264 87
237 205
124 21
107 16
93 259
155 278
185 41
96 251
84 247
42 220
230 65
198 296
123 269
213 184
25 270
122 16
276 104
47 217
133 100
116 196
115 40
193 75
18 214
94 70
14 26
12 177
8 185
292 69
97 69
221 225
93 43
290 26
141 245
29 231
257 164
68 43
119 115
96 295
13 225
132 39
0 64
0 2
0 3
0 4
0 5
0 6
0 97
0 8
0 9
0 10
0 12
0 66
0 80
0 82
0 67
0 20
0 21
0 69
0 24
0 25
0 26
0 28
0 29
0 30
0 31
0 32
0 33
0 98
0 36
0 38
0 39
0 45
0 47
0 48
0 51
0 74
0 95
0 61
0 62
0 85
1 64
1 96
1 66
1 75
1 4
1 7
1 72
1 76
1 11
1 12
1 13
1 15
1 16
1 81
1 19
1 85
1 22
1 23
1 88
1 68
1 79
1 92
1 94
1 95
1 32
1 80
1 34
1 91
1 36
1 37
1 39
1 40
1 43
1 46
1 99
1 49
1 53
1 89
1 60
2 3
2 4
2 5
2 8
2 9
2 11
2 13
2 15
2 16
2 18
2 19
2 21
2 22
2 24
2 25
2 26
2 27
2 28
2 31
2 32
2 34
2 35
2 37
2 38
2 39
2 42
2 46
2 51
2 53
2 55
2 59
2 60
2 61
2 62
2 66
2 67
2 69
2 72
2 77
2 79
2 83
2 84
2 85
2 86
2 89
2 90
2 91
2 92
2 93
2 94
2 95
2 97
2 98
2 99
3 4
3 5
3 6
3 7
3 8
3 9
3 12
3 13
3 15
3 20
3 21
3 22
3 23
3 25
3 26
3 27
3 28
3 29
3 30
3 31
3 33
3 36
3 38
3 39
3 42
3 43
3 46
3 47
3 49
3 51
3 53
3 54
3 55
3 56
3 58
3 61
3 63
3 64
3 65
3 66
3 67
3 68
3 69
3 75
3 76
3 77
3 82
3 83
3 84
3 85
3 88
3 89
3 90
3 92
3 94
3 96
3 97
4 6
4 7
4 8
4 13
4 18
4 22
4 24
4 30
4 31
4 32
4 33
4 34
4 35
4 36
4 37
4 38
4 40
4 42
4 43
4 47
4 49
4 51
4 53
4 54
4 56
4 57
4 58
4 59
4 60
4 65
4 67
4 71
4 77
4 78
4 79
4 80
4 83
4 84
4 86
4 88
4 91
4 95
4 97
4 98
5 6
5 8
5 14
5 15
5 16
5 17
5 18
5 22
5 24
5 25
5 29
5 30
5 31
5 38
5 39
5 40
5 41
5 43
5 45
5 47
5 50
5 51
5 52
5 55
5 56
5 57
5 58
5 59
5 64
5 65
5 67
5 68
5 69
5 73
5 75
5 78
5 79
5 81
5 82
5 83
5 85
5 87
5 89
5 90
5 91
5 92
5 93
5 94
5 96
5 97
5 99
6 11
6 12
6 13
6 14
6 15
6 20
6 21
6 22
6 23
6 25
6 26
6 27
6 28
6 30
6 32
6 33
6 34
6 37
6 38
6 39
6 41
6 42
6 46
6 47
6 48
6 50
6 51
6 59
6 60
6 67
6 70
6 71
6 72
6 74
6 76
6 80
6 81
6 84
6 85
6 86
6 87
6 90
6 91
6 96
6 97
6 99
7 10
7 13
7 14
7 16
7 20
7 22
7 23
7 24
7 25
7 26
7 27
7 28
7 29
7 30
7 31
7 32
7 33
7 36
7 38
7 39
7 40
7 41
7 42
7 45
7 46
7 48
7 51
7 52
7 53
7 55
7 58
7 59
7 61
7 62
7 65
7 67
7 69
7 71
7 74
7 76
7 78
7 79
7 80
7 82
7 85
7 87
7 89
7 90
7 91
7 92
7 93
7 94
7 96
7 98
7 99
8 9
8 11
8 12
8 13
8 14
8 16
8 21
8 22
8 23
8 25
8 26
8 27
8 29
8 30
8 31
8 33
8 36
8 40
8 42
8 44
8 45
8 47
8 49
8 51
8 53
8 54
8 55
8 58
8 59
8 60
8 66
8 69
8 70
8 72
8 74
8 77
8 78
8 83
8 84
8 87
8 90
8 94
8 95
8 96
8 99
9 10
9 11
9 12
9 13
9 14
9 16
9 17
9 18
9 21
9 23
9 29
9 31
9 32
9 34
9 39
9 41
9 44
9 45
9 46
9 47
9 54
9 55
9 56
9 58
9 60
9 65
9 66
9 68
9 69
9 72
9 76
9 77
9 79
9 82
9 85
9 87
9 88
9 89
9 90
9 91
9 93
9 96
9 98
10 12
10 13
10 14
10 23
10 26
10 27
10 28
10 29
10 30
10 33
10 35
10 37
10 42
10 44
10 45
10 46
10 49
10 50
10 54
10 56
10 58
10 59
10 61
10 62
10 69
10 71
10 72
10 73
10 76
10 77
10 80
10 83
10 84
10 85
10 86
10 87
10 88
10 91
10 92
10 93
10 94
10 96
10 99
11 13
11 15
11 16
11 18
11 22
11 24
11 25
11 27
11 30
11 32
11 38
11 39
11 41
11 43
11 44
11 46
11 48
11 52
11 53
11 55
11 56
11 57
11 58
11 59
11 63
11 64
11 66
11 71
11 73
11 76
11 78
11 80
11 81
11 82
11 83
11 87
11 90
11 94
11 95
11 96
11 98
12 13
12 15
12 16
12 17
12 19
12 20
12 25
12 26
12 29
12 32
12 33
12 35
12 36
12 37
12 38
12 39
12 42
12 46
12 47
12 49
12 50
12 51
12 53
12 56
12 57
12 58
12 59
12 61
12 62
12 64
12 65
12 66
12 67
12 70
12 71
12 72
12 74
12 76
12 78
12 81
12 83
12 88
12 90
12 91
12 96
12 97
13 14
13 17
13 18
13 19
13 20
13 23
13 24
13 26
13 29
13 30
13 34
13 35
13 37
13 39
13 40
13 43
13 45
13 47
13 49
13 50
13 51
13 52
13 55
13 56
13 57
13 58
13 61
13 62
13 66
13 70
13 71
13 72
13 73
13 76
13 77
13 80
13 81
13 82
13 84
13 85
13 88
13 89
13 90
13 92
13 95
13 96
13 97
13 98
14 15
14 18
14 19
14 20
14 21
14 22
14 23
14 24
14 33
14 34
14 39
14 40
14 41
14 42
14 44
14 49
14 50
14 52
14 54
14 56
14 57
14 58
14 59
14 60
14 61
14 62
14 64
14 65
14 66
14 74
14 77
14 78
14 79
14 81
14 82
14 83
14 84
14 86
14 90
14 91
15 16
15 19
15 21
15 22
15 23
15 27
15 30
15 31
15 32
15 33
15 35
15 36
15 37
15 39
15 40
15 41
15 42
15 44
15 45
15 46
15 47
15 48
15 51
15 55
15 56
15 58
15 60
15 61
15 62
15 65
15 67
15 69
15 73
15 74
15 75
15 76
15 78
15 79
15 82
15 84
15 89
15 90
15 91
15 92
15 99
16 17
16 20
16 29
16 31
16 32
16 33
16 34
16 37
16 38
16 42
16 43
16 45
16 47
16 48
16 51
16 53
16 54
16 57
16 58
16 60
16 61
16 62
16 65
16 66
16 68
16 71
16 72
16 74
16 75
16 76
16 77
16 79
16 81
16 84
16 86
16 87
16 89
16 90
16 91
16 96
16 97
17 18
17 21
17 23
17 25
17 27
17 28
17 29
17 32
17 33
17 34
17 35
17 39
17 41
17 43
17 44
17 49
17 50
17 51
17 52
17 56
17 58
17 59
17 60
17 62
17 65
17 66
17 69
17 71
17 72
17 75
17 78
17 80
17 84
17 87
17 90
17 91
17 92
17 94
17 97
17 99
18 20
18 24
18 25
18 26
18 27
18 31
18 33
18 38
18 41
18 45
18 48
18 49
18 50
18 51
18 52
18 53
18 54
18 55
18 59
18 60
18 61
18 62
18 67
18 68
18 72
18 74
18 75
18 76
18 78
18 79
18 80
18 82
18 83
18 84
18 85
18 88
18 89
18 93
18 99
19 22
19 24
19 25
19 26
19 29
19 30
19 31
19 33
19 35
19 37
19 39
19 42
19 43
19 44
19 45
19 50
19 51
19 54
19 55
19 56
19 57
19 59
19 60
19 61
19 62
19 65
19 67
19 68
19 70
19 72
19 73
19 76
19 79
19 89
19 92
19 94
19 95
19 96
20 23
20 24
20 25
20 32
20 33
20 34
20 35
20 36
20 37
20 38
20 39
20 40
20 42
20 43
20 44
20 47
20 50
20 53
20 58
20 59
20 60
20 61
20 65
20 66
20 68
20 73
20 75
20 76
20 77
20 79
20 83
20 84
20 85
20 86
20 88
20 91
20 92
20 93
20 96
20 98
21 22
21 24
21 25
21 30
21 31
21 36
21 37
21 38
21 46
21 47
21 48
21 49
21 52
21 54
21 55
21 57
21 58
21 60
21 61
21 63
21 65
21 67
21 68
21 69
21 70
21 72
21 74
21 75
21 76
21 79
21 80
21 81
21 82
21 83
21 84
21 88
21 93
21 95
21 98
22 23
22 24
22 25
22 26
22 27
22 28
22 29
22 34
22 38
22 42
22 43
22 44
22 45
22 47
22 48
22 50
22 51
22 54
22 55
22 56
22 57
22 61
22 65
22 66
22 68
22 70
22 73
22 76
22 79
22 82
22 85
22 87
22 89
22 90
22 92
22 96
22 97
22 98
22 99
23 24
23 29
23 30
23 32
23 33
23 35
23 36
23 37
23 38
23 39
23 41
23 42
23 43
23 45
23 46
23 47
23 49
23 52
23 53
23 55
23 56
23 60
23 63
23 65
23 66
23 67
23 68
23 70
23 71
23 73
23 74
23 75
23 81
23 83
23 84
23 85
23 86
23 89
23 90
23 93
23 97
23 99
24 30
24 33
24 36
24 38
24 39
24 43
24 49
24 50
24 51
24 54
24 55
24 58
24 59
24 60
24 61
24 64
24 68
24 70
24 71
24 73
24 75
24 76
24 78
24 79
24 80
24 81
24 82
24 83
24 84
24 89
24 90
24 92
24 95
24 97
24 99
25 27
25 29
25 30
25 31
25 33
25 36
25 37
25 40
25 41
25 48
25 49
25 50
25 51
25 53
25 54
25 59
25 60
25 62
25 63
25 69
25 72
25 73
25 74
25 78
25 79
25 80
25 83
25 85
25 87
25 90
25 91
25 92
25 93
25 94
25 95
25 98
26 27
26 28
26 32
26 33
26 36
26 38
26 42
26 43
26 44
26 47
26 48
26 49
26 52
26 55
26 60
26 61
26 62
26 63
26 65
26 68
26 69
26 70
26 71
26 72
26 75
26 82
26 85
26 86
26 87
26 88
26 89
26 93
26 98
26 99
27 30
27 33
27 34
27 37
27 38
27 42
27 43
27 47
27 48
27 49
27 53
27 54
27 56
27 57
27 59
27 60
27 66
27 67
27 72
27 73
27 74
27 78
27 81
27 82
27 86
27 87
27 88
27 90
27 91
27 93
27 95
28 30
28 31
28 33
28 36
28 38
28 39
28 40
28 42
28 43
28 44
28 45
28 48
28 49
28 51
28 53
28 54
28 56
28 59
28 62
28 63
28 64
28 66
28 67
28 69
28 70
28 71
28 72
28 74
28 77
28 78
28 80
28 81
28 85
28 86
28 88
28 91
28 92
28 93
28 94
28 97
28 98
28 99
29 30
29 31
29 32
29 34
29 35
29 37
29 38
29 39
29 40
29 41
29 43
29 46
29 47
29 48
29 50
29 56
29 57
29 58
29 60
29 61
29 62
29 63
29 65
29 66
29 70
29 71
29 72
29 73
29 75
29 76
29 77
29 78
29 79
29 80
29 81
29 86
29 87
29 88
29 90
29 91
29 92
29 99
30 31
30 34
30 37
30 38
30 41
30 45
30 46
30 48
30 49
30 53
30 54
30 58
30 60
30 61
30 66
30 68
30 69
30 70
30 71
30 72
30 76
30 77
30 79
30 85
30 86
30 88
30 89
30 90
30 92
30 93
30 97
30 99
31 32
31 33
31 34
31 35
31 37
31 40
31 41
31 43
31 44
31 47
31 48
31 51
31 54
31 55
31 56
31 57
31 58
31 62
31 63
31 64
31 65
31 66
31 68
31 69
31 71
31 72
31 75
31 77
31 78
31 85
31 87
31 89
31 95
31 97
31 98
32 33
32 34
32 35
32 36
32 37
32 39
32 40
32 43
32 44
32 45
32 46
32 47
32 49
32 51
32 53
32 55
32 57
32 61
32 63
32 64
32 65
32 66
32 71
32 72
32 75
32 78
32 79
32 80
32 82
32 84
32 85
32 87
32 89
32 92
32 93
32 94
32 95
32 98
32 99
33 34
33 35
33 36
33 37
33 39
33 43
33 44
33 45
33 46
33 48
33 49
33 51
33 54
33 58
33 59
33 62
33 63
33 64
33 65
33 66
33 67
33 68
33 69
33 72
33 73
33 75
33 78
33 79
33 80
33 86
33 88
33 91
33 92
33 93
33 95
33 96
33 97
33 99
34 64
34 67
34 69
34 65
34 75
34 79
34 83
34 78
34 68
34 92
34 36
34 37
34 81
34 40
34 41
34 44
34 96
34 47
34 48
34 50
34 94
34 54
34 73
34 56
34 57
34 85
35 96
35 69
35 70
35 71
35 76
35 87
35 77
35 66
35 79
35 92
35 99
35 37
35 81
35 42
35 43
35 78
35 45
35 47
35 48
35 50
35 51
35 74
35 54
35 55
35 84
35 58
35 60
35 61
35 62
36 37
36 38
36 39
36 40
36 42
36 46
36 48
36 51
36 52
36 54
36 56
36 61
36 62
36 69
36 70
36 71
36 72
36 73
36 76
36 81
36 82
36 83
36 84
36 85
36 87
36 90
36 94
36 95
36 96
36 97
36 99
37 39
37 40
37 43
37 45
37 47
37 51
37 54
37 57
37 59
37 60
37 62
37 63
37 65
37 66
37 67
37 70
37 71
37 72
37 73
37 74
37 76
37 77
37 78
37 79
37 81
37 84
37 88
37 90
37 93
37 97
37 98
37 99
38 39
38 43
38 44
38 45
38 47
38 48
38 49
38 53
38 54
38 59
38 64
38 65
38 66
38 68
38 70
38 73
38 74
38 76
38 77
38 81
38 85
38 86
38 92
38 95
38 96
38 98
38 99
39 41
39 42
39 43
39 44
39 46
39 47
39 49
39 50
39 52
39 54
39 57
39 58
39 63
39 67
39 68
39 69
39 70
39 71
39 77
39 78
39 80
39 81
39 82
39 84
39 85
39 87
39 90
39 91
39 92
39 93
39 95
39 97
39 98
40 41
40 42
40 45
40 47
40 48
40 49
40 50
40 51
40 54
40 55
40 57
40 59
40 60
40 61
40 63
40 66
40 67
40 69
40 72
40 74
40 75
40 77
40 81
40 84
40 85
40 86
40 88
40 89
40 90
40 91
40 92
40 93
40 94
40 96
40 97
40 98
40 99
41 43
41 44
41 47
41 48
41 49
41 50
41 52
41 55
41 56
41 58
41 59
41 60
41 62
41 63
41 67
41 69
41 70
41 74
41 75
41 76
41 80
41 82
41 87
41 88
41 90
41 91
41 92
41 93
41 95
41 96
41 97
41 98
42 43
42 46
42 48
42 49
42 50
42 52
42 53
42 54
42 55
42 58
42 60
42 61
42 62
42 63
42 65
42 67
42 68
42 69
42 70
42 71
42 72
42 73
42 76
42 81
42 83
42 86
42 91
42 92
42 95
42 96
42 97
43 45
43 46
43 48
43 54
43 57
43 58
43 59
43 61
43 64
43 65
43 66
43 67
43 68
43 70
43 71
43 72
43 73
43 76
43 78
43 80
43 81
43 82
43 84
43 87
43 88
43 90
43 92
43 93
43 96
43 99
44 46
44 47
44 48
44 50
44 51
44 54
44 57
44 58
44 59
44 60
44 62
44 63
44 64
44 65
44 67
44 68
44 70
44 75
44 77
44 79
44 81
44 82
44 83
44 87
44 88
44 90
44 92
44 95
44 96
44 99
45 46
45 50
45 51
45 55
45 56
45 58
45 60
45 64
45 65
45 66
45 67
45 69
45 70
45 71
45 72
45 73
45 75
45 80
45 83
45 84
45 85
45 88
45 90
45 92
45 94
45 96
46 48
46 50
46 52
46 58
46 59
46 60
46 61
46 64
46 66
46 67
46 68
46 70
46 71
46 73
46 76
46 78
46 79
46 81
46 82
46 85
46 86
46 88
46 89
46 90
46 92
46 93
46 94
46 95
46 96
46 97
47 48
47 52
47 53
47 54
47 55
47 58
47 59
47 60
47 64
47 65
47 66
47 67
47 68
47 69
47 73
47 79
47 81
47 82
47 86
47 87
47 91
47 92
47 93
47 94
47 95
47 98
47 99
48 51
48 53
48 59
48 60
48 61
48 62
48 64
48 66
48 68
48 72
48 73
48 75
48 76
48 79
48 80
48 82
48 84
48 85
48 86
48 89
48 90
48 94
48 96
48 97
48 99
49 50
49 53
49 54
49 56
49 59
49 60
49 61
49 62
49 63
49 64
49 67
49 69
49 72
49 76
49 79
49 81
49 84
49 87
49 91
49 93
49 94
49 95
50 51
50 52
50 53
50 55
50 58
50 59
50 61
50 63
50 64
50 70
50 71
50 72
50 74
50 75
50 76
50 77
50 79
50 80
50 87
50 88
50 90
50 93
50 94
50 97
50 98
51 52
51 53
51 55
51 56
51 59
51 60
51 63
51 64
51 66
51 69
51 73
51 75
51 76
51 78
51 81
51 82
51 84
51 85
51 87
51 88
51 89
51 90
51 93
51 95
51 96
51 98
51 99
52 53
52 55
52 58
52 60
52 61
52 62
52 66
52 67
52 69
52 70
52 73
52 76
52 77
52 78
52 79
52 81
52 85
52 86
52 89
52 90
52 91
52 92
52 93
52 94
52 97
52 99
53 55
53 56
53 57
53 59
53 60
53 62
53 63
53 64
53 65
53 66
53 67
53 69
53 70
53 72
53 74
53 76
53 77
53 80
53 81
53 82
53 85
53 88
53 90
53 93
53 94
53 95
53 97
54 57
54 59
54 60
54 62
54 66
54 68
54 70
54 73
54 77
54 80
54 81
54 82
54 86
54 89
54 90
54 94
54 97
54 99
55 57
55 60
55 65
55 67
55 69
55 70
55 71
55 72
55 73
55 74
55 75
55 78
55 79
55 82
55 86
55 87
55 88
55 90
55 91
55 93
55 94
55 96
55 97
55 99
56 58
56 59
56 60
56 62
56 63
56 66
56 67
56 70
56 72
56 73
56 74
56 76
56 77
56 80
56 82
56 84
56 85
56 87
56 91
56 92
56 93
56 94
56 96
56 99
57 64
57 65
57 66
57 67
57 70
57 72
57 76
57 77
57 75
57 87
57 89
57 98
57 86
57 99
57 93
57 58
57 59
58 66
58 73
58 76
58 77
58 78
58 80
58 82
58 84
58 85
58 88
58 91
58 94
58 97
58 99
59 60
59 62
59 64
59 65
59 69
59 70
59 71
59 73
59 75
59 76
59 77
59 78
59 79
59 80
59 83
59 84
59 85
59 86
59 87
59 88
59 91
59 92
59 93
59 94
59 96
59 98
60 63
60 65
60 66
60 67
60 68
60 69
60 72
60 74
60 75
60 77
60 80
60 84
60 86
60 88
60 89
60 92
60 93
60 96
60 98
60 99
61 62
61 64
61 67
61 69
61 70
61 71
61 72
61 74
61 76
61 78
61 81
61 83
61 87
61 90
61 91
61 93
61 95
61 97
61 99
62 63
62 67
62 68
62 69
62 70
62 71
62 74
62 75
62 76
62 78
62 79
62 82
62 84
62 86
62 87
62 88
62 91
62 92
62 95
62 96
62 97
62 98
62 99
63 69
63 97
63 72
63 77
63 80
63 81
63 75
63 99
63 84
63 92
63 91
63 94
63 90
63 82
63 93
63 87
63 85
64 66
64 68
64 70
64 71
64 72
64 73
64 98
64 79
64 81
64 82
64 67
64 89
64 69
64 96
64 95
64 76
65 66
65 67
65 69
65 70
65 71
65 72
65 73
65 76
65 80
65 81
65 83
65 85
65 86
65 87
65 88
65 90
65 93
65 96
65 97
65 99
66 69
66 71
66 73
66 74
66 75
66 76
66 77
66 78
66 79
66 80
66 81
66 82
66 83
66 84
66 86
66 88
66 91
66 94
66 97
66 99
67 68
67 75
67 77
67 85
67 88
67 91
67 92
67 93
67 96
67 98
68 70
68 71
68 74
68 77
68 78
68 79
68 84
68 85
68 86
68 87
68 89
68 91
68 92
68 93
68 95
68 96
68 97
68 98
68 99
69 70
69 71
69 72
69 73
69 74
69 75
69 76
69 77
69 78
69 81
69 83
69 86
69 88
69 89
69 90
69 91
69 92
69 99
70 72
70 73
70 74
70 76
70 78
70 80
70 84
70 85
70 86
70 89
70 90
70 92
70 93
70 96
70 97
70 98
71 72
71 75
71 81
71 82
71 83
71 85
71 87
71 89
71 92
71 93
71 94
71 95
72 73
72 74
72 75
72 76
72 79
72 80
72 81
72 83
72 84
72 89
72 90
72 91
72 94
72 97
73 74
73 75
73 76
73 81
73 82
73 83
73 84
73 86
73 87
73 88
73 90
73 92
73 93
73 94
73 95
73 96
73 97
74 77
74 78
74 79
74 80
74 81
74 82
74 83
74 84
74 85
74 89
74 92
74 93
74 95
74 97
75 76
75 80
75 83
75 85
75 86
75 87
75 93
75 96
75 98
76 78
76 79
76 82
76 83
76 85
76 87
76 89
76 91
76 92
76 93
76 97
76 99
77 81
77 82
77 84
77 86
77 89
77 90
77 91
77 94
77 95
78 82
78 83
78 84
78 86
78 89
78 90
78 91
78 92
78 94
78 95
78 96
78 97
79 83
79 85
79 86
79 87
79 89
79 90
79 91
79 92
79 93
79 94
79 97
80 81
80 83
80 85
80 90
80 92
80 95
80 96
80 98
81 82
81 83
81 84
81 88
81 89
81 91
81 92
81 93
81 94
81 96
81 98
82 85
82 87
82 91
82 94
82 95
82 97
82 98
82 99
83 85
83 86
83 87
83 89
83 91
83 92
83 93
83 94
83 95
83 97
83 98
84 85
84 86
84 90
84 91
84 92
84 94
84 95
84 96
84 97
84 99
85 87
85 88
85 89
85 90
85 91
85 93
85 94
85 95
85 97
85 98
86 96
86 92
86 94
86 87
87 88
87 89
87 93
87 94
87 97
87 98
88 91
88 92
88 93
88 94
88 97
88 99
89 90
89 92
89 93
89 95
89 97
89 98
90 94
90 95
90 99
91 93
91 94
91 95
91 96
91 97
91 99
92 94
92 97
92 98
93 98
93 99
94 95
94 96
94 99
95 97
95 98
95 99
96 98
96 99
97 98
98 99
