graph {
		0 -- 2
		0 -- 5
		0 -- 7
		0 -- 10
		0 -- 13
		0 -- 14
		0 -- 15
		0 -- 17
		0 -- 19
		0 -- 20
		0 -- 23
		0 -- 24
		0 -- 25
		0 -- 29
		0 -- 30
		0 -- 33
		0 -- 35
		0 -- 37
		0 -- 40
		0 -- 41
		0 -- 42
		0 -- 43
		0 -- 47
		0 -- 48
		0 -- 51
		0 -- 52
		0 -- 54
		0 -- 55
		0 -- 57
		0 -- 59
		0 -- 60
		0 -- 61
		0 -- 64
		0 -- 65
		0 -- 66
		0 -- 68
		0 -- 69
		0 -- 70
		0 -- 73
		0 -- 74
		0 -- 76
		0 -- 77
		0 -- 78
		0 -- 79
		0 -- 80
		0 -- 81
		0 -- 82
		0 -- 83
		0 -- 85
		0 -- 86
		0 -- 88
		0 -- 95
		0 -- 97
		0 -- 98
		0 -- 99
		1 -- 3
		1 -- 4
		1 -- 7
		1 -- 8
		1 -- 9
		1 -- 11
		1 -- 12
		1 -- 16
		1 -- 18
		1 -- 20
		1 -- 26
		1 -- 28
		1 -- 29
		1 -- 30
		1 -- 34
		1 -- 35
		1 -- 39
		1 -- 40
		1 -- 41
		1 -- 43
		1 -- 46
		1 -- 50
		1 -- 56
		1 -- 57
		1 -- 58
		1 -- 60
		1 -- 61
		1 -- 68
		1 -- 69
		1 -- 70
		1 -- 72
		1 -- 73
		1 -- 74
		1 -- 75
		1 -- 78
		1 -- 79
		1 -- 80
		1 -- 81
		1 -- 83
		1 -- 84
		1 -- 85
		1 -- 88
		1 -- 92
		1 -- 93
		1 -- 94
		1 -- 98
		1 -- 99
		2 -- 65
		2 -- 3
		2 -- 5
		2 -- 6
		2 -- 8
		2 -- 73
		2 -- 11
		2 -- 12
		2 -- 14
		2 -- 80
		2 -- 17
		2 -- 18
		2 -- 19
		2 -- 20
		2 -- 21
		2 -- 86
		2 -- 88
		2 -- 89
		2 -- 92
		2 -- 29
		2 -- 69
		2 -- 31
		2 -- 97
		2 -- 67
		2 -- 99
		2 -- 36
		2 -- 70
		2 -- 38
		2 -- 39
		2 -- 41
		2 -- 42
		2 -- 45
		2 -- 46
		2 -- 83
		2 -- 52
		2 -- 82
		2 -- 85
		2 -- 57
		2 -- 58
		2 -- 94
		2 -- 62
		2 -- 63
		3 -- 4
		3 -- 5
		3 -- 7
		3 -- 9
		3 -- 10
		3 -- 11
		3 -- 12
		3 -- 13
		3 -- 14
		3 -- 15
		3 -- 19
		3 -- 25
		3 -- 27
		3 -- 30
		3 -- 33
		3 -- 34
		3 -- 36
		3 -- 41
		3 -- 44
		3 -- 47
		3 -- 48
		3 -- 51
		3 -- 53
		3 -- 57
		3 -- 58
		3 -- 62
		3 -- 64
		3 -- 67
		3 -- 69
		3 -- 70
		3 -- 74
		3 -- 75
		3 -- 76
		3 -- 77
		3 -- 80
		3 -- 81
		3 -- 83
		3 -- 84
		3 -- 86
		3 -- 90
		3 -- 91
		3 -- 95
		3 -- 98
		4 -- 7
		4 -- 8
		4 -- 12
		4 -- 13
		4 -- 14
		4 -- 16
		4 -- 17
		4 -- 19
		4 -- 24
		4 -- 25
		4 -- 27
		4 -- 29
		4 -- 30
		4 -- 31
		4 -- 32
		4 -- 34
		4 -- 36
		4 -- 37
		4 -- 39
		4 -- 42
		4 -- 43
		4 -- 44
		4 -- 45
		4 -- 46
		4 -- 50
		4 -- 51
		4 -- 52
		4 -- 54
		4 -- 56
		4 -- 57
		4 -- 58
		4 -- 61
		4 -- 63
		4 -- 64
		4 -- 65
		4 -- 66
		4 -- 68
		4 -- 70
		4 -- 71
		4 -- 74
		4 -- 75
		4 -- 76
		4 -- 77
		4 -- 78
		4 -- 79
		4 -- 81
		4 -- 84
		4 -- 87
		4 -- 90
		4 -- 92
		4 -- 95
		4 -- 99
		5 -- 8
		5 -- 9
		5 -- 10
		5 -- 14
		5 -- 18
		5 -- 22
		5 -- 25
		5 -- 26
		5 -- 27
		5 -- 29
		5 -- 35
		5 -- 36
		5 -- 37
		5 -- 39
		5 -- 41
		5 -- 43
		5 -- 44
		5 -- 48
		5 -- 49
		5 -- 52
		5 -- 54
		5 -- 58
		5 -- 61
		5 -- 62
		5 -- 65
		5 -- 69
		5 -- 71
		5 -- 72
		5 -- 74
		5 -- 75
		5 -- 76
		5 -- 77
		5 -- 81
		5 -- 82
		5 -- 85
		5 -- 86
		5 -- 89
		5 -- 90
		5 -- 91
		5 -- 92
		5 -- 94
		6 -- 9
		6 -- 12
		6 -- 13
		6 -- 14
		6 -- 17
		6 -- 18
		6 -- 19
		6 -- 27
		6 -- 28
		6 -- 29
		6 -- 30
		6 -- 31
		6 -- 34
		6 -- 35
		6 -- 37
		6 -- 39
		6 -- 41
		6 -- 43
		6 -- 45
		6 -- 48
		6 -- 49
		6 -- 51
		6 -- 52
		6 -- 53
		6 -- 55
		6 -- 58
		6 -- 59
		6 -- 60
		6 -- 61
		6 -- 62
		6 -- 63
		6 -- 64
		6 -- 68
		6 -- 70
		6 -- 72
		6 -- 73
		6 -- 75
		6 -- 76
		6 -- 77
		6 -- 80
		6 -- 82
		6 -- 83
		6 -- 85
		6 -- 86
		6 -- 87
		6 -- 89
		6 -- 91
		6 -- 94
		6 -- 98
		7 -- 10
		7 -- 15
		7 -- 17
		7 -- 18
		7 -- 20
		7 -- 22
		7 -- 23
		7 -- 24
		7 -- 25
		7 -- 26
		7 -- 29
		7 -- 31
		7 -- 34
		7 -- 38
		7 -- 40
		7 -- 46
		7 -- 47
		7 -- 48
		7 -- 49
		7 -- 53
		7 -- 54
		7 -- 55
		7 -- 56
		7 -- 57
		7 -- 59
		7 -- 62
		7 -- 67
		7 -- 69
		7 -- 70
		7 -- 73
		7 -- 75
		7 -- 80
		7 -- 83
		7 -- 84
		7 -- 85
		7 -- 87
		7 -- 88
		7 -- 93
		7 -- 94
		7 -- 97
		7 -- 99
		8 -- 10
		8 -- 11
		8 -- 12
		8 -- 13
		8 -- 16
		8 -- 20
		8 -- 21
		8 -- 23
		8 -- 25
		8 -- 27
		8 -- 29
		8 -- 31
		8 -- 32
		8 -- 33
		8 -- 34
		8 -- 36
		8 -- 37
		8 -- 41
		8 -- 44
		8 -- 45
		8 -- 46
		8 -- 47
		8 -- 48
		8 -- 49
		8 -- 51
		8 -- 52
		8 -- 53
		8 -- 55
		8 -- 56
		8 -- 57
		8 -- 58
		8 -- 60
		8 -- 62
		8 -- 64
		8 -- 65
		8 -- 66
		8 -- 67
		8 -- 71
		8 -- 72
		8 -- 73
		8 -- 75
		8 -- 81
		8 -- 82
		8 -- 83
		8 -- 84
		8 -- 85
		8 -- 86
		8 -- 88
		8 -- 90
		8 -- 92
		8 -- 93
		8 -- 94
		8 -- 96
		8 -- 97
		9 -- 10
		9 -- 12
		9 -- 13
		9 -- 14
		9 -- 15
		9 -- 16
		9 -- 17
		9 -- 18
		9 -- 19
		9 -- 20
		9 -- 22
		9 -- 23
		9 -- 27
		9 -- 29
		9 -- 30
		9 -- 32
		9 -- 41
		9 -- 44
		9 -- 46
		9 -- 50
		9 -- 51
		9 -- 53
		9 -- 55
		9 -- 56
		9 -- 57
		9 -- 60
		9 -- 63
		9 -- 64
		9 -- 65
		9 -- 69
		9 -- 70
		9 -- 71
		9 -- 74
		9 -- 76
		9 -- 77
		9 -- 79
		9 -- 80
		9 -- 82
		9 -- 86
		9 -- 89
		9 -- 90
		9 -- 92
		9 -- 94
		9 -- 95
		9 -- 98
		10 -- 13
		10 -- 14
		10 -- 17
		10 -- 19
		10 -- 20
		10 -- 23
		10 -- 24
		10 -- 26
		10 -- 28
		10 -- 33
		10 -- 34
		10 -- 35
		10 -- 36
		10 -- 39
		10 -- 41
		10 -- 45
		10 -- 46
		10 -- 47
		10 -- 48
		10 -- 51
		10 -- 52
		10 -- 53
		10 -- 54
		10 -- 57
		10 -- 58
		10 -- 63
		10 -- 64
		10 -- 66
		10 -- 69
		10 -- 71
		10 -- 72
		10 -- 73
		10 -- 75
		10 -- 76
		10 -- 78
		10 -- 79
		10 -- 80
		10 -- 82
		10 -- 83
		10 -- 88
		10 -- 89
		10 -- 92
		10 -- 94
		10 -- 95
		10 -- 98
		11 -- 64
		11 -- 66
		11 -- 69
		11 -- 73
		11 -- 74
		11 -- 75
		11 -- 12
		11 -- 13
		11 -- 15
		11 -- 98
		11 -- 17
		11 -- 19
		11 -- 20
		11 -- 23
		11 -- 88
		11 -- 89
		11 -- 26
		11 -- 27
		11 -- 92
		11 -- 30
		11 -- 31
		11 -- 96
		11 -- 33
		11 -- 67
		11 -- 99
		11 -- 36
		11 -- 38
		11 -- 39
		11 -- 40
		11 -- 72
		11 -- 50
		11 -- 79
		11 -- 52
		11 -- 53
		11 -- 57
		11 -- 94
		11 -- 62
		12 -- 17
		12 -- 22
		12 -- 23
		12 -- 24
		12 -- 27
		12 -- 28
		12 -- 29
		12 -- 30
		12 -- 31
		12 -- 35
		12 -- 36
		12 -- 37
		12 -- 38
		12 -- 47
		12 -- 50
		12 -- 51
		12 -- 54
		12 -- 55
		12 -- 56
		12 -- 61
		12 -- 62
		12 -- 63
		12 -- 64
		12 -- 68
		12 -- 69
		12 -- 72
		12 -- 73
		12 -- 82
		12 -- 83
		12 -- 84
		12 -- 86
		12 -- 87
		12 -- 88
		12 -- 93
		12 -- 94
		12 -- 96
		13 -- 15
		13 -- 16
		13 -- 19
		13 -- 22
		13 -- 25
		13 -- 29
		13 -- 30
		13 -- 31
		13 -- 32
		13 -- 35
		13 -- 36
		13 -- 37
		13 -- 40
		13 -- 42
		13 -- 44
		13 -- 45
		13 -- 47
		13 -- 53
		13 -- 57
		13 -- 61
		13 -- 63
		13 -- 65
		13 -- 67
		13 -- 68
		13 -- 73
		13 -- 75
		13 -- 76
		13 -- 77
		13 -- 78
		13 -- 81
		13 -- 84
		13 -- 85
		13 -- 86
		13 -- 87
		13 -- 88
		13 -- 89
		13 -- 95
		13 -- 98
		14 -- 15
		14 -- 19
		14 -- 20
		14 -- 26
		14 -- 28
		14 -- 30
		14 -- 32
		14 -- 33
		14 -- 37
		14 -- 38
		14 -- 41
		14 -- 42
		14 -- 46
		14 -- 47
		14 -- 52
		14 -- 55
		14 -- 56
		14 -- 58
		14 -- 59
		14 -- 60
		14 -- 61
		14 -- 63
		14 -- 64
		14 -- 65
		14 -- 67
		14 -- 68
		14 -- 70
		14 -- 71
		14 -- 72
		14 -- 73
		14 -- 74
		14 -- 77
		14 -- 79
		14 -- 80
		14 -- 81
		14 -- 82
		14 -- 84
		14 -- 86
		14 -- 87
		14 -- 88
		14 -- 90
		14 -- 91
		14 -- 92
		14 -- 95
		14 -- 96
		14 -- 97
		14 -- 98
		14 -- 99
		15 -- 16
		15 -- 17
		15 -- 19
		15 -- 21
		15 -- 22
		15 -- 23
		15 -- 24
		15 -- 25
		15 -- 26
		15 -- 27
		15 -- 28
		15 -- 29
		15 -- 30
		15 -- 31
		15 -- 32
		15 -- 33
		15 -- 37
		15 -- 39
		15 -- 42
		15 -- 49
		15 -- 50
		15 -- 51
		15 -- 53
		15 -- 54
		15 -- 56
		15 -- 57
		15 -- 58
		15 -- 60
		15 -- 61
		15 -- 62
		15 -- 66
		15 -- 72
		15 -- 73
		15 -- 76
		15 -- 77
		15 -- 78
		15 -- 82
		15 -- 84
		15 -- 85
		15 -- 87
		15 -- 89
		15 -- 90
		15 -- 91
		15 -- 95
		15 -- 96
		15 -- 97
		15 -- 98
		16 -- 64
		16 -- 67
		16 -- 71
		16 -- 87
		16 -- 76
		16 -- 77
		16 -- 80
		16 -- 81
		16 -- 18
		16 -- 84
		16 -- 73
		16 -- 23
		16 -- 68
		16 -- 91
		16 -- 28
		16 -- 29
		16 -- 32
		16 -- 98
		16 -- 35
		16 -- 38
		16 -- 39
		16 -- 41
		16 -- 44
		16 -- 82
		16 -- 50
		16 -- 51
		16 -- 52
		16 -- 53
		16 -- 54
		16 -- 55
		16 -- 56
		16 -- 57
		16 -- 58
		16 -- 59
		16 -- 60
		16 -- 61
		16 -- 63
		17 -- 18
		17 -- 21
		17 -- 25
		17 -- 28
		17 -- 29
		17 -- 30
		17 -- 36
		17 -- 40
		17 -- 41
		17 -- 42
		17 -- 43
		17 -- 45
		17 -- 46
		17 -- 48
		17 -- 51
		17 -- 52
		17 -- 55
		17 -- 56
		17 -- 57
		17 -- 58
		17 -- 60
		17 -- 61
		17 -- 62
		17 -- 63
		17 -- 64
		17 -- 69
		17 -- 73
		17 -- 76
		17 -- 77
		17 -- 79
		17 -- 80
		17 -- 81
		17 -- 82
		17 -- 83
		17 -- 84
		17 -- 87
		17 -- 90
		17 -- 93
		17 -- 95
		17 -- 96
		17 -- 99
		18 -- 20
		18 -- 22
		18 -- 24
		18 -- 26
		18 -- 29
		18 -- 32
		18 -- 33
		18 -- 34
		18 -- 36
		18 -- 37
		18 -- 41
		18 -- 42
		18 -- 43
		18 -- 44
		18 -- 46
		18 -- 47
		18 -- 50
		18 -- 51
		18 -- 53
		18 -- 54
		18 -- 55
		18 -- 57
		18 -- 58
		18 -- 59
		18 -- 60
		18 -- 63
		18 -- 65
		18 -- 66
		18 -- 67
		18 -- 68
		18 -- 70
		18 -- 71
		18 -- 72
		18 -- 74
		18 -- 76
		18 -- 79
		18 -- 82
		18 -- 83
		18 -- 84
		18 -- 85
		18 -- 87
		18 -- 94
		18 -- 95
		18 -- 97
		18 -- 98
		18 -- 99
		19 -- 20
		19 -- 22
		19 -- 25
		19 -- 26
		19 -- 27
		19 -- 28
		19 -- 29
		19 -- 31
		19 -- 32
		19 -- 33
		19 -- 34
		19 -- 35
		19 -- 36
		19 -- 37
		19 -- 43
		19 -- 44
		19 -- 46
		19 -- 47
		19 -- 48
		19 -- 49
		19 -- 50
		19 -- 51
		19 -- 53
		19 -- 54
		19 -- 55
		19 -- 56
		19 -- 57
		19 -- 58
		19 -- 59
		19 -- 60
		19 -- 61
		19 -- 68
		19 -- 72
		19 -- 73
		19 -- 74
		19 -- 75
		19 -- 77
		19 -- 78
		19 -- 79
		19 -- 82
		19 -- 83
		19 -- 85
		19 -- 86
		19 -- 89
		19 -- 91
		19 -- 94
		19 -- 96
		19 -- 99
		20 -- 21
		20 -- 22
		20 -- 23
		20 -- 24
		20 -- 25
		20 -- 27
		20 -- 31
		20 -- 32
		20 -- 34
		20 -- 35
		20 -- 36
		20 -- 37
		20 -- 38
		20 -- 40
		20 -- 41
		20 -- 42
		20 -- 43
		20 -- 44
		20 -- 47
		20 -- 49
		20 -- 50
		20 -- 51
		20 -- 54
		20 -- 55
		20 -- 56
		20 -- 57
		20 -- 60
		20 -- 66
		20 -- 67
		20 -- 71
		20 -- 73
		20 -- 75
		20 -- 76
		20 -- 78
		20 -- 82
		20 -- 83
		20 -- 86
		20 -- 88
		20 -- 89
		20 -- 91
		20 -- 94
		20 -- 99
		21 -- 65
		21 -- 67
		21 -- 68
		21 -- 86
		21 -- 70
		21 -- 71
		21 -- 74
		21 -- 75
		21 -- 77
		21 -- 80
		21 -- 83
		21 -- 22
		21 -- 23
		21 -- 25
		21 -- 26
		21 -- 29
		21 -- 30
		21 -- 81
		21 -- 32
		21 -- 84
		21 -- 98
		21 -- 35
		21 -- 38
		21 -- 39
		21 -- 40
		21 -- 42
		21 -- 43
		21 -- 44
		21 -- 46
		21 -- 99
		21 -- 49
		21 -- 94
		21 -- 55
		21 -- 57
		21 -- 87
		21 -- 95
		21 -- 61
		21 -- 62
		22 -- 23
		22 -- 25
		22 -- 26
		22 -- 30
		22 -- 32
		22 -- 33
		22 -- 34
		22 -- 35
		22 -- 36
		22 -- 37
		22 -- 38
		22 -- 42
		22 -- 46
		22 -- 47
		22 -- 48
		22 -- 49
		22 -- 52
		22 -- 54
		22 -- 56
		22 -- 58
		22 -- 60
		22 -- 62
		22 -- 63
		22 -- 66
		22 -- 75
		22 -- 76
		22 -- 81
		22 -- 82
		22 -- 83
		22 -- 84
		22 -- 86
		22 -- 87
		22 -- 89
		22 -- 92
		22 -- 93
		22 -- 94
		22 -- 96
		23 -- 25
		23 -- 27
		23 -- 28
		23 -- 30
		23 -- 32
		23 -- 33
		23 -- 34
		23 -- 35
		23 -- 42
		23 -- 43
		23 -- 44
		23 -- 45
		23 -- 46
		23 -- 47
		23 -- 48
		23 -- 49
		23 -- 50
		23 -- 53
		23 -- 55
		23 -- 56
		23 -- 57
		23 -- 59
		23 -- 61
		23 -- 64
		23 -- 65
		23 -- 66
		23 -- 68
		23 -- 69
		23 -- 73
		23 -- 75
		23 -- 76
		23 -- 78
		23 -- 80
		23 -- 84
		23 -- 89
		23 -- 91
		23 -- 94
		23 -- 97
		23 -- 99
		24 -- 25
		24 -- 26
		24 -- 28
		24 -- 29
		24 -- 32
		24 -- 33
		24 -- 34
		24 -- 36
		24 -- 38
		24 -- 39
		24 -- 41
		24 -- 42
		24 -- 43
		24 -- 44
		24 -- 46
		24 -- 47
		24 -- 48
		24 -- 52
		24 -- 53
		24 -- 64
		24 -- 66
		24 -- 67
		24 -- 69
		24 -- 70
		24 -- 71
		24 -- 72
		24 -- 73
		24 -- 74
		24 -- 75
		24 -- 78
		24 -- 83
		24 -- 85
		24 -- 86
		24 -- 87
		24 -- 88
		24 -- 90
		24 -- 91
		24 -- 92
		24 -- 95
		24 -- 97
		24 -- 98
		24 -- 99
		25 -- 29
		25 -- 33
		25 -- 36
		25 -- 37
		25 -- 40
		25 -- 43
		25 -- 44
		25 -- 46
		25 -- 47
		25 -- 48
		25 -- 49
		25 -- 50
		25 -- 56
		25 -- 58
		25 -- 59
		25 -- 60
		25 -- 61
		25 -- 63
		25 -- 64
		25 -- 69
		25 -- 70
		25 -- 71
		25 -- 73
		25 -- 74
		25 -- 75
		25 -- 76
		25 -- 77
		25 -- 78
		25 -- 82
		25 -- 83
		25 -- 90
		25 -- 91
		25 -- 95
		25 -- 98
		25 -- 99
		26 -- 28
		26 -- 29
		26 -- 32
		26 -- 33
		26 -- 34
		26 -- 38
		26 -- 39
		26 -- 40
		26 -- 43
		26 -- 45
		26 -- 48
		26 -- 51
		26 -- 53
		26 -- 54
		26 -- 55
		26 -- 57
		26 -- 58
		26 -- 64
		26 -- 65
		26 -- 66
		26 -- 67
		26 -- 68
		26 -- 69
		26 -- 70
		26 -- 75
		26 -- 76
		26 -- 78
		26 -- 80
		26 -- 81
		26 -- 82
		26 -- 85
		26 -- 86
		26 -- 88
		26 -- 89
		26 -- 90
		26 -- 91
		26 -- 94
		26 -- 95
		26 -- 96
		26 -- 98
		27 -- 30
		27 -- 31
		27 -- 37
		27 -- 40
		27 -- 41
		27 -- 42
		27 -- 43
		27 -- 44
		27 -- 49
		27 -- 50
		27 -- 51
		27 -- 53
		27 -- 55
		27 -- 57
		27 -- 65
		27 -- 67
		27 -- 69
		27 -- 70
		27 -- 71
		27 -- 72
		27 -- 73
		27 -- 74
		27 -- 75
		27 -- 76
		27 -- 77
		27 -- 78
		27 -- 80
		27 -- 82
		27 -- 83
		27 -- 89
		27 -- 91
		27 -- 92
		27 -- 94
		27 -- 96
		27 -- 97
		28 -- 30
		28 -- 31
		28 -- 32
		28 -- 36
		28 -- 37
		28 -- 38
		28 -- 40
		28 -- 43
		28 -- 44
		28 -- 45
		28 -- 46
		28 -- 51
		28 -- 52
		28 -- 53
		28 -- 54
		28 -- 55
		28 -- 59
		28 -- 61
		28 -- 62
		28 -- 65
		28 -- 66
		28 -- 69
		28 -- 70
		28 -- 72
		28 -- 74
		28 -- 79
		28 -- 81
		28 -- 82
		28 -- 88
		28 -- 92
		28 -- 95
		28 -- 96
		28 -- 97
		28 -- 99
		29 -- 30
		29 -- 31
		29 -- 32
		29 -- 33
		29 -- 34
		29 -- 35
		29 -- 37
		29 -- 38
		29 -- 39
		29 -- 40
		29 -- 43
		29 -- 45
		29 -- 52
		29 -- 54
		29 -- 55
		29 -- 58
		29 -- 60
		29 -- 61
		29 -- 62
		29 -- 63
		29 -- 64
		29 -- 67
		29 -- 70
		29 -- 71
		29 -- 74
		29 -- 75
		29 -- 76
		29 -- 78
		29 -- 79
		29 -- 81
		29 -- 82
		29 -- 83
		29 -- 85
		29 -- 88
		29 -- 89
		29 -- 90
		29 -- 93
		29 -- 94
		29 -- 97
		30 -- 31
		30 -- 35
		30 -- 36
		30 -- 38
		30 -- 40
		30 -- 41
		30 -- 42
		30 -- 47
		30 -- 50
		30 -- 51
		30 -- 54
		30 -- 56
		30 -- 59
		30 -- 63
		30 -- 64
		30 -- 65
		30 -- 66
		30 -- 70
		30 -- 72
		30 -- 74
		30 -- 75
		30 -- 80
		30 -- 81
		30 -- 82
		30 -- 87
		30 -- 91
		30 -- 92
		31 -- 34
		31 -- 36
		31 -- 37
		31 -- 38
		31 -- 39
		31 -- 40
		31 -- 43
		31 -- 44
		31 -- 50
		31 -- 54
		31 -- 56
		31 -- 57
		31 -- 58
		31 -- 59
		31 -- 60
		31 -- 61
		31 -- 64
		31 -- 66
		31 -- 67
		31 -- 68
		31 -- 76
		31 -- 77
		31 -- 78
		31 -- 84
		31 -- 85
		31 -- 86
		31 -- 91
		31 -- 95
		31 -- 96
		31 -- 98
		32 -- 34
		32 -- 35
		32 -- 36
		32 -- 37
		32 -- 39
		32 -- 40
		32 -- 41
		32 -- 42
		32 -- 43
		32 -- 44
		32 -- 45
		32 -- 51
		32 -- 54
		32 -- 55
		32 -- 56
		32 -- 58
		32 -- 59
		32 -- 60
		32 -- 61
		32 -- 66
		32 -- 67
		32 -- 68
		32 -- 69
		32 -- 70
		32 -- 74
		32 -- 76
		32 -- 77
		32 -- 78
		32 -- 79
		32 -- 80
		32 -- 87
		32 -- 88
		32 -- 89
		32 -- 95
		32 -- 96
		32 -- 98
		33 -- 36
		33 -- 37
		33 -- 38
		33 -- 41
		33 -- 43
		33 -- 44
		33 -- 46
		33 -- 47
		33 -- 50
		33 -- 52
		33 -- 53
		33 -- 54
		33 -- 55
		33 -- 58
		33 -- 59
		33 -- 60
		33 -- 61
		33 -- 62
		33 -- 63
		33 -- 64
		33 -- 65
		33 -- 67
		33 -- 68
		33 -- 69
		33 -- 70
		33 -- 75
		33 -- 77
		33 -- 78
		33 -- 82
		33 -- 83
		33 -- 84
		33 -- 85
		33 -- 86
		33 -- 88
		33 -- 90
		33 -- 91
		33 -- 92
		33 -- 94
		33 -- 95
		34 -- 35
		34 -- 39
		34 -- 40
		34 -- 41
		34 -- 42
		34 -- 50
		34 -- 52
		34 -- 54
		34 -- 58
		34 -- 60
		34 -- 63
		34 -- 64
		34 -- 66
		34 -- 67
		34 -- 68
		34 -- 69
		34 -- 70
		34 -- 71
		34 -- 72
		34 -- 73
		34 -- 75
		34 -- 84
		34 -- 85
		34 -- 86
		34 -- 90
		34 -- 92
		34 -- 93
		34 -- 94
		34 -- 95
		34 -- 98
		35 -- 36
		35 -- 38
		35 -- 39
		35 -- 41
		35 -- 43
		35 -- 44
		35 -- 45
		35 -- 46
		35 -- 47
		35 -- 48
		35 -- 49
		35 -- 55
		35 -- 57
		35 -- 60
		35 -- 63
		35 -- 64
		35 -- 67
		35 -- 68
		35 -- 69
		35 -- 72
		35 -- 74
		35 -- 75
		35 -- 76
		35 -- 77
		35 -- 79
		35 -- 80
		35 -- 82
		35 -- 83
		35 -- 84
		35 -- 89
		35 -- 90
		35 -- 91
		35 -- 97
		36 -- 39
		36 -- 40
		36 -- 42
		36 -- 49
		36 -- 50
		36 -- 51
		36 -- 52
		36 -- 54
		36 -- 55
		36 -- 56
		36 -- 60
		36 -- 61
		36 -- 63
		36 -- 66
		36 -- 67
		36 -- 68
		36 -- 69
		36 -- 71
		36 -- 72
		36 -- 77
		36 -- 79
		36 -- 80
		36 -- 81
		36 -- 82
		36 -- 84
		36 -- 87
		36 -- 88
		36 -- 89
		36 -- 93
		36 -- 95
		36 -- 97
		36 -- 98
		37 -- 42
		37 -- 43
		37 -- 47
		37 -- 48
		37 -- 51
		37 -- 55
		37 -- 59
		37 -- 60
		37 -- 62
		37 -- 64
		37 -- 65
		37 -- 67
		37 -- 69
		37 -- 70
		37 -- 71
		37 -- 73
		37 -- 74
		37 -- 75
		37 -- 77
		37 -- 78
		37 -- 82
		37 -- 84
		37 -- 85
		37 -- 88
		37 -- 91
		37 -- 92
		37 -- 95
		37 -- 96
		37 -- 98
		38 -- 44
		38 -- 45
		38 -- 46
		38 -- 47
		38 -- 48
		38 -- 53
		38 -- 56
		38 -- 57
		38 -- 58
		38 -- 63
		38 -- 65
		38 -- 68
		38 -- 72
		38 -- 73
		38 -- 75
		38 -- 77
		38 -- 78
		38 -- 79
		38 -- 80
		38 -- 81
		38 -- 83
		38 -- 84
		38 -- 93
		38 -- 94
		38 -- 95
		38 -- 96
		38 -- 98
		38 -- 99
		39 -- 64
		39 -- 65
		39 -- 72
		39 -- 76
		39 -- 81
		39 -- 82
		39 -- 83
		39 -- 84
		39 -- 68
		39 -- 79
		39 -- 92
		39 -- 94
		39 -- 80
		39 -- 90
		39 -- 40
		39 -- 44
		39 -- 45
		39 -- 47
		39 -- 99
		39 -- 51
		39 -- 53
		39 -- 59
		39 -- 60
		39 -- 61
		39 -- 85
		40 -- 43
		40 -- 44
		40 -- 46
		40 -- 48
		40 -- 49
		40 -- 50
		40 -- 52
		40 -- 55
		40 -- 56
		40 -- 57
		40 -- 59
		40 -- 60
		40 -- 63
		40 -- 64
		40 -- 65
		40 -- 66
		40 -- 68
		40 -- 69
		40 -- 70
		40 -- 78
		40 -- 81
		40 -- 82
		40 -- 84
		40 -- 85
		40 -- 86
		40 -- 88
		40 -- 89
		40 -- 92
		40 -- 93
		40 -- 98
		41 -- 43
		41 -- 46
		41 -- 47
		41 -- 48
		41 -- 50
		41 -- 51
		41 -- 52
		41 -- 53
		41 -- 54
		41 -- 55
		41 -- 57
		41 -- 59
		41 -- 60
		41 -- 62
		41 -- 63
		41 -- 64
		41 -- 65
		41 -- 69
		41 -- 71
		41 -- 75
		41 -- 78
		41 -- 79
		41 -- 80
		41 -- 81
		41 -- 85
		41 -- 86
		41 -- 87
		41 -- 88
		41 -- 90
		41 -- 91
		41 -- 93
		41 -- 94
		41 -- 96
		41 -- 99
		42 -- 65
		42 -- 70
		42 -- 71
		42 -- 72
		42 -- 73
		42 -- 80
		42 -- 92
		42 -- 78
		42 -- 66
		42 -- 43
		42 -- 44
		42 -- 96
		42 -- 48
		42 -- 49
		42 -- 52
		42 -- 57
		42 -- 58
		42 -- 63
		43 -- 44
		43 -- 45
		43 -- 46
		43 -- 49
		43 -- 53
		43 -- 54
		43 -- 56
		43 -- 58
		43 -- 59
		43 -- 60
		43 -- 61
		43 -- 63
		43 -- 64
		43 -- 65
		43 -- 72
		43 -- 74
		43 -- 77
		43 -- 81
		43 -- 83
		43 -- 89
		43 -- 90
		43 -- 92
		43 -- 94
		43 -- 95
		44 -- 52
		44 -- 53
		44 -- 55
		44 -- 60
		44 -- 61
		44 -- 62
		44 -- 63
		44 -- 64
		44 -- 68
		44 -- 71
		44 -- 72
		44 -- 73
		44 -- 78
		44 -- 79
		44 -- 82
		44 -- 83
		44 -- 84
		44 -- 85
		44 -- 89
		44 -- 90
		44 -- 91
		44 -- 92
		44 -- 94
		44 -- 99
		45 -- 96
		45 -- 67
		45 -- 69
		45 -- 87
		45 -- 76
		45 -- 78
		45 -- 82
		45 -- 85
		45 -- 86
		45 -- 91
		45 -- 94
		45 -- 81
		45 -- 93
		45 -- 46
		45 -- 47
		45 -- 72
		45 -- 51
		45 -- 74
		45 -- 56
		45 -- 57
		45 -- 58
		45 -- 95
		45 -- 60
		45 -- 61
		46 -- 47
		46 -- 51
		46 -- 52
		46 -- 56
		46 -- 57
		46 -- 64
		46 -- 65
		46 -- 67
		46 -- 69
		46 -- 70
		46 -- 72
		46 -- 73
		46 -- 79
		46 -- 80
		46 -- 82
		46 -- 84
		46 -- 85
		46 -- 86
		46 -- 87
		46 -- 88
		46 -- 89
		46 -- 93
		46 -- 96
		46 -- 97
		46 -- 98
		47 -- 50
		47 -- 52
		47 -- 56
		47 -- 58
		47 -- 59
		47 -- 60
		47 -- 67
		47 -- 68
		47 -- 69
		47 -- 70
		47 -- 74
		47 -- 76
		47 -- 78
		47 -- 80
		47 -- 81
		47 -- 83
		47 -- 84
		47 -- 86
		47 -- 92
		47 -- 93
		47 -- 96
		47 -- 98
		47 -- 99
		48 -- 49
		48 -- 50
		48 -- 52
		48 -- 54
		48 -- 55
		48 -- 56
		48 -- 58
		48 -- 59
		48 -- 61
		48 -- 64
		48 -- 67
		48 -- 68
		48 -- 71
		48 -- 72
		48 -- 73
		48 -- 74
		48 -- 76
		48 -- 78
		48 -- 79
		48 -- 80
		48 -- 81
		48 -- 82
		48 -- 84
		48 -- 85
		48 -- 87
		48 -- 89
		48 -- 90
		48 -- 95
		48 -- 96
		48 -- 97
		48 -- 99
		49 -- 65
		49 -- 66
		49 -- 74
		49 -- 75
		49 -- 78
		49 -- 80
		49 -- 90
		49 -- 92
		49 -- 93
		49 -- 95
		49 -- 98
		49 -- 99
		49 -- 91
		49 -- 51
		49 -- 53
		49 -- 54
		49 -- 55
		49 -- 56
		49 -- 57
		49 -- 87
		49 -- 61
		49 -- 62
		49 -- 85
		50 -- 66
		50 -- 72
		50 -- 74
		50 -- 81
		50 -- 85
		50 -- 86
		50 -- 88
		50 -- 90
		50 -- 93
		50 -- 87
		50 -- 95
		50 -- 79
		50 -- 83
		50 -- 58
		50 -- 59
		50 -- 60
		50 -- 62
		50 -- 63
		51 -- 53
		51 -- 54
		51 -- 55
		51 -- 57
		51 -- 60
		51 -- 61
		51 -- 63
		51 -- 65
		51 -- 66
		51 -- 71
		51 -- 73
		51 -- 74
		51 -- 75
		51 -- 78
		51 -- 79
		51 -- 83
		51 -- 87
		51 -- 91
		51 -- 96
		51 -- 98
		51 -- 99
		52 -- 54
		52 -- 56
		52 -- 58
		52 -- 59
		52 -- 60
		52 -- 61
		52 -- 62
		52 -- 64
		52 -- 65
		52 -- 66
		52 -- 68
		52 -- 69
		52 -- 71
		52 -- 72
		52 -- 75
		52 -- 76
		52 -- 79
		52 -- 80
		52 -- 81
		52 -- 82
		52 -- 89
		52 -- 90
		52 -- 91
		52 -- 92
		52 -- 95
		52 -- 97
		52 -- 99
		53 -- 55
		53 -- 56
		53 -- 58
		53 -- 59
		53 -- 60
		53 -- 61
		53 -- 63
		53 -- 64
		53 -- 66
		53 -- 67
		53 -- 69
		53 -- 72
		53 -- 73
		53 -- 76
		53 -- 77
		53 -- 83
		53 -- 84
		53 -- 85
		53 -- 87
		53 -- 91
		53 -- 92
		53 -- 93
		53 -- 94
		53 -- 95
		53 -- 97
		53 -- 99
		54 -- 55
		54 -- 56
		54 -- 58
		54 -- 61
		54 -- 66
		54 -- 69
		54 -- 70
		54 -- 71
		54 -- 73
		54 -- 75
		54 -- 76
		54 -- 79
		54 -- 80
		54 -- 82
		54 -- 83
		54 -- 86
		54 -- 87
		54 -- 88
		54 -- 93
		54 -- 95
		54 -- 99
		55 -- 57
		55 -- 60
		55 -- 61
		55 -- 63
		55 -- 64
		55 -- 65
		55 -- 67
		55 -- 69
		55 -- 71
		55 -- 72
		55 -- 74
		55 -- 80
		55 -- 85
		55 -- 86
		55 -- 87
		55 -- 88
		55 -- 91
		55 -- 93
		55 -- 95
		55 -- 99
		56 -- 57
		56 -- 58
		56 -- 59
		56 -- 60
		56 -- 61
		56 -- 62
		56 -- 63
		56 -- 65
		56 -- 67
		56 -- 68
		56 -- 69
		56 -- 72
		56 -- 74
		56 -- 77
		56 -- 80
		56 -- 81
		56 -- 82
		56 -- 87
		56 -- 88
		56 -- 90
		56 -- 94
		56 -- 96
		57 -- 60
		57 -- 65
		57 -- 68
		57 -- 69
		57 -- 70
		57 -- 73
		57 -- 75
		57 -- 76
		57 -- 77
		57 -- 78
		57 -- 80
		57 -- 85
		57 -- 86
		57 -- 88
		57 -- 90
		57 -- 93
		57 -- 94
		57 -- 98
		57 -- 99
		58 -- 60
		58 -- 61
		58 -- 62
		58 -- 63
		58 -- 65
		58 -- 70
		58 -- 75
		58 -- 76
		58 -- 81
		58 -- 82
		58 -- 83
		58 -- 91
		58 -- 93
		58 -- 95
		58 -- 96
		58 -- 98
		59 -- 60
		59 -- 61
		59 -- 62
		59 -- 69
		59 -- 72
		59 -- 75
		59 -- 77
		59 -- 78
		59 -- 79
		59 -- 80
		59 -- 81
		59 -- 83
		59 -- 85
		59 -- 86
		59 -- 88
		59 -- 90
		59 -- 92
		59 -- 93
		59 -- 94
		59 -- 95
		59 -- 96
		59 -- 97
		59 -- 99
		60 -- 61
		60 -- 64
		60 -- 65
		60 -- 68
		60 -- 70
		60 -- 76
		60 -- 78
		60 -- 80
		60 -- 82
		60 -- 83
		60 -- 85
		60 -- 88
		60 -- 89
		60 -- 92
		60 -- 94
		60 -- 99
		61 -- 62
		61 -- 66
		61 -- 68
		61 -- 69
		61 -- 80
		61 -- 88
		61 -- 89
		61 -- 94
		61 -- 96
		61 -- 98
		62 -- 73
		62 -- 66
		62 -- 92
		62 -- 82
		62 -- 99
		62 -- 89
		62 -- 72
		62 -- 90
		62 -- 79
		62 -- 95
		62 -- 96
		62 -- 98
		62 -- 91
		63 -- 64
		63 -- 65
		63 -- 66
		63 -- 67
		63 -- 70
		63 -- 73
		63 -- 75
		63 -- 76
		63 -- 79
		63 -- 81
		63 -- 83
		63 -- 85
		63 -- 88
		63 -- 89
		63 -- 91
		63 -- 92
		63 -- 93
		63 -- 94
		63 -- 95
		63 -- 97
		63 -- 98
		63 -- 99
		64 -- 67
		64 -- 68
		64 -- 69
		64 -- 71
		64 -- 72
		64 -- 74
		64 -- 76
		64 -- 77
		64 -- 78
		64 -- 79
		64 -- 81
		64 -- 87
		64 -- 88
		64 -- 90
		64 -- 96
		64 -- 99
		65 -- 66
		65 -- 69
		65 -- 70
		65 -- 72
		65 -- 73
		65 -- 76
		65 -- 77
		65 -- 78
		65 -- 79
		65 -- 81
		65 -- 86
		65 -- 90
		65 -- 91
		65 -- 95
		65 -- 96
		65 -- 98
		66 -- 68
		66 -- 72
		66 -- 74
		66 -- 75
		66 -- 76
		66 -- 77
		66 -- 81
		66 -- 84
		66 -- 87
		66 -- 89
		66 -- 93
		66 -- 94
		66 -- 95
		66 -- 96
		66 -- 97
		66 -- 98
		67 -- 68
		67 -- 69
		67 -- 70
		67 -- 71
		67 -- 74
		67 -- 79
		67 -- 84
		67 -- 88
		67 -- 89
		67 -- 90
		67 -- 96
		67 -- 97
		67 -- 98
		68 -- 69
		68 -- 71
		68 -- 72
		68 -- 73
		68 -- 74
		68 -- 76
		68 -- 81
		68 -- 82
		68 -- 85
		68 -- 86
		68 -- 88
		68 -- 89
		68 -- 90
		68 -- 92
		68 -- 93
		68 -- 96
		68 -- 98
		68 -- 99
		69 -- 71
		69 -- 72
		69 -- 75
		69 -- 76
		69 -- 77
		69 -- 80
		69 -- 83
		69 -- 86
		69 -- 87
		69 -- 88
		69 -- 89
		69 -- 90
		69 -- 91
		69 -- 92
		69 -- 93
		69 -- 94
		69 -- 95
		69 -- 96
		69 -- 97
		69 -- 99
		70 -- 71
		70 -- 72
		70 -- 75
		70 -- 76
		70 -- 77
		70 -- 78
		70 -- 79
		70 -- 82
		70 -- 83
		70 -- 84
		70 -- 86
		70 -- 87
		70 -- 88
		70 -- 89
		70 -- 90
		70 -- 92
		70 -- 94
		70 -- 97
		70 -- 99
		71 -- 72
		71 -- 74
		71 -- 76
		71 -- 77
		71 -- 78
		71 -- 79
		71 -- 80
		71 -- 83
		71 -- 85
		71 -- 87
		71 -- 93
		71 -- 94
		71 -- 95
		71 -- 96
		71 -- 99
		72 -- 73
		72 -- 74
		72 -- 78
		72 -- 80
		72 -- 83
		72 -- 84
		72 -- 85
		72 -- 86
		72 -- 87
		72 -- 88
		72 -- 89
		72 -- 90
		72 -- 91
		72 -- 92
		72 -- 93
		72 -- 94
		72 -- 95
		72 -- 98
		72 -- 99
		73 -- 74
		73 -- 75
		73 -- 78
		73 -- 80
		73 -- 81
		73 -- 84
		73 -- 87
		73 -- 90
		73 -- 91
		73 -- 98
		73 -- 99
		74 -- 80
		74 -- 88
		74 -- 87
		74 -- 82
		74 -- 93
		74 -- 85
		75 -- 76
		75 -- 77
		75 -- 79
		75 -- 81
		75 -- 82
		75 -- 85
		75 -- 89
		75 -- 90
		75 -- 91
		75 -- 93
		75 -- 94
		75 -- 95
		75 -- 96
		75 -- 98
		75 -- 99
		76 -- 77
		76 -- 80
		76 -- 84
		76 -- 86
		76 -- 90
		76 -- 91
		76 -- 93
		76 -- 95
		76 -- 96
		76 -- 98
		76 -- 99
		77 -- 78
		77 -- 82
		77 -- 83
		77 -- 84
		77 -- 87
		77 -- 91
		77 -- 94
		77 -- 96
		77 -- 97
		77 -- 98
		77 -- 99
		78 -- 80
		78 -- 82
		78 -- 83
		78 -- 84
		78 -- 86
		78 -- 88
		78 -- 91
		78 -- 92
		78 -- 93
		78 -- 94
		78 -- 96
		79 -- 81
		79 -- 83
		79 -- 85
		79 -- 87
		79 -- 88
		79 -- 90
		79 -- 91
		79 -- 93
		79 -- 95
		79 -- 96
		79 -- 97
		79 -- 99
		80 -- 81
		80 -- 82
		80 -- 83
		80 -- 85
		80 -- 87
		80 -- 91
		80 -- 92
		80 -- 93
		80 -- 95
		80 -- 96
		80 -- 98
		80 -- 99
		81 -- 82
		81 -- 84
		81 -- 85
		81 -- 90
		81 -- 91
		81 -- 92
		81 -- 95
		81 -- 96
		81 -- 97
		81 -- 98
		82 -- 83
		82 -- 86
		82 -- 88
		82 -- 89
		82 -- 91
		82 -- 93
		82 -- 95
		82 -- 99
		83 -- 85
		83 -- 87
		83 -- 91
		83 -- 92
		83 -- 93
		83 -- 98
		83 -- 99
		84 -- 87
		84 -- 88
		84 -- 89
		84 -- 90
		84 -- 91
		84 -- 92
		84 -- 94
		84 -- 95
		85 -- 87
		85 -- 88
		85 -- 94
		85 -- 96
		85 -- 99
		86 -- 90
		86 -- 91
		86 -- 92
		86 -- 93
		86 -- 94
		86 -- 95
		86 -- 96
		87 -- 88
		87 -- 89
		87 -- 90
		87 -- 91
		87 -- 93
		87 -- 94
		87 -- 95
		87 -- 96
		87 -- 97
		88 -- 89
		88 -- 90
		88 -- 91
		88 -- 92
		88 -- 94
		88 -- 97
		88 -- 99
		89 -- 96
		89 -- 92
		89 -- 97
		89 -- 93
		90 -- 93
		90 -- 94
		90 -- 96
		90 -- 98
		91 -- 92
		91 -- 97
		91 -- 99
		92 -- 97
		92 -- 98
		92 -- 99
		93 -- 95
		93 -- 97
		93 -- 98
		93 -- 99
		94 -- 96
		94 -- 98
		95 -- 97
		95 -- 98
		96 -- 97
		97 -- 98
}