100
248 277
107 79
29 174
284 294
32 109
123 54
177 235
208 211
67 17
216 217
147 169
50 64
155 250
60 189
224 105
76 225
190 21
15 52
73 151
9 188
153 244
216 190
140 134
139 221
59 61
116 18
243 225
295 218
57 257
264 235
51 172
32 168
64 277
243 72
167 71
99 90
284 263
88 265
90 140
229 69
199 222
36 29
168 44
293 165
284 101
155 152
238 102
231 165
252 35
17 161
171 77
136 263
235 105
189 167
9 286
22 292
37 259
72 190
36 67
175 60
92 293
79 246
69 38
178 236
267 231
81 10
278 140
70 49
104 100
119 204
197 188
273 15
249 270
262 12
20 3
188 210
283 215
257 151
252 160
263 135
112 42
117 18
217 147
238 207
46 54
81 247
137 250
135 114
109 4
175 71
22 39
25 67
2 84
90 61
193 147
224 184
197 233
109 98
98 298
110 163
0 6
0 7
0 10
0 11
0 12
0 15
0 16
0 17
0 19
0 20
0 23
0 24
0 25
0 26
0 27
0 30
0 33
0 40
0 41
0 43
0 44
0 45
0 46
0 50
0 55
0 57
0 61
0 62
0 64
0 66
0 67
0 69
0 71
0 72
0 73
0 75
0 77
0 79
0 81
0 90
0 91
0 92
0 93
0 96
0 99
1 3
1 4
1 6
1 8
1 9
1 11
1 13
1 14
1 17
1 19
1 20
1 22
1 23
1 26
1 27
1 30
1 31
1 36
1 39
1 40
1 41
1 42
1 45
1 48
1 49
1 51
1 55
1 58
1 60
1 65
1 66
1 67
1 68
1 69
1 71
1 73
1 74
1 76
1 80
1 82
1 83
1 84
1 87
1 91
1 92
1 93
1 94
1 96
2 8
2 9
2 11
2 12
2 14
2 16
2 17
2 19
2 21
2 22
2 24
2 25
2 32
2 33
2 35
2 36
2 39
2 40
2 42
2 46
2 50
2 51
2 56
2 59
2 60
2 61
2 62
2 64
2 65
2 67
2 68
2 69
2 71
2 72
2 75
2 78
2 82
2 86
2 89
2 91
2 92
2 94
2 95
2 96
2 98
3 5
3 6
3 7
3 10
3 12
3 16
3 17
3 18
3 20
3 21
3 23
3 25
3 27
3 32
3 33
3 34
3 37
3 38
3 39
3 41
3 43
3 45
3 51
3 52
3 54
3 57
3 58
3 59
3 60
3 64
3 67
3 69
3 74
3 75
3 77
3 78
3 79
3 80
3 81
3 84
3 85
3 86
3 88
3 89
3 90
3 93
3 94
3 96
3 97
3 98
4 5
4 6
4 7
4 11
4 12
4 13
4 14
4 16
4 18
4 19
4 20
4 21
4 22
4 23
4 24
4 25
4 26
4 33
4 39
4 40
4 41
4 42
4 43
4 44
4 47
4 49
4 55
4 57
4 58
4 64
4 65
4 67
4 69
4 75
4 76
4 77
4 78
4 84
4 85
4 87
4 90
4 91
4 92
4 96
4 97
5 7
5 14
5 15
5 16
5 17
5 20
5 23
5 24
5 28
5 29
5 30
5 31
5 33
5 34
5 35
5 36
5 37
5 38
5 39
5 43
5 44
5 45
5 46
5 47
5 48
5 49
5 51
5 52
5 53
5 57
5 58
5 60
5 62
5 65
5 66
5 67
5 68
5 69
5 70
5 72
5 75
5 80
5 81
5 82
5 83
5 84
5 87
5 89
5 90
5 92
5 93
5 94
5 98
6 7
6 10
6 11
6 13
6 15
6 19
6 20
6 23
6 25
6 27
6 28
6 29
6 30
6 32
6 35
6 36
6 37
6 38
6 39
6 43
6 45
6 46
6 47
6 49
6 50
6 52
6 53
6 55
6 56
6 57
6 61
6 66
6 69
6 71
6 72
6 79
6 82
6 83
6 87
6 89
6 91
6 99
7 8
7 9
7 11
7 12
7 13
7 14
7 19
7 20
7 22
7 23
7 24
7 26
7 29
7 30
7 31
7 33
7 34
7 36
7 37
7 39
7 42
7 43
7 48
7 51
7 52
7 55
7 56
7 59
7 69
7 72
7 74
7 76
7 79
7 83
7 86
7 87
7 88
7 90
7 93
7 94
7 98
7 99
8 10
8 11
8 12
8 13
8 14
8 17
8 18
8 19
8 22
8 27
8 28
8 29
8 30
8 32
8 33
8 34
8 35
8 37
8 38
8 40
8 42
8 45
8 46
8 48
8 50
8 51
8 52
8 54
8 55
8 57
8 58
8 59
8 61
8 62
8 65
8 67
8 68
8 71
8 72
8 76
8 79
8 80
8 81
8 82
8 84
8 85
8 86
8 87
8 94
8 96
8 97
8 98
8 99
9 10
9 11
9 14
9 15
9 16
9 19
9 21
9 24
9 27
9 28
9 30
9 31
9 32
9 39
9 41
9 42
9 46
9 48
9 49
9 50
9 51
9 52
9 55
9 56
9 58
9 60
9 62
9 64
9 67
9 69
9 74
9 76
9 77
9 79
9 80
9 81
9 82
9 83
9 85
9 86
9 87
9 88
9 89
9 90
9 94
9 95
9 96
10 12
10 15
10 16
10 20
10 21
10 22
10 23
10 26
10 29
10 31
10 32
10 34
10 35
10 37
10 38
10 41
10 42
10 44
10 46
10 52
10 54
10 57
10 58
10 64
10 67
10 68
10 70
10 71
10 74
10 77
10 78
10 80
10 81
10 84
10 85
10 89
10 94
10 96
10 97
11 14
11 18
11 19
11 20
11 22
11 23
11 24
11 25
11 26
11 30
11 31
11 32
11 33
11 34
11 35
11 38
11 41
11 42
11 46
11 47
11 48
11 49
11 52
11 53
11 54
11 59
11 60
11 62
11 63
11 64
11 68
11 70
11 81
11 82
11 83
11 84
11 85
11 87
11 90
11 91
11 92
11 94
11 95
11 98
12 13
12 16
12 18
12 22
12 24
12 26
12 27
12 28
12 31
12 32
12 33
12 34
12 37
12 40
12 43
12 44
12 45
12 50
12 52
12 54
12 55
12 56
12 57
12 58
12 60
12 61
12 62
12 64
12 65
12 67
12 68
12 69
12 70
12 76
12 77
12 81
12 83
12 86
12 88
12 92
12 94
12 95
12 96
12 97
12 98
13 14
13 15
13 18
13 19
13 21
13 22
13 26
13 28
13 30
13 31
13 32
13 34
13 35
13 36
13 37
13 40
13 41
13 46
13 49
13 52
13 54
13 56
13 57
13 58
13 59
13 60
13 61
13 63
13 67
13 70
13 71
13 73
13 74
13 76
13 81
13 84
13 85
13 86
13 89
13 92
13 93
13 96
13 97
13 99
14 15
14 18
14 19
14 22
14 24
14 25
14 26
14 27
14 28
14 31
14 34
14 37
14 38
14 39
14 40
14 41
14 42
14 43
14 45
14 48
14 49
14 50
14 53
14 54
14 56
14 57
14 58
14 60
14 64
14 67
14 71
14 72
14 74
14 75
14 76
14 77
14 79
14 80
14 82
14 83
14 86
14 89
14 90
14 91
14 94
14 97
14 98
14 99
15 16
15 17
15 20
15 23
15 24
15 26
15 27
15 29
15 32
15 34
15 35
15 37
15 41
15 42
15 44
15 45
15 51
15 52
15 54
15 56
15 57
15 61
15 62
15 63
15 67
15 69
15 70
15 71
15 72
15 75
15 77
15 78
15 81
15 83
15 84
15 90
15 91
15 92
15 93
15 94
15 95
15 98
15 99
16 17
16 19
16 20
16 21
16 22
16 24
16 26
16 27
16 28
16 31
16 32
16 34
16 36
16 41
16 42
16 44
16 46
16 49
16 50
16 53
16 56
16 57
16 61
16 62
16 63
16 64
16 67
16 69
16 71
16 73
16 74
16 75
16 77
16 80
16 84
16 85
16 86
16 87
16 93
16 95
16 98
17 19
17 20
17 21
17 22
17 24
17 28
17 30
17 31
17 32
17 34
17 36
17 46
17 47
17 48
17 49
17 53
17 54
17 55
17 56
17 57
17 59
17 61
17 62
17 63
17 64
17 65
17 67
17 72
17 75
17 79
17 82
17 83
17 85
17 87
17 88
17 97
18 65
18 98
18 70
18 71
18 76
18 67
18 84
18 78
18 88
18 25
18 27
18 96
18 97
18 34
18 35
18 36
18 85
18 43
18 45
18 48
18 72
18 91
18 83
18 53
18 99
18 55
18 58
18 59
18 61
18 62
18 63
19 21
19 25
19 26
19 27
19 29
19 30
19 37
19 38
19 39
19 41
19 44
19 47
19 48
19 49
19 52
19 53
19 55
19 58
19 59
19 60
19 61
19 63
19 69
19 70
19 71
19 72
19 75
19 77
19 80
19 81
19 82
19 83
19 84
19 86
19 88
19 91
19 92
19 93
19 94
19 99
20 21
20 22
20 23
20 24
20 26
20 27
20 29
20 31
20 32
20 35
20 36
20 37
20 39
20 40
20 41
20 42
20 43
20 46
20 47
20 49
20 50
20 52
20 53
20 55
20 56
20 57
20 58
20 60
20 61
20 63
20 66
20 67
20 68
20 74
20 75
20 76
20 77
20 78
20 79
20 81
20 83
20 85
20 86
20 87
20 89
20 91
20 95
21 24
21 25
21 26
21 30
21 31
21 34
21 40
21 42
21 43
21 50
21 52
21 54
21 57
21 58
21 60
21 62
21 64
21 65
21 67
21 72
21 75
21 78
21 79
21 80
21 81
21 82
21 83
21 84
21 87
21 88
21 90
21 92
21 93
21 94
21 98
22 25
22 28
22 29
22 32
22 33
22 34
22 35
22 37
22 41
22 42
22 43
22 45
22 46
22 49
22 50
22 51
22 53
22 55
22 56
22 58
22 59
22 60
22 63
22 65
22 66
22 67
22 71
22 72
22 74
22 76
22 77
22 78
22 79
22 80
22 81
22 82
22 83
22 84
22 85
22 87
22 88
22 91
22 93
22 98
22 99
23 24
23 26
23 28
23 32
23 35
23 36
23 37
23 39
23 40
23 42
23 43
23 44
23 46
23 48
23 50
23 53
23 55
23 56
23 58
23 59
23 60
23 61
23 64
23 66
23 67
23 70
23 72
23 73
23 74
23 75
23 76
23 78
23 80
23 81
23 86
23 87
23 88
23 89
23 90
23 91
23 92
23 93
23 95
23 96
23 97
23 99
24 26
24 29
24 30
24 32
24 34
24 36
24 37
24 39
24 40
24 41
24 42
24 44
24 48
24 49
24 50
24 51
24 56
24 58
24 59
24 61
24 65
24 66
24 68
24 69
24 70
24 73
24 74
24 75
24 76
24 78
24 81
24 82
24 83
24 86
24 87
24 91
24 92
24 94
24 95
24 96
24 97
24 98
24 99
25 26
25 30
25 31
25 32
25 33
25 34
25 35
25 40
25 43
25 45
25 58
25 59
25 60
25 61
25 62
25 64
25 68
25 69
25 71
25 74
25 75
25 78
25 83
25 85
25 86
25 88
25 89
25 91
25 93
25 94
25 95
25 96
25 97
26 27
26 29
26 31
26 34
26 36
26 37
26 38
26 42
26 44
26 46
26 49
26 50
26 52
26 55
26 57
26 58
26 59
26 60
26 61
26 62
26 66
26 68
26 72
26 73
26 76
26 77
26 78
26 81
26 85
26 87
26 89
26 90
26 92
26 94
26 95
27 28
27 30
27 32
27 33
27 35
27 36
27 37
27 38
27 39
27 41
27 44
27 47
27 48
27 49
27 50
27 52
27 53
27 55
27 58
27 63
27 65
27 66
27 68
27 71
27 72
27 74
27 75
27 77
27 79
27 84
27 87
27 89
27 90
27 91
27 92
27 99
28 30
28 33
28 34
28 35
28 36
28 38
28 39
28 40
28 43
28 45
28 46
28 47
28 48
28 51
28 53
28 54
28 57
28 59
28 61
28 62
28 64
28 65
28 66
28 68
28 69
28 72
28 75
28 76
28 77
28 82
28 84
28 85
28 89
28 90
28 92
28 94
28 97
28 98
28 99
29 64
29 96
29 66
29 71
29 76
29 77
29 78
29 74
29 88
29 89
29 91
29 30
29 95
29 32
29 80
29 34
29 35
29 36
29 37
29 39
29 40
29 42
29 43
29 46
29 99
29 94
29 52
29 53
29 56
29 84
29 61
29 63
30 33
30 35
30 36
30 37
30 40
30 42
30 43
30 45
30 46
30 48
30 49
30 51
30 53
30 54
30 55
30 63
30 65
30 66
30 67
30 69
30 71
30 76
30 77
30 80
30 81
30 86
30 90
30 91
30 92
30 96
30 97
31 32
31 34
31 35
31 37
31 41
31 44
31 45
31 46
31 49
31 50
31 51
31 55
31 57
31 58
31 60
31 61
31 62
31 64
31 65
31 66
31 67
31 71
31 74
31 76
31 78
31 79
31 80
31 81
31 85
31 86
31 88
31 89
31 91
31 92
31 93
31 95
31 96
31 97
31 98
32 34
32 35
32 36
32 39
32 40
32 43
32 44
32 48
32 51
32 52
32 54
32 58
32 59
32 65
32 66
32 67
32 69
32 70
32 71
32 73
32 74
32 76
32 78
32 82
32 86
32 89
32 90
32 91
32 97
32 99
33 65
33 76
33 74
33 77
33 80
33 67
33 85
33 89
33 88
33 71
33 93
33 35
33 37
33 38
33 39
33 43
33 44
33 45
33 47
33 50
33 51
33 52
33 83
33 59
33 61
33 86
33 63
34 39
34 41
34 42
34 46
34 47
34 49
34 50
34 52
34 53
34 54
34 55
34 56
34 58
34 59
34 60
34 63
34 64
34 67
34 68
34 70
34 72
34 73
34 77
34 79
34 80
34 82
34 83
34 84
34 88
34 89
34 90
34 91
34 94
34 95
34 96
34 97
34 98
35 37
35 38
35 39
35 41
35 42
35 43
35 45
35 46
35 47
35 49
35 51
35 52
35 53
35 54
35 55
35 56
35 59
35 60
35 61
35 63
35 64
35 65
35 66
35 68
35 70
35 72
35 74
35 75
35 80
35 81
35 85
35 88
35 90
35 95
35 96
35 98
36 37
36 38
36 42
36 43
36 45
36 46
36 51
36 54
36 55
36 57
36 59
36 60
36 61
36 68
36 69
36 71
36 72
36 73
36 75
36 77
36 83
36 84
36 87
36 88
36 89
36 93
37 38
37 39
37 43
37 44
37 46
37 49
37 50
37 51
37 55
37 56
37 57
37 59
37 64
37 67
37 68
37 70
37 72
37 74
37 76
37 77
37 79
37 80
37 82
37 84
37 85
37 86
37 91
37 93
37 95
37 96
37 97
37 98
38 41
38 43
38 47
38 48
38 50
38 51
38 52
38 54
38 55
38 57
38 58
38 60
38 63
38 65
38 66
38 67
38 68
38 70
38 73
38 75
38 76
38 77
38 78
38 80
38 82
38 83
38 84
38 85
38 87
38 90
38 92
38 93
38 96
38 97
38 98
39 40
39 41
39 43
39 44
39 46
39 48
39 50
39 52
39 56
39 57
39 60
39 61
39 62
39 65
39 66
39 67
39 68
39 70
39 71
39 73
39 76
39 78
39 80
39 82
39 84
39 85
39 86
39 90
39 93
39 97
39 98
40 41
40 42
40 43
40 44
40 46
40 47
40 48
40 52
40 53
40 54
40 55
40 56
40 57
40 60
40 61
40 62
40 66
40 67
40 68
40 72
40 78
40 80
40 82
40 84
40 85
40 86
40 87
40 88
40 89
40 98
40 99
41 42
41 43
41 46
41 48
41 50
41 53
41 56
41 57
41 60
41 61
41 64
41 66
41 69
41 72
41 75
41 79
41 85
41 87
41 88
41 89
41 90
41 92
41 93
41 95
41 96
41 97
42 46
42 51
42 56
42 58
42 59
42 62
42 65
42 67
42 70
42 71
42 73
42 74
42 75
42 78
42 79
42 80
42 83
42 84
42 85
42 87
42 88
42 90
42 96
42 98
42 99
43 44
43 45
43 46
43 47
43 48
43 49
43 53
43 56
43 59
43 61
43 64
43 65
43 67
43 69
43 70
43 71
43 72
43 76
43 78
43 79
43 80
43 81
43 82
43 84
43 85
43 88
43 89
43 90
43 93
43 96
43 98
44 64
44 66
44 67
44 65
44 73
44 81
44 68
44 92
44 93
44 88
44 98
44 99
44 45
44 46
44 48
44 76
44 51
44 94
44 54
44 55
44 57
44 58
44 61
44 63
45 49
45 51
45 53
45 54
45 55
45 56
45 59
45 62
45 63
45 64
45 65
45 66
45 67
45 70
45 72
45 75
45 76
45 77
45 78
45 79
45 81
45 82
45 84
45 92
45 93
45 94
45 96
45 97
45 99
46 47
46 51
46 53
46 54
46 57
46 61
46 63
46 64
46 65
46 66
46 67
46 71
46 74
46 75
46 76
46 77
46 78
46 82
46 84
46 85
46 86
46 88
46 89
46 90
46 92
46 94
46 95
46 96
46 97
46 98
46 99
47 49
47 50
47 52
47 53
47 54
47 55
47 57
47 62
47 65
47 66
47 67
47 69
47 70
47 72
47 74
47 75
47 76
47 77
47 78
47 79
47 80
47 83
47 87
47 88
47 89
47 91
47 92
47 93
47 95
47 97
47 98
48 51
48 53
48 57
48 60
48 62
48 64
48 67
48 68
48 71
48 74
48 75
48 77
48 78
48 79
48 80
48 81
48 82
48 85
48 86
48 88
48 90
48 91
48 95
48 97
48 99
49 64
49 66
49 75
49 65
49 72
49 77
49 85
49 68
49 86
49 92
49 99
49 50
49 83
49 53
49 54
49 88
49 58
49 60
49 63
50 55
50 56
50 57
50 58
50 60
50 61
50 62
50 67
50 68
50 70
50 79
50 82
50 84
50 85
50 91
50 93
50 94
50 95
50 96
50 97
50 98
50 99
51 52
51 57
51 60
51 61
51 62
51 63
51 65
51 66
51 67
51 74
51 77
51 78
51 79
51 80
51 81
51 82
51 83
51 85
51 86
51 87
51 92
51 93
51 94
51 97
51 98
51 99
52 53
52 56
52 57
52 60
52 61
52 62
52 65
52 66
52 67
52 70
52 71
52 73
52 74
52 75
52 76
52 78
52 80
52 82
52 83
52 85
52 86
52 87
52 89
52 93
52 94
52 95
52 97
53 54
53 55
53 57
53 58
53 60
53 63
53 64
53 65
53 66
53 67
53 68
53 71
53 74
53 76
53 77
53 80
53 81
53 83
53 84
53 86
53 89
53 91
53 92
53 93
53 94
53 96
53 97
53 99
54 65
54 71
54 73
54 75
54 99
54 86
54 87
54 88
54 90
54 79
54 96
54 76
54 94
54 77
54 57
54 58
54 60
54 74
54 85
55 58
55 60
55 68
55 69
55 71
55 72
55 75
55 77
55 78
55 79
55 83
55 86
55 88
55 90
55 92
55 93
55 94
55 95
55 96
55 97
55 98
56 57
56 59
56 60
56 61
56 62
56 63
56 64
56 65
56 66
56 68
56 75
56 77
56 80
56 82
56 83
56 84
56 89
56 90
56 91
56 93
56 94
56 98
57 60
57 61
57 63
57 64
57 67
57 68
57 69
57 72
57 76
57 77
57 79
57 81
57 86
57 87
57 88
57 89
57 90
57 91
57 92
57 95
57 98
57 99
58 59
58 61
58 62
58 63
58 64
58 65
58 67
58 68
58 70
58 74
58 79
58 80
58 82
58 85
58 88
58 90
58 92
58 94
58 95
58 99
59 60
59 64
59 65
59 68
59 69
59 70
59 71
59 74
59 75
59 76
59 78
59 81
59 84
59 85
59 87
59 88
59 89
59 91
59 94
59 95
59 96
59 97
59 98
59 99
60 61
60 62
60 63
60 64
60 66
60 67
60 68
60 70
60 72
60 73
60 74
60 75
60 76
60 77
60 78
60 79
60 80
60 82
60 85
60 90
60 91
60 92
60 94
60 95
60 96
60 98
61 63
61 64
61 65
61 66
61 67
61 68
61 70
61 71
61 73
61 75
61 77
61 78
61 79
61 81
61 82
61 83
61 87
61 88
61 89
61 90
61 91
61 92
61 94
61 96
61 97
61 98
62 67
62 68
62 74
62 83
62 84
62 87
62 91
62 90
62 96
62 80
62 82
62 92
62 93
62 63
63 83
63 67
63 68
63 98
63 70
63 97
63 73
63 74
63 94
63 80
63 93
63 99
63 91
64 65
64 66
64 68
64 70
64 71
64 72
64 73
64 78
64 79
64 81
64 83
64 85
64 87
64 90
64 92
64 97
64 98
65 67
65 68
65 74
65 76
65 77
65 80
65 83
65 84
65 88
65 89
65 90
65 91
65 92
65 94
65 95
65 97
65 98
65 99
66 68
66 73
66 74
66 75
66 76
66 80
66 81
66 82
66 84
66 86
66 89
66 92
66 94
66 97
67 68
67 69
67 71
67 72
67 74
67 75
67 76
67 77
67 78
67 82
67 87
67 90
67 92
67 93
67 95
67 97
67 98
68 70
68 71
68 72
68 73
68 75
68 78
68 79
68 80
68 81
68 82
68 83
68 84
68 85
68 86
68 87
68 89
68 90
68 92
68 98
68 99
69 72
69 74
69 75
69 77
69 86
69 89
69 98
69 91
69 96
69 76
69 94
70 75
70 76
70 78
70 79
70 80
70 81
70 83
70 85
70 87
70 88
70 89
70 90
70 92
70 93
70 95
70 97
71 74
71 76
71 77
71 79
71 81
71 82
71 86
71 89
71 91
71 92
71 93
71 95
71 98
72 73
72 75
72 80
72 81
72 82
72 86
72 87
72 91
72 92
72 93
72 94
73 98
73 96
73 75
73 76
73 78
73 77
73 81
73 83
73 84
73 79
73 93
73 97
74 76
74 77
74 78
74 80
74 85
74 87
74 88
74 89
74 90
74 94
74 98
74 99
75 76
75 79
75 83
75 84
75 85
75 88
75 90
75 91
75 94
75 95
75 97
75 98
76 77
76 79
76 80
76 81
76 83
76 85
76 87
76 89
76 92
76 95
76 97
76 98
77 78
77 80
77 83
77 84
77 85
77 86
77 87
77 88
77 89
77 90
77 92
77 93
77 94
77 95
77 96
77 98
78 82
78 86
78 88
78 89
78 90
78 92
78 94
78 95
78 96
78 98
79 80
79 84
79 86
79 90
79 91
79 92
79 94
79 95
79 96
79 97
79 99
80 84
80 86
80 89
80 91
80 94
80 95
80 96
80 98
80 99
81 84
81 87
81 88
81 90
81 92
81 93
81 94
81 96
81 98
81 99
82 84
82 86
82 87
82 89
82 90
82 91
82 92
82 93
82 94
82 96
82 98
83 84
83 87
83 88
83 89
83 94
83 95
83 97
84 86
84 87
84 89
84 91
84 93
84 94
84 96
84 97
84 98
85 86
85 87
85 91
85 92
85 95
85 98
85 99
86 87
86 88
86 91
86 93
86 95
86 96
86 97
86 98
87 89
87 94
87 95
87 96
87 98
88 89
88 90
88 93
88 94
88 96
88 97
88 98
88 99
89 92
89 93
89 98
89 99
90 94
90 96
90 97
90 99
91 94
92 93
92 96
92 97
93 96
93 97
93 98
94 99
95 98
95 99
98 99
