100
97 163
168 40
34 244
283 155
119 178
95 170
63 218
294 297
252 63
75 118
206 148
122 253
63 71
175 220
167 39
300 242
254 130
265 206
10 282
191 93
253 193
157 228
22 81
150 69
130 72
222 285
235 281
278 56
296 141
173 118
168 250
262 159
238 249
186 276
19 94
238 46
299 241
55 204
84 11
106 275
236 294
231 71
68 44
239 118
105 147
221 249
299 140
202 147
264 55
240 59
142 94
270 121
18 27
60 273
57 118
61 160
270 297
89 173
249 96
199 35
255 14
102 9
12 184
209 140
95 286
159 186
167 288
98 182
174 26
274 180
195 4
211 231
244 185
296 115
227 137
90 31
279 162
82 157
121 272
43 276
67 28
12 293
82 175
137 249
207 133
156 129
244 180
260 76
179 61
277 176
107 85
277 231
212 114
26 203
132 126
69 277
1 185
113 62
135 77
27 99
0 2
0 3
0 6
0 7
0 10
0 11
0 12
0 13
0 15
0 16
0 17
0 18
0 19
0 22
0 23
0 26
0 27
0 29
0 32
0 33
0 36
0 38
0 42
0 47
0 50
0 53
0 54
0 57
0 58
0 59
0 62
0 65
0 66
0 69
0 70
0 72
0 73
0 74
0 75
0 76
0 81
0 83
0 85
0 87
0 88
0 89
0 90
0 91
0 94
0 95
0 96
1 2
1 6
1 9
1 10
1 11
1 12
1 13
1 15
1 16
1 20
1 21
1 22
1 26
1 28
1 36
1 38
1 40
1 41
1 45
1 48
1 49
1 50
1 51
1 52
1 53
1 54
1 55
1 56
1 57
1 62
1 63
1 65
1 67
1 68
1 70
1 75
1 76
1 78
1 85
1 86
1 87
1 93
1 95
1 96
1 98
1 99
2 66
2 3
2 68
2 5
2 71
2 72
2 9
2 74
2 12
2 77
2 15
2 16
2 18
2 19
2 20
2 21
2 23
2 24
2 25
2 26
2 79
2 90
2 30
2 84
2 33
2 34
2 99
2 36
2 96
2 43
2 82
2 93
2 47
2 48
2 50
2 53
2 89
2 57
2 62
2 63
3 5
3 6
3 7
3 10
3 17
3 18
3 19
3 22
3 23
3 26
3 27
3 29
3 31
3 36
3 37
3 40
3 41
3 43
3 45
3 50
3 51
3 54
3 55
3 59
3 60
3 61
3 62
3 65
3 66
3 67
3 68
3 74
3 76
3 77
3 78
3 80
3 81
3 82
3 84
3 88
3 90
3 91
3 92
3 94
3 95
3 98
4 5
4 6
4 7
4 8
4 9
4 10
4 12
4 14
4 18
4 20
4 24
4 26
4 29
4 31
4 32
4 33
4 34
4 36
4 37
4 38
4 40
4 42
4 43
4 49
4 52
4 53
4 55
4 56
4 57
4 59
4 61
4 62
4 64
4 66
4 67
4 70
4 73
4 75
4 76
4 79
4 81
4 82
4 83
4 84
4 85
4 86
4 89
4 90
4 93
4 96
4 97
5 6
5 10
5 12
5 13
5 15
5 17
5 18
5 22
5 24
5 26
5 27
5 30
5 34
5 37
5 38
5 39
5 40
5 41
5 45
5 46
5 49
5 50
5 51
5 56
5 59
5 65
5 68
5 71
5 73
5 74
5 75
5 76
5 77
5 79
5 81
5 83
5 84
5 86
5 87
5 88
5 89
5 91
5 93
5 95
5 96
5 97
5 98
6 8
6 10
6 11
6 13
6 15
6 17
6 18
6 20
6 21
6 23
6 28
6 29
6 30
6 31
6 33
6 45
6 47
6 48
6 49
6 53
6 56
6 57
6 58
6 61
6 62
6 63
6 66
6 67
6 68
6 70
6 72
6 74
6 76
6 78
6 80
6 81
6 82
6 83
6 87
6 90
6 92
6 93
6 96
6 98
7 9
7 12
7 14
7 15
7 17
7 20
7 21
7 23
7 27
7 31
7 32
7 34
7 35
7 36
7 37
7 38
7 41
7 43
7 46
7 49
7 53
7 54
7 56
7 57
7 59
7 61
7 65
7 66
7 68
7 69
7 70
7 72
7 75
7 77
7 78
7 79
7 83
7 84
7 87
7 91
7 92
7 93
7 94
7 95
7 97
7 98
8 64
8 71
8 72
8 9
8 10
8 11
8 13
8 14
8 77
8 17
8 18
8 20
8 21
8 23
8 88
8 26
8 91
8 28
8 78
8 32
8 33
8 34
8 36
8 70
8 38
8 43
8 44
8 45
8 47
8 50
8 82
8 53
8 54
8 55
8 59
8 60
8 74
8 62
8 85
9 10
9 12
9 16
9 18
9 19
9 20
9 21
9 22
9 23
9 26
9 29
9 31
9 32
9 33
9 34
9 37
9 38
9 45
9 47
9 51
9 53
9 57
9 60
9 61
9 63
9 68
9 74
9 77
9 78
9 80
9 81
9 82
9 84
9 87
9 88
9 89
9 93
9 95
9 96
9 97
9 98
10 12
10 13
10 20
10 21
10 25
10 26
10 29
10 30
10 31
10 33
10 36
10 39
10 40
10 42
10 43
10 47
10 48
10 49
10 56
10 57
10 58
10 59
10 60
10 62
10 68
10 71
10 74
10 79
10 83
10 86
10 87
10 88
10 90
10 92
10 93
10 94
10 95
11 12
11 13
11 17
11 19
11 23
11 24
11 25
11 32
11 33
11 36
11 37
11 38
11 40
11 41
11 42
11 43
11 46
11 49
11 52
11 55
11 57
11 58
11 59
11 64
11 67
11 70
11 72
11 73
11 74
11 75
11 76
11 78
11 79
11 83
11 85
11 88
11 89
11 90
11 91
11 94
11 95
11 96
11 98
12 13
12 16
12 17
12 18
12 21
12 22
12 26
12 28
12 32
12 34
12 35
12 37
12 39
12 40
12 45
12 48
12 52
12 53
12 55
12 57
12 58
12 59
12 60
12 62
12 63
12 64
12 65
12 66
12 67
12 72
12 74
12 77
12 78
12 82
12 83
12 85
12 87
12 88
12 92
12 93
12 94
12 98
12 99
13 15
13 18
13 21
13 22
13 24
13 27
13 31
13 33
13 35
13 36
13 37
13 38
13 40
13 41
13 42
13 43
13 44
13 46
13 48
13 49
13 53
13 54
13 59
13 62
13 63
13 64
13 66
13 69
13 72
13 74
13 76
13 77
13 79
13 80
13 81
13 82
13 84
13 87
13 89
13 91
13 93
13 95
13 96
13 97
13 98
14 16
14 17
14 20
14 22
14 23
14 27
14 28
14 29
14 34
14 36
14 37
14 40
14 41
14 42
14 44
14 47
14 49
14 52
14 53
14 56
14 58
14 59
14 62
14 64
14 65
14 66
14 68
14 69
14 70
14 72
14 73
14 74
14 75
14 77
14 78
14 80
14 83
14 85
14 86
14 90
14 92
14 95
14 97
14 98
14 99
15 17
15 19
15 20
15 21
15 22
15 24
15 26
15 28
15 29
15 30
15 33
15 35
15 36
15 39
15 40
15 41
15 42
15 43
15 46
15 47
15 49
15 52
15 53
15 55
15 57
15 58
15 62
15 65
15 66
15 69
15 70
15 73
15 74
15 75
15 76
15 80
15 83
15 86
15 88
15 90
15 92
15 94
15 95
16 67
16 93
16 65
16 64
16 79
16 17
16 82
16 99
16 20
16 22
16 23
16 24
16 26
16 29
16 94
16 95
16 32
16 35
16 36
16 90
16 81
16 40
16 41
16 42
16 71
16 44
16 46
16 47
16 48
16 72
16 50
16 55
16 56
16 57
16 60
16 61
16 63
17 19
17 22
17 25
17 26
17 27
17 30
17 32
17 35
17 37
17 38
17 42
17 43
17 44
17 47
17 49
17 50
17 53
17 55
17 59
17 65
17 66
17 67
17 68
17 71
17 75
17 76
17 77
17 80
17 81
17 85
17 87
17 88
17 89
17 91
17 93
17 95
17 99
18 20
18 24
18 26
18 28
18 29
18 30
18 32
18 34
18 35
18 37
18 44
18 46
18 47
18 48
18 50
18 52
18 54
18 55
18 57
18 58
18 59
18 60
18 61
18 65
18 66
18 68
18 71
18 74
18 75
18 78
18 80
18 81
18 82
18 83
18 85
18 88
18 90
18 91
18 92
18 94
18 95
18 97
19 65
19 69
19 71
19 76
19 66
19 77
19 82
19 83
19 90
19 21
19 87
19 26
19 91
19 28
19 29
19 30
19 31
19 96
19 97
19 98
19 35
19 38
19 39
19 42
19 44
19 45
19 46
19 47
19 50
19 51
19 52
19 94
19 73
19 60
19 61
19 63
20 24
20 29
20 32
20 33
20 34
20 35
20 39
20 40
20 41
20 42
20 43
20 45
20 46
20 47
20 48
20 50
20 52
20 53
20 54
20 55
20 56
20 57
20 58
20 59
20 61
20 63
20 68
20 70
20 71
20 72
20 73
20 75
20 76
20 77
20 80
20 81
20 85
20 87
20 90
20 91
20 95
20 96
20 99
21 24
21 25
21 26
21 29
21 30
21 31
21 32
21 33
21 35
21 36
21 38
21 41
21 44
21 46
21 48
21 49
21 51
21 53
21 55
21 58
21 60
21 65
21 66
21 67
21 68
21 71
21 72
21 73
21 74
21 75
21 76
21 78
21 80
21 83
21 84
21 87
21 95
21 97
21 99
22 23
22 24
22 27
22 28
22 30
22 36
22 37
22 38
22 41
22 42
22 44
22 46
22 47
22 48
22 50
22 51
22 53
22 60
22 63
22 67
22 68
22 69
22 70
22 71
22 76
22 77
22 78
22 80
22 81
22 82
22 83
22 87
22 89
22 90
22 94
22 98
23 24
23 27
23 29
23 33
23 34
23 37
23 42
23 44
23 46
23 48
23 49
23 50
23 52
23 54
23 56
23 57
23 59
23 61
23 62
23 63
23 65
23 66
23 67
23 69
23 70
23 72
23 73
23 74
23 78
23 80
23 81
23 82
23 84
23 86
23 88
23 93
23 94
23 96
23 99
24 25
24 27
24 28
24 33
24 34
24 35
24 36
24 38
24 41
24 43
24 44
24 45
24 47
24 48
24 50
24 51
24 52
24 53
24 55
24 57
24 61
24 62
24 63
24 72
24 73
24 80
24 81
24 86
24 87
24 89
24 92
24 93
24 94
24 98
25 64
25 65
25 74
25 69
25 72
25 73
25 76
25 78
25 79
25 80
25 82
25 84
25 87
25 89
25 26
25 28
25 94
25 96
25 97
25 98
25 37
25 40
25 43
25 46
25 48
25 49
25 51
25 52
25 54
25 55
25 88
25 58
25 60
25 61
25 63
26 28
26 29
26 31
26 32
26 34
26 43
26 48
26 49
26 50
26 51
26 54
26 55
26 58
26 60
26 61
26 62
26 63
26 64
26 66
26 67
26 68
26 70
26 72
26 75
26 78
26 80
26 81
26 84
26 87
26 88
26 89
26 93
26 94
26 96
26 98
27 29
27 30
27 33
27 36
27 38
27 43
27 44
27 45
27 46
27 47
27 49
27 50
27 54
27 55
27 57
27 59
27 62
27 64
27 66
27 68
27 69
27 72
27 73
27 77
27 78
27 80
27 83
27 85
27 88
27 90
27 91
27 93
27 97
27 98
28 64
28 69
28 65
28 76
28 75
28 81
28 89
28 91
28 92
28 32
28 35
28 70
28 38
28 39
28 41
28 42
28 71
28 82
28 96
28 47
28 48
28 56
28 61
28 63
29 30
29 32
29 33
29 34
29 35
29 40
29 44
29 45
29 46
29 48
29 49
29 51
29 55
29 56
29 63
29 64
29 67
29 69
29 71
29 72
29 76
29 77
29 78
29 79
29 83
29 87
29 88
29 90
29 91
29 92
29 93
29 95
29 97
29 98
30 34
30 39
30 40
30 41
30 43
30 48
30 49
30 50
30 51
30 52
30 53
30 54
30 58
30 59
30 65
30 66
30 68
30 70
30 71
30 72
30 73
30 74
30 76
30 77
30 79
30 80
30 82
30 85
30 88
30 89
30 90
30 91
30 94
30 95
30 98
31 33
31 34
31 37
31 39
31 40
31 42
31 44
31 45
31 46
31 47
31 48
31 49
31 51
31 55
31 56
31 58
31 60
31 61
31 62
31 64
31 66
31 67
31 68
31 69
31 72
31 74
31 75
31 77
31 78
31 84
31 87
31 88
31 91
31 92
31 94
31 95
31 98
31 99
32 35
32 36
32 37
32 38
32 39
32 42
32 43
32 46
32 48
32 49
32 51
32 56
32 57
32 60
32 61
32 62
32 65
32 67
32 69
32 70
32 74
32 75
32 77
32 79
32 80
32 81
32 83
32 86
32 87
32 88
32 89
32 94
32 96
32 98
32 99
33 34
33 36
33 37
33 39
33 42
33 45
33 46
33 48
33 51
33 52
33 53
33 54
33 55
33 57
33 59
33 60
33 61
33 62
33 64
33 65
33 66
33 67
33 68
33 69
33 71
33 77
33 82
33 85
33 88
33 91
33 93
33 96
34 36
34 38
34 39
34 40
34 41
34 42
34 43
34 44
34 46
34 50
34 52
34 53
34 54
34 61
34 64
34 65
34 67
34 69
34 71
34 72
34 73
34 74
34 75
34 76
34 80
34 81
34 84
34 86
34 87
34 89
34 93
34 94
34 97
34 98
35 65
35 67
35 70
35 73
35 74
35 75
35 87
35 89
35 88
35 95
35 97
35 98
35 37
35 41
35 42
35 45
35 96
35 93
35 76
35 83
35 54
35 56
35 84
35 58
35 60
35 63
36 37
36 38
36 40
36 41
36 42
36 43
36 45
36 46
36 48
36 49
36 51
36 52
36 54
36 57
36 58
36 59
36 60
36 61
36 62
36 63
36 67
36 68
36 70
36 71
36 72
36 74
36 75
36 78
36 79
36 81
36 83
36 85
36 86
36 87
36 88
36 91
36 96
36 99
37 39
37 49
37 53
37 55
37 56
37 57
37 58
37 59
37 61
37 67
37 68
37 72
37 74
37 75
37 76
37 82
37 83
37 84
37 85
37 88
37 89
37 90
37 91
37 92
37 95
37 97
37 99
38 40
38 43
38 44
38 47
38 48
38 49
38 54
38 57
38 58
38 60
38 63
38 65
38 66
38 67
38 68
38 69
38 70
38 75
38 77
38 80
38 81
38 82
38 83
38 84
38 86
38 87
38 90
38 91
38 93
38 96
38 97
38 98
38 99
39 65
39 68
39 70
39 73
39 81
39 82
39 85
39 86
39 89
39 79
39 91
39 95
39 40
39 41
39 42
39 43
39 44
39 45
39 46
39 47
39 99
39 49
39 94
39 54
39 55
39 56
39 57
39 58
39 59
39 74
40 43
40 44
40 45
40 47
40 50
40 57
40 62
40 63
40 65
40 67
40 68
40 69
40 71
40 72
40 73
40 74
40 75
40 78
40 79
40 80
40 82
40 83
40 86
40 89
40 90
40 91
40 92
40 93
40 94
40 95
40 96
40 98
40 99
41 43
41 46
41 48
41 51
41 52
41 59
41 60
41 61
41 62
41 67
41 68
41 70
41 72
41 74
41 75
41 77
41 78
41 82
41 84
41 85
41 87
41 88
41 89
41 92
41 93
41 94
41 95
41 97
41 98
42 43
42 47
42 49
42 51
42 53
42 54
42 57
42 61
42 64
42 69
42 71
42 73
42 74
42 80
42 81
42 82
42 83
42 84
42 85
42 86
42 87
42 88
42 92
42 94
42 95
43 46
43 52
43 54
43 57
43 60
43 61
43 63
43 64
43 65
43 67
43 68
43 69
43 71
43 75
43 76
43 77
43 78
43 79
43 80
43 81
43 85
43 86
43 88
43 92
43 93
43 94
43 95
43 96
43 98
44 64
44 65
44 66
44 70
44 87
44 76
44 89
44 90
44 95
44 78
44 45
44 46
44 47
44 48
44 49
44 51
44 53
44 56
44 57
44 59
44 61
44 85
44 63
45 48
45 49
45 53
45 56
45 58
45 59
45 60
45 62
45 64
45 66
45 69
45 70
45 72
45 73
45 75
45 76
45 77
45 80
45 81
45 83
45 84
45 87
45 88
45 90
45 91
45 92
45 93
45 94
45 99
46 51
46 53
46 57
46 58
46 59
46 60
46 61
46 66
46 67
46 68
46 70
46 72
46 73
46 74
46 75
46 77
46 78
46 80
46 81
46 84
46 85
46 88
46 90
46 91
46 92
46 94
46 95
46 96
46 97
47 49
47 50
47 51
47 55
47 60
47 62
47 65
47 66
47 69
47 71
47 72
47 73
47 74
47 75
47 76
47 77
47 81
47 82
47 84
47 85
47 89
47 90
47 91
47 93
47 95
47 98
48 51
48 52
48 53
48 54
48 55
48 61
48 62
48 63
48 64
48 66
48 67
48 69
48 70
48 73
48 75
48 76
48 79
48 81
48 82
48 83
48 85
48 88
48 89
48 90
48 91
48 93
48 94
48 97
48 98
49 50
49 52
49 54
49 57
49 58
49 60
49 61
49 64
49 65
49 71
49 72
49 74
49 76
49 81
49 85
49 87
49 89
49 90
49 95
50 68
50 65
50 73
50 75
50 77
50 78
50 79
50 89
50 90
50 84
50 91
50 82
50 83
50 54
50 72
50 57
50 58
50 59
50 60
50 63
51 53
51 54
51 55
51 57
51 58
51 59
51 60
51 62
51 64
51 67
51 68
51 71
51 72
51 74
51 75
51 76
51 77
51 81
51 83
51 86
51 87
51 91
51 94
51 97
51 98
51 99
52 54
52 57
52 58
52 59
52 60
52 61
52 62
52 63
52 65
52 69
52 70
52 74
52 75
52 76
52 78
52 79
52 84
52 86
52 87
52 91
52 94
52 96
52 97
52 98
52 99
53 54
53 56
53 57
53 58
53 59
53 61
53 62
53 63
53 64
53 66
53 70
53 74
53 77
53 78
53 79
53 80
53 82
53 83
53 84
53 87
53 88
53 89
53 92
53 95
53 96
53 97
54 58
54 60
54 62
54 63
54 64
54 65
54 69
54 71
54 72
54 75
54 78
54 79
54 82
54 83
54 85
54 90
54 91
54 92
54 93
54 94
54 98
55 58
55 64
55 65
55 66
55 67
55 70
55 71
55 72
55 74
55 75
55 76
55 79
55 80
55 84
55 87
55 88
55 89
55 90
55 98
55 99
56 66
56 96
56 75
56 76
56 77
56 79
56 81
56 82
56 78
56 68
56 69
56 80
56 84
56 65
56 71
56 93
56 89
56 57
56 58
56 70
56 74
56 62
56 63
57 58
57 60
57 61
57 62
57 63
57 65
57 66
57 70
57 71
57 72
57 73
57 76
57 79
57 82
57 83
57 84
57 85
57 86
57 87
57 88
57 89
57 90
57 92
57 93
57 94
57 95
57 96
57 98
57 99
58 62
58 63
58 64
58 65
58 69
58 70
58 73
58 74
58 83
58 87
58 90
58 92
58 96
58 97
58 98
58 99
59 64
59 65
59 66
59 67
59 68
59 69
59 73
59 74
59 75
59 76
59 77
59 78
59 82
59 87
59 91
59 92
59 95
59 98
59 99
60 63
60 64
60 65
60 67
60 70
60 71
60 75
60 76
60 77
60 78
60 79
60 83
60 84
60 86
60 88
60 89
60 90
60 91
60 93
60 96
60 97
60 99
61 62
61 63
61 64
61 65
61 68
61 70
61 71
61 73
61 75
61 76
61 77
61 78
61 80
61 82
61 83
61 85
61 86
61 87
61 88
61 89
61 94
61 95
62 63
62 65
62 71
62 73
62 76
62 78
62 81
62 82
62 83
62 84
62 85
62 86
62 87
62 88
62 92
62 94
63 65
63 67
63 68
63 71
63 72
63 73
63 74
63 77
63 78
63 81
63 82
63 84
63 89
63 90
63 91
63 93
63 99
64 65
64 68
64 70
64 71
64 73
64 74
64 79
64 81
64 82
64 85
64 86
64 87
64 89
64 90
64 91
64 92
64 93
64 94
64 95
64 97
64 99
65 66
65 67
65 70
65 72
65 74
65 75
65 76
65 77
65 78
65 80
65 81
65 82
65 84
65 85
65 86
65 87
65 90
65 95
65 96
65 98
65 99
66 68
66 69
66 71
66 72
66 73
66 76
66 77
66 78
66 79
66 80
66 81
66 84
66 85
66 89
66 90
66 91
66 94
66 95
66 97
67 68
67 69
67 74
67 76
67 77
67 78
67 79
67 80
67 85
67 90
67 91
67 92
67 94
67 95
67 96
67 97
67 99
68 69
68 71
68 72
68 73
68 74
68 75
68 81
68 82
68 83
68 85
68 86
68 88
68 89
68 90
68 92
68 93
68 94
68 96
69 73
69 74
69 75
69 76
69 77
69 84
69 86
69 87
69 88
69 89
69 91
69 93
69 95
69 96
69 97
70 72
70 73
70 75
70 78
70 79
70 81
70 82
70 84
70 85
70 87
70 88
70 89
70 92
70 93
70 95
70 96
70 97
70 98
70 99
71 72
71 75
71 77
71 78
71 86
71 87
71 88
71 90
71 93
71 94
71 96
71 97
71 98
71 99
72 73
72 77
72 78
72 80
72 81
72 82
72 83
72 87
72 88
72 89
72 90
72 96
72 97
72 99
73 77
73 79
73 82
73 84
73 85
73 87
73 88
73 90
73 96
73 98
74 75
74 76
74 79
74 80
74 82
74 83
74 84
74 85
74 86
74 88
74 89
74 90
74 91
74 92
74 96
74 97
75 77
75 78
75 79
75 82
75 83
75 89
75 94
75 95
75 96
75 98
76 77
76 78
76 79
76 80
76 81
76 82
76 83
76 90
76 92
76 93
76 94
76 95
76 99
77 81
77 82
77 85
77 87
77 89
77 91
77 92
77 95
77 96
77 97
78 79
78 80
78 82
78 83
78 85
78 88
78 89
78 90
78 92
78 93
78 95
78 97
78 99
79 81
79 83
79 89
79 92
79 80
79 97
79 85
80 81
80 82
80 83
80 84
80 87
80 88
80 90
80 91
80 93
80 94
80 98
80 99
81 82
81 83
81 84
81 88
81 90
81 93
81 94
81 95
81 97
81 98
82 83
82 84
82 86
82 87
82 91
82 92
82 93
82 94
82 98
82 99
83 89
83 93
83 95
83 97
83 98
83 99
84 85
84 86
84 87
84 90
84 92
84 93
84 95
84 96
84 98
84 99
85 86
85 91
85 92
85 94
85 95
85 97
85 98
85 99
86 96
86 87
86 88
86 91
86 92
86 90
86 94
86 97
86 93
86 89
86 95
87 88
87 92
87 95
87 96
87 97
87 98
88 89
88 92
88 95
88 96
88 97
88 99
89 95
89 99
90 91
90 95
90 97
91 92
91 95
91 96
91 98
92 96
92 97
92 98
93 95
93 96
93 97
94 97
94 99
95 97
95 98
96 99
97 98
97 99
