graph {
		0 -- 1
		0 -- 67
		0 -- 4
		0 -- 5
		0 -- 70
		0 -- 71
		0 -- 72
		0 -- 9
		0 -- 10
		0 -- 12
		0 -- 78
		0 -- 15
		0 -- 80
		0 -- 17
		0 -- 18
		0 -- 20
		0 -- 85
		0 -- 86
		0 -- 87
		0 -- 24
		0 -- 25
		0 -- 26
		0 -- 28
		0 -- 29
		0 -- 88
		0 -- 69
		0 -- 33
		0 -- 37
		0 -- 97
		0 -- 92
		0 -- 42
		0 -- 44
		0 -- 82
		0 -- 48
		0 -- 50
		0 -- 55
		0 -- 56
		0 -- 84
		0 -- 90
		0 -- 95
		0 -- 60
		0 -- 62
		0 -- 63
		1 -- 2
		1 -- 3
		1 -- 5
		1 -- 9
		1 -- 10
		1 -- 14
		1 -- 17
		1 -- 18
		1 -- 19
		1 -- 21
		1 -- 25
		1 -- 26
		1 -- 29
		1 -- 31
		1 -- 33
		1 -- 34
		1 -- 35
		1 -- 36
		1 -- 39
		1 -- 41
		1 -- 42
		1 -- 43
		1 -- 44
		1 -- 46
		1 -- 48
		1 -- 50
		1 -- 51
		1 -- 53
		1 -- 55
		1 -- 57
		1 -- 58
		1 -- 62
		1 -- 63
		1 -- 66
		1 -- 69
		1 -- 70
		1 -- 71
		1 -- 73
		1 -- 74
		1 -- 75
		1 -- 77
		1 -- 78
		1 -- 79
		1 -- 80
		1 -- 84
		1 -- 85
		1 -- 87
		1 -- 90
		1 -- 94
		1 -- 95
		1 -- 96
		1 -- 99
		2 -- 3
		2 -- 5
		2 -- 6
		2 -- 9
		2 -- 12
		2 -- 14
		2 -- 16
		2 -- 17
		2 -- 18
		2 -- 19
		2 -- 20
		2 -- 21
		2 -- 31
		2 -- 32
		2 -- 35
		2 -- 36
		2 -- 37
		2 -- 41
		2 -- 42
		2 -- 43
		2 -- 45
		2 -- 46
		2 -- 47
		2 -- 48
		2 -- 49
		2 -- 50
		2 -- 51
		2 -- 54
		2 -- 56
		2 -- 57
		2 -- 58
		2 -- 61
		2 -- 62
		2 -- 65
		2 -- 66
		2 -- 68
		2 -- 69
		2 -- 74
		2 -- 75
		2 -- 78
		2 -- 80
		2 -- 84
		2 -- 86
		2 -- 87
		2 -- 89
		2 -- 94
		2 -- 96
		2 -- 98
		2 -- 99
		3 -- 4
		3 -- 5
		3 -- 6
		3 -- 8
		3 -- 9
		3 -- 12
		3 -- 14
		3 -- 15
		3 -- 22
		3 -- 25
		3 -- 26
		3 -- 27
		3 -- 29
		3 -- 30
		3 -- 31
		3 -- 32
		3 -- 38
		3 -- 40
		3 -- 44
		3 -- 47
		3 -- 49
		3 -- 54
		3 -- 55
		3 -- 57
		3 -- 61
		3 -- 63
		3 -- 65
		3 -- 67
		3 -- 68
		3 -- 69
		3 -- 71
		3 -- 73
		3 -- 77
		3 -- 78
		3 -- 79
		3 -- 81
		3 -- 83
		3 -- 85
		3 -- 87
		3 -- 88
		3 -- 89
		3 -- 90
		3 -- 91
		3 -- 92
		3 -- 96
		3 -- 98
		4 -- 7
		4 -- 8
		4 -- 11
		4 -- 12
		4 -- 13
		4 -- 14
		4 -- 16
		4 -- 18
		4 -- 19
		4 -- 20
		4 -- 26
		4 -- 30
		4 -- 32
		4 -- 38
		4 -- 39
		4 -- 42
		4 -- 45
		4 -- 47
		4 -- 49
		4 -- 55
		4 -- 57
		4 -- 59
		4 -- 61
		4 -- 65
		4 -- 68
		4 -- 69
		4 -- 70
		4 -- 71
		4 -- 72
		4 -- 73
		4 -- 74
		4 -- 75
		4 -- 76
		4 -- 77
		4 -- 78
		4 -- 79
		4 -- 81
		4 -- 83
		4 -- 84
		4 -- 85
		4 -- 87
		4 -- 88
		4 -- 89
		4 -- 92
		4 -- 93
		4 -- 95
		4 -- 96
		4 -- 98
		4 -- 99
		5 -- 8
		5 -- 9
		5 -- 10
		5 -- 11
		5 -- 12
		5 -- 13
		5 -- 14
		5 -- 15
		5 -- 16
		5 -- 17
		5 -- 18
		5 -- 20
		5 -- 23
		5 -- 24
		5 -- 25
		5 -- 26
		5 -- 29
		5 -- 31
		5 -- 32
		5 -- 36
		5 -- 38
		5 -- 39
		5 -- 40
		5 -- 42
		5 -- 45
		5 -- 47
		5 -- 48
		5 -- 49
		5 -- 50
		5 -- 51
		5 -- 52
		5 -- 53
		5 -- 55
		5 -- 56
		5 -- 58
		5 -- 60
		5 -- 61
		5 -- 62
		5 -- 63
		5 -- 66
		5 -- 71
		5 -- 72
		5 -- 73
		5 -- 74
		5 -- 75
		5 -- 78
		5 -- 79
		5 -- 81
		5 -- 83
		5 -- 85
		5 -- 86
		5 -- 89
		5 -- 92
		5 -- 94
		5 -- 98
		5 -- 99
		6 -- 10
		6 -- 11
		6 -- 12
		6 -- 13
		6 -- 15
		6 -- 18
		6 -- 21
		6 -- 25
		6 -- 26
		6 -- 28
		6 -- 29
		6 -- 30
		6 -- 32
		6 -- 36
		6 -- 37
		6 -- 38
		6 -- 41
		6 -- 44
		6 -- 47
		6 -- 49
		6 -- 50
		6 -- 51
		6 -- 53
		6 -- 55
		6 -- 57
		6 -- 58
		6 -- 63
		6 -- 65
		6 -- 68
		6 -- 71
		6 -- 73
		6 -- 75
		6 -- 80
		6 -- 81
		6 -- 82
		6 -- 84
		6 -- 85
		6 -- 88
		6 -- 89
		6 -- 90
		6 -- 92
		6 -- 93
		6 -- 94
		6 -- 98
		7 -- 9
		7 -- 10
		7 -- 12
		7 -- 13
		7 -- 16
		7 -- 17
		7 -- 21
		7 -- 22
		7 -- 25
		7 -- 27
		7 -- 28
		7 -- 30
		7 -- 31
		7 -- 33
		7 -- 34
		7 -- 40
		7 -- 41
		7 -- 42
		7 -- 43
		7 -- 44
		7 -- 45
		7 -- 47
		7 -- 48
		7 -- 51
		7 -- 52
		7 -- 53
		7 -- 54
		7 -- 55
		7 -- 56
		7 -- 58
		7 -- 59
		7 -- 60
		7 -- 61
		7 -- 62
		7 -- 64
		7 -- 66
		7 -- 67
		7 -- 69
		7 -- 70
		7 -- 73
		7 -- 78
		7 -- 80
		7 -- 81
		7 -- 83
		7 -- 85
		7 -- 88
		7 -- 91
		7 -- 93
		7 -- 94
		8 -- 10
		8 -- 11
		8 -- 14
		8 -- 16
		8 -- 18
		8 -- 19
		8 -- 20
		8 -- 21
		8 -- 22
		8 -- 24
		8 -- 26
		8 -- 30
		8 -- 31
		8 -- 33
		8 -- 34
		8 -- 36
		8 -- 37
		8 -- 38
		8 -- 39
		8 -- 40
		8 -- 41
		8 -- 43
		8 -- 47
		8 -- 48
		8 -- 49
		8 -- 51
		8 -- 53
		8 -- 54
		8 -- 56
		8 -- 57
		8 -- 58
		8 -- 63
		8 -- 65
		8 -- 69
		8 -- 71
		8 -- 72
		8 -- 75
		8 -- 76
		8 -- 77
		8 -- 78
		8 -- 79
		8 -- 80
		8 -- 81
		8 -- 84
		8 -- 85
		8 -- 87
		8 -- 90
		8 -- 91
		8 -- 94
		8 -- 95
		8 -- 97
		8 -- 98
		8 -- 99
		9 -- 10
		9 -- 11
		9 -- 12
		9 -- 16
		9 -- 18
		9 -- 19
		9 -- 20
		9 -- 21
		9 -- 27
		9 -- 28
		9 -- 30
		9 -- 31
		9 -- 33
		9 -- 38
		9 -- 41
		9 -- 42
		9 -- 44
		9 -- 45
		9 -- 46
		9 -- 50
		9 -- 51
		9 -- 52
		9 -- 60
		9 -- 62
		9 -- 63
		9 -- 65
		9 -- 68
		9 -- 69
		9 -- 70
		9 -- 71
		9 -- 72
		9 -- 75
		9 -- 76
		9 -- 77
		9 -- 80
		9 -- 81
		9 -- 83
		9 -- 84
		9 -- 86
		9 -- 87
		9 -- 89
		9 -- 91
		9 -- 97
		9 -- 98
		10 -- 11
		10 -- 12
		10 -- 13
		10 -- 14
		10 -- 15
		10 -- 17
		10 -- 19
		10 -- 23
		10 -- 26
		10 -- 27
		10 -- 29
		10 -- 36
		10 -- 37
		10 -- 39
		10 -- 40
		10 -- 42
		10 -- 45
		10 -- 46
		10 -- 47
		10 -- 48
		10 -- 49
		10 -- 50
		10 -- 61
		10 -- 66
		10 -- 67
		10 -- 68
		10 -- 71
		10 -- 73
		10 -- 74
		10 -- 78
		10 -- 79
		10 -- 80
		10 -- 81
		10 -- 83
		10 -- 84
		10 -- 88
		10 -- 89
		10 -- 90
		10 -- 92
		10 -- 98
		11 -- 12
		11 -- 14
		11 -- 17
		11 -- 18
		11 -- 19
		11 -- 22
		11 -- 23
		11 -- 25
		11 -- 26
		11 -- 27
		11 -- 28
		11 -- 29
		11 -- 30
		11 -- 31
		11 -- 32
		11 -- 35
		11 -- 39
		11 -- 44
		11 -- 49
		11 -- 52
		11 -- 56
		11 -- 57
		11 -- 60
		11 -- 61
		11 -- 62
		11 -- 65
		11 -- 67
		11 -- 69
		11 -- 71
		11 -- 72
		11 -- 78
		11 -- 79
		11 -- 80
		11 -- 81
		11 -- 82
		11 -- 83
		11 -- 84
		11 -- 90
		11 -- 91
		11 -- 94
		11 -- 97
		12 -- 14
		12 -- 16
		12 -- 18
		12 -- 20
		12 -- 24
		12 -- 25
		12 -- 26
		12 -- 30
		12 -- 33
		12 -- 35
		12 -- 39
		12 -- 41
		12 -- 43
		12 -- 44
		12 -- 45
		12 -- 46
		12 -- 48
		12 -- 49
		12 -- 50
		12 -- 51
		12 -- 54
		12 -- 55
		12 -- 58
		12 -- 59
		12 -- 61
		12 -- 62
		12 -- 63
		12 -- 64
		12 -- 66
		12 -- 67
		12 -- 68
		12 -- 69
		12 -- 70
		12 -- 72
		12 -- 73
		12 -- 74
		12 -- 76
		12 -- 79
		12 -- 80
		12 -- 81
		12 -- 84
		12 -- 85
		12 -- 86
		12 -- 94
		12 -- 95
		12 -- 98
		12 -- 99
		13 -- 14
		13 -- 19
		13 -- 21
		13 -- 23
		13 -- 28
		13 -- 29
		13 -- 30
		13 -- 33
		13 -- 36
		13 -- 38
		13 -- 40
		13 -- 41
		13 -- 43
		13 -- 44
		13 -- 45
		13 -- 46
		13 -- 47
		13 -- 51
		13 -- 52
		13 -- 53
		13 -- 54
		13 -- 55
		13 -- 57
		13 -- 61
		13 -- 62
		13 -- 63
		13 -- 65
		13 -- 66
		13 -- 68
		13 -- 69
		13 -- 72
		13 -- 73
		13 -- 74
		13 -- 75
		13 -- 78
		13 -- 81
		13 -- 82
		13 -- 83
		13 -- 86
		13 -- 87
		13 -- 93
		13 -- 96
		13 -- 98
		13 -- 99
		14 -- 70
		14 -- 96
		14 -- 78
		14 -- 16
		14 -- 75
		14 -- 99
		14 -- 20
		14 -- 66
		14 -- 86
		14 -- 23
		14 -- 68
		14 -- 27
		14 -- 28
		14 -- 29
		14 -- 95
		14 -- 84
		14 -- 33
		14 -- 98
		14 -- 35
		14 -- 36
		14 -- 37
		14 -- 39
		14 -- 40
		14 -- 42
		14 -- 45
		14 -- 46
		14 -- 91
		14 -- 89
		14 -- 55
		14 -- 56
		14 -- 57
		14 -- 59
		14 -- 85
		15 -- 16
		15 -- 18
		15 -- 22
		15 -- 23
		15 -- 24
		15 -- 31
		15 -- 32
		15 -- 38
		15 -- 39
		15 -- 40
		15 -- 43
		15 -- 45
		15 -- 47
		15 -- 48
		15 -- 50
		15 -- 53
		15 -- 54
		15 -- 55
		15 -- 56
		15 -- 58
		15 -- 62
		15 -- 63
		15 -- 64
		15 -- 65
		15 -- 66
		15 -- 67
		15 -- 68
		15 -- 69
		15 -- 70
		15 -- 72
		15 -- 74
		15 -- 75
		15 -- 77
		15 -- 80
		15 -- 81
		15 -- 84
		15 -- 91
		15 -- 93
		15 -- 94
		15 -- 95
		15 -- 96
		15 -- 98
		16 -- 17
		16 -- 19
		16 -- 20
		16 -- 22
		16 -- 23
		16 -- 24
		16 -- 25
		16 -- 27
		16 -- 28
		16 -- 30
		16 -- 31
		16 -- 34
		16 -- 35
		16 -- 38
		16 -- 41
		16 -- 45
		16 -- 48
		16 -- 53
		16 -- 54
		16 -- 55
		16 -- 59
		16 -- 61
		16 -- 63
		16 -- 64
		16 -- 66
		16 -- 68
		16 -- 70
		16 -- 72
		16 -- 73
		16 -- 77
		16 -- 78
		16 -- 81
		16 -- 82
		16 -- 85
		16 -- 89
		16 -- 90
		16 -- 91
		16 -- 93
		16 -- 94
		16 -- 97
		17 -- 20
		17 -- 21
		17 -- 27
		17 -- 28
		17 -- 30
		17 -- 31
		17 -- 33
		17 -- 35
		17 -- 36
		17 -- 37
		17 -- 38
		17 -- 40
		17 -- 42
		17 -- 44
		17 -- 48
		17 -- 50
		17 -- 51
		17 -- 56
		17 -- 57
		17 -- 58
		17 -- 61
		17 -- 63
		17 -- 68
		17 -- 71
		17 -- 72
		17 -- 75
		17 -- 77
		17 -- 78
		17 -- 79
		17 -- 80
		17 -- 82
		17 -- 83
		17 -- 84
		17 -- 85
		17 -- 87
		17 -- 88
		17 -- 93
		17 -- 95
		17 -- 97
		18 -- 20
		18 -- 22
		18 -- 24
		18 -- 25
		18 -- 26
		18 -- 27
		18 -- 28
		18 -- 31
		18 -- 32
		18 -- 33
		18 -- 35
		18 -- 39
		18 -- 41
		18 -- 42
		18 -- 46
		18 -- 47
		18 -- 48
		18 -- 49
		18 -- 50
		18 -- 53
		18 -- 55
		18 -- 56
		18 -- 59
		18 -- 61
		18 -- 62
		18 -- 63
		18 -- 65
		18 -- 67
		18 -- 69
		18 -- 70
		18 -- 72
		18 -- 74
		18 -- 75
		18 -- 76
		18 -- 78
		18 -- 81
		18 -- 82
		18 -- 83
		18 -- 85
		18 -- 86
		18 -- 87
		18 -- 89
		18 -- 90
		18 -- 91
		18 -- 93
		18 -- 95
		18 -- 98
		18 -- 99
		19 -- 21
		19 -- 25
		19 -- 28
		19 -- 29
		19 -- 31
		19 -- 33
		19 -- 36
		19 -- 38
		19 -- 42
		19 -- 44
		19 -- 47
		19 -- 50
		19 -- 51
		19 -- 52
		19 -- 54
		19 -- 57
		19 -- 60
		19 -- 62
		19 -- 63
		19 -- 65
		19 -- 66
		19 -- 68
		19 -- 69
		19 -- 75
		19 -- 76
		19 -- 77
		19 -- 80
		19 -- 81
		19 -- 83
		19 -- 84
		19 -- 85
		19 -- 88
		19 -- 89
		19 -- 92
		19 -- 94
		19 -- 95
		19 -- 96
		19 -- 98
		20 -- 23
		20 -- 25
		20 -- 26
		20 -- 27
		20 -- 30
		20 -- 31
		20 -- 33
		20 -- 35
		20 -- 36
		20 -- 37
		20 -- 40
		20 -- 48
		20 -- 51
		20 -- 52
		20 -- 53
		20 -- 55
		20 -- 56
		20 -- 60
		20 -- 61
		20 -- 66
		20 -- 68
		20 -- 69
		20 -- 70
		20 -- 71
		20 -- 72
		20 -- 74
		20 -- 75
		20 -- 76
		20 -- 77
		20 -- 78
		20 -- 79
		20 -- 80
		20 -- 81
		20 -- 82
		20 -- 83
		20 -- 87
		20 -- 91
		20 -- 92
		20 -- 95
		20 -- 97
		21 -- 23
		21 -- 25
		21 -- 26
		21 -- 27
		21 -- 28
		21 -- 29
		21 -- 30
		21 -- 31
		21 -- 32
		21 -- 33
		21 -- 35
		21 -- 39
		21 -- 40
		21 -- 41
		21 -- 42
		21 -- 44
		21 -- 45
		21 -- 46
		21 -- 49
		21 -- 50
		21 -- 53
		21 -- 54
		21 -- 57
		21 -- 58
		21 -- 59
		21 -- 60
		21 -- 61
		21 -- 63
		21 -- 64
		21 -- 65
		21 -- 67
		21 -- 68
		21 -- 74
		21 -- 75
		21 -- 78
		21 -- 79
		21 -- 81
		21 -- 83
		21 -- 87
		21 -- 88
		21 -- 89
		21 -- 92
		21 -- 93
		21 -- 95
		21 -- 97
		21 -- 98
		22 -- 24
		22 -- 27
		22 -- 29
		22 -- 32
		22 -- 33
		22 -- 34
		22 -- 35
		22 -- 36
		22 -- 37
		22 -- 40
		22 -- 41
		22 -- 42
		22 -- 43
		22 -- 47
		22 -- 48
		22 -- 49
		22 -- 50
		22 -- 56
		22 -- 58
		22 -- 60
		22 -- 63
		22 -- 64
		22 -- 66
		22 -- 67
		22 -- 68
		22 -- 70
		22 -- 71
		22 -- 72
		22 -- 73
		22 -- 76
		22 -- 78
		22 -- 79
		22 -- 84
		22 -- 86
		22 -- 91
		22 -- 92
		22 -- 93
		22 -- 95
		22 -- 97
		22 -- 98
		22 -- 99
		23 -- 25
		23 -- 26
		23 -- 28
		23 -- 29
		23 -- 31
		23 -- 32
		23 -- 34
		23 -- 38
		23 -- 41
		23 -- 44
		23 -- 48
		23 -- 50
		23 -- 52
		23 -- 53
		23 -- 54
		23 -- 58
		23 -- 59
		23 -- 60
		23 -- 61
		23 -- 63
		23 -- 64
		23 -- 65
		23 -- 69
		23 -- 70
		23 -- 71
		23 -- 75
		23 -- 77
		23 -- 78
		23 -- 85
		23 -- 86
		23 -- 89
		23 -- 90
		23 -- 91
		23 -- 95
		23 -- 96
		24 -- 25
		24 -- 30
		24 -- 31
		24 -- 32
		24 -- 34
		24 -- 36
		24 -- 38
		24 -- 39
		24 -- 40
		24 -- 41
		24 -- 42
		24 -- 43
		24 -- 47
		24 -- 48
		24 -- 50
		24 -- 51
		24 -- 53
		24 -- 54
		24 -- 55
		24 -- 56
		24 -- 59
		24 -- 60
		24 -- 61
		24 -- 66
		24 -- 67
		24 -- 68
		24 -- 70
		24 -- 75
		24 -- 77
		24 -- 78
		24 -- 79
		24 -- 81
		24 -- 82
		24 -- 85
		24 -- 87
		24 -- 88
		24 -- 89
		24 -- 91
		24 -- 94
		24 -- 95
		24 -- 96
		25 -- 29
		25 -- 32
		25 -- 35
		25 -- 37
		25 -- 40
		25 -- 43
		25 -- 46
		25 -- 49
		25 -- 51
		25 -- 53
		25 -- 54
		25 -- 59
		25 -- 60
		25 -- 61
		25 -- 62
		25 -- 65
		25 -- 67
		25 -- 68
		25 -- 70
		25 -- 72
		25 -- 73
		25 -- 77
		25 -- 80
		25 -- 81
		25 -- 82
		25 -- 83
		25 -- 84
		25 -- 85
		25 -- 86
		25 -- 88
		25 -- 89
		25 -- 90
		25 -- 91
		25 -- 92
		25 -- 93
		25 -- 99
		26 -- 28
		26 -- 29
		26 -- 33
		26 -- 36
		26 -- 37
		26 -- 38
		26 -- 39
		26 -- 40
		26 -- 41
		26 -- 43
		26 -- 44
		26 -- 47
		26 -- 49
		26 -- 51
		26 -- 53
		26 -- 54
		26 -- 57
		26 -- 58
		26 -- 59
		26 -- 63
		26 -- 65
		26 -- 66
		26 -- 68
		26 -- 70
		26 -- 72
		26 -- 75
		26 -- 76
		26 -- 77
		26 -- 83
		26 -- 84
		26 -- 85
		26 -- 87
		26 -- 88
		26 -- 89
		26 -- 90
		26 -- 91
		26 -- 93
		26 -- 94
		26 -- 95
		26 -- 97
		26 -- 99
		27 -- 28
		27 -- 32
		27 -- 33
		27 -- 39
		27 -- 40
		27 -- 41
		27 -- 42
		27 -- 44
		27 -- 45
		27 -- 46
		27 -- 49
		27 -- 50
		27 -- 53
		27 -- 55
		27 -- 56
		27 -- 58
		27 -- 61
		27 -- 65
		27 -- 66
		27 -- 67
		27 -- 68
		27 -- 69
		27 -- 70
		27 -- 71
		27 -- 73
		27 -- 74
		27 -- 76
		27 -- 77
		27 -- 78
		27 -- 79
		27 -- 82
		27 -- 91
		27 -- 96
		27 -- 98
		27 -- 99
		28 -- 30
		28 -- 31
		28 -- 32
		28 -- 33
		28 -- 37
		28 -- 38
		28 -- 39
		28 -- 40
		28 -- 41
		28 -- 43
		28 -- 48
		28 -- 49
		28 -- 50
		28 -- 53
		28 -- 55
		28 -- 56
		28 -- 58
		28 -- 59
		28 -- 60
		28 -- 62
		28 -- 63
		28 -- 65
		28 -- 67
		28 -- 69
		28 -- 71
		28 -- 72
		28 -- 73
		28 -- 75
		28 -- 78
		28 -- 80
		28 -- 81
		28 -- 85
		28 -- 86
		28 -- 87
		28 -- 88
		28 -- 89
		28 -- 90
		28 -- 91
		28 -- 96
		28 -- 97
		28 -- 98
		28 -- 99
		29 -- 33
		29 -- 34
		29 -- 35
		29 -- 36
		29 -- 41
		29 -- 42
		29 -- 46
		29 -- 47
		29 -- 48
		29 -- 49
		29 -- 50
		29 -- 52
		29 -- 53
		29 -- 56
		29 -- 58
		29 -- 59
		29 -- 60
		29 -- 67
		29 -- 68
		29 -- 76
		29 -- 79
		29 -- 80
		29 -- 82
		29 -- 86
		29 -- 87
		29 -- 91
		29 -- 95
		29 -- 96
		29 -- 97
		29 -- 98
		29 -- 99
		30 -- 34
		30 -- 36
		30 -- 39
		30 -- 42
		30 -- 44
		30 -- 46
		30 -- 47
		30 -- 48
		30 -- 49
		30 -- 50
		30 -- 53
		30 -- 54
		30 -- 55
		30 -- 56
		30 -- 57
		30 -- 58
		30 -- 60
		30 -- 62
		30 -- 67
		30 -- 70
		30 -- 72
		30 -- 73
		30 -- 76
		30 -- 77
		30 -- 78
		30 -- 79
		30 -- 80
		30 -- 84
		30 -- 85
		30 -- 88
		30 -- 89
		30 -- 90
		31 -- 33
		31 -- 36
		31 -- 37
		31 -- 38
		31 -- 39
		31 -- 41
		31 -- 43
		31 -- 45
		31 -- 46
		31 -- 47
		31 -- 50
		31 -- 54
		31 -- 56
		31 -- 57
		31 -- 58
		31 -- 60
		31 -- 61
		31 -- 63
		31 -- 65
		31 -- 66
		31 -- 67
		31 -- 70
		31 -- 71
		31 -- 72
		31 -- 77
		31 -- 82
		31 -- 85
		31 -- 88
		31 -- 94
		31 -- 95
		32 -- 65
		32 -- 76
		32 -- 66
		32 -- 78
		32 -- 80
		32 -- 81
		32 -- 90
		32 -- 93
		32 -- 69
		32 -- 34
		32 -- 87
		32 -- 36
		32 -- 37
		32 -- 92
		32 -- 42
		32 -- 70
		32 -- 46
		32 -- 47
		32 -- 49
		32 -- 91
		32 -- 82
		32 -- 89
		32 -- 56
		32 -- 88
		32 -- 58
		32 -- 60
		32 -- 62
		32 -- 63
		33 -- 34
		33 -- 35
		33 -- 37
		33 -- 38
		33 -- 41
		33 -- 42
		33 -- 43
		33 -- 47
		33 -- 49
		33 -- 51
		33 -- 55
		33 -- 57
		33 -- 59
		33 -- 61
		33 -- 63
		33 -- 64
		33 -- 65
		33 -- 67
		33 -- 68
		33 -- 69
		33 -- 70
		33 -- 71
		33 -- 73
		33 -- 74
		33 -- 75
		33 -- 76
		33 -- 77
		33 -- 79
		33 -- 81
		33 -- 82
		33 -- 83
		33 -- 84
		33 -- 87
		33 -- 88
		33 -- 89
		33 -- 93
		33 -- 94
		33 -- 95
		33 -- 96
		33 -- 98
		33 -- 99
		34 -- 66
		34 -- 67
		34 -- 68
		34 -- 69
		34 -- 96
		34 -- 74
		34 -- 76
		34 -- 79
		34 -- 88
		34 -- 97
		34 -- 90
		34 -- 95
		34 -- 35
		34 -- 37
		34 -- 38
		34 -- 39
		34 -- 40
		34 -- 42
		34 -- 65
		34 -- 93
		34 -- 47
		34 -- 72
		34 -- 55
		34 -- 56
		34 -- 57
		34 -- 59
		34 -- 60
		34 -- 62
		34 -- 63
		35 -- 36
		35 -- 37
		35 -- 41
		35 -- 43
		35 -- 44
		35 -- 45
		35 -- 46
		35 -- 47
		35 -- 48
		35 -- 49
		35 -- 51
		35 -- 54
		35 -- 55
		35 -- 57
		35 -- 58
		35 -- 61
		35 -- 63
		35 -- 65
		35 -- 66
		35 -- 70
		35 -- 72
		35 -- 74
		35 -- 75
		35 -- 76
		35 -- 78
		35 -- 80
		35 -- 85
		35 -- 86
		35 -- 87
		35 -- 89
		35 -- 91
		35 -- 92
		35 -- 94
		35 -- 95
		35 -- 96
		35 -- 98
		36 -- 38
		36 -- 39
		36 -- 40
		36 -- 41
		36 -- 42
		36 -- 44
		36 -- 45
		36 -- 46
		36 -- 47
		36 -- 50
		36 -- 51
		36 -- 53
		36 -- 55
		36 -- 57
		36 -- 58
		36 -- 59
		36 -- 62
		36 -- 63
		36 -- 64
		36 -- 65
		36 -- 67
		36 -- 69
		36 -- 71
		36 -- 72
		36 -- 73
		36 -- 77
		36 -- 79
		36 -- 80
		36 -- 82
		36 -- 84
		36 -- 85
		36 -- 86
		36 -- 89
		36 -- 90
		36 -- 91
		36 -- 94
		36 -- 95
		36 -- 97
		36 -- 98
		37 -- 39
		37 -- 42
		37 -- 44
		37 -- 46
		37 -- 48
		37 -- 49
		37 -- 50
		37 -- 51
		37 -- 56
		37 -- 57
		37 -- 58
		37 -- 60
		37 -- 61
		37 -- 63
		37 -- 66
		37 -- 69
		37 -- 70
		37 -- 71
		37 -- 73
		37 -- 75
		37 -- 77
		37 -- 79
		37 -- 80
		37 -- 84
		37 -- 86
		37 -- 88
		37 -- 89
		37 -- 91
		37 -- 92
		37 -- 94
		37 -- 97
		37 -- 98
		38 -- 39
		38 -- 40
		38 -- 46
		38 -- 47
		38 -- 52
		38 -- 54
		38 -- 56
		38 -- 57
		38 -- 58
		38 -- 61
		38 -- 62
		38 -- 64
		38 -- 66
		38 -- 67
		38 -- 68
		38 -- 69
		38 -- 70
		38 -- 71
		38 -- 72
		38 -- 73
		38 -- 74
		38 -- 75
		38 -- 79
		38 -- 83
		38 -- 84
		38 -- 85
		38 -- 86
		38 -- 87
		38 -- 89
		38 -- 93
		38 -- 95
		38 -- 97
		39 -- 40
		39 -- 42
		39 -- 43
		39 -- 44
		39 -- 45
		39 -- 46
		39 -- 47
		39 -- 52
		39 -- 53
		39 -- 54
		39 -- 56
		39 -- 58
		39 -- 63
		39 -- 64
		39 -- 65
		39 -- 67
		39 -- 68
		39 -- 69
		39 -- 71
		39 -- 75
		39 -- 81
		39 -- 82
		39 -- 84
		39 -- 85
		39 -- 89
		39 -- 90
		39 -- 92
		39 -- 94
		39 -- 96
		39 -- 99
		40 -- 48
		40 -- 49
		40 -- 50
		40 -- 52
		40 -- 54
		40 -- 55
		40 -- 57
		40 -- 59
		40 -- 61
		40 -- 63
		40 -- 65
		40 -- 66
		40 -- 67
		40 -- 68
		40 -- 69
		40 -- 70
		40 -- 72
		40 -- 77
		40 -- 79
		40 -- 81
		40 -- 83
		40 -- 86
		40 -- 88
		40 -- 89
		40 -- 91
		40 -- 92
		40 -- 97
		40 -- 99
		41 -- 45
		41 -- 46
		41 -- 47
		41 -- 49
		41 -- 50
		41 -- 52
		41 -- 54
		41 -- 55
		41 -- 56
		41 -- 57
		41 -- 60
		41 -- 65
		41 -- 67
		41 -- 68
		41 -- 70
		41 -- 71
		41 -- 73
		41 -- 74
		41 -- 75
		41 -- 76
		41 -- 83
		41 -- 85
		41 -- 86
		41 -- 87
		41 -- 89
		41 -- 92
		41 -- 93
		41 -- 98
		42 -- 52
		42 -- 53
		42 -- 56
		42 -- 59
		42 -- 60
		42 -- 63
		42 -- 68
		42 -- 70
		42 -- 72
		42 -- 73
		42 -- 77
		42 -- 79
		42 -- 82
		42 -- 83
		42 -- 86
		42 -- 89
		42 -- 90
		42 -- 91
		42 -- 94
		42 -- 97
		42 -- 98
		42 -- 99
		43 -- 64
		43 -- 66
		43 -- 69
		43 -- 70
		43 -- 76
		43 -- 77
		43 -- 80
		43 -- 81
		43 -- 84
		43 -- 87
		43 -- 91
		43 -- 93
		43 -- 96
		43 -- 98
		43 -- 65
		43 -- 92
		43 -- 44
		43 -- 45
		43 -- 46
		43 -- 47
		43 -- 72
		43 -- 50
		43 -- 51
		43 -- 53
		43 -- 55
		43 -- 88
		43 -- 62
		44 -- 45
		44 -- 47
		44 -- 48
		44 -- 50
		44 -- 53
		44 -- 56
		44 -- 57
		44 -- 59
		44 -- 61
		44 -- 63
		44 -- 64
		44 -- 66
		44 -- 68
		44 -- 72
		44 -- 76
		44 -- 78
		44 -- 83
		44 -- 84
		44 -- 85
		44 -- 86
		44 -- 88
		44 -- 89
		44 -- 90
		44 -- 92
		44 -- 93
		44 -- 95
		44 -- 98
		45 -- 65
		45 -- 70
		45 -- 81
		45 -- 82
		45 -- 83
		45 -- 92
		45 -- 93
		45 -- 94
		45 -- 95
		45 -- 97
		45 -- 98
		45 -- 66
		45 -- 46
		45 -- 76
		45 -- 49
		45 -- 91
		45 -- 79
		45 -- 55
		45 -- 56
		45 -- 57
		45 -- 58
		45 -- 59
		45 -- 60
		46 -- 49
		46 -- 54
		46 -- 55
		46 -- 60
		46 -- 62
		46 -- 63
		46 -- 67
		46 -- 68
		46 -- 69
		46 -- 70
		46 -- 71
		46 -- 72
		46 -- 73
		46 -- 74
		46 -- 75
		46 -- 77
		46 -- 78
		46 -- 79
		46 -- 82
		46 -- 83
		46 -- 85
		46 -- 86
		46 -- 88
		46 -- 91
		46 -- 92
		46 -- 93
		46 -- 95
		46 -- 97
		46 -- 99
		47 -- 48
		47 -- 53
		47 -- 54
		47 -- 60
		47 -- 64
		47 -- 66
		47 -- 67
		47 -- 68
		47 -- 70
		47 -- 71
		47 -- 74
		47 -- 79
		47 -- 80
		47 -- 86
		47 -- 90
		47 -- 92
		47 -- 95
		47 -- 96
		47 -- 98
		47 -- 99
		48 -- 49
		48 -- 50
		48 -- 52
		48 -- 55
		48 -- 56
		48 -- 58
		48 -- 59
		48 -- 63
		48 -- 64
		48 -- 66
		48 -- 67
		48 -- 70
		48 -- 74
		48 -- 76
		48 -- 80
		48 -- 81
		48 -- 84
		48 -- 85
		48 -- 86
		48 -- 89
		48 -- 90
		48 -- 92
		48 -- 93
		48 -- 94
		48 -- 95
		48 -- 96
		48 -- 97
		49 -- 50
		49 -- 51
		49 -- 52
		49 -- 53
		49 -- 54
		49 -- 55
		49 -- 56
		49 -- 57
		49 -- 58
		49 -- 60
		49 -- 61
		49 -- 62
		49 -- 63
		49 -- 65
		49 -- 70
		49 -- 71
		49 -- 72
		49 -- 73
		49 -- 75
		49 -- 80
		49 -- 81
		49 -- 82
		49 -- 83
		49 -- 86
		49 -- 87
		49 -- 94
		49 -- 96
		49 -- 99
		50 -- 52
		50 -- 54
		50 -- 56
		50 -- 59
		50 -- 63
		50 -- 64
		50 -- 65
		50 -- 69
		50 -- 70
		50 -- 75
		50 -- 80
		50 -- 82
		50 -- 84
		50 -- 86
		50 -- 87
		50 -- 88
		50 -- 90
		50 -- 91
		50 -- 93
		50 -- 96
		50 -- 99
		51 -- 64
		51 -- 67
		51 -- 68
		51 -- 74
		51 -- 75
		51 -- 99
		51 -- 80
		51 -- 82
		51 -- 92
		51 -- 90
		51 -- 94
		51 -- 69
		51 -- 65
		51 -- 93
		51 -- 76
		51 -- 83
		51 -- 52
		51 -- 54
		51 -- 55
		51 -- 56
		51 -- 88
		51 -- 72
		52 -- 64
		52 -- 65
		52 -- 66
		52 -- 72
		52 -- 74
		52 -- 78
		52 -- 79
		52 -- 80
		52 -- 82
		52 -- 88
		52 -- 90
		52 -- 91
		52 -- 94
		52 -- 95
		52 -- 84
		52 -- 97
		52 -- 96
		52 -- 83
		52 -- 57
		52 -- 59
		52 -- 60
		52 -- 63
		53 -- 55
		53 -- 56
		53 -- 57
		53 -- 59
		53 -- 60
		53 -- 63
		53 -- 65
		53 -- 66
		53 -- 68
		53 -- 69
		53 -- 72
		53 -- 73
		53 -- 76
		53 -- 77
		53 -- 78
		53 -- 79
		53 -- 82
		53 -- 84
		53 -- 85
		53 -- 86
		53 -- 90
		53 -- 91
		53 -- 92
		53 -- 93
		53 -- 96
		53 -- 97
		53 -- 99
		54 -- 59
		54 -- 60
		54 -- 61
		54 -- 62
		54 -- 64
		54 -- 65
		54 -- 66
		54 -- 67
		54 -- 68
		54 -- 69
		54 -- 73
		54 -- 76
		54 -- 79
		54 -- 81
		54 -- 82
		54 -- 83
		54 -- 85
		54 -- 86
		54 -- 89
		54 -- 90
		54 -- 91
		54 -- 93
		54 -- 94
		54 -- 95
		54 -- 96
		54 -- 99
		55 -- 59
		55 -- 60
		55 -- 62
		55 -- 65
		55 -- 66
		55 -- 68
		55 -- 69
		55 -- 70
		55 -- 71
		55 -- 74
		55 -- 75
		55 -- 80
		55 -- 82
		55 -- 83
		55 -- 86
		55 -- 87
		55 -- 91
		55 -- 92
		55 -- 94
		55 -- 96
		55 -- 97
		55 -- 98
		56 -- 60
		56 -- 62
		56 -- 63
		56 -- 64
		56 -- 67
		56 -- 68
		56 -- 69
		56 -- 72
		56 -- 77
		56 -- 82
		56 -- 86
		56 -- 91
		56 -- 92
		56 -- 93
		56 -- 94
		56 -- 97
		56 -- 99
		57 -- 59
		57 -- 60
		57 -- 61
		57 -- 62
		57 -- 63
		57 -- 65
		57 -- 66
		57 -- 68
		57 -- 69
		57 -- 72
		57 -- 73
		57 -- 77
		57 -- 78
		57 -- 79
		57 -- 80
		57 -- 81
		57 -- 83
		57 -- 85
		57 -- 88
		57 -- 90
		57 -- 91
		57 -- 95
		57 -- 97
		57 -- 98
		58 -- 60
		58 -- 61
		58 -- 62
		58 -- 63
		58 -- 65
		58 -- 66
		58 -- 67
		58 -- 69
		58 -- 70
		58 -- 71
		58 -- 72
		58 -- 74
		58 -- 76
		58 -- 77
		58 -- 78
		58 -- 79
		58 -- 81
		58 -- 83
		58 -- 84
		58 -- 92
		58 -- 95
		58 -- 96
		58 -- 97
		59 -- 60
		59 -- 61
		59 -- 62
		59 -- 64
		59 -- 66
		59 -- 67
		59 -- 69
		59 -- 71
		59 -- 76
		59 -- 77
		59 -- 79
		59 -- 82
		59 -- 84
		59 -- 85
		59 -- 86
		59 -- 87
		59 -- 88
		59 -- 90
		59 -- 91
		59 -- 95
		59 -- 98
		60 -- 61
		60 -- 64
		60 -- 65
		60 -- 66
		60 -- 69
		60 -- 71
		60 -- 78
		60 -- 80
		60 -- 83
		60 -- 85
		60 -- 88
		60 -- 90
		60 -- 93
		60 -- 96
		60 -- 97
		60 -- 98
		61 -- 63
		61 -- 65
		61 -- 66
		61 -- 68
		61 -- 72
		61 -- 74
		61 -- 82
		61 -- 84
		61 -- 85
		61 -- 89
		61 -- 90
		61 -- 92
		61 -- 94
		61 -- 95
		61 -- 96
		61 -- 97
		61 -- 99
		62 -- 66
		62 -- 64
		62 -- 85
		62 -- 89
		62 -- 71
		62 -- 97
		62 -- 96
		62 -- 83
		63 -- 67
		63 -- 70
		63 -- 71
		63 -- 72
		63 -- 74
		63 -- 82
		63 -- 83
		63 -- 84
		63 -- 85
		63 -- 86
		63 -- 89
		63 -- 92
		63 -- 93
		63 -- 99
		64 -- 65
		64 -- 67
		64 -- 97
		64 -- 69
		64 -- 72
		64 -- 76
		64 -- 75
		64 -- 78
		64 -- 81
		64 -- 82
		64 -- 83
		64 -- 84
		64 -- 89
		64 -- 71
		64 -- 79
		64 -- 86
		64 -- 93
		64 -- 96
		64 -- 99
		64 -- 87
		65 -- 66
		65 -- 67
		65 -- 69
		65 -- 71
		65 -- 73
		65 -- 74
		65 -- 75
		65 -- 77
		65 -- 78
		65 -- 79
		65 -- 80
		65 -- 81
		65 -- 83
		65 -- 84
		65 -- 85
		65 -- 86
		65 -- 87
		65 -- 89
		65 -- 91
		65 -- 92
		65 -- 95
		65 -- 96
		66 -- 68
		66 -- 71
		66 -- 74
		66 -- 76
		66 -- 77
		66 -- 83
		66 -- 84
		66 -- 87
		66 -- 88
		66 -- 91
		66 -- 92
		66 -- 95
		66 -- 99
		67 -- 68
		67 -- 69
		67 -- 70
		67 -- 71
		67 -- 72
		67 -- 74
		67 -- 75
		67 -- 79
		67 -- 81
		67 -- 83
		67 -- 85
		67 -- 88
		67 -- 89
		67 -- 90
		67 -- 94
		67 -- 95
		67 -- 96
		67 -- 97
		67 -- 98
		68 -- 69
		68 -- 70
		68 -- 71
		68 -- 73
		68 -- 82
		68 -- 83
		68 -- 86
		68 -- 88
		68 -- 90
		68 -- 93
		68 -- 97
		68 -- 99
		69 -- 70
		69 -- 71
		69 -- 77
		69 -- 78
		69 -- 79
		69 -- 81
		69 -- 82
		69 -- 83
		69 -- 85
		69 -- 87
		69 -- 92
		69 -- 93
		69 -- 96
		69 -- 97
		69 -- 99
		70 -- 71
		70 -- 72
		70 -- 73
		70 -- 74
		70 -- 75
		70 -- 76
		70 -- 77
		70 -- 78
		70 -- 80
		70 -- 83
		70 -- 89
		70 -- 94
		70 -- 97
		70 -- 99
		71 -- 76
		71 -- 77
		71 -- 78
		71 -- 79
		71 -- 81
		71 -- 82
		71 -- 83
		71 -- 84
		71 -- 87
		71 -- 90
		71 -- 93
		71 -- 94
		71 -- 96
		72 -- 73
		72 -- 77
		72 -- 78
		72 -- 79
		72 -- 81
		72 -- 82
		72 -- 85
		72 -- 86
		72 -- 87
		72 -- 89
		72 -- 91
		72 -- 92
		72 -- 93
		72 -- 94
		72 -- 95
		72 -- 96
		72 -- 97
		72 -- 99
		73 -- 75
		73 -- 77
		73 -- 81
		73 -- 82
		73 -- 83
		73 -- 84
		73 -- 85
		73 -- 89
		73 -- 98
		73 -- 99
		73 -- 97
		73 -- 74
		74 -- 75
		74 -- 76
		74 -- 78
		74 -- 79
		74 -- 80
		74 -- 81
		74 -- 82
		74 -- 83
		74 -- 85
		74 -- 89
		74 -- 90
		74 -- 92
		74 -- 94
		74 -- 96
		74 -- 98
		75 -- 86
		75 -- 97
		75 -- 78
		75 -- 99
		75 -- 88
		75 -- 85
		76 -- 96
		76 -- 98
		76 -- 85
		76 -- 87
		76 -- 92
		76 -- 82
		76 -- 90
		76 -- 97
		76 -- 93
		76 -- 84
		76 -- 94
		77 -- 78
		77 -- 80
		77 -- 81
		77 -- 83
		77 -- 84
		77 -- 86
		77 -- 87
		77 -- 89
		77 -- 90
		77 -- 91
		77 -- 95
		77 -- 96
		77 -- 98
		78 -- 79
		78 -- 82
		78 -- 83
		78 -- 85
		78 -- 86
		78 -- 89
		78 -- 90
		78 -- 93
		78 -- 95
		78 -- 96
		78 -- 97
		78 -- 99
		79 -- 81
		79 -- 84
		79 -- 88
		79 -- 91
		79 -- 92
		79 -- 94
		79 -- 96
		79 -- 97
		80 -- 83
		80 -- 85
		80 -- 88
		80 -- 89
		80 -- 90
		80 -- 92
		80 -- 93
		80 -- 95
		80 -- 97
		80 -- 98
		81 -- 82
		81 -- 83
		81 -- 84
		81 -- 86
		81 -- 88
		81 -- 89
		81 -- 90
		81 -- 92
		81 -- 94
		81 -- 95
		81 -- 96
		81 -- 97
		82 -- 84
		82 -- 87
		82 -- 88
		82 -- 89
		82 -- 92
		82 -- 95
		82 -- 96
		83 -- 84
		83 -- 85
		83 -- 86
		83 -- 87
		83 -- 88
		83 -- 90
		83 -- 91
		83 -- 94
		83 -- 96
		83 -- 98
		84 -- 87
		84 -- 88
		84 -- 89
		84 -- 92
		84 -- 93
		84 -- 96
		84 -- 98
		84 -- 99
		85 -- 87
		85 -- 89
		85 -- 91
		85 -- 92
		85 -- 93
		85 -- 97
		85 -- 99
		86 -- 88
		86 -- 92
		86 -- 93
		87 -- 89
		87 -- 90
		87 -- 91
		87 -- 92
		87 -- 93
		87 -- 94
		87 -- 96
		87 -- 98
		87 -- 99
		88 -- 94
		88 -- 96
		88 -- 97
		88 -- 99
		89 -- 92
		89 -- 95
		89 -- 97
		89 -- 98
		90 -- 91
		90 -- 94
		90 -- 97
		90 -- 98
		91 -- 92
		91 -- 93
		91 -- 94
		91 -- 98
		93 -- 97
		93 -- 98
		93 -- 99
		94 -- 97
		95 -- 96
		95 -- 97
		95 -- 98
		95 -- 99
		96 -- 97
		98 -- 99
}