100
154 240
43 241
112 251
87 282
55 106
205 294
175 77
296 56
179 96
4 77
219 25
39 34
124 113
141 224
196 266
189 131
121 6
112 70
81 51
202 103
136 192
270 20
85 165
92 9
293 262
165 208
247 50
108 135
187 210
212 212
44 268
262 280
75 218
186 109
248 294
196 133
262 9
200 118
193 29
45 53
28 160
35 34
245 59
175 141
100 94
125 96
166 189
142 20
291 168
267 28
265 106
4 114
24 107
127 15
193 111
265 83
283 245
92 150
94 145
178 178
172 291
285 202
115 69
160 141
165 220
204 248
53 188
178 269
44 73
182 193
290 156
16 12
41 149
91 283
262 251
196 207
247 300
12 9
134 193
254 172
287 259
106 247
289 143
50 118
121 78
103 156
290 118
251 126
167 36
234 22
120 125
71 191
133 162
229 204
95 240
149 36
199 114
121 277
20 139
252 96
0 1
0 5
0 6
0 7
0 10
0 11
0 12
0 15
0 16
0 18
0 19
0 22
0 27
0 29
0 30
0 31
0 32
0 33
0 36
0 37
0 38
0 40
0 42
0 43
0 48
0 51
0 53
0 56
0 59
0 61
0 63
0 65
0 66
0 68
0 71
0 72
0 74
0 75
0 76
0 78
0 79
0 80
0 83
0 86
0 89
0 90
0 91
0 92
0 94
0 95
0 96
0 97
0 98
0 99
1 2
1 3
1 4
1 5
1 10
1 14
1 15
1 17
1 18
1 22
1 23
1 27
1 30
1 31
1 32
1 34
1 35
1 36
1 37
1 39
1 43
1 44
1 45
1 50
1 51
1 53
1 54
1 55
1 57
1 58
1 59
1 62
1 64
1 67
1 68
1 69
1 70
1 71
1 74
1 75
1 76
1 80
1 81
1 82
1 83
1 85
1 87
1 90
1 91
1 92
1 93
1 95
1 99
2 3
2 6
2 8
2 9
2 16
2 20
2 22
2 23
2 29
2 31
2 32
2 35
2 36
2 37
2 38
2 40
2 41
2 42
2 43
2 48
2 49
2 50
2 52
2 53
2 54
2 56
2 57
2 58
2 59
2 60
2 61
2 63
2 67
2 71
2 72
2 74
2 75
2 77
2 78
2 81
2 87
2 90
2 92
2 95
2 96
2 98
3 4
3 6
3 7
3 8
3 10
3 12
3 13
3 17
3 19
3 21
3 24
3 25
3 26
3 33
3 35
3 36
3 37
3 39
3 40
3 41
3 42
3 44
3 45
3 46
3 51
3 55
3 58
3 60
3 61
3 62
3 67
3 68
3 71
3 72
3 74
3 76
3 78
3 79
3 80
3 81
3 82
3 84
3 86
3 94
3 96
3 98
3 99
4 7
4 8
4 10
4 14
4 16
4 20
4 21
4 22
4 23
4 24
4 26
4 27
4 29
4 31
4 32
4 37
4 44
4 45
4 46
4 49
4 50
4 51
4 54
4 56
4 59
4 60
4 61
4 66
4 67
4 69
4 70
4 71
4 74
4 75
4 80
4 84
4 85
4 87
4 88
4 89
4 90
4 91
4 92
4 93
4 94
4 97
4 98
4 99
5 7
5 11
5 13
5 14
5 15
5 16
5 17
5 18
5 20
5 22
5 23
5 24
5 25
5 26
5 27
5 29
5 30
5 32
5 33
5 35
5 36
5 37
5 40
5 43
5 44
5 46
5 47
5 48
5 49
5 55
5 57
5 58
5 60
5 63
5 67
5 68
5 70
5 71
5 72
5 73
5 74
5 76
5 79
5 80
5 83
5 85
5 87
5 88
5 89
5 91
5 94
5 95
5 96
5 98
5 99
6 64
6 66
6 69
6 65
6 9
6 74
6 11
6 12
6 13
6 78
6 81
6 18
6 20
6 21
6 22
6 24
6 89
6 71
6 29
6 30
6 31
6 32
6 33
6 36
6 90
6 42
6 43
6 44
6 96
6 48
6 49
6 50
6 52
6 76
6 55
6 56
6 57
6 61
7 65
7 83
7 68
7 71
7 8
7 76
7 10
7 12
7 13
7 15
7 80
7 82
7 19
7 84
7 97
7 86
7 89
7 25
7 79
7 28
7 94
7 31
7 33
7 67
7 35
7 36
7 39
7 92
7 95
7 43
7 44
7 45
7 51
7 52
7 57
7 58
7 59
8 9
8 10
8 11
8 14
8 15
8 19
8 20
8 21
8 22
8 25
8 27
8 29
8 31
8 32
8 33
8 34
8 36
8 37
8 39
8 41
8 42
8 43
8 45
8 46
8 49
8 50
8 52
8 56
8 57
8 60
8 61
8 63
8 64
8 66
8 67
8 69
8 70
8 74
8 75
8 76
8 77
8 78
8 81
8 82
8 83
8 85
8 86
8 87
8 88
8 93
8 94
8 95
9 11
9 12
9 13
9 14
9 15
9 20
9 21
9 22
9 23
9 26
9 27
9 29
9 30
9 33
9 34
9 37
9 38
9 39
9 41
9 45
9 46
9 50
9 51
9 52
9 57
9 59
9 60
9 63
9 64
9 65
9 67
9 69
9 72
9 73
9 74
9 75
9 78
9 80
9 81
9 84
9 85
9 91
9 93
9 94
9 95
9 97
10 11
10 13
10 19
10 22
10 23
10 24
10 28
10 30
10 32
10 33
10 34
10 35
10 36
10 39
10 40
10 42
10 43
10 44
10 45
10 46
10 47
10 52
10 53
10 57
10 58
10 59
10 60
10 62
10 64
10 66
10 67
10 70
10 71
10 72
10 73
10 76
10 79
10 80
10 81
10 82
10 84
10 85
10 88
10 91
10 92
10 93
10 94
10 95
10 99
11 13
11 16
11 17
11 20
11 22
11 23
11 25
11 26
11 27
11 32
11 33
11 34
11 35
11 36
11 37
11 39
11 40
11 44
11 47
11 49
11 51
11 52
11 53
11 54
11 56
11 58
11 59
11 60
11 61
11 63
11 65
11 66
11 67
11 70
11 77
11 78
11 79
11 80
11 81
11 82
11 83
11 85
11 86
11 87
11 88
11 90
11 92
11 94
11 97
12 14
12 15
12 16
12 20
12 22
12 26
12 27
12 28
12 36
12 37
12 43
12 44
12 45
12 46
12 48
12 49
12 53
12 54
12 56
12 62
12 63
12 65
12 66
12 67
12 68
12 69
12 70
12 71
12 75
12 78
12 80
12 81
12 84
12 85
12 86
12 88
12 89
12 91
12 93
12 96
13 17
13 21
13 22
13 23
13 27
13 30
13 36
13 37
13 41
13 44
13 45
13 46
13 49
13 52
13 54
13 55
13 56
13 57
13 60
13 61
13 62
13 63
13 65
13 67
13 69
13 70
13 74
13 75
13 76
13 77
13 78
13 79
13 80
13 83
13 85
13 86
13 89
13 91
13 93
13 94
13 95
13 96
13 97
13 99
14 16
14 19
14 23
14 24
14 25
14 27
14 28
14 32
14 33
14 35
14 41
14 42
14 43
14 46
14 55
14 56
14 57
14 58
14 59
14 60
14 62
14 63
14 65
14 66
14 68
14 70
14 73
14 74
14 77
14 81
14 82
14 83
14 86
14 90
14 91
14 92
14 93
14 94
14 95
14 96
14 97
14 99
15 66
15 94
15 70
15 78
15 79
15 18
15 19
15 20
15 86
15 69
15 88
15 25
15 26
15 29
15 30
15 31
15 32
15 34
15 35
15 38
15 39
15 40
15 95
15 43
15 44
15 46
15 47
15 50
15 83
15 53
15 54
15 56
15 89
15 60
15 61
15 65
16 17
16 18
16 19
16 21
16 22
16 23
16 24
16 29
16 30
16 33
16 34
16 35
16 37
16 38
16 39
16 43
16 45
16 48
16 50
16 54
16 55
16 56
16 60
16 69
16 70
16 75
16 77
16 78
16 83
16 85
16 86
16 88
16 89
16 90
16 91
16 92
16 94
16 98
17 18
17 19
17 20
17 21
17 26
17 28
17 29
17 30
17 31
17 34
17 37
17 38
17 39
17 40
17 45
17 47
17 48
17 49
17 50
17 54
17 56
17 58
17 62
17 64
17 68
17 69
17 70
17 71
17 72
17 73
17 74
17 77
17 78
17 79
17 80
17 81
17 82
17 84
17 89
17 90
17 93
17 94
17 99
18 21
18 22
18 24
18 25
18 26
18 27
18 30
18 34
18 36
18 37
18 38
18 39
18 41
18 44
18 51
18 52
18 56
18 57
18 59
18 60
18 61
18 62
18 63
18 65
18 67
18 70
18 71
18 75
18 77
18 79
18 80
18 82
18 83
18 84
18 86
18 88
18 90
18 92
18 93
18 96
18 97
18 98
18 99
19 25
19 29
19 32
19 33
19 34
19 35
19 36
19 38
19 41
19 46
19 48
19 49
19 50
19 51
19 52
19 54
19 57
19 60
19 62
19 63
19 64
19 65
19 67
19 68
19 70
19 72
19 75
19 80
19 81
19 82
19 84
19 86
19 89
19 90
19 91
19 92
19 94
19 97
20 27
20 29
20 31
20 34
20 35
20 37
20 40
20 41
20 44
20 46
20 47
20 48
20 49
20 51
20 52
20 54
20 55
20 57
20 58
20 59
20 60
20 61
20 62
20 63
20 66
20 69
20 72
20 76
20 79
20 80
20 82
20 83
20 84
20 87
20 89
20 90
20 92
20 95
20 96
20 98
21 24
21 26
21 32
21 33
21 35
21 39
21 41
21 45
21 48
21 53
21 55
21 56
21 57
21 59
21 60
21 62
21 63
21 64
21 66
21 68
21 72
21 73
21 74
21 75
21 76
21 78
21 79
21 82
21 84
21 85
21 87
21 89
21 90
21 91
21 92
21 93
21 94
21 95
21 99
22 23
22 24
22 27
22 28
22 30
22 32
22 33
22 34
22 35
22 36
22 37
22 39
22 40
22 42
22 53
22 54
22 56
22 57
22 58
22 60
22 64
22 66
22 70
22 72
22 73
22 75
22 76
22 77
22 81
22 85
22 86
22 91
22 92
22 93
22 96
22 98
22 99
23 24
23 29
23 36
23 37
23 39
23 40
23 41
23 44
23 45
23 50
23 54
23 55
23 56
23 57
23 59
23 60
23 61
23 62
23 63
23 66
23 67
23 69
23 70
23 71
23 73
23 75
23 76
23 77
23 78
23 83
23 85
23 86
23 87
23 88
23 89
23 93
23 94
23 95
23 97
23 99
24 26
24 27
24 29
24 31
24 34
24 36
24 40
24 42
24 45
24 46
24 47
24 51
24 53
24 55
24 56
24 58
24 59
24 60
24 61
24 62
24 66
24 68
24 70
24 71
24 72
24 78
24 79
24 83
24 85
24 91
24 92
24 93
24 95
24 96
25 28
25 30
25 31
25 32
25 35
25 37
25 38
25 41
25 42
25 43
25 44
25 46
25 47
25 50
25 51
25 52
25 53
25 58
25 59
25 62
25 63
25 64
25 65
25 66
25 67
25 73
25 76
25 77
25 80
25 86
25 87
25 88
25 89
25 90
25 94
25 95
25 96
25 97
25 98
26 27
26 28
26 34
26 35
26 39
26 41
26 45
26 46
26 47
26 50
26 51
26 53
26 58
26 60
26 61
26 62
26 63
26 64
26 65
26 66
26 69
26 71
26 78
26 80
26 85
26 87
26 88
26 90
26 91
26 92
26 94
26 95
26 97
26 98
26 99
27 28
27 29
27 30
27 32
27 35
27 36
27 37
27 42
27 43
27 45
27 49
27 50
27 53
27 54
27 55
27 56
27 57
27 58
27 59
27 60
27 61
27 64
27 67
27 68
27 70
27 74
27 75
27 79
27 81
27 83
27 84
27 85
27 89
27 90
27 91
27 93
27 94
27 96
27 97
27 98
28 64
28 65
28 66
28 97
28 69
28 70
28 75
28 80
28 82
28 83
28 84
28 89
28 30
28 31
28 96
28 33
28 34
28 35
28 36
28 37
28 38
28 81
28 45
28 47
28 99
28 50
28 52
28 53
28 57
28 61
28 63
29 30
29 32
29 33
29 36
29 37
29 40
29 46
29 47
29 53
29 55
29 58
29 59
29 61
29 62
29 63
29 66
29 69
29 72
29 73
29 74
29 82
29 83
29 84
29 85
29 88
29 91
29 97
29 98
29 99
30 31
30 32
30 34
30 35
30 37
30 39
30 40
30 41
30 43
30 44
30 46
30 47
30 48
30 49
30 50
30 53
30 55
30 58
30 59
30 60
30 61
30 64
30 71
30 72
30 73
30 75
30 76
30 77
30 78
30 80
30 81
30 82
30 84
30 86
30 87
30 88
30 90
30 92
30 97
30 99
31 32
31 33
31 35
31 36
31 37
31 38
31 40
31 41
31 43
31 44
31 45
31 49
31 50
31 55
31 56
31 58
31 60
31 62
31 63
31 64
31 65
31 66
31 69
31 70
31 75
31 76
31 78
31 82
31 83
31 85
31 86
31 87
31 93
31 96
31 97
31 98
32 33
32 35
32 39
32 41
32 42
32 43
32 44
32 46
32 48
32 49
32 52
32 55
32 57
32 59
32 61
32 62
32 63
32 67
32 68
32 72
32 77
32 80
32 81
32 84
32 86
32 87
32 91
32 92
32 93
32 95
32 96
33 34
33 38
33 39
33 41
33 42
33 43
33 45
33 51
33 54
33 55
33 58
33 59
33 61
33 62
33 63
33 65
33 66
33 67
33 68
33 69
33 70
33 71
33 72
33 78
33 80
33 81
33 83
33 84
33 85
33 86
33 91
33 94
33 95
34 39
34 40
34 41
34 43
34 45
34 49
34 50
34 52
34 53
34 54
34 55
34 56
34 57
34 58
34 62
34 67
34 69
34 70
34 71
34 72
34 75
34 79
34 80
34 83
34 85
34 87
34 88
34 91
34 93
34 94
34 96
34 99
35 37
35 43
35 44
35 45
35 46
35 47
35 48
35 51
35 52
35 55
35 58
35 62
35 63
35 65
35 69
35 72
35 74
35 75
35 76
35 85
35 86
35 87
35 89
35 94
35 96
35 97
35 98
36 37
36 39
36 42
36 43
36 44
36 47
36 48
36 52
36 54
36 61
36 62
36 63
36 68
36 72
36 73
36 74
36 79
36 82
36 86
36 88
36 89
36 90
36 92
36 93
36 94
36 95
37 38
37 39
37 41
37 45
37 46
37 53
37 54
37 55
37 57
37 65
37 67
37 68
37 71
37 72
37 73
37 74
37 76
37 77
37 78
37 80
37 81
37 82
37 84
37 85
37 86
37 87
37 90
37 91
37 92
37 93
37 94
37 95
37 98
38 41
38 42
38 43
38 45
38 46
38 47
38 49
38 50
38 51
38 52
38 53
38 54
38 55
38 56
38 57
38 59
38 60
38 62
38 63
38 66
38 73
38 74
38 79
38 81
38 82
38 84
38 87
38 88
38 90
38 92
38 93
38 94
38 97
38 99
39 40
39 41
39 43
39 44
39 46
39 47
39 50
39 52
39 53
39 55
39 56
39 57
39 60
39 62
39 63
39 64
39 65
39 69
39 72
39 76
39 78
39 79
39 80
39 82
39 85
39 86
39 87
39 93
39 95
39 98
39 99
40 72
40 66
40 77
40 74
40 83
40 85
40 89
40 69
40 92
40 96
40 97
40 90
40 88
40 93
40 47
40 50
40 52
40 54
40 55
40 56
40 57
40 58
40 95
40 60
40 61
41 43
41 45
41 46
41 47
41 50
41 52
41 53
41 56
41 57
41 60
41 61
41 62
41 66
41 68
41 71
41 74
41 80
41 81
41 82
41 83
41 85
41 91
41 93
41 96
41 99
42 43
42 45
42 46
42 48
42 50
42 51
42 55
42 56
42 57
42 58
42 63
42 65
42 66
42 67
42 68
42 69
42 70
42 71
42 73
42 74
42 75
42 76
42 79
42 83
42 86
42 87
42 90
42 92
42 93
42 95
42 96
42 99
43 46
43 47
43 48
43 49
43 53
43 54
43 55
43 56
43 58
43 62
43 63
43 64
43 65
43 68
43 69
43 70
43 71
43 74
43 78
43 81
43 82
43 83
43 84
43 85
43 86
43 87
43 88
43 91
43 92
43 93
43 95
43 98
43 99
44 46
44 48
44 51
44 55
44 56
44 57
44 58
44 59
44 63
44 67
44 68
44 69
44 71
44 73
44 75
44 76
44 77
44 78
44 79
44 81
44 82
44 83
44 84
44 85
44 87
44 90
44 91
44 93
44 97
45 47
45 51
45 52
45 56
45 57
45 58
45 59
45 60
45 61
45 62
45 63
45 65
45 66
45 67
45 68
45 69
45 70
45 71
45 72
45 75
45 76
45 77
45 78
45 79
45 80
45 81
45 82
45 85
45 86
45 89
45 90
45 91
45 94
45 96
45 97
45 98
46 47
46 55
46 56
46 60
46 61
46 62
46 64
46 65
46 66
46 67
46 68
46 69
46 70
46 71
46 72
46 74
46 75
46 76
46 84
46 85
46 87
46 89
46 91
46 94
46 96
46 99
47 49
47 51
47 52
47 54
47 58
47 59
47 62
47 63
47 64
47 68
47 70
47 74
47 76
47 80
47 82
47 83
47 85
47 86
47 89
47 90
47 92
47 93
47 95
47 96
48 49
48 52
48 53
48 54
48 56
48 57
48 59
48 60
48 63
48 65
48 66
48 67
48 68
48 69
48 70
48 73
48 77
48 78
48 79
48 81
48 83
48 84
48 87
48 88
48 89
48 93
48 97
48 98
48 99
49 51
49 52
49 55
49 57
49 58
49 59
49 61
49 63
49 64
49 65
49 66
49 67
49 70
49 72
49 76
49 78
49 81
49 82
49 84
49 86
49 87
49 88
49 90
49 93
49 96
49 97
49 99
50 51
50 52
50 54
50 55
50 56
50 61
50 62
50 67
50 70
50 73
50 74
50 75
50 76
50 77
50 78
50 80
50 83
50 84
50 86
50 87
50 90
50 91
50 93
50 94
50 96
50 97
51 52
51 53
51 54
51 55
51 56
51 58
51 59
51 60
51 63
51 68
51 69
51 70
51 72
51 73
51 75
51 76
51 77
51 79
51 83
51 84
51 88
51 89
51 92
51 93
51 94
51 96
51 97
51 98
52 54
52 55
52 57
52 58
52 65
52 67
52 70
52 71
52 72
52 73
52 75
52 76
52 77
52 79
52 80
52 84
52 85
52 89
52 94
52 95
52 96
52 97
52 98
53 54
53 55
53 56
53 57
53 58
53 61
53 64
53 69
53 70
53 71
53 75
53 77
53 78
53 81
53 83
53 88
53 96
53 97
53 98
53 99
54 56
54 57
54 59
54 62
54 68
54 69
54 70
54 71
54 73
54 74
54 76
54 78
54 83
54 84
54 85
54 87
54 88
54 90
54 92
54 94
54 95
54 97
54 98
54 99
55 56
55 62
55 63
55 64
55 67
55 68
55 72
55 75
55 76
55 77
55 80
55 82
55 83
55 84
55 85
55 86
55 89
55 90
55 91
55 95
55 96
55 97
55 99
56 59
56 60
56 61
56 64
56 68
56 70
56 72
56 74
56 75
56 77
56 79
56 80
56 83
56 85
56 88
56 89
56 92
56 93
56 94
56 99
57 58
57 59
57 60
57 62
57 64
57 69
57 76
57 80
57 81
57 82
57 84
57 86
57 88
57 91
57 94
57 95
57 98
57 99
58 60
58 61
58 63
58 64
58 65
58 67
58 68
58 69
58 71
58 74
58 79
58 81
58 83
58 84
58 85
58 86
58 87
58 88
58 89
58 92
59 60
59 61
59 63
59 64
59 67
59 69
59 73
59 74
59 75
59 76
59 77
59 79
59 81
59 84
59 87
59 88
59 91
59 92
59 95
59 97
59 99
60 62
60 64
60 65
60 66
60 68
60 71
60 72
60 73
60 76
60 78
60 80
60 81
60 83
60 85
60 86
60 88
60 90
60 92
60 93
60 94
60 98
61 63
61 65
61 67
61 70
61 71
61 72
61 78
61 80
61 81
61 82
61 83
61 84
61 85
61 89
61 90
61 91
61 92
61 93
61 94
61 95
61 98
61 99
62 63
62 64
62 65
62 66
62 67
62 68
62 72
62 73
62 75
62 78
62 79
62 82
62 83
62 85
62 86
62 87
62 88
62 90
62 92
62 93
62 96
62 97
62 98
63 65
63 66
63 67
63 69
63 71
63 78
63 79
63 84
63 87
63 88
63 89
63 91
63 92
63 95
63 97
63 99
64 65
64 67
64 70
64 71
64 72
64 74
64 76
64 79
64 80
64 82
64 83
64 86
64 87
64 88
64 92
64 95
65 66
65 67
65 68
65 70
65 72
65 77
65 79
65 80
65 82
65 83
65 84
65 85
65 86
65 87
65 88
65 89
65 90
65 91
65 94
65 96
65 98
65 99
66 68
66 71
66 73
66 74
66 75
66 78
66 81
66 82
66 83
66 84
66 85
66 88
66 89
66 92
66 94
66 97
66 98
67 68
67 70
67 72
67 73
67 75
67 76
67 80
67 82
67 83
67 84
67 85
67 88
67 90
67 91
67 92
67 93
67 96
68 71
68 72
68 73
68 74
68 80
68 82
68 88
68 89
68 90
68 91
68 95
68 97
69 72
69 73
69 75
69 78
69 81
69 84
69 85
69 87
69 89
69 91
69 93
69 94
69 95
69 96
70 71
70 72
70 74
70 75
70 77
70 78
70 84
70 85
70 89
70 90
70 92
70 93
70 94
70 96
70 97
70 98
70 99
71 78
71 84
71 86
71 91
71 93
71 94
71 97
71 98
71 99
72 73
72 77
72 79
72 80
72 81
72 82
72 84
72 87
72 88
72 89
72 90
72 91
72 92
72 94
72 95
72 96
72 97
72 99
73 74
73 75
73 76
73 79
73 80
73 83
73 84
73 87
73 89
73 90
73 94
73 95
73 96
73 97
73 99
74 75
74 78
74 80
74 81
74 84
74 85
74 87
74 89
74 97
74 98
74 99
75 77
75 81
75 82
75 87
75 89
75 98
76 78
76 79
76 80
76 84
76 85
76 87
76 88
76 90
76 97
76 98
77 86
77 97
77 94
77 83
77 84
77 78
77 90
77 92
77 80
77 98
77 99
77 89
77 85
78 81
78 83
78 85
78 88
78 91
78 93
78 94
78 98
79 81
79 80
79 89
79 93
79 94
79 95
79 96
79 97
79 88
80 83
80 88
80 92
80 93
80 95
80 96
80 97
81 82
81 83
81 84
81 86
81 87
81 88
81 90
81 91
81 92
81 93
81 95
81 96
81 97
81 99
82 85
82 87
82 92
82 93
82 95
82 96
82 97
82 98
83 85
83 86
83 87
83 88
83 91
83 92
83 94
83 96
83 97
83 98
83 99
84 85
84 86
84 89
84 92
84 96
84 97
84 98
85 87
85 88
85 89
85 90
85 91
85 92
85 95
86 87
86 88
86 91
86 92
86 93
86 94
86 95
86 96
87 88
87 89
87 90
87 92
87 95
87 96
87 97
88 89
88 91
88 92
88 94
88 97
88 99
89 94
89 95
89 96
89 97
90 93
90 96
91 93
91 97
92 94
92 97
92 99
93 95
93 96
93 98
94 95
94 97
94 99
95 98
95 99
96 97
96 98
96 99
97 98
97 99
