100
288 51
203 194
273 60
154 159
76 151
290 52
2 236
245 299
34 31
13 183
290 8
94 85
17 75
125 133
109 259
151 297
20 246
104 154
70 199
62 231
114 190
232 28
207 4
216 252
49 208
163 99
248 286
275 175
89 31
152 93
241 221
27 205
61 99
233 270
244 266
296 153
209 202
177 78
59 249
159 133
67 57
209 282
174 122
197 249
10 283
210 189
105 159
291 33
232 294
267 193
78 49
299 147
191 58
279 180
56 133
201 43
227 105
8 108
103 296
258 275
295 135
40 44
101 15
226 147
222 239
75 266
114 181
267 117
55 146
114 256
263 16
100 44
37 177
214 43
107 259
277 176
127 57
272 123
192 197
189 105
105 91
234 13
225 119
290 282
52 150
14 107
275 22
125 290
156 300
287 205
265 15
2 56
294 297
22 142
275 157
208 10
45 292
245 47
36 23
242 158
0 2
0 3
0 7
0 9
0 10
0 11
0 12
0 16
0 17
0 21
0 27
0 30
0 32
0 36
0 37
0 38
0 39
0 41
0 43
0 44
0 45
0 46
0 48
0 50
0 51
0 53
0 55
0 57
0 60
0 64
0 65
0 67
0 68
0 69
0 72
0 73
0 75
0 76
0 78
0 79
0 81
0 82
0 85
0 86
0 87
0 88
0 90
0 95
0 96
0 97
0 98
0 99
1 3
1 4
1 5
1 6
1 10
1 11
1 13
1 14
1 15
1 16
1 17
1 18
1 23
1 24
1 25
1 26
1 28
1 29
1 30
1 31
1 32
1 33
1 36
1 37
1 39
1 40
1 41
1 45
1 47
1 50
1 51
1 52
1 54
1 56
1 59
1 61
1 62
1 64
1 68
1 70
1 71
1 72
1 78
1 79
1 83
1 85
1 87
1 89
1 90
1 91
1 98
2 4
2 6
2 7
2 9
2 10
2 11
2 14
2 18
2 21
2 22
2 24
2 26
2 27
2 28
2 29
2 30
2 34
2 35
2 36
2 37
2 39
2 42
2 44
2 46
2 49
2 51
2 52
2 55
2 57
2 58
2 59
2 60
2 61
2 63
2 71
2 72
2 73
2 74
2 78
2 79
2 81
2 84
2 85
2 87
2 91
2 92
2 93
2 96
2 97
2 98
2 99
3 4
3 5
3 6
3 8
3 9
3 10
3 11
3 20
3 22
3 24
3 26
3 28
3 29
3 31
3 32
3 38
3 40
3 41
3 45
3 46
3 49
3 53
3 55
3 56
3 61
3 62
3 64
3 67
3 68
3 70
3 71
3 73
3 74
3 82
3 83
3 86
3 89
3 90
3 91
3 92
3 94
3 97
3 98
4 6
4 7
4 11
4 12
4 13
4 14
4 15
4 17
4 18
4 19
4 21
4 25
4 29
4 30
4 31
4 33
4 35
4 36
4 38
4 43
4 45
4 47
4 52
4 55
4 57
4 58
4 59
4 60
4 62
4 64
4 65
4 66
4 69
4 71
4 72
4 73
4 75
4 77
4 79
4 85
4 86
4 87
4 89
4 92
4 98
4 99
5 6
5 7
5 10
5 11
5 12
5 13
5 15
5 16
5 19
5 20
5 22
5 24
5 26
5 27
5 28
5 29
5 30
5 33
5 34
5 35
5 39
5 40
5 41
5 42
5 44
5 49
5 52
5 53
5 55
5 56
5 57
5 58
5 60
5 62
5 63
5 71
5 72
5 74
5 75
5 78
5 79
5 80
5 82
5 83
5 84
5 88
5 89
5 90
5 91
5 92
5 93
5 94
5 95
5 98
5 99
6 7
6 11
6 13
6 15
6 18
6 22
6 23
6 24
6 26
6 27
6 28
6 29
6 32
6 33
6 35
6 36
6 39
6 41
6 44
6 47
6 51
6 53
6 55
6 56
6 57
6 58
6 60
6 61
6 62
6 64
6 66
6 67
6 71
6 72
6 73
6 75
6 76
6 77
6 80
6 81
6 83
6 84
6 85
6 87
6 89
6 90
6 91
6 92
6 95
6 96
6 99
7 8
7 12
7 16
7 17
7 18
7 22
7 23
7 24
7 25
7 29
7 31
7 36
7 37
7 38
7 40
7 41
7 44
7 45
7 46
7 47
7 48
7 49
7 50
7 52
7 53
7 54
7 55
7 56
7 58
7 59
7 60
7 64
7 67
7 68
7 69
7 70
7 72
7 75
7 76
7 77
7 80
7 81
7 82
7 83
7 84
7 86
7 87
7 88
7 89
7 91
7 92
7 93
7 99
8 9
8 11
8 13
8 14
8 15
8 18
8 21
8 23
8 24
8 25
8 26
8 30
8 31
8 32
8 35
8 38
8 44
8 48
8 49
8 51
8 53
8 54
8 55
8 56
8 61
8 63
8 65
8 68
8 70
8 72
8 74
8 76
8 77
8 78
8 79
8 80
8 81
8 86
8 87
8 88
8 89
8 90
8 91
8 93
8 94
8 96
8 98
9 11
9 14
9 15
9 16
9 21
9 22
9 25
9 29
9 31
9 32
9 33
9 36
9 39
9 40
9 41
9 44
9 45
9 46
9 48
9 49
9 58
9 59
9 60
9 61
9 62
9 64
9 67
9 68
9 69
9 70
9 77
9 80
9 81
9 82
9 84
9 88
9 89
9 90
9 91
9 93
9 94
9 95
9 96
9 98
9 99
10 14
10 15
10 16
10 17
10 18
10 19
10 21
10 22
10 26
10 34
10 36
10 37
10 39
10 40
10 42
10 45
10 46
10 47
10 53
10 54
10 55
10 56
10 57
10 65
10 66
10 68
10 70
10 71
10 74
10 75
10 77
10 81
10 85
10 86
10 88
10 90
10 94
10 95
10 96
10 98
11 12
11 14
11 15
11 16
11 18
11 19
11 21
11 24
11 26
11 27
11 28
11 30
11 33
11 36
11 37
11 41
11 42
11 43
11 44
11 45
11 46
11 48
11 51
11 53
11 55
11 59
11 60
11 64
11 66
11 68
11 70
11 73
11 75
11 81
11 82
11 88
11 90
11 95
11 96
11 97
11 99
12 13
12 15
12 16
12 19
12 21
12 22
12 24
12 25
12 26
12 30
12 31
12 32
12 33
12 37
12 38
12 39
12 42
12 44
12 47
12 49
12 52
12 56
12 57
12 60
12 64
12 69
12 70
12 71
12 72
12 73
12 77
12 78
12 80
12 83
12 89
12 92
12 93
12 94
12 96
12 97
13 15
13 16
13 17
13 22
13 23
13 25
13 28
13 29
13 30
13 33
13 34
13 36
13 38
13 41
13 43
13 45
13 51
13 56
13 57
13 59
13 64
13 66
13 67
13 69
13 70
13 72
13 73
13 74
13 76
13 80
13 83
13 86
13 87
13 89
13 90
13 91
13 92
13 94
13 96
13 98
14 15
14 24
14 28
14 29
14 30
14 31
14 32
14 33
14 34
14 35
14 37
14 39
14 40
14 43
14 48
14 49
14 52
14 53
14 54
14 55
14 56
14 57
14 59
14 63
14 65
14 66
14 68
14 69
14 70
14 73
14 75
14 77
14 80
14 81
14 83
14 87
14 88
14 89
14 91
14 92
14 95
14 96
14 97
14 98
14 99
15 16
15 17
15 18
15 19
15 21
15 24
15 25
15 30
15 31
15 34
15 35
15 36
15 40
15 42
15 43
15 44
15 48
15 49
15 50
15 51
15 53
15 55
15 57
15 58
15 59
15 60
15 61
15 62
15 63
15 64
15 66
15 67
15 68
15 70
15 74
15 75
15 77
15 78
15 79
15 82
15 83
15 84
15 86
15 87
15 91
15 92
15 94
15 95
15 99
16 18
16 21
16 22
16 24
16 29
16 30
16 32
16 33
16 35
16 36
16 38
16 39
16 40
16 41
16 42
16 46
16 48
16 53
16 56
16 59
16 62
16 64
16 67
16 68
16 70
16 74
16 75
16 76
16 77
16 81
16 82
16 83
16 84
16 86
16 91
16 94
16 95
16 96
16 97
17 18
17 20
17 22
17 25
17 26
17 27
17 28
17 30
17 32
17 38
17 39
17 40
17 41
17 43
17 45
17 46
17 47
17 48
17 51
17 52
17 53
17 55
17 57
17 59
17 62
17 63
17 64
17 65
17 66
17 67
17 69
17 71
17 72
17 73
17 77
17 78
17 79
17 81
17 82
17 83
17 85
17 86
17 87
17 89
17 90
17 91
17 96
17 97
17 98
17 99
18 19
18 20
18 22
18 25
18 26
18 27
18 30
18 32
18 34
18 37
18 40
18 42
18 43
18 45
18 46
18 47
18 48
18 49
18 50
18 52
18 54
18 55
18 59
18 60
18 64
18 65
18 66
18 67
18 68
18 69
18 71
18 73
18 74
18 75
18 76
18 82
18 83
18 87
18 90
18 91
18 92
18 96
18 97
18 99
19 21
19 23
19 24
19 25
19 26
19 27
19 28
19 30
19 37
19 39
19 40
19 42
19 43
19 44
19 46
19 50
19 52
19 53
19 54
19 56
19 59
19 61
19 62
19 66
19 67
19 70
19 72
19 74
19 76
19 80
19 87
19 89
19 90
19 92
19 93
19 95
19 96
19 97
20 64
20 96
20 66
20 68
20 73
20 74
20 75
20 77
20 99
20 84
20 85
20 22
20 87
20 88
20 89
20 26
20 91
20 86
20 90
20 94
20 32
20 97
20 35
20 38
20 39
20 40
20 43
20 45
20 93
20 50
20 53
20 55
20 57
20 58
20 63
21 25
21 26
21 31
21 34
21 41
21 42
21 45
21 46
21 47
21 49
21 50
21 51
21 52
21 55
21 56
21 58
21 60
21 62
21 64
21 65
21 66
21 69
21 71
21 72
21 73
21 76
21 77
21 81
21 87
21 89
21 91
21 92
21 94
21 95
21 97
21 98
22 23
22 24
22 27
22 30
22 33
22 37
22 38
22 42
22 43
22 45
22 47
22 48
22 49
22 50
22 51
22 52
22 53
22 54
22 58
22 61
22 63
22 69
22 70
22 75
22 77
22 78
22 79
22 80
22 81
22 82
22 83
22 84
22 86
22 88
22 89
22 93
22 95
22 98
22 99
23 24
23 26
23 28
23 29
23 33
23 35
23 36
23 37
23 39
23 40
23 42
23 43
23 45
23 46
23 48
23 49
23 54
23 55
23 57
23 59
23 61
23 62
23 63
23 69
23 70
23 71
23 72
23 73
23 75
23 76
23 77
23 78
23 79
23 82
23 84
23 85
23 86
23 89
23 93
23 94
23 95
23 96
23 97
23 99
24 25
24 28
24 31
24 33
24 34
24 35
24 39
24 41
24 45
24 46
24 47
24 49
24 53
24 55
24 57
24 59
24 60
24 64
24 67
24 68
24 69
24 70
24 71
24 72
24 76
24 77
24 78
24 81
24 82
24 84
24 85
24 86
24 87
24 88
24 89
24 93
24 95
24 96
24 97
24 98
24 99
25 26
25 27
25 28
25 30
25 32
25 34
25 37
25 38
25 39
25 42
25 43
25 45
25 46
25 47
25 48
25 49
25 50
25 51
25 53
25 54
25 55
25 56
25 58
25 61
25 62
25 64
25 65
25 67
25 71
25 73
25 75
25 77
25 78
25 79
25 81
25 82
25 83
25 84
25 86
25 88
25 90
25 94
25 95
25 97
26 27
26 28
26 29
26 30
26 32
26 34
26 35
26 36
26 38
26 39
26 40
26 41
26 43
26 44
26 46
26 51
26 52
26 53
26 55
26 57
26 59
26 62
26 65
26 70
26 71
26 72
26 73
26 74
26 75
26 76
26 77
26 79
26 84
26 85
26 87
26 90
26 92
26 93
26 99
27 28
27 29
27 30
27 31
27 32
27 33
27 34
27 35
27 36
27 38
27 40
27 42
27 43
27 45
27 47
27 48
27 49
27 50
27 52
27 54
27 57
27 60
27 61
27 62
27 63
27 65
27 68
27 69
27 71
27 75
27 78
27 79
27 80
27 86
27 87
27 89
27 90
27 91
27 93
27 94
27 99
28 29
28 31
28 32
28 33
28 35
28 36
28 37
28 38
28 39
28 40
28 41
28 42
28 43
28 46
28 47
28 48
28 55
28 59
28 60
28 61
28 63
28 64
28 65
28 66
28 67
28 68
28 69
28 71
28 77
28 78
28 79
28 82
28 84
28 85
28 86
28 88
28 89
28 90
28 91
28 92
29 31
29 34
29 35
29 37
29 39
29 40
29 41
29 43
29 51
29 53
29 54
29 58
29 59
29 62
29 63
29 65
29 67
29 68
29 70
29 71
29 75
29 76
29 84
29 86
29 89
29 94
29 97
29 98
29 99
30 38
30 39
30 40
30 41
30 42
30 43
30 44
30 46
30 49
30 51
30 54
30 55
30 57
30 59
30 61
30 62
30 64
30 68
30 69
30 71
30 72
30 73
30 75
30 76
30 77
30 79
30 83
30 84
30 86
30 89
30 90
30 92
30 95
30 98
31 36
31 37
31 38
31 40
31 42
31 43
31 48
31 49
31 50
31 54
31 55
31 60
31 61
31 63
31 65
31 66
31 69
31 71
31 72
31 73
31 74
31 75
31 77
31 78
31 79
31 81
31 82
31 83
31 88
31 89
31 90
31 91
31 92
31 95
31 98
31 99
32 34
32 35
32 38
32 39
32 41
32 43
32 45
32 50
32 51
32 52
32 53
32 54
32 58
32 61
32 64
32 69
32 70
32 71
32 75
32 76
32 78
32 79
32 81
32 85
32 87
32 90
32 91
32 96
32 97
32 98
33 86
33 67
33 97
33 74
33 99
33 84
33 78
33 68
33 93
33 69
33 96
33 80
33 35
33 36
33 70
33 40
33 41
33 73
33 48
33 49
33 91
33 52
33 55
33 58
33 60
33 61
33 85
33 63
34 35
34 36
34 37
34 41
34 42
34 43
34 46
34 50
34 51
34 52
34 55
34 56
34 57
34 58
34 61
34 65
34 67
34 68
34 69
34 70
34 71
34 72
34 74
34 76
34 78
34 80
34 84
34 85
34 87
34 90
34 92
34 93
34 95
34 96
34 97
34 99
35 36
35 39
35 40
35 41
35 42
35 43
35 44
35 45
35 46
35 47
35 49
35 50
35 51
35 52
35 54
35 55
35 56
35 58
35 59
35 61
35 62
35 63
35 64
35 65
35 66
35 68
35 71
35 72
35 74
35 75
35 77
35 80
35 82
35 83
35 85
35 86
35 89
35 91
35 93
35 94
35 95
35 96
35 97
35 99
36 37
36 40
36 42
36 45
36 46
36 48
36 50
36 53
36 55
36 56
36 58
36 59
36 61
36 63
36 67
36 68
36 69
36 71
36 73
36 74
36 75
36 76
36 77
36 78
36 79
36 80
36 81
36 84
36 86
36 87
36 88
36 91
36 92
36 95
36 97
36 98
36 99
37 40
37 41
37 42
37 43
37 47
37 48
37 50
37 51
37 54
37 55
37 58
37 62
37 63
37 68
37 72
37 73
37 74
37 80
37 82
37 86
37 87
37 89
37 90
37 95
37 97
37 99
38 64
38 66
38 69
38 74
38 75
38 77
38 89
38 88
38 93
38 97
38 98
38 40
38 42
38 43
38 44
38 45
38 47
38 72
38 50
38 53
38 55
38 86
38 57
38 94
38 63
39 40
39 43
39 45
39 46
39 51
39 53
39 56
39 59
39 63
39 64
39 69
39 72
39 73
39 75
39 76
39 79
39 80
39 81
39 87
39 88
39 90
39 92
39 94
39 96
39 98
40 41
40 45
40 51
40 53
40 55
40 58
40 62
40 65
40 66
40 67
40 68
40 72
40 73
40 81
40 83
40 84
40 85
40 89
40 91
40 94
40 95
40 99
41 42
41 44
41 45
41 46
41 47
41 50
41 52
41 60
41 61
41 62
41 63
41 64
41 67
41 68
41 69
41 73
41 74
41 75
41 77
41 78
41 79
41 83
41 85
41 86
41 89
41 92
41 93
41 94
41 95
41 98
41 99
42 43
42 44
42 46
42 47
42 51
42 52
42 53
42 54
42 55
42 56
42 60
42 62
42 63
42 64
42 69
42 73
42 76
42 79
42 82
42 85
42 92
42 94
42 96
42 97
43 46
43 47
43 48
43 50
43 52
43 54
43 56
43 57
43 59
43 60
43 65
43 67
43 69
43 73
43 74
43 75
43 76
43 80
43 82
43 83
43 87
43 88
43 93
43 95
43 96
43 98
43 99
44 45
44 46
44 50
44 51
44 64
44 68
44 69
44 70
44 71
44 73
44 74
44 75
44 76
44 78
44 79
44 84
44 85
44 87
44 89
44 90
44 91
44 92
44 94
44 95
44 96
44 97
44 98
44 99
45 48
45 52
45 53
45 55
45 56
45 57
45 60
45 61
45 63
45 64
45 66
45 69
45 71
45 72
45 74
45 75
45 77
45 78
45 79
45 80
45 81
45 82
45 86
45 88
45 89
45 91
45 92
45 94
45 96
45 98
45 99
46 47
46 49
46 51
46 55
46 59
46 60
46 61
46 62
46 70
46 71
46 72
46 73
46 74
46 75
46 76
46 80
46 81
46 83
46 84
46 85
46 89
46 90
46 91
46 92
46 93
46 99
47 48
47 49
47 53
47 56
47 58
47 59
47 60
47 62
47 63
47 66
47 67
47 71
47 75
47 76
47 80
47 83
47 84
47 86
47 88
47 91
47 92
47 95
47 96
47 98
48 49
48 51
48 52
48 53
48 54
48 55
48 56
48 60
48 61
48 62
48 63
48 64
48 65
48 69
48 70
48 71
48 72
48 73
48 74
48 75
48 80
48 81
48 82
48 84
48 88
48 91
48 95
48 97
48 99
49 50
49 51
49 54
49 56
49 60
49 62
49 64
49 65
49 66
49 67
49 68
49 70
49 72
49 74
49 75
49 76
49 77
49 78
49 82
49 83
49 85
49 86
49 87
49 89
49 90
49 93
49 94
49 95
50 98
50 68
50 69
50 70
50 64
50 74
50 77
50 80
50 87
50 71
50 90
50 97
50 95
50 99
50 79
50 52
50 57
50 59
50 60
50 62
50 65
51 52
51 53
51 54
51 57
51 62
51 69
51 70
51 71
51 72
51 73
51 74
51 75
51 79
51 80
51 82
51 83
51 86
51 88
51 92
51 93
51 97
51 98
51 99
52 54
52 55
52 56
52 57
52 59
52 60
52 61
52 64
52 68
52 75
52 76
52 77
52 78
52 81
52 84
52 85
52 86
52 87
52 90
52 91
52 93
52 94
52 95
53 54
53 57
53 59
53 60
53 61
53 66
53 67
53 70
53 73
53 75
53 76
53 77
53 78
53 80
53 83
53 84
53 85
53 91
53 93
53 94
53 95
53 97
53 98
54 59
54 60
54 62
54 63
54 64
54 65
54 66
54 67
54 69
54 70
54 74
54 78
54 80
54 81
54 83
54 84
54 86
54 89
54 91
54 93
54 94
54 95
54 96
54 98
55 56
55 57
55 58
55 60
55 63
55 64
55 65
55 68
55 69
55 77
55 80
55 85
55 86
55 87
55 90
55 92
55 95
56 57
56 58
56 60
56 65
56 69
56 70
56 73
56 74
56 75
56 76
56 77
56 79
56 80
56 83
56 84
56 87
56 89
56 90
56 91
56 92
56 95
56 96
56 97
57 58
57 60
57 61
57 62
57 64
57 66
57 67
57 68
57 70
57 71
57 73
57 76
57 78
57 80
57 86
57 88
57 90
57 91
57 95
57 96
57 97
57 99
58 64
58 96
58 67
58 72
58 74
58 76
58 83
58 89
58 79
58 94
58 95
58 84
58 70
58 99
58 59
58 60
58 63
59 60
59 61
59 62
59 63
59 65
59 66
59 67
59 69
59 70
59 71
59 72
59 74
59 84
59 87
59 89
59 91
59 92
59 94
59 96
59 97
59 99
60 61
60 64
60 65
60 67
60 71
60 78
60 80
60 82
60 83
60 86
60 89
60 90
60 93
60 95
60 97
60 98
60 99
61 62
61 63
61 66
61 67
61 68
61 70
61 72
61 73
61 74
61 78
61 79
61 81
61 82
61 84
61 85
61 86
61 88
61 90
61 93
61 94
61 95
61 97
61 99
62 63
62 64
62 65
62 68
62 70
62 74
62 75
62 78
62 79
62 82
62 83
62 84
62 85
62 87
62 89
62 91
62 96
62 97
62 98
62 99
63 64
63 66
63 68
63 69
63 73
63 74
63 76
63 79
63 81
63 82
63 86
63 87
63 88
63 92
63 93
63 95
63 96
63 99
64 69
64 71
64 76
64 77
64 78
64 79
64 80
64 81
64 82
64 84
64 85
64 89
64 90
64 92
64 93
64 94
64 95
64 96
64 97
64 98
65 98
65 77
65 99
65 72
65 87
65 90
65 82
65 84
65 74
65 85
66 75
66 71
66 73
66 76
66 80
66 86
66 79
66 84
66 92
66 99
66 91
66 83
66 85
67 75
67 77
67 79
67 80
67 81
67 82
67 85
67 87
67 89
67 91
67 92
67 93
67 94
67 95
67 97
67 98
68 69
68 70
68 73
68 75
68 76
68 78
68 79
68 80
68 82
68 83
68 86
68 88
68 90
68 91
68 92
68 93
68 94
68 99
69 70
69 72
69 75
69 77
69 79
69 81
69 83
69 84
69 88
69 90
69 93
69 95
69 97
69 98
70 72
70 73
70 75
70 76
70 77
70 78
70 79
70 80
70 81
70 82
70 83
70 88
70 89
70 90
70 91
70 92
70 93
70 98
70 99
71 73
71 74
71 77
71 78
71 79
71 80
71 81
71 82
71 84
71 85
71 88
71 89
71 90
71 91
71 99
72 73
72 74
72 75
72 78
72 80
72 82
72 84
72 89
72 91
72 92
72 93
72 94
72 95
72 97
72 99
73 75
73 76
73 78
73 79
73 80
73 83
73 88
73 90
73 92
73 96
73 97
74 79
74 82
74 83
74 85
74 87
74 88
74 90
74 93
74 94
74 95
74 96
74 98
74 99
75 76
75 82
75 83
75 86
75 91
75 92
75 94
75 97
75 99
76 77
76 79
76 83
76 84
76 88
76 90
76 91
76 92
76 94
76 98
76 99
77 78
77 89
77 90
77 91
77 94
77 95
77 96
77 97
78 80
78 81
78 82
78 85
78 86
78 88
78 91
78 93
78 94
78 96
78 98
78 99
79 80
79 81
79 82
79 85
79 87
79 88
79 90
79 91
79 94
79 96
79 97
79 98
80 81
80 82
80 84
80 90
80 92
80 93
80 94
80 95
81 84
81 87
81 88
81 89
81 90
81 92
81 96
81 97
81 99
82 85
82 92
82 93
82 95
82 96
83 91
83 86
83 98
83 92
83 87
84 87
84 88
84 92
84 93
84 95
85 86
85 87
85 89
85 91
85 92
85 93
85 95
85 96
85 99
86 87
86 91
86 92
86 95
86 96
87 88
87 90
87 94
87 96
87 97
87 98
88 90
88 92
88 93
88 94
88 95
88 96
88 98
89 90
89 91
89 93
89 97
89 98
90 92
90 93
90 97
90 99
91 93
91 96
91 99
92 93
92 97
92 98
93 94
93 95
93 97
94 95
94 96
94 97
94 99
95 98
95 99
96 97
96 98
96 99
97 98
97 99
