graph {
		0 -- 64
		0 -- 2
		0 -- 3
		0 -- 6
		0 -- 7
		0 -- 74
		0 -- 11
		0 -- 76
		0 -- 13
		0 -- 14
		0 -- 15
		0 -- 80
		0 -- 17
		0 -- 18
		0 -- 19
		0 -- 20
		0 -- 78
		0 -- 23
		0 -- 24
		0 -- 89
		0 -- 26
		0 -- 27
		0 -- 28
		0 -- 90
		0 -- 30
		0 -- 96
		0 -- 34
		0 -- 35
		0 -- 77
		0 -- 39
		0 -- 40
		0 -- 41
		0 -- 82
		0 -- 46
		0 -- 93
		0 -- 87
		0 -- 49
		0 -- 52
		0 -- 53
		0 -- 99
		0 -- 58
		0 -- 62
		0 -- 85
		1 -- 3
		1 -- 4
		1 -- 7
		1 -- 12
		1 -- 13
		1 -- 16
		1 -- 17
		1 -- 18
		1 -- 24
		1 -- 25
		1 -- 26
		1 -- 28
		1 -- 29
		1 -- 31
		1 -- 34
		1 -- 36
		1 -- 37
		1 -- 45
		1 -- 49
		1 -- 51
		1 -- 55
		1 -- 56
		1 -- 57
		1 -- 60
		1 -- 62
		1 -- 63
		1 -- 64
		1 -- 69
		1 -- 73
		1 -- 75
		1 -- 76
		1 -- 77
		1 -- 79
		1 -- 81
		1 -- 82
		1 -- 83
		1 -- 84
		1 -- 85
		1 -- 87
		1 -- 88
		1 -- 89
		1 -- 91
		1 -- 93
		1 -- 95
		1 -- 98
		1 -- 99
		2 -- 3
		2 -- 4
		2 -- 5
		2 -- 10
		2 -- 17
		2 -- 19
		2 -- 21
		2 -- 22
		2 -- 23
		2 -- 25
		2 -- 29
		2 -- 32
		2 -- 33
		2 -- 35
		2 -- 37
		2 -- 43
		2 -- 44
		2 -- 45
		2 -- 46
		2 -- 49
		2 -- 50
		2 -- 51
		2 -- 52
		2 -- 53
		2 -- 55
		2 -- 56
		2 -- 57
		2 -- 59
		2 -- 60
		2 -- 61
		2 -- 65
		2 -- 66
		2 -- 67
		2 -- 68
		2 -- 72
		2 -- 74
		2 -- 75
		2 -- 82
		2 -- 83
		2 -- 85
		2 -- 86
		2 -- 87
		2 -- 89
		2 -- 91
		2 -- 93
		3 -- 4
		3 -- 5
		3 -- 7
		3 -- 9
		3 -- 10
		3 -- 11
		3 -- 12
		3 -- 13
		3 -- 14
		3 -- 17
		3 -- 18
		3 -- 22
		3 -- 25
		3 -- 30
		3 -- 31
		3 -- 32
		3 -- 33
		3 -- 39
		3 -- 42
		3 -- 44
		3 -- 47
		3 -- 49
		3 -- 53
		3 -- 57
		3 -- 59
		3 -- 60
		3 -- 61
		3 -- 63
		3 -- 64
		3 -- 67
		3 -- 69
		3 -- 70
		3 -- 72
		3 -- 74
		3 -- 77
		3 -- 78
		3 -- 79
		3 -- 81
		3 -- 82
		3 -- 84
		3 -- 88
		3 -- 89
		3 -- 92
		3 -- 95
		3 -- 97
		3 -- 98
		3 -- 99
		4 -- 7
		4 -- 9
		4 -- 11
		4 -- 17
		4 -- 18
		4 -- 23
		4 -- 25
		4 -- 26
		4 -- 27
		4 -- 28
		4 -- 31
		4 -- 33
		4 -- 35
		4 -- 36
		4 -- 37
		4 -- 38
		4 -- 39
		4 -- 40
		4 -- 41
		4 -- 42
		4 -- 43
		4 -- 44
		4 -- 45
		4 -- 46
		4 -- 47
		4 -- 49
		4 -- 51
		4 -- 54
		4 -- 56
		4 -- 58
		4 -- 59
		4 -- 61
		4 -- 62
		4 -- 66
		4 -- 68
		4 -- 69
		4 -- 71
		4 -- 72
		4 -- 75
		4 -- 76
		4 -- 78
		4 -- 80
		4 -- 82
		4 -- 83
		4 -- 84
		4 -- 85
		4 -- 91
		4 -- 95
		4 -- 96
		4 -- 97
		4 -- 99
		5 -- 7
		5 -- 8
		5 -- 9
		5 -- 10
		5 -- 13
		5 -- 14
		5 -- 16
		5 -- 17
		5 -- 20
		5 -- 22
		5 -- 23
		5 -- 25
		5 -- 26
		5 -- 27
		5 -- 28
		5 -- 31
		5 -- 33
		5 -- 34
		5 -- 35
		5 -- 36
		5 -- 38
		5 -- 39
		5 -- 40
		5 -- 42
		5 -- 43
		5 -- 46
		5 -- 51
		5 -- 53
		5 -- 54
		5 -- 55
		5 -- 56
		5 -- 60
		5 -- 61
		5 -- 62
		5 -- 66
		5 -- 67
		5 -- 70
		5 -- 71
		5 -- 72
		5 -- 77
		5 -- 78
		5 -- 79
		5 -- 83
		5 -- 84
		5 -- 85
		5 -- 87
		5 -- 90
		5 -- 92
		5 -- 95
		5 -- 97
		5 -- 98
		6 -- 65
		6 -- 67
		6 -- 68
		6 -- 69
		6 -- 70
		6 -- 7
		6 -- 73
		6 -- 11
		6 -- 80
		6 -- 92
		6 -- 75
		6 -- 19
		6 -- 84
		6 -- 86
		6 -- 25
		6 -- 91
		6 -- 28
		6 -- 94
		6 -- 31
		6 -- 96
		6 -- 97
		6 -- 34
		6 -- 36
		6 -- 39
		6 -- 40
		6 -- 41
		6 -- 44
		6 -- 46
		6 -- 47
		6 -- 48
		6 -- 49
		6 -- 50
		6 -- 51
		6 -- 52
		6 -- 56
		6 -- 58
		6 -- 60
		6 -- 62
		7 -- 11
		7 -- 16
		7 -- 17
		7 -- 20
		7 -- 21
		7 -- 22
		7 -- 23
		7 -- 28
		7 -- 33
		7 -- 34
		7 -- 36
		7 -- 37
		7 -- 41
		7 -- 45
		7 -- 46
		7 -- 47
		7 -- 48
		7 -- 57
		7 -- 59
		7 -- 60
		7 -- 62
		7 -- 63
		7 -- 64
		7 -- 67
		7 -- 68
		7 -- 70
		7 -- 71
		7 -- 72
		7 -- 74
		7 -- 75
		7 -- 76
		7 -- 77
		7 -- 80
		7 -- 81
		7 -- 84
		7 -- 85
		7 -- 86
		7 -- 87
		7 -- 88
		7 -- 89
		7 -- 91
		7 -- 92
		7 -- 93
		7 -- 95
		7 -- 97
		7 -- 98
		7 -- 99
		8 -- 66
		8 -- 75
		8 -- 68
		8 -- 81
		8 -- 97
		8 -- 72
		8 -- 9
		8 -- 11
		8 -- 12
		8 -- 13
		8 -- 77
		8 -- 16
		8 -- 17
		8 -- 18
		8 -- 83
		8 -- 84
		8 -- 23
		8 -- 25
		8 -- 26
		8 -- 27
		8 -- 90
		8 -- 94
		8 -- 31
		8 -- 33
		8 -- 34
		8 -- 91
		8 -- 36
		8 -- 37
		8 -- 39
		8 -- 95
		8 -- 44
		8 -- 47
		8 -- 76
		8 -- 99
		8 -- 56
		8 -- 57
		8 -- 58
		8 -- 59
		8 -- 63
		9 -- 10
		9 -- 12
		9 -- 13
		9 -- 14
		9 -- 15
		9 -- 16
		9 -- 17
		9 -- 18
		9 -- 20
		9 -- 21
		9 -- 22
		9 -- 24
		9 -- 27
		9 -- 29
		9 -- 30
		9 -- 37
		9 -- 38
		9 -- 39
		9 -- 40
		9 -- 42
		9 -- 48
		9 -- 52
		9 -- 53
		9 -- 58
		9 -- 59
		9 -- 60
		9 -- 66
		9 -- 71
		9 -- 74
		9 -- 77
		9 -- 79
		9 -- 80
		9 -- 81
		9 -- 85
		9 -- 89
		9 -- 91
		9 -- 94
		9 -- 95
		9 -- 96
		9 -- 98
		9 -- 99
		10 -- 12
		10 -- 13
		10 -- 14
		10 -- 16
		10 -- 23
		10 -- 27
		10 -- 28
		10 -- 30
		10 -- 33
		10 -- 36
		10 -- 37
		10 -- 38
		10 -- 40
		10 -- 41
		10 -- 42
		10 -- 43
		10 -- 44
		10 -- 45
		10 -- 47
		10 -- 57
		10 -- 59
		10 -- 62
		10 -- 63
		10 -- 64
		10 -- 65
		10 -- 66
		10 -- 70
		10 -- 73
		10 -- 75
		10 -- 77
		10 -- 79
		10 -- 81
		10 -- 82
		10 -- 83
		10 -- 84
		10 -- 85
		10 -- 87
		10 -- 89
		10 -- 90
		10 -- 91
		10 -- 92
		10 -- 93
		10 -- 94
		10 -- 96
		10 -- 97
		11 -- 13
		11 -- 15
		11 -- 16
		11 -- 19
		11 -- 20
		11 -- 21
		11 -- 24
		11 -- 28
		11 -- 30
		11 -- 31
		11 -- 35
		11 -- 36
		11 -- 37
		11 -- 40
		11 -- 41
		11 -- 42
		11 -- 43
		11 -- 45
		11 -- 48
		11 -- 50
		11 -- 51
		11 -- 54
		11 -- 59
		11 -- 65
		11 -- 67
		11 -- 69
		11 -- 72
		11 -- 73
		11 -- 74
		11 -- 77
		11 -- 79
		11 -- 80
		11 -- 81
		11 -- 82
		11 -- 83
		11 -- 89
		11 -- 90
		11 -- 91
		11 -- 92
		11 -- 93
		11 -- 98
		11 -- 99
		12 -- 13
		12 -- 18
		12 -- 19
		12 -- 20
		12 -- 21
		12 -- 25
		12 -- 26
		12 -- 31
		12 -- 33
		12 -- 34
		12 -- 36
		12 -- 40
		12 -- 42
		12 -- 43
		12 -- 44
		12 -- 45
		12 -- 53
		12 -- 58
		12 -- 60
		12 -- 61
		12 -- 64
		12 -- 66
		12 -- 67
		12 -- 68
		12 -- 69
		12 -- 71
		12 -- 72
		12 -- 73
		12 -- 74
		12 -- 75
		12 -- 76
		12 -- 77
		12 -- 78
		12 -- 80
		12 -- 81
		12 -- 84
		12 -- 88
		12 -- 91
		12 -- 93
		12 -- 97
		12 -- 98
		12 -- 99
		13 -- 14
		13 -- 16
		13 -- 22
		13 -- 24
		13 -- 31
		13 -- 32
		13 -- 33
		13 -- 35
		13 -- 36
		13 -- 37
		13 -- 38
		13 -- 39
		13 -- 42
		13 -- 43
		13 -- 44
		13 -- 45
		13 -- 47
		13 -- 48
		13 -- 51
		13 -- 52
		13 -- 53
		13 -- 54
		13 -- 55
		13 -- 57
		13 -- 62
		13 -- 63
		13 -- 64
		13 -- 65
		13 -- 66
		13 -- 67
		13 -- 72
		13 -- 73
		13 -- 74
		13 -- 75
		13 -- 78
		13 -- 80
		13 -- 82
		13 -- 83
		13 -- 84
		13 -- 85
		13 -- 86
		13 -- 88
		13 -- 91
		13 -- 93
		13 -- 96
		13 -- 97
		13 -- 98
		14 -- 15
		14 -- 16
		14 -- 17
		14 -- 19
		14 -- 20
		14 -- 21
		14 -- 22
		14 -- 23
		14 -- 24
		14 -- 25
		14 -- 27
		14 -- 29
		14 -- 32
		14 -- 33
		14 -- 34
		14 -- 35
		14 -- 38
		14 -- 39
		14 -- 41
		14 -- 43
		14 -- 45
		14 -- 47
		14 -- 48
		14 -- 50
		14 -- 51
		14 -- 57
		14 -- 58
		14 -- 59
		14 -- 60
		14 -- 61
		14 -- 65
		14 -- 66
		14 -- 67
		14 -- 68
		14 -- 69
		14 -- 70
		14 -- 73
		14 -- 74
		14 -- 75
		14 -- 76
		14 -- 77
		14 -- 78
		14 -- 79
		14 -- 80
		14 -- 83
		14 -- 86
		14 -- 89
		14 -- 91
		14 -- 92
		14 -- 95
		14 -- 96
		14 -- 98
		14 -- 99
		15 -- 16
		15 -- 20
		15 -- 23
		15 -- 24
		15 -- 31
		15 -- 32
		15 -- 33
		15 -- 36
		15 -- 38
		15 -- 40
		15 -- 41
		15 -- 42
		15 -- 43
		15 -- 45
		15 -- 47
		15 -- 48
		15 -- 49
		15 -- 52
		15 -- 53
		15 -- 55
		15 -- 59
		15 -- 62
		15 -- 64
		15 -- 65
		15 -- 66
		15 -- 70
		15 -- 72
		15 -- 73
		15 -- 74
		15 -- 75
		15 -- 76
		15 -- 77
		15 -- 78
		15 -- 80
		15 -- 82
		15 -- 84
		15 -- 89
		15 -- 90
		15 -- 91
		15 -- 94
		15 -- 97
		15 -- 99
		16 -- 18
		16 -- 20
		16 -- 24
		16 -- 26
		16 -- 28
		16 -- 30
		16 -- 32
		16 -- 35
		16 -- 38
		16 -- 40
		16 -- 41
		16 -- 42
		16 -- 43
		16 -- 45
		16 -- 47
		16 -- 50
		16 -- 53
		16 -- 56
		16 -- 59
		16 -- 60
		16 -- 62
		16 -- 63
		16 -- 65
		16 -- 71
		16 -- 73
		16 -- 74
		16 -- 77
		16 -- 80
		16 -- 82
		16 -- 85
		16 -- 87
		16 -- 88
		16 -- 94
		16 -- 98
		17 -- 18
		17 -- 20
		17 -- 21
		17 -- 23
		17 -- 24
		17 -- 26
		17 -- 28
		17 -- 31
		17 -- 32
		17 -- 33
		17 -- 34
		17 -- 35
		17 -- 38
		17 -- 40
		17 -- 42
		17 -- 43
		17 -- 46
		17 -- 47
		17 -- 48
		17 -- 49
		17 -- 52
		17 -- 55
		17 -- 56
		17 -- 64
		17 -- 66
		17 -- 67
		17 -- 71
		17 -- 75
		17 -- 78
		17 -- 80
		17 -- 81
		17 -- 82
		17 -- 83
		17 -- 84
		17 -- 87
		17 -- 88
		17 -- 91
		17 -- 92
		17 -- 93
		17 -- 94
		17 -- 95
		17 -- 97
		18 -- 20
		18 -- 21
		18 -- 23
		18 -- 25
		18 -- 28
		18 -- 29
		18 -- 30
		18 -- 31
		18 -- 32
		18 -- 35
		18 -- 39
		18 -- 40
		18 -- 41
		18 -- 42
		18 -- 43
		18 -- 46
		18 -- 49
		18 -- 50
		18 -- 51
		18 -- 54
		18 -- 56
		18 -- 57
		18 -- 61
		18 -- 65
		18 -- 67
		18 -- 70
		18 -- 71
		18 -- 74
		18 -- 75
		18 -- 77
		18 -- 79
		18 -- 84
		18 -- 86
		18 -- 88
		18 -- 89
		18 -- 92
		18 -- 94
		18 -- 98
		18 -- 99
		19 -- 64
		19 -- 86
		19 -- 72
		19 -- 73
		19 -- 79
		19 -- 81
		19 -- 82
		19 -- 20
		19 -- 78
		19 -- 22
		19 -- 23
		19 -- 25
		19 -- 90
		19 -- 28
		19 -- 29
		19 -- 84
		19 -- 97
		19 -- 98
		19 -- 35
		19 -- 85
		19 -- 38
		19 -- 39
		19 -- 40
		19 -- 92
		19 -- 42
		19 -- 44
		19 -- 46
		19 -- 47
		19 -- 48
		19 -- 49
		19 -- 50
		19 -- 76
		19 -- 55
		19 -- 57
		19 -- 58
		19 -- 62
		19 -- 63
		20 -- 23
		20 -- 26
		20 -- 27
		20 -- 28
		20 -- 29
		20 -- 30
		20 -- 35
		20 -- 37
		20 -- 40
		20 -- 42
		20 -- 43
		20 -- 46
		20 -- 50
		20 -- 51
		20 -- 52
		20 -- 54
		20 -- 55
		20 -- 56
		20 -- 57
		20 -- 58
		20 -- 59
		20 -- 60
		20 -- 61
		20 -- 62
		20 -- 63
		20 -- 64
		20 -- 65
		20 -- 66
		20 -- 67
		20 -- 70
		20 -- 71
		20 -- 75
		20 -- 79
		20 -- 80
		20 -- 81
		20 -- 83
		20 -- 86
		20 -- 87
		20 -- 90
		20 -- 94
		20 -- 95
		21 -- 24
		21 -- 25
		21 -- 27
		21 -- 31
		21 -- 32
		21 -- 34
		21 -- 35
		21 -- 37
		21 -- 38
		21 -- 39
		21 -- 40
		21 -- 43
		21 -- 47
		21 -- 48
		21 -- 50
		21 -- 52
		21 -- 56
		21 -- 58
		21 -- 64
		21 -- 65
		21 -- 66
		21 -- 70
		21 -- 73
		21 -- 76
		21 -- 77
		21 -- 81
		21 -- 84
		21 -- 85
		21 -- 89
		21 -- 90
		21 -- 91
		21 -- 92
		21 -- 94
		21 -- 96
		21 -- 97
		21 -- 98
		21 -- 99
		22 -- 25
		22 -- 28
		22 -- 31
		22 -- 32
		22 -- 35
		22 -- 37
		22 -- 40
		22 -- 41
		22 -- 44
		22 -- 45
		22 -- 46
		22 -- 48
		22 -- 50
		22 -- 53
		22 -- 56
		22 -- 57
		22 -- 58
		22 -- 59
		22 -- 60
		22 -- 62
		22 -- 65
		22 -- 66
		22 -- 68
		22 -- 69
		22 -- 71
		22 -- 72
		22 -- 74
		22 -- 75
		22 -- 78
		22 -- 80
		22 -- 83
		22 -- 84
		22 -- 88
		22 -- 89
		22 -- 90
		22 -- 91
		22 -- 93
		22 -- 94
		22 -- 95
		23 -- 31
		23 -- 34
		23 -- 35
		23 -- 38
		23 -- 40
		23 -- 42
		23 -- 43
		23 -- 44
		23 -- 45
		23 -- 47
		23 -- 48
		23 -- 51
		23 -- 52
		23 -- 54
		23 -- 57
		23 -- 58
		23 -- 61
		23 -- 62
		23 -- 65
		23 -- 70
		23 -- 71
		23 -- 72
		23 -- 73
		23 -- 76
		23 -- 77
		23 -- 81
		23 -- 82
		23 -- 84
		23 -- 85
		23 -- 86
		23 -- 89
		23 -- 91
		23 -- 92
		23 -- 93
		23 -- 94
		23 -- 95
		23 -- 98
		24 -- 25
		24 -- 27
		24 -- 29
		24 -- 30
		24 -- 31
		24 -- 32
		24 -- 38
		24 -- 39
		24 -- 40
		24 -- 43
		24 -- 45
		24 -- 46
		24 -- 47
		24 -- 48
		24 -- 49
		24 -- 51
		24 -- 52
		24 -- 55
		24 -- 58
		24 -- 60
		24 -- 63
		24 -- 64
		24 -- 69
		24 -- 71
		24 -- 72
		24 -- 74
		24 -- 75
		24 -- 76
		24 -- 78
		24 -- 80
		24 -- 82
		24 -- 83
		24 -- 84
		24 -- 86
		24 -- 87
		24 -- 90
		24 -- 91
		24 -- 93
		24 -- 98
		24 -- 99
		25 -- 27
		25 -- 31
		25 -- 32
		25 -- 34
		25 -- 36
		25 -- 37
		25 -- 38
		25 -- 40
		25 -- 43
		25 -- 44
		25 -- 46
		25 -- 48
		25 -- 51
		25 -- 52
		25 -- 53
		25 -- 56
		25 -- 57
		25 -- 60
		25 -- 62
		25 -- 64
		25 -- 67
		25 -- 68
		25 -- 69
		25 -- 70
		25 -- 71
		25 -- 72
		25 -- 73
		25 -- 76
		25 -- 77
		25 -- 81
		25 -- 83
		25 -- 85
		25 -- 87
		25 -- 89
		25 -- 94
		25 -- 97
		25 -- 98
		25 -- 99
		26 -- 67
		26 -- 65
		26 -- 96
		26 -- 74
		26 -- 77
		26 -- 78
		26 -- 83
		26 -- 86
		26 -- 87
		26 -- 68
		26 -- 98
		26 -- 91
		26 -- 28
		26 -- 29
		26 -- 94
		26 -- 84
		26 -- 80
		26 -- 34
		26 -- 99
		26 -- 37
		26 -- 38
		26 -- 93
		26 -- 41
		26 -- 42
		26 -- 92
		26 -- 46
		26 -- 47
		26 -- 48
		26 -- 49
		26 -- 50
		26 -- 51
		26 -- 53
		26 -- 57
		26 -- 59
		27 -- 64
		27 -- 67
		27 -- 70
		27 -- 71
		27 -- 75
		27 -- 98
		27 -- 79
		27 -- 80
		27 -- 81
		27 -- 82
		27 -- 83
		27 -- 86
		27 -- 87
		27 -- 92
		27 -- 93
		27 -- 31
		27 -- 32
		27 -- 33
		27 -- 34
		27 -- 99
		27 -- 36
		27 -- 38
		27 -- 43
		27 -- 46
		27 -- 47
		27 -- 72
		27 -- 53
		27 -- 73
		27 -- 57
		27 -- 59
		28 -- 29
		28 -- 31
		28 -- 32
		28 -- 33
		28 -- 34
		28 -- 35
		28 -- 36
		28 -- 38
		28 -- 42
		28 -- 43
		28 -- 44
		28 -- 48
		28 -- 50
		28 -- 51
		28 -- 55
		28 -- 56
		28 -- 59
		28 -- 61
		28 -- 62
		28 -- 64
		28 -- 65
		28 -- 67
		28 -- 68
		28 -- 69
		28 -- 70
		28 -- 71
		28 -- 73
		28 -- 74
		28 -- 76
		28 -- 78
		28 -- 79
		28 -- 80
		28 -- 81
		28 -- 83
		28 -- 84
		28 -- 86
		28 -- 88
		28 -- 89
		28 -- 94
		28 -- 95
		28 -- 96
		28 -- 97
		28 -- 99
		29 -- 30
		29 -- 31
		29 -- 32
		29 -- 36
		29 -- 37
		29 -- 39
		29 -- 41
		29 -- 42
		29 -- 43
		29 -- 44
		29 -- 45
		29 -- 46
		29 -- 47
		29 -- 49
		29 -- 51
		29 -- 58
		29 -- 62
		29 -- 66
		29 -- 68
		29 -- 69
		29 -- 70
		29 -- 73
		29 -- 77
		29 -- 78
		29 -- 83
		29 -- 85
		29 -- 86
		29 -- 87
		29 -- 88
		29 -- 89
		29 -- 90
		29 -- 93
		29 -- 94
		29 -- 96
		29 -- 97
		29 -- 98
		30 -- 32
		30 -- 33
		30 -- 36
		30 -- 37
		30 -- 38
		30 -- 43
		30 -- 44
		30 -- 45
		30 -- 47
		30 -- 48
		30 -- 49
		30 -- 52
		30 -- 54
		30 -- 55
		30 -- 58
		30 -- 59
		30 -- 60
		30 -- 62
		30 -- 63
		30 -- 64
		30 -- 65
		30 -- 67
		30 -- 68
		30 -- 69
		30 -- 70
		30 -- 72
		30 -- 73
		30 -- 74
		30 -- 75
		30 -- 78
		30 -- 79
		30 -- 80
		30 -- 83
		30 -- 84
		30 -- 86
		30 -- 87
		30 -- 89
		30 -- 91
		30 -- 94
		30 -- 95
		30 -- 96
		30 -- 97
		30 -- 98
		30 -- 99
		31 -- 32
		31 -- 33
		31 -- 36
		31 -- 40
		31 -- 41
		31 -- 42
		31 -- 44
		31 -- 45
		31 -- 54
		31 -- 56
		31 -- 59
		31 -- 60
		31 -- 63
		31 -- 64
		31 -- 65
		31 -- 66
		31 -- 70
		31 -- 73
		31 -- 76
		31 -- 78
		31 -- 79
		31 -- 80
		31 -- 81
		31 -- 83
		31 -- 84
		31 -- 85
		31 -- 87
		31 -- 88
		31 -- 89
		31 -- 92
		31 -- 94
		31 -- 95
		31 -- 96
		31 -- 97
		31 -- 99
		32 -- 33
		32 -- 34
		32 -- 35
		32 -- 36
		32 -- 41
		32 -- 44
		32 -- 47
		32 -- 48
		32 -- 50
		32 -- 51
		32 -- 53
		32 -- 56
		32 -- 57
		32 -- 60
		32 -- 62
		32 -- 63
		32 -- 64
		32 -- 65
		32 -- 66
		32 -- 67
		32 -- 71
		32 -- 72
		32 -- 73
		32 -- 76
		32 -- 77
		32 -- 79
		32 -- 83
		32 -- 84
		32 -- 85
		32 -- 86
		32 -- 90
		32 -- 92
		32 -- 93
		32 -- 94
		32 -- 95
		32 -- 97
		32 -- 99
		33 -- 35
		33 -- 36
		33 -- 37
		33 -- 39
		33 -- 40
		33 -- 43
		33 -- 45
		33 -- 46
		33 -- 48
		33 -- 49
		33 -- 52
		33 -- 54
		33 -- 55
		33 -- 56
		33 -- 58
		33 -- 59
		33 -- 61
		33 -- 65
		33 -- 68
		33 -- 69
		33 -- 75
		33 -- 80
		33 -- 82
		33 -- 84
		33 -- 88
		33 -- 89
		33 -- 90
		33 -- 91
		33 -- 97
		33 -- 99
		34 -- 39
		34 -- 40
		34 -- 41
		34 -- 44
		34 -- 48
		34 -- 49
		34 -- 54
		34 -- 61
		34 -- 62
		34 -- 64
		34 -- 65
		34 -- 66
		34 -- 67
		34 -- 69
		34 -- 70
		34 -- 71
		34 -- 75
		34 -- 77
		34 -- 78
		34 -- 79
		34 -- 81
		34 -- 84
		34 -- 86
		34 -- 87
		34 -- 88
		34 -- 90
		34 -- 91
		34 -- 94
		34 -- 96
		34 -- 98
		35 -- 36
		35 -- 37
		35 -- 40
		35 -- 42
		35 -- 43
		35 -- 45
		35 -- 48
		35 -- 49
		35 -- 50
		35 -- 51
		35 -- 54
		35 -- 55
		35 -- 56
		35 -- 57
		35 -- 58
		35 -- 62
		35 -- 66
		35 -- 67
		35 -- 70
		35 -- 73
		35 -- 75
		35 -- 78
		35 -- 79
		35 -- 80
		35 -- 82
		35 -- 86
		35 -- 87
		35 -- 89
		35 -- 91
		35 -- 95
		35 -- 97
		35 -- 98
		36 -- 38
		36 -- 39
		36 -- 40
		36 -- 41
		36 -- 42
		36 -- 43
		36 -- 44
		36 -- 45
		36 -- 49
		36 -- 51
		36 -- 58
		36 -- 59
		36 -- 61
		36 -- 64
		36 -- 66
		36 -- 67
		36 -- 68
		36 -- 69
		36 -- 71
		36 -- 72
		36 -- 73
		36 -- 75
		36 -- 80
		36 -- 82
		36 -- 83
		36 -- 85
		36 -- 86
		36 -- 87
		36 -- 90
		36 -- 92
		36 -- 93
		36 -- 99
		37 -- 40
		37 -- 41
		37 -- 42
		37 -- 44
		37 -- 45
		37 -- 47
		37 -- 49
		37 -- 51
		37 -- 54
		37 -- 55
		37 -- 59
		37 -- 62
		37 -- 63
		37 -- 69
		37 -- 70
		37 -- 71
		37 -- 72
		37 -- 73
		37 -- 74
		37 -- 76
		37 -- 77
		37 -- 79
		37 -- 82
		37 -- 86
		37 -- 90
		37 -- 91
		37 -- 92
		37 -- 95
		37 -- 96
		37 -- 97
		37 -- 99
		38 -- 41
		38 -- 42
		38 -- 43
		38 -- 49
		38 -- 52
		38 -- 56
		38 -- 57
		38 -- 58
		38 -- 59
		38 -- 62
		38 -- 63
		38 -- 64
		38 -- 65
		38 -- 67
		38 -- 69
		38 -- 73
		38 -- 74
		38 -- 75
		38 -- 79
		38 -- 80
		38 -- 81
		38 -- 82
		38 -- 83
		38 -- 84
		38 -- 87
		38 -- 88
		38 -- 89
		38 -- 91
		38 -- 94
		38 -- 95
		38 -- 96
		38 -- 97
		38 -- 98
		39 -- 40
		39 -- 44
		39 -- 45
		39 -- 46
		39 -- 49
		39 -- 51
		39 -- 52
		39 -- 53
		39 -- 54
		39 -- 56
		39 -- 58
		39 -- 59
		39 -- 60
		39 -- 61
		39 -- 63
		39 -- 65
		39 -- 68
		39 -- 69
		39 -- 71
		39 -- 72
		39 -- 75
		39 -- 80
		39 -- 82
		39 -- 83
		39 -- 84
		39 -- 85
		39 -- 90
		39 -- 91
		39 -- 96
		39 -- 97
		39 -- 99
		40 -- 44
		40 -- 46
		40 -- 49
		40 -- 51
		40 -- 52
		40 -- 53
		40 -- 54
		40 -- 55
		40 -- 56
		40 -- 57
		40 -- 59
		40 -- 61
		40 -- 62
		40 -- 65
		40 -- 66
		40 -- 68
		40 -- 69
		40 -- 70
		40 -- 72
		40 -- 73
		40 -- 75
		40 -- 79
		40 -- 81
		40 -- 84
		40 -- 86
		40 -- 88
		40 -- 89
		40 -- 90
		40 -- 93
		40 -- 94
		40 -- 97
		41 -- 44
		41 -- 48
		41 -- 50
		41 -- 51
		41 -- 53
		41 -- 54
		41 -- 57
		41 -- 58
		41 -- 59
		41 -- 65
		41 -- 66
		41 -- 69
		41 -- 71
		41 -- 72
		41 -- 74
		41 -- 76
		41 -- 78
		41 -- 79
		41 -- 81
		41 -- 82
		41 -- 85
		41 -- 87
		41 -- 90
		41 -- 91
		41 -- 92
		41 -- 94
		41 -- 95
		41 -- 96
		41 -- 98
		41 -- 99
		42 -- 46
		42 -- 48
		42 -- 49
		42 -- 52
		42 -- 54
		42 -- 56
		42 -- 59
		42 -- 63
		42 -- 66
		42 -- 67
		42 -- 68
		42 -- 69
		42 -- 73
		42 -- 75
		42 -- 77
		42 -- 80
		42 -- 81
		42 -- 82
		42 -- 85
		42 -- 87
		42 -- 89
		42 -- 90
		42 -- 92
		42 -- 94
		42 -- 95
		42 -- 96
		42 -- 97
		43 -- 64
		43 -- 67
		43 -- 97
		43 -- 76
		43 -- 83
		43 -- 90
		43 -- 81
		43 -- 94
		43 -- 92
		43 -- 44
		43 -- 46
		43 -- 50
		43 -- 53
		43 -- 54
		43 -- 84
		43 -- 91
		43 -- 89
		44 -- 68
		44 -- 65
		44 -- 75
		44 -- 78
		44 -- 88
		44 -- 85
		44 -- 67
		44 -- 90
		44 -- 91
		44 -- 97
		44 -- 95
		44 -- 70
		44 -- 83
		44 -- 52
		44 -- 89
		44 -- 55
		44 -- 59
		44 -- 60
		44 -- 61
		45 -- 49
		45 -- 52
		45 -- 53
		45 -- 55
		45 -- 56
		45 -- 59
		45 -- 60
		45 -- 65
		45 -- 68
		45 -- 69
		45 -- 70
		45 -- 72
		45 -- 76
		45 -- 77
		45 -- 80
		45 -- 81
		45 -- 83
		45 -- 85
		45 -- 87
		45 -- 89
		45 -- 92
		45 -- 99
		46 -- 64
		46 -- 73
		46 -- 78
		46 -- 79
		46 -- 85
		46 -- 87
		46 -- 92
		46 -- 94
		46 -- 68
		46 -- 84
		46 -- 90
		46 -- 70
		46 -- 65
		46 -- 96
		46 -- 91
		46 -- 52
		46 -- 55
		46 -- 57
		46 -- 58
		46 -- 95
		46 -- 61
		46 -- 97
		47 -- 49
		47 -- 51
		47 -- 54
		47 -- 56
		47 -- 59
		47 -- 60
		47 -- 62
		47 -- 64
		47 -- 68
		47 -- 69
		47 -- 72
		47 -- 73
		47 -- 75
		47 -- 77
		47 -- 79
		47 -- 80
		47 -- 82
		47 -- 83
		47 -- 84
		47 -- 85
		47 -- 86
		47 -- 87
		47 -- 89
		47 -- 90
		47 -- 92
		47 -- 94
		47 -- 95
		47 -- 99
		48 -- 52
		48 -- 53
		48 -- 54
		48 -- 56
		48 -- 58
		48 -- 59
		48 -- 62
		48 -- 64
		48 -- 66
		48 -- 67
		48 -- 73
		48 -- 75
		48 -- 77
		48 -- 78
		48 -- 80
		48 -- 81
		48 -- 82
		48 -- 83
		48 -- 85
		48 -- 87
		48 -- 89
		48 -- 90
		48 -- 95
		48 -- 96
		48 -- 98
		48 -- 99
		49 -- 50
		49 -- 51
		49 -- 52
		49 -- 56
		49 -- 58
		49 -- 63
		49 -- 66
		49 -- 67
		49 -- 68
		49 -- 69
		49 -- 73
		49 -- 74
		49 -- 75
		49 -- 76
		49 -- 78
		49 -- 81
		49 -- 82
		49 -- 84
		49 -- 87
		49 -- 90
		49 -- 91
		49 -- 92
		49 -- 93
		49 -- 95
		49 -- 98
		49 -- 99
		50 -- 65
		50 -- 67
		50 -- 86
		50 -- 71
		50 -- 73
		50 -- 66
		50 -- 79
		50 -- 81
		50 -- 88
		50 -- 93
		50 -- 94
		50 -- 95
		50 -- 80
		50 -- 98
		50 -- 70
		50 -- 97
		50 -- 51
		50 -- 52
		50 -- 56
		50 -- 57
		50 -- 58
		50 -- 85
		51 -- 52
		51 -- 53
		51 -- 56
		51 -- 59
		51 -- 65
		51 -- 68
		51 -- 70
		51 -- 71
		51 -- 74
		51 -- 79
		51 -- 80
		51 -- 82
		51 -- 84
		51 -- 87
		51 -- 89
		51 -- 91
		51 -- 93
		51 -- 95
		51 -- 96
		51 -- 98
		52 -- 53
		52 -- 57
		52 -- 58
		52 -- 60
		52 -- 61
		52 -- 62
		52 -- 64
		52 -- 65
		52 -- 66
		52 -- 67
		52 -- 68
		52 -- 70
		52 -- 72
		52 -- 73
		52 -- 75
		52 -- 76
		52 -- 78
		52 -- 80
		52 -- 87
		52 -- 88
		52 -- 89
		52 -- 91
		52 -- 93
		52 -- 96
		52 -- 98
		52 -- 99
		53 -- 56
		53 -- 61
		53 -- 64
		53 -- 66
		53 -- 68
		53 -- 69
		53 -- 70
		53 -- 71
		53 -- 72
		53 -- 73
		53 -- 74
		53 -- 77
		53 -- 78
		53 -- 79
		53 -- 82
		53 -- 83
		53 -- 86
		53 -- 87
		53 -- 88
		53 -- 89
		53 -- 91
		53 -- 92
		53 -- 96
		53 -- 97
		54 -- 67
		54 -- 71
		54 -- 78
		54 -- 77
		54 -- 98
		54 -- 99
		54 -- 85
		54 -- 88
		54 -- 68
		54 -- 90
		54 -- 79
		54 -- 56
		54 -- 87
		54 -- 95
		54 -- 60
		54 -- 61
		54 -- 62
		55 -- 56
		55 -- 59
		55 -- 60
		55 -- 61
		55 -- 64
		55 -- 65
		55 -- 68
		55 -- 69
		55 -- 71
		55 -- 72
		55 -- 74
		55 -- 77
		55 -- 78
		55 -- 79
		55 -- 80
		55 -- 82
		55 -- 83
		55 -- 84
		55 -- 86
		55 -- 87
		55 -- 88
		55 -- 91
		55 -- 92
		55 -- 94
		55 -- 97
		55 -- 98
		56 -- 60
		56 -- 62
		56 -- 63
		56 -- 66
		56 -- 67
		56 -- 68
		56 -- 69
		56 -- 70
		56 -- 72
		56 -- 73
		56 -- 75
		56 -- 79
		56 -- 80
		56 -- 82
		56 -- 84
		56 -- 85
		56 -- 88
		56 -- 89
		56 -- 91
		56 -- 93
		56 -- 96
		56 -- 97
		56 -- 98
		57 -- 66
		57 -- 74
		57 -- 70
		57 -- 73
		57 -- 75
		57 -- 86
		57 -- 94
		57 -- 95
		57 -- 98
		57 -- 91
		57 -- 99
		57 -- 72
		57 -- 89
		57 -- 84
		57 -- 58
		57 -- 59
		57 -- 61
		57 -- 62
		58 -- 64
		58 -- 67
		58 -- 97
		58 -- 87
		58 -- 77
		58 -- 79
		58 -- 80
		58 -- 68
		58 -- 91
		58 -- 98
		58 -- 94
		58 -- 59
		58 -- 60
		58 -- 63
		59 -- 61
		59 -- 66
		59 -- 69
		59 -- 72
		59 -- 73
		59 -- 74
		59 -- 76
		59 -- 77
		59 -- 80
		59 -- 81
		59 -- 82
		59 -- 84
		59 -- 86
		59 -- 87
		59 -- 89
		59 -- 90
		59 -- 91
		59 -- 92
		59 -- 93
		59 -- 94
		59 -- 97
		60 -- 62
		60 -- 63
		60 -- 64
		60 -- 65
		60 -- 70
		60 -- 71
		60 -- 72
		60 -- 73
		60 -- 75
		60 -- 78
		60 -- 81
		60 -- 82
		60 -- 83
		60 -- 85
		60 -- 90
		60 -- 91
		60 -- 92
		60 -- 93
		60 -- 94
		60 -- 97
		60 -- 98
		61 -- 71
		61 -- 73
		61 -- 66
		61 -- 77
		61 -- 81
		61 -- 67
		61 -- 78
		61 -- 68
		61 -- 90
		61 -- 79
		61 -- 93
		61 -- 94
		61 -- 69
		61 -- 96
		61 -- 99
		61 -- 95
		61 -- 76
		61 -- 89
		61 -- 85
		62 -- 65
		62 -- 66
		62 -- 67
		62 -- 68
		62 -- 69
		62 -- 71
		62 -- 73
		62 -- 74
		62 -- 75
		62 -- 81
		62 -- 82
		62 -- 84
		62 -- 86
		62 -- 87
		62 -- 92
		62 -- 94
		62 -- 95
		62 -- 96
		62 -- 98
		62 -- 99
		63 -- 64
		63 -- 66
		63 -- 68
		63 -- 70
		63 -- 73
		63 -- 75
		63 -- 78
		63 -- 81
		63 -- 85
		63 -- 86
		63 -- 87
		63 -- 72
		63 -- 90
		63 -- 92
		63 -- 80
		63 -- 67
		63 -- 97
		63 -- 96
		63 -- 83
		63 -- 84
		63 -- 65
		64 -- 68
		64 -- 70
		64 -- 72
		64 -- 73
		64 -- 75
		64 -- 76
		64 -- 77
		64 -- 78
		64 -- 79
		64 -- 80
		64 -- 81
		64 -- 82
		64 -- 83
		64 -- 84
		64 -- 85
		64 -- 89
		64 -- 92
		64 -- 97
		64 -- 98
		65 -- 66
		65 -- 67
		65 -- 69
		65 -- 70
		65 -- 71
		65 -- 72
		65 -- 74
		65 -- 75
		65 -- 77
		65 -- 78
		65 -- 79
		65 -- 80
		65 -- 84
		65 -- 85
		65 -- 88
		65 -- 89
		65 -- 92
		65 -- 93
		65 -- 96
		65 -- 97
		66 -- 67
		66 -- 68
		66 -- 72
		66 -- 73
		66 -- 74
		66 -- 75
		66 -- 76
		66 -- 78
		66 -- 79
		66 -- 80
		66 -- 81
		66 -- 82
		66 -- 85
		66 -- 86
		66 -- 88
		66 -- 89
		66 -- 90
		66 -- 91
		66 -- 92
		66 -- 93
		66 -- 96
		66 -- 97
		66 -- 99
		67 -- 70
		67 -- 72
		67 -- 73
		67 -- 74
		67 -- 76
		67 -- 78
		67 -- 79
		67 -- 81
		67 -- 82
		67 -- 83
		67 -- 84
		67 -- 93
		67 -- 94
		67 -- 95
		67 -- 97
		67 -- 98
		68 -- 72
		68 -- 74
		68 -- 76
		68 -- 77
		68 -- 78
		68 -- 84
		68 -- 85
		68 -- 86
		68 -- 87
		68 -- 89
		68 -- 90
		68 -- 92
		68 -- 95
		68 -- 96
		68 -- 97
		69 -- 71
		69 -- 73
		69 -- 74
		69 -- 77
		69 -- 78
		69 -- 79
		69 -- 81
		69 -- 82
		69 -- 83
		69 -- 88
		69 -- 89
		69 -- 90
		69 -- 92
		69 -- 96
		69 -- 97
		69 -- 98
		70 -- 72
		70 -- 75
		70 -- 77
		70 -- 79
		70 -- 80
		70 -- 81
		70 -- 83
		70 -- 85
		70 -- 86
		70 -- 91
		70 -- 94
		70 -- 95
		70 -- 97
		70 -- 99
		71 -- 75
		71 -- 79
		71 -- 80
		71 -- 82
		71 -- 92
		71 -- 76
		71 -- 87
		71 -- 89
		72 -- 74
		72 -- 76
		72 -- 77
		72 -- 79
		72 -- 80
		72 -- 82
		72 -- 86
		72 -- 87
		72 -- 88
		72 -- 89
		72 -- 91
		72 -- 94
		72 -- 97
		72 -- 99
		73 -- 74
		73 -- 75
		73 -- 76
		73 -- 77
		73 -- 79
		73 -- 83
		73 -- 84
		73 -- 87
		73 -- 88
		73 -- 89
		73 -- 90
		73 -- 94
		73 -- 95
		74 -- 78
		74 -- 80
		74 -- 81
		74 -- 82
		74 -- 84
		74 -- 86
		74 -- 87
		74 -- 88
		74 -- 92
		74 -- 94
		74 -- 95
		74 -- 96
		74 -- 97
		74 -- 99
		75 -- 77
		75 -- 80
		75 -- 82
		75 -- 83
		75 -- 87
		75 -- 88
		75 -- 90
		75 -- 91
		75 -- 92
		75 -- 97
		75 -- 98
		75 -- 99
		76 -- 80
		76 -- 81
		76 -- 82
		76 -- 83
		76 -- 84
		76 -- 86
		76 -- 87
		76 -- 88
		76 -- 90
		76 -- 91
		76 -- 94
		76 -- 95
		76 -- 96
		76 -- 97
		77 -- 78
		77 -- 79
		77 -- 80
		77 -- 81
		77 -- 82
		77 -- 85
		77 -- 86
		77 -- 88
		77 -- 92
		77 -- 94
		78 -- 79
		78 -- 81
		78 -- 83
		78 -- 87
		78 -- 88
		78 -- 89
		78 -- 90
		78 -- 92
		78 -- 96
		78 -- 97
		78 -- 98
		78 -- 99
		79 -- 81
		79 -- 84
		79 -- 85
		79 -- 86
		79 -- 88
		79 -- 89
		79 -- 92
		79 -- 94
		79 -- 95
		79 -- 96
		79 -- 97
		79 -- 98
		79 -- 99
		80 -- 81
		80 -- 82
		80 -- 83
		80 -- 84
		80 -- 87
		80 -- 88
		80 -- 89
		80 -- 94
		80 -- 95
		80 -- 96
		80 -- 98
		80 -- 99
		81 -- 85
		81 -- 87
		81 -- 88
		81 -- 89
		81 -- 95
		81 -- 96
		81 -- 97
		81 -- 98
		81 -- 99
		82 -- 84
		82 -- 86
		82 -- 87
		82 -- 89
		82 -- 91
		82 -- 93
		82 -- 94
		82 -- 97
		83 -- 84
		83 -- 86
		83 -- 87
		83 -- 89
		83 -- 91
		83 -- 92
		83 -- 94
		83 -- 96
		83 -- 97
		83 -- 99
		84 -- 85
		84 -- 87
		84 -- 90
		84 -- 92
		84 -- 93
		84 -- 95
		84 -- 99
		85 -- 88
		85 -- 91
		85 -- 92
		85 -- 93
		85 -- 95
		85 -- 96
		85 -- 99
		86 -- 88
		86 -- 89
		86 -- 90
		86 -- 91
		86 -- 93
		86 -- 95
		86 -- 99
		87 -- 92
		87 -- 94
		87 -- 95
		87 -- 97
		87 -- 98
		88 -- 90
		88 -- 92
		88 -- 94
		88 -- 96
		88 -- 98
		88 -- 99
		89 -- 90
		89 -- 91
		89 -- 92
		89 -- 95
		89 -- 97
		90 -- 92
		90 -- 94
		90 -- 95
		90 -- 98
		91 -- 98
		91 -- 99
		92 -- 93
		92 -- 95
		93 -- 95
		94 -- 96
		94 -- 97
		94 -- 99
		95 -- 97
		96 -- 97
		96 -- 98
		96 -- 99
		97 -- 99
}