graph {
		0 -- 2
		0 -- 5
		0 -- 6
		0 -- 7
		0 -- 8
		0 -- 10
		0 -- 14
		0 -- 15
		0 -- 17
		0 -- 18
		0 -- 19
		0 -- 21
		0 -- 22
		0 -- 24
		0 -- 29
		0 -- 31
		0 -- 33
		0 -- 35
		0 -- 36
		0 -- 37
		0 -- 38
		0 -- 40
		0 -- 43
		0 -- 45
		0 -- 46
		0 -- 47
		0 -- 48
		0 -- 49
		0 -- 50
		0 -- 52
		0 -- 53
		0 -- 57
		0 -- 59
		0 -- 60
		0 -- 65
		0 -- 70
		0 -- 71
		0 -- 74
		0 -- 75
		0 -- 78
		0 -- 79
		0 -- 81
		0 -- 85
		0 -- 86
		0 -- 88
		0 -- 91
		0 -- 92
		0 -- 93
		0 -- 96
		0 -- 97
		0 -- 98
		1 -- 2
		1 -- 75
		1 -- 97
		1 -- 5
		1 -- 6
		1 -- 7
		1 -- 8
		1 -- 9
		1 -- 11
		1 -- 76
		1 -- 79
		1 -- 16
		1 -- 17
		1 -- 19
		1 -- 85
		1 -- 92
		1 -- 23
		1 -- 24
		1 -- 89
		1 -- 26
		1 -- 91
		1 -- 28
		1 -- 94
		1 -- 95
		1 -- 32
		1 -- 33
		1 -- 34
		1 -- 38
		1 -- 39
		1 -- 80
		1 -- 41
		1 -- 43
		1 -- 44
		1 -- 45
		1 -- 46
		1 -- 47
		1 -- 72
		1 -- 50
		1 -- 53
		1 -- 57
		2 -- 3
		2 -- 4
		2 -- 5
		2 -- 7
		2 -- 8
		2 -- 10
		2 -- 13
		2 -- 14
		2 -- 16
		2 -- 19
		2 -- 21
		2 -- 22
		2 -- 24
		2 -- 26
		2 -- 27
		2 -- 30
		2 -- 31
		2 -- 34
		2 -- 38
		2 -- 39
		2 -- 47
		2 -- 50
		2 -- 52
		2 -- 53
		2 -- 59
		2 -- 60
		2 -- 61
		2 -- 62
		2 -- 64
		2 -- 65
		2 -- 66
		2 -- 70
		2 -- 72
		2 -- 73
		2 -- 74
		2 -- 80
		2 -- 82
		2 -- 84
		2 -- 87
		2 -- 91
		2 -- 92
		2 -- 94
		2 -- 95
		2 -- 96
		2 -- 97
		2 -- 98
		2 -- 99
		3 -- 4
		3 -- 5
		3 -- 6
		3 -- 8
		3 -- 9
		3 -- 10
		3 -- 11
		3 -- 13
		3 -- 15
		3 -- 16
		3 -- 17
		3 -- 18
		3 -- 19
		3 -- 22
		3 -- 24
		3 -- 27
		3 -- 28
		3 -- 29
		3 -- 30
		3 -- 31
		3 -- 34
		3 -- 35
		3 -- 40
		3 -- 42
		3 -- 43
		3 -- 44
		3 -- 46
		3 -- 48
		3 -- 52
		3 -- 53
		3 -- 55
		3 -- 57
		3 -- 59
		3 -- 61
		3 -- 62
		3 -- 63
		3 -- 64
		3 -- 65
		3 -- 68
		3 -- 69
		3 -- 72
		3 -- 73
		3 -- 74
		3 -- 77
		3 -- 82
		3 -- 84
		3 -- 85
		3 -- 92
		3 -- 93
		3 -- 95
		3 -- 96
		3 -- 98
		4 -- 5
		4 -- 6
		4 -- 9
		4 -- 11
		4 -- 12
		4 -- 15
		4 -- 16
		4 -- 19
		4 -- 21
		4 -- 23
		4 -- 24
		4 -- 27
		4 -- 31
		4 -- 34
		4 -- 36
		4 -- 38
		4 -- 41
		4 -- 42
		4 -- 43
		4 -- 44
		4 -- 46
		4 -- 47
		4 -- 50
		4 -- 53
		4 -- 57
		4 -- 58
		4 -- 59
		4 -- 60
		4 -- 61
		4 -- 62
		4 -- 65
		4 -- 66
		4 -- 67
		4 -- 69
		4 -- 70
		4 -- 71
		4 -- 72
		4 -- 74
		4 -- 76
		4 -- 77
		4 -- 79
		4 -- 80
		4 -- 81
		4 -- 82
		4 -- 84
		4 -- 85
		4 -- 86
		4 -- 87
		4 -- 88
		4 -- 90
		4 -- 93
		4 -- 94
		4 -- 95
		4 -- 96
		4 -- 97
		5 -- 6
		5 -- 7
		5 -- 10
		5 -- 12
		5 -- 15
		5 -- 16
		5 -- 17
		5 -- 18
		5 -- 19
		5 -- 25
		5 -- 26
		5 -- 29
		5 -- 30
		5 -- 31
		5 -- 32
		5 -- 35
		5 -- 36
		5 -- 40
		5 -- 44
		5 -- 45
		5 -- 49
		5 -- 51
		5 -- 52
		5 -- 53
		5 -- 54
		5 -- 55
		5 -- 57
		5 -- 59
		5 -- 63
		5 -- 65
		5 -- 67
		5 -- 68
		5 -- 70
		5 -- 71
		5 -- 75
		5 -- 81
		5 -- 83
		5 -- 85
		5 -- 87
		5 -- 88
		5 -- 91
		5 -- 93
		5 -- 94
		5 -- 95
		5 -- 96
		5 -- 99
		6 -- 8
		6 -- 12
		6 -- 14
		6 -- 16
		6 -- 17
		6 -- 19
		6 -- 20
		6 -- 23
		6 -- 24
		6 -- 25
		6 -- 27
		6 -- 28
		6 -- 29
		6 -- 30
		6 -- 32
		6 -- 33
		6 -- 34
		6 -- 40
		6 -- 42
		6 -- 45
		6 -- 47
		6 -- 50
		6 -- 52
		6 -- 53
		6 -- 55
		6 -- 56
		6 -- 57
		6 -- 58
		6 -- 61
		6 -- 62
		6 -- 63
		6 -- 64
		6 -- 67
		6 -- 68
		6 -- 70
		6 -- 74
		6 -- 75
		6 -- 76
		6 -- 77
		6 -- 80
		6 -- 81
		6 -- 82
		6 -- 84
		6 -- 87
		6 -- 92
		6 -- 93
		6 -- 94
		6 -- 96
		6 -- 97
		6 -- 98
		6 -- 99
		7 -- 8
		7 -- 10
		7 -- 11
		7 -- 13
		7 -- 15
		7 -- 16
		7 -- 19
		7 -- 20
		7 -- 21
		7 -- 24
		7 -- 26
		7 -- 27
		7 -- 34
		7 -- 35
		7 -- 36
		7 -- 38
		7 -- 42
		7 -- 43
		7 -- 44
		7 -- 46
		7 -- 47
		7 -- 48
		7 -- 49
		7 -- 50
		7 -- 51
		7 -- 54
		7 -- 56
		7 -- 57
		7 -- 58
		7 -- 59
		7 -- 60
		7 -- 61
		7 -- 62
		7 -- 64
		7 -- 65
		7 -- 68
		7 -- 69
		7 -- 70
		7 -- 72
		7 -- 73
		7 -- 74
		7 -- 75
		7 -- 78
		7 -- 79
		7 -- 80
		7 -- 82
		7 -- 86
		7 -- 87
		7 -- 88
		7 -- 89
		7 -- 91
		7 -- 92
		7 -- 96
		8 -- 68
		8 -- 64
		8 -- 9
		8 -- 11
		8 -- 66
		8 -- 77
		8 -- 80
		8 -- 18
		8 -- 19
		8 -- 20
		8 -- 85
		8 -- 23
		8 -- 88
		8 -- 89
		8 -- 27
		8 -- 92
		8 -- 93
		8 -- 32
		8 -- 33
		8 -- 67
		8 -- 99
		8 -- 82
		8 -- 84
		8 -- 40
		8 -- 42
		8 -- 45
		8 -- 96
		8 -- 53
		8 -- 57
		8 -- 59
		8 -- 60
		8 -- 61
		9 -- 10
		9 -- 13
		9 -- 16
		9 -- 20
		9 -- 23
		9 -- 25
		9 -- 27
		9 -- 30
		9 -- 31
		9 -- 32
		9 -- 33
		9 -- 34
		9 -- 35
		9 -- 37
		9 -- 38
		9 -- 45
		9 -- 47
		9 -- 48
		9 -- 49
		9 -- 50
		9 -- 51
		9 -- 52
		9 -- 53
		9 -- 54
		9 -- 55
		9 -- 57
		9 -- 59
		9 -- 62
		9 -- 63
		9 -- 65
		9 -- 66
		9 -- 67
		9 -- 68
		9 -- 74
		9 -- 75
		9 -- 77
		9 -- 78
		9 -- 79
		9 -- 82
		9 -- 84
		9 -- 86
		9 -- 87
		9 -- 91
		9 -- 92
		9 -- 93
		9 -- 94
		9 -- 95
		9 -- 96
		10 -- 11
		10 -- 14
		10 -- 16
		10 -- 17
		10 -- 18
		10 -- 22
		10 -- 24
		10 -- 27
		10 -- 28
		10 -- 31
		10 -- 34
		10 -- 36
		10 -- 40
		10 -- 41
		10 -- 42
		10 -- 43
		10 -- 44
		10 -- 45
		10 -- 46
		10 -- 49
		10 -- 52
		10 -- 58
		10 -- 59
		10 -- 60
		10 -- 61
		10 -- 62
		10 -- 63
		10 -- 71
		10 -- 73
		10 -- 74
		10 -- 76
		10 -- 79
		10 -- 80
		10 -- 81
		10 -- 83
		10 -- 84
		10 -- 85
		10 -- 88
		10 -- 90
		10 -- 91
		10 -- 92
		10 -- 93
		10 -- 94
		10 -- 96
		11 -- 16
		11 -- 17
		11 -- 18
		11 -- 19
		11 -- 20
		11 -- 23
		11 -- 25
		11 -- 28
		11 -- 30
		11 -- 32
		11 -- 35
		11 -- 36
		11 -- 40
		11 -- 42
		11 -- 44
		11 -- 45
		11 -- 47
		11 -- 48
		11 -- 49
		11 -- 51
		11 -- 52
		11 -- 55
		11 -- 56
		11 -- 58
		11 -- 59
		11 -- 62
		11 -- 63
		11 -- 65
		11 -- 66
		11 -- 68
		11 -- 69
		11 -- 71
		11 -- 72
		11 -- 75
		11 -- 79
		11 -- 80
		11 -- 82
		11 -- 83
		11 -- 84
		11 -- 85
		11 -- 87
		11 -- 93
		11 -- 95
		12 -- 68
		12 -- 66
		12 -- 67
		12 -- 73
		12 -- 74
		12 -- 75
		12 -- 76
		12 -- 13
		12 -- 14
		12 -- 80
		12 -- 81
		12 -- 82
		12 -- 20
		12 -- 78
		12 -- 22
		12 -- 23
		12 -- 88
		12 -- 25
		12 -- 27
		12 -- 28
		12 -- 30
		12 -- 32
		12 -- 34
		12 -- 38
		12 -- 39
		12 -- 41
		12 -- 42
		12 -- 44
		12 -- 45
		12 -- 47
		12 -- 50
		12 -- 52
		12 -- 55
		12 -- 86
		12 -- 62
		13 -- 16
		13 -- 17
		13 -- 18
		13 -- 19
		13 -- 20
		13 -- 22
		13 -- 23
		13 -- 26
		13 -- 28
		13 -- 29
		13 -- 30
		13 -- 31
		13 -- 33
		13 -- 35
		13 -- 37
		13 -- 38
		13 -- 40
		13 -- 41
		13 -- 42
		13 -- 45
		13 -- 48
		13 -- 49
		13 -- 52
		13 -- 54
		13 -- 55
		13 -- 56
		13 -- 58
		13 -- 59
		13 -- 60
		13 -- 61
		13 -- 65
		13 -- 68
		13 -- 69
		13 -- 70
		13 -- 71
		13 -- 73
		13 -- 74
		13 -- 77
		13 -- 80
		13 -- 81
		13 -- 82
		13 -- 83
		13 -- 84
		13 -- 85
		13 -- 90
		13 -- 91
		13 -- 92
		13 -- 94
		13 -- 95
		13 -- 97
		13 -- 98
		14 -- 15
		14 -- 17
		14 -- 18
		14 -- 19
		14 -- 21
		14 -- 22
		14 -- 26
		14 -- 27
		14 -- 28
		14 -- 32
		14 -- 35
		14 -- 36
		14 -- 39
		14 -- 40
		14 -- 41
		14 -- 42
		14 -- 43
		14 -- 44
		14 -- 49
		14 -- 54
		14 -- 55
		14 -- 56
		14 -- 57
		14 -- 60
		14 -- 61
		14 -- 67
		14 -- 68
		14 -- 71
		14 -- 72
		14 -- 73
		14 -- 74
		14 -- 78
		14 -- 79
		14 -- 82
		14 -- 83
		14 -- 85
		14 -- 87
		14 -- 89
		14 -- 90
		14 -- 94
		14 -- 95
		14 -- 98
		14 -- 99
		15 -- 19
		15 -- 21
		15 -- 24
		15 -- 25
		15 -- 26
		15 -- 27
		15 -- 28
		15 -- 29
		15 -- 32
		15 -- 34
		15 -- 35
		15 -- 38
		15 -- 39
		15 -- 42
		15 -- 43
		15 -- 44
		15 -- 47
		15 -- 49
		15 -- 50
		15 -- 51
		15 -- 52
		15 -- 53
		15 -- 54
		15 -- 56
		15 -- 58
		15 -- 61
		15 -- 62
		15 -- 63
		15 -- 65
		15 -- 66
		15 -- 68
		15 -- 69
		15 -- 74
		15 -- 78
		15 -- 79
		15 -- 81
		15 -- 84
		15 -- 87
		15 -- 89
		15 -- 92
		16 -- 17
		16 -- 18
		16 -- 20
		16 -- 22
		16 -- 23
		16 -- 26
		16 -- 27
		16 -- 29
		16 -- 32
		16 -- 34
		16 -- 36
		16 -- 38
		16 -- 39
		16 -- 40
		16 -- 42
		16 -- 43
		16 -- 45
		16 -- 46
		16 -- 48
		16 -- 49
		16 -- 52
		16 -- 56
		16 -- 59
		16 -- 65
		16 -- 66
		16 -- 68
		16 -- 69
		16 -- 70
		16 -- 71
		16 -- 72
		16 -- 73
		16 -- 76
		16 -- 77
		16 -- 78
		16 -- 79
		16 -- 82
		16 -- 85
		16 -- 86
		16 -- 87
		16 -- 88
		16 -- 90
		16 -- 91
		16 -- 93
		16 -- 95
		16 -- 96
		17 -- 19
		17 -- 23
		17 -- 24
		17 -- 25
		17 -- 27
		17 -- 28
		17 -- 30
		17 -- 31
		17 -- 32
		17 -- 33
		17 -- 35
		17 -- 42
		17 -- 43
		17 -- 46
		17 -- 47
		17 -- 48
		17 -- 50
		17 -- 51
		17 -- 52
		17 -- 53
		17 -- 55
		17 -- 58
		17 -- 61
		17 -- 68
		17 -- 69
		17 -- 70
		17 -- 71
		17 -- 72
		17 -- 73
		17 -- 75
		17 -- 76
		17 -- 79
		17 -- 80
		17 -- 82
		17 -- 84
		17 -- 85
		17 -- 87
		17 -- 89
		17 -- 90
		17 -- 91
		17 -- 92
		17 -- 98
		18 -- 19
		18 -- 22
		18 -- 23
		18 -- 24
		18 -- 25
		18 -- 27
		18 -- 29
		18 -- 30
		18 -- 32
		18 -- 40
		18 -- 45
		18 -- 46
		18 -- 47
		18 -- 49
		18 -- 51
		18 -- 52
		18 -- 53
		18 -- 54
		18 -- 58
		18 -- 61
		18 -- 62
		18 -- 64
		18 -- 65
		18 -- 67
		18 -- 68
		18 -- 70
		18 -- 72
		18 -- 75
		18 -- 76
		18 -- 77
		18 -- 79
		18 -- 80
		18 -- 81
		18 -- 82
		18 -- 83
		18 -- 84
		18 -- 87
		18 -- 89
		18 -- 90
		18 -- 94
		18 -- 97
		18 -- 98
		19 -- 20
		19 -- 21
		19 -- 23
		19 -- 24
		19 -- 26
		19 -- 28
		19 -- 32
		19 -- 33
		19 -- 35
		19 -- 38
		19 -- 39
		19 -- 40
		19 -- 41
		19 -- 42
		19 -- 43
		19 -- 45
		19 -- 46
		19 -- 47
		19 -- 49
		19 -- 50
		19 -- 51
		19 -- 52
		19 -- 54
		19 -- 55
		19 -- 56
		19 -- 57
		19 -- 58
		19 -- 62
		19 -- 63
		19 -- 66
		19 -- 67
		19 -- 70
		19 -- 74
		19 -- 75
		19 -- 79
		19 -- 80
		19 -- 83
		19 -- 84
		19 -- 85
		19 -- 86
		19 -- 87
		19 -- 89
		19 -- 90
		19 -- 92
		19 -- 97
		20 -- 21
		20 -- 22
		20 -- 23
		20 -- 25
		20 -- 27
		20 -- 31
		20 -- 34
		20 -- 36
		20 -- 37
		20 -- 40
		20 -- 43
		20 -- 46
		20 -- 48
		20 -- 50
		20 -- 51
		20 -- 52
		20 -- 53
		20 -- 55
		20 -- 56
		20 -- 57
		20 -- 59
		20 -- 62
		20 -- 65
		20 -- 66
		20 -- 67
		20 -- 70
		20 -- 71
		20 -- 72
		20 -- 73
		20 -- 74
		20 -- 75
		20 -- 78
		20 -- 79
		20 -- 80
		20 -- 81
		20 -- 82
		20 -- 86
		20 -- 89
		20 -- 91
		20 -- 92
		20 -- 95
		20 -- 97
		20 -- 98
		20 -- 99
		21 -- 68
		21 -- 86
		21 -- 70
		21 -- 73
		21 -- 75
		21 -- 66
		21 -- 80
		21 -- 88
		21 -- 22
		21 -- 23
		21 -- 24
		21 -- 25
		21 -- 26
		21 -- 93
		21 -- 94
		21 -- 31
		21 -- 32
		21 -- 33
		21 -- 98
		21 -- 35
		21 -- 77
		21 -- 37
		21 -- 71
		21 -- 44
		21 -- 45
		21 -- 47
		21 -- 48
		21 -- 49
		21 -- 51
		21 -- 55
		21 -- 56
		21 -- 87
		21 -- 83
		21 -- 63
		22 -- 66
		22 -- 70
		22 -- 71
		22 -- 72
		22 -- 76
		22 -- 75
		22 -- 83
		22 -- 23
		22 -- 24
		22 -- 25
		22 -- 91
		22 -- 30
		22 -- 31
		22 -- 32
		22 -- 98
		22 -- 99
		22 -- 36
		22 -- 37
		22 -- 41
		22 -- 95
		22 -- 44
		22 -- 45
		22 -- 46
		22 -- 48
		22 -- 50
		22 -- 55
		22 -- 58
		22 -- 59
		22 -- 60
		22 -- 74
		22 -- 62
		22 -- 85
		23 -- 25
		23 -- 26
		23 -- 27
		23 -- 28
		23 -- 29
		23 -- 31
		23 -- 33
		23 -- 34
		23 -- 35
		23 -- 36
		23 -- 37
		23 -- 39
		23 -- 40
		23 -- 42
		23 -- 48
		23 -- 52
		23 -- 54
		23 -- 57
		23 -- 58
		23 -- 59
		23 -- 60
		23 -- 62
		23 -- 63
		23 -- 64
		23 -- 67
		23 -- 68
		23 -- 70
		23 -- 74
		23 -- 77
		23 -- 78
		23 -- 79
		23 -- 80
		23 -- 81
		23 -- 82
		23 -- 85
		23 -- 87
		23 -- 90
		23 -- 91
		23 -- 92
		23 -- 93
		23 -- 96
		23 -- 97
		24 -- 25
		24 -- 26
		24 -- 30
		24 -- 31
		24 -- 32
		24 -- 35
		24 -- 38
		24 -- 39
		24 -- 41
		24 -- 42
		24 -- 47
		24 -- 49
		24 -- 51
		24 -- 59
		24 -- 60
		24 -- 62
		24 -- 63
		24 -- 65
		24 -- 67
		24 -- 68
		24 -- 71
		24 -- 72
		24 -- 74
		24 -- 75
		24 -- 77
		24 -- 79
		24 -- 80
		24 -- 81
		24 -- 82
		24 -- 83
		24 -- 84
		24 -- 85
		24 -- 86
		24 -- 87
		24 -- 88
		24 -- 91
		24 -- 93
		24 -- 94
		24 -- 97
		24 -- 98
		24 -- 99
		25 -- 26
		25 -- 27
		25 -- 28
		25 -- 29
		25 -- 30
		25 -- 34
		25 -- 35
		25 -- 37
		25 -- 39
		25 -- 40
		25 -- 42
		25 -- 43
		25 -- 44
		25 -- 45
		25 -- 48
		25 -- 50
		25 -- 51
		25 -- 52
		25 -- 53
		25 -- 55
		25 -- 59
		25 -- 63
		25 -- 65
		25 -- 66
		25 -- 79
		25 -- 80
		25 -- 81
		25 -- 82
		25 -- 89
		25 -- 92
		25 -- 95
		25 -- 96
		25 -- 98
		25 -- 99
		26 -- 28
		26 -- 30
		26 -- 31
		26 -- 34
		26 -- 37
		26 -- 41
		26 -- 42
		26 -- 43
		26 -- 44
		26 -- 46
		26 -- 49
		26 -- 51
		26 -- 52
		26 -- 53
		26 -- 55
		26 -- 56
		26 -- 57
		26 -- 58
		26 -- 63
		26 -- 64
		26 -- 65
		26 -- 69
		26 -- 71
		26 -- 73
		26 -- 75
		26 -- 77
		26 -- 79
		26 -- 87
		26 -- 90
		26 -- 92
		26 -- 93
		26 -- 94
		26 -- 95
		27 -- 28
		27 -- 29
		27 -- 30
		27 -- 32
		27 -- 33
		27 -- 36
		27 -- 37
		27 -- 39
		27 -- 42
		27 -- 43
		27 -- 45
		27 -- 47
		27 -- 49
		27 -- 51
		27 -- 52
		27 -- 53
		27 -- 54
		27 -- 55
		27 -- 59
		27 -- 61
		27 -- 62
		27 -- 63
		27 -- 67
		27 -- 68
		27 -- 69
		27 -- 70
		27 -- 73
		27 -- 76
		27 -- 77
		27 -- 78
		27 -- 79
		27 -- 81
		27 -- 82
		27 -- 84
		27 -- 85
		27 -- 87
		27 -- 88
		27 -- 90
		27 -- 92
		27 -- 96
		27 -- 97
		27 -- 99
		28 -- 29
		28 -- 30
		28 -- 31
		28 -- 39
		28 -- 40
		28 -- 41
		28 -- 43
		28 -- 44
		28 -- 46
		28 -- 49
		28 -- 51
		28 -- 53
		28 -- 54
		28 -- 57
		28 -- 58
		28 -- 59
		28 -- 61
		28 -- 62
		28 -- 63
		28 -- 71
		28 -- 74
		28 -- 75
		28 -- 77
		28 -- 78
		28 -- 79
		28 -- 83
		28 -- 84
		28 -- 85
		28 -- 86
		28 -- 92
		28 -- 93
		28 -- 94
		28 -- 97
		28 -- 98
		29 -- 30
		29 -- 35
		29 -- 38
		29 -- 39
		29 -- 42
		29 -- 44
		29 -- 46
		29 -- 47
		29 -- 50
		29 -- 52
		29 -- 55
		29 -- 56
		29 -- 58
		29 -- 59
		29 -- 60
		29 -- 61
		29 -- 67
		29 -- 68
		29 -- 69
		29 -- 70
		29 -- 71
		29 -- 73
		29 -- 74
		29 -- 75
		29 -- 78
		29 -- 79
		29 -- 80
		29 -- 82
		29 -- 83
		29 -- 86
		29 -- 88
		29 -- 91
		29 -- 92
		29 -- 93
		29 -- 96
		29 -- 97
		29 -- 98
		29 -- 99
		30 -- 31
		30 -- 34
		30 -- 35
		30 -- 39
		30 -- 42
		30 -- 43
		30 -- 45
		30 -- 46
		30 -- 47
		30 -- 51
		30 -- 53
		30 -- 54
		30 -- 55
		30 -- 60
		30 -- 63
		30 -- 64
		30 -- 65
		30 -- 68
		30 -- 72
		30 -- 77
		30 -- 78
		30 -- 79
		30 -- 83
		30 -- 84
		30 -- 85
		30 -- 87
		30 -- 89
		30 -- 91
		30 -- 92
		30 -- 93
		30 -- 94
		30 -- 96
		30 -- 97
		30 -- 98
		30 -- 99
		31 -- 32
		31 -- 33
		31 -- 36
		31 -- 37
		31 -- 39
		31 -- 41
		31 -- 42
		31 -- 47
		31 -- 48
		31 -- 49
		31 -- 50
		31 -- 51
		31 -- 54
		31 -- 56
		31 -- 57
		31 -- 61
		31 -- 63
		31 -- 67
		31 -- 68
		31 -- 69
		31 -- 71
		31 -- 76
		31 -- 77
		31 -- 79
		31 -- 80
		31 -- 83
		31 -- 90
		31 -- 93
		31 -- 95
		31 -- 98
		32 -- 34
		32 -- 35
		32 -- 37
		32 -- 38
		32 -- 42
		32 -- 43
		32 -- 45
		32 -- 47
		32 -- 48
		32 -- 52
		32 -- 54
		32 -- 56
		32 -- 57
		32 -- 59
		32 -- 60
		32 -- 64
		32 -- 65
		32 -- 66
		32 -- 68
		32 -- 69
		32 -- 73
		32 -- 78
		32 -- 79
		32 -- 81
		32 -- 82
		32 -- 83
		32 -- 85
		32 -- 86
		32 -- 88
		32 -- 90
		32 -- 92
		32 -- 93
		32 -- 94
		32 -- 95
		32 -- 97
		32 -- 98
		32 -- 99
		33 -- 66
		33 -- 98
		33 -- 71
		33 -- 74
		33 -- 87
		33 -- 88
		33 -- 81
		33 -- 94
		33 -- 34
		33 -- 36
		33 -- 37
		33 -- 39
		33 -- 42
		33 -- 70
		33 -- 46
		33 -- 47
		33 -- 50
		33 -- 52
		33 -- 53
		33 -- 85
		33 -- 95
		33 -- 60
		33 -- 62
		33 -- 63
		34 -- 35
		34 -- 37
		34 -- 38
		34 -- 43
		34 -- 47
		34 -- 48
		34 -- 49
		34 -- 50
		34 -- 53
		34 -- 54
		34 -- 58
		34 -- 60
		34 -- 61
		34 -- 62
		34 -- 63
		34 -- 64
		34 -- 65
		34 -- 66
		34 -- 69
		34 -- 72
		34 -- 75
		34 -- 76
		34 -- 77
		34 -- 80
		34 -- 81
		34 -- 83
		34 -- 85
		34 -- 86
		34 -- 88
		34 -- 92
		34 -- 95
		34 -- 96
		34 -- 98
		34 -- 99
		35 -- 36
		35 -- 37
		35 -- 38
		35 -- 39
		35 -- 41
		35 -- 43
		35 -- 45
		35 -- 46
		35 -- 47
		35 -- 50
		35 -- 51
		35 -- 54
		35 -- 55
		35 -- 57
		35 -- 58
		35 -- 59
		35 -- 62
		35 -- 66
		35 -- 67
		35 -- 68
		35 -- 69
		35 -- 71
		35 -- 72
		35 -- 74
		35 -- 75
		35 -- 76
		35 -- 84
		35 -- 89
		35 -- 90
		35 -- 93
		35 -- 94
		35 -- 95
		35 -- 96
		35 -- 97
		35 -- 98
		36 -- 38
		36 -- 40
		36 -- 41
		36 -- 42
		36 -- 43
		36 -- 44
		36 -- 48
		36 -- 49
		36 -- 52
		36 -- 53
		36 -- 55
		36 -- 58
		36 -- 59
		36 -- 60
		36 -- 61
		36 -- 64
		36 -- 66
		36 -- 67
		36 -- 68
		36 -- 70
		36 -- 75
		36 -- 76
		36 -- 78
		36 -- 80
		36 -- 81
		36 -- 84
		36 -- 85
		36 -- 89
		36 -- 90
		36 -- 93
		36 -- 95
		37 -- 38
		37 -- 40
		37 -- 43
		37 -- 44
		37 -- 45
		37 -- 46
		37 -- 47
		37 -- 48
		37 -- 50
		37 -- 51
		37 -- 52
		37 -- 53
		37 -- 58
		37 -- 61
		37 -- 63
		37 -- 64
		37 -- 65
		37 -- 67
		37 -- 68
		37 -- 69
		37 -- 70
		37 -- 72
		37 -- 74
		37 -- 77
		37 -- 79
		37 -- 80
		37 -- 82
		37 -- 86
		37 -- 89
		37 -- 93
		37 -- 94
		37 -- 95
		37 -- 97
		37 -- 98
		38 -- 40
		38 -- 43
		38 -- 45
		38 -- 48
		38 -- 50
		38 -- 51
		38 -- 52
		38 -- 53
		38 -- 55
		38 -- 59
		38 -- 63
		38 -- 64
		38 -- 65
		38 -- 66
		38 -- 69
		38 -- 70
		38 -- 72
		38 -- 73
		38 -- 74
		38 -- 75
		38 -- 80
		38 -- 84
		38 -- 86
		38 -- 88
		38 -- 92
		38 -- 93
		38 -- 94
		38 -- 96
		38 -- 97
		38 -- 98
		39 -- 41
		39 -- 42
		39 -- 45
		39 -- 47
		39 -- 50
		39 -- 51
		39 -- 52
		39 -- 54
		39 -- 55
		39 -- 58
		39 -- 59
		39 -- 60
		39 -- 62
		39 -- 63
		39 -- 64
		39 -- 65
		39 -- 68
		39 -- 70
		39 -- 71
		39 -- 72
		39 -- 73
		39 -- 74
		39 -- 75
		39 -- 77
		39 -- 78
		39 -- 83
		39 -- 84
		39 -- 85
		39 -- 86
		39 -- 87
		39 -- 89
		39 -- 90
		39 -- 91
		39 -- 93
		39 -- 96
		40 -- 41
		40 -- 42
		40 -- 44
		40 -- 45
		40 -- 47
		40 -- 48
		40 -- 49
		40 -- 53
		40 -- 55
		40 -- 57
		40 -- 61
		40 -- 63
		40 -- 65
		40 -- 68
		40 -- 69
		40 -- 71
		40 -- 72
		40 -- 75
		40 -- 76
		40 -- 82
		40 -- 86
		40 -- 87
		40 -- 89
		40 -- 90
		40 -- 91
		40 -- 94
		40 -- 95
		40 -- 99
		41 -- 42
		41 -- 43
		41 -- 44
		41 -- 45
		41 -- 47
		41 -- 48
		41 -- 50
		41 -- 53
		41 -- 54
		41 -- 55
		41 -- 57
		41 -- 58
		41 -- 59
		41 -- 62
		41 -- 63
		41 -- 64
		41 -- 65
		41 -- 67
		41 -- 69
		41 -- 70
		41 -- 71
		41 -- 75
		41 -- 77
		41 -- 78
		41 -- 79
		41 -- 80
		41 -- 81
		41 -- 82
		41 -- 83
		41 -- 85
		41 -- 86
		41 -- 88
		41 -- 89
		41 -- 90
		41 -- 96
		41 -- 97
		42 -- 45
		42 -- 46
		42 -- 47
		42 -- 50
		42 -- 52
		42 -- 54
		42 -- 55
		42 -- 57
		42 -- 58
		42 -- 59
		42 -- 62
		42 -- 64
		42 -- 66
		42 -- 67
		42 -- 69
		42 -- 71
		42 -- 73
		42 -- 74
		42 -- 80
		42 -- 82
		42 -- 84
		42 -- 85
		42 -- 88
		42 -- 91
		42 -- 92
		42 -- 93
		42 -- 94
		42 -- 99
		43 -- 46
		43 -- 47
		43 -- 50
		43 -- 52
		43 -- 53
		43 -- 54
		43 -- 57
		43 -- 58
		43 -- 61
		43 -- 62
		43 -- 64
		43 -- 65
		43 -- 68
		43 -- 71
		43 -- 74
		43 -- 75
		43 -- 77
		43 -- 78
		43 -- 81
		43 -- 84
		43 -- 87
		43 -- 88
		43 -- 89
		43 -- 90
		43 -- 92
		43 -- 95
		43 -- 96
		43 -- 97
		43 -- 98
		44 -- 45
		44 -- 46
		44 -- 48
		44 -- 50
		44 -- 51
		44 -- 54
		44 -- 55
		44 -- 58
		44 -- 59
		44 -- 62
		44 -- 65
		44 -- 67
		44 -- 69
		44 -- 74
		44 -- 75
		44 -- 77
		44 -- 81
		44 -- 83
		44 -- 86
		44 -- 89
		44 -- 91
		44 -- 93
		44 -- 96
		44 -- 98
		44 -- 99
		45 -- 46
		45 -- 47
		45 -- 49
		45 -- 50
		45 -- 51
		45 -- 54
		45 -- 55
		45 -- 56
		45 -- 57
		45 -- 58
		45 -- 59
		45 -- 62
		45 -- 63
		45 -- 66
		45 -- 67
		45 -- 72
		45 -- 76
		45 -- 77
		45 -- 78
		45 -- 80
		45 -- 81
		45 -- 82
		45 -- 86
		45 -- 90
		45 -- 92
		45 -- 93
		45 -- 94
		45 -- 96
		45 -- 98
		46 -- 48
		46 -- 50
		46 -- 57
		46 -- 59
		46 -- 60
		46 -- 61
		46 -- 62
		46 -- 63
		46 -- 64
		46 -- 65
		46 -- 66
		46 -- 67
		46 -- 69
		46 -- 70
		46 -- 76
		46 -- 79
		46 -- 81
		46 -- 82
		46 -- 83
		46 -- 85
		46 -- 88
		46 -- 89
		46 -- 90
		46 -- 91
		46 -- 96
		46 -- 98
		47 -- 49
		47 -- 50
		47 -- 54
		47 -- 55
		47 -- 57
		47 -- 63
		47 -- 65
		47 -- 66
		47 -- 67
		47 -- 70
		47 -- 71
		47 -- 75
		47 -- 76
		47 -- 77
		47 -- 79
		47 -- 81
		47 -- 82
		47 -- 83
		47 -- 87
		47 -- 90
		47 -- 91
		47 -- 92
		47 -- 95
		47 -- 97
		47 -- 98
		48 -- 52
		48 -- 53
		48 -- 54
		48 -- 56
		48 -- 57
		48 -- 59
		48 -- 62
		48 -- 63
		48 -- 65
		48 -- 69
		48 -- 70
		48 -- 72
		48 -- 73
		48 -- 75
		48 -- 79
		48 -- 81
		48 -- 82
		48 -- 83
		48 -- 85
		48 -- 88
		48 -- 89
		48 -- 97
		48 -- 98
		48 -- 99
		49 -- 51
		49 -- 52
		49 -- 56
		49 -- 57
		49 -- 60
		49 -- 61
		49 -- 65
		49 -- 66
		49 -- 69
		49 -- 70
		49 -- 73
		49 -- 75
		49 -- 76
		49 -- 77
		49 -- 78
		49 -- 82
		49 -- 83
		49 -- 84
		49 -- 89
		49 -- 92
		49 -- 93
		49 -- 96
		49 -- 97
		50 -- 54
		50 -- 58
		50 -- 60
		50 -- 63
		50 -- 65
		50 -- 73
		50 -- 74
		50 -- 75
		50 -- 76
		50 -- 82
		50 -- 83
		50 -- 87
		50 -- 91
		50 -- 94
		50 -- 95
		50 -- 99
		51 -- 52
		51 -- 53
		51 -- 54
		51 -- 56
		51 -- 57
		51 -- 61
		51 -- 63
		51 -- 64
		51 -- 65
		51 -- 66
		51 -- 69
		51 -- 70
		51 -- 72
		51 -- 76
		51 -- 78
		51 -- 79
		51 -- 80
		51 -- 83
		51 -- 85
		51 -- 86
		51 -- 91
		51 -- 92
		51 -- 94
		51 -- 97
		51 -- 98
		52 -- 54
		52 -- 55
		52 -- 56
		52 -- 61
		52 -- 65
		52 -- 66
		52 -- 67
		52 -- 68
		52 -- 69
		52 -- 71
		52 -- 73
		52 -- 76
		52 -- 78
		52 -- 79
		52 -- 88
		52 -- 91
		52 -- 94
		52 -- 95
		52 -- 98
		53 -- 57
		53 -- 60
		53 -- 64
		53 -- 66
		53 -- 67
		53 -- 68
		53 -- 69
		53 -- 70
		53 -- 71
		53 -- 73
		53 -- 74
		53 -- 78
		53 -- 84
		53 -- 86
		53 -- 87
		53 -- 93
		53 -- 98
		53 -- 99
		54 -- 55
		54 -- 56
		54 -- 57
		54 -- 59
		54 -- 65
		54 -- 66
		54 -- 69
		54 -- 70
		54 -- 76
		54 -- 77
		54 -- 80
		54 -- 81
		54 -- 83
		54 -- 84
		54 -- 85
		54 -- 92
		54 -- 93
		54 -- 94
		54 -- 96
		54 -- 97
		54 -- 99
		55 -- 57
		55 -- 61
		55 -- 62
		55 -- 63
		55 -- 64
		55 -- 65
		55 -- 67
		55 -- 69
		55 -- 70
		55 -- 73
		55 -- 75
		55 -- 82
		55 -- 83
		55 -- 84
		55 -- 85
		55 -- 86
		55 -- 87
		55 -- 91
		55 -- 93
		55 -- 94
		55 -- 98
		55 -- 99
		56 -- 57
		56 -- 58
		56 -- 60
		56 -- 62
		56 -- 64
		56 -- 65
		56 -- 66
		56 -- 68
		56 -- 69
		56 -- 71
		56 -- 72
		56 -- 74
		56 -- 75
		56 -- 77
		56 -- 78
		56 -- 79
		56 -- 81
		56 -- 83
		56 -- 85
		56 -- 86
		56 -- 87
		56 -- 88
		56 -- 89
		56 -- 90
		56 -- 92
		56 -- 96
		56 -- 98
		56 -- 99
		57 -- 59
		57 -- 62
		57 -- 63
		57 -- 64
		57 -- 65
		57 -- 68
		57 -- 69
		57 -- 70
		57 -- 71
		57 -- 73
		57 -- 74
		57 -- 75
		57 -- 77
		57 -- 80
		57 -- 82
		57 -- 83
		57 -- 84
		57 -- 88
		57 -- 90
		57 -- 92
		57 -- 94
		57 -- 99
		58 -- 59
		58 -- 60
		58 -- 62
		58 -- 63
		58 -- 64
		58 -- 65
		58 -- 68
		58 -- 71
		58 -- 73
		58 -- 74
		58 -- 76
		58 -- 78
		58 -- 79
		58 -- 81
		58 -- 83
		58 -- 86
		58 -- 88
		58 -- 89
		58 -- 90
		58 -- 91
		58 -- 93
		58 -- 94
		58 -- 95
		58 -- 96
		58 -- 98
		59 -- 61
		59 -- 64
		59 -- 68
		59 -- 72
		59 -- 74
		59 -- 76
		59 -- 79
		59 -- 84
		59 -- 85
		59 -- 87
		59 -- 88
		59 -- 89
		59 -- 91
		59 -- 93
		59 -- 95
		60 -- 64
		60 -- 67
		60 -- 69
		60 -- 96
		60 -- 94
		60 -- 80
		60 -- 98
		60 -- 84
		60 -- 66
		60 -- 68
		60 -- 90
		60 -- 92
		60 -- 95
		60 -- 97
		60 -- 71
		60 -- 74
		60 -- 89
		60 -- 61
		60 -- 62
		61 -- 63
		61 -- 68
		61 -- 70
		61 -- 71
		61 -- 72
		61 -- 75
		61 -- 77
		61 -- 79
		61 -- 80
		61 -- 81
		61 -- 82
		61 -- 83
		61 -- 84
		61 -- 85
		61 -- 86
		61 -- 87
		61 -- 89
		61 -- 95
		61 -- 96
		61 -- 99
		62 -- 63
		62 -- 71
		62 -- 72
		62 -- 73
		62 -- 75
		62 -- 76
		62 -- 77
		62 -- 78
		62 -- 80
		62 -- 81
		62 -- 82
		62 -- 84
		62 -- 86
		62 -- 90
		62 -- 91
		62 -- 97
		63 -- 64
		63 -- 65
		63 -- 68
		63 -- 69
		63 -- 70
		63 -- 74
		63 -- 77
		63 -- 79
		63 -- 81
		63 -- 83
		63 -- 88
		63 -- 90
		63 -- 91
		63 -- 94
		63 -- 96
		63 -- 98
		63 -- 99
		64 -- 65
		64 -- 66
		64 -- 67
		64 -- 70
		64 -- 71
		64 -- 73
		64 -- 76
		64 -- 79
		64 -- 80
		64 -- 83
		64 -- 84
		64 -- 85
		64 -- 87
		64 -- 89
		64 -- 91
		64 -- 96
		64 -- 97
		65 -- 66
		65 -- 67
		65 -- 68
		65 -- 69
		65 -- 70
		65 -- 72
		65 -- 73
		65 -- 74
		65 -- 75
		65 -- 77
		65 -- 80
		65 -- 81
		65 -- 84
		65 -- 87
		65 -- 88
		65 -- 92
		65 -- 93
		65 -- 94
		65 -- 95
		65 -- 99
		66 -- 67
		66 -- 71
		66 -- 75
		66 -- 77
		66 -- 78
		66 -- 80
		66 -- 82
		66 -- 84
		66 -- 85
		66 -- 86
		66 -- 87
		66 -- 90
		66 -- 93
		66 -- 98
		67 -- 71
		67 -- 74
		67 -- 92
		67 -- 85
		67 -- 73
		67 -- 89
		67 -- 86
		67 -- 69
		67 -- 97
		67 -- 70
		67 -- 83
		67 -- 95
		68 -- 70
		68 -- 78
		68 -- 79
		68 -- 86
		68 -- 87
		68 -- 88
		68 -- 89
		68 -- 91
		68 -- 92
		68 -- 94
		68 -- 95
		68 -- 96
		68 -- 97
		68 -- 99
		69 -- 70
		69 -- 72
		69 -- 73
		69 -- 77
		69 -- 78
		69 -- 79
		69 -- 81
		69 -- 85
		69 -- 86
		69 -- 89
		69 -- 90
		69 -- 91
		69 -- 92
		69 -- 93
		69 -- 95
		69 -- 97
		70 -- 73
		70 -- 74
		70 -- 76
		70 -- 79
		70 -- 81
		70 -- 85
		70 -- 86
		70 -- 87
		70 -- 88
		70 -- 89
		70 -- 91
		70 -- 93
		70 -- 94
		70 -- 97
		70 -- 98
		70 -- 99
		71 -- 74
		71 -- 75
		71 -- 76
		71 -- 77
		71 -- 78
		71 -- 80
		71 -- 81
		71 -- 82
		71 -- 84
		71 -- 85
		71 -- 86
		71 -- 88
		71 -- 89
		71 -- 90
		71 -- 91
		71 -- 92
		71 -- 93
		71 -- 95
		71 -- 96
		71 -- 97
		71 -- 99
		72 -- 73
		72 -- 75
		72 -- 77
		72 -- 79
		72 -- 80
		72 -- 81
		72 -- 82
		72 -- 85
		72 -- 86
		72 -- 88
		72 -- 91
		72 -- 92
		72 -- 94
		72 -- 96
		72 -- 98
		72 -- 99
		73 -- 79
		73 -- 88
		73 -- 94
		73 -- 80
		73 -- 91
		73 -- 83
		73 -- 74
		73 -- 84
		74 -- 75
		74 -- 77
		74 -- 78
		74 -- 80
		74 -- 84
		74 -- 85
		74 -- 86
		74 -- 87
		74 -- 89
		74 -- 91
		74 -- 92
		74 -- 94
		74 -- 95
		74 -- 97
		74 -- 99
		75 -- 78
		75 -- 79
		75 -- 80
		75 -- 84
		75 -- 85
		75 -- 87
		75 -- 90
		75 -- 94
		75 -- 97
		75 -- 98
		75 -- 99
		76 -- 98
		76 -- 77
		76 -- 83
		76 -- 85
		76 -- 88
		76 -- 89
		76 -- 93
		76 -- 96
		76 -- 95
		77 -- 78
		77 -- 81
		77 -- 86
		77 -- 87
		77 -- 89
		77 -- 90
		77 -- 91
		77 -- 92
		77 -- 94
		77 -- 95
		77 -- 99
		78 -- 79
		78 -- 80
		78 -- 81
		78 -- 82
		78 -- 83
		78 -- 84
		78 -- 85
		78 -- 86
		78 -- 87
		78 -- 88
		78 -- 90
		78 -- 91
		78 -- 92
		78 -- 93
		78 -- 99
		79 -- 80
		79 -- 81
		79 -- 82
		79 -- 83
		79 -- 84
		79 -- 90
		79 -- 91
		79 -- 92
		79 -- 93
		79 -- 94
		79 -- 95
		79 -- 96
		79 -- 97
		79 -- 98
		79 -- 99
		80 -- 82
		80 -- 87
		80 -- 88
		80 -- 90
		80 -- 93
		80 -- 96
		80 -- 98
		81 -- 82
		81 -- 84
		81 -- 85
		81 -- 87
		81 -- 88
		81 -- 89
		81 -- 92
		81 -- 95
		81 -- 98
		81 -- 99
		82 -- 85
		82 -- 87
		82 -- 88
		82 -- 90
		82 -- 92
		82 -- 96
		82 -- 98
		82 -- 99
		83 -- 84
		83 -- 86
		83 -- 89
		83 -- 90
		83 -- 94
		83 -- 95
		83 -- 99
		84 -- 85
		84 -- 88
		84 -- 89
		84 -- 91
		84 -- 92
		84 -- 93
		84 -- 96
		84 -- 97
		84 -- 98
		84 -- 99
		85 -- 86
		85 -- 88
		85 -- 90
		85 -- 92
		85 -- 93
		85 -- 96
		85 -- 97
		85 -- 99
		86 -- 87
		86 -- 89
		86 -- 93
		86 -- 96
		86 -- 98
		86 -- 99
		87 -- 88
		87 -- 89
		87 -- 91
		87 -- 94
		87 -- 95
		87 -- 97
		87 -- 98
		88 -- 89
		88 -- 90
		88 -- 91
		88 -- 96
		88 -- 97
		88 -- 98
		88 -- 99
		89 -- 90
		89 -- 91
		89 -- 92
		89 -- 94
		89 -- 95
		89 -- 96
		89 -- 98
		90 -- 91
		90 -- 93
		90 -- 94
		90 -- 96
		90 -- 97
		91 -- 94
		91 -- 95
		92 -- 93
		92 -- 95
		92 -- 97
		92 -- 98
		92 -- 99
		93 -- 94
		93 -- 95
		93 -- 96
		94 -- 96
		94 -- 97
		95 -- 97
		95 -- 98
		95 -- 99
		96 -- 98
		96 -- 99
		97 -- 98
		97 -- 99
}