graph {
		0 -- 1
		0 -- 5
		0 -- 6
		0 -- 9
		0 -- 10
		0 -- 13
		0 -- 14
		0 -- 16
		0 -- 19
		0 -- 22
		0 -- 24
		0 -- 25
		0 -- 27
		0 -- 28
		0 -- 31
		0 -- 33
		0 -- 40
		0 -- 41
		0 -- 43
		0 -- 49
		0 -- 50
		0 -- 51
		0 -- 52
		0 -- 55
		0 -- 58
		0 -- 65
		0 -- 67
		0 -- 68
		0 -- 69
		0 -- 71
		0 -- 72
		0 -- 73
		0 -- 75
		0 -- 77
		0 -- 78
		0 -- 79
		0 -- 81
		0 -- 82
		0 -- 84
		0 -- 85
		0 -- 86
		0 -- 89
		0 -- 90
		0 -- 91
		0 -- 92
		0 -- 93
		0 -- 94
		0 -- 95
		0 -- 97
		0 -- 99
		1 -- 2
		1 -- 4
		1 -- 5
		1 -- 8
		1 -- 10
		1 -- 11
		1 -- 12
		1 -- 14
		1 -- 15
		1 -- 17
		1 -- 19
		1 -- 20
		1 -- 21
		1 -- 22
		1 -- 23
		1 -- 24
		1 -- 27
		1 -- 29
		1 -- 31
		1 -- 32
		1 -- 33
		1 -- 36
		1 -- 40
		1 -- 42
		1 -- 43
		1 -- 44
		1 -- 47
		1 -- 50
		1 -- 53
		1 -- 54
		1 -- 58
		1 -- 60
		1 -- 61
		1 -- 62
		1 -- 63
		1 -- 65
		1 -- 67
		1 -- 69
		1 -- 70
		1 -- 73
		1 -- 75
		1 -- 77
		1 -- 78
		1 -- 80
		1 -- 82
		1 -- 83
		1 -- 86
		1 -- 87
		1 -- 88
		1 -- 89
		1 -- 90
		1 -- 94
		1 -- 95
		1 -- 99
		2 -- 5
		2 -- 6
		2 -- 10
		2 -- 12
		2 -- 13
		2 -- 15
		2 -- 18
		2 -- 19
		2 -- 23
		2 -- 24
		2 -- 25
		2 -- 27
		2 -- 28
		2 -- 30
		2 -- 31
		2 -- 33
		2 -- 36
		2 -- 37
		2 -- 38
		2 -- 42
		2 -- 43
		2 -- 44
		2 -- 45
		2 -- 46
		2 -- 47
		2 -- 48
		2 -- 49
		2 -- 50
		2 -- 54
		2 -- 55
		2 -- 56
		2 -- 57
		2 -- 60
		2 -- 61
		2 -- 64
		2 -- 65
		2 -- 66
		2 -- 67
		2 -- 69
		2 -- 70
		2 -- 71
		2 -- 73
		2 -- 75
		2 -- 79
		2 -- 80
		2 -- 82
		2 -- 85
		2 -- 86
		2 -- 90
		2 -- 92
		3 -- 4
		3 -- 5
		3 -- 7
		3 -- 8
		3 -- 11
		3 -- 12
		3 -- 16
		3 -- 17
		3 -- 18
		3 -- 20
		3 -- 21
		3 -- 23
		3 -- 25
		3 -- 27
		3 -- 28
		3 -- 29
		3 -- 30
		3 -- 31
		3 -- 33
		3 -- 34
		3 -- 35
		3 -- 36
		3 -- 37
		3 -- 38
		3 -- 39
		3 -- 42
		3 -- 44
		3 -- 45
		3 -- 46
		3 -- 47
		3 -- 48
		3 -- 50
		3 -- 53
		3 -- 54
		3 -- 56
		3 -- 58
		3 -- 59
		3 -- 62
		3 -- 63
		3 -- 65
		3 -- 67
		3 -- 69
		3 -- 70
		3 -- 71
		3 -- 73
		3 -- 74
		3 -- 76
		3 -- 79
		3 -- 85
		3 -- 87
		3 -- 88
		3 -- 91
		3 -- 93
		3 -- 94
		3 -- 95
		3 -- 96
		3 -- 98
		4 -- 5
		4 -- 6
		4 -- 7
		4 -- 8
		4 -- 10
		4 -- 12
		4 -- 13
		4 -- 17
		4 -- 20
		4 -- 21
		4 -- 22
		4 -- 23
		4 -- 26
		4 -- 27
		4 -- 29
		4 -- 32
		4 -- 34
		4 -- 35
		4 -- 36
		4 -- 42
		4 -- 43
		4 -- 44
		4 -- 46
		4 -- 47
		4 -- 49
		4 -- 51
		4 -- 52
		4 -- 54
		4 -- 55
		4 -- 56
		4 -- 57
		4 -- 60
		4 -- 62
		4 -- 63
		4 -- 65
		4 -- 66
		4 -- 67
		4 -- 70
		4 -- 71
		4 -- 72
		4 -- 74
		4 -- 75
		4 -- 77
		4 -- 78
		4 -- 79
		4 -- 81
		4 -- 84
		4 -- 85
		4 -- 87
		4 -- 88
		4 -- 91
		4 -- 92
		4 -- 93
		4 -- 94
		4 -- 96
		4 -- 97
		5 -- 6
		5 -- 9
		5 -- 12
		5 -- 13
		5 -- 16
		5 -- 19
		5 -- 23
		5 -- 27
		5 -- 30
		5 -- 33
		5 -- 34
		5 -- 41
		5 -- 43
		5 -- 46
		5 -- 47
		5 -- 50
		5 -- 51
		5 -- 52
		5 -- 53
		5 -- 54
		5 -- 55
		5 -- 56
		5 -- 58
		5 -- 59
		5 -- 60
		5 -- 61
		5 -- 62
		5 -- 64
		5 -- 67
		5 -- 69
		5 -- 70
		5 -- 72
		5 -- 76
		5 -- 77
		5 -- 78
		5 -- 79
		5 -- 82
		5 -- 84
		5 -- 85
		5 -- 87
		5 -- 88
		5 -- 91
		5 -- 92
		5 -- 93
		5 -- 95
		5 -- 97
		5 -- 99
		6 -- 7
		6 -- 10
		6 -- 16
		6 -- 17
		6 -- 18
		6 -- 19
		6 -- 22
		6 -- 23
		6 -- 25
		6 -- 28
		6 -- 30
		6 -- 31
		6 -- 32
		6 -- 34
		6 -- 35
		6 -- 37
		6 -- 38
		6 -- 39
		6 -- 44
		6 -- 46
		6 -- 50
		6 -- 51
		6 -- 52
		6 -- 55
		6 -- 56
		6 -- 57
		6 -- 58
		6 -- 59
		6 -- 61
		6 -- 62
		6 -- 63
		6 -- 67
		6 -- 73
		6 -- 74
		6 -- 76
		6 -- 78
		6 -- 79
		6 -- 80
		6 -- 82
		6 -- 85
		6 -- 86
		6 -- 87
		6 -- 90
		6 -- 93
		6 -- 95
		6 -- 96
		6 -- 98
		6 -- 99
		7 -- 16
		7 -- 18
		7 -- 20
		7 -- 21
		7 -- 22
		7 -- 24
		7 -- 25
		7 -- 27
		7 -- 28
		7 -- 30
		7 -- 32
		7 -- 33
		7 -- 34
		7 -- 36
		7 -- 39
		7 -- 44
		7 -- 45
		7 -- 46
		7 -- 48
		7 -- 49
		7 -- 52
		7 -- 53
		7 -- 54
		7 -- 58
		7 -- 59
		7 -- 60
		7 -- 62
		7 -- 63
		7 -- 64
		7 -- 68
		7 -- 69
		7 -- 70
		7 -- 73
		7 -- 74
		7 -- 75
		7 -- 76
		7 -- 78
		7 -- 81
		7 -- 82
		7 -- 86
		7 -- 87
		7 -- 90
		7 -- 92
		7 -- 93
		7 -- 96
		7 -- 97
		7 -- 99
		8 -- 66
		8 -- 86
		8 -- 71
		8 -- 72
		8 -- 73
		8 -- 11
		8 -- 78
		8 -- 15
		8 -- 81
		8 -- 82
		8 -- 67
		8 -- 20
		8 -- 22
		8 -- 23
		8 -- 24
		8 -- 25
		8 -- 26
		8 -- 92
		8 -- 90
		8 -- 94
		8 -- 31
		8 -- 32
		8 -- 34
		8 -- 35
		8 -- 36
		8 -- 38
		8 -- 39
		8 -- 96
		8 -- 47
		8 -- 48
		8 -- 49
		8 -- 50
		8 -- 83
		8 -- 53
		8 -- 54
		8 -- 84
		9 -- 10
		9 -- 12
		9 -- 13
		9 -- 14
		9 -- 20
		9 -- 21
		9 -- 22
		9 -- 23
		9 -- 24
		9 -- 25
		9 -- 26
		9 -- 27
		9 -- 28
		9 -- 30
		9 -- 31
		9 -- 32
		9 -- 39
		9 -- 40
		9 -- 42
		9 -- 45
		9 -- 47
		9 -- 48
		9 -- 49
		9 -- 50
		9 -- 51
		9 -- 53
		9 -- 61
		9 -- 62
		9 -- 64
		9 -- 65
		9 -- 69
		9 -- 76
		9 -- 77
		9 -- 79
		9 -- 80
		9 -- 84
		9 -- 86
		9 -- 89
		9 -- 91
		9 -- 94
		9 -- 96
		9 -- 97
		9 -- 98
		10 -- 11
		10 -- 15
		10 -- 17
		10 -- 19
		10 -- 20
		10 -- 21
		10 -- 23
		10 -- 26
		10 -- 28
		10 -- 34
		10 -- 48
		10 -- 50
		10 -- 52
		10 -- 53
		10 -- 56
		10 -- 58
		10 -- 63
		10 -- 64
		10 -- 66
		10 -- 69
		10 -- 71
		10 -- 73
		10 -- 77
		10 -- 78
		10 -- 79
		10 -- 80
		10 -- 81
		10 -- 82
		10 -- 83
		10 -- 84
		10 -- 86
		10 -- 87
		10 -- 90
		10 -- 94
		10 -- 95
		10 -- 96
		10 -- 97
		10 -- 98
		10 -- 99
		11 -- 15
		11 -- 18
		11 -- 20
		11 -- 21
		11 -- 22
		11 -- 23
		11 -- 24
		11 -- 28
		11 -- 29
		11 -- 31
		11 -- 34
		11 -- 35
		11 -- 36
		11 -- 38
		11 -- 40
		11 -- 45
		11 -- 51
		11 -- 52
		11 -- 56
		11 -- 59
		11 -- 60
		11 -- 65
		11 -- 66
		11 -- 67
		11 -- 69
		11 -- 70
		11 -- 71
		11 -- 75
		11 -- 77
		11 -- 79
		11 -- 81
		11 -- 82
		11 -- 83
		11 -- 84
		11 -- 85
		11 -- 86
		11 -- 87
		11 -- 88
		11 -- 89
		11 -- 92
		11 -- 96
		11 -- 99
		12 -- 13
		12 -- 15
		12 -- 16
		12 -- 17
		12 -- 18
		12 -- 21
		12 -- 24
		12 -- 25
		12 -- 27
		12 -- 28
		12 -- 31
		12 -- 35
		12 -- 36
		12 -- 37
		12 -- 38
		12 -- 41
		12 -- 42
		12 -- 44
		12 -- 45
		12 -- 52
		12 -- 54
		12 -- 55
		12 -- 57
		12 -- 59
		12 -- 61
		12 -- 62
		12 -- 64
		12 -- 65
		12 -- 66
		12 -- 70
		12 -- 73
		12 -- 75
		12 -- 78
		12 -- 79
		12 -- 83
		12 -- 84
		12 -- 86
		12 -- 88
		12 -- 91
		12 -- 92
		12 -- 94
		12 -- 97
		12 -- 98
		12 -- 99
		13 -- 16
		13 -- 19
		13 -- 22
		13 -- 24
		13 -- 26
		13 -- 28
		13 -- 33
		13 -- 35
		13 -- 36
		13 -- 40
		13 -- 42
		13 -- 43
		13 -- 44
		13 -- 47
		13 -- 50
		13 -- 51
		13 -- 52
		13 -- 54
		13 -- 55
		13 -- 56
		13 -- 57
		13 -- 59
		13 -- 61
		13 -- 62
		13 -- 63
		13 -- 64
		13 -- 67
		13 -- 68
		13 -- 70
		13 -- 72
		13 -- 73
		13 -- 74
		13 -- 75
		13 -- 77
		13 -- 78
		13 -- 79
		13 -- 81
		13 -- 85
		13 -- 86
		13 -- 87
		13 -- 88
		13 -- 91
		13 -- 92
		13 -- 93
		13 -- 96
		13 -- 97
		14 -- 68
		14 -- 86
		14 -- 70
		14 -- 64
		14 -- 74
		14 -- 75
		14 -- 15
		14 -- 92
		14 -- 17
		14 -- 82
		14 -- 83
		14 -- 20
		14 -- 85
		14 -- 22
		14 -- 87
		14 -- 24
		14 -- 25
		14 -- 90
		14 -- 27
		14 -- 28
		14 -- 93
		14 -- 94
		14 -- 95
		14 -- 96
		14 -- 97
		14 -- 34
		14 -- 35
		14 -- 37
		14 -- 41
		14 -- 43
		14 -- 48
		14 -- 50
		14 -- 51
		14 -- 89
		14 -- 88
		14 -- 91
		14 -- 60
		14 -- 62
		15 -- 16
		15 -- 18
		15 -- 19
		15 -- 24
		15 -- 25
		15 -- 28
		15 -- 29
		15 -- 34
		15 -- 37
		15 -- 39
		15 -- 41
		15 -- 42
		15 -- 44
		15 -- 45
		15 -- 46
		15 -- 48
		15 -- 49
		15 -- 50
		15 -- 53
		15 -- 56
		15 -- 59
		15 -- 60
		15 -- 65
		15 -- 66
		15 -- 67
		15 -- 68
		15 -- 70
		15 -- 72
		15 -- 74
		15 -- 80
		15 -- 82
		15 -- 84
		15 -- 85
		15 -- 87
		15 -- 89
		15 -- 92
		15 -- 93
		15 -- 94
		15 -- 95
		15 -- 97
		15 -- 98
		15 -- 99
		16 -- 81
		16 -- 72
		16 -- 73
		16 -- 74
		16 -- 87
		16 -- 98
		16 -- 17
		16 -- 82
		16 -- 67
		16 -- 84
		16 -- 21
		16 -- 86
		16 -- 23
		16 -- 24
		16 -- 25
		16 -- 26
		16 -- 28
		16 -- 29
		16 -- 69
		16 -- 31
		16 -- 32
		16 -- 34
		16 -- 35
		16 -- 39
		16 -- 44
		16 -- 46
		16 -- 47
		16 -- 76
		16 -- 49
		16 -- 51
		16 -- 52
		16 -- 53
		16 -- 56
		16 -- 62
		17 -- 19
		17 -- 22
		17 -- 25
		17 -- 26
		17 -- 32
		17 -- 34
		17 -- 37
		17 -- 39
		17 -- 41
		17 -- 42
		17 -- 46
		17 -- 47
		17 -- 48
		17 -- 51
		17 -- 53
		17 -- 54
		17 -- 57
		17 -- 58
		17 -- 60
		17 -- 63
		17 -- 66
		17 -- 67
		17 -- 68
		17 -- 71
		17 -- 72
		17 -- 73
		17 -- 76
		17 -- 77
		17 -- 79
		17 -- 81
		17 -- 84
		17 -- 85
		17 -- 86
		17 -- 87
		17 -- 89
		17 -- 93
		17 -- 95
		17 -- 97
		17 -- 98
		17 -- 99
		18 -- 20
		18 -- 22
		18 -- 25
		18 -- 26
		18 -- 29
		18 -- 32
		18 -- 33
		18 -- 35
		18 -- 36
		18 -- 37
		18 -- 40
		18 -- 42
		18 -- 43
		18 -- 49
		18 -- 52
		18 -- 53
		18 -- 57
		18 -- 58
		18 -- 59
		18 -- 61
		18 -- 64
		18 -- 65
		18 -- 66
		18 -- 67
		18 -- 68
		18 -- 73
		18 -- 76
		18 -- 77
		18 -- 79
		18 -- 81
		18 -- 84
		18 -- 85
		18 -- 87
		18 -- 90
		18 -- 91
		18 -- 92
		18 -- 93
		18 -- 94
		18 -- 95
		18 -- 96
		18 -- 97
		18 -- 98
		19 -- 20
		19 -- 22
		19 -- 26
		19 -- 28
		19 -- 29
		19 -- 31
		19 -- 32
		19 -- 33
		19 -- 36
		19 -- 44
		19 -- 47
		19 -- 51
		19 -- 52
		19 -- 55
		19 -- 56
		19 -- 60
		19 -- 61
		19 -- 63
		19 -- 64
		19 -- 66
		19 -- 69
		19 -- 70
		19 -- 72
		19 -- 73
		19 -- 74
		19 -- 77
		19 -- 78
		19 -- 80
		19 -- 81
		19 -- 83
		19 -- 84
		19 -- 85
		19 -- 86
		19 -- 88
		19 -- 89
		19 -- 90
		19 -- 91
		19 -- 92
		19 -- 94
		19 -- 95
		19 -- 96
		19 -- 98
		19 -- 99
		20 -- 22
		20 -- 24
		20 -- 26
		20 -- 27
		20 -- 28
		20 -- 30
		20 -- 31
		20 -- 32
		20 -- 34
		20 -- 38
		20 -- 41
		20 -- 46
		20 -- 47
		20 -- 50
		20 -- 51
		20 -- 52
		20 -- 54
		20 -- 55
		20 -- 57
		20 -- 58
		20 -- 59
		20 -- 61
		20 -- 62
		20 -- 63
		20 -- 64
		20 -- 65
		20 -- 66
		20 -- 71
		20 -- 72
		20 -- 73
		20 -- 75
		20 -- 77
		20 -- 80
		20 -- 82
		20 -- 83
		20 -- 87
		20 -- 88
		20 -- 90
		20 -- 92
		20 -- 94
		20 -- 97
		20 -- 98
		20 -- 99
		21 -- 25
		21 -- 28
		21 -- 29
		21 -- 30
		21 -- 33
		21 -- 35
		21 -- 38
		21 -- 39
		21 -- 43
		21 -- 44
		21 -- 49
		21 -- 50
		21 -- 55
		21 -- 56
		21 -- 57
		21 -- 62
		21 -- 64
		21 -- 66
		21 -- 67
		21 -- 70
		21 -- 71
		21 -- 73
		21 -- 75
		21 -- 77
		21 -- 78
		21 -- 80
		21 -- 82
		21 -- 84
		21 -- 85
		21 -- 86
		21 -- 88
		21 -- 89
		21 -- 90
		21 -- 95
		21 -- 98
		22 -- 25
		22 -- 30
		22 -- 31
		22 -- 32
		22 -- 33
		22 -- 37
		22 -- 43
		22 -- 46
		22 -- 47
		22 -- 48
		22 -- 49
		22 -- 50
		22 -- 51
		22 -- 55
		22 -- 56
		22 -- 57
		22 -- 58
		22 -- 60
		22 -- 62
		22 -- 63
		22 -- 64
		22 -- 65
		22 -- 67
		22 -- 68
		22 -- 69
		22 -- 71
		22 -- 72
		22 -- 73
		22 -- 74
		22 -- 76
		22 -- 77
		22 -- 79
		22 -- 81
		22 -- 82
		22 -- 83
		22 -- 88
		22 -- 89
		22 -- 93
		22 -- 97
		23 -- 24
		23 -- 29
		23 -- 30
		23 -- 31
		23 -- 34
		23 -- 37
		23 -- 39
		23 -- 40
		23 -- 42
		23 -- 43
		23 -- 44
		23 -- 50
		23 -- 51
		23 -- 53
		23 -- 54
		23 -- 55
		23 -- 59
		23 -- 62
		23 -- 63
		23 -- 66
		23 -- 70
		23 -- 71
		23 -- 74
		23 -- 76
		23 -- 78
		23 -- 81
		23 -- 82
		23 -- 83
		23 -- 87
		23 -- 89
		23 -- 92
		23 -- 94
		23 -- 97
		23 -- 98
		23 -- 99
		24 -- 29
		24 -- 35
		24 -- 36
		24 -- 37
		24 -- 39
		24 -- 42
		24 -- 43
		24 -- 48
		24 -- 49
		24 -- 50
		24 -- 51
		24 -- 52
		24 -- 53
		24 -- 54
		24 -- 56
		24 -- 59
		24 -- 60
		24 -- 61
		24 -- 65
		24 -- 67
		24 -- 68
		24 -- 71
		24 -- 72
		24 -- 74
		24 -- 77
		24 -- 78
		24 -- 79
		24 -- 80
		24 -- 82
		24 -- 83
		24 -- 84
		24 -- 85
		24 -- 86
		24 -- 88
		24 -- 89
		24 -- 91
		24 -- 92
		24 -- 95
		24 -- 97
		24 -- 98
		25 -- 26
		25 -- 31
		25 -- 32
		25 -- 34
		25 -- 35
		25 -- 38
		25 -- 39
		25 -- 41
		25 -- 42
		25 -- 43
		25 -- 44
		25 -- 46
		25 -- 49
		25 -- 50
		25 -- 52
		25 -- 54
		25 -- 55
		25 -- 56
		25 -- 58
		25 -- 60
		25 -- 62
		25 -- 64
		25 -- 65
		25 -- 67
		25 -- 68
		25 -- 69
		25 -- 72
		25 -- 74
		25 -- 76
		25 -- 77
		25 -- 80
		25 -- 81
		25 -- 86
		25 -- 87
		25 -- 88
		25 -- 90
		25 -- 91
		25 -- 92
		25 -- 94
		26 -- 27
		26 -- 30
		26 -- 32
		26 -- 34
		26 -- 36
		26 -- 37
		26 -- 38
		26 -- 40
		26 -- 41
		26 -- 42
		26 -- 43
		26 -- 44
		26 -- 45
		26 -- 46
		26 -- 47
		26 -- 50
		26 -- 54
		26 -- 57
		26 -- 59
		26 -- 60
		26 -- 61
		26 -- 63
		26 -- 65
		26 -- 67
		26 -- 72
		26 -- 77
		26 -- 78
		26 -- 79
		26 -- 81
		26 -- 82
		26 -- 83
		26 -- 86
		26 -- 87
		26 -- 94
		26 -- 96
		26 -- 97
		27 -- 64
		27 -- 66
		27 -- 79
		27 -- 80
		27 -- 67
		27 -- 86
		27 -- 87
		27 -- 89
		27 -- 92
		27 -- 93
		27 -- 30
		27 -- 31
		27 -- 98
		27 -- 41
		27 -- 43
		27 -- 44
		27 -- 45
		27 -- 48
		27 -- 76
		27 -- 94
		27 -- 53
		27 -- 54
		27 -- 55
		27 -- 56
		27 -- 84
		27 -- 58
		27 -- 61
		27 -- 63
		28 -- 33
		28 -- 34
		28 -- 36
		28 -- 37
		28 -- 38
		28 -- 39
		28 -- 42
		28 -- 43
		28 -- 44
		28 -- 45
		28 -- 47
		28 -- 48
		28 -- 49
		28 -- 51
		28 -- 55
		28 -- 56
		28 -- 58
		28 -- 62
		28 -- 68
		28 -- 71
		28 -- 73
		28 -- 74
		28 -- 76
		28 -- 79
		28 -- 81
		28 -- 82
		28 -- 83
		28 -- 85
		28 -- 86
		28 -- 87
		28 -- 92
		28 -- 93
		28 -- 95
		28 -- 96
		28 -- 99
		29 -- 31
		29 -- 37
		29 -- 38
		29 -- 39
		29 -- 44
		29 -- 46
		29 -- 48
		29 -- 49
		29 -- 52
		29 -- 54
		29 -- 55
		29 -- 58
		29 -- 60
		29 -- 61
		29 -- 63
		29 -- 64
		29 -- 65
		29 -- 66
		29 -- 67
		29 -- 68
		29 -- 70
		29 -- 72
		29 -- 74
		29 -- 75
		29 -- 78
		29 -- 81
		29 -- 82
		29 -- 83
		29 -- 85
		29 -- 87
		29 -- 88
		29 -- 92
		29 -- 93
		29 -- 96
		29 -- 99
		30 -- 72
		30 -- 75
		30 -- 76
		30 -- 66
		30 -- 81
		30 -- 67
		30 -- 89
		30 -- 90
		30 -- 94
		30 -- 95
		30 -- 32
		30 -- 91
		30 -- 36
		30 -- 38
		30 -- 39
		30 -- 40
		30 -- 43
		30 -- 93
		30 -- 47
		30 -- 51
		30 -- 54
		30 -- 73
		30 -- 84
		30 -- 58
		30 -- 60
		31 -- 32
		31 -- 33
		31 -- 34
		31 -- 37
		31 -- 38
		31 -- 46
		31 -- 47
		31 -- 48
		31 -- 52
		31 -- 55
		31 -- 59
		31 -- 62
		31 -- 63
		31 -- 66
		31 -- 67
		31 -- 72
		31 -- 78
		31 -- 80
		31 -- 81
		31 -- 83
		31 -- 86
		31 -- 87
		31 -- 89
		31 -- 92
		31 -- 93
		31 -- 94
		31 -- 95
		31 -- 97
		31 -- 99
		32 -- 33
		32 -- 34
		32 -- 37
		32 -- 40
		32 -- 42
		32 -- 43
		32 -- 45
		32 -- 48
		32 -- 50
		32 -- 53
		32 -- 54
		32 -- 56
		32 -- 57
		32 -- 58
		32 -- 59
		32 -- 62
		32 -- 63
		32 -- 64
		32 -- 65
		32 -- 67
		32 -- 68
		32 -- 69
		32 -- 70
		32 -- 72
		32 -- 73
		32 -- 74
		32 -- 77
		32 -- 79
		32 -- 80
		32 -- 81
		32 -- 83
		32 -- 86
		32 -- 87
		32 -- 88
		32 -- 89
		32 -- 90
		32 -- 91
		32 -- 92
		32 -- 95
		32 -- 96
		32 -- 97
		32 -- 99
		33 -- 35
		33 -- 37
		33 -- 41
		33 -- 42
		33 -- 45
		33 -- 49
		33 -- 50
		33 -- 51
		33 -- 55
		33 -- 56
		33 -- 57
		33 -- 58
		33 -- 63
		33 -- 64
		33 -- 66
		33 -- 67
		33 -- 69
		33 -- 71
		33 -- 74
		33 -- 76
		33 -- 81
		33 -- 82
		33 -- 84
		33 -- 86
		33 -- 87
		33 -- 89
		33 -- 90
		33 -- 91
		33 -- 92
		33 -- 93
		33 -- 94
		33 -- 96
		34 -- 36
		34 -- 38
		34 -- 39
		34 -- 40
		34 -- 44
		34 -- 45
		34 -- 47
		34 -- 48
		34 -- 50
		34 -- 51
		34 -- 54
		34 -- 56
		34 -- 62
		34 -- 65
		34 -- 67
		34 -- 69
		34 -- 75
		34 -- 77
		34 -- 79
		34 -- 82
		34 -- 85
		34 -- 86
		34 -- 88
		34 -- 90
		34 -- 95
		34 -- 98
		35 -- 64
		35 -- 66
		35 -- 69
		35 -- 71
		35 -- 79
		35 -- 81
		35 -- 83
		35 -- 90
		35 -- 75
		35 -- 78
		35 -- 96
		35 -- 91
		35 -- 36
		35 -- 37
		35 -- 38
		35 -- 97
		35 -- 40
		35 -- 41
		35 -- 43
		35 -- 44
		35 -- 70
		35 -- 53
		35 -- 56
		35 -- 58
		35 -- 59
		35 -- 60
		35 -- 62
		35 -- 63
		36 -- 38
		36 -- 39
		36 -- 40
		36 -- 41
		36 -- 43
		36 -- 45
		36 -- 46
		36 -- 48
		36 -- 49
		36 -- 52
		36 -- 53
		36 -- 54
		36 -- 55
		36 -- 58
		36 -- 61
		36 -- 63
		36 -- 64
		36 -- 65
		36 -- 67
		36 -- 68
		36 -- 69
		36 -- 77
		36 -- 78
		36 -- 80
		36 -- 82
		36 -- 83
		36 -- 84
		36 -- 87
		36 -- 90
		36 -- 93
		36 -- 96
		36 -- 97
		37 -- 38
		37 -- 39
		37 -- 40
		37 -- 41
		37 -- 42
		37 -- 44
		37 -- 45
		37 -- 50
		37 -- 51
		37 -- 53
		37 -- 54
		37 -- 58
		37 -- 59
		37 -- 61
		37 -- 63
		37 -- 65
		37 -- 66
		37 -- 71
		37 -- 74
		37 -- 76
		37 -- 77
		37 -- 81
		37 -- 82
		37 -- 85
		37 -- 86
		37 -- 87
		37 -- 88
		37 -- 90
		37 -- 95
		37 -- 97
		38 -- 40
		38 -- 42
		38 -- 46
		38 -- 47
		38 -- 50
		38 -- 51
		38 -- 52
		38 -- 55
		38 -- 56
		38 -- 57
		38 -- 58
		38 -- 61
		38 -- 62
		38 -- 63
		38 -- 64
		38 -- 65
		38 -- 68
		38 -- 72
		38 -- 75
		38 -- 76
		38 -- 79
		38 -- 80
		38 -- 81
		38 -- 84
		38 -- 85
		38 -- 86
		38 -- 89
		38 -- 93
		38 -- 96
		39 -- 40
		39 -- 41
		39 -- 42
		39 -- 43
		39 -- 44
		39 -- 46
		39 -- 48
		39 -- 49
		39 -- 50
		39 -- 52
		39 -- 54
		39 -- 56
		39 -- 58
		39 -- 60
		39 -- 61
		39 -- 62
		39 -- 63
		39 -- 64
		39 -- 66
		39 -- 68
		39 -- 69
		39 -- 71
		39 -- 72
		39 -- 74
		39 -- 76
		39 -- 78
		39 -- 81
		39 -- 82
		39 -- 84
		39 -- 86
		39 -- 88
		39 -- 92
		39 -- 94
		39 -- 95
		39 -- 96
		40 -- 42
		40 -- 45
		40 -- 46
		40 -- 48
		40 -- 51
		40 -- 52
		40 -- 54
		40 -- 55
		40 -- 58
		40 -- 59
		40 -- 60
		40 -- 65
		40 -- 66
		40 -- 67
		40 -- 68
		40 -- 69
		40 -- 70
		40 -- 74
		40 -- 78
		40 -- 79
		40 -- 81
		40 -- 82
		40 -- 83
		40 -- 85
		40 -- 87
		40 -- 90
		40 -- 91
		40 -- 93
		40 -- 94
		40 -- 96
		41 -- 64
		41 -- 70
		41 -- 76
		41 -- 79
		41 -- 82
		41 -- 83
		41 -- 85
		41 -- 87
		41 -- 88
		41 -- 93
		41 -- 69
		41 -- 96
		41 -- 98
		41 -- 44
		41 -- 46
		41 -- 99
		41 -- 50
		41 -- 51
		41 -- 53
		41 -- 56
		41 -- 57
		41 -- 58
		41 -- 91
		41 -- 62
		41 -- 63
		42 -- 43
		42 -- 45
		42 -- 47
		42 -- 48
		42 -- 52
		42 -- 53
		42 -- 60
		42 -- 62
		42 -- 64
		42 -- 65
		42 -- 68
		42 -- 74
		42 -- 75
		42 -- 77
		42 -- 78
		42 -- 79
		42 -- 81
		42 -- 83
		42 -- 84
		42 -- 86
		42 -- 88
		42 -- 89
		42 -- 91
		42 -- 92
		42 -- 93
		42 -- 95
		42 -- 97
		42 -- 98
		43 -- 46
		43 -- 47
		43 -- 48
		43 -- 49
		43 -- 50
		43 -- 52
		43 -- 53
		43 -- 55
		43 -- 57
		43 -- 58
		43 -- 60
		43 -- 62
		43 -- 64
		43 -- 65
		43 -- 66
		43 -- 68
		43 -- 69
		43 -- 70
		43 -- 71
		43 -- 75
		43 -- 80
		43 -- 82
		43 -- 88
		43 -- 89
		43 -- 91
		43 -- 94
		43 -- 96
		43 -- 99
		44 -- 47
		44 -- 48
		44 -- 49
		44 -- 50
		44 -- 53
		44 -- 55
		44 -- 57
		44 -- 59
		44 -- 60
		44 -- 61
		44 -- 62
		44 -- 66
		44 -- 67
		44 -- 68
		44 -- 69
		44 -- 70
		44 -- 71
		44 -- 77
		44 -- 78
		44 -- 79
		44 -- 80
		44 -- 81
		44 -- 82
		44 -- 84
		44 -- 86
		44 -- 89
		44 -- 90
		44 -- 91
		44 -- 95
		44 -- 96
		44 -- 98
		44 -- 99
		45 -- 48
		45 -- 49
		45 -- 50
		45 -- 51
		45 -- 57
		45 -- 59
		45 -- 60
		45 -- 61
		45 -- 63
		45 -- 64
		45 -- 69
		45 -- 70
		45 -- 71
		45 -- 75
		45 -- 76
		45 -- 78
		45 -- 79
		45 -- 80
		45 -- 87
		45 -- 88
		45 -- 90
		45 -- 91
		45 -- 92
		45 -- 93
		45 -- 94
		45 -- 95
		45 -- 96
		45 -- 98
		46 -- 48
		46 -- 51
		46 -- 53
		46 -- 55
		46 -- 56
		46 -- 57
		46 -- 60
		46 -- 61
		46 -- 64
		46 -- 67
		46 -- 69
		46 -- 71
		46 -- 73
		46 -- 76
		46 -- 80
		46 -- 82
		46 -- 83
		46 -- 86
		46 -- 87
		46 -- 88
		46 -- 89
		46 -- 91
		46 -- 93
		46 -- 96
		46 -- 97
		47 -- 71
		47 -- 75
		47 -- 85
		47 -- 69
		47 -- 68
		47 -- 91
		47 -- 90
		47 -- 95
		47 -- 80
		47 -- 81
		47 -- 96
		47 -- 98
		47 -- 49
		47 -- 83
		47 -- 55
		47 -- 56
		47 -- 59
		47 -- 61
		47 -- 62
		48 -- 49
		48 -- 50
		48 -- 52
		48 -- 55
		48 -- 60
		48 -- 62
		48 -- 63
		48 -- 64
		48 -- 66
		48 -- 68
		48 -- 71
		48 -- 74
		48 -- 75
		48 -- 77
		48 -- 78
		48 -- 79
		48 -- 81
		48 -- 82
		48 -- 83
		48 -- 84
		48 -- 85
		48 -- 86
		48 -- 87
		48 -- 89
		48 -- 91
		48 -- 92
		48 -- 96
		48 -- 97
		49 -- 50
		49 -- 51
		49 -- 53
		49 -- 54
		49 -- 55
		49 -- 63
		49 -- 64
		49 -- 65
		49 -- 67
		49 -- 68
		49 -- 69
		49 -- 70
		49 -- 71
		49 -- 73
		49 -- 74
		49 -- 75
		49 -- 76
		49 -- 77
		49 -- 78
		49 -- 80
		49 -- 81
		49 -- 84
		49 -- 85
		49 -- 86
		49 -- 88
		49 -- 90
		49 -- 93
		49 -- 95
		49 -- 96
		49 -- 98
		50 -- 51
		50 -- 52
		50 -- 55
		50 -- 57
		50 -- 58
		50 -- 59
		50 -- 62
		50 -- 63
		50 -- 65
		50 -- 66
		50 -- 67
		50 -- 70
		50 -- 72
		50 -- 73
		50 -- 74
		50 -- 75
		50 -- 76
		50 -- 77
		50 -- 78
		50 -- 83
		50 -- 85
		50 -- 90
		50 -- 91
		50 -- 92
		50 -- 93
		50 -- 98
		50 -- 99
		51 -- 53
		51 -- 54
		51 -- 57
		51 -- 58
		51 -- 60
		51 -- 62
		51 -- 63
		51 -- 65
		51 -- 68
		51 -- 70
		51 -- 71
		51 -- 73
		51 -- 74
		51 -- 75
		51 -- 77
		51 -- 78
		51 -- 80
		51 -- 82
		51 -- 83
		51 -- 89
		51 -- 91
		51 -- 94
		51 -- 96
		52 -- 53
		52 -- 55
		52 -- 59
		52 -- 62
		52 -- 64
		52 -- 65
		52 -- 66
		52 -- 67
		52 -- 69
		52 -- 71
		52 -- 72
		52 -- 74
		52 -- 75
		52 -- 76
		52 -- 78
		52 -- 81
		52 -- 85
		52 -- 87
		52 -- 89
		52 -- 91
		52 -- 92
		52 -- 93
		52 -- 94
		52 -- 98
		52 -- 99
		53 -- 54
		53 -- 56
		53 -- 63
		53 -- 65
		53 -- 66
		53 -- 70
		53 -- 71
		53 -- 72
		53 -- 73
		53 -- 77
		53 -- 79
		53 -- 80
		53 -- 81
		53 -- 85
		53 -- 88
		53 -- 90
		53 -- 93
		53 -- 95
		53 -- 96
		53 -- 99
		54 -- 55
		54 -- 56
		54 -- 57
		54 -- 60
		54 -- 61
		54 -- 65
		54 -- 66
		54 -- 69
		54 -- 71
		54 -- 72
		54 -- 73
		54 -- 74
		54 -- 76
		54 -- 77
		54 -- 78
		54 -- 79
		54 -- 80
		54 -- 83
		54 -- 84
		54 -- 86
		54 -- 87
		54 -- 89
		54 -- 90
		54 -- 91
		54 -- 96
		55 -- 57
		55 -- 59
		55 -- 63
		55 -- 64
		55 -- 69
		55 -- 70
		55 -- 71
		55 -- 72
		55 -- 75
		55 -- 76
		55 -- 77
		55 -- 79
		55 -- 81
		55 -- 84
		55 -- 86
		55 -- 87
		55 -- 88
		55 -- 89
		55 -- 91
		55 -- 94
		55 -- 95
		55 -- 97
		56 -- 57
		56 -- 58
		56 -- 59
		56 -- 60
		56 -- 62
		56 -- 63
		56 -- 64
		56 -- 67
		56 -- 68
		56 -- 72
		56 -- 73
		56 -- 76
		56 -- 78
		56 -- 79
		56 -- 80
		56 -- 82
		56 -- 83
		56 -- 88
		56 -- 90
		56 -- 93
		56 -- 94
		56 -- 96
		56 -- 98
		56 -- 99
		57 -- 64
		57 -- 67
		57 -- 69
		57 -- 71
		57 -- 73
		57 -- 77
		57 -- 83
		57 -- 68
		57 -- 91
		57 -- 86
		57 -- 93
		57 -- 95
		57 -- 99
		57 -- 82
		57 -- 81
		57 -- 97
		57 -- 85
		58 -- 59
		58 -- 61
		58 -- 64
		58 -- 65
		58 -- 66
		58 -- 68
		58 -- 69
		58 -- 70
		58 -- 74
		58 -- 76
		58 -- 78
		58 -- 80
		58 -- 81
		58 -- 82
		58 -- 83
		58 -- 85
		58 -- 88
		58 -- 89
		58 -- 90
		58 -- 91
		58 -- 95
		58 -- 96
		58 -- 97
		59 -- 61
		59 -- 64
		59 -- 69
		59 -- 72
		59 -- 74
		59 -- 75
		59 -- 76
		59 -- 77
		59 -- 81
		59 -- 84
		59 -- 85
		59 -- 86
		59 -- 90
		59 -- 91
		59 -- 93
		59 -- 94
		59 -- 98
		59 -- 99
		60 -- 61
		60 -- 62
		60 -- 65
		60 -- 73
		60 -- 75
		60 -- 76
		60 -- 78
		60 -- 79
		60 -- 80
		60 -- 81
		60 -- 83
		60 -- 84
		60 -- 85
		60 -- 87
		60 -- 88
		60 -- 89
		60 -- 90
		60 -- 92
		60 -- 95
		60 -- 97
		60 -- 99
		61 -- 65
		61 -- 66
		61 -- 67
		61 -- 69
		61 -- 72
		61 -- 76
		61 -- 77
		61 -- 78
		61 -- 80
		61 -- 82
		61 -- 83
		61 -- 84
		61 -- 87
		61 -- 88
		61 -- 90
		61 -- 91
		61 -- 92
		61 -- 93
		61 -- 97
		61 -- 99
		62 -- 64
		62 -- 66
		62 -- 67
		62 -- 68
		62 -- 72
		62 -- 74
		62 -- 76
		62 -- 77
		62 -- 78
		62 -- 79
		62 -- 81
		62 -- 83
		62 -- 86
		62 -- 87
		62 -- 89
		62 -- 92
		62 -- 95
		62 -- 96
		62 -- 97
		62 -- 99
		63 -- 64
		63 -- 65
		63 -- 66
		63 -- 67
		63 -- 68
		63 -- 72
		63 -- 74
		63 -- 75
		63 -- 77
		63 -- 80
		63 -- 84
		63 -- 85
		63 -- 86
		63 -- 87
		63 -- 89
		63 -- 94
		63 -- 95
		63 -- 96
		63 -- 97
		64 -- 65
		64 -- 68
		64 -- 71
		64 -- 73
		64 -- 74
		64 -- 75
		64 -- 77
		64 -- 79
		64 -- 81
		64 -- 82
		64 -- 85
		64 -- 86
		64 -- 87
		64 -- 88
		64 -- 95
		64 -- 96
		64 -- 97
		65 -- 68
		65 -- 71
		65 -- 74
		65 -- 75
		65 -- 81
		65 -- 83
		65 -- 84
		65 -- 90
		65 -- 91
		65 -- 92
		65 -- 93
		65 -- 95
		65 -- 96
		66 -- 67
		66 -- 68
		66 -- 69
		66 -- 73
		66 -- 74
		66 -- 76
		66 -- 77
		66 -- 79
		66 -- 83
		66 -- 85
		66 -- 87
		66 -- 88
		66 -- 89
		66 -- 96
		66 -- 97
		67 -- 68
		67 -- 69
		67 -- 74
		67 -- 75
		67 -- 78
		67 -- 79
		67 -- 80
		67 -- 82
		67 -- 83
		67 -- 84
		67 -- 87
		67 -- 89
		67 -- 90
		67 -- 92
		67 -- 95
		67 -- 96
		67 -- 98
		68 -- 69
		68 -- 71
		68 -- 73
		68 -- 75
		68 -- 77
		68 -- 80
		68 -- 83
		68 -- 84
		68 -- 85
		68 -- 90
		68 -- 91
		68 -- 93
		68 -- 94
		68 -- 95
		68 -- 96
		68 -- 98
		68 -- 99
		69 -- 74
		69 -- 76
		69 -- 77
		69 -- 79
		69 -- 80
		69 -- 81
		69 -- 84
		69 -- 87
		69 -- 89
		69 -- 90
		69 -- 91
		69 -- 92
		69 -- 95
		69 -- 96
		69 -- 97
		69 -- 98
		70 -- 76
		70 -- 74
		70 -- 75
		70 -- 71
		70 -- 79
		70 -- 94
		70 -- 95
		70 -- 97
		70 -- 82
		70 -- 87
		70 -- 99
		70 -- 83
		70 -- 85
		71 -- 72
		71 -- 73
		71 -- 74
		71 -- 76
		71 -- 78
		71 -- 80
		71 -- 83
		71 -- 85
		71 -- 88
		71 -- 90
		71 -- 91
		71 -- 92
		71 -- 94
		71 -- 95
		71 -- 96
		71 -- 97
		71 -- 98
		72 -- 96
		72 -- 81
		72 -- 75
		72 -- 78
		72 -- 82
		72 -- 87
		72 -- 91
		72 -- 80
		72 -- 98
		72 -- 93
		72 -- 83
		73 -- 74
		73 -- 75
		73 -- 76
		73 -- 79
		73 -- 80
		73 -- 81
		73 -- 84
		73 -- 88
		73 -- 94
		73 -- 96
		73 -- 98
		73 -- 99
		74 -- 78
		74 -- 82
		74 -- 83
		74 -- 84
		74 -- 85
		74 -- 87
		74 -- 88
		74 -- 89
		74 -- 91
		74 -- 92
		74 -- 93
		74 -- 95
		74 -- 99
		75 -- 77
		75 -- 78
		75 -- 79
		75 -- 80
		75 -- 81
		75 -- 84
		75 -- 85
		75 -- 86
		75 -- 87
		75 -- 89
		75 -- 91
		75 -- 96
		75 -- 98
		75 -- 99
		76 -- 77
		76 -- 78
		76 -- 83
		76 -- 86
		76 -- 87
		76 -- 88
		76 -- 91
		76 -- 92
		76 -- 95
		76 -- 97
		76 -- 98
		76 -- 99
		77 -- 78
		77 -- 79
		77 -- 80
		77 -- 83
		77 -- 86
		77 -- 87
		77 -- 89
		77 -- 91
		77 -- 94
		77 -- 96
		77 -- 98
		77 -- 99
		78 -- 79
		78 -- 80
		78 -- 81
		78 -- 86
		78 -- 87
		78 -- 89
		78 -- 94
		78 -- 96
		78 -- 97
		79 -- 80
		79 -- 82
		79 -- 84
		79 -- 85
		79 -- 86
		79 -- 88
		79 -- 91
		79 -- 94
		79 -- 95
		79 -- 98
		80 -- 81
		80 -- 82
		80 -- 85
		80 -- 89
		80 -- 91
		80 -- 93
		80 -- 94
		80 -- 95
		80 -- 96
		80 -- 97
		81 -- 82
		81 -- 84
		81 -- 86
		81 -- 87
		81 -- 88
		81 -- 89
		81 -- 90
		81 -- 92
		81 -- 93
		81 -- 95
		81 -- 96
		81 -- 99
		82 -- 84
		82 -- 86
		82 -- 90
		82 -- 91
		82 -- 92
		82 -- 97
		82 -- 99
		83 -- 85
		83 -- 86
		83 -- 87
		83 -- 90
		83 -- 94
		83 -- 96
		83 -- 97
		84 -- 88
		84 -- 89
		84 -- 90
		84 -- 92
		84 -- 93
		84 -- 96
		84 -- 98
		84 -- 99
		85 -- 86
		85 -- 89
		85 -- 90
		85 -- 91
		85 -- 93
		85 -- 94
		85 -- 95
		85 -- 96
		85 -- 98
		86 -- 88
		86 -- 93
		86 -- 99
		87 -- 88
		87 -- 94
		87 -- 95
		87 -- 99
		88 -- 94
		88 -- 95
		88 -- 97
		89 -- 92
		89 -- 94
		89 -- 95
		89 -- 98
		90 -- 93
		90 -- 94
		90 -- 95
		90 -- 98
		90 -- 99
		91 -- 95
		91 -- 97
		91 -- 99
		92 -- 93
		92 -- 94
		92 -- 99
		93 -- 97
		93 -- 98
		94 -- 96
		94 -- 97
		94 -- 98
		95 -- 96
		95 -- 97
		95 -- 99
		96 -- 98
		97 -- 98
		98 -- 99
}