20
129 108
157 103
129 202
205 151
95 131
95 266
215 275
229 27
198 252
272 115
12 41
94 265
92 118
41 23
118 235
230 82
32 131
27 53
3 125
271 9
0 18
1 16
1 2
1 19
1 5
1 11
1 15
2 10
2 4
2 12
2 9
3 9
3 18
3 7
4 13
5 8
5 6
6 14
10 17
