20
180.51951905265705 161.48198666843277
155.32539535812953 90.25882226265144
126.09845736635094 41.97712295154912
216.7354926788166 155.49492843564568
197.43680235053515 190.06171025031855
149.48990811675182 186.2884457817115
210.13224568723092 210.95279251033512
176.1320916931776 179.72964880709543
114.89388970113319 25.110605428358156
162.41218264701894 71.54022091928346
145.81206661117034 209.30738409645303
167.0612110034738 123.17332705526564
162.35642500658548 154.38452811645823
125.96989010809966 187.64799377110532
187.63566375375655 143.22642882193915
237.37461834049003 143.61838516391535
240.32006982614632 161.5058466231045
131.4163642235866 202.54306739844301
197.3669468455966 166.4066723373165
139.05893550632982 64.05143092181441
1 14
1 7
2 4
2 5
2 7
2 11
2 12
2 14
3 19
3 7
4 5
4 7
4 12
4 18
4 15
5 6
5 7
5 8
5 11
5 12
5 14
5 15
6 17
6 18
6 19
6 13
6 14
6 15
7 8
7 10
7 11
7 12
7 15
8 17
8 9
8 12
8 18
8 14
8 15
9 16
9 10
9 12
9 13
10 16
10 18
10 19
10 11
10 12
10 13
10 14
10 15
11 16
11 15
11 18
11 13
12 17
12 13
12 15
13 16
13 18
13 15
15 17
15 18
16 17
17 19
